Group,Participant,Session,Operator,Measure,Value,Unit
CTR,P01,INI,FM,M1,10.341348020623846,%MAX
CTR,P01,INI,FM,M2,14.255945541908915,%MAX
CTR,P01,INI,FM,M3,12.438117960529866,%MAX
CTR,P01,REL,FM,M1,10.255339176283147,%MAX
CTR,P01,REL,FM,M2,15.202701011821373,%MAX
CTR,P01,REL,FM,M3,18.494102298934774,%MAX
CTR,P02,INI,FM,M1,17.316811601922897,%MAX
CTR,P02,INI,FM,M2,25.587675183110715,%MAX
CTR,P02,INI,FM,M3,37.86468195394128,%MAX
CTR,P02,REL,FM,M1,6.693089696124746,%MAX
CTR,P02,REL,FM,M2,6.388014293736788,%MAX
CTR,P02,REL,FM,M3,7.470894314261367,%MAX
CTR,P03,INI,FM,M1,12.98508814632416,%MAX
CTR,P03,INI,FM,M2,10.927143513402134,%MAX
CTR,P03,INI,FM,M3,13.588311117441025,%MAX
CTR,P03,REL,FM,M1,8.593380806883268,%MAX
CTR,P03,REL,FM,M2,8.989077762983818,%MAX
CTR,P03,REL,FM,M3,9.54031244594024,%MAX
CTR,P05,INI,FM,M1,5.612818366111036,%MAX
CTR,P05,INI,FM,M2,8.45232189615443,%MAX
CTR,P05,INI,FM,M3,7.036965769456216,%MAX
CTR,P05,REL,FM,M1,8.695612676610212,%MAX
CTR,P05,REL,FM,M2,7.230185970130012,%MAX
CTR,P05,REL,FM,M3,6.9137912524250185,%MAX
CTR,P06,INI,FM,M1,6.7936077834389215,%MAX
CTR,P06,INI,FM,M2,5.1812845932041585,%MAX
CTR,P06,INI,FM,M3,5.737736318460025,%MAX
CTR,P06,REL,FM,M1,9.874594295835468,%MAX
CTR,P06,REL,FM,M2,10.116551636736734,%MAX
CTR,P06,REL,FM,M3,10.76706604951582,%MAX
CTR,P07,INI,FM,M1,15.948471491908434,%MAX
CTR,P07,INI,FM,M2,19.08091355145899,%MAX
CTR,P07,INI,FM,M3,19.482854266780627,%MAX
CTR,P07,REL,FM,M1,18.981807482299423,%MAX
CTR,P07,REL,FM,M2,14.166506711452904,%MAX
CTR,P07,REL,FM,M3,18.36379623757297,%MAX
CTR,P08,INI,FM,M1,7.997577418009582,%MAX
CTR,P08,INI,FM,M2,13.13846585138561,%MAX
CTR,P08,INI,FM,M3,11.110158902889607,%MAX
CTR,P08,REL,FM,M1,8.823998909356503,%MAX
CTR,P08,REL,FM,M2,8.7469747851786,%MAX
CTR,P08,REL,FM,M3,7.648002117040248,%MAX
CTR,P13,INI,FM,M1,20.036495696645247,%MAX
CTR,P13,INI,FM,M2,20.448496684881565,%MAX
CTR,P13,INI,FM,M3,17.158134521629172,%MAX
CTR,P13,REL,FM,M1,13.222868168679627,%MAX
CTR,P13,REL,FM,M2,11.20060709005572,%MAX
CTR,P13,REL,FM,M3,9.2781287583474,%MAX
CTR,P16,INI,FM,M1,33.34301919363866,%MAX
CTR,P16,INI,FM,M2,33.21325177237237,%MAX
CTR,P16,INI,FM,M3,30.062474499787157,%MAX
CTR,P16,REL,FM,M1,19.546599098772962,%MAX
CTR,P16,REL,FM,M2,27.421401926182757,%MAX
CTR,P16,REL,FM,M3,26.785823132681653,%MAX
CTR,P21,INI,FM,M1,40.61670442581318,%MAX
CTR,P21,INI,FM,M2,29.038298683302727,%MAX
CTR,P21,INI,FM,M3,32.76804176839642,%MAX
CTR,P21,REL,FM,M1,30.561744932119044,%MAX
CTR,P21,REL,FM,M2,33.01974438584965,%MAX
CTR,P21,REL,FM,M3,37.620001259579325,%MAX
CTR,P22,INI,FM,M1,21.782607052160277,%MAX
CTR,P22,INI,FM,M2,22.93640124897448,%MAX
CTR,P22,INI,FM,M3,29.35466683599341,%MAX
CTR,P22,REL,FM,M1,29.280028235540435,%MAX
CTR,P22,REL,FM,M2,52.031560014260876,%MAX
CTR,P22,REL,FM,M3,42.47664220752172,%MAX
CTR,P23,INI,FM,M1,11.023178379392338,%MAX
CTR,P23,INI,FM,M2,12.989913193279767,%MAX
CTR,P23,INI,FM,M3,21.335524876939107,%MAX
CTR,P23,REL,FM,M1,23.210437409303697,%MAX
CTR,P23,REL,FM,M2,39.98589678774388,%MAX
CTR,P23,REL,FM,M3,49.96367703969193,%MAX
CTR,P25,INI,FM,M1,23.998483562634526,%MAX
CTR,P25,INI,FM,M2,43.42360833378514,%MAX
CTR,P25,INI,FM,M3,46.88067123549176,%MAX
CTR,P25,REL,FM,M1,6.229073075016629,%MAX
CTR,P25,REL,FM,M2,31.305675093456053,%MAX
CTR,P25,REL,FM,M3,54.11941071238097,%MAX
CTR,P35,INI,FM,M1,,%MAX
CTR,P35,INI,FM,M2,,%MAX
CTR,P35,INI,FM,M3,,%MAX
CTR,P35,REL,FM,M1,8.786106169787375,%MAX
CTR,P35,REL,FM,M2,8.536334868086012,%MAX
CTR,P35,REL,FM,M3,57.33971144129117,%MAX
CTR,P38,INI,FM,M1,21.587667974405495,%MAX
CTR,P38,INI,FM,M2,24.05461856737477,%MAX
CTR,P38,INI,FM,M3,16.980840114487737,%MAX
CTR,P38,REL,FM,M1,6.648298766953213,%MAX
CTR,P38,REL,FM,M2,7.463906669669124,%MAX
CTR,P38,REL,FM,M3,15.464772823955277,%MAX
CTR,P39,INI,FM,M1,9.645685823729353,%MAX
CTR,P39,INI,FM,M2,14.93094364313434,%MAX
CTR,P39,INI,FM,M3,23.77753567008146,%MAX
CTR,P39,REL,FM,M1,32.82455744098028,%MAX
CTR,P39,REL,FM,M2,26.56686736324744,%MAX
CTR,P39,REL,FM,M3,37.40255349614441,%MAX
CTR,P40,INI,FM,M1,,%MAX
CTR,P40,INI,FM,M2,,%MAX
CTR,P40,INI,FM,M3,,%MAX
CTR,P40,REL,FM,M1,9.240111914804329,%MAX
CTR,P40,REL,FM,M2,10.253538470144159,%MAX
CTR,P40,REL,FM,M3,32.53499748558688,%MAX
CTR,P44,INI,FM,M1,6.218143742389914,%MAX
CTR,P44,INI,FM,M2,5.636928002441329,%MAX
CTR,P44,INI,FM,M3,11.196199394752904,%MAX
CTR,P44,REL,FM,M1,4.503981947326038,%MAX
CTR,P44,REL,FM,M2,3.7506021607088855,%MAX
CTR,P44,REL,FM,M3,23.695524220720863,%MAX
CTR,P46,INI,FM,M1,5.7947573239537,%MAX
CTR,P46,INI,FM,M2,7.2819333756095705,%MAX
CTR,P46,INI,FM,M3,6.509402724627009,%MAX
CTR,P46,REL,FM,M1,6.924795397546557,%MAX
CTR,P46,REL,FM,M2,7.574848007095351,%MAX
CTR,P46,REL,FM,M3,45.212278424084786,%MAX
CTR,P48,INI,FM,M1,14.46883856194428,%MAX
CTR,P48,INI,FM,M2,12.848709363338132,%MAX
CTR,P48,INI,FM,M3,33.24856267613446,%MAX
CTR,P48,REL,FM,M1,12.372214064695642,%MAX
CTR,P48,REL,FM,M2,11.811746435725402,%MAX
CTR,P48,REL,FM,M3,16.52115002351707,%MAX
CTR,P49,INI,FM,M1,7.116428656754256,%MAX
CTR,P49,INI,FM,M2,6.277361637573817,%MAX
CTR,P49,INI,FM,M3,51.4215489746496,%MAX
CTR,P49,REL,FM,M1,10.385616730395027,%MAX
CTR,P49,REL,FM,M2,13.21159453599517,%MAX
CTR,P49,REL,FM,M3,31.979879399933388,%MAX
CTR,P52,INI,FM,M1,25.03391249485712,%MAX
CTR,P52,INI,FM,M2,22.968263017448834,%MAX
CTR,P52,INI,FM,M3,22.043987427811317,%MAX
CTR,P52,REL,FM,M1,51.20579470587404,%MAX
CTR,P52,REL,FM,M2,43.396483041123574,%MAX
CTR,P52,REL,FM,M3,33.154760561979074,%MAX
CTR,P55,INI,FM,M1,29.75573395305537,%MAX
CTR,P55,INI,FM,M2,45.96764412447899,%MAX
CTR,P55,INI,FM,M3,13.944247732618154,%MAX
CTR,P55,REL,FM,M1,19.648981299136455,%MAX
CTR,P55,REL,FM,M2,41.36184201085065,%MAX
CTR,P55,REL,FM,M3,30.813999888136156,%MAX
CTR,P56,INI,FM,M1,19.56261724781381,%MAX
CTR,P56,INI,FM,M2,30.994052317066018,%MAX
CTR,P56,INI,FM,M3,25.57227985016359,%MAX
CTR,P56,REL,FM,M1,19.415562677306237,%MAX
CTR,P56,REL,FM,M2,21.496338340072374,%MAX
CTR,P56,REL,FM,M3,19.908643478879767,%MAX
CTR,P57,INI,FM,M1,27.586043434867072,%MAX
CTR,P57,INI,FM,M2,33.88390607063954,%MAX
CTR,P57,INI,FM,M3,59.80744125302874,%MAX
CTR,P57,REL,FM,M1,38.90906273904823,%MAX
CTR,P57,REL,FM,M2,36.96792950172616,%MAX
CTR,P57,REL,FM,M3,42.166565601261894,%MAX
CTR,P60,INI,FM,M1,19.082197814771067,%MAX
CTR,P60,INI,FM,M2,14.569267787210393,%MAX
CTR,P60,INI,FM,M3,15.149297423076431,%MAX
CTR,P60,REL,FM,M1,23.029580698624205,%MAX
CTR,P60,REL,FM,M2,13.83403179579689,%MAX
CTR,P60,REL,FM,M3,23.202456122319465,%MAX
CTR,P64,INI,FM,M1,45.935427097566446,%MAX
CTR,P64,INI,FM,M2,49.69529176720702,%MAX
CTR,P64,INI,FM,M3,55.57285422056093,%MAX
CTR,P66,INI,FM,M1,,%MAX
CTR,P66,INI,FM,M2,,%MAX
CTR,P66,INI,FM,M3,,%MAX
CTR,P66,REL,FM,M1,,%MAX
CTR,P66,REL,FM,M2,,%MAX
CTR,P66,REL,FM,M3,,%MAX
CTR,P67,INI,FM,M1,25.76406805631802,%MAX
CTR,P67,INI,FM,M2,58.882748253188275,%MAX
CTR,P67,INI,FM,M3,26.594294603775946,%MAX
CTR,P67,REL,FM,M1,11.635443435590393,%MAX
CTR,P67,REL,FM,M2,16.520692106523967,%MAX
CTR,P67,REL,FM,M3,25.794912965445796,%MAX
CTR,P68,REL,FM,M1,25.91584793682146,%MAX
CTR,P68,REL,FM,M2,37.58148166888676,%MAX
CTR,P68,REL,FM,M3,27.305998579719773,%MAX
