Group,Participant,Session,Operator,Measure,Value,Unit
CTR,P01,INI,FM,M1,0.0174465360185711,V
CTR,P01,INI,FM,M2,0.018256610577556,V
CTR,P01,INI,FM,M3,0.0170294207141037,V
CTR,P01,REL,FM,M1,0.0159763311098608,V
CTR,P01,REL,FM,M2,0.0153858631366413,V
CTR,P01,REL,FM,M3,0.0147503135885492,V
CTR,P02,INI,FM,M1,0.0296483247557789,V
CTR,P02,INI,FM,M2,0.030037596923056,V
CTR,P02,INI,FM,M3,0.0352408055050664,V
CTR,P02,REL,FM,M1,0.0297631744787547,V
CTR,P02,REL,FM,M2,0.027376935913972,V
CTR,P02,REL,FM,M3,0.0270610992166096,V
CTR,P03,INI,FM,M1,0.0119612916638364,V
CTR,P03,INI,FM,M2,0.0123321181798113,V
CTR,P03,INI,FM,M3,0.0134879801815327,V
CTR,P03,REL,FM,M1,0.010465043665943,V
CTR,P03,REL,FM,M2,0.0098528028514822,V
CTR,P03,REL,FM,M3,0.0097913876177235,V
CTR,P05,INI,FM,M1,0.0382798548919646,V
CTR,P05,INI,FM,M2,0.0368909981112286,V
CTR,P05,INI,FM,M3,0.0391655723248931,V
CTR,P05,REL,FM,M1,0.0332890130847546,V
CTR,P05,REL,FM,M2,0.0309740439891966,V
CTR,P05,REL,FM,M3,0.0336218733980228,V
CTR,P06,INI,FM,M1,0.0068248179466869,V
CTR,P06,INI,FM,M2,0.0070310888612769,V
CTR,P06,INI,FM,M3,0.0072592988744589,V
CTR,P06,REL,FM,M1,0.006662988624338,V
CTR,P06,REL,FM,M2,0.0070196261865777,V
CTR,P06,REL,FM,M3,0.0072435782528205,V
CTR,P07,INI,FM,M1,0.0490045730246095,V
CTR,P07,INI,FM,M2,0.0525021194652822,V
CTR,P07,INI,FM,M3,0.1282704510024692,V
CTR,P07,REL,FM,M1,0.0553105994418967,V
CTR,P07,REL,FM,M2,0.0550235721067706,V
CTR,P07,REL,FM,M3,0.0602405530444571,V
CTR,P08,INI,FM,M1,0.0230259469320272,V
CTR,P08,INI,FM,M2,0.0554938388951043,V
CTR,P08,INI,FM,M3,0.0747125627626087,V
CTR,P08,REL,FM,M1,0.0129117096215636,V
CTR,P08,REL,FM,M2,0.014563758927852,V
CTR,P08,REL,FM,M3,0.0120610193744196,V
CTR,P13,INI,FM,M1,0.0138533318628822,V
CTR,P13,INI,FM,M2,0.0141731674060108,V
CTR,P13,INI,FM,M3,0.0148995595532723,V
CTR,P13,REL,FM,M1,0.0109905929138611,V
CTR,P13,REL,FM,M2,0.0113231276602508,V
CTR,P13,REL,FM,M3,0.0110005724179435,V
CTR,P16,INI,FM,M1,0.0136677207593601,V
CTR,P16,INI,FM,M2,0.0124080989630998,V
CTR,P16,INI,FM,M3,0.014704924082339,V
CTR,P16,REL,FM,M1,0.013471341109869,V
CTR,P16,REL,FM,M2,0.0128339842141364,V
CTR,P16,REL,FM,M3,0.013479110596482,V
CTR,P21,INI,FM,M1,,V
CTR,P21,INI,FM,M2,,V
CTR,P21,INI,FM,M3,,V
CTR,P21,REL,FM,M1,0.0363571529914487,V
CTR,P21,REL,FM,M2,0.043802375624952,V
CTR,P21,REL,FM,M3,0.0463968135487176,V
CTR,P22,INI,FM,M1,0.0119502748847879,V
CTR,P22,INI,FM,M2,0.0114437223500386,V
CTR,P22,INI,FM,M3,0.0118578235684748,V
CTR,P22,REL,FM,M1,,V
CTR,P22,REL,FM,M2,,V
CTR,P22,REL,FM,M3,,V
CTR,P23,INI,FM,M1,0.0169488630122745,V
CTR,P23,INI,FM,M2,0.0382096663737514,V
CTR,P23,INI,FM,M3,0.0176115375883363,V
CTR,P23,REL,FM,M1,0.0159544667185175,V
CTR,P23,REL,FM,M2,0.0168905005145796,V
CTR,P23,REL,FM,M3,0.0154318017791192,V
CTR,P25,INI,FM,M1,0.0661160020783639,V
CTR,P25,INI,FM,M2,0.0940104322035309,V
CTR,P25,INI,FM,M3,0.115156145582356,V
CTR,P25,REL,FM,M1,0.0461964168750925,V
CTR,P25,REL,FM,M2,0.0430215371007004,V
CTR,P25,REL,FM,M3,0.043777474912265,V
CTR,P35,INI,FM,M1,0.0261601697206541,V
CTR,P35,INI,FM,M2,0.026646392206947,V
CTR,P35,INI,FM,M3,0.0324346070097248,V
CTR,P35,REL,FM,M1,0.0244093567126675,V
CTR,P35,REL,FM,M2,0.0232292376886343,V
CTR,P35,REL,FM,M3,0.0221873714857058,V
CTR,P38,INI,FM,M1,0.0435580491212757,V
CTR,P38,INI,FM,M2,0.0446622171648993,V
CTR,P38,INI,FM,M3,0.0515319643903425,V
CTR,P38,REL,FM,M1,0.0171323973482767,V
CTR,P38,REL,FM,M2,0.0173055937173303,V
CTR,P38,REL,FM,M3,0.0180335721218443,V
CTR,P39,INI,FM,M1,0.0128990077210095,V
CTR,P39,INI,FM,M2,0.0125768068155348,V
CTR,P39,INI,FM,M3,0.0142987197261417,V
CTR,P39,REL,FM,M1,0.013385364611821,V
CTR,P39,REL,FM,M2,0.0131546891004292,V
CTR,P39,REL,FM,M3,0.0141747522420927,V
CTR,P40,INI,FM,M1,0.0374864010139463,V
CTR,P40,INI,FM,M2,0.032356857060914,V
CTR,P40,INI,FM,M3,0.036177156344439,V
CTR,P40,REL,FM,M1,0.0292033062082392,V
CTR,P40,REL,FM,M2,0.0282780680712897,V
CTR,P40,REL,FM,M3,0.0283139064402887,V
CTR,P44,INI,FM,M1,0.157376536206167,V
CTR,P44,INI,FM,M2,0.1068446734182785,V
CTR,P44,INI,FM,M3,0.0857644949781215,V
CTR,P44,REL,FM,M1,0.0168708564564948,V
CTR,P44,REL,FM,M2,0.0171280477426487,V
CTR,P44,REL,FM,M3,0.0198464821771647,V
CTR,P46,INI,FM,M1,0.117949075830669,V
CTR,P46,INI,FM,M2,0.1152300805129135,V
CTR,P46,INI,FM,M3,0.1213215928320607,V
CTR,P46,REL,FM,M1,0.019621888332196,V
CTR,P46,REL,FM,M2,0.0207123446822337,V
CTR,P46,REL,FM,M3,0.0230203836944299,V
CTR,P48,INI,FM,M1,0.0298698203527869,V
CTR,P48,INI,FM,M2,0.0287622751274955,V
CTR,P48,INI,FM,M3,0.0288622224293817,V
CTR,P48,REL,FM,M1,0.0280319724397072,V
CTR,P48,REL,FM,M2,0.0253229426260937,V
CTR,P48,REL,FM,M3,0.0259510729335433,V
CTR,P49,INI,FM,M1,0.0265332185198844,V
CTR,P49,INI,FM,M2,0.0245077505334759,V
CTR,P49,INI,FM,M3,0.0246791727552846,V
CTR,P49,REL,FM,M1,0.0219660438884527,V
CTR,P49,REL,FM,M2,0.0204982436359564,V
CTR,P49,REL,FM,M3,0.024651349817508,V
CTR,P52,INI,FM,M1,0.0354196737444203,V
CTR,P52,INI,FM,M2,0.0397466597360044,V
CTR,P52,INI,FM,M3,0.0362999722230975,V
CTR,P52,REL,FM,M1,0.0405586039484194,V
CTR,P52,REL,FM,M2,0.0478328178522538,V
CTR,P52,REL,FM,M3,0.046248704392171,V
CTR,P55,INI,FM,M1,0.0235891166155426,V
CTR,P55,INI,FM,M2,0.0263714048605142,V
CTR,P55,INI,FM,M3,0.0267732848789661,V
CTR,P55,REL,FM,M1,0.0201391101023899,V
CTR,P55,REL,FM,M2,0.0222504443888902,V
CTR,P55,REL,FM,M3,0.0247346498871269,V
CTR,P56,INI,FM,M1,0.0296809015697002,V
CTR,P56,INI,FM,M2,0.0298413299076977,V
CTR,P56,INI,FM,M3,0.0313932013560859,V
CTR,P56,REL,FM,M1,0.036158562713321,V
CTR,P56,REL,FM,M2,0.0345574217221147,V
CTR,P56,REL,FM,M3,0.033497658683093,V
CTR,P57,INI,FM,M1,,V
CTR,P57,INI,FM,M2,,V
CTR,P57,INI,FM,M3,,V
CTR,P57,REL,FM,M1,0.0110911497398381,V
CTR,P57,REL,FM,M2,0.0109334537799273,V
CTR,P57,REL,FM,M3,0.0110538664856647,V
CTR,P60,INI,FM,M1,0.0179122230532951,V
CTR,P60,INI,FM,M2,,V
CTR,P60,INI,FM,M3,,V
CTR,P60,REL,FM,M1,0.0197264547790865,V
CTR,P60,REL,FM,M2,0.0194783709995196,V
CTR,P60,REL,FM,M3,0.0210971433507573,V
CTR,P64,INI,FM,M1,0.0268922864383257,V
CTR,P64,INI,FM,M2,0.0278959145924244,V
CTR,P64,INI,FM,M3,0.0288268338240497,V
CTR,P64,REL,FM,M1,0.0255841086458437,V
CTR,P64,REL,FM,M2,0.0217219541765397,V
CTR,P64,REL,FM,M3,0.0261592259171471,V
CTR,P66,INI,FM,M1,0.0467655427600411,V
CTR,P66,INI,FM,M2,0.0432349615669251,V
CTR,P66,INI,FM,M3,0.0508097163657069,V
CTR,P66,REL,FM,M1,0.0618044531842437,V
CTR,P66,REL,FM,M2,0.0684614202752233,V
CTR,P66,REL,FM,M3,0.0565095391437475,V
CTR,P67,INI,FM,M1,0.0372528074460096,V
CTR,P67,INI,FM,M2,0.0378840666342544,V
CTR,P67,INI,FM,M3,0.0350424881601106,V
CTR,P67,REL,FM,M1,0.0439889558505007,V
CTR,P67,REL,FM,M2,0.045836736356854,V
CTR,P67,REL,FM,M3,0.0440598564089116,V
CTR,P68,INI,FM,M1,0.0310777214671823,V
CTR,P68,INI,FM,M2,0.0311529387127601,V
CTR,P68,INI,FM,M3,0.0459565029071505,V
CTR,P68,REL,FM,M1,0.0288809232607966,V
CTR,P68,REL,FM,M2,0.0307315869640103,V
CTR,P68,REL,FM,M3,0.0439958874103961,V
