Group,Participant,Session,Operator,Measure,Value,Unit
PAT,P09,INI,FM,M1,12.184150259848069,%MAX
PAT,P09,INI,FM,M2,9.584259745558542,%MAX
PAT,P09,INI,FM,M3,10.650457226017574,%MAX
PAT,P09,REL,FM,M1,10.27683616025703,%MAX
PAT,P09,REL,FM,M2,9.799130298327096,%MAX
PAT,P09,REL,FM,M3,10.75567845302167,%MAX
PAT,P10,INI,FM,M1,4.116658362886933,%MAX
PAT,P10,INI,FM,M2,4.649572673738727,%MAX
PAT,P10,INI,FM,M3,4.23020825674526,%MAX
PAT,P10,REL,FM,M1,5.4660886315128705,%MAX
PAT,P10,REL,FM,M2,5.337519838865012,%MAX
PAT,P10,REL,FM,M3,6.607610417464864,%MAX
PAT,P11,INI,FM,M1,9.307720917778264,%MAX
PAT,P11,INI,FM,M2,8.697720418189965,%MAX
PAT,P11,INI,FM,M3,9.545650739091528,%MAX
PAT,P11,REL,FM,M1,8.224808014208637,%MAX
PAT,P11,REL,FM,M2,5.997678983042331,%MAX
PAT,P11,REL,FM,M3,6.566984988443612,%MAX
PAT,P12,INI,FM,M1,18.4641243603285,%MAX
PAT,P12,INI,FM,M2,15.683079279093082,%MAX
PAT,P12,INI,FM,M3,17.067473102914647,%MAX
PAT,P12,REL,FM,M1,15.623042124934729,%MAX
PAT,P12,REL,FM,M2,17.941388066460153,%MAX
PAT,P12,REL,FM,M3,14.165875142819367,%MAX
PAT,P14,INI,FM,M1,15.609802096522236,%MAX
PAT,P14,INI,FM,M2,15.398786400693709,%MAX
PAT,P14,INI,FM,M3,14.67626679124145,%MAX
PAT,P14,REL,FM,M1,12.842381971051083,%MAX
PAT,P14,REL,FM,M2,15.933719659205725,%MAX
PAT,P14,REL,FM,M3,10.847708335802977,%MAX
PAT,P17,INI,FM,M1,40.234909381670676,%MAX
PAT,P17,INI,FM,M2,31.479379546023978,%MAX
PAT,P17,INI,FM,M3,28.223671740853167,%MAX
PAT,P17,REL,FM,M1,22.952541275696667,%MAX
PAT,P17,REL,FM,M2,36.50093628532473,%MAX
PAT,P17,REL,FM,M3,42.70454081926472,%MAX
PAT,P24,INI,FM,M1,11.984686266369117,%MAX
PAT,P24,INI,FM,M2,12.712485444764118,%MAX
PAT,P24,INI,FM,M3,55.425847257725536,%MAX
PAT,P24,REL,FM,M1,8.687138447054009,%MAX
PAT,P24,REL,FM,M2,9.960978854661905,%MAX
PAT,P24,REL,FM,M3,10.621240113964394,%MAX
PAT,P26,INI,FM,M1,19.09700769923014,%MAX
PAT,P26,INI,FM,M2,17.534999009117993,%MAX
PAT,P26,INI,FM,M3,23.195488919704605,%MAX
PAT,P26,REL,FM,M1,22.637630132324237,%MAX
PAT,P26,REL,FM,M2,18.81440581723143,%MAX
PAT,P26,REL,FM,M3,29.53693130733496,%MAX
PAT,P27,INI,FM,M1,10.02620627526607,%MAX
PAT,P27,INI,FM,M2,11.911551775319746,%MAX
PAT,P27,INI,FM,M3,85.64529559720431,%MAX
PAT,P27,REL,FM,M1,11.98450892201194,%MAX
PAT,P27,REL,FM,M2,12.399195133363351,%MAX
PAT,P27,REL,FM,M3,52.728220299308354,%MAX
PAT,P28,INI,FM,M1,13.209408171642984,%MAX
PAT,P28,INI,FM,M2,19.338389843714207,%MAX
PAT,P28,INI,FM,M3,85.73712123865693,%MAX
PAT,P28,REL,FM,M1,10.089446083842407,%MAX
PAT,P28,REL,FM,M2,10.248655086737559,%MAX
PAT,P28,REL,FM,M3,65.63869642081052,%MAX
PAT,P29,INI,FM,M1,11.602066244560827,%MAX
PAT,P29,INI,FM,M2,16.43496434192262,%MAX
PAT,P29,INI,FM,M3,54.817365089817166,%MAX
PAT,P29,REL,FM,M1,15.31116545729568,%MAX
PAT,P29,REL,FM,M2,15.466556334119053,%MAX
PAT,P29,REL,FM,M3,60.97531298585693,%MAX
PAT,P30,INI,FM,M1,22.619690238066553,%MAX
PAT,P30,INI,FM,M2,23.040503102320997,%MAX
PAT,P30,INI,FM,M3,76.08351466434291,%MAX
PAT,P30,REL,FM,M1,28.01453396040951,%MAX
PAT,P30,REL,FM,M2,48.12382915244479,%MAX
PAT,P30,REL,FM,M3,36.05610936473886,%MAX
PAT,P32,INI,FM,M1,10.642912106937288,%MAX
PAT,P32,INI,FM,M2,13.011846468983274,%MAX
PAT,P32,INI,FM,M3,47.4285328164038,%MAX
PAT,P32,REL,FM,M1,8.100952443844815,%MAX
PAT,P32,REL,FM,M2,24.571356284442746,%MAX
PAT,P32,REL,FM,M3,62.08854120665254,%MAX
PAT,P33,INI,FM,M1,14.162753725212504,%MAX
PAT,P33,INI,FM,M2,11.462292867217826,%MAX
PAT,P33,INI,FM,M3,53.115464016685884,%MAX
PAT,P33,REL,FM,M1,22.221936028743425,%MAX
PAT,P33,REL,FM,M2,26.699293896857103,%MAX
PAT,P33,REL,FM,M3,69.0446118218432,%MAX
PAT,P34,INI,FM,M1,20.96562291925662,%MAX
PAT,P34,INI,FM,M2,22.91203840248692,%MAX
PAT,P34,INI,FM,M3,35.833639119912114,%MAX
PAT,P34,REL,FM,M1,14.954365614962226,%MAX
PAT,P34,REL,FM,M2,15.826163897221468,%MAX
PAT,P34,REL,FM,M3,49.36545030027954,%MAX
PAT,P36,INI,FM,M1,12.201843159519738,%MAX
PAT,P36,INI,FM,M2,14.871208826320641,%MAX
PAT,P36,INI,FM,M3,64.41958692868852,%MAX
PAT,P36,REL,FM,M1,8.03377136314745,%MAX
PAT,P36,REL,FM,M2,8.857962461609466,%MAX
PAT,P36,REL,FM,M3,53.10036617283762,%MAX
PAT,P41,INI,FM,M1,10.948857792883274,%MAX
PAT,P41,INI,FM,M2,10.857183748789152,%MAX
PAT,P41,INI,FM,M3,34.0370867067562,%MAX
PAT,P41,REL,FM,M1,19.127584481398895,%MAX
PAT,P41,REL,FM,M2,16.1644546469255,%MAX
PAT,P41,REL,FM,M3,44.07142508266697,%MAX
PAT,P42,INI,FM,M1,3.8566710047072044,%MAX
PAT,P42,INI,FM,M2,4.935813087298711,%MAX
PAT,P42,INI,FM,M3,5.140436534655329,%MAX
PAT,P42,REL,FM,M1,8.904266575641396,%MAX
PAT,P42,REL,FM,M2,9.82387491693087,%MAX
PAT,P42,REL,FM,M3,69.71495174002273,%MAX
PAT,P43,REL,FM,M1,12.04155758473171,%MAX
PAT,P43,REL,FM,M2,14.770403679186968,%MAX
PAT,P43,REL,FM,M3,59.50627491272996,%MAX
PAT,P45,INI,FM,M1,9.656565206030596,%MAX
PAT,P45,INI,FM,M2,20.05706824043585,%MAX
PAT,P45,INI,FM,M3,61.733948032340734,%MAX
PAT,P45,REL,FM,M1,4.626079139492143,%MAX
PAT,P45,REL,FM,M2,4.977077408631414,%MAX
PAT,P45,REL,FM,M3,6.372245018521987,%MAX
PAT,P47,INI,FM,M1,11.52454631597203,%MAX
PAT,P47,INI,FM,M2,9.847725761857903,%MAX
PAT,P47,INI,FM,M3,9.556742881516964,%MAX
PAT,P47,REL,FM,M1,,%MAX
PAT,P47,REL,FM,M2,,%MAX
PAT,P47,REL,FM,M3,,%MAX
PAT,P50,INI,FM,M1,,%MAX
PAT,P50,INI,FM,M2,,%MAX
PAT,P50,INI,FM,M3,,%MAX
PAT,P50,REL,FM,M1,12.705944111889583,%MAX
PAT,P50,REL,FM,M2,9.299898251702269,%MAX
PAT,P50,REL,FM,M3,8.616008841358969,%MAX
PAT,P51,INI,FM,M1,22.184002021668856,%MAX
PAT,P51,INI,FM,M2,16.24135768804737,%MAX
PAT,P51,INI,FM,M3,18.858265796730773,%MAX
PAT,P51,REL,FM,M1,33.46936757323365,%MAX
PAT,P51,REL,FM,M2,52.08888118709579,%MAX
PAT,P51,REL,FM,M3,43.29084055994434,%MAX
PAT,P53,INI,FM,M1,14.49049264582789,%MAX
PAT,P53,INI,FM,M2,9.550815485630546,%MAX
PAT,P53,INI,FM,M3,10.79411846459536,%MAX
PAT,P53,REL,FM,M1,,%MAX
PAT,P53,REL,FM,M2,,%MAX
PAT,P53,REL,FM,M3,,%MAX
PAT,P58,INI,FM,M1,42.40301217285448,%MAX
PAT,P58,INI,FM,M2,44.283255880306974,%MAX
PAT,P58,INI,FM,M3,53.188579271901574,%MAX
PAT,P58,REL,FM,M1,29.388145419605742,%MAX
PAT,P58,REL,FM,M2,23.725586440334332,%MAX
PAT,P58,REL,FM,M3,27.219790443683955,%MAX
PAT,P61,INI,FM,M1,47.126250547356875,%MAX
PAT,P61,INI,FM,M2,30.374818488961115,%MAX
PAT,P61,INI,FM,M3,47.87306178716369,%MAX
PAT,P61,REL,FM,M1,16.65085110021528,%MAX
PAT,P61,REL,FM,M2,48.759673292199615,%MAX
PAT,P61,REL,FM,M3,50.63696557833078,%MAX
PAT,P62,INI,FM,M1,20.537404631484602,%MAX
PAT,P62,INI,FM,M2,23.80216824977219,%MAX
PAT,P62,INI,FM,M3,34.197571616821,%MAX
PAT,P62,REL,FM,M1,48.66919956852001,%MAX
PAT,P62,REL,FM,M2,93.2742102876638,%MAX
PAT,P62,REL,FM,M3,69.22387979151196,%MAX
PAT,P63,INI,FM,M1,21.072548130870114,%MAX
PAT,P63,INI,FM,M2,50.347187410196675,%MAX
PAT,P63,INI,FM,M3,37.91713366262497,%MAX
PAT,P63,REL,FM,M1,,%MAX
PAT,P63,REL,FM,M2,,%MAX
PAT,P63,REL,FM,M3,,%MAX
PAT,P65,INI,FM,M1,73.52526891106456,%MAX
PAT,P65,INI,FM,M2,58.599110210853965,%MAX
PAT,P65,INI,FM,M3,65.88031271168066,%MAX
