Group,Participant,Session,Operator,Measure,Value,Unit
CTR,P01,INI,FM,M1,33.48452364294376,%subMVIC
CTR,P01,INI,FM,M2,33.85421976031568,%subMVIC
CTR,P01,INI,FM,M3,32.062556283982616,%subMVIC
CTR,P01,REL,FM,M1,28.4281649118272,%subMVIC
CTR,P01,REL,FM,M2,30.980873232642107,%subMVIC
CTR,P01,REL,FM,M3,29.917644272316693,%subMVIC
CTR,P02,INI,FM,M1,20.54981296029646,%subMVIC
CTR,P02,INI,FM,M2,21.365864605463372,%subMVIC
CTR,P02,INI,FM,M3,18.698214898171116,%subMVIC
CTR,P02,REL,FM,M1,42.63487957486571,%subMVIC
CTR,P02,REL,FM,M2,38.43626299177531,%subMVIC
CTR,P02,REL,FM,M3,38.4896436761227,%subMVIC
CTR,P03,INI,FM,M1,38.401754861039564,%subMVIC
CTR,P03,INI,FM,M2,40.56684731140181,%subMVIC
CTR,P03,INI,FM,M3,39.77284044958247,%subMVIC
CTR,P03,REL,FM,M1,26.323226506251302,%subMVIC
CTR,P03,REL,FM,M2,25.19488689485534,%subMVIC
CTR,P03,REL,FM,M3,26.316904434785624,%subMVIC
CTR,P05,INI,FM,M1,14.747359227355062,%subMVIC
CTR,P05,INI,FM,M2,14.694301582055386,%subMVIC
CTR,P05,INI,FM,M3,14.715005088738437,%subMVIC
CTR,P05,REL,FM,M1,26.03037097790474,%subMVIC
CTR,P05,REL,FM,M2,24.495115420427283,%subMVIC
CTR,P05,REL,FM,M3,25.52753870765891,%subMVIC
CTR,P06,INI,FM,M1,80.08646339453027,%subMVIC
CTR,P06,INI,FM,M2,67.1899007633781,%subMVIC
CTR,P06,INI,FM,M3,77.45268890485491,%subMVIC
CTR,P06,REL,FM,M1,89.69205313798405,%subMVIC
CTR,P06,REL,FM,M2,118.841089231098,%subMVIC
CTR,P06,REL,FM,M3,101.30102920267855,%subMVIC
CTR,P07,INI,FM,M1,32.219855113992445,%subMVIC
CTR,P07,INI,FM,M2,37.861451739497916,%subMVIC
CTR,P07,INI,FM,M3,39.241918410885816,%subMVIC
CTR,P07,REL,FM,M1,24.739837336646797,%subMVIC
CTR,P07,REL,FM,M2,31.73431473294187,%subMVIC
CTR,P07,REL,FM,M3,32.8011033911066,%subMVIC
CTR,P08,INI,FM,M1,42.632516267088775,%subMVIC
CTR,P08,INI,FM,M2,44.92838663463475,%subMVIC
CTR,P08,INI,FM,M3,44.386102531282475,%subMVIC
CTR,P08,REL,FM,M1,314.80086527471684,%subMVIC
CTR,P08,REL,FM,M2,310.5976185528837,%subMVIC
CTR,P08,REL,FM,M3,221.82287762631356,%subMVIC
CTR,P13,INI,FM,M1,67.63450604298777,%subMVIC
CTR,P13,INI,FM,M2,73.41196956874128,%subMVIC
CTR,P13,INI,FM,M3,76.27232487335195,%subMVIC
CTR,P13,REL,FM,M1,36.28560874125743,%subMVIC
CTR,P13,REL,FM,M2,41.49042476507161,%subMVIC
CTR,P13,REL,FM,M3,42.93394146554665,%subMVIC
CTR,P16,INI,FM,M1,41.59451153913735,%subMVIC
CTR,P16,INI,FM,M2,43.05419165582782,%subMVIC
CTR,P16,INI,FM,M3,35.34266940116803,%subMVIC
CTR,P16,REL,FM,M1,45.00116748838658,%subMVIC
CTR,P16,REL,FM,M2,42.278368785543606,%subMVIC
CTR,P16,REL,FM,M3,41.01941206680778,%subMVIC
CTR,P21,INI,FM,M1,13.671947392156417,%subMVIC
CTR,P21,INI,FM,M2,13.232213410550216,%subMVIC
CTR,P21,INI,FM,M3,13.527008922445438,%subMVIC
CTR,P21,REL,FM,M1,63.268769355594785,%subMVIC
CTR,P21,REL,FM,M2,33.659336760633494,%subMVIC
CTR,P21,REL,FM,M3,33.557041089525356,%subMVIC
CTR,P22,INI,FM,M1,33.05330704427851,%subMVIC
CTR,P22,INI,FM,M2,36.427487905549114,%subMVIC
CTR,P22,INI,FM,M3,34.80394883516241,%subMVIC
CTR,P22,REL,FM,M1,101.13398363677896,%subMVIC
CTR,P22,REL,FM,M2,91.67661074076202,%subMVIC
CTR,P22,REL,FM,M3,96.4949025245061,%subMVIC
CTR,P23,INI,FM,M1,30.543423641539693,%subMVIC
CTR,P23,INI,FM,M2,34.307250565033506,%subMVIC
CTR,P23,INI,FM,M3,33.68643992852856,%subMVIC
CTR,P23,REL,FM,M1,19.618150423728792,%subMVIC
CTR,P23,REL,FM,M2,15.578931980761617,%subMVIC
CTR,P23,REL,FM,M3,17.971229833092096,%subMVIC
CTR,P25,INI,FM,M1,90.64781207219393,%subMVIC
CTR,P25,INI,FM,M2,90.7080464386181,%subMVIC
CTR,P25,INI,FM,M3,87.11532852818017,%subMVIC
CTR,P25,REL,FM,M1,107.27186875001067,%subMVIC
CTR,P25,REL,FM,M2,72.6395631213167,%subMVIC
CTR,P25,REL,FM,M3,85.53627504219092,%subMVIC
CTR,P35,INI,FM,M1,21.549452971716413,%subMVIC
CTR,P35,INI,FM,M2,17.52372633622356,%subMVIC
CTR,P35,INI,FM,M3,15.994817850210868,%subMVIC
CTR,P35,REL,FM,M1,17.19162138753252,%subMVIC
CTR,P35,REL,FM,M2,16.825238190558377,%subMVIC
CTR,P35,REL,FM,M3,15.92599881894723,%subMVIC
CTR,P38,INI,FM,M1,32.40413121021948,%subMVIC
CTR,P38,INI,FM,M2,32.05446562749264,%subMVIC
CTR,P38,INI,FM,M3,33.8235642917276,%subMVIC
CTR,P38,REL,FM,M1,35.39137011895514,%subMVIC
CTR,P38,REL,FM,M2,30.87856790389171,%subMVIC
CTR,P38,REL,FM,M3,30.938412971841984,%subMVIC
CTR,P39,INI,FM,M1,19.097648118561768,%subMVIC
CTR,P39,INI,FM,M2,19.107888265626617,%subMVIC
CTR,P39,INI,FM,M3,17.77689185634894,%subMVIC
CTR,P39,REL,FM,M1,24.76875249372898,%subMVIC
CTR,P39,REL,FM,M2,25.089085294654478,%subMVIC
CTR,P39,REL,FM,M3,25.502466082534998,%subMVIC
CTR,P40,INI,FM,M1,9.971835688217674,%subMVIC
CTR,P40,INI,FM,M2,9.285501610348609,%subMVIC
CTR,P40,INI,FM,M3,8.921342941131016,%subMVIC
CTR,P40,REL,FM,M1,5.773205671501266,%subMVIC
CTR,P40,REL,FM,M2,7.455731583043243,%subMVIC
CTR,P40,REL,FM,M3,6.396273605695094,%subMVIC
CTR,P44,INI,FM,M1,40.09078228504942,%subMVIC
CTR,P44,INI,FM,M2,23.91334727085993,%subMVIC
CTR,P44,INI,FM,M3,19.878713978894748,%subMVIC
CTR,P44,REL,FM,M1,14.13172187770476,%subMVIC
CTR,P44,REL,FM,M2,15.923081096737585,%subMVIC
CTR,P44,REL,FM,M3,14.72180904665556,%subMVIC
CTR,P46,INI,FM,M1,16.89075791732882,%subMVIC
CTR,P46,INI,FM,M2,20.12675314359693,%subMVIC
CTR,P46,INI,FM,M3,20.52274376210898,%subMVIC
CTR,P46,REL,FM,M1,9.942566891991364,%subMVIC
CTR,P46,REL,FM,M2,9.197162635613276,%subMVIC
CTR,P46,REL,FM,M3,10.437863591420543,%subMVIC
CTR,P48,INI,FM,M1,13.906203635125397,%subMVIC
CTR,P48,INI,FM,M2,16.501065884245218,%subMVIC
CTR,P48,INI,FM,M3,12.387219558119286,%subMVIC
CTR,P48,REL,FM,M1,17.745863514242266,%subMVIC
CTR,P48,REL,FM,M2,17.949307594309918,%subMVIC
CTR,P48,REL,FM,M3,16.728911498238997,%subMVIC
CTR,P49,INI,FM,M1,43.3983984367902,%subMVIC
CTR,P49,INI,FM,M2,48.063885240570734,%subMVIC
CTR,P49,INI,FM,M3,47.598522730956724,%subMVIC
CTR,P49,REL,FM,M1,12.037244514810109,%subMVIC
CTR,P49,REL,FM,M2,12.906113428453384,%subMVIC
CTR,P49,REL,FM,M3,11.63255037437514,%subMVIC
CTR,P52,INI,FM,M1,6.733273336798379,%subMVIC
CTR,P52,INI,FM,M2,6.302215309442264,%subMVIC
CTR,P52,INI,FM,M3,6.7560677528808055,%subMVIC
CTR,P52,REL,FM,M1,9.730079275886391,%subMVIC
CTR,P52,REL,FM,M2,7.624033404831552,%subMVIC
CTR,P52,REL,FM,M3,8.889127833676662,%subMVIC
CTR,P55,INI,FM,M1,18.00530618364186,%subMVIC
CTR,P55,INI,FM,M2,19.439367637310966,%subMVIC
CTR,P55,INI,FM,M3,18.844924450674124,%subMVIC
CTR,P55,REL,FM,M1,15.173441277969554,%subMVIC
CTR,P55,REL,FM,M2,15.276626973528737,%subMVIC
CTR,P55,REL,FM,M3,12.683322731101299,%subMVIC
CTR,P56,INI,FM,M1,36.61076897855871,%subMVIC
CTR,P56,INI,FM,M2,32.42263736065424,%subMVIC
CTR,P56,INI,FM,M3,57.84147669688366,%subMVIC
CTR,P56,REL,FM,M1,28.671006835085745,%subMVIC
CTR,P56,REL,FM,M2,40.64395982647783,%subMVIC
CTR,P56,REL,FM,M3,31.679970071529553,%subMVIC
CTR,P57,INI,FM,M1,9.747563811997749,%subMVIC
CTR,P57,INI,FM,M2,10.582287883790759,%subMVIC
CTR,P57,INI,FM,M3,10.376185377609339,%subMVIC
CTR,P57,REL,FM,M1,20.49810633188517,%subMVIC
CTR,P57,REL,FM,M2,19.180961920760367,%subMVIC
CTR,P57,REL,FM,M3,18.353323899573766,%subMVIC
CTR,P60,INI,FM,M1,9.4236210898244,%subMVIC
CTR,P60,INI,FM,M2,8.30724061317401,%subMVIC
CTR,P60,INI,FM,M3,8.782717742566051,%subMVIC
CTR,P60,REL,FM,M1,21.077636663325993,%subMVIC
CTR,P60,REL,FM,M2,19.462098729975846,%subMVIC
CTR,P60,REL,FM,M3,16.88249808768147,%subMVIC
CTR,P64,INI,FM,M1,15.992844079246645,%subMVIC
CTR,P64,INI,FM,M2,22.46674843890929,%subMVIC
CTR,P64,INI,FM,M3,15.2518010246812,%subMVIC
CTR,P64,REL,FM,M1,10.490677590734236,%subMVIC
CTR,P64,REL,FM,M2,16.541439192686603,%subMVIC
CTR,P64,REL,FM,M3,14.688998756559505,%subMVIC
CTR,P66,INI,FM,M1,25.310431224229195,%subMVIC
CTR,P66,INI,FM,M2,22.440113475547008,%subMVIC
CTR,P66,INI,FM,M3,22.849071892393624,%subMVIC
CTR,P66,REL,FM,M1,23.322635230438063,%subMVIC
CTR,P66,REL,FM,M2,32.585433161622156,%subMVIC
CTR,P66,REL,FM,M3,37.2480964381434,%subMVIC
CTR,P67,INI,FM,M1,8.86472185400798,%subMVIC
CTR,P67,INI,FM,M2,10.954573452252243,%subMVIC
CTR,P67,INI,FM,M3,12.210295808674552,%subMVIC
CTR,P67,REL,FM,M1,9.30364658882495,%subMVIC
CTR,P67,REL,FM,M2,11.948299564796487,%subMVIC
CTR,P67,REL,FM,M3,13.501971353984315,%subMVIC
CTR,P68,INI,FM,M1,52.26583967465894,%subMVIC
CTR,P68,INI,FM,M2,37.008006442219546,%subMVIC
CTR,P68,INI,FM,M3,32.82474898553256,%subMVIC
CTR,P68,REL,FM,M1,40.53437002392925,%subMVIC
CTR,P68,REL,FM,M2,36.409162789597126,%subMVIC
CTR,P68,REL,FM,M3,29.86348009217477,%subMVIC
