Group,Participant,Session,Operator,Measure,Value,Unit
CTR,P01,INI,FM,M1,9.086576971001088,%MAX
CTR,P01,INI,FM,M2,7.147568329260383,%MAX
CTR,P01,INI,FM,M3,9.444302899393621,%MAX
CTR,P01,REL,FM,M1,6.563551308399986,%MAX
CTR,P01,REL,FM,M2,18.24217180115075,%MAX
CTR,P01,REL,FM,M3,7.927593988553089,%MAX
CTR,P02,INI,FM,M1,14.217046759912057,%MAX
CTR,P02,INI,FM,M2,28.0231426871287,%MAX
CTR,P02,INI,FM,M3,39.393540625164846,%MAX
CTR,P02,REL,FM,M1,7.772485169344679,%MAX
CTR,P02,REL,FM,M2,7.840586795868934,%MAX
CTR,P02,REL,FM,M3,8.695157893841104,%MAX
CTR,P03,INI,FM,M1,,%MAX
CTR,P03,INI,FM,M2,,%MAX
CTR,P03,INI,FM,M3,,%MAX
CTR,P03,REL,FM,M1,,%MAX
CTR,P03,REL,FM,M2,,%MAX
CTR,P03,REL,FM,M3,,%MAX
CTR,P05,INI,FM,M1,7.683690283086839,%MAX
CTR,P05,INI,FM,M2,10.077794431187524,%MAX
CTR,P05,INI,FM,M3,8.558568746873538,%MAX
CTR,P05,REL,FM,M1,5.789745602378009,%MAX
CTR,P05,REL,FM,M2,5.741629359908995,%MAX
CTR,P05,REL,FM,M3,6.361923838186027,%MAX
CTR,P06,INI,FM,M1,5.809524447770828,%MAX
CTR,P06,INI,FM,M2,4.509406887515787,%MAX
CTR,P06,INI,FM,M3,6.012751960097588,%MAX
CTR,P06,REL,FM,M1,10.196229404492907,%MAX
CTR,P06,REL,FM,M2,10.51579131644917,%MAX
CTR,P06,REL,FM,M3,10.823971128651433,%MAX
CTR,P07,INI,FM,M1,15.771774562748105,%MAX
CTR,P07,INI,FM,M2,20.108601555090246,%MAX
CTR,P07,INI,FM,M3,18.150126038360913,%MAX
CTR,P07,REL,FM,M1,18.942380690006647,%MAX
CTR,P07,REL,FM,M2,17.86321280399843,%MAX
CTR,P07,REL,FM,M3,20.098674033801778,%MAX
CTR,P08,INI,FM,M1,8.076184699460237,%MAX
CTR,P08,INI,FM,M2,12.429730601828407,%MAX
CTR,P08,INI,FM,M3,10.443322787910635,%MAX
CTR,P08,REL,FM,M1,8.2666663808288,%MAX
CTR,P08,REL,FM,M2,10.829548660652772,%MAX
CTR,P08,REL,FM,M3,8.74804668613215,%MAX
CTR,P13,INI,FM,M1,20.08438197395081,%MAX
CTR,P13,INI,FM,M2,21.179687536522227,%MAX
CTR,P13,INI,FM,M3,18.57516076704562,%MAX
CTR,P13,REL,FM,M1,10.66090812526083,%MAX
CTR,P13,REL,FM,M2,13.473707697284757,%MAX
CTR,P13,REL,FM,M3,12.217738406482551,%MAX
CTR,P16,INI,FM,M1,68.5437695579009,%MAX
CTR,P16,INI,FM,M2,80.1156455779807,%MAX
CTR,P16,INI,FM,M3,65.7002238386039,%MAX
CTR,P16,REL,FM,M1,49.241857175947274,%MAX
CTR,P16,REL,FM,M2,35.43561419098398,%MAX
CTR,P16,REL,FM,M3,49.91020623067911,%MAX
CTR,P21,INI,FM,M1,,%MAX
CTR,P21,INI,FM,M2,,%MAX
CTR,P21,INI,FM,M3,,%MAX
CTR,P21,REL,FM,M1,,%MAX
CTR,P21,REL,FM,M2,,%MAX
CTR,P21,REL,FM,M3,,%MAX
CTR,P22,INI,FM,M1,40.69179678623269,%MAX
CTR,P22,INI,FM,M2,29.821646094053662,%MAX
CTR,P22,INI,FM,M3,42.46297167292536,%MAX
CTR,P22,REL,FM,M1,56.14407917468153,%MAX
CTR,P22,REL,FM,M2,93.93739064840244,%MAX
CTR,P22,REL,FM,M3,90.76389793957804,%MAX
CTR,P23,INI,FM,M1,16.71048771264123,%MAX
CTR,P23,INI,FM,M2,18.54764668079481,%MAX
CTR,P23,INI,FM,M3,28.740058147164554,%MAX
CTR,P23,REL,FM,M1,40.26628020756447,%MAX
CTR,P23,REL,FM,M2,93.4168613115219,%MAX
CTR,P23,REL,FM,M3,95.26428038300936,%MAX
CTR,P25,INI,FM,M1,41.56889948096587,%MAX
CTR,P25,INI,FM,M2,69.023010957978,%MAX
CTR,P25,INI,FM,M3,70.10887316965261,%MAX
CTR,P25,REL,FM,M1,6.951116886007407,%MAX
CTR,P25,REL,FM,M2,61.9850491847044,%MAX
CTR,P25,REL,FM,M3,87.33143361125622,%MAX
CTR,P35,INI,FM,M1,91.46842508521678,%MAX
CTR,P35,INI,FM,M2,6.8703573616127125,%MAX
CTR,P35,INI,FM,M3,100.63260957105526,%MAX
CTR,P35,REL,FM,M1,8.155151387250546,%MAX
CTR,P35,REL,FM,M2,8.30046675283045,%MAX
CTR,P35,REL,FM,M3,70.20201155951902,%MAX
CTR,P38,REL,FM,M1,,%MAX
CTR,P38,REL,FM,M2,,%MAX
CTR,P38,REL,FM,M3,,%MAX
CTR,P39,INI,FM,M1,10.289970954354272,%MAX
CTR,P39,INI,FM,M2,6.876356756512425,%MAX
CTR,P39,INI,FM,M3,5.877912459536737,%MAX
CTR,P39,REL,FM,M1,54.315813371775015,%MAX
CTR,P39,REL,FM,M2,24.934487499222524,%MAX
CTR,P39,REL,FM,M3,13.1861318389553,%MAX
CTR,P40,INI,FM,M1,7.506116870441098,%MAX
CTR,P40,INI,FM,M2,9.900955959654024,%MAX
CTR,P40,INI,FM,M3,85.57830321228168,%MAX
CTR,P40,REL,FM,M1,10.955908194168119,%MAX
CTR,P40,REL,FM,M2,11.434773475304183,%MAX
CTR,P40,REL,FM,M3,51.851648900109275,%MAX
CTR,P44,INI,FM,M1,6.469527212654005,%MAX
CTR,P44,INI,FM,M2,6.983965200156338,%MAX
CTR,P44,INI,FM,M3,103.97951576074944,%MAX
CTR,P44,REL,FM,M1,5.4238572808904895,%MAX
CTR,P44,REL,FM,M2,4.6823961512150305,%MAX
CTR,P44,REL,FM,M3,170.3525412283851,%MAX
CTR,P46,INI,FM,M1,6.616053994086473,%MAX
CTR,P46,INI,FM,M2,5.563876608465035,%MAX
CTR,P46,INI,FM,M3,6.534011361196825,%MAX
CTR,P46,REL,FM,M1,6.559906418164963,%MAX
CTR,P46,REL,FM,M2,6.659266541461977,%MAX
CTR,P46,REL,FM,M3,84.3299364098503,%MAX
CTR,P48,INI,FM,M1,9.369752387741816,%MAX
CTR,P48,INI,FM,M2,10.80149506685108,%MAX
CTR,P48,INI,FM,M3,73.01774594166535,%MAX
CTR,P48,REL,FM,M1,27.126258404364542,%MAX
CTR,P48,REL,FM,M2,11.149583765133873,%MAX
CTR,P48,REL,FM,M3,55.382092555335376,%MAX
CTR,P49,INI,FM,M1,9.040546700804214,%MAX
CTR,P49,INI,FM,M2,8.320553280095192,%MAX
CTR,P49,INI,FM,M3,108.45021238678534,%MAX
CTR,P49,REL,FM,M1,9.145690159458322,%MAX
CTR,P49,REL,FM,M2,14.819184545949213,%MAX
CTR,P49,REL,FM,M3,61.068836847698364,%MAX
CTR,P52,INI,FM,M1,48.96723026028885,%MAX
CTR,P52,INI,FM,M2,42.953786683556736,%MAX
CTR,P52,INI,FM,M3,40.98117026883393,%MAX
CTR,P52,REL,FM,M1,71.91007764110593,%MAX
CTR,P52,REL,FM,M2,97.28974084031557,%MAX
CTR,P52,REL,FM,M3,59.38620924846596,%MAX
CTR,P55,INI,FM,M1,41.04766256095866,%MAX
CTR,P55,INI,FM,M2,54.34816370331904,%MAX
CTR,P55,INI,FM,M3,42.87206402061289,%MAX
CTR,P55,REL,FM,M1,36.426116864306586,%MAX
CTR,P55,REL,FM,M2,80.6260786219536,%MAX
CTR,P55,REL,FM,M3,79.13507426696313,%MAX
CTR,P56,INI,FM,M1,33.99688386887537,%MAX
CTR,P56,INI,FM,M2,61.48032787227582,%MAX
CTR,P56,INI,FM,M3,54.42387026006516,%MAX
CTR,P56,REL,FM,M1,51.42579615629749,%MAX
CTR,P56,REL,FM,M2,58.710390577627784,%MAX
CTR,P56,REL,FM,M3,53.57048004271426,%MAX
CTR,P57,INI,FM,M1,8.909011555159129,%MAX
CTR,P57,INI,FM,M2,63.29593686414743,%MAX
CTR,P57,INI,FM,M3,28.533508581886565,%MAX
CTR,P57,REL,FM,M1,7.323377107526822,%MAX
CTR,P57,REL,FM,M2,37.49504856276696,%MAX
CTR,P57,REL,FM,M3,21.04227421489741,%MAX
CTR,P60,INI,FM,M1,58.84192486797775,%MAX
CTR,P60,INI,FM,M2,57.452254935900896,%MAX
CTR,P60,INI,FM,M3,43.59975540016155,%MAX
CTR,P60,REL,FM,M1,16.95176876134799,%MAX
CTR,P60,REL,FM,M2,37.28787676710482,%MAX
CTR,P60,REL,FM,M3,56.45191564151643,%MAX
CTR,P64,INI,FM,M1,74.83114606900972,%MAX
CTR,P64,INI,FM,M2,77.12093667477879,%MAX
CTR,P64,INI,FM,M3,89.49235042850589,%MAX
CTR,P64,REL,FM,M1,41.66056446656659,%MAX
CTR,P64,REL,FM,M2,55.117330762328585,%MAX
CTR,P64,REL,FM,M3,40.12712645515537,%MAX
CTR,P66,INI,FM,M1,48.496785654829544,%MAX
CTR,P66,INI,FM,M2,82.2281615712592,%MAX
CTR,P66,INI,FM,M3,90.46345785337323,%MAX
CTR,P66,REL,FM,M1,10.588288168829772,%MAX
CTR,P66,REL,FM,M2,8.924666766837419,%MAX
CTR,P66,REL,FM,M3,13.459786827469761,%MAX
CTR,P67,INI,FM,M1,,%MAX
CTR,P67,INI,FM,M2,,%MAX
CTR,P67,INI,FM,M3,,%MAX
CTR,P67,REL,FM,M1,,%MAX
CTR,P67,REL,FM,M2,,%MAX
CTR,P67,REL,FM,M3,,%MAX
CTR,P68,INI,FM,M1,5.8369262881876205,%MAX
CTR,P68,INI,FM,M2,55.794287664602955,%MAX
CTR,P68,INI,FM,M3,119.33286874747057,%MAX
CTR,P68,REL,FM,M1,38.041295218274,%MAX
CTR,P68,REL,FM,M2,53.60224947391612,%MAX
CTR,P68,REL,FM,M3,33.96886865515487,%MAX
