Group,Participant,Session,Operator,Measure,Value,Unit
CTR,P01,INI,FM,M1,0.004392039629313,V
CTR,P01,INI,FM,M2,0.0043132238891052,V
CTR,P01,INI,FM,M3,0.0044017924426091,V
CTR,P01,REL,FM,M1,0.0050549437617564,V
CTR,P01,REL,FM,M2,0.0062614098090491,V
CTR,P01,REL,FM,M3,0.0066095470851743,V
CTR,P02,INI,FM,M1,0.0043534262020265,V
CTR,P02,INI,FM,M2,0.0043071863172085,V
CTR,P02,INI,FM,M3,0.0043232752251749,V
CTR,P02,REL,FM,M1,0.0037417050302175,V
CTR,P02,REL,FM,M2,0.0038421481074913,V
CTR,P02,REL,FM,M3,0.0037660963175867,V
CTR,P03,INI,FM,M1,0.0027409755902934,V
CTR,P03,INI,FM,M2,0.0024666637461261,V
CTR,P03,INI,FM,M3,0.0024894758461191,V
CTR,P03,REL,FM,M1,0.0226413196255436,V
CTR,P03,REL,FM,M2,0.022451129355908,V
CTR,P03,REL,FM,M3,0.0228526685370751,V
CTR,P05,INI,FM,M1,0.0046832432921993,V
CTR,P05,INI,FM,M2,0.0052602098120867,V
CTR,P05,INI,FM,M3,0.0055601617677818,V
CTR,P05,REL,FM,M1,0.0039237836831741,V
CTR,P05,REL,FM,M2,0.0038722714900887,V
CTR,P05,REL,FM,M3,0.005099646010132,V
CTR,P06,INI,FM,M1,0.0015361058785476,V
CTR,P06,INI,FM,M2,0.001601751549832,V
CTR,P06,INI,FM,M3,0.0016723309517917,V
CTR,P06,REL,FM,M1,0.002818144162375,V
CTR,P06,REL,FM,M2,0.002777058678799,V
CTR,P06,REL,FM,M3,0.0028137530388233,V
CTR,P07,INI,FM,M1,0.0211257384842752,V
CTR,P07,INI,FM,M2,0.0209366871650489,V
CTR,P07,INI,FM,M3,0.0197211959542833,V
CTR,P07,REL,FM,M1,0.0208843578539686,V
CTR,P07,REL,FM,M2,0.0211308649674053,V
CTR,P07,REL,FM,M3,0.0209825312816604,V
CTR,P08,INI,FM,M1,0.0026593554033937,V
CTR,P08,INI,FM,M2,0.0026235110571315,V
CTR,P08,INI,FM,M3,0.0027353870990507,V
CTR,P08,REL,FM,M1,0.002450273260005,V
CTR,P08,REL,FM,M2,0.0030325523904936,V
CTR,P08,REL,FM,M3,0.0032841497138329,V
CTR,P13,INI,FM,M1,0.006561052204947,V
CTR,P13,INI,FM,M2,0.0066359240738601,V
CTR,P13,INI,FM,M3,0.0069005909462262,V
CTR,P13,REL,FM,M1,0.0032513527597831,V
CTR,P13,REL,FM,M2,0.0032860141868379,V
CTR,P13,REL,FM,M3,0.0032796851991785,V
CTR,P16,INI,FM,M1,0.0023231253870975,V
CTR,P16,INI,FM,M2,0.0024720880004867,V
CTR,P16,INI,FM,M3,0.0026879417431369,V
CTR,P16,REL,FM,M1,0.0022882579320146,V
CTR,P16,REL,FM,M2,0.0024336531045742,V
CTR,P16,REL,FM,M3,0.0023127870258373,V
CTR,P21,INI,FM,M1,0.0028335536107461,V
CTR,P21,INI,FM,M2,0.0027139826917498,V
CTR,P21,INI,FM,M3,0.0027233254563902,V
CTR,P21,REL,FM,M1,0.1250246506813942,V
CTR,P21,REL,FM,M2,0.0671456339504611,V
CTR,P21,REL,FM,M3,0.0141994380206041,V
CTR,P22,INI,FM,M1,0.0024663924989746,V
CTR,P22,INI,FM,M2,0.0023138250526609,V
CTR,P22,INI,FM,M3,0.002343116335192,V
CTR,P22,REL,FM,M1,0.0031884619454632,V
CTR,P22,REL,FM,M2,0.0030879101128834,V
CTR,P22,REL,FM,M3,0.0031182339128841,V
CTR,P23,INI,FM,M1,0.0036511417419985,V
CTR,P23,INI,FM,M2,0.0034992547370807,V
CTR,P23,INI,FM,M3,0.0034778786190129,V
CTR,P23,REL,FM,M1,0.0022622814003104,V
CTR,P23,REL,FM,M2,0.0022449943063919,V
CTR,P23,REL,FM,M3,0.0025273663023951,V
CTR,P25,INI,FM,M1,0.0033614833960855,V
CTR,P25,INI,FM,M2,0.0026129123538828,V
CTR,P25,INI,FM,M3,0.0046402127340732,V
CTR,P25,REL,FM,M1,0.0023442899864379,V
CTR,P25,REL,FM,M2,0.003391370372861,V
CTR,P25,REL,FM,M3,0.0046706027119479,V
CTR,P35,INI,FM,M1,0.0026816745829722,V
CTR,P35,INI,FM,M2,0.0025366662878399,V
CTR,P35,INI,FM,M3,0.0024914643752931,V
CTR,P35,REL,FM,M1,0.0025579310746837,V
CTR,P35,REL,FM,M2,0.0026150801616394,V
CTR,P35,REL,FM,M3,0.0026447586339881,V
CTR,P38,INI,FM,M1,0.0175640229679819,V
CTR,P38,INI,FM,M2,0.0158722631385609,V
CTR,P38,INI,FM,M3,0.0160936696089304,V
CTR,P38,REL,FM,M1,0.0080722664614383,V
CTR,P38,REL,FM,M2,0.0077723212201618,V
CTR,P38,REL,FM,M3,0.0077247662926483,V
CTR,P39,INI,FM,M1,0.0024950792782438,V
CTR,P39,INI,FM,M2,0.0028149499185409,V
CTR,P39,INI,FM,M3,0.0034868382551191,V
CTR,P39,REL,FM,M1,0.0032849389081426,V
CTR,P39,REL,FM,M2,0.0033952807169522,V
CTR,P39,REL,FM,M3,0.0038652037432615,V
CTR,P40,INI,FM,M1,0.0029010480821775,V
CTR,P40,INI,FM,M2,0.0028981653396805,V
CTR,P40,INI,FM,M3,0.0029383966907734,V
CTR,P40,REL,FM,M1,0.0017478033753056,V
CTR,P40,REL,FM,M2,0.0020586113453861,V
CTR,P40,REL,FM,M3,0.0020426114825732,V
CTR,P44,INI,FM,M1,0.0026699215987685,V
CTR,P44,INI,FM,M2,0.0026890972592097,V
CTR,P44,INI,FM,M3,0.0027875853867015,V
CTR,P44,REL,FM,M1,0.0029162227491713,V
CTR,P44,REL,FM,M2,0.0028758880581717,V
CTR,P44,REL,FM,M3,0.0029303523828819,V
CTR,P46,INI,FM,M1,0.0028904339909116,V
CTR,P46,INI,FM,M2,0.0030241910791624,V
CTR,P46,INI,FM,M3,0.0029529703467704,V
CTR,P46,REL,FM,M1,0.001833374628876,V
CTR,P46,REL,FM,M2,0.0019174502270395,V
CTR,P46,REL,FM,M3,0.0019509933961859,V
CTR,P48,INI,FM,M1,0.0090083193944272,V
CTR,P48,INI,FM,M2,0.0059338620516491,V
CTR,P48,INI,FM,M3,0.0064721839186049,V
CTR,P48,REL,FM,M1,0.0051059441182579,V
CTR,P48,REL,FM,M2,0.0039198198117728,V
CTR,P48,REL,FM,M3,0.0042200572795052,V
CTR,P49,INI,FM,M1,0.0036028390481607,V
CTR,P49,INI,FM,M2,0.0038303675923816,V
CTR,P49,INI,FM,M3,0.0041116757327564,V
CTR,P49,REL,FM,M1,0.0034125151961838,V
CTR,P49,REL,FM,M2,0.0044549575190058,V
CTR,P49,REL,FM,M3,0.0046338082059637,V
CTR,P52,INI,FM,M1,0.0042842069567057,V
CTR,P52,INI,FM,M2,0.0038359018596014,V
CTR,P52,INI,FM,M3,0.0036930426424357,V
CTR,P52,REL,FM,M1,0.0071321358406564,V
CTR,P52,REL,FM,M2,0.0079994373730899,V
CTR,P52,REL,FM,M3,0.0064291542707834,V
CTR,P55,INI,FM,M1,0.0024296850171505,V
CTR,P55,INI,FM,M2,0.0023780473149092,V
CTR,P55,INI,FM,M3,0.0026085566305242,V
CTR,P55,REL,FM,M1,0.0017210592919471,V
CTR,P55,REL,FM,M2,0.0017935090513603,V
CTR,P55,REL,FM,M3,0.0017909115218231,V
CTR,P56,INI,FM,M1,0.0030842399160789,V
CTR,P56,INI,FM,M2,0.0030768336006893,V
CTR,P56,INI,FM,M3,0.0030447781659716,V
CTR,P56,REL,FM,M1,0.006183332524483,V
CTR,P56,REL,FM,M2,0.0062547002647134,V
CTR,P56,REL,FM,M3,0.0054268257215744,V
CTR,P57,INI,FM,M1,0.0083154245841425,V
CTR,P57,INI,FM,M2,0.0040286834148865,V
CTR,P57,INI,FM,M3,0.0040024388307811,V
CTR,P57,REL,FM,M1,0.0030859548794661,V
CTR,P57,REL,FM,M2,0.0030110626775331,V
CTR,P57,REL,FM,M3,0.0059878518291023,V
CTR,P60,INI,FM,M1,0.0069755608483763,V
CTR,P60,INI,FM,M2,0.0060648104158219,V
CTR,P60,INI,FM,M3,0.0064437903699185,V
CTR,P60,REL,FM,M1,0.0030038437562379,V
CTR,P60,REL,FM,M2,0.0030089898963524,V
CTR,P60,REL,FM,M3,0.0029251206737939,V
CTR,P64,INI,FM,M1,0.0020394066730117,V
CTR,P64,INI,FM,M2,0.0020088198910142,V
CTR,P64,INI,FM,M3,0.0020082753414744,V
CTR,P64,REL,FM,M1,0.0020513715414076,V
CTR,P64,REL,FM,M2,0.002050485858932,V
CTR,P64,REL,FM,M3,0.0020591691418203,V
CTR,P66,INI,FM,M1,0.0022657039146651,V
CTR,P66,INI,FM,M2,0.0023135336435528,V
CTR,P66,INI,FM,M3,0.002266883798535,V
CTR,P66,REL,FM,M1,0.0022036979523258,V
CTR,P66,REL,FM,M2,0.0022769805315391,V
CTR,P66,REL,FM,M3,0.0022593121928869,V
CTR,P67,INI,FM,M1,0.0048965512851249,V
CTR,P67,INI,FM,M2,0.0042570950319335,V
CTR,P67,INI,FM,M3,0.0045523319091815,V
CTR,P67,REL,FM,M1,0.0148795526977224,V
CTR,P67,REL,FM,M2,0.0208991100458595,V
CTR,P67,REL,FM,M3,0.0196096663397227,V
CTR,P68,INI,FM,M1,0.0034162517283011,V
CTR,P68,INI,FM,M2,0.0037917415432429,V
CTR,P68,INI,FM,M3,0.0036711550070537,V
CTR,P68,REL,FM,M1,0.0030359998337038,V
CTR,P68,REL,FM,M2,0.0029035179304444,V
CTR,P68,REL,FM,M3,0.0029622980950407,V
