Group,Participant,Session,Operator,Measure,Value,Unit
CTR,P01,INI,FM,M1,20.88084323236758,%MAX
CTR,P01,INI,FM,M2,25.618720714740167,%MAX
CTR,P01,INI,FM,M3,28.707988159442223,%MAX
CTR,P01,REL,FM,M1,23.39632134862808,%MAX
CTR,P01,REL,FM,M2,20.110837912076317,%MAX
CTR,P01,REL,FM,M3,20.538691924273238,%MAX
CTR,P02,INI,FM,M1,10.483532753957606,%MAX
CTR,P02,INI,FM,M2,11.143080855382367,%MAX
CTR,P02,INI,FM,M3,11.525581634452111,%MAX
CTR,P02,REL,FM,M1,21.532375473893072,%MAX
CTR,P02,REL,FM,M2,20.468004815020958,%MAX
CTR,P02,REL,FM,M3,17.568401217058515,%MAX
CTR,P03,INI,FM,M1,21.37186172276705,%MAX
CTR,P03,INI,FM,M2,17.093156536247466,%MAX
CTR,P03,INI,FM,M3,21.799101326636634,%MAX
CTR,P03,REL,FM,M1,21.555661872410322,%MAX
CTR,P03,REL,FM,M2,17.28984449354167,%MAX
CTR,P03,REL,FM,M3,15.418028541051646,%MAX
CTR,P05,INI,FM,M1,19.50523835880109,%MAX
CTR,P05,INI,FM,M2,21.466820122340483,%MAX
CTR,P05,INI,FM,M3,20.15479032630759,%MAX
CTR,P05,REL,FM,M1,22.322021957189154,%MAX
CTR,P05,REL,FM,M2,24.31164855839325,%MAX
CTR,P05,REL,FM,M3,25.663847161121918,%MAX
CTR,P06,INI,FM,M1,17.321523154364673,%MAX
CTR,P06,INI,FM,M2,12.585929917700176,%MAX
CTR,P06,INI,FM,M3,9.621401851953381,%MAX
CTR,P06,REL,FM,M1,13.468450184901629,%MAX
CTR,P06,REL,FM,M2,11.926321849000237,%MAX
CTR,P06,REL,FM,M3,9.918530675176845,%MAX
CTR,P07,INI,FM,M1,18.795251536440606,%MAX
CTR,P07,INI,FM,M2,18.416729611865264,%MAX
CTR,P07,INI,FM,M3,21.942078100894854,%MAX
CTR,P07,REL,FM,M1,17.433068426784168,%MAX
CTR,P07,REL,FM,M2,21.08992262184861,%MAX
CTR,P07,REL,FM,M3,25.5696263287376,%MAX
CTR,P08,INI,FM,M1,25.043052210546577,%MAX
CTR,P08,INI,FM,M2,32.009538847934536,%MAX
CTR,P08,INI,FM,M3,35.47668532401569,%MAX
CTR,P08,REL,FM,M1,4.312974095743147,%MAX
CTR,P08,REL,FM,M2,44.38445139779402,%MAX
CTR,P08,REL,FM,M3,7.338350282989123,%MAX
CTR,P13,INI,FM,M1,17.97466995802486,%MAX
CTR,P13,INI,FM,M2,14.71118448692571,%MAX
CTR,P13,INI,FM,M3,13.963658568344178,%MAX
CTR,P13,REL,FM,M1,17.223382332227853,%MAX
CTR,P13,REL,FM,M2,13.835914031850372,%MAX
CTR,P13,REL,FM,M3,12.268678339765149,%MAX
CTR,P16,INI,FM,M1,40.35840919980673,%MAX
CTR,P16,INI,FM,M2,41.19388847238889,%MAX
CTR,P16,INI,FM,M3,43.24943614967208,%MAX
CTR,P16,REL,FM,M1,42.12453134971062,%MAX
CTR,P16,REL,FM,M2,39.523874630203096,%MAX
CTR,P16,REL,FM,M3,36.70746754140448,%MAX
CTR,P21,INI,FM,M1,45.1372407804001,%MAX
CTR,P21,INI,FM,M2,52.03333952193493,%MAX
CTR,P21,INI,FM,M3,59.825805399369735,%MAX
CTR,P21,REL,FM,M1,8.76023161010745,%MAX
CTR,P21,REL,FM,M2,8.821981815896507,%MAX
CTR,P21,REL,FM,M3,11.683294621325437,%MAX
CTR,P22,INI,FM,M1,21.861360025495102,%MAX
CTR,P22,INI,FM,M2,18.239720128444407,%MAX
CTR,P22,INI,FM,M3,21.61070333263182,%MAX
CTR,P22,REL,FM,M1,16.401817473722588,%MAX
CTR,P22,REL,FM,M2,18.303437496830163,%MAX
CTR,P22,REL,FM,M3,14.032301634320405,%MAX
CTR,P23,INI,FM,M1,34.51336220488924,%MAX
CTR,P23,INI,FM,M2,26.997497101010232,%MAX
CTR,P23,INI,FM,M3,31.54567814743993,%MAX
CTR,P23,REL,FM,M1,40.94146094452812,%MAX
CTR,P23,REL,FM,M2,108.2679654166614,%MAX
CTR,P23,REL,FM,M3,66.23060150393573,%MAX
CTR,P25,INI,FM,M1,26.97257160953616,%MAX
CTR,P25,INI,FM,M2,40.10627699362423,%MAX
CTR,P25,INI,FM,M3,27.183371660747767,%MAX
CTR,P25,REL,FM,M1,20.062040660929444,%MAX
CTR,P25,REL,FM,M2,40.86192465027174,%MAX
CTR,P25,REL,FM,M3,43.42122047581574,%MAX
CTR,P35,INI,FM,M1,47.66439449359382,%MAX
CTR,P35,INI,FM,M2,13.651223567723815,%MAX
CTR,P35,INI,FM,M3,81.38840163725484,%MAX
CTR,P35,REL,FM,M1,19.03118958484183,%MAX
CTR,P35,REL,FM,M2,15.836896198760632,%MAX
CTR,P35,REL,FM,M3,112.90734411649707,%MAX
CTR,P38,INI,FM,M1,18.954173207326193,%MAX
CTR,P38,INI,FM,M2,18.204720425516683,%MAX
CTR,P38,INI,FM,M3,22.63948182731509,%MAX
CTR,P38,REL,FM,M1,23.004679533377505,%MAX
CTR,P38,REL,FM,M2,18.82994529547899,%MAX
CTR,P38,REL,FM,M3,24.61827096364948,%MAX
CTR,P39,INI,FM,M1,16.82756305685953,%MAX
CTR,P39,INI,FM,M2,21.082822581710605,%MAX
CTR,P39,INI,FM,M3,61.797507915778404,%MAX
CTR,P39,REL,FM,M1,33.29268907789444,%MAX
CTR,P39,REL,FM,M2,29.5522806554586,%MAX
CTR,P39,REL,FM,M3,31.31410531595892,%MAX
CTR,P40,INI,FM,M1,15.372231910887963,%MAX
CTR,P40,INI,FM,M2,12.84444791217417,%MAX
CTR,P40,INI,FM,M3,100.65250069296586,%MAX
CTR,P40,REL,FM,M1,11.316878168074682,%MAX
CTR,P40,REL,FM,M2,11.260817602535377,%MAX
CTR,P40,REL,FM,M3,107.48261353307214,%MAX
CTR,P44,INI,FM,M1,26.56450985203245,%MAX
CTR,P44,INI,FM,M2,10.699902059831315,%MAX
CTR,P44,INI,FM,M3,23.828390208725548,%MAX
CTR,P44,REL,FM,M1,15.236264595752889,%MAX
CTR,P44,REL,FM,M2,12.45368891342765,%MAX
CTR,P44,REL,FM,M3,78.76604599547144,%MAX
CTR,P46,INI,FM,M1,9.229131668928815,%MAX
CTR,P46,INI,FM,M2,8.089365147272487,%MAX
CTR,P46,INI,FM,M3,8.631988123304334,%MAX
CTR,P46,REL,FM,M1,13.76766543437828,%MAX
CTR,P46,REL,FM,M2,17.811629768675616,%MAX
CTR,P46,REL,FM,M3,72.65076187177267,%MAX
CTR,P48,INI,FM,M1,18.849655668512835,%MAX
CTR,P48,INI,FM,M2,21.294798595858378,%MAX
CTR,P48,INI,FM,M3,92.00789130348707,%MAX
CTR,P48,REL,FM,M1,27.496013145820736,%MAX
CTR,P48,REL,FM,M2,11.676239901276455,%MAX
CTR,P48,REL,FM,M3,61.931564372197904,%MAX
CTR,P49,INI,FM,M1,25.269117359150442,%MAX
CTR,P49,INI,FM,M2,37.7099718264437,%MAX
CTR,P49,INI,FM,M3,65.16461363634436,%MAX
CTR,P49,REL,FM,M1,20.51088417557211,%MAX
CTR,P49,REL,FM,M2,30.097559901289163,%MAX
CTR,P49,REL,FM,M3,72.55189748902959,%MAX
CTR,P52,INI,FM,M1,40.825080130727805,%MAX
CTR,P52,INI,FM,M2,44.463474046127224,%MAX
CTR,P52,INI,FM,M3,35.28079557766798,%MAX
CTR,P52,REL,FM,M1,37.068120928330444,%MAX
CTR,P52,REL,FM,M2,57.34668738064521,%MAX
CTR,P52,REL,FM,M3,62.00536652701061,%MAX
CTR,P55,INI,FM,M1,60.506276875046474,%MAX
CTR,P55,INI,FM,M2,118.39695112202473,%MAX
CTR,P55,INI,FM,M3,103.3384028071064,%MAX
CTR,P55,REL,FM,M1,47.17943496143105,%MAX
CTR,P55,REL,FM,M2,70.84067211168733,%MAX
CTR,P55,REL,FM,M3,142.07812595132697,%MAX
CTR,P56,INI,FM,M1,41.52943003903189,%MAX
CTR,P56,INI,FM,M2,47.13084739496763,%MAX
CTR,P56,INI,FM,M3,56.8117339498584,%MAX
CTR,P56,REL,FM,M1,53.028035770248074,%MAX
CTR,P56,REL,FM,M2,45.48090324406544,%MAX
CTR,P56,REL,FM,M3,44.38265205317796,%MAX
CTR,P57,INI,FM,M1,55.07283117455994,%MAX
CTR,P57,INI,FM,M2,50.7689450866864,%MAX
CTR,P57,INI,FM,M3,57.235976005902856,%MAX
CTR,P57,REL,FM,M1,50.09000420266594,%MAX
CTR,P57,REL,FM,M2,54.710288995408334,%MAX
CTR,P57,REL,FM,M3,79.87540682519784,%MAX
CTR,P60,INI,FM,M1,62.55390280757706,%MAX
CTR,P60,INI,FM,M2,61.03598240360005,%MAX
CTR,P60,INI,FM,M3,64.28632600427058,%MAX
CTR,P60,REL,FM,M1,14.464833754284387,%MAX
CTR,P60,REL,FM,M2,70.17534865686532,%MAX
CTR,P60,REL,FM,M3,67.49779043081743,%MAX
CTR,P64,INI,FM,M1,39.05181335070643,%MAX
CTR,P64,INI,FM,M2,48.41834304584283,%MAX
CTR,P64,INI,FM,M3,77.72702912756102,%MAX
CTR,P64,REL,FM,M1,55.77708904870847,%MAX
CTR,P64,REL,FM,M2,38.35561485849523,%MAX
CTR,P64,REL,FM,M3,43.82418307053705,%MAX
CTR,P66,INI,FM,M1,37.60602599174251,%MAX
CTR,P66,INI,FM,M2,64.504670768097,%MAX
CTR,P66,INI,FM,M3,70.2339865704085,%MAX
CTR,P66,REL,FM,M1,28.005817868484215,%MAX
CTR,P66,REL,FM,M2,22.955843826741557,%MAX
CTR,P66,REL,FM,M3,15.258881646612055,%MAX
CTR,P67,INI,FM,M1,77.3552728754009,%MAX
CTR,P67,INI,FM,M2,113.56063408593555,%MAX
CTR,P67,INI,FM,M3,77.18773153905484,%MAX
CTR,P67,REL,FM,M1,86.50488269605692,%MAX
CTR,P67,REL,FM,M2,77.630933181015,%MAX
CTR,P67,REL,FM,M3,80.71807889458009,%MAX
CTR,P68,INI,FM,M1,20.519786438298798,%MAX
CTR,P68,INI,FM,M2,42.46117186314002,%MAX
CTR,P68,INI,FM,M3,36.71946848027354,%MAX
CTR,P68,REL,FM,M1,39.70634215150816,%MAX
CTR,P68,REL,FM,M2,44.27182199735473,%MAX
CTR,P68,REL,FM,M3,25.587146096282996,%MAX
