Group,Participant,Session,Operator,Measure,Value,Unit
PAT,P09,INI,FM,M1,0.0079305444841184,V
PAT,P09,INI,FM,M2,0.008183693409638,V
PAT,P09,INI,FM,M3,0.0079369861770771,V
PAT,P09,REL,FM,M1,0.0076369226413197,V
PAT,P09,REL,FM,M2,0.0073025288470253,V
PAT,P09,REL,FM,M3,0.0080394024299383,V
PAT,P10,INI,FM,M1,0.0027913522474567,V
PAT,P10,INI,FM,M2,0.0027811518749221,V
PAT,P10,INI,FM,M3,0.0028197631489251,V
PAT,P10,REL,FM,M1,0.0034681508190065,V
PAT,P10,REL,FM,M2,0.0035169523601097,V
PAT,P10,REL,FM,M3,0.003820055069484,V
PAT,P11,INI,FM,M1,0.0067517501053615,V
PAT,P11,INI,FM,M2,0.0066417896147756,V
PAT,P11,INI,FM,M3,0.0062831079531946,V
PAT,P11,REL,FM,M1,0.004473667600385,V
PAT,P11,REL,FM,M2,0.0042759334389138,V
PAT,P11,REL,FM,M3,0.0052888539868615,V
PAT,P12,INI,FM,M1,0.0064307385595786,V
PAT,P12,INI,FM,M2,0.0066255320219599,V
PAT,P12,INI,FM,M3,0.0068425464271797,V
PAT,P12,REL,FM,M1,0.0030173775210939,V
PAT,P12,REL,FM,M2,0.006007780458338,V
PAT,P12,REL,FM,M3,0.0056958640205571,V
PAT,P14,INI,FM,M1,0.0038264006975803,V
PAT,P14,INI,FM,M2,0.0037839388771616,V
PAT,P14,INI,FM,M3,0.0038321198406456,V
PAT,P14,REL,FM,M1,0.0093959665473977,V
PAT,P14,REL,FM,M2,0.0101761126278413,V
PAT,P14,REL,FM,M3,0.0094404807649325,V
PAT,P17,INI,FM,M1,0.0044917733819908,V
PAT,P17,INI,FM,M2,0.004383594883043,V
PAT,P17,INI,FM,M3,0.0041016820296552,V
PAT,P17,REL,FM,M1,0.0047250504331276,V
PAT,P17,REL,FM,M2,0.0048523252183709,V
PAT,P17,REL,FM,M3,0.0043174207140794,V
PAT,P24,INI,FM,M1,0.0112722005373146,V
PAT,P24,INI,FM,M2,0.0104213236326196,V
PAT,P24,INI,FM,M3,0.0103334952963919,V
PAT,P24,REL,FM,M1,0.0125207543870966,V
PAT,P24,REL,FM,M2,0.0119139924801697,V
PAT,P24,REL,FM,M3,0.0120147100881126,V
PAT,P26,INI,FM,M1,0.0026363947853601,V
PAT,P26,INI,FM,M2,0.0025746527332856,V
PAT,P26,INI,FM,M3,0.0025521130344769,V
PAT,P26,REL,FM,M1,0.0025699347324616,V
PAT,P26,REL,FM,M2,0.0025933694736752,V
PAT,P26,REL,FM,M3,0.0025695276692497,V
PAT,P27,INI,FM,M1,0.0027969693332003,V
PAT,P27,INI,FM,M2,0.0028082400651437,V
PAT,P27,INI,FM,M3,0.0028457306711086,V
PAT,P27,REL,FM,M1,0.0028066135536067,V
PAT,P27,REL,FM,M2,0.0028391867052139,V
PAT,P27,REL,FM,M3,0.0027934761872079,V
PAT,P28,INI,FM,M1,0.002739913248158,V
PAT,P28,INI,FM,M2,0.0029728319463076,V
PAT,P28,INI,FM,M3,0.0027907455670884,V
PAT,P28,REL,FM,M1,0.0022959100847221,V
PAT,P28,REL,FM,M2,0.0023383129723231,V
PAT,P28,REL,FM,M3,0.0024903443049474,V
PAT,P29,INI,FM,M1,0.0052280975317419,V
PAT,P29,INI,FM,M2,0.0061488830438453,V
PAT,P29,INI,FM,M3,0.007629179021165,V
PAT,P29,REL,FM,M1,0.0037009047306491,V
PAT,P29,REL,FM,M2,0.0058060301899577,V
PAT,P29,REL,FM,M3,0.0064316457648953,V
PAT,P30,INI,FM,M1,0.0041087181786865,V
PAT,P30,INI,FM,M2,0.0043257691574835,V
PAT,P30,INI,FM,M3,0.0044122723095212,V
PAT,P30,REL,FM,M1,0.0026996877320936,V
PAT,P30,REL,FM,M2,0.0030032775529199,V
PAT,P30,REL,FM,M3,0.0037686266436204,V
PAT,P32,INI,FM,M1,0.0036254021359208,V
PAT,P32,INI,FM,M2,0.0037001470480249,V
PAT,P32,INI,FM,M3,0.0037367824494543,V
PAT,P32,REL,FM,M1,0.0024680580666345,V
PAT,P32,REL,FM,M2,0.0025496365948601,V
PAT,P32,REL,FM,M3,0.0025633806186965,V
PAT,P33,INI,FM,M1,0.0064721295707749,V
PAT,P33,INI,FM,M2,0.0064103112216417,V
PAT,P33,INI,FM,M3,0.006666791169033,V
PAT,P33,REL,FM,M1,0.0035615164788421,V
PAT,P33,REL,FM,M2,0.0035129366538878,V
PAT,P33,REL,FM,M3,0.0035995595896916,V
PAT,P34,INI,FM,M1,0.0032511466491924,V
PAT,P34,INI,FM,M2,0.0033833149798458,V
PAT,P34,INI,FM,M3,0.0033766366766964,V
PAT,P34,REL,FM,M1,0.0025866644369886,V
PAT,P34,REL,FM,M2,0.0026493521668083,V
PAT,P34,REL,FM,M3,0.0027056685582248,V
PAT,P36,INI,FM,M1,0.0025736530469371,V
PAT,P36,INI,FM,M2,0.0025991793736256,V
PAT,P36,INI,FM,M3,0.0025009680438301,V
PAT,P36,REL,FM,M1,0.0030926224252778,V
PAT,P36,REL,FM,M2,0.0031161945151074,V
PAT,P36,REL,FM,M3,0.0030175332898634,V
PAT,P41,INI,FM,M1,0.0034130054717394,V
PAT,P41,INI,FM,M2,0.0028878131458096,V
PAT,P41,INI,FM,M3,0.0029491671941633,V
PAT,P41,REL,FM,M1,0.00270880933357,V
PAT,P41,REL,FM,M2,0.0025995860193269,V
PAT,P41,REL,FM,M3,0.0026003588642088,V
PAT,P42,INI,FM,M1,0.0038490118477747,V
PAT,P42,INI,FM,M2,0.0039482317839898,V
PAT,P42,INI,FM,M3,0.0037967587902668,V
PAT,P42,REL,FM,M1,0.0034839076639231,V
PAT,P42,REL,FM,M2,0.0032866267614832,V
PAT,P42,REL,FM,M3,0.0032776619461988,V
PAT,P43,INI,FM,M1,0.002851073028427,V
PAT,P43,INI,FM,M2,0.0027722348979841,V
PAT,P43,INI,FM,M3,0.0027148915287031,V
PAT,P43,REL,FM,M1,0.0027437848394202,V
PAT,P43,REL,FM,M2,0.002980275156592,V
PAT,P43,REL,FM,M3,0.0029564714010329,V
PAT,P45,INI,FM,M1,0.0013730462267086,V
PAT,P45,INI,FM,M2,0.0014748107901235,V
PAT,P45,INI,FM,M3,0.0015934284169932,V
PAT,P45,REL,FM,M1,0.0011115360659516,V
PAT,P45,REL,FM,M2,0.0011108251338516,V
PAT,P45,REL,FM,M3,0.0011316498384184,V
PAT,P47,INI,FM,M1,0.0025695508855091,V
PAT,P47,INI,FM,M2,0.0026690856843705,V
PAT,P47,INI,FM,M3,0.0027100469569536,V
PAT,P47,REL,FM,M1,0.0025855378370732,V
PAT,P47,REL,FM,M2,0.0025144685250223,V
PAT,P47,REL,FM,M3,0.0025802470036065,V
PAT,P50,INI,FM,M1,0.010874198515083,V
PAT,P50,INI,FM,M2,0.0111678922398844,V
PAT,P50,INI,FM,M3,0.0116054873621534,V
PAT,P50,REL,FM,M1,0.0160561633345726,V
PAT,P50,REL,FM,M2,0.0147746961387715,V
PAT,P50,REL,FM,M3,0.0157760284281711,V
PAT,P51,INI,FM,M1,0.0021130599441335,V
PAT,P51,INI,FM,M2,0.0021861287722903,V
PAT,P51,INI,FM,M3,0.0022718253070675,V
PAT,P51,REL,FM,M1,0.0022687656639369,V
PAT,P51,REL,FM,M2,0.0023685913996657,V
PAT,P51,REL,FM,M3,0.0023929809605016,V
PAT,P53,INI,FM,M1,0.0035797374668904,V
PAT,P53,INI,FM,M2,0.0038375198716266,V
PAT,P53,INI,FM,M3,0.003741010355708,V
PAT,P53,REL,FM,M1,0.0036016197352814,V
PAT,P53,REL,FM,M2,0.0037791905921279,V
PAT,P53,REL,FM,M3,0.0037723111518387,V
PAT,P54,INI,FM,M1,0.0030409082092134,V
PAT,P54,INI,FM,M2,0.0032449213574997,V
PAT,P54,INI,FM,M3,0.0031614422743069,V
PAT,P54,REL,FM,M1,0.00358353532561,V
PAT,P54,REL,FM,M2,0.0036973217898673,V
PAT,P54,REL,FM,M3,0.0036386333822567,V
PAT,P58,INI,FM,M1,0.0033233473329804,V
PAT,P58,INI,FM,M2,0.0032604434615768,V
PAT,P58,INI,FM,M3,0.0031515925707295,V
PAT,P58,REL,FM,M1,0.0086307671047669,V
PAT,P58,REL,FM,M2,0.0062093965075,V
PAT,P58,REL,FM,M3,0.00878885432888,V
PAT,P61,INI,FM,M1,0.0065911295864258,V
PAT,P61,INI,FM,M2,0.0048175060128364,V
PAT,P61,INI,FM,M3,0.0041490821285013,V
PAT,P61,REL,FM,M1,0.0059200462102562,V
PAT,P61,REL,FM,M2,0.0057750397443785,V
PAT,P61,REL,FM,M3,0.0054320715297253,V
PAT,P62,INI,FM,M1,0.0035774810571757,V
PAT,P62,INI,FM,M2,0.0036810911658702,V
PAT,P62,INI,FM,M3,0.004653246135352,V
PAT,P62,REL,FM,M1,0.0036149804304449,V
PAT,P62,REL,FM,M2,0.0047469195928216,V
PAT,P62,REL,FM,M3,0.0053004454793666,V
PAT,P63,INI,FM,M1,0.0049582789230262,V
PAT,P63,INI,FM,M2,0.003754228705982,V
PAT,P63,INI,FM,M3,0.0042648445360727,V
PAT,P63,REL,FM,M1,0.0023198869252232,V
PAT,P63,REL,FM,M2,0.0026486248477056,V
PAT,P63,REL,FM,M3,0.0023030455029489,V
PAT,P65,INI,FM,M1,0.0034462815324795,V
PAT,P65,INI,FM,M2,0.0041792695570378,V
PAT,P65,INI,FM,M3,0.0034064320389504,V
PAT,P65,REL,FM,M1,0.0084364923692357,V
PAT,P65,REL,FM,M2,0.0081349833543663,V
PAT,P65,REL,FM,M3,0.0086204422165529,V
