Group,Participant,Session,Operator,Measure,Value,Unit
PAT,P09,INI,FM,M1,12.915447142164432,%MAX
PAT,P09,INI,FM,M2,11.187776680981173,%MAX
PAT,P09,INI,FM,M3,11.80962709089821,%MAX
PAT,P09,REL,FM,M1,12.665886881978913,%MAX
PAT,P09,REL,FM,M2,14.336365907250027,%MAX
PAT,P09,REL,FM,M3,14.21585676283099,%MAX
PAT,P10,INI,FM,M1,9.889888980217783,%MAX
PAT,P10,INI,FM,M2,11.365859420098747,%MAX
PAT,P10,INI,FM,M3,12.355566031787538,%MAX
PAT,P10,REL,FM,M1,12.503396084862093,%MAX
PAT,P10,REL,FM,M2,14.483346586998454,%MAX
PAT,P10,REL,FM,M3,10.293492920450051,%MAX
PAT,P11,INI,FM,M1,15.480911262078399,%MAX
PAT,P11,INI,FM,M2,14.842924674989062,%MAX
PAT,P11,INI,FM,M3,13.971320387167202,%MAX
PAT,P11,REL,FM,M1,15.007756512525441,%MAX
PAT,P11,REL,FM,M2,12.180847666074557,%MAX
PAT,P11,REL,FM,M3,10.402056182674547,%MAX
PAT,P12,INI,FM,M1,10.155943534874755,%MAX
PAT,P12,INI,FM,M2,10.62606988611165,%MAX
PAT,P12,INI,FM,M3,15.050112872385322,%MAX
PAT,P12,REL,FM,M1,12.166324892004495,%MAX
PAT,P12,REL,FM,M2,11.5636758516842,%MAX
PAT,P12,REL,FM,M3,19.012938422424853,%MAX
PAT,P14,INI,FM,M1,20.32986100735521,%MAX
PAT,P14,INI,FM,M2,21.74707816546859,%MAX
PAT,P14,INI,FM,M3,20.19720439968855,%MAX
PAT,P14,REL,FM,M1,21.62946418984014,%MAX
PAT,P14,REL,FM,M2,18.993313503494612,%MAX
PAT,P14,REL,FM,M3,22.994187218964804,%MAX
PAT,P17,INI,FM,M1,67.9797702118724,%MAX
PAT,P17,INI,FM,M2,37.505132066933875,%MAX
PAT,P17,INI,FM,M3,27.40229089844148,%MAX
PAT,P17,REL,FM,M1,31.07941766523933,%MAX
PAT,P17,REL,FM,M2,21.146531009390646,%MAX
PAT,P17,REL,FM,M3,42.34473622137608,%MAX
PAT,P24,INI,FM,M1,27.70078131606953,%MAX
PAT,P24,INI,FM,M2,35.22447378969717,%MAX
PAT,P24,INI,FM,M3,32.75890817722352,%MAX
PAT,P24,REL,FM,M1,20.534532767744857,%MAX
PAT,P24,REL,FM,M2,18.600453323361883,%MAX
PAT,P24,REL,FM,M3,22.37297483262167,%MAX
PAT,P26,INI,FM,M1,30.505154114829338,%MAX
PAT,P26,INI,FM,M2,35.00113567087518,%MAX
PAT,P26,INI,FM,M3,46.69869067283323,%MAX
PAT,P26,REL,FM,M1,24.655543985323057,%MAX
PAT,P26,REL,FM,M2,15.870952375273523,%MAX
PAT,P26,REL,FM,M3,37.502713993317585,%MAX
PAT,P27,INI,FM,M1,10.668273693780996,%MAX
PAT,P27,INI,FM,M2,11.189458233643613,%MAX
PAT,P27,INI,FM,M3,72.51760838010289,%MAX
PAT,P27,REL,FM,M1,9.65955455161296,%MAX
PAT,P27,REL,FM,M2,7.6395719285897075,%MAX
PAT,P27,REL,FM,M3,48.91293581418105,%MAX
PAT,P28,INI,FM,M1,7.051026283018851,%MAX
PAT,P28,INI,FM,M2,18.205492763770366,%MAX
PAT,P28,INI,FM,M3,58.58583708156677,%MAX
PAT,P28,REL,FM,M1,8.922917521499551,%MAX
PAT,P28,REL,FM,M2,8.250696124614212,%MAX
PAT,P28,REL,FM,M3,39.51409528054928,%MAX
PAT,P29,INI,FM,M1,23.182985715609465,%MAX
PAT,P29,INI,FM,M2,28.92461614157552,%MAX
PAT,P29,INI,FM,M3,50.3447582819681,%MAX
PAT,P29,REL,FM,M1,23.006278802830177,%MAX
PAT,P29,REL,FM,M2,14.31811988979573,%MAX
PAT,P29,REL,FM,M3,55.28208353248732,%MAX
PAT,P30,INI,FM,M1,30.21408107603005,%MAX
PAT,P30,INI,FM,M2,22.328161936453668,%MAX
PAT,P30,INI,FM,M3,62.29527625497886,%MAX
PAT,P30,REL,FM,M1,37.91057705773711,%MAX
PAT,P30,REL,FM,M2,46.82430470971819,%MAX
PAT,P30,REL,FM,M3,39.9253991758983,%MAX
PAT,P32,INI,FM,M1,6.832694787784965,%MAX
PAT,P32,INI,FM,M2,7.987884722879244,%MAX
PAT,P32,INI,FM,M3,71.10303511556599,%MAX
PAT,P32,REL,FM,M1,15.237014288734148,%MAX
PAT,P32,REL,FM,M2,26.15988834271549,%MAX
PAT,P32,REL,FM,M3,96.86750541464679,%MAX
PAT,P33,INI,FM,M1,13.961520088130165,%MAX
PAT,P33,INI,FM,M2,19.06150332591513,%MAX
PAT,P33,INI,FM,M3,50.152535995500195,%MAX
PAT,P33,REL,FM,M1,19.46333740064712,%MAX
PAT,P33,REL,FM,M2,32.94669218930006,%MAX
PAT,P33,REL,FM,M3,61.26692458808909,%MAX
PAT,P34,INI,FM,M1,24.91571293436733,%MAX
PAT,P34,INI,FM,M2,22.501660444718073,%MAX
PAT,P34,INI,FM,M3,56.94574916270595,%MAX
PAT,P34,REL,FM,M1,17.6504796245572,%MAX
PAT,P34,REL,FM,M2,18.902288725190655,%MAX
PAT,P34,REL,FM,M3,53.678530073922104,%MAX
PAT,P36,INI,FM,M1,5.533573047467481,%MAX
PAT,P36,INI,FM,M2,24.89994056962298,%MAX
PAT,P36,INI,FM,M3,102.06083842814235,%MAX
PAT,P36,REL,FM,M1,5.237072351226392,%MAX
PAT,P36,REL,FM,M2,4.728033897516041,%MAX
PAT,P36,REL,FM,M3,78.46335017493014,%MAX
PAT,P41,INI,FM,M1,9.660630819662913,%MAX
PAT,P41,INI,FM,M2,10.88486119319615,%MAX
PAT,P41,INI,FM,M3,58.88404385431884,%MAX
PAT,P41,REL,FM,M1,7.369930505427832,%MAX
PAT,P41,REL,FM,M2,8.429944396200947,%MAX
PAT,P41,REL,FM,M3,41.65623756346715,%MAX
PAT,P42,INI,FM,M1,28.122166809935468,%MAX
PAT,P42,INI,FM,M2,13.728694961312156,%MAX
PAT,P42,INI,FM,M3,12.920929811506142,%MAX
PAT,P42,REL,FM,M1,12.274120527080944,%MAX
PAT,P42,REL,FM,M2,11.47751330490725,%MAX
PAT,P42,REL,FM,M3,48.57791200019158,%MAX
PAT,P43,INI,FM,M1,11.997052803063713,%MAX
PAT,P43,INI,FM,M2,16.10011783211101,%MAX
PAT,P43,INI,FM,M3,55.8396960206456,%MAX
PAT,P43,REL,FM,M1,7.518883647265706,%MAX
PAT,P43,REL,FM,M2,6.650289669407161,%MAX
PAT,P43,REL,FM,M3,33.33900049761861,%MAX
PAT,P45,INI,FM,M1,13.517990763902116,%MAX
PAT,P45,INI,FM,M2,25.36845635825681,%MAX
PAT,P45,INI,FM,M3,41.700622298972206,%MAX
PAT,P45,REL,FM,M1,9.952972445282834,%MAX
PAT,P45,REL,FM,M2,11.015325745945953,%MAX
PAT,P45,REL,FM,M3,7.854333704038967,%MAX
PAT,P47,INI,FM,M1,7.455164202326381,%MAX
PAT,P47,INI,FM,M2,9.930813012643942,%MAX
PAT,P47,INI,FM,M3,10.348261263193294,%MAX
PAT,P47,REL,FM,M1,6.892689126969473,%MAX
PAT,P47,REL,FM,M2,22.1760224001479,%MAX
PAT,P47,REL,FM,M3,45.64700897985627,%MAX
PAT,P50,INI,FM,M1,15.955089772173281,%MAX
PAT,P50,INI,FM,M2,13.881197579560906,%MAX
PAT,P50,INI,FM,M3,85.31968213762248,%MAX
PAT,P50,REL,FM,M1,12.500997690265189,%MAX
PAT,P50,REL,FM,M2,12.697210977449378,%MAX
PAT,P50,REL,FM,M3,8.592095388732735,%MAX
PAT,P51,INI,FM,M1,22.74996396265482,%MAX
PAT,P51,INI,FM,M2,18.458442154934087,%MAX
PAT,P51,INI,FM,M3,21.41019740229673,%MAX
PAT,P51,REL,FM,M1,42.5627238673653,%MAX
PAT,P51,REL,FM,M2,36.839722783138754,%MAX
PAT,P51,REL,FM,M3,41.35461988001055,%MAX
PAT,P53,INI,FM,M1,24.714202704866548,%MAX
PAT,P53,INI,FM,M2,19.963334650496225,%MAX
PAT,P53,INI,FM,M3,11.61126581759018,%MAX
PAT,P53,REL,FM,M1,11.986333679585243,%MAX
PAT,P53,REL,FM,M2,10.912402756675078,%MAX
PAT,P53,REL,FM,M3,45.884325436282296,%MAX
PAT,P54,INI,FM,M1,38.34671215334548,%MAX
PAT,P54,INI,FM,M2,51.08919564626731,%MAX
PAT,P54,INI,FM,M3,218.58942960535077,%MAX
PAT,P54,REL,FM,M1,71.32489118313,%MAX
PAT,P54,REL,FM,M2,92.48638250475379,%MAX
PAT,P54,REL,FM,M3,117.05709123538938,%MAX
PAT,P58,INI,FM,M1,31.947110117634136,%MAX
PAT,P58,INI,FM,M2,25.171414482755797,%MAX
PAT,P58,INI,FM,M3,23.477002614545274,%MAX
PAT,P58,REL,FM,M1,13.777197161492014,%MAX
PAT,P58,REL,FM,M2,28.15701465345089,%MAX
PAT,P58,REL,FM,M3,28.906847210801754,%MAX
PAT,P61,INI,FM,M1,31.78792803664149,%MAX
PAT,P61,INI,FM,M2,29.089127513433244,%MAX
PAT,P61,INI,FM,M3,45.85493462299938,%MAX
PAT,P61,REL,FM,M1,13.516075837628774,%MAX
PAT,P61,REL,FM,M2,66.29589155023038,%MAX
PAT,P61,REL,FM,M3,68.45532650922803,%MAX
PAT,P62,INI,FM,M1,83.98017144697651,%MAX
PAT,P62,INI,FM,M2,52.37513049841876,%MAX
PAT,P62,INI,FM,M3,70.41864530223685,%MAX
PAT,P62,REL,FM,M1,49.87631923279446,%MAX
PAT,P62,REL,FM,M2,84.55708102380491,%MAX
PAT,P62,REL,FM,M3,75.94200038833735,%MAX
PAT,P63,INI,FM,M1,23.94623845442545,%MAX
PAT,P63,INI,FM,M2,33.60878120099756,%MAX
PAT,P63,INI,FM,M3,37.4839663403726,%MAX
PAT,P63,REL,FM,M1,44.30744801193858,%MAX
PAT,P63,REL,FM,M2,71.22088001494643,%MAX
PAT,P63,REL,FM,M3,65.92531607226879,%MAX
PAT,P65,INI,FM,M1,105.02952608320325,%MAX
PAT,P65,INI,FM,M2,81.679617391307,%MAX
PAT,P65,INI,FM,M3,99.03028799378944,%MAX
PAT,P65,REL,FM,M1,142.78661372875462,%MAX
PAT,P65,REL,FM,M2,71.65506601504545,%MAX
PAT,P65,REL,FM,M3,307.9056572367487,%MAX
