Group,Participant,Session,Operator,Measure,Value,Unit
PAT,P09,INI,FM,M1,12.902969124825576,%MAX
PAT,P09,INI,FM,M2,15.465041240578701,%MAX
PAT,P09,INI,FM,M3,15.306851137960068,%MAX
PAT,P09,REL,FM,M1,17.630702418165278,%MAX
PAT,P09,REL,FM,M2,21.696250318872345,%MAX
PAT,P09,REL,FM,M3,16.06650019810882,%MAX
PAT,P10,INI,FM,M1,2.734894805588479,%MAX
PAT,P10,INI,FM,M2,4.654445359144211,%MAX
PAT,P10,INI,FM,M3,4.205437146237369,%MAX
PAT,P10,REL,FM,M1,17.60090317797385,%MAX
PAT,P10,REL,FM,M2,17.683517250870775,%MAX
PAT,P10,REL,FM,M3,18.311554632320405,%MAX
PAT,P11,INI,FM,M1,26.752659462733845,%MAX
PAT,P11,INI,FM,M2,29.58837466948802,%MAX
PAT,P11,INI,FM,M3,26.04047690007468,%MAX
PAT,P11,REL,FM,M1,12.196407091834098,%MAX
PAT,P11,REL,FM,M2,13.481180251030061,%MAX
PAT,P11,REL,FM,M3,13.848916548360263,%MAX
PAT,P12,INI,FM,M1,38.19735606196151,%MAX
PAT,P12,INI,FM,M2,38.397249836948475,%MAX
PAT,P12,INI,FM,M3,37.44855618444061,%MAX
PAT,P12,REL,FM,M1,40.939196670572635,%MAX
PAT,P12,REL,FM,M2,28.929675409125696,%MAX
PAT,P12,REL,FM,M3,35.14947480854135,%MAX
PAT,P14,INI,FM,M1,30.279035792731698,%MAX
PAT,P14,INI,FM,M2,31.34849031530864,%MAX
PAT,P14,INI,FM,M3,30.865924469761815,%MAX
PAT,P14,REL,FM,M1,8.611058234722972,%MAX
PAT,P14,REL,FM,M2,8.265929689720524,%MAX
PAT,P14,REL,FM,M3,6.007034333363203,%MAX
PAT,P17,INI,FM,M1,33.246455524129,%MAX
PAT,P17,INI,FM,M2,35.151749820695095,%MAX
PAT,P17,INI,FM,M3,40.30646523242375,%MAX
PAT,P17,REL,FM,M1,41.98455749928511,%MAX
PAT,P17,REL,FM,M2,41.962314830806704,%MAX
PAT,P17,REL,FM,M3,61.85742182555727,%MAX
PAT,P24,INI,FM,M1,21.16511299092226,%MAX
PAT,P24,INI,FM,M2,25.073022286899327,%MAX
PAT,P24,INI,FM,M3,35.26220932777974,%MAX
PAT,P24,REL,FM,M1,16.89911583264513,%MAX
PAT,P24,REL,FM,M2,17.993569762953406,%MAX
PAT,P24,REL,FM,M3,20.764321608737554,%MAX
PAT,P26,INI,FM,M1,16.952887941253273,%MAX
PAT,P26,INI,FM,M2,16.38189675393641,%MAX
PAT,P26,INI,FM,M3,75.32945951810255,%MAX
PAT,P26,REL,FM,M1,18.012804274356927,%MAX
PAT,P26,REL,FM,M2,23.157457243894388,%MAX
PAT,P26,REL,FM,M3,36.41343973788399,%MAX
PAT,P27,INI,FM,M1,23.883273320594082,%MAX
PAT,P27,INI,FM,M2,31.36864687241508,%MAX
PAT,P27,INI,FM,M3,39.136366594783475,%MAX
PAT,P27,REL,FM,M1,26.643021576012156,%MAX
PAT,P27,REL,FM,M2,34.06194239157839,%MAX
PAT,P27,REL,FM,M3,51.88848748546231,%MAX
PAT,P28,INI,FM,M1,15.147658989454209,%MAX
PAT,P28,INI,FM,M2,18.067783199190806,%MAX
PAT,P28,INI,FM,M3,27.057180445403297,%MAX
PAT,P28,REL,FM,M1,9.357175239181544,%MAX
PAT,P28,REL,FM,M2,7.386973730167471,%MAX
PAT,P28,REL,FM,M3,24.644655573019843,%MAX
PAT,P29,INI,FM,M1,15.413981153014516,%MAX
PAT,P29,INI,FM,M2,22.40279068107072,%MAX
PAT,P29,INI,FM,M3,52.92958953559839,%MAX
PAT,P29,REL,FM,M1,17.154394420492267,%MAX
PAT,P29,REL,FM,M2,17.836330060700657,%MAX
PAT,P29,REL,FM,M3,52.04422925024852,%MAX
PAT,P30,INI,FM,M1,26.634374800518202,%MAX
PAT,P30,INI,FM,M2,20.61655228742621,%MAX
PAT,P30,INI,FM,M3,44.23980610420163,%MAX
PAT,P30,REL,FM,M1,26.113151945435515,%MAX
PAT,P30,REL,FM,M2,49.49836531738988,%MAX
PAT,P30,REL,FM,M3,42.14704853923012,%MAX
PAT,P32,INI,FM,M1,18.41839475940077,%MAX
PAT,P32,INI,FM,M2,22.632196161536235,%MAX
PAT,P32,INI,FM,M3,65.00637630216833,%MAX
PAT,P32,REL,FM,M1,26.033159250609412,%MAX
PAT,P32,REL,FM,M2,34.91894155048475,%MAX
PAT,P32,REL,FM,M3,55.277260598627315,%MAX
PAT,P33,INI,FM,M1,6.970621175228327,%MAX
PAT,P33,INI,FM,M2,3.995459117489608,%MAX
PAT,P33,INI,FM,M3,13.592318769224478,%MAX
PAT,P33,REL,FM,M1,28.206589742637888,%MAX
PAT,P33,REL,FM,M2,31.19705665750306,%MAX
PAT,P33,REL,FM,M3,17.98603298819208,%MAX
PAT,P34,INI,FM,M1,25.385919132944558,%MAX
PAT,P34,INI,FM,M2,29.14514581249245,%MAX
PAT,P34,INI,FM,M3,49.86598720845753,%MAX
PAT,P34,REL,FM,M1,33.48738103529591,%MAX
PAT,P34,REL,FM,M2,36.962915180298346,%MAX
PAT,P34,REL,FM,M3,48.69612034477147,%MAX
PAT,P36,INI,FM,M1,21.394626706744603,%MAX
PAT,P36,INI,FM,M2,33.58467702772597,%MAX
PAT,P36,INI,FM,M3,66.4406649222144,%MAX
PAT,P36,REL,FM,M1,13.15871871585629,%MAX
PAT,P36,REL,FM,M2,13.51859046383188,%MAX
PAT,P36,REL,FM,M3,76.26710663334586,%MAX
PAT,P41,INI,FM,M1,16.23682538209051,%MAX
PAT,P41,INI,FM,M2,15.920923430586248,%MAX
PAT,P41,INI,FM,M3,46.53441574364022,%MAX
PAT,P41,REL,FM,M1,19.348398864907317,%MAX
PAT,P41,REL,FM,M2,22.48422988193922,%MAX
PAT,P41,REL,FM,M3,51.628269084991416,%MAX
PAT,P42,INI,FM,M1,22.796563642135556,%MAX
PAT,P42,INI,FM,M2,16.75874625599679,%MAX
PAT,P42,INI,FM,M3,19.938723084975468,%MAX
PAT,P42,REL,FM,M1,13.998824847094435,%MAX
PAT,P42,REL,FM,M2,19.010128733853737,%MAX
PAT,P42,REL,FM,M3,76.46096521822172,%MAX
PAT,P43,INI,FM,M1,18.527614271803515,%MAX
PAT,P43,INI,FM,M2,36.14687806934165,%MAX
PAT,P43,INI,FM,M3,59.458797264272484,%MAX
PAT,P43,REL,FM,M1,40.68499304181453,%MAX
PAT,P43,REL,FM,M2,31.76530521193906,%MAX
PAT,P43,REL,FM,M3,51.935416823981754,%MAX
PAT,P45,INI,FM,M1,8.641232744217238,%MAX
PAT,P45,INI,FM,M2,13.497487389469567,%MAX
PAT,P45,INI,FM,M3,26.68621310440364,%MAX
PAT,P45,REL,FM,M1,19.289354408076015,%MAX
PAT,P45,REL,FM,M2,20.575690406370384,%MAX
PAT,P45,REL,FM,M3,26.690036235434384,%MAX
PAT,P47,INI,FM,M1,18.38533148489305,%MAX
PAT,P47,INI,FM,M2,17.444756609458683,%MAX
PAT,P47,INI,FM,M3,15.51116566785503,%MAX
PAT,P47,REL,FM,M1,26.88406460298513,%MAX
PAT,P47,REL,FM,M2,32.046012243705675,%MAX
PAT,P47,REL,FM,M3,51.04404973189264,%MAX
PAT,P50,INI,FM,M1,11.578657834057132,%MAX
PAT,P50,INI,FM,M2,15.758576117472282,%MAX
PAT,P50,INI,FM,M3,76.69222453827585,%MAX
PAT,P50,REL,FM,M1,12.857269966367701,%MAX
PAT,P50,REL,FM,M2,13.291651054111583,%MAX
PAT,P50,REL,FM,M3,13.697076934658202,%MAX
PAT,P51,INI,FM,M1,21.76880704625675,%MAX
PAT,P51,INI,FM,M2,16.535073750836094,%MAX
PAT,P51,INI,FM,M3,20.010363565459237,%MAX
PAT,P51,REL,FM,M1,63.321749079774385,%MAX
PAT,P51,REL,FM,M2,58.79748286435093,%MAX
PAT,P51,REL,FM,M3,75.45311369290772,%MAX
PAT,P53,INI,FM,M1,28.900021217314514,%MAX
PAT,P53,INI,FM,M2,24.545308623117307,%MAX
PAT,P53,INI,FM,M3,28.420902232448224,%MAX
PAT,P53,REL,FM,M1,33.973674423146285,%MAX
PAT,P53,REL,FM,M2,27.325656085750555,%MAX
PAT,P53,REL,FM,M3,69.09887863026498,%MAX
PAT,P54,INI,FM,M1,33.82928614641647,%MAX
PAT,P54,INI,FM,M2,29.163888993253316,%MAX
PAT,P54,INI,FM,M3,41.38235787282982,%MAX
PAT,P54,REL,FM,M1,23.030102291325555,%MAX
PAT,P54,REL,FM,M2,43.41838927218683,%MAX
PAT,P54,REL,FM,M3,58.62550092468311,%MAX
PAT,P58,INI,FM,M1,62.88027284920859,%MAX
PAT,P58,INI,FM,M2,78.60553854576,%MAX
PAT,P58,INI,FM,M3,64.51356191865295,%MAX
PAT,P58,REL,FM,M1,29.749308106198832,%MAX
PAT,P58,REL,FM,M2,36.44095515191656,%MAX
PAT,P58,REL,FM,M3,40.31227026220808,%MAX
PAT,P61,INI,FM,M1,61.703652401561556,%MAX
PAT,P61,INI,FM,M2,39.11874798738358,%MAX
PAT,P61,INI,FM,M3,86.44789313635161,%MAX
PAT,P61,REL,FM,M1,20.954755044171964,%MAX
PAT,P61,REL,FM,M2,83.7962891074918,%MAX
PAT,P61,REL,FM,M3,68.36406373406987,%MAX
PAT,P62,INI,FM,M1,54.01370710449499,%MAX
PAT,P62,INI,FM,M2,82.39901236945767,%MAX
PAT,P62,INI,FM,M3,55.92398442303163,%MAX
PAT,P62,REL,FM,M1,74.64911380572661,%MAX
PAT,P62,REL,FM,M2,126.03524317474091,%MAX
PAT,P62,REL,FM,M3,86.923821976298,%MAX
PAT,P63,INI,FM,M1,48.56691947443181,%MAX
PAT,P63,INI,FM,M2,34.588614511125044,%MAX
PAT,P63,INI,FM,M3,27.089944158159632,%MAX
PAT,P63,REL,FM,M1,35.33955972469619,%MAX
PAT,P63,REL,FM,M2,22.075138623097466,%MAX
PAT,P63,REL,FM,M3,26.697746898453573,%MAX
PAT,P65,INI,FM,M1,115.04416759868127,%MAX
PAT,P65,INI,FM,M2,83.42573974562215,%MAX
PAT,P65,INI,FM,M3,70.09992672348906,%MAX
PAT,P65,REL,FM,M1,65.3710268553932,%MAX
PAT,P65,REL,FM,M2,64.08611802343711,%MAX
PAT,P65,REL,FM,M3,106.52572505897443,%MAX
