"","Biomarkers","Unit","ICC_intra","ICC_testretest","SEM_intra","SEM_testretest","SEMp_intra","SEMp_testretest"
"1","Control_BMo1.csv","V","0.752273716312817","0.496552197281758","0.00234735795389419","0.00334634337147441","46.8981664400037","66.8570245711594"
"2","Control_BMo100.csv","%MAX","0.651309216149508","0.449860391942107","6.49080540534064","8.15295061369605","17.878812444974","22.4571629855783"
"3","Control_BMo101.csv","%MAX","0.546335513806341","0.0987912330430622","7.53846071652481","10.6249767509134","21.9747458149733","30.9719944390658"
"4","Control_BMo102.csv","%MAX","0.5596507647908","0.455906531467938","17.5099224621665","19.4635634856559","45.9839970992759","51.1145865322829"
"5","Control_BMo103.csv","%MAX","0.640413597800934","0.233793943822676","17.5734505316048","25.65241180563","53.6348944504562","78.2922168369944"
"6","Control_BMo104.csv","%MAX","0.275707844870588","0.463625709752985","26.791381295722","23.0553750304577","73.5488578099123","63.2926119468168"
"7","Control_BMo105.csv","%MAX","0.602359592490608","0.419755912831449","8.33009687688165","10.0625988307529","28.2523719704053","34.1283288006395"
"8","Control_BMo106.csv","%MAX","0.479739252936575","0.440828607369849","17.253454706838","17.8870207304194","52.824115083341","54.763875271154"
"9","Control_BMo107.csv","%MAX","0.43043681339128","0.32472593885109","12.9888335576458","14.14292472859","51.2852857492506","55.8421149071482"
"10","Control_BMo108.csv","%MAX","0.345628353579927","0.257864203267735","9.25367836649036","9.85471012123797","28.7955073642174","30.6657921995577"
"11","Control_BMo109.csv","%MAX","0.365468605856216","0.562065820924512","43.0011407990561","35.7238157713658","38.9665789360151","32.372045515154"
"12","Control_BMo110.csv","%subMVIC","0.969349585387376","0.352922825060926","2.54341605445943","11.6863064827184","16.1420809528596","74.1684809896591"
"13","Control_BMo111.csv","%subMVIC","0.939385887769325","0.213690550422072","14.2577717170328","51.3524927510543","25.8050067354564","92.9423929365034"
"14","Control_BMo112.csv","%subMVIC","0.986721869811479","0.0010766314573076","10.8319017352265","93.9512011386723","21.3963236108563","185.582398394021"
"15","Control_BMo113.csv","%subMVIC","0.987758137405744","1.5462298357026e-05","54.6620796662015","494.03650748677","44.7147027472054","404.131999979457"
"16","Control_BMo114.csv","V","0.985282295517374","3.24953590232406e-10","0.0349234588494001","0.287870532240859","59.0201725910364","486.497301713312"
"17","Control_BMo115.csv","V","0.997187022594666","8.55421182328564e-07","0.0105470087206187","0.19885934172167","25.821017541766","486.844250057476"
"18","Control_BMo117.csv","Hz","0.941683137689412","0.716338365600559","4.23817808635709","9.34721920303098","3.91423077960769","8.6327597290024"
"19","Control_BMo118.csv","Hz","0.940797192446051","0.718243781451721","4.23639345508794","9.24191334463915","4.70660491158461","10.267704168997"
"20","Control_BMo15.csv","V","0.859233748866935","0.137775273745474","0.00238994228615919","0.00591491322464172","43.1692352140251","106.840354155773"
"21","Control_BMo22.csv","V","0.767588332726412","0.228931286037373","0.00371264270974047","0.00676239810588917","28.9028449652922","52.6451262157039"
"22","Control_BMo23.csv","V","0.865207732439487","3.16951117511447e-08","0.00640803223640305","0.017453888260624","100.364794299299","273.368772249463"
"23","Control_BMo24.csv","V","0.870019011003603","5.75285772042181e-10","0.0113201818259155","0.0313988313344432","60.7011323314086","168.366961343351"
"24","Control_BMo29.csv","Hz","0.934277638975239","0.255457052649758","6.04338228499915","20.3408157490021","8.42562350858207","28.3589631230077"
"25","Control_BMo34.csv","%MAX","0.971433963117919","0.441785425825739","0.620659315453246","2.74365100161651","10.4890840582102","46.367443887203"
"26","Control_BMo35.csv","NAN","0.617170398917528","0.186398890009196","0.418134608805654","0.609563741623002","65.1461778656691","94.971205673846"
"27","Control_BMo36.csv","%SubMVIC","0.940605211612973","0.0693661411983691","0.624038141456098","2.470167421875","11.9111038715185","47.1484333847631"
"28","Control_BMo37.csv","Hz","0.811313548413103","0.309561931451743","11.8664475980916","22.6993139526032","13.8239662378759","26.4438491056243"
"29","Control_BMo38.csv","Hz","0.947677797584579","0.211290837939891","5.57217821783219","21.6341797047039","6.03748299876911","23.4407420318083"
"30","Control_BMo40.csv","Hz","0.84603492821662","0.412660992120341","9.33660104462041","18.2356866065111","16.1765954921555","31.5951516344609"
"31","Control_BMo41.csv","NAN","0.989094233734031","0.136915472647512","0.0829929292290339","0.738311555900691","6.39529861658288","56.8930740958474"
"32","Control_BMo42.csv","NAN","0.539344406941729","0.320476504765804","5.13145269954935","6.23238673483409","68.8651188841298","83.6398732592654"
"33","Control_BMo43.csv","NAN","0.544020297774938","0.543874708100661","1.20206827257126","1.20226016133299","61.3753351441939","61.3851326218665"
"34","Control_BMo44.csv","NAN","0.657263029886204","0.607827589462343","3.98442912287807","4.26210503298704","31.3572091141879","33.5425012377858"
"35","Control_BMo51.csv","Hz","0.712176050045154","0.454271782548338","15.0778307170385","20.7617330942327","12.6415329704187","17.4070221611644"
"36","Control_BMo52.csv","Hz","0.881710755480939","0.412011222303812","7.61737818342652","16.983117225737","9.2904553751365","20.7132807269189"
"37","Control_BMo53.csv","Hz","0.733907966583237","0.538031489219187","15.5461133149792","20.4838732395874","17.6982275332009","23.3195424483466"
"38","Control_BMo67.csv","%subMVIC","0.513087504543511","0.295837771077383","11.6761317362563","14.0413831221151","56.2580197501156","67.6542905515529"
"39","Control_BMo68.csv","%subMVIC","0.996102428159612","0.000107040129807671","1.2913319406058","20.6831929823402","10.0182296548334","160.461435806439"
"40","Control_BMo69.csv","V","0.87001703615778","0.535607890354961","0.00334562539201388","0.00632377646551053","17.8439655623513","33.7279988799503"
"41","Control_BMo81.csv","V","0.603038552390669","0.0266187665141858","0.00460098875744917","0.00720474295766469","82.1453654827378","128.632403743292"
"42","Control_BMo82.csv","V","0.916029843791926","0.00160213777916907","0.00880373165047475","0.0303568103099999","39.0925310002602","134.79790107513"
"43","Control_BMo86.csv","s","0.586527150977224","0.622941463174112","0.731166137264128","0.698227516947808","74.573223992889","71.213742493846"
"44","Control_BMo87.csv","s","0.920833868317549","0.101646251583181","1.91543502041468","6.45240179596057","98.5656327896431","332.031658215269"
"45","Control_BMo88.csv","s","0.757392314727895","0.0734620991192928","2.59330758179391","5.06796196966196","101.972889830015","199.28015142637"
"46","Control_BMo91.csv","V","0.975107208092612","0.262559646327793","0.00123574005833934","0.0067259521051984","23.4225643254912","127.485586285754"
"47","Control_BMo96.csv","V","0.979945391344948","0.261039914854801","0.0032304148424569","0.0196092819735213","10.6041403546485","64.3693112005854"
"48","Control_BMo97.csv","V","0.854713437524819","0.0669535797010528","0.00377627342804149","0.00956978837579263","44.269830772779","112.188092308604"
"49","Control_BMo98.csv","V","0.836354465574135","0.129789240819928","0.0101061886374807","0.0233049161782797","31.923544883479","73.6158372171932"
"50","Patient_BMo1.csv","V","0.699172996447204","0.0110240219629612","0.00331028741951471","0.00600205769831594","95.7701500853022","173.645938778522"
"51","Patient_BMo100.csv","%MAX","0.666324149934574","0.130595667874521","4.78634259312676","7.72595711522388","13.3920975145106","21.6170842489596"
"52","Patient_BMo101.csv","%MAX","0.575348524317428","0.610160427851348","9.40742443732148","9.01358130840884","27.5487435714235","26.3954116006944"
"53","Patient_BMo102.csv","%MAX","0.391553444083709","0.35246400142967","13.9322748284765","14.3728460174875","40.535197566744","41.8170155332022"
"54","Patient_BMo103.csv","%MAX","0.546425144516316","0.614771267851849","19.5124287037256","17.9823389504165","66.5897724619334","61.3680581348114"
"55","Patient_BMo104.csv","%MAX","0.391512879027519","0.717245458320831","26.457795257541","18.0356895355438","81.7863227504381","55.751913983092"
"56","Patient_BMo105.csv","%MAX","0.645760914336079","0.365563775110267","6.66180404688545","8.91533365124298","22.7867036346732","30.4949026247748"
"57","Patient_BMo106.csv","%MAX","0.514995791727794","0.73876964228826","22.9930580119243","16.8746900343872","68.397995958029","50.1975413695054"
"58","Patient_BMo107.csv","%MAX","0.296010694903444","0.55762702183125","13.6505453027288","10.8208472202359","59.3374320257994","47.037043001055"
"59","Patient_BMo108.csv","%MAX","0.404634347767445","0.663742940186015","8.99237578217498","6.75800120793189","28.9411354542602","21.7500061270243"
"60","Patient_BMo109.csv","%MAX","0.233881015575654","0.605234298722605","39.8741430816249","28.6228554313796","40.6922309064686","29.210103400389"
"61","Patient_BMo110.csv","%subMVIC","0.519980419721028","2.23239931757494e-09","271.944257271806","392.509719317759","346.891205510871","500.68411473305"
"62","Patient_BMo111.csv","%subMVIC","0.949689726142753","0.539717586592369","6.52111413937788","19.7244840516957","13.2171158074531","39.9779522918142"
"63","Patient_BMo112.csv","%subMVIC","0.803893547608864","0.000581530753713591","98.1416863003331","221.554849092891","153.73629878582","347.059682399978"
"64","Patient_BMo113.csv","%subMVIC","0.770589500236154","0.23470526415703","17.4719443336329","31.9116275713431","65.7171011043734","120.028979915769"
"65","Patient_BMo114.csv","V","0.732781543194202","0.123077103829567","0.0105921104756747","0.0191880119719919","53.7876002829834","97.4382886720094"
"66","Patient_BMo115.csv","V","0.74294252876825","0.0503809048471488","0.00685536360824415","0.0131761975846707","56.2670685518244","108.14685480103"
"67","Patient_BMo117.csv","Hz","0.926130787366777","0.667908618716449","4.62673668499173","9.8100642357531","4.43718484584722","9.40815769889642"
"68","Patient_BMo118.csv","Hz","0.914727817918275","0.590991492001115","4.88322562862299","10.6947164364263","5.68767961756257","12.4565451849142"
"69","Patient_BMo15.csv","V","0.830160044863824","0.379012206825248","0.00324210648793009","0.00619938879060662","38.3004480204847","73.2361410759821"
"70","Patient_BMo22.csv","V","0.870301611647652","0.0722522646038304","0.0030777875925697","0.00823163881319106","23.3683754235095","62.4994481756216"
"71","Patient_BMo23.csv","V","0.715688086148908","0.017494740303662","0.0115009139824439","0.0213797325390965","149.275687869412","277.49744812538"
"72","Patient_BMo24.csv","V","0.935248006748274","5.67525009196381e-11","0.00564179806679828","0.0221712902151118","38.9368837757475","153.015216078814"
"73","Patient_BMo29.csv","Hz","0.852759291653266","0.660613637709583","7.7123862343511","11.7090595622444","10.7999783525644","16.3966878678719"
"74","Patient_BMo34.csv","%MAX","0.958653750099586","0.56261675804681","0.684273032127224","2.2255760104982","10.6189027607923","34.537639410928"
"75","Patient_BMo35.csv","NAN","0.649821216702766","0.488004208482212","0.218955514048453","0.264754998107881","37.6469374694973","45.521643525719"
"76","Patient_BMo36.csv","%SubMVIC","0.962055618175279","0.588194342033311","0.724342528116718","2.38625251024751","10.6665747711791","35.1396471081808"
"77","Patient_BMo37.csv","Hz","0.8889141862621","0.642909495334976","9.45434610738132","16.9508448069286","10.1577970514626","18.212072992038"
"78","Patient_BMo38.csv","Hz","0.850415244125748","0.469799494174321","7.57517653118168","14.2616297825312","8.21865583405281","15.4730950932727"
"79","Patient_BMo40.csv","Hz","0.871726776252034","0.5685904781701","8.00573184694913","14.6817524690492","12.8294863295714","23.5280604193106"
"80","Patient_BMo41.csv","NAN","0.987439088341085","0.209936254655476","0.0800753287491822","0.635066517835291","7.61103279610225","60.3620637024262"
"81","Patient_BMo42.csv","NAN","0.750966090529398","0.373964234636995","1.83392616374838","2.90771726916253","47.3612877937767","75.0920277653202"
"82","Patient_BMo43.csv","NAN","0.630299291837823","0.554228605408448","0.653463299459844","0.717549982343736","54.3646096723047","59.6962748217561"
"83","Patient_BMo44.csv","NAN","0.795391191076429","0.633508018495683","2.62235000282992","3.50962512991714","34.5702330287131","46.2671109705914"
"84","Patient_BMo51.csv","Hz","0.883216956327774","0.447219759712123","10.6464269546168","23.1627563557307","8.65276530070229","18.8252730533764"
"85","Patient_BMo52.csv","Hz","0.7937976458751","0.559212485308488","8.09856319195781","11.8406572008089","8.79364945885273","12.8569211992755"
"86","Patient_BMo53.csv","Hz","0.656784844187514","0.370513052974323","20.1432096057229","27.2796508670134","21.4477454902465","29.0463645223777"
"87","Patient_BMo67.csv","%subMVIC","0.992920240019087","0.272666392731781","1.35656485640445","13.7498551245824","6.21430026189273","62.9868361238194"
"88","Patient_BMo68.csv","%subMVIC","0.93688176988005","0.319062031921358","1.9588437747479","6.43392760296707","18.2271964181989","59.8682057607403"
"89","Patient_BMo69.csv","V","0.910517782560148","1.01773422515464e-10","0.00480365068349091","0.0160584287658092","26.4094301593032","88.2857603314705"
"90","Patient_BMo81.csv","V","0.836264544717367","0","0.00652927236546026","0.0161359083881023","80.3491864623224","198.568391582665"
"91","Patient_BMo82.csv","V","0.902530611737325","0.096489209471388","0.0117079094996454","0.0356460907484781","56.0923234525805","170.779595806086"
"92","Patient_BMo86.csv","s","0.949768025452786","0.0958382914910284","0.558373923364097","2.36896180383903","47.2253215885785","200.358538133965"
"93","Patient_BMo87.csv","s","0.797605214761702","0","3.83375614771531","8.52167223494304","114.010225769253","253.421902177169"
"94","Patient_BMo88.csv","s","0.634816673159575","0.189240535497642","4.20453655996005","6.26482113917455","114.44859230815","170.530081072165"
"95","Patient_BMo91.csv","V","0.953618526291407","0.75203984146164","0.00048004686857841","0.00110994720500779","12.0922624469267","27.9592968597704"
"96","Patient_BMo96.csv","V","0.870308330799225","0.0127051560800507","0.00689329661577938","0.0190192926484743","26.3777002106259","72.7787048291546"
"97","Patient_BMo97.csv","V","0.948758687388878","0.0169728144070041","0.00483959157898811","0.0211973393957664","48.1617417418174","210.947715097482"
"98","Patient_BMo98.csv","V","0.951383738465192","6.27315071343504e-08","0.0109417576491539","0.0496245175790701","34.4076359581086","156.050096356268"
