"","Biomarkers","Unit","ICC_intra","ICC_testretest","SEM_intra","SEM_testretest","SEMp_intra","SEMp_testretest"
"1","Control_BMo1.csv","V","0.674254114024748","0.633109600618964","0.00254037613601719","0.00269604246470422","48.1682537920182","51.1198541951082"
"2","Control_BMo100.csv","%MAX","0.423020717792231","0.357504253040803","6.75878213092562","7.13219923081844","20.3708597639794","21.496332848928"
"3","Control_BMo101.csv","%MAX","0.488169890712234","0.317528494272858","6.80522814438826","7.85818114846339","20.3817499065636","23.535358328953"
"4","Control_BMo102.csv","%MAX","0.661174515234931","0.37055265122584","10.4944677461225","14.3038216783361","34.6577978348586","47.2381231698777"
"5","Control_BMo103.csv","%MAX","0.578003904802819","0.673154454525497","15.077732163578","13.2694552259143","57.8116751864084","50.8783036532668"
"6","Control_BMo104.csv","%MAX","0.453775890731493","0.531121044519045","16.3789890185495","15.1751163517268","56.2671675135881","52.1314723902547"
"7","Control_BMo105.csv","%MAX","0.539710111430993","0.31066990046671","7.23670348794152","8.85602191033401","29.6402481305018","36.2726878763036"
"8","Control_BMo106.csv","%MAX","0.641051594212848","0.800500455880993","13.6350715202524","10.1651164845172","51.9359439650115","38.7188962928102"
"9","Control_BMo107.csv","%MAX","0.523484924129718","0.229425651874717","8.58673961724118","10.91936151601","45.2877538277919","57.5903519073524"
"10","Control_BMo108.csv","%MAX","0.313463245989501","0.201631355497768","7.36355131696208","7.94067017730446","24.6411302773027","26.5723806225576"
"11","Control_BMo109.csv","%MAX","0.297673708388153","0.614121889659249","47.6190555200262","35.2968854569696","43.6943190894399","32.3877355226341"
"12","Control_BMo110.csv","%subMVIC","0.9711406033055","0.483838374682466","1.68898484324178","7.14290682316635","13.2208621208482","55.9125125539267"
"13","Control_BMo111.csv","%subMVIC","0.970842539756936","0.446583791877398","5.61224912791927","24.4505161913784","12.4312113479615","54.1582398453627"
"14","Control_BMo112.csv","%subMVIC","0.937177223997738","0.679277584879793","4.70909427085052","10.6400453721193","17.234027097438","38.9397238012725"
"15","Control_BMo113.csv","%subMVIC","0.965550816531749","0.653793297469379","2.25421186448887","7.14616436197201","12.1110072073755","38.3935731402766"
"16","Control_BMo114.csv","V","0.838246574916011","0.798747827737908","0.00664075309197047","0.00740731611063151","29.6927416312755","33.1202681997176"
"17","Control_BMo115.csv","V","0.936037477461045","0.85153936257919","0.00222110562754535","0.00338385762103295","16.3374451664907","24.8901212302694"
"18","Control_BMo117.csv","Hz","0.930812615001281","0.822195768602127","4.57271607966286","7.33047006734697","4.10881870656174","6.58680137053836"
"19","Control_BMo118.csv","Hz","0.928553172759264","0.802923655496435","4.7131852201257","7.82781011880936","5.07185929026725","8.42350758972982"
"20","Control_BMo15.csv","V","0.34275590855152","0.396531075562088","0.00308386051971113","0.00295500919998675","67.898045680173","65.061097401651"
"21","Control_BMo22.csv","V","0.607808010130741","0","0.00493822791285294","0.00788536444398919","34.324220682171","54.8089302703858"
"22","Control_BMo23.csv","V","0.768774334881368","0.396526198764261","0.000844351851134209","0.00136406369918636","21.2398403989061","34.3132963180471"
"23","Control_BMo24.csv","V","0.825146255779666","0.373486241137851","0.00210279435462878","0.00398038096458608","20.6933492771238","39.1704559101955"
"24","Control_BMo29.csv","Hz","0.943495156610761","0.239449243540287","5.50406589356948","20.1931879755649","7.50488913250993","27.5337613900305"
"25","Control_BMo34.csv","%MAX","0.9686967208123","0.549763824382429","0.656704471473286","2.49054991097154","11.7373643915957","44.5139223354874"
"26","Control_BMo35.csv","NAN","0.361987678703323","0.242253387328122","0.224544481730278","0.244708951060687","43.2458934894396","47.1294469226583"
"27","Control_BMo36.csv","%SubMVIC","0.918873828500901","0.233555154004381","0.705771091755279","2.16932104377012","13.4295639641179","41.2783068849745"
"28","Control_BMo37.csv","Hz","0.794645950060859","0.460113352577047","12.3050561347715","19.9518539189061","13.9183165726226","22.5676515419824"
"29","Control_BMo38.csv","Hz","0.949993738845773","0.165185364555131","5.2137996912159","21.3028238769871","5.58135254157837","22.8045911293708"
"30","Control_BMo40.csv","Hz","0.743285838410887","0.419159900406073","10.1370017585773","15.2480007231629","17.7114616213152","26.6414454729254"
"31","Control_BMo41.csv","NAN","0.985215871393618","0.149179747991946","0.087212941614245","0.661609874799882","6.36394611692883","48.2778073497152"
"32","Control_BMo42.csv","NAN","0.547915234812344","0.256763059697017","3.47533921522074","4.45605875239278","48.647159341906","62.375091103381"
"33","Control_BMo43.csv","NAN","0.278940394550992","0.293664235686979","1.02274967431347","1.01225368145878","61.9812029806727","61.3451194111065"
"34","Control_BMo44.csv","NAN","0.635906355427031","0.556557347558338","4.57659340291661","5.05073418684473","32.5102816667526","35.878387390406"
"35","Control_BMo51.csv","Hz","0.658880697306036","0.438207817652958","17.0661749008185","21.9013502347334","14.4886182599305","18.5935222609767"
"36","Control_BMo52.csv","Hz","0.831330482750243","0.36747540140292","8.656858325921","16.7641183818319","10.5796402800289","20.4876105642785"
"37","Control_BMo53.csv","Hz","0.728496218735218","0.5409015211842","16.4404432682754","21.3785629293144","19.0364036422435","24.7542567175699"
"38","Control_BMo67.csv","%subMVIC","0.98914685743889","0.728494137725342","0.99689744437753","4.98611549963176","6.19707315092882","30.995487714879"
"39","Control_BMo68.csv","%subMVIC","0.980333671800024","0.832943193717698","0.693175953554278","2.02029102482501","9.63976594356568","28.0955109843904"
"40","Control_BMo69.csv","V","0.778658463702115","0.367747416160605","0.00430950326024288","0.00728351568873345","21.2613509464876","35.933928768784"
"41","Control_BMo81.csv","V","0.818370511533155","0.453186792081369","0.000859680934084285","0.00149163859977476","17.2946323677126","30.0080415719268"
"42","Control_BMo82.csv","V","0.889893394436727","0.659243700044172","0.00333035616841206","0.00585876315859173","19.8694174072108","34.954282605621"
"43","Control_BMo86.csv","s","0.548074249155309","0.367775790504717","0.337490688917781","0.399175439776592","37.0801913205609","43.8575112245275"
"44","Control_BMo87.csv","s","0.643068644278694","0.755534683622271","0.984405912307184","0.814686441677543","82.9178304551486","68.6221317858635"
"45","Control_BMo88.csv","s","0.505636433363021","0.580484658975008","2.09943782628858","1.93398772286975","104.227980945852","96.0141010153794"
"46","Control_BMo91.csv","V","0.866794573661224","0.393253424349845","0.000584593999594729","0.00124766232717199","16.2762921669952","34.7374700679146"
"47","Control_BMo96.csv","V","0.874471178896164","0.77633357445169","0.00456986419794907","0.00610002995852283","15.2395773803943","20.3423722344645"
"48","Control_BMo97.csv","V","0.671895861812356","0.441977623563214","0.00269255525958403","0.00351143455281117","30.8947996403371","40.2907485642533"
"49","Control_BMo98.csv","V","0.792326594517797","0.552559816191427","0.0084906245971737","0.0124628305308683","29.3966916002454","43.1494740332782"
"50","Patient_BMo1.csv","V","0.611626756532966","0.304063741829905","0.00138471181091221","0.00185361475313949","48.6616338990038","65.1398520589237"
"51","Patient_BMo100.csv","%MAX","0.562383875225479","0.107591133914739","5.24120043237934","7.48455610671723","15.6576457890266","22.3594823207082"
"52","Patient_BMo101.csv","%MAX","0.4006323239375","0.628837184941561","6.45479184650104","5.07946313669031","20.537100856957","16.1612410156885"
"53","Patient_BMo102.csv","%MAX","0.351739004728015","0.548480427138601","11.4260431263272","9.53584544972252","41.5223140284123","34.6533235444789"
"54","Patient_BMo103.csv","%MAX","0.467380390924578","0.282480208098338","8.84420536248258","10.2651945597163","44.129498954294","51.2197392555195"
"55","Patient_BMo104.csv","%MAX","0.324643182156474","0.445634842434224","12.8303409633106","11.6243724594122","59.3379811340463","53.7605972954403"
"56","Patient_BMo105.csv","%MAX","0.497496431119849","0.191626401388724","7.97961547876659","10.1208840492876","29.6295139987455","37.5803666750617"
"57","Patient_BMo106.csv","%MAX","0.200027785162802","0.44038983464413","12.0958037322051","10.1167280834275","52.259504068884","43.7089757857116"
"58","Patient_BMo107.csv","%MAX","0.425840962430894","0.596826143107407","7.67286526051749","6.42965471147507","40.4115331270817","33.8637778126378"
"59","Patient_BMo108.csv","%MAX","0.413711389718584","0.382250938427715","5.07132338911043","5.20560995334718","17.4375633398753","17.8993028681808"
"60","Patient_BMo109.csv","%MAX","0.664273598128524","0.751662591532842","18.0641955422879","15.536276799158","22.3244023144015","19.2003066463914"
"61","Patient_BMo110.csv","%subMVIC","0.97347612923884","0.484591032468855","1.653144594657","7.28732896839445","11.1983244373858","49.3640267970465"
"62","Patient_BMo111.csv","%subMVIC","0.929576299253657","0.569178674607729","6.56773793543825","16.2444491829065","13.7523526405002","34.0146631625778"
"63","Patient_BMo112.csv","%subMVIC","0.923701240883653","0.27916280345609","4.3991080407403","13.5214879446477","15.0116235348155","46.1410551356769"
"64","Patient_BMo113.csv","%subMVIC","0.93247947993547","0.267143634829482","2.17220856844371","7.15637459386762","11.8130162597114","38.9181640594079"
"65","Patient_BMo114.csv","V","0.767173686250985","0.645332250952891","0.00501322380436071","0.00618745297637632","28.3381888503735","34.9757397215817"
"66","Patient_BMo115.csv","V","0.926703983206476","0.652800005088373","0.00131572090611741","0.00286360718588913","12.6614008338032","27.556967623243"
"67","Patient_BMo117.csv","Hz","0.866857402436688","0.552989231657023","6.16044622076632","11.287886929768","5.72866599035542","10.4967289121949"
"68","Patient_BMo118.csv","Hz","0.857096691095596","0.502499440865919","6.36162457558745","11.8698076214075","7.16492275503403","13.3686377927521"
"69","Patient_BMo15.csv","V","0.840519989777014","0.66767934464781","0.00214389881785632","0.0030947803110035","29.5425675658934","42.6455556941049"
"70","Patient_BMo22.csv","V","0.922484158265241","0.873335996387283","0.00199782898204507","0.00255381645512468","14.5152229752874","18.5547489886481"
"71","Patient_BMo23.csv","V","0.721194413319492","0.342622065197845","0.00102656959619827","0.00157632303890425","25.2997332167564","38.8483669255307"
"72","Patient_BMo24.csv","V","0.766343631195508","0.487250184604913","0.00309766047749945","0.00458878552256522","28.7298364240888","42.5595569321232"
"73","Patient_BMo29.csv","Hz","0.919265714370726","0.600752535660678","5.5233611101581","12.2827473195194","7.03577947020029","15.6460350327989"
"74","Patient_BMo34.csv","%MAX","0.932927179503331","0.59290743834609","0.771574045910088","1.90086340291001","10.9100807463746","26.8782669965459"
"75","Patient_BMo35.csv","NAN","0.551018312539862","0.339703783834416","0.175980706545518","0.213412644483029","32.8954011060285","39.8924102486863"
"76","Patient_BMo36.csv","%SubMVIC","0.947252655656222","0.644209024161287","0.720727770819628","1.87183869627889","9.15786864942403","23.784365758429"
"77","Patient_BMo37.csv","Hz","0.844996343959871","0.554677530870052","10.3586817213577","17.5578293018041","10.7434682944825","18.2100374833357"
"78","Patient_BMo38.csv","Hz","0.929313424408126","0.652076543642042","4.90518294126215","10.8824979090888","4.99200717628855","11.0751236617768"
"79","Patient_BMo40.csv","Hz","0.814887583885833","0.459274162011855","9.27994139585065","15.8604688060356","14.1924028370644","24.2564206903935"
"80","Patient_BMo41.csv","NAN","0.987817225360474","0.202820932992978","0.0809059294765959","0.654463136473974","6.90896612781229","55.8879141621936"
"81","Patient_BMo42.csv","NAN","0.761251942438997","0.645373148098348","1.86807400605792","2.27672178044916","43.4339836921163","52.9353207436305"
"82","Patient_BMo43.csv","NAN","0.574057459285884","0.538008583722637","0.849459840642871","0.884676103687646","66.8099425745829","69.5796985996968"
"83","Patient_BMo44.csv","NAN","0.759072423325454","0.710488304620466","3.66439440264706","4.01690916603535","41.0968274854348","45.050342534626"
"84","Patient_BMo51.csv","Hz","0.915815547222643","0.676203564105355","7.85251546678006","15.4002895347224","6.24018037334067","12.2381910490836"
"85","Patient_BMo52.csv","Hz","0.797370746913968","0.700553123736","9.19609611068727","11.17924111763","10.2196489875794","12.4235239382634"
"86","Patient_BMo53.csv","Hz","0.93459343992316","0.680424287674732","7.6925321963359","17.0037828846723","7.92671872111543","17.5214351635622"
"87","Patient_BMo67.csv","%subMVIC","0.996638720531665","0.656830003829508","0.550748423090382","5.56487746543931","3.13192889667425","31.6456658062923"
"88","Patient_BMo68.csv","%subMVIC","0.956939615291915","0.58211604835899","1.39612136660003","4.34922691877472","14.1107794287233","43.9581996268366"
"89","Patient_BMo69.csv","V","0.858030381093761","0.690727449927912","0.00302882652029914","0.00447041023419638","15.9832428210383","23.5905397037261"
"90","Patient_BMo81.csv","V","0.785380439181394","0.504227132271853","0.00141513727401729","0.00215082609522609","26.8034626696428","40.7378054488175"
"91","Patient_BMo82.csv","V","0.761939032698529","0.261739217962127","0.00418683900276893","0.00737304803737617","27.8898686580067","49.1142222654374"
"92","Patient_BMo86.csv","s","0.253484796394035","0.164560027812228","0.705029025192366","0.745839351311351","62.2031122034041","65.8037147373837"
"93","Patient_BMo87.csv","s","0.252776427026195","0","2.83163355980558","3.27575768593161","164.911192964972","190.776488709312"
"94","Patient_BMo88.csv","s","0.194473709810705","0.194473709810705","5.20165678478613","5.20165678478613","154.369834289376","154.369834289376"
"95","Patient_BMo91.csv","V","0.947227951712632","0.530806298290637","0.000486230839980207","0.00144982843265619","11.7680959751855","35.0897531381296"
"96","Patient_BMo96.csv","V","0.693515616778821","0.582008592181228","0.00668879392618477","0.007811371957284","24.4749541739648","28.5825774870849"
"97","Patient_BMo97.csv","V","0.927912482832456","0.368434869034406","0.00129098468053694","0.00382120314934983","15.8519320863611","46.9203498111915"
"98","Patient_BMo98.csv","V","0.838053909714254","0.527786680397787","0.00509270194587887","0.00869625251848295","22.275403239363","38.0372803237169"
