Biomarkers,Participant,Session,Task,Error
107,P27,REL,Gait_Normal,no values
107,P53,INI,Gait_Normal,no values
107,P55,REL,Gait_Normal,no values
107,P57,REL,Gait_Normal,no values
107,P68,INI,Gait_Normal,no values
