Biomarkers,Participant,Session,Task,Error
87,P26,INI,Perturbation_R_Shoulder,no values
87,P43,INI,Perturbation_R_Shoulder,no values
87,P45,REL,Perturbation_R_Shoulder,no values
87,P48,INI,Perturbation_R_Shoulder,no values
87,P54,REL,Perturbation_R_Shoulder,no values
87,P58,INI,Perturbation_R_Shoulder,no values
87,P61,REL,Perturbation_R_Shoulder,no values
87,P63,INI,Perturbation_R_Shoulder,no values
87,P67,REL,Perturbation_R_Shoulder,no values
