Group,Participant,Session,Operator,Measure,Value,Unit
CTR,P01,INI,FM,M1,110.68404777578432,Hz
CTR,P01,INI,FM,M2,59.28902547723818,Hz
CTR,P01,INI,FM,M3,99.8201439570719,Hz
CTR,P01,REL,FM,M1,81.63080264433766,Hz
CTR,P01,REL,FM,M2,98.68662191687412,Hz
CTR,P01,REL,FM,M3,98.15541985931652,Hz
CTR,P02,INI,FM,M1,84.15440762536548,Hz
CTR,P02,INI,FM,M2,86.70757373550619,Hz
CTR,P02,INI,FM,M3,83.40055026547357,Hz
CTR,P02,REL,FM,M1,53.2839162521004,Hz
CTR,P02,REL,FM,M2,60.33590598614065,Hz
CTR,P02,REL,FM,M3,85.86937049339483,Hz
CTR,P03,INI,FM,M1,125.57004583116164,Hz
CTR,P03,INI,FM,M2,135.2067975875689,Hz
CTR,P03,INI,FM,M3,136.8005322172421,Hz
CTR,P03,REL,FM,M1,107.69406638522372,Hz
CTR,P03,REL,FM,M2,116.78098962349024,Hz
CTR,P03,REL,FM,M3,107.96873679778712,Hz
CTR,P05,INI,FM,M1,88.92725461086309,Hz
CTR,P05,INI,FM,M2,81.463597461519,Hz
CTR,P05,INI,FM,M3,87.11718870392029,Hz
CTR,P05,REL,FM,M1,88.59312522527416,Hz
CTR,P05,REL,FM,M2,84.89365569155116,Hz
CTR,P05,REL,FM,M3,56.40839160747287,Hz
CTR,P06,INI,FM,M1,153.60133045735765,Hz
CTR,P06,INI,FM,M2,151.34618348209844,Hz
CTR,P06,INI,FM,M3,142.16916740664695,Hz
CTR,P06,REL,FM,M1,116.46742176107594,Hz
CTR,P06,REL,FM,M2,109.84320612946864,Hz
CTR,P06,REL,FM,M3,110.49325187173297,Hz
CTR,P07,INI,FM,M1,,Hz
CTR,P07,INI,FM,M2,,Hz
CTR,P07,INI,FM,M3,,Hz
CTR,P07,REL,FM,M1,,Hz
CTR,P07,REL,FM,M2,,Hz
CTR,P07,REL,FM,M3,,Hz
CTR,P08,INI,FM,M1,71.71836252496071,Hz
CTR,P08,INI,FM,M2,80.51890592938022,Hz
CTR,P08,INI,FM,M3,103.3227666732636,Hz
CTR,P08,REL,FM,M1,75.99195179894716,Hz
CTR,P08,REL,FM,M2,78.2671323207601,Hz
CTR,P08,REL,FM,M3,79.17257592298633,Hz
CTR,P13,INI,FM,M1,55.15994567175509,Hz
CTR,P13,INI,FM,M2,43.21773202216404,Hz
CTR,P13,INI,FM,M3,37.01911807239564,Hz
CTR,P13,REL,FM,M1,41.50087026722901,Hz
CTR,P13,REL,FM,M2,42.78714792406834,Hz
CTR,P13,REL,FM,M3,47.42488304472918,Hz
CTR,P16,INI,FM,M1,141.9443677222454,Hz
CTR,P16,INI,FM,M2,138.30831895417603,Hz
CTR,P16,INI,FM,M3,139.60168280409,Hz
CTR,P16,REL,FM,M1,110.70956999599976,Hz
CTR,P16,REL,FM,M2,123.7793395416639,Hz
CTR,P16,REL,FM,M3,140.2402075662056,Hz
CTR,P21,INI,FM,M1,95.72787779522596,Hz
CTR,P21,INI,FM,M2,97.42116719452235,Hz
CTR,P21,INI,FM,M3,96.66978780010308,Hz
CTR,P21,REL,FM,M1,105.0808974070185,Hz
CTR,P21,REL,FM,M2,101.83669791187556,Hz
CTR,P21,REL,FM,M3,80.69985857504707,Hz
CTR,P22,INI,FM,M1,102.32937095534363,Hz
CTR,P22,INI,FM,M2,104.06464213836612,Hz
CTR,P22,INI,FM,M3,102.1603823154744,Hz
CTR,P22,REL,FM,M1,116.52294295489996,Hz
CTR,P22,REL,FM,M2,116.83819157073717,Hz
CTR,P22,REL,FM,M3,117.03538674121351,Hz
CTR,P23,INI,FM,M1,123.1851774216234,Hz
CTR,P23,INI,FM,M2,128.1638802807719,Hz
CTR,P23,INI,FM,M3,133.50126657233656,Hz
CTR,P23,REL,FM,M1,113.3071695971958,Hz
CTR,P23,REL,FM,M2,134.44599119694993,Hz
CTR,P23,REL,FM,M3,116.97015712714462,Hz
CTR,P25,INI,FM,M1,95.14120844858628,Hz
CTR,P25,INI,FM,M2,83.5420615889221,Hz
CTR,P25,INI,FM,M3,72.05692258928988,Hz
CTR,P25,REL,FM,M1,99.93459299184777,Hz
CTR,P25,REL,FM,M2,98.79252159064538,Hz
CTR,P25,REL,FM,M3,101.62712721682652,Hz
CTR,P35,INI,FM,M1,59.208260654177664,Hz
CTR,P35,INI,FM,M2,107.13501095991572,Hz
CTR,P35,INI,FM,M3,113.0379368339595,Hz
CTR,P35,REL,FM,M1,60.06637642720216,Hz
CTR,P35,REL,FM,M2,60.0590333085915,Hz
CTR,P35,REL,FM,M3,93.60673661380112,Hz
CTR,P38,INI,FM,M1,105.56916615067588,Hz
CTR,P38,INI,FM,M2,52.76627144637786,Hz
CTR,P38,INI,FM,M3,69.3012146266438,Hz
CTR,P38,REL,FM,M1,93.917971199237,Hz
CTR,P38,REL,FM,M2,86.95236478843664,Hz
CTR,P38,REL,FM,M3,95.05314928236288,Hz
CTR,P39,INI,FM,M1,43.02699347752048,Hz
CTR,P39,INI,FM,M2,42.12549596557149,Hz
CTR,P39,INI,FM,M3,33.33703390825726,Hz
CTR,P39,REL,FM,M1,75.04774812512548,Hz
CTR,P39,REL,FM,M2,65.2068271154659,Hz
CTR,P39,REL,FM,M3,63.63016216471188,Hz
CTR,P40,INI,FM,M1,48.55608273837044,Hz
CTR,P40,INI,FM,M2,71.64301840663191,Hz
CTR,P40,INI,FM,M3,64.14472758170432,Hz
CTR,P40,REL,FM,M1,65.58500860246987,Hz
CTR,P40,REL,FM,M2,62.70606383735869,Hz
CTR,P40,REL,FM,M3,82.6043391770897,Hz
CTR,P44,INI,FM,M1,66.3704226252387,Hz
CTR,P44,INI,FM,M2,85.3765996490883,Hz
CTR,P44,INI,FM,M3,67.36316994092745,Hz
CTR,P44,REL,FM,M1,68.28166968023942,Hz
CTR,P44,REL,FM,M2,80.20960043153848,Hz
CTR,P44,REL,FM,M3,110.9526823807724,Hz
CTR,P46,INI,FM,M1,93.64802052096005,Hz
CTR,P46,INI,FM,M2,115.51852497451758,Hz
CTR,P46,INI,FM,M3,108.274599029457,Hz
CTR,P46,REL,FM,M1,43.76326116539887,Hz
CTR,P46,REL,FM,M2,69.99944554561509,Hz
CTR,P46,REL,FM,M3,62.554142979351,Hz
CTR,P48,INI,FM,M1,108.90802486756908,Hz
CTR,P48,INI,FM,M2,106.71382141085836,Hz
CTR,P48,INI,FM,M3,105.59100935435428,Hz
CTR,P48,REL,FM,M1,94.10994323974435,Hz
CTR,P48,REL,FM,M2,94.1592704514567,Hz
CTR,P48,REL,FM,M3,98.64832522957136,Hz
CTR,P49,INI,FM,M1,100.5997278393186,Hz
CTR,P49,INI,FM,M2,94.59648756290686,Hz
CTR,P49,INI,FM,M3,90.94577902437231,Hz
CTR,P49,REL,FM,M1,42.8708931441071,Hz
CTR,P49,REL,FM,M2,51.78787737047992,Hz
CTR,P49,REL,FM,M3,30.1124705680854,Hz
CTR,P52,INI,FM,M1,92.44441995549998,Hz
CTR,P52,INI,FM,M2,83.3620324766746,Hz
CTR,P52,INI,FM,M3,95.09093026976558,Hz
CTR,P52,REL,FM,M1,95.36981376323384,Hz
CTR,P52,REL,FM,M2,93.12076377707548,Hz
CTR,P52,REL,FM,M3,116.9959349375626,Hz
CTR,P55,INI,FM,M1,117.20568586323488,Hz
CTR,P55,INI,FM,M2,110.1327036893952,Hz
CTR,P55,INI,FM,M3,97.23520989886042,Hz
CTR,P55,REL,FM,M1,81.98998794031743,Hz
CTR,P55,REL,FM,M2,101.25676809571368,Hz
CTR,P55,REL,FM,M3,105.97575472269205,Hz
CTR,P56,INI,FM,M1,106.0389302265751,Hz
CTR,P56,INI,FM,M2,108.89768933275178,Hz
CTR,P56,INI,FM,M3,108.64468225610432,Hz
CTR,P56,REL,FM,M1,94.4523182313329,Hz
CTR,P56,REL,FM,M2,90.23101592771216,Hz
CTR,P56,REL,FM,M3,92.1530548180668,Hz
CTR,P57,INI,FM,M1,39.689322249646985,Hz
CTR,P57,INI,FM,M2,42.94712157801983,Hz
CTR,P57,INI,FM,M3,46.77872976013747,Hz
CTR,P57,REL,FM,M1,108.23192442584084,Hz
CTR,P57,REL,FM,M2,110.06912039956198,Hz
CTR,P57,REL,FM,M3,115.9977567566026,Hz
CTR,P60,INI,FM,M1,99.43190063004948,Hz
CTR,P60,INI,FM,M2,100.08037156915952,Hz
CTR,P60,INI,FM,M3,95.26120147169104,Hz
CTR,P60,REL,FM,M1,92.22744823882772,Hz
CTR,P60,REL,FM,M2,92.5805182675292,Hz
CTR,P60,REL,FM,M3,77.92403094162157,Hz
CTR,P64,INI,FM,M1,78.17341287630379,Hz
CTR,P64,INI,FM,M2,75.61971789865241,Hz
CTR,P64,INI,FM,M3,77.46057557295386,Hz
CTR,P64,REL,FM,M1,67.40631694008545,Hz
CTR,P64,REL,FM,M2,66.30731455232252,Hz
CTR,P64,REL,FM,M3,72.36253394981337,Hz
CTR,P66,INI,FM,M1,,Hz
CTR,P66,INI,FM,M2,,Hz
CTR,P66,INI,FM,M3,,Hz
CTR,P66,REL,FM,M1,,Hz
CTR,P66,REL,FM,M2,,Hz
CTR,P66,REL,FM,M3,,Hz
CTR,P67,INI,FM,M1,50.4025505059332,Hz
CTR,P67,INI,FM,M2,126.19561671029072,Hz
CTR,P67,INI,FM,M3,69.32920613900743,Hz
CTR,P67,REL,FM,M1,44.81211921345822,Hz
CTR,P67,REL,FM,M2,44.11368838345163,Hz
CTR,P67,REL,FM,M3,42.79438733732757,Hz
CTR,P68,INI,FM,M1,48.02284801552176,Hz
CTR,P68,INI,FM,M2,59.8631939993353,Hz
CTR,P68,INI,FM,M3,82.33985475287741,Hz
CTR,P68,REL,FM,M1,80.01178557186459,Hz
CTR,P68,REL,FM,M2,74.3186146986039,Hz
CTR,P68,REL,FM,M3,84.62951569963529,Hz
