Group,Participant,Session,Operator,Measure,Value,Unit
CTR,P01,INI,FM,M1,19.012953795157735,%MAX
CTR,P01,INI,FM,M2,22.550262259194923,%MAX
CTR,P01,INI,FM,M3,26.32527588099975,%MAX
CTR,P01,REL,FM,M1,15.015577263753322,%MAX
CTR,P01,REL,FM,M2,8.581270905892975,%MAX
CTR,P01,REL,FM,M3,11.760774165900585,%MAX
CTR,P02,INI,FM,M1,11.970090361003935,%MAX
CTR,P02,INI,FM,M2,10.791465377144611,%MAX
CTR,P02,INI,FM,M3,9.22049152082886,%MAX
CTR,P02,REL,FM,M1,9.511385827248922,%MAX
CTR,P02,REL,FM,M2,6.006771668344841,%MAX
CTR,P02,REL,FM,M3,5.587751295258469,%MAX
CTR,P03,INI,FM,M1,17.03152271681872,%MAX
CTR,P03,INI,FM,M2,15.32905072011358,%MAX
CTR,P03,INI,FM,M3,14.111677665557636,%MAX
CTR,P03,REL,FM,M1,22.844929791609076,%MAX
CTR,P03,REL,FM,M2,27.264449515345788,%MAX
CTR,P03,REL,FM,M3,35.002779747727324,%MAX
CTR,P05,INI,FM,M1,15.13926763466761,%MAX
CTR,P05,INI,FM,M2,19.403754016148905,%MAX
CTR,P05,INI,FM,M3,17.19771865763148,%MAX
CTR,P05,REL,FM,M1,16.6349785965075,%MAX
CTR,P05,REL,FM,M2,16.794263137223012,%MAX
CTR,P05,REL,FM,M3,18.517311603373145,%MAX
CTR,P06,INI,FM,M1,27.85396139202001,%MAX
CTR,P06,INI,FM,M2,27.04396990445549,%MAX
CTR,P06,INI,FM,M3,29.364827044999572,%MAX
CTR,P06,REL,FM,M1,18.921173077664776,%MAX
CTR,P06,REL,FM,M2,17.38623391542176,%MAX
CTR,P06,REL,FM,M3,17.155905748658036,%MAX
CTR,P07,INI,FM,M1,6.68295547957052,%MAX
CTR,P07,INI,FM,M2,5.331168494070252,%MAX
CTR,P07,INI,FM,M3,11.169403437168684,%MAX
CTR,P07,REL,FM,M1,17.24744041294823,%MAX
CTR,P07,REL,FM,M2,15.579400314518807,%MAX
CTR,P07,REL,FM,M3,14.964461199092597,%MAX
CTR,P08,INI,FM,M1,9.382901206919955,%MAX
CTR,P08,INI,FM,M2,11.467351049255983,%MAX
CTR,P08,INI,FM,M3,8.818304876183635,%MAX
CTR,P08,REL,FM,M1,7.764511125978122,%MAX
CTR,P08,REL,FM,M2,6.906222229531645,%MAX
CTR,P08,REL,FM,M3,7.531460726842856,%MAX
CTR,P13,INI,FM,M1,25.066116331336396,%MAX
CTR,P13,INI,FM,M2,25.323231031894498,%MAX
CTR,P13,INI,FM,M3,23.76675256091427,%MAX
CTR,P13,REL,FM,M1,20.873207148590154,%MAX
CTR,P13,REL,FM,M2,16.877330656106075,%MAX
CTR,P13,REL,FM,M3,17.59545749618862,%MAX
CTR,P16,INI,FM,M1,89.36978893860221,%MAX
CTR,P16,INI,FM,M2,89.51278097588333,%MAX
CTR,P16,INI,FM,M3,59.92247576649976,%MAX
CTR,P16,REL,FM,M1,42.639566977913674,%MAX
CTR,P16,REL,FM,M2,60.86532881833265,%MAX
CTR,P16,REL,FM,M3,46.34101202565466,%MAX
CTR,P21,INI,FM,M1,35.09538021381578,%MAX
CTR,P21,INI,FM,M2,31.814741409757687,%MAX
CTR,P21,INI,FM,M3,42.01484938904808,%MAX
CTR,P21,REL,FM,M1,57.440247218285656,%MAX
CTR,P21,REL,FM,M2,55.16457427136645,%MAX
CTR,P21,REL,FM,M3,92.73197659421055,%MAX
CTR,P22,INI,FM,M1,41.63936919219149,%MAX
CTR,P22,INI,FM,M2,28.6690209156754,%MAX
CTR,P22,INI,FM,M3,28.040534200641467,%MAX
CTR,P22,REL,FM,M1,,%MAX
CTR,P22,REL,FM,M2,,%MAX
CTR,P22,REL,FM,M3,,%MAX
CTR,P23,INI,FM,M1,54.3484286403454,%MAX
CTR,P23,INI,FM,M2,55.233479950790795,%MAX
CTR,P23,INI,FM,M3,42.45227978652158,%MAX
CTR,P23,REL,FM,M1,31.51959696302438,%MAX
CTR,P23,REL,FM,M2,112.68114634908491,%MAX
CTR,P23,REL,FM,M3,106.56281311819596,%MAX
CTR,P25,INI,FM,M1,,%MAX
CTR,P25,INI,FM,M2,,%MAX
CTR,P25,INI,FM,M3,,%MAX
CTR,P25,REL,FM,M1,,%MAX
CTR,P25,REL,FM,M2,,%MAX
CTR,P25,REL,FM,M3,,%MAX
CTR,P35,INI,FM,M1,45.817953150857576,%MAX
CTR,P35,INI,FM,M2,10.307472383110571,%MAX
CTR,P35,INI,FM,M3,129.7535966163227,%MAX
CTR,P35,REL,FM,M1,8.779884984006424,%MAX
CTR,P35,REL,FM,M2,9.799483692771185,%MAX
CTR,P35,REL,FM,M3,131.38084318550227,%MAX
CTR,P38,INI,FM,M1,,%MAX
CTR,P38,INI,FM,M2,,%MAX
CTR,P38,INI,FM,M3,,%MAX
CTR,P38,REL,FM,M1,107.10072524891272,%MAX
CTR,P38,REL,FM,M2,56.64872510167761,%MAX
CTR,P38,REL,FM,M3,143.30550685410623,%MAX
CTR,P39,INI,FM,M1,14.276400832561633,%MAX
CTR,P39,INI,FM,M2,15.4635834985872,%MAX
CTR,P39,INI,FM,M3,62.1566671896436,%MAX
CTR,P39,REL,FM,M1,16.67895647148265,%MAX
CTR,P39,REL,FM,M2,18.28011905280217,%MAX
CTR,P39,REL,FM,M3,15.218981517466961,%MAX
CTR,P40,INI,FM,M1,9.01369199205696,%MAX
CTR,P40,INI,FM,M2,14.136890209140198,%MAX
CTR,P40,INI,FM,M3,14.59264717068499,%MAX
CTR,P40,REL,FM,M1,8.895489523952294,%MAX
CTR,P40,REL,FM,M2,8.48421522747212,%MAX
CTR,P40,REL,FM,M3,66.83807623397144,%MAX
CTR,P44,INI,FM,M1,23.33961917037322,%MAX
CTR,P44,INI,FM,M2,26.63188418406047,%MAX
CTR,P44,INI,FM,M3,49.44407936265815,%MAX
CTR,P44,REL,FM,M1,12.289951838534265,%MAX
CTR,P44,REL,FM,M2,22.572012385664358,%MAX
CTR,P44,REL,FM,M3,23.65853010614027,%MAX
CTR,P46,INI,FM,M1,,%MAX
CTR,P46,INI,FM,M2,,%MAX
CTR,P46,INI,FM,M3,,%MAX
CTR,P46,REL,FM,M1,,%MAX
CTR,P46,REL,FM,M2,,%MAX
CTR,P46,REL,FM,M3,,%MAX
CTR,P48,INI,FM,M1,20.756099647371364,%MAX
CTR,P48,INI,FM,M2,22.078261117726115,%MAX
CTR,P48,INI,FM,M3,51.17967731817316,%MAX
CTR,P48,REL,FM,M1,26.65227763989754,%MAX
CTR,P48,REL,FM,M2,21.67591236178635,%MAX
CTR,P48,REL,FM,M3,49.3296279776432,%MAX
CTR,P49,INI,FM,M1,7.7436579633953295,%MAX
CTR,P49,INI,FM,M2,8.59699495429187,%MAX
CTR,P49,INI,FM,M3,57.15091218975859,%MAX
CTR,P49,REL,FM,M1,12.972100791301344,%MAX
CTR,P49,REL,FM,M2,24.623107400749372,%MAX
CTR,P49,REL,FM,M3,48.09416019509506,%MAX
CTR,P52,INI,FM,M1,47.4335806827076,%MAX
CTR,P52,INI,FM,M2,64.30381394997708,%MAX
CTR,P52,INI,FM,M3,59.307300254913095,%MAX
CTR,P52,REL,FM,M1,37.996015321826235,%MAX
CTR,P52,REL,FM,M2,62.446337926369544,%MAX
CTR,P52,REL,FM,M3,51.851213455145796,%MAX
CTR,P55,INI,FM,M1,36.21908350507433,%MAX
CTR,P55,INI,FM,M2,59.53494144235709,%MAX
CTR,P55,INI,FM,M3,43.85355144803726,%MAX
CTR,P55,REL,FM,M1,38.029428124976356,%MAX
CTR,P55,REL,FM,M2,39.346325988409085,%MAX
CTR,P55,REL,FM,M3,56.632405747046846,%MAX
CTR,P56,INI,FM,M1,12.013233831031604,%MAX
CTR,P56,INI,FM,M2,12.45771275329377,%MAX
CTR,P56,INI,FM,M3,37.73797347198351,%MAX
CTR,P56,REL,FM,M1,47.54414074422289,%MAX
CTR,P56,REL,FM,M2,40.31416868353035,%MAX
CTR,P56,REL,FM,M3,45.05733225241423,%MAX
CTR,P57,INI,FM,M1,5.824634647049702,%MAX
CTR,P57,INI,FM,M2,4.4364103846416985,%MAX
CTR,P57,INI,FM,M3,74.33737457903528,%MAX
CTR,P57,REL,FM,M1,8.006764846784673,%MAX
CTR,P57,REL,FM,M2,26.38547212930209,%MAX
CTR,P57,REL,FM,M3,33.61741441054721,%MAX
CTR,P60,INI,FM,M1,50.05530014088031,%MAX
CTR,P60,INI,FM,M2,60.71467855914687,%MAX
CTR,P60,INI,FM,M3,63.827542904388814,%MAX
CTR,P60,REL,FM,M1,18.991431608655926,%MAX
CTR,P60,REL,FM,M2,52.631682805482626,%MAX
CTR,P60,REL,FM,M3,58.6438426255564,%MAX
CTR,P64,INI,FM,M1,40.663652281929586,%MAX
CTR,P64,INI,FM,M2,45.727166814682334,%MAX
CTR,P64,INI,FM,M3,78.12802547384373,%MAX
CTR,P64,REL,FM,M1,46.872316045499765,%MAX
CTR,P64,REL,FM,M2,90.57744439475272,%MAX
CTR,P64,REL,FM,M3,54.17224401656797,%MAX
CTR,P66,INI,FM,M1,39.24382448315161,%MAX
CTR,P66,INI,FM,M2,33.728935373021365,%MAX
CTR,P66,INI,FM,M3,34.055400187310205,%MAX
CTR,P66,REL,FM,M1,6.04789368196181,%MAX
CTR,P66,REL,FM,M2,10.256821757782332,%MAX
CTR,P66,REL,FM,M3,7.530481851431684,%MAX
CTR,P67,INI,FM,M1,78.707487283195,%MAX
CTR,P67,INI,FM,M2,212.09674728168952,%MAX
CTR,P67,INI,FM,M3,61.355743574650795,%MAX
CTR,P67,REL,FM,M1,79.35962166384016,%MAX
CTR,P67,REL,FM,M2,45.78928251035932,%MAX
CTR,P67,REL,FM,M3,46.13567786955853,%MAX
CTR,P68,INI,FM,M1,4.4832114431924355,%MAX
CTR,P68,INI,FM,M2,74.59575116871406,%MAX
CTR,P68,INI,FM,M3,164.35748605154876,%MAX
CTR,P68,REL,FM,M1,90.42983163232088,%MAX
CTR,P68,REL,FM,M2,109.65218305716611,%MAX
CTR,P68,REL,FM,M3,47.99305558744798,%MAX
