Group,Participant,Session,Operator,Measure,Value,Unit
CTR,P01,INI,FM,M1,35.74593479709922,%MAX
CTR,P01,INI,FM,M2,38.51016324991647,%MAX
CTR,P01,INI,FM,M3,43.44261212648693,%MAX
CTR,P01,REL,FM,M1,39.88495862886595,%MAX
CTR,P01,REL,FM,M2,37.61510445713006,%MAX
CTR,P01,REL,FM,M3,36.85864925806918,%MAX
CTR,P02,INI,FM,M1,27.99945648431786,%MAX
CTR,P02,INI,FM,M2,28.76997986188947,%MAX
CTR,P02,INI,FM,M3,29.94766659108184,%MAX
CTR,P02,REL,FM,M1,39.34472550101455,%MAX
CTR,P02,REL,FM,M2,38.087713074302705,%MAX
CTR,P02,REL,FM,M3,32.41714415539713,%MAX
CTR,P03,INI,FM,M1,32.1300248944189,%MAX
CTR,P03,INI,FM,M2,29.965553470147196,%MAX
CTR,P03,INI,FM,M3,33.7116602529464,%MAX
CTR,P03,REL,FM,M1,30.3890360592418,%MAX
CTR,P03,REL,FM,M2,28.173803255103735,%MAX
CTR,P03,REL,FM,M3,26.776675167938162,%MAX
CTR,P05,INI,FM,M1,30.90462153010073,%MAX
CTR,P05,INI,FM,M2,33.84110431566893,%MAX
CTR,P05,INI,FM,M3,31.079711457184903,%MAX
CTR,P05,REL,FM,M1,35.15237569222981,%MAX
CTR,P05,REL,FM,M2,34.048098885578256,%MAX
CTR,P05,REL,FM,M3,38.43751797706458,%MAX
CTR,P06,INI,FM,M1,26.713473349461278,%MAX
CTR,P06,INI,FM,M2,20.349868577924365,%MAX
CTR,P06,INI,FM,M3,18.649930062069483,%MAX
CTR,P06,REL,FM,M1,23.07993188004509,%MAX
CTR,P06,REL,FM,M2,23.000138538766027,%MAX
CTR,P06,REL,FM,M3,22.287110441361648,%MAX
CTR,P07,INI,FM,M1,30.300153493630898,%MAX
CTR,P07,INI,FM,M2,32.79923909264862,%MAX
CTR,P07,INI,FM,M3,35.97139142210498,%MAX
CTR,P07,REL,FM,M1,30.079753086036582,%MAX
CTR,P07,REL,FM,M2,29.665415330794556,%MAX
CTR,P07,REL,FM,M3,34.68351443039469,%MAX
CTR,P08,INI,FM,M1,45.47349292644707,%MAX
CTR,P08,INI,FM,M2,41.24439635367954,%MAX
CTR,P08,INI,FM,M3,41.367307440884,%MAX
CTR,P08,REL,FM,M1,23.123900528237133,%MAX
CTR,P08,REL,FM,M2,20.78000615256171,%MAX
CTR,P08,REL,FM,M3,22.810883914872257,%MAX
CTR,P13,INI,FM,M1,27.750073910721156,%MAX
CTR,P13,INI,FM,M2,24.710206787318338,%MAX
CTR,P13,INI,FM,M3,25.114645711984295,%MAX
CTR,P13,REL,FM,M1,33.49788593601595,%MAX
CTR,P13,REL,FM,M2,31.43356323693283,%MAX
CTR,P13,REL,FM,M3,28.06121645246818,%MAX
CTR,P16,INI,FM,M1,39.55377718952823,%MAX
CTR,P16,INI,FM,M2,41.602262316857704,%MAX
CTR,P16,INI,FM,M3,42.073318631845865,%MAX
CTR,P16,REL,FM,M1,37.333613076117025,%MAX
CTR,P16,REL,FM,M2,32.22997933868538,%MAX
CTR,P16,REL,FM,M3,34.401616138364325,%MAX
CTR,P21,INI,FM,M1,36.72277144429078,%MAX
CTR,P21,INI,FM,M2,38.58322680537366,%MAX
CTR,P21,INI,FM,M3,43.137199268331216,%MAX
CTR,P21,REL,FM,M1,14.61451412803774,%MAX
CTR,P21,REL,FM,M2,12.233029095068291,%MAX
CTR,P21,REL,FM,M3,15.672162085211564,%MAX
CTR,P22,INI,FM,M1,23.699293942431904,%MAX
CTR,P22,INI,FM,M2,25.604368112615884,%MAX
CTR,P22,INI,FM,M3,19.909336600184954,%MAX
CTR,P22,REL,FM,M1,25.913449189428203,%MAX
CTR,P22,REL,FM,M2,28.29298670949142,%MAX
CTR,P22,REL,FM,M3,21.70757303429771,%MAX
CTR,P23,INI,FM,M1,34.96324444034974,%MAX
CTR,P23,INI,FM,M2,29.712532383806092,%MAX
CTR,P23,INI,FM,M3,30.78092948066111,%MAX
CTR,P23,REL,FM,M1,38.0403236409012,%MAX
CTR,P23,REL,FM,M2,58.01218933404602,%MAX
CTR,P23,REL,FM,M3,42.87827479201265,%MAX
CTR,P25,INI,FM,M1,25.094984290717935,%MAX
CTR,P25,INI,FM,M2,28.012703609119217,%MAX
CTR,P25,INI,FM,M3,21.423090774406337,%MAX
CTR,P25,REL,FM,M1,22.933801315407052,%MAX
CTR,P25,REL,FM,M2,23.38909906077468,%MAX
CTR,P25,REL,FM,M3,27.523086674566038,%MAX
CTR,P35,INI,FM,M1,35.2330338538411,%MAX
CTR,P35,INI,FM,M2,23.422736372231444,%MAX
CTR,P35,INI,FM,M3,44.124079741895976,%MAX
CTR,P35,REL,FM,M1,24.251746365486174,%MAX
CTR,P35,REL,FM,M2,23.9857781140924,%MAX
CTR,P35,REL,FM,M3,55.204703460968176,%MAX
CTR,P38,INI,FM,M1,27.10378426747333,%MAX
CTR,P38,INI,FM,M2,22.552066401637287,%MAX
CTR,P38,INI,FM,M3,28.261538298153322,%MAX
CTR,P38,REL,FM,M1,33.681759283895126,%MAX
CTR,P38,REL,FM,M2,31.46467568562483,%MAX
CTR,P38,REL,FM,M3,30.10168212982421,%MAX
CTR,P39,INI,FM,M1,29.834732894664153,%MAX
CTR,P39,INI,FM,M2,33.11537158699871,%MAX
CTR,P39,INI,FM,M3,47.25766928957895,%MAX
CTR,P39,REL,FM,M1,42.018401106311366,%MAX
CTR,P39,REL,FM,M2,38.78281749762151,%MAX
CTR,P39,REL,FM,M3,38.59492983401117,%MAX
CTR,P40,INI,FM,M1,27.413188899097307,%MAX
CTR,P40,INI,FM,M2,22.673589192390008,%MAX
CTR,P40,INI,FM,M3,55.10403150516198,%MAX
CTR,P40,REL,FM,M1,20.210587415605264,%MAX
CTR,P40,REL,FM,M2,19.5260406319819,%MAX
CTR,P40,REL,FM,M3,47.683774363942916,%MAX
CTR,P44,INI,FM,M1,37.02092275864129,%MAX
CTR,P44,INI,FM,M2,28.97645958766166,%MAX
CTR,P44,INI,FM,M3,25.404338458009818,%MAX
CTR,P44,REL,FM,M1,23.858243714242526,%MAX
CTR,P44,REL,FM,M2,20.431130373720556,%MAX
CTR,P44,REL,FM,M3,42.50150114090618,%MAX
CTR,P46,INI,FM,M1,20.55985216162697,%MAX
CTR,P46,INI,FM,M2,18.519514021031764,%MAX
CTR,P46,INI,FM,M3,20.17693921184646,%MAX
CTR,P46,REL,FM,M1,23.347154178715968,%MAX
CTR,P46,REL,FM,M2,26.097131512779097,%MAX
CTR,P46,REL,FM,M3,45.139728478109156,%MAX
CTR,P48,INI,FM,M1,30.893888094429208,%MAX
CTR,P48,INI,FM,M2,30.89549530062917,%MAX
CTR,P48,INI,FM,M3,50.02795328824391,%MAX
CTR,P48,REL,FM,M1,26.776729807747056,%MAX
CTR,P48,REL,FM,M2,21.757878971716774,%MAX
CTR,P48,REL,FM,M3,37.11179393059724,%MAX
CTR,P49,INI,FM,M1,31.990287139312617,%MAX
CTR,P49,INI,FM,M2,38.112324972836824,%MAX
CTR,P49,INI,FM,M3,46.363865674952635,%MAX
CTR,P49,REL,FM,M1,28.841228523960375,%MAX
CTR,P49,REL,FM,M2,36.241428443845685,%MAX
CTR,P49,REL,FM,M3,47.14810523334594,%MAX
CTR,P52,INI,FM,M1,30.070810585222244,%MAX
CTR,P52,INI,FM,M2,33.36872268241669,%MAX
CTR,P52,INI,FM,M3,29.28785090538869,%MAX
CTR,P52,REL,FM,M1,25.87033107018278,%MAX
CTR,P52,REL,FM,M2,37.64290999929605,%MAX
CTR,P52,REL,FM,M3,41.10141426901067,%MAX
CTR,P55,INI,FM,M1,38.904594452584334,%MAX
CTR,P55,INI,FM,M2,61.51649484371645,%MAX
CTR,P55,INI,FM,M3,51.42877790224962,%MAX
CTR,P55,REL,FM,M1,29.958474063714213,%MAX
CTR,P55,REL,FM,M2,40.29295427081808,%MAX
CTR,P55,REL,FM,M3,58.70714349357966,%MAX
CTR,P56,INI,FM,M1,31.72603905245714,%MAX
CTR,P56,INI,FM,M2,30.929560433414302,%MAX
CTR,P56,INI,FM,M3,37.04440369829571,%MAX
CTR,P56,REL,FM,M1,37.21836489111722,%MAX
CTR,P56,REL,FM,M2,32.84453130897223,%MAX
CTR,P56,REL,FM,M3,34.502402867361745,%MAX
CTR,P57,INI,FM,M1,42.94185092397268,%MAX
CTR,P57,INI,FM,M2,38.82050599997275,%MAX
CTR,P57,INI,FM,M3,41.03434643678263,%MAX
CTR,P57,REL,FM,M1,40.66992767282922,%MAX
CTR,P57,REL,FM,M2,43.78786442037213,%MAX
CTR,P57,REL,FM,M3,50.204608637719616,%MAX
CTR,P60,INI,FM,M1,30.641114659781234,%MAX
CTR,P60,INI,FM,M2,31.371683643714505,%MAX
CTR,P60,INI,FM,M3,29.944828131690127,%MAX
CTR,P60,REL,FM,M1,23.400687901456664,%MAX
CTR,P60,REL,FM,M2,37.633499058946974,%MAX
CTR,P60,REL,FM,M3,39.610185528876315,%MAX
CTR,P64,INI,FM,M1,28.682397583425495,%MAX
CTR,P64,INI,FM,M2,31.891916447159417,%MAX
CTR,P64,INI,FM,M3,39.17373741019907,%MAX
CTR,P64,REL,FM,M1,32.567608927105276,%MAX
CTR,P64,REL,FM,M2,27.161338376422464,%MAX
CTR,P64,REL,FM,M3,31.608459271335125,%MAX
CTR,P66,INI,FM,M1,35.292626637112804,%MAX
CTR,P66,INI,FM,M2,44.96616035647355,%MAX
CTR,P66,INI,FM,M3,41.30280226122106,%MAX
CTR,P66,REL,FM,M1,36.3599463817038,%MAX
CTR,P66,REL,FM,M2,35.329283472215145,%MAX
CTR,P66,REL,FM,M3,23.064937042667882,%MAX
CTR,P67,INI,FM,M1,41.60786954495418,%MAX
CTR,P67,INI,FM,M2,51.116708095195214,%MAX
CTR,P67,INI,FM,M3,44.12444103110487,%MAX
CTR,P67,REL,FM,M1,38.858698998752004,%MAX
CTR,P67,REL,FM,M2,35.819370625843355,%MAX
CTR,P67,REL,FM,M3,36.02094664519671,%MAX
CTR,P68,INI,FM,M1,34.360871235091565,%MAX
CTR,P68,INI,FM,M2,34.114773932896114,%MAX
CTR,P68,INI,FM,M3,28.476894617682387,%MAX
CTR,P68,REL,FM,M1,40.358164454793055,%MAX
CTR,P68,REL,FM,M2,37.839810596176456,%MAX
CTR,P68,REL,FM,M3,27.55839689031222,%MAX
