Group,Participant,Session,Operator,Measure,Value,Unit
CTR,P01,INI,FM,MEAN,9.174226247154717,%subMVIC
CTR,P02,INI,FM,MEAN,23.31875176613833,%subMVIC
CTR,P03,INI,FM,MEAN,30.944320059584147,%subMVIC
CTR,P05,INI,FM,MEAN,11.580114131250186,%subMVIC
CTR,P06,INI,FM,MEAN,40.1550725421488,%subMVIC
CTR,P07,INI,FM,MEAN,93.01617329894572,%subMVIC
CTR,P08,INI,FM,MEAN,50.67877981879696,%subMVIC
PAT,P09,INI,FM,MEAN,24.353444262129887,%subMVIC
PAT,P10,INI,FM,MEAN,10.721130978954667,%subMVIC
PAT,P11,INI,FM,MEAN,8.788255603506089,%subMVIC
PAT,P12,INI,FM,MEAN,25.47687985391355,%subMVIC
CTR,P13,INI,FM,MEAN,19.70298197695361,%subMVIC
PAT,P14,INI,FM,MEAN,17.04826694119805,%subMVIC
CTR,P16,INI,FM,MEAN,13.34861805854517,%subMVIC
PAT,P17,INI,FM,MEAN,35.87484521276899,%subMVIC
CTR,P21,INI,FM,MEAN,12.21551369716545,%subMVIC
CTR,P22,INI,FM,MEAN,12.597175483369075,%subMVIC
CTR,P23,INI,FM,MEAN,16.03942307104157,%subMVIC
PAT,P24,INI,FM,MEAN,24.427442981550485,%subMVIC
PAT,P26,INI,FM,MEAN,25.688140219481674,%subMVIC
PAT,P27,INI,FM,MEAN,19.298675629298568,%subMVIC
PAT,P28,INI,FM,MEAN,25.62807856258141,%subMVIC
PAT,P29,INI,FM,MEAN,19.172401032666748,%subMVIC
PAT,P30,INI,FM,MEAN,19.753178482598585,%subMVIC
PAT,P32,INI,FM,MEAN,13.84297763689648,%subMVIC
PAT,P33,INI,FM,MEAN,23.93715224090847,%subMVIC
PAT,P34,INI,FM,MEAN,14.710702540580522,%subMVIC
CTR,P35,INI,FM,MEAN,10.290844006653455,%subMVIC
PAT,P36,INI,FM,MEAN,12.032186843272932,%subMVIC
CTR,P39,INI,FM,MEAN,16.796789105917835,%subMVIC
CTR,P40,INI,FM,MEAN,6.869666170860374,%subMVIC
PAT,P41,INI,FM,MEAN,19.533609371351506,%subMVIC
PAT,P42,INI,FM,MEAN,13.501310194026885,%subMVIC
PAT,P43,INI,FM,MEAN,18.41211489353774,%subMVIC
CTR,P44,INI,FM,MEAN,7.848863577361953,%subMVIC
PAT,P45,INI,FM,MEAN,17.3248342567959,%subMVIC
PAT,P47,INI,FM,MEAN,4.763212589142303,%subMVIC
CTR,P48,INI,FM,MEAN,18.09842319465131,%subMVIC
CTR,P49,INI,FM,MEAN,11.535342360625197,%subMVIC
PAT,P50,INI,FM,MEAN,14.70598577087079,%subMVIC
PAT,P51,INI,FM,MEAN,15.572699952058334,%subMVIC
CTR,P52,INI,FM,MEAN,9.084489183712977,%subMVIC
PAT,P53,INI,FM,MEAN,11.656565630394104,%subMVIC
PAT,P54,INI,FM,MEAN,13.04058837506121,%subMVIC
CTR,P55,INI,FM,MEAN,28.05319027286265,%subMVIC
CTR,P56,INI,FM,MEAN,43.56082548325665,%subMVIC
CTR,P57,INI,FM,MEAN,85.97369223049107,%subMVIC
PAT,P58,INI,FM,MEAN,15.969124196833311,%subMVIC
CTR,P60,INI,FM,MEAN,6.094950983477329,%subMVIC
PAT,P62,INI,FM,MEAN,12.720820035732325,%subMVIC
PAT,P63,INI,FM,MEAN,21.652063077918434,%subMVIC
CTR,P64,INI,FM,MEAN,7.624984202641665,%subMVIC
PAT,P65,INI,FM,MEAN,11.139751833776826,%subMVIC
CTR,P66,INI,FM,MEAN,43.54273835557048,%subMVIC
CTR,P67,INI,FM,MEAN,17.62411266529863,%subMVIC
CTR,P68,INI,FM,MEAN,21.633236055420287,%subMVIC
