Group,Participant,Session,Operator,Measure,Value,Unit
CTR,P01,INI,FM,MEAN,43.23587299062019,%subMVIC
CTR,P02,INI,FM,MEAN,128.63797722446787,%subMVIC
CTR,P03,INI,FM,MEAN,39.5441012214373,%subMVIC
CTR,P05,INI,FM,MEAN,36.37849976994271,%subMVIC
CTR,P06,INI,FM,MEAN,23.283228190354887,%subMVIC
CTR,P07,INI,FM,MEAN,0.9731784995553644,%subMVIC
CTR,P08,INI,FM,MEAN,10.215278550808025,%subMVIC
PAT,P09,INI,FM,MEAN,24.495572563722785,%subMVIC
PAT,P10,INI,FM,MEAN,50.69081253691166,%subMVIC
PAT,P11,INI,FM,MEAN,58.95425443945391,%subMVIC
PAT,P12,INI,FM,MEAN,21.407962521793404,%subMVIC
CTR,P13,INI,FM,MEAN,119.08172297241488,%subMVIC
PAT,P14,INI,FM,MEAN,36.78955390419832,%subMVIC
CTR,P16,INI,FM,MEAN,15.412242312806976,%subMVIC
PAT,P17,INI,FM,MEAN,24.66394095570828,%subMVIC
CTR,P21,INI,FM,MEAN,12.981048035501848,%subMVIC
CTR,P22,INI,FM,MEAN,57.25776015551042,%subMVIC
CTR,P23,INI,FM,MEAN,40.044477343894656,%subMVIC
PAT,P24,INI,FM,MEAN,17.68857286816848,%subMVIC
CTR,P25,INI,FM,MEAN,46.84960590616553,%subMVIC
PAT,P26,INI,FM,MEAN,70.4960427140461,%subMVIC
PAT,P27,INI,FM,MEAN,36.006281253418905,%subMVIC
PAT,P28,INI,FM,MEAN,65.79320284388277,%subMVIC
PAT,P29,INI,FM,MEAN,41.151864616721674,%subMVIC
PAT,P30,INI,FM,MEAN,51.62845450537878,%subMVIC
PAT,P32,INI,FM,MEAN,33.40170262202536,%subMVIC
PAT,P33,INI,FM,MEAN,59.96315818119004,%subMVIC
PAT,P34,INI,FM,MEAN,53.6494262951706,%subMVIC
CTR,P35,INI,FM,MEAN,27.790199737877664,%subMVIC
PAT,P36,INI,FM,MEAN,17.891207315320013,%subMVIC
CTR,P38,INI,FM,MEAN,11.923374986873208,%subMVIC
CTR,P40,INI,FM,MEAN,11.076557614858855,%subMVIC
PAT,P41,INI,FM,MEAN,80.26960932695388,%subMVIC
PAT,P42,INI,FM,MEAN,108.02022511433411,%subMVIC
PAT,P43,INI,FM,MEAN,98.23605980011233,%subMVIC
CTR,P44,INI,FM,MEAN,132.33619568492878,%subMVIC
PAT,P45,INI,FM,MEAN,21.56343095476049,%subMVIC
CTR,P46,INI,FM,MEAN,12.08538007126466,%subMVIC
CTR,P48,INI,FM,MEAN,54.349210861270876,%subMVIC
CTR,P49,INI,FM,MEAN,47.55705934642451,%subMVIC
PAT,P50,INI,FM,MEAN,35.35128482041335,%subMVIC
PAT,P51,INI,FM,MEAN,63.03031282777257,%subMVIC
CTR,P52,INI,FM,MEAN,24.145020519809222,%subMVIC
PAT,P53,INI,FM,MEAN,50.79385438618316,%subMVIC
PAT,P54,INI,FM,MEAN,55.10553867872127,%subMVIC
CTR,P55,INI,FM,MEAN,81.44208079370694,%subMVIC
CTR,P56,INI,FM,MEAN,93.30790732771746,%subMVIC
CTR,P57,INI,FM,MEAN,34.92539809324472,%subMVIC
PAT,P58,INI,FM,MEAN,66.75990035436698,%subMVIC
CTR,P60,INI,FM,MEAN,59.4381739079117,%subMVIC
PAT,P61,INI,FM,MEAN,38.210865864130085,%subMVIC
PAT,P62,INI,FM,MEAN,30.894253590810358,%subMVIC
PAT,P63,INI,FM,MEAN,87.32885603552481,%subMVIC
CTR,P64,INI,FM,MEAN,30.290559453800334,%subMVIC
PAT,P65,INI,FM,MEAN,13.684167974535427,%subMVIC
CTR,P66,INI,FM,MEAN,119.57579911317168,%subMVIC
CTR,P67,INI,FM,MEAN,29.439512049595056,%subMVIC
CTR,P68,INI,FM,MEAN,65.38018679732893,%subMVIC
