event,time_sec,time_min
RHS,0.6200000047683716,0.0
RHS,1.649999976158142,0.0
RHS,2.6600000858306885,0.0
RHS,3.6500000953674316,0.0
RTO,0.23000000417232513,0.0
RTO,1.2599999904632568,0.0
RTO,2.2799999713897705,0.0
RTO,3.2799999713897705,0.0
LHS,0.09000000357627869,0.0
LHS,1.1399999856948853,0.0
LHS,2.1500000953674316,0.0
LHS,3.1500000953674316,0.0
LTO,0.75,0.0
LTO,1.7699999809265137,0.0
LTO,2.7799999713897705,0.0
LTO,3.799999952316284,0.0
