event,time_sec,time_min
RHS,0.6299999952316284,0.0
RHS,1.6200000047683716,0.0
RHS,2.609999895095825,0.0
RHS,3.640000104904175,0.0
RTO,0.23999999463558197,0.0
RTO,1.2400000095367432,0.0
RTO,2.2300000190734863,0.0
RTO,3.259999990463257,0.0
LHS,0.11999999731779099,0.0
LHS,1.1200000047683716,0.0
LHS,2.119999885559082,0.0
LHS,3.119999885559082,0.0
LTO,0.7599999904632568,0.0
LTO,1.7300000190734863,0.0
LTO,2.75,0.0
LTO,3.7699999809265137,0.0
