event,time_sec,time_min
RHS,0.1599999964237213,0.0
RHS,1.2599999904632568,0.0
RHS,2.3399999141693115,0.0
RHS,3.4100000858306885,0.0
RTO,0.8399999737739563,0.0
RTO,1.940000057220459,0.0
RTO,3.0299999713897705,0.0
RTO,4.090000152587891,0.0
LHS,0.7200000286102295,0.0
LHS,1.7999999523162842,0.0
LHS,2.880000114440918,0.0
LHS,3.9600000381469727,0.0
LTO,0.3199999928474426,0.0
LTO,1.4199999570846558,0.0
LTO,2.4700000286102295,0.0
LTO,3.549999952316284,0.0
