BMu,subject,P_C,session,task,trials,channel,value,event,repetition
BMu117,1,C,INI,Endurance_Sorensen,1,L_LES,117.12106509780033,start,1
BMu117,1,C,INI,Endurance_Sorensen,1,L_LES,74.64199441418164,end,1
BMu117,1,C,INI,Endurance_Sorensen,1,R_LES,92.88370714739155,start,1
BMu117,1,C,INI,Endurance_Sorensen,1,R_LES,82.13418655356256,end,1
BMu117,1,C,REL,Endurance_Sorensen,1,L_LES,116.88553194424553,start,1
BMu117,1,C,REL,Endurance_Sorensen,1,L_LES,78.05453104540518,end,1
BMu117,1,C,REL,Endurance_Sorensen,1,R_LES,105.64379554935046,start,1
BMu117,1,C,REL,Endurance_Sorensen,1,R_LES,91.02834348038816,end,1
BMu117,2,C,INI,Endurance_Sorensen,1,L_LES,102.02513909820021,start,1
BMu117,2,C,INI,Endurance_Sorensen,1,L_LES,66.13062520010915,end,1
BMu117,2,C,INI,Endurance_Sorensen,1,R_LES,114.78447142379467,start,1
BMu117,2,C,INI,Endurance_Sorensen,1,R_LES,77.82110919315036,end,1
BMu117,2,C,REL,Endurance_Sorensen,1,L_LES,99.41391276680896,start,1
BMu117,2,C,REL,Endurance_Sorensen,1,L_LES,71.832579566393,end,1
BMu117,2,C,REL,Endurance_Sorensen,1,R_LES,101.41901813972233,start,1
BMu117,2,C,REL,Endurance_Sorensen,1,R_LES,60.93960041022167,end,1
BMu117,3,C,INI,Endurance_Sorensen,1,L_LES,92.80225363333152,start,1
BMu117,3,C,INI,Endurance_Sorensen,1,L_LES,76.43744344558185,end,1
BMu117,3,C,INI,Endurance_Sorensen,1,R_LES,93.1873751215598,start,1
BMu117,3,C,INI,Endurance_Sorensen,1,R_LES,60.558047920209745,end,1
BMu117,3,C,REL,Endurance_Sorensen,1,L_LES,76.43653732608274,start,1
BMu117,3,C,REL,Endurance_Sorensen,1,L_LES,65.23881148339224,end,1
BMu117,3,C,REL,Endurance_Sorensen,1,R_LES,94.3389694266947,start,1
BMu117,3,C,REL,Endurance_Sorensen,1,R_LES,65.94881178451797,end,1
BMu117,5,C,INI,Endurance_Sorensen,1,L_LES,121.52202160560432,start,1
BMu117,5,C,INI,Endurance_Sorensen,1,L_LES,71.71414356746347,end,1
BMu117,5,C,INI,Endurance_Sorensen,1,R_LES,117.6366447987356,start,1
BMu117,5,C,INI,Endurance_Sorensen,1,R_LES,86.19410820256854,end,1
BMu117,5,C,REL,Endurance_Sorensen,1,L_LES,127.05134489647294,start,1
BMu117,5,C,REL,Endurance_Sorensen,1,L_LES,66.3514221945725,end,1
BMu117,5,C,REL,Endurance_Sorensen,1,R_LES,114.87318058723325,start,1
BMu117,5,C,REL,Endurance_Sorensen,1,R_LES,80.81095372729689,end,1
BMu117,6,C,INI,Endurance_Sorensen,1,L_LES,122.90117267206287,start,1
BMu117,6,C,INI,Endurance_Sorensen,1,L_LES,97.42319560010625,end,1
BMu117,6,C,INI,Endurance_Sorensen,1,R_LES,114.43548589043085,start,1
BMu117,6,C,INI,Endurance_Sorensen,1,R_LES,89.58388999703338,end,1
BMu117,6,C,REL,Endurance_Sorensen,1,L_LES,113.6964585129057,start,1
BMu117,6,C,REL,Endurance_Sorensen,1,L_LES,80.02922318316288,end,1
BMu117,6,C,REL,Endurance_Sorensen,1,R_LES,106.74860009286755,start,1
BMu117,6,C,REL,Endurance_Sorensen,1,R_LES,81.42912516570445,end,1
BMu117,7,C,INI,Endurance_Sorensen,1,L_LES,143.51828976360977,start,1
BMu117,7,C,INI,Endurance_Sorensen,1,L_LES,83.31466355289584,end,1
BMu117,7,C,INI,Endurance_Sorensen,1,R_LES,114.75036008278057,start,1
BMu117,7,C,INI,Endurance_Sorensen,1,R_LES,77.48683961320413,end,1
BMu117,7,C,REL,Endurance_Sorensen,1,L_LES,150.24961669904147,start,1
BMu117,7,C,REL,Endurance_Sorensen,1,L_LES,75.82533272114219,end,1
BMu117,7,C,REL,Endurance_Sorensen,1,R_LES,99.42485071742722,start,1
BMu117,7,C,REL,Endurance_Sorensen,1,R_LES,76.14340532752752,end,1
BMu117,8,C,INI,Endurance_Sorensen,1,L_LES,118.39547978139336,start,1
BMu117,8,C,INI,Endurance_Sorensen,1,L_LES,89.79808551417541,end,1
BMu117,8,C,INI,Endurance_Sorensen,1,R_LES,98.10389510610247,start,1
BMu117,8,C,INI,Endurance_Sorensen,1,R_LES,86.85277763668671,end,1
BMu117,8,C,REL,Endurance_Sorensen,1,L_LES,98.70463966566658,start,1
BMu117,8,C,REL,Endurance_Sorensen,1,L_LES,76.50115701729113,end,1
BMu117,8,C,REL,Endurance_Sorensen,1,R_LES,96.76494270756517,start,1
BMu117,8,C,REL,Endurance_Sorensen,1,R_LES,81.07468584353518,end,1
BMu117,9,P,INI,Endurance_Sorensen,1,L_LES,116.94039715769463,start,1
BMu117,9,P,INI,Endurance_Sorensen,1,L_LES,85.55228535549665,end,1
BMu117,9,P,INI,Endurance_Sorensen,1,R_LES,117.20990365124193,start,1
BMu117,9,P,INI,Endurance_Sorensen,1,R_LES,81.19932731772101,end,1
BMu117,9,P,REL,Endurance_Sorensen,1,L_LES,121.71913971876037,start,1
BMu117,9,P,REL,Endurance_Sorensen,1,L_LES,101.0384649286653,end,1
BMu117,9,P,REL,Endurance_Sorensen,1,R_LES,122.19230030068675,start,1
BMu117,9,P,REL,Endurance_Sorensen,1,R_LES,100.94752420710623,end,1
BMu117,10,P,INI,Endurance_Sorensen,1,L_LES,114.93340839634389,start,1
BMu117,10,P,INI,Endurance_Sorensen,1,L_LES,69.90901832545566,end,1
BMu117,10,P,INI,Endurance_Sorensen,1,R_LES,106.48798299999731,start,1
BMu117,10,P,INI,Endurance_Sorensen,1,R_LES,83.26307097205938,end,1
BMu117,10,P,REL,Endurance_Sorensen,1,L_LES,118.7307347101067,start,1
BMu117,10,P,REL,Endurance_Sorensen,1,L_LES,79.18833682319641,end,1
BMu117,10,P,REL,Endurance_Sorensen,1,R_LES,112.35337655593902,start,1
BMu117,10,P,REL,Endurance_Sorensen,1,R_LES,82.88854100211385,end,1
BMu117,11,P,INI,Endurance_Sorensen,1,L_LES,104.69637371376392,start,1
BMu117,11,P,INI,Endurance_Sorensen,1,L_LES,97.23653464425645,end,1
BMu117,11,P,INI,Endurance_Sorensen,1,R_LES,96.62809060127707,start,1
BMu117,11,P,INI,Endurance_Sorensen,1,R_LES,80.89632658296541,end,1
BMu117,11,P,REL,Endurance_Sorensen,1,L_LES,106.56248968325389,start,1
BMu117,11,P,REL,Endurance_Sorensen,1,L_LES,102.75752218690427,end,1
BMu117,11,P,REL,Endurance_Sorensen,1,R_LES,99.4670838983257,start,1
BMu117,11,P,REL,Endurance_Sorensen,1,R_LES,98.98033982010425,end,1
BMu117,12,P,INI,Endurance_Sorensen,1,L_LES,94.38811177797446,start,1
BMu117,12,P,INI,Endurance_Sorensen,1,L_LES,70.52681845271158,end,1
BMu117,12,P,INI,Endurance_Sorensen,1,R_LES,78.2465217242272,start,1
BMu117,12,P,INI,Endurance_Sorensen,1,R_LES,62.49108485582002,end,1
BMu117,12,P,REL,Endurance_Sorensen,1,L_LES,91.0429575490954,start,1
BMu117,12,P,REL,Endurance_Sorensen,1,L_LES,70.20693106474904,end,1
BMu117,12,P,REL,Endurance_Sorensen,1,R_LES,75.37332756050546,start,1
BMu117,12,P,REL,Endurance_Sorensen,1,R_LES,66.70221064437084,end,1
BMu117,13,C,INI,Endurance_Sorensen,1,L_LES,107.74996989310016,start,1
BMu117,13,C,INI,Endurance_Sorensen,1,L_LES,76.75591363670233,end,1
BMu117,13,C,INI,Endurance_Sorensen,1,R_LES,106.57854004244624,start,1
BMu117,13,C,INI,Endurance_Sorensen,1,R_LES,68.12220409037265,end,1
BMu117,13,C,REL,Endurance_Sorensen,1,L_LES,111.55316990870689,start,1
BMu117,13,C,REL,Endurance_Sorensen,1,L_LES,70.85188183908221,end,1
BMu117,13,C,REL,Endurance_Sorensen,1,R_LES,100.56031801305504,start,1
BMu117,13,C,REL,Endurance_Sorensen,1,R_LES,71.17055743774566,end,1
BMu117,14,P,INI,Endurance_Sorensen,1,L_LES,108.45790128695647,start,1
BMu117,14,P,INI,Endurance_Sorensen,1,L_LES,74.27571729580484,end,1
BMu117,14,P,INI,Endurance_Sorensen,1,R_LES,88.473437265058,start,1
BMu117,14,P,INI,Endurance_Sorensen,1,R_LES,58.25555476091728,end,1
BMu117,14,P,REL,Endurance_Sorensen,1,L_LES,101.75560580233255,start,1
BMu117,14,P,REL,Endurance_Sorensen,1,L_LES,77.42040042950661,end,1
BMu117,14,P,REL,Endurance_Sorensen,1,R_LES,91.8973391225954,start,1
BMu117,14,P,REL,Endurance_Sorensen,1,R_LES,65.14169987636417,end,1
BMu117,16,C,INI,Endurance_Sorensen,1,L_LES,108.70070286792067,start,1
BMu117,16,C,INI,Endurance_Sorensen,1,L_LES,67.84420065086293,end,1
BMu117,16,C,INI,Endurance_Sorensen,1,R_LES,102.16925777528967,start,1
BMu117,16,C,INI,Endurance_Sorensen,1,R_LES,71.55145280196945,end,1
BMu117,16,C,REL,Endurance_Sorensen,1,L_LES,107.78237048004335,start,1
BMu117,16,C,REL,Endurance_Sorensen,1,L_LES,84.91470361483866,end,1
BMu117,16,C,REL,Endurance_Sorensen,1,R_LES,88.768248959258,start,1
BMu117,16,C,REL,Endurance_Sorensen,1,R_LES,76.27660223063098,end,1
BMu117,17,P,INI,Endurance_Sorensen,1,L_LES,132.9538106108383,start,1
BMu117,17,P,INI,Endurance_Sorensen,1,L_LES,112.3490111173284,end,1
BMu117,17,P,INI,Endurance_Sorensen,1,R_LES,100.14645300370357,start,1
BMu117,17,P,INI,Endurance_Sorensen,1,R_LES,106.33682106898293,end,1
BMu117,17,P,REL,Endurance_Sorensen,1,L_LES,118.53380343652545,start,1
BMu117,17,P,REL,Endurance_Sorensen,1,L_LES,116.86147896282985,end,1
BMu117,17,P,REL,Endurance_Sorensen,1,R_LES,120.47386531076835,start,1
BMu117,17,P,REL,Endurance_Sorensen,1,R_LES,110.3348687272713,end,1
BMu117,21,C,INI,Endurance_Sorensen,1,L_LES,101.30700086819452,start,1
BMu117,21,C,INI,Endurance_Sorensen,1,L_LES,71.9037570021894,end,1
BMu117,21,C,INI,Endurance_Sorensen,1,R_LES,89.70732016346898,start,1
BMu117,21,C,INI,Endurance_Sorensen,1,R_LES,72.77964916562402,end,1
BMu117,21,C,REL,Endurance_Sorensen,1,L_LES,102.42664675695569,start,1
BMu117,21,C,REL,Endurance_Sorensen,1,L_LES,72.4065785322584,end,1
BMu117,21,C,REL,Endurance_Sorensen,1,R_LES,101.70468864749778,start,1
BMu117,21,C,REL,Endurance_Sorensen,1,R_LES,78.74071366496857,end,1
BMu117,22,C,INI,Endurance_Sorensen,1,L_LES,85.82871789178434,start,1
BMu117,22,C,INI,Endurance_Sorensen,1,L_LES,59.45683765826,end,1
BMu117,22,C,INI,Endurance_Sorensen,1,R_LES,88.05015781108494,start,1
BMu117,22,C,INI,Endurance_Sorensen,1,R_LES,61.760840164857235,end,1
BMu117,22,C,REL,Endurance_Sorensen,1,L_LES,90.4323287393369,start,1
BMu117,22,C,REL,Endurance_Sorensen,1,L_LES,58.27427012909838,end,1
BMu117,22,C,REL,Endurance_Sorensen,1,R_LES,75.31048271517119,start,1
BMu117,22,C,REL,Endurance_Sorensen,1,R_LES,59.35822621664251,end,1
BMu117,23,C,INI,Endurance_Sorensen,1,L_LES,75.01023180195921,start,1
BMu117,23,C,INI,Endurance_Sorensen,1,L_LES,72.49232740314623,end,1
BMu117,23,C,INI,Endurance_Sorensen,1,R_LES,106.27749057827731,start,1
BMu117,23,C,INI,Endurance_Sorensen,1,R_LES,71.66378039528158,end,1
BMu117,23,C,REL,Endurance_Sorensen,1,L_LES,89.92126072229506,start,1
BMu117,23,C,REL,Endurance_Sorensen,1,L_LES,83.6027474206156,end,1
BMu117,23,C,REL,Endurance_Sorensen,1,R_LES,74.95510186770449,start,1
BMu117,23,C,REL,Endurance_Sorensen,1,R_LES,61.17753806163249,end,1
BMu117,24,P,INI,Endurance_Sorensen,1,L_LES,125.07577818183645,start,1
BMu117,24,P,INI,Endurance_Sorensen,1,L_LES,86.52758458524904,end,1
BMu117,24,P,INI,Endurance_Sorensen,1,R_LES,119.95723272562377,start,1
BMu117,24,P,INI,Endurance_Sorensen,1,R_LES,87.3788465559411,end,1
BMu117,24,P,REL,Endurance_Sorensen,1,L_LES,86.71438217082965,start,1
BMu117,24,P,REL,Endurance_Sorensen,1,L_LES,70.5944468323043,end,1
BMu117,24,P,REL,Endurance_Sorensen,1,R_LES,57.21020106867884,start,1
BMu117,24,P,REL,Endurance_Sorensen,1,R_LES,55.7429473055976,end,1
BMu117,25,C,INI,Endurance_Sorensen,1,L_LES,119.80400168832966,start,1
BMu117,25,C,INI,Endurance_Sorensen,1,L_LES,76.01150742067634,end,1
BMu117,25,C,INI,Endurance_Sorensen,1,R_LES,111.25204360098864,start,1
BMu117,25,C,INI,Endurance_Sorensen,1,R_LES,73.62703886595719,end,1
BMu117,25,C,REL,Endurance_Sorensen,1,L_LES,125.91371921323267,start,1
BMu117,25,C,REL,Endurance_Sorensen,1,L_LES,71.95597119050667,end,1
BMu117,25,C,REL,Endurance_Sorensen,1,R_LES,102.61276119175785,start,1
BMu117,25,C,REL,Endurance_Sorensen,1,R_LES,77.2317636736586,end,1
BMu117,26,P,INI,Endurance_Sorensen,1,L_LES,104.05797672065437,start,1
BMu117,26,P,INI,Endurance_Sorensen,1,L_LES,53.53854697694292,end,1
BMu117,26,P,INI,Endurance_Sorensen,1,R_LES,89.95926514199063,start,1
BMu117,26,P,INI,Endurance_Sorensen,1,R_LES,56.90779394086236,end,1
BMu117,26,P,REL,Endurance_Sorensen,1,L_LES,98.47403020493014,start,1
BMu117,26,P,REL,Endurance_Sorensen,1,L_LES,49.748159104282784,end,1
BMu117,26,P,REL,Endurance_Sorensen,1,R_LES,94.9583426175604,start,1
BMu117,26,P,REL,Endurance_Sorensen,1,R_LES,60.161962845066704,end,1
BMu117,27,P,INI,Endurance_Sorensen,1,L_LES,106.1972958188734,start,1
BMu117,27,P,INI,Endurance_Sorensen,1,L_LES,60.36440549519066,end,1
BMu117,27,P,INI,Endurance_Sorensen,1,R_LES,96.6489059896246,start,1
BMu117,27,P,INI,Endurance_Sorensen,1,R_LES,64.8182959768278,end,1
BMu117,27,P,REL,Endurance_Sorensen,1,L_LES,104.24966565944933,start,1
BMu117,27,P,REL,Endurance_Sorensen,1,L_LES,59.3190297819066,end,1
BMu117,27,P,REL,Endurance_Sorensen,1,R_LES,98.4632585612043,start,1
BMu117,27,P,REL,Endurance_Sorensen,1,R_LES,64.07825482787844,end,1
BMu117,28,P,INI,Endurance_Sorensen,1,L_LES,125.20346094434122,start,1
BMu117,28,P,INI,Endurance_Sorensen,1,L_LES,87.74099383595906,end,1
BMu117,28,P,INI,Endurance_Sorensen,1,R_LES,104.97718432880214,start,1
BMu117,28,P,INI,Endurance_Sorensen,1,R_LES,74.57828472560938,end,1
BMu117,28,P,REL,Endurance_Sorensen,1,L_LES,132.42696276985143,start,1
BMu117,28,P,REL,Endurance_Sorensen,1,L_LES,92.6854548242319,end,1
BMu117,28,P,REL,Endurance_Sorensen,1,R_LES,105.2579107798596,start,1
BMu117,28,P,REL,Endurance_Sorensen,1,R_LES,77.09061291412732,end,1
BMu117,29,P,INI,Endurance_Sorensen,1,L_LES,104.03284081084954,start,1
BMu117,29,P,INI,Endurance_Sorensen,1,L_LES,63.35492904773959,end,1
BMu117,29,P,INI,Endurance_Sorensen,1,R_LES,109.23661315097485,start,1
BMu117,29,P,INI,Endurance_Sorensen,1,R_LES,81.9444948243907,end,1
BMu117,29,P,REL,Endurance_Sorensen,1,L_LES,111.97567655481193,start,1
BMu117,29,P,REL,Endurance_Sorensen,1,L_LES,64.94143328056379,end,1
BMu117,29,P,REL,Endurance_Sorensen,1,R_LES,113.53902070192734,start,1
BMu117,29,P,REL,Endurance_Sorensen,1,R_LES,68.67304507894814,end,1
BMu117,30,P,INI,Endurance_Sorensen,1,L_LES,110.32665078659429,start,1
BMu117,30,P,INI,Endurance_Sorensen,1,L_LES,104.09780265162799,end,1
BMu117,30,P,INI,Endurance_Sorensen,1,R_LES,102.96208227181722,start,1
BMu117,30,P,INI,Endurance_Sorensen,1,R_LES,97.88470696536594,end,1
BMu117,30,P,REL,Endurance_Sorensen,1,L_LES,117.10746073405511,start,1
BMu117,30,P,REL,Endurance_Sorensen,1,L_LES,106.77869741222862,end,1
BMu117,30,P,REL,Endurance_Sorensen,1,R_LES,108.2795808197993,start,1
BMu117,30,P,REL,Endurance_Sorensen,1,R_LES,102.48065632101188,end,1
BMu117,32,P,INI,Endurance_Sorensen,1,L_LES,111.12017782374106,start,1
BMu117,32,P,INI,Endurance_Sorensen,1,L_LES,64.02036546826544,end,1
BMu117,32,P,INI,Endurance_Sorensen,1,R_LES,114.06055471542531,start,1
BMu117,32,P,INI,Endurance_Sorensen,1,R_LES,67.64275112840106,end,1
BMu117,32,P,REL,Endurance_Sorensen,1,L_LES,141.27752145224392,start,1
BMu117,32,P,REL,Endurance_Sorensen,1,L_LES,112.05506330012727,end,1
BMu117,32,P,REL,Endurance_Sorensen,1,R_LES,151.1438068709459,start,1
BMu117,32,P,REL,Endurance_Sorensen,1,R_LES,125.03563826718839,end,1
BMu117,33,P,INI,Endurance_Sorensen,1,L_LES,61.70339120043075,start,1
BMu117,33,P,INI,Endurance_Sorensen,1,L_LES,69.90614907923498,end,1
BMu117,33,P,INI,Endurance_Sorensen,1,R_LES,65.75524100149809,start,1
BMu117,33,P,INI,Endurance_Sorensen,1,R_LES,68.17770676270543,end,1
BMu117,33,P,REL,Endurance_Sorensen,1,L_LES,86.66591773050608,start,1
BMu117,33,P,REL,Endurance_Sorensen,1,L_LES,77.90349280356986,end,1
BMu117,33,P,REL,Endurance_Sorensen,1,R_LES,80.91319563897406,start,1
BMu117,33,P,REL,Endurance_Sorensen,1,R_LES,83.28152092466536,end,1
BMu117,34,P,INI,Endurance_Sorensen,1,L_LES,108.65231530076808,start,1
BMu117,34,P,INI,Endurance_Sorensen,1,L_LES,70.9647912502592,end,1
BMu117,34,P,INI,Endurance_Sorensen,1,R_LES,102.45029781145585,start,1
BMu117,34,P,INI,Endurance_Sorensen,1,R_LES,72.239153836665,end,1
BMu117,34,P,REL,Endurance_Sorensen,1,L_LES,104.4780684998125,start,1
BMu117,34,P,REL,Endurance_Sorensen,1,L_LES,68.36655049201997,end,1
BMu117,34,P,REL,Endurance_Sorensen,1,R_LES,100.3032651152905,start,1
BMu117,34,P,REL,Endurance_Sorensen,1,R_LES,60.15936363548072,end,1
BMu117,35,C,INI,Endurance_Sorensen,1,L_LES,114.74086505965629,start,1
BMu117,35,C,INI,Endurance_Sorensen,1,L_LES,72.74707623328572,end,1
BMu117,35,C,INI,Endurance_Sorensen,1,R_LES,111.43508738854342,start,1
BMu117,35,C,INI,Endurance_Sorensen,1,R_LES,67.54844696891766,end,1
BMu117,35,C,REL,Endurance_Sorensen,1,L_LES,112.24610687423223,start,1
BMu117,35,C,REL,Endurance_Sorensen,1,L_LES,60.17939241714382,end,1
BMu117,35,C,REL,Endurance_Sorensen,1,R_LES,121.50121285478363,start,1
BMu117,35,C,REL,Endurance_Sorensen,1,R_LES,67.71579811403817,end,1
BMu117,36,P,INI,Endurance_Sorensen,1,L_LES,100.20015355318077,start,1
BMu117,36,P,INI,Endurance_Sorensen,1,L_LES,74.76150732439008,end,1
BMu117,36,P,INI,Endurance_Sorensen,1,R_LES,98.56344533193491,start,1
BMu117,36,P,INI,Endurance_Sorensen,1,R_LES,65.50348752118036,end,1
BMu117,36,P,REL,Endurance_Sorensen,1,L_LES,119.2467189540766,start,1
BMu117,36,P,REL,Endurance_Sorensen,1,L_LES,76.02666913127851,end,1
BMu117,36,P,REL,Endurance_Sorensen,1,R_LES,112.1035096468992,start,1
BMu117,36,P,REL,Endurance_Sorensen,1,R_LES,86.75467030584109,end,1
BMu117,38,C,INI,Endurance_Sorensen,1,L_LES,111.74311028533657,start,1
BMu117,38,C,INI,Endurance_Sorensen,1,L_LES,68.57335522550954,end,1
BMu117,38,C,INI,Endurance_Sorensen,1,R_LES,68.15673799263799,start,1
BMu117,38,C,INI,Endurance_Sorensen,1,R_LES,66.52460614131283,end,1
BMu117,38,C,REL,Endurance_Sorensen,1,L_LES,112.21906367796824,start,1
BMu117,38,C,REL,Endurance_Sorensen,1,L_LES,76.58637189220926,end,1
BMu117,38,C,REL,Endurance_Sorensen,1,R_LES,110.30016780688207,start,1
BMu117,38,C,REL,Endurance_Sorensen,1,R_LES,81.70876277798311,end,1
BMu117,39,C,INI,Endurance_Sorensen,1,L_LES,126.6746712172283,start,1
BMu117,39,C,INI,Endurance_Sorensen,1,L_LES,91.33232454092908,end,1
BMu117,39,C,INI,Endurance_Sorensen,1,R_LES,124.32005284045043,start,1
BMu117,39,C,INI,Endurance_Sorensen,1,R_LES,82.0015986915702,end,1
BMu117,39,C,REL,Endurance_Sorensen,1,L_LES,93.84893364959507,start,1
BMu117,39,C,REL,Endurance_Sorensen,1,L_LES,81.67245123921293,end,1
BMu117,39,C,REL,Endurance_Sorensen,1,R_LES,113.35816720202526,start,1
BMu117,39,C,REL,Endurance_Sorensen,1,R_LES,83.96528830839553,end,1
BMu117,40,C,INI,Endurance_Sorensen,1,L_LES,134.14088554038202,start,1
BMu117,40,C,INI,Endurance_Sorensen,1,L_LES,59.95912566682678,end,1
BMu117,40,C,INI,Endurance_Sorensen,1,R_LES,102.64356763468136,start,1
BMu117,40,C,INI,Endurance_Sorensen,1,R_LES,66.77749435636795,end,1
BMu117,40,C,REL,Endurance_Sorensen,1,L_LES,138.18705952153923,start,1
BMu117,40,C,REL,Endurance_Sorensen,1,L_LES,60.42840421542049,end,1
BMu117,40,C,REL,Endurance_Sorensen,1,R_LES,127.0000513309812,start,1
BMu117,40,C,REL,Endurance_Sorensen,1,R_LES,59.645510267088845,end,1
BMu117,41,P,INI,Endurance_Sorensen,1,L_LES,96.57316409362998,start,1
BMu117,41,P,INI,Endurance_Sorensen,1,L_LES,76.06796629505973,end,1
BMu117,41,P,INI,Endurance_Sorensen,1,R_LES,89.19881808448933,start,1
BMu117,41,P,INI,Endurance_Sorensen,1,R_LES,75.04777975492956,end,1
BMu117,41,P,REL,Endurance_Sorensen,1,L_LES,100.49862765208886,start,1
BMu117,41,P,REL,Endurance_Sorensen,1,L_LES,75.2455977071102,end,1
BMu117,41,P,REL,Endurance_Sorensen,1,R_LES,81.83906093279212,start,1
BMu117,41,P,REL,Endurance_Sorensen,1,R_LES,68.7380297495657,end,1
BMu117,42,P,INI,Endurance_Sorensen,1,L_LES,126.92252398639025,start,1
BMu117,42,P,INI,Endurance_Sorensen,1,L_LES,92.44892052321771,end,1
BMu117,42,P,INI,Endurance_Sorensen,1,R_LES,109.57182554528481,start,1
BMu117,42,P,INI,Endurance_Sorensen,1,R_LES,75.35013016098353,end,1
BMu117,42,P,REL,Endurance_Sorensen,1,L_LES,121.27744387404788,start,1
BMu117,42,P,REL,Endurance_Sorensen,1,L_LES,89.17612757505583,end,1
BMu117,42,P,REL,Endurance_Sorensen,1,R_LES,106.88189299523759,start,1
BMu117,42,P,REL,Endurance_Sorensen,1,R_LES,74.31291065097662,end,1
BMu117,43,P,INI,Endurance_Sorensen,1,L_LES,128.73961919512618,start,1
BMu117,43,P,INI,Endurance_Sorensen,1,L_LES,103.42294749424143,end,1
BMu117,43,P,INI,Endurance_Sorensen,1,R_LES,106.38141487928742,start,1
BMu117,43,P,INI,Endurance_Sorensen,1,R_LES,92.52397411487574,end,1
BMu117,43,P,REL,Endurance_Sorensen,1,L_LES,135.10710452920773,start,1
BMu117,43,P,REL,Endurance_Sorensen,1,L_LES,106.31158358393591,end,1
BMu117,43,P,REL,Endurance_Sorensen,1,R_LES,102.7145511469305,start,1
BMu117,43,P,REL,Endurance_Sorensen,1,R_LES,93.20461651833675,end,1
BMu117,44,C,INI,Endurance_Sorensen,1,L_LES,148.03385150608537,start,1
BMu117,44,C,INI,Endurance_Sorensen,1,L_LES,107.61695279531583,end,1
BMu117,44,C,INI,Endurance_Sorensen,1,R_LES,129.24523373766218,start,1
BMu117,44,C,INI,Endurance_Sorensen,1,R_LES,81.6352156920984,end,1
BMu117,44,C,REL,Endurance_Sorensen,1,L_LES,144.44345260662354,start,1
BMu117,44,C,REL,Endurance_Sorensen,1,L_LES,108.97116672311476,end,1
BMu117,44,C,REL,Endurance_Sorensen,1,R_LES,124.40909586261077,start,1
BMu117,44,C,REL,Endurance_Sorensen,1,R_LES,85.96862382162654,end,1
BMu117,45,P,INI,Endurance_Sorensen,1,L_LES,85.91672746799719,start,1
BMu117,45,P,INI,Endurance_Sorensen,1,L_LES,65.76065105175249,end,1
BMu117,45,P,INI,Endurance_Sorensen,1,R_LES,78.84872933900834,start,1
BMu117,45,P,INI,Endurance_Sorensen,1,R_LES,61.13823385545463,end,1
BMu117,45,P,REL,Endurance_Sorensen,1,L_LES,102.64944866002716,start,1
BMu117,45,P,REL,Endurance_Sorensen,1,L_LES,78.18294516432573,end,1
BMu117,45,P,REL,Endurance_Sorensen,1,R_LES,87.15296566620647,start,1
BMu117,45,P,REL,Endurance_Sorensen,1,R_LES,60.70910248031696,end,1
BMu117,46,C,INI,Endurance_Sorensen,1,L_LES,121.96801503337934,start,1
BMu117,46,C,INI,Endurance_Sorensen,1,L_LES,83.63159349210795,end,1
BMu117,46,C,INI,Endurance_Sorensen,1,R_LES,98.06206872992115,start,1
BMu117,46,C,INI,Endurance_Sorensen,1,R_LES,81.26083581730306,end,1
BMu117,46,C,REL,Endurance_Sorensen,1,L_LES,118.25797040800636,start,1
BMu117,46,C,REL,Endurance_Sorensen,1,L_LES,78.06181595386215,end,1
BMu117,46,C,REL,Endurance_Sorensen,1,R_LES,98.66977317511568,start,1
BMu117,46,C,REL,Endurance_Sorensen,1,R_LES,77.96185516342192,end,1
BMu117,47,P,INI,Endurance_Sorensen,1,L_LES,144.2733435512225,start,1
BMu117,47,P,INI,Endurance_Sorensen,1,L_LES,115.17238204646142,end,1
BMu117,47,P,INI,Endurance_Sorensen,1,R_LES,138.6037242133616,start,1
BMu117,47,P,INI,Endurance_Sorensen,1,R_LES,94.30943013288825,end,1
BMu117,47,P,REL,Endurance_Sorensen,1,L_LES,111.7005398110884,start,1
BMu117,47,P,REL,Endurance_Sorensen,1,L_LES,83.04374174745115,end,1
BMu117,47,P,REL,Endurance_Sorensen,1,R_LES,99.91044951510504,start,1
BMu117,47,P,REL,Endurance_Sorensen,1,R_LES,72.10256709122805,end,1
BMu117,48,C,INI,Endurance_Sorensen,1,L_LES,156.75391020559542,start,1
BMu117,48,C,INI,Endurance_Sorensen,1,L_LES,105.15415543676872,end,1
BMu117,48,C,INI,Endurance_Sorensen,1,R_LES,139.09379819583702,start,1
BMu117,48,C,INI,Endurance_Sorensen,1,R_LES,85.3307383088933,end,1
BMu117,48,C,REL,Endurance_Sorensen,1,L_LES,134.85769533453796,start,1
BMu117,48,C,REL,Endurance_Sorensen,1,L_LES,73.94747565163354,end,1
BMu117,48,C,REL,Endurance_Sorensen,1,R_LES,136.13690797992524,start,1
BMu117,48,C,REL,Endurance_Sorensen,1,R_LES,75.4533790876377,end,1
BMu117,49,C,INI,Endurance_Sorensen,1,L_LES,121.92721298056348,start,1
BMu117,49,C,INI,Endurance_Sorensen,1,L_LES,61.32910503635005,end,1
BMu117,49,C,INI,Endurance_Sorensen,1,R_LES,112.72405111218305,start,1
BMu117,49,C,INI,Endurance_Sorensen,1,R_LES,63.42553071916338,end,1
BMu117,49,C,REL,Endurance_Sorensen,1,L_LES,109.35736401590886,start,1
BMu117,49,C,REL,Endurance_Sorensen,1,L_LES,62.48575280549261,end,1
BMu117,49,C,REL,Endurance_Sorensen,1,R_LES,109.37223070685532,start,1
BMu117,49,C,REL,Endurance_Sorensen,1,R_LES,61.62538469173901,end,1
BMu117,50,P,INI,Endurance_Sorensen,1,L_LES,123.42272266461295,start,1
BMu117,50,P,INI,Endurance_Sorensen,1,L_LES,84.39894152841737,end,1
BMu117,50,P,INI,Endurance_Sorensen,1,R_LES,110.87446526084923,start,1
BMu117,50,P,INI,Endurance_Sorensen,1,R_LES,79.45287141326324,end,1
BMu117,50,P,REL,Endurance_Sorensen,1,L_LES,118.89939035681529,start,1
BMu117,50,P,REL,Endurance_Sorensen,1,L_LES,69.57320493334252,end,1
BMu117,50,P,REL,Endurance_Sorensen,1,R_LES,115.5880538637889,start,1
BMu117,50,P,REL,Endurance_Sorensen,1,R_LES,68.40681433949969,end,1
BMu117,51,P,INI,Endurance_Sorensen,1,L_LES,84.4640570363311,start,1
BMu117,51,P,INI,Endurance_Sorensen,1,L_LES,71.66368771127857,end,1
BMu117,51,P,INI,Endurance_Sorensen,1,R_LES,86.97107798998664,start,1
BMu117,51,P,INI,Endurance_Sorensen,1,R_LES,66.06576675729727,end,1
BMu117,51,P,REL,Endurance_Sorensen,1,L_LES,74.4312617212455,start,1
BMu117,51,P,REL,Endurance_Sorensen,1,L_LES,53.16530514717003,end,1
BMu117,51,P,REL,Endurance_Sorensen,1,R_LES,92.14318863812998,start,1
BMu117,51,P,REL,Endurance_Sorensen,1,R_LES,59.212678679650836,end,1
BMu117,52,C,INI,Endurance_Sorensen,1,L_LES,128.10472830457286,start,1
BMu117,52,C,INI,Endurance_Sorensen,1,L_LES,78.0618891630433,end,1
BMu117,52,C,INI,Endurance_Sorensen,1,R_LES,115.80286375281254,start,1
BMu117,52,C,INI,Endurance_Sorensen,1,R_LES,76.23602621930195,end,1
BMu117,52,C,REL,Endurance_Sorensen,1,L_LES,131.4337379378915,start,1
BMu117,52,C,REL,Endurance_Sorensen,1,L_LES,81.53362526418839,end,1
BMu117,52,C,REL,Endurance_Sorensen,1,R_LES,114.24623154322775,start,1
BMu117,52,C,REL,Endurance_Sorensen,1,R_LES,84.91495248934045,end,1
BMu117,53,P,INI,Endurance_Sorensen,1,L_LES,120.99907060011004,start,1
BMu117,53,P,INI,Endurance_Sorensen,1,L_LES,119.53939843564808,end,1
BMu117,53,P,INI,Endurance_Sorensen,1,R_LES,102.36037463843508,start,1
BMu117,53,P,INI,Endurance_Sorensen,1,R_LES,94.28289819866038,end,1
BMu117,53,P,REL,Endurance_Sorensen,1,L_LES,121.80119178429922,start,1
BMu117,53,P,REL,Endurance_Sorensen,1,L_LES,106.60842715144886,end,1
BMu117,53,P,REL,Endurance_Sorensen,1,R_LES,101.06031234713895,start,1
BMu117,53,P,REL,Endurance_Sorensen,1,R_LES,87.21007407798906,end,1
BMu117,54,P,INI,Endurance_Sorensen,1,L_LES,120.5791018044341,start,1
BMu117,54,P,INI,Endurance_Sorensen,1,L_LES,96.23776352751659,end,1
BMu117,54,P,INI,Endurance_Sorensen,1,R_LES,117.3534679367924,start,1
BMu117,54,P,INI,Endurance_Sorensen,1,R_LES,84.91782371045562,end,1
BMu117,54,P,REL,Endurance_Sorensen,1,L_LES,111.4963066517862,start,1
BMu117,54,P,REL,Endurance_Sorensen,1,L_LES,100.59530445115226,end,1
BMu117,54,P,REL,Endurance_Sorensen,1,R_LES,121.95035238753009,start,1
BMu117,54,P,REL,Endurance_Sorensen,1,R_LES,97.73999148434197,end,1
BMu117,55,C,INI,Endurance_Sorensen,1,L_LES,115.20483473254798,start,1
BMu117,55,C,INI,Endurance_Sorensen,1,L_LES,65.18242852540564,end,1
BMu117,55,C,INI,Endurance_Sorensen,1,R_LES,114.23684667192498,start,1
BMu117,55,C,INI,Endurance_Sorensen,1,R_LES,64.52752456051817,end,1
BMu117,55,C,REL,Endurance_Sorensen,1,L_LES,105.36458225720666,start,1
BMu117,55,C,REL,Endurance_Sorensen,1,L_LES,69.5527785325812,end,1
BMu117,55,C,REL,Endurance_Sorensen,1,R_LES,101.99595295742778,start,1
BMu117,55,C,REL,Endurance_Sorensen,1,R_LES,69.49183297436909,end,1
BMu117,56,C,INI,Endurance_Sorensen,1,L_LES,83.532390361646,start,1
BMu117,56,C,INI,Endurance_Sorensen,1,L_LES,63.909694385952776,end,1
BMu117,56,C,INI,Endurance_Sorensen,1,R_LES,83.81222215141669,start,1
BMu117,56,C,INI,Endurance_Sorensen,1,R_LES,63.53766067897893,end,1
BMu117,56,C,REL,Endurance_Sorensen,1,L_LES,87.05799414221198,start,1
BMu117,56,C,REL,Endurance_Sorensen,1,L_LES,57.424403180358546,end,1
BMu117,56,C,REL,Endurance_Sorensen,1,R_LES,87.78120662707353,start,1
BMu117,56,C,REL,Endurance_Sorensen,1,R_LES,67.89816920489613,end,1
BMu117,57,C,INI,Endurance_Sorensen,1,L_LES,101.22537864645228,start,1
BMu117,57,C,INI,Endurance_Sorensen,1,L_LES,78.10385344164432,end,1
BMu117,57,C,INI,Endurance_Sorensen,1,R_LES,104.60033208187615,start,1
BMu117,57,C,INI,Endurance_Sorensen,1,R_LES,64.81937362380891,end,1
BMu117,57,C,REL,Endurance_Sorensen,1,L_LES,111.31772649799903,start,1
BMu117,57,C,REL,Endurance_Sorensen,1,L_LES,68.31370355905139,end,1
BMu117,57,C,REL,Endurance_Sorensen,1,R_LES,109.22496411038041,start,1
BMu117,57,C,REL,Endurance_Sorensen,1,R_LES,55.04688296896044,end,1
BMu117,58,P,INI,Endurance_Sorensen,1,L_LES,110.79874060245884,start,1
BMu117,58,P,INI,Endurance_Sorensen,1,L_LES,68.18487794074994,end,1
BMu117,58,P,INI,Endurance_Sorensen,1,R_LES,105.94139563980372,start,1
BMu117,58,P,INI,Endurance_Sorensen,1,R_LES,56.44705054259227,end,1
BMu117,58,P,REL,Endurance_Sorensen,1,L_LES,110.42473010130335,start,1
BMu117,58,P,REL,Endurance_Sorensen,1,L_LES,73.63863992890127,end,1
BMu117,58,P,REL,Endurance_Sorensen,1,R_LES,94.76556190795864,start,1
BMu117,58,P,REL,Endurance_Sorensen,1,R_LES,67.43586551542884,end,1
BMu117,60,C,INI,Endurance_Sorensen,1,L_LES,117.97467810042012,start,1
BMu117,60,C,INI,Endurance_Sorensen,1,L_LES,105.68830198247296,end,1
BMu117,60,C,INI,Endurance_Sorensen,1,R_LES,103.62655286912995,start,1
BMu117,60,C,INI,Endurance_Sorensen,1,R_LES,86.71346668938452,end,1
BMu117,60,C,REL,Endurance_Sorensen,1,L_LES,110.12311985939886,start,1
BMu117,60,C,REL,Endurance_Sorensen,1,L_LES,106.59003837513413,end,1
BMu117,60,C,REL,Endurance_Sorensen,1,R_LES,94.6397860084936,start,1
BMu117,60,C,REL,Endurance_Sorensen,1,R_LES,92.88836606518234,end,1
BMu117,61,P,REL,Endurance_Sorensen,1,L_LES,89.38138776327567,start,1
BMu117,61,P,REL,Endurance_Sorensen,1,L_LES,93.25794908144594,end,1
BMu117,61,P,REL,Endurance_Sorensen,1,R_LES,74.94014709435488,start,1
BMu117,61,P,REL,Endurance_Sorensen,1,R_LES,83.6696620418493,end,1
BMu117,62,P,INI,Endurance_Sorensen,1,L_LES,87.2638882399276,start,1
BMu117,62,P,INI,Endurance_Sorensen,1,L_LES,70.18974222574124,end,1
BMu117,62,P,INI,Endurance_Sorensen,1,R_LES,86.82757975391536,start,1
BMu117,62,P,INI,Endurance_Sorensen,1,R_LES,79.10162993161492,end,1
BMu117,62,P,REL,Endurance_Sorensen,1,L_LES,99.6930601557778,start,1
BMu117,62,P,REL,Endurance_Sorensen,1,L_LES,82.83538070964244,end,1
BMu117,62,P,REL,Endurance_Sorensen,1,R_LES,95.21243127507331,start,1
BMu117,62,P,REL,Endurance_Sorensen,1,R_LES,95.83264408255147,end,1
BMu117,63,P,INI,Endurance_Sorensen,1,L_LES,100.75931040269576,start,1
BMu117,63,P,INI,Endurance_Sorensen,1,L_LES,96.39298362659544,end,1
BMu117,63,P,INI,Endurance_Sorensen,1,R_LES,118.35304037518564,start,1
BMu117,63,P,INI,Endurance_Sorensen,1,R_LES,80.91237508481035,end,1
BMu117,63,P,REL,Endurance_Sorensen,1,L_LES,130.50946291611206,start,1
BMu117,63,P,REL,Endurance_Sorensen,1,L_LES,96.061773280674,end,1
BMu117,63,P,REL,Endurance_Sorensen,1,R_LES,119.44818617497582,start,1
BMu117,63,P,REL,Endurance_Sorensen,1,R_LES,79.4357873303288,end,1
BMu117,64,C,INI,Endurance_Sorensen,1,L_LES,118.30562337102054,start,1
BMu117,64,C,INI,Endurance_Sorensen,1,L_LES,77.78863463817255,end,1
BMu117,64,C,INI,Endurance_Sorensen,1,R_LES,109.19819094031436,start,1
BMu117,64,C,INI,Endurance_Sorensen,1,R_LES,69.36293972936822,end,1
BMu117,64,C,REL,Endurance_Sorensen,1,L_LES,107.53775265985396,start,1
BMu117,64,C,REL,Endurance_Sorensen,1,L_LES,69.73675420437327,end,1
BMu117,64,C,REL,Endurance_Sorensen,1,R_LES,98.0504761434307,start,1
BMu117,64,C,REL,Endurance_Sorensen,1,R_LES,64.19632554910869,end,1
BMu117,65,P,INI,Endurance_Sorensen,1,L_LES,110.28549802860498,start,1
BMu117,65,P,INI,Endurance_Sorensen,1,L_LES,91.9456089137485,end,1
BMu117,65,P,INI,Endurance_Sorensen,1,R_LES,97.60965865744056,start,1
BMu117,65,P,INI,Endurance_Sorensen,1,R_LES,77.91563577172745,end,1
BMu117,65,P,REL,Endurance_Sorensen,1,L_LES,133.78202412957953,start,1
BMu117,65,P,REL,Endurance_Sorensen,1,L_LES,94.07329384492253,end,1
BMu117,65,P,REL,Endurance_Sorensen,1,R_LES,108.0729158429944,start,1
BMu117,65,P,REL,Endurance_Sorensen,1,R_LES,87.76317092604789,end,1
BMu117,66,C,INI,Endurance_Sorensen,1,L_LES,106.73741860776049,start,1
BMu117,66,C,INI,Endurance_Sorensen,1,L_LES,58.28861884153531,end,1
BMu117,66,C,INI,Endurance_Sorensen,1,R_LES,96.23103710329714,start,1
BMu117,66,C,INI,Endurance_Sorensen,1,R_LES,64.45280778163458,end,1
BMu117,66,C,REL,Endurance_Sorensen,1,L_LES,99.46009837180804,start,1
BMu117,66,C,REL,Endurance_Sorensen,1,L_LES,72.32148073033747,end,1
BMu117,66,C,REL,Endurance_Sorensen,1,R_LES,102.7644841952114,start,1
BMu117,66,C,REL,Endurance_Sorensen,1,R_LES,65.77819379062126,end,1
BMu117,67,C,INI,Endurance_Sorensen,1,L_LES,96.72247156048502,start,1
BMu117,67,C,INI,Endurance_Sorensen,1,L_LES,76.44409478856106,end,1
BMu117,67,C,INI,Endurance_Sorensen,1,R_LES,120.29439096047045,start,1
BMu117,67,C,INI,Endurance_Sorensen,1,R_LES,79.23086696557861,end,1
BMu117,67,C,REL,Endurance_Sorensen,1,L_LES,96.0024085227865,start,1
BMu117,67,C,REL,Endurance_Sorensen,1,L_LES,64.63865938125373,end,1
BMu117,67,C,REL,Endurance_Sorensen,1,R_LES,103.22760853343794,start,1
BMu117,67,C,REL,Endurance_Sorensen,1,R_LES,56.219817481651,end,1
BMu117,68,C,INI,Endurance_Sorensen,1,L_LES,126.9743693375895,start,1
BMu117,68,C,INI,Endurance_Sorensen,1,L_LES,94.60068609317248,end,1
BMu117,68,C,INI,Endurance_Sorensen,1,R_LES,139.0009841136225,start,1
BMu117,68,C,INI,Endurance_Sorensen,1,R_LES,68.09265940758455,end,1
BMu117,68,C,REL,Endurance_Sorensen,1,L_LES,137.54040861590804,start,1
BMu117,68,C,REL,Endurance_Sorensen,1,L_LES,78.40281964450416,end,1
BMu117,68,C,REL,Endurance_Sorensen,1,R_LES,144.10644303911914,start,1
BMu117,68,C,REL,Endurance_Sorensen,1,R_LES,70.48689737988153,end,1
