BMu,subject,P_C,session,task,trials,channel,value,event,repetition
BMu117,1,C,INI,Endurance_Sorensen,1,L_LES,117.19788752371174,start,1
BMu117,1,C,INI,Endurance_Sorensen,1,L_LES,60.0356737858153,end,1
BMu117,1,C,INI,Endurance_Sorensen,1,R_LES,93.12298501977263,start,1
BMu117,1,C,INI,Endurance_Sorensen,1,R_LES,64.35303697303475,end,1
BMu117,1,C,REL,Endurance_Sorensen,1,L_LES,116.5663170562026,start,1
BMu117,1,C,REL,Endurance_Sorensen,1,L_LES,70.9168875125826,end,1
BMu117,1,C,REL,Endurance_Sorensen,1,R_LES,105.67623598627588,start,1
BMu117,1,C,REL,Endurance_Sorensen,1,R_LES,81.2338853564489,end,1
BMu117,2,C,INI,Endurance_Sorensen,1,L_LES,102.00548152469058,start,1
BMu117,2,C,INI,Endurance_Sorensen,1,L_LES,87.58748253555893,end,1
BMu117,2,C,INI,Endurance_Sorensen,1,R_LES,114.69944168830179,start,1
BMu117,2,C,INI,Endurance_Sorensen,1,R_LES,54.032730918170024,end,1
BMu117,2,C,REL,Endurance_Sorensen,1,L_LES,104.12460884995583,start,1
BMu117,2,C,REL,Endurance_Sorensen,1,L_LES,59.73214464546578,end,1
BMu117,2,C,REL,Endurance_Sorensen,1,R_LES,101.49350805269133,start,1
BMu117,2,C,REL,Endurance_Sorensen,1,R_LES,80.17433736268626,end,1
BMu117,3,C,INI,Endurance_Sorensen,1,L_LES,92.83389227638726,start,1
BMu117,3,C,INI,Endurance_Sorensen,1,L_LES,61.66273885750843,end,1
BMu117,3,C,INI,Endurance_Sorensen,1,R_LES,93.21193586983732,start,1
BMu117,3,C,INI,Endurance_Sorensen,1,R_LES,55.953486735288834,end,1
BMu117,3,C,REL,Endurance_Sorensen,1,L_LES,76.50011816224371,start,1
BMu117,3,C,REL,Endurance_Sorensen,1,L_LES,57.94478613193437,end,1
BMu117,3,C,REL,Endurance_Sorensen,1,R_LES,94.4605584939778,start,1
BMu117,3,C,REL,Endurance_Sorensen,1,R_LES,64.62501294598786,end,1
BMu117,5,C,INI,Endurance_Sorensen,1,L_LES,121.38581055015214,start,1
BMu117,5,C,INI,Endurance_Sorensen,1,L_LES,53.52181151723681,end,1
BMu117,5,C,INI,Endurance_Sorensen,1,R_LES,117.69481685981333,start,1
BMu117,5,C,INI,Endurance_Sorensen,1,R_LES,61.39035494676018,end,1
BMu117,5,C,REL,Endurance_Sorensen,1,L_LES,127.03406918986705,start,1
BMu117,5,C,REL,Endurance_Sorensen,1,L_LES,46.61614851952116,end,1
BMu117,5,C,REL,Endurance_Sorensen,1,R_LES,114.91143843815371,start,1
BMu117,5,C,REL,Endurance_Sorensen,1,R_LES,50.75893128133934,end,1
BMu117,6,C,INI,Endurance_Sorensen,1,L_LES,122.9141964146488,start,1
BMu117,6,C,INI,Endurance_Sorensen,1,L_LES,93.7980759366253,end,1
BMu117,6,C,INI,Endurance_Sorensen,1,R_LES,114.37425294562345,start,1
BMu117,6,C,INI,Endurance_Sorensen,1,R_LES,94.48321219271635,end,1
BMu117,6,C,REL,Endurance_Sorensen,1,L_LES,113.56938177101735,start,1
BMu117,6,C,REL,Endurance_Sorensen,1,L_LES,101.81523467726115,end,1
BMu117,6,C,REL,Endurance_Sorensen,1,R_LES,106.69154298410614,start,1
BMu117,6,C,REL,Endurance_Sorensen,1,R_LES,110.6231518672842,end,1
BMu117,7,C,INI,Endurance_Sorensen,1,L_LES,143.10726486237016,start,1
BMu117,7,C,INI,Endurance_Sorensen,1,L_LES,56.0340655228354,end,1
BMu117,7,C,INI,Endurance_Sorensen,1,R_LES,114.79334921707112,start,1
BMu117,7,C,INI,Endurance_Sorensen,1,R_LES,67.62848636452472,end,1
BMu117,7,C,REL,Endurance_Sorensen,1,L_LES,145.99349552658614,start,1
BMu117,7,C,REL,Endurance_Sorensen,1,L_LES,76.83942608466535,end,1
BMu117,7,C,REL,Endurance_Sorensen,1,R_LES,104.61286101755928,start,1
BMu117,7,C,REL,Endurance_Sorensen,1,R_LES,79.23636716416165,end,1
BMu117,8,C,INI,Endurance_Sorensen,1,L_LES,118.4824980085407,start,1
BMu117,8,C,INI,Endurance_Sorensen,1,L_LES,88.73648176066646,end,1
BMu117,8,C,INI,Endurance_Sorensen,1,R_LES,98.2225145318618,start,1
BMu117,8,C,INI,Endurance_Sorensen,1,R_LES,82.29831221541052,end,1
BMu117,8,C,REL,Endurance_Sorensen,1,L_LES,98.72765627870604,start,1
BMu117,8,C,REL,Endurance_Sorensen,1,L_LES,74.78273448137278,end,1
BMu117,8,C,REL,Endurance_Sorensen,1,R_LES,96.7328927748873,start,1
BMu117,8,C,REL,Endurance_Sorensen,1,R_LES,76.01141587291264,end,1
BMu117,9,P,INI,Endurance_Sorensen,1,L_LES,116.97813303961567,start,1
BMu117,9,P,INI,Endurance_Sorensen,1,L_LES,83.1928173415334,end,1
BMu117,9,P,INI,Endurance_Sorensen,1,R_LES,117.27211083281435,start,1
BMu117,9,P,INI,Endurance_Sorensen,1,R_LES,97.66461238152694,end,1
BMu117,9,P,REL,Endurance_Sorensen,1,L_LES,121.7293185181,start,1
BMu117,9,P,REL,Endurance_Sorensen,1,L_LES,114.05571877588139,end,1
BMu117,9,P,REL,Endurance_Sorensen,1,R_LES,122.22501009078734,start,1
BMu117,9,P,REL,Endurance_Sorensen,1,R_LES,101.88763630825616,end,1
BMu117,10,P,INI,Endurance_Sorensen,1,L_LES,114.70314520976825,start,1
BMu117,10,P,INI,Endurance_Sorensen,1,L_LES,55.21751082184331,end,1
BMu117,10,P,INI,Endurance_Sorensen,1,R_LES,106.5413144510872,start,1
BMu117,10,P,INI,Endurance_Sorensen,1,R_LES,96.95663288006946,end,1
BMu117,10,P,REL,Endurance_Sorensen,1,L_LES,118.71698527455837,start,1
BMu117,10,P,REL,Endurance_Sorensen,1,L_LES,50.30318602505953,end,1
BMu117,10,P,REL,Endurance_Sorensen,1,R_LES,112.36000862328478,start,1
BMu117,10,P,REL,Endurance_Sorensen,1,R_LES,43.413947727899895,end,1
BMu117,11,P,INI,Endurance_Sorensen,1,L_LES,104.82012526256061,start,1
BMu117,11,P,INI,Endurance_Sorensen,1,L_LES,34.52855169004904,end,1
BMu117,11,P,INI,Endurance_Sorensen,1,R_LES,96.71720048968949,start,1
BMu117,11,P,INI,Endurance_Sorensen,1,R_LES,70.27650149225806,end,1
BMu117,11,P,REL,Endurance_Sorensen,1,L_LES,106.59480711589032,start,1
BMu117,11,P,REL,Endurance_Sorensen,1,L_LES,113.64531456737868,end,1
BMu117,11,P,REL,Endurance_Sorensen,1,R_LES,99.51832643350916,start,1
BMu117,11,P,REL,Endurance_Sorensen,1,R_LES,106.13704411432373,end,1
BMu117,12,P,INI,Endurance_Sorensen,1,L_LES,94.426907655565,start,1
BMu117,12,P,INI,Endurance_Sorensen,1,L_LES,38.45689371980903,end,1
BMu117,12,P,INI,Endurance_Sorensen,1,R_LES,78.20467853567257,start,1
BMu117,12,P,INI,Endurance_Sorensen,1,R_LES,50.34687164948109,end,1
BMu117,12,P,REL,Endurance_Sorensen,1,L_LES,91.08590434517886,start,1
BMu117,12,P,REL,Endurance_Sorensen,1,L_LES,82.89577722783453,end,1
BMu117,12,P,REL,Endurance_Sorensen,1,R_LES,75.41264508980512,start,1
BMu117,12,P,REL,Endurance_Sorensen,1,R_LES,76.34757386056475,end,1
BMu117,13,C,INI,Endurance_Sorensen,1,L_LES,107.68801746008671,start,1
BMu117,13,C,INI,Endurance_Sorensen,1,L_LES,58.34222065942854,end,1
BMu117,13,C,INI,Endurance_Sorensen,1,R_LES,106.56519927277019,start,1
BMu117,13,C,INI,Endurance_Sorensen,1,R_LES,55.76605984936886,end,1
BMu117,13,C,REL,Endurance_Sorensen,1,L_LES,111.33436319829494,start,1
BMu117,13,C,REL,Endurance_Sorensen,1,L_LES,56.92756052863565,end,1
BMu117,13,C,REL,Endurance_Sorensen,1,R_LES,100.60229889099033,start,1
BMu117,13,C,REL,Endurance_Sorensen,1,R_LES,62.69411556266198,end,1
BMu117,14,P,INI,Endurance_Sorensen,1,L_LES,101.59087417029981,start,1
BMu117,14,P,INI,Endurance_Sorensen,1,L_LES,69.11798636306204,end,1
BMu117,14,P,INI,Endurance_Sorensen,1,R_LES,82.22506458426061,start,1
BMu117,14,P,INI,Endurance_Sorensen,1,R_LES,52.718279225687056,end,1
BMu117,14,P,REL,Endurance_Sorensen,1,L_LES,101.8284367581356,start,1
BMu117,14,P,REL,Endurance_Sorensen,1,L_LES,68.36787327270282,end,1
BMu117,14,P,REL,Endurance_Sorensen,1,R_LES,91.8611659462939,start,1
BMu117,14,P,REL,Endurance_Sorensen,1,R_LES,62.524653148577215,end,1
BMu117,16,C,INI,Endurance_Sorensen,1,L_LES,108.66047086779945,start,1
BMu117,16,C,INI,Endurance_Sorensen,1,L_LES,61.16402466433785,end,1
BMu117,16,C,INI,Endurance_Sorensen,1,R_LES,102.28186907386666,start,1
BMu117,16,C,INI,Endurance_Sorensen,1,R_LES,65.79654450169464,end,1
BMu117,16,C,REL,Endurance_Sorensen,1,L_LES,107.87227884689132,start,1
BMu117,16,C,REL,Endurance_Sorensen,1,L_LES,64.48871075854854,end,1
BMu117,16,C,REL,Endurance_Sorensen,1,R_LES,88.93365000675715,start,1
BMu117,16,C,REL,Endurance_Sorensen,1,R_LES,47.181539752670034,end,1
BMu117,17,P,INI,Endurance_Sorensen,1,L_LES,132.99710245231051,start,1
BMu117,17,P,INI,Endurance_Sorensen,1,L_LES,78.94530364014486,end,1
BMu117,17,P,INI,Endurance_Sorensen,1,R_LES,100.21764372888953,start,1
BMu117,17,P,INI,Endurance_Sorensen,1,R_LES,80.72333222055705,end,1
BMu117,17,P,REL,Endurance_Sorensen,1,L_LES,118.57430457654536,start,1
BMu117,17,P,REL,Endurance_Sorensen,1,L_LES,82.32649118912175,end,1
BMu117,17,P,REL,Endurance_Sorensen,1,R_LES,120.4530225282902,start,1
BMu117,17,P,REL,Endurance_Sorensen,1,R_LES,86.98928887627577,end,1
BMu117,21,C,INI,Endurance_Sorensen,1,L_LES,101.22119055252674,start,1
BMu117,21,C,INI,Endurance_Sorensen,1,L_LES,44.34293410166474,end,1
BMu117,21,C,INI,Endurance_Sorensen,1,R_LES,89.66637271578051,start,1
BMu117,21,C,INI,Endurance_Sorensen,1,R_LES,57.26469935515875,end,1
BMu117,21,C,REL,Endurance_Sorensen,1,L_LES,102.41019082216417,start,1
BMu117,21,C,REL,Endurance_Sorensen,1,L_LES,62.45875473746728,end,1
BMu117,21,C,REL,Endurance_Sorensen,1,R_LES,101.75583705083797,start,1
BMu117,21,C,REL,Endurance_Sorensen,1,R_LES,66.77266285956406,end,1
BMu117,22,C,INI,Endurance_Sorensen,1,L_LES,85.80740482335874,start,1
BMu117,22,C,INI,Endurance_Sorensen,1,L_LES,59.9553361590358,end,1
BMu117,22,C,INI,Endurance_Sorensen,1,R_LES,88.13309565231751,start,1
BMu117,22,C,INI,Endurance_Sorensen,1,R_LES,75.36640632599986,end,1
BMu117,22,C,REL,Endurance_Sorensen,1,L_LES,90.36396039821282,start,1
BMu117,22,C,REL,Endurance_Sorensen,1,L_LES,64.27606635088513,end,1
BMu117,22,C,REL,Endurance_Sorensen,1,R_LES,75.50769575235289,start,1
BMu117,22,C,REL,Endurance_Sorensen,1,R_LES,63.33225748132122,end,1
BMu117,23,C,INI,Endurance_Sorensen,1,L_LES,74.97625539852339,start,1
BMu117,23,C,INI,Endurance_Sorensen,1,L_LES,61.100119196713464,end,1
BMu117,23,C,INI,Endurance_Sorensen,1,R_LES,106.28484944845799,start,1
BMu117,23,C,INI,Endurance_Sorensen,1,R_LES,67.6556393294318,end,1
BMu117,23,C,REL,Endurance_Sorensen,1,L_LES,102.95896068148808,start,1
BMu117,23,C,REL,Endurance_Sorensen,1,L_LES,66.87532305482462,end,1
BMu117,23,C,REL,Endurance_Sorensen,1,R_LES,88.1742950580066,start,1
BMu117,23,C,REL,Endurance_Sorensen,1,R_LES,53.22022615751363,end,1
BMu117,24,P,INI,Endurance_Sorensen,1,L_LES,125.15165977677962,start,1
BMu117,24,P,INI,Endurance_Sorensen,1,L_LES,48.51084295038721,end,1
BMu117,24,P,INI,Endurance_Sorensen,1,R_LES,119.99897740637981,start,1
BMu117,24,P,INI,Endurance_Sorensen,1,R_LES,95.11808961546613,end,1
BMu117,24,P,REL,Endurance_Sorensen,1,L_LES,86.64026188637355,start,1
BMu117,24,P,REL,Endurance_Sorensen,1,L_LES,69.35497235083061,end,1
BMu117,24,P,REL,Endurance_Sorensen,1,R_LES,57.28573315526333,start,1
BMu117,24,P,REL,Endurance_Sorensen,1,R_LES,55.73862087328631,end,1
BMu117,25,C,INI,Endurance_Sorensen,1,L_LES,119.11073236332322,start,1
BMu117,25,C,INI,Endurance_Sorensen,1,L_LES,82.4832578594985,end,1
BMu117,25,C,INI,Endurance_Sorensen,1,R_LES,109.250466715343,start,1
BMu117,25,C,INI,Endurance_Sorensen,1,R_LES,88.70748307624014,end,1
BMu117,25,C,REL,Endurance_Sorensen,1,L_LES,125.82163845526124,start,1
BMu117,25,C,REL,Endurance_Sorensen,1,L_LES,98.34377517995888,end,1
BMu117,25,C,REL,Endurance_Sorensen,1,R_LES,102.52492634025806,start,1
BMu117,25,C,REL,Endurance_Sorensen,1,R_LES,103.05803862977857,end,1
BMu117,26,P,INI,Endurance_Sorensen,1,L_LES,104.08523639560008,start,1
BMu117,26,P,INI,Endurance_Sorensen,1,L_LES,45.16023082243343,end,1
BMu117,26,P,INI,Endurance_Sorensen,1,R_LES,89.85637869750441,start,1
BMu117,26,P,INI,Endurance_Sorensen,1,R_LES,57.16736782562415,end,1
BMu117,26,P,REL,Endurance_Sorensen,1,L_LES,98.43597760137192,start,1
BMu117,26,P,REL,Endurance_Sorensen,1,L_LES,44.65303717180505,end,1
BMu117,26,P,REL,Endurance_Sorensen,1,R_LES,95.02108872704349,start,1
BMu117,26,P,REL,Endurance_Sorensen,1,R_LES,60.117492322958626,end,1
BMu117,27,P,INI,Endurance_Sorensen,1,L_LES,106.21796329708735,start,1
BMu117,27,P,INI,Endurance_Sorensen,1,L_LES,57.53928449014212,end,1
BMu117,27,P,INI,Endurance_Sorensen,1,R_LES,96.69429701881222,start,1
BMu117,27,P,INI,Endurance_Sorensen,1,R_LES,52.90339374227027,end,1
BMu117,27,P,REL,Endurance_Sorensen,1,L_LES,104.11444003208258,start,1
BMu117,27,P,REL,Endurance_Sorensen,1,L_LES,47.98782883183475,end,1
BMu117,27,P,REL,Endurance_Sorensen,1,R_LES,98.56055154814375,start,1
BMu117,27,P,REL,Endurance_Sorensen,1,R_LES,51.62558732211246,end,1
BMu117,28,P,INI,Endurance_Sorensen,1,L_LES,121.4265820359115,start,1
BMu117,28,P,INI,Endurance_Sorensen,1,L_LES,104.61713811998841,end,1
BMu117,28,P,INI,Endurance_Sorensen,1,R_LES,103.05031348970019,start,1
BMu117,28,P,INI,Endurance_Sorensen,1,R_LES,99.76392699404104,end,1
BMu117,28,P,REL,Endurance_Sorensen,1,L_LES,127.96368713630959,start,1
BMu117,28,P,REL,Endurance_Sorensen,1,L_LES,106.3109932421434,end,1
BMu117,28,P,REL,Endurance_Sorensen,1,R_LES,103.31490390249805,start,1
BMu117,28,P,REL,Endurance_Sorensen,1,R_LES,92.09174170256416,end,1
BMu117,29,P,INI,Endurance_Sorensen,1,L_LES,103.9286543905965,start,1
BMu117,29,P,INI,Endurance_Sorensen,1,L_LES,57.76859821622928,end,1
BMu117,29,P,INI,Endurance_Sorensen,1,R_LES,109.20467187014529,start,1
BMu117,29,P,INI,Endurance_Sorensen,1,R_LES,53.1231478059485,end,1
BMu117,29,P,REL,Endurance_Sorensen,1,L_LES,111.92672268805322,start,1
BMu117,29,P,REL,Endurance_Sorensen,1,L_LES,54.249729927340425,end,1
BMu117,29,P,REL,Endurance_Sorensen,1,R_LES,113.57765640517724,start,1
BMu117,29,P,REL,Endurance_Sorensen,1,R_LES,56.354468862139164,end,1
BMu117,30,P,INI,Endurance_Sorensen,1,L_LES,111.011969109266,start,1
BMu117,30,P,INI,Endurance_Sorensen,1,L_LES,43.934447069001756,end,1
BMu117,30,P,INI,Endurance_Sorensen,1,R_LES,102.83746986797497,start,1
BMu117,30,P,INI,Endurance_Sorensen,1,R_LES,43.340380494361476,end,1
BMu117,30,P,REL,Endurance_Sorensen,1,L_LES,114.33263755187173,start,1
BMu117,30,P,REL,Endurance_Sorensen,1,L_LES,63.813183454112576,end,1
BMu117,30,P,REL,Endurance_Sorensen,1,R_LES,88.60383523468724,start,1
BMu117,30,P,REL,Endurance_Sorensen,1,R_LES,70.88789508485812,end,1
BMu117,32,P,INI,Endurance_Sorensen,1,L_LES,100.00735632156744,start,1
BMu117,32,P,INI,Endurance_Sorensen,1,L_LES,61.360164248051646,end,1
BMu117,32,P,INI,Endurance_Sorensen,1,R_LES,92.85583971252095,start,1
BMu117,32,P,INI,Endurance_Sorensen,1,R_LES,65.63591598827502,end,1
BMu117,32,P,REL,Endurance_Sorensen,1,L_LES,87.46242353330696,start,1
BMu117,32,P,REL,Endurance_Sorensen,1,L_LES,117.35107191845175,end,1
BMu117,32,P,REL,Endurance_Sorensen,1,R_LES,108.94163256283042,start,1
BMu117,32,P,REL,Endurance_Sorensen,1,R_LES,114.69507667329351,end,1
BMu117,33,P,INI,Endurance_Sorensen,1,L_LES,62.49890458133539,start,1
BMu117,33,P,INI,Endurance_Sorensen,1,L_LES,88.94007030612019,end,1
BMu117,33,P,INI,Endurance_Sorensen,1,R_LES,64.69878035063844,start,1
BMu117,33,P,INI,Endurance_Sorensen,1,R_LES,87.7225418601127,end,1
BMu117,33,P,REL,Endurance_Sorensen,1,L_LES,84.5119754988517,start,1
BMu117,33,P,REL,Endurance_Sorensen,1,L_LES,110.17007000871088,end,1
BMu117,33,P,REL,Endurance_Sorensen,1,R_LES,83.04928007694639,start,1
BMu117,33,P,REL,Endurance_Sorensen,1,R_LES,121.85150838885889,end,1
BMu117,34,P,INI,Endurance_Sorensen,1,L_LES,108.65956503928537,start,1
BMu117,34,P,INI,Endurance_Sorensen,1,L_LES,62.86226305106923,end,1
BMu117,34,P,INI,Endurance_Sorensen,1,R_LES,102.37428375448357,start,1
BMu117,34,P,INI,Endurance_Sorensen,1,R_LES,68.44451580618365,end,1
BMu117,34,P,REL,Endurance_Sorensen,1,L_LES,104.49027064880612,start,1
BMu117,34,P,REL,Endurance_Sorensen,1,L_LES,72.47423781365751,end,1
BMu117,34,P,REL,Endurance_Sorensen,1,R_LES,100.39655934307271,start,1
BMu117,34,P,REL,Endurance_Sorensen,1,R_LES,49.72498554397812,end,1
BMu117,35,C,INI,Endurance_Sorensen,1,L_LES,113.749002975666,start,1
BMu117,35,C,INI,Endurance_Sorensen,1,L_LES,65.43022415919124,end,1
BMu117,35,C,INI,Endurance_Sorensen,1,R_LES,99.40790361241415,start,1
BMu117,35,C,INI,Endurance_Sorensen,1,R_LES,58.06075577682532,end,1
BMu117,35,C,REL,Endurance_Sorensen,1,L_LES,112.26376862410943,start,1
BMu117,35,C,REL,Endurance_Sorensen,1,L_LES,60.04881904960215,end,1
BMu117,35,C,REL,Endurance_Sorensen,1,R_LES,121.42042695020729,start,1
BMu117,35,C,REL,Endurance_Sorensen,1,R_LES,53.42128326204539,end,1
BMu117,36,P,INI,Endurance_Sorensen,1,L_LES,105.41200483846606,start,1
BMu117,36,P,INI,Endurance_Sorensen,1,L_LES,64.63265082582171,end,1
BMu117,36,P,INI,Endurance_Sorensen,1,R_LES,99.60828130786025,start,1
BMu117,36,P,INI,Endurance_Sorensen,1,R_LES,62.61428723716074,end,1
BMu117,36,P,REL,Endurance_Sorensen,1,L_LES,111.90313696278157,start,1
BMu117,36,P,REL,Endurance_Sorensen,1,L_LES,61.15576779349133,end,1
BMu117,36,P,REL,Endurance_Sorensen,1,R_LES,111.26119397168804,start,1
BMu117,36,P,REL,Endurance_Sorensen,1,R_LES,71.8157045746232,end,1
BMu117,38,C,INI,Endurance_Sorensen,1,L_LES,111.68809772405449,start,1
BMu117,38,C,INI,Endurance_Sorensen,1,L_LES,52.250896461542325,end,1
BMu117,38,C,INI,Endurance_Sorensen,1,R_LES,68.26844670609323,start,1
BMu117,38,C,INI,Endurance_Sorensen,1,R_LES,46.34845527222659,end,1
BMu117,38,C,REL,Endurance_Sorensen,1,L_LES,112.32265002171312,start,1
BMu117,38,C,REL,Endurance_Sorensen,1,L_LES,56.1800683402016,end,1
BMu117,38,C,REL,Endurance_Sorensen,1,R_LES,110.33303120010568,start,1
BMu117,38,C,REL,Endurance_Sorensen,1,R_LES,64.75427410049653,end,1
BMu117,39,C,INI,Endurance_Sorensen,1,L_LES,132.56039097521918,start,1
BMu117,39,C,INI,Endurance_Sorensen,1,L_LES,77.8969141617682,end,1
BMu117,39,C,INI,Endurance_Sorensen,1,R_LES,121.92821030981705,start,1
BMu117,39,C,INI,Endurance_Sorensen,1,R_LES,72.56370450838074,end,1
BMu117,39,C,REL,Endurance_Sorensen,1,L_LES,93.88029240597129,start,1
BMu117,39,C,REL,Endurance_Sorensen,1,L_LES,72.37072296958864,end,1
BMu117,39,C,REL,Endurance_Sorensen,1,R_LES,113.37138020906936,start,1
BMu117,39,C,REL,Endurance_Sorensen,1,R_LES,72.71558285888187,end,1
BMu117,40,C,INI,Endurance_Sorensen,1,L_LES,134.13683713900937,start,1
BMu117,40,C,INI,Endurance_Sorensen,1,L_LES,55.82208271033035,end,1
BMu117,40,C,INI,Endurance_Sorensen,1,R_LES,102.61089041614945,start,1
BMu117,40,C,INI,Endurance_Sorensen,1,R_LES,53.19141645299703,end,1
BMu117,40,C,REL,Endurance_Sorensen,1,L_LES,138.09599979085397,start,1
BMu117,40,C,REL,Endurance_Sorensen,1,L_LES,62.02368184821764,end,1
BMu117,40,C,REL,Endurance_Sorensen,1,R_LES,126.98617707678008,start,1
BMu117,40,C,REL,Endurance_Sorensen,1,R_LES,62.687006777421324,end,1
BMu117,41,P,INI,Endurance_Sorensen,1,L_LES,95.29210743710463,start,1
BMu117,41,P,INI,Endurance_Sorensen,1,L_LES,104.05280212536005,end,1
BMu117,41,P,INI,Endurance_Sorensen,1,R_LES,89.70059321730395,start,1
BMu117,41,P,INI,Endurance_Sorensen,1,R_LES,92.29177668372662,end,1
BMu117,41,P,REL,Endurance_Sorensen,1,L_LES,100.3960057175827,start,1
BMu117,41,P,REL,Endurance_Sorensen,1,L_LES,87.94584443615261,end,1
BMu117,41,P,REL,Endurance_Sorensen,1,R_LES,81.93006515810079,start,1
BMu117,41,P,REL,Endurance_Sorensen,1,R_LES,74.54031089973454,end,1
BMu117,42,P,INI,Endurance_Sorensen,1,L_LES,127.02103335544872,start,1
BMu117,42,P,INI,Endurance_Sorensen,1,L_LES,97.31740498267769,end,1
BMu117,42,P,INI,Endurance_Sorensen,1,R_LES,109.57013981604946,start,1
BMu117,42,P,INI,Endurance_Sorensen,1,R_LES,71.84378877025173,end,1
BMu117,42,P,REL,Endurance_Sorensen,1,L_LES,121.34075907442643,start,1
BMu117,42,P,REL,Endurance_Sorensen,1,L_LES,72.24355212975351,end,1
BMu117,42,P,REL,Endurance_Sorensen,1,R_LES,106.5558966430026,start,1
BMu117,42,P,REL,Endurance_Sorensen,1,R_LES,63.22711666082129,end,1
BMu117,43,P,INI,Endurance_Sorensen,1,L_LES,128.79759994471485,start,1
BMu117,43,P,INI,Endurance_Sorensen,1,L_LES,94.37116035291172,end,1
BMu117,43,P,INI,Endurance_Sorensen,1,R_LES,106.36319765543277,start,1
BMu117,43,P,INI,Endurance_Sorensen,1,R_LES,67.8196069726718,end,1
BMu117,43,P,REL,Endurance_Sorensen,1,L_LES,135.11130313397487,start,1
BMu117,43,P,REL,Endurance_Sorensen,1,L_LES,108.66237469429286,end,1
BMu117,43,P,REL,Endurance_Sorensen,1,R_LES,102.58586048564074,start,1
BMu117,43,P,REL,Endurance_Sorensen,1,R_LES,92.3669792753528,end,1
BMu117,44,C,INI,Endurance_Sorensen,1,L_LES,126.46257033413012,start,1
BMu117,44,C,INI,Endurance_Sorensen,1,L_LES,73.1742027014922,end,1
BMu117,44,C,INI,Endurance_Sorensen,1,R_LES,89.03630772479825,start,1
BMu117,44,C,INI,Endurance_Sorensen,1,R_LES,53.766382072529076,end,1
BMu117,44,C,REL,Endurance_Sorensen,1,L_LES,144.50379531029282,start,1
BMu117,44,C,REL,Endurance_Sorensen,1,L_LES,100.92287805893591,end,1
BMu117,44,C,REL,Endurance_Sorensen,1,R_LES,124.28971075208887,start,1
BMu117,44,C,REL,Endurance_Sorensen,1,R_LES,76.19162232955058,end,1
BMu117,45,P,INI,Endurance_Sorensen,1,L_LES,80.95626494010071,start,1
BMu117,45,P,INI,Endurance_Sorensen,1,L_LES,75.85208830873665,end,1
BMu117,45,P,INI,Endurance_Sorensen,1,R_LES,69.17997086512463,start,1
BMu117,45,P,INI,Endurance_Sorensen,1,R_LES,60.9382694566692,end,1
BMu117,45,P,REL,Endurance_Sorensen,1,L_LES,102.74611064591296,start,1
BMu117,45,P,REL,Endurance_Sorensen,1,L_LES,106.59907484731232,end,1
BMu117,45,P,REL,Endurance_Sorensen,1,R_LES,87.14627976241712,start,1
BMu117,45,P,REL,Endurance_Sorensen,1,R_LES,64.05541588846707,end,1
BMu117,46,C,INI,Endurance_Sorensen,1,L_LES,122.97605927038836,start,1
BMu117,46,C,INI,Endurance_Sorensen,1,L_LES,88.32284624186853,end,1
BMu117,46,C,INI,Endurance_Sorensen,1,R_LES,99.83597137406477,start,1
BMu117,46,C,INI,Endurance_Sorensen,1,R_LES,75.85990962755214,end,1
BMu117,46,C,REL,Endurance_Sorensen,1,L_LES,118.34026523343253,start,1
BMu117,46,C,REL,Endurance_Sorensen,1,L_LES,82.16372619149864,end,1
BMu117,46,C,REL,Endurance_Sorensen,1,R_LES,98.73267076383163,start,1
BMu117,46,C,REL,Endurance_Sorensen,1,R_LES,76.43858248138788,end,1
BMu117,47,P,INI,Endurance_Sorensen,1,L_LES,144.28886246907692,start,1
BMu117,47,P,INI,Endurance_Sorensen,1,L_LES,100.48395048884758,end,1
BMu117,47,P,INI,Endurance_Sorensen,1,R_LES,138.51929619782766,start,1
BMu117,47,P,INI,Endurance_Sorensen,1,R_LES,101.9648409989617,end,1
BMu117,47,P,REL,Endurance_Sorensen,1,L_LES,111.71909966751356,start,1
BMu117,47,P,REL,Endurance_Sorensen,1,L_LES,62.462510518606976,end,1
BMu117,47,P,REL,Endurance_Sorensen,1,R_LES,99.90909486311612,start,1
BMu117,47,P,REL,Endurance_Sorensen,1,R_LES,60.39990762697488,end,1
BMu117,48,C,INI,Endurance_Sorensen,1,L_LES,156.76642518285928,start,1
BMu117,48,C,INI,Endurance_Sorensen,1,L_LES,88.35678718789558,end,1
BMu117,48,C,INI,Endurance_Sorensen,1,R_LES,139.21351460471774,start,1
BMu117,48,C,INI,Endurance_Sorensen,1,R_LES,72.19447994109302,end,1
BMu117,48,C,REL,Endurance_Sorensen,1,L_LES,134.7858601544263,start,1
BMu117,48,C,REL,Endurance_Sorensen,1,L_LES,68.36728398532688,end,1
BMu117,48,C,REL,Endurance_Sorensen,1,R_LES,136.34330299277858,start,1
BMu117,48,C,REL,Endurance_Sorensen,1,R_LES,65.29806223882677,end,1
BMu117,49,C,INI,Endurance_Sorensen,1,L_LES,121.91671666234011,start,1
BMu117,49,C,INI,Endurance_Sorensen,1,L_LES,58.86343328295197,end,1
BMu117,49,C,INI,Endurance_Sorensen,1,R_LES,112.6384901521314,start,1
BMu117,49,C,INI,Endurance_Sorensen,1,R_LES,61.99178510399507,end,1
BMu117,49,C,REL,Endurance_Sorensen,1,L_LES,109.36115821596842,start,1
BMu117,49,C,REL,Endurance_Sorensen,1,L_LES,58.90929500226505,end,1
BMu117,49,C,REL,Endurance_Sorensen,1,R_LES,109.31620691604559,start,1
BMu117,49,C,REL,Endurance_Sorensen,1,R_LES,61.388205559308425,end,1
BMu117,50,P,INI,Endurance_Sorensen,1,L_LES,123.34808540589901,start,1
BMu117,50,P,INI,Endurance_Sorensen,1,L_LES,77.40052732881875,end,1
BMu117,50,P,INI,Endurance_Sorensen,1,R_LES,110.8680617415795,start,1
BMu117,50,P,INI,Endurance_Sorensen,1,R_LES,68.12135864490413,end,1
BMu117,50,P,REL,Endurance_Sorensen,1,L_LES,107.21897641301416,start,1
BMu117,50,P,REL,Endurance_Sorensen,1,L_LES,60.18072579640741,end,1
BMu117,50,P,REL,Endurance_Sorensen,1,R_LES,118.88074741505199,start,1
BMu117,50,P,REL,Endurance_Sorensen,1,R_LES,64.61131677165612,end,1
BMu117,51,P,INI,Endurance_Sorensen,1,L_LES,77.43572401989633,start,1
BMu117,51,P,INI,Endurance_Sorensen,1,L_LES,60.465376561730594,end,1
BMu117,51,P,INI,Endurance_Sorensen,1,R_LES,84.23738337528653,start,1
BMu117,51,P,INI,Endurance_Sorensen,1,R_LES,58.52231631779703,end,1
BMu117,51,P,REL,Endurance_Sorensen,1,L_LES,74.39320138714328,start,1
BMu117,51,P,REL,Endurance_Sorensen,1,L_LES,53.099466827463445,end,1
BMu117,51,P,REL,Endurance_Sorensen,1,R_LES,92.15100362629286,start,1
BMu117,51,P,REL,Endurance_Sorensen,1,R_LES,56.227599033672234,end,1
BMu117,52,C,INI,Endurance_Sorensen,1,L_LES,95.18374261683044,start,1
BMu117,52,C,INI,Endurance_Sorensen,1,L_LES,61.75090465836492,end,1
BMu117,52,C,INI,Endurance_Sorensen,1,R_LES,104.04299643485689,start,1
BMu117,52,C,INI,Endurance_Sorensen,1,R_LES,54.00730660251391,end,1
BMu117,52,C,REL,Endurance_Sorensen,1,L_LES,131.39818484487125,start,1
BMu117,52,C,REL,Endurance_Sorensen,1,L_LES,82.62590186397183,end,1
BMu117,52,C,REL,Endurance_Sorensen,1,R_LES,114.30388118421702,start,1
BMu117,52,C,REL,Endurance_Sorensen,1,R_LES,87.58437112429957,end,1
BMu117,53,P,INI,Endurance_Sorensen,1,L_LES,107.72943547829941,start,1
BMu117,53,P,INI,Endurance_Sorensen,1,L_LES,120.10249214890523,end,1
BMu117,53,P,INI,Endurance_Sorensen,1,R_LES,87.83687995395994,start,1
BMu117,53,P,INI,Endurance_Sorensen,1,R_LES,102.9698776989158,end,1
BMu117,53,P,REL,Endurance_Sorensen,1,L_LES,99.58734312085052,start,1
BMu117,53,P,REL,Endurance_Sorensen,1,L_LES,99.17728987620231,end,1
BMu117,53,P,REL,Endurance_Sorensen,1,R_LES,107.03090945945833,start,1
BMu117,53,P,REL,Endurance_Sorensen,1,R_LES,90.23481152201565,end,1
BMu117,54,P,INI,Endurance_Sorensen,1,L_LES,120.35569882174354,start,1
BMu117,54,P,INI,Endurance_Sorensen,1,L_LES,92.09545576591684,end,1
BMu117,54,P,INI,Endurance_Sorensen,1,R_LES,117.38758049599731,start,1
BMu117,54,P,INI,Endurance_Sorensen,1,R_LES,86.63856488909403,end,1
BMu117,54,P,REL,Endurance_Sorensen,1,L_LES,113.47348152959522,start,1
BMu117,54,P,REL,Endurance_Sorensen,1,L_LES,86.6569821604738,end,1
BMu117,54,P,REL,Endurance_Sorensen,1,R_LES,120.81916636735683,start,1
BMu117,54,P,REL,Endurance_Sorensen,1,R_LES,86.46652554475031,end,1
BMu117,55,C,INI,Endurance_Sorensen,1,L_LES,115.26790902178027,start,1
BMu117,55,C,INI,Endurance_Sorensen,1,L_LES,112.12973090227231,end,1
BMu117,55,C,INI,Endurance_Sorensen,1,R_LES,114.33474982513657,start,1
BMu117,55,C,INI,Endurance_Sorensen,1,R_LES,83.21557281127136,end,1
BMu117,55,C,REL,Endurance_Sorensen,1,L_LES,105.23753039905824,start,1
BMu117,55,C,REL,Endurance_Sorensen,1,L_LES,62.289986088801356,end,1
BMu117,55,C,REL,Endurance_Sorensen,1,R_LES,104.55364066879307,start,1
BMu117,55,C,REL,Endurance_Sorensen,1,R_LES,66.60400983799367,end,1
BMu117,56,C,INI,Endurance_Sorensen,1,L_LES,67.57766526799978,start,1
BMu117,56,C,INI,Endurance_Sorensen,1,L_LES,61.041190632047254,end,1
BMu117,56,C,INI,Endurance_Sorensen,1,R_LES,75.7814652843777,start,1
BMu117,56,C,INI,Endurance_Sorensen,1,R_LES,60.6805719897471,end,1
BMu117,56,C,REL,Endurance_Sorensen,1,L_LES,83.87393703057113,start,1
BMu117,56,C,REL,Endurance_Sorensen,1,L_LES,46.483597142856624,end,1
BMu117,56,C,REL,Endurance_Sorensen,1,R_LES,84.68279590061793,start,1
BMu117,56,C,REL,Endurance_Sorensen,1,R_LES,63.116545947224196,end,1
BMu117,57,C,INI,Endurance_Sorensen,1,L_LES,101.28164920159998,start,1
BMu117,57,C,INI,Endurance_Sorensen,1,L_LES,56.19304484604961,end,1
BMu117,57,C,INI,Endurance_Sorensen,1,R_LES,104.62911015376507,start,1
BMu117,57,C,INI,Endurance_Sorensen,1,R_LES,81.27323917202213,end,1
BMu117,57,C,REL,Endurance_Sorensen,1,L_LES,111.9753008117706,start,1
BMu117,57,C,REL,Endurance_Sorensen,1,L_LES,63.11758778700964,end,1
BMu117,57,C,REL,Endurance_Sorensen,1,R_LES,94.53353968115024,start,1
BMu117,57,C,REL,Endurance_Sorensen,1,R_LES,79.11593724089342,end,1
BMu117,58,P,INI,Endurance_Sorensen,1,L_LES,110.6721985455085,start,1
BMu117,58,P,INI,Endurance_Sorensen,1,L_LES,50.85138246298892,end,1
BMu117,58,P,INI,Endurance_Sorensen,1,R_LES,105.86368726481213,start,1
BMu117,58,P,INI,Endurance_Sorensen,1,R_LES,48.73792054458658,end,1
BMu117,58,P,REL,Endurance_Sorensen,1,L_LES,110.53865816985439,start,1
BMu117,58,P,REL,Endurance_Sorensen,1,L_LES,70.40452312868233,end,1
BMu117,58,P,REL,Endurance_Sorensen,1,R_LES,94.74521543431406,start,1
BMu117,58,P,REL,Endurance_Sorensen,1,R_LES,64.78388352926311,end,1
BMu117,60,C,INI,Endurance_Sorensen,1,L_LES,116.40592372016941,start,1
BMu117,60,C,INI,Endurance_Sorensen,1,L_LES,97.01325711706066,end,1
BMu117,60,C,INI,Endurance_Sorensen,1,R_LES,102.91574713202931,start,1
BMu117,60,C,INI,Endurance_Sorensen,1,R_LES,77.22835431305725,end,1
BMu117,60,C,REL,Endurance_Sorensen,1,L_LES,110.10671525130998,start,1
BMu117,60,C,REL,Endurance_Sorensen,1,L_LES,103.25686260048727,end,1
BMu117,60,C,REL,Endurance_Sorensen,1,R_LES,94.6136123427992,start,1
BMu117,60,C,REL,Endurance_Sorensen,1,R_LES,88.17271350858006,end,1
BMu117,61,P,REL,Endurance_Sorensen,1,L_LES,83.50480421135411,start,1
BMu117,61,P,REL,Endurance_Sorensen,1,L_LES,79.52823302369973,end,1
BMu117,61,P,REL,Endurance_Sorensen,1,R_LES,90.27692041730218,start,1
BMu117,61,P,REL,Endurance_Sorensen,1,R_LES,69.62817629119328,end,1
BMu117,62,P,INI,Endurance_Sorensen,1,L_LES,87.29089877473353,start,1
BMu117,62,P,INI,Endurance_Sorensen,1,L_LES,61.91098198638247,end,1
BMu117,62,P,INI,Endurance_Sorensen,1,R_LES,86.7664220649393,start,1
BMu117,62,P,INI,Endurance_Sorensen,1,R_LES,74.91560681145653,end,1
BMu117,62,P,REL,Endurance_Sorensen,1,L_LES,99.34904304839138,start,1
BMu117,62,P,REL,Endurance_Sorensen,1,L_LES,68.88424744872559,end,1
BMu117,62,P,REL,Endurance_Sorensen,1,R_LES,95.3236720524838,start,1
BMu117,62,P,REL,Endurance_Sorensen,1,R_LES,79.49161403366733,end,1
BMu117,63,P,INI,Endurance_Sorensen,1,L_LES,100.83802165359388,start,1
BMu117,63,P,INI,Endurance_Sorensen,1,L_LES,82.19568925108383,end,1
BMu117,63,P,INI,Endurance_Sorensen,1,R_LES,118.44094151334929,start,1
BMu117,63,P,INI,Endurance_Sorensen,1,R_LES,74.8640529270528,end,1
BMu117,63,P,REL,Endurance_Sorensen,1,L_LES,130.5418863025502,start,1
BMu117,63,P,REL,Endurance_Sorensen,1,L_LES,99.84169659927285,end,1
BMu117,63,P,REL,Endurance_Sorensen,1,R_LES,119.34086113067502,start,1
BMu117,63,P,REL,Endurance_Sorensen,1,R_LES,79.77435668254657,end,1
BMu117,64,C,INI,Endurance_Sorensen,1,L_LES,118.18958106326264,start,1
BMu117,64,C,INI,Endurance_Sorensen,1,L_LES,72.6473592862606,end,1
BMu117,64,C,INI,Endurance_Sorensen,1,R_LES,109.21406872983268,start,1
BMu117,64,C,INI,Endurance_Sorensen,1,R_LES,61.20521695644718,end,1
BMu117,64,C,REL,Endurance_Sorensen,1,L_LES,107.45053218377726,start,1
BMu117,64,C,REL,Endurance_Sorensen,1,L_LES,53.086932843295415,end,1
BMu117,64,C,REL,Endurance_Sorensen,1,R_LES,97.95963994064368,start,1
BMu117,64,C,REL,Endurance_Sorensen,1,R_LES,52.38962132477334,end,1
BMu117,65,P,INI,Endurance_Sorensen,1,L_LES,111.94537810376687,start,1
BMu117,65,P,INI,Endurance_Sorensen,1,L_LES,96.36635736458732,end,1
BMu117,65,P,INI,Endurance_Sorensen,1,R_LES,96.75167514539366,start,1
BMu117,65,P,INI,Endurance_Sorensen,1,R_LES,83.92278363310268,end,1
BMu117,65,P,REL,Endurance_Sorensen,1,L_LES,133.67221493906524,start,1
BMu117,65,P,REL,Endurance_Sorensen,1,L_LES,91.93979008722647,end,1
BMu117,65,P,REL,Endurance_Sorensen,1,R_LES,108.1280888994067,start,1
BMu117,65,P,REL,Endurance_Sorensen,1,R_LES,86.37550556976325,end,1
BMu117,66,C,INI,Endurance_Sorensen,1,L_LES,106.83120005359265,start,1
BMu117,66,C,INI,Endurance_Sorensen,1,L_LES,54.523662416369305,end,1
BMu117,66,C,INI,Endurance_Sorensen,1,R_LES,96.10403342466012,start,1
BMu117,66,C,INI,Endurance_Sorensen,1,R_LES,66.9087853153056,end,1
BMu117,66,C,REL,Endurance_Sorensen,1,L_LES,99.57104980720342,start,1
BMu117,66,C,REL,Endurance_Sorensen,1,L_LES,75.5778182324093,end,1
BMu117,66,C,REL,Endurance_Sorensen,1,R_LES,102.80314041260685,start,1
BMu117,66,C,REL,Endurance_Sorensen,1,R_LES,56.956252242578145,end,1
BMu117,67,C,INI,Endurance_Sorensen,1,L_LES,95.5941439530519,start,1
BMu117,67,C,INI,Endurance_Sorensen,1,L_LES,71.8516312373432,end,1
BMu117,67,C,INI,Endurance_Sorensen,1,R_LES,120.18807243627629,start,1
BMu117,67,C,INI,Endurance_Sorensen,1,R_LES,92.5980871262922,end,1
BMu117,67,C,REL,Endurance_Sorensen,1,L_LES,95.96632784314697,start,1
BMu117,67,C,REL,Endurance_Sorensen,1,L_LES,62.159725515735786,end,1
BMu117,67,C,REL,Endurance_Sorensen,1,R_LES,103.21519337174817,start,1
BMu117,67,C,REL,Endurance_Sorensen,1,R_LES,64.36550043360505,end,1
BMu117,68,C,INI,Endurance_Sorensen,1,L_LES,126.9896684817549,start,1
BMu117,68,C,INI,Endurance_Sorensen,1,L_LES,84.28963748434028,end,1
BMu117,68,C,INI,Endurance_Sorensen,1,R_LES,139.05750107225387,start,1
BMu117,68,C,INI,Endurance_Sorensen,1,R_LES,65.85462227881553,end,1
BMu117,68,C,REL,Endurance_Sorensen,1,L_LES,137.6163658647148,start,1
BMu117,68,C,REL,Endurance_Sorensen,1,L_LES,46.797384499012104,end,1
BMu117,68,C,REL,Endurance_Sorensen,1,R_LES,144.16526841325333,start,1
BMu117,68,C,REL,Endurance_Sorensen,1,R_LES,42.052963418018706,end,1
