BMu,subject,P_C,session,task,trials,channel,value,event,repetition
BMu15,1,C,INI,Trunk_Forward,1,R_L_LES,,,
BMu15,1,C,REL,Trunk_Forward,1,R_L_LES,,,
BMu15,2,C,INI,Trunk_Forward,1,R_L_LES,,,
BMu15,2,C,REL,Trunk_Forward,1,R_L_LES,,,
BMu15,3,C,INI,Trunk_Forward,1,R_L_LES,,,
BMu15,3,C,REL,Trunk_Forward,1,R_L_LES,,,
BMu15,5,C,INI,Trunk_Forward,1,R_L_LES,,,
BMu15,5,C,REL,Trunk_Forward,1,R_L_LES,,,
BMu15,6,C,INI,Trunk_Forward,1,R_L_LES,,,
BMu15,6,C,REL,Trunk_Forward,1,R_L_LES,,,
BMu15,7,C,INI,Trunk_Forward,1,R_L_LES,,,
BMu15,7,C,REL,Trunk_Forward,1,R_L_LES,,,
BMu15,8,C,INI,Trunk_Forward,1,R_L_LES,,,
BMu15,8,C,REL,Trunk_Forward,1,R_L_LES,,,
BMu15,9,P,INI,Trunk_Forward,1,R_L_LES,,,
BMu15,9,P,REL,Trunk_Forward,1,R_L_LES,,,
BMu15,10,P,INI,Trunk_Forward,1,R_L_LES,,,
BMu15,10,P,REL,Trunk_Forward,1,R_L_LES,,,
BMu15,11,P,INI,Trunk_Forward,1,R_L_LES,,,
BMu15,11,P,REL,Trunk_Forward,1,R_L_LES,,,
BMu15,12,P,INI,Trunk_Forward,1,R_L_LES,,,
BMu15,12,P,REL,Trunk_Forward,1,R_L_LES,,,
BMu15,13,C,INI,Trunk_Forward,1,R_L_LES,,,
BMu15,13,C,REL,Trunk_Forward,1,R_L_LES,,,
BMu15,14,P,INI,Trunk_Forward,1,R_L_LES,,,
BMu15,14,P,REL,Trunk_Forward,1,R_L_LES,,,
BMu15,16,C,INI,Trunk_Forward,1,R_L_LES,,,
BMu15,16,C,REL,Trunk_Forward,1,R_L_LES,,,
BMu15,17,P,INI,Trunk_Forward,1,R_L_LES,,,
BMu15,17,P,REL,Trunk_Forward,1,R_L_LES,,,
BMu15,21,C,INI,Trunk_Forward,1,R_L_LES,,,
BMu15,21,C,REL,Trunk_Forward,1,R_L_LES,,,
BMu15,22,C,INI,Trunk_Forward,1,R_L_LES,,,
BMu15,22,C,REL,Trunk_Forward,1,R_L_LES,,,
BMu15,23,C,INI,Trunk_Forward,1,R_L_LES,,,
BMu15,23,C,REL,Trunk_Forward,1,R_L_LES,,,
BMu15,24,P,INI,Trunk_Forward,1,R_L_LES,,,
BMu15,24,P,REL,Trunk_Forward,1,R_L_LES,,,
BMu15,25,C,INI,Trunk_Forward,1,R_L_LES,,,
BMu15,25,C,REL,Trunk_Forward,1,R_L_LES,,,
BMu15,26,P,INI,Trunk_Forward,1,R_L_LES,,,
BMu15,26,P,REL,Trunk_Forward,1,R_L_LES,,,
BMu15,27,P,INI,Trunk_Forward,1,R_L_LES,,,
BMu15,27,P,REL,Trunk_Forward,1,R_L_LES,,,
BMu15,28,P,INI,Trunk_Forward,1,R_L_LES,,,
BMu15,28,P,REL,Trunk_Forward,1,R_L_LES,,,
BMu15,29,P,INI,Trunk_Forward,1,R_L_LES,,,
BMu15,29,P,REL,Trunk_Forward,1,R_L_LES,,,
BMu15,30,P,INI,Trunk_Forward,1,R_L_LES,,,
BMu15,30,P,REL,Trunk_Forward,1,R_L_LES,,,
BMu15,32,P,INI,Trunk_Forward,1,R_L_LES,,,
BMu15,32,P,REL,Trunk_Forward,1,R_L_LES,,,
BMu15,33,P,INI,Trunk_Forward,1,R_L_LES,,,
BMu15,33,P,REL,Trunk_Forward,1,R_L_LES,,,
BMu15,34,P,INI,Trunk_Forward,1,R_L_LES,,,
BMu15,34,P,REL,Trunk_Forward,1,R_L_LES,,,
BMu15,35,C,INI,Trunk_Forward,1,R_L_LES,,,
BMu15,35,C,REL,Trunk_Forward,1,R_L_LES,,,
BMu15,36,P,INI,Trunk_Forward,1,R_L_LES,,,
BMu15,36,P,REL,Trunk_Forward,1,R_L_LES,,,
BMu15,38,C,INI,Trunk_Forward,1,R_L_LES,,,
BMu15,38,C,REL,Trunk_Forward,1,R_L_LES,,,
BMu15,39,C,INI,Trunk_Forward,1,R_L_LES,,,
BMu15,39,C,REL,Trunk_Forward,1,R_L_LES,,,
BMu15,40,C,INI,Trunk_Forward,1,R_L_LES,,,
BMu15,40,C,REL,Trunk_Forward,1,R_L_LES,,,
BMu15,41,P,INI,Trunk_Forward,1,R_L_LES,,,
BMu15,41,P,REL,Trunk_Forward,1,R_L_LES,,,
BMu15,42,P,INI,Trunk_Forward,1,R_L_LES,,,
BMu15,42,P,REL,Trunk_Forward,1,R_L_LES,,,
BMu15,43,P,INI,Trunk_Forward,1,R_L_LES,,,
BMu15,43,P,REL,Trunk_Forward,1,R_L_LES,,,
BMu15,44,C,INI,Trunk_Forward,1,R_L_LES,,,
BMu15,44,C,REL,Trunk_Forward,1,R_L_LES,,,
BMu15,45,P,INI,Trunk_Forward,1,R_L_LES,,,
BMu15,45,P,REL,Trunk_Forward,1,R_L_LES,,,
BMu15,46,C,INI,Trunk_Forward,1,R_L_LES,,,
BMu15,46,C,REL,Trunk_Forward,1,R_L_LES,,,
BMu15,47,P,INI,Trunk_Forward,1,R_L_LES,,,
BMu15,47,P,REL,Trunk_Forward,1,R_L_LES,,,
BMu15,48,C,INI,Trunk_Forward,1,R_L_LES,,,
BMu15,48,C,REL,Trunk_Forward,1,R_L_LES,,,
BMu15,49,C,INI,Trunk_Forward,1,R_L_LES,,,
BMu15,49,C,REL,Trunk_Forward,1,R_L_LES,,,
BMu15,50,P,INI,Trunk_Forward,1,R_L_LES,,,
BMu15,50,P,REL,Trunk_Forward,1,R_L_LES,,,
BMu15,51,P,INI,Trunk_Forward,1,R_L_LES,,,
BMu15,51,P,REL,Trunk_Forward,1,R_L_LES,,,
BMu15,52,C,INI,Trunk_Forward,1,R_L_LES,,,
BMu15,52,C,REL,Trunk_Forward,1,R_L_LES,,,
BMu15,53,P,INI,Trunk_Forward,1,R_L_LES,,,
BMu15,53,P,REL,Trunk_Forward,1,R_L_LES,,,
BMu15,54,P,INI,Trunk_Forward,1,R_L_LES,,,
BMu15,54,P,REL,Trunk_Forward,1,R_L_LES,,,
BMu15,55,C,INI,Trunk_Forward,1,R_L_LES,,,
BMu15,55,C,REL,Trunk_Forward,1,R_L_LES,,,
BMu15,56,C,INI,Trunk_Forward,1,R_L_LES,,,
BMu15,56,C,REL,Trunk_Forward,1,R_L_LES,,,
BMu15,57,C,INI,Trunk_Forward,1,R_L_LES,,,
BMu15,57,C,REL,Trunk_Forward,1,R_L_LES,,,
BMu15,58,P,INI,Trunk_Forward,1,R_L_LES,,,
BMu15,58,P,REL,Trunk_Forward,1,R_L_LES,,,
BMu15,60,C,INI,Trunk_Forward,1,R_L_LES,,,
BMu15,60,C,REL,Trunk_Forward,1,R_L_LES,,,
BMu15,61,P,INI,Trunk_Forward,1,R_L_LES,,,
BMu15,61,P,REL,Trunk_Forward,1,R_L_LES,,,
BMu15,62,P,INI,Trunk_Forward,1,R_L_LES,,,
BMu15,62,P,REL,Trunk_Forward,1,R_L_LES,,,
BMu15,63,P,INI,Trunk_Forward,1,R_L_LES,,,
BMu15,63,P,REL,Trunk_Forward,1,R_L_LES,,,
BMu15,64,C,INI,Trunk_Forward,1,R_L_LES,,,
BMu15,64,C,REL,Trunk_Forward,1,R_L_LES,,,
BMu15,65,P,INI,Trunk_Forward,1,R_L_LES,,,
BMu15,65,P,REL,Trunk_Forward,1,R_L_LES,,,
BMu15,66,C,INI,Trunk_Forward,1,R_L_LES,,,
BMu15,66,C,REL,Trunk_Forward,1,R_L_LES,,,
BMu15,67,C,INI,Trunk_Forward,1,R_L_LES,,,
BMu15,67,C,REL,Trunk_Forward,1,R_L_LES,,,
BMu15,68,C,INI,Trunk_Forward,1,R_L_LES,,,
BMu15,68,C,REL,Trunk_Forward,1,R_L_LES,,,
