BMu,subject,P_C,session,task,trials,channel,value,event,rep
BMu1,1,C,INI,Trunk_Forward,1,L_LES,0.001533152367211671,,1
BMu1,1,C,INI,Trunk_Forward,1,L_LES,0.0021209820113243768,,2
BMu1,1,C,INI,Trunk_Forward,1,L_LES,0.005006631478553351,,3
BMu1,1,C,INI,Trunk_Forward,1,R_LES,0.0012223209329803595,,1
BMu1,1,C,INI,Trunk_Forward,1,R_LES,0.0014024445882009763,,2
BMu1,1,C,INI,Trunk_Forward,1,R_LES,0.003874817501940439,,3
BMu1,1,C,REL,Trunk_Forward,1,L_LES,0.0028860662210489704,,1
BMu1,1,C,REL,Trunk_Forward,1,L_LES,0.002890262124797661,,2
BMu1,1,C,REL,Trunk_Forward,1,L_LES,0.002305879865060002,,3
BMu1,1,C,REL,Trunk_Forward,1,R_LES,0.0026595062930659156,,1
BMu1,1,C,REL,Trunk_Forward,1,R_LES,0.0022094223972991224,,2
BMu1,1,C,REL,Trunk_Forward,1,R_LES,0.0022936143470455622,,3
BMu1,2,C,INI,Trunk_Forward,1,L_LES,0.0007132455254725647,,1
BMu1,2,C,INI,Trunk_Forward,1,L_LES,0.0003390600418947743,,2
BMu1,2,C,INI,Trunk_Forward,1,L_LES,0.000689461675131586,,3
BMu1,2,C,INI,Trunk_Forward,1,R_LES,0.0007051526676050809,,1
BMu1,2,C,INI,Trunk_Forward,1,R_LES,0.00039921615624092816,,2
BMu1,2,C,INI,Trunk_Forward,1,R_LES,0.0006746940141996508,,3
BMu1,2,C,REL,Trunk_Forward,1,L_LES,0.0010520103884472769,,1
BMu1,2,C,REL,Trunk_Forward,1,L_LES,0.00042938014005766386,,2
BMu1,2,C,REL,Trunk_Forward,1,L_LES,0.0009247095389092984,,3
BMu1,2,C,REL,Trunk_Forward,1,R_LES,0.0005963407863812783,,1
BMu1,2,C,REL,Trunk_Forward,1,R_LES,0.00044678259976260455,,2
BMu1,2,C,REL,Trunk_Forward,1,R_LES,0.0009635281885616966,,3
BMu1,3,C,INI,Trunk_Forward,1,L_LES,0.00018385695273830062,,1
BMu1,3,C,INI,Trunk_Forward,1,L_LES,0.0003590468379833316,,2
BMu1,3,C,INI,Trunk_Forward,1,L_LES,0.000554247347578737,,3
BMu1,3,C,INI,Trunk_Forward,1,R_LES,0.00028784251095126216,,1
BMu1,3,C,INI,Trunk_Forward,1,R_LES,0.0004351767729665382,,2
BMu1,3,C,INI,Trunk_Forward,1,R_LES,0.00037494162415523894,,3
BMu1,3,C,REL,Trunk_Forward,1,L_LES,0.07760436881291201,,1
BMu1,3,C,REL,Trunk_Forward,1,L_LES,0.020818299714167293,,2
BMu1,3,C,REL,Trunk_Forward,1,L_LES,0.010331494845617514,,3
BMu1,3,C,REL,Trunk_Forward,1,R_LES,0.001324181215729622,,1
BMu1,3,C,REL,Trunk_Forward,1,R_LES,0.0008243081382616545,,2
BMu1,3,C,REL,Trunk_Forward,1,R_LES,0.0005881783266326371,,3
BMu1,5,C,INI,Trunk_Forward,1,L_LES,0.005600893392605763,,1
BMu1,5,C,INI,Trunk_Forward,1,L_LES,0.004346904904944632,,2
BMu1,5,C,INI,Trunk_Forward,1,L_LES,0.0038894387735974104,,3
BMu1,5,C,INI,Trunk_Forward,1,R_LES,0.0023458293022555515,,1
BMu1,5,C,INI,Trunk_Forward,1,R_LES,0.0018246075405015474,,2
BMu1,5,C,INI,Trunk_Forward,1,R_LES,0.0015300861986812836,,3
BMu1,5,C,REL,Trunk_Forward,1,L_LES,0.023594774012386938,,1
BMu1,5,C,REL,Trunk_Forward,1,L_LES,0.0017944649451474472,,2
BMu1,5,C,REL,Trunk_Forward,1,L_LES,0.006142311950756924,,3
BMu1,5,C,REL,Trunk_Forward,1,L_LES,0.0036299426986345054,,4
BMu1,5,C,REL,Trunk_Forward,1,R_LES,0.009033136847308585,,1
BMu1,5,C,REL,Trunk_Forward,1,R_LES,0.0008035569128129806,,2
BMu1,5,C,REL,Trunk_Forward,1,R_LES,0.0029632398759567445,,3
BMu1,5,C,REL,Trunk_Forward,1,R_LES,0.0011646390463110152,,4
BMu1,6,C,INI,Trunk_Forward,1,L_LES,0.000635829388546246,,1
BMu1,6,C,INI,Trunk_Forward,1,L_LES,0.0003940517347563897,,2
BMu1,6,C,INI,Trunk_Forward,1,L_LES,0.00024226205599169547,,3
BMu1,6,C,INI,Trunk_Forward,1,R_LES,0.0001525380082770286,,1
BMu1,6,C,INI,Trunk_Forward,1,R_LES,0.0006775335331274473,,2
BMu1,6,C,INI,Trunk_Forward,1,R_LES,0.00035318133917151807,,3
BMu1,6,C,REL,Trunk_Forward,1,L_LES,0.0007318180413660937,,1
BMu1,6,C,REL,Trunk_Forward,1,L_LES,0.0007811274364218595,,2
BMu1,6,C,REL,Trunk_Forward,1,L_LES,0.0011999995864253204,,3
BMu1,6,C,REL,Trunk_Forward,1,R_LES,0.0005148641336289953,,1
BMu1,6,C,REL,Trunk_Forward,1,R_LES,0.0006631075752448787,,2
BMu1,6,C,REL,Trunk_Forward,1,R_LES,0.0011042153404278,,3
BMu1,7,C,INI,Trunk_Forward,1,L_LES,0.01180325103742536,,1
BMu1,7,C,INI,Trunk_Forward,1,L_LES,0.008553497646981765,,2
BMu1,7,C,INI,Trunk_Forward,1,L_LES,0.008442699791818803,,3
BMu1,7,C,INI,Trunk_Forward,1,R_LES,0.0034677547375300604,,1
BMu1,7,C,INI,Trunk_Forward,1,R_LES,0.0022665575990725327,,2
BMu1,7,C,INI,Trunk_Forward,1,R_LES,0.003564739443131234,,3
BMu1,7,C,REL,Trunk_Forward,1,L_LES,0.005387103338283957,,1
BMu1,7,C,REL,Trunk_Forward,1,L_LES,0.005208588083983031,,2
BMu1,7,C,REL,Trunk_Forward,1,L_LES,0.006417525153672748,,3
BMu1,7,C,REL,Trunk_Forward,1,R_LES,0.0034783159484607345,,1
BMu1,7,C,REL,Trunk_Forward,1,R_LES,0.005529992848744619,,2
BMu1,7,C,REL,Trunk_Forward,1,R_LES,0.008564446331113003,,3
BMu1,8,C,INI,Trunk_Forward,1,L_LES,0.0003179564792238534,,1
BMu1,8,C,INI,Trunk_Forward,1,L_LES,0.0015857824009210737,,2
BMu1,8,C,INI,Trunk_Forward,1,L_LES,0.000872529932764429,,3
BMu1,8,C,INI,Trunk_Forward,1,R_LES,0.00038614539195573486,,1
BMu1,8,C,INI,Trunk_Forward,1,R_LES,0.0004168309339507041,,2
BMu1,8,C,INI,Trunk_Forward,1,R_LES,0.0005583741138570071,,3
BMu1,8,C,REL,Trunk_Forward,1,L_LES,0.0005700485914725477,,1
BMu1,8,C,REL,Trunk_Forward,1,L_LES,0.0037396663042991653,,2
BMu1,8,C,REL,Trunk_Forward,1,L_LES,0.0007074538633734207,,3
BMu1,8,C,REL,Trunk_Forward,1,R_LES,0.00043821453540793297,,1
BMu1,8,C,REL,Trunk_Forward,1,R_LES,0.0014575706271157994,,2
BMu1,8,C,REL,Trunk_Forward,1,R_LES,0.0003136889903840956,,3
BMu1,9,P,INI,Trunk_Forward,1,L_LES,0.001655896953997706,,1
BMu1,9,P,INI,Trunk_Forward,1,L_LES,0.0006664659159260691,,2
BMu1,9,P,INI,Trunk_Forward,1,L_LES,0.00040850241507044203,,3
BMu1,9,P,INI,Trunk_Forward,1,R_LES,0.0020655582428817454,,1
BMu1,9,P,INI,Trunk_Forward,1,R_LES,0.0010158373879023165,,2
BMu1,9,P,INI,Trunk_Forward,1,R_LES,0.0009992913889873287,,3
BMu1,9,P,REL,Trunk_Forward,1,L_LES,0.00209990077609426,,1
BMu1,9,P,REL,Trunk_Forward,1,L_LES,0.0027492010175377223,,2
BMu1,9,P,REL,Trunk_Forward,1,L_LES,0.002978800969709095,,3
BMu1,9,P,REL,Trunk_Forward,1,R_LES,0.0016386267445997887,,1
BMu1,9,P,REL,Trunk_Forward,1,R_LES,0.0025715378332482755,,2
BMu1,9,P,REL,Trunk_Forward,1,R_LES,0.0025778660851902896,,3
BMu1,10,P,INI,Trunk_Forward,1,L_LES,0.0017601917120870763,,1
BMu1,10,P,INI,Trunk_Forward,1,L_LES,0.00034254174271671064,,2
BMu1,10,P,INI,Trunk_Forward,1,L_LES,0.0006682131699545174,,3
BMu1,10,P,INI,Trunk_Forward,1,R_LES,0.0007595551720701683,,1
BMu1,10,P,INI,Trunk_Forward,1,R_LES,0.0009688236277967436,,2
BMu1,10,P,INI,Trunk_Forward,1,R_LES,0.0003036336353414216,,3
BMu1,10,P,REL,Trunk_Forward,1,L_LES,0.0020913432638178017,,1
BMu1,10,P,REL,Trunk_Forward,1,L_LES,0.001146859363891516,,2
BMu1,10,P,REL,Trunk_Forward,1,L_LES,0.0010632960794832147,,3
BMu1,10,P,REL,Trunk_Forward,1,R_LES,0.003244278948396401,,1
BMu1,10,P,REL,Trunk_Forward,1,R_LES,0.0003605146980760615,,2
BMu1,10,P,REL,Trunk_Forward,1,R_LES,0.0007476978911198778,,3
BMu1,11,P,INI,Trunk_Forward,1,L_LES,0.0002594118853787271,,1
BMu1,11,P,INI,Trunk_Forward,1,L_LES,0.0002338566377552225,,2
BMu1,11,P,INI,Trunk_Forward,1,L_LES,0.0007744747509846918,,3
BMu1,11,P,INI,Trunk_Forward,1,R_LES,0.0008388316610532989,,1
BMu1,11,P,INI,Trunk_Forward,1,R_LES,0.001048512732944997,,2
BMu1,11,P,INI,Trunk_Forward,1,R_LES,0.0009665245047636955,,3
BMu1,11,P,REL,Trunk_Forward,1,L_LES,0.0015684139055938563,,1
BMu1,11,P,REL,Trunk_Forward,1,L_LES,0.0029919307918651584,,2
BMu1,11,P,REL,Trunk_Forward,1,L_LES,0.0022463264460854154,,3
BMu1,11,P,REL,Trunk_Forward,1,R_LES,0.000431973431104351,,1
BMu1,11,P,REL,Trunk_Forward,1,R_LES,0.001616156821822378,,2
BMu1,11,P,REL,Trunk_Forward,1,R_LES,0.0009411664811289529,,3
BMu1,12,P,INI,Trunk_Forward,1,L_LES,0.0005707001398774806,,1
BMu1,12,P,INI,Trunk_Forward,1,L_LES,0.0011156017193941293,,2
BMu1,12,P,INI,Trunk_Forward,1,L_LES,0.0017291583502543955,,3
BMu1,12,P,INI,Trunk_Forward,1,R_LES,0.000531772663398232,,1
BMu1,12,P,INI,Trunk_Forward,1,R_LES,0.0013113217982182596,,2
BMu1,12,P,INI,Trunk_Forward,1,R_LES,0.0013477239183272973,,3
BMu1,12,P,REL,Trunk_Forward,1,L_LES,0.0016085495643319335,,1
BMu1,12,P,REL,Trunk_Forward,1,L_LES,0.0023781153799889224,,2
BMu1,12,P,REL,Trunk_Forward,1,L_LES,0.002458647376491191,,3
BMu1,12,P,REL,Trunk_Forward,1,R_LES,0.002898401438134173,,1
BMu1,12,P,REL,Trunk_Forward,1,R_LES,0.0018134706253664108,,2
BMu1,12,P,REL,Trunk_Forward,1,R_LES,0.0018493420811988093,,3
BMu1,13,C,INI,Trunk_Forward,1,L_LES,0.0035138487145020304,,1
BMu1,13,C,INI,Trunk_Forward,1,L_LES,0.008344043925512499,,2
BMu1,13,C,INI,Trunk_Forward,1,L_LES,0.008438634090066099,,3
BMu1,13,C,INI,Trunk_Forward,1,R_LES,0.0055662910588599145,,1
BMu1,13,C,INI,Trunk_Forward,1,R_LES,0.008777958094076119,,2
BMu1,13,C,INI,Trunk_Forward,1,R_LES,0.008636225772341726,,3
BMu1,13,C,REL,Trunk_Forward,1,L_LES,0.006014225760087434,,1
BMu1,13,C,REL,Trunk_Forward,1,L_LES,0.008009101352048839,,2
BMu1,13,C,REL,Trunk_Forward,1,L_LES,0.00829318524565915,,3
BMu1,13,C,REL,Trunk_Forward,1,R_LES,0.0039302643651171875,,1
BMu1,13,C,REL,Trunk_Forward,1,R_LES,0.005771566408413654,,2
BMu1,13,C,REL,Trunk_Forward,1,R_LES,0.006612667906193712,,3
BMu1,14,P,INI,Trunk_Forward,1,L_LES,0.0013430489111217582,,1
BMu1,14,P,INI,Trunk_Forward,1,L_LES,0.0012757630987238937,,2
BMu1,14,P,INI,Trunk_Forward,1,L_LES,0.0008771689100787149,,3
BMu1,14,P,INI,Trunk_Forward,1,R_LES,0.0024659184220592392,,1
BMu1,14,P,INI,Trunk_Forward,1,R_LES,0.0013192288182646214,,2
BMu1,14,P,INI,Trunk_Forward,1,R_LES,0.0012803244033934699,,3
BMu1,14,P,REL,Trunk_Forward,1,L_LES,0.0042747895519079804,,1
BMu1,14,P,REL,Trunk_Forward,1,L_LES,0.0037180729502820998,,2
BMu1,14,P,REL,Trunk_Forward,1,L_LES,0.006831860231937758,,3
BMu1,14,P,REL,Trunk_Forward,1,R_LES,0.002851278700028506,,1
BMu1,14,P,REL,Trunk_Forward,1,R_LES,0.0012099149394444834,,2
BMu1,14,P,REL,Trunk_Forward,1,R_LES,0.002057157566221447,,3
BMu1,16,C,INI,Trunk_Forward,1,L_LES,0.0010756886542118084,,1
BMu1,16,C,INI,Trunk_Forward,1,L_LES,0.0006933701450956627,,2
BMu1,16,C,INI,Trunk_Forward,1,L_LES,0.00048641916005522307,,3
BMu1,16,C,INI,Trunk_Forward,1,R_LES,0.0009116941665414935,,1
BMu1,16,C,INI,Trunk_Forward,1,R_LES,0.00043826309486468505,,2
BMu1,16,C,INI,Trunk_Forward,1,R_LES,0.0004751794651085971,,3
BMu1,16,C,REL,Trunk_Forward,1,L_LES,0.0004021250304417374,,1
BMu1,16,C,REL,Trunk_Forward,1,L_LES,0.0008521308071702226,,2
BMu1,16,C,REL,Trunk_Forward,1,L_LES,0.0006443519478350527,,3
BMu1,16,C,REL,Trunk_Forward,1,R_LES,0.0004184096408279994,,1
BMu1,16,C,REL,Trunk_Forward,1,R_LES,0.0007356708870554964,,2
BMu1,16,C,REL,Trunk_Forward,1,R_LES,0.0004167013736541144,,3
BMu1,17,P,INI,Trunk_Forward,1,L_LES,0.005715589475996244,,1
BMu1,17,P,INI,Trunk_Forward,1,L_LES,0.005174394942300684,,2
BMu1,17,P,INI,Trunk_Forward,1,L_LES,0.013371998944841037,,3
BMu1,17,P,INI,Trunk_Forward,1,R_LES,0.004939201257823534,,1
BMu1,17,P,INI,Trunk_Forward,1,R_LES,0.0048264474031662515,,2
BMu1,17,P,INI,Trunk_Forward,1,R_LES,0.012213769607929411,,3
BMu1,17,P,REL,Trunk_Forward,1,L_LES,0.0020576677665330133,,1
BMu1,17,P,REL,Trunk_Forward,1,L_LES,0.003253804636939254,,2
BMu1,17,P,REL,Trunk_Forward,1,L_LES,0.007820071761188327,,3
BMu1,17,P,REL,Trunk_Forward,1,R_LES,0.0023301790477695296,,1
BMu1,17,P,REL,Trunk_Forward,1,R_LES,0.002046837886908114,,2
BMu1,17,P,REL,Trunk_Forward,1,R_LES,0.007674632739802744,,3
BMu1,21,C,INI,Trunk_Forward,1,L_LES,0.00910367753665109,,1
BMu1,21,C,INI,Trunk_Forward,1,L_LES,0.007215624560528374,,2
BMu1,21,C,INI,Trunk_Forward,1,L_LES,0.009577672941240234,,3
BMu1,21,C,INI,Trunk_Forward,1,R_LES,0.004961698555176755,,1
BMu1,21,C,INI,Trunk_Forward,1,R_LES,0.003464024910176003,,2
BMu1,21,C,INI,Trunk_Forward,1,R_LES,0.0034531152052142376,,3
BMu1,21,C,REL,Trunk_Forward,1,L_LES,0.0617651909989081,,1
BMu1,21,C,REL,Trunk_Forward,1,L_LES,0.019671573732062044,,2
BMu1,21,C,REL,Trunk_Forward,1,L_LES,0.019611112652715215,,3
BMu1,21,C,REL,Trunk_Forward,1,R_LES,0.002115118144713918,,1
BMu1,21,C,REL,Trunk_Forward,1,R_LES,0.003299625495252326,,2
BMu1,21,C,REL,Trunk_Forward,1,R_LES,0.005094158649297934,,3
BMu1,22,C,INI,Trunk_Forward,1,L_LES,0.0038922597599496474,,1
BMu1,22,C,INI,Trunk_Forward,1,L_LES,0.0006561331129983669,,2
BMu1,22,C,INI,Trunk_Forward,1,L_LES,0.000631961286185035,,3
BMu1,22,C,INI,Trunk_Forward,1,R_LES,0.0029103231256350556,,1
BMu1,22,C,INI,Trunk_Forward,1,R_LES,0.0027179130153943565,,2
BMu1,22,C,INI,Trunk_Forward,1,R_LES,0.0015492617603525042,,3
BMu1,22,C,REL,Trunk_Forward,1,L_LES,0.0010302522555062374,,1
BMu1,22,C,REL,Trunk_Forward,1,L_LES,0.0005661921708074807,,2
BMu1,22,C,REL,Trunk_Forward,1,L_LES,0.0004942064847462202,,3
BMu1,22,C,REL,Trunk_Forward,1,R_LES,0.0037440466338962597,,1
BMu1,22,C,REL,Trunk_Forward,1,R_LES,0.002640809106182767,,2
BMu1,22,C,REL,Trunk_Forward,1,R_LES,0.00401805647836786,,3
BMu1,23,C,INI,Trunk_Forward,1,L_LES,0.0010129651470666104,,1
BMu1,23,C,INI,Trunk_Forward,1,L_LES,0.0005118755617410961,,2
BMu1,23,C,INI,Trunk_Forward,1,L_LES,0.0008831630640016457,,3
BMu1,23,C,INI,Trunk_Forward,1,R_LES,0.0006705376020763494,,1
BMu1,23,C,INI,Trunk_Forward,1,R_LES,0.0007705470104401261,,2
BMu1,23,C,INI,Trunk_Forward,1,R_LES,0.0008058002781048484,,3
BMu1,23,C,REL,Trunk_Forward,1,L_LES,0.0010295277530159791,,1
BMu1,23,C,REL,Trunk_Forward,1,L_LES,0.0013043545183824019,,2
BMu1,23,C,REL,Trunk_Forward,1,L_LES,0.0020486807676778993,,3
BMu1,23,C,REL,Trunk_Forward,1,R_LES,0.0009072966435245775,,1
BMu1,23,C,REL,Trunk_Forward,1,R_LES,0.0007053053337897981,,2
BMu1,23,C,REL,Trunk_Forward,1,R_LES,0.0009556113933253622,,3
BMu1,24,P,INI,Trunk_Forward,1,L_LES,0.00423292981157994,,1
BMu1,24,P,INI,Trunk_Forward,1,L_LES,0.002783496461416282,,2
BMu1,24,P,INI,Trunk_Forward,1,L_LES,0.002926695316531141,,3
BMu1,24,P,INI,Trunk_Forward,1,R_LES,0.000605647259745561,,1
BMu1,24,P,INI,Trunk_Forward,1,R_LES,0.0015286243406229458,,2
BMu1,24,P,INI,Trunk_Forward,1,R_LES,0.0017755683765658253,,3
BMu1,24,P,REL,Trunk_Forward,1,L_LES,0.0014474880392895129,,1
BMu1,24,P,REL,Trunk_Forward,1,L_LES,0.004583201094725151,,2
BMu1,24,P,REL,Trunk_Forward,1,L_LES,0.007640941299160885,,3
BMu1,24,P,REL,Trunk_Forward,1,R_LES,0.001706334414359312,,1
BMu1,24,P,REL,Trunk_Forward,1,R_LES,0.001262695682532438,,2
BMu1,24,P,REL,Trunk_Forward,1,R_LES,0.0016179675905502386,,3
BMu1,25,C,INI,Trunk_Forward,1,L_LES,0.003641493802971619,,1
BMu1,25,C,INI,Trunk_Forward,1,L_LES,0.011752688655472611,,2
BMu1,25,C,INI,Trunk_Forward,1,L_LES,0.010431766716648635,,3
BMu1,25,C,INI,Trunk_Forward,1,R_LES,0.001544836844609103,,1
BMu1,25,C,INI,Trunk_Forward,1,R_LES,0.005915226593062331,,2
BMu1,25,C,INI,Trunk_Forward,1,R_LES,0.004176504374201443,,3
BMu1,25,C,REL,Trunk_Forward,1,L_LES,0.007682723466192117,,1
BMu1,25,C,REL,Trunk_Forward,1,L_LES,0.007360522929743188,,2
BMu1,25,C,REL,Trunk_Forward,1,L_LES,0.01009668157369974,,3
BMu1,25,C,REL,Trunk_Forward,1,R_LES,0.004671631108056368,,1
BMu1,25,C,REL,Trunk_Forward,1,R_LES,0.00428967216775197,,2
BMu1,25,C,REL,Trunk_Forward,1,R_LES,0.004587070389091221,,3
BMu1,26,P,INI,Trunk_Forward,1,L_LES,0.0015676218771732585,,1
BMu1,26,P,INI,Trunk_Forward,1,L_LES,0.0038844983212173155,,2
BMu1,26,P,INI,Trunk_Forward,1,L_LES,0.002660408638912569,,3
BMu1,26,P,INI,Trunk_Forward,1,R_LES,0.0016892519103846467,,1
BMu1,26,P,INI,Trunk_Forward,1,R_LES,0.001518327699448685,,2
BMu1,26,P,INI,Trunk_Forward,1,R_LES,0.001146267796156218,,3
BMu1,26,P,REL,Trunk_Forward,1,L_LES,0.0012715069351264588,,1
BMu1,26,P,REL,Trunk_Forward,1,L_LES,0.0024233566993159673,,2
BMu1,26,P,REL,Trunk_Forward,1,L_LES,0.002067411524018198,,3
BMu1,26,P,REL,Trunk_Forward,1,R_LES,0.0007211293141418953,,1
BMu1,26,P,REL,Trunk_Forward,1,R_LES,0.0005627271874654267,,2
BMu1,26,P,REL,Trunk_Forward,1,R_LES,0.001425267693244808,,3
BMu1,27,P,INI,Trunk_Forward,1,L_LES,0.001051928532738118,,1
BMu1,27,P,INI,Trunk_Forward,1,L_LES,0.003200118680607685,,2
BMu1,27,P,INI,Trunk_Forward,1,L_LES,0.0039122204510510395,,3
BMu1,27,P,INI,Trunk_Forward,1,R_LES,0.0009952082716763871,,1
BMu1,27,P,INI,Trunk_Forward,1,R_LES,0.001423677362126433,,2
BMu1,27,P,INI,Trunk_Forward,1,R_LES,0.0030143938319909533,,3
BMu1,27,P,REL,Trunk_Forward,1,L_LES,0.0020870289683617444,,1
BMu1,27,P,REL,Trunk_Forward,1,L_LES,0.0023273329284513563,,2
BMu1,27,P,REL,Trunk_Forward,1,L_LES,0.004553126527135434,,3
BMu1,27,P,REL,Trunk_Forward,1,R_LES,0.0021453725289503935,,1
BMu1,27,P,REL,Trunk_Forward,1,R_LES,0.003163765642418546,,2
BMu1,27,P,REL,Trunk_Forward,1,R_LES,0.0033526782282385925,,3
BMu1,28,P,INI,Trunk_Forward,1,L_LES,0.001315655705283525,,1
BMu1,28,P,INI,Trunk_Forward,1,L_LES,0.001035591978890001,,2
BMu1,28,P,INI,Trunk_Forward,1,L_LES,0.0034309987792202224,,3
BMu1,28,P,INI,Trunk_Forward,1,R_LES,0.001360245443763848,,1
BMu1,28,P,INI,Trunk_Forward,1,R_LES,0.0012965224531186993,,2
BMu1,28,P,INI,Trunk_Forward,1,R_LES,0.0043412752825007705,,3
BMu1,28,P,REL,Trunk_Forward,1,L_LES,0.0011323190233568994,,1
BMu1,28,P,REL,Trunk_Forward,1,L_LES,0.0023812090506003542,,2
BMu1,28,P,REL,Trunk_Forward,1,L_LES,0.0025102237424361757,,3
BMu1,28,P,REL,Trunk_Forward,1,R_LES,0.0025312948385720294,,1
BMu1,28,P,REL,Trunk_Forward,1,R_LES,0.002439478703641527,,2
BMu1,28,P,REL,Trunk_Forward,1,R_LES,0.0027639935278164843,,3
BMu1,29,P,INI,Trunk_Forward,1,L_LES,0.005513258822109167,,1
BMu1,29,P,INI,Trunk_Forward,1,L_LES,0.005555240776245301,,2
BMu1,29,P,INI,Trunk_Forward,1,L_LES,0.02704845846141734,,3
BMu1,29,P,INI,Trunk_Forward,1,R_LES,0.005182567812154021,,1
BMu1,29,P,INI,Trunk_Forward,1,R_LES,0.005421401611735519,,2
BMu1,29,P,INI,Trunk_Forward,1,R_LES,0.022518047654343704,,3
BMu1,29,P,REL,Trunk_Forward,1,L_LES,0.010301255717038542,,1
BMu1,29,P,REL,Trunk_Forward,1,L_LES,0.0062191221666600925,,2
BMu1,29,P,REL,Trunk_Forward,1,L_LES,0.007773292367008064,,3
BMu1,29,P,REL,Trunk_Forward,1,R_LES,0.00712085223910193,,1
BMu1,29,P,REL,Trunk_Forward,1,R_LES,0.004526835196738943,,2
BMu1,29,P,REL,Trunk_Forward,1,R_LES,0.006128152956680568,,3
BMu1,30,P,INI,Trunk_Forward,1,L_LES,0.0008483438804866589,,1
BMu1,30,P,INI,Trunk_Forward,1,L_LES,0.0011747939613680359,,2
BMu1,30,P,INI,Trunk_Forward,1,L_LES,0.0010788652145478413,,3
BMu1,30,P,INI,Trunk_Forward,1,R_LES,0.0013804518566046323,,1
BMu1,30,P,INI,Trunk_Forward,1,R_LES,0.0008423084289051028,,2
BMu1,30,P,INI,Trunk_Forward,1,R_LES,0.0012122752429560447,,3
BMu1,30,P,REL,Trunk_Forward,1,L_LES,0.0033576845916811395,,1
BMu1,30,P,REL,Trunk_Forward,1,L_LES,0.006252404874550913,,2
BMu1,30,P,REL,Trunk_Forward,1,L_LES,0.0047293528372800726,,3
BMu1,30,P,REL,Trunk_Forward,1,R_LES,0.0015417009054078056,,1
BMu1,30,P,REL,Trunk_Forward,1,R_LES,0.000789675173236169,,2
BMu1,30,P,REL,Trunk_Forward,1,R_LES,0.001160568751665327,,3
BMu1,32,P,INI,Trunk_Forward,1,L_LES,0.0013517934220151078,,1
BMu1,32,P,INI,Trunk_Forward,1,L_LES,0.0014365091027528235,,2
BMu1,32,P,INI,Trunk_Forward,1,L_LES,0.001088246333959467,,3
BMu1,32,P,INI,Trunk_Forward,1,R_LES,0.0008867115388075386,,1
BMu1,32,P,INI,Trunk_Forward,1,R_LES,0.0007627391912250992,,2
BMu1,32,P,INI,Trunk_Forward,1,R_LES,0.0008365636016460965,,3
BMu1,32,P,REL,Trunk_Forward,1,L_LES,0.003357701308018526,,1
BMu1,32,P,REL,Trunk_Forward,1,L_LES,0.006203616466159769,,2
BMu1,32,P,REL,Trunk_Forward,1,L_LES,0.0054653141385479385,,3
BMu1,32,P,REL,Trunk_Forward,1,L_LES,0.007104642947815747,,4
BMu1,32,P,REL,Trunk_Forward,1,R_LES,0.002113621495135303,,1
BMu1,32,P,REL,Trunk_Forward,1,R_LES,0.003474522779788169,,2
BMu1,32,P,REL,Trunk_Forward,1,R_LES,0.003242423764849587,,3
BMu1,32,P,REL,Trunk_Forward,1,R_LES,0.004140866683852025,,4
BMu1,33,P,INI,Trunk_Forward,1,L_LES,0.0015800046342977474,,1
BMu1,33,P,INI,Trunk_Forward,1,L_LES,0.002151578351830782,,2
BMu1,33,P,INI,Trunk_Forward,1,L_LES,0.001204722317396917,,3
BMu1,33,P,INI,Trunk_Forward,1,L_LES,0.0018962198496778578,,4
BMu1,33,P,INI,Trunk_Forward,1,R_LES,0.0006493368418158318,,1
BMu1,33,P,INI,Trunk_Forward,1,R_LES,0.001939006752091044,,2
BMu1,33,P,INI,Trunk_Forward,1,R_LES,0.0019497121789201185,,3
BMu1,33,P,INI,Trunk_Forward,1,R_LES,0.0017637568980746858,,4
BMu1,33,P,REL,Trunk_Forward,1,L_LES,0.0008898291689160565,,1
BMu1,33,P,REL,Trunk_Forward,1,L_LES,0.003101048791274946,,2
BMu1,33,P,REL,Trunk_Forward,1,L_LES,0.0030967634299809473,,3
BMu1,33,P,REL,Trunk_Forward,1,R_LES,0.0016258227790194833,,1
BMu1,33,P,REL,Trunk_Forward,1,R_LES,0.004674180626859309,,2
BMu1,33,P,REL,Trunk_Forward,1,R_LES,0.006734809475765664,,3
BMu1,34,P,INI,Trunk_Forward,1,L_LES,0.0010306550474761958,,1
BMu1,34,P,INI,Trunk_Forward,1,L_LES,0.0007969630947895381,,2
BMu1,34,P,INI,Trunk_Forward,1,L_LES,0.0007534442526814559,,3
BMu1,34,P,INI,Trunk_Forward,1,R_LES,0.0008368126905371003,,1
BMu1,34,P,INI,Trunk_Forward,1,R_LES,0.0009022428987117718,,2
BMu1,34,P,INI,Trunk_Forward,1,R_LES,0.0005012929894171944,,3
BMu1,34,P,REL,Trunk_Forward,1,L_LES,0.002551136508820252,,1
BMu1,34,P,REL,Trunk_Forward,1,L_LES,0.001632599998699804,,2
BMu1,34,P,REL,Trunk_Forward,1,L_LES,0.0025846110335809715,,3
BMu1,34,P,REL,Trunk_Forward,1,R_LES,0.0022805327464854555,,1
BMu1,34,P,REL,Trunk_Forward,1,R_LES,0.002078952028505473,,2
BMu1,34,P,REL,Trunk_Forward,1,R_LES,0.0023869645996628967,,3
BMu1,35,C,INI,Trunk_Forward,1,L_LES,0.007816226207846366,,1
BMu1,35,C,INI,Trunk_Forward,1,L_LES,0.004133426389647421,,2
BMu1,35,C,INI,Trunk_Forward,1,L_LES,0.006352551065512072,,3
BMu1,35,C,INI,Trunk_Forward,1,R_LES,0.003153974696131773,,1
BMu1,35,C,INI,Trunk_Forward,1,R_LES,0.003473839060150186,,2
BMu1,35,C,INI,Trunk_Forward,1,R_LES,0.0058289910670981816,,3
BMu1,35,C,REL,Trunk_Forward,1,L_LES,0.007149167544437148,,1
BMu1,35,C,REL,Trunk_Forward,1,L_LES,0.009926320929013145,,2
BMu1,35,C,REL,Trunk_Forward,1,L_LES,0.0041722352634973175,,3
BMu1,35,C,REL,Trunk_Forward,1,R_LES,0.00493013833581559,,1
BMu1,35,C,REL,Trunk_Forward,1,R_LES,0.006505197644804433,,2
BMu1,35,C,REL,Trunk_Forward,1,R_LES,0.0030136760045333054,,3
BMu1,36,P,INI,Trunk_Forward,1,L_LES,0.005121498601087654,,1
BMu1,36,P,INI,Trunk_Forward,1,L_LES,0.0018836952958241563,,2
BMu1,36,P,INI,Trunk_Forward,1,L_LES,0.0034485698276007573,,3
BMu1,36,P,INI,Trunk_Forward,1,R_LES,0.002866515199123334,,1
BMu1,36,P,INI,Trunk_Forward,1,R_LES,0.00384012719087011,,2
BMu1,36,P,INI,Trunk_Forward,1,R_LES,0.008314759641123168,,3
BMu1,36,P,REL,Trunk_Forward,1,L_LES,0.005196946050646394,,1
BMu1,36,P,REL,Trunk_Forward,1,L_LES,0.0021608022856053587,,2
BMu1,36,P,REL,Trunk_Forward,1,L_LES,0.003059491559259747,,3
BMu1,36,P,REL,Trunk_Forward,1,R_LES,0.00329539416196516,,1
BMu1,36,P,REL,Trunk_Forward,1,R_LES,0.0030806044665160834,,2
BMu1,36,P,REL,Trunk_Forward,1,R_LES,0.006107005965195603,,3
BMu1,38,C,INI,Trunk_Forward,1,L_LES,0.1596488433081166,,1
BMu1,38,C,INI,Trunk_Forward,1,L_LES,0.05581008189185229,,2
BMu1,38,C,INI,Trunk_Forward,1,L_LES,0.04810464598685206,,3
BMu1,38,C,INI,Trunk_Forward,1,R_LES,0.027749293103750225,,1
BMu1,38,C,INI,Trunk_Forward,1,R_LES,0.014204947472407838,,2
BMu1,38,C,INI,Trunk_Forward,1,R_LES,0.017996818847606955,,3
BMu1,38,C,REL,Trunk_Forward,1,L_LES,0.04088004398411747,,1
BMu1,38,C,REL,Trunk_Forward,1,L_LES,0.013497728626236617,,2
BMu1,38,C,REL,Trunk_Forward,1,L_LES,0.012981179766505382,,3
BMu1,38,C,REL,Trunk_Forward,1,R_LES,0.0018518094280122895,,1
BMu1,38,C,REL,Trunk_Forward,1,R_LES,0.0010049567359686623,,2
BMu1,38,C,REL,Trunk_Forward,1,R_LES,0.0011498519385395168,,3
BMu1,39,C,INI,Trunk_Forward,1,L_LES,0.003392342993955076,,1
BMu1,39,C,INI,Trunk_Forward,1,L_LES,0.004264978969195936,,2
BMu1,39,C,INI,Trunk_Forward,1,L_LES,0.004559604442334263,,3
BMu1,39,C,INI,Trunk_Forward,1,R_LES,0.002526368278803754,,1
BMu1,39,C,INI,Trunk_Forward,1,R_LES,0.003816883031270684,,2
BMu1,39,C,INI,Trunk_Forward,1,R_LES,0.004254196978751574,,3
BMu1,39,C,REL,Trunk_Forward,1,L_LES,0.006043376836286427,,1
BMu1,39,C,REL,Trunk_Forward,1,L_LES,0.004749562928210009,,2
BMu1,39,C,REL,Trunk_Forward,1,L_LES,0.005178279124273013,,3
BMu1,39,C,REL,Trunk_Forward,1,R_LES,0.004297778559592929,,1
BMu1,39,C,REL,Trunk_Forward,1,R_LES,0.002920501933999738,,2
BMu1,39,C,REL,Trunk_Forward,1,R_LES,0.00445838410733969,,3
BMu1,40,C,INI,Trunk_Forward,1,L_LES,0.005916595513215646,,1
BMu1,40,C,INI,Trunk_Forward,1,L_LES,0.009059711765001246,,2
BMu1,40,C,INI,Trunk_Forward,1,L_LES,0.011637473320732145,,3
BMu1,40,C,INI,Trunk_Forward,1,R_LES,0.006676838927765169,,1
BMu1,40,C,INI,Trunk_Forward,1,R_LES,0.008285243362363446,,2
BMu1,40,C,INI,Trunk_Forward,1,R_LES,0.01100379259290952,,3
BMu1,40,C,REL,Trunk_Forward,1,L_LES,0.005503259207041496,,1
BMu1,40,C,REL,Trunk_Forward,1,L_LES,0.009547196048496813,,2
BMu1,40,C,REL,Trunk_Forward,1,L_LES,0.00813175033965568,,3
BMu1,40,C,REL,Trunk_Forward,1,R_LES,0.006450781235839502,,1
BMu1,40,C,REL,Trunk_Forward,1,R_LES,0.010358847104520426,,2
BMu1,40,C,REL,Trunk_Forward,1,R_LES,0.007737808811901252,,3
BMu1,41,P,INI,Trunk_Forward,1,L_LES,0.003319395970133498,,1
BMu1,41,P,INI,Trunk_Forward,1,L_LES,0.001156812285332695,,2
BMu1,41,P,INI,Trunk_Forward,1,L_LES,0.0007383583875129151,,3
BMu1,41,P,INI,Trunk_Forward,1,R_LES,0.0006048106170840209,,1
BMu1,41,P,INI,Trunk_Forward,1,R_LES,0.0006733547112494883,,2
BMu1,41,P,INI,Trunk_Forward,1,R_LES,0.0009494693378792086,,3
BMu1,41,P,REL,Trunk_Forward,1,L_LES,0.006609460307686111,,1
BMu1,41,P,REL,Trunk_Forward,1,L_LES,0.002339878375870621,,2
BMu1,41,P,REL,Trunk_Forward,1,L_LES,0.0035134752599812035,,3
BMu1,41,P,REL,Trunk_Forward,1,R_LES,0.001960374984924954,,1
BMu1,41,P,REL,Trunk_Forward,1,R_LES,0.003202391223095213,,2
BMu1,41,P,REL,Trunk_Forward,1,R_LES,0.0043308338292356655,,3
BMu1,42,P,INI,Trunk_Forward,1,L_LES,0.0035072641258258154,,1
BMu1,42,P,INI,Trunk_Forward,1,L_LES,0.005988978812196398,,2
BMu1,42,P,INI,Trunk_Forward,1,L_LES,0.006161476021619105,,3
BMu1,42,P,INI,Trunk_Forward,1,R_LES,0.005919033715718719,,1
BMu1,42,P,INI,Trunk_Forward,1,R_LES,0.00773757138962591,,2
BMu1,42,P,INI,Trunk_Forward,1,R_LES,0.00958792711855823,,3
BMu1,42,P,REL,Trunk_Forward,1,L_LES,0.005495221761743765,,1
BMu1,42,P,REL,Trunk_Forward,1,L_LES,0.004058315969067456,,2
BMu1,42,P,REL,Trunk_Forward,1,L_LES,0.004379224547021312,,3
BMu1,42,P,REL,Trunk_Forward,1,R_LES,0.007178479911809504,,1
BMu1,42,P,REL,Trunk_Forward,1,R_LES,0.005824974604301317,,2
BMu1,42,P,REL,Trunk_Forward,1,R_LES,0.006779498335946645,,3
BMu1,43,P,INI,Trunk_Forward,1,L_LES,0.0006341768750019986,,1
BMu1,43,P,INI,Trunk_Forward,1,L_LES,0.0026030668798685177,,2
BMu1,43,P,INI,Trunk_Forward,1,L_LES,0.005125624261448924,,3
BMu1,43,P,INI,Trunk_Forward,1,R_LES,0.00030629474486762757,,1
BMu1,43,P,INI,Trunk_Forward,1,R_LES,0.0018451143903212425,,2
BMu1,43,P,INI,Trunk_Forward,1,R_LES,0.003107173451405399,,3
BMu1,43,P,REL,Trunk_Forward,1,L_LES,0.0025292165129908906,,1
BMu1,43,P,REL,Trunk_Forward,1,L_LES,0.0012461174260144175,,2
BMu1,43,P,REL,Trunk_Forward,1,L_LES,0.003008564808030904,,3
BMu1,43,P,REL,Trunk_Forward,1,R_LES,0.0027538570593212174,,1
BMu1,43,P,REL,Trunk_Forward,1,R_LES,0.001568588402476809,,2
BMu1,43,P,REL,Trunk_Forward,1,R_LES,0.004057341592382235,,3
BMu1,44,C,INI,Trunk_Forward,1,L_LES,0.0007699050041552785,,1
BMu1,44,C,INI,Trunk_Forward,1,L_LES,0.0018937055927348498,,2
BMu1,44,C,INI,Trunk_Forward,1,L_LES,0.001210287073230714,,3
BMu1,44,C,INI,Trunk_Forward,1,R_LES,0.0016315072920262967,,1
BMu1,44,C,INI,Trunk_Forward,1,R_LES,0.002480001993660957,,2
BMu1,44,C,INI,Trunk_Forward,1,R_LES,0.0016831086340272595,,3
BMu1,44,C,REL,Trunk_Forward,1,L_LES,0.0030742372812761825,,1
BMu1,44,C,REL,Trunk_Forward,1,L_LES,0.004424316492777058,,2
BMu1,44,C,REL,Trunk_Forward,1,L_LES,0.003938620355279128,,3
BMu1,44,C,REL,Trunk_Forward,1,R_LES,0.003800450427153105,,1
BMu1,44,C,REL,Trunk_Forward,1,R_LES,0.005053693846870315,,2
BMu1,44,C,REL,Trunk_Forward,1,R_LES,0.004284720036617146,,3
BMu1,45,P,INI,Trunk_Forward,1,L_LES,0.0023756878882795897,,1
BMu1,45,P,INI,Trunk_Forward,1,L_LES,0.002553480803098989,,2
BMu1,45,P,INI,Trunk_Forward,1,L_LES,0.002266799016605297,,3
BMu1,45,P,INI,Trunk_Forward,1,R_LES,0.0030243495674439165,,1
BMu1,45,P,INI,Trunk_Forward,1,R_LES,0.0023748101243410953,,2
BMu1,45,P,INI,Trunk_Forward,1,R_LES,0.002531886627312817,,3
BMu1,45,P,REL,Trunk_Forward,1,L_LES,0.0008502480496973713,,1
BMu1,45,P,REL,Trunk_Forward,1,L_LES,0.000666725026832542,,2
BMu1,45,P,REL,Trunk_Forward,1,L_LES,0.0012178668441123037,,3
BMu1,45,P,REL,Trunk_Forward,1,R_LES,0.0005141819458428603,,1
BMu1,45,P,REL,Trunk_Forward,1,R_LES,0.0005748126031540587,,2
BMu1,45,P,REL,Trunk_Forward,1,R_LES,0.0005318907226683559,,3
BMu1,46,C,INI,Trunk_Forward,1,L_LES,0.008467236768621033,,1
BMu1,46,C,INI,Trunk_Forward,1,L_LES,0.008956393265605886,,2
BMu1,46,C,INI,Trunk_Forward,1,L_LES,0.016982828385954066,,3
BMu1,46,C,INI,Trunk_Forward,1,R_LES,0.010605832837708216,,1
BMu1,46,C,INI,Trunk_Forward,1,R_LES,0.011576790363245229,,2
BMu1,46,C,INI,Trunk_Forward,1,R_LES,0.011131603341809234,,3
BMu1,46,C,REL,Trunk_Forward,1,L_LES,0.016796232766390244,,1
BMu1,46,C,REL,Trunk_Forward,1,L_LES,0.015872845486923554,,2
BMu1,46,C,REL,Trunk_Forward,1,L_LES,0.018742223353392127,,3
BMu1,46,C,REL,Trunk_Forward,1,R_LES,0.004887011858316342,,1
BMu1,46,C,REL,Trunk_Forward,1,R_LES,0.012552582920434424,,2
BMu1,46,C,REL,Trunk_Forward,1,R_LES,0.013323990315230443,,3
BMu1,47,P,INI,Trunk_Forward,1,L_LES,0.0016692736515495146,,1
BMu1,47,P,INI,Trunk_Forward,1,L_LES,0.0017726506491375586,,2
BMu1,47,P,INI,Trunk_Forward,1,L_LES,0.0015414812378586745,,3
BMu1,47,P,INI,Trunk_Forward,1,R_LES,0.001187872915283379,,1
BMu1,47,P,INI,Trunk_Forward,1,R_LES,0.0028091836030604833,,2
BMu1,47,P,INI,Trunk_Forward,1,R_LES,0.0012186165371631391,,3
BMu1,47,P,REL,Trunk_Forward,1,L_LES,0.0017149164906603964,,1
BMu1,47,P,REL,Trunk_Forward,1,L_LES,0.0032957726367935257,,2
BMu1,47,P,REL,Trunk_Forward,1,L_LES,0.0032056631892838864,,3
BMu1,47,P,REL,Trunk_Forward,1,R_LES,0.0014981753229987103,,1
BMu1,47,P,REL,Trunk_Forward,1,R_LES,0.0026305629101145396,,2
BMu1,47,P,REL,Trunk_Forward,1,R_LES,0.0022450712957884818,,3
BMu1,48,C,INI,Trunk_Forward,1,L_LES,0.008652644737648582,,1
BMu1,48,C,INI,Trunk_Forward,1,L_LES,0.0069602974786351305,,2
BMu1,48,C,INI,Trunk_Forward,1,L_LES,0.01846188937106523,,3
BMu1,48,C,INI,Trunk_Forward,1,R_LES,0.004454128206429528,,1
BMu1,48,C,INI,Trunk_Forward,1,R_LES,0.007231697305040606,,2
BMu1,48,C,INI,Trunk_Forward,1,R_LES,0.018590565756492886,,3
BMu1,48,C,REL,Trunk_Forward,1,L_LES,0.00831355303621867,,1
BMu1,48,C,REL,Trunk_Forward,1,L_LES,0.007730512971149972,,2
BMu1,48,C,REL,Trunk_Forward,1,L_LES,0.008407554393394641,,3
BMu1,48,C,REL,Trunk_Forward,1,R_LES,0.0056216876933832816,,1
BMu1,48,C,REL,Trunk_Forward,1,R_LES,0.0076210784143129155,,2
BMu1,48,C,REL,Trunk_Forward,1,R_LES,0.005844062783953663,,3
BMu1,49,C,INI,Trunk_Forward,1,L_LES,0.0010401872226629013,,1
BMu1,49,C,INI,Trunk_Forward,1,L_LES,0.0016062813986579497,,2
BMu1,49,C,INI,Trunk_Forward,1,L_LES,0.002251476901825785,,3
BMu1,49,C,INI,Trunk_Forward,1,R_LES,0.000698862003493104,,1
BMu1,49,C,INI,Trunk_Forward,1,R_LES,0.0023661854385957607,,2
BMu1,49,C,INI,Trunk_Forward,1,R_LES,0.0026506849853560337,,3
BMu1,49,C,REL,Trunk_Forward,1,L_LES,0.005243181781413889,,1
BMu1,49,C,REL,Trunk_Forward,1,L_LES,0.0019655793682266565,,2
BMu1,49,C,REL,Trunk_Forward,1,L_LES,0.002069009637887493,,3
BMu1,49,C,REL,Trunk_Forward,1,R_LES,0.005520553007752933,,1
BMu1,49,C,REL,Trunk_Forward,1,R_LES,0.002689295532291738,,2
BMu1,49,C,REL,Trunk_Forward,1,R_LES,0.0034633529779557345,,3
BMu1,50,P,INI,Trunk_Forward,1,L_LES,0.0011575912158606648,,1
BMu1,50,P,INI,Trunk_Forward,1,L_LES,0.0002491772777460811,,2
BMu1,50,P,INI,Trunk_Forward,1,R_LES,0.00040792377134572354,,1
BMu1,50,P,INI,Trunk_Forward,1,R_LES,0.004692434595726428,,2
BMu1,50,P,REL,Trunk_Forward,1,L_LES,0.0045564207365330935,,1
BMu1,50,P,REL,Trunk_Forward,1,L_LES,0.007932763688359476,,2
BMu1,50,P,REL,Trunk_Forward,1,L_LES,0.004468221466214076,,3
BMu1,50,P,REL,Trunk_Forward,1,R_LES,0.004472979386374809,,1
BMu1,50,P,REL,Trunk_Forward,1,R_LES,0.008364035237884374,,2
BMu1,50,P,REL,Trunk_Forward,1,R_LES,0.00702859483824317,,3
BMu1,51,P,INI,Trunk_Forward,1,L_LES,0.0006070353918920411,,1
BMu1,51,P,INI,Trunk_Forward,1,L_LES,0.0011358063438005753,,2
BMu1,51,P,INI,Trunk_Forward,1,L_LES,0.0008722351692137219,,3
BMu1,51,P,INI,Trunk_Forward,1,R_LES,0.00033377234741467556,,1
BMu1,51,P,INI,Trunk_Forward,1,R_LES,0.0010482666764892153,,2
BMu1,51,P,INI,Trunk_Forward,1,R_LES,0.002085674789322628,,3
BMu1,51,P,REL,Trunk_Forward,1,L_LES,0.0006976084223700432,,1
BMu1,51,P,REL,Trunk_Forward,1,L_LES,0.0016017633309066527,,2
BMu1,51,P,REL,Trunk_Forward,1,L_LES,0.004903318935607235,,3
BMu1,51,P,REL,Trunk_Forward,1,R_LES,0.0008092426802782807,,1
BMu1,51,P,REL,Trunk_Forward,1,R_LES,0.0013356229836588877,,2
BMu1,51,P,REL,Trunk_Forward,1,R_LES,0.0013250513587606053,,3
BMu1,52,C,INI,Trunk_Forward,1,L_LES,0.0024036965387343127,,1
BMu1,52,C,INI,Trunk_Forward,1,L_LES,0.0037322455059601157,,2
BMu1,52,C,INI,Trunk_Forward,1,L_LES,0.0034222943300724062,,3
BMu1,52,C,INI,Trunk_Forward,1,R_LES,0.001668032452292001,,1
BMu1,52,C,INI,Trunk_Forward,1,R_LES,0.0031504508481823203,,2
BMu1,52,C,INI,Trunk_Forward,1,R_LES,0.0024080295006184567,,3
BMu1,52,C,REL,Trunk_Forward,1,L_LES,0.0110141978667905,,1
BMu1,52,C,REL,Trunk_Forward,1,L_LES,0.008908805932019068,,2
BMu1,52,C,REL,Trunk_Forward,1,L_LES,0.008896619405169538,,3
BMu1,52,C,REL,Trunk_Forward,1,R_LES,0.00990948857638745,,1
BMu1,52,C,REL,Trunk_Forward,1,R_LES,0.007972275783057856,,2
BMu1,52,C,REL,Trunk_Forward,1,R_LES,0.006504058235359015,,3
BMu1,53,P,INI,Trunk_Forward,1,L_LES,0.0004181910325029639,,1
BMu1,53,P,INI,Trunk_Forward,1,L_LES,0.0010247940734819938,,2
BMu1,53,P,INI,Trunk_Forward,1,R_LES,0.0019231743740356112,,1
BMu1,53,P,INI,Trunk_Forward,1,R_LES,0.0014174328937752254,,2
BMu1,53,P,REL,Trunk_Forward,1,L_LES,0.0013621442389883387,,1
BMu1,53,P,REL,Trunk_Forward,1,L_LES,0.0014558878323084473,,2
BMu1,53,P,REL,Trunk_Forward,1,L_LES,0.0035358495022370807,,3
BMu1,53,P,REL,Trunk_Forward,1,R_LES,0.0020283410638959817,,1
BMu1,53,P,REL,Trunk_Forward,1,R_LES,0.0012129559382906621,,2
BMu1,53,P,REL,Trunk_Forward,1,R_LES,0.0029313571826799535,,3
BMu1,54,P,INI,Trunk_Forward,1,L_LES,0.0001837204094960244,,1
BMu1,54,P,INI,Trunk_Forward,1,L_LES,0.0012050654710810392,,2
BMu1,54,P,INI,Trunk_Forward,1,L_LES,0.0009934419749987266,,3
BMu1,54,P,INI,Trunk_Forward,1,R_LES,0.00016715294564233858,,1
BMu1,54,P,INI,Trunk_Forward,1,R_LES,0.0008342017414812342,,2
BMu1,54,P,INI,Trunk_Forward,1,R_LES,0.0007062491859270502,,3
BMu1,54,P,REL,Trunk_Forward,1,L_LES,0.0004531916532913376,,1
BMu1,54,P,REL,Trunk_Forward,1,L_LES,0.0008811093576400206,,2
BMu1,54,P,REL,Trunk_Forward,1,L_LES,0.0003393417627089038,,3
BMu1,54,P,REL,Trunk_Forward,1,R_LES,0.00021641191514841203,,1
BMu1,54,P,REL,Trunk_Forward,1,R_LES,0.0006017323746441323,,2
BMu1,54,P,REL,Trunk_Forward,1,R_LES,0.0003551781386786717,,3
BMu1,55,C,INI,Trunk_Forward,1,L_LES,0.006927278762498769,,1
BMu1,55,C,INI,Trunk_Forward,1,L_LES,0.0030874504028775324,,2
BMu1,55,C,INI,Trunk_Forward,1,L_LES,0.0033265797653052064,,3
BMu1,55,C,INI,Trunk_Forward,1,R_LES,0.00863608754156407,,1
BMu1,55,C,INI,Trunk_Forward,1,R_LES,0.0023937135386199633,,2
BMu1,55,C,INI,Trunk_Forward,1,R_LES,0.0025410414204018383,,3
BMu1,55,C,REL,Trunk_Forward,1,L_LES,0.005190475005290646,,1
BMu1,55,C,REL,Trunk_Forward,1,L_LES,0.005662965753822807,,2
BMu1,55,C,REL,Trunk_Forward,1,L_LES,0.004903537524645931,,3
BMu1,55,C,REL,Trunk_Forward,1,R_LES,0.00532400297746234,,1
BMu1,55,C,REL,Trunk_Forward,1,R_LES,0.004994846425099836,,2
BMu1,55,C,REL,Trunk_Forward,1,R_LES,0.004506942234053693,,3
BMu1,56,C,INI,Trunk_Forward,1,L_LES,0.0007220367795488926,,1
BMu1,56,C,INI,Trunk_Forward,1,L_LES,0.0016147123616857637,,2
BMu1,56,C,INI,Trunk_Forward,1,L_LES,0.0026092078997006045,,3
BMu1,56,C,INI,Trunk_Forward,1,R_LES,0.00244378442596835,,1
BMu1,56,C,INI,Trunk_Forward,1,R_LES,0.0026817530085138236,,2
BMu1,56,C,INI,Trunk_Forward,1,R_LES,0.0026697072316737716,,3
BMu1,56,C,REL,Trunk_Forward,1,L_LES,0.0034875934396641417,,1
BMu1,56,C,REL,Trunk_Forward,1,L_LES,0.002904044836431313,,2
BMu1,56,C,REL,Trunk_Forward,1,L_LES,0.004894939803933924,,3
BMu1,56,C,REL,Trunk_Forward,1,R_LES,0.0031959658240845266,,1
BMu1,56,C,REL,Trunk_Forward,1,R_LES,0.0032065316923780285,,2
BMu1,56,C,REL,Trunk_Forward,1,R_LES,0.006539509437205411,,3
BMu1,57,C,INI,Trunk_Forward,1,L_LES,0.009875081360759328,,1
BMu1,57,C,INI,Trunk_Forward,1,L_LES,0.008796460746395875,,2
BMu1,57,C,INI,Trunk_Forward,1,L_LES,0.01090919960389097,,3
BMu1,57,C,INI,Trunk_Forward,1,R_LES,0.00027896658243486993,,1
BMu1,57,C,INI,Trunk_Forward,1,R_LES,0.00012702619261123873,,2
BMu1,57,C,INI,Trunk_Forward,1,R_LES,0.00038208825887039587,,3
BMu1,57,C,REL,Trunk_Forward,1,L_LES,0.006160644480925609,,1
BMu1,57,C,REL,Trunk_Forward,1,L_LES,0.005826386579725715,,2
BMu1,57,C,REL,Trunk_Forward,1,L_LES,0.004159639827451033,,3
BMu1,57,C,REL,Trunk_Forward,1,R_LES,0.00021577311516886148,,1
BMu1,57,C,REL,Trunk_Forward,1,R_LES,0.0005348100281546639,,2
BMu1,57,C,REL,Trunk_Forward,1,R_LES,0.0006089417570238577,,3
BMu1,58,P,INI,Trunk_Forward,1,L_LES,0.0004052802328553219,,1
BMu1,58,P,INI,Trunk_Forward,1,L_LES,0.0012348045407834058,,2
BMu1,58,P,INI,Trunk_Forward,1,L_LES,0.0007441611009527983,,3
BMu1,58,P,INI,Trunk_Forward,1,R_LES,0.000250699613620408,,1
BMu1,58,P,INI,Trunk_Forward,1,R_LES,0.00046208150557181405,,2
BMu1,58,P,INI,Trunk_Forward,1,R_LES,0.0008121348283614584,,3
BMu1,58,P,REL,Trunk_Forward,1,L_LES,0.05608767219229472,,1
BMu1,58,P,REL,Trunk_Forward,1,L_LES,0.01930048945212908,,2
BMu1,58,P,REL,Trunk_Forward,1,L_LES,0.04597673417157878,,3
BMu1,58,P,REL,Trunk_Forward,1,R_LES,0.004739913547851775,,1
BMu1,58,P,REL,Trunk_Forward,1,R_LES,0.001847467814312079,,2
BMu1,58,P,REL,Trunk_Forward,1,R_LES,0.001471898048537733,,3
BMu1,60,C,INI,Trunk_Forward,1,L_LES,0.00485795792481408,,1
BMu1,60,C,INI,Trunk_Forward,1,L_LES,0.003637606952101617,,2
BMu1,60,C,INI,Trunk_Forward,1,L_LES,0.005496999726095958,,3
BMu1,60,C,INI,Trunk_Forward,1,R_LES,0.002572816426224476,,1
BMu1,60,C,INI,Trunk_Forward,1,R_LES,0.00320692872328362,,2
BMu1,60,C,INI,Trunk_Forward,1,R_LES,0.003997070368568196,,3
BMu1,60,C,REL,Trunk_Forward,1,L_LES,0.009237152264639371,,1
BMu1,60,C,REL,Trunk_Forward,1,L_LES,0.012147118034777561,,2
BMu1,60,C,REL,Trunk_Forward,1,L_LES,0.009348148707829096,,3
BMu1,60,C,REL,Trunk_Forward,1,R_LES,0.005072167088922066,,1
BMu1,60,C,REL,Trunk_Forward,1,R_LES,0.009747062270049078,,2
BMu1,60,C,REL,Trunk_Forward,1,R_LES,0.0071066170233544295,,3
BMu1,61,P,INI,Trunk_Forward,1,L_LES,0.0018850111763916077,,1
BMu1,61,P,INI,Trunk_Forward,1,L_LES,0.001802529783177782,,2
BMu1,61,P,INI,Trunk_Forward,1,L_LES,0.0016524474287966176,,3
BMu1,61,P,INI,Trunk_Forward,1,R_LES,0.0017636439506372647,,1
BMu1,61,P,INI,Trunk_Forward,1,R_LES,0.0015551579410467645,,2
BMu1,61,P,INI,Trunk_Forward,1,R_LES,0.0010613130219170415,,3
BMu1,61,P,REL,Trunk_Forward,1,L_LES,0.0034614360637525623,,1
BMu1,61,P,REL,Trunk_Forward,1,L_LES,0.0033901350750249358,,2
BMu1,61,P,REL,Trunk_Forward,1,L_LES,0.005805786419512924,,3
BMu1,61,P,REL,Trunk_Forward,1,R_LES,0.0027818070659624077,,1
BMu1,61,P,REL,Trunk_Forward,1,R_LES,0.002569872763209665,,2
BMu1,61,P,REL,Trunk_Forward,1,R_LES,0.004621860458468118,,3
BMu1,62,P,INI,Trunk_Forward,1,L_LES,0.006037982455065649,,1
BMu1,62,P,INI,Trunk_Forward,1,L_LES,0.0076518634728798135,,2
BMu1,62,P,INI,Trunk_Forward,1,L_LES,0.00957683744429652,,3
BMu1,62,P,INI,Trunk_Forward,1,R_LES,0.0013674748509320492,,1
BMu1,62,P,INI,Trunk_Forward,1,R_LES,0.004533345091869171,,2
BMu1,62,P,INI,Trunk_Forward,1,R_LES,0.004995887774366024,,3
BMu1,62,P,REL,Trunk_Forward,1,L_LES,0.005190324952803421,,1
BMu1,62,P,REL,Trunk_Forward,1,L_LES,0.004802265164168738,,2
BMu1,62,P,REL,Trunk_Forward,1,L_LES,0.005775769217295982,,3
BMu1,62,P,REL,Trunk_Forward,1,R_LES,0.0034934105725516387,,1
BMu1,62,P,REL,Trunk_Forward,1,R_LES,0.002307749854766208,,2
BMu1,62,P,REL,Trunk_Forward,1,R_LES,0.0020114612699809534,,3
BMu1,63,P,INI,Trunk_Forward,1,L_LES,0.007650509611133097,,1
BMu1,63,P,INI,Trunk_Forward,1,L_LES,0.006515621543825295,,2
BMu1,63,P,INI,Trunk_Forward,1,L_LES,0.003849951398620461,,3
BMu1,63,P,INI,Trunk_Forward,1,R_LES,0.0044872127937966395,,1
BMu1,63,P,INI,Trunk_Forward,1,R_LES,0.0033694598792013203,,2
BMu1,63,P,INI,Trunk_Forward,1,R_LES,0.005007347361998407,,3
BMu1,63,P,REL,Trunk_Forward,1,L_LES,0.0007912275742547594,,1
BMu1,63,P,REL,Trunk_Forward,1,L_LES,0.0026491490623806275,,2
BMu1,63,P,REL,Trunk_Forward,1,L_LES,0.0031794095894330846,,3
BMu1,63,P,REL,Trunk_Forward,1,R_LES,0.0006881798436169191,,1
BMu1,63,P,REL,Trunk_Forward,1,R_LES,0.002997818382763002,,2
BMu1,63,P,REL,Trunk_Forward,1,R_LES,0.003246118328115569,,3
BMu1,64,C,INI,Trunk_Forward,1,L_LES,0.002063060956523544,,1
BMu1,64,C,INI,Trunk_Forward,1,L_LES,0.008301466242655207,,2
BMu1,64,C,INI,Trunk_Forward,1,L_LES,0.00502318043033301,,3
BMu1,64,C,INI,Trunk_Forward,1,R_LES,0.0028298447269223086,,1
BMu1,64,C,INI,Trunk_Forward,1,R_LES,0.009646680333092237,,2
BMu1,64,C,INI,Trunk_Forward,1,R_LES,0.008811777958679847,,3
BMu1,64,C,REL,Trunk_Forward,1,L_LES,0.0012231401398843714,,1
BMu1,64,C,REL,Trunk_Forward,1,L_LES,0.006345704269088041,,2
BMu1,64,C,REL,Trunk_Forward,1,L_LES,0.005329258839896256,,3
BMu1,64,C,REL,Trunk_Forward,1,R_LES,0.0017106563230324767,,1
BMu1,64,C,REL,Trunk_Forward,1,R_LES,0.008013113039464823,,2
BMu1,64,C,REL,Trunk_Forward,1,R_LES,0.007800223168182069,,3
BMu1,65,P,INI,Trunk_Forward,1,L_LES,0.003726080633463532,,1
BMu1,65,P,INI,Trunk_Forward,1,L_LES,0.002093610998661038,,2
BMu1,65,P,INI,Trunk_Forward,1,L_LES,0.003926441407245258,,3
BMu1,65,P,INI,Trunk_Forward,1,R_LES,0.0018464018792668162,,1
BMu1,65,P,INI,Trunk_Forward,1,R_LES,0.0014120142876789211,,2
BMu1,65,P,INI,Trunk_Forward,1,R_LES,0.0018323126497439483,,3
BMu1,65,P,REL,Trunk_Forward,1,L_LES,0.0031774765303165036,,1
BMu1,65,P,REL,Trunk_Forward,1,L_LES,0.002932248646351168,,2
BMu1,65,P,REL,Trunk_Forward,1,L_LES,0.0033630788179579937,,3
BMu1,65,P,REL,Trunk_Forward,1,R_LES,0.0013378254153877406,,1
BMu1,65,P,REL,Trunk_Forward,1,R_LES,0.0018851641883188505,,2
BMu1,65,P,REL,Trunk_Forward,1,R_LES,0.0016823751280987229,,3
BMu1,66,C,INI,Trunk_Forward,1,L_LES,0.001231465775214287,,1
BMu1,66,C,INI,Trunk_Forward,1,L_LES,0.0005172312211769283,,2
BMu1,66,C,INI,Trunk_Forward,1,L_LES,0.0009738289989145387,,3
BMu1,66,C,INI,Trunk_Forward,1,R_LES,0.001000278594507708,,1
BMu1,66,C,INI,Trunk_Forward,1,R_LES,0.0004848052809398283,,2
BMu1,66,C,INI,Trunk_Forward,1,R_LES,0.0008570676004589291,,3
BMu1,66,C,REL,Trunk_Forward,1,L_LES,0.0029950090617836857,,1
BMu1,66,C,REL,Trunk_Forward,1,L_LES,0.001996491396986323,,2
BMu1,66,C,REL,Trunk_Forward,1,L_LES,0.002680191385724365,,3
BMu1,66,C,REL,Trunk_Forward,1,R_LES,0.0020655355206562224,,1
BMu1,66,C,REL,Trunk_Forward,1,R_LES,0.0008129959027499364,,2
BMu1,66,C,REL,Trunk_Forward,1,R_LES,0.0021764391114834887,,3
BMu1,67,C,INI,Trunk_Forward,1,L_LES,0.0019703195333927227,,1
BMu1,67,C,INI,Trunk_Forward,1,L_LES,0.009034689933389399,,2
BMu1,67,C,INI,Trunk_Forward,1,L_LES,0.012932297785381984,,3
BMu1,67,C,INI,Trunk_Forward,1,R_LES,0.004522280290106344,,1
BMu1,67,C,INI,Trunk_Forward,1,R_LES,0.014252796982270634,,2
BMu1,67,C,INI,Trunk_Forward,1,R_LES,0.01700118598716052,,3
BMu1,67,C,REL,Trunk_Forward,1,L_LES,0.00887260455927936,,1
BMu1,67,C,REL,Trunk_Forward,1,L_LES,0.008917782223354407,,2
BMu1,67,C,REL,Trunk_Forward,1,L_LES,0.016597457447581294,,3
BMu1,67,C,REL,Trunk_Forward,1,R_LES,0.010098071075271756,,1
BMu1,67,C,REL,Trunk_Forward,1,R_LES,0.011526845279542283,,2
BMu1,67,C,REL,Trunk_Forward,1,R_LES,0.0199693075634512,,3
BMu1,68,C,INI,Trunk_Forward,1,L_LES,0.010085867165100688,,1
BMu1,68,C,INI,Trunk_Forward,1,L_LES,0.011298348507510332,,2
BMu1,68,C,INI,Trunk_Forward,1,L_LES,0.009878108067814053,,3
BMu1,68,C,INI,Trunk_Forward,1,R_LES,0.01585869641296197,,1
BMu1,68,C,INI,Trunk_Forward,1,R_LES,0.013812270863727712,,2
BMu1,68,C,INI,Trunk_Forward,1,R_LES,0.010672167527537177,,3
BMu1,68,C,REL,Trunk_Forward,1,L_LES,0.008481960374403501,,1
BMu1,68,C,REL,Trunk_Forward,1,L_LES,0.012117044592838631,,2
BMu1,68,C,REL,Trunk_Forward,1,L_LES,0.008993706031824393,,3
BMu1,68,C,REL,Trunk_Forward,1,L_LES,0.01758183856398365,,4
BMu1,68,C,REL,Trunk_Forward,1,R_LES,0.010280383567594486,,1
BMu1,68,C,REL,Trunk_Forward,1,R_LES,0.011757610219970259,,2
BMu1,68,C,REL,Trunk_Forward,1,R_LES,0.01329005364647911,,3
BMu1,68,C,REL,Trunk_Forward,1,R_LES,0.018962150305609982,,4
