BMu,subject,P_C,session,task,trials,channel,value,event,rep
BMu15,1,C,INI,Trunk_Forward,1,R_L_LES,0.0021772253607687097,,1
BMu15,1,C,INI,Trunk_Forward,1,R_L_LES,0.0021837367629008644,,2
BMu15,1,C,INI,Trunk_Forward,1,R_L_LES,0.0030633740992925713,,3
BMu15,1,C,REL,Trunk_Forward,1,R_L_LES,0.002934222596630447,,1
BMu15,1,C,REL,Trunk_Forward,1,R_L_LES,0.002714508222293215,,2
BMu15,1,C,REL,Trunk_Forward,1,R_L_LES,0.0020993255177243976,,3
BMu15,2,C,INI,Trunk_Forward,1,R_L_LES,0.002000678052278742,,1
BMu15,2,C,INI,Trunk_Forward,1,R_L_LES,0.0020273752931573,,2
BMu15,2,C,INI,Trunk_Forward,1,R_L_LES,0.0020737626226037882,,3
BMu15,2,C,REL,Trunk_Forward,1,R_L_LES,0.0022557434278703036,,1
BMu15,2,C,REL,Trunk_Forward,1,R_L_LES,0.0021701901704159134,,2
BMu15,2,C,REL,Trunk_Forward,1,R_L_LES,0.002522233056690225,,3
BMu15,3,C,INI,Trunk_Forward,1,R_L_LES,0.00240483171212004,,1
BMu15,3,C,INI,Trunk_Forward,1,R_L_LES,0.002494118577519723,,2
BMu15,3,C,INI,Trunk_Forward,1,R_L_LES,0.002438667911219379,,3
BMu15,3,C,REL,Trunk_Forward,1,R_L_LES,0.02583577488137551,,1
BMu15,3,C,REL,Trunk_Forward,1,R_L_LES,0.016066988660903014,,2
BMu15,3,C,REL,Trunk_Forward,1,R_L_LES,0.011218132421395799,,3
BMu15,5,C,INI,Trunk_Forward,1,R_L_LES,0.00289448097692181,,1
BMu15,5,C,INI,Trunk_Forward,1,R_L_LES,0.002738193790172058,,2
BMu15,5,C,INI,Trunk_Forward,1,R_L_LES,0.0026652032464583027,,3
BMu15,5,C,REL,Trunk_Forward,1,R_L_LES,0.023376293948439108,,1
BMu15,5,C,REL,Trunk_Forward,1,R_L_LES,0.0030989032333732483,,2
BMu15,5,C,REL,Trunk_Forward,1,R_L_LES,0.0027911472468693833,,3
BMu15,5,C,REL,Trunk_Forward,1,R_L_LES,0.002608328550056392,,4
BMu15,6,C,INI,Trunk_Forward,1,R_L_LES,0.0030470066944051685,,1
BMu15,6,C,INI,Trunk_Forward,1,R_L_LES,0.002770448193714968,,2
BMu15,6,C,INI,Trunk_Forward,1,R_L_LES,0.0020506057509748297,,3
BMu15,6,C,REL,Trunk_Forward,1,R_L_LES,0.0037612394625711463,,1
BMu15,6,C,REL,Trunk_Forward,1,R_L_LES,0.003922324718231591,,2
BMu15,6,C,REL,Trunk_Forward,1,R_L_LES,0.003565896878399653,,3
BMu15,7,C,INI,Trunk_Forward,1,R_L_LES,0.011982597399832448,,1
BMu15,7,C,INI,Trunk_Forward,1,R_L_LES,0.009355458337156484,,2
BMu15,7,C,INI,Trunk_Forward,1,R_L_LES,0.0069605479077858735,,3
BMu15,7,C,REL,Trunk_Forward,1,R_L_LES,0.008645351947691985,,1
BMu15,7,C,REL,Trunk_Forward,1,R_L_LES,0.004466663983784476,,2
BMu15,7,C,REL,Trunk_Forward,1,R_L_LES,0.004193762480737397,,3
BMu15,8,C,INI,Trunk_Forward,1,R_L_LES,0.002273214823154081,,1
BMu15,8,C,INI,Trunk_Forward,1,R_L_LES,0.0024724719540202243,,2
BMu15,8,C,INI,Trunk_Forward,1,R_L_LES,0.0025120840174623193,,3
BMu15,8,C,REL,Trunk_Forward,1,R_L_LES,0.0022599657810743507,,1
BMu15,8,C,REL,Trunk_Forward,1,R_L_LES,0.0022999135459977295,,2
BMu15,8,C,REL,Trunk_Forward,1,R_L_LES,0.0023047814622252547,,3
BMu15,9,P,INI,Trunk_Forward,1,R_L_LES,0.006889831013071921,,1
BMu15,9,P,INI,Trunk_Forward,1,R_L_LES,0.003504558483303673,,2
BMu15,9,P,INI,Trunk_Forward,1,R_L_LES,0.002300514278256184,,3
BMu15,9,P,REL,Trunk_Forward,1,R_L_LES,0.0076059081711928895,,1
BMu15,9,P,REL,Trunk_Forward,1,R_L_LES,0.004402211359037244,,2
BMu15,9,P,REL,Trunk_Forward,1,R_L_LES,0.0034526364246280574,,3
BMu15,10,P,INI,Trunk_Forward,1,R_L_LES,0.006563661386078876,,1
BMu15,10,P,INI,Trunk_Forward,1,R_L_LES,0.003194625390151009,,2
BMu15,10,P,INI,Trunk_Forward,1,R_L_LES,0.002562929197509061,,3
BMu15,10,P,REL,Trunk_Forward,1,R_L_LES,0.011464530909692777,,1
BMu15,10,P,REL,Trunk_Forward,1,R_L_LES,0.003970828852955001,,2
BMu15,10,P,REL,Trunk_Forward,1,R_L_LES,0.002894011783888106,,3
BMu15,11,P,INI,Trunk_Forward,1,R_L_LES,0.003344672383963825,,1
BMu15,11,P,INI,Trunk_Forward,1,R_L_LES,0.003505038940795001,,2
BMu15,11,P,INI,Trunk_Forward,1,R_L_LES,0.003236447296480389,,3
BMu15,11,P,REL,Trunk_Forward,1,R_L_LES,0.0025368478529957154,,1
BMu15,11,P,REL,Trunk_Forward,1,R_L_LES,0.0026225845651625967,,2
BMu15,11,P,REL,Trunk_Forward,1,R_L_LES,0.00242894042295576,,3
BMu15,12,P,INI,Trunk_Forward,1,R_L_LES,0.005273608198516186,,1
BMu15,12,P,INI,Trunk_Forward,1,R_L_LES,0.005526388709597648,,2
BMu15,12,P,INI,Trunk_Forward,1,R_L_LES,0.00549641541166823,,3
BMu15,12,P,REL,Trunk_Forward,1,R_L_LES,0.0063812971082402095,,1
BMu15,12,P,REL,Trunk_Forward,1,R_L_LES,0.006488659648006772,,2
BMu15,12,P,REL,Trunk_Forward,1,R_L_LES,0.005917188955277287,,3
BMu15,13,C,INI,Trunk_Forward,1,R_L_LES,0.013451769808698378,,1
BMu15,13,C,INI,Trunk_Forward,1,R_L_LES,0.008051900438220785,,2
BMu15,13,C,INI,Trunk_Forward,1,R_L_LES,0.007318029909884188,,3
BMu15,13,C,REL,Trunk_Forward,1,R_L_LES,0.012965295002860705,,1
BMu15,13,C,REL,Trunk_Forward,1,R_L_LES,0.012854721248889528,,2
BMu15,13,C,REL,Trunk_Forward,1,R_L_LES,0.009509487351050287,,3
BMu15,14,P,INI,Trunk_Forward,1,R_L_LES,0.007768826546861823,,1
BMu15,14,P,INI,Trunk_Forward,1,R_L_LES,0.0067700812379438416,,2
BMu15,14,P,INI,Trunk_Forward,1,R_L_LES,0.006336228935907325,,3
BMu15,14,P,REL,Trunk_Forward,1,R_L_LES,0.011230186863456778,,1
BMu15,14,P,REL,Trunk_Forward,1,R_L_LES,0.007981900858616392,,2
BMu15,14,P,REL,Trunk_Forward,1,R_L_LES,0.006909329873140088,,3
BMu15,16,C,INI,Trunk_Forward,1,R_L_LES,0.0021707263435217805,,1
BMu15,16,C,INI,Trunk_Forward,1,R_L_LES,0.002125021003042189,,2
BMu15,16,C,INI,Trunk_Forward,1,R_L_LES,0.002198344992078777,,3
BMu15,16,C,REL,Trunk_Forward,1,R_L_LES,0.002133326972854821,,1
BMu15,16,C,REL,Trunk_Forward,1,R_L_LES,0.0021115613863969336,,2
BMu15,16,C,REL,Trunk_Forward,1,R_L_LES,0.0020676673383859443,,3
BMu15,17,P,INI,Trunk_Forward,1,R_L_LES,0.0025691291253884586,,1
BMu15,17,P,INI,Trunk_Forward,1,R_L_LES,0.002565076170784697,,2
BMu15,17,P,INI,Trunk_Forward,1,R_L_LES,0.004481790071746395,,3
BMu15,17,P,REL,Trunk_Forward,1,R_L_LES,0.016867473808237454,,1
BMu15,17,P,REL,Trunk_Forward,1,R_L_LES,0.016328282641789923,,2
BMu15,17,P,REL,Trunk_Forward,1,R_L_LES,0.015517085200688835,,3
BMu15,21,C,INI,Trunk_Forward,1,R_L_LES,0.005876475636245076,,1
BMu15,21,C,INI,Trunk_Forward,1,R_L_LES,0.003838630312718682,,2
BMu15,21,C,INI,Trunk_Forward,1,R_L_LES,0.005448980528567354,,3
BMu15,21,C,REL,Trunk_Forward,1,R_L_LES,0.025167957674578446,,1
BMu15,21,C,REL,Trunk_Forward,1,R_L_LES,0.005054090145447177,,2
BMu15,21,C,REL,Trunk_Forward,1,R_L_LES,0.005512028597285974,,3
BMu15,22,C,INI,Trunk_Forward,1,R_L_LES,0.0036856048093431783,,1
BMu15,22,C,INI,Trunk_Forward,1,R_L_LES,0.0035633299732461595,,2
BMu15,22,C,INI,Trunk_Forward,1,R_L_LES,0.002611250488889822,,3
BMu15,22,C,REL,Trunk_Forward,1,R_L_LES,0.0037678058435933626,,1
BMu15,22,C,REL,Trunk_Forward,1,R_L_LES,0.0024930891474226986,,2
BMu15,22,C,REL,Trunk_Forward,1,R_L_LES,0.0029947990321431764,,3
BMu15,23,C,INI,Trunk_Forward,1,R_L_LES,0.00289259700275266,,1
BMu15,23,C,INI,Trunk_Forward,1,R_L_LES,0.0027180989753698413,,2
BMu15,23,C,INI,Trunk_Forward,1,R_L_LES,0.002999586940573143,,3
BMu15,23,C,REL,Trunk_Forward,1,R_L_LES,0.0028682767535458177,,1
BMu15,23,C,REL,Trunk_Forward,1,R_L_LES,0.002929977573396973,,2
BMu15,23,C,REL,Trunk_Forward,1,R_L_LES,0.0027520310495231398,,3
BMu15,24,P,INI,Trunk_Forward,1,R_L_LES,0.012332440120712192,,1
BMu15,24,P,INI,Trunk_Forward,1,R_L_LES,0.006332950933441457,,2
BMu15,24,P,INI,Trunk_Forward,1,R_L_LES,0.0038591504674924527,,3
BMu15,24,P,REL,Trunk_Forward,1,R_L_LES,0.014145473222687882,,1
BMu15,24,P,REL,Trunk_Forward,1,R_L_LES,0.009979496989837551,,2
BMu15,24,P,REL,Trunk_Forward,1,R_L_LES,0.008924763553961037,,3
BMu15,25,C,INI,Trunk_Forward,1,R_L_LES,0.009602068835305988,,1
BMu15,25,C,INI,Trunk_Forward,1,R_L_LES,0.003562518228384804,,2
BMu15,25,C,INI,Trunk_Forward,1,R_L_LES,0.0029515662670606727,,3
BMu15,25,C,REL,Trunk_Forward,1,R_L_LES,0.011714509732830653,,1
BMu15,25,C,REL,Trunk_Forward,1,R_L_LES,0.008139225405509045,,2
BMu15,25,C,REL,Trunk_Forward,1,R_L_LES,0.003146789653020526,,3
BMu15,26,P,INI,Trunk_Forward,1,R_L_LES,0.0037915518507839097,,1
BMu15,26,P,INI,Trunk_Forward,1,R_L_LES,0.0030463362434657833,,2
BMu15,26,P,INI,Trunk_Forward,1,R_L_LES,0.0028462824174098652,,3
BMu15,26,P,REL,Trunk_Forward,1,R_L_LES,0.003947516299697274,,1
BMu15,26,P,REL,Trunk_Forward,1,R_L_LES,0.0029911545488239045,,2
BMu15,26,P,REL,Trunk_Forward,1,R_L_LES,0.003460932797467347,,3
BMu15,27,P,INI,Trunk_Forward,1,R_L_LES,0.011310755952243845,,1
BMu15,27,P,INI,Trunk_Forward,1,R_L_LES,0.011601804797357194,,2
BMu15,27,P,INI,Trunk_Forward,1,R_L_LES,0.00629800298658959,,3
BMu15,27,P,REL,Trunk_Forward,1,R_L_LES,0.010957788048708783,,1
BMu15,27,P,REL,Trunk_Forward,1,R_L_LES,0.00893137618220968,,2
BMu15,27,P,REL,Trunk_Forward,1,R_L_LES,0.010767619755759069,,3
BMu15,28,P,INI,Trunk_Forward,1,R_L_LES,0.010988785889621523,,1
BMu15,28,P,INI,Trunk_Forward,1,R_L_LES,0.007195152004062546,,2
BMu15,28,P,INI,Trunk_Forward,1,R_L_LES,0.006240162730886545,,3
BMu15,28,P,REL,Trunk_Forward,1,R_L_LES,0.015010227120380864,,1
BMu15,28,P,REL,Trunk_Forward,1,R_L_LES,0.013833508199182417,,2
BMu15,28,P,REL,Trunk_Forward,1,R_L_LES,0.010596219752144634,,3
BMu15,29,P,INI,Trunk_Forward,1,R_L_LES,0.011515563628588486,,1
BMu15,29,P,INI,Trunk_Forward,1,R_L_LES,0.006851018833113775,,2
BMu15,29,P,INI,Trunk_Forward,1,R_L_LES,0.008064602813950692,,3
BMu15,29,P,REL,Trunk_Forward,1,R_L_LES,0.005769096562787631,,1
BMu15,29,P,REL,Trunk_Forward,1,R_L_LES,0.0037987371374921136,,2
BMu15,29,P,REL,Trunk_Forward,1,R_L_LES,0.0036389926056392026,,3
BMu15,30,P,INI,Trunk_Forward,1,R_L_LES,0.004966209138893928,,1
BMu15,30,P,INI,Trunk_Forward,1,R_L_LES,0.005199018802838439,,2
BMu15,30,P,INI,Trunk_Forward,1,R_L_LES,0.005579903497727556,,3
BMu15,30,P,REL,Trunk_Forward,1,R_L_LES,0.007765894472968734,,1
BMu15,30,P,REL,Trunk_Forward,1,R_L_LES,0.005877519651907735,,2
BMu15,30,P,REL,Trunk_Forward,1,R_L_LES,0.005381485050831984,,3
BMu15,32,P,INI,Trunk_Forward,1,R_L_LES,0.004207000624222216,,1
BMu15,32,P,INI,Trunk_Forward,1,R_L_LES,0.005391783684736662,,2
BMu15,32,P,INI,Trunk_Forward,1,R_L_LES,0.003640966451281657,,3
BMu15,32,P,REL,Trunk_Forward,1,R_L_LES,0.0070101650477998765,,1
BMu15,32,P,REL,Trunk_Forward,1,R_L_LES,0.007318236547991525,,2
BMu15,32,P,REL,Trunk_Forward,1,R_L_LES,0.003523182533805264,,3
BMu15,32,P,REL,Trunk_Forward,1,R_L_LES,0.0037504570641978155,,4
BMu15,33,P,INI,Trunk_Forward,1,R_L_LES,0.008111634927175803,,1
BMu15,33,P,INI,Trunk_Forward,1,R_L_LES,0.00758950458027195,,2
BMu15,33,P,INI,Trunk_Forward,1,R_L_LES,0.007173135204930444,,3
BMu15,33,P,INI,Trunk_Forward,1,R_L_LES,0.007266206345764221,,4
BMu15,33,P,REL,Trunk_Forward,1,R_L_LES,0.006236790118449761,,1
BMu15,33,P,REL,Trunk_Forward,1,R_L_LES,0.007022711102917306,,2
BMu15,33,P,REL,Trunk_Forward,1,R_L_LES,0.00809536174608779,,3
BMu15,34,P,INI,Trunk_Forward,1,R_L_LES,0.002907877101122659,,1
BMu15,34,P,INI,Trunk_Forward,1,R_L_LES,0.00332522486055428,,2
BMu15,34,P,INI,Trunk_Forward,1,R_L_LES,0.003081552021745941,,3
BMu15,34,P,REL,Trunk_Forward,1,R_L_LES,0.0024234780463922015,,1
BMu15,34,P,REL,Trunk_Forward,1,R_L_LES,0.00271519202804412,,2
BMu15,34,P,REL,Trunk_Forward,1,R_L_LES,0.002401364586406972,,3
BMu15,35,C,INI,Trunk_Forward,1,R_L_LES,0.0036007621081564642,,1
BMu15,35,C,INI,Trunk_Forward,1,R_L_LES,0.002349933810693717,,2
BMu15,35,C,INI,Trunk_Forward,1,R_L_LES,0.0030639230891967924,,3
BMu15,35,C,REL,Trunk_Forward,1,R_L_LES,0.0025587720219940693,,1
BMu15,35,C,REL,Trunk_Forward,1,R_L_LES,0.002458080512592966,,2
BMu15,35,C,REL,Trunk_Forward,1,R_L_LES,0.0024865105309601018,,3
BMu15,36,P,INI,Trunk_Forward,1,R_L_LES,0.02086376619271905,,1
BMu15,36,P,INI,Trunk_Forward,1,R_L_LES,0.01840427926184693,,2
BMu15,36,P,INI,Trunk_Forward,1,R_L_LES,0.01858284167756766,,3
BMu15,36,P,REL,Trunk_Forward,1,R_L_LES,0.032307400979115775,,1
BMu15,36,P,REL,Trunk_Forward,1,R_L_LES,0.0330203405872381,,2
BMu15,36,P,REL,Trunk_Forward,1,R_L_LES,0.03403779519653671,,3
BMu15,38,C,INI,Trunk_Forward,1,R_L_LES,0.03975743892281212,,1
BMu15,38,C,INI,Trunk_Forward,1,R_L_LES,0.0390549694117688,,2
BMu15,38,C,INI,Trunk_Forward,1,R_L_LES,0.0431014712635231,,3
BMu15,38,C,REL,Trunk_Forward,1,R_L_LES,0.010156327252497346,,1
BMu15,38,C,REL,Trunk_Forward,1,R_L_LES,0.005414662689672348,,2
BMu15,38,C,REL,Trunk_Forward,1,R_L_LES,0.0049385590731936034,,3
BMu15,39,C,INI,Trunk_Forward,1,R_L_LES,0.0019512935165594445,,1
BMu15,39,C,INI,Trunk_Forward,1,R_L_LES,0.0023114872230958565,,2
BMu15,39,C,INI,Trunk_Forward,1,R_L_LES,0.002291161944064118,,3
BMu15,39,C,REL,Trunk_Forward,1,R_L_LES,0.006493231609386926,,1
BMu15,39,C,REL,Trunk_Forward,1,R_L_LES,0.00374208392425189,,2
BMu15,39,C,REL,Trunk_Forward,1,R_L_LES,0.0037697296864151906,,3
BMu15,40,C,INI,Trunk_Forward,1,R_L_LES,0.005023980693340036,,1
BMu15,40,C,INI,Trunk_Forward,1,R_L_LES,0.0038949690867931407,,2
BMu15,40,C,INI,Trunk_Forward,1,R_L_LES,0.004680419655212235,,3
BMu15,40,C,REL,Trunk_Forward,1,R_L_LES,0.006120523404202894,,1
BMu15,40,C,REL,Trunk_Forward,1,R_L_LES,0.0033906771780208515,,2
BMu15,40,C,REL,Trunk_Forward,1,R_L_LES,0.0031812154905385436,,3
BMu15,41,P,INI,Trunk_Forward,1,R_L_LES,0.004914746852509778,,1
BMu15,41,P,INI,Trunk_Forward,1,R_L_LES,0.003063986726220188,,2
BMu15,41,P,INI,Trunk_Forward,1,R_L_LES,0.002451026481531142,,3
BMu15,41,P,REL,Trunk_Forward,1,R_L_LES,0.006577787864668697,,1
BMu15,41,P,REL,Trunk_Forward,1,R_L_LES,0.003755452832791292,,2
BMu15,41,P,REL,Trunk_Forward,1,R_L_LES,0.003062679683718333,,3
BMu15,42,P,INI,Trunk_Forward,1,R_L_LES,0.0071493218179217305,,1
BMu15,42,P,INI,Trunk_Forward,1,R_L_LES,0.006289609092555359,,2
BMu15,42,P,INI,Trunk_Forward,1,R_L_LES,0.005208607927060166,,3
BMu15,42,P,REL,Trunk_Forward,1,R_L_LES,0.006739610233889061,,1
BMu15,42,P,REL,Trunk_Forward,1,R_L_LES,0.0038245224040941305,,2
BMu15,42,P,REL,Trunk_Forward,1,R_L_LES,0.003733443175137732,,3
BMu15,43,P,INI,Trunk_Forward,1,R_L_LES,0.00324808478257369,,1
BMu15,43,P,INI,Trunk_Forward,1,R_L_LES,0.003086576329646351,,2
BMu15,43,P,INI,Trunk_Forward,1,R_L_LES,0.0027411295935562143,,3
BMu15,43,P,REL,Trunk_Forward,1,R_L_LES,0.0029645648878780964,,1
BMu15,43,P,REL,Trunk_Forward,1,R_L_LES,0.0030093169040794395,,2
BMu15,43,P,REL,Trunk_Forward,1,R_L_LES,0.003973057961756182,,3
BMu15,44,C,INI,Trunk_Forward,1,R_L_LES,0.002907195795845784,,1
BMu15,44,C,INI,Trunk_Forward,1,R_L_LES,0.002834835908924783,,2
BMu15,44,C,INI,Trunk_Forward,1,R_L_LES,0.0027930783175401995,,3
BMu15,44,C,REL,Trunk_Forward,1,R_L_LES,0.0025585068454493966,,1
BMu15,44,C,REL,Trunk_Forward,1,R_L_LES,0.0025614528328016905,,2
BMu15,44,C,REL,Trunk_Forward,1,R_L_LES,0.0026966499640253155,,3
BMu15,45,P,INI,Trunk_Forward,1,R_L_LES,0.005626470330210691,,1
BMu15,45,P,INI,Trunk_Forward,1,R_L_LES,0.00494320459230371,,2
BMu15,45,P,INI,Trunk_Forward,1,R_L_LES,0.0034645598423739296,,3
BMu15,45,P,REL,Trunk_Forward,1,R_L_LES,0.002246390628202951,,1
BMu15,45,P,REL,Trunk_Forward,1,R_L_LES,0.0019505788018052987,,2
BMu15,45,P,REL,Trunk_Forward,1,R_L_LES,0.0017984051509210843,,3
BMu15,46,C,INI,Trunk_Forward,1,R_L_LES,0.01049931270377082,,1
BMu15,46,C,INI,Trunk_Forward,1,R_L_LES,0.011034921214781173,,2
BMu15,46,C,INI,Trunk_Forward,1,R_L_LES,0.013236077454071135,,3
BMu15,46,C,REL,Trunk_Forward,1,R_L_LES,0.01418870403824713,,1
BMu15,46,C,REL,Trunk_Forward,1,R_L_LES,0.00960358361983731,,2
BMu15,46,C,REL,Trunk_Forward,1,R_L_LES,0.010850511715116804,,3
BMu15,47,P,INI,Trunk_Forward,1,R_L_LES,0.011984937415645722,,1
BMu15,47,P,INI,Trunk_Forward,1,R_L_LES,0.016274681590656963,,2
BMu15,47,P,INI,Trunk_Forward,1,R_L_LES,0.013357707194774115,,3
BMu15,47,P,REL,Trunk_Forward,1,R_L_LES,0.009404699668617109,,1
BMu15,47,P,REL,Trunk_Forward,1,R_L_LES,0.008809849236304358,,2
BMu15,47,P,REL,Trunk_Forward,1,R_L_LES,0.009508747067572262,,3
BMu15,48,C,INI,Trunk_Forward,1,R_L_LES,0.003205654201197691,,1
BMu15,48,C,INI,Trunk_Forward,1,R_L_LES,0.0032332949048415344,,2
BMu15,48,C,INI,Trunk_Forward,1,R_L_LES,0.004623730111020967,,3
BMu15,48,C,REL,Trunk_Forward,1,R_L_LES,0.0033547720171890017,,1
BMu15,48,C,REL,Trunk_Forward,1,R_L_LES,0.0027269208406690702,,2
BMu15,48,C,REL,Trunk_Forward,1,R_L_LES,0.002477017937566872,,3
BMu15,49,C,INI,Trunk_Forward,1,R_L_LES,0.003369885927108792,,1
BMu15,49,C,INI,Trunk_Forward,1,R_L_LES,0.0029082542258480376,,2
BMu15,49,C,INI,Trunk_Forward,1,R_L_LES,0.0029112851285830756,,3
BMu15,49,C,REL,Trunk_Forward,1,R_L_LES,0.0030755207285514813,,1
BMu15,49,C,REL,Trunk_Forward,1,R_L_LES,0.002978701551676675,,2
BMu15,49,C,REL,Trunk_Forward,1,R_L_LES,0.0030007515106522135,,3
BMu15,50,P,INI,Trunk_Forward,1,R_L_LES,0.007801976061235692,,1
BMu15,50,P,INI,Trunk_Forward,1,R_L_LES,0.00666405305370823,,2
BMu15,50,P,REL,Trunk_Forward,1,R_L_LES,0.024424581376293348,,1
BMu15,50,P,REL,Trunk_Forward,1,R_L_LES,0.02657671033991492,,2
BMu15,50,P,REL,Trunk_Forward,1,R_L_LES,0.022386652249300747,,3
BMu15,51,P,INI,Trunk_Forward,1,R_L_LES,0.00797250683670674,,1
BMu15,51,P,INI,Trunk_Forward,1,R_L_LES,0.006852500280986239,,2
BMu15,51,P,INI,Trunk_Forward,1,R_L_LES,0.007184374684081675,,3
BMu15,51,P,REL,Trunk_Forward,1,R_L_LES,0.0071036264407264614,,1
BMu15,51,P,REL,Trunk_Forward,1,R_L_LES,0.006704022193847021,,2
BMu15,51,P,REL,Trunk_Forward,1,R_L_LES,0.006324026022460968,,3
BMu15,52,C,INI,Trunk_Forward,1,R_L_LES,0.0031319937626033997,,1
BMu15,52,C,INI,Trunk_Forward,1,R_L_LES,0.003577002372548107,,2
BMu15,52,C,INI,Trunk_Forward,1,R_L_LES,0.0029957471733437872,,3
BMu15,52,C,REL,Trunk_Forward,1,R_L_LES,0.004811438407163553,,1
BMu15,52,C,REL,Trunk_Forward,1,R_L_LES,0.002546108795741109,,2
BMu15,52,C,REL,Trunk_Forward,1,R_L_LES,0.0025304092494202648,,3
BMu15,53,P,INI,Trunk_Forward,1,R_L_LES,0.01696703719125894,,1
BMu15,53,P,INI,Trunk_Forward,1,R_L_LES,0.017145042917465186,,2
BMu15,53,P,REL,Trunk_Forward,1,R_L_LES,0.016079383672364462,,1
BMu15,53,P,REL,Trunk_Forward,1,R_L_LES,0.01467940375811935,,2
BMu15,53,P,REL,Trunk_Forward,1,R_L_LES,0.014574677071357794,,3
BMu15,54,P,INI,Trunk_Forward,1,R_L_LES,0.0025866515785419146,,1
BMu15,54,P,INI,Trunk_Forward,1,R_L_LES,0.0024920785411172808,,2
BMu15,54,P,INI,Trunk_Forward,1,R_L_LES,0.0025295415352414733,,3
BMu15,54,P,REL,Trunk_Forward,1,R_L_LES,0.003033780403429091,,1
BMu15,54,P,REL,Trunk_Forward,1,R_L_LES,0.002992349218579203,,2
BMu15,54,P,REL,Trunk_Forward,1,R_L_LES,0.0031773905456273527,,3
BMu15,55,C,INI,Trunk_Forward,1,R_L_LES,0.0055465295780613676,,1
BMu15,55,C,INI,Trunk_Forward,1,R_L_LES,0.0024413780500069367,,2
BMu15,55,C,INI,Trunk_Forward,1,R_L_LES,0.002395822223850674,,3
BMu15,55,C,REL,Trunk_Forward,1,R_L_LES,0.0037003372403641046,,1
BMu15,55,C,REL,Trunk_Forward,1,R_L_LES,0.002979606047360977,,2
BMu15,55,C,REL,Trunk_Forward,1,R_L_LES,0.0029847434730470527,,3
BMu15,56,C,INI,Trunk_Forward,1,R_L_LES,0.004127091603007875,,1
BMu15,56,C,INI,Trunk_Forward,1,R_L_LES,0.0032472675085453715,,2
BMu15,56,C,INI,Trunk_Forward,1,R_L_LES,0.0027813571716618912,,3
BMu15,56,C,REL,Trunk_Forward,1,R_L_LES,0.00824548297136435,,1
BMu15,56,C,REL,Trunk_Forward,1,R_L_LES,0.004638959619657143,,2
BMu15,56,C,REL,Trunk_Forward,1,R_L_LES,0.003892520897823759,,3
BMu15,57,C,INI,Trunk_Forward,1,R_L_LES,0.017049433985651702,,1
BMu15,57,C,INI,Trunk_Forward,1,R_L_LES,0.009882360082641747,,2
BMu15,57,C,INI,Trunk_Forward,1,R_L_LES,0.011271066570950717,,3
BMu15,57,C,REL,Trunk_Forward,1,R_L_LES,0.00417454921616856,,1
BMu15,57,C,REL,Trunk_Forward,1,R_L_LES,0.003828990553731506,,2
BMu15,57,C,REL,Trunk_Forward,1,R_L_LES,0.0025953987344278515,,3
BMu15,58,P,INI,Trunk_Forward,1,R_L_LES,0.005362051737781396,,1
BMu15,58,P,INI,Trunk_Forward,1,R_L_LES,0.005481799634029687,,2
BMu15,58,P,INI,Trunk_Forward,1,R_L_LES,0.005346150796748745,,3
BMu15,58,P,REL,Trunk_Forward,1,R_L_LES,0.03803252132846462,,1
BMu15,58,P,REL,Trunk_Forward,1,R_L_LES,0.022047283177965105,,2
BMu15,58,P,REL,Trunk_Forward,1,R_L_LES,0.015697636656221783,,3
BMu15,60,C,INI,Trunk_Forward,1,R_L_LES,0.006674096120397716,,1
BMu15,60,C,INI,Trunk_Forward,1,R_L_LES,0.003176729345226903,,2
BMu15,60,C,INI,Trunk_Forward,1,R_L_LES,0.0030910899847339454,,3
BMu15,60,C,REL,Trunk_Forward,1,R_L_LES,0.0074184435018787055,,1
BMu15,60,C,REL,Trunk_Forward,1,R_L_LES,0.005060864269482707,,2
BMu15,60,C,REL,Trunk_Forward,1,R_L_LES,0.0038095693059977615,,3
BMu15,61,P,INI,Trunk_Forward,1,R_L_LES,0.0025161878657221862,,1
BMu15,61,P,INI,Trunk_Forward,1,R_L_LES,0.0023503870192168015,,2
BMu15,61,P,INI,Trunk_Forward,1,R_L_LES,0.003626096628705626,,3
BMu15,61,P,REL,Trunk_Forward,1,R_L_LES,0.002920709594943272,,1
BMu15,61,P,REL,Trunk_Forward,1,R_L_LES,0.002436967770998421,,2
BMu15,61,P,REL,Trunk_Forward,1,R_L_LES,0.0024085746811192995,,3
BMu15,62,P,INI,Trunk_Forward,1,R_L_LES,0.021976143232648033,,1
BMu15,62,P,INI,Trunk_Forward,1,R_L_LES,0.021314096006079693,,2
BMu15,62,P,INI,Trunk_Forward,1,R_L_LES,0.018962656587127615,,3
BMu15,62,P,REL,Trunk_Forward,1,R_L_LES,0.016683649548430157,,1
BMu15,62,P,REL,Trunk_Forward,1,R_L_LES,0.013587449674997629,,2
BMu15,62,P,REL,Trunk_Forward,1,R_L_LES,0.014961681266221778,,3
BMu15,63,P,INI,Trunk_Forward,1,R_L_LES,0.012481094174413159,,1
BMu15,63,P,INI,Trunk_Forward,1,R_L_LES,0.005364439278703221,,2
BMu15,63,P,INI,Trunk_Forward,1,R_L_LES,0.009027916990998188,,3
BMu15,63,P,REL,Trunk_Forward,1,R_L_LES,0.002462003183299082,,1
BMu15,63,P,REL,Trunk_Forward,1,R_L_LES,0.0020241948655175543,,2
BMu15,63,P,REL,Trunk_Forward,1,R_L_LES,0.002976337975775697,,3
BMu15,64,C,INI,Trunk_Forward,1,R_L_LES,0.0032640861305451335,,1
BMu15,64,C,INI,Trunk_Forward,1,R_L_LES,0.002631201095043059,,2
BMu15,64,C,INI,Trunk_Forward,1,R_L_LES,0.002403429586066483,,3
BMu15,64,C,REL,Trunk_Forward,1,R_L_LES,0.00214158875059937,,1
BMu15,64,C,REL,Trunk_Forward,1,R_L_LES,0.0021493567624980853,,2
BMu15,64,C,REL,Trunk_Forward,1,R_L_LES,0.0021830009067233397,,3
BMu15,65,P,INI,Trunk_Forward,1,R_L_LES,0.005653873783448328,,1
BMu15,65,P,INI,Trunk_Forward,1,R_L_LES,0.002817485707070834,,2
BMu15,65,P,INI,Trunk_Forward,1,R_L_LES,0.0028639269418477688,,3
BMu15,65,P,REL,Trunk_Forward,1,R_L_LES,0.007268212215392551,,1
BMu15,65,P,REL,Trunk_Forward,1,R_L_LES,0.0042698663377906294,,2
BMu15,65,P,REL,Trunk_Forward,1,R_L_LES,0.003629395101695496,,3
BMu15,66,C,INI,Trunk_Forward,1,R_L_LES,0.0041647390810557435,,1
BMu15,66,C,INI,Trunk_Forward,1,R_L_LES,0.0029679186288197315,,2
BMu15,66,C,INI,Trunk_Forward,1,R_L_LES,0.003595341307472008,,3
BMu15,66,C,REL,Trunk_Forward,1,R_L_LES,0.00866182311842433,,1
BMu15,66,C,REL,Trunk_Forward,1,R_L_LES,0.0034936438513141943,,2
BMu15,66,C,REL,Trunk_Forward,1,R_L_LES,0.00518688856505157,,3
BMu15,67,C,INI,Trunk_Forward,1,R_L_LES,0.004620206786409171,,1
BMu15,67,C,INI,Trunk_Forward,1,R_L_LES,0.003912749807010392,,2
BMu15,67,C,INI,Trunk_Forward,1,R_L_LES,0.006315213719406462,,3
BMu15,67,C,REL,Trunk_Forward,1,R_L_LES,0.0043528468698920955,,1
BMu15,67,C,REL,Trunk_Forward,1,R_L_LES,0.0059340309441573156,,2
BMu15,67,C,REL,Trunk_Forward,1,R_L_LES,0.007309105345847916,,3
BMu15,68,C,INI,Trunk_Forward,1,R_L_LES,0.023013938174507805,,1
BMu15,68,C,INI,Trunk_Forward,1,R_L_LES,0.01771846711909842,,2
BMu15,68,C,INI,Trunk_Forward,1,R_L_LES,0.018923193244131574,,3
BMu15,68,C,REL,Trunk_Forward,1,R_L_LES,0.014548073946111763,,1
BMu15,68,C,REL,Trunk_Forward,1,R_L_LES,0.018331277707437376,,2
BMu15,68,C,REL,Trunk_Forward,1,R_L_LES,0.009485477997123695,,3
BMu15,68,C,REL,Trunk_Forward,1,R_L_LES,0.01128669521467288,,4
