BMu,subject,P_C,session,task,trials,channel,value,event,repetition
BMu29,1,C,INI,Trunk_Forward,1,L_MTF,250.0,bending,1
BMu29,1,C,INI,Trunk_Forward,1,L_MTF,250.0,return,1
BMu29,1,C,INI,Trunk_Forward,1,L_MTF,250.0,bending,2
BMu29,1,C,INI,Trunk_Forward,1,L_MTF,250.0,return,2
BMu29,1,C,INI,Trunk_Forward,1,L_MTF,250.0,bending,3
BMu29,1,C,INI,Trunk_Forward,1,L_MTF,250.0,return,3
BMu29,1,C,INI,Trunk_Forward,1,R_MTF,250.0,bending,1
BMu29,1,C,INI,Trunk_Forward,1,R_MTF,250.0,return,1
BMu29,1,C,INI,Trunk_Forward,1,R_MTF,250.0,bending,2
BMu29,1,C,INI,Trunk_Forward,1,R_MTF,250.0,return,2
BMu29,1,C,INI,Trunk_Forward,1,R_MTF,250.0,bending,3
BMu29,1,C,INI,Trunk_Forward,1,R_MTF,250.0,return,3
BMu29,1,C,REL,Trunk_Forward,1,L_MTF,250.0,bending,1
BMu29,1,C,REL,Trunk_Forward,1,L_MTF,250.0,return,1
BMu29,1,C,REL,Trunk_Forward,1,L_MTF,250.0,bending,2
BMu29,1,C,REL,Trunk_Forward,1,L_MTF,250.0,return,2
BMu29,1,C,REL,Trunk_Forward,1,L_MTF,250.0,bending,3
BMu29,1,C,REL,Trunk_Forward,1,L_MTF,250.0,return,3
BMu29,1,C,REL,Trunk_Forward,1,R_MTF,250.0,bending,1
BMu29,1,C,REL,Trunk_Forward,1,R_MTF,250.0,return,1
BMu29,1,C,REL,Trunk_Forward,1,R_MTF,250.0,bending,2
BMu29,1,C,REL,Trunk_Forward,1,R_MTF,250.0,return,2
BMu29,1,C,REL,Trunk_Forward,1,R_MTF,250.0,bending,3
BMu29,1,C,REL,Trunk_Forward,1,R_MTF,250.0,return,3
BMu29,2,C,INI,Trunk_Forward,1,L_MTF,250.0,bending,1
BMu29,2,C,INI,Trunk_Forward,1,L_MTF,250.0,return,1
BMu29,2,C,INI,Trunk_Forward,1,L_MTF,250.0,bending,2
BMu29,2,C,INI,Trunk_Forward,1,L_MTF,250.0,return,2
BMu29,2,C,INI,Trunk_Forward,1,L_MTF,250.0,bending,3
BMu29,2,C,INI,Trunk_Forward,1,L_MTF,250.0,return,3
BMu29,2,C,INI,Trunk_Forward,1,R_MTF,250.0,bending,1
BMu29,2,C,INI,Trunk_Forward,1,R_MTF,250.0,return,1
BMu29,2,C,INI,Trunk_Forward,1,R_MTF,250.0,bending,2
BMu29,2,C,INI,Trunk_Forward,1,R_MTF,250.0,return,2
BMu29,2,C,INI,Trunk_Forward,1,R_MTF,250.0,bending,3
BMu29,2,C,INI,Trunk_Forward,1,R_MTF,250.0,return,3
BMu29,2,C,REL,Trunk_Forward,1,L_MTF,250.0,bending,1
BMu29,2,C,REL,Trunk_Forward,1,L_MTF,250.0,return,1
BMu29,2,C,REL,Trunk_Forward,1,L_MTF,250.0,bending,2
BMu29,2,C,REL,Trunk_Forward,1,L_MTF,250.0,return,2
BMu29,2,C,REL,Trunk_Forward,1,L_MTF,250.0,bending,3
BMu29,2,C,REL,Trunk_Forward,1,L_MTF,250.0,return,3
BMu29,2,C,REL,Trunk_Forward,1,R_MTF,250.0,bending,1
BMu29,2,C,REL,Trunk_Forward,1,R_MTF,250.0,return,1
BMu29,2,C,REL,Trunk_Forward,1,R_MTF,250.0,bending,2
BMu29,2,C,REL,Trunk_Forward,1,R_MTF,250.0,return,2
BMu29,2,C,REL,Trunk_Forward,1,R_MTF,250.0,bending,3
BMu29,2,C,REL,Trunk_Forward,1,R_MTF,250.0,return,3
BMu29,3,C,INI,Trunk_Forward,1,L_MTF,250.0,bending,1
BMu29,3,C,INI,Trunk_Forward,1,L_MTF,250.0,return,1
BMu29,3,C,INI,Trunk_Forward,1,L_MTF,250.0,bending,2
BMu29,3,C,INI,Trunk_Forward,1,L_MTF,250.0,return,2
BMu29,3,C,INI,Trunk_Forward,1,L_MTF,250.0,bending,3
BMu29,3,C,INI,Trunk_Forward,1,L_MTF,250.0,return,3
BMu29,3,C,INI,Trunk_Forward,1,R_MTF,250.0,bending,1
BMu29,3,C,INI,Trunk_Forward,1,R_MTF,250.0,return,1
BMu29,3,C,INI,Trunk_Forward,1,R_MTF,250.0,bending,2
BMu29,3,C,INI,Trunk_Forward,1,R_MTF,250.0,return,2
BMu29,3,C,INI,Trunk_Forward,1,R_MTF,250.0,bending,3
BMu29,3,C,INI,Trunk_Forward,1,R_MTF,250.0,return,3
BMu29,3,C,REL,Trunk_Forward,1,L_MTF,250.0,bending,1
BMu29,3,C,REL,Trunk_Forward,1,L_MTF,250.0,return,1
BMu29,3,C,REL,Trunk_Forward,1,L_MTF,250.0,bending,2
BMu29,3,C,REL,Trunk_Forward,1,L_MTF,250.0,return,2
BMu29,3,C,REL,Trunk_Forward,1,L_MTF,250.0,bending,3
BMu29,3,C,REL,Trunk_Forward,1,L_MTF,250.0,return,3
BMu29,3,C,REL,Trunk_Forward,1,R_MTF,250.0,bending,1
BMu29,3,C,REL,Trunk_Forward,1,R_MTF,250.0,return,1
BMu29,3,C,REL,Trunk_Forward,1,R_MTF,250.0,bending,2
BMu29,3,C,REL,Trunk_Forward,1,R_MTF,250.0,return,2
BMu29,3,C,REL,Trunk_Forward,1,R_MTF,250.0,bending,3
BMu29,3,C,REL,Trunk_Forward,1,R_MTF,250.0,return,3
BMu29,5,C,INI,Trunk_Forward,1,L_MTF,250.0,bending,1
BMu29,5,C,INI,Trunk_Forward,1,L_MTF,250.0,return,1
BMu29,5,C,INI,Trunk_Forward,1,L_MTF,250.0,bending,2
BMu29,5,C,INI,Trunk_Forward,1,L_MTF,250.0,return,2
BMu29,5,C,INI,Trunk_Forward,1,L_MTF,250.0,bending,3
BMu29,5,C,INI,Trunk_Forward,1,L_MTF,250.0,return,3
BMu29,5,C,INI,Trunk_Forward,1,R_MTF,250.0,bending,1
BMu29,5,C,INI,Trunk_Forward,1,R_MTF,250.0,return,1
BMu29,5,C,INI,Trunk_Forward,1,R_MTF,250.0,bending,2
BMu29,5,C,INI,Trunk_Forward,1,R_MTF,250.0,return,2
BMu29,5,C,INI,Trunk_Forward,1,R_MTF,250.0,bending,3
BMu29,5,C,INI,Trunk_Forward,1,R_MTF,250.0,return,3
BMu29,5,C,REL,Trunk_Forward,1,L_MTF,250.0,bending,1
BMu29,5,C,REL,Trunk_Forward,1,L_MTF,250.0,return,1
BMu29,5,C,REL,Trunk_Forward,1,L_MTF,250.0,bending,2
BMu29,5,C,REL,Trunk_Forward,1,L_MTF,250.0,return,2
BMu29,5,C,REL,Trunk_Forward,1,L_MTF,250.0,bending,3
BMu29,5,C,REL,Trunk_Forward,1,L_MTF,250.0,return,3
BMu29,5,C,REL,Trunk_Forward,1,L_MTF,250.0,bending,4
BMu29,5,C,REL,Trunk_Forward,1,L_MTF,250.0,return,4
BMu29,5,C,REL,Trunk_Forward,1,R_MTF,250.0,bending,1
BMu29,5,C,REL,Trunk_Forward,1,R_MTF,250.0,return,1
BMu29,5,C,REL,Trunk_Forward,1,R_MTF,250.0,bending,2
BMu29,5,C,REL,Trunk_Forward,1,R_MTF,250.0,return,2
BMu29,5,C,REL,Trunk_Forward,1,R_MTF,250.0,bending,3
BMu29,5,C,REL,Trunk_Forward,1,R_MTF,250.0,return,3
BMu29,5,C,REL,Trunk_Forward,1,R_MTF,250.0,bending,4
BMu29,5,C,REL,Trunk_Forward,1,R_MTF,250.0,return,4
BMu29,6,C,INI,Trunk_Forward,1,L_MTF,250.0,bending,1
BMu29,6,C,INI,Trunk_Forward,1,L_MTF,250.0,return,1
BMu29,6,C,INI,Trunk_Forward,1,L_MTF,250.0,bending,2
BMu29,6,C,INI,Trunk_Forward,1,L_MTF,250.0,return,2
BMu29,6,C,INI,Trunk_Forward,1,L_MTF,250.0,bending,3
BMu29,6,C,INI,Trunk_Forward,1,L_MTF,250.0,return,3
BMu29,6,C,INI,Trunk_Forward,1,L_MTF,250.0,bending,4
BMu29,6,C,INI,Trunk_Forward,1,L_MTF,250.0,return,4
BMu29,6,C,INI,Trunk_Forward,1,R_MTF,250.0,bending,1
BMu29,6,C,INI,Trunk_Forward,1,R_MTF,250.0,return,1
BMu29,6,C,INI,Trunk_Forward,1,R_MTF,250.0,bending,2
BMu29,6,C,INI,Trunk_Forward,1,R_MTF,250.0,return,2
BMu29,6,C,INI,Trunk_Forward,1,R_MTF,250.0,bending,3
BMu29,6,C,INI,Trunk_Forward,1,R_MTF,250.0,return,3
BMu29,6,C,INI,Trunk_Forward,1,R_MTF,250.0,bending,4
BMu29,6,C,INI,Trunk_Forward,1,R_MTF,250.0,return,4
BMu29,6,C,REL,Trunk_Forward,1,L_MTF,250.0,bending,1
BMu29,6,C,REL,Trunk_Forward,1,L_MTF,250.0,return,1
BMu29,6,C,REL,Trunk_Forward,1,L_MTF,250.0,bending,2
BMu29,6,C,REL,Trunk_Forward,1,L_MTF,250.0,return,2
BMu29,6,C,REL,Trunk_Forward,1,L_MTF,250.0,bending,3
BMu29,6,C,REL,Trunk_Forward,1,L_MTF,250.0,return,3
BMu29,6,C,REL,Trunk_Forward,1,R_MTF,250.0,bending,1
BMu29,6,C,REL,Trunk_Forward,1,R_MTF,250.0,return,1
BMu29,6,C,REL,Trunk_Forward,1,R_MTF,250.0,bending,2
BMu29,6,C,REL,Trunk_Forward,1,R_MTF,250.0,return,2
BMu29,6,C,REL,Trunk_Forward,1,R_MTF,250.0,bending,3
BMu29,6,C,REL,Trunk_Forward,1,R_MTF,250.0,return,3
BMu29,7,C,INI,Trunk_Forward,1,L_MTF,250.0,bending,1
BMu29,7,C,INI,Trunk_Forward,1,L_MTF,250.0,return,1
BMu29,7,C,INI,Trunk_Forward,1,L_MTF,250.0,bending,2
BMu29,7,C,INI,Trunk_Forward,1,L_MTF,250.0,return,2
BMu29,7,C,INI,Trunk_Forward,1,L_MTF,250.0,bending,3
BMu29,7,C,INI,Trunk_Forward,1,L_MTF,250.0,return,3
BMu29,7,C,INI,Trunk_Forward,1,R_MTF,250.0,bending,1
BMu29,7,C,INI,Trunk_Forward,1,R_MTF,250.0,return,1
BMu29,7,C,INI,Trunk_Forward,1,R_MTF,250.0,bending,2
BMu29,7,C,INI,Trunk_Forward,1,R_MTF,250.0,return,2
BMu29,7,C,INI,Trunk_Forward,1,R_MTF,250.0,bending,3
BMu29,7,C,INI,Trunk_Forward,1,R_MTF,250.0,return,3
BMu29,7,C,REL,Trunk_Forward,1,L_MTF,250.0,bending,1
BMu29,7,C,REL,Trunk_Forward,1,L_MTF,250.0,return,1
BMu29,7,C,REL,Trunk_Forward,1,L_MTF,250.0,bending,2
BMu29,7,C,REL,Trunk_Forward,1,L_MTF,250.0,return,2
BMu29,7,C,REL,Trunk_Forward,1,L_MTF,250.0,bending,3
BMu29,7,C,REL,Trunk_Forward,1,L_MTF,250.0,return,3
BMu29,7,C,REL,Trunk_Forward,1,R_MTF,250.0,bending,1
BMu29,7,C,REL,Trunk_Forward,1,R_MTF,250.0,return,1
BMu29,7,C,REL,Trunk_Forward,1,R_MTF,250.0,bending,2
BMu29,7,C,REL,Trunk_Forward,1,R_MTF,250.0,return,2
BMu29,7,C,REL,Trunk_Forward,1,R_MTF,250.0,bending,3
BMu29,7,C,REL,Trunk_Forward,1,R_MTF,250.0,return,3
BMu29,8,C,INI,Trunk_Forward,1,L_MTF,250.0,bending,1
BMu29,8,C,INI,Trunk_Forward,1,L_MTF,250.0,return,1
BMu29,8,C,INI,Trunk_Forward,1,L_MTF,250.0,bending,2
BMu29,8,C,INI,Trunk_Forward,1,L_MTF,250.0,return,2
BMu29,8,C,INI,Trunk_Forward,1,L_MTF,250.0,bending,3
BMu29,8,C,INI,Trunk_Forward,1,L_MTF,250.0,return,3
BMu29,8,C,INI,Trunk_Forward,1,R_MTF,250.0,bending,1
BMu29,8,C,INI,Trunk_Forward,1,R_MTF,250.0,return,1
BMu29,8,C,INI,Trunk_Forward,1,R_MTF,250.0,bending,2
BMu29,8,C,INI,Trunk_Forward,1,R_MTF,250.0,return,2
BMu29,8,C,INI,Trunk_Forward,1,R_MTF,250.0,bending,3
BMu29,8,C,INI,Trunk_Forward,1,R_MTF,250.0,return,3
BMu29,8,C,REL,Trunk_Forward,1,L_MTF,250.0,bending,1
BMu29,8,C,REL,Trunk_Forward,1,L_MTF,250.0,return,1
BMu29,8,C,REL,Trunk_Forward,1,L_MTF,250.0,bending,2
BMu29,8,C,REL,Trunk_Forward,1,L_MTF,250.0,return,2
BMu29,8,C,REL,Trunk_Forward,1,L_MTF,250.0,bending,3
BMu29,8,C,REL,Trunk_Forward,1,L_MTF,250.0,return,3
BMu29,8,C,REL,Trunk_Forward,1,R_MTF,250.0,bending,1
BMu29,8,C,REL,Trunk_Forward,1,R_MTF,250.0,return,1
BMu29,8,C,REL,Trunk_Forward,1,R_MTF,250.0,bending,2
BMu29,8,C,REL,Trunk_Forward,1,R_MTF,250.0,return,2
BMu29,8,C,REL,Trunk_Forward,1,R_MTF,250.0,bending,3
BMu29,8,C,REL,Trunk_Forward,1,R_MTF,250.0,return,3
BMu29,9,P,INI,Trunk_Forward,1,L_MTF,250.0,bending,1
BMu29,9,P,INI,Trunk_Forward,1,L_MTF,250.0,return,1
BMu29,9,P,INI,Trunk_Forward,1,L_MTF,250.0,bending,2
BMu29,9,P,INI,Trunk_Forward,1,L_MTF,250.0,return,2
BMu29,9,P,INI,Trunk_Forward,1,L_MTF,250.0,bending,3
BMu29,9,P,INI,Trunk_Forward,1,L_MTF,250.0,return,3
BMu29,9,P,INI,Trunk_Forward,1,L_MTF,250.0,bending,4
BMu29,9,P,INI,Trunk_Forward,1,L_MTF,250.0,return,4
BMu29,9,P,INI,Trunk_Forward,1,R_MTF,250.0,bending,1
BMu29,9,P,INI,Trunk_Forward,1,R_MTF,250.0,return,1
BMu29,9,P,INI,Trunk_Forward,1,R_MTF,250.0,bending,2
BMu29,9,P,INI,Trunk_Forward,1,R_MTF,250.0,return,2
BMu29,9,P,INI,Trunk_Forward,1,R_MTF,250.0,bending,3
BMu29,9,P,INI,Trunk_Forward,1,R_MTF,250.0,return,3
BMu29,9,P,INI,Trunk_Forward,1,R_MTF,250.0,bending,4
BMu29,9,P,INI,Trunk_Forward,1,R_MTF,250.0,return,4
BMu29,9,P,REL,Trunk_Forward,1,L_MTF,250.0,bending,1
BMu29,9,P,REL,Trunk_Forward,1,L_MTF,250.0,return,1
BMu29,9,P,REL,Trunk_Forward,1,L_MTF,250.0,bending,2
BMu29,9,P,REL,Trunk_Forward,1,L_MTF,250.0,return,2
BMu29,9,P,REL,Trunk_Forward,1,L_MTF,250.0,bending,3
BMu29,9,P,REL,Trunk_Forward,1,L_MTF,250.0,return,3
BMu29,9,P,REL,Trunk_Forward,1,R_MTF,250.0,bending,1
BMu29,9,P,REL,Trunk_Forward,1,R_MTF,250.0,return,1
BMu29,9,P,REL,Trunk_Forward,1,R_MTF,250.0,bending,2
BMu29,9,P,REL,Trunk_Forward,1,R_MTF,250.0,return,2
BMu29,9,P,REL,Trunk_Forward,1,R_MTF,250.0,bending,3
BMu29,9,P,REL,Trunk_Forward,1,R_MTF,250.0,return,3
BMu29,10,P,INI,Trunk_Forward,1,L_MTF,250.0,bending,1
BMu29,10,P,INI,Trunk_Forward,1,L_MTF,250.0,return,1
BMu29,10,P,INI,Trunk_Forward,1,L_MTF,250.0,bending,2
BMu29,10,P,INI,Trunk_Forward,1,L_MTF,250.0,return,2
BMu29,10,P,INI,Trunk_Forward,1,L_MTF,250.0,bending,3
BMu29,10,P,INI,Trunk_Forward,1,L_MTF,250.0,return,3
BMu29,10,P,INI,Trunk_Forward,1,R_MTF,250.0,bending,1
BMu29,10,P,INI,Trunk_Forward,1,R_MTF,250.0,return,1
BMu29,10,P,INI,Trunk_Forward,1,R_MTF,250.0,bending,2
BMu29,10,P,INI,Trunk_Forward,1,R_MTF,250.0,return,2
BMu29,10,P,INI,Trunk_Forward,1,R_MTF,250.0,bending,3
BMu29,10,P,INI,Trunk_Forward,1,R_MTF,250.0,return,3
BMu29,10,P,REL,Trunk_Forward,1,L_MTF,250.0,bending,1
BMu29,10,P,REL,Trunk_Forward,1,L_MTF,250.0,return,1
BMu29,10,P,REL,Trunk_Forward,1,L_MTF,250.0,bending,2
BMu29,10,P,REL,Trunk_Forward,1,L_MTF,250.0,return,2
BMu29,10,P,REL,Trunk_Forward,1,L_MTF,250.0,bending,3
BMu29,10,P,REL,Trunk_Forward,1,L_MTF,250.0,return,3
BMu29,10,P,REL,Trunk_Forward,1,R_MTF,250.0,bending,1
BMu29,10,P,REL,Trunk_Forward,1,R_MTF,250.0,return,1
BMu29,10,P,REL,Trunk_Forward,1,R_MTF,250.0,bending,2
BMu29,10,P,REL,Trunk_Forward,1,R_MTF,250.0,return,2
BMu29,10,P,REL,Trunk_Forward,1,R_MTF,250.0,bending,3
BMu29,10,P,REL,Trunk_Forward,1,R_MTF,250.0,return,3
BMu29,11,P,INI,Trunk_Forward,1,L_MTF,250.0,bending,1
BMu29,11,P,INI,Trunk_Forward,1,L_MTF,250.0,return,1
BMu29,11,P,INI,Trunk_Forward,1,L_MTF,250.0,bending,2
BMu29,11,P,INI,Trunk_Forward,1,L_MTF,250.0,return,2
BMu29,11,P,INI,Trunk_Forward,1,L_MTF,250.0,bending,3
BMu29,11,P,INI,Trunk_Forward,1,L_MTF,250.0,return,3
BMu29,11,P,INI,Trunk_Forward,1,R_MTF,250.0,bending,1
BMu29,11,P,INI,Trunk_Forward,1,R_MTF,250.0,return,1
BMu29,11,P,INI,Trunk_Forward,1,R_MTF,250.0,bending,2
BMu29,11,P,INI,Trunk_Forward,1,R_MTF,250.0,return,2
BMu29,11,P,INI,Trunk_Forward,1,R_MTF,250.0,bending,3
BMu29,11,P,INI,Trunk_Forward,1,R_MTF,250.0,return,3
BMu29,11,P,REL,Trunk_Forward,1,L_MTF,250.0,bending,1
BMu29,11,P,REL,Trunk_Forward,1,L_MTF,250.0,return,1
BMu29,11,P,REL,Trunk_Forward,1,L_MTF,250.0,bending,2
BMu29,11,P,REL,Trunk_Forward,1,L_MTF,250.0,return,2
BMu29,11,P,REL,Trunk_Forward,1,L_MTF,250.0,bending,3
BMu29,11,P,REL,Trunk_Forward,1,L_MTF,250.0,return,3
BMu29,11,P,REL,Trunk_Forward,1,R_MTF,250.0,bending,1
BMu29,11,P,REL,Trunk_Forward,1,R_MTF,250.0,return,1
BMu29,11,P,REL,Trunk_Forward,1,R_MTF,250.0,bending,2
BMu29,11,P,REL,Trunk_Forward,1,R_MTF,250.0,return,2
BMu29,11,P,REL,Trunk_Forward,1,R_MTF,250.0,bending,3
BMu29,11,P,REL,Trunk_Forward,1,R_MTF,250.0,return,3
BMu29,12,P,INI,Trunk_Forward,1,L_MTF,250.0,bending,1
BMu29,12,P,INI,Trunk_Forward,1,L_MTF,250.0,return,1
BMu29,12,P,INI,Trunk_Forward,1,L_MTF,250.0,bending,2
BMu29,12,P,INI,Trunk_Forward,1,L_MTF,250.0,return,2
BMu29,12,P,INI,Trunk_Forward,1,L_MTF,250.0,bending,3
BMu29,12,P,INI,Trunk_Forward,1,L_MTF,250.0,return,3
BMu29,12,P,INI,Trunk_Forward,1,R_MTF,250.0,bending,1
BMu29,12,P,INI,Trunk_Forward,1,R_MTF,250.0,return,1
BMu29,12,P,INI,Trunk_Forward,1,R_MTF,250.0,bending,2
BMu29,12,P,INI,Trunk_Forward,1,R_MTF,250.0,return,2
BMu29,12,P,INI,Trunk_Forward,1,R_MTF,250.0,bending,3
BMu29,12,P,INI,Trunk_Forward,1,R_MTF,250.0,return,3
BMu29,12,P,REL,Trunk_Forward,1,L_MTF,250.0,bending,1
BMu29,12,P,REL,Trunk_Forward,1,L_MTF,250.0,return,1
BMu29,12,P,REL,Trunk_Forward,1,L_MTF,250.0,bending,2
BMu29,12,P,REL,Trunk_Forward,1,L_MTF,250.0,return,2
BMu29,12,P,REL,Trunk_Forward,1,L_MTF,250.0,bending,3
BMu29,12,P,REL,Trunk_Forward,1,L_MTF,250.0,return,3
BMu29,12,P,REL,Trunk_Forward,1,R_MTF,250.0,bending,1
BMu29,12,P,REL,Trunk_Forward,1,R_MTF,250.0,return,1
BMu29,12,P,REL,Trunk_Forward,1,R_MTF,250.0,bending,2
BMu29,12,P,REL,Trunk_Forward,1,R_MTF,250.0,return,2
BMu29,12,P,REL,Trunk_Forward,1,R_MTF,250.0,bending,3
BMu29,12,P,REL,Trunk_Forward,1,R_MTF,250.0,return,3
BMu29,13,C,INI,Trunk_Forward,1,L_MTF,250.0,bending,1
BMu29,13,C,INI,Trunk_Forward,1,L_MTF,250.0,return,1
BMu29,13,C,INI,Trunk_Forward,1,L_MTF,250.0,bending,2
BMu29,13,C,INI,Trunk_Forward,1,L_MTF,250.0,return,2
BMu29,13,C,INI,Trunk_Forward,1,L_MTF,250.0,bending,3
BMu29,13,C,INI,Trunk_Forward,1,L_MTF,250.0,return,3
BMu29,13,C,INI,Trunk_Forward,1,R_MTF,250.0,bending,1
BMu29,13,C,INI,Trunk_Forward,1,R_MTF,250.0,return,1
BMu29,13,C,INI,Trunk_Forward,1,R_MTF,250.0,bending,2
BMu29,13,C,INI,Trunk_Forward,1,R_MTF,250.0,return,2
BMu29,13,C,INI,Trunk_Forward,1,R_MTF,250.0,bending,3
BMu29,13,C,INI,Trunk_Forward,1,R_MTF,250.0,return,3
BMu29,13,C,REL,Trunk_Forward,1,L_MTF,250.0,bending,1
BMu29,13,C,REL,Trunk_Forward,1,L_MTF,250.0,return,1
BMu29,13,C,REL,Trunk_Forward,1,L_MTF,250.0,bending,2
BMu29,13,C,REL,Trunk_Forward,1,L_MTF,250.0,return,2
BMu29,13,C,REL,Trunk_Forward,1,L_MTF,250.0,bending,3
BMu29,13,C,REL,Trunk_Forward,1,L_MTF,250.0,return,3
BMu29,13,C,REL,Trunk_Forward,1,R_MTF,250.0,bending,1
BMu29,13,C,REL,Trunk_Forward,1,R_MTF,250.0,return,1
BMu29,13,C,REL,Trunk_Forward,1,R_MTF,250.0,bending,2
BMu29,13,C,REL,Trunk_Forward,1,R_MTF,250.0,return,2
BMu29,13,C,REL,Trunk_Forward,1,R_MTF,250.0,bending,3
BMu29,13,C,REL,Trunk_Forward,1,R_MTF,250.0,return,3
BMu29,14,P,INI,Trunk_Forward,1,L_MTF,250.0,bending,1
BMu29,14,P,INI,Trunk_Forward,1,L_MTF,250.0,return,1
BMu29,14,P,INI,Trunk_Forward,1,L_MTF,250.0,bending,2
BMu29,14,P,INI,Trunk_Forward,1,L_MTF,250.0,return,2
BMu29,14,P,INI,Trunk_Forward,1,L_MTF,250.0,bending,3
BMu29,14,P,INI,Trunk_Forward,1,L_MTF,250.0,return,3
BMu29,14,P,INI,Trunk_Forward,1,R_MTF,250.0,bending,1
BMu29,14,P,INI,Trunk_Forward,1,R_MTF,250.0,return,1
BMu29,14,P,INI,Trunk_Forward,1,R_MTF,250.0,bending,2
BMu29,14,P,INI,Trunk_Forward,1,R_MTF,250.0,return,2
BMu29,14,P,INI,Trunk_Forward,1,R_MTF,250.0,bending,3
BMu29,14,P,INI,Trunk_Forward,1,R_MTF,250.0,return,3
BMu29,14,P,REL,Trunk_Forward,1,L_MTF,250.0,bending,1
BMu29,14,P,REL,Trunk_Forward,1,L_MTF,250.0,return,1
BMu29,14,P,REL,Trunk_Forward,1,L_MTF,250.0,bending,2
BMu29,14,P,REL,Trunk_Forward,1,L_MTF,250.0,return,2
BMu29,14,P,REL,Trunk_Forward,1,L_MTF,250.0,bending,3
BMu29,14,P,REL,Trunk_Forward,1,L_MTF,250.0,return,3
BMu29,14,P,REL,Trunk_Forward,1,L_MTF,250.0,bending,4
BMu29,14,P,REL,Trunk_Forward,1,L_MTF,250.0,return,4
BMu29,14,P,REL,Trunk_Forward,1,R_MTF,250.0,bending,1
BMu29,14,P,REL,Trunk_Forward,1,R_MTF,250.0,return,1
BMu29,14,P,REL,Trunk_Forward,1,R_MTF,250.0,bending,2
BMu29,14,P,REL,Trunk_Forward,1,R_MTF,250.0,return,2
BMu29,14,P,REL,Trunk_Forward,1,R_MTF,250.0,bending,3
BMu29,14,P,REL,Trunk_Forward,1,R_MTF,250.0,return,3
BMu29,14,P,REL,Trunk_Forward,1,R_MTF,250.0,bending,4
BMu29,14,P,REL,Trunk_Forward,1,R_MTF,250.0,return,4
BMu29,16,C,INI,Trunk_Forward,1,L_MTF,250.0,bending,1
BMu29,16,C,INI,Trunk_Forward,1,L_MTF,250.0,return,1
BMu29,16,C,INI,Trunk_Forward,1,L_MTF,250.0,bending,2
BMu29,16,C,INI,Trunk_Forward,1,L_MTF,250.0,return,2
BMu29,16,C,INI,Trunk_Forward,1,L_MTF,250.0,bending,3
BMu29,16,C,INI,Trunk_Forward,1,L_MTF,250.0,return,3
BMu29,16,C,INI,Trunk_Forward,1,R_MTF,250.0,bending,1
BMu29,16,C,INI,Trunk_Forward,1,R_MTF,250.0,return,1
BMu29,16,C,INI,Trunk_Forward,1,R_MTF,250.0,bending,2
BMu29,16,C,INI,Trunk_Forward,1,R_MTF,250.0,return,2
BMu29,16,C,INI,Trunk_Forward,1,R_MTF,250.0,bending,3
BMu29,16,C,INI,Trunk_Forward,1,R_MTF,250.0,return,3
BMu29,16,C,REL,Trunk_Forward,1,L_MTF,250.0,bending,1
BMu29,16,C,REL,Trunk_Forward,1,L_MTF,250.0,return,1
BMu29,16,C,REL,Trunk_Forward,1,L_MTF,250.0,bending,2
BMu29,16,C,REL,Trunk_Forward,1,L_MTF,250.0,return,2
BMu29,16,C,REL,Trunk_Forward,1,L_MTF,250.0,bending,3
BMu29,16,C,REL,Trunk_Forward,1,L_MTF,250.0,return,3
BMu29,16,C,REL,Trunk_Forward,1,R_MTF,250.0,bending,1
BMu29,16,C,REL,Trunk_Forward,1,R_MTF,250.0,return,1
BMu29,16,C,REL,Trunk_Forward,1,R_MTF,250.0,bending,2
BMu29,16,C,REL,Trunk_Forward,1,R_MTF,250.0,return,2
BMu29,16,C,REL,Trunk_Forward,1,R_MTF,250.0,bending,3
BMu29,16,C,REL,Trunk_Forward,1,R_MTF,250.0,return,3
BMu29,17,P,INI,Trunk_Forward,1,L_MTF,250.0,bending,1
BMu29,17,P,INI,Trunk_Forward,1,L_MTF,250.0,return,1
BMu29,17,P,INI,Trunk_Forward,1,L_MTF,250.0,bending,2
BMu29,17,P,INI,Trunk_Forward,1,L_MTF,250.0,return,2
BMu29,17,P,INI,Trunk_Forward,1,L_MTF,250.0,bending,3
BMu29,17,P,INI,Trunk_Forward,1,L_MTF,250.0,return,3
BMu29,17,P,INI,Trunk_Forward,1,R_MTF,250.0,bending,1
BMu29,17,P,INI,Trunk_Forward,1,R_MTF,250.0,return,1
BMu29,17,P,INI,Trunk_Forward,1,R_MTF,250.0,bending,2
BMu29,17,P,INI,Trunk_Forward,1,R_MTF,250.0,return,2
BMu29,17,P,INI,Trunk_Forward,1,R_MTF,250.0,bending,3
BMu29,17,P,INI,Trunk_Forward,1,R_MTF,250.0,return,3
BMu29,17,P,REL,Trunk_Forward,1,L_MTF,250.0,bending,1
BMu29,17,P,REL,Trunk_Forward,1,L_MTF,250.0,return,1
BMu29,17,P,REL,Trunk_Forward,1,L_MTF,250.0,bending,2
BMu29,17,P,REL,Trunk_Forward,1,L_MTF,250.0,return,2
BMu29,17,P,REL,Trunk_Forward,1,L_MTF,250.0,bending,3
BMu29,17,P,REL,Trunk_Forward,1,L_MTF,250.0,return,3
BMu29,17,P,REL,Trunk_Forward,1,R_MTF,250.0,bending,1
BMu29,17,P,REL,Trunk_Forward,1,R_MTF,250.0,return,1
BMu29,17,P,REL,Trunk_Forward,1,R_MTF,250.0,bending,2
BMu29,17,P,REL,Trunk_Forward,1,R_MTF,250.0,return,2
BMu29,17,P,REL,Trunk_Forward,1,R_MTF,250.0,bending,3
BMu29,17,P,REL,Trunk_Forward,1,R_MTF,250.0,return,3
BMu29,21,C,INI,Trunk_Forward,1,L_MTF,250.0,bending,1
BMu29,21,C,INI,Trunk_Forward,1,L_MTF,250.0,return,1
BMu29,21,C,INI,Trunk_Forward,1,L_MTF,250.0,bending,2
BMu29,21,C,INI,Trunk_Forward,1,L_MTF,250.0,return,2
BMu29,21,C,INI,Trunk_Forward,1,L_MTF,250.0,bending,3
BMu29,21,C,INI,Trunk_Forward,1,L_MTF,250.0,return,3
BMu29,21,C,INI,Trunk_Forward,1,R_MTF,250.0,bending,1
BMu29,21,C,INI,Trunk_Forward,1,R_MTF,250.0,return,1
BMu29,21,C,INI,Trunk_Forward,1,R_MTF,250.0,bending,2
BMu29,21,C,INI,Trunk_Forward,1,R_MTF,250.0,return,2
BMu29,21,C,INI,Trunk_Forward,1,R_MTF,250.0,bending,3
BMu29,21,C,INI,Trunk_Forward,1,R_MTF,250.0,return,3
BMu29,21,C,REL,Trunk_Forward,1,L_MTF,250.0,bending,1
BMu29,21,C,REL,Trunk_Forward,1,L_MTF,250.0,return,1
BMu29,21,C,REL,Trunk_Forward,1,L_MTF,250.0,bending,2
BMu29,21,C,REL,Trunk_Forward,1,L_MTF,250.0,return,2
BMu29,21,C,REL,Trunk_Forward,1,L_MTF,250.0,bending,3
BMu29,21,C,REL,Trunk_Forward,1,L_MTF,250.0,return,3
BMu29,21,C,REL,Trunk_Forward,1,R_MTF,250.0,bending,1
BMu29,21,C,REL,Trunk_Forward,1,R_MTF,250.0,return,1
BMu29,21,C,REL,Trunk_Forward,1,R_MTF,250.0,bending,2
BMu29,21,C,REL,Trunk_Forward,1,R_MTF,250.0,return,2
BMu29,21,C,REL,Trunk_Forward,1,R_MTF,250.0,bending,3
BMu29,21,C,REL,Trunk_Forward,1,R_MTF,250.0,return,3
BMu29,22,C,INI,Trunk_Forward,1,L_MTF,250.0,bending,1
BMu29,22,C,INI,Trunk_Forward,1,L_MTF,250.0,return,1
BMu29,22,C,INI,Trunk_Forward,1,L_MTF,250.0,bending,2
BMu29,22,C,INI,Trunk_Forward,1,L_MTF,250.0,return,2
BMu29,22,C,INI,Trunk_Forward,1,L_MTF,250.0,bending,3
BMu29,22,C,INI,Trunk_Forward,1,L_MTF,250.0,return,3
BMu29,22,C,INI,Trunk_Forward,1,R_MTF,250.0,bending,1
BMu29,22,C,INI,Trunk_Forward,1,R_MTF,250.0,return,1
BMu29,22,C,INI,Trunk_Forward,1,R_MTF,250.0,bending,2
BMu29,22,C,INI,Trunk_Forward,1,R_MTF,250.0,return,2
BMu29,22,C,INI,Trunk_Forward,1,R_MTF,250.0,bending,3
BMu29,22,C,INI,Trunk_Forward,1,R_MTF,250.0,return,3
BMu29,22,C,REL,Trunk_Forward,1,L_MTF,250.0,bending,1
BMu29,22,C,REL,Trunk_Forward,1,L_MTF,250.0,return,1
BMu29,22,C,REL,Trunk_Forward,1,L_MTF,250.0,bending,2
BMu29,22,C,REL,Trunk_Forward,1,L_MTF,250.0,return,2
BMu29,22,C,REL,Trunk_Forward,1,L_MTF,250.0,bending,3
BMu29,22,C,REL,Trunk_Forward,1,L_MTF,250.0,return,3
BMu29,22,C,REL,Trunk_Forward,1,R_MTF,250.0,bending,1
BMu29,22,C,REL,Trunk_Forward,1,R_MTF,250.0,return,1
BMu29,22,C,REL,Trunk_Forward,1,R_MTF,250.0,bending,2
BMu29,22,C,REL,Trunk_Forward,1,R_MTF,250.0,return,2
BMu29,22,C,REL,Trunk_Forward,1,R_MTF,250.0,bending,3
BMu29,22,C,REL,Trunk_Forward,1,R_MTF,250.0,return,3
BMu29,23,C,INI,Trunk_Forward,1,L_MTF,250.0,bending,1
BMu29,23,C,INI,Trunk_Forward,1,L_MTF,250.0,return,1
BMu29,23,C,INI,Trunk_Forward,1,L_MTF,250.0,bending,2
BMu29,23,C,INI,Trunk_Forward,1,L_MTF,250.0,return,2
BMu29,23,C,INI,Trunk_Forward,1,L_MTF,250.0,bending,3
BMu29,23,C,INI,Trunk_Forward,1,L_MTF,250.0,return,3
BMu29,23,C,INI,Trunk_Forward,1,R_MTF,250.0,bending,1
BMu29,23,C,INI,Trunk_Forward,1,R_MTF,250.0,return,1
BMu29,23,C,INI,Trunk_Forward,1,R_MTF,250.0,bending,2
BMu29,23,C,INI,Trunk_Forward,1,R_MTF,250.0,return,2
BMu29,23,C,INI,Trunk_Forward,1,R_MTF,250.0,bending,3
BMu29,23,C,INI,Trunk_Forward,1,R_MTF,250.0,return,3
BMu29,23,C,REL,Trunk_Forward,1,L_MTF,250.0,bending,1
BMu29,23,C,REL,Trunk_Forward,1,L_MTF,250.0,return,1
BMu29,23,C,REL,Trunk_Forward,1,L_MTF,250.0,bending,2
BMu29,23,C,REL,Trunk_Forward,1,L_MTF,250.0,return,2
BMu29,23,C,REL,Trunk_Forward,1,L_MTF,250.0,bending,3
BMu29,23,C,REL,Trunk_Forward,1,L_MTF,250.0,return,3
BMu29,23,C,REL,Trunk_Forward,1,R_MTF,250.0,bending,1
BMu29,23,C,REL,Trunk_Forward,1,R_MTF,250.0,return,1
BMu29,23,C,REL,Trunk_Forward,1,R_MTF,250.0,bending,2
BMu29,23,C,REL,Trunk_Forward,1,R_MTF,250.0,return,2
BMu29,23,C,REL,Trunk_Forward,1,R_MTF,250.0,bending,3
BMu29,23,C,REL,Trunk_Forward,1,R_MTF,250.0,return,3
BMu29,24,P,INI,Trunk_Forward,1,L_MTF,250.0,bending,1
BMu29,24,P,INI,Trunk_Forward,1,L_MTF,250.0,return,1
BMu29,24,P,INI,Trunk_Forward,1,L_MTF,250.0,bending,2
BMu29,24,P,INI,Trunk_Forward,1,L_MTF,250.0,return,2
BMu29,24,P,INI,Trunk_Forward,1,L_MTF,250.0,bending,3
BMu29,24,P,INI,Trunk_Forward,1,L_MTF,250.0,return,3
BMu29,24,P,INI,Trunk_Forward,1,R_MTF,250.0,bending,1
BMu29,24,P,INI,Trunk_Forward,1,R_MTF,250.0,return,1
BMu29,24,P,INI,Trunk_Forward,1,R_MTF,250.0,bending,2
BMu29,24,P,INI,Trunk_Forward,1,R_MTF,250.0,return,2
BMu29,24,P,INI,Trunk_Forward,1,R_MTF,250.0,bending,3
BMu29,24,P,INI,Trunk_Forward,1,R_MTF,250.0,return,3
BMu29,24,P,REL,Trunk_Forward,1,L_MTF,250.0,bending,1
BMu29,24,P,REL,Trunk_Forward,1,L_MTF,250.0,return,1
BMu29,24,P,REL,Trunk_Forward,1,L_MTF,250.0,bending,2
BMu29,24,P,REL,Trunk_Forward,1,L_MTF,250.0,return,2
BMu29,24,P,REL,Trunk_Forward,1,L_MTF,250.0,bending,3
BMu29,24,P,REL,Trunk_Forward,1,L_MTF,250.0,return,3
BMu29,24,P,REL,Trunk_Forward,1,R_MTF,250.0,bending,1
BMu29,24,P,REL,Trunk_Forward,1,R_MTF,250.0,return,1
BMu29,24,P,REL,Trunk_Forward,1,R_MTF,250.0,bending,2
BMu29,24,P,REL,Trunk_Forward,1,R_MTF,250.0,return,2
BMu29,24,P,REL,Trunk_Forward,1,R_MTF,250.0,bending,3
BMu29,24,P,REL,Trunk_Forward,1,R_MTF,250.0,return,3
BMu29,25,C,INI,Trunk_Forward,1,L_MTF,250.0,bending,1
BMu29,25,C,INI,Trunk_Forward,1,L_MTF,250.0,return,1
BMu29,25,C,INI,Trunk_Forward,1,L_MTF,250.0,bending,2
BMu29,25,C,INI,Trunk_Forward,1,L_MTF,250.0,return,2
BMu29,25,C,INI,Trunk_Forward,1,L_MTF,250.0,bending,3
BMu29,25,C,INI,Trunk_Forward,1,L_MTF,250.0,return,3
BMu29,25,C,INI,Trunk_Forward,1,R_MTF,250.0,bending,1
BMu29,25,C,INI,Trunk_Forward,1,R_MTF,250.0,return,1
BMu29,25,C,INI,Trunk_Forward,1,R_MTF,250.0,bending,2
BMu29,25,C,INI,Trunk_Forward,1,R_MTF,250.0,return,2
BMu29,25,C,INI,Trunk_Forward,1,R_MTF,250.0,bending,3
BMu29,25,C,INI,Trunk_Forward,1,R_MTF,250.0,return,3
BMu29,25,C,REL,Trunk_Forward,1,L_MTF,250.0,bending,1
BMu29,25,C,REL,Trunk_Forward,1,L_MTF,250.0,return,1
BMu29,25,C,REL,Trunk_Forward,1,L_MTF,250.0,bending,2
BMu29,25,C,REL,Trunk_Forward,1,L_MTF,250.0,return,2
BMu29,25,C,REL,Trunk_Forward,1,L_MTF,250.0,bending,3
BMu29,25,C,REL,Trunk_Forward,1,L_MTF,250.0,return,3
BMu29,25,C,REL,Trunk_Forward,1,R_MTF,250.0,bending,1
BMu29,25,C,REL,Trunk_Forward,1,R_MTF,250.0,return,1
BMu29,25,C,REL,Trunk_Forward,1,R_MTF,250.0,bending,2
BMu29,25,C,REL,Trunk_Forward,1,R_MTF,250.0,return,2
BMu29,25,C,REL,Trunk_Forward,1,R_MTF,250.0,bending,3
BMu29,25,C,REL,Trunk_Forward,1,R_MTF,250.0,return,3
BMu29,26,P,INI,Trunk_Forward,1,L_MTF,250.0,bending,1
BMu29,26,P,INI,Trunk_Forward,1,L_MTF,250.0,return,1
BMu29,26,P,INI,Trunk_Forward,1,L_MTF,250.0,bending,2
BMu29,26,P,INI,Trunk_Forward,1,L_MTF,250.0,return,2
BMu29,26,P,INI,Trunk_Forward,1,L_MTF,250.0,bending,3
BMu29,26,P,INI,Trunk_Forward,1,L_MTF,250.0,return,3
BMu29,26,P,INI,Trunk_Forward,1,R_MTF,250.0,bending,1
BMu29,26,P,INI,Trunk_Forward,1,R_MTF,250.0,return,1
BMu29,26,P,INI,Trunk_Forward,1,R_MTF,250.0,bending,2
BMu29,26,P,INI,Trunk_Forward,1,R_MTF,250.0,return,2
BMu29,26,P,INI,Trunk_Forward,1,R_MTF,250.0,bending,3
BMu29,26,P,INI,Trunk_Forward,1,R_MTF,250.0,return,3
BMu29,26,P,REL,Trunk_Forward,1,L_MTF,250.0,bending,1
BMu29,26,P,REL,Trunk_Forward,1,L_MTF,250.0,return,1
BMu29,26,P,REL,Trunk_Forward,1,L_MTF,250.0,bending,2
BMu29,26,P,REL,Trunk_Forward,1,L_MTF,250.0,return,2
BMu29,26,P,REL,Trunk_Forward,1,L_MTF,250.0,bending,3
BMu29,26,P,REL,Trunk_Forward,1,L_MTF,250.0,return,3
BMu29,26,P,REL,Trunk_Forward,1,R_MTF,250.0,bending,1
BMu29,26,P,REL,Trunk_Forward,1,R_MTF,250.0,return,1
BMu29,26,P,REL,Trunk_Forward,1,R_MTF,250.0,bending,2
BMu29,26,P,REL,Trunk_Forward,1,R_MTF,250.0,return,2
BMu29,26,P,REL,Trunk_Forward,1,R_MTF,250.0,bending,3
BMu29,26,P,REL,Trunk_Forward,1,R_MTF,250.0,return,3
BMu29,27,P,INI,Trunk_Forward,1,L_MTF,250.0,bending,1
BMu29,27,P,INI,Trunk_Forward,1,L_MTF,250.0,return,1
BMu29,27,P,INI,Trunk_Forward,1,L_MTF,250.0,bending,2
BMu29,27,P,INI,Trunk_Forward,1,L_MTF,250.0,return,2
BMu29,27,P,INI,Trunk_Forward,1,L_MTF,250.0,bending,3
BMu29,27,P,INI,Trunk_Forward,1,L_MTF,250.0,return,3
BMu29,27,P,INI,Trunk_Forward,1,R_MTF,250.0,bending,1
BMu29,27,P,INI,Trunk_Forward,1,R_MTF,250.0,return,1
BMu29,27,P,INI,Trunk_Forward,1,R_MTF,250.0,bending,2
BMu29,27,P,INI,Trunk_Forward,1,R_MTF,250.0,return,2
BMu29,27,P,INI,Trunk_Forward,1,R_MTF,250.0,bending,3
BMu29,27,P,INI,Trunk_Forward,1,R_MTF,250.0,return,3
BMu29,27,P,REL,Trunk_Forward,1,L_MTF,250.0,bending,1
BMu29,27,P,REL,Trunk_Forward,1,L_MTF,250.0,return,1
BMu29,27,P,REL,Trunk_Forward,1,L_MTF,250.0,bending,2
BMu29,27,P,REL,Trunk_Forward,1,L_MTF,250.0,return,2
BMu29,27,P,REL,Trunk_Forward,1,L_MTF,250.0,bending,3
BMu29,27,P,REL,Trunk_Forward,1,L_MTF,250.0,return,3
BMu29,27,P,REL,Trunk_Forward,1,L_MTF,250.0,bending,4
BMu29,27,P,REL,Trunk_Forward,1,L_MTF,250.0,return,4
BMu29,27,P,REL,Trunk_Forward,1,R_MTF,250.0,bending,1
BMu29,27,P,REL,Trunk_Forward,1,R_MTF,250.0,return,1
BMu29,27,P,REL,Trunk_Forward,1,R_MTF,250.0,bending,2
BMu29,27,P,REL,Trunk_Forward,1,R_MTF,250.0,return,2
BMu29,27,P,REL,Trunk_Forward,1,R_MTF,250.0,bending,3
BMu29,27,P,REL,Trunk_Forward,1,R_MTF,250.0,return,3
BMu29,27,P,REL,Trunk_Forward,1,R_MTF,250.0,bending,4
BMu29,27,P,REL,Trunk_Forward,1,R_MTF,250.0,return,4
BMu29,28,P,INI,Trunk_Forward,1,L_MTF,250.0,bending,1
BMu29,28,P,INI,Trunk_Forward,1,L_MTF,250.0,return,1
BMu29,28,P,INI,Trunk_Forward,1,L_MTF,250.0,bending,2
BMu29,28,P,INI,Trunk_Forward,1,L_MTF,250.0,return,2
BMu29,28,P,INI,Trunk_Forward,1,L_MTF,250.0,bending,3
BMu29,28,P,INI,Trunk_Forward,1,L_MTF,250.0,return,3
BMu29,28,P,INI,Trunk_Forward,1,R_MTF,250.0,bending,1
BMu29,28,P,INI,Trunk_Forward,1,R_MTF,250.0,return,1
BMu29,28,P,INI,Trunk_Forward,1,R_MTF,250.0,bending,2
BMu29,28,P,INI,Trunk_Forward,1,R_MTF,250.0,return,2
BMu29,28,P,INI,Trunk_Forward,1,R_MTF,250.0,bending,3
BMu29,28,P,INI,Trunk_Forward,1,R_MTF,250.0,return,3
BMu29,28,P,REL,Trunk_Forward,1,L_MTF,250.0,bending,1
BMu29,28,P,REL,Trunk_Forward,1,L_MTF,250.0,return,1
BMu29,28,P,REL,Trunk_Forward,1,L_MTF,250.0,bending,2
BMu29,28,P,REL,Trunk_Forward,1,L_MTF,250.0,return,2
BMu29,28,P,REL,Trunk_Forward,1,L_MTF,250.0,bending,3
BMu29,28,P,REL,Trunk_Forward,1,L_MTF,250.0,return,3
BMu29,28,P,REL,Trunk_Forward,1,R_MTF,250.0,bending,1
BMu29,28,P,REL,Trunk_Forward,1,R_MTF,250.0,return,1
BMu29,28,P,REL,Trunk_Forward,1,R_MTF,250.0,bending,2
BMu29,28,P,REL,Trunk_Forward,1,R_MTF,250.0,return,2
BMu29,28,P,REL,Trunk_Forward,1,R_MTF,250.0,bending,3
BMu29,28,P,REL,Trunk_Forward,1,R_MTF,250.0,return,3
BMu29,29,P,INI,Trunk_Forward,1,L_MTF,250.0,bending,1
BMu29,29,P,INI,Trunk_Forward,1,L_MTF,250.0,return,1
BMu29,29,P,INI,Trunk_Forward,1,L_MTF,250.0,bending,2
BMu29,29,P,INI,Trunk_Forward,1,L_MTF,250.0,return,2
BMu29,29,P,INI,Trunk_Forward,1,L_MTF,250.0,bending,3
BMu29,29,P,INI,Trunk_Forward,1,L_MTF,250.0,return,3
BMu29,29,P,INI,Trunk_Forward,1,R_MTF,250.0,bending,1
BMu29,29,P,INI,Trunk_Forward,1,R_MTF,250.0,return,1
BMu29,29,P,INI,Trunk_Forward,1,R_MTF,250.0,bending,2
BMu29,29,P,INI,Trunk_Forward,1,R_MTF,250.0,return,2
BMu29,29,P,INI,Trunk_Forward,1,R_MTF,250.0,bending,3
BMu29,29,P,INI,Trunk_Forward,1,R_MTF,250.0,return,3
BMu29,29,P,REL,Trunk_Forward,1,L_MTF,250.0,bending,1
BMu29,29,P,REL,Trunk_Forward,1,L_MTF,250.0,return,1
BMu29,29,P,REL,Trunk_Forward,1,L_MTF,250.0,bending,2
BMu29,29,P,REL,Trunk_Forward,1,L_MTF,250.0,return,2
BMu29,29,P,REL,Trunk_Forward,1,L_MTF,250.0,bending,3
BMu29,29,P,REL,Trunk_Forward,1,L_MTF,250.0,return,3
BMu29,29,P,REL,Trunk_Forward,1,R_MTF,250.0,bending,1
BMu29,29,P,REL,Trunk_Forward,1,R_MTF,250.0,return,1
BMu29,29,P,REL,Trunk_Forward,1,R_MTF,250.0,bending,2
BMu29,29,P,REL,Trunk_Forward,1,R_MTF,250.0,return,2
BMu29,29,P,REL,Trunk_Forward,1,R_MTF,250.0,bending,3
BMu29,29,P,REL,Trunk_Forward,1,R_MTF,250.0,return,3
BMu29,30,P,INI,Trunk_Forward,1,L_MTF,250.0,bending,1
BMu29,30,P,INI,Trunk_Forward,1,L_MTF,250.0,return,1
BMu29,30,P,INI,Trunk_Forward,1,L_MTF,250.0,bending,2
BMu29,30,P,INI,Trunk_Forward,1,L_MTF,250.0,return,2
BMu29,30,P,INI,Trunk_Forward,1,L_MTF,250.0,bending,3
BMu29,30,P,INI,Trunk_Forward,1,L_MTF,250.0,return,3
BMu29,30,P,INI,Trunk_Forward,1,R_MTF,250.0,bending,1
BMu29,30,P,INI,Trunk_Forward,1,R_MTF,250.0,return,1
BMu29,30,P,INI,Trunk_Forward,1,R_MTF,250.0,bending,2
BMu29,30,P,INI,Trunk_Forward,1,R_MTF,250.0,return,2
BMu29,30,P,INI,Trunk_Forward,1,R_MTF,250.0,bending,3
BMu29,30,P,INI,Trunk_Forward,1,R_MTF,250.0,return,3
BMu29,30,P,REL,Trunk_Forward,1,L_MTF,250.0,bending,1
BMu29,30,P,REL,Trunk_Forward,1,L_MTF,250.0,return,1
BMu29,30,P,REL,Trunk_Forward,1,L_MTF,250.0,bending,2
BMu29,30,P,REL,Trunk_Forward,1,L_MTF,250.0,return,2
BMu29,30,P,REL,Trunk_Forward,1,L_MTF,250.0,bending,3
BMu29,30,P,REL,Trunk_Forward,1,L_MTF,250.0,return,3
BMu29,30,P,REL,Trunk_Forward,1,R_MTF,250.0,bending,1
BMu29,30,P,REL,Trunk_Forward,1,R_MTF,250.0,return,1
BMu29,30,P,REL,Trunk_Forward,1,R_MTF,250.0,bending,2
BMu29,30,P,REL,Trunk_Forward,1,R_MTF,250.0,return,2
BMu29,30,P,REL,Trunk_Forward,1,R_MTF,250.0,bending,3
BMu29,30,P,REL,Trunk_Forward,1,R_MTF,250.0,return,3
BMu29,32,P,INI,Trunk_Forward,1,L_MTF,250.0,bending,1
BMu29,32,P,INI,Trunk_Forward,1,L_MTF,250.0,return,1
BMu29,32,P,INI,Trunk_Forward,1,L_MTF,250.0,bending,2
BMu29,32,P,INI,Trunk_Forward,1,L_MTF,250.0,return,2
BMu29,32,P,INI,Trunk_Forward,1,L_MTF,250.0,bending,3
BMu29,32,P,INI,Trunk_Forward,1,L_MTF,250.0,return,3
BMu29,32,P,INI,Trunk_Forward,1,R_MTF,250.0,bending,1
BMu29,32,P,INI,Trunk_Forward,1,R_MTF,250.0,return,1
BMu29,32,P,INI,Trunk_Forward,1,R_MTF,250.0,bending,2
BMu29,32,P,INI,Trunk_Forward,1,R_MTF,250.0,return,2
BMu29,32,P,INI,Trunk_Forward,1,R_MTF,250.0,bending,3
BMu29,32,P,INI,Trunk_Forward,1,R_MTF,250.0,return,3
BMu29,32,P,REL,Trunk_Forward,1,L_MTF,250.0,bending,1
BMu29,32,P,REL,Trunk_Forward,1,L_MTF,250.0,return,1
BMu29,32,P,REL,Trunk_Forward,1,L_MTF,250.0,bending,2
BMu29,32,P,REL,Trunk_Forward,1,L_MTF,250.0,return,2
BMu29,32,P,REL,Trunk_Forward,1,L_MTF,250.0,bending,3
BMu29,32,P,REL,Trunk_Forward,1,L_MTF,250.0,return,3
BMu29,32,P,REL,Trunk_Forward,1,L_MTF,250.0,bending,4
BMu29,32,P,REL,Trunk_Forward,1,L_MTF,250.0,return,4
BMu29,32,P,REL,Trunk_Forward,1,R_MTF,250.0,bending,1
BMu29,32,P,REL,Trunk_Forward,1,R_MTF,250.0,return,1
BMu29,32,P,REL,Trunk_Forward,1,R_MTF,250.0,bending,2
BMu29,32,P,REL,Trunk_Forward,1,R_MTF,250.0,return,2
BMu29,32,P,REL,Trunk_Forward,1,R_MTF,250.0,bending,3
BMu29,32,P,REL,Trunk_Forward,1,R_MTF,250.0,return,3
BMu29,32,P,REL,Trunk_Forward,1,R_MTF,250.0,bending,4
BMu29,32,P,REL,Trunk_Forward,1,R_MTF,250.0,return,4
BMu29,33,P,INI,Trunk_Forward,1,L_MTF,250.0,bending,1
BMu29,33,P,INI,Trunk_Forward,1,L_MTF,250.0,return,1
BMu29,33,P,INI,Trunk_Forward,1,L_MTF,250.0,bending,2
BMu29,33,P,INI,Trunk_Forward,1,L_MTF,250.0,return,2
BMu29,33,P,INI,Trunk_Forward,1,L_MTF,250.0,bending,3
BMu29,33,P,INI,Trunk_Forward,1,L_MTF,250.0,return,3
BMu29,33,P,INI,Trunk_Forward,1,L_MTF,250.0,bending,4
BMu29,33,P,INI,Trunk_Forward,1,L_MTF,250.0,return,4
BMu29,33,P,INI,Trunk_Forward,1,R_MTF,250.0,bending,1
BMu29,33,P,INI,Trunk_Forward,1,R_MTF,250.0,return,1
BMu29,33,P,INI,Trunk_Forward,1,R_MTF,250.0,bending,2
BMu29,33,P,INI,Trunk_Forward,1,R_MTF,250.0,return,2
BMu29,33,P,INI,Trunk_Forward,1,R_MTF,250.0,bending,3
BMu29,33,P,INI,Trunk_Forward,1,R_MTF,250.0,return,3
BMu29,33,P,INI,Trunk_Forward,1,R_MTF,250.0,bending,4
BMu29,33,P,INI,Trunk_Forward,1,R_MTF,250.0,return,4
BMu29,33,P,REL,Trunk_Forward,1,L_MTF,250.0,bending,1
BMu29,33,P,REL,Trunk_Forward,1,L_MTF,250.0,return,1
BMu29,33,P,REL,Trunk_Forward,1,L_MTF,250.0,bending,2
BMu29,33,P,REL,Trunk_Forward,1,L_MTF,250.0,return,2
BMu29,33,P,REL,Trunk_Forward,1,L_MTF,250.0,bending,3
BMu29,33,P,REL,Trunk_Forward,1,L_MTF,250.0,return,3
BMu29,33,P,REL,Trunk_Forward,1,R_MTF,250.0,bending,1
BMu29,33,P,REL,Trunk_Forward,1,R_MTF,250.0,return,1
BMu29,33,P,REL,Trunk_Forward,1,R_MTF,250.0,bending,2
BMu29,33,P,REL,Trunk_Forward,1,R_MTF,250.0,return,2
BMu29,33,P,REL,Trunk_Forward,1,R_MTF,250.0,bending,3
BMu29,33,P,REL,Trunk_Forward,1,R_MTF,250.0,return,3
BMu29,34,P,INI,Trunk_Forward,1,L_MTF,250.0,bending,1
BMu29,34,P,INI,Trunk_Forward,1,L_MTF,250.0,return,1
BMu29,34,P,INI,Trunk_Forward,1,L_MTF,250.0,bending,2
BMu29,34,P,INI,Trunk_Forward,1,L_MTF,250.0,return,2
BMu29,34,P,INI,Trunk_Forward,1,L_MTF,250.0,bending,3
BMu29,34,P,INI,Trunk_Forward,1,L_MTF,250.0,return,3
BMu29,34,P,INI,Trunk_Forward,1,R_MTF,250.0,bending,1
BMu29,34,P,INI,Trunk_Forward,1,R_MTF,250.0,return,1
BMu29,34,P,INI,Trunk_Forward,1,R_MTF,250.0,bending,2
BMu29,34,P,INI,Trunk_Forward,1,R_MTF,250.0,return,2
BMu29,34,P,INI,Trunk_Forward,1,R_MTF,250.0,bending,3
BMu29,34,P,INI,Trunk_Forward,1,R_MTF,250.0,return,3
BMu29,34,P,REL,Trunk_Forward,1,L_MTF,250.0,bending,1
BMu29,34,P,REL,Trunk_Forward,1,L_MTF,250.0,return,1
BMu29,34,P,REL,Trunk_Forward,1,L_MTF,250.0,bending,2
BMu29,34,P,REL,Trunk_Forward,1,L_MTF,250.0,return,2
BMu29,34,P,REL,Trunk_Forward,1,L_MTF,250.0,bending,3
BMu29,34,P,REL,Trunk_Forward,1,L_MTF,250.0,return,3
BMu29,34,P,REL,Trunk_Forward,1,R_MTF,250.0,bending,1
BMu29,34,P,REL,Trunk_Forward,1,R_MTF,250.0,return,1
BMu29,34,P,REL,Trunk_Forward,1,R_MTF,250.0,bending,2
BMu29,34,P,REL,Trunk_Forward,1,R_MTF,250.0,return,2
BMu29,34,P,REL,Trunk_Forward,1,R_MTF,250.0,bending,3
BMu29,34,P,REL,Trunk_Forward,1,R_MTF,250.0,return,3
BMu29,35,C,INI,Trunk_Forward,1,L_MTF,250.0,bending,1
BMu29,35,C,INI,Trunk_Forward,1,L_MTF,250.0,return,1
BMu29,35,C,INI,Trunk_Forward,1,L_MTF,250.0,bending,2
BMu29,35,C,INI,Trunk_Forward,1,L_MTF,250.0,return,2
BMu29,35,C,INI,Trunk_Forward,1,L_MTF,250.0,bending,3
BMu29,35,C,INI,Trunk_Forward,1,L_MTF,250.0,return,3
BMu29,35,C,INI,Trunk_Forward,1,R_MTF,250.0,bending,1
BMu29,35,C,INI,Trunk_Forward,1,R_MTF,250.0,return,1
BMu29,35,C,INI,Trunk_Forward,1,R_MTF,250.0,bending,2
BMu29,35,C,INI,Trunk_Forward,1,R_MTF,250.0,return,2
BMu29,35,C,INI,Trunk_Forward,1,R_MTF,250.0,bending,3
BMu29,35,C,INI,Trunk_Forward,1,R_MTF,250.0,return,3
BMu29,35,C,REL,Trunk_Forward,1,L_MTF,250.0,bending,1
BMu29,35,C,REL,Trunk_Forward,1,L_MTF,250.0,return,1
BMu29,35,C,REL,Trunk_Forward,1,L_MTF,250.0,bending,2
BMu29,35,C,REL,Trunk_Forward,1,L_MTF,250.0,return,2
BMu29,35,C,REL,Trunk_Forward,1,L_MTF,250.0,bending,3
BMu29,35,C,REL,Trunk_Forward,1,L_MTF,250.0,return,3
BMu29,35,C,REL,Trunk_Forward,1,R_MTF,250.0,bending,1
BMu29,35,C,REL,Trunk_Forward,1,R_MTF,250.0,return,1
BMu29,35,C,REL,Trunk_Forward,1,R_MTF,250.0,bending,2
BMu29,35,C,REL,Trunk_Forward,1,R_MTF,250.0,return,2
BMu29,35,C,REL,Trunk_Forward,1,R_MTF,250.0,bending,3
BMu29,35,C,REL,Trunk_Forward,1,R_MTF,250.0,return,3
BMu29,36,P,INI,Trunk_Forward,1,L_MTF,250.0,bending,1
BMu29,36,P,INI,Trunk_Forward,1,L_MTF,250.0,return,1
BMu29,36,P,INI,Trunk_Forward,1,L_MTF,250.0,bending,2
BMu29,36,P,INI,Trunk_Forward,1,L_MTF,250.0,return,2
BMu29,36,P,INI,Trunk_Forward,1,L_MTF,250.0,bending,3
BMu29,36,P,INI,Trunk_Forward,1,L_MTF,250.0,return,3
BMu29,36,P,INI,Trunk_Forward,1,R_MTF,250.0,bending,1
BMu29,36,P,INI,Trunk_Forward,1,R_MTF,250.0,return,1
BMu29,36,P,INI,Trunk_Forward,1,R_MTF,250.0,bending,2
BMu29,36,P,INI,Trunk_Forward,1,R_MTF,250.0,return,2
BMu29,36,P,INI,Trunk_Forward,1,R_MTF,250.0,bending,3
BMu29,36,P,INI,Trunk_Forward,1,R_MTF,250.0,return,3
BMu29,36,P,REL,Trunk_Forward,1,L_MTF,250.0,bending,1
BMu29,36,P,REL,Trunk_Forward,1,L_MTF,250.0,return,1
BMu29,36,P,REL,Trunk_Forward,1,L_MTF,250.0,bending,2
BMu29,36,P,REL,Trunk_Forward,1,L_MTF,250.0,return,2
BMu29,36,P,REL,Trunk_Forward,1,L_MTF,250.0,bending,3
BMu29,36,P,REL,Trunk_Forward,1,L_MTF,250.0,return,3
BMu29,36,P,REL,Trunk_Forward,1,R_MTF,250.0,bending,1
BMu29,36,P,REL,Trunk_Forward,1,R_MTF,250.0,return,1
BMu29,36,P,REL,Trunk_Forward,1,R_MTF,250.0,bending,2
BMu29,36,P,REL,Trunk_Forward,1,R_MTF,250.0,return,2
BMu29,36,P,REL,Trunk_Forward,1,R_MTF,250.0,bending,3
BMu29,36,P,REL,Trunk_Forward,1,R_MTF,250.0,return,3
BMu29,38,C,INI,Trunk_Forward,1,L_MTF,250.0,bending,1
BMu29,38,C,INI,Trunk_Forward,1,L_MTF,250.0,return,1
BMu29,38,C,INI,Trunk_Forward,1,L_MTF,250.0,bending,2
BMu29,38,C,INI,Trunk_Forward,1,L_MTF,250.0,return,2
BMu29,38,C,INI,Trunk_Forward,1,L_MTF,250.0,bending,3
BMu29,38,C,INI,Trunk_Forward,1,L_MTF,250.0,return,3
BMu29,38,C,INI,Trunk_Forward,1,R_MTF,250.0,bending,1
BMu29,38,C,INI,Trunk_Forward,1,R_MTF,250.0,return,1
BMu29,38,C,INI,Trunk_Forward,1,R_MTF,250.0,bending,2
BMu29,38,C,INI,Trunk_Forward,1,R_MTF,250.0,return,2
BMu29,38,C,INI,Trunk_Forward,1,R_MTF,250.0,bending,3
BMu29,38,C,INI,Trunk_Forward,1,R_MTF,250.0,return,3
BMu29,38,C,REL,Trunk_Forward,1,L_MTF,250.0,bending,1
BMu29,38,C,REL,Trunk_Forward,1,L_MTF,250.0,return,1
BMu29,38,C,REL,Trunk_Forward,1,L_MTF,250.0,bending,2
BMu29,38,C,REL,Trunk_Forward,1,L_MTF,250.0,return,2
BMu29,38,C,REL,Trunk_Forward,1,L_MTF,250.0,bending,3
BMu29,38,C,REL,Trunk_Forward,1,L_MTF,250.0,return,3
BMu29,38,C,REL,Trunk_Forward,1,R_MTF,250.0,bending,1
BMu29,38,C,REL,Trunk_Forward,1,R_MTF,250.0,return,1
BMu29,38,C,REL,Trunk_Forward,1,R_MTF,250.0,bending,2
BMu29,38,C,REL,Trunk_Forward,1,R_MTF,250.0,return,2
BMu29,38,C,REL,Trunk_Forward,1,R_MTF,250.0,bending,3
BMu29,38,C,REL,Trunk_Forward,1,R_MTF,250.0,return,3
BMu29,39,C,INI,Trunk_Forward,1,L_MTF,250.0,bending,1
BMu29,39,C,INI,Trunk_Forward,1,L_MTF,250.0,return,1
BMu29,39,C,INI,Trunk_Forward,1,L_MTF,250.0,bending,2
BMu29,39,C,INI,Trunk_Forward,1,L_MTF,250.0,return,2
BMu29,39,C,INI,Trunk_Forward,1,L_MTF,250.0,bending,3
BMu29,39,C,INI,Trunk_Forward,1,L_MTF,250.0,return,3
BMu29,39,C,INI,Trunk_Forward,1,R_MTF,250.0,bending,1
BMu29,39,C,INI,Trunk_Forward,1,R_MTF,250.0,return,1
BMu29,39,C,INI,Trunk_Forward,1,R_MTF,250.0,bending,2
BMu29,39,C,INI,Trunk_Forward,1,R_MTF,250.0,return,2
BMu29,39,C,INI,Trunk_Forward,1,R_MTF,250.0,bending,3
BMu29,39,C,INI,Trunk_Forward,1,R_MTF,250.0,return,3
BMu29,39,C,REL,Trunk_Forward,1,L_MTF,250.0,bending,1
BMu29,39,C,REL,Trunk_Forward,1,L_MTF,250.0,return,1
BMu29,39,C,REL,Trunk_Forward,1,L_MTF,250.0,bending,2
BMu29,39,C,REL,Trunk_Forward,1,L_MTF,250.0,return,2
BMu29,39,C,REL,Trunk_Forward,1,L_MTF,250.0,bending,3
BMu29,39,C,REL,Trunk_Forward,1,L_MTF,250.0,return,3
BMu29,39,C,REL,Trunk_Forward,1,R_MTF,250.0,bending,1
BMu29,39,C,REL,Trunk_Forward,1,R_MTF,250.0,return,1
BMu29,39,C,REL,Trunk_Forward,1,R_MTF,250.0,bending,2
BMu29,39,C,REL,Trunk_Forward,1,R_MTF,250.0,return,2
BMu29,39,C,REL,Trunk_Forward,1,R_MTF,250.0,bending,3
BMu29,39,C,REL,Trunk_Forward,1,R_MTF,250.0,return,3
BMu29,40,C,INI,Trunk_Forward,1,L_MTF,250.0,bending,1
BMu29,40,C,INI,Trunk_Forward,1,L_MTF,250.0,return,1
BMu29,40,C,INI,Trunk_Forward,1,L_MTF,250.0,bending,2
BMu29,40,C,INI,Trunk_Forward,1,L_MTF,250.0,return,2
BMu29,40,C,INI,Trunk_Forward,1,L_MTF,250.0,bending,3
BMu29,40,C,INI,Trunk_Forward,1,L_MTF,250.0,return,3
BMu29,40,C,INI,Trunk_Forward,1,R_MTF,250.0,bending,1
BMu29,40,C,INI,Trunk_Forward,1,R_MTF,250.0,return,1
BMu29,40,C,INI,Trunk_Forward,1,R_MTF,250.0,bending,2
BMu29,40,C,INI,Trunk_Forward,1,R_MTF,250.0,return,2
BMu29,40,C,INI,Trunk_Forward,1,R_MTF,250.0,bending,3
BMu29,40,C,INI,Trunk_Forward,1,R_MTF,250.0,return,3
BMu29,40,C,REL,Trunk_Forward,1,L_MTF,250.0,bending,1
BMu29,40,C,REL,Trunk_Forward,1,L_MTF,250.0,return,1
BMu29,40,C,REL,Trunk_Forward,1,L_MTF,250.0,bending,2
BMu29,40,C,REL,Trunk_Forward,1,L_MTF,250.0,return,2
BMu29,40,C,REL,Trunk_Forward,1,L_MTF,250.0,bending,3
BMu29,40,C,REL,Trunk_Forward,1,L_MTF,250.0,return,3
BMu29,40,C,REL,Trunk_Forward,1,R_MTF,250.0,bending,1
BMu29,40,C,REL,Trunk_Forward,1,R_MTF,250.0,return,1
BMu29,40,C,REL,Trunk_Forward,1,R_MTF,250.0,bending,2
BMu29,40,C,REL,Trunk_Forward,1,R_MTF,250.0,return,2
BMu29,40,C,REL,Trunk_Forward,1,R_MTF,250.0,bending,3
BMu29,40,C,REL,Trunk_Forward,1,R_MTF,250.0,return,3
BMu29,41,P,INI,Trunk_Forward,1,L_MTF,250.0,bending,1
BMu29,41,P,INI,Trunk_Forward,1,L_MTF,250.0,return,1
BMu29,41,P,INI,Trunk_Forward,1,L_MTF,250.0,bending,2
BMu29,41,P,INI,Trunk_Forward,1,L_MTF,250.0,return,2
BMu29,41,P,INI,Trunk_Forward,1,L_MTF,250.0,bending,3
BMu29,41,P,INI,Trunk_Forward,1,L_MTF,250.0,return,3
BMu29,41,P,INI,Trunk_Forward,1,R_MTF,250.0,bending,1
BMu29,41,P,INI,Trunk_Forward,1,R_MTF,250.0,return,1
BMu29,41,P,INI,Trunk_Forward,1,R_MTF,250.0,bending,2
BMu29,41,P,INI,Trunk_Forward,1,R_MTF,250.0,return,2
BMu29,41,P,INI,Trunk_Forward,1,R_MTF,250.0,bending,3
BMu29,41,P,INI,Trunk_Forward,1,R_MTF,250.0,return,3
BMu29,41,P,REL,Trunk_Forward,1,L_MTF,250.0,bending,1
BMu29,41,P,REL,Trunk_Forward,1,L_MTF,250.0,return,1
BMu29,41,P,REL,Trunk_Forward,1,L_MTF,250.0,bending,2
BMu29,41,P,REL,Trunk_Forward,1,L_MTF,250.0,return,2
BMu29,41,P,REL,Trunk_Forward,1,L_MTF,250.0,bending,3
BMu29,41,P,REL,Trunk_Forward,1,L_MTF,250.0,return,3
BMu29,41,P,REL,Trunk_Forward,1,R_MTF,250.0,bending,1
BMu29,41,P,REL,Trunk_Forward,1,R_MTF,250.0,return,1
BMu29,41,P,REL,Trunk_Forward,1,R_MTF,250.0,bending,2
BMu29,41,P,REL,Trunk_Forward,1,R_MTF,250.0,return,2
BMu29,41,P,REL,Trunk_Forward,1,R_MTF,250.0,bending,3
BMu29,41,P,REL,Trunk_Forward,1,R_MTF,250.0,return,3
BMu29,42,P,INI,Trunk_Forward,1,L_MTF,250.0,bending,1
BMu29,42,P,INI,Trunk_Forward,1,L_MTF,250.0,return,1
BMu29,42,P,INI,Trunk_Forward,1,L_MTF,250.0,bending,2
BMu29,42,P,INI,Trunk_Forward,1,L_MTF,250.0,return,2
BMu29,42,P,INI,Trunk_Forward,1,L_MTF,250.0,bending,3
BMu29,42,P,INI,Trunk_Forward,1,L_MTF,250.0,return,3
BMu29,42,P,INI,Trunk_Forward,1,R_MTF,250.0,bending,1
BMu29,42,P,INI,Trunk_Forward,1,R_MTF,250.0,return,1
BMu29,42,P,INI,Trunk_Forward,1,R_MTF,250.0,bending,2
BMu29,42,P,INI,Trunk_Forward,1,R_MTF,250.0,return,2
BMu29,42,P,INI,Trunk_Forward,1,R_MTF,250.0,bending,3
BMu29,42,P,INI,Trunk_Forward,1,R_MTF,250.0,return,3
BMu29,42,P,REL,Trunk_Forward,1,L_MTF,250.0,bending,1
BMu29,42,P,REL,Trunk_Forward,1,L_MTF,250.0,return,1
BMu29,42,P,REL,Trunk_Forward,1,L_MTF,250.0,bending,2
BMu29,42,P,REL,Trunk_Forward,1,L_MTF,250.0,return,2
BMu29,42,P,REL,Trunk_Forward,1,L_MTF,250.0,bending,3
BMu29,42,P,REL,Trunk_Forward,1,L_MTF,250.0,return,3
BMu29,42,P,REL,Trunk_Forward,1,R_MTF,250.0,bending,1
BMu29,42,P,REL,Trunk_Forward,1,R_MTF,250.0,return,1
BMu29,42,P,REL,Trunk_Forward,1,R_MTF,250.0,bending,2
BMu29,42,P,REL,Trunk_Forward,1,R_MTF,250.0,return,2
BMu29,42,P,REL,Trunk_Forward,1,R_MTF,250.0,bending,3
BMu29,42,P,REL,Trunk_Forward,1,R_MTF,250.0,return,3
BMu29,43,P,INI,Trunk_Forward,1,L_MTF,250.0,bending,1
BMu29,43,P,INI,Trunk_Forward,1,L_MTF,250.0,return,1
BMu29,43,P,INI,Trunk_Forward,1,L_MTF,250.0,bending,2
BMu29,43,P,INI,Trunk_Forward,1,L_MTF,250.0,return,2
BMu29,43,P,INI,Trunk_Forward,1,L_MTF,250.0,bending,3
BMu29,43,P,INI,Trunk_Forward,1,L_MTF,250.0,return,3
BMu29,43,P,INI,Trunk_Forward,1,R_MTF,250.0,bending,1
BMu29,43,P,INI,Trunk_Forward,1,R_MTF,250.0,return,1
BMu29,43,P,INI,Trunk_Forward,1,R_MTF,250.0,bending,2
BMu29,43,P,INI,Trunk_Forward,1,R_MTF,250.0,return,2
BMu29,43,P,INI,Trunk_Forward,1,R_MTF,250.0,bending,3
BMu29,43,P,INI,Trunk_Forward,1,R_MTF,250.0,return,3
BMu29,43,P,REL,Trunk_Forward,1,L_MTF,250.0,bending,1
BMu29,43,P,REL,Trunk_Forward,1,L_MTF,250.0,return,1
BMu29,43,P,REL,Trunk_Forward,1,L_MTF,250.0,bending,2
BMu29,43,P,REL,Trunk_Forward,1,L_MTF,250.0,return,2
BMu29,43,P,REL,Trunk_Forward,1,L_MTF,250.0,bending,3
BMu29,43,P,REL,Trunk_Forward,1,L_MTF,250.0,return,3
BMu29,43,P,REL,Trunk_Forward,1,R_MTF,250.0,bending,1
BMu29,43,P,REL,Trunk_Forward,1,R_MTF,250.0,return,1
BMu29,43,P,REL,Trunk_Forward,1,R_MTF,250.0,bending,2
BMu29,43,P,REL,Trunk_Forward,1,R_MTF,250.0,return,2
BMu29,43,P,REL,Trunk_Forward,1,R_MTF,250.0,bending,3
BMu29,43,P,REL,Trunk_Forward,1,R_MTF,250.0,return,3
BMu29,44,C,INI,Trunk_Forward,1,L_MTF,250.0,bending,1
BMu29,44,C,INI,Trunk_Forward,1,L_MTF,250.0,return,1
BMu29,44,C,INI,Trunk_Forward,1,L_MTF,250.0,bending,2
BMu29,44,C,INI,Trunk_Forward,1,L_MTF,250.0,return,2
BMu29,44,C,INI,Trunk_Forward,1,L_MTF,250.0,bending,3
BMu29,44,C,INI,Trunk_Forward,1,L_MTF,250.0,return,3
BMu29,44,C,INI,Trunk_Forward,1,R_MTF,250.0,bending,1
BMu29,44,C,INI,Trunk_Forward,1,R_MTF,250.0,return,1
BMu29,44,C,INI,Trunk_Forward,1,R_MTF,250.0,bending,2
BMu29,44,C,INI,Trunk_Forward,1,R_MTF,250.0,return,2
BMu29,44,C,INI,Trunk_Forward,1,R_MTF,250.0,bending,3
BMu29,44,C,INI,Trunk_Forward,1,R_MTF,250.0,return,3
BMu29,44,C,REL,Trunk_Forward,1,L_MTF,250.0,bending,1
BMu29,44,C,REL,Trunk_Forward,1,L_MTF,250.0,return,1
BMu29,44,C,REL,Trunk_Forward,1,L_MTF,250.0,bending,2
BMu29,44,C,REL,Trunk_Forward,1,L_MTF,250.0,return,2
BMu29,44,C,REL,Trunk_Forward,1,L_MTF,250.0,bending,3
BMu29,44,C,REL,Trunk_Forward,1,L_MTF,250.0,return,3
BMu29,44,C,REL,Trunk_Forward,1,R_MTF,250.0,bending,1
BMu29,44,C,REL,Trunk_Forward,1,R_MTF,250.0,return,1
BMu29,44,C,REL,Trunk_Forward,1,R_MTF,250.0,bending,2
BMu29,44,C,REL,Trunk_Forward,1,R_MTF,250.0,return,2
BMu29,44,C,REL,Trunk_Forward,1,R_MTF,250.0,bending,3
BMu29,44,C,REL,Trunk_Forward,1,R_MTF,250.0,return,3
BMu29,45,P,INI,Trunk_Forward,1,L_MTF,250.0,bending,1
BMu29,45,P,INI,Trunk_Forward,1,L_MTF,250.0,return,1
BMu29,45,P,INI,Trunk_Forward,1,L_MTF,250.0,bending,2
BMu29,45,P,INI,Trunk_Forward,1,L_MTF,250.0,return,2
BMu29,45,P,INI,Trunk_Forward,1,L_MTF,250.0,bending,3
BMu29,45,P,INI,Trunk_Forward,1,L_MTF,250.0,return,3
BMu29,45,P,INI,Trunk_Forward,1,R_MTF,250.0,bending,1
BMu29,45,P,INI,Trunk_Forward,1,R_MTF,250.0,return,1
BMu29,45,P,INI,Trunk_Forward,1,R_MTF,250.0,bending,2
BMu29,45,P,INI,Trunk_Forward,1,R_MTF,250.0,return,2
BMu29,45,P,INI,Trunk_Forward,1,R_MTF,250.0,bending,3
BMu29,45,P,INI,Trunk_Forward,1,R_MTF,250.0,return,3
BMu29,45,P,REL,Trunk_Forward,1,L_MTF,250.0,bending,1
BMu29,45,P,REL,Trunk_Forward,1,L_MTF,250.0,return,1
BMu29,45,P,REL,Trunk_Forward,1,L_MTF,250.0,bending,2
BMu29,45,P,REL,Trunk_Forward,1,L_MTF,250.0,return,2
BMu29,45,P,REL,Trunk_Forward,1,L_MTF,250.0,bending,3
BMu29,45,P,REL,Trunk_Forward,1,L_MTF,250.0,return,3
BMu29,45,P,REL,Trunk_Forward,1,R_MTF,250.0,bending,1
BMu29,45,P,REL,Trunk_Forward,1,R_MTF,250.0,return,1
BMu29,45,P,REL,Trunk_Forward,1,R_MTF,250.0,bending,2
BMu29,45,P,REL,Trunk_Forward,1,R_MTF,250.0,return,2
BMu29,45,P,REL,Trunk_Forward,1,R_MTF,250.0,bending,3
BMu29,45,P,REL,Trunk_Forward,1,R_MTF,250.0,return,3
BMu29,46,C,INI,Trunk_Forward,1,L_MTF,250.0,bending,1
BMu29,46,C,INI,Trunk_Forward,1,L_MTF,250.0,return,1
BMu29,46,C,INI,Trunk_Forward,1,L_MTF,250.0,bending,2
BMu29,46,C,INI,Trunk_Forward,1,L_MTF,250.0,return,2
BMu29,46,C,INI,Trunk_Forward,1,L_MTF,250.0,bending,3
BMu29,46,C,INI,Trunk_Forward,1,L_MTF,250.0,return,3
BMu29,46,C,INI,Trunk_Forward,1,R_MTF,250.0,bending,1
BMu29,46,C,INI,Trunk_Forward,1,R_MTF,250.0,return,1
BMu29,46,C,INI,Trunk_Forward,1,R_MTF,250.0,bending,2
BMu29,46,C,INI,Trunk_Forward,1,R_MTF,250.0,return,2
BMu29,46,C,INI,Trunk_Forward,1,R_MTF,250.0,bending,3
BMu29,46,C,INI,Trunk_Forward,1,R_MTF,250.0,return,3
BMu29,46,C,REL,Trunk_Forward,1,L_MTF,250.0,bending,1
BMu29,46,C,REL,Trunk_Forward,1,L_MTF,250.0,return,1
BMu29,46,C,REL,Trunk_Forward,1,L_MTF,250.0,bending,2
BMu29,46,C,REL,Trunk_Forward,1,L_MTF,250.0,return,2
BMu29,46,C,REL,Trunk_Forward,1,L_MTF,250.0,bending,3
BMu29,46,C,REL,Trunk_Forward,1,L_MTF,250.0,return,3
BMu29,46,C,REL,Trunk_Forward,1,R_MTF,250.0,bending,1
BMu29,46,C,REL,Trunk_Forward,1,R_MTF,250.0,return,1
BMu29,46,C,REL,Trunk_Forward,1,R_MTF,250.0,bending,2
BMu29,46,C,REL,Trunk_Forward,1,R_MTF,250.0,return,2
BMu29,46,C,REL,Trunk_Forward,1,R_MTF,250.0,bending,3
BMu29,46,C,REL,Trunk_Forward,1,R_MTF,250.0,return,3
BMu29,47,P,INI,Trunk_Forward,1,L_MTF,250.0,bending,1
BMu29,47,P,INI,Trunk_Forward,1,L_MTF,250.0,return,1
BMu29,47,P,INI,Trunk_Forward,1,L_MTF,250.0,bending,2
BMu29,47,P,INI,Trunk_Forward,1,L_MTF,250.0,return,2
BMu29,47,P,INI,Trunk_Forward,1,L_MTF,250.0,bending,3
BMu29,47,P,INI,Trunk_Forward,1,L_MTF,250.0,return,3
BMu29,47,P,INI,Trunk_Forward,1,R_MTF,250.0,bending,1
BMu29,47,P,INI,Trunk_Forward,1,R_MTF,250.0,return,1
BMu29,47,P,INI,Trunk_Forward,1,R_MTF,250.0,bending,2
BMu29,47,P,INI,Trunk_Forward,1,R_MTF,250.0,return,2
BMu29,47,P,INI,Trunk_Forward,1,R_MTF,250.0,bending,3
BMu29,47,P,INI,Trunk_Forward,1,R_MTF,250.0,return,3
BMu29,47,P,REL,Trunk_Forward,1,L_MTF,250.0,bending,1
BMu29,47,P,REL,Trunk_Forward,1,L_MTF,250.0,return,1
BMu29,47,P,REL,Trunk_Forward,1,L_MTF,250.0,bending,2
BMu29,47,P,REL,Trunk_Forward,1,L_MTF,250.0,return,2
BMu29,47,P,REL,Trunk_Forward,1,L_MTF,250.0,bending,3
BMu29,47,P,REL,Trunk_Forward,1,L_MTF,250.0,return,3
BMu29,47,P,REL,Trunk_Forward,1,R_MTF,250.0,bending,1
BMu29,47,P,REL,Trunk_Forward,1,R_MTF,250.0,return,1
BMu29,47,P,REL,Trunk_Forward,1,R_MTF,250.0,bending,2
BMu29,47,P,REL,Trunk_Forward,1,R_MTF,250.0,return,2
BMu29,47,P,REL,Trunk_Forward,1,R_MTF,250.0,bending,3
BMu29,47,P,REL,Trunk_Forward,1,R_MTF,250.0,return,3
BMu29,48,C,INI,Trunk_Forward,1,L_MTF,250.0,bending,1
BMu29,48,C,INI,Trunk_Forward,1,L_MTF,250.0,return,1
BMu29,48,C,INI,Trunk_Forward,1,L_MTF,250.0,bending,2
BMu29,48,C,INI,Trunk_Forward,1,L_MTF,250.0,return,2
BMu29,48,C,INI,Trunk_Forward,1,L_MTF,250.0,bending,3
BMu29,48,C,INI,Trunk_Forward,1,L_MTF,250.0,return,3
BMu29,48,C,INI,Trunk_Forward,1,R_MTF,250.0,bending,1
BMu29,48,C,INI,Trunk_Forward,1,R_MTF,250.0,return,1
BMu29,48,C,INI,Trunk_Forward,1,R_MTF,250.0,bending,2
BMu29,48,C,INI,Trunk_Forward,1,R_MTF,250.0,return,2
BMu29,48,C,INI,Trunk_Forward,1,R_MTF,250.0,bending,3
BMu29,48,C,INI,Trunk_Forward,1,R_MTF,250.0,return,3
BMu29,48,C,REL,Trunk_Forward,1,L_MTF,250.0,bending,1
BMu29,48,C,REL,Trunk_Forward,1,L_MTF,250.0,return,1
BMu29,48,C,REL,Trunk_Forward,1,L_MTF,250.0,bending,2
BMu29,48,C,REL,Trunk_Forward,1,L_MTF,250.0,return,2
BMu29,48,C,REL,Trunk_Forward,1,L_MTF,250.0,bending,3
BMu29,48,C,REL,Trunk_Forward,1,L_MTF,250.0,return,3
BMu29,48,C,REL,Trunk_Forward,1,R_MTF,250.0,bending,1
BMu29,48,C,REL,Trunk_Forward,1,R_MTF,250.0,return,1
BMu29,48,C,REL,Trunk_Forward,1,R_MTF,250.0,bending,2
BMu29,48,C,REL,Trunk_Forward,1,R_MTF,250.0,return,2
BMu29,48,C,REL,Trunk_Forward,1,R_MTF,250.0,bending,3
BMu29,48,C,REL,Trunk_Forward,1,R_MTF,250.0,return,3
BMu29,49,C,INI,Trunk_Forward,1,L_MTF,250.0,bending,1
BMu29,49,C,INI,Trunk_Forward,1,L_MTF,250.0,return,1
BMu29,49,C,INI,Trunk_Forward,1,L_MTF,250.0,bending,2
BMu29,49,C,INI,Trunk_Forward,1,L_MTF,250.0,return,2
BMu29,49,C,INI,Trunk_Forward,1,L_MTF,250.0,bending,3
BMu29,49,C,INI,Trunk_Forward,1,L_MTF,250.0,return,3
BMu29,49,C,INI,Trunk_Forward,1,R_MTF,250.0,bending,1
BMu29,49,C,INI,Trunk_Forward,1,R_MTF,250.0,return,1
BMu29,49,C,INI,Trunk_Forward,1,R_MTF,250.0,bending,2
BMu29,49,C,INI,Trunk_Forward,1,R_MTF,250.0,return,2
BMu29,49,C,INI,Trunk_Forward,1,R_MTF,250.0,bending,3
BMu29,49,C,INI,Trunk_Forward,1,R_MTF,250.0,return,3
BMu29,49,C,REL,Trunk_Forward,1,L_MTF,250.0,bending,1
BMu29,49,C,REL,Trunk_Forward,1,L_MTF,250.0,return,1
BMu29,49,C,REL,Trunk_Forward,1,L_MTF,250.0,bending,2
BMu29,49,C,REL,Trunk_Forward,1,L_MTF,250.0,return,2
BMu29,49,C,REL,Trunk_Forward,1,L_MTF,250.0,bending,3
BMu29,49,C,REL,Trunk_Forward,1,L_MTF,250.0,return,3
BMu29,49,C,REL,Trunk_Forward,1,R_MTF,250.0,bending,1
BMu29,49,C,REL,Trunk_Forward,1,R_MTF,250.0,return,1
BMu29,49,C,REL,Trunk_Forward,1,R_MTF,250.0,bending,2
BMu29,49,C,REL,Trunk_Forward,1,R_MTF,250.0,return,2
BMu29,49,C,REL,Trunk_Forward,1,R_MTF,250.0,bending,3
BMu29,49,C,REL,Trunk_Forward,1,R_MTF,250.0,return,3
BMu29,50,P,INI,Trunk_Forward,1,L_MTF,250.0,bending,1
BMu29,50,P,INI,Trunk_Forward,1,L_MTF,250.0,return,1
BMu29,50,P,INI,Trunk_Forward,1,L_MTF,250.0,bending,2
BMu29,50,P,INI,Trunk_Forward,1,L_MTF,250.0,return,2
BMu29,50,P,INI,Trunk_Forward,1,L_MTF,250.0,bending,3
BMu29,50,P,INI,Trunk_Forward,1,L_MTF,250.0,return,3
BMu29,50,P,INI,Trunk_Forward,1,R_MTF,250.0,bending,1
BMu29,50,P,INI,Trunk_Forward,1,R_MTF,250.0,return,1
BMu29,50,P,INI,Trunk_Forward,1,R_MTF,250.0,bending,2
BMu29,50,P,INI,Trunk_Forward,1,R_MTF,250.0,return,2
BMu29,50,P,INI,Trunk_Forward,1,R_MTF,250.0,bending,3
BMu29,50,P,INI,Trunk_Forward,1,R_MTF,250.0,return,3
BMu29,50,P,REL,Trunk_Forward,1,L_MTF,250.0,bending,1
BMu29,50,P,REL,Trunk_Forward,1,L_MTF,250.0,return,1
BMu29,50,P,REL,Trunk_Forward,1,L_MTF,250.0,bending,2
BMu29,50,P,REL,Trunk_Forward,1,L_MTF,250.0,return,2
BMu29,50,P,REL,Trunk_Forward,1,L_MTF,250.0,bending,3
BMu29,50,P,REL,Trunk_Forward,1,L_MTF,250.0,return,3
BMu29,50,P,REL,Trunk_Forward,1,R_MTF,250.0,bending,1
BMu29,50,P,REL,Trunk_Forward,1,R_MTF,250.0,return,1
BMu29,50,P,REL,Trunk_Forward,1,R_MTF,250.0,bending,2
BMu29,50,P,REL,Trunk_Forward,1,R_MTF,250.0,return,2
BMu29,50,P,REL,Trunk_Forward,1,R_MTF,250.0,bending,3
BMu29,50,P,REL,Trunk_Forward,1,R_MTF,250.0,return,3
BMu29,51,P,INI,Trunk_Forward,1,L_MTF,250.0,bending,1
BMu29,51,P,INI,Trunk_Forward,1,L_MTF,250.0,return,1
BMu29,51,P,INI,Trunk_Forward,1,L_MTF,250.0,bending,2
BMu29,51,P,INI,Trunk_Forward,1,L_MTF,250.0,return,2
BMu29,51,P,INI,Trunk_Forward,1,L_MTF,250.0,bending,3
BMu29,51,P,INI,Trunk_Forward,1,L_MTF,250.0,return,3
BMu29,51,P,INI,Trunk_Forward,1,R_MTF,250.0,bending,1
BMu29,51,P,INI,Trunk_Forward,1,R_MTF,250.0,return,1
BMu29,51,P,INI,Trunk_Forward,1,R_MTF,250.0,bending,2
BMu29,51,P,INI,Trunk_Forward,1,R_MTF,250.0,return,2
BMu29,51,P,INI,Trunk_Forward,1,R_MTF,250.0,bending,3
BMu29,51,P,INI,Trunk_Forward,1,R_MTF,250.0,return,3
BMu29,51,P,REL,Trunk_Forward,1,L_MTF,250.0,bending,1
BMu29,51,P,REL,Trunk_Forward,1,L_MTF,250.0,return,1
BMu29,51,P,REL,Trunk_Forward,1,L_MTF,250.0,bending,2
BMu29,51,P,REL,Trunk_Forward,1,L_MTF,250.0,return,2
BMu29,51,P,REL,Trunk_Forward,1,L_MTF,250.0,bending,3
BMu29,51,P,REL,Trunk_Forward,1,L_MTF,250.0,return,3
BMu29,51,P,REL,Trunk_Forward,1,R_MTF,250.0,bending,1
BMu29,51,P,REL,Trunk_Forward,1,R_MTF,250.0,return,1
BMu29,51,P,REL,Trunk_Forward,1,R_MTF,250.0,bending,2
BMu29,51,P,REL,Trunk_Forward,1,R_MTF,250.0,return,2
BMu29,51,P,REL,Trunk_Forward,1,R_MTF,250.0,bending,3
BMu29,51,P,REL,Trunk_Forward,1,R_MTF,250.0,return,3
BMu29,52,C,INI,Trunk_Forward,1,L_MTF,250.0,bending,1
BMu29,52,C,INI,Trunk_Forward,1,L_MTF,250.0,return,1
BMu29,52,C,INI,Trunk_Forward,1,L_MTF,250.0,bending,2
BMu29,52,C,INI,Trunk_Forward,1,L_MTF,250.0,return,2
BMu29,52,C,INI,Trunk_Forward,1,L_MTF,250.0,bending,3
BMu29,52,C,INI,Trunk_Forward,1,L_MTF,250.0,return,3
BMu29,52,C,INI,Trunk_Forward,1,R_MTF,250.0,bending,1
BMu29,52,C,INI,Trunk_Forward,1,R_MTF,250.0,return,1
BMu29,52,C,INI,Trunk_Forward,1,R_MTF,250.0,bending,2
BMu29,52,C,INI,Trunk_Forward,1,R_MTF,250.0,return,2
BMu29,52,C,INI,Trunk_Forward,1,R_MTF,250.0,bending,3
BMu29,52,C,INI,Trunk_Forward,1,R_MTF,250.0,return,3
BMu29,52,C,REL,Trunk_Forward,1,L_MTF,250.0,bending,1
BMu29,52,C,REL,Trunk_Forward,1,L_MTF,250.0,return,1
BMu29,52,C,REL,Trunk_Forward,1,L_MTF,250.0,bending,2
BMu29,52,C,REL,Trunk_Forward,1,L_MTF,250.0,return,2
BMu29,52,C,REL,Trunk_Forward,1,L_MTF,250.0,bending,3
BMu29,52,C,REL,Trunk_Forward,1,L_MTF,250.0,return,3
BMu29,52,C,REL,Trunk_Forward,1,R_MTF,250.0,bending,1
BMu29,52,C,REL,Trunk_Forward,1,R_MTF,250.0,return,1
BMu29,52,C,REL,Trunk_Forward,1,R_MTF,250.0,bending,2
BMu29,52,C,REL,Trunk_Forward,1,R_MTF,250.0,return,2
BMu29,52,C,REL,Trunk_Forward,1,R_MTF,250.0,bending,3
BMu29,52,C,REL,Trunk_Forward,1,R_MTF,250.0,return,3
BMu29,53,P,INI,Trunk_Forward,1,L_MTF,250.0,bending,1
BMu29,53,P,INI,Trunk_Forward,1,L_MTF,250.0,return,1
BMu29,53,P,INI,Trunk_Forward,1,L_MTF,250.0,bending,2
BMu29,53,P,INI,Trunk_Forward,1,L_MTF,250.0,return,2
BMu29,53,P,INI,Trunk_Forward,1,L_MTF,250.0,bending,3
BMu29,53,P,INI,Trunk_Forward,1,L_MTF,250.0,return,3
BMu29,53,P,INI,Trunk_Forward,1,R_MTF,250.0,bending,1
BMu29,53,P,INI,Trunk_Forward,1,R_MTF,250.0,return,1
BMu29,53,P,INI,Trunk_Forward,1,R_MTF,250.0,bending,2
BMu29,53,P,INI,Trunk_Forward,1,R_MTF,250.0,return,2
BMu29,53,P,INI,Trunk_Forward,1,R_MTF,250.0,bending,3
BMu29,53,P,INI,Trunk_Forward,1,R_MTF,250.0,return,3
BMu29,53,P,REL,Trunk_Forward,1,L_MTF,250.0,bending,1
BMu29,53,P,REL,Trunk_Forward,1,L_MTF,250.0,return,1
BMu29,53,P,REL,Trunk_Forward,1,L_MTF,250.0,bending,2
BMu29,53,P,REL,Trunk_Forward,1,L_MTF,250.0,return,2
BMu29,53,P,REL,Trunk_Forward,1,L_MTF,250.0,bending,3
BMu29,53,P,REL,Trunk_Forward,1,L_MTF,250.0,return,3
BMu29,53,P,REL,Trunk_Forward,1,R_MTF,250.0,bending,1
BMu29,53,P,REL,Trunk_Forward,1,R_MTF,250.0,return,1
BMu29,53,P,REL,Trunk_Forward,1,R_MTF,250.0,bending,2
BMu29,53,P,REL,Trunk_Forward,1,R_MTF,250.0,return,2
BMu29,53,P,REL,Trunk_Forward,1,R_MTF,250.0,bending,3
BMu29,53,P,REL,Trunk_Forward,1,R_MTF,250.0,return,3
BMu29,54,P,INI,Trunk_Forward,1,L_MTF,250.0,bending,1
BMu29,54,P,INI,Trunk_Forward,1,L_MTF,250.0,return,1
BMu29,54,P,INI,Trunk_Forward,1,L_MTF,250.0,bending,2
BMu29,54,P,INI,Trunk_Forward,1,L_MTF,250.0,return,2
BMu29,54,P,INI,Trunk_Forward,1,L_MTF,250.0,bending,3
BMu29,54,P,INI,Trunk_Forward,1,L_MTF,250.0,return,3
BMu29,54,P,INI,Trunk_Forward,1,R_MTF,250.0,bending,1
BMu29,54,P,INI,Trunk_Forward,1,R_MTF,250.0,return,1
BMu29,54,P,INI,Trunk_Forward,1,R_MTF,250.0,bending,2
BMu29,54,P,INI,Trunk_Forward,1,R_MTF,250.0,return,2
BMu29,54,P,INI,Trunk_Forward,1,R_MTF,250.0,bending,3
BMu29,54,P,INI,Trunk_Forward,1,R_MTF,250.0,return,3
BMu29,54,P,REL,Trunk_Forward,1,L_MTF,250.0,bending,1
BMu29,54,P,REL,Trunk_Forward,1,L_MTF,250.0,return,1
BMu29,54,P,REL,Trunk_Forward,1,L_MTF,250.0,bending,2
BMu29,54,P,REL,Trunk_Forward,1,L_MTF,250.0,return,2
BMu29,54,P,REL,Trunk_Forward,1,L_MTF,250.0,bending,3
BMu29,54,P,REL,Trunk_Forward,1,L_MTF,250.0,return,3
BMu29,54,P,REL,Trunk_Forward,1,R_MTF,250.0,bending,1
BMu29,54,P,REL,Trunk_Forward,1,R_MTF,250.0,return,1
BMu29,54,P,REL,Trunk_Forward,1,R_MTF,250.0,bending,2
BMu29,54,P,REL,Trunk_Forward,1,R_MTF,250.0,return,2
BMu29,54,P,REL,Trunk_Forward,1,R_MTF,250.0,bending,3
BMu29,54,P,REL,Trunk_Forward,1,R_MTF,250.0,return,3
BMu29,55,C,INI,Trunk_Forward,1,L_MTF,250.0,bending,1
BMu29,55,C,INI,Trunk_Forward,1,L_MTF,250.0,return,1
BMu29,55,C,INI,Trunk_Forward,1,L_MTF,250.0,bending,2
BMu29,55,C,INI,Trunk_Forward,1,L_MTF,250.0,return,2
BMu29,55,C,INI,Trunk_Forward,1,L_MTF,250.0,bending,3
BMu29,55,C,INI,Trunk_Forward,1,L_MTF,250.0,return,3
BMu29,55,C,INI,Trunk_Forward,1,R_MTF,250.0,bending,1
BMu29,55,C,INI,Trunk_Forward,1,R_MTF,250.0,return,1
BMu29,55,C,INI,Trunk_Forward,1,R_MTF,250.0,bending,2
BMu29,55,C,INI,Trunk_Forward,1,R_MTF,250.0,return,2
BMu29,55,C,INI,Trunk_Forward,1,R_MTF,250.0,bending,3
BMu29,55,C,INI,Trunk_Forward,1,R_MTF,250.0,return,3
BMu29,55,C,REL,Trunk_Forward,1,L_MTF,250.0,bending,1
BMu29,55,C,REL,Trunk_Forward,1,L_MTF,250.0,return,1
BMu29,55,C,REL,Trunk_Forward,1,L_MTF,250.0,bending,2
BMu29,55,C,REL,Trunk_Forward,1,L_MTF,250.0,return,2
BMu29,55,C,REL,Trunk_Forward,1,L_MTF,250.0,bending,3
BMu29,55,C,REL,Trunk_Forward,1,L_MTF,250.0,return,3
BMu29,55,C,REL,Trunk_Forward,1,R_MTF,250.0,bending,1
BMu29,55,C,REL,Trunk_Forward,1,R_MTF,250.0,return,1
BMu29,55,C,REL,Trunk_Forward,1,R_MTF,250.0,bending,2
BMu29,55,C,REL,Trunk_Forward,1,R_MTF,250.0,return,2
BMu29,55,C,REL,Trunk_Forward,1,R_MTF,250.0,bending,3
BMu29,55,C,REL,Trunk_Forward,1,R_MTF,250.0,return,3
BMu29,56,C,INI,Trunk_Forward,1,L_MTF,250.0,bending,1
BMu29,56,C,INI,Trunk_Forward,1,L_MTF,250.0,return,1
BMu29,56,C,INI,Trunk_Forward,1,L_MTF,250.0,bending,2
BMu29,56,C,INI,Trunk_Forward,1,L_MTF,250.0,return,2
BMu29,56,C,INI,Trunk_Forward,1,L_MTF,250.0,bending,3
BMu29,56,C,INI,Trunk_Forward,1,L_MTF,250.0,return,3
BMu29,56,C,INI,Trunk_Forward,1,R_MTF,250.0,bending,1
BMu29,56,C,INI,Trunk_Forward,1,R_MTF,250.0,return,1
BMu29,56,C,INI,Trunk_Forward,1,R_MTF,250.0,bending,2
BMu29,56,C,INI,Trunk_Forward,1,R_MTF,250.0,return,2
BMu29,56,C,INI,Trunk_Forward,1,R_MTF,250.0,bending,3
BMu29,56,C,INI,Trunk_Forward,1,R_MTF,250.0,return,3
BMu29,56,C,REL,Trunk_Forward,1,L_MTF,250.0,bending,1
BMu29,56,C,REL,Trunk_Forward,1,L_MTF,250.0,return,1
BMu29,56,C,REL,Trunk_Forward,1,L_MTF,250.0,bending,2
BMu29,56,C,REL,Trunk_Forward,1,L_MTF,250.0,return,2
BMu29,56,C,REL,Trunk_Forward,1,L_MTF,250.0,bending,3
BMu29,56,C,REL,Trunk_Forward,1,L_MTF,250.0,return,3
BMu29,56,C,REL,Trunk_Forward,1,R_MTF,250.0,bending,1
BMu29,56,C,REL,Trunk_Forward,1,R_MTF,250.0,return,1
BMu29,56,C,REL,Trunk_Forward,1,R_MTF,250.0,bending,2
BMu29,56,C,REL,Trunk_Forward,1,R_MTF,250.0,return,2
BMu29,56,C,REL,Trunk_Forward,1,R_MTF,250.0,bending,3
BMu29,56,C,REL,Trunk_Forward,1,R_MTF,250.0,return,3
BMu29,57,C,INI,Trunk_Forward,1,L_MTF,250.0,bending,1
BMu29,57,C,INI,Trunk_Forward,1,L_MTF,250.0,return,1
BMu29,57,C,INI,Trunk_Forward,1,L_MTF,250.0,bending,2
BMu29,57,C,INI,Trunk_Forward,1,L_MTF,250.0,return,2
BMu29,57,C,INI,Trunk_Forward,1,L_MTF,250.0,bending,3
BMu29,57,C,INI,Trunk_Forward,1,L_MTF,250.0,return,3
BMu29,57,C,INI,Trunk_Forward,1,R_MTF,250.0,bending,1
BMu29,57,C,INI,Trunk_Forward,1,R_MTF,250.0,return,1
BMu29,57,C,INI,Trunk_Forward,1,R_MTF,250.0,bending,2
BMu29,57,C,INI,Trunk_Forward,1,R_MTF,250.0,return,2
BMu29,57,C,INI,Trunk_Forward,1,R_MTF,250.0,bending,3
BMu29,57,C,INI,Trunk_Forward,1,R_MTF,250.0,return,3
BMu29,57,C,REL,Trunk_Forward,1,L_MTF,250.0,bending,1
BMu29,57,C,REL,Trunk_Forward,1,L_MTF,250.0,return,1
BMu29,57,C,REL,Trunk_Forward,1,L_MTF,250.0,bending,2
BMu29,57,C,REL,Trunk_Forward,1,L_MTF,250.0,return,2
BMu29,57,C,REL,Trunk_Forward,1,L_MTF,250.0,bending,3
BMu29,57,C,REL,Trunk_Forward,1,L_MTF,250.0,return,3
BMu29,57,C,REL,Trunk_Forward,1,R_MTF,250.0,bending,1
BMu29,57,C,REL,Trunk_Forward,1,R_MTF,250.0,return,1
BMu29,57,C,REL,Trunk_Forward,1,R_MTF,250.0,bending,2
BMu29,57,C,REL,Trunk_Forward,1,R_MTF,250.0,return,2
BMu29,57,C,REL,Trunk_Forward,1,R_MTF,250.0,bending,3
BMu29,57,C,REL,Trunk_Forward,1,R_MTF,250.0,return,3
BMu29,58,P,INI,Trunk_Forward,1,L_MTF,250.0,bending,1
BMu29,58,P,INI,Trunk_Forward,1,L_MTF,250.0,return,1
BMu29,58,P,INI,Trunk_Forward,1,L_MTF,250.0,bending,2
BMu29,58,P,INI,Trunk_Forward,1,L_MTF,250.0,return,2
BMu29,58,P,INI,Trunk_Forward,1,L_MTF,250.0,bending,3
BMu29,58,P,INI,Trunk_Forward,1,L_MTF,250.0,return,3
BMu29,58,P,INI,Trunk_Forward,1,R_MTF,250.0,bending,1
BMu29,58,P,INI,Trunk_Forward,1,R_MTF,250.0,return,1
BMu29,58,P,INI,Trunk_Forward,1,R_MTF,250.0,bending,2
BMu29,58,P,INI,Trunk_Forward,1,R_MTF,250.0,return,2
BMu29,58,P,INI,Trunk_Forward,1,R_MTF,250.0,bending,3
BMu29,58,P,INI,Trunk_Forward,1,R_MTF,250.0,return,3
BMu29,58,P,REL,Trunk_Forward,1,L_MTF,250.0,bending,1
BMu29,58,P,REL,Trunk_Forward,1,L_MTF,250.0,return,1
BMu29,58,P,REL,Trunk_Forward,1,L_MTF,250.0,bending,2
BMu29,58,P,REL,Trunk_Forward,1,L_MTF,250.0,return,2
BMu29,58,P,REL,Trunk_Forward,1,L_MTF,250.0,bending,3
BMu29,58,P,REL,Trunk_Forward,1,L_MTF,250.0,return,3
BMu29,58,P,REL,Trunk_Forward,1,R_MTF,250.0,bending,1
BMu29,58,P,REL,Trunk_Forward,1,R_MTF,250.0,return,1
BMu29,58,P,REL,Trunk_Forward,1,R_MTF,250.0,bending,2
BMu29,58,P,REL,Trunk_Forward,1,R_MTF,250.0,return,2
BMu29,58,P,REL,Trunk_Forward,1,R_MTF,250.0,bending,3
BMu29,58,P,REL,Trunk_Forward,1,R_MTF,250.0,return,3
BMu29,60,C,INI,Trunk_Forward,1,L_MTF,250.0,bending,1
BMu29,60,C,INI,Trunk_Forward,1,L_MTF,250.0,return,1
BMu29,60,C,INI,Trunk_Forward,1,L_MTF,250.0,bending,2
BMu29,60,C,INI,Trunk_Forward,1,L_MTF,250.0,return,2
BMu29,60,C,INI,Trunk_Forward,1,L_MTF,250.0,bending,3
BMu29,60,C,INI,Trunk_Forward,1,L_MTF,250.0,return,3
BMu29,60,C,INI,Trunk_Forward,1,R_MTF,250.0,bending,1
BMu29,60,C,INI,Trunk_Forward,1,R_MTF,250.0,return,1
BMu29,60,C,INI,Trunk_Forward,1,R_MTF,250.0,bending,2
BMu29,60,C,INI,Trunk_Forward,1,R_MTF,250.0,return,2
BMu29,60,C,INI,Trunk_Forward,1,R_MTF,250.0,bending,3
BMu29,60,C,INI,Trunk_Forward,1,R_MTF,250.0,return,3
BMu29,60,C,REL,Trunk_Forward,1,L_MTF,250.0,bending,1
BMu29,60,C,REL,Trunk_Forward,1,L_MTF,250.0,return,1
BMu29,60,C,REL,Trunk_Forward,1,L_MTF,250.0,bending,2
BMu29,60,C,REL,Trunk_Forward,1,L_MTF,250.0,return,2
BMu29,60,C,REL,Trunk_Forward,1,L_MTF,250.0,bending,3
BMu29,60,C,REL,Trunk_Forward,1,L_MTF,250.0,return,3
BMu29,60,C,REL,Trunk_Forward,1,R_MTF,250.0,bending,1
BMu29,60,C,REL,Trunk_Forward,1,R_MTF,250.0,return,1
BMu29,60,C,REL,Trunk_Forward,1,R_MTF,250.0,bending,2
BMu29,60,C,REL,Trunk_Forward,1,R_MTF,250.0,return,2
BMu29,60,C,REL,Trunk_Forward,1,R_MTF,250.0,bending,3
BMu29,60,C,REL,Trunk_Forward,1,R_MTF,250.0,return,3
BMu29,61,P,INI,Trunk_Forward,1,L_MTF,250.0,bending,1
BMu29,61,P,INI,Trunk_Forward,1,L_MTF,250.0,return,1
BMu29,61,P,INI,Trunk_Forward,1,L_MTF,250.0,bending,2
BMu29,61,P,INI,Trunk_Forward,1,L_MTF,250.0,return,2
BMu29,61,P,INI,Trunk_Forward,1,L_MTF,250.0,bending,3
BMu29,61,P,INI,Trunk_Forward,1,L_MTF,250.0,return,3
BMu29,61,P,INI,Trunk_Forward,1,R_MTF,250.0,bending,1
BMu29,61,P,INI,Trunk_Forward,1,R_MTF,250.0,return,1
BMu29,61,P,INI,Trunk_Forward,1,R_MTF,250.0,bending,2
BMu29,61,P,INI,Trunk_Forward,1,R_MTF,250.0,return,2
BMu29,61,P,INI,Trunk_Forward,1,R_MTF,250.0,bending,3
BMu29,61,P,INI,Trunk_Forward,1,R_MTF,250.0,return,3
BMu29,61,P,REL,Trunk_Forward,1,L_MTF,250.0,bending,1
BMu29,61,P,REL,Trunk_Forward,1,L_MTF,250.0,return,1
BMu29,61,P,REL,Trunk_Forward,1,L_MTF,250.0,bending,2
BMu29,61,P,REL,Trunk_Forward,1,L_MTF,250.0,return,2
BMu29,61,P,REL,Trunk_Forward,1,L_MTF,250.0,bending,3
BMu29,61,P,REL,Trunk_Forward,1,L_MTF,250.0,return,3
BMu29,61,P,REL,Trunk_Forward,1,R_MTF,250.0,bending,1
BMu29,61,P,REL,Trunk_Forward,1,R_MTF,250.0,return,1
BMu29,61,P,REL,Trunk_Forward,1,R_MTF,250.0,bending,2
BMu29,61,P,REL,Trunk_Forward,1,R_MTF,250.0,return,2
BMu29,61,P,REL,Trunk_Forward,1,R_MTF,250.0,bending,3
BMu29,61,P,REL,Trunk_Forward,1,R_MTF,250.0,return,3
BMu29,62,P,INI,Trunk_Forward,1,L_MTF,250.0,bending,1
BMu29,62,P,INI,Trunk_Forward,1,L_MTF,250.0,return,1
BMu29,62,P,INI,Trunk_Forward,1,L_MTF,250.0,bending,2
BMu29,62,P,INI,Trunk_Forward,1,L_MTF,250.0,return,2
BMu29,62,P,INI,Trunk_Forward,1,L_MTF,250.0,bending,3
BMu29,62,P,INI,Trunk_Forward,1,L_MTF,250.0,return,3
BMu29,62,P,INI,Trunk_Forward,1,R_MTF,250.0,bending,1
BMu29,62,P,INI,Trunk_Forward,1,R_MTF,250.0,return,1
BMu29,62,P,INI,Trunk_Forward,1,R_MTF,250.0,bending,2
BMu29,62,P,INI,Trunk_Forward,1,R_MTF,250.0,return,2
BMu29,62,P,INI,Trunk_Forward,1,R_MTF,250.0,bending,3
BMu29,62,P,INI,Trunk_Forward,1,R_MTF,250.0,return,3
BMu29,62,P,REL,Trunk_Forward,1,L_MTF,250.0,bending,1
BMu29,62,P,REL,Trunk_Forward,1,L_MTF,250.0,return,1
BMu29,62,P,REL,Trunk_Forward,1,L_MTF,250.0,bending,2
BMu29,62,P,REL,Trunk_Forward,1,L_MTF,250.0,return,2
BMu29,62,P,REL,Trunk_Forward,1,L_MTF,250.0,bending,3
BMu29,62,P,REL,Trunk_Forward,1,L_MTF,250.0,return,3
BMu29,62,P,REL,Trunk_Forward,1,R_MTF,250.0,bending,1
BMu29,62,P,REL,Trunk_Forward,1,R_MTF,250.0,return,1
BMu29,62,P,REL,Trunk_Forward,1,R_MTF,250.0,bending,2
BMu29,62,P,REL,Trunk_Forward,1,R_MTF,250.0,return,2
BMu29,62,P,REL,Trunk_Forward,1,R_MTF,250.0,bending,3
BMu29,62,P,REL,Trunk_Forward,1,R_MTF,250.0,return,3
BMu29,63,P,INI,Trunk_Forward,1,L_MTF,250.0,bending,1
BMu29,63,P,INI,Trunk_Forward,1,L_MTF,250.0,return,1
BMu29,63,P,INI,Trunk_Forward,1,L_MTF,250.0,bending,2
BMu29,63,P,INI,Trunk_Forward,1,L_MTF,250.0,return,2
BMu29,63,P,INI,Trunk_Forward,1,L_MTF,250.0,bending,3
BMu29,63,P,INI,Trunk_Forward,1,L_MTF,250.0,return,3
BMu29,63,P,INI,Trunk_Forward,1,R_MTF,250.0,bending,1
BMu29,63,P,INI,Trunk_Forward,1,R_MTF,250.0,return,1
BMu29,63,P,INI,Trunk_Forward,1,R_MTF,250.0,bending,2
BMu29,63,P,INI,Trunk_Forward,1,R_MTF,250.0,return,2
BMu29,63,P,INI,Trunk_Forward,1,R_MTF,250.0,bending,3
BMu29,63,P,INI,Trunk_Forward,1,R_MTF,250.0,return,3
BMu29,63,P,REL,Trunk_Forward,1,L_MTF,250.0,bending,1
BMu29,63,P,REL,Trunk_Forward,1,L_MTF,250.0,return,1
BMu29,63,P,REL,Trunk_Forward,1,L_MTF,250.0,bending,2
BMu29,63,P,REL,Trunk_Forward,1,L_MTF,250.0,return,2
BMu29,63,P,REL,Trunk_Forward,1,L_MTF,250.0,bending,3
BMu29,63,P,REL,Trunk_Forward,1,L_MTF,250.0,return,3
BMu29,63,P,REL,Trunk_Forward,1,R_MTF,250.0,bending,1
BMu29,63,P,REL,Trunk_Forward,1,R_MTF,250.0,return,1
BMu29,63,P,REL,Trunk_Forward,1,R_MTF,250.0,bending,2
BMu29,63,P,REL,Trunk_Forward,1,R_MTF,250.0,return,2
BMu29,63,P,REL,Trunk_Forward,1,R_MTF,250.0,bending,3
BMu29,63,P,REL,Trunk_Forward,1,R_MTF,250.0,return,3
BMu29,64,C,INI,Trunk_Forward,1,L_MTF,250.0,bending,1
BMu29,64,C,INI,Trunk_Forward,1,L_MTF,250.0,return,1
BMu29,64,C,INI,Trunk_Forward,1,L_MTF,250.0,bending,2
BMu29,64,C,INI,Trunk_Forward,1,L_MTF,250.0,return,2
BMu29,64,C,INI,Trunk_Forward,1,L_MTF,250.0,bending,3
BMu29,64,C,INI,Trunk_Forward,1,L_MTF,250.0,return,3
BMu29,64,C,INI,Trunk_Forward,1,R_MTF,250.0,bending,1
BMu29,64,C,INI,Trunk_Forward,1,R_MTF,250.0,return,1
BMu29,64,C,INI,Trunk_Forward,1,R_MTF,250.0,bending,2
BMu29,64,C,INI,Trunk_Forward,1,R_MTF,250.0,return,2
BMu29,64,C,INI,Trunk_Forward,1,R_MTF,250.0,bending,3
BMu29,64,C,INI,Trunk_Forward,1,R_MTF,250.0,return,3
BMu29,64,C,REL,Trunk_Forward,1,L_MTF,250.0,bending,1
BMu29,64,C,REL,Trunk_Forward,1,L_MTF,250.0,return,1
BMu29,64,C,REL,Trunk_Forward,1,L_MTF,250.0,bending,2
BMu29,64,C,REL,Trunk_Forward,1,L_MTF,250.0,return,2
BMu29,64,C,REL,Trunk_Forward,1,L_MTF,250.0,bending,3
BMu29,64,C,REL,Trunk_Forward,1,L_MTF,250.0,return,3
BMu29,64,C,REL,Trunk_Forward,1,R_MTF,250.0,bending,1
BMu29,64,C,REL,Trunk_Forward,1,R_MTF,250.0,return,1
BMu29,64,C,REL,Trunk_Forward,1,R_MTF,250.0,bending,2
BMu29,64,C,REL,Trunk_Forward,1,R_MTF,250.0,return,2
BMu29,64,C,REL,Trunk_Forward,1,R_MTF,250.0,bending,3
BMu29,64,C,REL,Trunk_Forward,1,R_MTF,250.0,return,3
BMu29,65,P,INI,Trunk_Forward,1,L_MTF,250.0,bending,1
BMu29,65,P,INI,Trunk_Forward,1,L_MTF,250.0,return,1
BMu29,65,P,INI,Trunk_Forward,1,L_MTF,250.0,bending,2
BMu29,65,P,INI,Trunk_Forward,1,L_MTF,250.0,return,2
BMu29,65,P,INI,Trunk_Forward,1,L_MTF,250.0,bending,3
BMu29,65,P,INI,Trunk_Forward,1,L_MTF,250.0,return,3
BMu29,65,P,INI,Trunk_Forward,1,R_MTF,250.0,bending,1
BMu29,65,P,INI,Trunk_Forward,1,R_MTF,250.0,return,1
BMu29,65,P,INI,Trunk_Forward,1,R_MTF,250.0,bending,2
BMu29,65,P,INI,Trunk_Forward,1,R_MTF,250.0,return,2
BMu29,65,P,INI,Trunk_Forward,1,R_MTF,250.0,bending,3
BMu29,65,P,INI,Trunk_Forward,1,R_MTF,250.0,return,3
BMu29,65,P,REL,Trunk_Forward,1,L_MTF,250.0,bending,1
BMu29,65,P,REL,Trunk_Forward,1,L_MTF,250.0,return,1
BMu29,65,P,REL,Trunk_Forward,1,L_MTF,250.0,bending,2
BMu29,65,P,REL,Trunk_Forward,1,L_MTF,250.0,return,2
BMu29,65,P,REL,Trunk_Forward,1,L_MTF,250.0,bending,3
BMu29,65,P,REL,Trunk_Forward,1,L_MTF,250.0,return,3
BMu29,65,P,REL,Trunk_Forward,1,R_MTF,250.0,bending,1
BMu29,65,P,REL,Trunk_Forward,1,R_MTF,250.0,return,1
BMu29,65,P,REL,Trunk_Forward,1,R_MTF,250.0,bending,2
BMu29,65,P,REL,Trunk_Forward,1,R_MTF,250.0,return,2
BMu29,65,P,REL,Trunk_Forward,1,R_MTF,250.0,bending,3
BMu29,65,P,REL,Trunk_Forward,1,R_MTF,250.0,return,3
BMu29,66,C,INI,Trunk_Forward,1,L_MTF,250.0,bending,1
BMu29,66,C,INI,Trunk_Forward,1,L_MTF,250.0,return,1
BMu29,66,C,INI,Trunk_Forward,1,L_MTF,250.0,bending,2
BMu29,66,C,INI,Trunk_Forward,1,L_MTF,250.0,return,2
BMu29,66,C,INI,Trunk_Forward,1,L_MTF,250.0,bending,3
BMu29,66,C,INI,Trunk_Forward,1,L_MTF,250.0,return,3
BMu29,66,C,INI,Trunk_Forward,1,R_MTF,250.0,bending,1
BMu29,66,C,INI,Trunk_Forward,1,R_MTF,250.0,return,1
BMu29,66,C,INI,Trunk_Forward,1,R_MTF,250.0,bending,2
BMu29,66,C,INI,Trunk_Forward,1,R_MTF,250.0,return,2
BMu29,66,C,INI,Trunk_Forward,1,R_MTF,250.0,bending,3
BMu29,66,C,INI,Trunk_Forward,1,R_MTF,250.0,return,3
BMu29,66,C,REL,Trunk_Forward,1,L_MTF,250.0,bending,1
BMu29,66,C,REL,Trunk_Forward,1,L_MTF,250.0,return,1
BMu29,66,C,REL,Trunk_Forward,1,L_MTF,250.0,bending,2
BMu29,66,C,REL,Trunk_Forward,1,L_MTF,250.0,return,2
BMu29,66,C,REL,Trunk_Forward,1,L_MTF,250.0,bending,3
BMu29,66,C,REL,Trunk_Forward,1,L_MTF,250.0,return,3
BMu29,66,C,REL,Trunk_Forward,1,R_MTF,250.0,bending,1
BMu29,66,C,REL,Trunk_Forward,1,R_MTF,250.0,return,1
BMu29,66,C,REL,Trunk_Forward,1,R_MTF,250.0,bending,2
BMu29,66,C,REL,Trunk_Forward,1,R_MTF,250.0,return,2
BMu29,66,C,REL,Trunk_Forward,1,R_MTF,250.0,bending,3
BMu29,66,C,REL,Trunk_Forward,1,R_MTF,250.0,return,3
BMu29,67,C,INI,Trunk_Forward,1,L_MTF,250.0,bending,1
BMu29,67,C,INI,Trunk_Forward,1,L_MTF,250.0,return,1
BMu29,67,C,INI,Trunk_Forward,1,L_MTF,250.0,bending,2
BMu29,67,C,INI,Trunk_Forward,1,L_MTF,250.0,return,2
BMu29,67,C,INI,Trunk_Forward,1,L_MTF,250.0,bending,3
BMu29,67,C,INI,Trunk_Forward,1,L_MTF,250.0,return,3
BMu29,67,C,INI,Trunk_Forward,1,R_MTF,250.0,bending,1
BMu29,67,C,INI,Trunk_Forward,1,R_MTF,250.0,return,1
BMu29,67,C,INI,Trunk_Forward,1,R_MTF,250.0,bending,2
BMu29,67,C,INI,Trunk_Forward,1,R_MTF,250.0,return,2
BMu29,67,C,INI,Trunk_Forward,1,R_MTF,250.0,bending,3
BMu29,67,C,INI,Trunk_Forward,1,R_MTF,250.0,return,3
BMu29,67,C,REL,Trunk_Forward,1,L_MTF,250.0,bending,1
BMu29,67,C,REL,Trunk_Forward,1,L_MTF,250.0,return,1
BMu29,67,C,REL,Trunk_Forward,1,L_MTF,250.0,bending,2
BMu29,67,C,REL,Trunk_Forward,1,L_MTF,250.0,return,2
BMu29,67,C,REL,Trunk_Forward,1,L_MTF,250.0,bending,3
BMu29,67,C,REL,Trunk_Forward,1,L_MTF,250.0,return,3
BMu29,67,C,REL,Trunk_Forward,1,R_MTF,250.0,bending,1
BMu29,67,C,REL,Trunk_Forward,1,R_MTF,250.0,return,1
BMu29,67,C,REL,Trunk_Forward,1,R_MTF,250.0,bending,2
BMu29,67,C,REL,Trunk_Forward,1,R_MTF,250.0,return,2
BMu29,67,C,REL,Trunk_Forward,1,R_MTF,250.0,bending,3
BMu29,67,C,REL,Trunk_Forward,1,R_MTF,250.0,return,3
BMu29,68,C,INI,Trunk_Forward,1,L_MTF,250.0,bending,1
BMu29,68,C,INI,Trunk_Forward,1,L_MTF,250.0,return,1
BMu29,68,C,INI,Trunk_Forward,1,L_MTF,250.0,bending,2
BMu29,68,C,INI,Trunk_Forward,1,L_MTF,250.0,return,2
BMu29,68,C,INI,Trunk_Forward,1,L_MTF,250.0,bending,3
BMu29,68,C,INI,Trunk_Forward,1,L_MTF,250.0,return,3
BMu29,68,C,INI,Trunk_Forward,1,R_MTF,250.0,bending,1
BMu29,68,C,INI,Trunk_Forward,1,R_MTF,250.0,return,1
BMu29,68,C,INI,Trunk_Forward,1,R_MTF,250.0,bending,2
BMu29,68,C,INI,Trunk_Forward,1,R_MTF,250.0,return,2
BMu29,68,C,INI,Trunk_Forward,1,R_MTF,250.0,bending,3
BMu29,68,C,INI,Trunk_Forward,1,R_MTF,250.0,return,3
BMu29,68,C,REL,Trunk_Forward,1,L_MTF,250.0,bending,1
BMu29,68,C,REL,Trunk_Forward,1,L_MTF,250.0,return,1
BMu29,68,C,REL,Trunk_Forward,1,L_MTF,250.0,bending,2
BMu29,68,C,REL,Trunk_Forward,1,L_MTF,250.0,return,2
BMu29,68,C,REL,Trunk_Forward,1,L_MTF,250.0,bending,3
BMu29,68,C,REL,Trunk_Forward,1,L_MTF,250.0,return,3
BMu29,68,C,REL,Trunk_Forward,1,L_MTF,250.0,bending,4
BMu29,68,C,REL,Trunk_Forward,1,L_MTF,250.0,return,4
BMu29,68,C,REL,Trunk_Forward,1,R_MTF,250.0,bending,1
BMu29,68,C,REL,Trunk_Forward,1,R_MTF,250.0,return,1
BMu29,68,C,REL,Trunk_Forward,1,R_MTF,250.0,bending,2
BMu29,68,C,REL,Trunk_Forward,1,R_MTF,250.0,return,2
BMu29,68,C,REL,Trunk_Forward,1,R_MTF,250.0,bending,3
BMu29,68,C,REL,Trunk_Forward,1,R_MTF,250.0,return,3
BMu29,68,C,REL,Trunk_Forward,1,R_MTF,250.0,bending,4
BMu29,68,C,REL,Trunk_Forward,1,R_MTF,250.0,return,4
