BMu,subject,P_C,session,task,trials,channel,value,event,repetition
BMu37,1,C,INI,Trunk_Forward,1,L_EO,111.28358767332277,bending,1
BMu37,1,C,INI,Trunk_Forward,1,L_EO,111.0291824294348,return,1
BMu37,1,C,INI,Trunk_Forward,1,L_EO,111.12219660117837,bending,2
BMu37,1,C,INI,Trunk_Forward,1,L_EO,92.29436504119457,return,2
BMu37,1,C,INI,Trunk_Forward,1,L_EO,109.45990020774916,bending,3
BMu37,1,C,INI,Trunk_Forward,1,L_EO,100.9378979828003,return,3
BMu37,1,C,INI,Trunk_Forward,1,R_EO,100.48309875706093,bending,1
BMu37,1,C,INI,Trunk_Forward,1,R_EO,96.46987037406733,return,1
BMu37,1,C,INI,Trunk_Forward,1,R_EO,100.57088130056302,bending,2
BMu37,1,C,INI,Trunk_Forward,1,R_EO,95.20773362841764,return,2
BMu37,1,C,INI,Trunk_Forward,1,R_EO,97.80479665628344,bending,3
BMu37,1,C,INI,Trunk_Forward,1,R_EO,84.65307384598123,return,3
BMu37,1,C,REL,Trunk_Forward,1,L_EO,95.6632598489796,bending,1
BMu37,1,C,REL,Trunk_Forward,1,L_EO,100.66126381265613,return,1
BMu37,1,C,REL,Trunk_Forward,1,L_EO,102.27457807884973,bending,2
BMu37,1,C,REL,Trunk_Forward,1,L_EO,98.96452719125682,return,2
BMu37,1,C,REL,Trunk_Forward,1,L_EO,96.73922172834287,bending,3
BMu37,1,C,REL,Trunk_Forward,1,L_EO,102.47558614851182,return,3
BMu37,1,C,REL,Trunk_Forward,1,R_EO,96.10476358175345,bending,1
BMu37,1,C,REL,Trunk_Forward,1,R_EO,94.64615219651793,return,1
BMu37,1,C,REL,Trunk_Forward,1,R_EO,87.71910973033863,bending,2
BMu37,1,C,REL,Trunk_Forward,1,R_EO,84.04316473109995,return,2
BMu37,1,C,REL,Trunk_Forward,1,R_EO,89.40802099913277,bending,3
BMu37,1,C,REL,Trunk_Forward,1,R_EO,91.0011798439333,return,3
BMu37,2,C,INI,Trunk_Forward,1,L_EO,85.90656277131602,bending,1
BMu37,2,C,INI,Trunk_Forward,1,L_EO,84.4256751042306,return,1
BMu37,2,C,INI,Trunk_Forward,1,L_EO,86.71691953172643,bending,2
BMu37,2,C,INI,Trunk_Forward,1,L_EO,90.19376423219246,return,2
BMu37,2,C,INI,Trunk_Forward,1,L_EO,85.04382049620594,bending,3
BMu37,2,C,INI,Trunk_Forward,1,L_EO,84.91867273061746,return,3
BMu37,2,C,INI,Trunk_Forward,1,R_EO,105.57533284821541,bending,1
BMu37,2,C,INI,Trunk_Forward,1,R_EO,105.79376631028676,return,1
BMu37,2,C,INI,Trunk_Forward,1,R_EO,108.97679410147697,bending,2
BMu37,2,C,INI,Trunk_Forward,1,R_EO,109.17566459485543,return,2
BMu37,2,C,INI,Trunk_Forward,1,R_EO,108.07924006407701,bending,3
BMu37,2,C,INI,Trunk_Forward,1,R_EO,105.48868554985681,return,3
BMu37,2,C,REL,Trunk_Forward,1,L_EO,80.44842833367576,bending,1
BMu37,2,C,REL,Trunk_Forward,1,L_EO,77.56797741463832,return,1
BMu37,2,C,REL,Trunk_Forward,1,L_EO,79.60145330232899,bending,2
BMu37,2,C,REL,Trunk_Forward,1,L_EO,86.74623054689815,return,2
BMu37,2,C,REL,Trunk_Forward,1,L_EO,84.20453035568411,bending,3
BMu37,2,C,REL,Trunk_Forward,1,L_EO,83.53619513777458,return,3
BMu37,2,C,REL,Trunk_Forward,1,R_EO,92.4494946992617,bending,1
BMu37,2,C,REL,Trunk_Forward,1,R_EO,95.82664845752366,return,1
BMu37,2,C,REL,Trunk_Forward,1,R_EO,94.84653432904203,bending,2
BMu37,2,C,REL,Trunk_Forward,1,R_EO,104.71905932052111,return,2
BMu37,2,C,REL,Trunk_Forward,1,R_EO,101.75772719700674,bending,3
BMu37,2,C,REL,Trunk_Forward,1,R_EO,97.87051342708057,return,3
BMu37,3,C,INI,Trunk_Forward,1,L_EO,139.743060780663,bending,1
BMu37,3,C,INI,Trunk_Forward,1,L_EO,136.39491891651753,return,1
BMu37,3,C,INI,Trunk_Forward,1,L_EO,142.78557335351618,bending,2
BMu37,3,C,INI,Trunk_Forward,1,L_EO,145.57810843529631,return,2
BMu37,3,C,INI,Trunk_Forward,1,L_EO,152.43900400072368,bending,3
BMu37,3,C,INI,Trunk_Forward,1,L_EO,136.53642615993553,return,3
BMu37,3,C,INI,Trunk_Forward,1,R_EO,127.009711300256,bending,1
BMu37,3,C,INI,Trunk_Forward,1,R_EO,127.33114275991299,return,1
BMu37,3,C,INI,Trunk_Forward,1,R_EO,129.97335319847096,bending,2
BMu37,3,C,INI,Trunk_Forward,1,R_EO,128.6643773335659,return,2
BMu37,3,C,INI,Trunk_Forward,1,R_EO,135.1967987823167,bending,3
BMu37,3,C,INI,Trunk_Forward,1,R_EO,127.03522149599145,return,3
BMu37,3,C,REL,Trunk_Forward,1,L_EO,116.474410836277,bending,1
BMu37,3,C,REL,Trunk_Forward,1,L_EO,115.77639955146219,return,1
BMu37,3,C,REL,Trunk_Forward,1,L_EO,125.67546176400533,bending,2
BMu37,3,C,REL,Trunk_Forward,1,L_EO,118.72801391160297,return,2
BMu37,3,C,REL,Trunk_Forward,1,L_EO,125.15087794287406,bending,3
BMu37,3,C,REL,Trunk_Forward,1,L_EO,106.51778848549802,return,3
BMu37,3,C,REL,Trunk_Forward,1,R_EO,112.71755694345586,bending,1
BMu37,3,C,REL,Trunk_Forward,1,R_EO,120.59602477035499,return,1
BMu37,3,C,REL,Trunk_Forward,1,R_EO,129.2928936998388,bending,2
BMu37,3,C,REL,Trunk_Forward,1,R_EO,128.74061807219152,return,2
BMu37,3,C,REL,Trunk_Forward,1,R_EO,129.99949083835727,bending,3
BMu37,3,C,REL,Trunk_Forward,1,R_EO,115.555216454711,return,3
BMu37,5,C,INI,Trunk_Forward,1,L_EO,89.67289999343676,bending,1
BMu37,5,C,INI,Trunk_Forward,1,L_EO,89.0295244606975,return,1
BMu37,5,C,INI,Trunk_Forward,1,L_EO,83.00799770235054,bending,2
BMu37,5,C,INI,Trunk_Forward,1,L_EO,88.31106537616859,return,2
BMu37,5,C,INI,Trunk_Forward,1,L_EO,86.33417906407739,bending,3
BMu37,5,C,INI,Trunk_Forward,1,L_EO,84.9788950051908,return,3
BMu37,5,C,INI,Trunk_Forward,1,R_EO,96.56334868555689,bending,1
BMu37,5,C,INI,Trunk_Forward,1,R_EO,96.3479680950662,return,1
BMu37,5,C,INI,Trunk_Forward,1,R_EO,90.56894934274449,bending,2
BMu37,5,C,INI,Trunk_Forward,1,R_EO,98.39208289253986,return,2
BMu37,5,C,INI,Trunk_Forward,1,R_EO,94.66424142641144,bending,3
BMu37,5,C,INI,Trunk_Forward,1,R_EO,96.58442765265237,return,3
BMu37,5,C,REL,Trunk_Forward,1,L_EO,91.21419328079952,bending,1
BMu37,5,C,REL,Trunk_Forward,1,L_EO,84.8907387701881,return,1
BMu37,5,C,REL,Trunk_Forward,1,L_EO,87.92630153190213,bending,2
BMu37,5,C,REL,Trunk_Forward,1,L_EO,91.38329927668092,return,2
BMu37,5,C,REL,Trunk_Forward,1,L_EO,81.70854117372411,bending,3
BMu37,5,C,REL,Trunk_Forward,1,L_EO,93.74027222894799,return,3
BMu37,5,C,REL,Trunk_Forward,1,L_EO,79.61697445703365,bending,4
BMu37,5,C,REL,Trunk_Forward,1,L_EO,92.63899754902539,return,4
BMu37,5,C,REL,Trunk_Forward,1,R_EO,86.41929760747114,bending,1
BMu37,5,C,REL,Trunk_Forward,1,R_EO,76.8492583809739,return,1
BMu37,5,C,REL,Trunk_Forward,1,R_EO,96.70658492435292,bending,2
BMu37,5,C,REL,Trunk_Forward,1,R_EO,106.65505864732272,return,2
BMu37,5,C,REL,Trunk_Forward,1,R_EO,102.11673494445786,bending,3
BMu37,5,C,REL,Trunk_Forward,1,R_EO,108.06715874684824,return,3
BMu37,5,C,REL,Trunk_Forward,1,R_EO,100.62687546202686,bending,4
BMu37,5,C,REL,Trunk_Forward,1,R_EO,105.55823805526252,return,4
BMu37,6,C,INI,Trunk_Forward,1,L_EO,153.39239661826625,bending,1
BMu37,6,C,INI,Trunk_Forward,1,L_EO,155.5575595762728,return,1
BMu37,6,C,INI,Trunk_Forward,1,L_EO,153.67413079365122,bending,2
BMu37,6,C,INI,Trunk_Forward,1,L_EO,157.244565138581,return,2
BMu37,6,C,INI,Trunk_Forward,1,L_EO,146.50344860397652,bending,3
BMu37,6,C,INI,Trunk_Forward,1,L_EO,154.95965775753422,return,3
BMu37,6,C,INI,Trunk_Forward,1,L_EO,146.55783809850558,bending,4
BMu37,6,C,INI,Trunk_Forward,1,L_EO,150.31615640209282,return,4
BMu37,6,C,INI,Trunk_Forward,1,R_EO,175.20431848852698,bending,1
BMu37,6,C,INI,Trunk_Forward,1,R_EO,171.88311992652933,return,1
BMu37,6,C,INI,Trunk_Forward,1,R_EO,180.28192142085445,bending,2
BMu37,6,C,INI,Trunk_Forward,1,R_EO,178.26258763171884,return,2
BMu37,6,C,INI,Trunk_Forward,1,R_EO,177.82058986186277,bending,3
BMu37,6,C,INI,Trunk_Forward,1,R_EO,179.4456414026792,return,3
BMu37,6,C,INI,Trunk_Forward,1,R_EO,172.52214697458908,bending,4
BMu37,6,C,INI,Trunk_Forward,1,R_EO,169.04870980010182,return,4
BMu37,6,C,REL,Trunk_Forward,1,L_EO,111.24765162941424,bending,1
BMu37,6,C,REL,Trunk_Forward,1,L_EO,131.10889282920823,return,1
BMu37,6,C,REL,Trunk_Forward,1,L_EO,103.32332861627165,bending,2
BMu37,6,C,REL,Trunk_Forward,1,L_EO,126.00009971005603,return,2
BMu37,6,C,REL,Trunk_Forward,1,L_EO,108.20158269562002,bending,3
BMu37,6,C,REL,Trunk_Forward,1,L_EO,126.49079582366788,return,3
BMu37,6,C,REL,Trunk_Forward,1,R_EO,98.27396961768488,bending,1
BMu37,6,C,REL,Trunk_Forward,1,R_EO,137.36680505045854,return,1
BMu37,6,C,REL,Trunk_Forward,1,R_EO,99.79750890035085,bending,2
BMu37,6,C,REL,Trunk_Forward,1,R_EO,134.21297883361552,return,2
BMu37,6,C,REL,Trunk_Forward,1,R_EO,117.0141878068817,bending,3
BMu37,6,C,REL,Trunk_Forward,1,R_EO,125.0939699979422,return,3
BMu37,7,C,INI,Trunk_Forward,1,L_EO,73.21548188234867,bending,1
BMu37,7,C,INI,Trunk_Forward,1,L_EO,58.63521920134872,return,1
BMu37,7,C,INI,Trunk_Forward,1,L_EO,66.22811184338265,bending,2
BMu37,7,C,INI,Trunk_Forward,1,L_EO,52.41343473950306,return,2
BMu37,7,C,INI,Trunk_Forward,1,L_EO,72.22586550781533,bending,3
BMu37,7,C,INI,Trunk_Forward,1,L_EO,69.01814525846638,return,3
BMu37,7,C,INI,Trunk_Forward,1,R_EO,76.2906193603261,bending,1
BMu37,7,C,INI,Trunk_Forward,1,R_EO,65.68509294960565,return,1
BMu37,7,C,INI,Trunk_Forward,1,R_EO,111.2078654798011,bending,2
BMu37,7,C,INI,Trunk_Forward,1,R_EO,81.30027221512191,return,2
BMu37,7,C,INI,Trunk_Forward,1,R_EO,115.61164437919015,bending,3
BMu37,7,C,INI,Trunk_Forward,1,R_EO,115.63221803827882,return,3
BMu37,7,C,REL,Trunk_Forward,1,L_EO,100.06846935149045,bending,1
BMu37,7,C,REL,Trunk_Forward,1,L_EO,94.1424492525713,return,1
BMu37,7,C,REL,Trunk_Forward,1,L_EO,103.09410713566669,bending,2
BMu37,7,C,REL,Trunk_Forward,1,L_EO,74.79103836857774,return,2
BMu37,7,C,REL,Trunk_Forward,1,L_EO,108.780688462851,bending,3
BMu37,7,C,REL,Trunk_Forward,1,L_EO,109.9583247505947,return,3
BMu37,7,C,REL,Trunk_Forward,1,R_EO,107.70377119100641,bending,1
BMu37,7,C,REL,Trunk_Forward,1,R_EO,86.11822875376114,return,1
BMu37,7,C,REL,Trunk_Forward,1,R_EO,102.74352235944032,bending,2
BMu37,7,C,REL,Trunk_Forward,1,R_EO,92.1001237044102,return,2
BMu37,7,C,REL,Trunk_Forward,1,R_EO,103.01988019411034,bending,3
BMu37,7,C,REL,Trunk_Forward,1,R_EO,102.23088212098938,return,3
BMu37,8,C,INI,Trunk_Forward,1,L_EO,89.32353979712418,bending,1
BMu37,8,C,INI,Trunk_Forward,1,L_EO,96.0750980741598,return,1
BMu37,8,C,INI,Trunk_Forward,1,L_EO,96.66360510214837,bending,2
BMu37,8,C,INI,Trunk_Forward,1,L_EO,97.73029751023839,return,2
BMu37,8,C,INI,Trunk_Forward,1,L_EO,106.99044940095911,bending,3
BMu37,8,C,INI,Trunk_Forward,1,L_EO,104.18000987433462,return,3
BMu37,8,C,INI,Trunk_Forward,1,R_EO,102.72492045095831,bending,1
BMu37,8,C,INI,Trunk_Forward,1,R_EO,108.54175479595764,return,1
BMu37,8,C,INI,Trunk_Forward,1,R_EO,117.05719125907423,bending,2
BMu37,8,C,INI,Trunk_Forward,1,R_EO,107.61951610912672,return,2
BMu37,8,C,INI,Trunk_Forward,1,R_EO,100.63607189130067,bending,3
BMu37,8,C,INI,Trunk_Forward,1,R_EO,107.75808253911842,return,3
BMu37,8,C,REL,Trunk_Forward,1,L_EO,95.72674272227631,bending,1
BMu37,8,C,REL,Trunk_Forward,1,L_EO,90.71680784530491,return,1
BMu37,8,C,REL,Trunk_Forward,1,L_EO,94.7096072524939,bending,2
BMu37,8,C,REL,Trunk_Forward,1,L_EO,92.1920732667455,return,2
BMu37,8,C,REL,Trunk_Forward,1,L_EO,89.09846920084252,bending,3
BMu37,8,C,REL,Trunk_Forward,1,L_EO,95.19303303928314,return,3
BMu37,8,C,REL,Trunk_Forward,1,R_EO,109.89244647985515,bending,1
BMu37,8,C,REL,Trunk_Forward,1,R_EO,105.31536745997808,return,1
BMu37,8,C,REL,Trunk_Forward,1,R_EO,106.15560374489283,bending,2
BMu37,8,C,REL,Trunk_Forward,1,R_EO,109.38619587448245,return,2
BMu37,8,C,REL,Trunk_Forward,1,R_EO,106.62307491325706,bending,3
BMu37,8,C,REL,Trunk_Forward,1,R_EO,108.91264823893246,return,3
BMu37,9,P,INI,Trunk_Forward,1,L_EO,100.60889005481228,bending,1
BMu37,9,P,INI,Trunk_Forward,1,L_EO,91.26477932818085,return,1
BMu37,9,P,INI,Trunk_Forward,1,L_EO,100.90890880943294,bending,2
BMu37,9,P,INI,Trunk_Forward,1,L_EO,90.5717623301936,return,2
BMu37,9,P,INI,Trunk_Forward,1,L_EO,94.39186467180238,bending,3
BMu37,9,P,INI,Trunk_Forward,1,L_EO,88.0224248448987,return,3
BMu37,9,P,INI,Trunk_Forward,1,L_EO,91.04315690193721,bending,4
BMu37,9,P,INI,Trunk_Forward,1,L_EO,96.93038183550705,return,4
BMu37,9,P,INI,Trunk_Forward,1,R_EO,94.08518501999171,bending,1
BMu37,9,P,INI,Trunk_Forward,1,R_EO,84.04563330952394,return,1
BMu37,9,P,INI,Trunk_Forward,1,R_EO,97.25132153828775,bending,2
BMu37,9,P,INI,Trunk_Forward,1,R_EO,88.47650040820429,return,2
BMu37,9,P,INI,Trunk_Forward,1,R_EO,96.67083488356687,bending,3
BMu37,9,P,INI,Trunk_Forward,1,R_EO,90.45915480173262,return,3
BMu37,9,P,INI,Trunk_Forward,1,R_EO,91.72960226914145,bending,4
BMu37,9,P,INI,Trunk_Forward,1,R_EO,94.29552175311244,return,4
BMu37,9,P,REL,Trunk_Forward,1,L_EO,85.5370296436132,bending,1
BMu37,9,P,REL,Trunk_Forward,1,L_EO,91.78532869653624,return,1
BMu37,9,P,REL,Trunk_Forward,1,L_EO,92.07009003295292,bending,2
BMu37,9,P,REL,Trunk_Forward,1,L_EO,90.40811611958883,return,2
BMu37,9,P,REL,Trunk_Forward,1,L_EO,90.14687942962222,bending,3
BMu37,9,P,REL,Trunk_Forward,1,L_EO,93.42639806216849,return,3
BMu37,9,P,REL,Trunk_Forward,1,R_EO,92.66010079995125,bending,1
BMu37,9,P,REL,Trunk_Forward,1,R_EO,100.1721983178964,return,1
BMu37,9,P,REL,Trunk_Forward,1,R_EO,106.9740456523776,bending,2
BMu37,9,P,REL,Trunk_Forward,1,R_EO,91.67533994996364,return,2
BMu37,9,P,REL,Trunk_Forward,1,R_EO,99.08237754132874,bending,3
BMu37,9,P,REL,Trunk_Forward,1,R_EO,95.46299171854918,return,3
BMu37,10,P,INI,Trunk_Forward,1,L_EO,91.95103195415153,bending,1
BMu37,10,P,INI,Trunk_Forward,1,L_EO,92.37362744405999,return,1
BMu37,10,P,INI,Trunk_Forward,1,L_EO,88.88344927242467,bending,2
BMu37,10,P,INI,Trunk_Forward,1,L_EO,94.30186440189158,return,2
BMu37,10,P,INI,Trunk_Forward,1,L_EO,95.11671769022047,bending,3
BMu37,10,P,INI,Trunk_Forward,1,L_EO,90.11317690234453,return,3
BMu37,10,P,INI,Trunk_Forward,1,R_EO,87.99625058470421,bending,1
BMu37,10,P,INI,Trunk_Forward,1,R_EO,92.91544546662163,return,1
BMu37,10,P,INI,Trunk_Forward,1,R_EO,89.41922170909824,bending,2
BMu37,10,P,INI,Trunk_Forward,1,R_EO,100.2891867053885,return,2
BMu37,10,P,INI,Trunk_Forward,1,R_EO,90.52848729400378,bending,3
BMu37,10,P,INI,Trunk_Forward,1,R_EO,95.68852130390435,return,3
BMu37,10,P,REL,Trunk_Forward,1,L_EO,108.084182741831,bending,1
BMu37,10,P,REL,Trunk_Forward,1,L_EO,106.8264343197064,return,1
BMu37,10,P,REL,Trunk_Forward,1,L_EO,112.96607678418289,bending,2
BMu37,10,P,REL,Trunk_Forward,1,L_EO,103.35622513601366,return,2
BMu37,10,P,REL,Trunk_Forward,1,L_EO,113.34445652140833,bending,3
BMu37,10,P,REL,Trunk_Forward,1,L_EO,105.02877625029734,return,3
BMu37,10,P,REL,Trunk_Forward,1,R_EO,106.64168925890267,bending,1
BMu37,10,P,REL,Trunk_Forward,1,R_EO,109.73844235458414,return,1
BMu37,10,P,REL,Trunk_Forward,1,R_EO,103.70424454078842,bending,2
BMu37,10,P,REL,Trunk_Forward,1,R_EO,110.71573589373745,return,2
BMu37,10,P,REL,Trunk_Forward,1,R_EO,107.15572620581183,bending,3
BMu37,10,P,REL,Trunk_Forward,1,R_EO,108.50036802695453,return,3
BMu37,11,P,INI,Trunk_Forward,1,L_EO,77.1711886009082,bending,1
BMu37,11,P,INI,Trunk_Forward,1,L_EO,76.88107631976389,return,1
BMu37,11,P,INI,Trunk_Forward,1,L_EO,80.86319102078758,bending,2
BMu37,11,P,INI,Trunk_Forward,1,L_EO,81.56990889083838,return,2
BMu37,11,P,INI,Trunk_Forward,1,L_EO,79.76726142089906,bending,3
BMu37,11,P,INI,Trunk_Forward,1,L_EO,79.37470281166375,return,3
BMu37,11,P,INI,Trunk_Forward,1,R_EO,74.71320923197699,bending,1
BMu37,11,P,INI,Trunk_Forward,1,R_EO,74.60101664772847,return,1
BMu37,11,P,INI,Trunk_Forward,1,R_EO,73.3705006378936,bending,2
BMu37,11,P,INI,Trunk_Forward,1,R_EO,71.47646873211528,return,2
BMu37,11,P,INI,Trunk_Forward,1,R_EO,74.65844297964895,bending,3
BMu37,11,P,INI,Trunk_Forward,1,R_EO,75.2423090748669,return,3
BMu37,11,P,REL,Trunk_Forward,1,L_EO,89.61831439828626,bending,1
BMu37,11,P,REL,Trunk_Forward,1,L_EO,94.63996790856945,return,1
BMu37,11,P,REL,Trunk_Forward,1,L_EO,96.93026108214521,bending,2
BMu37,11,P,REL,Trunk_Forward,1,L_EO,97.66940827139251,return,2
BMu37,11,P,REL,Trunk_Forward,1,L_EO,93.75037954342555,bending,3
BMu37,11,P,REL,Trunk_Forward,1,L_EO,92.92226400062775,return,3
BMu37,11,P,REL,Trunk_Forward,1,R_EO,86.06809709135473,bending,1
BMu37,11,P,REL,Trunk_Forward,1,R_EO,99.7257228197336,return,1
BMu37,11,P,REL,Trunk_Forward,1,R_EO,102.49545907832288,bending,2
BMu37,11,P,REL,Trunk_Forward,1,R_EO,102.28323928994391,return,2
BMu37,11,P,REL,Trunk_Forward,1,R_EO,89.59121499104891,bending,3
BMu37,11,P,REL,Trunk_Forward,1,R_EO,96.83759470582737,return,3
BMu37,12,P,INI,Trunk_Forward,1,L_EO,99.58340306718381,bending,1
BMu37,12,P,INI,Trunk_Forward,1,L_EO,104.25804982617075,return,1
BMu37,12,P,INI,Trunk_Forward,1,L_EO,99.85261105167359,bending,2
BMu37,12,P,INI,Trunk_Forward,1,L_EO,104.08070730555987,return,2
BMu37,12,P,INI,Trunk_Forward,1,L_EO,99.77397916294294,bending,3
BMu37,12,P,INI,Trunk_Forward,1,L_EO,107.39250038269314,return,3
BMu37,12,P,INI,Trunk_Forward,1,R_EO,104.8545204213902,bending,1
BMu37,12,P,INI,Trunk_Forward,1,R_EO,109.72570423765472,return,1
BMu37,12,P,INI,Trunk_Forward,1,R_EO,105.38600668298659,bending,2
BMu37,12,P,INI,Trunk_Forward,1,R_EO,107.07111696892268,return,2
BMu37,12,P,INI,Trunk_Forward,1,R_EO,96.11100524054795,bending,3
BMu37,12,P,INI,Trunk_Forward,1,R_EO,102.95302871831106,return,3
BMu37,12,P,REL,Trunk_Forward,1,L_EO,121.26691473939064,bending,1
BMu37,12,P,REL,Trunk_Forward,1,L_EO,121.16488450363113,return,1
BMu37,12,P,REL,Trunk_Forward,1,L_EO,123.00981245275001,bending,2
BMu37,12,P,REL,Trunk_Forward,1,L_EO,122.17244398816389,return,2
BMu37,12,P,REL,Trunk_Forward,1,L_EO,117.29676239901993,bending,3
BMu37,12,P,REL,Trunk_Forward,1,L_EO,122.92810211776204,return,3
BMu37,12,P,REL,Trunk_Forward,1,R_EO,133.90885618319734,bending,1
BMu37,12,P,REL,Trunk_Forward,1,R_EO,132.34169832420716,return,1
BMu37,12,P,REL,Trunk_Forward,1,R_EO,132.94517626914495,bending,2
BMu37,12,P,REL,Trunk_Forward,1,R_EO,128.67308170139083,return,2
BMu37,12,P,REL,Trunk_Forward,1,R_EO,128.48190548368112,bending,3
BMu37,12,P,REL,Trunk_Forward,1,R_EO,128.64449176925586,return,3
BMu37,13,C,INI,Trunk_Forward,1,L_EO,85.68057028535941,bending,1
BMu37,13,C,INI,Trunk_Forward,1,L_EO,91.33126215446794,return,1
BMu37,13,C,INI,Trunk_Forward,1,L_EO,93.70942216939689,bending,2
BMu37,13,C,INI,Trunk_Forward,1,L_EO,93.41043692029132,return,2
BMu37,13,C,INI,Trunk_Forward,1,L_EO,96.08001992663645,bending,3
BMu37,13,C,INI,Trunk_Forward,1,L_EO,95.20984419080696,return,3
BMu37,13,C,INI,Trunk_Forward,1,R_EO,82.37380225407625,bending,1
BMu37,13,C,INI,Trunk_Forward,1,R_EO,79.79627795646688,return,1
BMu37,13,C,INI,Trunk_Forward,1,R_EO,82.57828794239244,bending,2
BMu37,13,C,INI,Trunk_Forward,1,R_EO,86.59687053388659,return,2
BMu37,13,C,INI,Trunk_Forward,1,R_EO,89.48137673736663,bending,3
BMu37,13,C,INI,Trunk_Forward,1,R_EO,89.74538138580088,return,3
BMu37,13,C,REL,Trunk_Forward,1,L_EO,94.48583112298124,bending,1
BMu37,13,C,REL,Trunk_Forward,1,L_EO,94.30969112901383,return,1
BMu37,13,C,REL,Trunk_Forward,1,L_EO,89.2427666729154,bending,2
BMu37,13,C,REL,Trunk_Forward,1,L_EO,102.9526075553471,return,2
BMu37,13,C,REL,Trunk_Forward,1,L_EO,98.8220519551719,bending,3
BMu37,13,C,REL,Trunk_Forward,1,L_EO,99.38500716027892,return,3
BMu37,13,C,REL,Trunk_Forward,1,R_EO,119.2943269559943,bending,1
BMu37,13,C,REL,Trunk_Forward,1,R_EO,124.33738726772684,return,1
BMu37,13,C,REL,Trunk_Forward,1,R_EO,120.61111609203057,bending,2
BMu37,13,C,REL,Trunk_Forward,1,R_EO,119.90860468674992,return,2
BMu37,13,C,REL,Trunk_Forward,1,R_EO,127.38548372213585,bending,3
BMu37,13,C,REL,Trunk_Forward,1,R_EO,120.97612076457514,return,3
BMu37,14,P,INI,Trunk_Forward,1,L_EO,108.82567957098755,bending,1
BMu37,14,P,INI,Trunk_Forward,1,L_EO,119.27358673155528,return,1
BMu37,14,P,INI,Trunk_Forward,1,L_EO,103.10187891683937,bending,2
BMu37,14,P,INI,Trunk_Forward,1,L_EO,71.65028521227397,return,2
BMu37,14,P,INI,Trunk_Forward,1,L_EO,106.27384459824525,bending,3
BMu37,14,P,INI,Trunk_Forward,1,L_EO,100.26401301062518,return,3
BMu37,14,P,INI,Trunk_Forward,1,R_EO,98.97850243788207,bending,1
BMu37,14,P,INI,Trunk_Forward,1,R_EO,105.57533586903087,return,1
BMu37,14,P,INI,Trunk_Forward,1,R_EO,100.5221308349076,bending,2
BMu37,14,P,INI,Trunk_Forward,1,R_EO,96.75344376264411,return,2
BMu37,14,P,INI,Trunk_Forward,1,R_EO,109.87915833400062,bending,3
BMu37,14,P,INI,Trunk_Forward,1,R_EO,106.36187068455936,return,3
BMu37,14,P,REL,Trunk_Forward,1,L_EO,116.33381654632048,bending,1
BMu37,14,P,REL,Trunk_Forward,1,L_EO,112.73667036095274,return,1
BMu37,14,P,REL,Trunk_Forward,1,L_EO,95.44769144680858,bending,2
BMu37,14,P,REL,Trunk_Forward,1,L_EO,87.5219978007909,return,2
BMu37,14,P,REL,Trunk_Forward,1,L_EO,92.05706831540748,bending,3
BMu37,14,P,REL,Trunk_Forward,1,L_EO,101.85116456149187,return,3
BMu37,14,P,REL,Trunk_Forward,1,L_EO,96.2296205296406,bending,4
BMu37,14,P,REL,Trunk_Forward,1,L_EO,99.96153813909706,return,4
BMu37,14,P,REL,Trunk_Forward,1,R_EO,128.04226316165503,bending,1
BMu37,14,P,REL,Trunk_Forward,1,R_EO,169.10474045521008,return,1
BMu37,14,P,REL,Trunk_Forward,1,R_EO,152.50305960861436,bending,2
BMu37,14,P,REL,Trunk_Forward,1,R_EO,167.5878756409978,return,2
BMu37,14,P,REL,Trunk_Forward,1,R_EO,133.3751456037576,bending,3
BMu37,14,P,REL,Trunk_Forward,1,R_EO,149.39776903105897,return,3
BMu37,14,P,REL,Trunk_Forward,1,R_EO,137.60269537207216,bending,4
BMu37,14,P,REL,Trunk_Forward,1,R_EO,160.3326030586796,return,4
BMu37,16,C,INI,Trunk_Forward,1,L_EO,146.68363323668135,bending,1
BMu37,16,C,INI,Trunk_Forward,1,L_EO,147.1997076397825,return,1
BMu37,16,C,INI,Trunk_Forward,1,L_EO,139.17119778321418,bending,2
BMu37,16,C,INI,Trunk_Forward,1,L_EO,144.32103052062416,return,2
BMu37,16,C,INI,Trunk_Forward,1,L_EO,145.79507441228202,bending,3
BMu37,16,C,INI,Trunk_Forward,1,L_EO,140.8684491741173,return,3
BMu37,16,C,INI,Trunk_Forward,1,R_EO,114.40339178018952,bending,1
BMu37,16,C,INI,Trunk_Forward,1,R_EO,122.17777955866623,return,1
BMu37,16,C,INI,Trunk_Forward,1,R_EO,125.93107701020169,bending,2
BMu37,16,C,INI,Trunk_Forward,1,R_EO,130.23791636624165,return,2
BMu37,16,C,INI,Trunk_Forward,1,R_EO,131.6699129063828,bending,3
BMu37,16,C,INI,Trunk_Forward,1,R_EO,115.66392801289687,return,3
BMu37,16,C,REL,Trunk_Forward,1,L_EO,129.88572011318823,bending,1
BMu37,16,C,REL,Trunk_Forward,1,L_EO,139.77696027736778,return,1
BMu37,16,C,REL,Trunk_Forward,1,L_EO,134.1332890357151,bending,2
BMu37,16,C,REL,Trunk_Forward,1,L_EO,139.3146718869906,return,2
BMu37,16,C,REL,Trunk_Forward,1,L_EO,148.82679211800357,bending,3
BMu37,16,C,REL,Trunk_Forward,1,L_EO,144.55977804015356,return,3
BMu37,16,C,REL,Trunk_Forward,1,R_EO,104.09770420975474,bending,1
BMu37,16,C,REL,Trunk_Forward,1,R_EO,105.40873742121235,return,1
BMu37,16,C,REL,Trunk_Forward,1,R_EO,100.94432119836475,bending,2
BMu37,16,C,REL,Trunk_Forward,1,R_EO,109.46584570090573,return,2
BMu37,16,C,REL,Trunk_Forward,1,R_EO,106.2037632169645,bending,3
BMu37,16,C,REL,Trunk_Forward,1,R_EO,107.88288232051563,return,3
BMu37,17,P,INI,Trunk_Forward,1,L_EO,108.09017400401558,bending,1
BMu37,17,P,INI,Trunk_Forward,1,L_EO,91.99196510784257,return,1
BMu37,17,P,INI,Trunk_Forward,1,L_EO,92.87430524386382,bending,2
BMu37,17,P,INI,Trunk_Forward,1,L_EO,104.68530922438354,return,2
BMu37,17,P,INI,Trunk_Forward,1,L_EO,100.83885957062424,bending,3
BMu37,17,P,INI,Trunk_Forward,1,L_EO,104.98521006691605,return,3
BMu37,17,P,INI,Trunk_Forward,1,R_EO,111.94170549547455,bending,1
BMu37,17,P,INI,Trunk_Forward,1,R_EO,121.7661686066854,return,1
BMu37,17,P,INI,Trunk_Forward,1,R_EO,115.81185738028253,bending,2
BMu37,17,P,INI,Trunk_Forward,1,R_EO,117.33511570134318,return,2
BMu37,17,P,INI,Trunk_Forward,1,R_EO,114.73587693217885,bending,3
BMu37,17,P,INI,Trunk_Forward,1,R_EO,119.38118923367226,return,3
BMu37,17,P,REL,Trunk_Forward,1,L_EO,103.39511015919459,bending,1
BMu37,17,P,REL,Trunk_Forward,1,L_EO,105.03641307189916,return,1
BMu37,17,P,REL,Trunk_Forward,1,L_EO,105.31846291659802,bending,2
BMu37,17,P,REL,Trunk_Forward,1,L_EO,97.8509670669866,return,2
BMu37,17,P,REL,Trunk_Forward,1,L_EO,103.68505425044209,bending,3
BMu37,17,P,REL,Trunk_Forward,1,L_EO,96.22725736590861,return,3
BMu37,17,P,REL,Trunk_Forward,1,R_EO,110.78652291109475,bending,1
BMu37,17,P,REL,Trunk_Forward,1,R_EO,113.05195332262863,return,1
BMu37,17,P,REL,Trunk_Forward,1,R_EO,111.07180113835003,bending,2
BMu37,17,P,REL,Trunk_Forward,1,R_EO,110.3881122159317,return,2
BMu37,17,P,REL,Trunk_Forward,1,R_EO,115.97156897772629,bending,3
BMu37,17,P,REL,Trunk_Forward,1,R_EO,114.00538839255029,return,3
BMu37,21,C,INI,Trunk_Forward,1,L_EO,98.48893545672297,bending,1
BMu37,21,C,INI,Trunk_Forward,1,L_EO,98.38394159315976,return,1
BMu37,21,C,INI,Trunk_Forward,1,L_EO,96.38746155173376,bending,2
BMu37,21,C,INI,Trunk_Forward,1,L_EO,101.83377949758356,return,2
BMu37,21,C,INI,Trunk_Forward,1,L_EO,110.0657417863603,bending,3
BMu37,21,C,INI,Trunk_Forward,1,L_EO,97.65216838477903,return,3
BMu37,21,C,INI,Trunk_Forward,1,R_EO,83.03479897074563,bending,1
BMu37,21,C,INI,Trunk_Forward,1,R_EO,89.44084675425736,return,1
BMu37,21,C,INI,Trunk_Forward,1,R_EO,89.237909617551,bending,2
BMu37,21,C,INI,Trunk_Forward,1,R_EO,95.29014928829132,return,2
BMu37,21,C,INI,Trunk_Forward,1,R_EO,93.16837368893304,bending,3
BMu37,21,C,INI,Trunk_Forward,1,R_EO,96.91433372097907,return,3
BMu37,21,C,REL,Trunk_Forward,1,L_EO,106.63945809476829,bending,1
BMu37,21,C,REL,Trunk_Forward,1,L_EO,107.99137938829737,return,1
BMu37,21,C,REL,Trunk_Forward,1,L_EO,104.32032303134312,bending,2
BMu37,21,C,REL,Trunk_Forward,1,L_EO,107.05412879823,return,2
BMu37,21,C,REL,Trunk_Forward,1,L_EO,102.22651054833024,bending,3
BMu37,21,C,REL,Trunk_Forward,1,L_EO,93.2331651555654,return,3
BMu37,21,C,REL,Trunk_Forward,1,R_EO,91.47856259256358,bending,1
BMu37,21,C,REL,Trunk_Forward,1,R_EO,89.36118167149422,return,1
BMu37,21,C,REL,Trunk_Forward,1,R_EO,82.11935787944907,bending,2
BMu37,21,C,REL,Trunk_Forward,1,R_EO,77.98164858096906,return,2
BMu37,21,C,REL,Trunk_Forward,1,R_EO,74.92538140697555,bending,3
BMu37,21,C,REL,Trunk_Forward,1,R_EO,75.67318683015687,return,3
BMu37,22,C,INI,Trunk_Forward,1,L_EO,109.3886080391189,bending,1
BMu37,22,C,INI,Trunk_Forward,1,L_EO,103.18483394323981,return,1
BMu37,22,C,INI,Trunk_Forward,1,L_EO,112.30627023124642,bending,2
BMu37,22,C,INI,Trunk_Forward,1,L_EO,107.81321387654135,return,2
BMu37,22,C,INI,Trunk_Forward,1,L_EO,109.80749564920178,bending,3
BMu37,22,C,INI,Trunk_Forward,1,L_EO,107.52689671652745,return,3
BMu37,22,C,INI,Trunk_Forward,1,R_EO,126.12497721871547,bending,1
BMu37,22,C,INI,Trunk_Forward,1,R_EO,125.21614392635256,return,1
BMu37,22,C,INI,Trunk_Forward,1,R_EO,121.248719741215,bending,2
BMu37,22,C,INI,Trunk_Forward,1,R_EO,127.0233942408545,return,2
BMu37,22,C,INI,Trunk_Forward,1,R_EO,127.21814947818363,bending,3
BMu37,22,C,INI,Trunk_Forward,1,R_EO,122.07896782485469,return,3
BMu37,22,C,REL,Trunk_Forward,1,L_EO,118.27730913344925,bending,1
BMu37,22,C,REL,Trunk_Forward,1,L_EO,118.26609966553683,return,1
BMu37,22,C,REL,Trunk_Forward,1,L_EO,116.39757047125086,bending,2
BMu37,22,C,REL,Trunk_Forward,1,L_EO,121.02437251846615,return,2
BMu37,22,C,REL,Trunk_Forward,1,L_EO,116.02961391631165,bending,3
BMu37,22,C,REL,Trunk_Forward,1,L_EO,121.76049141742644,return,3
BMu37,22,C,REL,Trunk_Forward,1,R_EO,148.36853309352995,bending,1
BMu37,22,C,REL,Trunk_Forward,1,R_EO,146.02649026894161,return,1
BMu37,22,C,REL,Trunk_Forward,1,R_EO,146.89090541570664,bending,2
BMu37,22,C,REL,Trunk_Forward,1,R_EO,146.86694635024656,return,2
BMu37,22,C,REL,Trunk_Forward,1,R_EO,147.62857839753832,bending,3
BMu37,22,C,REL,Trunk_Forward,1,R_EO,139.36678390074718,return,3
BMu37,23,C,INI,Trunk_Forward,1,L_EO,123.04402535027967,bending,1
BMu37,23,C,INI,Trunk_Forward,1,L_EO,126.63600784608104,return,1
BMu37,23,C,INI,Trunk_Forward,1,L_EO,135.17587837905717,bending,2
BMu37,23,C,INI,Trunk_Forward,1,L_EO,130.72067137749485,return,2
BMu37,23,C,INI,Trunk_Forward,1,L_EO,132.68360363745637,bending,3
BMu37,23,C,INI,Trunk_Forward,1,L_EO,137.34292134739337,return,3
BMu37,23,C,INI,Trunk_Forward,1,R_EO,97.56478250110874,bending,1
BMu37,23,C,INI,Trunk_Forward,1,R_EO,102.56386044602593,return,1
BMu37,23,C,INI,Trunk_Forward,1,R_EO,103.4202805392616,bending,2
BMu37,23,C,INI,Trunk_Forward,1,R_EO,103.42843636094214,return,2
BMu37,23,C,INI,Trunk_Forward,1,R_EO,106.47469967744097,bending,3
BMu37,23,C,INI,Trunk_Forward,1,R_EO,99.69180224870094,return,3
BMu37,23,C,REL,Trunk_Forward,1,L_EO,131.79990816675453,bending,1
BMu37,23,C,REL,Trunk_Forward,1,L_EO,146.45907544795313,return,1
BMu37,23,C,REL,Trunk_Forward,1,L_EO,130.58595200154775,bending,2
BMu37,23,C,REL,Trunk_Forward,1,L_EO,153.05209143939825,return,2
BMu37,23,C,REL,Trunk_Forward,1,L_EO,121.0891089649685,bending,3
BMu37,23,C,REL,Trunk_Forward,1,L_EO,135.4553775179524,return,3
BMu37,23,C,REL,Trunk_Forward,1,R_EO,97.1657654537622,bending,1
BMu37,23,C,REL,Trunk_Forward,1,R_EO,113.59842642497912,return,1
BMu37,23,C,REL,Trunk_Forward,1,R_EO,104.14449243931072,bending,2
BMu37,23,C,REL,Trunk_Forward,1,R_EO,106.63160498332303,return,2
BMu37,23,C,REL,Trunk_Forward,1,R_EO,106.41282660055936,bending,3
BMu37,23,C,REL,Trunk_Forward,1,R_EO,101.12362348612092,return,3
BMu37,24,P,INI,Trunk_Forward,1,L_EO,111.04049503421736,bending,1
BMu37,24,P,INI,Trunk_Forward,1,L_EO,105.7656291440895,return,1
BMu37,24,P,INI,Trunk_Forward,1,L_EO,113.37182191286686,bending,2
BMu37,24,P,INI,Trunk_Forward,1,L_EO,107.79971178378193,return,2
BMu37,24,P,INI,Trunk_Forward,1,L_EO,114.52952474078714,bending,3
BMu37,24,P,INI,Trunk_Forward,1,L_EO,113.92060776923336,return,3
BMu37,24,P,INI,Trunk_Forward,1,R_EO,135.3084701568675,bending,1
BMu37,24,P,INI,Trunk_Forward,1,R_EO,132.3627390769166,return,1
BMu37,24,P,INI,Trunk_Forward,1,R_EO,132.03894123255708,bending,2
BMu37,24,P,INI,Trunk_Forward,1,R_EO,133.19641548291017,return,2
BMu37,24,P,INI,Trunk_Forward,1,R_EO,134.2244456395401,bending,3
BMu37,24,P,INI,Trunk_Forward,1,R_EO,134.43884869273018,return,3
BMu37,24,P,REL,Trunk_Forward,1,L_EO,111.39524749048559,bending,1
BMu37,24,P,REL,Trunk_Forward,1,L_EO,109.32947910777533,return,1
BMu37,24,P,REL,Trunk_Forward,1,L_EO,113.22142221142634,bending,2
BMu37,24,P,REL,Trunk_Forward,1,L_EO,119.94753237454935,return,2
BMu37,24,P,REL,Trunk_Forward,1,L_EO,110.05243363249247,bending,3
BMu37,24,P,REL,Trunk_Forward,1,L_EO,114.62315899147067,return,3
BMu37,24,P,REL,Trunk_Forward,1,R_EO,125.04574079306819,bending,1
BMu37,24,P,REL,Trunk_Forward,1,R_EO,134.42646879173543,return,1
BMu37,24,P,REL,Trunk_Forward,1,R_EO,133.80679139624408,bending,2
BMu37,24,P,REL,Trunk_Forward,1,R_EO,136.4174001293065,return,2
BMu37,24,P,REL,Trunk_Forward,1,R_EO,131.6940992813776,bending,3
BMu37,24,P,REL,Trunk_Forward,1,R_EO,126.67424121794677,return,3
BMu37,25,C,INI,Trunk_Forward,1,L_EO,100.53666704340553,bending,1
BMu37,25,C,INI,Trunk_Forward,1,L_EO,109.06507237237821,return,1
BMu37,25,C,INI,Trunk_Forward,1,L_EO,99.37938697357264,bending,2
BMu37,25,C,INI,Trunk_Forward,1,L_EO,89.51447541744564,return,2
BMu37,25,C,INI,Trunk_Forward,1,L_EO,88.75323262885101,bending,3
BMu37,25,C,INI,Trunk_Forward,1,L_EO,90.49333099672977,return,3
BMu37,25,C,INI,Trunk_Forward,1,R_EO,105.63065452415997,bending,1
BMu37,25,C,INI,Trunk_Forward,1,R_EO,111.94438858172599,return,1
BMu37,25,C,INI,Trunk_Forward,1,R_EO,102.52378849860065,bending,2
BMu37,25,C,INI,Trunk_Forward,1,R_EO,101.2431894321155,return,2
BMu37,25,C,INI,Trunk_Forward,1,R_EO,114.20061225922639,bending,3
BMu37,25,C,INI,Trunk_Forward,1,R_EO,122.68937660117167,return,3
BMu37,25,C,REL,Trunk_Forward,1,L_EO,105.56921935532019,bending,1
BMu37,25,C,REL,Trunk_Forward,1,L_EO,100.59131050183066,return,1
BMu37,25,C,REL,Trunk_Forward,1,L_EO,104.9873221032377,bending,2
BMu37,25,C,REL,Trunk_Forward,1,L_EO,104.99787282818116,return,2
BMu37,25,C,REL,Trunk_Forward,1,L_EO,111.25876135972321,bending,3
BMu37,25,C,REL,Trunk_Forward,1,L_EO,101.48872423407288,return,3
BMu37,25,C,REL,Trunk_Forward,1,R_EO,103.55045893442774,bending,1
BMu37,25,C,REL,Trunk_Forward,1,R_EO,101.23452831896786,return,1
BMu37,25,C,REL,Trunk_Forward,1,R_EO,100.08912312361846,bending,2
BMu37,25,C,REL,Trunk_Forward,1,R_EO,95.52583687768224,return,2
BMu37,25,C,REL,Trunk_Forward,1,R_EO,105.88515609301332,bending,3
BMu37,25,C,REL,Trunk_Forward,1,R_EO,104.67687450596944,return,3
BMu37,26,P,INI,Trunk_Forward,1,L_EO,75.07406053933946,bending,1
BMu37,26,P,INI,Trunk_Forward,1,L_EO,72.9394629037826,return,1
BMu37,26,P,INI,Trunk_Forward,1,L_EO,72.7434665936997,bending,2
BMu37,26,P,INI,Trunk_Forward,1,L_EO,73.57681756303336,return,2
BMu37,26,P,INI,Trunk_Forward,1,L_EO,74.13335648737265,bending,3
BMu37,26,P,INI,Trunk_Forward,1,L_EO,81.30136079071876,return,3
BMu37,26,P,INI,Trunk_Forward,1,R_EO,75.54485420512597,bending,1
BMu37,26,P,INI,Trunk_Forward,1,R_EO,74.73448386306175,return,1
BMu37,26,P,INI,Trunk_Forward,1,R_EO,69.4639888001591,bending,2
BMu37,26,P,INI,Trunk_Forward,1,R_EO,85.1636538716389,return,2
BMu37,26,P,INI,Trunk_Forward,1,R_EO,80.5818563600014,bending,3
BMu37,26,P,INI,Trunk_Forward,1,R_EO,77.342666740831,return,3
BMu37,26,P,REL,Trunk_Forward,1,L_EO,69.28627311664535,bending,1
BMu37,26,P,REL,Trunk_Forward,1,L_EO,89.57605176045463,return,1
BMu37,26,P,REL,Trunk_Forward,1,L_EO,65.05624787161013,bending,2
BMu37,26,P,REL,Trunk_Forward,1,L_EO,81.35391675623084,return,2
BMu37,26,P,REL,Trunk_Forward,1,L_EO,67.9191050786989,bending,3
BMu37,26,P,REL,Trunk_Forward,1,L_EO,87.22570938103094,return,3
BMu37,26,P,REL,Trunk_Forward,1,R_EO,58.15006397409018,bending,1
BMu37,26,P,REL,Trunk_Forward,1,R_EO,40.96330544833868,return,1
BMu37,26,P,REL,Trunk_Forward,1,R_EO,44.83787293269181,bending,2
BMu37,26,P,REL,Trunk_Forward,1,R_EO,42.7894985214563,return,2
BMu37,26,P,REL,Trunk_Forward,1,R_EO,42.79487588630445,bending,3
BMu37,26,P,REL,Trunk_Forward,1,R_EO,33.73316357443066,return,3
BMu37,27,P,INI,Trunk_Forward,1,L_EO,92.9123558189157,bending,1
BMu37,27,P,INI,Trunk_Forward,1,L_EO,103.1374803478177,return,1
BMu37,27,P,INI,Trunk_Forward,1,L_EO,102.2983755429053,bending,2
BMu37,27,P,INI,Trunk_Forward,1,L_EO,107.32994522763359,return,2
BMu37,27,P,INI,Trunk_Forward,1,L_EO,100.3030369650516,bending,3
BMu37,27,P,INI,Trunk_Forward,1,L_EO,106.98315413919076,return,3
BMu37,27,P,INI,Trunk_Forward,1,R_EO,99.54520579038429,bending,1
BMu37,27,P,INI,Trunk_Forward,1,R_EO,103.19198536930372,return,1
BMu37,27,P,INI,Trunk_Forward,1,R_EO,118.05543031627957,bending,2
BMu37,27,P,INI,Trunk_Forward,1,R_EO,115.19828801588181,return,2
BMu37,27,P,INI,Trunk_Forward,1,R_EO,115.28388238052163,bending,3
BMu37,27,P,INI,Trunk_Forward,1,R_EO,116.69201462460913,return,3
BMu37,27,P,REL,Trunk_Forward,1,L_EO,104.76097409271726,bending,1
BMu37,27,P,REL,Trunk_Forward,1,L_EO,106.66001287532329,return,1
BMu37,27,P,REL,Trunk_Forward,1,L_EO,101.65046223797694,bending,2
BMu37,27,P,REL,Trunk_Forward,1,L_EO,114.81869573856093,return,2
BMu37,27,P,REL,Trunk_Forward,1,L_EO,103.39979795235945,bending,3
BMu37,27,P,REL,Trunk_Forward,1,L_EO,103.62188377348728,return,3
BMu37,27,P,REL,Trunk_Forward,1,L_EO,100.29338511099357,bending,4
BMu37,27,P,REL,Trunk_Forward,1,L_EO,92.76591954116934,return,4
BMu37,27,P,REL,Trunk_Forward,1,R_EO,92.91877030960958,bending,1
BMu37,27,P,REL,Trunk_Forward,1,R_EO,85.47642926484127,return,1
BMu37,27,P,REL,Trunk_Forward,1,R_EO,91.93632611412964,bending,2
BMu37,27,P,REL,Trunk_Forward,1,R_EO,107.79004730880314,return,2
BMu37,27,P,REL,Trunk_Forward,1,R_EO,112.56821957059377,bending,3
BMu37,27,P,REL,Trunk_Forward,1,R_EO,72.75587014271869,return,3
BMu37,27,P,REL,Trunk_Forward,1,R_EO,92.66876253529595,bending,4
BMu37,27,P,REL,Trunk_Forward,1,R_EO,84.56538187262632,return,4
BMu37,28,P,INI,Trunk_Forward,1,L_EO,103.14298814832344,bending,1
BMu37,28,P,INI,Trunk_Forward,1,L_EO,107.34674521530397,return,1
BMu37,28,P,INI,Trunk_Forward,1,L_EO,102.449982301577,bending,2
BMu37,28,P,INI,Trunk_Forward,1,L_EO,105.78728686961902,return,2
BMu37,28,P,INI,Trunk_Forward,1,L_EO,99.1022638528651,bending,3
BMu37,28,P,INI,Trunk_Forward,1,L_EO,105.69328558346528,return,3
BMu37,28,P,INI,Trunk_Forward,1,R_EO,121.67335330639025,bending,1
BMu37,28,P,INI,Trunk_Forward,1,R_EO,125.0220180269795,return,1
BMu37,28,P,INI,Trunk_Forward,1,R_EO,125.75296861959382,bending,2
BMu37,28,P,INI,Trunk_Forward,1,R_EO,118.30692443202737,return,2
BMu37,28,P,INI,Trunk_Forward,1,R_EO,114.48639493765187,bending,3
BMu37,28,P,INI,Trunk_Forward,1,R_EO,114.9258166728919,return,3
BMu37,28,P,REL,Trunk_Forward,1,L_EO,103.2945554494704,bending,1
BMu37,28,P,REL,Trunk_Forward,1,L_EO,103.69127934883784,return,1
BMu37,28,P,REL,Trunk_Forward,1,L_EO,109.20675553375125,bending,2
BMu37,28,P,REL,Trunk_Forward,1,L_EO,102.09758189353028,return,2
BMu37,28,P,REL,Trunk_Forward,1,L_EO,104.41819167553209,bending,3
BMu37,28,P,REL,Trunk_Forward,1,L_EO,103.95673731231277,return,3
BMu37,28,P,REL,Trunk_Forward,1,R_EO,116.7925247715102,bending,1
BMu37,28,P,REL,Trunk_Forward,1,R_EO,114.04342835023081,return,1
BMu37,28,P,REL,Trunk_Forward,1,R_EO,118.63858755227919,bending,2
BMu37,28,P,REL,Trunk_Forward,1,R_EO,116.66277003397865,return,2
BMu37,28,P,REL,Trunk_Forward,1,R_EO,116.79186686697872,bending,3
BMu37,28,P,REL,Trunk_Forward,1,R_EO,114.05849742460688,return,3
BMu37,29,P,INI,Trunk_Forward,1,L_EO,97.88840959145965,bending,1
BMu37,29,P,INI,Trunk_Forward,1,L_EO,96.03844361262291,return,1
BMu37,29,P,INI,Trunk_Forward,1,L_EO,94.110813498495,bending,2
BMu37,29,P,INI,Trunk_Forward,1,L_EO,96.90000062957843,return,2
BMu37,29,P,INI,Trunk_Forward,1,L_EO,95.42082682413886,bending,3
BMu37,29,P,INI,Trunk_Forward,1,L_EO,94.10400166806633,return,3
BMu37,29,P,INI,Trunk_Forward,1,R_EO,93.93892314059583,bending,1
BMu37,29,P,INI,Trunk_Forward,1,R_EO,97.863250939568,return,1
BMu37,29,P,INI,Trunk_Forward,1,R_EO,96.54083641449085,bending,2
BMu37,29,P,INI,Trunk_Forward,1,R_EO,101.8110138736469,return,2
BMu37,29,P,INI,Trunk_Forward,1,R_EO,99.19275776669478,bending,3
BMu37,29,P,INI,Trunk_Forward,1,R_EO,101.19877257952697,return,3
BMu37,29,P,REL,Trunk_Forward,1,L_EO,94.42695772602087,bending,1
BMu37,29,P,REL,Trunk_Forward,1,L_EO,96.48641296896203,return,1
BMu37,29,P,REL,Trunk_Forward,1,L_EO,101.30994431483674,bending,2
BMu37,29,P,REL,Trunk_Forward,1,L_EO,91.7490736447972,return,2
BMu37,29,P,REL,Trunk_Forward,1,L_EO,99.62884258189834,bending,3
BMu37,29,P,REL,Trunk_Forward,1,L_EO,95.26844009577223,return,3
BMu37,29,P,REL,Trunk_Forward,1,R_EO,100.0075553016949,bending,1
BMu37,29,P,REL,Trunk_Forward,1,R_EO,100.73825638799015,return,1
BMu37,29,P,REL,Trunk_Forward,1,R_EO,98.25387659149824,bending,2
BMu37,29,P,REL,Trunk_Forward,1,R_EO,94.3530193342413,return,2
BMu37,29,P,REL,Trunk_Forward,1,R_EO,101.74451799846415,bending,3
BMu37,29,P,REL,Trunk_Forward,1,R_EO,95.5358485918315,return,3
BMu37,30,P,INI,Trunk_Forward,1,L_EO,141.62194061001955,bending,1
BMu37,30,P,INI,Trunk_Forward,1,L_EO,140.81197774844964,return,1
BMu37,30,P,INI,Trunk_Forward,1,L_EO,146.99772286966984,bending,2
BMu37,30,P,INI,Trunk_Forward,1,L_EO,138.12060627846196,return,2
BMu37,30,P,INI,Trunk_Forward,1,L_EO,145.7092748051142,bending,3
BMu37,30,P,INI,Trunk_Forward,1,L_EO,137.09960956633202,return,3
BMu37,30,P,INI,Trunk_Forward,1,R_EO,137.09200974048682,bending,1
BMu37,30,P,INI,Trunk_Forward,1,R_EO,145.59625265735392,return,1
BMu37,30,P,INI,Trunk_Forward,1,R_EO,156.52746635992614,bending,2
BMu37,30,P,INI,Trunk_Forward,1,R_EO,116.58242730671333,return,2
BMu37,30,P,INI,Trunk_Forward,1,R_EO,132.88704039071723,bending,3
BMu37,30,P,INI,Trunk_Forward,1,R_EO,140.87278255116246,return,3
BMu37,30,P,REL,Trunk_Forward,1,L_EO,141.88859553902546,bending,1
BMu37,30,P,REL,Trunk_Forward,1,L_EO,115.1731043616421,return,1
BMu37,30,P,REL,Trunk_Forward,1,L_EO,143.38577256188785,bending,2
BMu37,30,P,REL,Trunk_Forward,1,L_EO,136.9440424729662,return,2
BMu37,30,P,REL,Trunk_Forward,1,L_EO,150.35244126263322,bending,3
BMu37,30,P,REL,Trunk_Forward,1,L_EO,146.86107967045712,return,3
BMu37,30,P,REL,Trunk_Forward,1,R_EO,113.74717544409526,bending,1
BMu37,30,P,REL,Trunk_Forward,1,R_EO,100.24111383120298,return,1
BMu37,30,P,REL,Trunk_Forward,1,R_EO,106.5416342392275,bending,2
BMu37,30,P,REL,Trunk_Forward,1,R_EO,111.76703837927982,return,2
BMu37,30,P,REL,Trunk_Forward,1,R_EO,107.74777421619156,bending,3
BMu37,30,P,REL,Trunk_Forward,1,R_EO,108.58410301338075,return,3
BMu37,32,P,INI,Trunk_Forward,1,L_EO,127.07843890788612,bending,1
BMu37,32,P,INI,Trunk_Forward,1,L_EO,133.40485624845473,return,1
BMu37,32,P,INI,Trunk_Forward,1,L_EO,131.2068093268843,bending,2
BMu37,32,P,INI,Trunk_Forward,1,L_EO,135.15197387804977,return,2
BMu37,32,P,INI,Trunk_Forward,1,L_EO,135.49735708043775,bending,3
BMu37,32,P,INI,Trunk_Forward,1,L_EO,127.3137884950146,return,3
BMu37,32,P,INI,Trunk_Forward,1,R_EO,118.30254970793784,bending,1
BMu37,32,P,INI,Trunk_Forward,1,R_EO,124.76857116776468,return,1
BMu37,32,P,INI,Trunk_Forward,1,R_EO,128.7569446817004,bending,2
BMu37,32,P,INI,Trunk_Forward,1,R_EO,130.65096633780092,return,2
BMu37,32,P,INI,Trunk_Forward,1,R_EO,125.47635720541803,bending,3
BMu37,32,P,INI,Trunk_Forward,1,R_EO,124.76412681605055,return,3
BMu37,32,P,REL,Trunk_Forward,1,L_EO,105.67611729396509,bending,1
BMu37,32,P,REL,Trunk_Forward,1,L_EO,106.7502147758238,return,1
BMu37,32,P,REL,Trunk_Forward,1,L_EO,118.63712634334897,bending,2
BMu37,32,P,REL,Trunk_Forward,1,L_EO,131.02223085687558,return,2
BMu37,32,P,REL,Trunk_Forward,1,L_EO,116.56247836662544,bending,3
BMu37,32,P,REL,Trunk_Forward,1,L_EO,111.49561160296099,return,3
BMu37,32,P,REL,Trunk_Forward,1,L_EO,114.3992808295787,bending,4
BMu37,32,P,REL,Trunk_Forward,1,L_EO,115.39389741367711,return,4
BMu37,32,P,REL,Trunk_Forward,1,R_EO,113.76499627072215,bending,1
BMu37,32,P,REL,Trunk_Forward,1,R_EO,135.61397709454312,return,1
BMu37,32,P,REL,Trunk_Forward,1,R_EO,131.51863836230297,bending,2
BMu37,32,P,REL,Trunk_Forward,1,R_EO,137.65584711982385,return,2
BMu37,32,P,REL,Trunk_Forward,1,R_EO,139.25376766422409,bending,3
BMu37,32,P,REL,Trunk_Forward,1,R_EO,135.58502262209433,return,3
BMu37,32,P,REL,Trunk_Forward,1,R_EO,136.35651727023605,bending,4
BMu37,32,P,REL,Trunk_Forward,1,R_EO,119.0263317779281,return,4
BMu37,33,P,INI,Trunk_Forward,1,L_EO,81.36335916665458,bending,1
BMu37,33,P,INI,Trunk_Forward,1,L_EO,81.09288465928708,return,1
BMu37,33,P,INI,Trunk_Forward,1,L_EO,70.60149915780636,bending,2
BMu37,33,P,INI,Trunk_Forward,1,L_EO,69.93239709085609,return,2
BMu37,33,P,INI,Trunk_Forward,1,L_EO,72.22678535359083,bending,3
BMu37,33,P,INI,Trunk_Forward,1,L_EO,72.16777936667118,return,3
BMu37,33,P,INI,Trunk_Forward,1,L_EO,72.15104603348756,bending,4
BMu37,33,P,INI,Trunk_Forward,1,L_EO,77.34542354608637,return,4
BMu37,33,P,INI,Trunk_Forward,1,R_EO,91.43715176374344,bending,1
BMu37,33,P,INI,Trunk_Forward,1,R_EO,80.37977345215259,return,1
BMu37,33,P,INI,Trunk_Forward,1,R_EO,84.10768832325356,bending,2
BMu37,33,P,INI,Trunk_Forward,1,R_EO,77.44395730429679,return,2
BMu37,33,P,INI,Trunk_Forward,1,R_EO,83.64490029352886,bending,3
BMu37,33,P,INI,Trunk_Forward,1,R_EO,74.36810883997012,return,3
BMu37,33,P,INI,Trunk_Forward,1,R_EO,84.06872652837471,bending,4
BMu37,33,P,INI,Trunk_Forward,1,R_EO,82.36037044498643,return,4
BMu37,33,P,REL,Trunk_Forward,1,L_EO,81.73709109706613,bending,1
BMu37,33,P,REL,Trunk_Forward,1,L_EO,74.40836734811003,return,1
BMu37,33,P,REL,Trunk_Forward,1,L_EO,64.20467379896334,bending,2
BMu37,33,P,REL,Trunk_Forward,1,L_EO,71.89441264530767,return,2
BMu37,33,P,REL,Trunk_Forward,1,L_EO,72.04795084422126,bending,3
BMu37,33,P,REL,Trunk_Forward,1,L_EO,68.47638893967672,return,3
BMu37,33,P,REL,Trunk_Forward,1,R_EO,75.95565948736383,bending,1
BMu37,33,P,REL,Trunk_Forward,1,R_EO,70.95141254888996,return,1
BMu37,33,P,REL,Trunk_Forward,1,R_EO,82.81048713651573,bending,2
BMu37,33,P,REL,Trunk_Forward,1,R_EO,69.86179846156523,return,2
BMu37,33,P,REL,Trunk_Forward,1,R_EO,73.61561801415061,bending,3
BMu37,33,P,REL,Trunk_Forward,1,R_EO,82.83323172601878,return,3
BMu37,34,P,INI,Trunk_Forward,1,L_EO,93.49202753483445,bending,1
BMu37,34,P,INI,Trunk_Forward,1,L_EO,102.48727875465455,return,1
BMu37,34,P,INI,Trunk_Forward,1,L_EO,107.84360178072582,bending,2
BMu37,34,P,INI,Trunk_Forward,1,L_EO,104.23527568335608,return,2
BMu37,34,P,INI,Trunk_Forward,1,L_EO,106.42854869506782,bending,3
BMu37,34,P,INI,Trunk_Forward,1,L_EO,109.59235167186414,return,3
BMu37,34,P,INI,Trunk_Forward,1,R_EO,93.15652540904188,bending,1
BMu37,34,P,INI,Trunk_Forward,1,R_EO,94.21693594383082,return,1
BMu37,34,P,INI,Trunk_Forward,1,R_EO,98.73703960911558,bending,2
BMu37,34,P,INI,Trunk_Forward,1,R_EO,95.61623661846178,return,2
BMu37,34,P,INI,Trunk_Forward,1,R_EO,102.0779699072759,bending,3
BMu37,34,P,INI,Trunk_Forward,1,R_EO,100.3955586084994,return,3
BMu37,34,P,REL,Trunk_Forward,1,L_EO,106.75732952807671,bending,1
BMu37,34,P,REL,Trunk_Forward,1,L_EO,112.17134485740547,return,1
BMu37,34,P,REL,Trunk_Forward,1,L_EO,109.50712745324768,bending,2
BMu37,34,P,REL,Trunk_Forward,1,L_EO,112.51204347931738,return,2
BMu37,34,P,REL,Trunk_Forward,1,L_EO,107.8808931382429,bending,3
BMu37,34,P,REL,Trunk_Forward,1,L_EO,108.43000620030818,return,3
BMu37,34,P,REL,Trunk_Forward,1,R_EO,85.48318639654943,bending,1
BMu37,34,P,REL,Trunk_Forward,1,R_EO,87.11732971382075,return,1
BMu37,34,P,REL,Trunk_Forward,1,R_EO,85.63769996683375,bending,2
BMu37,34,P,REL,Trunk_Forward,1,R_EO,89.18500274624718,return,2
BMu37,34,P,REL,Trunk_Forward,1,R_EO,88.3016028876802,bending,3
BMu37,34,P,REL,Trunk_Forward,1,R_EO,85.90977714557278,return,3
BMu37,35,C,INI,Trunk_Forward,1,L_EO,92.06066539242174,bending,1
BMu37,35,C,INI,Trunk_Forward,1,L_EO,105.2139549686255,return,1
BMu37,35,C,INI,Trunk_Forward,1,L_EO,109.1087525870498,bending,2
BMu37,35,C,INI,Trunk_Forward,1,L_EO,111.47034256977123,return,2
BMu37,35,C,INI,Trunk_Forward,1,L_EO,115.1102541809606,bending,3
BMu37,35,C,INI,Trunk_Forward,1,L_EO,111.17454305060018,return,3
BMu37,35,C,INI,Trunk_Forward,1,R_EO,101.17048981121471,bending,1
BMu37,35,C,INI,Trunk_Forward,1,R_EO,100.16231844569684,return,1
BMu37,35,C,INI,Trunk_Forward,1,R_EO,101.18456737573423,bending,2
BMu37,35,C,INI,Trunk_Forward,1,R_EO,118.30256445501472,return,2
BMu37,35,C,INI,Trunk_Forward,1,R_EO,117.6073208686388,bending,3
BMu37,35,C,INI,Trunk_Forward,1,R_EO,121.62911409544097,return,3
BMu37,35,C,REL,Trunk_Forward,1,L_EO,97.964538149866,bending,1
BMu37,35,C,REL,Trunk_Forward,1,L_EO,77.38846139706479,return,1
BMu37,35,C,REL,Trunk_Forward,1,L_EO,112.3782055185693,bending,2
BMu37,35,C,REL,Trunk_Forward,1,L_EO,100.9780977240139,return,2
BMu37,35,C,REL,Trunk_Forward,1,L_EO,113.2536369453427,bending,3
BMu37,35,C,REL,Trunk_Forward,1,L_EO,106.82018199412649,return,3
BMu37,35,C,REL,Trunk_Forward,1,R_EO,87.5793094750228,bending,1
BMu37,35,C,REL,Trunk_Forward,1,R_EO,100.76907611825834,return,1
BMu37,35,C,REL,Trunk_Forward,1,R_EO,102.74568325368668,bending,2
BMu37,35,C,REL,Trunk_Forward,1,R_EO,86.19787436391927,return,2
BMu37,35,C,REL,Trunk_Forward,1,R_EO,107.53870138144788,bending,3
BMu37,35,C,REL,Trunk_Forward,1,R_EO,116.13157676178484,return,3
BMu37,36,P,INI,Trunk_Forward,1,L_EO,103.6096539705267,bending,1
BMu37,36,P,INI,Trunk_Forward,1,L_EO,100.21300214538036,return,1
BMu37,36,P,INI,Trunk_Forward,1,L_EO,100.43358279606994,bending,2
BMu37,36,P,INI,Trunk_Forward,1,L_EO,101.81124096088992,return,2
BMu37,36,P,INI,Trunk_Forward,1,L_EO,100.83330677745293,bending,3
BMu37,36,P,INI,Trunk_Forward,1,L_EO,100.14610028569929,return,3
BMu37,36,P,INI,Trunk_Forward,1,R_EO,111.82610934767754,bending,1
BMu37,36,P,INI,Trunk_Forward,1,R_EO,109.29160844127814,return,1
BMu37,36,P,INI,Trunk_Forward,1,R_EO,106.48325428139779,bending,2
BMu37,36,P,INI,Trunk_Forward,1,R_EO,106.48848088569778,return,2
BMu37,36,P,INI,Trunk_Forward,1,R_EO,109.82481210370028,bending,3
BMu37,36,P,INI,Trunk_Forward,1,R_EO,113.44250852492917,return,3
BMu37,36,P,REL,Trunk_Forward,1,L_EO,98.53298457251579,bending,1
BMu37,36,P,REL,Trunk_Forward,1,L_EO,94.69465580481231,return,1
BMu37,36,P,REL,Trunk_Forward,1,L_EO,89.76751534216262,bending,2
BMu37,36,P,REL,Trunk_Forward,1,L_EO,94.06975265195818,return,2
BMu37,36,P,REL,Trunk_Forward,1,L_EO,94.9406294583193,bending,3
BMu37,36,P,REL,Trunk_Forward,1,L_EO,90.33996439419806,return,3
BMu37,36,P,REL,Trunk_Forward,1,R_EO,113.22687219527421,bending,1
BMu37,36,P,REL,Trunk_Forward,1,R_EO,106.52011055783156,return,1
BMu37,36,P,REL,Trunk_Forward,1,R_EO,105.3336359587441,bending,2
BMu37,36,P,REL,Trunk_Forward,1,R_EO,100.48569832711073,return,2
BMu37,36,P,REL,Trunk_Forward,1,R_EO,99.35374030007647,bending,3
BMu37,36,P,REL,Trunk_Forward,1,R_EO,95.9517894263196,return,3
BMu37,38,C,INI,Trunk_Forward,1,L_EO,109.08934427339322,bending,1
BMu37,38,C,INI,Trunk_Forward,1,L_EO,120.20171928720002,return,1
BMu37,38,C,INI,Trunk_Forward,1,L_EO,94.43791255316582,bending,2
BMu37,38,C,INI,Trunk_Forward,1,L_EO,93.49813193859531,return,2
BMu37,38,C,INI,Trunk_Forward,1,L_EO,98.07196949910102,bending,3
BMu37,38,C,INI,Trunk_Forward,1,L_EO,100.36110872449568,return,3
BMu37,38,C,INI,Trunk_Forward,1,R_EO,84.79391942404436,bending,1
BMu37,38,C,INI,Trunk_Forward,1,R_EO,90.70277646935531,return,1
BMu37,38,C,INI,Trunk_Forward,1,R_EO,85.51906633130612,bending,2
BMu37,38,C,INI,Trunk_Forward,1,R_EO,73.09940381583951,return,2
BMu37,38,C,INI,Trunk_Forward,1,R_EO,75.27594067508711,bending,3
BMu37,38,C,INI,Trunk_Forward,1,R_EO,88.67210969029239,return,3
BMu37,38,C,REL,Trunk_Forward,1,L_EO,100.79977055529966,bending,1
BMu37,38,C,REL,Trunk_Forward,1,L_EO,95.88440213240064,return,1
BMu37,38,C,REL,Trunk_Forward,1,L_EO,100.52667281731345,bending,2
BMu37,38,C,REL,Trunk_Forward,1,L_EO,98.60032746236635,return,2
BMu37,38,C,REL,Trunk_Forward,1,L_EO,96.5345770304264,bending,3
BMu37,38,C,REL,Trunk_Forward,1,L_EO,105.11214860588723,return,3
BMu37,38,C,REL,Trunk_Forward,1,R_EO,104.82178505006515,bending,1
BMu37,38,C,REL,Trunk_Forward,1,R_EO,104.60668394000191,return,1
BMu37,38,C,REL,Trunk_Forward,1,R_EO,106.03116244861289,bending,2
BMu37,38,C,REL,Trunk_Forward,1,R_EO,110.1769707228717,return,2
BMu37,38,C,REL,Trunk_Forward,1,R_EO,106.56917237805781,bending,3
BMu37,38,C,REL,Trunk_Forward,1,R_EO,114.54394765356953,return,3
BMu37,39,C,INI,Trunk_Forward,1,L_EO,75.34901233606163,bending,1
BMu37,39,C,INI,Trunk_Forward,1,L_EO,54.51035435675588,return,1
BMu37,39,C,INI,Trunk_Forward,1,L_EO,65.7735164581711,bending,2
BMu37,39,C,INI,Trunk_Forward,1,L_EO,49.09838326342548,return,2
BMu37,39,C,INI,Trunk_Forward,1,L_EO,80.67037328714333,bending,3
BMu37,39,C,INI,Trunk_Forward,1,L_EO,50.65410570823144,return,3
BMu37,39,C,INI,Trunk_Forward,1,R_EO,46.72204997017114,bending,1
BMu37,39,C,INI,Trunk_Forward,1,R_EO,39.736871254248626,return,1
BMu37,39,C,INI,Trunk_Forward,1,R_EO,63.39725426799626,bending,2
BMu37,39,C,INI,Trunk_Forward,1,R_EO,51.076136892184195,return,2
BMu37,39,C,INI,Trunk_Forward,1,R_EO,84.35838860235208,bending,3
BMu37,39,C,INI,Trunk_Forward,1,R_EO,85.58612350383676,return,3
BMu37,39,C,REL,Trunk_Forward,1,L_EO,101.89330973854187,bending,1
BMu37,39,C,REL,Trunk_Forward,1,L_EO,87.28735208973383,return,1
BMu37,39,C,REL,Trunk_Forward,1,L_EO,80.3302412943115,bending,2
BMu37,39,C,REL,Trunk_Forward,1,L_EO,93.60578140539329,return,2
BMu37,39,C,REL,Trunk_Forward,1,L_EO,74.13702458441018,bending,3
BMu37,39,C,REL,Trunk_Forward,1,L_EO,91.1486508870647,return,3
BMu37,39,C,REL,Trunk_Forward,1,R_EO,130.24472350462764,bending,1
BMu37,39,C,REL,Trunk_Forward,1,R_EO,132.48374902534974,return,1
BMu37,39,C,REL,Trunk_Forward,1,R_EO,92.55107841054746,bending,2
BMu37,39,C,REL,Trunk_Forward,1,R_EO,166.02071532780445,return,2
BMu37,39,C,REL,Trunk_Forward,1,R_EO,104.49604792003757,bending,3
BMu37,39,C,REL,Trunk_Forward,1,R_EO,140.1506637125869,return,3
BMu37,40,C,INI,Trunk_Forward,1,L_EO,96.72155520607325,bending,1
BMu37,40,C,INI,Trunk_Forward,1,L_EO,72.77713320289111,return,1
BMu37,40,C,INI,Trunk_Forward,1,L_EO,97.53671881614986,bending,2
BMu37,40,C,INI,Trunk_Forward,1,L_EO,93.67809090078845,return,2
BMu37,40,C,INI,Trunk_Forward,1,L_EO,87.9791956246404,bending,3
BMu37,40,C,INI,Trunk_Forward,1,L_EO,98.76399851873363,return,3
BMu37,40,C,INI,Trunk_Forward,1,R_EO,85.35828396802592,bending,1
BMu37,40,C,INI,Trunk_Forward,1,R_EO,80.67408247730884,return,1
BMu37,40,C,INI,Trunk_Forward,1,R_EO,73.40930191782951,bending,2
BMu37,40,C,INI,Trunk_Forward,1,R_EO,73.83603012705458,return,2
BMu37,40,C,INI,Trunk_Forward,1,R_EO,86.00059221135731,bending,3
BMu37,40,C,INI,Trunk_Forward,1,R_EO,84.66907552652005,return,3
BMu37,40,C,REL,Trunk_Forward,1,L_EO,110.38514926949834,bending,1
BMu37,40,C,REL,Trunk_Forward,1,L_EO,82.56517999404447,return,1
BMu37,40,C,REL,Trunk_Forward,1,L_EO,86.96738691116637,bending,2
BMu37,40,C,REL,Trunk_Forward,1,L_EO,76.63931864523589,return,2
BMu37,40,C,REL,Trunk_Forward,1,L_EO,102.82272151194415,bending,3
BMu37,40,C,REL,Trunk_Forward,1,L_EO,86.5014779783328,return,3
BMu37,40,C,REL,Trunk_Forward,1,R_EO,88.23664664115677,bending,1
BMu37,40,C,REL,Trunk_Forward,1,R_EO,82.61132569292758,return,1
BMu37,40,C,REL,Trunk_Forward,1,R_EO,92.53999726294441,bending,2
BMu37,40,C,REL,Trunk_Forward,1,R_EO,93.43124294993314,return,2
BMu37,40,C,REL,Trunk_Forward,1,R_EO,85.74553664347258,bending,3
BMu37,40,C,REL,Trunk_Forward,1,R_EO,93.04643691039277,return,3
BMu37,41,P,INI,Trunk_Forward,1,L_EO,93.99141304081844,bending,1
BMu37,41,P,INI,Trunk_Forward,1,L_EO,87.32764560202243,return,1
BMu37,41,P,INI,Trunk_Forward,1,L_EO,93.63795767607593,bending,2
BMu37,41,P,INI,Trunk_Forward,1,L_EO,99.53580682233584,return,2
BMu37,41,P,INI,Trunk_Forward,1,L_EO,93.3467899764825,bending,3
BMu37,41,P,INI,Trunk_Forward,1,L_EO,100.07513175235086,return,3
BMu37,41,P,INI,Trunk_Forward,1,R_EO,112.57568589914358,bending,1
BMu37,41,P,INI,Trunk_Forward,1,R_EO,116.5023867505801,return,1
BMu37,41,P,INI,Trunk_Forward,1,R_EO,112.74585918190887,bending,2
BMu37,41,P,INI,Trunk_Forward,1,R_EO,118.05283614479201,return,2
BMu37,41,P,INI,Trunk_Forward,1,R_EO,113.71848437041616,bending,3
BMu37,41,P,INI,Trunk_Forward,1,R_EO,117.57294462017934,return,3
BMu37,41,P,REL,Trunk_Forward,1,L_EO,107.97806653157886,bending,1
BMu37,41,P,REL,Trunk_Forward,1,L_EO,108.14061648894155,return,1
BMu37,41,P,REL,Trunk_Forward,1,L_EO,103.92250883378277,bending,2
BMu37,41,P,REL,Trunk_Forward,1,L_EO,104.04060555698221,return,2
BMu37,41,P,REL,Trunk_Forward,1,L_EO,103.74789925734763,bending,3
BMu37,41,P,REL,Trunk_Forward,1,L_EO,108.81032985691746,return,3
BMu37,41,P,REL,Trunk_Forward,1,R_EO,110.41017484165161,bending,1
BMu37,41,P,REL,Trunk_Forward,1,R_EO,115.37132957141164,return,1
BMu37,41,P,REL,Trunk_Forward,1,R_EO,109.67136096653715,bending,2
BMu37,41,P,REL,Trunk_Forward,1,R_EO,120.44639270466112,return,2
BMu37,41,P,REL,Trunk_Forward,1,R_EO,122.06122900704094,bending,3
BMu37,41,P,REL,Trunk_Forward,1,R_EO,117.25707626251128,return,3
BMu37,42,P,INI,Trunk_Forward,1,L_EO,99.2061621328587,bending,1
BMu37,42,P,INI,Trunk_Forward,1,L_EO,110.65440043979778,return,1
BMu37,42,P,INI,Trunk_Forward,1,L_EO,104.46395649555807,bending,2
BMu37,42,P,INI,Trunk_Forward,1,L_EO,109.43315297833773,return,2
BMu37,42,P,INI,Trunk_Forward,1,L_EO,109.59639201344059,bending,3
BMu37,42,P,INI,Trunk_Forward,1,L_EO,106.43458648225446,return,3
BMu37,42,P,INI,Trunk_Forward,1,R_EO,105.13783287513932,bending,1
BMu37,42,P,INI,Trunk_Forward,1,R_EO,86.95432745586885,return,1
BMu37,42,P,INI,Trunk_Forward,1,R_EO,101.4451398559167,bending,2
BMu37,42,P,INI,Trunk_Forward,1,R_EO,108.12615823374654,return,2
BMu37,42,P,INI,Trunk_Forward,1,R_EO,108.55279826510329,bending,3
BMu37,42,P,INI,Trunk_Forward,1,R_EO,102.23013120714846,return,3
BMu37,42,P,REL,Trunk_Forward,1,L_EO,95.05107488284055,bending,1
BMu37,42,P,REL,Trunk_Forward,1,L_EO,107.52307010741809,return,1
BMu37,42,P,REL,Trunk_Forward,1,L_EO,92.79725300403642,bending,2
BMu37,42,P,REL,Trunk_Forward,1,L_EO,111.15222705715497,return,2
BMu37,42,P,REL,Trunk_Forward,1,L_EO,100.26625439605806,bending,3
BMu37,42,P,REL,Trunk_Forward,1,L_EO,106.40383187111988,return,3
BMu37,42,P,REL,Trunk_Forward,1,R_EO,98.84405078722497,bending,1
BMu37,42,P,REL,Trunk_Forward,1,R_EO,110.0612006298698,return,1
BMu37,42,P,REL,Trunk_Forward,1,R_EO,103.16368873226476,bending,2
BMu37,42,P,REL,Trunk_Forward,1,R_EO,102.6453289733142,return,2
BMu37,42,P,REL,Trunk_Forward,1,R_EO,103.142090022292,bending,3
BMu37,42,P,REL,Trunk_Forward,1,R_EO,98.75397788150063,return,3
BMu37,43,P,INI,Trunk_Forward,1,L_EO,117.939010007294,bending,1
BMu37,43,P,INI,Trunk_Forward,1,L_EO,97.49598985484037,return,1
BMu37,43,P,INI,Trunk_Forward,1,L_EO,105.49194760150745,bending,2
BMu37,43,P,INI,Trunk_Forward,1,L_EO,95.37467792219766,return,2
BMu37,43,P,INI,Trunk_Forward,1,L_EO,90.89921884212866,bending,3
BMu37,43,P,INI,Trunk_Forward,1,L_EO,100.54679288022962,return,3
BMu37,43,P,INI,Trunk_Forward,1,R_EO,117.30970452029058,bending,1
BMu37,43,P,INI,Trunk_Forward,1,R_EO,114.1262780433547,return,1
BMu37,43,P,INI,Trunk_Forward,1,R_EO,118.92401282168899,bending,2
BMu37,43,P,INI,Trunk_Forward,1,R_EO,112.66918925538634,return,2
BMu37,43,P,INI,Trunk_Forward,1,R_EO,107.67237055367919,bending,3
BMu37,43,P,INI,Trunk_Forward,1,R_EO,104.7593115854752,return,3
BMu37,43,P,REL,Trunk_Forward,1,L_EO,104.78894315743817,bending,1
BMu37,43,P,REL,Trunk_Forward,1,L_EO,98.13561497291238,return,1
BMu37,43,P,REL,Trunk_Forward,1,L_EO,99.47417304397821,bending,2
BMu37,43,P,REL,Trunk_Forward,1,L_EO,102.34279953158402,return,2
BMu37,43,P,REL,Trunk_Forward,1,L_EO,99.49253072198134,bending,3
BMu37,43,P,REL,Trunk_Forward,1,L_EO,93.40658045974031,return,3
BMu37,43,P,REL,Trunk_Forward,1,R_EO,121.61928677502975,bending,1
BMu37,43,P,REL,Trunk_Forward,1,R_EO,117.26629311798932,return,1
BMu37,43,P,REL,Trunk_Forward,1,R_EO,116.62711912280615,bending,2
BMu37,43,P,REL,Trunk_Forward,1,R_EO,114.91207783268887,return,2
BMu37,43,P,REL,Trunk_Forward,1,R_EO,104.37578526975837,bending,3
BMu37,43,P,REL,Trunk_Forward,1,R_EO,100.88731836251056,return,3
BMu37,44,C,INI,Trunk_Forward,1,L_EO,105.42455362256173,bending,1
BMu37,44,C,INI,Trunk_Forward,1,L_EO,102.58143353065537,return,1
BMu37,44,C,INI,Trunk_Forward,1,L_EO,103.7752862189196,bending,2
BMu37,44,C,INI,Trunk_Forward,1,L_EO,113.90447309009629,return,2
BMu37,44,C,INI,Trunk_Forward,1,L_EO,83.06084508476411,bending,3
BMu37,44,C,INI,Trunk_Forward,1,L_EO,119.75003750487798,return,3
BMu37,44,C,INI,Trunk_Forward,1,R_EO,108.63463989968626,bending,1
BMu37,44,C,INI,Trunk_Forward,1,R_EO,117.05797538612215,return,1
BMu37,44,C,INI,Trunk_Forward,1,R_EO,117.39080620537092,bending,2
BMu37,44,C,INI,Trunk_Forward,1,R_EO,118.3069446316109,return,2
BMu37,44,C,INI,Trunk_Forward,1,R_EO,104.01546848841943,bending,3
BMu37,44,C,INI,Trunk_Forward,1,R_EO,112.03244921412087,return,3
BMu37,44,C,REL,Trunk_Forward,1,L_EO,82.09729376137388,bending,1
BMu37,44,C,REL,Trunk_Forward,1,L_EO,79.16121193025153,return,1
BMu37,44,C,REL,Trunk_Forward,1,L_EO,84.52379771455793,bending,2
BMu37,44,C,REL,Trunk_Forward,1,L_EO,103.13418491815607,return,2
BMu37,44,C,REL,Trunk_Forward,1,L_EO,114.15091030044003,bending,3
BMu37,44,C,REL,Trunk_Forward,1,L_EO,105.09328545521052,return,3
BMu37,44,C,REL,Trunk_Forward,1,R_EO,109.92784098062135,bending,1
BMu37,44,C,REL,Trunk_Forward,1,R_EO,109.02416694622447,return,1
BMu37,44,C,REL,Trunk_Forward,1,R_EO,109.34644873942966,bending,2
BMu37,44,C,REL,Trunk_Forward,1,R_EO,108.76825084122113,return,2
BMu37,44,C,REL,Trunk_Forward,1,R_EO,123.22641605736551,bending,3
BMu37,44,C,REL,Trunk_Forward,1,R_EO,119.81930476511232,return,3
BMu37,45,P,INI,Trunk_Forward,1,L_EO,135.7311368102469,bending,1
BMu37,45,P,INI,Trunk_Forward,1,L_EO,127.1180891450974,return,1
BMu37,45,P,INI,Trunk_Forward,1,L_EO,139.2096882124438,bending,2
BMu37,45,P,INI,Trunk_Forward,1,L_EO,130.33609909207357,return,2
BMu37,45,P,INI,Trunk_Forward,1,L_EO,133.45217003934442,bending,3
BMu37,45,P,INI,Trunk_Forward,1,L_EO,131.50949002785046,return,3
BMu37,45,P,INI,Trunk_Forward,1,R_EO,128.89979512171558,bending,1
BMu37,45,P,INI,Trunk_Forward,1,R_EO,128.02167901421555,return,1
BMu37,45,P,INI,Trunk_Forward,1,R_EO,131.06812741618918,bending,2
BMu37,45,P,INI,Trunk_Forward,1,R_EO,128.60853370739247,return,2
BMu37,45,P,INI,Trunk_Forward,1,R_EO,133.70435388287586,bending,3
BMu37,45,P,INI,Trunk_Forward,1,R_EO,128.93382408364224,return,3
BMu37,45,P,REL,Trunk_Forward,1,L_EO,147.31641657736682,bending,1
BMu37,45,P,REL,Trunk_Forward,1,L_EO,144.69650252940332,return,1
BMu37,45,P,REL,Trunk_Forward,1,L_EO,156.67352250170188,bending,2
BMu37,45,P,REL,Trunk_Forward,1,L_EO,138.36247770148836,return,2
BMu37,45,P,REL,Trunk_Forward,1,L_EO,138.05738806455145,bending,3
BMu37,45,P,REL,Trunk_Forward,1,L_EO,144.86780065717286,return,3
BMu37,45,P,REL,Trunk_Forward,1,R_EO,140.60493520548675,bending,1
BMu37,45,P,REL,Trunk_Forward,1,R_EO,144.55612399238012,return,1
BMu37,45,P,REL,Trunk_Forward,1,R_EO,156.40103577536368,bending,2
BMu37,45,P,REL,Trunk_Forward,1,R_EO,151.80166738892027,return,2
BMu37,45,P,REL,Trunk_Forward,1,R_EO,147.14788736623606,bending,3
BMu37,45,P,REL,Trunk_Forward,1,R_EO,150.09514553026466,return,3
BMu37,46,C,INI,Trunk_Forward,1,L_EO,87.20304214043355,bending,1
BMu37,46,C,INI,Trunk_Forward,1,L_EO,124.25212649038343,return,1
BMu37,46,C,INI,Trunk_Forward,1,L_EO,78.91552546835041,bending,2
BMu37,46,C,INI,Trunk_Forward,1,L_EO,137.59406552687642,return,2
BMu37,46,C,INI,Trunk_Forward,1,L_EO,73.39364631055294,bending,3
BMu37,46,C,INI,Trunk_Forward,1,L_EO,136.99743901638087,return,3
BMu37,46,C,INI,Trunk_Forward,1,R_EO,112.10856020249506,bending,1
BMu37,46,C,INI,Trunk_Forward,1,R_EO,107.29316346428874,return,1
BMu37,46,C,INI,Trunk_Forward,1,R_EO,112.02649594822721,bending,2
BMu37,46,C,INI,Trunk_Forward,1,R_EO,104.12221490790895,return,2
BMu37,46,C,INI,Trunk_Forward,1,R_EO,118.22838780585623,bending,3
BMu37,46,C,INI,Trunk_Forward,1,R_EO,108.13466312360157,return,3
BMu37,46,C,REL,Trunk_Forward,1,L_EO,76.56042644147526,bending,1
BMu37,46,C,REL,Trunk_Forward,1,L_EO,63.91115231165389,return,1
BMu37,46,C,REL,Trunk_Forward,1,L_EO,79.80241564231108,bending,2
BMu37,46,C,REL,Trunk_Forward,1,L_EO,70.15522821540944,return,2
BMu37,46,C,REL,Trunk_Forward,1,L_EO,75.44638982441796,bending,3
BMu37,46,C,REL,Trunk_Forward,1,L_EO,68.82685556211585,return,3
BMu37,46,C,REL,Trunk_Forward,1,R_EO,67.74921987073435,bending,1
BMu37,46,C,REL,Trunk_Forward,1,R_EO,59.73316712811455,return,1
BMu37,46,C,REL,Trunk_Forward,1,R_EO,66.54989029036336,bending,2
BMu37,46,C,REL,Trunk_Forward,1,R_EO,50.867644594008915,return,2
BMu37,46,C,REL,Trunk_Forward,1,R_EO,62.246527625881605,bending,3
BMu37,46,C,REL,Trunk_Forward,1,R_EO,66.8037133104991,return,3
BMu37,47,P,INI,Trunk_Forward,1,L_EO,89.44257075843987,bending,1
BMu37,47,P,INI,Trunk_Forward,1,L_EO,89.9909547799235,return,1
BMu37,47,P,INI,Trunk_Forward,1,L_EO,109.29754908973598,bending,2
BMu37,47,P,INI,Trunk_Forward,1,L_EO,74.38481051174145,return,2
BMu37,47,P,INI,Trunk_Forward,1,L_EO,88.59105824277808,bending,3
BMu37,47,P,INI,Trunk_Forward,1,L_EO,112.168626190583,return,3
BMu37,47,P,INI,Trunk_Forward,1,R_EO,75.3612093159156,bending,1
BMu37,47,P,INI,Trunk_Forward,1,R_EO,101.68343758822567,return,1
BMu37,47,P,INI,Trunk_Forward,1,R_EO,67.2242990409139,bending,2
BMu37,47,P,INI,Trunk_Forward,1,R_EO,96.28943046021094,return,2
BMu37,47,P,INI,Trunk_Forward,1,R_EO,97.26035949693008,bending,3
BMu37,47,P,INI,Trunk_Forward,1,R_EO,95.67953029679435,return,3
BMu37,47,P,REL,Trunk_Forward,1,L_EO,95.24776103436439,bending,1
BMu37,47,P,REL,Trunk_Forward,1,L_EO,105.56918426150152,return,1
BMu37,47,P,REL,Trunk_Forward,1,L_EO,88.4507033967862,bending,2
BMu37,47,P,REL,Trunk_Forward,1,L_EO,100.72850858799224,return,2
BMu37,47,P,REL,Trunk_Forward,1,L_EO,92.61112356748156,bending,3
BMu37,47,P,REL,Trunk_Forward,1,L_EO,87.96266999288098,return,3
BMu37,47,P,REL,Trunk_Forward,1,R_EO,92.66893136285962,bending,1
BMu37,47,P,REL,Trunk_Forward,1,R_EO,99.94711930857562,return,1
BMu37,47,P,REL,Trunk_Forward,1,R_EO,91.92774369090048,bending,2
BMu37,47,P,REL,Trunk_Forward,1,R_EO,92.66843310369642,return,2
BMu37,47,P,REL,Trunk_Forward,1,R_EO,93.3442832281668,bending,3
BMu37,47,P,REL,Trunk_Forward,1,R_EO,95.97110647374939,return,3
BMu37,48,C,INI,Trunk_Forward,1,L_EO,109.81139854102148,bending,1
BMu37,48,C,INI,Trunk_Forward,1,L_EO,106.10205419929655,return,1
BMu37,48,C,INI,Trunk_Forward,1,L_EO,111.99628839308332,bending,2
BMu37,48,C,INI,Trunk_Forward,1,L_EO,105.65570845490186,return,2
BMu37,48,C,INI,Trunk_Forward,1,L_EO,110.09223010819386,bending,3
BMu37,48,C,INI,Trunk_Forward,1,L_EO,105.8410953875585,return,3
BMu37,48,C,INI,Trunk_Forward,1,R_EO,112.48081411526229,bending,1
BMu37,48,C,INI,Trunk_Forward,1,R_EO,115.88625998271367,return,1
BMu37,48,C,INI,Trunk_Forward,1,R_EO,110.07194265684979,bending,2
BMu37,48,C,INI,Trunk_Forward,1,R_EO,116.36149761453582,return,2
BMu37,48,C,INI,Trunk_Forward,1,R_EO,111.38290912219249,bending,3
BMu37,48,C,INI,Trunk_Forward,1,R_EO,109.85837713001766,return,3
BMu37,48,C,REL,Trunk_Forward,1,L_EO,99.71508535228371,bending,1
BMu37,48,C,REL,Trunk_Forward,1,L_EO,93.3528642542538,return,1
BMu37,48,C,REL,Trunk_Forward,1,L_EO,99.13846615028778,bending,2
BMu37,48,C,REL,Trunk_Forward,1,L_EO,93.16971399553402,return,2
BMu37,48,C,REL,Trunk_Forward,1,L_EO,99.12185066048066,bending,3
BMu37,48,C,REL,Trunk_Forward,1,L_EO,98.14631860756425,return,3
BMu37,48,C,REL,Trunk_Forward,1,R_EO,112.11572426193723,bending,1
BMu37,48,C,REL,Trunk_Forward,1,R_EO,111.67089215701456,return,1
BMu37,48,C,REL,Trunk_Forward,1,R_EO,115.2598789866992,bending,2
BMu37,48,C,REL,Trunk_Forward,1,R_EO,112.38743324738518,return,2
BMu37,48,C,REL,Trunk_Forward,1,R_EO,111.2328401258427,bending,3
BMu37,48,C,REL,Trunk_Forward,1,R_EO,112.3260142583194,return,3
BMu37,49,C,INI,Trunk_Forward,1,L_EO,94.59293225006496,bending,1
BMu37,49,C,INI,Trunk_Forward,1,L_EO,101.37512352202847,return,1
BMu37,49,C,INI,Trunk_Forward,1,L_EO,91.05694583780321,bending,2
BMu37,49,C,INI,Trunk_Forward,1,L_EO,97.78005338143565,return,2
BMu37,49,C,INI,Trunk_Forward,1,L_EO,90.3652140268342,bending,3
BMu37,49,C,INI,Trunk_Forward,1,L_EO,94.4097271361462,return,3
BMu37,49,C,INI,Trunk_Forward,1,R_EO,97.24895661229857,bending,1
BMu37,49,C,INI,Trunk_Forward,1,R_EO,118.70344357981926,return,1
BMu37,49,C,INI,Trunk_Forward,1,R_EO,89.50735146588961,bending,2
BMu37,49,C,INI,Trunk_Forward,1,R_EO,107.81984200129331,return,2
BMu37,49,C,INI,Trunk_Forward,1,R_EO,104.73587011511988,bending,3
BMu37,49,C,INI,Trunk_Forward,1,R_EO,117.25655403330569,return,3
BMu37,49,C,REL,Trunk_Forward,1,L_EO,84.9398415861582,bending,1
BMu37,49,C,REL,Trunk_Forward,1,L_EO,61.275822292272146,return,1
BMu37,49,C,REL,Trunk_Forward,1,L_EO,74.23540367995238,bending,2
BMu37,49,C,REL,Trunk_Forward,1,L_EO,63.238136907844655,return,2
BMu37,49,C,REL,Trunk_Forward,1,L_EO,80.313570329521,bending,3
BMu37,49,C,REL,Trunk_Forward,1,L_EO,47.95506228282596,return,3
BMu37,49,C,REL,Trunk_Forward,1,R_EO,88.9377743105182,bending,1
BMu37,49,C,REL,Trunk_Forward,1,R_EO,115.15051329063158,return,1
BMu37,49,C,REL,Trunk_Forward,1,R_EO,110.8997884563666,bending,2
BMu37,49,C,REL,Trunk_Forward,1,R_EO,94.9686053514255,return,2
BMu37,49,C,REL,Trunk_Forward,1,R_EO,106.77275372270923,bending,3
BMu37,49,C,REL,Trunk_Forward,1,R_EO,116.70014720603976,return,3
BMu37,50,P,INI,Trunk_Forward,1,L_EO,88.60956344087629,bending,1
BMu37,50,P,INI,Trunk_Forward,1,L_EO,80.16744897085452,return,1
BMu37,50,P,INI,Trunk_Forward,1,L_EO,91.64571813723671,bending,2
BMu37,50,P,INI,Trunk_Forward,1,L_EO,88.84185004760748,return,2
BMu37,50,P,INI,Trunk_Forward,1,L_EO,91.21049716986408,bending,3
BMu37,50,P,INI,Trunk_Forward,1,L_EO,81.39128373946002,return,3
BMu37,50,P,INI,Trunk_Forward,1,R_EO,95.45893283724811,bending,1
BMu37,50,P,INI,Trunk_Forward,1,R_EO,118.89826755501167,return,1
BMu37,50,P,INI,Trunk_Forward,1,R_EO,123.88959219783551,bending,2
BMu37,50,P,INI,Trunk_Forward,1,R_EO,162.66240354797097,return,2
BMu37,50,P,INI,Trunk_Forward,1,R_EO,118.29437518853445,bending,3
BMu37,50,P,INI,Trunk_Forward,1,R_EO,142.10024917038794,return,3
BMu37,50,P,REL,Trunk_Forward,1,L_EO,87.86888548486826,bending,1
BMu37,50,P,REL,Trunk_Forward,1,L_EO,73.52847776598287,return,1
BMu37,50,P,REL,Trunk_Forward,1,L_EO,90.63034580971056,bending,2
BMu37,50,P,REL,Trunk_Forward,1,L_EO,82.18651547952429,return,2
BMu37,50,P,REL,Trunk_Forward,1,L_EO,84.53980647163127,bending,3
BMu37,50,P,REL,Trunk_Forward,1,L_EO,81.33895340804361,return,3
BMu37,50,P,REL,Trunk_Forward,1,R_EO,85.3061293406061,bending,1
BMu37,50,P,REL,Trunk_Forward,1,R_EO,115.18228989021793,return,1
BMu37,50,P,REL,Trunk_Forward,1,R_EO,73.9615657942624,bending,2
BMu37,50,P,REL,Trunk_Forward,1,R_EO,105.32489831073042,return,2
BMu37,50,P,REL,Trunk_Forward,1,R_EO,82.07626755044792,bending,3
BMu37,50,P,REL,Trunk_Forward,1,R_EO,117.02990650826851,return,3
BMu37,51,P,INI,Trunk_Forward,1,L_EO,122.73962485418265,bending,1
BMu37,51,P,INI,Trunk_Forward,1,L_EO,140.18979624178726,return,1
BMu37,51,P,INI,Trunk_Forward,1,L_EO,126.79802201328172,bending,2
BMu37,51,P,INI,Trunk_Forward,1,L_EO,127.13934302065189,return,2
BMu37,51,P,INI,Trunk_Forward,1,L_EO,128.43068115599215,bending,3
BMu37,51,P,INI,Trunk_Forward,1,L_EO,130.87245660837414,return,3
BMu37,51,P,INI,Trunk_Forward,1,R_EO,86.65341945336229,bending,1
BMu37,51,P,INI,Trunk_Forward,1,R_EO,87.20514223162796,return,1
BMu37,51,P,INI,Trunk_Forward,1,R_EO,85.50817162789997,bending,2
BMu37,51,P,INI,Trunk_Forward,1,R_EO,92.7203336764825,return,2
BMu37,51,P,INI,Trunk_Forward,1,R_EO,87.4410447131931,bending,3
BMu37,51,P,INI,Trunk_Forward,1,R_EO,90.63059091672379,return,3
BMu37,51,P,REL,Trunk_Forward,1,L_EO,147.88209090636434,bending,1
BMu37,51,P,REL,Trunk_Forward,1,L_EO,151.50027221524422,return,1
BMu37,51,P,REL,Trunk_Forward,1,L_EO,136.28308305542424,bending,2
BMu37,51,P,REL,Trunk_Forward,1,L_EO,132.00438314813368,return,2
BMu37,51,P,REL,Trunk_Forward,1,L_EO,142.1026361644622,bending,3
BMu37,51,P,REL,Trunk_Forward,1,L_EO,136.57558711629426,return,3
BMu37,51,P,REL,Trunk_Forward,1,R_EO,96.35645238924484,bending,1
BMu37,51,P,REL,Trunk_Forward,1,R_EO,110.03278315426114,return,1
BMu37,51,P,REL,Trunk_Forward,1,R_EO,98.0239156426232,bending,2
BMu37,51,P,REL,Trunk_Forward,1,R_EO,89.95159745100221,return,2
BMu37,51,P,REL,Trunk_Forward,1,R_EO,105.83792189892765,bending,3
BMu37,51,P,REL,Trunk_Forward,1,R_EO,94.25318914041364,return,3
BMu37,52,C,INI,Trunk_Forward,1,L_EO,98.40503571389031,bending,1
BMu37,52,C,INI,Trunk_Forward,1,L_EO,86.00249086715498,return,1
BMu37,52,C,INI,Trunk_Forward,1,L_EO,97.59080432289623,bending,2
BMu37,52,C,INI,Trunk_Forward,1,L_EO,78.51212399125433,return,2
BMu37,52,C,INI,Trunk_Forward,1,L_EO,106.80626491661833,bending,3
BMu37,52,C,INI,Trunk_Forward,1,L_EO,75.2336878954852,return,3
BMu37,52,C,INI,Trunk_Forward,1,R_EO,116.52132644930757,bending,1
BMu37,52,C,INI,Trunk_Forward,1,R_EO,112.65814987421754,return,1
BMu37,52,C,INI,Trunk_Forward,1,R_EO,111.47170962839812,bending,2
BMu37,52,C,INI,Trunk_Forward,1,R_EO,109.86502924731258,return,2
BMu37,52,C,INI,Trunk_Forward,1,R_EO,113.63905596316967,bending,3
BMu37,52,C,INI,Trunk_Forward,1,R_EO,115.33817891433718,return,3
BMu37,52,C,REL,Trunk_Forward,1,L_EO,117.16594280401519,bending,1
BMu37,52,C,REL,Trunk_Forward,1,L_EO,89.07570080759396,return,1
BMu37,52,C,REL,Trunk_Forward,1,L_EO,98.63433340725153,bending,2
BMu37,52,C,REL,Trunk_Forward,1,L_EO,87.70531365617128,return,2
BMu37,52,C,REL,Trunk_Forward,1,L_EO,103.19727338754811,bending,3
BMu37,52,C,REL,Trunk_Forward,1,L_EO,105.4036168115774,return,3
BMu37,52,C,REL,Trunk_Forward,1,R_EO,111.98410064790424,bending,1
BMu37,52,C,REL,Trunk_Forward,1,R_EO,105.28287958115291,return,1
BMu37,52,C,REL,Trunk_Forward,1,R_EO,109.14275319728021,bending,2
BMu37,52,C,REL,Trunk_Forward,1,R_EO,100.02468993263963,return,2
BMu37,52,C,REL,Trunk_Forward,1,R_EO,115.19514265049527,bending,3
BMu37,52,C,REL,Trunk_Forward,1,R_EO,111.01258443086702,return,3
BMu37,53,P,INI,Trunk_Forward,1,L_EO,114.49809162543067,bending,1
BMu37,53,P,INI,Trunk_Forward,1,L_EO,114.48362550948897,return,1
BMu37,53,P,INI,Trunk_Forward,1,L_EO,120.35154899096159,bending,2
BMu37,53,P,INI,Trunk_Forward,1,L_EO,121.25316147587637,return,2
BMu37,53,P,INI,Trunk_Forward,1,L_EO,128.3347180025306,bending,3
BMu37,53,P,INI,Trunk_Forward,1,L_EO,122.19063024377178,return,3
BMu37,53,P,INI,Trunk_Forward,1,R_EO,113.65964996179709,bending,1
BMu37,53,P,INI,Trunk_Forward,1,R_EO,116.47808489622682,return,1
BMu37,53,P,INI,Trunk_Forward,1,R_EO,113.54796346184257,bending,2
BMu37,53,P,INI,Trunk_Forward,1,R_EO,119.41190540328932,return,2
BMu37,53,P,INI,Trunk_Forward,1,R_EO,122.7719793454664,bending,3
BMu37,53,P,INI,Trunk_Forward,1,R_EO,121.53595075005487,return,3
BMu37,53,P,REL,Trunk_Forward,1,L_EO,125.58224096273749,bending,1
BMu37,53,P,REL,Trunk_Forward,1,L_EO,137.78694303741779,return,1
BMu37,53,P,REL,Trunk_Forward,1,L_EO,155.3976796182104,bending,2
BMu37,53,P,REL,Trunk_Forward,1,L_EO,140.39327607984856,return,2
BMu37,53,P,REL,Trunk_Forward,1,L_EO,139.77008022393167,bending,3
BMu37,53,P,REL,Trunk_Forward,1,L_EO,129.5631650321023,return,3
BMu37,53,P,REL,Trunk_Forward,1,R_EO,119.39486985081996,bending,1
BMu37,53,P,REL,Trunk_Forward,1,R_EO,121.68060488628377,return,1
BMu37,53,P,REL,Trunk_Forward,1,R_EO,123.17919933944802,bending,2
BMu37,53,P,REL,Trunk_Forward,1,R_EO,130.039528372198,return,2
BMu37,53,P,REL,Trunk_Forward,1,R_EO,124.46170179697646,bending,3
BMu37,53,P,REL,Trunk_Forward,1,R_EO,125.8449992274516,return,3
BMu37,54,P,INI,Trunk_Forward,1,L_EO,112.19328623444447,bending,1
BMu37,54,P,INI,Trunk_Forward,1,L_EO,117.35015754994745,return,1
BMu37,54,P,INI,Trunk_Forward,1,L_EO,122.95152876474698,bending,2
BMu37,54,P,INI,Trunk_Forward,1,L_EO,128.56352535861978,return,2
BMu37,54,P,INI,Trunk_Forward,1,L_EO,127.16783346094164,bending,3
BMu37,54,P,INI,Trunk_Forward,1,L_EO,121.336278763275,return,3
BMu37,54,P,INI,Trunk_Forward,1,R_EO,88.11920482931104,bending,1
BMu37,54,P,INI,Trunk_Forward,1,R_EO,80.20385212875284,return,1
BMu37,54,P,INI,Trunk_Forward,1,R_EO,83.16006733978313,bending,2
BMu37,54,P,INI,Trunk_Forward,1,R_EO,84.19975245159706,return,2
BMu37,54,P,INI,Trunk_Forward,1,R_EO,78.49054179722971,bending,3
BMu37,54,P,INI,Trunk_Forward,1,R_EO,87.69950244552791,return,3
BMu37,54,P,REL,Trunk_Forward,1,L_EO,90.38357165012073,bending,1
BMu37,54,P,REL,Trunk_Forward,1,L_EO,85.41455585394405,return,1
BMu37,54,P,REL,Trunk_Forward,1,L_EO,86.98820624615982,bending,2
BMu37,54,P,REL,Trunk_Forward,1,L_EO,80.37776322619466,return,2
BMu37,54,P,REL,Trunk_Forward,1,L_EO,80.39649350272292,bending,3
BMu37,54,P,REL,Trunk_Forward,1,L_EO,80.94410730864195,return,3
BMu37,54,P,REL,Trunk_Forward,1,R_EO,85.7150916182202,bending,1
BMu37,54,P,REL,Trunk_Forward,1,R_EO,87.19394288212743,return,1
BMu37,54,P,REL,Trunk_Forward,1,R_EO,85.6733256879626,bending,2
BMu37,54,P,REL,Trunk_Forward,1,R_EO,92.41840745796029,return,2
BMu37,54,P,REL,Trunk_Forward,1,R_EO,90.00149508102805,bending,3
BMu37,54,P,REL,Trunk_Forward,1,R_EO,88.96299988985326,return,3
BMu37,55,C,INI,Trunk_Forward,1,L_EO,105.74643250812724,bending,1
BMu37,55,C,INI,Trunk_Forward,1,L_EO,102.72954429680495,return,1
BMu37,55,C,INI,Trunk_Forward,1,L_EO,106.24813252797593,bending,2
BMu37,55,C,INI,Trunk_Forward,1,L_EO,96.73572763963429,return,2
BMu37,55,C,INI,Trunk_Forward,1,L_EO,98.93776210009082,bending,3
BMu37,55,C,INI,Trunk_Forward,1,L_EO,98.2588165386217,return,3
BMu37,55,C,INI,Trunk_Forward,1,R_EO,94.64568021920726,bending,1
BMu37,55,C,INI,Trunk_Forward,1,R_EO,101.76812415438775,return,1
BMu37,55,C,INI,Trunk_Forward,1,R_EO,93.5167187843248,bending,2
BMu37,55,C,INI,Trunk_Forward,1,R_EO,90.92444129592216,return,2
BMu37,55,C,INI,Trunk_Forward,1,R_EO,85.546409043682,bending,3
BMu37,55,C,INI,Trunk_Forward,1,R_EO,98.28929191365307,return,3
BMu37,55,C,REL,Trunk_Forward,1,L_EO,99.20674100900361,bending,1
BMu37,55,C,REL,Trunk_Forward,1,L_EO,98.62267796040712,return,1
BMu37,55,C,REL,Trunk_Forward,1,L_EO,93.91345754230403,bending,2
BMu37,55,C,REL,Trunk_Forward,1,L_EO,105.98190675531319,return,2
BMu37,55,C,REL,Trunk_Forward,1,L_EO,98.30232575271818,bending,3
BMu37,55,C,REL,Trunk_Forward,1,L_EO,104.48867621824982,return,3
BMu37,55,C,REL,Trunk_Forward,1,R_EO,89.88385769173891,bending,1
BMu37,55,C,REL,Trunk_Forward,1,R_EO,68.95503415852116,return,1
BMu37,55,C,REL,Trunk_Forward,1,R_EO,81.99352439350399,bending,2
BMu37,55,C,REL,Trunk_Forward,1,R_EO,75.04475379403024,return,2
BMu37,55,C,REL,Trunk_Forward,1,R_EO,77.0968672605327,bending,3
BMu37,55,C,REL,Trunk_Forward,1,R_EO,79.11983147729948,return,3
BMu37,56,C,INI,Trunk_Forward,1,L_EO,106.5475738252199,bending,1
BMu37,56,C,INI,Trunk_Forward,1,L_EO,112.75897843406567,return,1
BMu37,56,C,INI,Trunk_Forward,1,L_EO,114.20099479009535,bending,2
BMu37,56,C,INI,Trunk_Forward,1,L_EO,113.5407445980939,return,2
BMu37,56,C,INI,Trunk_Forward,1,L_EO,113.08259624244728,bending,3
BMu37,56,C,INI,Trunk_Forward,1,L_EO,112.07452351746053,return,3
BMu37,56,C,INI,Trunk_Forward,1,R_EO,96.80527652669976,bending,1
BMu37,56,C,INI,Trunk_Forward,1,R_EO,90.10166825779984,return,1
BMu37,56,C,INI,Trunk_Forward,1,R_EO,101.05124811487175,bending,2
BMu37,56,C,INI,Trunk_Forward,1,R_EO,90.12039967032982,return,2
BMu37,56,C,INI,Trunk_Forward,1,R_EO,95.13549760947886,bending,3
BMu37,56,C,INI,Trunk_Forward,1,R_EO,97.4900589262203,return,3
BMu37,56,C,REL,Trunk_Forward,1,L_EO,94.0169815645249,bending,1
BMu37,56,C,REL,Trunk_Forward,1,L_EO,96.86326258026227,return,1
BMu37,56,C,REL,Trunk_Forward,1,L_EO,98.38524701148098,bending,2
BMu37,56,C,REL,Trunk_Forward,1,L_EO,88.88109792483247,return,2
BMu37,56,C,REL,Trunk_Forward,1,L_EO,92.99697338281253,bending,3
BMu37,56,C,REL,Trunk_Forward,1,L_EO,92.21582120845504,return,3
BMu37,56,C,REL,Trunk_Forward,1,R_EO,96.88248918142158,bending,1
BMu37,56,C,REL,Trunk_Forward,1,R_EO,98.22993869274407,return,1
BMu37,56,C,REL,Trunk_Forward,1,R_EO,99.83063813843938,bending,2
BMu37,56,C,REL,Trunk_Forward,1,R_EO,95.7919993410157,return,2
BMu37,56,C,REL,Trunk_Forward,1,R_EO,96.44997776466545,bending,3
BMu37,56,C,REL,Trunk_Forward,1,R_EO,102.0259316627792,return,3
BMu37,57,C,INI,Trunk_Forward,1,L_EO,65.84891831468701,bending,1
BMu37,57,C,INI,Trunk_Forward,1,L_EO,59.60806034225507,return,1
BMu37,57,C,INI,Trunk_Forward,1,L_EO,64.20341954587488,bending,2
BMu37,57,C,INI,Trunk_Forward,1,L_EO,50.969170194514284,return,2
BMu37,57,C,INI,Trunk_Forward,1,L_EO,54.333025785578705,bending,3
BMu37,57,C,INI,Trunk_Forward,1,L_EO,56.12967798247605,return,3
BMu37,57,C,INI,Trunk_Forward,1,R_EO,217.43825242713993,bending,1
BMu37,57,C,INI,Trunk_Forward,1,R_EO,138.35082709525386,return,1
BMu37,57,C,INI,Trunk_Forward,1,R_EO,190.65664895422796,bending,2
BMu37,57,C,INI,Trunk_Forward,1,R_EO,158.1617044596152,return,2
BMu37,57,C,INI,Trunk_Forward,1,R_EO,151.69290339836843,bending,3
BMu37,57,C,INI,Trunk_Forward,1,R_EO,221.85636120871104,return,3
BMu37,57,C,REL,Trunk_Forward,1,L_EO,109.29911375610386,bending,1
BMu37,57,C,REL,Trunk_Forward,1,L_EO,106.63490333103275,return,1
BMu37,57,C,REL,Trunk_Forward,1,L_EO,103.32483379764986,bending,2
BMu37,57,C,REL,Trunk_Forward,1,L_EO,116.24607607862086,return,2
BMu37,57,C,REL,Trunk_Forward,1,L_EO,116.3051689380549,bending,3
BMu37,57,C,REL,Trunk_Forward,1,L_EO,108.35271537832978,return,3
BMu37,57,C,REL,Trunk_Forward,1,R_EO,127.50828032284286,bending,1
BMu37,57,C,REL,Trunk_Forward,1,R_EO,119.94624386164031,return,1
BMu37,57,C,REL,Trunk_Forward,1,R_EO,118.71197574946856,bending,2
BMu37,57,C,REL,Trunk_Forward,1,R_EO,132.99414030446744,return,2
BMu37,57,C,REL,Trunk_Forward,1,R_EO,129.523624307926,bending,3
BMu37,57,C,REL,Trunk_Forward,1,R_EO,121.97872684614211,return,3
BMu37,58,P,INI,Trunk_Forward,1,L_EO,134.53367143501686,bending,1
BMu37,58,P,INI,Trunk_Forward,1,L_EO,131.81852838468632,return,1
BMu37,58,P,INI,Trunk_Forward,1,L_EO,140.50788630997454,bending,2
BMu37,58,P,INI,Trunk_Forward,1,L_EO,125.42837650915601,return,2
BMu37,58,P,INI,Trunk_Forward,1,L_EO,136.84073061558672,bending,3
BMu37,58,P,INI,Trunk_Forward,1,L_EO,122.12634839998535,return,3
BMu37,58,P,INI,Trunk_Forward,1,R_EO,135.6070970063999,bending,1
BMu37,58,P,INI,Trunk_Forward,1,R_EO,130.65513283431522,return,1
BMu37,58,P,INI,Trunk_Forward,1,R_EO,129.98242486126438,bending,2
BMu37,58,P,INI,Trunk_Forward,1,R_EO,126.58310125338078,return,2
BMu37,58,P,INI,Trunk_Forward,1,R_EO,128.71905756342716,bending,3
BMu37,58,P,INI,Trunk_Forward,1,R_EO,131.14918486450864,return,3
BMu37,58,P,REL,Trunk_Forward,1,L_EO,125.82481762679545,bending,1
BMu37,58,P,REL,Trunk_Forward,1,L_EO,130.18308924223584,return,1
BMu37,58,P,REL,Trunk_Forward,1,L_EO,128.37254613386264,bending,2
BMu37,58,P,REL,Trunk_Forward,1,L_EO,127.79000016433766,return,2
BMu37,58,P,REL,Trunk_Forward,1,L_EO,135.6863062087536,bending,3
BMu37,58,P,REL,Trunk_Forward,1,L_EO,133.6070743714322,return,3
BMu37,58,P,REL,Trunk_Forward,1,R_EO,131.10783413161823,bending,1
BMu37,58,P,REL,Trunk_Forward,1,R_EO,112.52365740967923,return,1
BMu37,58,P,REL,Trunk_Forward,1,R_EO,125.30526564951501,bending,2
BMu37,58,P,REL,Trunk_Forward,1,R_EO,123.83947138662121,return,2
BMu37,58,P,REL,Trunk_Forward,1,R_EO,128.92390851752788,bending,3
BMu37,58,P,REL,Trunk_Forward,1,R_EO,130.7019910431952,return,3
BMu37,60,C,INI,Trunk_Forward,1,L_EO,104.80710085180807,bending,1
BMu37,60,C,INI,Trunk_Forward,1,L_EO,108.29473621790294,return,1
BMu37,60,C,INI,Trunk_Forward,1,L_EO,100.13059338165245,bending,2
BMu37,60,C,INI,Trunk_Forward,1,L_EO,99.77778513567796,return,2
BMu37,60,C,INI,Trunk_Forward,1,L_EO,107.53791952767062,bending,3
BMu37,60,C,INI,Trunk_Forward,1,L_EO,98.20366141302675,return,3
BMu37,60,C,INI,Trunk_Forward,1,R_EO,73.4015350894045,bending,1
BMu37,60,C,INI,Trunk_Forward,1,R_EO,87.53486895054448,return,1
BMu37,60,C,INI,Trunk_Forward,1,R_EO,71.51508094701637,bending,2
BMu37,60,C,INI,Trunk_Forward,1,R_EO,82.38847004733735,return,2
BMu37,60,C,INI,Trunk_Forward,1,R_EO,84.83026251635607,bending,3
BMu37,60,C,INI,Trunk_Forward,1,R_EO,81.59990407947762,return,3
BMu37,60,C,REL,Trunk_Forward,1,L_EO,99.06501058938026,bending,1
BMu37,60,C,REL,Trunk_Forward,1,L_EO,95.32441678262082,return,1
BMu37,60,C,REL,Trunk_Forward,1,L_EO,92.14105191810273,bending,2
BMu37,60,C,REL,Trunk_Forward,1,L_EO,100.64320679929915,return,2
BMu37,60,C,REL,Trunk_Forward,1,L_EO,91.95825368119914,bending,3
BMu37,60,C,REL,Trunk_Forward,1,L_EO,81.74862032379754,return,3
BMu37,60,C,REL,Trunk_Forward,1,R_EO,84.86182372824797,bending,1
BMu37,60,C,REL,Trunk_Forward,1,R_EO,81.53619041207138,return,1
BMu37,60,C,REL,Trunk_Forward,1,R_EO,85.29264852983914,bending,2
BMu37,60,C,REL,Trunk_Forward,1,R_EO,77.93101468120769,return,2
BMu37,60,C,REL,Trunk_Forward,1,R_EO,84.71555128115091,bending,3
BMu37,60,C,REL,Trunk_Forward,1,R_EO,86.20971047354146,return,3
BMu37,61,P,INI,Trunk_Forward,1,L_EO,94.54308899094471,bending,1
BMu37,61,P,INI,Trunk_Forward,1,L_EO,99.6510337022373,return,1
BMu37,61,P,INI,Trunk_Forward,1,L_EO,104.83527621356808,bending,2
BMu37,61,P,INI,Trunk_Forward,1,L_EO,102.5454490151181,return,2
BMu37,61,P,INI,Trunk_Forward,1,L_EO,107.32620796155638,bending,3
BMu37,61,P,INI,Trunk_Forward,1,L_EO,112.27672780500197,return,3
BMu37,61,P,INI,Trunk_Forward,1,R_EO,100.90406357613341,bending,1
BMu37,61,P,INI,Trunk_Forward,1,R_EO,104.23436968837248,return,1
BMu37,61,P,INI,Trunk_Forward,1,R_EO,105.3947750884744,bending,2
BMu37,61,P,INI,Trunk_Forward,1,R_EO,107.94699020446465,return,2
BMu37,61,P,INI,Trunk_Forward,1,R_EO,107.23417908813174,bending,3
BMu37,61,P,INI,Trunk_Forward,1,R_EO,113.13944056583394,return,3
BMu37,61,P,REL,Trunk_Forward,1,L_EO,149.88520115827296,bending,1
BMu37,61,P,REL,Trunk_Forward,1,L_EO,144.69584494551106,return,1
BMu37,61,P,REL,Trunk_Forward,1,L_EO,146.89739698341506,bending,2
BMu37,61,P,REL,Trunk_Forward,1,L_EO,151.86003323432848,return,2
BMu37,61,P,REL,Trunk_Forward,1,L_EO,157.09489835392424,bending,3
BMu37,61,P,REL,Trunk_Forward,1,L_EO,145.18722230827785,return,3
BMu37,61,P,REL,Trunk_Forward,1,R_EO,152.25645704809773,bending,1
BMu37,61,P,REL,Trunk_Forward,1,R_EO,145.6240794881779,return,1
BMu37,61,P,REL,Trunk_Forward,1,R_EO,148.22146360764805,bending,2
BMu37,61,P,REL,Trunk_Forward,1,R_EO,159.3643110186376,return,2
BMu37,61,P,REL,Trunk_Forward,1,R_EO,151.18033080167808,bending,3
BMu37,61,P,REL,Trunk_Forward,1,R_EO,143.5292873095299,return,3
BMu37,62,P,INI,Trunk_Forward,1,L_EO,107.42791338521693,bending,1
BMu37,62,P,INI,Trunk_Forward,1,L_EO,98.95584397061224,return,1
BMu37,62,P,INI,Trunk_Forward,1,L_EO,94.45196857376223,bending,2
BMu37,62,P,INI,Trunk_Forward,1,L_EO,83.72097102106576,return,2
BMu37,62,P,INI,Trunk_Forward,1,L_EO,72.36711815182672,bending,3
BMu37,62,P,INI,Trunk_Forward,1,L_EO,65.01632376610021,return,3
BMu37,62,P,INI,Trunk_Forward,1,R_EO,151.27037213421298,bending,1
BMu37,62,P,INI,Trunk_Forward,1,R_EO,128.29990053326748,return,1
BMu37,62,P,INI,Trunk_Forward,1,R_EO,131.826386064046,bending,2
BMu37,62,P,INI,Trunk_Forward,1,R_EO,119.01204786521755,return,2
BMu37,62,P,INI,Trunk_Forward,1,R_EO,113.16868270927641,bending,3
BMu37,62,P,INI,Trunk_Forward,1,R_EO,108.04066182035913,return,3
BMu37,62,P,REL,Trunk_Forward,1,L_EO,87.24867529425667,bending,1
BMu37,62,P,REL,Trunk_Forward,1,L_EO,93.99400293137175,return,1
BMu37,62,P,REL,Trunk_Forward,1,L_EO,98.19651657226977,bending,2
BMu37,62,P,REL,Trunk_Forward,1,L_EO,82.2417876434785,return,2
BMu37,62,P,REL,Trunk_Forward,1,L_EO,104.49330011837996,bending,3
BMu37,62,P,REL,Trunk_Forward,1,L_EO,103.26462200048273,return,3
BMu37,62,P,REL,Trunk_Forward,1,R_EO,125.50208642671204,bending,1
BMu37,62,P,REL,Trunk_Forward,1,R_EO,121.22425168233947,return,1
BMu37,62,P,REL,Trunk_Forward,1,R_EO,130.9272847323657,bending,2
BMu37,62,P,REL,Trunk_Forward,1,R_EO,114.09353633526227,return,2
BMu37,62,P,REL,Trunk_Forward,1,R_EO,125.78863215634918,bending,3
BMu37,62,P,REL,Trunk_Forward,1,R_EO,129.81579179088533,return,3
BMu37,63,P,INI,Trunk_Forward,1,L_EO,71.42013542469775,bending,1
BMu37,63,P,INI,Trunk_Forward,1,L_EO,68.274782956537,return,1
BMu37,63,P,INI,Trunk_Forward,1,L_EO,96.38319880918556,bending,2
BMu37,63,P,INI,Trunk_Forward,1,L_EO,108.2694429733415,return,2
BMu37,63,P,INI,Trunk_Forward,1,L_EO,75.4060216296759,bending,3
BMu37,63,P,INI,Trunk_Forward,1,L_EO,75.37437223028907,return,3
BMu37,63,P,INI,Trunk_Forward,1,R_EO,62.42228563181775,bending,1
BMu37,63,P,INI,Trunk_Forward,1,R_EO,74.9049004617475,return,1
BMu37,63,P,INI,Trunk_Forward,1,R_EO,58.38937263491982,bending,2
BMu37,63,P,INI,Trunk_Forward,1,R_EO,79.31705941626704,return,2
BMu37,63,P,INI,Trunk_Forward,1,R_EO,59.860082589944305,bending,3
BMu37,63,P,INI,Trunk_Forward,1,R_EO,58.7051559607901,return,3
BMu37,63,P,REL,Trunk_Forward,1,L_EO,106.12351119949425,bending,1
BMu37,63,P,REL,Trunk_Forward,1,L_EO,118.45052997373485,return,1
BMu37,63,P,REL,Trunk_Forward,1,L_EO,93.48586193732785,bending,2
BMu37,63,P,REL,Trunk_Forward,1,L_EO,120.56334709942435,return,2
BMu37,63,P,REL,Trunk_Forward,1,L_EO,103.65351969872832,bending,3
BMu37,63,P,REL,Trunk_Forward,1,L_EO,117.15951165157152,return,3
BMu37,63,P,REL,Trunk_Forward,1,R_EO,133.55414925877037,bending,1
BMu37,63,P,REL,Trunk_Forward,1,R_EO,105.12681012667565,return,1
BMu37,63,P,REL,Trunk_Forward,1,R_EO,111.938276448223,bending,2
BMu37,63,P,REL,Trunk_Forward,1,R_EO,82.83509748377666,return,2
BMu37,63,P,REL,Trunk_Forward,1,R_EO,75.79978437846108,bending,3
BMu37,63,P,REL,Trunk_Forward,1,R_EO,94.00541592041787,return,3
BMu37,64,C,INI,Trunk_Forward,1,L_EO,92.84165873759017,bending,1
BMu37,64,C,INI,Trunk_Forward,1,L_EO,103.21691745313306,return,1
BMu37,64,C,INI,Trunk_Forward,1,L_EO,77.84413629097575,bending,2
BMu37,64,C,INI,Trunk_Forward,1,L_EO,93.4545471446539,return,2
BMu37,64,C,INI,Trunk_Forward,1,L_EO,83.27062395039523,bending,3
BMu37,64,C,INI,Trunk_Forward,1,L_EO,91.72207314120026,return,3
BMu37,64,C,INI,Trunk_Forward,1,R_EO,88.21702651708279,bending,1
BMu37,64,C,INI,Trunk_Forward,1,R_EO,96.94616267697941,return,1
BMu37,64,C,INI,Trunk_Forward,1,R_EO,97.45848098912876,bending,2
BMu37,64,C,INI,Trunk_Forward,1,R_EO,101.86646888161127,return,2
BMu37,64,C,INI,Trunk_Forward,1,R_EO,94.08824080467365,bending,3
BMu37,64,C,INI,Trunk_Forward,1,R_EO,101.9871113777744,return,3
BMu37,64,C,REL,Trunk_Forward,1,L_EO,80.77868505517132,bending,1
BMu37,64,C,REL,Trunk_Forward,1,L_EO,94.1207253064559,return,1
BMu37,64,C,REL,Trunk_Forward,1,L_EO,83.92611267637608,bending,2
BMu37,64,C,REL,Trunk_Forward,1,L_EO,86.71814260421256,return,2
BMu37,64,C,REL,Trunk_Forward,1,L_EO,83.18583440142199,bending,3
BMu37,64,C,REL,Trunk_Forward,1,L_EO,85.05196374037698,return,3
BMu37,64,C,REL,Trunk_Forward,1,R_EO,77.67610906364723,bending,1
BMu37,64,C,REL,Trunk_Forward,1,R_EO,85.2679337735883,return,1
BMu37,64,C,REL,Trunk_Forward,1,R_EO,80.40919502676684,bending,2
BMu37,64,C,REL,Trunk_Forward,1,R_EO,86.55594565439998,return,2
BMu37,64,C,REL,Trunk_Forward,1,R_EO,83.75640490890292,bending,3
BMu37,64,C,REL,Trunk_Forward,1,R_EO,91.45816739577239,return,3
BMu37,65,P,INI,Trunk_Forward,1,L_EO,101.3924594029625,bending,1
BMu37,65,P,INI,Trunk_Forward,1,L_EO,105.65565187629052,return,1
BMu37,65,P,INI,Trunk_Forward,1,L_EO,101.38793842057758,bending,2
BMu37,65,P,INI,Trunk_Forward,1,L_EO,99.83387195962689,return,2
BMu37,65,P,INI,Trunk_Forward,1,L_EO,106.23729631517512,bending,3
BMu37,65,P,INI,Trunk_Forward,1,L_EO,116.4998133366782,return,3
BMu37,65,P,INI,Trunk_Forward,1,R_EO,108.7540289482881,bending,1
BMu37,65,P,INI,Trunk_Forward,1,R_EO,102.3863055174452,return,1
BMu37,65,P,INI,Trunk_Forward,1,R_EO,103.14833767622896,bending,2
BMu37,65,P,INI,Trunk_Forward,1,R_EO,108.74820948582872,return,2
BMu37,65,P,INI,Trunk_Forward,1,R_EO,106.65780371695828,bending,3
BMu37,65,P,INI,Trunk_Forward,1,R_EO,117.82401858471837,return,3
BMu37,65,P,REL,Trunk_Forward,1,L_EO,99.7515401814646,bending,1
BMu37,65,P,REL,Trunk_Forward,1,L_EO,101.74327907921052,return,1
BMu37,65,P,REL,Trunk_Forward,1,L_EO,104.51205672027382,bending,2
BMu37,65,P,REL,Trunk_Forward,1,L_EO,105.43102178476201,return,2
BMu37,65,P,REL,Trunk_Forward,1,L_EO,101.37185437047124,bending,3
BMu37,65,P,REL,Trunk_Forward,1,L_EO,104.76803654012423,return,3
BMu37,65,P,REL,Trunk_Forward,1,R_EO,106.87715569043469,bending,1
BMu37,65,P,REL,Trunk_Forward,1,R_EO,108.45193670497567,return,1
BMu37,65,P,REL,Trunk_Forward,1,R_EO,106.0286580333126,bending,2
BMu37,65,P,REL,Trunk_Forward,1,R_EO,111.60449551296914,return,2
BMu37,65,P,REL,Trunk_Forward,1,R_EO,111.27899282692884,bending,3
BMu37,65,P,REL,Trunk_Forward,1,R_EO,105.31409388200493,return,3
BMu37,66,C,INI,Trunk_Forward,1,L_EO,159.57950726497253,bending,1
BMu37,66,C,INI,Trunk_Forward,1,L_EO,158.94016492645102,return,1
BMu37,66,C,INI,Trunk_Forward,1,L_EO,149.16460902545896,bending,2
BMu37,66,C,INI,Trunk_Forward,1,L_EO,151.17295375318935,return,2
BMu37,66,C,INI,Trunk_Forward,1,L_EO,167.97342147100895,bending,3
BMu37,66,C,INI,Trunk_Forward,1,L_EO,139.32919992437272,return,3
BMu37,66,C,INI,Trunk_Forward,1,R_EO,219.5989779535121,bending,1
BMu37,66,C,INI,Trunk_Forward,1,R_EO,163.34568585637027,return,1
BMu37,66,C,INI,Trunk_Forward,1,R_EO,205.48186634411545,bending,2
BMu37,66,C,INI,Trunk_Forward,1,R_EO,131.6088849254245,return,2
BMu37,66,C,INI,Trunk_Forward,1,R_EO,193.66115129412955,bending,3
BMu37,66,C,INI,Trunk_Forward,1,R_EO,225.23797439519862,return,3
BMu37,66,C,REL,Trunk_Forward,1,L_EO,116.80112099441146,bending,1
BMu37,66,C,REL,Trunk_Forward,1,L_EO,121.29702890882275,return,1
BMu37,66,C,REL,Trunk_Forward,1,L_EO,122.52970691297764,bending,2
BMu37,66,C,REL,Trunk_Forward,1,L_EO,117.56812910782581,return,2
BMu37,66,C,REL,Trunk_Forward,1,L_EO,122.92616338130561,bending,3
BMu37,66,C,REL,Trunk_Forward,1,L_EO,111.9436451425825,return,3
BMu37,66,C,REL,Trunk_Forward,1,R_EO,76.27733851007594,bending,1
BMu37,66,C,REL,Trunk_Forward,1,R_EO,78.23303079648169,return,1
BMu37,66,C,REL,Trunk_Forward,1,R_EO,53.285249330812434,bending,2
BMu37,66,C,REL,Trunk_Forward,1,R_EO,63.651867506548115,return,2
BMu37,66,C,REL,Trunk_Forward,1,R_EO,66.0820167087455,bending,3
BMu37,66,C,REL,Trunk_Forward,1,R_EO,79.9534726265392,return,3
BMu37,67,C,INI,Trunk_Forward,1,L_EO,57.9005782487235,bending,1
BMu37,67,C,INI,Trunk_Forward,1,L_EO,67.73790292716454,return,1
BMu37,67,C,INI,Trunk_Forward,1,L_EO,81.6939106319819,bending,2
BMu37,67,C,INI,Trunk_Forward,1,L_EO,121.19073332112909,return,2
BMu37,67,C,INI,Trunk_Forward,1,L_EO,71.15107133910557,bending,3
BMu37,67,C,INI,Trunk_Forward,1,L_EO,97.80235936554074,return,3
BMu37,67,C,INI,Trunk_Forward,1,R_EO,53.23637585841175,bending,1
BMu37,67,C,INI,Trunk_Forward,1,R_EO,67.98199248417734,return,1
BMu37,67,C,INI,Trunk_Forward,1,R_EO,71.75336122147388,bending,2
BMu37,67,C,INI,Trunk_Forward,1,R_EO,109.01412639289197,return,2
BMu37,67,C,INI,Trunk_Forward,1,R_EO,61.43355883356003,bending,3
BMu37,67,C,INI,Trunk_Forward,1,R_EO,59.006746306386475,return,3
BMu37,67,C,REL,Trunk_Forward,1,L_EO,69.48458877694723,bending,1
BMu37,67,C,REL,Trunk_Forward,1,L_EO,53.997128159247346,return,1
BMu37,67,C,REL,Trunk_Forward,1,L_EO,61.841426737582445,bending,2
BMu37,67,C,REL,Trunk_Forward,1,L_EO,85.54988389720593,return,2
BMu37,67,C,REL,Trunk_Forward,1,L_EO,57.951455242458586,bending,3
BMu37,67,C,REL,Trunk_Forward,1,L_EO,57.465504144436906,return,3
BMu37,67,C,REL,Trunk_Forward,1,R_EO,79.24337328774868,bending,1
BMu37,67,C,REL,Trunk_Forward,1,R_EO,49.0454927656752,return,1
BMu37,67,C,REL,Trunk_Forward,1,R_EO,75.10737660155266,bending,2
BMu37,67,C,REL,Trunk_Forward,1,R_EO,55.540819920708344,return,2
BMu37,67,C,REL,Trunk_Forward,1,R_EO,58.3023912965506,bending,3
BMu37,67,C,REL,Trunk_Forward,1,R_EO,67.4558544708475,return,3
BMu37,68,C,INI,Trunk_Forward,1,L_EO,74.27770982348913,bending,1
BMu37,68,C,INI,Trunk_Forward,1,L_EO,74.01581994279331,return,1
BMu37,68,C,INI,Trunk_Forward,1,L_EO,90.50762421400051,bending,2
BMu37,68,C,INI,Trunk_Forward,1,L_EO,64.73647298273094,return,2
BMu37,68,C,INI,Trunk_Forward,1,L_EO,90.91583502674011,bending,3
BMu37,68,C,INI,Trunk_Forward,1,L_EO,97.3377069230308,return,3
BMu37,68,C,INI,Trunk_Forward,1,R_EO,47.30791994578755,bending,1
BMu37,68,C,INI,Trunk_Forward,1,R_EO,55.20079195701401,return,1
BMu37,68,C,INI,Trunk_Forward,1,R_EO,48.43068129046183,bending,2
BMu37,68,C,INI,Trunk_Forward,1,R_EO,35.09816869539294,return,2
BMu37,68,C,INI,Trunk_Forward,1,R_EO,43.155467943357245,bending,3
BMu37,68,C,INI,Trunk_Forward,1,R_EO,49.38987802388169,return,3
BMu37,68,C,REL,Trunk_Forward,1,L_EO,88.69698409947773,bending,1
BMu37,68,C,REL,Trunk_Forward,1,L_EO,93.67043327123281,return,1
BMu37,68,C,REL,Trunk_Forward,1,L_EO,83.81203755212717,bending,2
BMu37,68,C,REL,Trunk_Forward,1,L_EO,92.61276023698916,return,2
BMu37,68,C,REL,Trunk_Forward,1,L_EO,105.99323419782708,bending,3
BMu37,68,C,REL,Trunk_Forward,1,L_EO,87.16397692909256,return,3
BMu37,68,C,REL,Trunk_Forward,1,L_EO,73.14764273710689,bending,4
BMu37,68,C,REL,Trunk_Forward,1,L_EO,99.04747927741532,return,4
BMu37,68,C,REL,Trunk_Forward,1,R_EO,67.01516649423105,bending,1
BMu37,68,C,REL,Trunk_Forward,1,R_EO,48.934327827767184,return,1
BMu37,68,C,REL,Trunk_Forward,1,R_EO,52.248732714877534,bending,2
BMu37,68,C,REL,Trunk_Forward,1,R_EO,86.84798784628654,return,2
BMu37,68,C,REL,Trunk_Forward,1,R_EO,62.732613763692484,bending,3
BMu37,68,C,REL,Trunk_Forward,1,R_EO,76.95904051108118,return,3
BMu37,68,C,REL,Trunk_Forward,1,R_EO,56.0131682678068,bending,4
BMu37,68,C,REL,Trunk_Forward,1,R_EO,67.65195625724947,return,4
