BMu,subject,P_C,session,task,trials,channel,value,event,repetition
BMu36,1,C,INI,Trunk_Forward,1,L_MTF,4.153716061387537,bending,1
BMu36,1,C,INI,Trunk_Forward,1,L_MTF,8.101379738349134,return,1
BMu36,1,C,INI,Trunk_Forward,1,L_MTF,4.076197099423037,bending,2
BMu36,1,C,INI,Trunk_Forward,1,L_MTF,10.298827794464032,return,2
BMu36,1,C,INI,Trunk_Forward,1,L_MTF,4.721843316572612,bending,3
BMu36,1,C,INI,Trunk_Forward,1,L_MTF,9.900175152463218,return,3
BMu36,1,C,INI,Trunk_Forward,1,R_MTF,0.903236637321992,bending,1
BMu36,1,C,INI,Trunk_Forward,1,R_MTF,1.0732080331624068,return,1
BMu36,1,C,INI,Trunk_Forward,1,R_MTF,0.9067828030869667,bending,2
BMu36,1,C,INI,Trunk_Forward,1,R_MTF,1.5931816632721811,return,2
BMu36,1,C,INI,Trunk_Forward,1,R_MTF,1.1833904177982681,bending,3
BMu36,1,C,INI,Trunk_Forward,1,R_MTF,1.6263849045137604,return,3
BMu36,1,C,REL,Trunk_Forward,1,L_MTF,2.419834682053687,bending,1
BMu36,1,C,REL,Trunk_Forward,1,L_MTF,3.680402710929905,return,1
BMu36,1,C,REL,Trunk_Forward,1,L_MTF,2.3220307019579867,bending,2
BMu36,1,C,REL,Trunk_Forward,1,L_MTF,3.656837683325932,return,2
BMu36,1,C,REL,Trunk_Forward,1,L_MTF,2.1247732265475863,bending,3
BMu36,1,C,REL,Trunk_Forward,1,L_MTF,3.2284215587494556,return,3
BMu36,1,C,REL,Trunk_Forward,1,R_MTF,0.6222248221814698,bending,1
BMu36,1,C,REL,Trunk_Forward,1,R_MTF,0.6473173438951095,return,1
BMu36,1,C,REL,Trunk_Forward,1,R_MTF,0.4581015838009291,bending,2
BMu36,1,C,REL,Trunk_Forward,1,R_MTF,0.8466523938282993,return,2
BMu36,1,C,REL,Trunk_Forward,1,R_MTF,0.4915655906721519,bending,3
BMu36,1,C,REL,Trunk_Forward,1,R_MTF,0.3708018080513142,return,3
BMu36,2,C,INI,Trunk_Forward,1,L_MTF,4.008085620894598,bending,1
BMu36,2,C,INI,Trunk_Forward,1,L_MTF,7.794958983818988,return,1
BMu36,2,C,INI,Trunk_Forward,1,L_MTF,3.953396040497421,bending,2
BMu36,2,C,INI,Trunk_Forward,1,L_MTF,9.496806570545056,return,2
BMu36,2,C,INI,Trunk_Forward,1,L_MTF,3.0218023818525994,bending,3
BMu36,2,C,INI,Trunk_Forward,1,L_MTF,7.238623547605042,return,3
BMu36,2,C,INI,Trunk_Forward,1,R_MTF,7.118389839866352,bending,1
BMu36,2,C,INI,Trunk_Forward,1,R_MTF,10.842326179369637,return,1
BMu36,2,C,INI,Trunk_Forward,1,R_MTF,6.909703596998299,bending,2
BMu36,2,C,INI,Trunk_Forward,1,R_MTF,12.469726065632138,return,2
BMu36,2,C,INI,Trunk_Forward,1,R_MTF,5.796973433911596,bending,3
BMu36,2,C,INI,Trunk_Forward,1,R_MTF,10.062008630305732,return,3
BMu36,2,C,REL,Trunk_Forward,1,L_MTF,3.956829378241454,bending,1
BMu36,2,C,REL,Trunk_Forward,1,L_MTF,7.866693984692456,return,1
BMu36,2,C,REL,Trunk_Forward,1,L_MTF,2.892752892181225,bending,2
BMu36,2,C,REL,Trunk_Forward,1,L_MTF,7.821577393380763,return,2
BMu36,2,C,REL,Trunk_Forward,1,L_MTF,5.034122135585821,bending,3
BMu36,2,C,REL,Trunk_Forward,1,L_MTF,6.45138685899146,return,3
BMu36,2,C,REL,Trunk_Forward,1,R_MTF,5.092592287454961,bending,1
BMu36,2,C,REL,Trunk_Forward,1,R_MTF,7.984866164149237,return,1
BMu36,2,C,REL,Trunk_Forward,1,R_MTF,3.9454454749675194,bending,2
BMu36,2,C,REL,Trunk_Forward,1,R_MTF,8.282947533754005,return,2
BMu36,2,C,REL,Trunk_Forward,1,R_MTF,6.7707339827548205,bending,3
BMu36,2,C,REL,Trunk_Forward,1,R_MTF,6.788159552218545,return,3
BMu36,3,C,INI,Trunk_Forward,1,L_MTF,4.886312944257533,bending,1
BMu36,3,C,INI,Trunk_Forward,1,L_MTF,8.274620481288517,return,1
BMu36,3,C,INI,Trunk_Forward,1,L_MTF,5.0381606252903115,bending,2
BMu36,3,C,INI,Trunk_Forward,1,L_MTF,8.74054113312697,return,2
BMu36,3,C,INI,Trunk_Forward,1,L_MTF,4.75303226425157,bending,3
BMu36,3,C,INI,Trunk_Forward,1,L_MTF,7.658085562322788,return,3
BMu36,3,C,INI,Trunk_Forward,1,R_MTF,4.997288689201552,bending,1
BMu36,3,C,INI,Trunk_Forward,1,R_MTF,7.579149628628088,return,1
BMu36,3,C,INI,Trunk_Forward,1,R_MTF,4.854513742733605,bending,2
BMu36,3,C,INI,Trunk_Forward,1,R_MTF,7.806744276007676,return,2
BMu36,3,C,INI,Trunk_Forward,1,R_MTF,4.590266052935123,bending,3
BMu36,3,C,INI,Trunk_Forward,1,R_MTF,6.867995346657033,return,3
BMu36,3,C,REL,Trunk_Forward,1,L_MTF,5.52574040377786,bending,1
BMu36,3,C,REL,Trunk_Forward,1,L_MTF,8.635393900670755,return,1
BMu36,3,C,REL,Trunk_Forward,1,L_MTF,5.7179529765072035,bending,2
BMu36,3,C,REL,Trunk_Forward,1,L_MTF,9.589755893076951,return,2
BMu36,3,C,REL,Trunk_Forward,1,L_MTF,5.318252978577357,bending,3
BMu36,3,C,REL,Trunk_Forward,1,L_MTF,7.564299068842177,return,3
BMu36,3,C,REL,Trunk_Forward,1,R_MTF,3.3628663478169702,bending,1
BMu36,3,C,REL,Trunk_Forward,1,R_MTF,5.377091621027478,return,1
BMu36,3,C,REL,Trunk_Forward,1,R_MTF,3.539933229935795,bending,2
BMu36,3,C,REL,Trunk_Forward,1,R_MTF,6.891169684723756,return,2
BMu36,3,C,REL,Trunk_Forward,1,R_MTF,3.689619267887678,bending,3
BMu36,3,C,REL,Trunk_Forward,1,R_MTF,5.017381816497215,return,3
BMu36,5,C,INI,Trunk_Forward,1,L_MTF,1.7711411335768747,bending,1
BMu36,5,C,INI,Trunk_Forward,1,L_MTF,8.734004302847616,return,1
BMu36,5,C,INI,Trunk_Forward,1,L_MTF,2.3758229059958587,bending,2
BMu36,5,C,INI,Trunk_Forward,1,L_MTF,7.731452505926051,return,2
BMu36,5,C,INI,Trunk_Forward,1,L_MTF,2.5994136675819544,bending,3
BMu36,5,C,INI,Trunk_Forward,1,L_MTF,5.628881984237356,return,3
BMu36,5,C,INI,Trunk_Forward,1,R_MTF,3.135751024440765,bending,1
BMu36,5,C,INI,Trunk_Forward,1,R_MTF,10.941240317734941,return,1
BMu36,5,C,INI,Trunk_Forward,1,R_MTF,3.8306926137610535,bending,2
BMu36,5,C,INI,Trunk_Forward,1,R_MTF,9.569447359851626,return,2
BMu36,5,C,INI,Trunk_Forward,1,R_MTF,3.9009166450126416,bending,3
BMu36,5,C,INI,Trunk_Forward,1,R_MTF,7.80844520759768,return,3
BMu36,5,C,REL,Trunk_Forward,1,L_MTF,4.804023350360621,bending,1
BMu36,5,C,REL,Trunk_Forward,1,L_MTF,6.202059575112926,return,1
BMu36,5,C,REL,Trunk_Forward,1,L_MTF,2.9970500485288936,bending,2
BMu36,5,C,REL,Trunk_Forward,1,L_MTF,6.820565326986575,return,2
BMu36,5,C,REL,Trunk_Forward,1,L_MTF,2.721131419491365,bending,3
BMu36,5,C,REL,Trunk_Forward,1,L_MTF,7.380164078078891,return,3
BMu36,5,C,REL,Trunk_Forward,1,L_MTF,2.1753145266116833,bending,4
BMu36,5,C,REL,Trunk_Forward,1,L_MTF,5.05302889351737,return,4
BMu36,5,C,REL,Trunk_Forward,1,R_MTF,5.454828908303664,bending,1
BMu36,5,C,REL,Trunk_Forward,1,R_MTF,7.353643890210998,return,1
BMu36,5,C,REL,Trunk_Forward,1,R_MTF,3.8335488161607754,bending,2
BMu36,5,C,REL,Trunk_Forward,1,R_MTF,8.237632877975615,return,2
BMu36,5,C,REL,Trunk_Forward,1,R_MTF,3.46977835359068,bending,3
BMu36,5,C,REL,Trunk_Forward,1,R_MTF,8.667084800345384,return,3
BMu36,5,C,REL,Trunk_Forward,1,R_MTF,3.11225583150762,bending,4
BMu36,5,C,REL,Trunk_Forward,1,R_MTF,7.3278878002839285,return,4
BMu36,6,C,INI,Trunk_Forward,1,L_MTF,9.07738347203478,bending,1
BMu36,6,C,INI,Trunk_Forward,1,L_MTF,13.231414493434748,return,1
BMu36,6,C,INI,Trunk_Forward,1,L_MTF,8.890588784939023,bending,2
BMu36,6,C,INI,Trunk_Forward,1,L_MTF,13.596893419290494,return,2
BMu36,6,C,INI,Trunk_Forward,1,L_MTF,8.625589777569772,bending,3
BMu36,6,C,INI,Trunk_Forward,1,L_MTF,12.67647743493071,return,3
BMu36,6,C,INI,Trunk_Forward,1,L_MTF,8.998504544061182,bending,4
BMu36,6,C,INI,Trunk_Forward,1,L_MTF,10.968809295535833,return,4
BMu36,6,C,INI,Trunk_Forward,1,R_MTF,10.943129606441055,bending,1
BMu36,6,C,INI,Trunk_Forward,1,R_MTF,14.411774258488176,return,1
BMu36,6,C,INI,Trunk_Forward,1,R_MTF,11.221662554807356,bending,2
BMu36,6,C,INI,Trunk_Forward,1,R_MTF,14.564430396345037,return,2
BMu36,6,C,INI,Trunk_Forward,1,R_MTF,10.556579507956267,bending,3
BMu36,6,C,INI,Trunk_Forward,1,R_MTF,14.016445261885934,return,3
BMu36,6,C,INI,Trunk_Forward,1,R_MTF,10.604518614348477,bending,4
BMu36,6,C,INI,Trunk_Forward,1,R_MTF,12.688330818026891,return,4
BMu36,6,C,REL,Trunk_Forward,1,L_MTF,7.3152487299127555,bending,1
BMu36,6,C,REL,Trunk_Forward,1,L_MTF,10.525839058978622,return,1
BMu36,6,C,REL,Trunk_Forward,1,L_MTF,8.128767296342765,bending,2
BMu36,6,C,REL,Trunk_Forward,1,L_MTF,11.02964280753593,return,2
BMu36,6,C,REL,Trunk_Forward,1,L_MTF,6.845697122019653,bending,3
BMu36,6,C,REL,Trunk_Forward,1,L_MTF,9.644973431429353,return,3
BMu36,6,C,REL,Trunk_Forward,1,R_MTF,2.645870779304853,bending,1
BMu36,6,C,REL,Trunk_Forward,1,R_MTF,3.5635521562213217,return,1
BMu36,6,C,REL,Trunk_Forward,1,R_MTF,2.5427495489175076,bending,2
BMu36,6,C,REL,Trunk_Forward,1,R_MTF,3.7536677985562394,return,2
BMu36,6,C,REL,Trunk_Forward,1,R_MTF,2.471916668425756,bending,3
BMu36,6,C,REL,Trunk_Forward,1,R_MTF,3.6977413311016227,return,3
BMu36,7,C,INI,Trunk_Forward,1,L_MTF,1.3377121630877062,bending,1
BMu36,7,C,INI,Trunk_Forward,1,L_MTF,2.1001200333440613,return,1
BMu36,7,C,INI,Trunk_Forward,1,L_MTF,2.764770637022766,bending,2
BMu36,7,C,INI,Trunk_Forward,1,L_MTF,2.6655615484386708,return,2
BMu36,7,C,INI,Trunk_Forward,1,L_MTF,4.6499767688198785,bending,3
BMu36,7,C,INI,Trunk_Forward,1,L_MTF,7.258057025008926,return,3
BMu36,7,C,INI,Trunk_Forward,1,R_MTF,5.531625054625035,bending,1
BMu36,7,C,INI,Trunk_Forward,1,R_MTF,7.643064806921591,return,1
BMu36,7,C,INI,Trunk_Forward,1,R_MTF,5.890428806382157,bending,2
BMu36,7,C,INI,Trunk_Forward,1,R_MTF,7.763086431619734,return,2
BMu36,7,C,INI,Trunk_Forward,1,R_MTF,7.5720158359918,bending,3
BMu36,7,C,INI,Trunk_Forward,1,R_MTF,8.04641916467368,return,3
BMu36,7,C,REL,Trunk_Forward,1,L_MTF,6.720953380331395,bending,1
BMu36,7,C,REL,Trunk_Forward,1,L_MTF,10.851209384248616,return,1
BMu36,7,C,REL,Trunk_Forward,1,L_MTF,7.167011740140231,bending,2
BMu36,7,C,REL,Trunk_Forward,1,L_MTF,11.379861057855674,return,2
BMu36,7,C,REL,Trunk_Forward,1,L_MTF,6.882877053784231,bending,3
BMu36,7,C,REL,Trunk_Forward,1,L_MTF,11.28170555122471,return,3
BMu36,7,C,REL,Trunk_Forward,1,R_MTF,7.596614449128479,bending,1
BMu36,7,C,REL,Trunk_Forward,1,R_MTF,9.75448409934335,return,1
BMu36,7,C,REL,Trunk_Forward,1,R_MTF,6.451902966860202,bending,2
BMu36,7,C,REL,Trunk_Forward,1,R_MTF,10.848110934260534,return,2
BMu36,7,C,REL,Trunk_Forward,1,R_MTF,7.336213315753074,bending,3
BMu36,7,C,REL,Trunk_Forward,1,R_MTF,10.933598904681258,return,3
BMu36,8,C,INI,Trunk_Forward,1,L_MTF,0.523347934318503,bending,1
BMu36,8,C,INI,Trunk_Forward,1,L_MTF,0.5381558290196855,return,1
BMu36,8,C,INI,Trunk_Forward,1,L_MTF,0.4578860883882858,bending,2
BMu36,8,C,INI,Trunk_Forward,1,L_MTF,0.5889428483879187,return,2
BMu36,8,C,INI,Trunk_Forward,1,L_MTF,0.3951243030739639,bending,3
BMu36,8,C,INI,Trunk_Forward,1,L_MTF,0.4687371302228435,return,3
BMu36,8,C,INI,Trunk_Forward,1,R_MTF,3.332198589159312,bending,1
BMu36,8,C,INI,Trunk_Forward,1,R_MTF,6.5371449573544265,return,1
BMu36,8,C,INI,Trunk_Forward,1,R_MTF,3.1270603550705114,bending,2
BMu36,8,C,INI,Trunk_Forward,1,R_MTF,6.244316954200285,return,2
BMu36,8,C,INI,Trunk_Forward,1,R_MTF,3.77666957631958,bending,3
BMu36,8,C,INI,Trunk_Forward,1,R_MTF,6.344889203560731,return,3
BMu36,8,C,REL,Trunk_Forward,1,L_MTF,3.3538031508988637,bending,1
BMu36,8,C,REL,Trunk_Forward,1,L_MTF,6.454786821507984,return,1
BMu36,8,C,REL,Trunk_Forward,1,L_MTF,2.954914457542305,bending,2
BMu36,8,C,REL,Trunk_Forward,1,L_MTF,7.867184044104249,return,2
BMu36,8,C,REL,Trunk_Forward,1,L_MTF,2.996627331074716,bending,3
BMu36,8,C,REL,Trunk_Forward,1,L_MTF,5.683765162973676,return,3
BMu36,8,C,REL,Trunk_Forward,1,R_MTF,3.130684407231379,bending,1
BMu36,8,C,REL,Trunk_Forward,1,R_MTF,5.985456156980884,return,1
BMu36,8,C,REL,Trunk_Forward,1,R_MTF,3.3825668690646173,bending,2
BMu36,8,C,REL,Trunk_Forward,1,R_MTF,7.194220685021237,return,2
BMu36,8,C,REL,Trunk_Forward,1,R_MTF,2.94252490923161,bending,3
BMu36,8,C,REL,Trunk_Forward,1,R_MTF,5.226169832229902,return,3
BMu36,9,P,INI,Trunk_Forward,1,L_MTF,9.348933219804229,bending,1
BMu36,9,P,INI,Trunk_Forward,1,L_MTF,14.150783027090949,return,1
BMu36,9,P,INI,Trunk_Forward,1,L_MTF,8.917528264210437,bending,2
BMu36,9,P,INI,Trunk_Forward,1,L_MTF,13.071895015055393,return,2
BMu36,9,P,INI,Trunk_Forward,1,L_MTF,6.8466253621440964,bending,3
BMu36,9,P,INI,Trunk_Forward,1,L_MTF,10.315274766029907,return,3
BMu36,9,P,INI,Trunk_Forward,1,L_MTF,6.208888152448053,bending,4
BMu36,9,P,INI,Trunk_Forward,1,L_MTF,8.825497204660932,return,4
BMu36,9,P,INI,Trunk_Forward,1,R_MTF,7.895129940786671,bending,1
BMu36,9,P,INI,Trunk_Forward,1,R_MTF,12.675529897118405,return,1
BMu36,9,P,INI,Trunk_Forward,1,R_MTF,7.478900079311034,bending,2
BMu36,9,P,INI,Trunk_Forward,1,R_MTF,12.68624635563441,return,2
BMu36,9,P,INI,Trunk_Forward,1,R_MTF,6.306427617903388,bending,3
BMu36,9,P,INI,Trunk_Forward,1,R_MTF,10.181333724416145,return,3
BMu36,9,P,INI,Trunk_Forward,1,R_MTF,5.7447297886632525,bending,4
BMu36,9,P,INI,Trunk_Forward,1,R_MTF,9.225220879807205,return,4
BMu36,9,P,REL,Trunk_Forward,1,L_MTF,8.336865155144631,bending,1
BMu36,9,P,REL,Trunk_Forward,1,L_MTF,13.464744471328991,return,1
BMu36,9,P,REL,Trunk_Forward,1,L_MTF,8.779286822042698,bending,2
BMu36,9,P,REL,Trunk_Forward,1,L_MTF,12.978512557602867,return,2
BMu36,9,P,REL,Trunk_Forward,1,L_MTF,7.0735683272948044,bending,3
BMu36,9,P,REL,Trunk_Forward,1,L_MTF,10.516225435544051,return,3
BMu36,9,P,REL,Trunk_Forward,1,R_MTF,10.298278055641722,bending,1
BMu36,9,P,REL,Trunk_Forward,1,R_MTF,15.152745829246944,return,1
BMu36,9,P,REL,Trunk_Forward,1,R_MTF,11.196925691274881,bending,2
BMu36,9,P,REL,Trunk_Forward,1,R_MTF,14.842630968339055,return,2
BMu36,9,P,REL,Trunk_Forward,1,R_MTF,10.520613717070576,bending,3
BMu36,9,P,REL,Trunk_Forward,1,R_MTF,13.373268117525503,return,3
BMu36,10,P,INI,Trunk_Forward,1,L_MTF,0.47380085326746846,bending,1
BMu36,10,P,INI,Trunk_Forward,1,L_MTF,1.6774426140553624,return,1
BMu36,10,P,INI,Trunk_Forward,1,L_MTF,1.6691245598924662,bending,2
BMu36,10,P,INI,Trunk_Forward,1,L_MTF,1.3421184352544284,return,2
BMu36,10,P,INI,Trunk_Forward,1,L_MTF,1.6557631446755803,bending,3
BMu36,10,P,INI,Trunk_Forward,1,L_MTF,1.2738358076998448,return,3
BMu36,10,P,INI,Trunk_Forward,1,R_MTF,0.4202032470397994,bending,1
BMu36,10,P,INI,Trunk_Forward,1,R_MTF,0.6167689059966546,return,1
BMu36,10,P,INI,Trunk_Forward,1,R_MTF,0.41976745774473884,bending,2
BMu36,10,P,INI,Trunk_Forward,1,R_MTF,0.41166865002363867,return,2
BMu36,10,P,INI,Trunk_Forward,1,R_MTF,0.515768193968626,bending,3
BMu36,10,P,INI,Trunk_Forward,1,R_MTF,0.33843692852761514,return,3
BMu36,10,P,REL,Trunk_Forward,1,L_MTF,8.378779880232074,bending,1
BMu36,10,P,REL,Trunk_Forward,1,L_MTF,13.502574034246608,return,1
BMu36,10,P,REL,Trunk_Forward,1,L_MTF,7.752555230203857,bending,2
BMu36,10,P,REL,Trunk_Forward,1,L_MTF,10.658954534664716,return,2
BMu36,10,P,REL,Trunk_Forward,1,L_MTF,5.937532444873589,bending,3
BMu36,10,P,REL,Trunk_Forward,1,L_MTF,8.10271113960948,return,3
BMu36,10,P,REL,Trunk_Forward,1,R_MTF,1.0958949914000384,bending,1
BMu36,10,P,REL,Trunk_Forward,1,R_MTF,0.5034068583828034,return,1
BMu36,10,P,REL,Trunk_Forward,1,R_MTF,0.5737104592899221,bending,2
BMu36,10,P,REL,Trunk_Forward,1,R_MTF,0.6414704076719522,return,2
BMu36,10,P,REL,Trunk_Forward,1,R_MTF,0.6693604628520011,bending,3
BMu36,10,P,REL,Trunk_Forward,1,R_MTF,1.1000944277509175,return,3
BMu36,11,P,INI,Trunk_Forward,1,L_MTF,5.0067112899658,bending,1
BMu36,11,P,INI,Trunk_Forward,1,L_MTF,10.136616689921865,return,1
BMu36,11,P,INI,Trunk_Forward,1,L_MTF,6.517714906391609,bending,2
BMu36,11,P,INI,Trunk_Forward,1,L_MTF,10.06713627185325,return,2
BMu36,11,P,INI,Trunk_Forward,1,L_MTF,4.863557384248863,bending,3
BMu36,11,P,INI,Trunk_Forward,1,L_MTF,9.631306975519516,return,3
BMu36,11,P,INI,Trunk_Forward,1,R_MTF,2.5265992028975113,bending,1
BMu36,11,P,INI,Trunk_Forward,1,R_MTF,3.560683866616785,return,1
BMu36,11,P,INI,Trunk_Forward,1,R_MTF,3.2689308567528395,bending,2
BMu36,11,P,INI,Trunk_Forward,1,R_MTF,3.3537617958955375,return,2
BMu36,11,P,INI,Trunk_Forward,1,R_MTF,2.4765460038878464,bending,3
BMu36,11,P,INI,Trunk_Forward,1,R_MTF,3.31500865657068,return,3
BMu36,11,P,REL,Trunk_Forward,1,L_MTF,3.2718806605943382,bending,1
BMu36,11,P,REL,Trunk_Forward,1,L_MTF,5.568185927304683,return,1
BMu36,11,P,REL,Trunk_Forward,1,L_MTF,2.915143530396585,bending,2
BMu36,11,P,REL,Trunk_Forward,1,L_MTF,4.816613742429119,return,2
BMu36,11,P,REL,Trunk_Forward,1,L_MTF,2.8127081121349042,bending,3
BMu36,11,P,REL,Trunk_Forward,1,L_MTF,3.9706962094051534,return,3
BMu36,11,P,REL,Trunk_Forward,1,R_MTF,2.0960488376591004,bending,1
BMu36,11,P,REL,Trunk_Forward,1,R_MTF,2.834170129291296,return,1
BMu36,11,P,REL,Trunk_Forward,1,R_MTF,3.5542154955448675,bending,2
BMu36,11,P,REL,Trunk_Forward,1,R_MTF,2.557384774564235,return,2
BMu36,11,P,REL,Trunk_Forward,1,R_MTF,3.1074396297214433,bending,3
BMu36,11,P,REL,Trunk_Forward,1,R_MTF,2.0336753230924947,return,3
BMu36,12,P,INI,Trunk_Forward,1,L_MTF,10.774704274941639,bending,1
BMu36,12,P,INI,Trunk_Forward,1,L_MTF,13.581985586561172,return,1
BMu36,12,P,INI,Trunk_Forward,1,L_MTF,9.188669498996266,bending,2
BMu36,12,P,INI,Trunk_Forward,1,L_MTF,11.769116475404374,return,2
BMu36,12,P,INI,Trunk_Forward,1,L_MTF,8.396455094603752,bending,3
BMu36,12,P,INI,Trunk_Forward,1,L_MTF,10.82214934712832,return,3
BMu36,12,P,INI,Trunk_Forward,1,R_MTF,9.968127410000813,bending,1
BMu36,12,P,INI,Trunk_Forward,1,R_MTF,16.34047747868282,return,1
BMu36,12,P,INI,Trunk_Forward,1,R_MTF,10.824058836434208,bending,2
BMu36,12,P,INI,Trunk_Forward,1,R_MTF,14.732696978367645,return,2
BMu36,12,P,INI,Trunk_Forward,1,R_MTF,9.56118512171717,bending,3
BMu36,12,P,INI,Trunk_Forward,1,R_MTF,12.939968138193372,return,3
BMu36,12,P,REL,Trunk_Forward,1,L_MTF,4.3340183170343325,bending,1
BMu36,12,P,REL,Trunk_Forward,1,L_MTF,5.803043123353486,return,1
BMu36,12,P,REL,Trunk_Forward,1,L_MTF,4.035978118432756,bending,2
BMu36,12,P,REL,Trunk_Forward,1,L_MTF,6.172549477773144,return,2
BMu36,12,P,REL,Trunk_Forward,1,L_MTF,4.532859849376525,bending,3
BMu36,12,P,REL,Trunk_Forward,1,L_MTF,5.22317668433424,return,3
BMu36,12,P,REL,Trunk_Forward,1,R_MTF,1.5578372220025525,bending,1
BMu36,12,P,REL,Trunk_Forward,1,R_MTF,0.013693481977692275,return,1
BMu36,12,P,REL,Trunk_Forward,1,R_MTF,0.6099317658778843,bending,2
BMu36,12,P,REL,Trunk_Forward,1,R_MTF,0.09741706710172819,return,2
BMu36,12,P,REL,Trunk_Forward,1,R_MTF,0.013519946857072368,bending,3
BMu36,12,P,REL,Trunk_Forward,1,R_MTF,0.013640675860284952,return,3
BMu36,13,C,INI,Trunk_Forward,1,L_MTF,7.316080959085511,bending,1
BMu36,13,C,INI,Trunk_Forward,1,L_MTF,11.294618306939544,return,1
BMu36,13,C,INI,Trunk_Forward,1,L_MTF,6.627244004005669,bending,2
BMu36,13,C,INI,Trunk_Forward,1,L_MTF,11.070861248156211,return,2
BMu36,13,C,INI,Trunk_Forward,1,L_MTF,5.73111021333521,bending,3
BMu36,13,C,INI,Trunk_Forward,1,L_MTF,9.179040546507288,return,3
BMu36,13,C,INI,Trunk_Forward,1,R_MTF,4.969563113658142,bending,1
BMu36,13,C,INI,Trunk_Forward,1,R_MTF,10.321528713197091,return,1
BMu36,13,C,INI,Trunk_Forward,1,R_MTF,5.483195001486095,bending,2
BMu36,13,C,INI,Trunk_Forward,1,R_MTF,11.184787482367549,return,2
BMu36,13,C,INI,Trunk_Forward,1,R_MTF,4.728191375535047,bending,3
BMu36,13,C,INI,Trunk_Forward,1,R_MTF,8.376443159595153,return,3
BMu36,13,C,REL,Trunk_Forward,1,L_MTF,5.057197443810157,bending,1
BMu36,13,C,REL,Trunk_Forward,1,L_MTF,9.55150200012674,return,1
BMu36,13,C,REL,Trunk_Forward,1,L_MTF,4.891022957721285,bending,2
BMu36,13,C,REL,Trunk_Forward,1,L_MTF,9.528231601468395,return,2
BMu36,13,C,REL,Trunk_Forward,1,L_MTF,4.867617665789721,bending,3
BMu36,13,C,REL,Trunk_Forward,1,L_MTF,6.843591718612316,return,3
BMu36,13,C,REL,Trunk_Forward,1,R_MTF,4.696978794732106,bending,1
BMu36,13,C,REL,Trunk_Forward,1,R_MTF,10.71866287881214,return,1
BMu36,13,C,REL,Trunk_Forward,1,R_MTF,5.209772972353291,bending,2
BMu36,13,C,REL,Trunk_Forward,1,R_MTF,10.644515580797929,return,2
BMu36,13,C,REL,Trunk_Forward,1,R_MTF,5.859564545484449,bending,3
BMu36,13,C,REL,Trunk_Forward,1,R_MTF,7.694335302164602,return,3
BMu36,14,P,INI,Trunk_Forward,1,L_MTF,8.285447177487475,bending,1
BMu36,14,P,INI,Trunk_Forward,1,L_MTF,10.643852998191083,return,1
BMu36,14,P,INI,Trunk_Forward,1,L_MTF,7.699555447437495,bending,2
BMu36,14,P,INI,Trunk_Forward,1,L_MTF,10.430441196322485,return,2
BMu36,14,P,INI,Trunk_Forward,1,L_MTF,7.933870521883255,bending,3
BMu36,14,P,INI,Trunk_Forward,1,L_MTF,8.597270141484783,return,3
BMu36,14,P,INI,Trunk_Forward,1,R_MTF,7.636889841976481,bending,1
BMu36,14,P,INI,Trunk_Forward,1,R_MTF,12.018994099464148,return,1
BMu36,14,P,INI,Trunk_Forward,1,R_MTF,8.153540359684131,bending,2
BMu36,14,P,INI,Trunk_Forward,1,R_MTF,12.33692000874539,return,2
BMu36,14,P,INI,Trunk_Forward,1,R_MTF,7.589940271814837,bending,3
BMu36,14,P,INI,Trunk_Forward,1,R_MTF,10.77289526930411,return,3
BMu36,14,P,REL,Trunk_Forward,1,L_MTF,9.312578589732553,bending,1
BMu36,14,P,REL,Trunk_Forward,1,L_MTF,11.657350188424473,return,1
BMu36,14,P,REL,Trunk_Forward,1,L_MTF,8.965823625527602,bending,2
BMu36,14,P,REL,Trunk_Forward,1,L_MTF,12.206614875754255,return,2
BMu36,14,P,REL,Trunk_Forward,1,L_MTF,9.219923022649759,bending,3
BMu36,14,P,REL,Trunk_Forward,1,L_MTF,12.021426245990286,return,3
BMu36,14,P,REL,Trunk_Forward,1,L_MTF,7.862692794707808,bending,4
BMu36,14,P,REL,Trunk_Forward,1,L_MTF,8.065895418322555,return,4
BMu36,14,P,REL,Trunk_Forward,1,R_MTF,9.572339221236303,bending,1
BMu36,14,P,REL,Trunk_Forward,1,R_MTF,12.360565029327505,return,1
BMu36,14,P,REL,Trunk_Forward,1,R_MTF,9.768942722993975,bending,2
BMu36,14,P,REL,Trunk_Forward,1,R_MTF,14.277224510915746,return,2
BMu36,14,P,REL,Trunk_Forward,1,R_MTF,9.450052766006202,bending,3
BMu36,14,P,REL,Trunk_Forward,1,R_MTF,14.499139334168419,return,3
BMu36,14,P,REL,Trunk_Forward,1,R_MTF,8.96224273947472,bending,4
BMu36,14,P,REL,Trunk_Forward,1,R_MTF,10.288452353577435,return,4
BMu36,16,C,INI,Trunk_Forward,1,L_MTF,6.1580029691291855,bending,1
BMu36,16,C,INI,Trunk_Forward,1,L_MTF,12.946049665801983,return,1
BMu36,16,C,INI,Trunk_Forward,1,L_MTF,6.437821096580916,bending,2
BMu36,16,C,INI,Trunk_Forward,1,L_MTF,12.51708164242505,return,2
BMu36,16,C,INI,Trunk_Forward,1,L_MTF,6.386460460887413,bending,3
BMu36,16,C,INI,Trunk_Forward,1,L_MTF,9.920126276216862,return,3
BMu36,16,C,INI,Trunk_Forward,1,R_MTF,1.2560836655066174,bending,1
BMu36,16,C,INI,Trunk_Forward,1,R_MTF,1.215957726370443,return,1
BMu36,16,C,INI,Trunk_Forward,1,R_MTF,1.1827861575620036,bending,2
BMu36,16,C,INI,Trunk_Forward,1,R_MTF,1.2659746402253134,return,2
BMu36,16,C,INI,Trunk_Forward,1,R_MTF,0.9348644347603837,bending,3
BMu36,16,C,INI,Trunk_Forward,1,R_MTF,1.1516983577529125,return,3
BMu36,16,C,REL,Trunk_Forward,1,L_MTF,4.710751986250696,bending,1
BMu36,16,C,REL,Trunk_Forward,1,L_MTF,6.981912024010461,return,1
BMu36,16,C,REL,Trunk_Forward,1,L_MTF,5.284213908822834,bending,2
BMu36,16,C,REL,Trunk_Forward,1,L_MTF,7.348747390562047,return,2
BMu36,16,C,REL,Trunk_Forward,1,L_MTF,5.637629495839976,bending,3
BMu36,16,C,REL,Trunk_Forward,1,L_MTF,5.409484290636448,return,3
BMu36,16,C,REL,Trunk_Forward,1,R_MTF,5.065053867322052,bending,1
BMu36,16,C,REL,Trunk_Forward,1,R_MTF,9.730799930831214,return,1
BMu36,16,C,REL,Trunk_Forward,1,R_MTF,6.0789842261695,bending,2
BMu36,16,C,REL,Trunk_Forward,1,R_MTF,11.084818271925055,return,2
BMu36,16,C,REL,Trunk_Forward,1,R_MTF,6.317057189467359,bending,3
BMu36,16,C,REL,Trunk_Forward,1,R_MTF,8.234389625601175,return,3
BMu36,17,P,INI,Trunk_Forward,1,L_MTF,6.2790188911595255,bending,1
BMu36,17,P,INI,Trunk_Forward,1,L_MTF,9.924838856483477,return,1
BMu36,17,P,INI,Trunk_Forward,1,L_MTF,6.807454245732834,bending,2
BMu36,17,P,INI,Trunk_Forward,1,L_MTF,10.025621625516678,return,2
BMu36,17,P,INI,Trunk_Forward,1,L_MTF,7.373866758855127,bending,3
BMu36,17,P,INI,Trunk_Forward,1,L_MTF,8.034421612839523,return,3
BMu36,17,P,INI,Trunk_Forward,1,R_MTF,1.7256069951005784,bending,1
BMu36,17,P,INI,Trunk_Forward,1,R_MTF,2.4299643586544164,return,1
BMu36,17,P,INI,Trunk_Forward,1,R_MTF,1.7116494858305418,bending,2
BMu36,17,P,INI,Trunk_Forward,1,R_MTF,2.643872947139074,return,2
BMu36,17,P,INI,Trunk_Forward,1,R_MTF,1.7845200208563659,bending,3
BMu36,17,P,INI,Trunk_Forward,1,R_MTF,2.1503656611087085,return,3
BMu36,17,P,REL,Trunk_Forward,1,L_MTF,2.3154379893595376,bending,1
BMu36,17,P,REL,Trunk_Forward,1,L_MTF,3.82864622385144,return,1
BMu36,17,P,REL,Trunk_Forward,1,L_MTF,3.0749377990488016,bending,2
BMu36,17,P,REL,Trunk_Forward,1,L_MTF,4.00758342394299,return,2
BMu36,17,P,REL,Trunk_Forward,1,L_MTF,3.0417960573169593,bending,3
BMu36,17,P,REL,Trunk_Forward,1,L_MTF,3.122565066822554,return,3
BMu36,17,P,REL,Trunk_Forward,1,R_MTF,7.79112880707703,bending,1
BMu36,17,P,REL,Trunk_Forward,1,R_MTF,11.262357078247529,return,1
BMu36,17,P,REL,Trunk_Forward,1,R_MTF,8.20481236198904,bending,2
BMu36,17,P,REL,Trunk_Forward,1,R_MTF,10.623025158967446,return,2
BMu36,17,P,REL,Trunk_Forward,1,R_MTF,7.482481449948762,bending,3
BMu36,17,P,REL,Trunk_Forward,1,R_MTF,9.367419290446099,return,3
BMu36,21,C,INI,Trunk_Forward,1,L_MTF,1.341980454099403,bending,1
BMu36,21,C,INI,Trunk_Forward,1,L_MTF,2.362639230877253,return,1
BMu36,21,C,INI,Trunk_Forward,1,L_MTF,1.1900367644511753,bending,2
BMu36,21,C,INI,Trunk_Forward,1,L_MTF,2.685183265965892,return,2
BMu36,21,C,INI,Trunk_Forward,1,L_MTF,2.06227065980963,bending,3
BMu36,21,C,INI,Trunk_Forward,1,L_MTF,3.4824140465118654,return,3
BMu36,21,C,INI,Trunk_Forward,1,R_MTF,2.914123057390234,bending,1
BMu36,21,C,INI,Trunk_Forward,1,R_MTF,4.759899389097186,return,1
BMu36,21,C,INI,Trunk_Forward,1,R_MTF,3.035267047958394,bending,2
BMu36,21,C,INI,Trunk_Forward,1,R_MTF,4.408593598650671,return,2
BMu36,21,C,INI,Trunk_Forward,1,R_MTF,2.871540298049931,bending,3
BMu36,21,C,INI,Trunk_Forward,1,R_MTF,5.319078908026815,return,3
BMu36,21,C,REL,Trunk_Forward,1,L_MTF,3.1180829159582055,bending,1
BMu36,21,C,REL,Trunk_Forward,1,L_MTF,5.622044511305472,return,1
BMu36,21,C,REL,Trunk_Forward,1,L_MTF,4.009929876402616,bending,2
BMu36,21,C,REL,Trunk_Forward,1,L_MTF,5.215815764572983,return,2
BMu36,21,C,REL,Trunk_Forward,1,L_MTF,3.3945212273090486,bending,3
BMu36,21,C,REL,Trunk_Forward,1,L_MTF,3.877927008395375,return,3
BMu36,21,C,REL,Trunk_Forward,1,R_MTF,6.593673448905401,bending,1
BMu36,21,C,REL,Trunk_Forward,1,R_MTF,9.714180285364714,return,1
BMu36,21,C,REL,Trunk_Forward,1,R_MTF,7.610867090158837,bending,2
BMu36,21,C,REL,Trunk_Forward,1,R_MTF,9.530042339723636,return,2
BMu36,21,C,REL,Trunk_Forward,1,R_MTF,6.475383938334471,bending,3
BMu36,21,C,REL,Trunk_Forward,1,R_MTF,7.9868428456412675,return,3
BMu36,22,C,INI,Trunk_Forward,1,L_MTF,6.1251489787430975,bending,1
BMu36,22,C,INI,Trunk_Forward,1,L_MTF,8.058159897656326,return,1
BMu36,22,C,INI,Trunk_Forward,1,L_MTF,5.662676508108882,bending,2
BMu36,22,C,INI,Trunk_Forward,1,L_MTF,8.846562720973784,return,2
BMu36,22,C,INI,Trunk_Forward,1,L_MTF,5.354976489903854,bending,3
BMu36,22,C,INI,Trunk_Forward,1,L_MTF,7.246796013814178,return,3
BMu36,22,C,INI,Trunk_Forward,1,R_MTF,0.9418879158068558,bending,1
BMu36,22,C,INI,Trunk_Forward,1,R_MTF,0.8150504014530923,return,1
BMu36,22,C,INI,Trunk_Forward,1,R_MTF,0.3288486966263714,bending,2
BMu36,22,C,INI,Trunk_Forward,1,R_MTF,0.7215086346577846,return,2
BMu36,22,C,INI,Trunk_Forward,1,R_MTF,0.46836377018118425,bending,3
BMu36,22,C,INI,Trunk_Forward,1,R_MTF,0.6254883915267647,return,3
BMu36,22,C,REL,Trunk_Forward,1,L_MTF,1.179732806162375,bending,1
BMu36,22,C,REL,Trunk_Forward,1,L_MTF,1.2640668005607016,return,1
BMu36,22,C,REL,Trunk_Forward,1,L_MTF,1.1374356590700383,bending,2
BMu36,22,C,REL,Trunk_Forward,1,L_MTF,1.5033384326382044,return,2
BMu36,22,C,REL,Trunk_Forward,1,L_MTF,1.073959106862366,bending,3
BMu36,22,C,REL,Trunk_Forward,1,L_MTF,1.7422084523531067,return,3
BMu36,22,C,REL,Trunk_Forward,1,R_MTF,0.4461900732132072,bending,1
BMu36,22,C,REL,Trunk_Forward,1,R_MTF,0.5715979340471139,return,1
BMu36,22,C,REL,Trunk_Forward,1,R_MTF,0.38705782953536627,bending,2
BMu36,22,C,REL,Trunk_Forward,1,R_MTF,0.7748375691101695,return,2
BMu36,22,C,REL,Trunk_Forward,1,R_MTF,0.41781828082235717,bending,3
BMu36,22,C,REL,Trunk_Forward,1,R_MTF,0.6660874622731873,return,3
BMu36,23,C,INI,Trunk_Forward,1,L_MTF,1.0936689703545466,bending,1
BMu36,23,C,INI,Trunk_Forward,1,L_MTF,1.3162600793316923,return,1
BMu36,23,C,INI,Trunk_Forward,1,L_MTF,0.6630735039360109,bending,2
BMu36,23,C,INI,Trunk_Forward,1,L_MTF,1.2480557252443232,return,2
BMu36,23,C,INI,Trunk_Forward,1,L_MTF,0.6183416334323236,bending,3
BMu36,23,C,INI,Trunk_Forward,1,L_MTF,1.0792834571099776,return,3
BMu36,23,C,INI,Trunk_Forward,1,R_MTF,2.306256083141729,bending,1
BMu36,23,C,INI,Trunk_Forward,1,R_MTF,3.399682929314409,return,1
BMu36,23,C,INI,Trunk_Forward,1,R_MTF,1.812966151399977,bending,2
BMu36,23,C,INI,Trunk_Forward,1,R_MTF,3.2534797647981057,return,2
BMu36,23,C,INI,Trunk_Forward,1,R_MTF,1.723087761700314,bending,3
BMu36,23,C,INI,Trunk_Forward,1,R_MTF,2.651724904915717,return,3
BMu36,23,C,REL,Trunk_Forward,1,L_MTF,4.815708127285042,bending,1
BMu36,23,C,REL,Trunk_Forward,1,L_MTF,9.053754017887366,return,1
BMu36,23,C,REL,Trunk_Forward,1,L_MTF,4.162003694345343,bending,2
BMu36,23,C,REL,Trunk_Forward,1,L_MTF,7.913460768352062,return,2
BMu36,23,C,REL,Trunk_Forward,1,L_MTF,4.255735246089811,bending,3
BMu36,23,C,REL,Trunk_Forward,1,L_MTF,6.719878160505084,return,3
BMu36,23,C,REL,Trunk_Forward,1,R_MTF,4.829985232364778,bending,1
BMu36,23,C,REL,Trunk_Forward,1,R_MTF,8.056225963640006,return,1
BMu36,23,C,REL,Trunk_Forward,1,R_MTF,4.063984199384666,bending,2
BMu36,23,C,REL,Trunk_Forward,1,R_MTF,7.896004966336008,return,2
BMu36,23,C,REL,Trunk_Forward,1,R_MTF,3.955097260987301,bending,3
BMu36,23,C,REL,Trunk_Forward,1,R_MTF,6.754056629481528,return,3
BMu36,24,P,INI,Trunk_Forward,1,L_MTF,8.87049669657019,bending,1
BMu36,24,P,INI,Trunk_Forward,1,L_MTF,11.921386097884321,return,1
BMu36,24,P,INI,Trunk_Forward,1,L_MTF,9.804693043639427,bending,2
BMu36,24,P,INI,Trunk_Forward,1,L_MTF,13.29464863442173,return,2
BMu36,24,P,INI,Trunk_Forward,1,L_MTF,9.1281107426457,bending,3
BMu36,24,P,INI,Trunk_Forward,1,L_MTF,11.20669457528653,return,3
BMu36,24,P,INI,Trunk_Forward,1,R_MTF,10.276269851239924,bending,1
BMu36,24,P,INI,Trunk_Forward,1,R_MTF,13.181859297959951,return,1
BMu36,24,P,INI,Trunk_Forward,1,R_MTF,10.623089277120101,bending,2
BMu36,24,P,INI,Trunk_Forward,1,R_MTF,14.519033196217414,return,2
BMu36,24,P,INI,Trunk_Forward,1,R_MTF,11.04144123759784,bending,3
BMu36,24,P,INI,Trunk_Forward,1,R_MTF,11.394655226374303,return,3
BMu36,24,P,REL,Trunk_Forward,1,L_MTF,9.145758887883305,bending,1
BMu36,24,P,REL,Trunk_Forward,1,L_MTF,11.868138115090485,return,1
BMu36,24,P,REL,Trunk_Forward,1,L_MTF,9.960261608269073,bending,2
BMu36,24,P,REL,Trunk_Forward,1,L_MTF,11.588915902522375,return,2
BMu36,24,P,REL,Trunk_Forward,1,L_MTF,8.66527045001002,bending,3
BMu36,24,P,REL,Trunk_Forward,1,L_MTF,8.390705715654468,return,3
BMu36,24,P,REL,Trunk_Forward,1,R_MTF,8.16422093745449,bending,1
BMu36,24,P,REL,Trunk_Forward,1,R_MTF,10.71596261799127,return,1
BMu36,24,P,REL,Trunk_Forward,1,R_MTF,8.932512736633539,bending,2
BMu36,24,P,REL,Trunk_Forward,1,R_MTF,10.747621797967472,return,2
BMu36,24,P,REL,Trunk_Forward,1,R_MTF,9.277380473880708,bending,3
BMu36,24,P,REL,Trunk_Forward,1,R_MTF,8.89128650694839,return,3
BMu36,25,C,INI,Trunk_Forward,1,L_MTF,0.9797607645397279,bending,1
BMu36,25,C,INI,Trunk_Forward,1,L_MTF,1.1904763645012508,return,1
BMu36,25,C,INI,Trunk_Forward,1,L_MTF,1.0862425947484824,bending,2
BMu36,25,C,INI,Trunk_Forward,1,L_MTF,1.7150154541224603,return,2
BMu36,25,C,INI,Trunk_Forward,1,L_MTF,1.0855373377610744,bending,3
BMu36,25,C,INI,Trunk_Forward,1,L_MTF,1.4711981418572788,return,3
BMu36,25,C,INI,Trunk_Forward,1,R_MTF,4.799155795700245,bending,1
BMu36,25,C,INI,Trunk_Forward,1,R_MTF,11.152763376597752,return,1
BMu36,25,C,INI,Trunk_Forward,1,R_MTF,4.452643047052941,bending,2
BMu36,25,C,INI,Trunk_Forward,1,R_MTF,10.150636872204371,return,2
BMu36,25,C,INI,Trunk_Forward,1,R_MTF,4.213272626471962,bending,3
BMu36,25,C,INI,Trunk_Forward,1,R_MTF,9.407777185170708,return,3
BMu36,25,C,REL,Trunk_Forward,1,L_MTF,5.501898810311008,bending,1
BMu36,25,C,REL,Trunk_Forward,1,L_MTF,11.285815112248637,return,1
BMu36,25,C,REL,Trunk_Forward,1,L_MTF,6.445421866286063,bending,2
BMu36,25,C,REL,Trunk_Forward,1,L_MTF,10.757963109512314,return,2
BMu36,25,C,REL,Trunk_Forward,1,L_MTF,3.5782333424530353,bending,3
BMu36,25,C,REL,Trunk_Forward,1,L_MTF,8.088377948924178,return,3
BMu36,25,C,REL,Trunk_Forward,1,R_MTF,4.930191979472175,bending,1
BMu36,25,C,REL,Trunk_Forward,1,R_MTF,10.570010457886406,return,1
BMu36,25,C,REL,Trunk_Forward,1,R_MTF,4.939072424841172,bending,2
BMu36,25,C,REL,Trunk_Forward,1,R_MTF,10.220300073056608,return,2
BMu36,25,C,REL,Trunk_Forward,1,R_MTF,3.4194126122192694,bending,3
BMu36,25,C,REL,Trunk_Forward,1,R_MTF,7.628185139917973,return,3
BMu36,26,P,INI,Trunk_Forward,1,L_MTF,2.6337589702010313,bending,1
BMu36,26,P,INI,Trunk_Forward,1,L_MTF,3.7246339961700046,return,1
BMu36,26,P,INI,Trunk_Forward,1,L_MTF,2.131320874844854,bending,2
BMu36,26,P,INI,Trunk_Forward,1,L_MTF,3.5905495842083766,return,2
BMu36,26,P,INI,Trunk_Forward,1,L_MTF,2.1464788091250617,bending,3
BMu36,26,P,INI,Trunk_Forward,1,L_MTF,3.2247210673659943,return,3
BMu36,26,P,INI,Trunk_Forward,1,R_MTF,0.09255834062413447,bending,1
BMu36,26,P,INI,Trunk_Forward,1,R_MTF,0.4059222975791551,return,1
BMu36,26,P,INI,Trunk_Forward,1,R_MTF,0.20962250686593228,bending,2
BMu36,26,P,INI,Trunk_Forward,1,R_MTF,0.879554082261286,return,2
BMu36,26,P,INI,Trunk_Forward,1,R_MTF,0.30801554650326246,bending,3
BMu36,26,P,INI,Trunk_Forward,1,R_MTF,0.3759313903514672,return,3
BMu36,26,P,REL,Trunk_Forward,1,L_MTF,1.226562223024944,bending,1
BMu36,26,P,REL,Trunk_Forward,1,L_MTF,1.9874068150931359,return,1
BMu36,26,P,REL,Trunk_Forward,1,L_MTF,1.6205325160760078,bending,2
BMu36,26,P,REL,Trunk_Forward,1,L_MTF,1.9682092529879662,return,2
BMu36,26,P,REL,Trunk_Forward,1,L_MTF,1.3058790699356786,bending,3
BMu36,26,P,REL,Trunk_Forward,1,L_MTF,1.5899831872291066,return,3
BMu36,26,P,REL,Trunk_Forward,1,R_MTF,0.1513956631655621,bending,1
BMu36,26,P,REL,Trunk_Forward,1,R_MTF,0.5643863091512806,return,1
BMu36,26,P,REL,Trunk_Forward,1,R_MTF,0.3018200902500393,bending,2
BMu36,26,P,REL,Trunk_Forward,1,R_MTF,0.5267647528395176,return,2
BMu36,26,P,REL,Trunk_Forward,1,R_MTF,0.41630092044753264,bending,3
BMu36,26,P,REL,Trunk_Forward,1,R_MTF,0.6146203094214667,return,3
BMu36,27,P,INI,Trunk_Forward,1,L_MTF,10.641838500771161,bending,1
BMu36,27,P,INI,Trunk_Forward,1,L_MTF,15.054185697963756,return,1
BMu36,27,P,INI,Trunk_Forward,1,L_MTF,10.221184155472626,bending,2
BMu36,27,P,INI,Trunk_Forward,1,L_MTF,13.837400936887727,return,2
BMu36,27,P,INI,Trunk_Forward,1,L_MTF,9.271799750474722,bending,3
BMu36,27,P,INI,Trunk_Forward,1,L_MTF,10.11395651442008,return,3
BMu36,27,P,INI,Trunk_Forward,1,R_MTF,9.250745828022241,bending,1
BMu36,27,P,INI,Trunk_Forward,1,R_MTF,13.726758075769967,return,1
BMu36,27,P,INI,Trunk_Forward,1,R_MTF,9.05293624757245,bending,2
BMu36,27,P,INI,Trunk_Forward,1,R_MTF,13.187706060811154,return,2
BMu36,27,P,INI,Trunk_Forward,1,R_MTF,7.7053499042117615,bending,3
BMu36,27,P,INI,Trunk_Forward,1,R_MTF,9.629573069006428,return,3
BMu36,27,P,REL,Trunk_Forward,1,L_MTF,11.621097982624935,bending,1
BMu36,27,P,REL,Trunk_Forward,1,L_MTF,13.863952637209833,return,1
BMu36,27,P,REL,Trunk_Forward,1,L_MTF,10.180998699044295,bending,2
BMu36,27,P,REL,Trunk_Forward,1,L_MTF,13.725119874785433,return,2
BMu36,27,P,REL,Trunk_Forward,1,L_MTF,9.34541255938217,bending,3
BMu36,27,P,REL,Trunk_Forward,1,L_MTF,13.31163360116086,return,3
BMu36,27,P,REL,Trunk_Forward,1,L_MTF,8.020763191550591,bending,4
BMu36,27,P,REL,Trunk_Forward,1,L_MTF,11.000464401084534,return,4
BMu36,27,P,REL,Trunk_Forward,1,R_MTF,12.272094965369064,bending,1
BMu36,27,P,REL,Trunk_Forward,1,R_MTF,16.5484013841013,return,1
BMu36,27,P,REL,Trunk_Forward,1,R_MTF,11.076711487950742,bending,2
BMu36,27,P,REL,Trunk_Forward,1,R_MTF,18.106206497118777,return,2
BMu36,27,P,REL,Trunk_Forward,1,R_MTF,10.263936148908606,bending,3
BMu36,27,P,REL,Trunk_Forward,1,R_MTF,16.90247677562162,return,3
BMu36,27,P,REL,Trunk_Forward,1,R_MTF,9.699060058997187,bending,4
BMu36,27,P,REL,Trunk_Forward,1,R_MTF,14.373778732975737,return,4
BMu36,28,P,INI,Trunk_Forward,1,L_MTF,9.496262026966837,bending,1
BMu36,28,P,INI,Trunk_Forward,1,L_MTF,13.470930742177266,return,1
BMu36,28,P,INI,Trunk_Forward,1,L_MTF,10.938075035110941,bending,2
BMu36,28,P,INI,Trunk_Forward,1,L_MTF,13.674617425781307,return,2
BMu36,28,P,INI,Trunk_Forward,1,L_MTF,10.233484401613788,bending,3
BMu36,28,P,INI,Trunk_Forward,1,L_MTF,11.704451427585559,return,3
BMu36,28,P,INI,Trunk_Forward,1,R_MTF,7.470946886757348,bending,1
BMu36,28,P,INI,Trunk_Forward,1,R_MTF,11.568810601112842,return,1
BMu36,28,P,INI,Trunk_Forward,1,R_MTF,9.07314027648943,bending,2
BMu36,28,P,INI,Trunk_Forward,1,R_MTF,12.800426351035982,return,2
BMu36,28,P,INI,Trunk_Forward,1,R_MTF,9.323676454234455,bending,3
BMu36,28,P,INI,Trunk_Forward,1,R_MTF,10.960335296515058,return,3
BMu36,28,P,REL,Trunk_Forward,1,L_MTF,9.773152731825155,bending,1
BMu36,28,P,REL,Trunk_Forward,1,L_MTF,14.923789939325795,return,1
BMu36,28,P,REL,Trunk_Forward,1,L_MTF,12.569920590943147,bending,2
BMu36,28,P,REL,Trunk_Forward,1,L_MTF,14.753627090246644,return,2
BMu36,28,P,REL,Trunk_Forward,1,L_MTF,11.585962695991412,bending,3
BMu36,28,P,REL,Trunk_Forward,1,L_MTF,12.253586684192774,return,3
BMu36,28,P,REL,Trunk_Forward,1,R_MTF,9.040713318995978,bending,1
BMu36,28,P,REL,Trunk_Forward,1,R_MTF,15.11549489672249,return,1
BMu36,28,P,REL,Trunk_Forward,1,R_MTF,11.639066946215605,bending,2
BMu36,28,P,REL,Trunk_Forward,1,R_MTF,15.503666705011822,return,2
BMu36,28,P,REL,Trunk_Forward,1,R_MTF,10.992083715010116,bending,3
BMu36,28,P,REL,Trunk_Forward,1,R_MTF,12.402837995070223,return,3
BMu36,29,P,INI,Trunk_Forward,1,L_MTF,10.10667279006598,bending,1
BMu36,29,P,INI,Trunk_Forward,1,L_MTF,11.248429961713587,return,1
BMu36,29,P,INI,Trunk_Forward,1,L_MTF,7.44453798160085,bending,2
BMu36,29,P,INI,Trunk_Forward,1,L_MTF,9.54697965584176,return,2
BMu36,29,P,INI,Trunk_Forward,1,L_MTF,9.682949948687066,bending,3
BMu36,29,P,INI,Trunk_Forward,1,L_MTF,8.278078803881906,return,3
BMu36,29,P,INI,Trunk_Forward,1,R_MTF,7.9546116837320655,bending,1
BMu36,29,P,INI,Trunk_Forward,1,R_MTF,8.893727488856861,return,1
BMu36,29,P,INI,Trunk_Forward,1,R_MTF,5.548829207905611,bending,2
BMu36,29,P,INI,Trunk_Forward,1,R_MTF,7.796246762199753,return,2
BMu36,29,P,INI,Trunk_Forward,1,R_MTF,6.8439987793995,bending,3
BMu36,29,P,INI,Trunk_Forward,1,R_MTF,6.084801679078626,return,3
BMu36,29,P,REL,Trunk_Forward,1,L_MTF,5.642496512131299,bending,1
BMu36,29,P,REL,Trunk_Forward,1,L_MTF,9.750523177309338,return,1
BMu36,29,P,REL,Trunk_Forward,1,L_MTF,7.127085810990802,bending,2
BMu36,29,P,REL,Trunk_Forward,1,L_MTF,8.803697968142794,return,2
BMu36,29,P,REL,Trunk_Forward,1,L_MTF,6.091698977267748,bending,3
BMu36,29,P,REL,Trunk_Forward,1,L_MTF,6.055247297426746,return,3
BMu36,29,P,REL,Trunk_Forward,1,R_MTF,4.432973974143111,bending,1
BMu36,29,P,REL,Trunk_Forward,1,R_MTF,6.7570973303435355,return,1
BMu36,29,P,REL,Trunk_Forward,1,R_MTF,5.546138188742465,bending,2
BMu36,29,P,REL,Trunk_Forward,1,R_MTF,6.5820310123697645,return,2
BMu36,29,P,REL,Trunk_Forward,1,R_MTF,4.493201711984108,bending,3
BMu36,29,P,REL,Trunk_Forward,1,R_MTF,4.508725346226559,return,3
BMu36,30,P,INI,Trunk_Forward,1,L_MTF,5.41824828125825,bending,1
BMu36,30,P,INI,Trunk_Forward,1,L_MTF,6.131930362474641,return,1
BMu36,30,P,INI,Trunk_Forward,1,L_MTF,5.927488725278124,bending,2
BMu36,30,P,INI,Trunk_Forward,1,L_MTF,6.395688168387095,return,2
BMu36,30,P,INI,Trunk_Forward,1,L_MTF,5.9475193494819605,bending,3
BMu36,30,P,INI,Trunk_Forward,1,L_MTF,7.042426495632072,return,3
BMu36,30,P,INI,Trunk_Forward,1,R_MTF,0.6231767666618587,bending,1
BMu36,30,P,INI,Trunk_Forward,1,R_MTF,1.119618023759931,return,1
BMu36,30,P,INI,Trunk_Forward,1,R_MTF,0.7682141523250899,bending,2
BMu36,30,P,INI,Trunk_Forward,1,R_MTF,1.263452374331787,return,2
BMu36,30,P,INI,Trunk_Forward,1,R_MTF,0.7782616629200977,bending,3
BMu36,30,P,INI,Trunk_Forward,1,R_MTF,1.118906034387618,return,3
BMu36,30,P,REL,Trunk_Forward,1,L_MTF,9.370712230162129,bending,1
BMu36,30,P,REL,Trunk_Forward,1,L_MTF,12.274587645878487,return,1
BMu36,30,P,REL,Trunk_Forward,1,L_MTF,9.266503002741743,bending,2
BMu36,30,P,REL,Trunk_Forward,1,L_MTF,12.654922823645272,return,2
BMu36,30,P,REL,Trunk_Forward,1,L_MTF,9.235539173845607,bending,3
BMu36,30,P,REL,Trunk_Forward,1,L_MTF,10.912911106374011,return,3
BMu36,30,P,REL,Trunk_Forward,1,R_MTF,9.092850930874585,bending,1
BMu36,30,P,REL,Trunk_Forward,1,R_MTF,10.787603310516742,return,1
BMu36,30,P,REL,Trunk_Forward,1,R_MTF,9.00148169075174,bending,2
BMu36,30,P,REL,Trunk_Forward,1,R_MTF,10.988252309842016,return,2
BMu36,30,P,REL,Trunk_Forward,1,R_MTF,9.06845346720134,bending,3
BMu36,30,P,REL,Trunk_Forward,1,R_MTF,10.601654457092893,return,3
BMu36,32,P,INI,Trunk_Forward,1,L_MTF,6.667786292168194,bending,1
BMu36,32,P,INI,Trunk_Forward,1,L_MTF,13.211663049326294,return,1
BMu36,32,P,INI,Trunk_Forward,1,L_MTF,6.990522132968117,bending,2
BMu36,32,P,INI,Trunk_Forward,1,L_MTF,12.921837013285424,return,2
BMu36,32,P,INI,Trunk_Forward,1,L_MTF,6.926793172774036,bending,3
BMu36,32,P,INI,Trunk_Forward,1,L_MTF,10.23480009827427,return,3
BMu36,32,P,INI,Trunk_Forward,1,R_MTF,8.12546881097467,bending,1
BMu36,32,P,INI,Trunk_Forward,1,R_MTF,14.71684006913292,return,1
BMu36,32,P,INI,Trunk_Forward,1,R_MTF,8.890130207250824,bending,2
BMu36,32,P,INI,Trunk_Forward,1,R_MTF,13.42551258122257,return,2
BMu36,32,P,INI,Trunk_Forward,1,R_MTF,8.10713270771119,bending,3
BMu36,32,P,INI,Trunk_Forward,1,R_MTF,11.849431265969844,return,3
BMu36,32,P,REL,Trunk_Forward,1,L_MTF,5.670525959683547,bending,1
BMu36,32,P,REL,Trunk_Forward,1,L_MTF,11.866889474934561,return,1
BMu36,32,P,REL,Trunk_Forward,1,L_MTF,6.438076941573842,bending,2
BMu36,32,P,REL,Trunk_Forward,1,L_MTF,12.886768506375109,return,2
BMu36,32,P,REL,Trunk_Forward,1,L_MTF,6.441919534605618,bending,3
BMu36,32,P,REL,Trunk_Forward,1,L_MTF,11.797037991308223,return,3
BMu36,32,P,REL,Trunk_Forward,1,L_MTF,6.48822895294428,bending,4
BMu36,32,P,REL,Trunk_Forward,1,L_MTF,8.275472463931296,return,4
BMu36,32,P,REL,Trunk_Forward,1,R_MTF,2.7136952545973725,bending,1
BMu36,32,P,REL,Trunk_Forward,1,R_MTF,4.224109542719185,return,1
BMu36,32,P,REL,Trunk_Forward,1,R_MTF,2.6398819225811203,bending,2
BMu36,32,P,REL,Trunk_Forward,1,R_MTF,4.546916888994996,return,2
BMu36,32,P,REL,Trunk_Forward,1,R_MTF,2.702646095005748,bending,3
BMu36,32,P,REL,Trunk_Forward,1,R_MTF,4.1751788856327545,return,3
BMu36,32,P,REL,Trunk_Forward,1,R_MTF,2.409686917031779,bending,4
BMu36,32,P,REL,Trunk_Forward,1,R_MTF,3.4893137895324013,return,4
BMu36,33,P,INI,Trunk_Forward,1,L_MTF,8.33729423811147,bending,1
BMu36,33,P,INI,Trunk_Forward,1,L_MTF,10.485962675531265,return,1
BMu36,33,P,INI,Trunk_Forward,1,L_MTF,9.280926056541302,bending,2
BMu36,33,P,INI,Trunk_Forward,1,L_MTF,10.68742077301777,return,2
BMu36,33,P,INI,Trunk_Forward,1,L_MTF,9.026291854392571,bending,3
BMu36,33,P,INI,Trunk_Forward,1,L_MTF,9.300412978707838,return,3
BMu36,33,P,INI,Trunk_Forward,1,L_MTF,8.929584953036793,bending,4
BMu36,33,P,INI,Trunk_Forward,1,L_MTF,9.10087966721325,return,4
BMu36,33,P,INI,Trunk_Forward,1,R_MTF,7.580545978602942,bending,1
BMu36,33,P,INI,Trunk_Forward,1,R_MTF,9.85707661135408,return,1
BMu36,33,P,INI,Trunk_Forward,1,R_MTF,9.571525421743859,bending,2
BMu36,33,P,INI,Trunk_Forward,1,R_MTF,9.77080525572663,return,2
BMu36,33,P,INI,Trunk_Forward,1,R_MTF,8.614973183665855,bending,3
BMu36,33,P,INI,Trunk_Forward,1,R_MTF,8.34345731047875,return,3
BMu36,33,P,INI,Trunk_Forward,1,R_MTF,8.165937642384609,bending,4
BMu36,33,P,INI,Trunk_Forward,1,R_MTF,8.081163817139364,return,4
BMu36,33,P,REL,Trunk_Forward,1,L_MTF,9.104081358132818,bending,1
BMu36,33,P,REL,Trunk_Forward,1,L_MTF,10.645401169183074,return,1
BMu36,33,P,REL,Trunk_Forward,1,L_MTF,9.717888381182158,bending,2
BMu36,33,P,REL,Trunk_Forward,1,L_MTF,10.885447067105098,return,2
BMu36,33,P,REL,Trunk_Forward,1,L_MTF,11.432127104853652,bending,3
BMu36,33,P,REL,Trunk_Forward,1,L_MTF,10.68610862449105,return,3
BMu36,33,P,REL,Trunk_Forward,1,R_MTF,1.5959074609444823,bending,1
BMu36,33,P,REL,Trunk_Forward,1,R_MTF,1.7137160367661683,return,1
BMu36,33,P,REL,Trunk_Forward,1,R_MTF,1.4033165273611394,bending,2
BMu36,33,P,REL,Trunk_Forward,1,R_MTF,1.8510200568751558,return,2
BMu36,33,P,REL,Trunk_Forward,1,R_MTF,1.5832552878438113,bending,3
BMu36,33,P,REL,Trunk_Forward,1,R_MTF,1.631488111259927,return,3
BMu36,34,P,INI,Trunk_Forward,1,L_MTF,6.566821894376682,bending,1
BMu36,34,P,INI,Trunk_Forward,1,L_MTF,11.45217010872261,return,1
BMu36,34,P,INI,Trunk_Forward,1,L_MTF,7.725609183955243,bending,2
BMu36,34,P,INI,Trunk_Forward,1,L_MTF,11.154698929137371,return,2
BMu36,34,P,INI,Trunk_Forward,1,L_MTF,6.752406424949911,bending,3
BMu36,34,P,INI,Trunk_Forward,1,L_MTF,9.320562490703551,return,3
BMu36,34,P,INI,Trunk_Forward,1,R_MTF,0.6652181765907512,bending,1
BMu36,34,P,INI,Trunk_Forward,1,R_MTF,0.6474798240800204,return,1
BMu36,34,P,INI,Trunk_Forward,1,R_MTF,0.6705751422015225,bending,2
BMu36,34,P,INI,Trunk_Forward,1,R_MTF,0.9080547286560087,return,2
BMu36,34,P,INI,Trunk_Forward,1,R_MTF,0.8512034142317201,bending,3
BMu36,34,P,INI,Trunk_Forward,1,R_MTF,1.068466310724977,return,3
BMu36,34,P,REL,Trunk_Forward,1,L_MTF,4.835461511174428,bending,1
BMu36,34,P,REL,Trunk_Forward,1,L_MTF,11.137136475743212,return,1
BMu36,34,P,REL,Trunk_Forward,1,L_MTF,5.803305575122447,bending,2
BMu36,34,P,REL,Trunk_Forward,1,L_MTF,10.159957182106577,return,2
BMu36,34,P,REL,Trunk_Forward,1,L_MTF,6.145507191198691,bending,3
BMu36,34,P,REL,Trunk_Forward,1,L_MTF,8.913929074780189,return,3
BMu36,34,P,REL,Trunk_Forward,1,R_MTF,0.9632836117071275,bending,1
BMu36,34,P,REL,Trunk_Forward,1,R_MTF,1.6922747684954864,return,1
BMu36,34,P,REL,Trunk_Forward,1,R_MTF,1.1023000393536708,bending,2
BMu36,34,P,REL,Trunk_Forward,1,R_MTF,1.4496169448177132,return,2
BMu36,34,P,REL,Trunk_Forward,1,R_MTF,1.0375029816190766,bending,3
BMu36,34,P,REL,Trunk_Forward,1,R_MTF,1.3775899781422745,return,3
BMu36,35,C,INI,Trunk_Forward,1,L_MTF,2.725808338328303,bending,1
BMu36,35,C,INI,Trunk_Forward,1,L_MTF,6.595625324085971,return,1
BMu36,35,C,INI,Trunk_Forward,1,L_MTF,2.435048183056397,bending,2
BMu36,35,C,INI,Trunk_Forward,1,L_MTF,7.415800232941282,return,2
BMu36,35,C,INI,Trunk_Forward,1,L_MTF,2.226496628635986,bending,3
BMu36,35,C,INI,Trunk_Forward,1,L_MTF,5.836703263683941,return,3
BMu36,35,C,INI,Trunk_Forward,1,R_MTF,3.7394249700044173,bending,1
BMu36,35,C,INI,Trunk_Forward,1,R_MTF,8.389367496254069,return,1
BMu36,35,C,INI,Trunk_Forward,1,R_MTF,3.1211950559629353,bending,2
BMu36,35,C,INI,Trunk_Forward,1,R_MTF,8.39717302454024,return,2
BMu36,35,C,INI,Trunk_Forward,1,R_MTF,3.341312704968212,bending,3
BMu36,35,C,INI,Trunk_Forward,1,R_MTF,6.636728837432059,return,3
BMu36,35,C,REL,Trunk_Forward,1,L_MTF,2.8661834330353293,bending,1
BMu36,35,C,REL,Trunk_Forward,1,L_MTF,7.104786627768426,return,1
BMu36,35,C,REL,Trunk_Forward,1,L_MTF,2.6889155643972646,bending,2
BMu36,35,C,REL,Trunk_Forward,1,L_MTF,6.953319572908114,return,2
BMu36,35,C,REL,Trunk_Forward,1,L_MTF,2.9514119593820656,bending,3
BMu36,35,C,REL,Trunk_Forward,1,L_MTF,5.920639183073802,return,3
BMu36,35,C,REL,Trunk_Forward,1,R_MTF,2.866336184325036,bending,1
BMu36,35,C,REL,Trunk_Forward,1,R_MTF,6.34095744530975,return,1
BMu36,35,C,REL,Trunk_Forward,1,R_MTF,2.9346540197900675,bending,2
BMu36,35,C,REL,Trunk_Forward,1,R_MTF,6.27728270229564,return,2
BMu36,35,C,REL,Trunk_Forward,1,R_MTF,2.990745420604126,bending,3
BMu36,35,C,REL,Trunk_Forward,1,R_MTF,5.3779259084371045,return,3
BMu36,36,P,INI,Trunk_Forward,1,L_MTF,8.218787005219221,bending,1
BMu36,36,P,INI,Trunk_Forward,1,L_MTF,13.75234871408746,return,1
BMu36,36,P,INI,Trunk_Forward,1,L_MTF,8.964369137482645,bending,2
BMu36,36,P,INI,Trunk_Forward,1,L_MTF,14.511264933991034,return,2
BMu36,36,P,INI,Trunk_Forward,1,L_MTF,9.661114832078955,bending,3
BMu36,36,P,INI,Trunk_Forward,1,L_MTF,11.512141683560563,return,3
BMu36,36,P,INI,Trunk_Forward,1,R_MTF,6.388962533884851,bending,1
BMu36,36,P,INI,Trunk_Forward,1,R_MTF,11.219187891519924,return,1
BMu36,36,P,INI,Trunk_Forward,1,R_MTF,7.144394333465314,bending,2
BMu36,36,P,INI,Trunk_Forward,1,R_MTF,12.092863882492349,return,2
BMu36,36,P,INI,Trunk_Forward,1,R_MTF,7.7419784243847,bending,3
BMu36,36,P,INI,Trunk_Forward,1,R_MTF,8.905635863645013,return,3
BMu36,36,P,REL,Trunk_Forward,1,L_MTF,6.932776691099563,bending,1
BMu36,36,P,REL,Trunk_Forward,1,L_MTF,14.745710573866711,return,1
BMu36,36,P,REL,Trunk_Forward,1,L_MTF,8.191003063059537,bending,2
BMu36,36,P,REL,Trunk_Forward,1,L_MTF,14.151367488838588,return,2
BMu36,36,P,REL,Trunk_Forward,1,L_MTF,9.309489068278262,bending,3
BMu36,36,P,REL,Trunk_Forward,1,L_MTF,11.573289829006585,return,3
BMu36,36,P,REL,Trunk_Forward,1,R_MTF,6.263086065233545,bending,1
BMu36,36,P,REL,Trunk_Forward,1,R_MTF,12.053655576575387,return,1
BMu36,36,P,REL,Trunk_Forward,1,R_MTF,7.7236075619942905,bending,2
BMu36,36,P,REL,Trunk_Forward,1,R_MTF,12.476794673110433,return,2
BMu36,36,P,REL,Trunk_Forward,1,R_MTF,7.9235764882948105,bending,3
BMu36,36,P,REL,Trunk_Forward,1,R_MTF,9.924306655178995,return,3
BMu36,38,C,INI,Trunk_Forward,1,L_MTF,2.4569901982141373,bending,1
BMu36,38,C,INI,Trunk_Forward,1,L_MTF,0.9878732026012608,return,1
BMu36,38,C,INI,Trunk_Forward,1,L_MTF,1.5613506683431662,bending,2
BMu36,38,C,INI,Trunk_Forward,1,L_MTF,1.1243839896694279,return,2
BMu36,38,C,INI,Trunk_Forward,1,L_MTF,1.643179283543885,bending,3
BMu36,38,C,INI,Trunk_Forward,1,L_MTF,1.0636078763063588,return,3
BMu36,38,C,INI,Trunk_Forward,1,R_MTF,2.8659279888430347,bending,1
BMu36,38,C,INI,Trunk_Forward,1,R_MTF,7.762991691379588,return,1
BMu36,38,C,INI,Trunk_Forward,1,R_MTF,2.932180596775945,bending,2
BMu36,38,C,INI,Trunk_Forward,1,R_MTF,6.798739383322973,return,2
BMu36,38,C,INI,Trunk_Forward,1,R_MTF,2.891338131897788,bending,3
BMu36,38,C,INI,Trunk_Forward,1,R_MTF,6.4469701963632655,return,3
BMu36,38,C,REL,Trunk_Forward,1,L_MTF,3.4707059525505923,bending,1
BMu36,38,C,REL,Trunk_Forward,1,L_MTF,10.012654709544226,return,1
BMu36,38,C,REL,Trunk_Forward,1,L_MTF,3.578313838818837,bending,2
BMu36,38,C,REL,Trunk_Forward,1,L_MTF,8.250432861080274,return,2
BMu36,38,C,REL,Trunk_Forward,1,L_MTF,3.741015142603433,bending,3
BMu36,38,C,REL,Trunk_Forward,1,L_MTF,7.568614381092426,return,3
BMu36,38,C,REL,Trunk_Forward,1,R_MTF,3.115084534035989,bending,1
BMu36,38,C,REL,Trunk_Forward,1,R_MTF,7.543271976884229,return,1
BMu36,38,C,REL,Trunk_Forward,1,R_MTF,3.772128372043826,bending,2
BMu36,38,C,REL,Trunk_Forward,1,R_MTF,6.432576969230057,return,2
BMu36,38,C,REL,Trunk_Forward,1,R_MTF,3.8953810299155083,bending,3
BMu36,38,C,REL,Trunk_Forward,1,R_MTF,5.915560267306375,return,3
BMu36,39,C,INI,Trunk_Forward,1,L_MTF,6.457568595956374,bending,1
BMu36,39,C,INI,Trunk_Forward,1,L_MTF,11.954343745557845,return,1
BMu36,39,C,INI,Trunk_Forward,1,L_MTF,5.985814149432727,bending,2
BMu36,39,C,INI,Trunk_Forward,1,L_MTF,10.344185655021574,return,2
BMu36,39,C,INI,Trunk_Forward,1,L_MTF,4.689411699997903,bending,3
BMu36,39,C,INI,Trunk_Forward,1,L_MTF,8.166168995372932,return,3
BMu36,39,C,INI,Trunk_Forward,1,R_MTF,1.1860935403025374,bending,1
BMu36,39,C,INI,Trunk_Forward,1,R_MTF,2.0663267874048916,return,1
BMu36,39,C,INI,Trunk_Forward,1,R_MTF,1.1573331157979414,bending,2
BMu36,39,C,INI,Trunk_Forward,1,R_MTF,1.9333003132762943,return,2
BMu36,39,C,INI,Trunk_Forward,1,R_MTF,1.2046832028014762,bending,3
BMu36,39,C,INI,Trunk_Forward,1,R_MTF,1.7720932479435938,return,3
BMu36,39,C,REL,Trunk_Forward,1,L_MTF,6.802806589392242,bending,1
BMu36,39,C,REL,Trunk_Forward,1,L_MTF,11.311733283112462,return,1
BMu36,39,C,REL,Trunk_Forward,1,L_MTF,5.106586986759101,bending,2
BMu36,39,C,REL,Trunk_Forward,1,L_MTF,11.28108047499224,return,2
BMu36,39,C,REL,Trunk_Forward,1,L_MTF,4.746617367305712,bending,3
BMu36,39,C,REL,Trunk_Forward,1,L_MTF,7.7644160918407366,return,3
BMu36,39,C,REL,Trunk_Forward,1,R_MTF,9.067026136442431,bending,1
BMu36,39,C,REL,Trunk_Forward,1,R_MTF,13.486919129760183,return,1
BMu36,39,C,REL,Trunk_Forward,1,R_MTF,8.04441931749792,bending,2
BMu36,39,C,REL,Trunk_Forward,1,R_MTF,14.076351175012999,return,2
BMu36,39,C,REL,Trunk_Forward,1,R_MTF,7.987906254423963,bending,3
BMu36,39,C,REL,Trunk_Forward,1,R_MTF,10.550454934865595,return,3
BMu36,40,C,INI,Trunk_Forward,1,L_MTF,0.874398162697347,bending,1
BMu36,40,C,INI,Trunk_Forward,1,L_MTF,2.265915650492058,return,1
BMu36,40,C,INI,Trunk_Forward,1,L_MTF,0.6922782586808607,bending,2
BMu36,40,C,INI,Trunk_Forward,1,L_MTF,2.6153302964230534,return,2
BMu36,40,C,INI,Trunk_Forward,1,L_MTF,0.5908552126148815,bending,3
BMu36,40,C,INI,Trunk_Forward,1,L_MTF,2.102755677401886,return,3
BMu36,40,C,INI,Trunk_Forward,1,R_MTF,4.594149344186072,bending,1
BMu36,40,C,INI,Trunk_Forward,1,R_MTF,8.787113835088187,return,1
BMu36,40,C,INI,Trunk_Forward,1,R_MTF,4.077597638487632,bending,2
BMu36,40,C,INI,Trunk_Forward,1,R_MTF,8.959333055841839,return,2
BMu36,40,C,INI,Trunk_Forward,1,R_MTF,3.103921867924071,bending,3
BMu36,40,C,INI,Trunk_Forward,1,R_MTF,8.761809147475514,return,3
BMu36,40,C,REL,Trunk_Forward,1,L_MTF,4.001403784346929,bending,1
BMu36,40,C,REL,Trunk_Forward,1,L_MTF,7.624652432580436,return,1
BMu36,40,C,REL,Trunk_Forward,1,L_MTF,2.8392615963459997,bending,2
BMu36,40,C,REL,Trunk_Forward,1,L_MTF,8.88978084400154,return,2
BMu36,40,C,REL,Trunk_Forward,1,L_MTF,2.6785411535924766,bending,3
BMu36,40,C,REL,Trunk_Forward,1,L_MTF,6.104061747891669,return,3
BMu36,40,C,REL,Trunk_Forward,1,R_MTF,3.745630743353095,bending,1
BMu36,40,C,REL,Trunk_Forward,1,R_MTF,6.959607427475814,return,1
BMu36,40,C,REL,Trunk_Forward,1,R_MTF,3.1023902435163717,bending,2
BMu36,40,C,REL,Trunk_Forward,1,R_MTF,8.345983803035228,return,2
BMu36,40,C,REL,Trunk_Forward,1,R_MTF,3.760601663904926,bending,3
BMu36,40,C,REL,Trunk_Forward,1,R_MTF,6.302059753448806,return,3
BMu36,41,P,INI,Trunk_Forward,1,L_MTF,5.216286461061896,bending,1
BMu36,41,P,INI,Trunk_Forward,1,L_MTF,9.80858926361111,return,1
BMu36,41,P,INI,Trunk_Forward,1,L_MTF,2.945178021688577,bending,2
BMu36,41,P,INI,Trunk_Forward,1,L_MTF,9.063753968994275,return,2
BMu36,41,P,INI,Trunk_Forward,1,L_MTF,2.354903538992419,bending,3
BMu36,41,P,INI,Trunk_Forward,1,L_MTF,7.580938152462764,return,3
BMu36,41,P,INI,Trunk_Forward,1,R_MTF,3.274131412314083,bending,1
BMu36,41,P,INI,Trunk_Forward,1,R_MTF,8.31543297261238,return,1
BMu36,41,P,INI,Trunk_Forward,1,R_MTF,2.4353853129504612,bending,2
BMu36,41,P,INI,Trunk_Forward,1,R_MTF,7.670161657996195,return,2
BMu36,41,P,INI,Trunk_Forward,1,R_MTF,2.4340605125031005,bending,3
BMu36,41,P,INI,Trunk_Forward,1,R_MTF,6.67561070681938,return,3
BMu36,41,P,REL,Trunk_Forward,1,L_MTF,4.249567747808189,bending,1
BMu36,41,P,REL,Trunk_Forward,1,L_MTF,9.204255600728255,return,1
BMu36,41,P,REL,Trunk_Forward,1,L_MTF,2.535961962552997,bending,2
BMu36,41,P,REL,Trunk_Forward,1,L_MTF,7.639271689499665,return,2
BMu36,41,P,REL,Trunk_Forward,1,L_MTF,2.407861241228149,bending,3
BMu36,41,P,REL,Trunk_Forward,1,L_MTF,5.771158996159251,return,3
BMu36,41,P,REL,Trunk_Forward,1,R_MTF,5.1678084339630646,bending,1
BMu36,41,P,REL,Trunk_Forward,1,R_MTF,10.955017988879247,return,1
BMu36,41,P,REL,Trunk_Forward,1,R_MTF,3.860389557222872,bending,2
BMu36,41,P,REL,Trunk_Forward,1,R_MTF,10.06095796065834,return,2
BMu36,41,P,REL,Trunk_Forward,1,R_MTF,3.659693475635707,bending,3
BMu36,41,P,REL,Trunk_Forward,1,R_MTF,7.821367718356349,return,3
BMu36,42,P,INI,Trunk_Forward,1,L_MTF,7.0041764520877186,bending,1
BMu36,42,P,INI,Trunk_Forward,1,L_MTF,10.612455785602018,return,1
BMu36,42,P,INI,Trunk_Forward,1,L_MTF,5.870160698214224,bending,2
BMu36,42,P,INI,Trunk_Forward,1,L_MTF,9.862930560188945,return,2
BMu36,42,P,INI,Trunk_Forward,1,L_MTF,6.276185114825738,bending,3
BMu36,42,P,INI,Trunk_Forward,1,L_MTF,8.603313547371055,return,3
BMu36,42,P,INI,Trunk_Forward,1,R_MTF,4.684124932721658,bending,1
BMu36,42,P,INI,Trunk_Forward,1,R_MTF,6.801047309522291,return,1
BMu36,42,P,INI,Trunk_Forward,1,R_MTF,4.2982575054427965,bending,2
BMu36,42,P,INI,Trunk_Forward,1,R_MTF,6.492994800823021,return,2
BMu36,42,P,INI,Trunk_Forward,1,R_MTF,4.076800714537804,bending,3
BMu36,42,P,INI,Trunk_Forward,1,R_MTF,4.822602633677795,return,3
BMu36,42,P,REL,Trunk_Forward,1,L_MTF,4.7749176400221005,bending,1
BMu36,42,P,REL,Trunk_Forward,1,L_MTF,7.019382322604492,return,1
BMu36,42,P,REL,Trunk_Forward,1,L_MTF,4.10054715407184,bending,2
BMu36,42,P,REL,Trunk_Forward,1,L_MTF,6.441559979742199,return,2
BMu36,42,P,REL,Trunk_Forward,1,L_MTF,4.269431563986036,bending,3
BMu36,42,P,REL,Trunk_Forward,1,L_MTF,5.076795705488529,return,3
BMu36,42,P,REL,Trunk_Forward,1,R_MTF,6.23413900637504,bending,1
BMu36,42,P,REL,Trunk_Forward,1,R_MTF,9.538305833221678,return,1
BMu36,42,P,REL,Trunk_Forward,1,R_MTF,5.142817308122291,bending,2
BMu36,42,P,REL,Trunk_Forward,1,R_MTF,7.954769624159504,return,2
BMu36,42,P,REL,Trunk_Forward,1,R_MTF,4.721785900869885,bending,3
BMu36,42,P,REL,Trunk_Forward,1,R_MTF,6.474105691431646,return,3
BMu36,43,P,INI,Trunk_Forward,1,L_MTF,5.310997459398998,bending,1
BMu36,43,P,INI,Trunk_Forward,1,L_MTF,4.320846164573729,return,1
BMu36,43,P,INI,Trunk_Forward,1,L_MTF,3.1486992181207007,bending,2
BMu36,43,P,INI,Trunk_Forward,1,L_MTF,4.345832708523746,return,2
BMu36,43,P,INI,Trunk_Forward,1,L_MTF,1.97215403077432,bending,3
BMu36,43,P,INI,Trunk_Forward,1,L_MTF,3.2143577675987967,return,3
BMu36,43,P,INI,Trunk_Forward,1,R_MTF,2.6450724126723832,bending,1
BMu36,43,P,INI,Trunk_Forward,1,R_MTF,2.0843884261133576,return,1
BMu36,43,P,INI,Trunk_Forward,1,R_MTF,2.273933603337248,bending,2
BMu36,43,P,INI,Trunk_Forward,1,R_MTF,2.3084288290502113,return,2
BMu36,43,P,INI,Trunk_Forward,1,R_MTF,1.3655316384546188,bending,3
BMu36,43,P,INI,Trunk_Forward,1,R_MTF,1.8286405264868753,return,3
BMu36,43,P,REL,Trunk_Forward,1,L_MTF,4.282107474662266,bending,1
BMu36,43,P,REL,Trunk_Forward,1,L_MTF,5.552901409231959,return,1
BMu36,43,P,REL,Trunk_Forward,1,L_MTF,2.4105998543228293,bending,2
BMu36,43,P,REL,Trunk_Forward,1,L_MTF,5.49238784051781,return,2
BMu36,43,P,REL,Trunk_Forward,1,L_MTF,2.254417032236201,bending,3
BMu36,43,P,REL,Trunk_Forward,1,L_MTF,4.197220802496371,return,3
BMu36,43,P,REL,Trunk_Forward,1,R_MTF,5.064719588407046,bending,1
BMu36,43,P,REL,Trunk_Forward,1,R_MTF,6.437590320450927,return,1
BMu36,43,P,REL,Trunk_Forward,1,R_MTF,4.5832929570574965,bending,2
BMu36,43,P,REL,Trunk_Forward,1,R_MTF,6.16634228004808,return,2
BMu36,43,P,REL,Trunk_Forward,1,R_MTF,4.5936240897777205,bending,3
BMu36,43,P,REL,Trunk_Forward,1,R_MTF,5.420576284873922,return,3
BMu36,44,C,INI,Trunk_Forward,1,L_MTF,2.5649040541003862,bending,1
BMu36,44,C,INI,Trunk_Forward,1,L_MTF,1.360680566788708,return,1
BMu36,44,C,INI,Trunk_Forward,1,L_MTF,1.2143724432909313,bending,2
BMu36,44,C,INI,Trunk_Forward,1,L_MTF,1.6902791976792544,return,2
BMu36,44,C,INI,Trunk_Forward,1,L_MTF,1.5784541902423639,bending,3
BMu36,44,C,INI,Trunk_Forward,1,L_MTF,1.3459485593577076,return,3
BMu36,44,C,INI,Trunk_Forward,1,R_MTF,5.226366480903909,bending,1
BMu36,44,C,INI,Trunk_Forward,1,R_MTF,6.488671886471349,return,1
BMu36,44,C,INI,Trunk_Forward,1,R_MTF,3.839366150255769,bending,2
BMu36,44,C,INI,Trunk_Forward,1,R_MTF,6.505079718498154,return,2
BMu36,44,C,INI,Trunk_Forward,1,R_MTF,3.64993343555331,bending,3
BMu36,44,C,INI,Trunk_Forward,1,R_MTF,5.56238535395302,return,3
BMu36,44,C,REL,Trunk_Forward,1,L_MTF,3.3604434178083316,bending,1
BMu36,44,C,REL,Trunk_Forward,1,L_MTF,6.915673055721867,return,1
BMu36,44,C,REL,Trunk_Forward,1,L_MTF,2.991925709799318,bending,2
BMu36,44,C,REL,Trunk_Forward,1,L_MTF,6.446372394366186,return,2
BMu36,44,C,REL,Trunk_Forward,1,L_MTF,2.3089859963126997,bending,3
BMu36,44,C,REL,Trunk_Forward,1,L_MTF,6.145225537461966,return,3
BMu36,44,C,REL,Trunk_Forward,1,R_MTF,3.373138499317443,bending,1
BMu36,44,C,REL,Trunk_Forward,1,R_MTF,7.509777180010463,return,1
BMu36,44,C,REL,Trunk_Forward,1,R_MTF,3.2942438622282824,bending,2
BMu36,44,C,REL,Trunk_Forward,1,R_MTF,7.320729290817383,return,2
BMu36,44,C,REL,Trunk_Forward,1,R_MTF,2.273654198100693,bending,3
BMu36,44,C,REL,Trunk_Forward,1,R_MTF,5.8628279784437165,return,3
BMu36,45,P,INI,Trunk_Forward,1,L_MTF,5.347078894772418,bending,1
BMu36,45,P,INI,Trunk_Forward,1,L_MTF,8.91284340690212,return,1
BMu36,45,P,INI,Trunk_Forward,1,L_MTF,4.311631936909276,bending,2
BMu36,45,P,INI,Trunk_Forward,1,L_MTF,7.548415836381213,return,2
BMu36,45,P,INI,Trunk_Forward,1,L_MTF,4.23699993074773,bending,3
BMu36,45,P,INI,Trunk_Forward,1,L_MTF,9.217239901477228,return,3
BMu36,45,P,INI,Trunk_Forward,1,R_MTF,5.1854843611036845,bending,1
BMu36,45,P,INI,Trunk_Forward,1,R_MTF,8.523205393522192,return,1
BMu36,45,P,INI,Trunk_Forward,1,R_MTF,5.673190996596399,bending,2
BMu36,45,P,INI,Trunk_Forward,1,R_MTF,8.024443573071265,return,2
BMu36,45,P,INI,Trunk_Forward,1,R_MTF,5.382789423320354,bending,3
BMu36,45,P,INI,Trunk_Forward,1,R_MTF,9.0995410556255,return,3
BMu36,45,P,REL,Trunk_Forward,1,L_MTF,4.35309078085756,bending,1
BMu36,45,P,REL,Trunk_Forward,1,L_MTF,4.8912973487345965,return,1
BMu36,45,P,REL,Trunk_Forward,1,L_MTF,3.1945283300940464,bending,2
BMu36,45,P,REL,Trunk_Forward,1,L_MTF,4.661132439893573,return,2
BMu36,45,P,REL,Trunk_Forward,1,L_MTF,2.9357654410584866,bending,3
BMu36,45,P,REL,Trunk_Forward,1,L_MTF,4.873114839002694,return,3
BMu36,45,P,REL,Trunk_Forward,1,R_MTF,4.0599829445020195,bending,1
BMu36,45,P,REL,Trunk_Forward,1,R_MTF,2.9276134163149194,return,1
BMu36,45,P,REL,Trunk_Forward,1,R_MTF,2.420793741361008,bending,2
BMu36,45,P,REL,Trunk_Forward,1,R_MTF,3.1847384448404803,return,2
BMu36,45,P,REL,Trunk_Forward,1,R_MTF,2.1831776484475163,bending,3
BMu36,45,P,REL,Trunk_Forward,1,R_MTF,2.7867856675838483,return,3
BMu36,46,C,INI,Trunk_Forward,1,L_MTF,1.6509738426854772,bending,1
BMu36,46,C,INI,Trunk_Forward,1,L_MTF,0.836951194786114,return,1
BMu36,46,C,INI,Trunk_Forward,1,L_MTF,3.0501644983773404,bending,2
BMu36,46,C,INI,Trunk_Forward,1,L_MTF,1.7858279440978624,return,2
BMu36,46,C,INI,Trunk_Forward,1,L_MTF,4.083358145586654,bending,3
BMu36,46,C,INI,Trunk_Forward,1,L_MTF,2.3079728558153025,return,3
BMu36,46,C,INI,Trunk_Forward,1,R_MTF,1.8489041018547145,bending,1
BMu36,46,C,INI,Trunk_Forward,1,R_MTF,3.8199301409802584,return,1
BMu36,46,C,INI,Trunk_Forward,1,R_MTF,1.5882195161450259,bending,2
BMu36,46,C,INI,Trunk_Forward,1,R_MTF,4.582785301418875,return,2
BMu36,46,C,INI,Trunk_Forward,1,R_MTF,1.9440897067683474,bending,3
BMu36,46,C,INI,Trunk_Forward,1,R_MTF,3.4019816060871175,return,3
BMu36,46,C,REL,Trunk_Forward,1,L_MTF,3.3195367683748667,bending,1
BMu36,46,C,REL,Trunk_Forward,1,L_MTF,5.458025238163376,return,1
BMu36,46,C,REL,Trunk_Forward,1,L_MTF,1.9285645851156341,bending,2
BMu36,46,C,REL,Trunk_Forward,1,L_MTF,5.146846112562175,return,2
BMu36,46,C,REL,Trunk_Forward,1,L_MTF,2.0460582262159397,bending,3
BMu36,46,C,REL,Trunk_Forward,1,L_MTF,3.885533120145112,return,3
BMu36,46,C,REL,Trunk_Forward,1,R_MTF,4.308580302730049,bending,1
BMu36,46,C,REL,Trunk_Forward,1,R_MTF,10.368348638808696,return,1
BMu36,46,C,REL,Trunk_Forward,1,R_MTF,2.992653558891961,bending,2
BMu36,46,C,REL,Trunk_Forward,1,R_MTF,9.320810870124415,return,2
BMu36,46,C,REL,Trunk_Forward,1,R_MTF,3.0894416043374746,bending,3
BMu36,46,C,REL,Trunk_Forward,1,R_MTF,7.080954301175388,return,3
BMu36,47,P,INI,Trunk_Forward,1,L_MTF,2.024462059444284,bending,1
BMu36,47,P,INI,Trunk_Forward,1,L_MTF,2.166916601026102,return,1
BMu36,47,P,INI,Trunk_Forward,1,L_MTF,1.6101579363471246,bending,2
BMu36,47,P,INI,Trunk_Forward,1,L_MTF,2.0983710316231816,return,2
BMu36,47,P,INI,Trunk_Forward,1,L_MTF,1.639251057579481,bending,3
BMu36,47,P,INI,Trunk_Forward,1,L_MTF,1.622773683232238,return,3
BMu36,47,P,INI,Trunk_Forward,1,R_MTF,9.930800940413228,bending,1
BMu36,47,P,INI,Trunk_Forward,1,R_MTF,12.579072655460129,return,1
BMu36,47,P,INI,Trunk_Forward,1,R_MTF,7.644913175200105,bending,2
BMu36,47,P,INI,Trunk_Forward,1,R_MTF,11.412772896523455,return,2
BMu36,47,P,INI,Trunk_Forward,1,R_MTF,7.349353842018299,bending,3
BMu36,47,P,INI,Trunk_Forward,1,R_MTF,8.372644379516466,return,3
BMu36,47,P,REL,Trunk_Forward,1,L_MTF,6.02142496656626,bending,1
BMu36,47,P,REL,Trunk_Forward,1,L_MTF,9.576754541721101,return,1
BMu36,47,P,REL,Trunk_Forward,1,L_MTF,6.16051579002747,bending,2
BMu36,47,P,REL,Trunk_Forward,1,L_MTF,9.20850457266879,return,2
BMu36,47,P,REL,Trunk_Forward,1,L_MTF,5.840799225957683,bending,3
BMu36,47,P,REL,Trunk_Forward,1,L_MTF,8.193748557244685,return,3
BMu36,47,P,REL,Trunk_Forward,1,R_MTF,2.671198307895279,bending,1
BMu36,47,P,REL,Trunk_Forward,1,R_MTF,4.798251690359672,return,1
BMu36,47,P,REL,Trunk_Forward,1,R_MTF,2.964479049506268,bending,2
BMu36,47,P,REL,Trunk_Forward,1,R_MTF,3.9758253006138164,return,2
BMu36,47,P,REL,Trunk_Forward,1,R_MTF,2.8447158038032097,bending,3
BMu36,47,P,REL,Trunk_Forward,1,R_MTF,3.8959472482692377,return,3
BMu36,48,C,INI,Trunk_Forward,1,L_MTF,4.247460986161521,bending,1
BMu36,48,C,INI,Trunk_Forward,1,L_MTF,8.879683455621798,return,1
BMu36,48,C,INI,Trunk_Forward,1,L_MTF,4.0981040191497184,bending,2
BMu36,48,C,INI,Trunk_Forward,1,L_MTF,9.634088210866361,return,2
BMu36,48,C,INI,Trunk_Forward,1,L_MTF,3.8496931921574107,bending,3
BMu36,48,C,INI,Trunk_Forward,1,L_MTF,9.369633389056474,return,3
BMu36,48,C,INI,Trunk_Forward,1,R_MTF,7.074944302722603,bending,1
BMu36,48,C,INI,Trunk_Forward,1,R_MTF,12.724484027442665,return,1
BMu36,48,C,INI,Trunk_Forward,1,R_MTF,8.309248145261384,bending,2
BMu36,48,C,INI,Trunk_Forward,1,R_MTF,12.53888416577616,return,2
BMu36,48,C,INI,Trunk_Forward,1,R_MTF,7.634700470555734,bending,3
BMu36,48,C,INI,Trunk_Forward,1,R_MTF,13.165086235126182,return,3
BMu36,48,C,REL,Trunk_Forward,1,L_MTF,5.453505255234238,bending,1
BMu36,48,C,REL,Trunk_Forward,1,L_MTF,11.091134604844127,return,1
BMu36,48,C,REL,Trunk_Forward,1,L_MTF,5.859645554344999,bending,2
BMu36,48,C,REL,Trunk_Forward,1,L_MTF,10.680210848995426,return,2
BMu36,48,C,REL,Trunk_Forward,1,L_MTF,4.356790008393567,bending,3
BMu36,48,C,REL,Trunk_Forward,1,L_MTF,8.495737002101263,return,3
BMu36,48,C,REL,Trunk_Forward,1,R_MTF,5.823901794369529,bending,1
BMu36,48,C,REL,Trunk_Forward,1,R_MTF,10.31826140628737,return,1
BMu36,48,C,REL,Trunk_Forward,1,R_MTF,6.0884144821900765,bending,2
BMu36,48,C,REL,Trunk_Forward,1,R_MTF,9.50036716910655,return,2
BMu36,48,C,REL,Trunk_Forward,1,R_MTF,5.321481713986276,bending,3
BMu36,48,C,REL,Trunk_Forward,1,R_MTF,8.700702259085544,return,3
BMu36,49,C,INI,Trunk_Forward,1,L_MTF,4.397119993384261,bending,1
BMu36,49,C,INI,Trunk_Forward,1,L_MTF,5.827298054263607,return,1
BMu36,49,C,INI,Trunk_Forward,1,L_MTF,4.090400239865016,bending,2
BMu36,49,C,INI,Trunk_Forward,1,L_MTF,6.6185925166422175,return,2
BMu36,49,C,INI,Trunk_Forward,1,L_MTF,4.381529822664666,bending,3
BMu36,49,C,INI,Trunk_Forward,1,L_MTF,6.2519219821239655,return,3
BMu36,49,C,INI,Trunk_Forward,1,R_MTF,5.3148300812320715,bending,1
BMu36,49,C,INI,Trunk_Forward,1,R_MTF,7.596414704155403,return,1
BMu36,49,C,INI,Trunk_Forward,1,R_MTF,5.197548530732,bending,2
BMu36,49,C,INI,Trunk_Forward,1,R_MTF,8.133129111336268,return,2
BMu36,49,C,INI,Trunk_Forward,1,R_MTF,5.353443135779618,bending,3
BMu36,49,C,INI,Trunk_Forward,1,R_MTF,7.774327798795703,return,3
BMu36,49,C,REL,Trunk_Forward,1,L_MTF,2.9984166435076545,bending,1
BMu36,49,C,REL,Trunk_Forward,1,L_MTF,3.4017462278435384,return,1
BMu36,49,C,REL,Trunk_Forward,1,L_MTF,2.6060971300858307,bending,2
BMu36,49,C,REL,Trunk_Forward,1,L_MTF,4.136037955985192,return,2
BMu36,49,C,REL,Trunk_Forward,1,L_MTF,2.32326986251761,bending,3
BMu36,49,C,REL,Trunk_Forward,1,L_MTF,2.9830711412693343,return,3
BMu36,49,C,REL,Trunk_Forward,1,R_MTF,5.777864235153538,bending,1
BMu36,49,C,REL,Trunk_Forward,1,R_MTF,6.89562181637062,return,1
BMu36,49,C,REL,Trunk_Forward,1,R_MTF,4.775173330519004,bending,2
BMu36,49,C,REL,Trunk_Forward,1,R_MTF,6.645330337191183,return,2
BMu36,49,C,REL,Trunk_Forward,1,R_MTF,4.713529189305365,bending,3
BMu36,49,C,REL,Trunk_Forward,1,R_MTF,7.148086301537133,return,3
BMu36,50,P,INI,Trunk_Forward,1,L_MTF,10.930861937897456,bending,1
BMu36,50,P,INI,Trunk_Forward,1,L_MTF,13.937879284051894,return,1
BMu36,50,P,INI,Trunk_Forward,1,L_MTF,11.900985800940308,bending,2
BMu36,50,P,INI,Trunk_Forward,1,L_MTF,14.462810526964905,return,2
BMu36,50,P,INI,Trunk_Forward,1,L_MTF,10.856452463201192,bending,3
BMu36,50,P,INI,Trunk_Forward,1,L_MTF,12.703841905372887,return,3
BMu36,50,P,INI,Trunk_Forward,1,R_MTF,1.0539335750050876,bending,1
BMu36,50,P,INI,Trunk_Forward,1,R_MTF,1.2402003367905396,return,1
BMu36,50,P,INI,Trunk_Forward,1,R_MTF,1.1923689805277844,bending,2
BMu36,50,P,INI,Trunk_Forward,1,R_MTF,1.2225240740628047,return,2
BMu36,50,P,INI,Trunk_Forward,1,R_MTF,1.2881833218588643,bending,3
BMu36,50,P,INI,Trunk_Forward,1,R_MTF,1.0434173400015927,return,3
BMu36,50,P,REL,Trunk_Forward,1,L_MTF,10.13066531091836,bending,1
BMu36,50,P,REL,Trunk_Forward,1,L_MTF,14.557615921352447,return,1
BMu36,50,P,REL,Trunk_Forward,1,L_MTF,12.053591620823545,bending,2
BMu36,50,P,REL,Trunk_Forward,1,L_MTF,13.990779600645794,return,2
BMu36,50,P,REL,Trunk_Forward,1,L_MTF,12.778537621903494,bending,3
BMu36,50,P,REL,Trunk_Forward,1,L_MTF,12.481367375407647,return,3
BMu36,50,P,REL,Trunk_Forward,1,R_MTF,4.293375128461343,bending,1
BMu36,50,P,REL,Trunk_Forward,1,R_MTF,4.104045220029314,return,1
BMu36,50,P,REL,Trunk_Forward,1,R_MTF,1.834014457817873,bending,2
BMu36,50,P,REL,Trunk_Forward,1,R_MTF,1.8747055476348398,return,2
BMu36,50,P,REL,Trunk_Forward,1,R_MTF,1.4885216731682445,bending,3
BMu36,50,P,REL,Trunk_Forward,1,R_MTF,1.0527946864417346,return,3
BMu36,51,P,INI,Trunk_Forward,1,L_MTF,8.170024003284821,bending,1
BMu36,51,P,INI,Trunk_Forward,1,L_MTF,12.652940052618495,return,1
BMu36,51,P,INI,Trunk_Forward,1,L_MTF,8.572653743364175,bending,2
BMu36,51,P,INI,Trunk_Forward,1,L_MTF,12.201502224865997,return,2
BMu36,51,P,INI,Trunk_Forward,1,L_MTF,7.862775236359957,bending,3
BMu36,51,P,INI,Trunk_Forward,1,L_MTF,9.67527810605297,return,3
BMu36,51,P,INI,Trunk_Forward,1,R_MTF,5.996654677330213,bending,1
BMu36,51,P,INI,Trunk_Forward,1,R_MTF,10.56698649294925,return,1
BMu36,51,P,INI,Trunk_Forward,1,R_MTF,6.372037565327179,bending,2
BMu36,51,P,INI,Trunk_Forward,1,R_MTF,9.76126996092523,return,2
BMu36,51,P,INI,Trunk_Forward,1,R_MTF,6.0484144734000544,bending,3
BMu36,51,P,INI,Trunk_Forward,1,R_MTF,8.433244061362124,return,3
BMu36,51,P,REL,Trunk_Forward,1,L_MTF,10.404841076214643,bending,1
BMu36,51,P,REL,Trunk_Forward,1,L_MTF,12.38366874362219,return,1
BMu36,51,P,REL,Trunk_Forward,1,L_MTF,8.68168261537887,bending,2
BMu36,51,P,REL,Trunk_Forward,1,L_MTF,14.205758787490668,return,2
BMu36,51,P,REL,Trunk_Forward,1,L_MTF,8.862267137988843,bending,3
BMu36,51,P,REL,Trunk_Forward,1,L_MTF,15.553133825039462,return,3
BMu36,51,P,REL,Trunk_Forward,1,R_MTF,1.0509715040472485,bending,1
BMu36,51,P,REL,Trunk_Forward,1,R_MTF,1.2079345106895798,return,1
BMu36,51,P,REL,Trunk_Forward,1,R_MTF,0.7703431726617874,bending,2
BMu36,51,P,REL,Trunk_Forward,1,R_MTF,1.3108491043358812,return,2
BMu36,51,P,REL,Trunk_Forward,1,R_MTF,0.6689002225198184,bending,3
BMu36,51,P,REL,Trunk_Forward,1,R_MTF,1.4783610331339887,return,3
BMu36,52,C,INI,Trunk_Forward,1,L_MTF,5.597128067417153,bending,1
BMu36,52,C,INI,Trunk_Forward,1,L_MTF,6.870925092222294,return,1
BMu36,52,C,INI,Trunk_Forward,1,L_MTF,2.729771188748168,bending,2
BMu36,52,C,INI,Trunk_Forward,1,L_MTF,6.152581860419139,return,2
BMu36,52,C,INI,Trunk_Forward,1,L_MTF,5.050543887469935,bending,3
BMu36,52,C,INI,Trunk_Forward,1,L_MTF,6.734181097011223,return,3
BMu36,52,C,INI,Trunk_Forward,1,R_MTF,6.856169778264896,bending,1
BMu36,52,C,INI,Trunk_Forward,1,R_MTF,8.335415265708683,return,1
BMu36,52,C,INI,Trunk_Forward,1,R_MTF,4.422389652758527,bending,2
BMu36,52,C,INI,Trunk_Forward,1,R_MTF,10.208209698640564,return,2
BMu36,52,C,INI,Trunk_Forward,1,R_MTF,6.081641471946842,bending,3
BMu36,52,C,INI,Trunk_Forward,1,R_MTF,10.21505000217773,return,3
BMu36,52,C,REL,Trunk_Forward,1,L_MTF,3.919244480159515,bending,1
BMu36,52,C,REL,Trunk_Forward,1,L_MTF,9.064096362409416,return,1
BMu36,52,C,REL,Trunk_Forward,1,L_MTF,3.660229974407962,bending,2
BMu36,52,C,REL,Trunk_Forward,1,L_MTF,9.314381056595973,return,2
BMu36,52,C,REL,Trunk_Forward,1,L_MTF,3.266438609638278,bending,3
BMu36,52,C,REL,Trunk_Forward,1,L_MTF,5.950459667117117,return,3
BMu36,52,C,REL,Trunk_Forward,1,R_MTF,5.183022772566817,bending,1
BMu36,52,C,REL,Trunk_Forward,1,R_MTF,10.2836081957328,return,1
BMu36,52,C,REL,Trunk_Forward,1,R_MTF,4.033476581468566,bending,2
BMu36,52,C,REL,Trunk_Forward,1,R_MTF,9.54801540037793,return,2
BMu36,52,C,REL,Trunk_Forward,1,R_MTF,5.054836444757981,bending,3
BMu36,52,C,REL,Trunk_Forward,1,R_MTF,7.10429588622788,return,3
BMu36,53,P,INI,Trunk_Forward,1,L_MTF,9.911322393111359,bending,1
BMu36,53,P,INI,Trunk_Forward,1,L_MTF,16.611930712487514,return,1
BMu36,53,P,INI,Trunk_Forward,1,L_MTF,9.995680196296448,bending,2
BMu36,53,P,INI,Trunk_Forward,1,L_MTF,14.95442151947843,return,2
BMu36,53,P,INI,Trunk_Forward,1,L_MTF,9.823514905879305,bending,3
BMu36,53,P,INI,Trunk_Forward,1,L_MTF,12.508149083664318,return,3
BMu36,53,P,INI,Trunk_Forward,1,R_MTF,8.010991205954296,bending,1
BMu36,53,P,INI,Trunk_Forward,1,R_MTF,13.348286293583884,return,1
BMu36,53,P,INI,Trunk_Forward,1,R_MTF,7.7248627282228695,bending,2
BMu36,53,P,INI,Trunk_Forward,1,R_MTF,11.903770202352636,return,2
BMu36,53,P,INI,Trunk_Forward,1,R_MTF,7.1216016595871485,bending,3
BMu36,53,P,INI,Trunk_Forward,1,R_MTF,9.67545117670677,return,3
BMu36,53,P,REL,Trunk_Forward,1,L_MTF,8.767133330247857,bending,1
BMu36,53,P,REL,Trunk_Forward,1,L_MTF,12.047656373521537,return,1
BMu36,53,P,REL,Trunk_Forward,1,L_MTF,8.624438062173065,bending,2
BMu36,53,P,REL,Trunk_Forward,1,L_MTF,13.697083585595415,return,2
BMu36,53,P,REL,Trunk_Forward,1,L_MTF,9.296134995732471,bending,3
BMu36,53,P,REL,Trunk_Forward,1,L_MTF,12.061870473900754,return,3
BMu36,53,P,REL,Trunk_Forward,1,R_MTF,7.6133866866211735,bending,1
BMu36,53,P,REL,Trunk_Forward,1,R_MTF,12.352320040338519,return,1
BMu36,53,P,REL,Trunk_Forward,1,R_MTF,7.288820331543229,bending,2
BMu36,53,P,REL,Trunk_Forward,1,R_MTF,13.386777230325807,return,2
BMu36,53,P,REL,Trunk_Forward,1,R_MTF,8.327862945099556,bending,3
BMu36,53,P,REL,Trunk_Forward,1,R_MTF,11.91503656884979,return,3
BMu36,54,P,INI,Trunk_Forward,1,L_MTF,2.7623846404912134,bending,1
BMu36,54,P,INI,Trunk_Forward,1,L_MTF,5.171701699812687,return,1
BMu36,54,P,INI,Trunk_Forward,1,L_MTF,3.991199100346796,bending,2
BMu36,54,P,INI,Trunk_Forward,1,L_MTF,5.348691268746358,return,2
BMu36,54,P,INI,Trunk_Forward,1,L_MTF,4.180600719553193,bending,3
BMu36,54,P,INI,Trunk_Forward,1,L_MTF,4.041387733404542,return,3
BMu36,54,P,INI,Trunk_Forward,1,R_MTF,3.0120214125331173,bending,1
BMu36,54,P,INI,Trunk_Forward,1,R_MTF,5.396035538414544,return,1
BMu36,54,P,INI,Trunk_Forward,1,R_MTF,3.095278014678701,bending,2
BMu36,54,P,INI,Trunk_Forward,1,R_MTF,5.580180977822798,return,2
BMu36,54,P,INI,Trunk_Forward,1,R_MTF,3.356803148259101,bending,3
BMu36,54,P,INI,Trunk_Forward,1,R_MTF,4.597017590778538,return,3
BMu36,54,P,REL,Trunk_Forward,1,L_MTF,4.357029114248235,bending,1
BMu36,54,P,REL,Trunk_Forward,1,L_MTF,7.4768910853787265,return,1
BMu36,54,P,REL,Trunk_Forward,1,L_MTF,5.165339927331999,bending,2
BMu36,54,P,REL,Trunk_Forward,1,L_MTF,8.901334210683615,return,2
BMu36,54,P,REL,Trunk_Forward,1,L_MTF,4.702283101666035,bending,3
BMu36,54,P,REL,Trunk_Forward,1,L_MTF,7.024676089521411,return,3
BMu36,54,P,REL,Trunk_Forward,1,R_MTF,4.638785889755047,bending,1
BMu36,54,P,REL,Trunk_Forward,1,R_MTF,8.44306367437051,return,1
BMu36,54,P,REL,Trunk_Forward,1,R_MTF,6.018569461341664,bending,2
BMu36,54,P,REL,Trunk_Forward,1,R_MTF,9.643756035036851,return,2
BMu36,54,P,REL,Trunk_Forward,1,R_MTF,5.4864989213089865,bending,3
BMu36,54,P,REL,Trunk_Forward,1,R_MTF,7.466351264213143,return,3
BMu36,55,C,INI,Trunk_Forward,1,L_MTF,2.280542616091718,bending,1
BMu36,55,C,INI,Trunk_Forward,1,L_MTF,2.729078330471453,return,1
BMu36,55,C,INI,Trunk_Forward,1,L_MTF,2.103630670069694,bending,2
BMu36,55,C,INI,Trunk_Forward,1,L_MTF,2.855651832401656,return,2
BMu36,55,C,INI,Trunk_Forward,1,L_MTF,2.325865003733965,bending,3
BMu36,55,C,INI,Trunk_Forward,1,L_MTF,2.8182490798667645,return,3
BMu36,55,C,INI,Trunk_Forward,1,R_MTF,5.708020764552802,bending,1
BMu36,55,C,INI,Trunk_Forward,1,R_MTF,7.326702079194374,return,1
BMu36,55,C,INI,Trunk_Forward,1,R_MTF,3.9780954360376124,bending,2
BMu36,55,C,INI,Trunk_Forward,1,R_MTF,7.235069014958314,return,2
BMu36,55,C,INI,Trunk_Forward,1,R_MTF,3.9374269600601512,bending,3
BMu36,55,C,INI,Trunk_Forward,1,R_MTF,6.092274361194505,return,3
BMu36,55,C,REL,Trunk_Forward,1,L_MTF,3.815527331796197,bending,1
BMu36,55,C,REL,Trunk_Forward,1,L_MTF,9.374071144806273,return,1
BMu36,55,C,REL,Trunk_Forward,1,L_MTF,3.9422376270574135,bending,2
BMu36,55,C,REL,Trunk_Forward,1,L_MTF,9.738523631325982,return,2
BMu36,55,C,REL,Trunk_Forward,1,L_MTF,3.5074747251137213,bending,3
BMu36,55,C,REL,Trunk_Forward,1,L_MTF,6.271604393451864,return,3
BMu36,55,C,REL,Trunk_Forward,1,R_MTF,4.126392952637793,bending,1
BMu36,55,C,REL,Trunk_Forward,1,R_MTF,9.497296654113114,return,1
BMu36,55,C,REL,Trunk_Forward,1,R_MTF,3.517904480030289,bending,2
BMu36,55,C,REL,Trunk_Forward,1,R_MTF,8.991238515551748,return,2
BMu36,55,C,REL,Trunk_Forward,1,R_MTF,3.4191205640166245,bending,3
BMu36,55,C,REL,Trunk_Forward,1,R_MTF,5.735691343215878,return,3
BMu36,56,C,INI,Trunk_Forward,1,L_MTF,3.417011762961001,bending,1
BMu36,56,C,INI,Trunk_Forward,1,L_MTF,4.830264316430719,return,1
BMu36,56,C,INI,Trunk_Forward,1,L_MTF,2.489874003079513,bending,2
BMu36,56,C,INI,Trunk_Forward,1,L_MTF,6.029280060988955,return,2
BMu36,56,C,INI,Trunk_Forward,1,L_MTF,2.0090043403073574,bending,3
BMu36,56,C,INI,Trunk_Forward,1,L_MTF,3.4272620570666503,return,3
BMu36,56,C,INI,Trunk_Forward,1,R_MTF,2.8575371723819285,bending,1
BMu36,56,C,INI,Trunk_Forward,1,R_MTF,3.4868040885765383,return,1
BMu36,56,C,INI,Trunk_Forward,1,R_MTF,2.1767646667995404,bending,2
BMu36,56,C,INI,Trunk_Forward,1,R_MTF,4.214916408097257,return,2
BMu36,56,C,INI,Trunk_Forward,1,R_MTF,1.91267999908131,bending,3
BMu36,56,C,INI,Trunk_Forward,1,R_MTF,2.972981375970596,return,3
BMu36,56,C,REL,Trunk_Forward,1,L_MTF,4.914683594868378,bending,1
BMu36,56,C,REL,Trunk_Forward,1,L_MTF,9.576879805362934,return,1
BMu36,56,C,REL,Trunk_Forward,1,L_MTF,4.645075765144959,bending,2
BMu36,56,C,REL,Trunk_Forward,1,L_MTF,7.298408283955506,return,2
BMu36,56,C,REL,Trunk_Forward,1,L_MTF,2.776695649784364,bending,3
BMu36,56,C,REL,Trunk_Forward,1,L_MTF,5.026798326388272,return,3
BMu36,56,C,REL,Trunk_Forward,1,R_MTF,2.24116163431792,bending,1
BMu36,56,C,REL,Trunk_Forward,1,R_MTF,3.1260110461115858,return,1
BMu36,56,C,REL,Trunk_Forward,1,R_MTF,1.4944882378844437,bending,2
BMu36,56,C,REL,Trunk_Forward,1,R_MTF,2.723757681315692,return,2
BMu36,56,C,REL,Trunk_Forward,1,R_MTF,1.0315374936382566,bending,3
BMu36,56,C,REL,Trunk_Forward,1,R_MTF,2.110659503867725,return,3
BMu36,57,C,INI,Trunk_Forward,1,L_MTF,5.181934957071544,bending,1
BMu36,57,C,INI,Trunk_Forward,1,L_MTF,4.679438421175716,return,1
BMu36,57,C,INI,Trunk_Forward,1,L_MTF,4.8285046314446465,bending,2
BMu36,57,C,INI,Trunk_Forward,1,L_MTF,4.6216794923088145,return,2
BMu36,57,C,INI,Trunk_Forward,1,L_MTF,5.997791771877162,bending,3
BMu36,57,C,INI,Trunk_Forward,1,L_MTF,5.554985326366292,return,3
BMu36,57,C,INI,Trunk_Forward,1,R_MTF,0.6405127030943255,bending,1
BMu36,57,C,INI,Trunk_Forward,1,R_MTF,0.5834558504466808,return,1
BMu36,57,C,INI,Trunk_Forward,1,R_MTF,0.5880519342834658,bending,2
BMu36,57,C,INI,Trunk_Forward,1,R_MTF,0.5449130873196296,return,2
BMu36,57,C,INI,Trunk_Forward,1,R_MTF,0.5177511765976716,bending,3
BMu36,57,C,INI,Trunk_Forward,1,R_MTF,0.48116125905563145,return,3
BMu36,57,C,REL,Trunk_Forward,1,L_MTF,4.461526574314896,bending,1
BMu36,57,C,REL,Trunk_Forward,1,L_MTF,6.5584661400589574,return,1
BMu36,57,C,REL,Trunk_Forward,1,L_MTF,5.0641390083588655,bending,2
BMu36,57,C,REL,Trunk_Forward,1,L_MTF,6.950961954073339,return,2
BMu36,57,C,REL,Trunk_Forward,1,L_MTF,4.775844317877648,bending,3
BMu36,57,C,REL,Trunk_Forward,1,L_MTF,5.734967778249969,return,3
BMu36,57,C,REL,Trunk_Forward,1,R_MTF,1.9389887220275097,bending,1
BMu36,57,C,REL,Trunk_Forward,1,R_MTF,2.395168453593172,return,1
BMu36,57,C,REL,Trunk_Forward,1,R_MTF,1.8974198020088473,bending,2
BMu36,57,C,REL,Trunk_Forward,1,R_MTF,2.3688243171095014,return,2
BMu36,57,C,REL,Trunk_Forward,1,R_MTF,1.8352890829597814,bending,3
BMu36,57,C,REL,Trunk_Forward,1,R_MTF,2.6963954688617546,return,3
BMu36,58,P,INI,Trunk_Forward,1,L_MTF,1.1356547630750342,bending,1
BMu36,58,P,INI,Trunk_Forward,1,L_MTF,1.1896819862232724,return,1
BMu36,58,P,INI,Trunk_Forward,1,L_MTF,1.287993765686865,bending,2
BMu36,58,P,INI,Trunk_Forward,1,L_MTF,0.9104676809748113,return,2
BMu36,58,P,INI,Trunk_Forward,1,L_MTF,1.1242554445407282,bending,3
BMu36,58,P,INI,Trunk_Forward,1,L_MTF,0.8792313274334742,return,3
BMu36,58,P,INI,Trunk_Forward,1,R_MTF,2.8957481547758315,bending,1
BMu36,58,P,INI,Trunk_Forward,1,R_MTF,1.6809365155041767,return,1
BMu36,58,P,INI,Trunk_Forward,1,R_MTF,1.8530038001577778,bending,2
BMu36,58,P,INI,Trunk_Forward,1,R_MTF,1.8200149066980686,return,2
BMu36,58,P,INI,Trunk_Forward,1,R_MTF,2.3077886716326987,bending,3
BMu36,58,P,INI,Trunk_Forward,1,R_MTF,1.4227793930706634,return,3
BMu36,58,P,REL,Trunk_Forward,1,L_MTF,4.554715931262555,bending,1
BMu36,58,P,REL,Trunk_Forward,1,L_MTF,6.55264161095309,return,1
BMu36,58,P,REL,Trunk_Forward,1,L_MTF,5.6268497523325225,bending,2
BMu36,58,P,REL,Trunk_Forward,1,L_MTF,6.933349418019621,return,2
BMu36,58,P,REL,Trunk_Forward,1,L_MTF,5.296415058322585,bending,3
BMu36,58,P,REL,Trunk_Forward,1,L_MTF,7.085761001145522,return,3
BMu36,58,P,REL,Trunk_Forward,1,R_MTF,6.33151377965204,bending,1
BMu36,58,P,REL,Trunk_Forward,1,R_MTF,8.718667833751132,return,1
BMu36,58,P,REL,Trunk_Forward,1,R_MTF,6.525661323922566,bending,2
BMu36,58,P,REL,Trunk_Forward,1,R_MTF,8.935310686356118,return,2
BMu36,58,P,REL,Trunk_Forward,1,R_MTF,5.7907657498930805,bending,3
BMu36,58,P,REL,Trunk_Forward,1,R_MTF,8.339907048729906,return,3
BMu36,60,C,INI,Trunk_Forward,1,L_MTF,5.037453379295245,bending,1
BMu36,60,C,INI,Trunk_Forward,1,L_MTF,7.265150410177869,return,1
BMu36,60,C,INI,Trunk_Forward,1,L_MTF,3.628600202112212,bending,2
BMu36,60,C,INI,Trunk_Forward,1,L_MTF,5.2540786083393485,return,2
BMu36,60,C,INI,Trunk_Forward,1,L_MTF,2.9610304328613637,bending,3
BMu36,60,C,INI,Trunk_Forward,1,L_MTF,4.294341413032441,return,3
BMu36,60,C,INI,Trunk_Forward,1,R_MTF,6.677470049219448,bending,1
BMu36,60,C,INI,Trunk_Forward,1,R_MTF,7.68732535736919,return,1
BMu36,60,C,INI,Trunk_Forward,1,R_MTF,5.456340241541419,bending,2
BMu36,60,C,INI,Trunk_Forward,1,R_MTF,5.478888750616915,return,2
BMu36,60,C,INI,Trunk_Forward,1,R_MTF,4.150514470468359,bending,3
BMu36,60,C,INI,Trunk_Forward,1,R_MTF,4.894271617216725,return,3
BMu36,60,C,REL,Trunk_Forward,1,L_MTF,3.755476166023465,bending,1
BMu36,60,C,REL,Trunk_Forward,1,L_MTF,8.64274404333653,return,1
BMu36,60,C,REL,Trunk_Forward,1,L_MTF,3.7622051215973222,bending,2
BMu36,60,C,REL,Trunk_Forward,1,L_MTF,7.761381047120833,return,2
BMu36,60,C,REL,Trunk_Forward,1,L_MTF,3.7927825997727633,bending,3
BMu36,60,C,REL,Trunk_Forward,1,L_MTF,5.382667624270659,return,3
BMu36,60,C,REL,Trunk_Forward,1,R_MTF,4.869537297956519,bending,1
BMu36,60,C,REL,Trunk_Forward,1,R_MTF,9.462530486603933,return,1
BMu36,60,C,REL,Trunk_Forward,1,R_MTF,4.7242186370790575,bending,2
BMu36,60,C,REL,Trunk_Forward,1,R_MTF,8.610536640101651,return,2
BMu36,60,C,REL,Trunk_Forward,1,R_MTF,4.426799329588691,bending,3
BMu36,60,C,REL,Trunk_Forward,1,R_MTF,6.896672265681813,return,3
BMu36,61,P,INI,Trunk_Forward,1,L_MTF,6.173390652960918,bending,1
BMu36,61,P,INI,Trunk_Forward,1,L_MTF,12.964075256259786,return,1
BMu36,61,P,INI,Trunk_Forward,1,L_MTF,7.128964992610617,bending,2
BMu36,61,P,INI,Trunk_Forward,1,L_MTF,12.93870566103045,return,2
BMu36,61,P,INI,Trunk_Forward,1,L_MTF,6.060709932573453,bending,3
BMu36,61,P,INI,Trunk_Forward,1,L_MTF,11.383291523466028,return,3
BMu36,61,P,INI,Trunk_Forward,1,R_MTF,1.6024642589413254,bending,1
BMu36,61,P,INI,Trunk_Forward,1,R_MTF,2.796155021101127,return,1
BMu36,61,P,INI,Trunk_Forward,1,R_MTF,1.4745096640314153,bending,2
BMu36,61,P,INI,Trunk_Forward,1,R_MTF,2.8487066261243523,return,2
BMu36,61,P,INI,Trunk_Forward,1,R_MTF,1.3905699764869877,bending,3
BMu36,61,P,INI,Trunk_Forward,1,R_MTF,2.236316679992432,return,3
BMu36,61,P,REL,Trunk_Forward,1,L_MTF,4.632670570342698,bending,1
BMu36,61,P,REL,Trunk_Forward,1,L_MTF,9.382864515522092,return,1
BMu36,61,P,REL,Trunk_Forward,1,L_MTF,4.40352716951883,bending,2
BMu36,61,P,REL,Trunk_Forward,1,L_MTF,9.582032699947046,return,2
BMu36,61,P,REL,Trunk_Forward,1,L_MTF,3.7325890853912798,bending,3
BMu36,61,P,REL,Trunk_Forward,1,L_MTF,8.723312230922032,return,3
BMu36,61,P,REL,Trunk_Forward,1,R_MTF,4.269386389561186,bending,1
BMu36,61,P,REL,Trunk_Forward,1,R_MTF,6.715105285782109,return,1
BMu36,61,P,REL,Trunk_Forward,1,R_MTF,3.5324314680442535,bending,2
BMu36,61,P,REL,Trunk_Forward,1,R_MTF,6.527841237019121,return,2
BMu36,61,P,REL,Trunk_Forward,1,R_MTF,3.3469605847980404,bending,3
BMu36,61,P,REL,Trunk_Forward,1,R_MTF,6.0375791120979665,return,3
BMu36,62,P,INI,Trunk_Forward,1,L_MTF,6.334676402822202,bending,1
BMu36,62,P,INI,Trunk_Forward,1,L_MTF,10.093930640932074,return,1
BMu36,62,P,INI,Trunk_Forward,1,L_MTF,7.811036129608815,bending,2
BMu36,62,P,INI,Trunk_Forward,1,L_MTF,9.131563348822365,return,2
BMu36,62,P,INI,Trunk_Forward,1,L_MTF,6.764934732207935,bending,3
BMu36,62,P,INI,Trunk_Forward,1,L_MTF,7.842367561378428,return,3
BMu36,62,P,INI,Trunk_Forward,1,R_MTF,5.25507155955277,bending,1
BMu36,62,P,INI,Trunk_Forward,1,R_MTF,8.087589060108925,return,1
BMu36,62,P,INI,Trunk_Forward,1,R_MTF,5.44786998346392,bending,2
BMu36,62,P,INI,Trunk_Forward,1,R_MTF,8.206934197878589,return,2
BMu36,62,P,INI,Trunk_Forward,1,R_MTF,4.93343012195807,bending,3
BMu36,62,P,INI,Trunk_Forward,1,R_MTF,6.505912107122488,return,3
BMu36,62,P,REL,Trunk_Forward,1,L_MTF,6.246902184561399,bending,1
BMu36,62,P,REL,Trunk_Forward,1,L_MTF,8.453644373684552,return,1
BMu36,62,P,REL,Trunk_Forward,1,L_MTF,6.385932381805608,bending,2
BMu36,62,P,REL,Trunk_Forward,1,L_MTF,7.77188623729812,return,2
BMu36,62,P,REL,Trunk_Forward,1,L_MTF,5.459225385890901,bending,3
BMu36,62,P,REL,Trunk_Forward,1,L_MTF,5.58516990762215,return,3
BMu36,62,P,REL,Trunk_Forward,1,R_MTF,7.194656108405549,bending,1
BMu36,62,P,REL,Trunk_Forward,1,R_MTF,10.359255656294456,return,1
BMu36,62,P,REL,Trunk_Forward,1,R_MTF,7.187381546182731,bending,2
BMu36,62,P,REL,Trunk_Forward,1,R_MTF,8.821282252244565,return,2
BMu36,62,P,REL,Trunk_Forward,1,R_MTF,5.976554198609536,bending,3
BMu36,62,P,REL,Trunk_Forward,1,R_MTF,7.0668249415206175,return,3
BMu36,63,P,INI,Trunk_Forward,1,L_MTF,5.215486170649444,bending,1
BMu36,63,P,INI,Trunk_Forward,1,L_MTF,6.618355830139917,return,1
BMu36,63,P,INI,Trunk_Forward,1,L_MTF,5.822718018564656,bending,2
BMu36,63,P,INI,Trunk_Forward,1,L_MTF,6.33299064230542,return,2
BMu36,63,P,INI,Trunk_Forward,1,L_MTF,6.021278056046416,bending,3
BMu36,63,P,INI,Trunk_Forward,1,L_MTF,8.018911696945244,return,3
BMu36,63,P,INI,Trunk_Forward,1,R_MTF,5.658490821567318,bending,1
BMu36,63,P,INI,Trunk_Forward,1,R_MTF,7.555512331656204,return,1
BMu36,63,P,INI,Trunk_Forward,1,R_MTF,5.141206488021755,bending,2
BMu36,63,P,INI,Trunk_Forward,1,R_MTF,8.044792566663125,return,2
BMu36,63,P,INI,Trunk_Forward,1,R_MTF,5.794446435087022,bending,3
BMu36,63,P,INI,Trunk_Forward,1,R_MTF,7.969199270522739,return,3
BMu36,63,P,REL,Trunk_Forward,1,L_MTF,5.434408967779982,bending,1
BMu36,63,P,REL,Trunk_Forward,1,L_MTF,5.37016490748085,return,1
BMu36,63,P,REL,Trunk_Forward,1,L_MTF,3.4387223565119673,bending,2
BMu36,63,P,REL,Trunk_Forward,1,L_MTF,6.22065201002844,return,2
BMu36,63,P,REL,Trunk_Forward,1,L_MTF,4.180270431031959,bending,3
BMu36,63,P,REL,Trunk_Forward,1,L_MTF,7.202794837742269,return,3
BMu36,63,P,REL,Trunk_Forward,1,R_MTF,4.813404371352697,bending,1
BMu36,63,P,REL,Trunk_Forward,1,R_MTF,7.923429291011601,return,1
BMu36,63,P,REL,Trunk_Forward,1,R_MTF,3.9876722708249663,bending,2
BMu36,63,P,REL,Trunk_Forward,1,R_MTF,8.814189240064252,return,2
BMu36,63,P,REL,Trunk_Forward,1,R_MTF,5.523025074852991,bending,3
BMu36,63,P,REL,Trunk_Forward,1,R_MTF,9.488668363682974,return,3
BMu36,64,C,INI,Trunk_Forward,1,L_MTF,4.220431529524169,bending,1
BMu36,64,C,INI,Trunk_Forward,1,L_MTF,5.243676789562385,return,1
BMu36,64,C,INI,Trunk_Forward,1,L_MTF,3.070684888554411,bending,2
BMu36,64,C,INI,Trunk_Forward,1,L_MTF,5.6325808433871,return,2
BMu36,64,C,INI,Trunk_Forward,1,L_MTF,2.57473933080414,bending,3
BMu36,64,C,INI,Trunk_Forward,1,L_MTF,4.535757204412471,return,3
BMu36,64,C,INI,Trunk_Forward,1,R_MTF,5.9698558083119675,bending,1
BMu36,64,C,INI,Trunk_Forward,1,R_MTF,8.441298789902225,return,1
BMu36,64,C,INI,Trunk_Forward,1,R_MTF,4.045069661060334,bending,2
BMu36,64,C,INI,Trunk_Forward,1,R_MTF,7.605077646230624,return,2
BMu36,64,C,INI,Trunk_Forward,1,R_MTF,3.252943494218421,bending,3
BMu36,64,C,INI,Trunk_Forward,1,R_MTF,6.80252991610833,return,3
BMu36,64,C,REL,Trunk_Forward,1,L_MTF,2.8944022316536784,bending,1
BMu36,64,C,REL,Trunk_Forward,1,L_MTF,3.8298131901548955,return,1
BMu36,64,C,REL,Trunk_Forward,1,L_MTF,2.6362456841791504,bending,2
BMu36,64,C,REL,Trunk_Forward,1,L_MTF,5.070096360351713,return,2
BMu36,64,C,REL,Trunk_Forward,1,L_MTF,2.897560193653584,bending,3
BMu36,64,C,REL,Trunk_Forward,1,L_MTF,3.50364676200975,return,3
BMu36,64,C,REL,Trunk_Forward,1,R_MTF,3.1944354148608074,bending,1
BMu36,64,C,REL,Trunk_Forward,1,R_MTF,5.418741644775631,return,1
BMu36,64,C,REL,Trunk_Forward,1,R_MTF,3.0084488010682686,bending,2
BMu36,64,C,REL,Trunk_Forward,1,R_MTF,6.850859875272192,return,2
BMu36,64,C,REL,Trunk_Forward,1,R_MTF,3.9636629067605598,bending,3
BMu36,64,C,REL,Trunk_Forward,1,R_MTF,4.785202796821117,return,3
BMu36,65,P,INI,Trunk_Forward,1,L_MTF,6.123236084875665,bending,1
BMu36,65,P,INI,Trunk_Forward,1,L_MTF,7.410625670729335,return,1
BMu36,65,P,INI,Trunk_Forward,1,L_MTF,4.4774903156327115,bending,2
BMu36,65,P,INI,Trunk_Forward,1,L_MTF,7.7376017936881585,return,2
BMu36,65,P,INI,Trunk_Forward,1,L_MTF,2.714084300795689,bending,3
BMu36,65,P,INI,Trunk_Forward,1,L_MTF,5.579927223374156,return,3
BMu36,65,P,INI,Trunk_Forward,1,R_MTF,5.3259689478110275,bending,1
BMu36,65,P,INI,Trunk_Forward,1,R_MTF,8.015660222425634,return,1
BMu36,65,P,INI,Trunk_Forward,1,R_MTF,4.475782347239759,bending,2
BMu36,65,P,INI,Trunk_Forward,1,R_MTF,8.64553602101525,return,2
BMu36,65,P,INI,Trunk_Forward,1,R_MTF,3.4319208923753006,bending,3
BMu36,65,P,INI,Trunk_Forward,1,R_MTF,5.393846154398232,return,3
BMu36,65,P,REL,Trunk_Forward,1,L_MTF,5.687779260205158,bending,1
BMu36,65,P,REL,Trunk_Forward,1,L_MTF,9.760176863962016,return,1
BMu36,65,P,REL,Trunk_Forward,1,L_MTF,4.223130934925548,bending,2
BMu36,65,P,REL,Trunk_Forward,1,L_MTF,8.513607266236118,return,2
BMu36,65,P,REL,Trunk_Forward,1,L_MTF,4.74599460214876,bending,3
BMu36,65,P,REL,Trunk_Forward,1,L_MTF,6.556213560355351,return,3
BMu36,65,P,REL,Trunk_Forward,1,R_MTF,4.840486649702425,bending,1
BMu36,65,P,REL,Trunk_Forward,1,R_MTF,9.193276969966531,return,1
BMu36,65,P,REL,Trunk_Forward,1,R_MTF,4.473973813806403,bending,2
BMu36,65,P,REL,Trunk_Forward,1,R_MTF,8.522404963502002,return,2
BMu36,65,P,REL,Trunk_Forward,1,R_MTF,4.836322670143606,bending,3
BMu36,65,P,REL,Trunk_Forward,1,R_MTF,6.707405581926192,return,3
BMu36,66,C,INI,Trunk_Forward,1,L_MTF,1.3496817068099256,bending,1
BMu36,66,C,INI,Trunk_Forward,1,L_MTF,2.302471062738841,return,1
BMu36,66,C,INI,Trunk_Forward,1,L_MTF,1.085553566829049,bending,2
BMu36,66,C,INI,Trunk_Forward,1,L_MTF,2.3918169655926698,return,2
BMu36,66,C,INI,Trunk_Forward,1,L_MTF,1.1523565462775922,bending,3
BMu36,66,C,INI,Trunk_Forward,1,L_MTF,1.7642362781534904,return,3
BMu36,66,C,INI,Trunk_Forward,1,R_MTF,0.24757287490639615,bending,1
BMu36,66,C,INI,Trunk_Forward,1,R_MTF,0.6738726603909351,return,1
BMu36,66,C,INI,Trunk_Forward,1,R_MTF,0.32000065446597964,bending,2
BMu36,66,C,INI,Trunk_Forward,1,R_MTF,0.6095757867507186,return,2
BMu36,66,C,INI,Trunk_Forward,1,R_MTF,0.3461885234630993,bending,3
BMu36,66,C,INI,Trunk_Forward,1,R_MTF,0.41436370227910796,return,3
BMu36,66,C,REL,Trunk_Forward,1,L_MTF,1.2348240638659596,bending,1
BMu36,66,C,REL,Trunk_Forward,1,L_MTF,1.0997255440676588,return,1
BMu36,66,C,REL,Trunk_Forward,1,L_MTF,0.7384747210997187,bending,2
BMu36,66,C,REL,Trunk_Forward,1,L_MTF,0.977458707309657,return,2
BMu36,66,C,REL,Trunk_Forward,1,L_MTF,0.6943205012819206,bending,3
BMu36,66,C,REL,Trunk_Forward,1,L_MTF,0.9678268392262166,return,3
BMu36,66,C,REL,Trunk_Forward,1,R_MTF,2.6909442366868306,bending,1
BMu36,66,C,REL,Trunk_Forward,1,R_MTF,3.7234002145567007,return,1
BMu36,66,C,REL,Trunk_Forward,1,R_MTF,2.0946649051568276,bending,2
BMu36,66,C,REL,Trunk_Forward,1,R_MTF,3.461956124356131,return,2
BMu36,66,C,REL,Trunk_Forward,1,R_MTF,2.018775522866593,bending,3
BMu36,66,C,REL,Trunk_Forward,1,R_MTF,3.0969756196762064,return,3
BMu36,67,C,INI,Trunk_Forward,1,L_MTF,3.6544132583725313,bending,1
BMu36,67,C,INI,Trunk_Forward,1,L_MTF,7.334392966148777,return,1
BMu36,67,C,INI,Trunk_Forward,1,L_MTF,3.356735251927876,bending,2
BMu36,67,C,INI,Trunk_Forward,1,L_MTF,6.520984590637112,return,2
BMu36,67,C,INI,Trunk_Forward,1,L_MTF,2.3392901229546355,bending,3
BMu36,67,C,INI,Trunk_Forward,1,L_MTF,6.176300994301662,return,3
BMu36,67,C,INI,Trunk_Forward,1,R_MTF,5.388863438473451,bending,1
BMu36,67,C,INI,Trunk_Forward,1,R_MTF,8.919464776194705,return,1
BMu36,67,C,INI,Trunk_Forward,1,R_MTF,4.94298717238702,bending,2
BMu36,67,C,INI,Trunk_Forward,1,R_MTF,7.79439767887028,return,2
BMu36,67,C,INI,Trunk_Forward,1,R_MTF,3.627510454623943,bending,3
BMu36,67,C,INI,Trunk_Forward,1,R_MTF,7.427034073058991,return,3
BMu36,67,C,REL,Trunk_Forward,1,L_MTF,3.592779409207785,bending,1
BMu36,67,C,REL,Trunk_Forward,1,L_MTF,9.255109567157579,return,1
BMu36,67,C,REL,Trunk_Forward,1,L_MTF,5.979906371174658,bending,2
BMu36,67,C,REL,Trunk_Forward,1,L_MTF,10.595405889781405,return,2
BMu36,67,C,REL,Trunk_Forward,1,L_MTF,4.259768970653887,bending,3
BMu36,67,C,REL,Trunk_Forward,1,L_MTF,8.801644408670462,return,3
BMu36,67,C,REL,Trunk_Forward,1,R_MTF,3.758656494475132,bending,1
BMu36,67,C,REL,Trunk_Forward,1,R_MTF,7.622244433880574,return,1
BMu36,67,C,REL,Trunk_Forward,1,R_MTF,4.390550363949953,bending,2
BMu36,67,C,REL,Trunk_Forward,1,R_MTF,7.757659208809366,return,2
BMu36,67,C,REL,Trunk_Forward,1,R_MTF,3.4580207290726346,bending,3
BMu36,67,C,REL,Trunk_Forward,1,R_MTF,6.07783478480226,return,3
BMu36,68,C,INI,Trunk_Forward,1,L_MTF,6.303460183228744,bending,1
BMu36,68,C,INI,Trunk_Forward,1,L_MTF,10.874987339563203,return,1
BMu36,68,C,INI,Trunk_Forward,1,L_MTF,4.6010941131841125,bending,2
BMu36,68,C,INI,Trunk_Forward,1,L_MTF,10.362045085922583,return,2
BMu36,68,C,INI,Trunk_Forward,1,L_MTF,4.778470703987441,bending,3
BMu36,68,C,INI,Trunk_Forward,1,L_MTF,8.26096814887201,return,3
BMu36,68,C,INI,Trunk_Forward,1,R_MTF,9.573603107937512,bending,1
BMu36,68,C,INI,Trunk_Forward,1,R_MTF,11.726845602321912,return,1
BMu36,68,C,INI,Trunk_Forward,1,R_MTF,8.307494821208522,bending,2
BMu36,68,C,INI,Trunk_Forward,1,R_MTF,12.34475606963647,return,2
BMu36,68,C,INI,Trunk_Forward,1,R_MTF,8.310659421927882,bending,3
BMu36,68,C,INI,Trunk_Forward,1,R_MTF,11.083429054320487,return,3
BMu36,68,C,REL,Trunk_Forward,1,L_MTF,5.724773164590759,bending,1
BMu36,68,C,REL,Trunk_Forward,1,L_MTF,11.181678052274318,return,1
BMu36,68,C,REL,Trunk_Forward,1,L_MTF,5.501519220627412,bending,2
BMu36,68,C,REL,Trunk_Forward,1,L_MTF,10.773902136097972,return,2
BMu36,68,C,REL,Trunk_Forward,1,L_MTF,4.377041800732155,bending,3
BMu36,68,C,REL,Trunk_Forward,1,L_MTF,9.687745650559082,return,3
BMu36,68,C,REL,Trunk_Forward,1,L_MTF,4.007406332431191,bending,4
BMu36,68,C,REL,Trunk_Forward,1,L_MTF,8.368856774683113,return,4
BMu36,68,C,REL,Trunk_Forward,1,R_MTF,6.904558212094049,bending,1
BMu36,68,C,REL,Trunk_Forward,1,R_MTF,10.471328986874957,return,1
BMu36,68,C,REL,Trunk_Forward,1,R_MTF,8.07204084187661,bending,2
BMu36,68,C,REL,Trunk_Forward,1,R_MTF,10.17709422382031,return,2
BMu36,68,C,REL,Trunk_Forward,1,R_MTF,6.544314059347687,bending,3
BMu36,68,C,REL,Trunk_Forward,1,R_MTF,10.911046633967826,return,3
BMu36,68,C,REL,Trunk_Forward,1,R_MTF,6.744364506114262,bending,4
BMu36,68,C,REL,Trunk_Forward,1,R_MTF,8.998470784589209,return,4
