BMu,subject,P_C,session,task,trials,channel,value,event,repetition
BMu36,1,C,INI,Trunk_Forward,1,L_MTF,21.299055251772742,total,1
BMu36,1,C,INI,Trunk_Forward,1,L_MTF,13.418476307350614,start,1
BMu36,1,C,INI,Trunk_Forward,1,L_MTF,24.538270089128886,end,1
BMu36,1,C,INI,Trunk_Forward,1,R_MTF,246.19309500085436,total,1
BMu36,1,C,INI,Trunk_Forward,1,R_MTF,165.93847999262366,start,1
BMu36,1,C,INI,Trunk_Forward,1,R_MTF,275.7864259966293,end,1
BMu36,1,C,REL,Trunk_Forward,1,L_MTF,28.555982031979077,total,1
BMu36,1,C,REL,Trunk_Forward,1,L_MTF,24.581701746850122,start,1
BMu36,1,C,REL,Trunk_Forward,1,L_MTF,28.713799550573167,end,1
BMu36,1,C,REL,Trunk_Forward,1,R_MTF,89.70661568813799,total,1
BMu36,1,C,REL,Trunk_Forward,1,R_MTF,107.57894345754555,start,1
BMu36,1,C,REL,Trunk_Forward,1,R_MTF,51.38897040595762,end,1
BMu36,2,C,INI,Trunk_Forward,1,L_MTF,21.0563384108196,total,1
BMu36,2,C,INI,Trunk_Forward,1,L_MTF,13.711057634213486,start,1
BMu36,2,C,INI,Trunk_Forward,1,L_MTF,25.57130226361025,end,1
BMu36,2,C,INI,Trunk_Forward,1,R_MTF,24.979816130086935,total,1
BMu36,2,C,INI,Trunk_Forward,1,R_MTF,18.758547737445966,start,1
BMu36,2,C,INI,Trunk_Forward,1,R_MTF,27.93336147703363,end,1
BMu36,2,C,REL,Trunk_Forward,1,L_MTF,20.87516802732404,total,1
BMu36,2,C,REL,Trunk_Forward,1,L_MTF,14.42153613488645,start,1
BMu36,2,C,REL,Trunk_Forward,1,L_MTF,22.9177797024193,end,1
BMu36,2,C,REL,Trunk_Forward,1,R_MTF,17.994508689231193,total,1
BMu36,2,C,REL,Trunk_Forward,1,R_MTF,13.914248933977802,start,1
BMu36,2,C,REL,Trunk_Forward,1,R_MTF,17.884019934179452,end,1
BMu36,3,C,INI,Trunk_Forward,1,L_MTF,21.65647235565454,total,1
BMu36,3,C,INI,Trunk_Forward,1,L_MTF,15.02348940230237,start,1
BMu36,3,C,INI,Trunk_Forward,1,L_MTF,26.93762634980114,end,1
BMu36,3,C,INI,Trunk_Forward,1,R_MTF,28.248139325570435,total,1
BMu36,3,C,INI,Trunk_Forward,1,R_MTF,21.673589711515124,start,1
BMu36,3,C,INI,Trunk_Forward,1,R_MTF,32.76025118195478,end,1
BMu36,3,C,REL,Trunk_Forward,1,L_MTF,34.70896452909601,total,1
BMu36,3,C,REL,Trunk_Forward,1,L_MTF,27.541612872969175,start,1
BMu36,3,C,REL,Trunk_Forward,1,L_MTF,37.04654913233501,end,1
BMu36,3,C,REL,Trunk_Forward,1,R_MTF,32.48660607580046,total,1
BMu36,3,C,REL,Trunk_Forward,1,R_MTF,24.598393894534308,start,1
BMu36,3,C,REL,Trunk_Forward,1,R_MTF,35.20211344486181,end,1
BMu36,5,C,INI,Trunk_Forward,1,L_MTF,23.270240574361324,total,1
BMu36,5,C,INI,Trunk_Forward,1,L_MTF,9.61628245001686,start,1
BMu36,5,C,INI,Trunk_Forward,1,L_MTF,28.014528592865847,end,1
BMu36,5,C,INI,Trunk_Forward,1,R_MTF,22.257718093793155,total,1
BMu36,5,C,INI,Trunk_Forward,1,R_MTF,11.368005939867619,start,1
BMu36,5,C,INI,Trunk_Forward,1,R_MTF,28.392776899447778,end,1
BMu36,5,C,REL,Trunk_Forward,1,L_MTF,22.63472900797426,total,1
BMu36,5,C,REL,Trunk_Forward,1,L_MTF,26.659052056653223,start,1
BMu36,5,C,REL,Trunk_Forward,1,L_MTF,20.872203627037287,end,1
BMu36,5,C,REL,Trunk_Forward,1,R_MTF,23.969171819589988,total,1
BMu36,5,C,REL,Trunk_Forward,1,R_MTF,26.540157435150903,start,1
BMu36,5,C,REL,Trunk_Forward,1,R_MTF,26.853664259248816,end,1
BMu36,6,C,INI,Trunk_Forward,1,L_MTF,52.3441440313577,total,1
BMu36,6,C,INI,Trunk_Forward,1,L_MTF,56.21621457418464,start,1
BMu36,6,C,INI,Trunk_Forward,1,L_MTF,48.0410392243234,end,1
BMu36,6,C,INI,Trunk_Forward,1,R_MTF,62.9840580366541,total,1
BMu36,6,C,INI,Trunk_Forward,1,R_MTF,67.46086923344929,start,1
BMu36,6,C,INI,Trunk_Forward,1,R_MTF,58.28847688993328,end,1
BMu36,6,C,REL,Trunk_Forward,1,L_MTF,43.910050780658935,total,1
BMu36,6,C,REL,Trunk_Forward,1,L_MTF,35.82594354079067,start,1
BMu36,6,C,REL,Trunk_Forward,1,L_MTF,48.3071509967865,end,1
BMu36,6,C,REL,Trunk_Forward,1,R_MTF,49.53703329455434,total,1
BMu36,6,C,REL,Trunk_Forward,1,R_MTF,44.48228756814404,start,1
BMu36,6,C,REL,Trunk_Forward,1,R_MTF,58.29282997977994,end,1
BMu36,7,C,INI,Trunk_Forward,1,L_MTF,203.08857377392488,total,1
BMu36,7,C,INI,Trunk_Forward,1,L_MTF,64.18969066797153,start,1
BMu36,7,C,INI,Trunk_Forward,1,L_MTF,411.650272984107,end,1
BMu36,7,C,INI,Trunk_Forward,1,R_MTF,63.91066772834765,total,1
BMu36,7,C,INI,Trunk_Forward,1,R_MTF,51.69879499517954,start,1
BMu36,7,C,INI,Trunk_Forward,1,R_MTF,70.26297135098419,end,1
BMu36,7,C,REL,Trunk_Forward,1,L_MTF,51.2531447912233,total,1
BMu36,7,C,REL,Trunk_Forward,1,L_MTF,39.880398314100205,start,1
BMu36,7,C,REL,Trunk_Forward,1,L_MTF,62.30634567479738,end,1
BMu36,7,C,REL,Trunk_Forward,1,R_MTF,39.15647281593654,total,1
BMu36,7,C,REL,Trunk_Forward,1,R_MTF,32.87799057904834,start,1
BMu36,7,C,REL,Trunk_Forward,1,R_MTF,47.80108621903568,end,1
BMu36,8,C,INI,Trunk_Forward,1,L_MTF,101.05001097591457,total,1
BMu36,8,C,INI,Trunk_Forward,1,L_MTF,94.52193445992621,start,1
BMu36,8,C,INI,Trunk_Forward,1,L_MTF,103.46647768494321,end,1
BMu36,8,C,INI,Trunk_Forward,1,R_MTF,20.78994246147326,total,1
BMu36,8,C,INI,Trunk_Forward,1,R_MTF,14.155860707997276,start,1
BMu36,8,C,INI,Trunk_Forward,1,R_MTF,26.347969891388825,end,1
BMu36,8,C,REL,Trunk_Forward,1,L_MTF,23.182517036212268,total,1
BMu36,8,C,REL,Trunk_Forward,1,L_MTF,16.23489547256305,start,1
BMu36,8,C,REL,Trunk_Forward,1,L_MTF,27.335593256298516,end,1
BMu36,8,C,REL,Trunk_Forward,1,R_MTF,15.006069588569872,total,1
BMu36,8,C,REL,Trunk_Forward,1,R_MTF,10.292455827961973,start,1
BMu36,8,C,REL,Trunk_Forward,1,R_MTF,16.696276776770716,end,1
BMu36,9,P,INI,Trunk_Forward,1,L_MTF,41.92158961077438,total,1
BMu36,9,P,INI,Trunk_Forward,1,L_MTF,53.7344170633943,start,1
BMu36,9,P,INI,Trunk_Forward,1,L_MTF,36.54619288941562,end,1
BMu36,9,P,INI,Trunk_Forward,1,R_MTF,49.398406210164254,total,1
BMu36,9,P,INI,Trunk_Forward,1,R_MTF,58.27012711692586,start,1
BMu36,9,P,INI,Trunk_Forward,1,R_MTF,45.12363576843866,end,1
BMu36,9,P,REL,Trunk_Forward,1,L_MTF,50.09402551138101,total,1
BMu36,9,P,REL,Trunk_Forward,1,L_MTF,45.31405079213308,start,1
BMu36,9,P,REL,Trunk_Forward,1,L_MTF,52.50450732120289,end,1
BMu36,9,P,REL,Trunk_Forward,1,R_MTF,69.78429615456966,total,1
BMu36,9,P,REL,Trunk_Forward,1,R_MTF,65.04634149025924,start,1
BMu36,9,P,REL,Trunk_Forward,1,R_MTF,72.6266152753368,end,1
BMu36,10,P,INI,Trunk_Forward,1,L_MTF,298.8599597441801,total,1
BMu36,10,P,INI,Trunk_Forward,1,L_MTF,74.55256948008373,start,1
BMu36,10,P,INI,Trunk_Forward,1,L_MTF,309.27687963846313,end,1
BMu36,10,P,INI,Trunk_Forward,1,R_MTF,69.24985128090978,total,1
BMu36,10,P,INI,Trunk_Forward,1,R_MTF,72.13802476681461,start,1
BMu36,10,P,INI,Trunk_Forward,1,R_MTF,44.28738225830508,end,1
BMu36,10,P,REL,Trunk_Forward,1,L_MTF,34.17728722909526,total,1
BMu36,10,P,REL,Trunk_Forward,1,L_MTF,35.17914825315102,start,1
BMu36,10,P,REL,Trunk_Forward,1,L_MTF,32.8474340741815,end,1
BMu36,10,P,REL,Trunk_Forward,1,R_MTF,121.85625690927688,total,1
BMu36,10,P,REL,Trunk_Forward,1,R_MTF,145.56982214887176,start,1
BMu36,10,P,REL,Trunk_Forward,1,R_MTF,201.74528221382687,end,1
BMu36,11,P,INI,Trunk_Forward,1,L_MTF,35.73085242849534,total,1
BMu36,11,P,INI,Trunk_Forward,1,L_MTF,26.20066647505146,start,1
BMu36,11,P,INI,Trunk_Forward,1,L_MTF,42.24682392189411,end,1
BMu36,11,P,INI,Trunk_Forward,1,R_MTF,51.06456320121393,total,1
BMu36,11,P,INI,Trunk_Forward,1,R_MTF,42.47657911430995,start,1
BMu36,11,P,INI,Trunk_Forward,1,R_MTF,55.30357863117113,end,1
BMu36,11,P,REL,Trunk_Forward,1,L_MTF,43.191601386867156,total,1
BMu36,11,P,REL,Trunk_Forward,1,L_MTF,38.70977163351794,start,1
BMu36,11,P,REL,Trunk_Forward,1,L_MTF,43.36118526848326,end,1
BMu36,11,P,REL,Trunk_Forward,1,R_MTF,52.42441110691942,total,1
BMu36,11,P,REL,Trunk_Forward,1,R_MTF,39.26015034121687,start,1
BMu36,11,P,REL,Trunk_Forward,1,R_MTF,42.779082992714514,end,1
BMu36,12,P,INI,Trunk_Forward,1,L_MTF,56.174413716962306,total,1
BMu36,12,P,INI,Trunk_Forward,1,L_MTF,58.519827596729,start,1
BMu36,12,P,INI,Trunk_Forward,1,L_MTF,55.70142120693616,end,1
BMu36,12,P,INI,Trunk_Forward,1,R_MTF,52.22881801470499,total,1
BMu36,12,P,INI,Trunk_Forward,1,R_MTF,44.253428215923364,start,1
BMu36,12,P,INI,Trunk_Forward,1,R_MTF,53.41813016770879,end,1
BMu36,12,P,REL,Trunk_Forward,1,L_MTF,51.71431880212212,total,1
BMu36,12,P,REL,Trunk_Forward,1,L_MTF,46.575614626099444,start,1
BMu36,12,P,REL,Trunk_Forward,1,L_MTF,55.11257321446188,end,1
BMu36,12,P,REL,Trunk_Forward,1,R_MTF,59.73119675756178,total,1
BMu36,12,P,REL,Trunk_Forward,1,R_MTF,192.955170307223,start,1
BMu36,12,P,REL,Trunk_Forward,1,R_MTF,2.8108736402805414,end,1
BMu36,13,C,INI,Trunk_Forward,1,L_MTF,37.67379326718074,total,1
BMu36,13,C,INI,Trunk_Forward,1,L_MTF,38.03830964027895,start,1
BMu36,13,C,INI,Trunk_Forward,1,L_MTF,37.61292907662232,end,1
BMu36,13,C,INI,Trunk_Forward,1,R_MTF,31.883494060193637,total,1
BMu36,13,C,INI,Trunk_Forward,1,R_MTF,25.592126368767286,start,1
BMu36,13,C,INI,Trunk_Forward,1,R_MTF,33.77685137093897,end,1
BMu36,13,C,REL,Trunk_Forward,1,L_MTF,42.20111323169011,total,1
BMu36,13,C,REL,Trunk_Forward,1,L_MTF,36.274788811584216,start,1
BMu36,13,C,REL,Trunk_Forward,1,L_MTF,38.79265951367886,end,1
BMu36,13,C,REL,Trunk_Forward,1,R_MTF,35.669824023413724,total,1
BMu36,13,C,REL,Trunk_Forward,1,R_MTF,25.04241813890892,start,1
BMu36,13,C,REL,Trunk_Forward,1,R_MTF,34.684804474777096,end,1
BMu36,14,P,INI,Trunk_Forward,1,L_MTF,37.21199198506034,total,1
BMu36,14,P,INI,Trunk_Forward,1,L_MTF,38.26970341907313,start,1
BMu36,14,P,INI,Trunk_Forward,1,L_MTF,34.935378748647885,end,1
BMu36,14,P,INI,Trunk_Forward,1,R_MTF,37.91689998509618,total,1
BMu36,14,P,INI,Trunk_Forward,1,R_MTF,31.09697076791352,start,1
BMu36,14,P,INI,Trunk_Forward,1,R_MTF,41.19535085982033,end,1
BMu36,14,P,REL,Trunk_Forward,1,L_MTF,53.32280057707124,total,1
BMu36,14,P,REL,Trunk_Forward,1,L_MTF,60.92383186097238,start,1
BMu36,14,P,REL,Trunk_Forward,1,L_MTF,43.39244486900572,end,1
BMu36,14,P,REL,Trunk_Forward,1,R_MTF,50.3119557905445,total,1
BMu36,14,P,REL,Trunk_Forward,1,R_MTF,50.811384033457955,start,1
BMu36,14,P,REL,Trunk_Forward,1,R_MTF,47.32919822307412,end,1
BMu36,16,C,INI,Trunk_Forward,1,L_MTF,30.363855567740995,total,1
BMu36,16,C,INI,Trunk_Forward,1,L_MTF,21.622534200174005,start,1
BMu36,16,C,INI,Trunk_Forward,1,L_MTF,33.453105962281924,end,1
BMu36,16,C,INI,Trunk_Forward,1,R_MTF,81.5462625560417,total,1
BMu36,16,C,INI,Trunk_Forward,1,R_MTF,76.43511989509676,start,1
BMu36,16,C,INI,Trunk_Forward,1,R_MTF,76.66598751687684,end,1
BMu36,16,C,REL,Trunk_Forward,1,L_MTF,33.96217627515468,total,1
BMu36,16,C,REL,Trunk_Forward,1,L_MTF,24.683190803579805,start,1
BMu36,16,C,REL,Trunk_Forward,1,L_MTF,33.267870309225785,end,1
BMu36,16,C,REL,Trunk_Forward,1,R_MTF,30.77774251617679,total,1
BMu36,16,C,REL,Trunk_Forward,1,R_MTF,19.58228119920235,start,1
BMu36,16,C,REL,Trunk_Forward,1,R_MTF,34.035480375549106,end,1
BMu36,17,P,INI,Trunk_Forward,1,L_MTF,29.937446758400732,total,1
BMu36,17,P,INI,Trunk_Forward,1,L_MTF,24.88430255419527,start,1
BMu36,17,P,INI,Trunk_Forward,1,L_MTF,29.193319337984963,end,1
BMu36,17,P,INI,Trunk_Forward,1,R_MTF,22.88509597479178,total,1
BMu36,17,P,INI,Trunk_Forward,1,R_MTF,18.380432686820196,start,1
BMu36,17,P,INI,Trunk_Forward,1,R_MTF,24.20975913793323,end,1
BMu36,17,P,REL,Trunk_Forward,1,L_MTF,30.2226506153275,total,1
BMu36,17,P,REL,Trunk_Forward,1,L_MTF,20.770199053097492,start,1
BMu36,17,P,REL,Trunk_Forward,1,L_MTF,27.597569617815104,end,1
BMu36,17,P,REL,Trunk_Forward,1,R_MTF,23.138485867687617,total,1
BMu36,17,P,REL,Trunk_Forward,1,R_MTF,20.474136279492544,start,1
BMu36,17,P,REL,Trunk_Forward,1,R_MTF,22.96238018214428,end,1
BMu36,21,C,INI,Trunk_Forward,1,L_MTF,29.32258358649663,total,1
BMu36,21,C,INI,Trunk_Forward,1,L_MTF,17.398389495272838,start,1
BMu36,21,C,INI,Trunk_Forward,1,L_MTF,36.45677806611139,end,1
BMu36,21,C,INI,Trunk_Forward,1,R_MTF,42.96626744434776,total,1
BMu36,21,C,INI,Trunk_Forward,1,R_MTF,34.74977724670055,start,1
BMu36,21,C,INI,Trunk_Forward,1,R_MTF,54.753373644432465,end,1
BMu36,21,C,REL,Trunk_Forward,1,L_MTF,42.86488752120694,total,1
BMu36,21,C,REL,Trunk_Forward,1,L_MTF,38.11672680594334,start,1
BMu36,21,C,REL,Trunk_Forward,1,L_MTF,36.01750997717952,end,1
BMu36,21,C,REL,Trunk_Forward,1,R_MTF,44.301755345260496,total,1
BMu36,21,C,REL,Trunk_Forward,1,R_MTF,44.20843320510504,start,1
BMu36,21,C,REL,Trunk_Forward,1,R_MTF,41.29868631265413,end,1
BMu36,22,C,INI,Trunk_Forward,1,L_MTF,19.805170011836903,total,1
BMu36,22,C,INI,Trunk_Forward,1,L_MTF,18.17166839698309,start,1
BMu36,22,C,INI,Trunk_Forward,1,L_MTF,21.24155143543576,end,1
BMu36,22,C,INI,Trunk_Forward,1,R_MTF,222.19248007691166,total,1
BMu36,22,C,INI,Trunk_Forward,1,R_MTF,335.490636913165,start,1
BMu36,22,C,INI,Trunk_Forward,1,R_MTF,224.17313618574084,end,1
BMu36,22,C,REL,Trunk_Forward,1,L_MTF,29.912756403936996,total,1
BMu36,22,C,REL,Trunk_Forward,1,L_MTF,24.869973162802616,start,1
BMu36,22,C,REL,Trunk_Forward,1,L_MTF,42.0942824483925,end,1
BMu36,22,C,REL,Trunk_Forward,1,R_MTF,39.787731524264515,total,1
BMu36,22,C,REL,Trunk_Forward,1,R_MTF,30.810410532027003,start,1
BMu36,22,C,REL,Trunk_Forward,1,R_MTF,58.56932712467588,end,1
BMu36,23,C,INI,Trunk_Forward,1,L_MTF,26.218012825740924,total,1
BMu36,23,C,INI,Trunk_Forward,1,L_MTF,28.860558450020275,start,1
BMu36,23,C,INI,Trunk_Forward,1,L_MTF,27.574743098931986,end,1
BMu36,23,C,INI,Trunk_Forward,1,R_MTF,34.901637275229284,total,1
BMu36,23,C,INI,Trunk_Forward,1,R_MTF,29.421607884711165,start,1
BMu36,23,C,INI,Trunk_Forward,1,R_MTF,37.82502679513512,end,1
BMu36,23,C,REL,Trunk_Forward,1,L_MTF,23.43012907007136,total,1
BMu36,23,C,REL,Trunk_Forward,1,L_MTF,19.041315426727024,start,1
BMu36,23,C,REL,Trunk_Forward,1,L_MTF,24.22978645552529,end,1
BMu36,23,C,REL,Trunk_Forward,1,R_MTF,24.229229520976503,total,1
BMu36,23,C,REL,Trunk_Forward,1,R_MTF,19.264012071362075,start,1
BMu36,23,C,REL,Trunk_Forward,1,R_MTF,26.83239262076282,end,1
BMu36,24,P,INI,Trunk_Forward,1,L_MTF,43.81414502050635,total,1
BMu36,24,P,INI,Trunk_Forward,1,L_MTF,40.13562073968264,start,1
BMu36,24,P,INI,Trunk_Forward,1,L_MTF,44.084353051537775,end,1
BMu36,24,P,INI,Trunk_Forward,1,R_MTF,48.66175483706074,total,1
BMu36,24,P,INI,Trunk_Forward,1,R_MTF,46.320855251870526,start,1
BMu36,24,P,INI,Trunk_Forward,1,R_MTF,44.72996187854856,end,1
BMu36,24,P,REL,Trunk_Forward,1,L_MTF,33.90709764994224,total,1
BMu36,24,P,REL,Trunk_Forward,1,L_MTF,33.724228713817055,start,1
BMu36,24,P,REL,Trunk_Forward,1,L_MTF,27.271230260452363,end,1
BMu36,24,P,REL,Trunk_Forward,1,R_MTF,33.095617521414084,total,1
BMu36,24,P,REL,Trunk_Forward,1,R_MTF,31.639054445753217,start,1
BMu36,24,P,REL,Trunk_Forward,1,R_MTF,27.994079202419137,end,1
BMu36,25,C,INI,Trunk_Forward,1,L_MTF,88.029526802546,total,1
BMu36,25,C,INI,Trunk_Forward,1,L_MTF,60.35055736144484,start,1
BMu36,25,C,INI,Trunk_Forward,1,L_MTF,110.2746023033427,end,1
BMu36,25,C,INI,Trunk_Forward,1,R_MTF,23.909832282746407,total,1
BMu36,25,C,INI,Trunk_Forward,1,R_MTF,17.02616360559908,start,1
BMu36,25,C,INI,Trunk_Forward,1,R_MTF,30.186114007895952,end,1
BMu36,25,C,REL,Trunk_Forward,1,L_MTF,31.539410677640237,total,1
BMu36,25,C,REL,Trunk_Forward,1,L_MTF,26.036753548407415,start,1
BMu36,25,C,REL,Trunk_Forward,1,L_MTF,34.311082750595574,end,1
BMu36,25,C,REL,Trunk_Forward,1,R_MTF,27.42507437026534,total,1
BMu36,25,C,REL,Trunk_Forward,1,R_MTF,20.947859765711527,start,1
BMu36,25,C,REL,Trunk_Forward,1,R_MTF,31.420286436634093,end,1
BMu36,26,P,INI,Trunk_Forward,1,L_MTF,25.58326560886901,total,1
BMu36,26,P,INI,Trunk_Forward,1,L_MTF,23.655787889920898,start,1
BMu36,26,P,INI,Trunk_Forward,1,L_MTF,28.230054025291096,end,1
BMu36,26,P,INI,Trunk_Forward,1,R_MTF,148.58996418666473,total,1
BMu36,26,P,INI,Trunk_Forward,1,R_MTF,32.03384403316593,start,1
BMu36,26,P,INI,Trunk_Forward,1,R_MTF,137.23066595942603,end,1
BMu36,26,P,REL,Trunk_Forward,1,L_MTF,34.25575291917215,total,1
BMu36,26,P,REL,Trunk_Forward,1,L_MTF,25.71993993148299,start,1
BMu36,26,P,REL,Trunk_Forward,1,L_MTF,29.058883838309857,end,1
BMu36,26,P,REL,Trunk_Forward,1,R_MTF,195.33958899809826,total,1
BMu36,26,P,REL,Trunk_Forward,1,R_MTF,38.8642734246937,start,1
BMu36,26,P,REL,Trunk_Forward,1,R_MTF,295.84331265575804,end,1
BMu36,27,P,INI,Trunk_Forward,1,L_MTF,34.73134592815,total,1
BMu36,27,P,INI,Trunk_Forward,1,L_MTF,34.046676468824,start,1
BMu36,27,P,INI,Trunk_Forward,1,L_MTF,29.21144168763937,end,1
BMu36,27,P,INI,Trunk_Forward,1,R_MTF,45.088616878976836,total,1
BMu36,27,P,INI,Trunk_Forward,1,R_MTF,42.635518252539015,start,1
BMu36,27,P,INI,Trunk_Forward,1,R_MTF,39.964424076365965,end,1
BMu36,27,P,REL,Trunk_Forward,1,L_MTF,39.05435939175407,total,1
BMu36,27,P,REL,Trunk_Forward,1,L_MTF,44.27016395728536,start,1
BMu36,27,P,REL,Trunk_Forward,1,L_MTF,37.86534388316799,end,1
BMu36,27,P,REL,Trunk_Forward,1,R_MTF,51.32641803013524,total,1
BMu36,27,P,REL,Trunk_Forward,1,R_MTF,58.87146273368091,start,1
BMu36,27,P,REL,Trunk_Forward,1,R_MTF,52.572933357029285,end,1
BMu36,28,P,INI,Trunk_Forward,1,L_MTF,48.72309464146095,total,1
BMu36,28,P,INI,Trunk_Forward,1,L_MTF,41.46264672039283,start,1
BMu36,28,P,INI,Trunk_Forward,1,L_MTF,48.06611682187247,end,1
BMu36,28,P,INI,Trunk_Forward,1,R_MTF,45.574373012569836,total,1
BMu36,28,P,INI,Trunk_Forward,1,R_MTF,35.50391305205161,start,1
BMu36,28,P,INI,Trunk_Forward,1,R_MTF,46.77640155576994,end,1
BMu36,28,P,REL,Trunk_Forward,1,L_MTF,41.41076348151038,total,1
BMu36,28,P,REL,Trunk_Forward,1,L_MTF,35.56633343897709,start,1
BMu36,28,P,REL,Trunk_Forward,1,L_MTF,38.71794963701661,end,1
BMu36,28,P,REL,Trunk_Forward,1,R_MTF,38.91685020677953,total,1
BMu36,28,P,REL,Trunk_Forward,1,R_MTF,31.925533282067537,start,1
BMu36,28,P,REL,Trunk_Forward,1,R_MTF,37.070525487101825,end,1
BMu36,29,P,INI,Trunk_Forward,1,L_MTF,23.614858767731704,total,1
BMu36,29,P,INI,Trunk_Forward,1,L_MTF,25.47633364226798,start,1
BMu36,29,P,INI,Trunk_Forward,1,L_MTF,19.81550771028468,end,1
BMu36,29,P,INI,Trunk_Forward,1,R_MTF,27.490412314135007,total,1
BMu36,29,P,INI,Trunk_Forward,1,R_MTF,30.975268242110605,start,1
BMu36,29,P,INI,Trunk_Forward,1,R_MTF,23.174801304117533,end,1
BMu36,29,P,REL,Trunk_Forward,1,L_MTF,16.285633275936785,total,1
BMu36,29,P,REL,Trunk_Forward,1,L_MTF,13.813184097809577,start,1
BMu36,29,P,REL,Trunk_Forward,1,L_MTF,13.589252769900865,end,1
BMu36,29,P,REL,Trunk_Forward,1,R_MTF,21.718604336448223,total,1
BMu36,29,P,REL,Trunk_Forward,1,R_MTF,20.714438988724407,start,1
BMu36,29,P,REL,Trunk_Forward,1,R_MTF,16.90132216469715,end,1
BMu36,30,P,INI,Trunk_Forward,1,L_MTF,25.29884949917525,total,1
BMu36,30,P,INI,Trunk_Forward,1,L_MTF,22.524993257304963,start,1
BMu36,30,P,INI,Trunk_Forward,1,L_MTF,27.06592912286992,end,1
BMu36,30,P,INI,Trunk_Forward,1,R_MTF,18.513377375901143,total,1
BMu36,30,P,INI,Trunk_Forward,1,R_MTF,11.95125435400488,start,1
BMu36,30,P,INI,Trunk_Forward,1,R_MTF,20.82675959748911,end,1
BMu36,30,P,REL,Trunk_Forward,1,L_MTF,48.17600251661435,total,1
BMu36,30,P,REL,Trunk_Forward,1,L_MTF,46.45636810834125,start,1
BMu36,30,P,REL,Trunk_Forward,1,L_MTF,46.62588968996593,end,1
BMu36,30,P,REL,Trunk_Forward,1,R_MTF,51.58327676884208,total,1
BMu36,30,P,REL,Trunk_Forward,1,R_MTF,47.0071901342461,start,1
BMu36,30,P,REL,Trunk_Forward,1,R_MTF,53.72371293998182,end,1
BMu36,32,P,INI,Trunk_Forward,1,L_MTF,98.42924238496232,total,1
BMu36,32,P,INI,Trunk_Forward,1,L_MTF,72.50944974099957,start,1
BMu36,32,P,INI,Trunk_Forward,1,L_MTF,95.3781611815405,end,1
BMu36,32,P,INI,Trunk_Forward,1,R_MTF,105.21284310875589,total,1
BMu36,32,P,INI,Trunk_Forward,1,R_MTF,82.56484749818961,start,1
BMu36,32,P,INI,Trunk_Forward,1,R_MTF,103.50712147831162,end,1
BMu36,32,P,REL,Trunk_Forward,1,L_MTF,50.37242360601456,total,1
BMu36,32,P,REL,Trunk_Forward,1,L_MTF,42.128907755867225,start,1
BMu36,32,P,REL,Trunk_Forward,1,L_MTF,41.49965766173297,end,1
BMu36,32,P,REL,Trunk_Forward,1,R_MTF,51.79916044324529,total,1
BMu36,32,P,REL,Trunk_Forward,1,R_MTF,47.56857831040453,start,1
BMu36,32,P,REL,Trunk_Forward,1,R_MTF,51.730413545839106,end,1
BMu36,33,P,INI,Trunk_Forward,1,L_MTF,65.3891671521513,total,1
BMu36,33,P,INI,Trunk_Forward,1,L_MTF,68.01212945945005,start,1
BMu36,33,P,INI,Trunk_Forward,1,L_MTF,68.70469092159692,end,1
BMu36,33,P,INI,Trunk_Forward,1,R_MTF,59.672804438997375,total,1
BMu36,33,P,INI,Trunk_Forward,1,R_MTF,63.0803154544604,start,1
BMu36,33,P,INI,Trunk_Forward,1,R_MTF,62.45820119950758,end,1
BMu36,33,P,REL,Trunk_Forward,1,L_MTF,63.65831096805437,total,1
BMu36,33,P,REL,Trunk_Forward,1,L_MTF,56.24131790712675,start,1
BMu36,33,P,REL,Trunk_Forward,1,L_MTF,67.6163858297494,end,1
BMu36,33,P,REL,Trunk_Forward,1,R_MTF,54.840360206210036,total,1
BMu36,33,P,REL,Trunk_Forward,1,R_MTF,54.22609972540395,start,1
BMu36,33,P,REL,Trunk_Forward,1,R_MTF,53.65218193136258,end,1
BMu36,34,P,INI,Trunk_Forward,1,L_MTF,20.475401491483883,total,1
BMu36,34,P,INI,Trunk_Forward,1,L_MTF,15.194747984363003,start,1
BMu36,34,P,INI,Trunk_Forward,1,L_MTF,19.40407943433277,end,1
BMu36,34,P,INI,Trunk_Forward,1,R_MTF,158.54950519451907,total,1
BMu36,34,P,INI,Trunk_Forward,1,R_MTF,109.44866402111555,start,1
BMu36,34,P,INI,Trunk_Forward,1,R_MTF,199.74752035884956,end,1
BMu36,34,P,REL,Trunk_Forward,1,L_MTF,19.316142884096383,total,1
BMu36,34,P,REL,Trunk_Forward,1,L_MTF,12.500289272076332,start,1
BMu36,34,P,REL,Trunk_Forward,1,L_MTF,20.901729798408056,end,1
BMu36,34,P,REL,Trunk_Forward,1,R_MTF,26.6732256612338,total,1
BMu36,34,P,REL,Trunk_Forward,1,R_MTF,23.030797191726073,start,1
BMu36,34,P,REL,Trunk_Forward,1,R_MTF,26.343938030540965,end,1
BMu36,35,C,INI,Trunk_Forward,1,L_MTF,36.66743789669021,total,1
BMu36,35,C,INI,Trunk_Forward,1,L_MTF,26.398347094779115,start,1
BMu36,35,C,INI,Trunk_Forward,1,L_MTF,40.481800947358565,end,1
BMu36,35,C,INI,Trunk_Forward,1,R_MTF,35.96559321984566,total,1
BMu36,35,C,INI,Trunk_Forward,1,R_MTF,29.04113334292572,start,1
BMu36,35,C,INI,Trunk_Forward,1,R_MTF,36.54841513703569,end,1
BMu36,35,C,REL,Trunk_Forward,1,L_MTF,15.959445614633452,total,1
BMu36,35,C,REL,Trunk_Forward,1,L_MTF,10.33617871058097,start,1
BMu36,35,C,REL,Trunk_Forward,1,L_MTF,21.177500520418246,end,1
BMu36,35,C,REL,Trunk_Forward,1,R_MTF,16.21417026852784,total,1
BMu36,35,C,REL,Trunk_Forward,1,R_MTF,10.925823221295119,start,1
BMu36,35,C,REL,Trunk_Forward,1,R_MTF,20.525927872313538,end,1
BMu36,36,P,INI,Trunk_Forward,1,L_MTF,40.252029757999836,total,1
BMu36,36,P,INI,Trunk_Forward,1,L_MTF,37.65506952932566,start,1
BMu36,36,P,INI,Trunk_Forward,1,L_MTF,38.49402218074963,end,1
BMu36,36,P,INI,Trunk_Forward,1,R_MTF,52.12052280985062,total,1
BMu36,36,P,INI,Trunk_Forward,1,R_MTF,44.110840554209055,start,1
BMu36,36,P,INI,Trunk_Forward,1,R_MTF,49.4125171557722,end,1
BMu36,36,P,REL,Trunk_Forward,1,L_MTF,31.292194426303407,total,1
BMu36,36,P,REL,Trunk_Forward,1,L_MTF,25.477671346740696,start,1
BMu36,36,P,REL,Trunk_Forward,1,L_MTF,30.593537713883503,end,1
BMu36,36,P,REL,Trunk_Forward,1,R_MTF,42.21384261342422,total,1
BMu36,36,P,REL,Trunk_Forward,1,R_MTF,32.38293814909877,start,1
BMu36,36,P,REL,Trunk_Forward,1,R_MTF,42.91237325815048,end,1
BMu36,38,C,INI,Trunk_Forward,1,L_MTF,111.64738981165343,total,1
BMu36,38,C,INI,Trunk_Forward,1,L_MTF,144.80405748000675,start,1
BMu36,38,C,INI,Trunk_Forward,1,L_MTF,80.91142886563202,end,1
BMu36,38,C,INI,Trunk_Forward,1,R_MTF,18.929991535338914,total,1
BMu36,38,C,INI,Trunk_Forward,1,R_MTF,10.214659589786933,start,1
BMu36,38,C,INI,Trunk_Forward,1,R_MTF,24.970573910113426,end,1
BMu36,38,C,REL,Trunk_Forward,1,L_MTF,19.185194904710556,total,1
BMu36,38,C,REL,Trunk_Forward,1,L_MTF,11.371429040092627,start,1
BMu36,38,C,REL,Trunk_Forward,1,L_MTF,18.80248444743111,end,1
BMu36,38,C,REL,Trunk_Forward,1,R_MTF,24.815671390797327,total,1
BMu36,38,C,REL,Trunk_Forward,1,R_MTF,14.306725649288177,start,1
BMu36,38,C,REL,Trunk_Forward,1,R_MTF,23.11140600011842,end,1
BMu36,39,C,INI,Trunk_Forward,1,L_MTF,24.922646192541045,total,1
BMu36,39,C,INI,Trunk_Forward,1,L_MTF,21.464924835845792,start,1
BMu36,39,C,INI,Trunk_Forward,1,L_MTF,22.56224045898048,end,1
BMu36,39,C,INI,Trunk_Forward,1,R_MTF,22.26620253028753,total,1
BMu36,39,C,INI,Trunk_Forward,1,R_MTF,17.037675143849118,start,1
BMu36,39,C,INI,Trunk_Forward,1,R_MTF,25.327775176186233,end,1
BMu36,39,C,REL,Trunk_Forward,1,L_MTF,33.54112318603066,total,1
BMu36,39,C,REL,Trunk_Forward,1,L_MTF,31.66496642575566,start,1
BMu36,39,C,REL,Trunk_Forward,1,L_MTF,30.91803985469334,end,1
BMu36,39,C,REL,Trunk_Forward,1,R_MTF,36.28020952681076,total,1
BMu36,39,C,REL,Trunk_Forward,1,R_MTF,32.36616798380906,start,1
BMu36,39,C,REL,Trunk_Forward,1,R_MTF,34.72011343633525,end,1
BMu36,40,C,INI,Trunk_Forward,1,L_MTF,17.748729932842505,total,1
BMu36,40,C,INI,Trunk_Forward,1,L_MTF,12.420198191443095,start,1
BMu36,40,C,INI,Trunk_Forward,1,L_MTF,22.44535854340328,end,1
BMu36,40,C,INI,Trunk_Forward,1,R_MTF,17.40408461714423,total,1
BMu36,40,C,INI,Trunk_Forward,1,R_MTF,13.653138603653515,start,1
BMu36,40,C,INI,Trunk_Forward,1,R_MTF,22.3692563751855,end,1
BMu36,40,C,REL,Trunk_Forward,1,L_MTF,22.583948812842703,total,1
BMu36,40,C,REL,Trunk_Forward,1,L_MTF,16.986429753990564,start,1
BMu36,40,C,REL,Trunk_Forward,1,L_MTF,26.166523552026984,end,1
BMu36,40,C,REL,Trunk_Forward,1,R_MTF,25.95726941221606,total,1
BMu36,40,C,REL,Trunk_Forward,1,R_MTF,16.8933935032456,start,1
BMu36,40,C,REL,Trunk_Forward,1,R_MTF,32.31424027158478,end,1
BMu36,41,P,INI,Trunk_Forward,1,L_MTF,22.45101505156983,total,1
BMu36,41,P,INI,Trunk_Forward,1,L_MTF,20.444140040546845,start,1
BMu36,41,P,INI,Trunk_Forward,1,L_MTF,24.75772111840023,end,1
BMu36,41,P,INI,Trunk_Forward,1,R_MTF,22.9937567939919,total,1
BMu36,41,P,INI,Trunk_Forward,1,R_MTF,14.04703989133111,start,1
BMu36,41,P,INI,Trunk_Forward,1,R_MTF,27.936596623919606,end,1
BMu36,41,P,REL,Trunk_Forward,1,L_MTF,25.662764844152388,total,1
BMu36,41,P,REL,Trunk_Forward,1,L_MTF,22.537171327093226,start,1
BMu36,41,P,REL,Trunk_Forward,1,L_MTF,25.261000862259113,end,1
BMu36,41,P,REL,Trunk_Forward,1,R_MTF,28.183997097599892,total,1
BMu36,41,P,REL,Trunk_Forward,1,R_MTF,21.797344930227155,start,1
BMu36,41,P,REL,Trunk_Forward,1,R_MTF,29.57276052736325,end,1
BMu36,42,P,INI,Trunk_Forward,1,L_MTF,37.414127843120994,total,1
BMu36,42,P,INI,Trunk_Forward,1,L_MTF,39.75713848706648,start,1
BMu36,42,P,INI,Trunk_Forward,1,L_MTF,35.40271329894586,end,1
BMu36,42,P,INI,Trunk_Forward,1,R_MTF,28.662880693723682,total,1
BMu36,42,P,INI,Trunk_Forward,1,R_MTF,30.49098602686356,start,1
BMu36,42,P,INI,Trunk_Forward,1,R_MTF,22.771543045822085,end,1
BMu36,42,P,REL,Trunk_Forward,1,L_MTF,40.95899910078374,total,1
BMu36,42,P,REL,Trunk_Forward,1,L_MTF,42.5884125245128,start,1
BMu36,42,P,REL,Trunk_Forward,1,L_MTF,35.60696350979899,end,1
BMu36,42,P,REL,Trunk_Forward,1,R_MTF,33.12777209326022,total,1
BMu36,42,P,REL,Trunk_Forward,1,R_MTF,36.72611108396899,start,1
BMu36,42,P,REL,Trunk_Forward,1,R_MTF,27.58988113653416,end,1
BMu36,43,P,INI,Trunk_Forward,1,L_MTF,20.493435726469386,total,1
BMu36,43,P,INI,Trunk_Forward,1,L_MTF,34.306478220242624,start,1
BMu36,43,P,INI,Trunk_Forward,1,L_MTF,14.355750291371447,end,1
BMu36,43,P,INI,Trunk_Forward,1,R_MTF,23.228126513718752,total,1
BMu36,43,P,INI,Trunk_Forward,1,R_MTF,30.605146648798552,start,1
BMu36,43,P,INI,Trunk_Forward,1,R_MTF,16.485472469310768,end,1
BMu36,43,P,REL,Trunk_Forward,1,L_MTF,23.6530183216132,total,1
BMu36,43,P,REL,Trunk_Forward,1,L_MTF,30.74269847117672,start,1
BMu36,43,P,REL,Trunk_Forward,1,L_MTF,21.54257560922515,end,1
BMu36,43,P,REL,Trunk_Forward,1,R_MTF,27.318948583629584,total,1
BMu36,43,P,REL,Trunk_Forward,1,R_MTF,26.769697586466712,start,1
BMu36,43,P,REL,Trunk_Forward,1,R_MTF,26.777315341572713,end,1
BMu36,44,C,INI,Trunk_Forward,1,L_MTF,1395.5681328506262,total,1
BMu36,44,C,INI,Trunk_Forward,1,L_MTF,1639.8769893649321,start,1
BMu36,44,C,INI,Trunk_Forward,1,L_MTF,1272.9145363767777,end,1
BMu36,44,C,INI,Trunk_Forward,1,R_MTF,117.71291466781834,total,1
BMu36,44,C,INI,Trunk_Forward,1,R_MTF,127.92428888156618,start,1
BMu36,44,C,INI,Trunk_Forward,1,R_MTF,120.71473357442311,end,1
BMu36,44,C,REL,Trunk_Forward,1,L_MTF,17.282240529272073,total,1
BMu36,44,C,REL,Trunk_Forward,1,L_MTF,13.181388786245504,start,1
BMu36,44,C,REL,Trunk_Forward,1,L_MTF,21.663238209073086,end,1
BMu36,44,C,REL,Trunk_Forward,1,R_MTF,18.371730739809824,total,1
BMu36,44,C,REL,Trunk_Forward,1,R_MTF,13.042512939801998,start,1
BMu36,44,C,REL,Trunk_Forward,1,R_MTF,20.50153147075908,end,1
BMu36,45,P,INI,Trunk_Forward,1,L_MTF,42.889470579548046,total,1
BMu36,45,P,INI,Trunk_Forward,1,L_MTF,36.31883250760773,start,1
BMu36,45,P,INI,Trunk_Forward,1,L_MTF,50.15760760690027,end,1
BMu36,45,P,INI,Trunk_Forward,1,R_MTF,71.65343577727123,total,1
BMu36,45,P,INI,Trunk_Forward,1,R_MTF,58.15659189077031,start,1
BMu36,45,P,INI,Trunk_Forward,1,R_MTF,88.17403260674631,end,1
BMu36,45,P,REL,Trunk_Forward,1,L_MTF,46.36183514351169,total,1
BMu36,45,P,REL,Trunk_Forward,1,L_MTF,54.4163915132168,start,1
BMu36,45,P,REL,Trunk_Forward,1,L_MTF,53.72838212030543,end,1
BMu36,45,P,REL,Trunk_Forward,1,R_MTF,72.98356602461119,total,1
BMu36,45,P,REL,Trunk_Forward,1,R_MTF,108.21576013263567,start,1
BMu36,45,P,REL,Trunk_Forward,1,R_MTF,65.89462007492901,end,1
BMu36,46,C,INI,Trunk_Forward,1,L_MTF,447.50894092231175,total,1
BMu36,46,C,INI,Trunk_Forward,1,L_MTF,234.22679318822466,start,1
BMu36,46,C,INI,Trunk_Forward,1,L_MTF,548.0575663206886,end,1
BMu36,46,C,INI,Trunk_Forward,1,R_MTF,25.81019641831376,total,1
BMu36,46,C,INI,Trunk_Forward,1,R_MTF,18.312516063678917,start,1
BMu36,46,C,INI,Trunk_Forward,1,R_MTF,28.95301603562185,end,1
BMu36,46,C,REL,Trunk_Forward,1,L_MTF,19.470775713727726,total,1
BMu36,46,C,REL,Trunk_Forward,1,L_MTF,16.579043645638674,start,1
BMu36,46,C,REL,Trunk_Forward,1,L_MTF,21.369472128699506,end,1
BMu36,46,C,REL,Trunk_Forward,1,R_MTF,20.241690225310812,total,1
BMu36,46,C,REL,Trunk_Forward,1,R_MTF,14.702786792792528,start,1
BMu36,46,C,REL,Trunk_Forward,1,R_MTF,22.192216485142406,end,1
BMu36,47,P,INI,Trunk_Forward,1,L_MTF,30.8094752494836,total,1
BMu36,47,P,INI,Trunk_Forward,1,L_MTF,37.926885076197834,start,1
BMu36,47,P,INI,Trunk_Forward,1,L_MTF,23.563471138427357,end,1
BMu36,47,P,INI,Trunk_Forward,1,R_MTF,39.18557052939743,total,1
BMu36,47,P,INI,Trunk_Forward,1,R_MTF,46.58848656132989,start,1
BMu36,47,P,INI,Trunk_Forward,1,R_MTF,30.389155184163748,end,1
BMu36,47,P,REL,Trunk_Forward,1,L_MTF,27.700206193202643,total,1
BMu36,47,P,REL,Trunk_Forward,1,L_MTF,26.54663017713531,start,1
BMu36,47,P,REL,Trunk_Forward,1,L_MTF,27.26612404679843,end,1
BMu36,47,P,REL,Trunk_Forward,1,R_MTF,30.886762846853827,total,1
BMu36,47,P,REL,Trunk_Forward,1,R_MTF,27.75022636735989,start,1
BMu36,47,P,REL,Trunk_Forward,1,R_MTF,31.465394192025514,end,1
BMu36,48,C,INI,Trunk_Forward,1,L_MTF,23.55763515627174,total,1
BMu36,48,C,INI,Trunk_Forward,1,L_MTF,16.23941194489442,start,1
BMu36,48,C,INI,Trunk_Forward,1,L_MTF,29.15370604680323,end,1
BMu36,48,C,INI,Trunk_Forward,1,R_MTF,37.30907762825863,total,1
BMu36,48,C,INI,Trunk_Forward,1,R_MTF,27.176844220915207,start,1
BMu36,48,C,INI,Trunk_Forward,1,R_MTF,40.875169107993855,end,1
BMu36,48,C,REL,Trunk_Forward,1,L_MTF,24.065949794937136,total,1
BMu36,48,C,REL,Trunk_Forward,1,L_MTF,18.02890433322849,start,1
BMu36,48,C,REL,Trunk_Forward,1,L_MTF,23.341290362781745,end,1
BMu36,48,C,REL,Trunk_Forward,1,R_MTF,38.91333174576598,total,1
BMu36,48,C,REL,Trunk_Forward,1,R_MTF,28.66191622031483,start,1
BMu36,48,C,REL,Trunk_Forward,1,R_MTF,40.374554275492166,end,1
BMu36,49,C,INI,Trunk_Forward,1,L_MTF,18.451242344754117,total,1
BMu36,49,C,INI,Trunk_Forward,1,L_MTF,18.300176734642065,start,1
BMu36,49,C,INI,Trunk_Forward,1,L_MTF,18.170371119118325,end,1
BMu36,49,C,INI,Trunk_Forward,1,R_MTF,32.141089329554404,total,1
BMu36,49,C,INI,Trunk_Forward,1,R_MTF,31.154817575358763,start,1
BMu36,49,C,INI,Trunk_Forward,1,R_MTF,32.48021864580177,end,1
BMu36,49,C,REL,Trunk_Forward,1,L_MTF,17.928670041353726,total,1
BMu36,49,C,REL,Trunk_Forward,1,L_MTF,16.148594361016475,start,1
BMu36,49,C,REL,Trunk_Forward,1,L_MTF,15.987776352279194,end,1
BMu36,49,C,REL,Trunk_Forward,1,R_MTF,26.998832768626546,total,1
BMu36,49,C,REL,Trunk_Forward,1,R_MTF,23.180050620350166,start,1
BMu36,49,C,REL,Trunk_Forward,1,R_MTF,30.035691827192142,end,1
BMu36,50,P,INI,Trunk_Forward,1,L_MTF,42.2526031633177,total,1
BMu36,50,P,INI,Trunk_Forward,1,L_MTF,40.436150494719065,start,1
BMu36,50,P,INI,Trunk_Forward,1,L_MTF,35.101746269817504,end,1
BMu36,50,P,INI,Trunk_Forward,1,R_MTF,47.67236155418404,total,1
BMu36,50,P,INI,Trunk_Forward,1,R_MTF,41.89071292859996,start,1
BMu36,50,P,INI,Trunk_Forward,1,R_MTF,41.807444418695596,end,1
BMu36,50,P,REL,Trunk_Forward,1,L_MTF,55.07157476383004,total,1
BMu36,50,P,REL,Trunk_Forward,1,L_MTF,47.7938482939435,start,1
BMu36,50,P,REL,Trunk_Forward,1,L_MTF,54.15378816082126,end,1
BMu36,50,P,REL,Trunk_Forward,1,R_MTF,29.049736704682726,total,1
BMu36,50,P,REL,Trunk_Forward,1,R_MTF,48.1822655910345,start,1
BMu36,50,P,REL,Trunk_Forward,1,R_MTF,10.324472176071717,end,1
BMu36,51,P,INI,Trunk_Forward,1,L_MTF,39.959198817021914,total,1
BMu36,51,P,INI,Trunk_Forward,1,L_MTF,32.70423580858653,start,1
BMu36,51,P,INI,Trunk_Forward,1,L_MTF,39.95893978400903,end,1
BMu36,51,P,INI,Trunk_Forward,1,R_MTF,32.487294745326224,total,1
BMu36,51,P,INI,Trunk_Forward,1,R_MTF,24.332035301510317,start,1
BMu36,51,P,INI,Trunk_Forward,1,R_MTF,34.71874286326249,end,1
BMu36,51,P,REL,Trunk_Forward,1,L_MTF,42.0654553365062,total,1
BMu36,51,P,REL,Trunk_Forward,1,L_MTF,39.03528818486736,start,1
BMu36,51,P,REL,Trunk_Forward,1,L_MTF,48.564673740924036,end,1
BMu36,51,P,REL,Trunk_Forward,1,R_MTF,32.568065114509835,total,1
BMu36,51,P,REL,Trunk_Forward,1,R_MTF,34.2972271029236,start,1
BMu36,51,P,REL,Trunk_Forward,1,R_MTF,37.21903033097644,end,1
BMu36,52,C,INI,Trunk_Forward,1,L_MTF,32.41088805812155,total,1
BMu36,52,C,INI,Trunk_Forward,1,L_MTF,38.48580007171811,start,1
BMu36,52,C,INI,Trunk_Forward,1,L_MTF,30.278794287624628,end,1
BMu36,52,C,INI,Trunk_Forward,1,R_MTF,33.59037540773201,total,1
BMu36,52,C,INI,Trunk_Forward,1,R_MTF,31.74375342700323,start,1
BMu36,52,C,INI,Trunk_Forward,1,R_MTF,35.214815153269484,end,1
BMu36,52,C,REL,Trunk_Forward,1,L_MTF,19.39110268904035,total,1
BMu36,52,C,REL,Trunk_Forward,1,L_MTF,13.911729417330614,start,1
BMu36,52,C,REL,Trunk_Forward,1,L_MTF,22.592626191611622,end,1
BMu36,52,C,REL,Trunk_Forward,1,R_MTF,30.657712067696302,total,1
BMu36,52,C,REL,Trunk_Forward,1,R_MTF,25.777274459298503,start,1
BMu36,52,C,REL,Trunk_Forward,1,R_MTF,36.52025393040486,end,1
BMu36,53,P,INI,Trunk_Forward,1,L_MTF,69.04158935284642,total,1
BMu36,53,P,INI,Trunk_Forward,1,L_MTF,57.36599780078518,start,1
BMu36,53,P,INI,Trunk_Forward,1,L_MTF,68.04042499789722,end,1
BMu36,53,P,INI,Trunk_Forward,1,R_MTF,312.7710848084083,total,1
BMu36,53,P,INI,Trunk_Forward,1,R_MTF,270.8990766806322,start,1
BMu36,53,P,INI,Trunk_Forward,1,R_MTF,306.62437133557574,end,1
BMu36,53,P,REL,Trunk_Forward,1,L_MTF,47.3068264245393,total,1
BMu36,53,P,REL,Trunk_Forward,1,L_MTF,40.33126369164701,start,1
BMu36,53,P,REL,Trunk_Forward,1,L_MTF,52.709378991468554,end,1
BMu36,53,P,REL,Trunk_Forward,1,R_MTF,77.8985399062998,total,1
BMu36,53,P,REL,Trunk_Forward,1,R_MTF,62.3407771939392,start,1
BMu36,53,P,REL,Trunk_Forward,1,R_MTF,89.3172505026669,end,1
BMu36,54,P,INI,Trunk_Forward,1,L_MTF,26.694239699249042,total,1
BMu36,54,P,INI,Trunk_Forward,1,L_MTF,19.98907419013845,start,1
BMu36,54,P,INI,Trunk_Forward,1,L_MTF,24.99355804351559,end,1
BMu36,54,P,INI,Trunk_Forward,1,R_MTF,25.553604311269435,total,1
BMu36,54,P,INI,Trunk_Forward,1,R_MTF,21.253453579758265,start,1
BMu36,54,P,INI,Trunk_Forward,1,R_MTF,25.562372253859223,end,1
BMu36,54,P,REL,Trunk_Forward,1,L_MTF,22.407255539725146,total,1
BMu36,54,P,REL,Trunk_Forward,1,L_MTF,15.209326431231245,start,1
BMu36,54,P,REL,Trunk_Forward,1,L_MTF,23.186144194470483,end,1
BMu36,54,P,REL,Trunk_Forward,1,R_MTF,19.215125139193663,total,1
BMu36,54,P,REL,Trunk_Forward,1,R_MTF,13.195054712696718,start,1
BMu36,54,P,REL,Trunk_Forward,1,R_MTF,17.96175771734705,end,1
BMu36,55,C,INI,Trunk_Forward,1,L_MTF,41.54095471799116,total,1
BMu36,55,C,INI,Trunk_Forward,1,L_MTF,31.4163552737572,start,1
BMu36,55,C,INI,Trunk_Forward,1,L_MTF,40.15468377034469,end,1
BMu36,55,C,INI,Trunk_Forward,1,R_MTF,28.382419534240118,total,1
BMu36,55,C,INI,Trunk_Forward,1,R_MTF,24.928614626046507,start,1
BMu36,55,C,INI,Trunk_Forward,1,R_MTF,25.803417435749036,end,1
BMu36,55,C,REL,Trunk_Forward,1,L_MTF,30.063928884660562,total,1
BMu36,55,C,REL,Trunk_Forward,1,L_MTF,17.717407876920205,start,1
BMu36,55,C,REL,Trunk_Forward,1,L_MTF,39.05833104025385,end,1
BMu36,55,C,REL,Trunk_Forward,1,R_MTF,20.184592709684114,total,1
BMu36,55,C,REL,Trunk_Forward,1,R_MTF,15.358972552432373,start,1
BMu36,55,C,REL,Trunk_Forward,1,R_MTF,22.502557421997953,end,1
BMu36,56,C,INI,Trunk_Forward,1,L_MTF,16.406342843156875,total,1
BMu36,56,C,INI,Trunk_Forward,1,L_MTF,16.80373105265356,start,1
BMu36,56,C,INI,Trunk_Forward,1,L_MTF,13.544903498137439,end,1
BMu36,56,C,INI,Trunk_Forward,1,R_MTF,19.626947341577004,total,1
BMu36,56,C,INI,Trunk_Forward,1,R_MTF,19.475981378300776,start,1
BMu36,56,C,INI,Trunk_Forward,1,R_MTF,18.424103342981105,end,1
BMu36,56,C,REL,Trunk_Forward,1,L_MTF,19.66384844075558,total,1
BMu36,56,C,REL,Trunk_Forward,1,L_MTF,17.835585546886804,start,1
BMu36,56,C,REL,Trunk_Forward,1,L_MTF,16.946953403557487,end,1
BMu36,56,C,REL,Trunk_Forward,1,R_MTF,22.267464227497676,total,1
BMu36,56,C,REL,Trunk_Forward,1,R_MTF,24.007563685358566,start,1
BMu36,56,C,REL,Trunk_Forward,1,R_MTF,22.865053470163435,end,1
BMu36,57,C,INI,Trunk_Forward,1,L_MTF,67.31766048062686,total,1
BMu36,57,C,INI,Trunk_Forward,1,L_MTF,63.94651428915007,start,1
BMu36,57,C,INI,Trunk_Forward,1,L_MTF,78.05630178762823,end,1
BMu36,57,C,INI,Trunk_Forward,1,R_MTF,78.79652868668,total,1
BMu36,57,C,INI,Trunk_Forward,1,R_MTF,100.14023110123809,start,1
BMu36,57,C,INI,Trunk_Forward,1,R_MTF,51.06116302831843,end,1
BMu36,57,C,REL,Trunk_Forward,1,L_MTF,38.996190778336405,total,1
BMu36,57,C,REL,Trunk_Forward,1,L_MTF,30.39655228836069,start,1
BMu36,57,C,REL,Trunk_Forward,1,L_MTF,39.975916884102865,end,1
BMu36,57,C,REL,Trunk_Forward,1,R_MTF,47.87088774299584,total,1
BMu36,57,C,REL,Trunk_Forward,1,R_MTF,46.6113705657498,start,1
BMu36,57,C,REL,Trunk_Forward,1,R_MTF,55.72008424336977,end,1
BMu36,58,P,INI,Trunk_Forward,1,L_MTF,15.234812721000186,total,1
BMu36,58,P,INI,Trunk_Forward,1,L_MTF,15.830225597690733,start,1
BMu36,58,P,INI,Trunk_Forward,1,L_MTF,11.075608426263631,end,1
BMu36,58,P,INI,Trunk_Forward,1,R_MTF,628.8066177223997,total,1
BMu36,58,P,INI,Trunk_Forward,1,R_MTF,785.5278279168971,start,1
BMu36,58,P,INI,Trunk_Forward,1,R_MTF,367.5027448331088,end,1
BMu36,58,P,REL,Trunk_Forward,1,L_MTF,53.96836700283904,total,1
BMu36,58,P,REL,Trunk_Forward,1,L_MTF,43.17763263550929,start,1
BMu36,58,P,REL,Trunk_Forward,1,L_MTF,62.91579849062176,end,1
BMu36,58,P,REL,Trunk_Forward,1,R_MTF,40.63804906966469,total,1
BMu36,58,P,REL,Trunk_Forward,1,R_MTF,37.05793733963124,start,1
BMu36,58,P,REL,Trunk_Forward,1,R_MTF,44.85783490829233,end,1
BMu36,60,C,INI,Trunk_Forward,1,L_MTF,17.2063219912573,total,1
BMu36,60,C,INI,Trunk_Forward,1,L_MTF,18.84881124922581,start,1
BMu36,60,C,INI,Trunk_Forward,1,L_MTF,14.810905379947203,end,1
BMu36,60,C,INI,Trunk_Forward,1,R_MTF,19.57150786717373,total,1
BMu36,60,C,INI,Trunk_Forward,1,R_MTF,21.26163595689534,start,1
BMu36,60,C,INI,Trunk_Forward,1,R_MTF,16.35012085879565,end,1
BMu36,60,C,REL,Trunk_Forward,1,L_MTF,22.731232745650196,total,1
BMu36,60,C,REL,Trunk_Forward,1,L_MTF,16.718599634172953,start,1
BMu36,60,C,REL,Trunk_Forward,1,L_MTF,21.597190995981048,end,1
BMu36,60,C,REL,Trunk_Forward,1,R_MTF,25.89650160934538,total,1
BMu36,60,C,REL,Trunk_Forward,1,R_MTF,20.237177857307802,start,1
BMu36,60,C,REL,Trunk_Forward,1,R_MTF,26.928267825751735,end,1
BMu36,61,P,REL,Trunk_Forward,1,L_MTF,52.0476751943076,total,1
BMu36,61,P,REL,Trunk_Forward,1,L_MTF,31.98632065978763,start,1
BMu36,61,P,REL,Trunk_Forward,1,L_MTF,67.81522171171434,end,1
BMu36,61,P,REL,Trunk_Forward,1,R_MTF,45.37833249791971,total,1
BMu36,61,P,REL,Trunk_Forward,1,R_MTF,33.1446490490402,start,1
BMu36,61,P,REL,Trunk_Forward,1,R_MTF,54.63057911846934,end,1
BMu36,62,P,INI,Trunk_Forward,1,L_MTF,42.93584680651667,total,1
BMu36,62,P,INI,Trunk_Forward,1,L_MTF,35.65345351100906,start,1
BMu36,62,P,INI,Trunk_Forward,1,L_MTF,40.412889989448715,end,1
BMu36,62,P,INI,Trunk_Forward,1,R_MTF,48.879065298804726,total,1
BMu36,62,P,INI,Trunk_Forward,1,R_MTF,42.1552362300271,start,1
BMu36,62,P,INI,Trunk_Forward,1,R_MTF,47.41787102342621,end,1
BMu36,62,P,REL,Trunk_Forward,1,L_MTF,39.95560722427881,total,1
BMu36,62,P,REL,Trunk_Forward,1,L_MTF,43.15314244556458,start,1
BMu36,62,P,REL,Trunk_Forward,1,L_MTF,30.425970730754234,end,1
BMu36,62,P,REL,Trunk_Forward,1,R_MTF,49.31506565484225,total,1
BMu36,62,P,REL,Trunk_Forward,1,R_MTF,50.8966550606863,start,1
BMu36,62,P,REL,Trunk_Forward,1,R_MTF,42.00602419485616,end,1
BMu36,63,P,INI,Trunk_Forward,1,L_MTF,59.19175551288849,total,1
BMu36,63,P,INI,Trunk_Forward,1,L_MTF,46.0463560420294,start,1
BMu36,63,P,INI,Trunk_Forward,1,L_MTF,68.64732932014141,end,1
BMu36,63,P,INI,Trunk_Forward,1,R_MTF,32.59920708081791,total,1
BMu36,63,P,INI,Trunk_Forward,1,R_MTF,26.39542935785078,start,1
BMu36,63,P,INI,Trunk_Forward,1,R_MTF,35.204798863305534,end,1
BMu36,63,P,REL,Trunk_Forward,1,L_MTF,47.114288282197066,total,1
BMu36,63,P,REL,Trunk_Forward,1,L_MTF,48.20216470312286,start,1
BMu36,63,P,REL,Trunk_Forward,1,L_MTF,49.177511883706124,end,1
BMu36,63,P,REL,Trunk_Forward,1,R_MTF,42.49390522199538,total,1
BMu36,63,P,REL,Trunk_Forward,1,R_MTF,28.709494792168687,start,1
BMu36,63,P,REL,Trunk_Forward,1,R_MTF,48.25593266300612,end,1
BMu36,64,C,INI,Trunk_Forward,1,L_MTF,18.216966618218088,total,1
BMu36,64,C,INI,Trunk_Forward,1,L_MTF,21.96844531560101,start,1
BMu36,64,C,INI,Trunk_Forward,1,L_MTF,14.550536189361994,end,1
BMu36,64,C,INI,Trunk_Forward,1,R_MTF,19.59835755915727,total,1
BMu36,64,C,INI,Trunk_Forward,1,R_MTF,22.548799447556622,start,1
BMu36,64,C,INI,Trunk_Forward,1,R_MTF,17.13940177361368,end,1
BMu36,64,C,REL,Trunk_Forward,1,L_MTF,12.783884284686126,total,1
BMu36,64,C,REL,Trunk_Forward,1,L_MTF,12.696225370287966,start,1
BMu36,64,C,REL,Trunk_Forward,1,L_MTF,11.42834618156267,end,1
BMu36,64,C,REL,Trunk_Forward,1,R_MTF,15.982032606862166,total,1
BMu36,64,C,REL,Trunk_Forward,1,R_MTF,13.04648977070744,start,1
BMu36,64,C,REL,Trunk_Forward,1,R_MTF,16.023025462610885,end,1
BMu36,65,P,INI,Trunk_Forward,1,L_MTF,21.92239123496757,total,1
BMu36,65,P,INI,Trunk_Forward,1,L_MTF,24.676264429492615,start,1
BMu36,65,P,INI,Trunk_Forward,1,L_MTF,21.004812339658855,end,1
BMu36,65,P,INI,Trunk_Forward,1,R_MTF,26.8596287882045,total,1
BMu36,65,P,INI,Trunk_Forward,1,R_MTF,22.648468316371574,start,1
BMu36,65,P,INI,Trunk_Forward,1,R_MTF,25.08892587835417,end,1
BMu36,65,P,REL,Trunk_Forward,1,L_MTF,24.475917927801056,total,1
BMu36,65,P,REL,Trunk_Forward,1,L_MTF,23.334984645002077,start,1
BMu36,65,P,REL,Trunk_Forward,1,L_MTF,22.392172923985378,end,1
BMu36,65,P,REL,Trunk_Forward,1,R_MTF,27.700522126153242,total,1
BMu36,65,P,REL,Trunk_Forward,1,R_MTF,23.387521440662557,start,1
BMu36,65,P,REL,Trunk_Forward,1,R_MTF,27.459039586972434,end,1
BMu36,66,C,INI,Trunk_Forward,1,L_MTF,30.466173411686096,total,1
BMu36,66,C,INI,Trunk_Forward,1,L_MTF,25.865210157476927,start,1
BMu36,66,C,INI,Trunk_Forward,1,L_MTF,33.52524909021071,end,1
BMu36,66,C,INI,Trunk_Forward,1,R_MTF,76.94973155344266,total,1
BMu36,66,C,INI,Trunk_Forward,1,R_MTF,33.233083320096775,start,1
BMu36,66,C,INI,Trunk_Forward,1,R_MTF,87.48549843845213,end,1
BMu36,66,C,REL,Trunk_Forward,1,L_MTF,39.626272656270075,total,1
BMu36,66,C,REL,Trunk_Forward,1,L_MTF,52.593800311593185,start,1
BMu36,66,C,REL,Trunk_Forward,1,L_MTF,36.646564874273636,end,1
BMu36,66,C,REL,Trunk_Forward,1,R_MTF,30.09369371914496,total,1
BMu36,66,C,REL,Trunk_Forward,1,R_MTF,28.881155132565805,start,1
BMu36,66,C,REL,Trunk_Forward,1,R_MTF,30.423518337062724,end,1
BMu36,67,C,INI,Trunk_Forward,1,L_MTF,35.28580184745286,total,1
BMu36,67,C,INI,Trunk_Forward,1,L_MTF,28.1179206655443,start,1
BMu36,67,C,INI,Trunk_Forward,1,L_MTF,39.63222523896647,end,1
BMu36,67,C,INI,Trunk_Forward,1,R_MTF,65.97087968847381,total,1
BMu36,67,C,INI,Trunk_Forward,1,R_MTF,57.563047199781984,start,1
BMu36,67,C,INI,Trunk_Forward,1,R_MTF,72.69575290680389,end,1
BMu36,67,C,REL,Trunk_Forward,1,L_MTF,25.19280867620788,total,1
BMu36,67,C,REL,Trunk_Forward,1,L_MTF,14.786893966147554,start,1
BMu36,67,C,REL,Trunk_Forward,1,L_MTF,32.87939590394475,end,1
BMu36,67,C,REL,Trunk_Forward,1,R_MTF,33.21095037748025,total,1
BMu36,67,C,REL,Trunk_Forward,1,R_MTF,23.934027532978003,start,1
BMu36,67,C,REL,Trunk_Forward,1,R_MTF,38.263900840748384,end,1
BMu36,68,C,INI,Trunk_Forward,1,L_MTF,44.63814827759637,total,1
BMu36,68,C,INI,Trunk_Forward,1,L_MTF,44.781922112188695,start,1
BMu36,68,C,INI,Trunk_Forward,1,L_MTF,44.28231878268863,end,1
BMu36,68,C,INI,Trunk_Forward,1,R_MTF,51.981548347533696,total,1
BMu36,68,C,INI,Trunk_Forward,1,R_MTF,54.194137969910415,start,1
BMu36,68,C,INI,Trunk_Forward,1,R_MTF,52.83640732700556,end,1
BMu36,68,C,REL,Trunk_Forward,1,L_MTF,36.26346218238369,total,1
BMu36,68,C,REL,Trunk_Forward,1,L_MTF,39.771547616022005,start,1
BMu36,68,C,REL,Trunk_Forward,1,L_MTF,29.90282116433099,end,1
BMu36,68,C,REL,Trunk_Forward,1,R_MTF,52.48819041658377,total,1
BMu36,68,C,REL,Trunk_Forward,1,R_MTF,53.42283089536655,start,1
BMu36,68,C,REL,Trunk_Forward,1,R_MTF,49.84669156534142,end,1
