BMu,subject,P_C,session,task,trials,channel,value,event,rep
BMu37,1,C,INI,Trunk_Forward,1,L_EO,110.47960086831428,bending,1
BMu37,1,C,INI,Trunk_Forward,1,L_EO,110.8716841902273,return,1
BMu37,1,C,INI,Trunk_Forward,1,L_EO,110.14611171712954,bending,2
BMu37,1,C,INI,Trunk_Forward,1,L_EO,57.619058777009776,return,2
BMu37,1,C,INI,Trunk_Forward,1,L_EO,107.96323148042438,bending,3
BMu37,1,C,INI,Trunk_Forward,1,L_EO,94.19086379813662,return,3
BMu37,1,C,INI,Trunk_Forward,1,R_EO,96.46056365971278,bending,1
BMu37,1,C,INI,Trunk_Forward,1,R_EO,95.67439046422282,return,1
BMu37,1,C,INI,Trunk_Forward,1,R_EO,98.69730982774982,bending,2
BMu37,1,C,INI,Trunk_Forward,1,R_EO,91.57035647209682,return,2
BMu37,1,C,INI,Trunk_Forward,1,R_EO,93.46820807731454,bending,3
BMu37,1,C,INI,Trunk_Forward,1,R_EO,76.81814967728425,return,3
BMu37,1,C,REL,Trunk_Forward,1,L_EO,71.91272060916467,bending,1
BMu37,1,C,REL,Trunk_Forward,1,L_EO,99.40393625687582,return,1
BMu37,1,C,REL,Trunk_Forward,1,L_EO,101.38333403437721,bending,2
BMu37,1,C,REL,Trunk_Forward,1,L_EO,96.6486809466218,return,2
BMu37,1,C,REL,Trunk_Forward,1,L_EO,94.12798330758783,bending,3
BMu37,1,C,REL,Trunk_Forward,1,L_EO,101.41249461905485,return,3
BMu37,1,C,REL,Trunk_Forward,1,R_EO,92.4656834674613,bending,1
BMu37,1,C,REL,Trunk_Forward,1,R_EO,91.44751025772489,return,1
BMu37,1,C,REL,Trunk_Forward,1,R_EO,75.3585331955913,bending,2
BMu37,1,C,REL,Trunk_Forward,1,R_EO,78.84196620715826,return,2
BMu37,1,C,REL,Trunk_Forward,1,R_EO,66.99371566963977,bending,3
BMu37,1,C,REL,Trunk_Forward,1,R_EO,80.2998805613447,return,3
BMu37,2,C,INI,Trunk_Forward,1,L_EO,85.16968528240923,bending,1
BMu37,2,C,INI,Trunk_Forward,1,L_EO,83.33212938348329,return,1
BMu37,2,C,INI,Trunk_Forward,1,L_EO,83.63793074155721,bending,2
BMu37,2,C,INI,Trunk_Forward,1,L_EO,88.97900268832805,return,2
BMu37,2,C,INI,Trunk_Forward,1,L_EO,86.05597019613978,bending,3
BMu37,2,C,INI,Trunk_Forward,1,L_EO,81.88060719696618,return,3
BMu37,2,C,INI,Trunk_Forward,1,R_EO,110.94018732325608,bending,1
BMu37,2,C,INI,Trunk_Forward,1,R_EO,114.61021726516105,return,1
BMu37,2,C,INI,Trunk_Forward,1,R_EO,115.75101771942427,bending,2
BMu37,2,C,INI,Trunk_Forward,1,R_EO,124.3562475253226,return,2
BMu37,2,C,INI,Trunk_Forward,1,R_EO,127.61498764987459,bending,3
BMu37,2,C,INI,Trunk_Forward,1,R_EO,112.97471981847855,return,3
BMu37,2,C,REL,Trunk_Forward,1,L_EO,81.1483198060473,bending,1
BMu37,2,C,REL,Trunk_Forward,1,L_EO,46.98358758125979,return,1
BMu37,2,C,REL,Trunk_Forward,1,L_EO,78.98734534274294,bending,2
BMu37,2,C,REL,Trunk_Forward,1,L_EO,56.255744349979395,return,2
BMu37,2,C,REL,Trunk_Forward,1,L_EO,89.91391528025815,bending,3
BMu37,2,C,REL,Trunk_Forward,1,L_EO,82.57603212338651,return,3
BMu37,2,C,REL,Trunk_Forward,1,R_EO,67.47808197600693,bending,1
BMu37,2,C,REL,Trunk_Forward,1,R_EO,89.90830400062389,return,1
BMu37,2,C,REL,Trunk_Forward,1,R_EO,98.24534170801658,bending,2
BMu37,2,C,REL,Trunk_Forward,1,R_EO,111.41559357270467,return,2
BMu37,2,C,REL,Trunk_Forward,1,R_EO,124.80723241211788,bending,3
BMu37,2,C,REL,Trunk_Forward,1,R_EO,112.56381860661763,return,3
BMu37,3,C,INI,Trunk_Forward,1,L_EO,130.98982683106166,bending,1
BMu37,3,C,INI,Trunk_Forward,1,L_EO,120.82373748802395,return,1
BMu37,3,C,INI,Trunk_Forward,1,L_EO,130.56907774760074,bending,2
BMu37,3,C,INI,Trunk_Forward,1,L_EO,139.98192837357146,return,2
BMu37,3,C,INI,Trunk_Forward,1,L_EO,149.80144494939432,bending,3
BMu37,3,C,INI,Trunk_Forward,1,L_EO,129.50983125791106,return,3
BMu37,3,C,INI,Trunk_Forward,1,R_EO,119.74453728514267,bending,1
BMu37,3,C,INI,Trunk_Forward,1,R_EO,122.06205055170096,return,1
BMu37,3,C,INI,Trunk_Forward,1,R_EO,125.61680932336105,bending,2
BMu37,3,C,INI,Trunk_Forward,1,R_EO,124.95052040174333,return,2
BMu37,3,C,INI,Trunk_Forward,1,R_EO,134.19623814835435,bending,3
BMu37,3,C,INI,Trunk_Forward,1,R_EO,122.91676834168746,return,3
BMu37,3,C,REL,Trunk_Forward,1,L_EO,107.85196070515084,bending,1
BMu37,3,C,REL,Trunk_Forward,1,L_EO,107.53450573859548,return,1
BMu37,3,C,REL,Trunk_Forward,1,L_EO,119.88849097275184,bending,2
BMu37,3,C,REL,Trunk_Forward,1,L_EO,113.99814111604023,return,2
BMu37,3,C,REL,Trunk_Forward,1,L_EO,124.66417476364009,bending,3
BMu37,3,C,REL,Trunk_Forward,1,L_EO,100.87937541656682,return,3
BMu37,3,C,REL,Trunk_Forward,1,R_EO,95.51442600973293,bending,1
BMu37,3,C,REL,Trunk_Forward,1,R_EO,108.99352074421708,return,1
BMu37,3,C,REL,Trunk_Forward,1,R_EO,119.00183156909489,bending,2
BMu37,3,C,REL,Trunk_Forward,1,R_EO,120.79623910770623,return,2
BMu37,3,C,REL,Trunk_Forward,1,R_EO,126.2811230155867,bending,3
BMu37,3,C,REL,Trunk_Forward,1,R_EO,101.13693091364252,return,3
BMu37,5,C,INI,Trunk_Forward,1,L_EO,89.7264200831769,bending,1
BMu37,5,C,INI,Trunk_Forward,1,L_EO,87.84208316548487,return,1
BMu37,5,C,INI,Trunk_Forward,1,L_EO,83.32080405394404,bending,2
BMu37,5,C,INI,Trunk_Forward,1,L_EO,80.09759106344168,return,2
BMu37,5,C,INI,Trunk_Forward,1,L_EO,90.17273244834563,bending,3
BMu37,5,C,INI,Trunk_Forward,1,L_EO,85.18306806800241,return,3
BMu37,5,C,INI,Trunk_Forward,1,R_EO,102.48796753822938,bending,1
BMu37,5,C,INI,Trunk_Forward,1,R_EO,101.58442872950693,return,1
BMu37,5,C,INI,Trunk_Forward,1,R_EO,94.6835802823221,bending,2
BMu37,5,C,INI,Trunk_Forward,1,R_EO,102.70235776790278,return,2
BMu37,5,C,INI,Trunk_Forward,1,R_EO,107.13574303686526,bending,3
BMu37,5,C,INI,Trunk_Forward,1,R_EO,104.70222053287075,return,3
BMu37,5,C,REL,Trunk_Forward,1,L_EO,86.77242208977185,bending,1
BMu37,5,C,REL,Trunk_Forward,1,L_EO,89.34631329849024,return,1
BMu37,5,C,REL,Trunk_Forward,1,L_EO,86.61195701538072,bending,2
BMu37,5,C,REL,Trunk_Forward,1,L_EO,83.76240976405371,return,2
BMu37,5,C,REL,Trunk_Forward,1,L_EO,45.87115388814362,bending,3
BMu37,5,C,REL,Trunk_Forward,1,L_EO,88.2789950861875,return,3
BMu37,5,C,REL,Trunk_Forward,1,L_EO,57.17339354990611,bending,4
BMu37,5,C,REL,Trunk_Forward,1,L_EO,89.2843251268778,return,4
BMu37,5,C,REL,Trunk_Forward,1,R_EO,81.57961959191121,bending,1
BMu37,5,C,REL,Trunk_Forward,1,R_EO,27.697378081135387,return,1
BMu37,5,C,REL,Trunk_Forward,1,R_EO,93.70732001099648,bending,2
BMu37,5,C,REL,Trunk_Forward,1,R_EO,105.0190627758,return,2
BMu37,5,C,REL,Trunk_Forward,1,R_EO,91.49050610311228,bending,3
BMu37,5,C,REL,Trunk_Forward,1,R_EO,107.98706022415693,return,3
BMu37,5,C,REL,Trunk_Forward,1,R_EO,97.93495086940047,bending,4
BMu37,5,C,REL,Trunk_Forward,1,R_EO,107.42452675844397,return,4
BMu37,6,C,INI,Trunk_Forward,1,L_EO,152.8324716145607,bending,1
BMu37,6,C,INI,Trunk_Forward,1,L_EO,154.2534576412154,return,1
BMu37,6,C,INI,Trunk_Forward,1,L_EO,148.37166507854647,bending,2
BMu37,6,C,INI,Trunk_Forward,1,L_EO,154.36438074940972,return,2
BMu37,6,C,INI,Trunk_Forward,1,L_EO,134.20932531220905,bending,3
BMu37,6,C,INI,Trunk_Forward,1,L_EO,152.12034695468367,return,3
BMu37,6,C,INI,Trunk_Forward,1,L_EO,131.43954656920093,bending,4
BMu37,6,C,INI,Trunk_Forward,1,L_EO,149.95085798908295,return,4
BMu37,6,C,INI,Trunk_Forward,1,R_EO,171.8069281480756,bending,1
BMu37,6,C,INI,Trunk_Forward,1,R_EO,170.80123583445317,return,1
BMu37,6,C,INI,Trunk_Forward,1,R_EO,180.1510817800671,bending,2
BMu37,6,C,INI,Trunk_Forward,1,R_EO,177.11947156014486,return,2
BMu37,6,C,INI,Trunk_Forward,1,R_EO,178.05960336900918,bending,3
BMu37,6,C,INI,Trunk_Forward,1,R_EO,177.62595882225045,return,3
BMu37,6,C,INI,Trunk_Forward,1,R_EO,170.89669399457546,bending,4
BMu37,6,C,INI,Trunk_Forward,1,R_EO,167.93390739117115,return,4
BMu37,6,C,REL,Trunk_Forward,1,L_EO,106.72805700508135,bending,1
BMu37,6,C,REL,Trunk_Forward,1,L_EO,129.58892401359722,return,1
BMu37,6,C,REL,Trunk_Forward,1,L_EO,99.59040613504513,bending,2
BMu37,6,C,REL,Trunk_Forward,1,L_EO,123.0030669224704,return,2
BMu37,6,C,REL,Trunk_Forward,1,L_EO,97.41885002064988,bending,3
BMu37,6,C,REL,Trunk_Forward,1,L_EO,125.92428483548123,return,3
BMu37,6,C,REL,Trunk_Forward,1,R_EO,63.91476630450825,bending,1
BMu37,6,C,REL,Trunk_Forward,1,R_EO,129.708387281901,return,1
BMu37,6,C,REL,Trunk_Forward,1,R_EO,54.56922237906105,bending,2
BMu37,6,C,REL,Trunk_Forward,1,R_EO,127.6574924390192,return,2
BMu37,6,C,REL,Trunk_Forward,1,R_EO,65.05954617236624,bending,3
BMu37,6,C,REL,Trunk_Forward,1,R_EO,118.79250899809064,return,3
BMu37,7,C,INI,Trunk_Forward,1,L_EO,82.49192173161816,bending,1
BMu37,7,C,INI,Trunk_Forward,1,L_EO,88.8583673502978,return,1
BMu37,7,C,INI,Trunk_Forward,1,L_EO,86.55687972386616,bending,2
BMu37,7,C,INI,Trunk_Forward,1,L_EO,89.41646225766937,return,2
BMu37,7,C,INI,Trunk_Forward,1,L_EO,52.40185101606828,bending,3
BMu37,7,C,INI,Trunk_Forward,1,L_EO,92.3408859626664,return,3
BMu37,7,C,INI,Trunk_Forward,1,R_EO,54.14799191760211,bending,1
BMu37,7,C,INI,Trunk_Forward,1,R_EO,49.85579727222101,return,1
BMu37,7,C,INI,Trunk_Forward,1,R_EO,95.72784048765118,bending,2
BMu37,7,C,INI,Trunk_Forward,1,R_EO,53.723114079018636,return,2
BMu37,7,C,INI,Trunk_Forward,1,R_EO,121.80675246239876,bending,3
BMu37,7,C,INI,Trunk_Forward,1,R_EO,56.77153895906685,return,3
BMu37,7,C,REL,Trunk_Forward,1,L_EO,80.69455210764717,bending,1
BMu37,7,C,REL,Trunk_Forward,1,L_EO,73.595155828,return,1
BMu37,7,C,REL,Trunk_Forward,1,L_EO,86.29530162889773,bending,2
BMu37,7,C,REL,Trunk_Forward,1,L_EO,75.41536507597287,return,2
BMu37,7,C,REL,Trunk_Forward,1,L_EO,73.77814193399963,bending,3
BMu37,7,C,REL,Trunk_Forward,1,L_EO,67.01200164233826,return,3
BMu37,7,C,REL,Trunk_Forward,1,R_EO,100.21289067875468,bending,1
BMu37,7,C,REL,Trunk_Forward,1,R_EO,38.13195193317148,return,1
BMu37,7,C,REL,Trunk_Forward,1,R_EO,102.32398338226888,bending,2
BMu37,7,C,REL,Trunk_Forward,1,R_EO,81.18444507101937,return,2
BMu37,7,C,REL,Trunk_Forward,1,R_EO,104.24292041208952,bending,3
BMu37,7,C,REL,Trunk_Forward,1,R_EO,98.57172394401428,return,3
BMu37,8,C,INI,Trunk_Forward,1,L_EO,70.17573951079198,bending,1
BMu37,8,C,INI,Trunk_Forward,1,L_EO,74.27303889610756,return,1
BMu37,8,C,INI,Trunk_Forward,1,L_EO,81.43749931112278,bending,2
BMu37,8,C,INI,Trunk_Forward,1,L_EO,79.97162289893315,return,2
BMu37,8,C,INI,Trunk_Forward,1,L_EO,108.04628732646033,bending,3
BMu37,8,C,INI,Trunk_Forward,1,L_EO,99.99388775220856,return,3
BMu37,8,C,INI,Trunk_Forward,1,R_EO,88.9537302882242,bending,1
BMu37,8,C,INI,Trunk_Forward,1,R_EO,90.67962628118896,return,1
BMu37,8,C,INI,Trunk_Forward,1,R_EO,115.75655360052171,bending,2
BMu37,8,C,INI,Trunk_Forward,1,R_EO,80.87989745583813,return,2
BMu37,8,C,INI,Trunk_Forward,1,R_EO,98.24789956979266,bending,3
BMu37,8,C,INI,Trunk_Forward,1,R_EO,106.03015578242874,return,3
BMu37,8,C,REL,Trunk_Forward,1,L_EO,86.2214063988987,bending,1
BMu37,8,C,REL,Trunk_Forward,1,L_EO,68.53265772911169,return,1
BMu37,8,C,REL,Trunk_Forward,1,L_EO,87.43788461533673,bending,2
BMu37,8,C,REL,Trunk_Forward,1,L_EO,74.18201138681901,return,2
BMu37,8,C,REL,Trunk_Forward,1,L_EO,81.23502310259995,bending,3
BMu37,8,C,REL,Trunk_Forward,1,L_EO,78.12919820222132,return,3
BMu37,8,C,REL,Trunk_Forward,1,R_EO,109.01868039650903,bending,1
BMu37,8,C,REL,Trunk_Forward,1,R_EO,104.56689745283987,return,1
BMu37,8,C,REL,Trunk_Forward,1,R_EO,104.99669081020896,bending,2
BMu37,8,C,REL,Trunk_Forward,1,R_EO,108.6496107270159,return,2
BMu37,8,C,REL,Trunk_Forward,1,R_EO,105.5850270615947,bending,3
BMu37,8,C,REL,Trunk_Forward,1,R_EO,107.48212116282586,return,3
BMu37,9,P,INI,Trunk_Forward,1,L_EO,96.93154577854894,bending,1
BMu37,9,P,INI,Trunk_Forward,1,L_EO,89.14069449295594,return,1
BMu37,9,P,INI,Trunk_Forward,1,L_EO,99.69565846331601,bending,2
BMu37,9,P,INI,Trunk_Forward,1,L_EO,90.3252277027529,return,2
BMu37,9,P,INI,Trunk_Forward,1,L_EO,84.81712315035303,bending,3
BMu37,9,P,INI,Trunk_Forward,1,L_EO,88.13999679747161,return,3
BMu37,9,P,INI,Trunk_Forward,1,L_EO,89.89574495613525,bending,4
BMu37,9,P,INI,Trunk_Forward,1,L_EO,97.7818658257908,return,4
BMu37,9,P,INI,Trunk_Forward,1,R_EO,90.93037976375093,bending,1
BMu37,9,P,INI,Trunk_Forward,1,R_EO,79.22116880920343,return,1
BMu37,9,P,INI,Trunk_Forward,1,R_EO,95.37567944457703,bending,2
BMu37,9,P,INI,Trunk_Forward,1,R_EO,84.37010998631143,return,2
BMu37,9,P,INI,Trunk_Forward,1,R_EO,92.77767669215199,bending,3
BMu37,9,P,INI,Trunk_Forward,1,R_EO,86.24042102101541,return,3
BMu37,9,P,INI,Trunk_Forward,1,R_EO,90.25535803314796,bending,4
BMu37,9,P,INI,Trunk_Forward,1,R_EO,92.72786502972659,return,4
BMu37,9,P,REL,Trunk_Forward,1,L_EO,84.40514351841645,bending,1
BMu37,9,P,REL,Trunk_Forward,1,L_EO,88.77598939785935,return,1
BMu37,9,P,REL,Trunk_Forward,1,L_EO,88.29542238847058,bending,2
BMu37,9,P,REL,Trunk_Forward,1,L_EO,90.03455307249351,return,2
BMu37,9,P,REL,Trunk_Forward,1,L_EO,85.98818059932908,bending,3
BMu37,9,P,REL,Trunk_Forward,1,L_EO,92.37334072210732,return,3
BMu37,9,P,REL,Trunk_Forward,1,R_EO,59.05401799001301,bending,1
BMu37,9,P,REL,Trunk_Forward,1,R_EO,97.08180321660294,return,1
BMu37,9,P,REL,Trunk_Forward,1,R_EO,105.32220830795394,bending,2
BMu37,9,P,REL,Trunk_Forward,1,R_EO,90.23809211557538,return,2
BMu37,9,P,REL,Trunk_Forward,1,R_EO,94.51889882037345,bending,3
BMu37,9,P,REL,Trunk_Forward,1,R_EO,42.463210521656826,return,3
BMu37,10,P,INI,Trunk_Forward,1,L_EO,91.25068708461478,bending,1
BMu37,10,P,INI,Trunk_Forward,1,L_EO,91.17313115739049,return,1
BMu37,10,P,INI,Trunk_Forward,1,L_EO,88.27008693283415,bending,2
BMu37,10,P,INI,Trunk_Forward,1,L_EO,93.26657852139769,return,2
BMu37,10,P,INI,Trunk_Forward,1,L_EO,94.82036690452789,bending,3
BMu37,10,P,INI,Trunk_Forward,1,L_EO,89.62878180778378,return,3
BMu37,10,P,INI,Trunk_Forward,1,R_EO,87.58429970474889,bending,1
BMu37,10,P,INI,Trunk_Forward,1,R_EO,92.48997412379546,return,1
BMu37,10,P,INI,Trunk_Forward,1,R_EO,89.7603985417133,bending,2
BMu37,10,P,INI,Trunk_Forward,1,R_EO,99.50845577703022,return,2
BMu37,10,P,INI,Trunk_Forward,1,R_EO,90.89831901535344,bending,3
BMu37,10,P,INI,Trunk_Forward,1,R_EO,96.45084757677547,return,3
BMu37,10,P,REL,Trunk_Forward,1,L_EO,106.44485475310725,bending,1
BMu37,10,P,REL,Trunk_Forward,1,L_EO,98.90503449265569,return,1
BMu37,10,P,REL,Trunk_Forward,1,L_EO,106.27970054740773,bending,2
BMu37,10,P,REL,Trunk_Forward,1,L_EO,89.09799423482883,return,2
BMu37,10,P,REL,Trunk_Forward,1,L_EO,108.47859440996972,bending,3
BMu37,10,P,REL,Trunk_Forward,1,L_EO,91.6461056594108,return,3
BMu37,10,P,REL,Trunk_Forward,1,R_EO,106.11024563003014,bending,1
BMu37,10,P,REL,Trunk_Forward,1,R_EO,109.91180597987625,return,1
BMu37,10,P,REL,Trunk_Forward,1,R_EO,102.02130299391511,bending,2
BMu37,10,P,REL,Trunk_Forward,1,R_EO,109.545736879265,return,2
BMu37,10,P,REL,Trunk_Forward,1,R_EO,106.48243245686791,bending,3
BMu37,10,P,REL,Trunk_Forward,1,R_EO,108.31371635396694,return,3
BMu37,11,P,INI,Trunk_Forward,1,L_EO,76.62906298266171,bending,1
BMu37,11,P,INI,Trunk_Forward,1,L_EO,75.69307234068775,return,1
BMu37,11,P,INI,Trunk_Forward,1,L_EO,81.05058772226643,bending,2
BMu37,11,P,INI,Trunk_Forward,1,L_EO,81.40290028672631,return,2
BMu37,11,P,INI,Trunk_Forward,1,L_EO,78.26914475235974,bending,3
BMu37,11,P,INI,Trunk_Forward,1,L_EO,78.35735900252169,return,3
BMu37,11,P,INI,Trunk_Forward,1,R_EO,74.37468889512331,bending,1
BMu37,11,P,INI,Trunk_Forward,1,R_EO,74.06573329718128,return,1
BMu37,11,P,INI,Trunk_Forward,1,R_EO,73.13785850059676,bending,2
BMu37,11,P,INI,Trunk_Forward,1,R_EO,71.07972793371067,return,2
BMu37,11,P,INI,Trunk_Forward,1,R_EO,74.56366146215086,bending,3
BMu37,11,P,INI,Trunk_Forward,1,R_EO,75.00077193716604,return,3
BMu37,11,P,REL,Trunk_Forward,1,L_EO,88.45008120433961,bending,1
BMu37,11,P,REL,Trunk_Forward,1,L_EO,95.59754047452849,return,1
BMu37,11,P,REL,Trunk_Forward,1,L_EO,98.3747555520732,bending,2
BMu37,11,P,REL,Trunk_Forward,1,L_EO,95.8218203038714,return,2
BMu37,11,P,REL,Trunk_Forward,1,L_EO,94.65322401857885,bending,3
BMu37,11,P,REL,Trunk_Forward,1,L_EO,91.8045131481526,return,3
BMu37,11,P,REL,Trunk_Forward,1,R_EO,83.92854245735776,bending,1
BMu37,11,P,REL,Trunk_Forward,1,R_EO,98.84013650305951,return,1
BMu37,11,P,REL,Trunk_Forward,1,R_EO,100.08243296211585,bending,2
BMu37,11,P,REL,Trunk_Forward,1,R_EO,101.50294050625176,return,2
BMu37,11,P,REL,Trunk_Forward,1,R_EO,87.41425176207568,bending,3
BMu37,11,P,REL,Trunk_Forward,1,R_EO,95.79918341642195,return,3
BMu37,12,P,INI,Trunk_Forward,1,L_EO,98.24582379835606,bending,1
BMu37,12,P,INI,Trunk_Forward,1,L_EO,103.92600338141783,return,1
BMu37,12,P,INI,Trunk_Forward,1,L_EO,99.54586210082567,bending,2
BMu37,12,P,INI,Trunk_Forward,1,L_EO,103.50148179077678,return,2
BMu37,12,P,INI,Trunk_Forward,1,L_EO,99.67717499545853,bending,3
BMu37,12,P,INI,Trunk_Forward,1,L_EO,106.31059223896291,return,3
BMu37,12,P,INI,Trunk_Forward,1,R_EO,104.61159973823615,bending,1
BMu37,12,P,INI,Trunk_Forward,1,R_EO,109.26261644252098,return,1
BMu37,12,P,INI,Trunk_Forward,1,R_EO,104.76837306340981,bending,2
BMu37,12,P,INI,Trunk_Forward,1,R_EO,107.47000046400949,return,2
BMu37,12,P,INI,Trunk_Forward,1,R_EO,96.60191571538162,bending,3
BMu37,12,P,INI,Trunk_Forward,1,R_EO,101.91813278310215,return,3
BMu37,12,P,REL,Trunk_Forward,1,L_EO,120.46551919180673,bending,1
BMu37,12,P,REL,Trunk_Forward,1,L_EO,120.63845904671747,return,1
BMu37,12,P,REL,Trunk_Forward,1,L_EO,123.55713173487736,bending,2
BMu37,12,P,REL,Trunk_Forward,1,L_EO,120.12914912052292,return,2
BMu37,12,P,REL,Trunk_Forward,1,L_EO,116.98739257453482,bending,3
BMu37,12,P,REL,Trunk_Forward,1,L_EO,121.39290230212691,return,3
BMu37,12,P,REL,Trunk_Forward,1,R_EO,132.70612760503374,bending,1
BMu37,12,P,REL,Trunk_Forward,1,R_EO,131.5211565521351,return,1
BMu37,12,P,REL,Trunk_Forward,1,R_EO,132.7960300144528,bending,2
BMu37,12,P,REL,Trunk_Forward,1,R_EO,126.90436250230198,return,2
BMu37,12,P,REL,Trunk_Forward,1,R_EO,129.0316805707947,bending,3
BMu37,12,P,REL,Trunk_Forward,1,R_EO,127.72412004542167,return,3
BMu37,13,C,INI,Trunk_Forward,1,L_EO,48.399476652508845,bending,1
BMu37,13,C,INI,Trunk_Forward,1,L_EO,58.245204040504724,return,1
BMu37,13,C,INI,Trunk_Forward,1,L_EO,33.64802444077535,bending,2
BMu37,13,C,INI,Trunk_Forward,1,L_EO,50.91996212950216,return,2
BMu37,13,C,INI,Trunk_Forward,1,L_EO,31.761791896680077,bending,3
BMu37,13,C,INI,Trunk_Forward,1,L_EO,48.07319314168799,return,3
BMu37,13,C,INI,Trunk_Forward,1,R_EO,81.86317157920662,bending,1
BMu37,13,C,INI,Trunk_Forward,1,R_EO,79.23506917005602,return,1
BMu37,13,C,INI,Trunk_Forward,1,R_EO,81.89896680597462,bending,2
BMu37,13,C,INI,Trunk_Forward,1,R_EO,85.37664215261329,return,2
BMu37,13,C,INI,Trunk_Forward,1,R_EO,90.7751309646676,bending,3
BMu37,13,C,INI,Trunk_Forward,1,R_EO,88.8368814672793,return,3
BMu37,13,C,REL,Trunk_Forward,1,L_EO,35.471456995501434,bending,1
BMu37,13,C,REL,Trunk_Forward,1,L_EO,42.0517076186772,return,1
BMu37,13,C,REL,Trunk_Forward,1,L_EO,41.945327999712696,bending,2
BMu37,13,C,REL,Trunk_Forward,1,L_EO,43.192350763613604,return,2
BMu37,13,C,REL,Trunk_Forward,1,L_EO,48.74063857369688,bending,3
BMu37,13,C,REL,Trunk_Forward,1,L_EO,46.76371636159864,return,3
BMu37,13,C,REL,Trunk_Forward,1,R_EO,117.1981091535566,bending,1
BMu37,13,C,REL,Trunk_Forward,1,R_EO,119.92164868998762,return,1
BMu37,13,C,REL,Trunk_Forward,1,R_EO,120.94460196692093,bending,2
BMu37,13,C,REL,Trunk_Forward,1,R_EO,115.65095042256303,return,2
BMu37,13,C,REL,Trunk_Forward,1,R_EO,124.15955796019183,bending,3
BMu37,13,C,REL,Trunk_Forward,1,R_EO,116.52931374880944,return,3
BMu37,14,P,INI,Trunk_Forward,1,L_EO,63.85503325227978,bending,1
BMu37,14,P,INI,Trunk_Forward,1,L_EO,118.22624340563638,return,1
BMu37,14,P,INI,Trunk_Forward,1,L_EO,73.31772165847235,bending,2
BMu37,14,P,INI,Trunk_Forward,1,L_EO,49.41774273789391,return,2
BMu37,14,P,INI,Trunk_Forward,1,L_EO,77.67906971341965,bending,3
BMu37,14,P,INI,Trunk_Forward,1,L_EO,57.840978393731945,return,3
BMu37,14,P,INI,Trunk_Forward,1,R_EO,94.07173093223858,bending,1
BMu37,14,P,INI,Trunk_Forward,1,R_EO,96.4639427523632,return,1
BMu37,14,P,INI,Trunk_Forward,1,R_EO,96.09072361188102,bending,2
BMu37,14,P,INI,Trunk_Forward,1,R_EO,63.330767916534604,return,2
BMu37,14,P,INI,Trunk_Forward,1,R_EO,110.17361048078973,bending,3
BMu37,14,P,INI,Trunk_Forward,1,R_EO,62.92338014671388,return,3
BMu37,14,P,REL,Trunk_Forward,1,L_EO,116.91857470058315,bending,1
BMu37,14,P,REL,Trunk_Forward,1,L_EO,109.23352497773928,return,1
BMu37,14,P,REL,Trunk_Forward,1,L_EO,77.9187912586366,bending,2
BMu37,14,P,REL,Trunk_Forward,1,L_EO,59.498264902828005,return,2
BMu37,14,P,REL,Trunk_Forward,1,L_EO,73.10017180196057,bending,3
BMu37,14,P,REL,Trunk_Forward,1,L_EO,43.691687736244,return,3
BMu37,14,P,REL,Trunk_Forward,1,L_EO,59.70782451240727,bending,4
BMu37,14,P,REL,Trunk_Forward,1,L_EO,57.32645269505376,return,4
BMu37,14,P,REL,Trunk_Forward,1,R_EO,35.74266274976757,bending,1
BMu37,14,P,REL,Trunk_Forward,1,R_EO,151.4303261413536,return,1
BMu37,14,P,REL,Trunk_Forward,1,R_EO,58.804464860405226,bending,2
BMu37,14,P,REL,Trunk_Forward,1,R_EO,87.62500721658596,return,2
BMu37,14,P,REL,Trunk_Forward,1,R_EO,28.226969206543888,bending,3
BMu37,14,P,REL,Trunk_Forward,1,R_EO,63.55477940077415,return,3
BMu37,14,P,REL,Trunk_Forward,1,R_EO,41.118933510078314,bending,4
BMu37,14,P,REL,Trunk_Forward,1,R_EO,56.103286275018185,return,4
BMu37,16,C,INI,Trunk_Forward,1,L_EO,141.34083108812527,bending,1
BMu37,16,C,INI,Trunk_Forward,1,L_EO,142.5747449029633,return,1
BMu37,16,C,INI,Trunk_Forward,1,L_EO,137.01479940717925,bending,2
BMu37,16,C,INI,Trunk_Forward,1,L_EO,139.2548210836917,return,2
BMu37,16,C,INI,Trunk_Forward,1,L_EO,145.23278997237782,bending,3
BMu37,16,C,INI,Trunk_Forward,1,L_EO,135.3618416987102,return,3
BMu37,16,C,INI,Trunk_Forward,1,R_EO,30.71048266239622,bending,1
BMu37,16,C,INI,Trunk_Forward,1,R_EO,108.56603006743227,return,1
BMu37,16,C,INI,Trunk_Forward,1,R_EO,107.45054651009137,bending,2
BMu37,16,C,INI,Trunk_Forward,1,R_EO,121.78592309111177,return,2
BMu37,16,C,INI,Trunk_Forward,1,R_EO,130.8908454560117,bending,3
BMu37,16,C,INI,Trunk_Forward,1,R_EO,86.69972935818964,return,3
BMu37,16,C,REL,Trunk_Forward,1,L_EO,102.88486499190729,bending,1
BMu37,16,C,REL,Trunk_Forward,1,L_EO,126.07672640622371,return,1
BMu37,16,C,REL,Trunk_Forward,1,L_EO,119.30476035411682,bending,2
BMu37,16,C,REL,Trunk_Forward,1,L_EO,129.74352585980964,return,2
BMu37,16,C,REL,Trunk_Forward,1,L_EO,143.47192234307838,bending,3
BMu37,16,C,REL,Trunk_Forward,1,L_EO,137.6393744377882,return,3
BMu37,16,C,REL,Trunk_Forward,1,R_EO,97.91487611017331,bending,1
BMu37,16,C,REL,Trunk_Forward,1,R_EO,52.54433577498879,return,1
BMu37,16,C,REL,Trunk_Forward,1,R_EO,62.65456483210539,bending,2
BMu37,16,C,REL,Trunk_Forward,1,R_EO,57.05694897755559,return,2
BMu37,16,C,REL,Trunk_Forward,1,R_EO,105.61642252787298,bending,3
BMu37,16,C,REL,Trunk_Forward,1,R_EO,52.52970175442973,return,3
BMu37,17,P,INI,Trunk_Forward,1,L_EO,107.9516542191991,bending,1
BMu37,17,P,INI,Trunk_Forward,1,L_EO,80.01314376153627,return,1
BMu37,17,P,INI,Trunk_Forward,1,L_EO,93.72877854825,bending,2
BMu37,17,P,INI,Trunk_Forward,1,L_EO,83.91047638846662,return,2
BMu37,17,P,INI,Trunk_Forward,1,L_EO,81.29543297845498,bending,3
BMu37,17,P,INI,Trunk_Forward,1,L_EO,87.37740858186552,return,3
BMu37,17,P,INI,Trunk_Forward,1,R_EO,109.25123209407086,bending,1
BMu37,17,P,INI,Trunk_Forward,1,R_EO,113.42065821226528,return,1
BMu37,17,P,INI,Trunk_Forward,1,R_EO,111.78176776995208,bending,2
BMu37,17,P,INI,Trunk_Forward,1,R_EO,111.60132217866702,return,2
BMu37,17,P,INI,Trunk_Forward,1,R_EO,112.33918321006827,bending,3
BMu37,17,P,INI,Trunk_Forward,1,R_EO,111.63360547342131,return,3
BMu37,17,P,REL,Trunk_Forward,1,L_EO,104.1920397631279,bending,1
BMu37,17,P,REL,Trunk_Forward,1,L_EO,103.00067381754246,return,1
BMu37,17,P,REL,Trunk_Forward,1,L_EO,106.00110818944243,bending,2
BMu37,17,P,REL,Trunk_Forward,1,L_EO,97.9410938685867,return,2
BMu37,17,P,REL,Trunk_Forward,1,L_EO,104.20120659842732,bending,3
BMu37,17,P,REL,Trunk_Forward,1,L_EO,78.29931800318089,return,3
BMu37,17,P,REL,Trunk_Forward,1,R_EO,110.05834024500973,bending,1
BMu37,17,P,REL,Trunk_Forward,1,R_EO,109.26880162860007,return,1
BMu37,17,P,REL,Trunk_Forward,1,R_EO,109.95205038466086,bending,2
BMu37,17,P,REL,Trunk_Forward,1,R_EO,111.12756394363448,return,2
BMu37,17,P,REL,Trunk_Forward,1,R_EO,115.64511196103633,bending,3
BMu37,17,P,REL,Trunk_Forward,1,R_EO,113.22349086343604,return,3
BMu37,21,C,INI,Trunk_Forward,1,L_EO,98.33291722563816,bending,1
BMu37,21,C,INI,Trunk_Forward,1,L_EO,94.1569714611135,return,1
BMu37,21,C,INI,Trunk_Forward,1,L_EO,94.96181531048653,bending,2
BMu37,21,C,INI,Trunk_Forward,1,L_EO,99.55453427035732,return,2
BMu37,21,C,INI,Trunk_Forward,1,L_EO,108.09714996487034,bending,3
BMu37,21,C,INI,Trunk_Forward,1,L_EO,89.85053985946564,return,3
BMu37,21,C,INI,Trunk_Forward,1,R_EO,81.6710788452985,bending,1
BMu37,21,C,INI,Trunk_Forward,1,R_EO,84.50639907263275,return,1
BMu37,21,C,INI,Trunk_Forward,1,R_EO,85.41362893973285,bending,2
BMu37,21,C,INI,Trunk_Forward,1,R_EO,88.96066677769306,return,2
BMu37,21,C,INI,Trunk_Forward,1,R_EO,91.42185668152948,bending,3
BMu37,21,C,INI,Trunk_Forward,1,R_EO,84.48377062616734,return,3
BMu37,21,C,REL,Trunk_Forward,1,L_EO,107.05983339542884,bending,1
BMu37,21,C,REL,Trunk_Forward,1,L_EO,103.40938257968611,return,1
BMu37,21,C,REL,Trunk_Forward,1,L_EO,104.6092134910383,bending,2
BMu37,21,C,REL,Trunk_Forward,1,L_EO,100.25633078144827,return,2
BMu37,21,C,REL,Trunk_Forward,1,L_EO,80.53486799408545,bending,3
BMu37,21,C,REL,Trunk_Forward,1,L_EO,80.76862680041778,return,3
BMu37,21,C,REL,Trunk_Forward,1,R_EO,79.34252177870287,bending,1
BMu37,21,C,REL,Trunk_Forward,1,R_EO,73.92883701785179,return,1
BMu37,21,C,REL,Trunk_Forward,1,R_EO,78.30017261376378,bending,2
BMu37,21,C,REL,Trunk_Forward,1,R_EO,71.24479208113084,return,2
BMu37,21,C,REL,Trunk_Forward,1,R_EO,73.3938411854831,bending,3
BMu37,21,C,REL,Trunk_Forward,1,R_EO,71.11052521967402,return,3
BMu37,22,C,INI,Trunk_Forward,1,L_EO,108.17835938568825,bending,1
BMu37,22,C,INI,Trunk_Forward,1,L_EO,97.00054930668568,return,1
BMu37,22,C,INI,Trunk_Forward,1,L_EO,110.37272234300869,bending,2
BMu37,22,C,INI,Trunk_Forward,1,L_EO,98.79391080525147,return,2
BMu37,22,C,INI,Trunk_Forward,1,L_EO,107.7212702226188,bending,3
BMu37,22,C,INI,Trunk_Forward,1,L_EO,99.27859797384642,return,3
BMu37,22,C,INI,Trunk_Forward,1,R_EO,126.44306557289012,bending,1
BMu37,22,C,INI,Trunk_Forward,1,R_EO,124.60589288656377,return,1
BMu37,22,C,INI,Trunk_Forward,1,R_EO,120.74121232300199,bending,2
BMu37,22,C,INI,Trunk_Forward,1,R_EO,126.7090484606963,return,2
BMu37,22,C,INI,Trunk_Forward,1,R_EO,126.47843475773381,bending,3
BMu37,22,C,INI,Trunk_Forward,1,R_EO,120.16768373299657,return,3
BMu37,22,C,REL,Trunk_Forward,1,L_EO,115.36044746484401,bending,1
BMu37,22,C,REL,Trunk_Forward,1,L_EO,117.71118392242943,return,1
BMu37,22,C,REL,Trunk_Forward,1,L_EO,115.28210479075999,bending,2
BMu37,22,C,REL,Trunk_Forward,1,L_EO,118.34816572256096,return,2
BMu37,22,C,REL,Trunk_Forward,1,L_EO,112.56733977635994,bending,3
BMu37,22,C,REL,Trunk_Forward,1,L_EO,120.59107577019344,return,3
BMu37,22,C,REL,Trunk_Forward,1,R_EO,148.30581238677428,bending,1
BMu37,22,C,REL,Trunk_Forward,1,R_EO,144.9767243447937,return,1
BMu37,22,C,REL,Trunk_Forward,1,R_EO,147.01918729458635,bending,2
BMu37,22,C,REL,Trunk_Forward,1,R_EO,145.36490311842147,return,2
BMu37,22,C,REL,Trunk_Forward,1,R_EO,145.61046437966468,bending,3
BMu37,22,C,REL,Trunk_Forward,1,R_EO,138.80296879270568,return,3
BMu37,23,C,INI,Trunk_Forward,1,L_EO,120.06510924651357,bending,1
BMu37,23,C,INI,Trunk_Forward,1,L_EO,126.44914350279413,return,1
BMu37,23,C,INI,Trunk_Forward,1,L_EO,131.80528226084442,bending,2
BMu37,23,C,INI,Trunk_Forward,1,L_EO,125.30426823323003,return,2
BMu37,23,C,INI,Trunk_Forward,1,L_EO,132.05761887744322,bending,3
BMu37,23,C,INI,Trunk_Forward,1,L_EO,134.4291903766825,return,3
BMu37,23,C,INI,Trunk_Forward,1,R_EO,89.37098635254998,bending,1
BMu37,23,C,INI,Trunk_Forward,1,R_EO,98.18415981422986,return,1
BMu37,23,C,INI,Trunk_Forward,1,R_EO,97.14906453055308,bending,2
BMu37,23,C,INI,Trunk_Forward,1,R_EO,93.90789505299125,return,2
BMu37,23,C,INI,Trunk_Forward,1,R_EO,101.36767008909943,bending,3
BMu37,23,C,INI,Trunk_Forward,1,R_EO,85.92526281492206,return,3
BMu37,23,C,REL,Trunk_Forward,1,L_EO,101.29135694807553,bending,1
BMu37,23,C,REL,Trunk_Forward,1,L_EO,132.7021428024876,return,1
BMu37,23,C,REL,Trunk_Forward,1,L_EO,127.64874407886711,bending,2
BMu37,23,C,REL,Trunk_Forward,1,L_EO,141.34147249887616,return,2
BMu37,23,C,REL,Trunk_Forward,1,L_EO,112.31605768016244,bending,3
BMu37,23,C,REL,Trunk_Forward,1,L_EO,119.69407223689628,return,3
BMu37,23,C,REL,Trunk_Forward,1,R_EO,86.01089015011578,bending,1
BMu37,23,C,REL,Trunk_Forward,1,R_EO,86.36286211314095,return,1
BMu37,23,C,REL,Trunk_Forward,1,R_EO,91.40371577303713,bending,2
BMu37,23,C,REL,Trunk_Forward,1,R_EO,87.60892873054067,return,2
BMu37,23,C,REL,Trunk_Forward,1,R_EO,92.61275492591764,bending,3
BMu37,23,C,REL,Trunk_Forward,1,R_EO,76.19152537688551,return,3
BMu37,24,P,INI,Trunk_Forward,1,L_EO,108.3773953272191,bending,1
BMu37,24,P,INI,Trunk_Forward,1,L_EO,105.93478382488131,return,1
BMu37,24,P,INI,Trunk_Forward,1,L_EO,112.75257409076622,bending,2
BMu37,24,P,INI,Trunk_Forward,1,L_EO,108.18423535995849,return,2
BMu37,24,P,INI,Trunk_Forward,1,L_EO,110.279591919265,bending,3
BMu37,24,P,INI,Trunk_Forward,1,L_EO,112.71059501916011,return,3
BMu37,24,P,INI,Trunk_Forward,1,R_EO,133.99476751582014,bending,1
BMu37,24,P,INI,Trunk_Forward,1,R_EO,131.84178843614654,return,1
BMu37,24,P,INI,Trunk_Forward,1,R_EO,131.7114590072181,bending,2
BMu37,24,P,INI,Trunk_Forward,1,R_EO,132.5278062821329,return,2
BMu37,24,P,INI,Trunk_Forward,1,R_EO,133.23582144133093,bending,3
BMu37,24,P,INI,Trunk_Forward,1,R_EO,132.1675476506803,return,3
BMu37,24,P,REL,Trunk_Forward,1,L_EO,110.96046927054304,bending,1
BMu37,24,P,REL,Trunk_Forward,1,L_EO,107.13758739835743,return,1
BMu37,24,P,REL,Trunk_Forward,1,L_EO,110.3444539498496,bending,2
BMu37,24,P,REL,Trunk_Forward,1,L_EO,117.09166748379276,return,2
BMu37,24,P,REL,Trunk_Forward,1,L_EO,109.38013884174552,bending,3
BMu37,24,P,REL,Trunk_Forward,1,L_EO,111.68164578093129,return,3
BMu37,24,P,REL,Trunk_Forward,1,R_EO,125.0429753619345,bending,1
BMu37,24,P,REL,Trunk_Forward,1,R_EO,133.34291604042573,return,1
BMu37,24,P,REL,Trunk_Forward,1,R_EO,133.3468294108209,bending,2
BMu37,24,P,REL,Trunk_Forward,1,R_EO,134.97884408096914,return,2
BMu37,24,P,REL,Trunk_Forward,1,R_EO,130.85392616708114,bending,3
BMu37,24,P,REL,Trunk_Forward,1,R_EO,126.07548200875758,return,3
BMu37,25,C,INI,Trunk_Forward,1,L_EO,93.0674093753069,bending,1
BMu37,25,C,INI,Trunk_Forward,1,L_EO,103.3389004414153,return,1
BMu37,25,C,INI,Trunk_Forward,1,L_EO,97.30215355724293,bending,2
BMu37,25,C,INI,Trunk_Forward,1,L_EO,76.69640770620371,return,2
BMu37,25,C,INI,Trunk_Forward,1,L_EO,68.13925873746902,bending,3
BMu37,25,C,INI,Trunk_Forward,1,L_EO,75.34673493157484,return,3
BMu37,25,C,INI,Trunk_Forward,1,R_EO,66.11027190545695,bending,1
BMu37,25,C,INI,Trunk_Forward,1,R_EO,38.315041881971936,return,1
BMu37,25,C,INI,Trunk_Forward,1,R_EO,40.0131157825044,bending,2
BMu37,25,C,INI,Trunk_Forward,1,R_EO,26.14151643138239,return,2
BMu37,25,C,INI,Trunk_Forward,1,R_EO,37.232839193057806,bending,3
BMu37,25,C,INI,Trunk_Forward,1,R_EO,25.01390333379698,return,3
BMu37,25,C,REL,Trunk_Forward,1,L_EO,103.74143983005945,bending,1
BMu37,25,C,REL,Trunk_Forward,1,L_EO,96.75477606075813,return,1
BMu37,25,C,REL,Trunk_Forward,1,L_EO,103.44151029574607,bending,2
BMu37,25,C,REL,Trunk_Forward,1,L_EO,96.0152196504434,return,2
BMu37,25,C,REL,Trunk_Forward,1,L_EO,109.62184703566663,bending,3
BMu37,25,C,REL,Trunk_Forward,1,L_EO,96.94330533181487,return,3
BMu37,25,C,REL,Trunk_Forward,1,R_EO,89.72258323370909,bending,1
BMu37,25,C,REL,Trunk_Forward,1,R_EO,44.7830595756558,return,1
BMu37,25,C,REL,Trunk_Forward,1,R_EO,80.33988779836584,bending,2
BMu37,25,C,REL,Trunk_Forward,1,R_EO,47.670480897590096,return,2
BMu37,25,C,REL,Trunk_Forward,1,R_EO,83.74896651379467,bending,3
BMu37,25,C,REL,Trunk_Forward,1,R_EO,50.6794066129757,return,3
BMu37,26,P,INI,Trunk_Forward,1,L_EO,61.33650914036648,bending,1
BMu37,26,P,INI,Trunk_Forward,1,L_EO,49.23386631930497,return,1
BMu37,26,P,INI,Trunk_Forward,1,L_EO,54.945359934175485,bending,2
BMu37,26,P,INI,Trunk_Forward,1,L_EO,60.14862004087032,return,2
BMu37,26,P,INI,Trunk_Forward,1,L_EO,58.275446547411974,bending,3
BMu37,26,P,INI,Trunk_Forward,1,L_EO,55.74278600731007,return,3
BMu37,26,P,INI,Trunk_Forward,1,R_EO,72.7664016869393,bending,1
BMu37,26,P,INI,Trunk_Forward,1,R_EO,67.28937014098352,return,1
BMu37,26,P,INI,Trunk_Forward,1,R_EO,64.31791780639313,bending,2
BMu37,26,P,INI,Trunk_Forward,1,R_EO,75.62084755006236,return,2
BMu37,26,P,INI,Trunk_Forward,1,R_EO,69.99595488547826,bending,3
BMu37,26,P,INI,Trunk_Forward,1,R_EO,68.9786035218562,return,3
BMu37,26,P,REL,Trunk_Forward,1,L_EO,56.46541788721256,bending,1
BMu37,26,P,REL,Trunk_Forward,1,L_EO,42.929517099663215,return,1
BMu37,26,P,REL,Trunk_Forward,1,L_EO,59.22364123620257,bending,2
BMu37,26,P,REL,Trunk_Forward,1,L_EO,72.03762762854693,return,2
BMu37,26,P,REL,Trunk_Forward,1,L_EO,55.020762835129446,bending,3
BMu37,26,P,REL,Trunk_Forward,1,L_EO,86.23197647092039,return,3
BMu37,26,P,REL,Trunk_Forward,1,R_EO,36.84787342119042,bending,1
BMu37,26,P,REL,Trunk_Forward,1,R_EO,38.079015122537434,return,1
BMu37,26,P,REL,Trunk_Forward,1,R_EO,38.68483460484,bending,2
BMu37,26,P,REL,Trunk_Forward,1,R_EO,36.74206182334806,return,2
BMu37,26,P,REL,Trunk_Forward,1,R_EO,32.625915691223895,bending,3
BMu37,26,P,REL,Trunk_Forward,1,R_EO,32.382054131105164,return,3
BMu37,27,P,INI,Trunk_Forward,1,L_EO,92.15876741894056,bending,1
BMu37,27,P,INI,Trunk_Forward,1,L_EO,101.57016629865797,return,1
BMu37,27,P,INI,Trunk_Forward,1,L_EO,102.28250048839438,bending,2
BMu37,27,P,INI,Trunk_Forward,1,L_EO,103.78770862116487,return,2
BMu37,27,P,INI,Trunk_Forward,1,L_EO,99.96178517497748,bending,3
BMu37,27,P,INI,Trunk_Forward,1,L_EO,103.51440137977794,return,3
BMu37,27,P,INI,Trunk_Forward,1,R_EO,93.97194379086443,bending,1
BMu37,27,P,INI,Trunk_Forward,1,R_EO,98.49819214321428,return,1
BMu37,27,P,INI,Trunk_Forward,1,R_EO,114.0472683686872,bending,2
BMu37,27,P,INI,Trunk_Forward,1,R_EO,110.24529809962065,return,2
BMu37,27,P,INI,Trunk_Forward,1,R_EO,109.93881797131503,bending,3
BMu37,27,P,INI,Trunk_Forward,1,R_EO,109.72029769408549,return,3
BMu37,27,P,REL,Trunk_Forward,1,L_EO,99.25167057652929,bending,1
BMu37,27,P,REL,Trunk_Forward,1,L_EO,104.31420577048505,return,1
BMu37,27,P,REL,Trunk_Forward,1,L_EO,99.45673129189235,bending,2
BMu37,27,P,REL,Trunk_Forward,1,L_EO,111.3223638952766,return,2
BMu37,27,P,REL,Trunk_Forward,1,L_EO,100.30190728392212,bending,3
BMu37,27,P,REL,Trunk_Forward,1,L_EO,99.39685046127677,return,3
BMu37,27,P,REL,Trunk_Forward,1,L_EO,96.10790152473945,bending,4
BMu37,27,P,REL,Trunk_Forward,1,L_EO,82.53150670593008,return,4
BMu37,27,P,REL,Trunk_Forward,1,R_EO,88.30403096728585,bending,1
BMu37,27,P,REL,Trunk_Forward,1,R_EO,68.01742008711906,return,1
BMu37,27,P,REL,Trunk_Forward,1,R_EO,56.306886312353406,bending,2
BMu37,27,P,REL,Trunk_Forward,1,R_EO,78.51716033470395,return,2
BMu37,27,P,REL,Trunk_Forward,1,R_EO,102.9328337300197,bending,3
BMu37,27,P,REL,Trunk_Forward,1,R_EO,43.47306396959418,return,3
BMu37,27,P,REL,Trunk_Forward,1,R_EO,70.54653577078388,bending,4
BMu37,27,P,REL,Trunk_Forward,1,R_EO,55.8749859970321,return,4
BMu37,28,P,INI,Trunk_Forward,1,L_EO,102.27035417698015,bending,1
BMu37,28,P,INI,Trunk_Forward,1,L_EO,98.13549904032072,return,1
BMu37,28,P,INI,Trunk_Forward,1,L_EO,100.46265742933542,bending,2
BMu37,28,P,INI,Trunk_Forward,1,L_EO,98.73262173797713,return,2
BMu37,28,P,INI,Trunk_Forward,1,L_EO,94.47972126068387,bending,3
BMu37,28,P,INI,Trunk_Forward,1,L_EO,104.78240084074342,return,3
BMu37,28,P,INI,Trunk_Forward,1,R_EO,120.88419740224295,bending,1
BMu37,28,P,INI,Trunk_Forward,1,R_EO,122.22564201894144,return,1
BMu37,28,P,INI,Trunk_Forward,1,R_EO,124.75944400260367,bending,2
BMu37,28,P,INI,Trunk_Forward,1,R_EO,117.3489811175317,return,2
BMu37,28,P,INI,Trunk_Forward,1,R_EO,111.84341252037936,bending,3
BMu37,28,P,INI,Trunk_Forward,1,R_EO,113.82971482470862,return,3
BMu37,28,P,REL,Trunk_Forward,1,L_EO,102.34351360019262,bending,1
BMu37,28,P,REL,Trunk_Forward,1,L_EO,101.30029140852037,return,1
BMu37,28,P,REL,Trunk_Forward,1,L_EO,109.03362080874714,bending,2
BMu37,28,P,REL,Trunk_Forward,1,L_EO,100.68500499931392,return,2
BMu37,28,P,REL,Trunk_Forward,1,L_EO,103.1808553163976,bending,3
BMu37,28,P,REL,Trunk_Forward,1,L_EO,101.39168616147948,return,3
BMu37,28,P,REL,Trunk_Forward,1,R_EO,114.38438046407252,bending,1
BMu37,28,P,REL,Trunk_Forward,1,R_EO,112.61901097340235,return,1
BMu37,28,P,REL,Trunk_Forward,1,R_EO,117.83602693992044,bending,2
BMu37,28,P,REL,Trunk_Forward,1,R_EO,113.65454063088424,return,2
BMu37,28,P,REL,Trunk_Forward,1,R_EO,115.96430588894981,bending,3
BMu37,28,P,REL,Trunk_Forward,1,R_EO,112.91145226306767,return,3
BMu37,29,P,INI,Trunk_Forward,1,L_EO,97.68841374345448,bending,1
BMu37,29,P,INI,Trunk_Forward,1,L_EO,95.74629853898992,return,1
BMu37,29,P,INI,Trunk_Forward,1,L_EO,93.0797963100456,bending,2
BMu37,29,P,INI,Trunk_Forward,1,L_EO,96.39569632813028,return,2
BMu37,29,P,INI,Trunk_Forward,1,L_EO,94.98510776286643,bending,3
BMu37,29,P,INI,Trunk_Forward,1,L_EO,91.37246676467393,return,3
BMu37,29,P,INI,Trunk_Forward,1,R_EO,92.16747513057193,bending,1
BMu37,29,P,INI,Trunk_Forward,1,R_EO,95.76168411018321,return,1
BMu37,29,P,INI,Trunk_Forward,1,R_EO,95.17515240045333,bending,2
BMu37,29,P,INI,Trunk_Forward,1,R_EO,99.65305662326656,return,2
BMu37,29,P,INI,Trunk_Forward,1,R_EO,99.06470533539695,bending,3
BMu37,29,P,INI,Trunk_Forward,1,R_EO,95.51858791472534,return,3
BMu37,29,P,REL,Trunk_Forward,1,L_EO,91.16674968787628,bending,1
BMu37,29,P,REL,Trunk_Forward,1,L_EO,93.55260150703326,return,1
BMu37,29,P,REL,Trunk_Forward,1,L_EO,99.45500598562286,bending,2
BMu37,29,P,REL,Trunk_Forward,1,L_EO,88.16246207784823,return,2
BMu37,29,P,REL,Trunk_Forward,1,L_EO,99.30432250650226,bending,3
BMu37,29,P,REL,Trunk_Forward,1,L_EO,89.45428622744595,return,3
BMu37,29,P,REL,Trunk_Forward,1,R_EO,104.70642077003352,bending,1
BMu37,29,P,REL,Trunk_Forward,1,R_EO,105.25897611176067,return,1
BMu37,29,P,REL,Trunk_Forward,1,R_EO,98.72875729115577,bending,2
BMu37,29,P,REL,Trunk_Forward,1,R_EO,92.17970560846514,return,2
BMu37,29,P,REL,Trunk_Forward,1,R_EO,102.61316096110279,bending,3
BMu37,29,P,REL,Trunk_Forward,1,R_EO,91.84021556902094,return,3
BMu37,30,P,INI,Trunk_Forward,1,L_EO,140.80152945507146,bending,1
BMu37,30,P,INI,Trunk_Forward,1,L_EO,138.73756484373465,return,1
BMu37,30,P,INI,Trunk_Forward,1,L_EO,146.95922347717007,bending,2
BMu37,30,P,INI,Trunk_Forward,1,L_EO,137.07469391671708,return,2
BMu37,30,P,INI,Trunk_Forward,1,L_EO,145.34181249717304,bending,3
BMu37,30,P,INI,Trunk_Forward,1,L_EO,135.1558117712837,return,3
BMu37,30,P,INI,Trunk_Forward,1,R_EO,100.34543303197205,bending,1
BMu37,30,P,INI,Trunk_Forward,1,R_EO,93.47023112979352,return,1
BMu37,30,P,INI,Trunk_Forward,1,R_EO,117.62315057688966,bending,2
BMu37,30,P,INI,Trunk_Forward,1,R_EO,75.57968652734239,return,2
BMu37,30,P,INI,Trunk_Forward,1,R_EO,74.79460987482962,bending,3
BMu37,30,P,INI,Trunk_Forward,1,R_EO,83.55012508676104,return,3
BMu37,30,P,REL,Trunk_Forward,1,L_EO,140.664206210192,bending,1
BMu37,30,P,REL,Trunk_Forward,1,L_EO,111.80273312750974,return,1
BMu37,30,P,REL,Trunk_Forward,1,L_EO,139.15795259597857,bending,2
BMu37,30,P,REL,Trunk_Forward,1,L_EO,134.0820148834286,return,2
BMu37,30,P,REL,Trunk_Forward,1,L_EO,149.50625713375837,bending,3
BMu37,30,P,REL,Trunk_Forward,1,L_EO,143.69879982508667,return,3
BMu37,30,P,REL,Trunk_Forward,1,R_EO,92.01674765983631,bending,1
BMu37,30,P,REL,Trunk_Forward,1,R_EO,44.00396806727421,return,1
BMu37,30,P,REL,Trunk_Forward,1,R_EO,61.032869670578734,bending,2
BMu37,30,P,REL,Trunk_Forward,1,R_EO,75.77863839931008,return,2
BMu37,30,P,REL,Trunk_Forward,1,R_EO,71.28514483484423,bending,3
BMu37,30,P,REL,Trunk_Forward,1,R_EO,85.30086944923161,return,3
BMu37,32,P,INI,Trunk_Forward,1,L_EO,126.6812136281121,bending,1
BMu37,32,P,INI,Trunk_Forward,1,L_EO,131.2462035145032,return,1
BMu37,32,P,INI,Trunk_Forward,1,L_EO,130.71631164611284,bending,2
BMu37,32,P,INI,Trunk_Forward,1,L_EO,133.16812302328543,return,2
BMu37,32,P,INI,Trunk_Forward,1,L_EO,135.2952983380641,bending,3
BMu37,32,P,INI,Trunk_Forward,1,L_EO,126.48129482676526,return,3
BMu37,32,P,INI,Trunk_Forward,1,R_EO,118.12171836106462,bending,1
BMu37,32,P,INI,Trunk_Forward,1,R_EO,123.88381515987639,return,1
BMu37,32,P,INI,Trunk_Forward,1,R_EO,128.38340319069724,bending,2
BMu37,32,P,INI,Trunk_Forward,1,R_EO,129.38720291785162,return,2
BMu37,32,P,INI,Trunk_Forward,1,R_EO,125.36643877642754,bending,3
BMu37,32,P,INI,Trunk_Forward,1,R_EO,124.0377009892642,return,3
BMu37,32,P,REL,Trunk_Forward,1,L_EO,47.89903521835016,bending,1
BMu37,32,P,REL,Trunk_Forward,1,L_EO,67.96212671985398,return,1
BMu37,32,P,REL,Trunk_Forward,1,L_EO,108.6087266631285,bending,2
BMu37,32,P,REL,Trunk_Forward,1,L_EO,122.84542241273013,return,2
BMu37,32,P,REL,Trunk_Forward,1,L_EO,99.55434569156405,bending,3
BMu37,32,P,REL,Trunk_Forward,1,L_EO,96.14811780958416,return,3
BMu37,32,P,REL,Trunk_Forward,1,L_EO,97.182184590848,bending,4
BMu37,32,P,REL,Trunk_Forward,1,L_EO,101.33483070900681,return,4
BMu37,32,P,REL,Trunk_Forward,1,R_EO,112.48935701331568,bending,1
BMu37,32,P,REL,Trunk_Forward,1,R_EO,134.44061221714873,return,1
BMu37,32,P,REL,Trunk_Forward,1,R_EO,131.57251911610047,bending,2
BMu37,32,P,REL,Trunk_Forward,1,R_EO,134.3485768320325,return,2
BMu37,32,P,REL,Trunk_Forward,1,R_EO,137.97364341643146,bending,3
BMu37,32,P,REL,Trunk_Forward,1,R_EO,135.58136813069805,return,3
BMu37,32,P,REL,Trunk_Forward,1,R_EO,135.19856754134656,bending,4
BMu37,32,P,REL,Trunk_Forward,1,R_EO,112.42631382295957,return,4
BMu37,33,P,INI,Trunk_Forward,1,L_EO,65.15409795215508,bending,1
BMu37,33,P,INI,Trunk_Forward,1,L_EO,67.7877982454991,return,1
BMu37,33,P,INI,Trunk_Forward,1,L_EO,55.97879783119766,bending,2
BMu37,33,P,INI,Trunk_Forward,1,L_EO,64.13796486356362,return,2
BMu37,33,P,INI,Trunk_Forward,1,L_EO,51.61968178026008,bending,3
BMu37,33,P,INI,Trunk_Forward,1,L_EO,66.93085340903727,return,3
BMu37,33,P,INI,Trunk_Forward,1,L_EO,52.26463921904953,bending,4
BMu37,33,P,INI,Trunk_Forward,1,L_EO,66.59219073635715,return,4
BMu37,33,P,INI,Trunk_Forward,1,R_EO,84.46314230763213,bending,1
BMu37,33,P,INI,Trunk_Forward,1,R_EO,73.6013744912776,return,1
BMu37,33,P,INI,Trunk_Forward,1,R_EO,78.5592024248617,bending,2
BMu37,33,P,INI,Trunk_Forward,1,R_EO,67.84224307984833,return,2
BMu37,33,P,INI,Trunk_Forward,1,R_EO,77.73896674526725,bending,3
BMu37,33,P,INI,Trunk_Forward,1,R_EO,66.87307433914604,return,3
BMu37,33,P,INI,Trunk_Forward,1,R_EO,77.30367392713816,bending,4
BMu37,33,P,INI,Trunk_Forward,1,R_EO,71.5894719659197,return,4
BMu37,33,P,REL,Trunk_Forward,1,L_EO,64.4096794402775,bending,1
BMu37,33,P,REL,Trunk_Forward,1,L_EO,47.98617388003635,return,1
BMu37,33,P,REL,Trunk_Forward,1,L_EO,58.08976608007792,bending,2
BMu37,33,P,REL,Trunk_Forward,1,L_EO,33.325436302023114,return,2
BMu37,33,P,REL,Trunk_Forward,1,L_EO,49.5874884100525,bending,3
BMu37,33,P,REL,Trunk_Forward,1,L_EO,52.54886562991136,return,3
BMu37,33,P,REL,Trunk_Forward,1,R_EO,61.39491171499339,bending,1
BMu37,33,P,REL,Trunk_Forward,1,R_EO,62.55915170723334,return,1
BMu37,33,P,REL,Trunk_Forward,1,R_EO,73.83447233150564,bending,2
BMu37,33,P,REL,Trunk_Forward,1,R_EO,55.22294420369367,return,2
BMu37,33,P,REL,Trunk_Forward,1,R_EO,57.952532703033455,bending,3
BMu37,33,P,REL,Trunk_Forward,1,R_EO,64.77739890198073,return,3
BMu37,34,P,INI,Trunk_Forward,1,L_EO,67.64851467352118,bending,1
BMu37,34,P,INI,Trunk_Forward,1,L_EO,95.2337522720482,return,1
BMu37,34,P,INI,Trunk_Forward,1,L_EO,96.27473659601878,bending,2
BMu37,34,P,INI,Trunk_Forward,1,L_EO,98.2461754190626,return,2
BMu37,34,P,INI,Trunk_Forward,1,L_EO,90.45725054987656,bending,3
BMu37,34,P,INI,Trunk_Forward,1,L_EO,87.27993422900832,return,3
BMu37,34,P,INI,Trunk_Forward,1,R_EO,90.7550103894349,bending,1
BMu37,34,P,INI,Trunk_Forward,1,R_EO,90.61530358056882,return,1
BMu37,34,P,INI,Trunk_Forward,1,R_EO,97.74392699863803,bending,2
BMu37,34,P,INI,Trunk_Forward,1,R_EO,94.58063657744833,return,2
BMu37,34,P,INI,Trunk_Forward,1,R_EO,100.46282503060257,bending,3
BMu37,34,P,INI,Trunk_Forward,1,R_EO,82.98043822643398,return,3
BMu37,34,P,REL,Trunk_Forward,1,L_EO,106.84626109322726,bending,1
BMu37,34,P,REL,Trunk_Forward,1,L_EO,107.34040806684361,return,1
BMu37,34,P,REL,Trunk_Forward,1,L_EO,108.30375260741599,bending,2
BMu37,34,P,REL,Trunk_Forward,1,L_EO,108.49264007788172,return,2
BMu37,34,P,REL,Trunk_Forward,1,L_EO,107.19583029585043,bending,3
BMu37,34,P,REL,Trunk_Forward,1,L_EO,104.48351328972748,return,3
BMu37,34,P,REL,Trunk_Forward,1,R_EO,82.29986390432545,bending,1
BMu37,34,P,REL,Trunk_Forward,1,R_EO,86.40911770901853,return,1
BMu37,34,P,REL,Trunk_Forward,1,R_EO,84.71330378957411,bending,2
BMu37,34,P,REL,Trunk_Forward,1,R_EO,86.04821037647628,return,2
BMu37,34,P,REL,Trunk_Forward,1,R_EO,86.07863262278137,bending,3
BMu37,34,P,REL,Trunk_Forward,1,R_EO,82.97151680072511,return,3
BMu37,35,C,INI,Trunk_Forward,1,L_EO,51.18769951139124,bending,1
BMu37,35,C,INI,Trunk_Forward,1,L_EO,103.6396541158172,return,1
BMu37,35,C,INI,Trunk_Forward,1,L_EO,104.57058110562916,bending,2
BMu37,35,C,INI,Trunk_Forward,1,L_EO,109.19129944852949,return,2
BMu37,35,C,INI,Trunk_Forward,1,L_EO,113.56234569821494,bending,3
BMu37,35,C,INI,Trunk_Forward,1,L_EO,112.77958959711802,return,3
BMu37,35,C,INI,Trunk_Forward,1,R_EO,92.06026777889146,bending,1
BMu37,35,C,INI,Trunk_Forward,1,R_EO,84.67648701733432,return,1
BMu37,35,C,INI,Trunk_Forward,1,R_EO,66.45455505320682,bending,2
BMu37,35,C,INI,Trunk_Forward,1,R_EO,115.46439069961718,return,2
BMu37,35,C,INI,Trunk_Forward,1,R_EO,105.14173598082493,bending,3
BMu37,35,C,INI,Trunk_Forward,1,R_EO,117.48566040374743,return,3
BMu37,35,C,REL,Trunk_Forward,1,L_EO,96.15321124261091,bending,1
BMu37,35,C,REL,Trunk_Forward,1,L_EO,51.4401566028942,return,1
BMu37,35,C,REL,Trunk_Forward,1,L_EO,107.1657267283084,bending,2
BMu37,35,C,REL,Trunk_Forward,1,L_EO,49.80710329675274,return,2
BMu37,35,C,REL,Trunk_Forward,1,L_EO,104.93771696738722,bending,3
BMu37,35,C,REL,Trunk_Forward,1,L_EO,88.45113875219171,return,3
BMu37,35,C,REL,Trunk_Forward,1,R_EO,78.23196467307392,bending,1
BMu37,35,C,REL,Trunk_Forward,1,R_EO,87.5161328533017,return,1
BMu37,35,C,REL,Trunk_Forward,1,R_EO,97.5224860826024,bending,2
BMu37,35,C,REL,Trunk_Forward,1,R_EO,78.51514994547657,return,2
BMu37,35,C,REL,Trunk_Forward,1,R_EO,107.94276465554334,bending,3
BMu37,35,C,REL,Trunk_Forward,1,R_EO,107.13765271248263,return,3
BMu37,36,P,INI,Trunk_Forward,1,L_EO,100.73726332228387,bending,1
BMu37,36,P,INI,Trunk_Forward,1,L_EO,81.87726883703571,return,1
BMu37,36,P,INI,Trunk_Forward,1,L_EO,95.79943972296239,bending,2
BMu37,36,P,INI,Trunk_Forward,1,L_EO,94.9197299372165,return,2
BMu37,36,P,INI,Trunk_Forward,1,L_EO,98.87733153817035,bending,3
BMu37,36,P,INI,Trunk_Forward,1,L_EO,92.11497300058848,return,3
BMu37,36,P,INI,Trunk_Forward,1,R_EO,112.94812205754239,bending,1
BMu37,36,P,INI,Trunk_Forward,1,R_EO,110.44086957446632,return,1
BMu37,36,P,INI,Trunk_Forward,1,R_EO,108.6528654750434,bending,2
BMu37,36,P,INI,Trunk_Forward,1,R_EO,106.938154820239,return,2
BMu37,36,P,INI,Trunk_Forward,1,R_EO,121.3709120940333,bending,3
BMu37,36,P,INI,Trunk_Forward,1,R_EO,122.54457931724737,return,3
BMu37,36,P,REL,Trunk_Forward,1,L_EO,98.93447629055237,bending,1
BMu37,36,P,REL,Trunk_Forward,1,L_EO,87.36896101619749,return,1
BMu37,36,P,REL,Trunk_Forward,1,L_EO,91.26841490588444,bending,2
BMu37,36,P,REL,Trunk_Forward,1,L_EO,88.7600816482158,return,2
BMu37,36,P,REL,Trunk_Forward,1,L_EO,93.66023152521656,bending,3
BMu37,36,P,REL,Trunk_Forward,1,L_EO,84.86825298476084,return,3
BMu37,36,P,REL,Trunk_Forward,1,R_EO,114.48445158565443,bending,1
BMu37,36,P,REL,Trunk_Forward,1,R_EO,106.00764484233672,return,1
BMu37,36,P,REL,Trunk_Forward,1,R_EO,102.48602956378437,bending,2
BMu37,36,P,REL,Trunk_Forward,1,R_EO,99.51192383539976,return,2
BMu37,36,P,REL,Trunk_Forward,1,R_EO,88.72307401603193,bending,3
BMu37,36,P,REL,Trunk_Forward,1,R_EO,95.41832148965788,return,3
BMu37,38,C,INI,Trunk_Forward,1,L_EO,98.3808804523397,bending,1
BMu37,38,C,INI,Trunk_Forward,1,L_EO,114.21978070365037,return,1
BMu37,38,C,INI,Trunk_Forward,1,L_EO,50.07105252163009,bending,2
BMu37,38,C,INI,Trunk_Forward,1,L_EO,61.7817072457211,return,2
BMu37,38,C,INI,Trunk_Forward,1,L_EO,69.17732985697532,bending,3
BMu37,38,C,INI,Trunk_Forward,1,L_EO,69.36770574017193,return,3
BMu37,38,C,INI,Trunk_Forward,1,R_EO,75.56309459753521,bending,1
BMu37,38,C,INI,Trunk_Forward,1,R_EO,87.50848236258187,return,1
BMu37,38,C,INI,Trunk_Forward,1,R_EO,83.90664423262477,bending,2
BMu37,38,C,INI,Trunk_Forward,1,R_EO,53.31580432046542,return,2
BMu37,38,C,INI,Trunk_Forward,1,R_EO,42.04654588489734,bending,3
BMu37,38,C,INI,Trunk_Forward,1,R_EO,86.7583130969266,return,3
BMu37,38,C,REL,Trunk_Forward,1,L_EO,92.90397971710348,bending,1
BMu37,38,C,REL,Trunk_Forward,1,L_EO,94.93324855367996,return,1
BMu37,38,C,REL,Trunk_Forward,1,L_EO,96.80710898591089,bending,2
BMu37,38,C,REL,Trunk_Forward,1,L_EO,80.10281393275156,return,2
BMu37,38,C,REL,Trunk_Forward,1,L_EO,91.86232232032376,bending,3
BMu37,38,C,REL,Trunk_Forward,1,L_EO,98.50107783504701,return,3
BMu37,38,C,REL,Trunk_Forward,1,R_EO,103.58585268567064,bending,1
BMu37,38,C,REL,Trunk_Forward,1,R_EO,103.98887768586962,return,1
BMu37,38,C,REL,Trunk_Forward,1,R_EO,105.43141026695288,bending,2
BMu37,38,C,REL,Trunk_Forward,1,R_EO,105.56629853125031,return,2
BMu37,38,C,REL,Trunk_Forward,1,R_EO,104.02081662225254,bending,3
BMu37,38,C,REL,Trunk_Forward,1,R_EO,111.21272163186887,return,3
BMu37,39,C,INI,Trunk_Forward,1,L_EO,35.01264821540754,bending,1
BMu37,39,C,INI,Trunk_Forward,1,L_EO,44.22943470099065,return,1
BMu37,39,C,INI,Trunk_Forward,1,L_EO,38.09668334528567,bending,2
BMu37,39,C,INI,Trunk_Forward,1,L_EO,42.92721409911711,return,2
BMu37,39,C,INI,Trunk_Forward,1,L_EO,30.497211392619477,bending,3
BMu37,39,C,INI,Trunk_Forward,1,L_EO,35.55134908246446,return,3
BMu37,39,C,INI,Trunk_Forward,1,R_EO,33.45620533676915,bending,1
BMu37,39,C,INI,Trunk_Forward,1,R_EO,29.747181233440475,return,1
BMu37,39,C,INI,Trunk_Forward,1,R_EO,40.03509569529303,bending,2
BMu37,39,C,INI,Trunk_Forward,1,R_EO,43.43378616861073,return,2
BMu37,39,C,INI,Trunk_Forward,1,R_EO,46.18168036605638,bending,3
BMu37,39,C,INI,Trunk_Forward,1,R_EO,37.74747786028651,return,3
BMu37,39,C,REL,Trunk_Forward,1,L_EO,99.17900823357398,bending,1
BMu37,39,C,REL,Trunk_Forward,1,L_EO,65.18164554405774,return,1
BMu37,39,C,REL,Trunk_Forward,1,L_EO,80.7043903154634,bending,2
BMu37,39,C,REL,Trunk_Forward,1,L_EO,60.70067854783317,return,2
BMu37,39,C,REL,Trunk_Forward,1,L_EO,60.7803008701432,bending,3
BMu37,39,C,REL,Trunk_Forward,1,L_EO,64.6671292868253,return,3
BMu37,39,C,REL,Trunk_Forward,1,R_EO,58.228540836754085,bending,1
BMu37,39,C,REL,Trunk_Forward,1,R_EO,67.13517104376783,return,1
BMu37,39,C,REL,Trunk_Forward,1,R_EO,37.576827003823034,bending,2
BMu37,39,C,REL,Trunk_Forward,1,R_EO,39.90962395438137,return,2
BMu37,39,C,REL,Trunk_Forward,1,R_EO,48.87764514249273,bending,3
BMu37,39,C,REL,Trunk_Forward,1,R_EO,76.39381448142436,return,3
BMu37,40,C,INI,Trunk_Forward,1,L_EO,52.64644502847841,bending,1
BMu37,40,C,INI,Trunk_Forward,1,L_EO,47.727272882838946,return,1
BMu37,40,C,INI,Trunk_Forward,1,L_EO,56.766658680578054,bending,2
BMu37,40,C,INI,Trunk_Forward,1,L_EO,74.04026208174243,return,2
BMu37,40,C,INI,Trunk_Forward,1,L_EO,41.71693781927276,bending,3
BMu37,40,C,INI,Trunk_Forward,1,L_EO,67.99843332966194,return,3
BMu37,40,C,INI,Trunk_Forward,1,R_EO,66.57796894492377,bending,1
BMu37,40,C,INI,Trunk_Forward,1,R_EO,54.65030154321988,return,1
BMu37,40,C,INI,Trunk_Forward,1,R_EO,52.46829569563514,bending,2
BMu37,40,C,INI,Trunk_Forward,1,R_EO,58.72576522482725,return,2
BMu37,40,C,INI,Trunk_Forward,1,R_EO,77.97391953465679,bending,3
BMu37,40,C,INI,Trunk_Forward,1,R_EO,77.99895058797424,return,3
BMu37,40,C,REL,Trunk_Forward,1,L_EO,66.34640192083938,bending,1
BMu37,40,C,REL,Trunk_Forward,1,L_EO,65.01748771578883,return,1
BMu37,40,C,REL,Trunk_Forward,1,L_EO,86.58742393254936,bending,2
BMu37,40,C,REL,Trunk_Forward,1,L_EO,56.33300839525947,return,2
BMu37,40,C,REL,Trunk_Forward,1,L_EO,99.61488448233334,bending,3
BMu37,40,C,REL,Trunk_Forward,1,L_EO,67.34411976197167,return,3
BMu37,40,C,REL,Trunk_Forward,1,R_EO,87.15865594308386,bending,1
BMu37,40,C,REL,Trunk_Forward,1,R_EO,75.69278832833145,return,1
BMu37,40,C,REL,Trunk_Forward,1,R_EO,101.03498455876274,bending,2
BMu37,40,C,REL,Trunk_Forward,1,R_EO,82.34161305110483,return,2
BMu37,40,C,REL,Trunk_Forward,1,R_EO,102.28957865055779,bending,3
BMu37,40,C,REL,Trunk_Forward,1,R_EO,88.01145829746507,return,3
BMu37,41,P,INI,Trunk_Forward,1,L_EO,93.54682863796957,bending,1
BMu37,41,P,INI,Trunk_Forward,1,L_EO,72.5010430638529,return,1
BMu37,41,P,INI,Trunk_Forward,1,L_EO,98.62954932403497,bending,2
BMu37,41,P,INI,Trunk_Forward,1,L_EO,99.04242641650792,return,2
BMu37,41,P,INI,Trunk_Forward,1,L_EO,98.44050392776381,bending,3
BMu37,41,P,INI,Trunk_Forward,1,L_EO,104.47011223286663,return,3
BMu37,41,P,INI,Trunk_Forward,1,R_EO,118.94986531511192,bending,1
BMu37,41,P,INI,Trunk_Forward,1,R_EO,120.06972371633529,return,1
BMu37,41,P,INI,Trunk_Forward,1,R_EO,132.07488560659283,bending,2
BMu37,41,P,INI,Trunk_Forward,1,R_EO,125.46346394032714,return,2
BMu37,41,P,INI,Trunk_Forward,1,R_EO,127.9980834581551,bending,3
BMu37,41,P,INI,Trunk_Forward,1,R_EO,126.23359422618148,return,3
BMu37,41,P,REL,Trunk_Forward,1,L_EO,103.90538182021936,bending,1
BMu37,41,P,REL,Trunk_Forward,1,L_EO,106.80184890627011,return,1
BMu37,41,P,REL,Trunk_Forward,1,L_EO,102.12587690646653,bending,2
BMu37,41,P,REL,Trunk_Forward,1,L_EO,105.63865942417088,return,2
BMu37,41,P,REL,Trunk_Forward,1,L_EO,100.89552324892867,bending,3
BMu37,41,P,REL,Trunk_Forward,1,L_EO,108.61551407340426,return,3
BMu37,41,P,REL,Trunk_Forward,1,R_EO,122.84710842086727,bending,1
BMu37,41,P,REL,Trunk_Forward,1,R_EO,126.24483818377124,return,1
BMu37,41,P,REL,Trunk_Forward,1,R_EO,116.12186529706884,bending,2
BMu37,41,P,REL,Trunk_Forward,1,R_EO,127.80742182068276,return,2
BMu37,41,P,REL,Trunk_Forward,1,R_EO,127.78783568647685,bending,3
BMu37,41,P,REL,Trunk_Forward,1,R_EO,125.5794201314563,return,3
BMu37,42,P,INI,Trunk_Forward,1,L_EO,93.4821420489586,bending,1
BMu37,42,P,INI,Trunk_Forward,1,L_EO,98.30019396502769,return,1
BMu37,42,P,INI,Trunk_Forward,1,L_EO,95.57447032370483,bending,2
BMu37,42,P,INI,Trunk_Forward,1,L_EO,101.215258296187,return,2
BMu37,42,P,INI,Trunk_Forward,1,L_EO,100.52065994930129,bending,3
BMu37,42,P,INI,Trunk_Forward,1,L_EO,103.62275098483188,return,3
BMu37,42,P,INI,Trunk_Forward,1,R_EO,104.59170722197585,bending,1
BMu37,42,P,INI,Trunk_Forward,1,R_EO,76.2903143249498,return,1
BMu37,42,P,INI,Trunk_Forward,1,R_EO,100.86340121700253,bending,2
BMu37,42,P,INI,Trunk_Forward,1,R_EO,102.61554151758406,return,2
BMu37,42,P,INI,Trunk_Forward,1,R_EO,111.22199526179406,bending,3
BMu37,42,P,INI,Trunk_Forward,1,R_EO,100.9075379190194,return,3
BMu37,42,P,REL,Trunk_Forward,1,L_EO,79.10993650509877,bending,1
BMu37,42,P,REL,Trunk_Forward,1,L_EO,103.11273074537692,return,1
BMu37,42,P,REL,Trunk_Forward,1,L_EO,67.11643891563791,bending,2
BMu37,42,P,REL,Trunk_Forward,1,L_EO,87.28483327818074,return,2
BMu37,42,P,REL,Trunk_Forward,1,L_EO,66.40272331161138,bending,3
BMu37,42,P,REL,Trunk_Forward,1,L_EO,95.85643318327827,return,3
BMu37,42,P,REL,Trunk_Forward,1,R_EO,90.27690454445839,bending,1
BMu37,42,P,REL,Trunk_Forward,1,R_EO,98.08445572990665,return,1
BMu37,42,P,REL,Trunk_Forward,1,R_EO,94.59691669898068,bending,2
BMu37,42,P,REL,Trunk_Forward,1,R_EO,86.82800161824508,return,2
BMu37,42,P,REL,Trunk_Forward,1,R_EO,91.62862895349289,bending,3
BMu37,42,P,REL,Trunk_Forward,1,R_EO,85.58322689415397,return,3
BMu37,43,P,INI,Trunk_Forward,1,L_EO,115.7183471136851,bending,1
BMu37,43,P,INI,Trunk_Forward,1,L_EO,41.060515295506676,return,1
BMu37,43,P,INI,Trunk_Forward,1,L_EO,98.0637380258078,bending,2
BMu37,43,P,INI,Trunk_Forward,1,L_EO,43.00442888228874,return,2
BMu37,43,P,INI,Trunk_Forward,1,L_EO,87.08810184980624,bending,3
BMu37,43,P,INI,Trunk_Forward,1,L_EO,87.55772636222989,return,3
BMu37,43,P,INI,Trunk_Forward,1,R_EO,115.55107748027984,bending,1
BMu37,43,P,INI,Trunk_Forward,1,R_EO,113.85684504716343,return,1
BMu37,43,P,INI,Trunk_Forward,1,R_EO,120.08691772203304,bending,2
BMu37,43,P,INI,Trunk_Forward,1,R_EO,113.11039033773153,return,2
BMu37,43,P,INI,Trunk_Forward,1,R_EO,105.26717565318344,bending,3
BMu37,43,P,INI,Trunk_Forward,1,R_EO,102.17194695792112,return,3
BMu37,43,P,REL,Trunk_Forward,1,L_EO,70.94130068495998,bending,1
BMu37,43,P,REL,Trunk_Forward,1,L_EO,79.25923453940632,return,1
BMu37,43,P,REL,Trunk_Forward,1,L_EO,88.89557152274259,bending,2
BMu37,43,P,REL,Trunk_Forward,1,L_EO,81.50456662963134,return,2
BMu37,43,P,REL,Trunk_Forward,1,L_EO,82.39690223003511,bending,3
BMu37,43,P,REL,Trunk_Forward,1,L_EO,81.3918374049693,return,3
BMu37,43,P,REL,Trunk_Forward,1,R_EO,113.5248533839543,bending,1
BMu37,43,P,REL,Trunk_Forward,1,R_EO,80.12118133237924,return,1
BMu37,43,P,REL,Trunk_Forward,1,R_EO,107.50478785695995,bending,2
BMu37,43,P,REL,Trunk_Forward,1,R_EO,84.07775616439962,return,2
BMu37,43,P,REL,Trunk_Forward,1,R_EO,90.59451577905295,bending,3
BMu37,43,P,REL,Trunk_Forward,1,R_EO,62.65060524089404,return,3
BMu37,44,C,INI,Trunk_Forward,1,L_EO,80.25240929334906,bending,1
BMu37,44,C,INI,Trunk_Forward,1,L_EO,58.211591465109045,return,1
BMu37,44,C,INI,Trunk_Forward,1,L_EO,74.42910106077466,bending,2
BMu37,44,C,INI,Trunk_Forward,1,L_EO,116.11270781017183,return,2
BMu37,44,C,INI,Trunk_Forward,1,L_EO,57.717274113695986,bending,3
BMu37,44,C,INI,Trunk_Forward,1,L_EO,116.98360968797279,return,3
BMu37,44,C,INI,Trunk_Forward,1,R_EO,145.5324708586805,bending,1
BMu37,44,C,INI,Trunk_Forward,1,R_EO,140.84413405529324,return,1
BMu37,44,C,INI,Trunk_Forward,1,R_EO,140.56158025349941,bending,2
BMu37,44,C,INI,Trunk_Forward,1,R_EO,137.58079993899847,return,2
BMu37,44,C,INI,Trunk_Forward,1,R_EO,112.69956918447271,bending,3
BMu37,44,C,INI,Trunk_Forward,1,R_EO,116.40591281444202,return,3
BMu37,44,C,REL,Trunk_Forward,1,L_EO,73.1778203674683,bending,1
BMu37,44,C,REL,Trunk_Forward,1,L_EO,65.21022984408272,return,1
BMu37,44,C,REL,Trunk_Forward,1,L_EO,76.04488785253679,bending,2
BMu37,44,C,REL,Trunk_Forward,1,L_EO,85.25574129379166,return,2
BMu37,44,C,REL,Trunk_Forward,1,L_EO,121.77889561519609,bending,3
BMu37,44,C,REL,Trunk_Forward,1,L_EO,102.75231566718016,return,3
BMu37,44,C,REL,Trunk_Forward,1,R_EO,107.78241976537522,bending,1
BMu37,44,C,REL,Trunk_Forward,1,R_EO,102.18429036227657,return,1
BMu37,44,C,REL,Trunk_Forward,1,R_EO,108.45602763289916,bending,2
BMu37,44,C,REL,Trunk_Forward,1,R_EO,99.1882237588136,return,2
BMu37,44,C,REL,Trunk_Forward,1,R_EO,150.36726180739785,bending,3
BMu37,44,C,REL,Trunk_Forward,1,R_EO,139.31092523457693,return,3
BMu37,45,P,INI,Trunk_Forward,1,L_EO,124.53109894127196,bending,1
BMu37,45,P,INI,Trunk_Forward,1,L_EO,123.89402520063219,return,1
BMu37,45,P,INI,Trunk_Forward,1,L_EO,126.89926281512832,bending,2
BMu37,45,P,INI,Trunk_Forward,1,L_EO,128.89095947909505,return,2
BMu37,45,P,INI,Trunk_Forward,1,L_EO,127.57091414636457,bending,3
BMu37,45,P,INI,Trunk_Forward,1,L_EO,127.08895609148138,return,3
BMu37,45,P,INI,Trunk_Forward,1,R_EO,109.34131898284971,bending,1
BMu37,45,P,INI,Trunk_Forward,1,R_EO,119.00839191751376,return,1
BMu37,45,P,INI,Trunk_Forward,1,R_EO,109.73077020345858,bending,2
BMu37,45,P,INI,Trunk_Forward,1,R_EO,124.60906883537739,return,2
BMu37,45,P,INI,Trunk_Forward,1,R_EO,123.52786610781017,bending,3
BMu37,45,P,INI,Trunk_Forward,1,R_EO,121.40621272640577,return,3
BMu37,45,P,REL,Trunk_Forward,1,L_EO,143.42684288798844,bending,1
BMu37,45,P,REL,Trunk_Forward,1,L_EO,145.0590984805561,return,1
BMu37,45,P,REL,Trunk_Forward,1,L_EO,156.28572968516548,bending,2
BMu37,45,P,REL,Trunk_Forward,1,L_EO,136.83309760359396,return,2
BMu37,45,P,REL,Trunk_Forward,1,L_EO,129.77574917429357,bending,3
BMu37,45,P,REL,Trunk_Forward,1,L_EO,144.77497349376492,return,3
BMu37,45,P,REL,Trunk_Forward,1,R_EO,139.03082194131102,bending,1
BMu37,45,P,REL,Trunk_Forward,1,R_EO,139.0688060345615,return,1
BMu37,45,P,REL,Trunk_Forward,1,R_EO,156.00791155378099,bending,2
BMu37,45,P,REL,Trunk_Forward,1,R_EO,149.88134003825368,return,2
BMu37,45,P,REL,Trunk_Forward,1,R_EO,138.08683567542928,bending,3
BMu37,45,P,REL,Trunk_Forward,1,R_EO,147.43948310944185,return,3
BMu37,46,C,INI,Trunk_Forward,1,L_EO,87.78517808598298,bending,1
BMu37,46,C,INI,Trunk_Forward,1,L_EO,94.51644236792076,return,1
BMu37,46,C,INI,Trunk_Forward,1,L_EO,82.24119063517017,bending,2
BMu37,46,C,INI,Trunk_Forward,1,L_EO,120.0393485266624,return,2
BMu37,46,C,INI,Trunk_Forward,1,L_EO,70.60840990462623,bending,3
BMu37,46,C,INI,Trunk_Forward,1,L_EO,110.75945468313337,return,3
BMu37,46,C,INI,Trunk_Forward,1,R_EO,158.25376411370783,bending,1
BMu37,46,C,INI,Trunk_Forward,1,R_EO,136.13396565409462,return,1
BMu37,46,C,INI,Trunk_Forward,1,R_EO,146.42897165854114,bending,2
BMu37,46,C,INI,Trunk_Forward,1,R_EO,111.06352409210439,return,2
BMu37,46,C,INI,Trunk_Forward,1,R_EO,155.64458281750598,bending,3
BMu37,46,C,INI,Trunk_Forward,1,R_EO,112.79162415171697,return,3
BMu37,46,C,REL,Trunk_Forward,1,L_EO,63.864343702451784,bending,1
BMu37,46,C,REL,Trunk_Forward,1,L_EO,41.587661306534805,return,1
BMu37,46,C,REL,Trunk_Forward,1,L_EO,74.7740538173667,bending,2
BMu37,46,C,REL,Trunk_Forward,1,L_EO,66.10026283496941,return,2
BMu37,46,C,REL,Trunk_Forward,1,L_EO,67.58138243735121,bending,3
BMu37,46,C,REL,Trunk_Forward,1,L_EO,58.62899416450981,return,3
BMu37,46,C,REL,Trunk_Forward,1,R_EO,46.62543674599642,bending,1
BMu37,46,C,REL,Trunk_Forward,1,R_EO,43.6884791144647,return,1
BMu37,46,C,REL,Trunk_Forward,1,R_EO,55.8309874114895,bending,2
BMu37,46,C,REL,Trunk_Forward,1,R_EO,48.06316726367753,return,2
BMu37,46,C,REL,Trunk_Forward,1,R_EO,41.05914911176485,bending,3
BMu37,46,C,REL,Trunk_Forward,1,R_EO,34.471006851389426,return,3
BMu37,47,P,INI,Trunk_Forward,1,L_EO,36.23746938797269,bending,1
BMu37,47,P,INI,Trunk_Forward,1,L_EO,46.3073790297753,return,1
BMu37,47,P,INI,Trunk_Forward,1,L_EO,42.94970291602854,bending,2
BMu37,47,P,INI,Trunk_Forward,1,L_EO,40.949806462952296,return,2
BMu37,47,P,INI,Trunk_Forward,1,L_EO,41.035644437611005,bending,3
BMu37,47,P,INI,Trunk_Forward,1,L_EO,37.941624511296936,return,3
BMu37,47,P,INI,Trunk_Forward,1,R_EO,53.64639700572629,bending,1
BMu37,47,P,INI,Trunk_Forward,1,R_EO,57.224657801803296,return,1
BMu37,47,P,INI,Trunk_Forward,1,R_EO,50.469069349359096,bending,2
BMu37,47,P,INI,Trunk_Forward,1,R_EO,59.6618172201615,return,2
BMu37,47,P,INI,Trunk_Forward,1,R_EO,77.79100977915981,bending,3
BMu37,47,P,INI,Trunk_Forward,1,R_EO,70.34055171126245,return,3
BMu37,47,P,REL,Trunk_Forward,1,L_EO,89.49587720179744,bending,1
BMu37,47,P,REL,Trunk_Forward,1,L_EO,85.1161877116364,return,1
BMu37,47,P,REL,Trunk_Forward,1,L_EO,80.29527295002319,bending,2
BMu37,47,P,REL,Trunk_Forward,1,L_EO,77.25511222454067,return,2
BMu37,47,P,REL,Trunk_Forward,1,L_EO,85.21998750750139,bending,3
BMu37,47,P,REL,Trunk_Forward,1,L_EO,70.88289307895899,return,3
BMu37,47,P,REL,Trunk_Forward,1,R_EO,91.42990498387177,bending,1
BMu37,47,P,REL,Trunk_Forward,1,R_EO,96.06092843794742,return,1
BMu37,47,P,REL,Trunk_Forward,1,R_EO,89.44998633809233,bending,2
BMu37,47,P,REL,Trunk_Forward,1,R_EO,87.19797468476114,return,2
BMu37,47,P,REL,Trunk_Forward,1,R_EO,91.87823451850976,bending,3
BMu37,47,P,REL,Trunk_Forward,1,R_EO,91.35885019753674,return,3
BMu37,48,C,INI,Trunk_Forward,1,L_EO,110.93426858862311,bending,1
BMu37,48,C,INI,Trunk_Forward,1,L_EO,106.66446457903488,return,1
BMu37,48,C,INI,Trunk_Forward,1,L_EO,109.49319370082571,bending,2
BMu37,48,C,INI,Trunk_Forward,1,L_EO,103.40890939590395,return,2
BMu37,48,C,INI,Trunk_Forward,1,L_EO,106.6080113280577,bending,3
BMu37,48,C,INI,Trunk_Forward,1,L_EO,104.33797381446514,return,3
BMu37,48,C,INI,Trunk_Forward,1,R_EO,112.40798432714675,bending,1
BMu37,48,C,INI,Trunk_Forward,1,R_EO,115.7996980614758,return,1
BMu37,48,C,INI,Trunk_Forward,1,R_EO,108.82786602545028,bending,2
BMu37,48,C,INI,Trunk_Forward,1,R_EO,116.27211428891387,return,2
BMu37,48,C,INI,Trunk_Forward,1,R_EO,111.34840089864694,bending,3
BMu37,48,C,INI,Trunk_Forward,1,R_EO,108.7943013540018,return,3
BMu37,48,C,REL,Trunk_Forward,1,L_EO,96.1012573713103,bending,1
BMu37,48,C,REL,Trunk_Forward,1,L_EO,92.00660359390879,return,1
BMu37,48,C,REL,Trunk_Forward,1,L_EO,97.72472795126654,bending,2
BMu37,48,C,REL,Trunk_Forward,1,L_EO,91.74036406991591,return,2
BMu37,48,C,REL,Trunk_Forward,1,L_EO,100.40180099313122,bending,3
BMu37,48,C,REL,Trunk_Forward,1,L_EO,96.86530083112503,return,3
BMu37,48,C,REL,Trunk_Forward,1,R_EO,110.4978053467295,bending,1
BMu37,48,C,REL,Trunk_Forward,1,R_EO,112.81838150549119,return,1
BMu37,48,C,REL,Trunk_Forward,1,R_EO,115.15639417168325,bending,2
BMu37,48,C,REL,Trunk_Forward,1,R_EO,111.30288131715783,return,2
BMu37,48,C,REL,Trunk_Forward,1,R_EO,111.20681789417975,bending,3
BMu37,48,C,REL,Trunk_Forward,1,R_EO,109.82742694544503,return,3
BMu37,49,C,INI,Trunk_Forward,1,L_EO,98.30212870042212,bending,1
BMu37,49,C,INI,Trunk_Forward,1,L_EO,103.31757783588546,return,1
BMu37,49,C,INI,Trunk_Forward,1,L_EO,95.09768398246625,bending,2
BMu37,49,C,INI,Trunk_Forward,1,L_EO,93.8447919491584,return,2
BMu37,49,C,INI,Trunk_Forward,1,L_EO,90.37803870885126,bending,3
BMu37,49,C,INI,Trunk_Forward,1,L_EO,91.43631468552795,return,3
BMu37,49,C,INI,Trunk_Forward,1,R_EO,47.0544010406462,bending,1
BMu37,49,C,INI,Trunk_Forward,1,R_EO,23.145589488534515,return,1
BMu37,49,C,INI,Trunk_Forward,1,R_EO,46.7683684969935,bending,2
BMu37,49,C,INI,Trunk_Forward,1,R_EO,29.47319814650796,return,2
BMu37,49,C,INI,Trunk_Forward,1,R_EO,55.51974990578491,bending,3
BMu37,49,C,INI,Trunk_Forward,1,R_EO,43.7668742367396,return,3
BMu37,49,C,REL,Trunk_Forward,1,L_EO,73.48083715661824,bending,1
BMu37,49,C,REL,Trunk_Forward,1,L_EO,42.83572675857656,return,1
BMu37,49,C,REL,Trunk_Forward,1,L_EO,51.886470631908445,bending,2
BMu37,49,C,REL,Trunk_Forward,1,L_EO,47.91246765534566,return,2
BMu37,49,C,REL,Trunk_Forward,1,L_EO,67.9233992227881,bending,3
BMu37,49,C,REL,Trunk_Forward,1,L_EO,29.99430872149577,return,3
BMu37,49,C,REL,Trunk_Forward,1,R_EO,35.2658652039106,bending,1
BMu37,49,C,REL,Trunk_Forward,1,R_EO,42.17827220488967,return,1
BMu37,49,C,REL,Trunk_Forward,1,R_EO,37.42144762303414,bending,2
BMu37,49,C,REL,Trunk_Forward,1,R_EO,38.009897409743374,return,2
BMu37,49,C,REL,Trunk_Forward,1,R_EO,66.98712689594397,bending,3
BMu37,49,C,REL,Trunk_Forward,1,R_EO,48.52995515616299,return,3
BMu37,50,P,INI,Trunk_Forward,1,L_EO,55.10990757464558,bending,1
BMu37,50,P,INI,Trunk_Forward,1,L_EO,69.79541285568668,return,1
BMu37,50,P,INI,Trunk_Forward,1,L_EO,69.75084755666421,bending,2
BMu37,50,P,INI,Trunk_Forward,1,L_EO,70.70132023674284,return,2
BMu37,50,P,INI,Trunk_Forward,1,L_EO,75.30209335649612,bending,3
BMu37,50,P,INI,Trunk_Forward,1,L_EO,72.06910847579088,return,3
BMu37,50,P,INI,Trunk_Forward,1,R_EO,88.37452769028151,bending,1
BMu37,50,P,INI,Trunk_Forward,1,R_EO,38.730815366071916,return,1
BMu37,50,P,INI,Trunk_Forward,1,R_EO,171.7302239697978,bending,2
BMu37,50,P,INI,Trunk_Forward,1,R_EO,46.754630144837655,return,2
BMu37,50,P,INI,Trunk_Forward,1,R_EO,146.4323261793368,bending,3
BMu37,50,P,INI,Trunk_Forward,1,R_EO,41.141624968186925,return,3
BMu37,50,P,REL,Trunk_Forward,1,L_EO,68.67753087086999,bending,1
BMu37,50,P,REL,Trunk_Forward,1,L_EO,62.435324130011416,return,1
BMu37,50,P,REL,Trunk_Forward,1,L_EO,90.94585822111019,bending,2
BMu37,50,P,REL,Trunk_Forward,1,L_EO,74.59191716018876,return,2
BMu37,50,P,REL,Trunk_Forward,1,L_EO,56.32388723839303,bending,3
BMu37,50,P,REL,Trunk_Forward,1,L_EO,72.020189858897,return,3
BMu37,50,P,REL,Trunk_Forward,1,R_EO,34.36707859609589,bending,1
BMu37,50,P,REL,Trunk_Forward,1,R_EO,22.545361633203086,return,1
BMu37,50,P,REL,Trunk_Forward,1,R_EO,30.241033399479434,bending,2
BMu37,50,P,REL,Trunk_Forward,1,R_EO,25.32614145433336,return,2
BMu37,50,P,REL,Trunk_Forward,1,R_EO,28.696203455109778,bending,3
BMu37,50,P,REL,Trunk_Forward,1,R_EO,25.559673141480815,return,3
BMu37,51,P,INI,Trunk_Forward,1,L_EO,117.42529395550251,bending,1
BMu37,51,P,INI,Trunk_Forward,1,L_EO,131.06452856598614,return,1
BMu37,51,P,INI,Trunk_Forward,1,L_EO,119.13297796148998,bending,2
BMu37,51,P,INI,Trunk_Forward,1,L_EO,122.74097478514017,return,2
BMu37,51,P,INI,Trunk_Forward,1,L_EO,120.20756110014372,bending,3
BMu37,51,P,INI,Trunk_Forward,1,L_EO,124.56239484989935,return,3
BMu37,51,P,INI,Trunk_Forward,1,R_EO,85.65764458961631,bending,1
BMu37,51,P,INI,Trunk_Forward,1,R_EO,85.56718209469038,return,1
BMu37,51,P,INI,Trunk_Forward,1,R_EO,85.29392364941647,bending,2
BMu37,51,P,INI,Trunk_Forward,1,R_EO,92.01245371188166,return,2
BMu37,51,P,INI,Trunk_Forward,1,R_EO,86.98555499141338,bending,3
BMu37,51,P,INI,Trunk_Forward,1,R_EO,88.53810690673835,return,3
BMu37,51,P,REL,Trunk_Forward,1,L_EO,131.06826552598582,bending,1
BMu37,51,P,REL,Trunk_Forward,1,L_EO,129.66940502437296,return,1
BMu37,51,P,REL,Trunk_Forward,1,L_EO,121.19580205083132,bending,2
BMu37,51,P,REL,Trunk_Forward,1,L_EO,121.28287509636824,return,2
BMu37,51,P,REL,Trunk_Forward,1,L_EO,124.2432610249995,bending,3
BMu37,51,P,REL,Trunk_Forward,1,L_EO,123.59201505506906,return,3
BMu37,51,P,REL,Trunk_Forward,1,R_EO,87.63762445705692,bending,1
BMu37,51,P,REL,Trunk_Forward,1,R_EO,103.19752825294806,return,1
BMu37,51,P,REL,Trunk_Forward,1,R_EO,90.75575361721732,bending,2
BMu37,51,P,REL,Trunk_Forward,1,R_EO,89.61543089481725,return,2
BMu37,51,P,REL,Trunk_Forward,1,R_EO,99.36961605194396,bending,3
BMu37,51,P,REL,Trunk_Forward,1,R_EO,91.93622027496275,return,3
BMu37,52,C,INI,Trunk_Forward,1,L_EO,105.50198341188454,bending,1
BMu37,52,C,INI,Trunk_Forward,1,L_EO,71.0747786333433,return,1
BMu37,52,C,INI,Trunk_Forward,1,L_EO,113.19416152071837,bending,2
BMu37,52,C,INI,Trunk_Forward,1,L_EO,59.10921080887778,return,2
BMu37,52,C,INI,Trunk_Forward,1,L_EO,110.74515644993596,bending,3
BMu37,52,C,INI,Trunk_Forward,1,L_EO,71.96131741344549,return,3
BMu37,52,C,INI,Trunk_Forward,1,R_EO,131.93151671426745,bending,1
BMu37,52,C,INI,Trunk_Forward,1,R_EO,131.5287263638551,return,1
BMu37,52,C,INI,Trunk_Forward,1,R_EO,132.92838691928472,bending,2
BMu37,52,C,INI,Trunk_Forward,1,R_EO,121.70936827504448,return,2
BMu37,52,C,INI,Trunk_Forward,1,R_EO,126.69043255857092,bending,3
BMu37,52,C,INI,Trunk_Forward,1,R_EO,126.14911276405813,return,3
BMu37,52,C,REL,Trunk_Forward,1,L_EO,105.73404007922416,bending,1
BMu37,52,C,REL,Trunk_Forward,1,L_EO,85.25410411468472,return,1
BMu37,52,C,REL,Trunk_Forward,1,L_EO,86.17441921721525,bending,2
BMu37,52,C,REL,Trunk_Forward,1,L_EO,99.75448441163118,return,2
BMu37,52,C,REL,Trunk_Forward,1,L_EO,111.13895804500758,bending,3
BMu37,52,C,REL,Trunk_Forward,1,L_EO,125.71200462770065,return,3
BMu37,52,C,REL,Trunk_Forward,1,R_EO,118.29407621463419,bending,1
BMu37,52,C,REL,Trunk_Forward,1,R_EO,94.79882834808181,return,1
BMu37,52,C,REL,Trunk_Forward,1,R_EO,125.03010443137072,bending,2
BMu37,52,C,REL,Trunk_Forward,1,R_EO,94.05418229864604,return,2
BMu37,52,C,REL,Trunk_Forward,1,R_EO,113.9629128998637,bending,3
BMu37,52,C,REL,Trunk_Forward,1,R_EO,104.3344870874846,return,3
BMu37,53,P,INI,Trunk_Forward,1,L_EO,115.62072378047304,bending,1
BMu37,53,P,INI,Trunk_Forward,1,L_EO,114.20525095433408,return,1
BMu37,53,P,INI,Trunk_Forward,1,L_EO,119.69060079725656,bending,2
BMu37,53,P,INI,Trunk_Forward,1,L_EO,120.1862036570147,return,2
BMu37,53,P,INI,Trunk_Forward,1,L_EO,128.4029131730772,bending,3
BMu37,53,P,INI,Trunk_Forward,1,L_EO,122.61778421177236,return,3
BMu37,53,P,INI,Trunk_Forward,1,R_EO,113.87794966392211,bending,1
BMu37,53,P,INI,Trunk_Forward,1,R_EO,114.08565779430016,return,1
BMu37,53,P,INI,Trunk_Forward,1,R_EO,111.76491990363529,bending,2
BMu37,53,P,INI,Trunk_Forward,1,R_EO,115.32750032044984,return,2
BMu37,53,P,INI,Trunk_Forward,1,R_EO,121.60402600793253,bending,3
BMu37,53,P,INI,Trunk_Forward,1,R_EO,119.01003225391707,return,3
BMu37,53,P,REL,Trunk_Forward,1,L_EO,126.73015314515924,bending,1
BMu37,53,P,REL,Trunk_Forward,1,L_EO,142.4830129595857,return,1
BMu37,53,P,REL,Trunk_Forward,1,L_EO,155.7693528965354,bending,2
BMu37,53,P,REL,Trunk_Forward,1,L_EO,140.0167786062552,return,2
BMu37,53,P,REL,Trunk_Forward,1,L_EO,142.08722347295767,bending,3
BMu37,53,P,REL,Trunk_Forward,1,L_EO,128.66108829277735,return,3
BMu37,53,P,REL,Trunk_Forward,1,R_EO,118.4177679326819,bending,1
BMu37,53,P,REL,Trunk_Forward,1,R_EO,121.26257544197543,return,1
BMu37,53,P,REL,Trunk_Forward,1,R_EO,122.13826474228546,bending,2
BMu37,53,P,REL,Trunk_Forward,1,R_EO,126.92144434630421,return,2
BMu37,53,P,REL,Trunk_Forward,1,R_EO,122.92578961818135,bending,3
BMu37,53,P,REL,Trunk_Forward,1,R_EO,123.27510027192213,return,3
BMu37,54,P,INI,Trunk_Forward,1,L_EO,100.33964182650584,bending,1
BMu37,54,P,INI,Trunk_Forward,1,L_EO,116.71410345395023,return,1
BMu37,54,P,INI,Trunk_Forward,1,L_EO,119.63263124621955,bending,2
BMu37,54,P,INI,Trunk_Forward,1,L_EO,122.0848472187874,return,2
BMu37,54,P,INI,Trunk_Forward,1,L_EO,128.06916833054925,bending,3
BMu37,54,P,INI,Trunk_Forward,1,L_EO,121.1772980800331,return,3
BMu37,54,P,INI,Trunk_Forward,1,R_EO,83.50081195807503,bending,1
BMu37,54,P,INI,Trunk_Forward,1,R_EO,71.17810775380777,return,1
BMu37,54,P,INI,Trunk_Forward,1,R_EO,78.36305617693567,bending,2
BMu37,54,P,INI,Trunk_Forward,1,R_EO,76.21130211481736,return,2
BMu37,54,P,INI,Trunk_Forward,1,R_EO,65.10228661888671,bending,3
BMu37,54,P,INI,Trunk_Forward,1,R_EO,75.06721722738546,return,3
BMu37,54,P,REL,Trunk_Forward,1,L_EO,89.7450818876798,bending,1
BMu37,54,P,REL,Trunk_Forward,1,L_EO,84.78296703182953,return,1
BMu37,54,P,REL,Trunk_Forward,1,L_EO,85.51673811049864,bending,2
BMu37,54,P,REL,Trunk_Forward,1,L_EO,69.70938893294284,return,2
BMu37,54,P,REL,Trunk_Forward,1,L_EO,50.18652591322642,bending,3
BMu37,54,P,REL,Trunk_Forward,1,L_EO,55.45879195864384,return,3
BMu37,54,P,REL,Trunk_Forward,1,R_EO,83.45059875849883,bending,1
BMu37,54,P,REL,Trunk_Forward,1,R_EO,86.47829273378345,return,1
BMu37,54,P,REL,Trunk_Forward,1,R_EO,84.82022097349277,bending,2
BMu37,54,P,REL,Trunk_Forward,1,R_EO,89.59409909803686,return,2
BMu37,54,P,REL,Trunk_Forward,1,R_EO,89.02965460079714,bending,3
BMu37,54,P,REL,Trunk_Forward,1,R_EO,87.24198443346546,return,3
BMu37,55,C,INI,Trunk_Forward,1,L_EO,123.29270441318504,bending,1
BMu37,55,C,INI,Trunk_Forward,1,L_EO,107.99098418426838,return,1
BMu37,55,C,INI,Trunk_Forward,1,L_EO,122.97306860065213,bending,2
BMu37,55,C,INI,Trunk_Forward,1,L_EO,97.85358212105984,return,2
BMu37,55,C,INI,Trunk_Forward,1,L_EO,112.57679957497024,bending,3
BMu37,55,C,INI,Trunk_Forward,1,L_EO,85.16375831559573,return,3
BMu37,55,C,INI,Trunk_Forward,1,R_EO,124.8406892155274,bending,1
BMu37,55,C,INI,Trunk_Forward,1,R_EO,111.29960682652283,return,1
BMu37,55,C,INI,Trunk_Forward,1,R_EO,99.58765915279436,bending,2
BMu37,55,C,INI,Trunk_Forward,1,R_EO,96.14174852299752,return,2
BMu37,55,C,INI,Trunk_Forward,1,R_EO,99.044155052355,bending,3
BMu37,55,C,INI,Trunk_Forward,1,R_EO,110.66066497130551,return,3
BMu37,55,C,REL,Trunk_Forward,1,L_EO,79.09849883382476,bending,1
BMu37,55,C,REL,Trunk_Forward,1,L_EO,86.59916705061039,return,1
BMu37,55,C,REL,Trunk_Forward,1,L_EO,96.33887632754568,bending,2
BMu37,55,C,REL,Trunk_Forward,1,L_EO,107.63985620887027,return,2
BMu37,55,C,REL,Trunk_Forward,1,L_EO,107.61746742957129,bending,3
BMu37,55,C,REL,Trunk_Forward,1,L_EO,104.30791009968495,return,3
BMu37,55,C,REL,Trunk_Forward,1,R_EO,59.11441988068519,bending,1
BMu37,55,C,REL,Trunk_Forward,1,R_EO,42.38990101940462,return,1
BMu37,55,C,REL,Trunk_Forward,1,R_EO,57.34449874250653,bending,2
BMu37,55,C,REL,Trunk_Forward,1,R_EO,51.39893851985181,return,2
BMu37,55,C,REL,Trunk_Forward,1,R_EO,56.78854559284054,bending,3
BMu37,55,C,REL,Trunk_Forward,1,R_EO,41.09877241408048,return,3
BMu37,56,C,INI,Trunk_Forward,1,L_EO,105.31721006244868,bending,1
BMu37,56,C,INI,Trunk_Forward,1,L_EO,106.87491765763473,return,1
BMu37,56,C,INI,Trunk_Forward,1,L_EO,110.39641088634993,bending,2
BMu37,56,C,INI,Trunk_Forward,1,L_EO,107.72648992067695,return,2
BMu37,56,C,INI,Trunk_Forward,1,L_EO,112.37787748284349,bending,3
BMu37,56,C,INI,Trunk_Forward,1,L_EO,106.26917661335813,return,3
BMu37,56,C,INI,Trunk_Forward,1,R_EO,85.57940144966328,bending,1
BMu37,56,C,INI,Trunk_Forward,1,R_EO,70.09023981891491,return,1
BMu37,56,C,INI,Trunk_Forward,1,R_EO,100.2451284486181,bending,2
BMu37,56,C,INI,Trunk_Forward,1,R_EO,89.04560179258019,return,2
BMu37,56,C,INI,Trunk_Forward,1,R_EO,94.0323458312172,bending,3
BMu37,56,C,INI,Trunk_Forward,1,R_EO,96.54245756995212,return,3
BMu37,56,C,REL,Trunk_Forward,1,L_EO,92.67922592768926,bending,1
BMu37,56,C,REL,Trunk_Forward,1,L_EO,97.27714852379297,return,1
BMu37,56,C,REL,Trunk_Forward,1,L_EO,99.24954814574836,bending,2
BMu37,56,C,REL,Trunk_Forward,1,L_EO,84.10668218701926,return,2
BMu37,56,C,REL,Trunk_Forward,1,L_EO,94.00434605073757,bending,3
BMu37,56,C,REL,Trunk_Forward,1,L_EO,90.77350183572217,return,3
BMu37,56,C,REL,Trunk_Forward,1,R_EO,95.39909230706466,bending,1
BMu37,56,C,REL,Trunk_Forward,1,R_EO,97.73598225067614,return,1
BMu37,56,C,REL,Trunk_Forward,1,R_EO,98.49110894027679,bending,2
BMu37,56,C,REL,Trunk_Forward,1,R_EO,93.54396270696841,return,2
BMu37,56,C,REL,Trunk_Forward,1,R_EO,95.2023015059804,bending,3
BMu37,56,C,REL,Trunk_Forward,1,R_EO,101.44456662486655,return,3
BMu37,57,C,INI,Trunk_Forward,1,L_EO,48.912125987899586,bending,1
BMu37,57,C,INI,Trunk_Forward,1,L_EO,39.34793652787121,return,1
BMu37,57,C,INI,Trunk_Forward,1,L_EO,56.4810676232964,bending,2
BMu37,57,C,INI,Trunk_Forward,1,L_EO,42.87837010838009,return,2
BMu37,57,C,INI,Trunk_Forward,1,L_EO,43.82980622564261,bending,3
BMu37,57,C,INI,Trunk_Forward,1,L_EO,48.30776825909425,return,3
BMu37,57,C,INI,Trunk_Forward,1,R_EO,56.72808276224777,bending,1
BMu37,57,C,INI,Trunk_Forward,1,R_EO,46.70511556718905,return,1
BMu37,57,C,INI,Trunk_Forward,1,R_EO,84.42981410746908,bending,2
BMu37,57,C,INI,Trunk_Forward,1,R_EO,72.31346026076942,return,2
BMu37,57,C,INI,Trunk_Forward,1,R_EO,77.71822529974875,bending,3
BMu37,57,C,INI,Trunk_Forward,1,R_EO,103.14616884133228,return,3
BMu37,57,C,REL,Trunk_Forward,1,L_EO,110.40662612694034,bending,1
BMu37,57,C,REL,Trunk_Forward,1,L_EO,106.76896724178262,return,1
BMu37,57,C,REL,Trunk_Forward,1,L_EO,103.8799222253488,bending,2
BMu37,57,C,REL,Trunk_Forward,1,L_EO,115.83884141423707,return,2
BMu37,57,C,REL,Trunk_Forward,1,L_EO,123.37773299051172,bending,3
BMu37,57,C,REL,Trunk_Forward,1,L_EO,109.86448045121702,return,3
BMu37,57,C,REL,Trunk_Forward,1,R_EO,125.39253818704438,bending,1
BMu37,57,C,REL,Trunk_Forward,1,R_EO,118.26700893639902,return,1
BMu37,57,C,REL,Trunk_Forward,1,R_EO,118.63361500831417,bending,2
BMu37,57,C,REL,Trunk_Forward,1,R_EO,130.16153732346015,return,2
BMu37,57,C,REL,Trunk_Forward,1,R_EO,135.2013499821202,bending,3
BMu37,57,C,REL,Trunk_Forward,1,R_EO,121.02115636696416,return,3
BMu37,58,P,INI,Trunk_Forward,1,L_EO,134.63266233601612,bending,1
BMu37,58,P,INI,Trunk_Forward,1,L_EO,126.62121851223019,return,1
BMu37,58,P,INI,Trunk_Forward,1,L_EO,142.5794959034835,bending,2
BMu37,58,P,INI,Trunk_Forward,1,L_EO,130.2351225326451,return,2
BMu37,58,P,INI,Trunk_Forward,1,L_EO,137.7552051196416,bending,3
BMu37,58,P,INI,Trunk_Forward,1,L_EO,122.75374875643936,return,3
BMu37,58,P,INI,Trunk_Forward,1,R_EO,134.43191764894974,bending,1
BMu37,58,P,INI,Trunk_Forward,1,R_EO,123.89906770711657,return,1
BMu37,58,P,INI,Trunk_Forward,1,R_EO,129.2045780166249,bending,2
BMu37,58,P,INI,Trunk_Forward,1,R_EO,124.67877696780329,return,2
BMu37,58,P,INI,Trunk_Forward,1,R_EO,104.77788839001218,bending,3
BMu37,58,P,INI,Trunk_Forward,1,R_EO,127.51683853792241,return,3
BMu37,58,P,REL,Trunk_Forward,1,L_EO,121.18640393977027,bending,1
BMu37,58,P,REL,Trunk_Forward,1,L_EO,125.01157222282353,return,1
BMu37,58,P,REL,Trunk_Forward,1,L_EO,121.78541977525376,bending,2
BMu37,58,P,REL,Trunk_Forward,1,L_EO,126.8554929739204,return,2
BMu37,58,P,REL,Trunk_Forward,1,L_EO,133.29050090866735,bending,3
BMu37,58,P,REL,Trunk_Forward,1,L_EO,128.60790634590924,return,3
BMu37,58,P,REL,Trunk_Forward,1,R_EO,127.0912122963688,bending,1
BMu37,58,P,REL,Trunk_Forward,1,R_EO,110.10071633281906,return,1
BMu37,58,P,REL,Trunk_Forward,1,R_EO,116.5371072004716,bending,2
BMu37,58,P,REL,Trunk_Forward,1,R_EO,119.70908973288569,return,2
BMu37,58,P,REL,Trunk_Forward,1,R_EO,123.64910921423751,bending,3
BMu37,58,P,REL,Trunk_Forward,1,R_EO,122.70653688591005,return,3
BMu37,60,C,INI,Trunk_Forward,1,L_EO,98.81808469169887,bending,1
BMu37,60,C,INI,Trunk_Forward,1,L_EO,99.87966967492542,return,1
BMu37,60,C,INI,Trunk_Forward,1,L_EO,104.61984358509943,bending,2
BMu37,60,C,INI,Trunk_Forward,1,L_EO,94.46840254466025,return,2
BMu37,60,C,INI,Trunk_Forward,1,L_EO,97.54612123996785,bending,3
BMu37,60,C,INI,Trunk_Forward,1,L_EO,94.18110454894419,return,3
BMu37,60,C,INI,Trunk_Forward,1,R_EO,64.34596962878297,bending,1
BMu37,60,C,INI,Trunk_Forward,1,R_EO,80.6876767526539,return,1
BMu37,60,C,INI,Trunk_Forward,1,R_EO,54.94884930632505,bending,2
BMu37,60,C,INI,Trunk_Forward,1,R_EO,62.23534035615134,return,2
BMu37,60,C,INI,Trunk_Forward,1,R_EO,71.68235721625622,bending,3
BMu37,60,C,INI,Trunk_Forward,1,R_EO,40.95181121944082,return,3
BMu37,60,C,REL,Trunk_Forward,1,L_EO,93.62916022758608,bending,1
BMu37,60,C,REL,Trunk_Forward,1,L_EO,90.60104558152443,return,1
BMu37,60,C,REL,Trunk_Forward,1,L_EO,87.50175470239995,bending,2
BMu37,60,C,REL,Trunk_Forward,1,L_EO,96.76040747669406,return,2
BMu37,60,C,REL,Trunk_Forward,1,L_EO,89.854264880988,bending,3
BMu37,60,C,REL,Trunk_Forward,1,L_EO,74.20712244909781,return,3
BMu37,60,C,REL,Trunk_Forward,1,R_EO,71.1727194159569,bending,1
BMu37,60,C,REL,Trunk_Forward,1,R_EO,68.99260236394761,return,1
BMu37,60,C,REL,Trunk_Forward,1,R_EO,88.2617198579877,bending,2
BMu37,60,C,REL,Trunk_Forward,1,R_EO,65.1056636297153,return,2
BMu37,60,C,REL,Trunk_Forward,1,R_EO,81.39260490604408,bending,3
BMu37,60,C,REL,Trunk_Forward,1,R_EO,73.13143638323443,return,3
BMu37,61,P,INI,Trunk_Forward,1,L_EO,87.05286175869688,bending,1
BMu37,61,P,INI,Trunk_Forward,1,L_EO,73.76106923573258,return,1
BMu37,61,P,INI,Trunk_Forward,1,L_EO,102.47316493593719,bending,2
BMu37,61,P,INI,Trunk_Forward,1,L_EO,91.79205022541916,return,2
BMu37,61,P,INI,Trunk_Forward,1,L_EO,97.99255406474889,bending,3
BMu37,61,P,INI,Trunk_Forward,1,L_EO,104.5502535521264,return,3
BMu37,61,P,INI,Trunk_Forward,1,R_EO,98.27433430671688,bending,1
BMu37,61,P,INI,Trunk_Forward,1,R_EO,99.60054647624413,return,1
BMu37,61,P,INI,Trunk_Forward,1,R_EO,104.04895329504588,bending,2
BMu37,61,P,INI,Trunk_Forward,1,R_EO,106.9604711674199,return,2
BMu37,61,P,INI,Trunk_Forward,1,R_EO,104.24857183065166,bending,3
BMu37,61,P,INI,Trunk_Forward,1,R_EO,109.25092070502042,return,3
BMu37,61,P,REL,Trunk_Forward,1,L_EO,142.87949941662103,bending,1
BMu37,61,P,REL,Trunk_Forward,1,L_EO,144.09924120283114,return,1
BMu37,61,P,REL,Trunk_Forward,1,L_EO,144.06051133472556,bending,2
BMu37,61,P,REL,Trunk_Forward,1,L_EO,148.83618205476944,return,2
BMu37,61,P,REL,Trunk_Forward,1,L_EO,152.67683413863568,bending,3
BMu37,61,P,REL,Trunk_Forward,1,L_EO,144.85194884505896,return,3
BMu37,61,P,REL,Trunk_Forward,1,R_EO,150.50815400317182,bending,1
BMu37,61,P,REL,Trunk_Forward,1,R_EO,144.27218966088668,return,1
BMu37,61,P,REL,Trunk_Forward,1,R_EO,144.61261456236258,bending,2
BMu37,61,P,REL,Trunk_Forward,1,R_EO,151.79911273695683,return,2
BMu37,61,P,REL,Trunk_Forward,1,R_EO,149.53279593500073,bending,3
BMu37,61,P,REL,Trunk_Forward,1,R_EO,142.14469466865856,return,3
BMu37,62,P,INI,Trunk_Forward,1,L_EO,105.93079190664969,bending,1
BMu37,62,P,INI,Trunk_Forward,1,L_EO,98.74983644329485,return,1
BMu37,62,P,INI,Trunk_Forward,1,L_EO,84.72770744070958,bending,2
BMu37,62,P,INI,Trunk_Forward,1,L_EO,83.66608615484003,return,2
BMu37,62,P,INI,Trunk_Forward,1,L_EO,62.555654738839955,bending,3
BMu37,62,P,INI,Trunk_Forward,1,L_EO,55.63984658524483,return,3
BMu37,62,P,INI,Trunk_Forward,1,R_EO,148.13946009060837,bending,1
BMu37,62,P,INI,Trunk_Forward,1,R_EO,127.60846210067929,return,1
BMu37,62,P,INI,Trunk_Forward,1,R_EO,123.49918354381194,bending,2
BMu37,62,P,INI,Trunk_Forward,1,R_EO,117.51850194831785,return,2
BMu37,62,P,INI,Trunk_Forward,1,R_EO,105.07702743774051,bending,3
BMu37,62,P,INI,Trunk_Forward,1,R_EO,68.6927873805194,return,3
BMu37,62,P,REL,Trunk_Forward,1,L_EO,86.02061092753097,bending,1
BMu37,62,P,REL,Trunk_Forward,1,L_EO,94.04956108712622,return,1
BMu37,62,P,REL,Trunk_Forward,1,L_EO,98.81497367037159,bending,2
BMu37,62,P,REL,Trunk_Forward,1,L_EO,51.59957800383196,return,2
BMu37,62,P,REL,Trunk_Forward,1,L_EO,101.67515919056912,bending,3
BMu37,62,P,REL,Trunk_Forward,1,L_EO,104.02121028757405,return,3
BMu37,62,P,REL,Trunk_Forward,1,R_EO,121.98770993557972,bending,1
BMu37,62,P,REL,Trunk_Forward,1,R_EO,117.85759813834387,return,1
BMu37,62,P,REL,Trunk_Forward,1,R_EO,131.76572566467573,bending,2
BMu37,62,P,REL,Trunk_Forward,1,R_EO,113.6950026651866,return,2
BMu37,62,P,REL,Trunk_Forward,1,R_EO,121.17440773969189,bending,3
BMu37,62,P,REL,Trunk_Forward,1,R_EO,128.21909073049395,return,3
BMu37,63,P,INI,Trunk_Forward,1,L_EO,45.364871878680944,bending,1
BMu37,63,P,INI,Trunk_Forward,1,L_EO,53.304415942998325,return,1
BMu37,63,P,INI,Trunk_Forward,1,L_EO,99.12942843202276,bending,2
BMu37,63,P,INI,Trunk_Forward,1,L_EO,94.71692227354244,return,2
BMu37,63,P,INI,Trunk_Forward,1,L_EO,51.029314130447396,bending,3
BMu37,63,P,INI,Trunk_Forward,1,L_EO,72.91767877458486,return,3
BMu37,63,P,INI,Trunk_Forward,1,R_EO,46.98551058762131,bending,1
BMu37,63,P,INI,Trunk_Forward,1,R_EO,52.99398996070267,return,1
BMu37,63,P,INI,Trunk_Forward,1,R_EO,44.60749455772037,bending,2
BMu37,63,P,INI,Trunk_Forward,1,R_EO,45.95529711365508,return,2
BMu37,63,P,INI,Trunk_Forward,1,R_EO,41.77226973903432,bending,3
BMu37,63,P,INI,Trunk_Forward,1,R_EO,30.04438626079878,return,3
BMu37,63,P,REL,Trunk_Forward,1,L_EO,126.51047249463366,bending,1
BMu37,63,P,REL,Trunk_Forward,1,L_EO,117.29849384666737,return,1
BMu37,63,P,REL,Trunk_Forward,1,L_EO,111.73930577136593,bending,2
BMu37,63,P,REL,Trunk_Forward,1,L_EO,119.16806082662157,return,2
BMu37,63,P,REL,Trunk_Forward,1,L_EO,121.83351454113537,bending,3
BMu37,63,P,REL,Trunk_Forward,1,L_EO,122.30856998994302,return,3
BMu37,63,P,REL,Trunk_Forward,1,R_EO,126.53989520143385,bending,1
BMu37,63,P,REL,Trunk_Forward,1,R_EO,79.13343435688802,return,1
BMu37,63,P,REL,Trunk_Forward,1,R_EO,111.16023530523817,bending,2
BMu37,63,P,REL,Trunk_Forward,1,R_EO,66.06212707086516,return,2
BMu37,63,P,REL,Trunk_Forward,1,R_EO,60.47648651598852,bending,3
BMu37,63,P,REL,Trunk_Forward,1,R_EO,58.99482742659162,return,3
BMu37,64,C,INI,Trunk_Forward,1,L_EO,81.81705406150914,bending,1
BMu37,64,C,INI,Trunk_Forward,1,L_EO,74.74355798313911,return,1
BMu37,64,C,INI,Trunk_Forward,1,L_EO,74.60000766223611,bending,2
BMu37,64,C,INI,Trunk_Forward,1,L_EO,76.66973115447956,return,2
BMu37,64,C,INI,Trunk_Forward,1,L_EO,75.33995991747918,bending,3
BMu37,64,C,INI,Trunk_Forward,1,L_EO,78.60053578039646,return,3
BMu37,64,C,INI,Trunk_Forward,1,R_EO,74.17652371553291,bending,1
BMu37,64,C,INI,Trunk_Forward,1,R_EO,72.75723759331922,return,1
BMu37,64,C,INI,Trunk_Forward,1,R_EO,76.54725622624814,bending,2
BMu37,64,C,INI,Trunk_Forward,1,R_EO,76.50584123350814,return,2
BMu37,64,C,INI,Trunk_Forward,1,R_EO,76.02208435263306,bending,3
BMu37,64,C,INI,Trunk_Forward,1,R_EO,79.58394780674946,return,3
BMu37,64,C,REL,Trunk_Forward,1,L_EO,71.11134342898676,bending,1
BMu37,64,C,REL,Trunk_Forward,1,L_EO,62.663976431250454,return,1
BMu37,64,C,REL,Trunk_Forward,1,L_EO,68.55678243925446,bending,2
BMu37,64,C,REL,Trunk_Forward,1,L_EO,64.1244842341414,return,2
BMu37,64,C,REL,Trunk_Forward,1,L_EO,71.7285695906816,bending,3
BMu37,64,C,REL,Trunk_Forward,1,L_EO,72.69010199630222,return,3
BMu37,64,C,REL,Trunk_Forward,1,R_EO,70.51314064939208,bending,1
BMu37,64,C,REL,Trunk_Forward,1,R_EO,66.82803248405948,return,1
BMu37,64,C,REL,Trunk_Forward,1,R_EO,68.23196830643627,bending,2
BMu37,64,C,REL,Trunk_Forward,1,R_EO,71.88908490148373,return,2
BMu37,64,C,REL,Trunk_Forward,1,R_EO,72.78848038914929,bending,3
BMu37,64,C,REL,Trunk_Forward,1,R_EO,76.99342113191959,return,3
BMu37,65,P,INI,Trunk_Forward,1,L_EO,97.5897200863827,bending,1
BMu37,65,P,INI,Trunk_Forward,1,L_EO,102.47114448353568,return,1
BMu37,65,P,INI,Trunk_Forward,1,L_EO,97.79011401233245,bending,2
BMu37,65,P,INI,Trunk_Forward,1,L_EO,93.8317611822163,return,2
BMu37,65,P,INI,Trunk_Forward,1,L_EO,102.24244832632752,bending,3
BMu37,65,P,INI,Trunk_Forward,1,L_EO,105.65706133808386,return,3
BMu37,65,P,INI,Trunk_Forward,1,R_EO,105.06229616073057,bending,1
BMu37,65,P,INI,Trunk_Forward,1,R_EO,91.61655222420947,return,1
BMu37,65,P,INI,Trunk_Forward,1,R_EO,99.7761366762579,bending,2
BMu37,65,P,INI,Trunk_Forward,1,R_EO,105.92815209570445,return,2
BMu37,65,P,INI,Trunk_Forward,1,R_EO,106.35989577286061,bending,3
BMu37,65,P,INI,Trunk_Forward,1,R_EO,118.30073154346401,return,3
BMu37,65,P,REL,Trunk_Forward,1,L_EO,99.12473120448264,bending,1
BMu37,65,P,REL,Trunk_Forward,1,L_EO,98.11048155490042,return,1
BMu37,65,P,REL,Trunk_Forward,1,L_EO,101.65786575618972,bending,2
BMu37,65,P,REL,Trunk_Forward,1,L_EO,99.79521811483536,return,2
BMu37,65,P,REL,Trunk_Forward,1,L_EO,100.18076950130123,bending,3
BMu37,65,P,REL,Trunk_Forward,1,L_EO,102.32592541763485,return,3
BMu37,65,P,REL,Trunk_Forward,1,R_EO,106.1916469664225,bending,1
BMu37,65,P,REL,Trunk_Forward,1,R_EO,106.3303525775953,return,1
BMu37,65,P,REL,Trunk_Forward,1,R_EO,104.08090138823454,bending,2
BMu37,65,P,REL,Trunk_Forward,1,R_EO,111.665598881882,return,2
BMu37,65,P,REL,Trunk_Forward,1,R_EO,110.95657305086425,bending,3
BMu37,65,P,REL,Trunk_Forward,1,R_EO,104.94040213876443,return,3
BMu37,66,C,INI,Trunk_Forward,1,L_EO,120.08018104585946,bending,1
BMu37,66,C,INI,Trunk_Forward,1,L_EO,105.71848060448276,return,1
BMu37,66,C,INI,Trunk_Forward,1,L_EO,121.32953877869669,bending,2
BMu37,66,C,INI,Trunk_Forward,1,L_EO,76.5169769764341,return,2
BMu37,66,C,INI,Trunk_Forward,1,L_EO,112.95364632075761,bending,3
BMu37,66,C,INI,Trunk_Forward,1,L_EO,106.31362493462903,return,3
BMu37,66,C,INI,Trunk_Forward,1,R_EO,74.4734733494562,bending,1
BMu37,66,C,INI,Trunk_Forward,1,R_EO,91.13321846269302,return,1
BMu37,66,C,INI,Trunk_Forward,1,R_EO,167.47732636576745,bending,2
BMu37,66,C,INI,Trunk_Forward,1,R_EO,72.49664473797469,return,2
BMu37,66,C,INI,Trunk_Forward,1,R_EO,174.5933274187248,bending,3
BMu37,66,C,INI,Trunk_Forward,1,R_EO,197.9947914865697,return,3
BMu37,66,C,REL,Trunk_Forward,1,L_EO,104.6511936424876,bending,1
BMu37,66,C,REL,Trunk_Forward,1,L_EO,120.18368826320538,return,1
BMu37,66,C,REL,Trunk_Forward,1,L_EO,117.6118023787934,bending,2
BMu37,66,C,REL,Trunk_Forward,1,L_EO,114.60740027826346,return,2
BMu37,66,C,REL,Trunk_Forward,1,L_EO,129.3706688558034,bending,3
BMu37,66,C,REL,Trunk_Forward,1,L_EO,101.27709442810264,return,3
BMu37,66,C,REL,Trunk_Forward,1,R_EO,63.87300117435739,bending,1
BMu37,66,C,REL,Trunk_Forward,1,R_EO,57.04637476568955,return,1
BMu37,66,C,REL,Trunk_Forward,1,R_EO,39.78080376123031,bending,2
BMu37,66,C,REL,Trunk_Forward,1,R_EO,52.280849523391474,return,2
BMu37,66,C,REL,Trunk_Forward,1,R_EO,69.15932510029609,bending,3
BMu37,66,C,REL,Trunk_Forward,1,R_EO,67.65572977819347,return,3
BMu37,67,C,INI,Trunk_Forward,1,L_EO,37.27175284229144,bending,1
BMu37,67,C,INI,Trunk_Forward,1,L_EO,59.446278102566836,return,1
BMu37,67,C,INI,Trunk_Forward,1,L_EO,115.5037959920323,bending,2
BMu37,67,C,INI,Trunk_Forward,1,L_EO,127.66959819804387,return,2
BMu37,67,C,INI,Trunk_Forward,1,L_EO,89.79249828470374,bending,3
BMu37,67,C,INI,Trunk_Forward,1,L_EO,52.62906380670557,return,3
BMu37,67,C,INI,Trunk_Forward,1,R_EO,39.035445557189334,bending,1
BMu37,67,C,INI,Trunk_Forward,1,R_EO,48.22626073689366,return,1
BMu37,67,C,INI,Trunk_Forward,1,R_EO,63.948230930321046,bending,2
BMu37,67,C,INI,Trunk_Forward,1,R_EO,40.19738584833138,return,2
BMu37,67,C,INI,Trunk_Forward,1,R_EO,60.69289613927761,bending,3
BMu37,67,C,INI,Trunk_Forward,1,R_EO,36.90855925479601,return,3
BMu37,67,C,REL,Trunk_Forward,1,L_EO,34.11489214213888,bending,1
BMu37,67,C,REL,Trunk_Forward,1,L_EO,45.881130307528736,return,1
BMu37,67,C,REL,Trunk_Forward,1,L_EO,33.695861131453526,bending,2
BMu37,67,C,REL,Trunk_Forward,1,L_EO,46.266212540885036,return,2
BMu37,67,C,REL,Trunk_Forward,1,L_EO,34.27431672742706,bending,3
BMu37,67,C,REL,Trunk_Forward,1,L_EO,43.72544410711498,return,3
BMu37,67,C,REL,Trunk_Forward,1,R_EO,37.35967789504684,bending,1
BMu37,67,C,REL,Trunk_Forward,1,R_EO,32.878356832346725,return,1
BMu37,67,C,REL,Trunk_Forward,1,R_EO,47.38412731446076,bending,2
BMu37,67,C,REL,Trunk_Forward,1,R_EO,51.39869262419956,return,2
BMu37,67,C,REL,Trunk_Forward,1,R_EO,37.8133553377109,bending,3
BMu37,67,C,REL,Trunk_Forward,1,R_EO,33.88564965344798,return,3
BMu37,68,C,INI,Trunk_Forward,1,L_EO,42.306810725263176,bending,1
BMu37,68,C,INI,Trunk_Forward,1,L_EO,65.06813030556201,return,1
BMu37,68,C,INI,Trunk_Forward,1,L_EO,65.88503113089521,bending,2
BMu37,68,C,INI,Trunk_Forward,1,L_EO,56.63286118297588,return,2
BMu37,68,C,INI,Trunk_Forward,1,L_EO,75.47994744193288,bending,3
BMu37,68,C,INI,Trunk_Forward,1,L_EO,90.56060022718513,return,3
BMu37,68,C,INI,Trunk_Forward,1,R_EO,30.835216322681084,bending,1
BMu37,68,C,INI,Trunk_Forward,1,R_EO,31.99302697196387,return,1
BMu37,68,C,INI,Trunk_Forward,1,R_EO,32.57666959533053,bending,2
BMu37,68,C,INI,Trunk_Forward,1,R_EO,28.591068628970874,return,2
BMu37,68,C,INI,Trunk_Forward,1,R_EO,33.658126181781974,bending,3
BMu37,68,C,INI,Trunk_Forward,1,R_EO,27.732050989363195,return,3
BMu37,68,C,REL,Trunk_Forward,1,L_EO,71.6868335030972,bending,1
BMu37,68,C,REL,Trunk_Forward,1,L_EO,92.66182889515386,return,1
BMu37,68,C,REL,Trunk_Forward,1,L_EO,72.25270961139692,bending,2
BMu37,68,C,REL,Trunk_Forward,1,L_EO,79.55801325331902,return,2
BMu37,68,C,REL,Trunk_Forward,1,L_EO,99.79682427244923,bending,3
BMu37,68,C,REL,Trunk_Forward,1,L_EO,75.87963968417847,return,3
BMu37,68,C,REL,Trunk_Forward,1,L_EO,63.080962781534964,bending,4
BMu37,68,C,REL,Trunk_Forward,1,L_EO,80.67132680957924,return,4
BMu37,68,C,REL,Trunk_Forward,1,R_EO,33.877932754877534,bending,1
BMu37,68,C,REL,Trunk_Forward,1,R_EO,40.53775555748365,return,1
BMu37,68,C,REL,Trunk_Forward,1,R_EO,40.01366116224507,bending,2
BMu37,68,C,REL,Trunk_Forward,1,R_EO,38.490341595318505,return,2
BMu37,68,C,REL,Trunk_Forward,1,R_EO,32.63971696104649,bending,3
BMu37,68,C,REL,Trunk_Forward,1,R_EO,41.113944176099864,return,3
BMu37,68,C,REL,Trunk_Forward,1,R_EO,38.374655415978516,bending,4
BMu37,68,C,REL,Trunk_Forward,1,R_EO,42.510125636076545,return,4
