BMu,subject,P_C,session,task,trials,channel,value,event,repetition
BMu37,1,C,INI,Trunk_Forward,1,L_EO,110.97329096884991,bending,1
BMu37,1,C,INI,Trunk_Forward,1,L_EO,111.33691244396054,return,1
BMu37,1,C,INI,Trunk_Forward,1,L_EO,110.48347493929637,bending,2
BMu37,1,C,INI,Trunk_Forward,1,L_EO,95.35857405027392,return,2
BMu37,1,C,INI,Trunk_Forward,1,L_EO,109.92213087863765,bending,3
BMu37,1,C,INI,Trunk_Forward,1,L_EO,100.85731495118901,return,3
BMu37,1,C,INI,Trunk_Forward,1,R_EO,100.73560716274685,bending,1
BMu37,1,C,INI,Trunk_Forward,1,R_EO,97.1435477183581,return,1
BMu37,1,C,INI,Trunk_Forward,1,R_EO,98.73835317372989,bending,2
BMu37,1,C,INI,Trunk_Forward,1,R_EO,95.26745729214025,return,2
BMu37,1,C,INI,Trunk_Forward,1,R_EO,99.56550734638141,bending,3
BMu37,1,C,INI,Trunk_Forward,1,R_EO,83.72630129654416,return,3
BMu37,1,C,REL,Trunk_Forward,1,L_EO,97.2726796994135,bending,1
BMu37,1,C,REL,Trunk_Forward,1,L_EO,103.39793731347079,return,1
BMu37,1,C,REL,Trunk_Forward,1,L_EO,100.36170800945203,bending,2
BMu37,1,C,REL,Trunk_Forward,1,L_EO,99.74732076737422,return,2
BMu37,1,C,REL,Trunk_Forward,1,L_EO,98.34678224490953,bending,3
BMu37,1,C,REL,Trunk_Forward,1,L_EO,101.13111365635545,return,3
BMu37,1,C,REL,Trunk_Forward,1,R_EO,94.76393542917863,bending,1
BMu37,1,C,REL,Trunk_Forward,1,R_EO,96.38756378966258,return,1
BMu37,1,C,REL,Trunk_Forward,1,R_EO,90.69578975741544,bending,2
BMu37,1,C,REL,Trunk_Forward,1,R_EO,91.26604929347829,return,2
BMu37,1,C,REL,Trunk_Forward,1,R_EO,93.46595778061882,bending,3
BMu37,1,C,REL,Trunk_Forward,1,R_EO,91.45242793565674,return,3
BMu37,2,C,INI,Trunk_Forward,1,L_EO,80.4171178233551,bending,1
BMu37,2,C,INI,Trunk_Forward,1,L_EO,85.81373824448914,return,1
BMu37,2,C,INI,Trunk_Forward,1,L_EO,84.73527755943117,bending,2
BMu37,2,C,INI,Trunk_Forward,1,L_EO,90.74462450912313,return,2
BMu37,2,C,INI,Trunk_Forward,1,L_EO,84.89411947493878,bending,3
BMu37,2,C,INI,Trunk_Forward,1,L_EO,88.2651034276612,return,3
BMu37,2,C,INI,Trunk_Forward,1,R_EO,102.44602373593186,bending,1
BMu37,2,C,INI,Trunk_Forward,1,R_EO,106.44976707031539,return,1
BMu37,2,C,INI,Trunk_Forward,1,R_EO,107.08511672845574,bending,2
BMu37,2,C,INI,Trunk_Forward,1,R_EO,109.63098170948895,return,2
BMu37,2,C,INI,Trunk_Forward,1,R_EO,107.66062628688377,bending,3
BMu37,2,C,INI,Trunk_Forward,1,R_EO,107.05912631258842,return,3
BMu37,2,C,REL,Trunk_Forward,1,L_EO,81.44187640097063,bending,1
BMu37,2,C,REL,Trunk_Forward,1,L_EO,77.57390796416445,return,1
BMu37,2,C,REL,Trunk_Forward,1,L_EO,81.73932882142941,bending,2
BMu37,2,C,REL,Trunk_Forward,1,L_EO,87.2822952164661,return,2
BMu37,2,C,REL,Trunk_Forward,1,L_EO,85.24421085526777,bending,3
BMu37,2,C,REL,Trunk_Forward,1,L_EO,84.90903186033047,return,3
BMu37,2,C,REL,Trunk_Forward,1,R_EO,92.38788051441382,bending,1
BMu37,2,C,REL,Trunk_Forward,1,R_EO,98.6291134030372,return,1
BMu37,2,C,REL,Trunk_Forward,1,R_EO,94.43222189321939,bending,2
BMu37,2,C,REL,Trunk_Forward,1,R_EO,104.95193195277531,return,2
BMu37,2,C,REL,Trunk_Forward,1,R_EO,102.25013383419264,bending,3
BMu37,2,C,REL,Trunk_Forward,1,R_EO,98.07214969781509,return,3
BMu37,3,C,INI,Trunk_Forward,1,L_EO,141.0330640833977,bending,1
BMu37,3,C,INI,Trunk_Forward,1,L_EO,138.42550387689687,return,1
BMu37,3,C,INI,Trunk_Forward,1,L_EO,143.74630743046274,bending,2
BMu37,3,C,INI,Trunk_Forward,1,L_EO,145.993339354246,return,2
BMu37,3,C,INI,Trunk_Forward,1,L_EO,153.38949579140046,bending,3
BMu37,3,C,INI,Trunk_Forward,1,L_EO,135.12072274135238,return,3
BMu37,3,C,INI,Trunk_Forward,1,R_EO,127.11557962098985,bending,1
BMu37,3,C,INI,Trunk_Forward,1,R_EO,127.69799773710781,return,1
BMu37,3,C,INI,Trunk_Forward,1,R_EO,130.9197282038424,bending,2
BMu37,3,C,INI,Trunk_Forward,1,R_EO,129.53004203615203,return,2
BMu37,3,C,INI,Trunk_Forward,1,R_EO,135.13606718684528,bending,3
BMu37,3,C,INI,Trunk_Forward,1,R_EO,126.22614190043744,return,3
BMu37,3,C,REL,Trunk_Forward,1,L_EO,117.46090738074456,bending,1
BMu37,3,C,REL,Trunk_Forward,1,L_EO,114.26330901537665,return,1
BMu37,3,C,REL,Trunk_Forward,1,L_EO,124.64015845949132,bending,2
BMu37,3,C,REL,Trunk_Forward,1,L_EO,119.59197393383458,return,2
BMu37,3,C,REL,Trunk_Forward,1,L_EO,126.8141535548541,bending,3
BMu37,3,C,REL,Trunk_Forward,1,L_EO,106.60076700262098,return,3
BMu37,3,C,REL,Trunk_Forward,1,R_EO,113.33508470863221,bending,1
BMu37,3,C,REL,Trunk_Forward,1,R_EO,119.03836257987936,return,1
BMu37,3,C,REL,Trunk_Forward,1,R_EO,127.8454671205626,bending,2
BMu37,3,C,REL,Trunk_Forward,1,R_EO,128.38674888398995,return,2
BMu37,3,C,REL,Trunk_Forward,1,R_EO,129.30032466317897,bending,3
BMu37,3,C,REL,Trunk_Forward,1,R_EO,114.58142755488959,return,3
BMu37,5,C,INI,Trunk_Forward,1,L_EO,89.83522295349076,bending,1
BMu37,5,C,INI,Trunk_Forward,1,L_EO,89.61578523816016,return,1
BMu37,5,C,INI,Trunk_Forward,1,L_EO,82.96388518054565,bending,2
BMu37,5,C,INI,Trunk_Forward,1,L_EO,87.07392317996974,return,2
BMu37,5,C,INI,Trunk_Forward,1,L_EO,85.0151231133668,bending,3
BMu37,5,C,INI,Trunk_Forward,1,L_EO,85.87182509552552,return,3
BMu37,5,C,INI,Trunk_Forward,1,R_EO,95.99224334717846,bending,1
BMu37,5,C,INI,Trunk_Forward,1,R_EO,97.39221300335456,return,1
BMu37,5,C,INI,Trunk_Forward,1,R_EO,89.32508644150464,bending,2
BMu37,5,C,INI,Trunk_Forward,1,R_EO,96.27761393840946,return,2
BMu37,5,C,INI,Trunk_Forward,1,R_EO,93.42009547325924,bending,3
BMu37,5,C,INI,Trunk_Forward,1,R_EO,97.21289240139677,return,3
BMu37,5,C,REL,Trunk_Forward,1,L_EO,89.7173992633098,bending,1
BMu37,5,C,REL,Trunk_Forward,1,L_EO,82.72232072367072,return,1
BMu37,5,C,REL,Trunk_Forward,1,L_EO,88.3437647252521,bending,2
BMu37,5,C,REL,Trunk_Forward,1,L_EO,90.9505298589879,return,2
BMu37,5,C,REL,Trunk_Forward,1,L_EO,81.59955797525481,bending,3
BMu37,5,C,REL,Trunk_Forward,1,L_EO,92.14188043836288,return,3
BMu37,5,C,REL,Trunk_Forward,1,L_EO,79.03648526372162,bending,4
BMu37,5,C,REL,Trunk_Forward,1,L_EO,93.29704873239072,return,4
BMu37,5,C,REL,Trunk_Forward,1,R_EO,87.09109222249221,bending,1
BMu37,5,C,REL,Trunk_Forward,1,R_EO,79.08671818664695,return,1
BMu37,5,C,REL,Trunk_Forward,1,R_EO,99.05833430809797,bending,2
BMu37,5,C,REL,Trunk_Forward,1,R_EO,107.5971003360321,return,2
BMu37,5,C,REL,Trunk_Forward,1,R_EO,102.21587364090945,bending,3
BMu37,5,C,REL,Trunk_Forward,1,R_EO,107.207676240307,return,3
BMu37,5,C,REL,Trunk_Forward,1,R_EO,102.36432886668779,bending,4
BMu37,5,C,REL,Trunk_Forward,1,R_EO,105.97690073907685,return,4
BMu37,6,C,INI,Trunk_Forward,1,L_EO,154.15540414682928,bending,1
BMu37,6,C,INI,Trunk_Forward,1,L_EO,159.87476738272971,return,1
BMu37,6,C,INI,Trunk_Forward,1,L_EO,154.1156782128454,bending,2
BMu37,6,C,INI,Trunk_Forward,1,L_EO,160.94552883674524,return,2
BMu37,6,C,INI,Trunk_Forward,1,L_EO,150.2769906295311,bending,3
BMu37,6,C,INI,Trunk_Forward,1,L_EO,154.55197153709386,return,3
BMu37,6,C,INI,Trunk_Forward,1,L_EO,149.38178003954135,bending,4
BMu37,6,C,INI,Trunk_Forward,1,L_EO,153.66386632231863,return,4
BMu37,6,C,INI,Trunk_Forward,1,R_EO,176.1828882782831,bending,1
BMu37,6,C,INI,Trunk_Forward,1,R_EO,174.1693659683246,return,1
BMu37,6,C,INI,Trunk_Forward,1,R_EO,182.4281596725054,bending,2
BMu37,6,C,INI,Trunk_Forward,1,R_EO,180.27908237817786,return,2
BMu37,6,C,INI,Trunk_Forward,1,R_EO,176.53390382366024,bending,3
BMu37,6,C,INI,Trunk_Forward,1,R_EO,179.05004309800157,return,3
BMu37,6,C,INI,Trunk_Forward,1,R_EO,173.6054444219639,bending,4
BMu37,6,C,INI,Trunk_Forward,1,R_EO,170.30010345038372,return,4
BMu37,6,C,REL,Trunk_Forward,1,L_EO,116.06679602694862,bending,1
BMu37,6,C,REL,Trunk_Forward,1,L_EO,132.35736234483275,return,1
BMu37,6,C,REL,Trunk_Forward,1,L_EO,100.67941739370976,bending,2
BMu37,6,C,REL,Trunk_Forward,1,L_EO,124.99759926245424,return,2
BMu37,6,C,REL,Trunk_Forward,1,L_EO,104.21779012486202,bending,3
BMu37,6,C,REL,Trunk_Forward,1,L_EO,130.23577447065728,return,3
BMu37,6,C,REL,Trunk_Forward,1,R_EO,101.2202309698068,bending,1
BMu37,6,C,REL,Trunk_Forward,1,R_EO,136.96063839681815,return,1
BMu37,6,C,REL,Trunk_Forward,1,R_EO,101.16188910740449,bending,2
BMu37,6,C,REL,Trunk_Forward,1,R_EO,134.03255110950917,return,2
BMu37,6,C,REL,Trunk_Forward,1,R_EO,119.03698957486478,bending,3
BMu37,6,C,REL,Trunk_Forward,1,R_EO,127.20658393328578,return,3
BMu37,7,C,INI,Trunk_Forward,1,L_EO,76.15070488099839,bending,1
BMu37,7,C,INI,Trunk_Forward,1,L_EO,61.632498276355314,return,1
BMu37,7,C,INI,Trunk_Forward,1,L_EO,68.0324329727953,bending,2
BMu37,7,C,INI,Trunk_Forward,1,L_EO,54.675122502610336,return,2
BMu37,7,C,INI,Trunk_Forward,1,L_EO,73.77565890591299,bending,3
BMu37,7,C,INI,Trunk_Forward,1,L_EO,68.9215401437409,return,3
BMu37,7,C,INI,Trunk_Forward,1,R_EO,83.50721737282632,bending,1
BMu37,7,C,INI,Trunk_Forward,1,R_EO,66.31171399803407,return,1
BMu37,7,C,INI,Trunk_Forward,1,R_EO,111.80182759990636,bending,2
BMu37,7,C,INI,Trunk_Forward,1,R_EO,97.82973255861323,return,2
BMu37,7,C,INI,Trunk_Forward,1,R_EO,115.43722772569016,bending,3
BMu37,7,C,INI,Trunk_Forward,1,R_EO,115.80294904866805,return,3
BMu37,7,C,REL,Trunk_Forward,1,L_EO,99.56197154116701,bending,1
BMu37,7,C,REL,Trunk_Forward,1,L_EO,95.92041237984371,return,1
BMu37,7,C,REL,Trunk_Forward,1,L_EO,106.27672211565678,bending,2
BMu37,7,C,REL,Trunk_Forward,1,L_EO,75.3335940434603,return,2
BMu37,7,C,REL,Trunk_Forward,1,L_EO,104.53392648189426,bending,3
BMu37,7,C,REL,Trunk_Forward,1,L_EO,112.44696439355238,return,3
BMu37,7,C,REL,Trunk_Forward,1,R_EO,107.58973994123039,bending,1
BMu37,7,C,REL,Trunk_Forward,1,R_EO,88.91061782905685,return,1
BMu37,7,C,REL,Trunk_Forward,1,R_EO,102.36499054088942,bending,2
BMu37,7,C,REL,Trunk_Forward,1,R_EO,91.10135352436114,return,2
BMu37,7,C,REL,Trunk_Forward,1,R_EO,102.12910688486423,bending,3
BMu37,7,C,REL,Trunk_Forward,1,R_EO,100.99935109429433,return,3
BMu37,8,C,INI,Trunk_Forward,1,L_EO,94.37041664121948,bending,1
BMu37,8,C,INI,Trunk_Forward,1,L_EO,102.87737602805785,return,1
BMu37,8,C,INI,Trunk_Forward,1,L_EO,96.37476437739525,bending,2
BMu37,8,C,INI,Trunk_Forward,1,L_EO,101.15272710075604,return,2
BMu37,8,C,INI,Trunk_Forward,1,L_EO,106.40107368371459,bending,3
BMu37,8,C,INI,Trunk_Forward,1,L_EO,105.73320064957402,return,3
BMu37,8,C,INI,Trunk_Forward,1,R_EO,105.61393275689723,bending,1
BMu37,8,C,INI,Trunk_Forward,1,R_EO,111.04316375066306,return,1
BMu37,8,C,INI,Trunk_Forward,1,R_EO,117.35857010918272,bending,2
BMu37,8,C,INI,Trunk_Forward,1,R_EO,110.04515548766574,return,2
BMu37,8,C,INI,Trunk_Forward,1,R_EO,98.76944858548606,bending,3
BMu37,8,C,INI,Trunk_Forward,1,R_EO,109.97951563804686,return,3
BMu37,8,C,REL,Trunk_Forward,1,L_EO,96.68609916051278,bending,1
BMu37,8,C,REL,Trunk_Forward,1,L_EO,96.6708884746555,return,1
BMu37,8,C,REL,Trunk_Forward,1,L_EO,93.72683928016895,bending,2
BMu37,8,C,REL,Trunk_Forward,1,L_EO,88.6989573424764,return,2
BMu37,8,C,REL,Trunk_Forward,1,L_EO,94.92163785285973,bending,3
BMu37,8,C,REL,Trunk_Forward,1,L_EO,97.68247032493443,return,3
BMu37,8,C,REL,Trunk_Forward,1,R_EO,109.47613705063965,bending,1
BMu37,8,C,REL,Trunk_Forward,1,R_EO,106.32667177601863,return,1
BMu37,8,C,REL,Trunk_Forward,1,R_EO,104.32266030444777,bending,2
BMu37,8,C,REL,Trunk_Forward,1,R_EO,108.13563334327561,return,2
BMu37,8,C,REL,Trunk_Forward,1,R_EO,109.82028960109643,bending,3
BMu37,8,C,REL,Trunk_Forward,1,R_EO,112.07682539612199,return,3
BMu37,9,P,INI,Trunk_Forward,1,L_EO,104.35448291088912,bending,1
BMu37,9,P,INI,Trunk_Forward,1,L_EO,98.66979684992016,return,1
BMu37,9,P,INI,Trunk_Forward,1,L_EO,102.70199751472732,bending,2
BMu37,9,P,INI,Trunk_Forward,1,L_EO,95.78134421365044,return,2
BMu37,9,P,INI,Trunk_Forward,1,L_EO,92.67786726437556,bending,3
BMu37,9,P,INI,Trunk_Forward,1,L_EO,85.05753868475958,return,3
BMu37,9,P,INI,Trunk_Forward,1,L_EO,92.00926445733545,bending,4
BMu37,9,P,INI,Trunk_Forward,1,L_EO,100.32295868218725,return,4
BMu37,9,P,INI,Trunk_Forward,1,R_EO,96.76123836538994,bending,1
BMu37,9,P,INI,Trunk_Forward,1,R_EO,88.39917340370977,return,1
BMu37,9,P,INI,Trunk_Forward,1,R_EO,98.18704852211027,bending,2
BMu37,9,P,INI,Trunk_Forward,1,R_EO,91.76146494505649,return,2
BMu37,9,P,INI,Trunk_Forward,1,R_EO,94.54571695126218,bending,3
BMu37,9,P,INI,Trunk_Forward,1,R_EO,87.77399803962902,return,3
BMu37,9,P,INI,Trunk_Forward,1,R_EO,90.64231655326685,bending,4
BMu37,9,P,INI,Trunk_Forward,1,R_EO,95.12313529662747,return,4
BMu37,9,P,REL,Trunk_Forward,1,L_EO,87.34786859317619,bending,1
BMu37,9,P,REL,Trunk_Forward,1,L_EO,94.77345732628667,return,1
BMu37,9,P,REL,Trunk_Forward,1,L_EO,91.95885374469121,bending,2
BMu37,9,P,REL,Trunk_Forward,1,L_EO,98.05591538893209,return,2
BMu37,9,P,REL,Trunk_Forward,1,L_EO,96.06921656680252,bending,3
BMu37,9,P,REL,Trunk_Forward,1,L_EO,95.51803496982298,return,3
BMu37,9,P,REL,Trunk_Forward,1,R_EO,91.96311271678017,bending,1
BMu37,9,P,REL,Trunk_Forward,1,R_EO,101.5449581173534,return,1
BMu37,9,P,REL,Trunk_Forward,1,R_EO,106.80440947025714,bending,2
BMu37,9,P,REL,Trunk_Forward,1,R_EO,95.95507082356757,return,2
BMu37,9,P,REL,Trunk_Forward,1,R_EO,102.63706322682809,bending,3
BMu37,9,P,REL,Trunk_Forward,1,R_EO,97.58525428187964,return,3
BMu37,10,P,INI,Trunk_Forward,1,L_EO,92.9716959276694,bending,1
BMu37,10,P,INI,Trunk_Forward,1,L_EO,92.43793384158727,return,1
BMu37,10,P,INI,Trunk_Forward,1,L_EO,87.47963495233034,bending,2
BMu37,10,P,INI,Trunk_Forward,1,L_EO,96.67759185052687,return,2
BMu37,10,P,INI,Trunk_Forward,1,L_EO,97.30436393012363,bending,3
BMu37,10,P,INI,Trunk_Forward,1,L_EO,87.72775476059017,return,3
BMu37,10,P,INI,Trunk_Forward,1,R_EO,90.51217917575079,bending,1
BMu37,10,P,INI,Trunk_Forward,1,R_EO,94.20461853617913,return,1
BMu37,10,P,INI,Trunk_Forward,1,R_EO,88.2203951103367,bending,2
BMu37,10,P,INI,Trunk_Forward,1,R_EO,99.52182704221055,return,2
BMu37,10,P,INI,Trunk_Forward,1,R_EO,89.56502903064502,bending,3
BMu37,10,P,INI,Trunk_Forward,1,R_EO,95.31767366604325,return,3
BMu37,10,P,REL,Trunk_Forward,1,L_EO,109.36939277820859,bending,1
BMu37,10,P,REL,Trunk_Forward,1,L_EO,110.40127158338915,return,1
BMu37,10,P,REL,Trunk_Forward,1,L_EO,112.1834698652836,bending,2
BMu37,10,P,REL,Trunk_Forward,1,L_EO,101.39572159473151,return,2
BMu37,10,P,REL,Trunk_Forward,1,L_EO,115.80734331394288,bending,3
BMu37,10,P,REL,Trunk_Forward,1,L_EO,106.14619193947688,return,3
BMu37,10,P,REL,Trunk_Forward,1,R_EO,107.86839020914306,bending,1
BMu37,10,P,REL,Trunk_Forward,1,R_EO,111.00538372198491,return,1
BMu37,10,P,REL,Trunk_Forward,1,R_EO,104.19241774095269,bending,2
BMu37,10,P,REL,Trunk_Forward,1,R_EO,108.81804172332339,return,2
BMu37,10,P,REL,Trunk_Forward,1,R_EO,109.83821783717472,bending,3
BMu37,10,P,REL,Trunk_Forward,1,R_EO,106.95096116270305,return,3
BMu37,11,P,INI,Trunk_Forward,1,L_EO,76.95551878725068,bending,1
BMu37,11,P,INI,Trunk_Forward,1,L_EO,75.65821596313879,return,1
BMu37,11,P,INI,Trunk_Forward,1,L_EO,79.94303209082636,bending,2
BMu37,11,P,INI,Trunk_Forward,1,L_EO,81.26229868299173,return,2
BMu37,11,P,INI,Trunk_Forward,1,L_EO,80.4183146954722,bending,3
BMu37,11,P,INI,Trunk_Forward,1,L_EO,79.03081102427437,return,3
BMu37,11,P,INI,Trunk_Forward,1,R_EO,74.75970940811919,bending,1
BMu37,11,P,INI,Trunk_Forward,1,R_EO,73.63376301254928,return,1
BMu37,11,P,INI,Trunk_Forward,1,R_EO,72.3285317408789,bending,2
BMu37,11,P,INI,Trunk_Forward,1,R_EO,72.23211405979201,return,2
BMu37,11,P,INI,Trunk_Forward,1,R_EO,73.89736484547547,bending,3
BMu37,11,P,INI,Trunk_Forward,1,R_EO,74.67231780659559,return,3
BMu37,11,P,REL,Trunk_Forward,1,L_EO,89.2572145212036,bending,1
BMu37,11,P,REL,Trunk_Forward,1,L_EO,96.52463689366009,return,1
BMu37,11,P,REL,Trunk_Forward,1,L_EO,97.48412423124381,bending,2
BMu37,11,P,REL,Trunk_Forward,1,L_EO,96.55024845246112,return,2
BMu37,11,P,REL,Trunk_Forward,1,L_EO,93.6208772652752,bending,3
BMu37,11,P,REL,Trunk_Forward,1,L_EO,92.83251510950704,return,3
BMu37,11,P,REL,Trunk_Forward,1,R_EO,88.01134768366235,bending,1
BMu37,11,P,REL,Trunk_Forward,1,R_EO,99.44439513350866,return,1
BMu37,11,P,REL,Trunk_Forward,1,R_EO,105.05014772320784,bending,2
BMu37,11,P,REL,Trunk_Forward,1,R_EO,103.02974026835271,return,2
BMu37,11,P,REL,Trunk_Forward,1,R_EO,91.07153289112287,bending,3
BMu37,11,P,REL,Trunk_Forward,1,R_EO,97.62921822675986,return,3
BMu37,12,P,INI,Trunk_Forward,1,L_EO,98.5769138074142,bending,1
BMu37,12,P,INI,Trunk_Forward,1,L_EO,105.70084850815908,return,1
BMu37,12,P,INI,Trunk_Forward,1,L_EO,100.06048164784929,bending,2
BMu37,12,P,INI,Trunk_Forward,1,L_EO,104.44100842813052,return,2
BMu37,12,P,INI,Trunk_Forward,1,L_EO,98.24634098566833,bending,3
BMu37,12,P,INI,Trunk_Forward,1,L_EO,106.53486321993944,return,3
BMu37,12,P,INI,Trunk_Forward,1,R_EO,103.8600168912466,bending,1
BMu37,12,P,INI,Trunk_Forward,1,R_EO,110.79553668571393,return,1
BMu37,12,P,INI,Trunk_Forward,1,R_EO,108.44579229504198,bending,2
BMu37,12,P,INI,Trunk_Forward,1,R_EO,106.71907142819416,return,2
BMu37,12,P,INI,Trunk_Forward,1,R_EO,93.11887555510388,bending,3
BMu37,12,P,INI,Trunk_Forward,1,R_EO,103.05421847757562,return,3
BMu37,12,P,REL,Trunk_Forward,1,L_EO,120.29165296965455,bending,1
BMu37,12,P,REL,Trunk_Forward,1,L_EO,120.90163039238415,return,1
BMu37,12,P,REL,Trunk_Forward,1,L_EO,120.68053544728642,bending,2
BMu37,12,P,REL,Trunk_Forward,1,L_EO,118.12317686175889,return,2
BMu37,12,P,REL,Trunk_Forward,1,L_EO,115.54130986606857,bending,3
BMu37,12,P,REL,Trunk_Forward,1,L_EO,123.82257718950538,return,3
BMu37,12,P,REL,Trunk_Forward,1,R_EO,133.81996247165117,bending,1
BMu37,12,P,REL,Trunk_Forward,1,R_EO,133.3351288733083,return,1
BMu37,12,P,REL,Trunk_Forward,1,R_EO,133.88592748085898,bending,2
BMu37,12,P,REL,Trunk_Forward,1,R_EO,128.81826809795936,return,2
BMu37,12,P,REL,Trunk_Forward,1,R_EO,125.40948744796209,bending,3
BMu37,12,P,REL,Trunk_Forward,1,R_EO,130.50135473141248,return,3
BMu37,13,C,INI,Trunk_Forward,1,L_EO,87.29554130576403,bending,1
BMu37,13,C,INI,Trunk_Forward,1,L_EO,91.92983255393546,return,1
BMu37,13,C,INI,Trunk_Forward,1,L_EO,97.04553510445457,bending,2
BMu37,13,C,INI,Trunk_Forward,1,L_EO,90.06988941297418,return,2
BMu37,13,C,INI,Trunk_Forward,1,L_EO,96.10685619805312,bending,3
BMu37,13,C,INI,Trunk_Forward,1,L_EO,93.121652431624,return,3
BMu37,13,C,INI,Trunk_Forward,1,R_EO,82.42046274340363,bending,1
BMu37,13,C,INI,Trunk_Forward,1,R_EO,78.43348607807442,return,1
BMu37,13,C,INI,Trunk_Forward,1,R_EO,81.29711723076178,bending,2
BMu37,13,C,INI,Trunk_Forward,1,R_EO,88.34973406460229,return,2
BMu37,13,C,INI,Trunk_Forward,1,R_EO,90.40940127154926,bending,3
BMu37,13,C,INI,Trunk_Forward,1,R_EO,89.81308856746746,return,3
BMu37,13,C,REL,Trunk_Forward,1,L_EO,95.88518120433137,bending,1
BMu37,13,C,REL,Trunk_Forward,1,L_EO,96.35483459817668,return,1
BMu37,13,C,REL,Trunk_Forward,1,L_EO,92.42557644001262,bending,2
BMu37,13,C,REL,Trunk_Forward,1,L_EO,100.557772096327,return,2
BMu37,13,C,REL,Trunk_Forward,1,L_EO,96.23467292146044,bending,3
BMu37,13,C,REL,Trunk_Forward,1,L_EO,100.63978934444569,return,3
BMu37,13,C,REL,Trunk_Forward,1,R_EO,118.28829598697585,bending,1
BMu37,13,C,REL,Trunk_Forward,1,R_EO,124.29242687988473,return,1
BMu37,13,C,REL,Trunk_Forward,1,R_EO,122.24321441147309,bending,2
BMu37,13,C,REL,Trunk_Forward,1,R_EO,120.24270710100656,return,2
BMu37,13,C,REL,Trunk_Forward,1,R_EO,124.91316276134633,bending,3
BMu37,13,C,REL,Trunk_Forward,1,R_EO,120.07461886730208,return,3
BMu37,14,P,INI,Trunk_Forward,1,L_EO,110.4144953053611,bending,1
BMu37,14,P,INI,Trunk_Forward,1,L_EO,118.47075020068986,return,1
BMu37,14,P,INI,Trunk_Forward,1,L_EO,103.05072049293527,bending,2
BMu37,14,P,INI,Trunk_Forward,1,L_EO,74.69738269405003,return,2
BMu37,14,P,INI,Trunk_Forward,1,L_EO,106.80410108149658,bending,3
BMu37,14,P,INI,Trunk_Forward,1,L_EO,101.28858076178798,return,3
BMu37,14,P,INI,Trunk_Forward,1,R_EO,99.71020544677309,bending,1
BMu37,14,P,INI,Trunk_Forward,1,R_EO,107.4389387980918,return,1
BMu37,14,P,INI,Trunk_Forward,1,R_EO,100.3467414624049,bending,2
BMu37,14,P,INI,Trunk_Forward,1,R_EO,101.15065709763036,return,2
BMu37,14,P,INI,Trunk_Forward,1,R_EO,112.81932618389361,bending,3
BMu37,14,P,INI,Trunk_Forward,1,R_EO,106.37379155581854,return,3
BMu37,14,P,REL,Trunk_Forward,1,L_EO,115.61840592174174,bending,1
BMu37,14,P,REL,Trunk_Forward,1,L_EO,113.08983726075418,return,1
BMu37,14,P,REL,Trunk_Forward,1,L_EO,98.91927816859223,bending,2
BMu37,14,P,REL,Trunk_Forward,1,L_EO,92.0685860760872,return,2
BMu37,14,P,REL,Trunk_Forward,1,L_EO,93.94662359383123,bending,3
BMu37,14,P,REL,Trunk_Forward,1,L_EO,105.54183167609759,return,3
BMu37,14,P,REL,Trunk_Forward,1,L_EO,96.34925437923114,bending,4
BMu37,14,P,REL,Trunk_Forward,1,L_EO,102.88844471763808,return,4
BMu37,14,P,REL,Trunk_Forward,1,R_EO,129.246475629049,bending,1
BMu37,14,P,REL,Trunk_Forward,1,R_EO,175.2229341593554,return,1
BMu37,14,P,REL,Trunk_Forward,1,R_EO,151.72689477369494,bending,2
BMu37,14,P,REL,Trunk_Forward,1,R_EO,170.71078712733024,return,2
BMu37,14,P,REL,Trunk_Forward,1,R_EO,136.10095809386084,bending,3
BMu37,14,P,REL,Trunk_Forward,1,R_EO,151.39846134425815,return,3
BMu37,14,P,REL,Trunk_Forward,1,R_EO,139.61670674625358,bending,4
BMu37,14,P,REL,Trunk_Forward,1,R_EO,160.43095116537907,return,4
BMu37,16,C,INI,Trunk_Forward,1,L_EO,147.28004186655346,bending,1
BMu37,16,C,INI,Trunk_Forward,1,L_EO,151.05250508458818,return,1
BMu37,16,C,INI,Trunk_Forward,1,L_EO,141.87602337775908,bending,2
BMu37,16,C,INI,Trunk_Forward,1,L_EO,142.4294595507225,return,2
BMu37,16,C,INI,Trunk_Forward,1,L_EO,148.0207174520353,bending,3
BMu37,16,C,INI,Trunk_Forward,1,L_EO,142.92037241813412,return,3
BMu37,16,C,INI,Trunk_Forward,1,R_EO,114.29171752881552,bending,1
BMu37,16,C,INI,Trunk_Forward,1,R_EO,125.81785499857305,return,1
BMu37,16,C,INI,Trunk_Forward,1,R_EO,126.09818408224007,bending,2
BMu37,16,C,INI,Trunk_Forward,1,R_EO,131.47082220817865,return,2
BMu37,16,C,INI,Trunk_Forward,1,R_EO,132.21469346492378,bending,3
BMu37,16,C,INI,Trunk_Forward,1,R_EO,118.07595966893116,return,3
BMu37,16,C,REL,Trunk_Forward,1,L_EO,130.6521020246259,bending,1
BMu37,16,C,REL,Trunk_Forward,1,L_EO,140.80073370345937,return,1
BMu37,16,C,REL,Trunk_Forward,1,L_EO,132.51669237708083,bending,2
BMu37,16,C,REL,Trunk_Forward,1,L_EO,143.53512420361824,return,2
BMu37,16,C,REL,Trunk_Forward,1,L_EO,148.633939728356,bending,3
BMu37,16,C,REL,Trunk_Forward,1,L_EO,147.14772821376212,return,3
BMu37,16,C,REL,Trunk_Forward,1,R_EO,105.16894582045519,bending,1
BMu37,16,C,REL,Trunk_Forward,1,R_EO,106.36296204429529,return,1
BMu37,16,C,REL,Trunk_Forward,1,R_EO,103.27215851147629,bending,2
BMu37,16,C,REL,Trunk_Forward,1,R_EO,107.57862983743179,return,2
BMu37,16,C,REL,Trunk_Forward,1,R_EO,106.12991349124957,bending,3
BMu37,16,C,REL,Trunk_Forward,1,R_EO,111.92467550021695,return,3
BMu37,17,P,INI,Trunk_Forward,1,L_EO,107.2342204227811,bending,1
BMu37,17,P,INI,Trunk_Forward,1,L_EO,102.4497903349209,return,1
BMu37,17,P,INI,Trunk_Forward,1,L_EO,93.72999283024602,bending,2
BMu37,17,P,INI,Trunk_Forward,1,L_EO,106.28552456161566,return,2
BMu37,17,P,INI,Trunk_Forward,1,L_EO,100.57597584895102,bending,3
BMu37,17,P,INI,Trunk_Forward,1,L_EO,103.13326960787795,return,3
BMu37,17,P,INI,Trunk_Forward,1,R_EO,110.89348955979122,bending,1
BMu37,17,P,INI,Trunk_Forward,1,R_EO,121.12574396515777,return,1
BMu37,17,P,INI,Trunk_Forward,1,R_EO,118.48242479464012,bending,2
BMu37,17,P,INI,Trunk_Forward,1,R_EO,116.93833572737437,return,2
BMu37,17,P,INI,Trunk_Forward,1,R_EO,115.51018905601241,bending,3
BMu37,17,P,INI,Trunk_Forward,1,R_EO,120.31239111843722,return,3
BMu37,17,P,REL,Trunk_Forward,1,L_EO,103.71647537213236,bending,1
BMu37,17,P,REL,Trunk_Forward,1,L_EO,104.73910450982602,return,1
BMu37,17,P,REL,Trunk_Forward,1,L_EO,104.2650648144465,bending,2
BMu37,17,P,REL,Trunk_Forward,1,L_EO,96.82702369922731,return,2
BMu37,17,P,REL,Trunk_Forward,1,L_EO,103.15180920173466,bending,3
BMu37,17,P,REL,Trunk_Forward,1,L_EO,94.87912179496938,return,3
BMu37,17,P,REL,Trunk_Forward,1,R_EO,112.76137641611508,bending,1
BMu37,17,P,REL,Trunk_Forward,1,R_EO,113.70420540745155,return,1
BMu37,17,P,REL,Trunk_Forward,1,R_EO,110.29477885197811,bending,2
BMu37,17,P,REL,Trunk_Forward,1,R_EO,110.22527031184596,return,2
BMu37,17,P,REL,Trunk_Forward,1,R_EO,116.42997178027632,bending,3
BMu37,17,P,REL,Trunk_Forward,1,R_EO,113.86123101191446,return,3
BMu37,21,C,INI,Trunk_Forward,1,L_EO,94.04479785059523,bending,1
BMu37,21,C,INI,Trunk_Forward,1,L_EO,98.40884173863063,return,1
BMu37,21,C,INI,Trunk_Forward,1,L_EO,94.8650775167132,bending,2
BMu37,21,C,INI,Trunk_Forward,1,L_EO,104.04413132922777,return,2
BMu37,21,C,INI,Trunk_Forward,1,L_EO,110.74530450545384,bending,3
BMu37,21,C,INI,Trunk_Forward,1,L_EO,95.7942879703146,return,3
BMu37,21,C,INI,Trunk_Forward,1,R_EO,82.2666672601227,bending,1
BMu37,21,C,INI,Trunk_Forward,1,R_EO,89.51824998745329,return,1
BMu37,21,C,INI,Trunk_Forward,1,R_EO,91.05894004218224,bending,2
BMu37,21,C,INI,Trunk_Forward,1,R_EO,97.4817364315903,return,2
BMu37,21,C,INI,Trunk_Forward,1,R_EO,92.99923061324583,bending,3
BMu37,21,C,INI,Trunk_Forward,1,R_EO,94.8898089732452,return,3
BMu37,21,C,REL,Trunk_Forward,1,L_EO,107.75258070294731,bending,1
BMu37,21,C,REL,Trunk_Forward,1,L_EO,108.98894325354313,return,1
BMu37,21,C,REL,Trunk_Forward,1,L_EO,105.47436365464843,bending,2
BMu37,21,C,REL,Trunk_Forward,1,L_EO,105.9627091868694,return,2
BMu37,21,C,REL,Trunk_Forward,1,L_EO,103.6354972695698,bending,3
BMu37,21,C,REL,Trunk_Forward,1,L_EO,96.16339349142642,return,3
BMu37,21,C,REL,Trunk_Forward,1,R_EO,95.90374093478391,bending,1
BMu37,21,C,REL,Trunk_Forward,1,R_EO,90.16833743476377,return,1
BMu37,21,C,REL,Trunk_Forward,1,R_EO,82.94566124261266,bending,2
BMu37,21,C,REL,Trunk_Forward,1,R_EO,81.94390738468414,return,2
BMu37,21,C,REL,Trunk_Forward,1,R_EO,74.99981480538978,bending,3
BMu37,21,C,REL,Trunk_Forward,1,R_EO,75.65320664496218,return,3
BMu37,22,C,INI,Trunk_Forward,1,L_EO,110.45242071788715,bending,1
BMu37,22,C,INI,Trunk_Forward,1,L_EO,102.06935691426656,return,1
BMu37,22,C,INI,Trunk_Forward,1,L_EO,113.97453187581797,bending,2
BMu37,22,C,INI,Trunk_Forward,1,L_EO,107.09618076532504,return,2
BMu37,22,C,INI,Trunk_Forward,1,L_EO,112.93293572816593,bending,3
BMu37,22,C,INI,Trunk_Forward,1,L_EO,105.69824355914034,return,3
BMu37,22,C,INI,Trunk_Forward,1,R_EO,126.29621226380138,bending,1
BMu37,22,C,INI,Trunk_Forward,1,R_EO,123.11184339240396,return,1
BMu37,22,C,INI,Trunk_Forward,1,R_EO,121.38777303902081,bending,2
BMu37,22,C,INI,Trunk_Forward,1,R_EO,127.15313971536298,return,2
BMu37,22,C,INI,Trunk_Forward,1,R_EO,126.80303956386764,bending,3
BMu37,22,C,INI,Trunk_Forward,1,R_EO,121.12136813639574,return,3
BMu37,22,C,REL,Trunk_Forward,1,L_EO,121.89437303745065,bending,1
BMu37,22,C,REL,Trunk_Forward,1,L_EO,115.61626443722203,return,1
BMu37,22,C,REL,Trunk_Forward,1,L_EO,116.66362056610421,bending,2
BMu37,22,C,REL,Trunk_Forward,1,L_EO,121.36910187941842,return,2
BMu37,22,C,REL,Trunk_Forward,1,L_EO,121.85127888248826,bending,3
BMu37,22,C,REL,Trunk_Forward,1,L_EO,123.69163877313288,return,3
BMu37,22,C,REL,Trunk_Forward,1,R_EO,149.48331282869174,bending,1
BMu37,22,C,REL,Trunk_Forward,1,R_EO,147.2757350965663,return,1
BMu37,22,C,REL,Trunk_Forward,1,R_EO,146.10736275826508,bending,2
BMu37,22,C,REL,Trunk_Forward,1,R_EO,145.82516636278342,return,2
BMu37,22,C,REL,Trunk_Forward,1,R_EO,149.48254408562323,bending,3
BMu37,22,C,REL,Trunk_Forward,1,R_EO,142.05012172363408,return,3
BMu37,23,C,INI,Trunk_Forward,1,L_EO,126.3126246489313,bending,1
BMu37,23,C,INI,Trunk_Forward,1,L_EO,123.97945599695765,return,1
BMu37,23,C,INI,Trunk_Forward,1,L_EO,133.64498463394034,bending,2
BMu37,23,C,INI,Trunk_Forward,1,L_EO,127.8273354306784,return,2
BMu37,23,C,INI,Trunk_Forward,1,L_EO,131.31659104515958,bending,3
BMu37,23,C,INI,Trunk_Forward,1,L_EO,142.30206133672695,return,3
BMu37,23,C,INI,Trunk_Forward,1,R_EO,97.588011972036,bending,1
BMu37,23,C,INI,Trunk_Forward,1,R_EO,101.90255773233672,return,1
BMu37,23,C,INI,Trunk_Forward,1,R_EO,104.28788873830929,bending,2
BMu37,23,C,INI,Trunk_Forward,1,R_EO,103.09669625634935,return,2
BMu37,23,C,INI,Trunk_Forward,1,R_EO,107.02193699818866,bending,3
BMu37,23,C,INI,Trunk_Forward,1,R_EO,102.13231176773903,return,3
BMu37,23,C,REL,Trunk_Forward,1,L_EO,137.9559206160876,bending,1
BMu37,23,C,REL,Trunk_Forward,1,L_EO,145.4701360312885,return,1
BMu37,23,C,REL,Trunk_Forward,1,L_EO,128.1886092009528,bending,2
BMu37,23,C,REL,Trunk_Forward,1,L_EO,155.66613453749503,return,2
BMu37,23,C,REL,Trunk_Forward,1,L_EO,123.19761796529527,bending,3
BMu37,23,C,REL,Trunk_Forward,1,L_EO,133.12602973331317,return,3
BMu37,23,C,REL,Trunk_Forward,1,R_EO,99.15688544832125,bending,1
BMu37,23,C,REL,Trunk_Forward,1,R_EO,110.98547199378034,return,1
BMu37,23,C,REL,Trunk_Forward,1,R_EO,107.28191820026859,bending,2
BMu37,23,C,REL,Trunk_Forward,1,R_EO,106.64078854573442,return,2
BMu37,23,C,REL,Trunk_Forward,1,R_EO,107.14658750866028,bending,3
BMu37,23,C,REL,Trunk_Forward,1,R_EO,99.7858749208388,return,3
BMu37,24,P,INI,Trunk_Forward,1,L_EO,113.62583654843044,bending,1
BMu37,24,P,INI,Trunk_Forward,1,L_EO,105.40871685235744,return,1
BMu37,24,P,INI,Trunk_Forward,1,L_EO,114.41888615928781,bending,2
BMu37,24,P,INI,Trunk_Forward,1,L_EO,106.26113365027301,return,2
BMu37,24,P,INI,Trunk_Forward,1,L_EO,115.17363275660665,bending,3
BMu37,24,P,INI,Trunk_Forward,1,L_EO,116.19514756429524,return,3
BMu37,24,P,INI,Trunk_Forward,1,R_EO,135.9779722336716,bending,1
BMu37,24,P,INI,Trunk_Forward,1,R_EO,132.98386279745384,return,1
BMu37,24,P,INI,Trunk_Forward,1,R_EO,131.3582879834528,bending,2
BMu37,24,P,INI,Trunk_Forward,1,R_EO,131.67157771841454,return,2
BMu37,24,P,INI,Trunk_Forward,1,R_EO,134.15812651824828,bending,3
BMu37,24,P,INI,Trunk_Forward,1,R_EO,133.74233616955325,return,3
BMu37,24,P,REL,Trunk_Forward,1,L_EO,110.48027635299167,bending,1
BMu37,24,P,REL,Trunk_Forward,1,L_EO,113.8946222932503,return,1
BMu37,24,P,REL,Trunk_Forward,1,L_EO,111.3494914345541,bending,2
BMu37,24,P,REL,Trunk_Forward,1,L_EO,118.11266162589858,return,2
BMu37,24,P,REL,Trunk_Forward,1,L_EO,111.62095791487471,bending,3
BMu37,24,P,REL,Trunk_Forward,1,L_EO,115.43289056400775,return,3
BMu37,24,P,REL,Trunk_Forward,1,R_EO,124.86060805779287,bending,1
BMu37,24,P,REL,Trunk_Forward,1,R_EO,136.30941506854958,return,1
BMu37,24,P,REL,Trunk_Forward,1,R_EO,133.49229322768082,bending,2
BMu37,24,P,REL,Trunk_Forward,1,R_EO,136.63148833123176,return,2
BMu37,24,P,REL,Trunk_Forward,1,R_EO,135.0674130099427,bending,3
BMu37,24,P,REL,Trunk_Forward,1,R_EO,126.31245985691676,return,3
BMu37,25,C,INI,Trunk_Forward,1,L_EO,100.95757159024897,bending,1
BMu37,25,C,INI,Trunk_Forward,1,L_EO,115.17404604986666,return,1
BMu37,25,C,INI,Trunk_Forward,1,L_EO,100.03681652811578,bending,2
BMu37,25,C,INI,Trunk_Forward,1,L_EO,94.12385993285221,return,2
BMu37,25,C,INI,Trunk_Forward,1,L_EO,89.42950762952242,bending,3
BMu37,25,C,INI,Trunk_Forward,1,L_EO,90.00683173954032,return,3
BMu37,25,C,INI,Trunk_Forward,1,R_EO,111.62493632244497,bending,1
BMu37,25,C,INI,Trunk_Forward,1,R_EO,124.78103795121078,return,1
BMu37,25,C,INI,Trunk_Forward,1,R_EO,109.03052753854395,bending,2
BMu37,25,C,INI,Trunk_Forward,1,R_EO,103.77323559177343,return,2
BMu37,25,C,INI,Trunk_Forward,1,R_EO,115.7204544692986,bending,3
BMu37,25,C,INI,Trunk_Forward,1,R_EO,123.5939828406014,return,3
BMu37,25,C,REL,Trunk_Forward,1,L_EO,104.60060169764843,bending,1
BMu37,25,C,REL,Trunk_Forward,1,L_EO,103.26232462105233,return,1
BMu37,25,C,REL,Trunk_Forward,1,L_EO,105.10125759704579,bending,2
BMu37,25,C,REL,Trunk_Forward,1,L_EO,108.33180946412804,return,2
BMu37,25,C,REL,Trunk_Forward,1,L_EO,113.52212773411692,bending,3
BMu37,25,C,REL,Trunk_Forward,1,L_EO,112.5199699089975,return,3
BMu37,25,C,REL,Trunk_Forward,1,R_EO,109.88306256759226,bending,1
BMu37,25,C,REL,Trunk_Forward,1,R_EO,102.6047147327661,return,1
BMu37,25,C,REL,Trunk_Forward,1,R_EO,105.19570895583571,bending,2
BMu37,25,C,REL,Trunk_Forward,1,R_EO,97.97666825175416,return,2
BMu37,25,C,REL,Trunk_Forward,1,R_EO,104.1687879530588,bending,3
BMu37,25,C,REL,Trunk_Forward,1,R_EO,108.48547935108941,return,3
BMu37,26,P,INI,Trunk_Forward,1,L_EO,74.7278475234759,bending,1
BMu37,26,P,INI,Trunk_Forward,1,L_EO,75.05774771464895,return,1
BMu37,26,P,INI,Trunk_Forward,1,L_EO,74.05812068467465,bending,2
BMu37,26,P,INI,Trunk_Forward,1,L_EO,73.98085808050892,return,2
BMu37,26,P,INI,Trunk_Forward,1,L_EO,71.79453392244581,bending,3
BMu37,26,P,INI,Trunk_Forward,1,L_EO,81.14847472364521,return,3
BMu37,26,P,INI,Trunk_Forward,1,R_EO,77.38443952788029,bending,1
BMu37,26,P,INI,Trunk_Forward,1,R_EO,76.68376614974613,return,1
BMu37,26,P,INI,Trunk_Forward,1,R_EO,69.05272462423487,bending,2
BMu37,26,P,INI,Trunk_Forward,1,R_EO,89.58826944642887,return,2
BMu37,26,P,INI,Trunk_Forward,1,R_EO,77.69624174369403,bending,3
BMu37,26,P,INI,Trunk_Forward,1,R_EO,81.666808296508,return,3
BMu37,26,P,REL,Trunk_Forward,1,L_EO,70.6836618862428,bending,1
BMu37,26,P,REL,Trunk_Forward,1,L_EO,91.23144773383746,return,1
BMu37,26,P,REL,Trunk_Forward,1,L_EO,67.6824301316024,bending,2
BMu37,26,P,REL,Trunk_Forward,1,L_EO,82.15765772746923,return,2
BMu37,26,P,REL,Trunk_Forward,1,L_EO,72.53038631111086,bending,3
BMu37,26,P,REL,Trunk_Forward,1,L_EO,88.16633580901826,return,3
BMu37,26,P,REL,Trunk_Forward,1,R_EO,60.63435720550387,bending,1
BMu37,26,P,REL,Trunk_Forward,1,R_EO,39.90641258047305,return,1
BMu37,26,P,REL,Trunk_Forward,1,R_EO,45.421240343126776,bending,2
BMu37,26,P,REL,Trunk_Forward,1,R_EO,45.31514315986231,return,2
BMu37,26,P,REL,Trunk_Forward,1,R_EO,42.31687743451679,bending,3
BMu37,26,P,REL,Trunk_Forward,1,R_EO,33.82627225239703,return,3
BMu37,27,P,INI,Trunk_Forward,1,L_EO,97.06454563989075,bending,1
BMu37,27,P,INI,Trunk_Forward,1,L_EO,103.48646281134852,return,1
BMu37,27,P,INI,Trunk_Forward,1,L_EO,99.26851090940968,bending,2
BMu37,27,P,INI,Trunk_Forward,1,L_EO,116.62920960785175,return,2
BMu37,27,P,INI,Trunk_Forward,1,L_EO,105.59571617660377,bending,3
BMu37,27,P,INI,Trunk_Forward,1,L_EO,106.02804968996168,return,3
BMu37,27,P,INI,Trunk_Forward,1,R_EO,99.8135490915626,bending,1
BMu37,27,P,INI,Trunk_Forward,1,R_EO,102.93280891331699,return,1
BMu37,27,P,INI,Trunk_Forward,1,R_EO,118.03812423899699,bending,2
BMu37,27,P,INI,Trunk_Forward,1,R_EO,118.12880500049806,return,2
BMu37,27,P,INI,Trunk_Forward,1,R_EO,117.34560736992854,bending,3
BMu37,27,P,INI,Trunk_Forward,1,R_EO,116.19495093614373,return,3
BMu37,27,P,REL,Trunk_Forward,1,L_EO,102.49087913526392,bending,1
BMu37,27,P,REL,Trunk_Forward,1,L_EO,103.09883482531352,return,1
BMu37,27,P,REL,Trunk_Forward,1,L_EO,101.0208851268658,bending,2
BMu37,27,P,REL,Trunk_Forward,1,L_EO,122.580813141899,return,2
BMu37,27,P,REL,Trunk_Forward,1,L_EO,105.88126457415889,bending,3
BMu37,27,P,REL,Trunk_Forward,1,L_EO,101.10595955871752,return,3
BMu37,27,P,REL,Trunk_Forward,1,L_EO,104.87157193527624,bending,4
BMu37,27,P,REL,Trunk_Forward,1,L_EO,93.04563124163134,return,4
BMu37,27,P,REL,Trunk_Forward,1,R_EO,91.98213054336829,bending,1
BMu37,27,P,REL,Trunk_Forward,1,R_EO,92.61163720083721,return,1
BMu37,27,P,REL,Trunk_Forward,1,R_EO,93.40124225525952,bending,2
BMu37,27,P,REL,Trunk_Forward,1,R_EO,109.34584398940164,return,2
BMu37,27,P,REL,Trunk_Forward,1,R_EO,115.69060410093228,bending,3
BMu37,27,P,REL,Trunk_Forward,1,R_EO,74.84375612685557,return,3
BMu37,27,P,REL,Trunk_Forward,1,R_EO,96.89503733639803,bending,4
BMu37,27,P,REL,Trunk_Forward,1,R_EO,84.10265639852503,return,4
BMu37,28,P,INI,Trunk_Forward,1,L_EO,103.17913103958755,bending,1
BMu37,28,P,INI,Trunk_Forward,1,L_EO,108.44900663864172,return,1
BMu37,28,P,INI,Trunk_Forward,1,L_EO,104.27876632763797,bending,2
BMu37,28,P,INI,Trunk_Forward,1,L_EO,109.23864836818898,return,2
BMu37,28,P,INI,Trunk_Forward,1,L_EO,98.84936121043894,bending,3
BMu37,28,P,INI,Trunk_Forward,1,L_EO,105.5025401231015,return,3
BMu37,28,P,INI,Trunk_Forward,1,R_EO,122.39665826235652,bending,1
BMu37,28,P,INI,Trunk_Forward,1,R_EO,124.90867403284327,return,1
BMu37,28,P,INI,Trunk_Forward,1,R_EO,125.77028252446007,bending,2
BMu37,28,P,INI,Trunk_Forward,1,R_EO,119.5189075329613,return,2
BMu37,28,P,INI,Trunk_Forward,1,R_EO,114.87651158571998,bending,3
BMu37,28,P,INI,Trunk_Forward,1,R_EO,114.24521595200217,return,3
BMu37,28,P,REL,Trunk_Forward,1,L_EO,100.62989467246186,bending,1
BMu37,28,P,REL,Trunk_Forward,1,L_EO,103.35331449003617,return,1
BMu37,28,P,REL,Trunk_Forward,1,L_EO,108.62936268343752,bending,2
BMu37,28,P,REL,Trunk_Forward,1,L_EO,100.29792443522044,return,2
BMu37,28,P,REL,Trunk_Forward,1,L_EO,106.01197642161584,bending,3
BMu37,28,P,REL,Trunk_Forward,1,L_EO,105.31326457935673,return,3
BMu37,28,P,REL,Trunk_Forward,1,R_EO,114.55759735995154,bending,1
BMu37,28,P,REL,Trunk_Forward,1,R_EO,114.23056984908845,return,1
BMu37,28,P,REL,Trunk_Forward,1,R_EO,118.14079780389909,bending,2
BMu37,28,P,REL,Trunk_Forward,1,R_EO,115.84034287652408,return,2
BMu37,28,P,REL,Trunk_Forward,1,R_EO,117.70699935273612,bending,3
BMu37,28,P,REL,Trunk_Forward,1,R_EO,116.11604648280968,return,3
BMu37,29,P,INI,Trunk_Forward,1,L_EO,97.8173623127235,bending,1
BMu37,29,P,INI,Trunk_Forward,1,L_EO,96.47850980510529,return,1
BMu37,29,P,INI,Trunk_Forward,1,L_EO,94.14773594667247,bending,2
BMu37,29,P,INI,Trunk_Forward,1,L_EO,98.08299671588316,return,2
BMu37,29,P,INI,Trunk_Forward,1,L_EO,93.48690174035647,bending,3
BMu37,29,P,INI,Trunk_Forward,1,L_EO,94.45953952957822,return,3
BMu37,29,P,INI,Trunk_Forward,1,R_EO,93.35154481048217,bending,1
BMu37,29,P,INI,Trunk_Forward,1,R_EO,97.85936470405494,return,1
BMu37,29,P,INI,Trunk_Forward,1,R_EO,97.49270593819551,bending,2
BMu37,29,P,INI,Trunk_Forward,1,R_EO,102.88628654189127,return,2
BMu37,29,P,INI,Trunk_Forward,1,R_EO,98.3247657897842,bending,3
BMu37,29,P,INI,Trunk_Forward,1,R_EO,102.20213418021862,return,3
BMu37,29,P,REL,Trunk_Forward,1,L_EO,94.45255017209418,bending,1
BMu37,29,P,REL,Trunk_Forward,1,L_EO,97.53560744155834,return,1
BMu37,29,P,REL,Trunk_Forward,1,L_EO,102.30146542314132,bending,2
BMu37,29,P,REL,Trunk_Forward,1,L_EO,94.20400508085378,return,2
BMu37,29,P,REL,Trunk_Forward,1,L_EO,99.42758428902958,bending,3
BMu37,29,P,REL,Trunk_Forward,1,L_EO,93.82800329130652,return,3
BMu37,29,P,REL,Trunk_Forward,1,R_EO,100.34993264309621,bending,1
BMu37,29,P,REL,Trunk_Forward,1,R_EO,99.67416613211803,return,1
BMu37,29,P,REL,Trunk_Forward,1,R_EO,99.74374698099565,bending,2
BMu37,29,P,REL,Trunk_Forward,1,R_EO,94.28056022279918,return,2
BMu37,29,P,REL,Trunk_Forward,1,R_EO,101.86972479516527,bending,3
BMu37,29,P,REL,Trunk_Forward,1,R_EO,94.73950788249444,return,3
BMu37,30,P,INI,Trunk_Forward,1,L_EO,139.41315476970607,bending,1
BMu37,30,P,INI,Trunk_Forward,1,L_EO,141.44938786854846,return,1
BMu37,30,P,INI,Trunk_Forward,1,L_EO,146.8597310445859,bending,2
BMu37,30,P,INI,Trunk_Forward,1,L_EO,140.68320525878752,return,2
BMu37,30,P,INI,Trunk_Forward,1,L_EO,145.48678974905715,bending,3
BMu37,30,P,INI,Trunk_Forward,1,L_EO,136.55850235810237,return,3
BMu37,30,P,INI,Trunk_Forward,1,R_EO,142.89591556762227,bending,1
BMu37,30,P,INI,Trunk_Forward,1,R_EO,153.3099402559732,return,1
BMu37,30,P,INI,Trunk_Forward,1,R_EO,157.7792475250651,bending,2
BMu37,30,P,INI,Trunk_Forward,1,R_EO,125.9307824658042,return,2
BMu37,30,P,INI,Trunk_Forward,1,R_EO,131.72508993698878,bending,3
BMu37,30,P,INI,Trunk_Forward,1,R_EO,141.81222665850188,return,3
BMu37,30,P,REL,Trunk_Forward,1,L_EO,140.98117345327734,bending,1
BMu37,30,P,REL,Trunk_Forward,1,L_EO,115.35397031322287,return,1
BMu37,30,P,REL,Trunk_Forward,1,L_EO,143.49642228461704,bending,2
BMu37,30,P,REL,Trunk_Forward,1,L_EO,138.8194747326634,return,2
BMu37,30,P,REL,Trunk_Forward,1,L_EO,147.68581274218593,bending,3
BMu37,30,P,REL,Trunk_Forward,1,L_EO,149.03223934371488,return,3
BMu37,30,P,REL,Trunk_Forward,1,R_EO,114.7331780994171,bending,1
BMu37,30,P,REL,Trunk_Forward,1,R_EO,108.58756641813063,return,1
BMu37,30,P,REL,Trunk_Forward,1,R_EO,108.16499403199613,bending,2
BMu37,30,P,REL,Trunk_Forward,1,R_EO,115.89953941173036,return,2
BMu37,30,P,REL,Trunk_Forward,1,R_EO,107.2240425124614,bending,3
BMu37,30,P,REL,Trunk_Forward,1,R_EO,110.12582261886266,return,3
BMu37,32,P,INI,Trunk_Forward,1,L_EO,126.28250190486352,bending,1
BMu37,32,P,INI,Trunk_Forward,1,L_EO,134.5160573609371,return,1
BMu37,32,P,INI,Trunk_Forward,1,L_EO,131.5442024006183,bending,2
BMu37,32,P,INI,Trunk_Forward,1,L_EO,135.42808673574382,return,2
BMu37,32,P,INI,Trunk_Forward,1,L_EO,135.22485661258708,bending,3
BMu37,32,P,INI,Trunk_Forward,1,L_EO,126.15628377895514,return,3
BMu37,32,P,INI,Trunk_Forward,1,R_EO,119.46953091730252,bending,1
BMu37,32,P,INI,Trunk_Forward,1,R_EO,124.49510472138196,return,1
BMu37,32,P,INI,Trunk_Forward,1,R_EO,127.69639300032901,bending,2
BMu37,32,P,INI,Trunk_Forward,1,R_EO,131.09132175301053,return,2
BMu37,32,P,INI,Trunk_Forward,1,R_EO,125.03765748275968,bending,3
BMu37,32,P,INI,Trunk_Forward,1,R_EO,125.88004803789254,return,3
BMu37,32,P,REL,Trunk_Forward,1,L_EO,109.24776099489807,bending,1
BMu37,32,P,REL,Trunk_Forward,1,L_EO,108.06741804684091,return,1
BMu37,32,P,REL,Trunk_Forward,1,L_EO,119.48959029234578,bending,2
BMu37,32,P,REL,Trunk_Forward,1,L_EO,129.04985969870086,return,2
BMu37,32,P,REL,Trunk_Forward,1,L_EO,122.60118869258677,bending,3
BMu37,32,P,REL,Trunk_Forward,1,L_EO,115.84977108872641,return,3
BMu37,32,P,REL,Trunk_Forward,1,L_EO,126.33361671788042,bending,4
BMu37,32,P,REL,Trunk_Forward,1,L_EO,116.08301839021522,return,4
BMu37,32,P,REL,Trunk_Forward,1,R_EO,114.60031439618712,bending,1
BMu37,32,P,REL,Trunk_Forward,1,R_EO,136.0845059755979,return,1
BMu37,32,P,REL,Trunk_Forward,1,R_EO,131.6183063775366,bending,2
BMu37,32,P,REL,Trunk_Forward,1,R_EO,137.99560306317397,return,2
BMu37,32,P,REL,Trunk_Forward,1,R_EO,137.81596131933173,bending,3
BMu37,32,P,REL,Trunk_Forward,1,R_EO,134.96777396487013,return,3
BMu37,32,P,REL,Trunk_Forward,1,R_EO,135.73109983134907,bending,4
BMu37,32,P,REL,Trunk_Forward,1,R_EO,119.47578666179287,return,4
BMu37,33,P,INI,Trunk_Forward,1,L_EO,81.31506094074554,bending,1
BMu37,33,P,INI,Trunk_Forward,1,L_EO,81.16202474049588,return,1
BMu37,33,P,INI,Trunk_Forward,1,L_EO,70.09598432171083,bending,2
BMu37,33,P,INI,Trunk_Forward,1,L_EO,69.40929422964136,return,2
BMu37,33,P,INI,Trunk_Forward,1,L_EO,73.86730117168031,bending,3
BMu37,33,P,INI,Trunk_Forward,1,L_EO,72.01666915549049,return,3
BMu37,33,P,INI,Trunk_Forward,1,L_EO,71.42402898321231,bending,4
BMu37,33,P,INI,Trunk_Forward,1,L_EO,77.51904673942921,return,4
BMu37,33,P,INI,Trunk_Forward,1,R_EO,90.4037355831845,bending,1
BMu37,33,P,INI,Trunk_Forward,1,R_EO,79.75187242029718,return,1
BMu37,33,P,INI,Trunk_Forward,1,R_EO,81.87860562507042,bending,2
BMu37,33,P,INI,Trunk_Forward,1,R_EO,76.68185121516943,return,2
BMu37,33,P,INI,Trunk_Forward,1,R_EO,84.01172548434681,bending,3
BMu37,33,P,INI,Trunk_Forward,1,R_EO,73.71573000435508,return,3
BMu37,33,P,INI,Trunk_Forward,1,R_EO,84.83533080296414,bending,4
BMu37,33,P,INI,Trunk_Forward,1,R_EO,81.72885553517024,return,4
BMu37,33,P,REL,Trunk_Forward,1,L_EO,85.18457328509255,bending,1
BMu37,33,P,REL,Trunk_Forward,1,L_EO,75.33735500699116,return,1
BMu37,33,P,REL,Trunk_Forward,1,L_EO,67.90335284731577,bending,2
BMu37,33,P,REL,Trunk_Forward,1,L_EO,74.96621703828579,return,2
BMu37,33,P,REL,Trunk_Forward,1,L_EO,74.09882336040813,bending,3
BMu37,33,P,REL,Trunk_Forward,1,L_EO,70.51124866592453,return,3
BMu37,33,P,REL,Trunk_Forward,1,R_EO,75.36898671470031,bending,1
BMu37,33,P,REL,Trunk_Forward,1,R_EO,70.36686639485572,return,1
BMu37,33,P,REL,Trunk_Forward,1,R_EO,83.57723748611173,bending,2
BMu37,33,P,REL,Trunk_Forward,1,R_EO,71.41547779994995,return,2
BMu37,33,P,REL,Trunk_Forward,1,R_EO,75.23692367398473,bending,3
BMu37,33,P,REL,Trunk_Forward,1,R_EO,83.75149252570942,return,3
BMu37,34,P,INI,Trunk_Forward,1,L_EO,95.70284571020991,bending,1
BMu37,34,P,INI,Trunk_Forward,1,L_EO,101.82416344897409,return,1
BMu37,34,P,INI,Trunk_Forward,1,L_EO,106.54002181501815,bending,2
BMu37,34,P,INI,Trunk_Forward,1,L_EO,109.51235897498489,return,2
BMu37,34,P,INI,Trunk_Forward,1,L_EO,105.6208031838992,bending,3
BMu37,34,P,INI,Trunk_Forward,1,L_EO,115.58982948529783,return,3
BMu37,34,P,INI,Trunk_Forward,1,R_EO,91.74536013323639,bending,1
BMu37,34,P,INI,Trunk_Forward,1,R_EO,94.71465261471444,return,1
BMu37,34,P,INI,Trunk_Forward,1,R_EO,97.50314114793466,bending,2
BMu37,34,P,INI,Trunk_Forward,1,R_EO,95.13604777159983,return,2
BMu37,34,P,INI,Trunk_Forward,1,R_EO,101.99512534996359,bending,3
BMu37,34,P,INI,Trunk_Forward,1,R_EO,105.55991091926015,return,3
BMu37,34,P,REL,Trunk_Forward,1,L_EO,108.02813743961202,bending,1
BMu37,34,P,REL,Trunk_Forward,1,L_EO,111.65761774055126,return,1
BMu37,34,P,REL,Trunk_Forward,1,L_EO,106.5990308773306,bending,2
BMu37,34,P,REL,Trunk_Forward,1,L_EO,115.1814686223708,return,2
BMu37,34,P,REL,Trunk_Forward,1,L_EO,105.94202692384236,bending,3
BMu37,34,P,REL,Trunk_Forward,1,L_EO,109.59557307113324,return,3
BMu37,34,P,REL,Trunk_Forward,1,R_EO,85.91729637975348,bending,1
BMu37,34,P,REL,Trunk_Forward,1,R_EO,87.32057659750029,return,1
BMu37,34,P,REL,Trunk_Forward,1,R_EO,86.62405672899355,bending,2
BMu37,34,P,REL,Trunk_Forward,1,R_EO,90.49582165174485,return,2
BMu37,34,P,REL,Trunk_Forward,1,R_EO,87.36324494244224,bending,3
BMu37,34,P,REL,Trunk_Forward,1,R_EO,88.71055116466964,return,3
BMu37,35,C,INI,Trunk_Forward,1,L_EO,95.3955509544518,bending,1
BMu37,35,C,INI,Trunk_Forward,1,L_EO,104.25372373123344,return,1
BMu37,35,C,INI,Trunk_Forward,1,L_EO,106.7539462974655,bending,2
BMu37,35,C,INI,Trunk_Forward,1,L_EO,116.39802714162175,return,2
BMu37,35,C,INI,Trunk_Forward,1,L_EO,112.55175990181746,bending,3
BMu37,35,C,INI,Trunk_Forward,1,L_EO,110.86965480391865,return,3
BMu37,35,C,INI,Trunk_Forward,1,R_EO,100.00538980253516,bending,1
BMu37,35,C,INI,Trunk_Forward,1,R_EO,106.37813451548773,return,1
BMu37,35,C,INI,Trunk_Forward,1,R_EO,101.85972859016097,bending,2
BMu37,35,C,INI,Trunk_Forward,1,R_EO,118.78670176104964,return,2
BMu37,35,C,INI,Trunk_Forward,1,R_EO,116.81670271868174,bending,3
BMu37,35,C,INI,Trunk_Forward,1,R_EO,121.80034636961001,return,3
BMu37,35,C,REL,Trunk_Forward,1,L_EO,100.50340999118156,bending,1
BMu37,35,C,REL,Trunk_Forward,1,L_EO,88.21321200703085,return,1
BMu37,35,C,REL,Trunk_Forward,1,L_EO,111.25369070203828,bending,2
BMu37,35,C,REL,Trunk_Forward,1,L_EO,102.02927204543282,return,2
BMu37,35,C,REL,Trunk_Forward,1,L_EO,114.04427174993116,bending,3
BMu37,35,C,REL,Trunk_Forward,1,L_EO,114.37570434044882,return,3
BMu37,35,C,REL,Trunk_Forward,1,R_EO,87.17856468611339,bending,1
BMu37,35,C,REL,Trunk_Forward,1,R_EO,101.29944030304858,return,1
BMu37,35,C,REL,Trunk_Forward,1,R_EO,101.20296687815066,bending,2
BMu37,35,C,REL,Trunk_Forward,1,R_EO,88.02068281792444,return,2
BMu37,35,C,REL,Trunk_Forward,1,R_EO,105.46263529567203,bending,3
BMu37,35,C,REL,Trunk_Forward,1,R_EO,114.12354784319562,return,3
BMu37,36,P,INI,Trunk_Forward,1,L_EO,103.4171402289067,bending,1
BMu37,36,P,INI,Trunk_Forward,1,L_EO,102.98693069109355,return,1
BMu37,36,P,INI,Trunk_Forward,1,L_EO,99.75061358363209,bending,2
BMu37,36,P,INI,Trunk_Forward,1,L_EO,106.98170104267874,return,2
BMu37,36,P,INI,Trunk_Forward,1,L_EO,100.88453233377236,bending,3
BMu37,36,P,INI,Trunk_Forward,1,L_EO,99.83075150686544,return,3
BMu37,36,P,INI,Trunk_Forward,1,R_EO,113.45112460765473,bending,1
BMu37,36,P,INI,Trunk_Forward,1,R_EO,109.36260860566844,return,1
BMu37,36,P,INI,Trunk_Forward,1,R_EO,106.75203859972129,bending,2
BMu37,36,P,INI,Trunk_Forward,1,R_EO,107.07559666761003,return,2
BMu37,36,P,INI,Trunk_Forward,1,R_EO,109.0835557692916,bending,3
BMu37,36,P,INI,Trunk_Forward,1,R_EO,113.57341091944004,return,3
BMu37,36,P,REL,Trunk_Forward,1,L_EO,99.65898704555643,bending,1
BMu37,36,P,REL,Trunk_Forward,1,L_EO,95.93956563241795,return,1
BMu37,36,P,REL,Trunk_Forward,1,L_EO,88.76307784474236,bending,2
BMu37,36,P,REL,Trunk_Forward,1,L_EO,93.39903681424697,return,2
BMu37,36,P,REL,Trunk_Forward,1,L_EO,95.3606589855208,bending,3
BMu37,36,P,REL,Trunk_Forward,1,L_EO,93.07089549245435,return,3
BMu37,36,P,REL,Trunk_Forward,1,R_EO,113.73735489766914,bending,1
BMu37,36,P,REL,Trunk_Forward,1,R_EO,107.3416165887182,return,1
BMu37,36,P,REL,Trunk_Forward,1,R_EO,104.30062891042851,bending,2
BMu37,36,P,REL,Trunk_Forward,1,R_EO,99.15644712870564,return,2
BMu37,36,P,REL,Trunk_Forward,1,R_EO,101.93849030328472,bending,3
BMu37,36,P,REL,Trunk_Forward,1,R_EO,97.34125591732953,return,3
BMu37,38,C,INI,Trunk_Forward,1,L_EO,112.53733040829866,bending,1
BMu37,38,C,INI,Trunk_Forward,1,L_EO,123.22211611842987,return,1
BMu37,38,C,INI,Trunk_Forward,1,L_EO,92.67113353540935,bending,2
BMu37,38,C,INI,Trunk_Forward,1,L_EO,105.55825697602334,return,2
BMu37,38,C,INI,Trunk_Forward,1,L_EO,99.2593906146195,bending,3
BMu37,38,C,INI,Trunk_Forward,1,L_EO,101.44559372770512,return,3
BMu37,38,C,INI,Trunk_Forward,1,R_EO,86.27928720938367,bending,1
BMu37,38,C,INI,Trunk_Forward,1,R_EO,90.01083929498864,return,1
BMu37,38,C,INI,Trunk_Forward,1,R_EO,85.04954746520981,bending,2
BMu37,38,C,INI,Trunk_Forward,1,R_EO,74.45084311590323,return,2
BMu37,38,C,INI,Trunk_Forward,1,R_EO,74.8098495111245,bending,3
BMu37,38,C,INI,Trunk_Forward,1,R_EO,90.72081615052676,return,3
BMu37,38,C,REL,Trunk_Forward,1,L_EO,107.62171018072445,bending,1
BMu37,38,C,REL,Trunk_Forward,1,L_EO,90.08994311028617,return,1
BMu37,38,C,REL,Trunk_Forward,1,L_EO,99.39201506281981,bending,2
BMu37,38,C,REL,Trunk_Forward,1,L_EO,110.37289540910804,return,2
BMu37,38,C,REL,Trunk_Forward,1,L_EO,92.92506690787688,bending,3
BMu37,38,C,REL,Trunk_Forward,1,L_EO,119.56989288418805,return,3
BMu37,38,C,REL,Trunk_Forward,1,R_EO,108.43357189376599,bending,1
BMu37,38,C,REL,Trunk_Forward,1,R_EO,100.2157411123814,return,1
BMu37,38,C,REL,Trunk_Forward,1,R_EO,106.32502274542948,bending,2
BMu37,38,C,REL,Trunk_Forward,1,R_EO,115.99303892019523,return,2
BMu37,38,C,REL,Trunk_Forward,1,R_EO,103.12062735294823,bending,3
BMu37,38,C,REL,Trunk_Forward,1,R_EO,118.9520909654663,return,3
BMu37,39,C,INI,Trunk_Forward,1,L_EO,84.07126072389492,bending,1
BMu37,39,C,INI,Trunk_Forward,1,L_EO,54.73866100984464,return,1
BMu37,39,C,INI,Trunk_Forward,1,L_EO,66.80478557219078,bending,2
BMu37,39,C,INI,Trunk_Forward,1,L_EO,49.10215259259089,return,2
BMu37,39,C,INI,Trunk_Forward,1,L_EO,87.67765200033051,bending,3
BMu37,39,C,INI,Trunk_Forward,1,L_EO,51.49979936209832,return,3
BMu37,39,C,INI,Trunk_Forward,1,R_EO,51.37814391100245,bending,1
BMu37,39,C,INI,Trunk_Forward,1,R_EO,41.741062182562175,return,1
BMu37,39,C,INI,Trunk_Forward,1,R_EO,64.59719552338821,bending,2
BMu37,39,C,INI,Trunk_Forward,1,R_EO,52.1668223866131,return,2
BMu37,39,C,INI,Trunk_Forward,1,R_EO,88.85223926174658,bending,3
BMu37,39,C,INI,Trunk_Forward,1,R_EO,91.92014131094922,return,3
BMu37,39,C,REL,Trunk_Forward,1,L_EO,104.14729866999058,bending,1
BMu37,39,C,REL,Trunk_Forward,1,L_EO,89.50122462083999,return,1
BMu37,39,C,REL,Trunk_Forward,1,L_EO,81.97379394402991,bending,2
BMu37,39,C,REL,Trunk_Forward,1,L_EO,101.74054002438113,return,2
BMu37,39,C,REL,Trunk_Forward,1,L_EO,83.22861297670036,bending,3
BMu37,39,C,REL,Trunk_Forward,1,L_EO,92.46745646573679,return,3
BMu37,39,C,REL,Trunk_Forward,1,R_EO,138.61360801754478,bending,1
BMu37,39,C,REL,Trunk_Forward,1,R_EO,151.31594157508468,return,1
BMu37,39,C,REL,Trunk_Forward,1,R_EO,102.78648058708315,bending,2
BMu37,39,C,REL,Trunk_Forward,1,R_EO,183.39791379637455,return,2
BMu37,39,C,REL,Trunk_Forward,1,R_EO,108.48588658089746,bending,3
BMu37,39,C,REL,Trunk_Forward,1,R_EO,149.4471350807666,return,3
BMu37,40,C,INI,Trunk_Forward,1,L_EO,98.46853448097963,bending,1
BMu37,40,C,INI,Trunk_Forward,1,L_EO,77.7783726158358,return,1
BMu37,40,C,INI,Trunk_Forward,1,L_EO,97.21727549520563,bending,2
BMu37,40,C,INI,Trunk_Forward,1,L_EO,97.35426566162083,return,2
BMu37,40,C,INI,Trunk_Forward,1,L_EO,93.77538585049425,bending,3
BMu37,40,C,INI,Trunk_Forward,1,L_EO,101.5091905842625,return,3
BMu37,40,C,INI,Trunk_Forward,1,R_EO,86.52797765333086,bending,1
BMu37,40,C,INI,Trunk_Forward,1,R_EO,81.98992385052706,return,1
BMu37,40,C,INI,Trunk_Forward,1,R_EO,71.34175617087065,bending,2
BMu37,40,C,INI,Trunk_Forward,1,R_EO,73.12678110256144,return,2
BMu37,40,C,INI,Trunk_Forward,1,R_EO,88.66838733978868,bending,3
BMu37,40,C,INI,Trunk_Forward,1,R_EO,84.43353836450017,return,3
BMu37,40,C,REL,Trunk_Forward,1,L_EO,114.13694622086895,bending,1
BMu37,40,C,REL,Trunk_Forward,1,L_EO,82.14788199685317,return,1
BMu37,40,C,REL,Trunk_Forward,1,L_EO,88.88552482162964,bending,2
BMu37,40,C,REL,Trunk_Forward,1,L_EO,77.6247002685254,return,2
BMu37,40,C,REL,Trunk_Forward,1,L_EO,102.75474285324516,bending,3
BMu37,40,C,REL,Trunk_Forward,1,L_EO,87.33306675446669,return,3
BMu37,40,C,REL,Trunk_Forward,1,R_EO,87.42312618753641,bending,1
BMu37,40,C,REL,Trunk_Forward,1,R_EO,82.62153540580955,return,1
BMu37,40,C,REL,Trunk_Forward,1,R_EO,90.98460801794117,bending,2
BMu37,40,C,REL,Trunk_Forward,1,R_EO,89.85785819015327,return,2
BMu37,40,C,REL,Trunk_Forward,1,R_EO,83.78854832193306,bending,3
BMu37,40,C,REL,Trunk_Forward,1,R_EO,91.5142427800434,return,3
BMu37,41,P,INI,Trunk_Forward,1,L_EO,94.58114922168505,bending,1
BMu37,41,P,INI,Trunk_Forward,1,L_EO,87.86386849514426,return,1
BMu37,41,P,INI,Trunk_Forward,1,L_EO,93.61673509212316,bending,2
BMu37,41,P,INI,Trunk_Forward,1,L_EO,98.66371270982278,return,2
BMu37,41,P,INI,Trunk_Forward,1,L_EO,92.27469000368056,bending,3
BMu37,41,P,INI,Trunk_Forward,1,L_EO,99.36299438987525,return,3
BMu37,41,P,INI,Trunk_Forward,1,R_EO,110.31081627272602,bending,1
BMu37,41,P,INI,Trunk_Forward,1,R_EO,115.8708576400775,return,1
BMu37,41,P,INI,Trunk_Forward,1,R_EO,112.2967745492146,bending,2
BMu37,41,P,INI,Trunk_Forward,1,R_EO,116.82040357985589,return,2
BMu37,41,P,INI,Trunk_Forward,1,R_EO,113.32355882651588,bending,3
BMu37,41,P,INI,Trunk_Forward,1,R_EO,117.42907387194191,return,3
BMu37,41,P,REL,Trunk_Forward,1,L_EO,107.59146069987459,bending,1
BMu37,41,P,REL,Trunk_Forward,1,L_EO,105.21981776722102,return,1
BMu37,41,P,REL,Trunk_Forward,1,L_EO,104.20560096168862,bending,2
BMu37,41,P,REL,Trunk_Forward,1,L_EO,108.24277605356939,return,2
BMu37,41,P,REL,Trunk_Forward,1,L_EO,102.60595426444532,bending,3
BMu37,41,P,REL,Trunk_Forward,1,L_EO,108.62283611374026,return,3
BMu37,41,P,REL,Trunk_Forward,1,R_EO,110.23038548707207,bending,1
BMu37,41,P,REL,Trunk_Forward,1,R_EO,116.0395842255291,return,1
BMu37,41,P,REL,Trunk_Forward,1,R_EO,108.91763547610627,bending,2
BMu37,41,P,REL,Trunk_Forward,1,R_EO,123.30246517864173,return,2
BMu37,41,P,REL,Trunk_Forward,1,R_EO,122.07415626359747,bending,3
BMu37,41,P,REL,Trunk_Forward,1,R_EO,117.37796452644447,return,3
BMu37,42,P,INI,Trunk_Forward,1,L_EO,99.56291000428314,bending,1
BMu37,42,P,INI,Trunk_Forward,1,L_EO,112.05336149191989,return,1
BMu37,42,P,INI,Trunk_Forward,1,L_EO,105.48005296243937,bending,2
BMu37,42,P,INI,Trunk_Forward,1,L_EO,108.83084390904278,return,2
BMu37,42,P,INI,Trunk_Forward,1,L_EO,108.58550091785605,bending,3
BMu37,42,P,INI,Trunk_Forward,1,L_EO,108.45966258874597,return,3
BMu37,42,P,INI,Trunk_Forward,1,R_EO,105.34439494951356,bending,1
BMu37,42,P,INI,Trunk_Forward,1,R_EO,92.54424691760882,return,1
BMu37,42,P,INI,Trunk_Forward,1,R_EO,100.84770927990638,bending,2
BMu37,42,P,INI,Trunk_Forward,1,R_EO,104.73076675050234,return,2
BMu37,42,P,INI,Trunk_Forward,1,R_EO,107.25686101738026,bending,3
BMu37,42,P,INI,Trunk_Forward,1,R_EO,104.31150785714863,return,3
BMu37,42,P,REL,Trunk_Forward,1,L_EO,96.50668599059347,bending,1
BMu37,42,P,REL,Trunk_Forward,1,L_EO,107.6648941593126,return,1
BMu37,42,P,REL,Trunk_Forward,1,L_EO,100.41145749367374,bending,2
BMu37,42,P,REL,Trunk_Forward,1,L_EO,114.59748614707132,return,2
BMu37,42,P,REL,Trunk_Forward,1,L_EO,105.00793850249637,bending,3
BMu37,42,P,REL,Trunk_Forward,1,L_EO,105.31511313036758,return,3
BMu37,42,P,REL,Trunk_Forward,1,R_EO,101.01824704498333,bending,1
BMu37,42,P,REL,Trunk_Forward,1,R_EO,110.77408414796905,return,1
BMu37,42,P,REL,Trunk_Forward,1,R_EO,103.00895153371317,bending,2
BMu37,42,P,REL,Trunk_Forward,1,R_EO,102.76913077763398,return,2
BMu37,42,P,REL,Trunk_Forward,1,R_EO,100.79016138863891,bending,3
BMu37,42,P,REL,Trunk_Forward,1,R_EO,97.9518932382892,return,3
BMu37,43,P,INI,Trunk_Forward,1,L_EO,122.44966185737101,bending,1
BMu37,43,P,INI,Trunk_Forward,1,L_EO,96.60501772067643,return,1
BMu37,43,P,INI,Trunk_Forward,1,L_EO,107.29489460355099,bending,2
BMu37,43,P,INI,Trunk_Forward,1,L_EO,98.90380771071945,return,2
BMu37,43,P,INI,Trunk_Forward,1,L_EO,89.70594368776932,bending,3
BMu37,43,P,INI,Trunk_Forward,1,L_EO,101.74867867329668,return,3
BMu37,43,P,INI,Trunk_Forward,1,R_EO,122.27216156588993,bending,1
BMu37,43,P,INI,Trunk_Forward,1,R_EO,113.42979753343282,return,1
BMu37,43,P,INI,Trunk_Forward,1,R_EO,120.65534820751114,bending,2
BMu37,43,P,INI,Trunk_Forward,1,R_EO,113.55448850551132,return,2
BMu37,43,P,INI,Trunk_Forward,1,R_EO,106.56199301548807,bending,3
BMu37,43,P,INI,Trunk_Forward,1,R_EO,104.93145662325476,return,3
BMu37,43,P,REL,Trunk_Forward,1,L_EO,107.00773051107174,bending,1
BMu37,43,P,REL,Trunk_Forward,1,L_EO,96.87941094194703,return,1
BMu37,43,P,REL,Trunk_Forward,1,L_EO,107.3685174174659,bending,2
BMu37,43,P,REL,Trunk_Forward,1,L_EO,113.18463643534791,return,2
BMu37,43,P,REL,Trunk_Forward,1,L_EO,100.21204642444894,bending,3
BMu37,43,P,REL,Trunk_Forward,1,L_EO,93.14717043669212,return,3
BMu37,43,P,REL,Trunk_Forward,1,R_EO,126.63774462396131,bending,1
BMu37,43,P,REL,Trunk_Forward,1,R_EO,114.42888693164136,return,1
BMu37,43,P,REL,Trunk_Forward,1,R_EO,124.57014062570524,bending,2
BMu37,43,P,REL,Trunk_Forward,1,R_EO,119.09419889621819,return,2
BMu37,43,P,REL,Trunk_Forward,1,R_EO,107.19971936721376,bending,3
BMu37,43,P,REL,Trunk_Forward,1,R_EO,106.15360150894023,return,3
BMu37,44,C,INI,Trunk_Forward,1,L_EO,108.31328160153468,bending,1
BMu37,44,C,INI,Trunk_Forward,1,L_EO,108.6108019308716,return,1
BMu37,44,C,INI,Trunk_Forward,1,L_EO,103.7435567889463,bending,2
BMu37,44,C,INI,Trunk_Forward,1,L_EO,114.32620265628601,return,2
BMu37,44,C,INI,Trunk_Forward,1,L_EO,88.95260947720561,bending,3
BMu37,44,C,INI,Trunk_Forward,1,L_EO,121.57133007645707,return,3
BMu37,44,C,INI,Trunk_Forward,1,R_EO,108.31295373437095,bending,1
BMu37,44,C,INI,Trunk_Forward,1,R_EO,115.49352276019475,return,1
BMu37,44,C,INI,Trunk_Forward,1,R_EO,116.03006377881087,bending,2
BMu37,44,C,INI,Trunk_Forward,1,R_EO,118.98952528910874,return,2
BMu37,44,C,INI,Trunk_Forward,1,R_EO,100.96638914759737,bending,3
BMu37,44,C,INI,Trunk_Forward,1,R_EO,113.12947495354919,return,3
BMu37,44,C,REL,Trunk_Forward,1,L_EO,82.2117380237744,bending,1
BMu37,44,C,REL,Trunk_Forward,1,L_EO,81.11487670410783,return,1
BMu37,44,C,REL,Trunk_Forward,1,L_EO,85.83542111749125,bending,2
BMu37,44,C,REL,Trunk_Forward,1,L_EO,104.03504484295524,return,2
BMu37,44,C,REL,Trunk_Forward,1,L_EO,115.71575014928298,bending,3
BMu37,44,C,REL,Trunk_Forward,1,L_EO,104.2189463082817,return,3
BMu37,44,C,REL,Trunk_Forward,1,R_EO,110.17364037730714,bending,1
BMu37,44,C,REL,Trunk_Forward,1,R_EO,112.26026856638863,return,1
BMu37,44,C,REL,Trunk_Forward,1,R_EO,109.64899942612833,bending,2
BMu37,44,C,REL,Trunk_Forward,1,R_EO,108.17954714113644,return,2
BMu37,44,C,REL,Trunk_Forward,1,R_EO,122.73051554177864,bending,3
BMu37,44,C,REL,Trunk_Forward,1,R_EO,118.49455445677224,return,3
BMu37,45,P,INI,Trunk_Forward,1,L_EO,133.61850321714687,bending,1
BMu37,45,P,INI,Trunk_Forward,1,L_EO,129.79282094139154,return,1
BMu37,45,P,INI,Trunk_Forward,1,L_EO,137.3284988205153,bending,2
BMu37,45,P,INI,Trunk_Forward,1,L_EO,123.9336338073635,return,2
BMu37,45,P,INI,Trunk_Forward,1,L_EO,136.90132391306264,bending,3
BMu37,45,P,INI,Trunk_Forward,1,L_EO,136.1167469223856,return,3
BMu37,45,P,INI,Trunk_Forward,1,R_EO,127.14303075830978,bending,1
BMu37,45,P,INI,Trunk_Forward,1,R_EO,128.9918694116988,return,1
BMu37,45,P,INI,Trunk_Forward,1,R_EO,129.9117413250157,bending,2
BMu37,45,P,INI,Trunk_Forward,1,R_EO,126.89787433193216,return,2
BMu37,45,P,INI,Trunk_Forward,1,R_EO,135.35623660727993,bending,3
BMu37,45,P,INI,Trunk_Forward,1,R_EO,129.6301740332215,return,3
BMu37,45,P,REL,Trunk_Forward,1,L_EO,150.98621663170374,bending,1
BMu37,45,P,REL,Trunk_Forward,1,L_EO,142.3028681981957,return,1
BMu37,45,P,REL,Trunk_Forward,1,L_EO,157.19271940594146,bending,2
BMu37,45,P,REL,Trunk_Forward,1,L_EO,144.73712086590436,return,2
BMu37,45,P,REL,Trunk_Forward,1,L_EO,139.40749469435252,bending,3
BMu37,45,P,REL,Trunk_Forward,1,L_EO,157.73426839052533,return,3
BMu37,45,P,REL,Trunk_Forward,1,R_EO,145.72781260003396,bending,1
BMu37,45,P,REL,Trunk_Forward,1,R_EO,141.8139787797649,return,1
BMu37,45,P,REL,Trunk_Forward,1,R_EO,157.04650209619032,bending,2
BMu37,45,P,REL,Trunk_Forward,1,R_EO,156.66004286305534,return,2
BMu37,45,P,REL,Trunk_Forward,1,R_EO,145.36075486023393,bending,3
BMu37,45,P,REL,Trunk_Forward,1,R_EO,155.24340058589195,return,3
BMu37,46,C,INI,Trunk_Forward,1,L_EO,85.5516199043524,bending,1
BMu37,46,C,INI,Trunk_Forward,1,L_EO,135.32384513495919,return,1
BMu37,46,C,INI,Trunk_Forward,1,L_EO,75.27763774952756,bending,2
BMu37,46,C,INI,Trunk_Forward,1,L_EO,145.0520890284334,return,2
BMu37,46,C,INI,Trunk_Forward,1,L_EO,70.02556675253489,bending,3
BMu37,46,C,INI,Trunk_Forward,1,L_EO,137.65831944353036,return,3
BMu37,46,C,INI,Trunk_Forward,1,R_EO,107.23970373068317,bending,1
BMu37,46,C,INI,Trunk_Forward,1,R_EO,114.81357456774661,return,1
BMu37,46,C,INI,Trunk_Forward,1,R_EO,108.22505094195239,bending,2
BMu37,46,C,INI,Trunk_Forward,1,R_EO,106.39027643556105,return,2
BMu37,46,C,INI,Trunk_Forward,1,R_EO,112.75742131663277,bending,3
BMu37,46,C,INI,Trunk_Forward,1,R_EO,107.95688208621839,return,3
BMu37,46,C,REL,Trunk_Forward,1,L_EO,76.3711956381316,bending,1
BMu37,46,C,REL,Trunk_Forward,1,L_EO,64.8698891885076,return,1
BMu37,46,C,REL,Trunk_Forward,1,L_EO,80.2946961669969,bending,2
BMu37,46,C,REL,Trunk_Forward,1,L_EO,76.36761497062693,return,2
BMu37,46,C,REL,Trunk_Forward,1,L_EO,84.35015594049504,bending,3
BMu37,46,C,REL,Trunk_Forward,1,L_EO,67.86782930456425,return,3
BMu37,46,C,REL,Trunk_Forward,1,R_EO,70.71051344328332,bending,1
BMu37,46,C,REL,Trunk_Forward,1,R_EO,62.94549483350247,return,1
BMu37,46,C,REL,Trunk_Forward,1,R_EO,64.04469400478473,bending,2
BMu37,46,C,REL,Trunk_Forward,1,R_EO,47.35100435556648,return,2
BMu37,46,C,REL,Trunk_Forward,1,R_EO,65.99187136394914,bending,3
BMu37,46,C,REL,Trunk_Forward,1,R_EO,80.39518347718884,return,3
BMu37,47,P,INI,Trunk_Forward,1,L_EO,90.54786901361587,bending,1
BMu37,47,P,INI,Trunk_Forward,1,L_EO,90.99230785803883,return,1
BMu37,47,P,INI,Trunk_Forward,1,L_EO,109.25064846944663,bending,2
BMu37,47,P,INI,Trunk_Forward,1,L_EO,75.96206804356198,return,2
BMu37,47,P,INI,Trunk_Forward,1,L_EO,91.8096815476146,bending,3
BMu37,47,P,INI,Trunk_Forward,1,L_EO,114.15801383606417,return,3
BMu37,47,P,INI,Trunk_Forward,1,R_EO,83.41064208725443,bending,1
BMu37,47,P,INI,Trunk_Forward,1,R_EO,103.66788884832746,return,1
BMu37,47,P,INI,Trunk_Forward,1,R_EO,68.98802393356858,bending,2
BMu37,47,P,INI,Trunk_Forward,1,R_EO,98.83950759066722,return,2
BMu37,47,P,INI,Trunk_Forward,1,R_EO,101.19248642054345,bending,3
BMu37,47,P,INI,Trunk_Forward,1,R_EO,96.28644025239448,return,3
BMu37,47,P,REL,Trunk_Forward,1,L_EO,95.1053389996499,bending,1
BMu37,47,P,REL,Trunk_Forward,1,L_EO,105.51975275429812,return,1
BMu37,47,P,REL,Trunk_Forward,1,L_EO,87.97979892899876,bending,2
BMu37,47,P,REL,Trunk_Forward,1,L_EO,101.23364479386761,return,2
BMu37,47,P,REL,Trunk_Forward,1,L_EO,93.40477135191726,bending,3
BMu37,47,P,REL,Trunk_Forward,1,L_EO,89.39912561255409,return,3
BMu37,47,P,REL,Trunk_Forward,1,R_EO,94.79279677955853,bending,1
BMu37,47,P,REL,Trunk_Forward,1,R_EO,102.63876333771604,return,1
BMu37,47,P,REL,Trunk_Forward,1,R_EO,91.24655158540972,bending,2
BMu37,47,P,REL,Trunk_Forward,1,R_EO,92.56820111483222,return,2
BMu37,47,P,REL,Trunk_Forward,1,R_EO,97.66210725675077,bending,3
BMu37,47,P,REL,Trunk_Forward,1,R_EO,97.29861579840099,return,3
BMu37,48,C,INI,Trunk_Forward,1,L_EO,110.03364108648925,bending,1
BMu37,48,C,INI,Trunk_Forward,1,L_EO,103.64320185948509,return,1
BMu37,48,C,INI,Trunk_Forward,1,L_EO,114.68076384158691,bending,2
BMu37,48,C,INI,Trunk_Forward,1,L_EO,104.81360379613643,return,2
BMu37,48,C,INI,Trunk_Forward,1,L_EO,109.50189447770673,bending,3
BMu37,48,C,INI,Trunk_Forward,1,L_EO,107.66481598001201,return,3
BMu37,48,C,INI,Trunk_Forward,1,R_EO,112.20168817005617,bending,1
BMu37,48,C,INI,Trunk_Forward,1,R_EO,114.85366983644553,return,1
BMu37,48,C,INI,Trunk_Forward,1,R_EO,109.47850916855724,bending,2
BMu37,48,C,INI,Trunk_Forward,1,R_EO,117.57775613753756,return,2
BMu37,48,C,INI,Trunk_Forward,1,R_EO,113.38736012210884,bending,3
BMu37,48,C,INI,Trunk_Forward,1,R_EO,113.08755069777845,return,3
BMu37,48,C,REL,Trunk_Forward,1,L_EO,102.71745713200438,bending,1
BMu37,48,C,REL,Trunk_Forward,1,L_EO,95.03578220969702,return,1
BMu37,48,C,REL,Trunk_Forward,1,L_EO,98.16751520199075,bending,2
BMu37,48,C,REL,Trunk_Forward,1,L_EO,94.69661112901315,return,2
BMu37,48,C,REL,Trunk_Forward,1,L_EO,103.97419340514341,bending,3
BMu37,48,C,REL,Trunk_Forward,1,L_EO,98.95635287691259,return,3
BMu37,48,C,REL,Trunk_Forward,1,R_EO,113.54955059661077,bending,1
BMu37,48,C,REL,Trunk_Forward,1,R_EO,114.02634774945182,return,1
BMu37,48,C,REL,Trunk_Forward,1,R_EO,114.19236462031387,bending,2
BMu37,48,C,REL,Trunk_Forward,1,R_EO,115.21379625837325,return,2
BMu37,48,C,REL,Trunk_Forward,1,R_EO,115.62905428232654,bending,3
BMu37,48,C,REL,Trunk_Forward,1,R_EO,114.76845440094277,return,3
BMu37,49,C,INI,Trunk_Forward,1,L_EO,94.64098553957338,bending,1
BMu37,49,C,INI,Trunk_Forward,1,L_EO,103.35449889777044,return,1
BMu37,49,C,INI,Trunk_Forward,1,L_EO,90.29687827525954,bending,2
BMu37,49,C,INI,Trunk_Forward,1,L_EO,96.79643709976496,return,2
BMu37,49,C,INI,Trunk_Forward,1,L_EO,91.27636528885743,bending,3
BMu37,49,C,INI,Trunk_Forward,1,L_EO,94.71052715424157,return,3
BMu37,49,C,INI,Trunk_Forward,1,R_EO,97.82770738933385,bending,1
BMu37,49,C,INI,Trunk_Forward,1,R_EO,126.08888119457248,return,1
BMu37,49,C,INI,Trunk_Forward,1,R_EO,88.89622117068934,bending,2
BMu37,49,C,INI,Trunk_Forward,1,R_EO,112.69456349174578,return,2
BMu37,49,C,INI,Trunk_Forward,1,R_EO,107.35703685342183,bending,3
BMu37,49,C,INI,Trunk_Forward,1,R_EO,122.25992909093108,return,3
BMu37,49,C,REL,Trunk_Forward,1,L_EO,86.73391153280193,bending,1
BMu37,49,C,REL,Trunk_Forward,1,L_EO,66.3037294951103,return,1
BMu37,49,C,REL,Trunk_Forward,1,L_EO,74.51434648870415,bending,2
BMu37,49,C,REL,Trunk_Forward,1,L_EO,71.67307500694368,return,2
BMu37,49,C,REL,Trunk_Forward,1,L_EO,87.80306885257463,bending,3
BMu37,49,C,REL,Trunk_Forward,1,L_EO,47.09626307592679,return,3
BMu37,49,C,REL,Trunk_Forward,1,R_EO,92.85177425920959,bending,1
BMu37,49,C,REL,Trunk_Forward,1,R_EO,114.78716996137783,return,1
BMu37,49,C,REL,Trunk_Forward,1,R_EO,109.80799404067045,bending,2
BMu37,49,C,REL,Trunk_Forward,1,R_EO,107.7267862084489,return,2
BMu37,49,C,REL,Trunk_Forward,1,R_EO,106.0633330337953,bending,3
BMu37,49,C,REL,Trunk_Forward,1,R_EO,130.9896803775964,return,3
BMu37,50,P,INI,Trunk_Forward,1,L_EO,90.97519698291714,bending,1
BMu37,50,P,INI,Trunk_Forward,1,L_EO,81.46360261237707,return,1
BMu37,50,P,INI,Trunk_Forward,1,L_EO,90.92333004137713,bending,2
BMu37,50,P,INI,Trunk_Forward,1,L_EO,93.16391751640019,return,2
BMu37,50,P,INI,Trunk_Forward,1,L_EO,95.48894697262418,bending,3
BMu37,50,P,INI,Trunk_Forward,1,L_EO,81.25742679613893,return,3
BMu37,50,P,INI,Trunk_Forward,1,R_EO,95.33116542974962,bending,1
BMu37,50,P,INI,Trunk_Forward,1,R_EO,127.48937783040422,return,1
BMu37,50,P,INI,Trunk_Forward,1,R_EO,125.33224891839805,bending,2
BMu37,50,P,INI,Trunk_Forward,1,R_EO,162.83911435276275,return,2
BMu37,50,P,INI,Trunk_Forward,1,R_EO,123.72326047709026,bending,3
BMu37,50,P,INI,Trunk_Forward,1,R_EO,150.12170014519717,return,3
BMu37,50,P,REL,Trunk_Forward,1,L_EO,89.16624023194139,bending,1
BMu37,50,P,REL,Trunk_Forward,1,L_EO,75.11561046557556,return,1
BMu37,50,P,REL,Trunk_Forward,1,L_EO,90.51293058642747,bending,2
BMu37,50,P,REL,Trunk_Forward,1,L_EO,85.37802847525639,return,2
BMu37,50,P,REL,Trunk_Forward,1,L_EO,85.91879738574205,bending,3
BMu37,50,P,REL,Trunk_Forward,1,L_EO,85.74855868053973,return,3
BMu37,50,P,REL,Trunk_Forward,1,R_EO,85.10182620346424,bending,1
BMu37,50,P,REL,Trunk_Forward,1,R_EO,118.48796748937302,return,1
BMu37,50,P,REL,Trunk_Forward,1,R_EO,74.68433937336799,bending,2
BMu37,50,P,REL,Trunk_Forward,1,R_EO,107.80338833593811,return,2
BMu37,50,P,REL,Trunk_Forward,1,R_EO,84.788258513413,bending,3
BMu37,50,P,REL,Trunk_Forward,1,R_EO,117.14103905121561,return,3
BMu37,51,P,INI,Trunk_Forward,1,L_EO,121.76747233241785,bending,1
BMu37,51,P,INI,Trunk_Forward,1,L_EO,139.12435103140078,return,1
BMu37,51,P,INI,Trunk_Forward,1,L_EO,128.06572009826087,bending,2
BMu37,51,P,INI,Trunk_Forward,1,L_EO,126.83064536292547,return,2
BMu37,51,P,INI,Trunk_Forward,1,L_EO,129.16657625446638,bending,3
BMu37,51,P,INI,Trunk_Forward,1,L_EO,130.20149819601866,return,3
BMu37,51,P,INI,Trunk_Forward,1,R_EO,86.68355078242097,bending,1
BMu37,51,P,INI,Trunk_Forward,1,R_EO,87.17900326318163,return,1
BMu37,51,P,INI,Trunk_Forward,1,R_EO,85.28262403123459,bending,2
BMu37,51,P,INI,Trunk_Forward,1,R_EO,90.57541706306102,return,2
BMu37,51,P,INI,Trunk_Forward,1,R_EO,87.59603175801567,bending,3
BMu37,51,P,INI,Trunk_Forward,1,R_EO,91.6929295507151,return,3
BMu37,51,P,REL,Trunk_Forward,1,L_EO,147.05605451147457,bending,1
BMu37,51,P,REL,Trunk_Forward,1,L_EO,151.94497951068502,return,1
BMu37,51,P,REL,Trunk_Forward,1,L_EO,135.56878893215114,bending,2
BMu37,51,P,REL,Trunk_Forward,1,L_EO,132.17634663105844,return,2
BMu37,51,P,REL,Trunk_Forward,1,L_EO,142.7433358833203,bending,3
BMu37,51,P,REL,Trunk_Forward,1,L_EO,135.39435884330905,return,3
BMu37,51,P,REL,Trunk_Forward,1,R_EO,103.63391725334722,bending,1
BMu37,51,P,REL,Trunk_Forward,1,R_EO,116.5532548629493,return,1
BMu37,51,P,REL,Trunk_Forward,1,R_EO,103.45622987137018,bending,2
BMu37,51,P,REL,Trunk_Forward,1,R_EO,91.04842582227798,return,2
BMu37,51,P,REL,Trunk_Forward,1,R_EO,109.91385390138248,bending,3
BMu37,51,P,REL,Trunk_Forward,1,R_EO,92.85286128413115,return,3
BMu37,52,C,INI,Trunk_Forward,1,L_EO,98.83794371361061,bending,1
BMu37,52,C,INI,Trunk_Forward,1,L_EO,86.69658656245502,return,1
BMu37,52,C,INI,Trunk_Forward,1,L_EO,98.81245864349738,bending,2
BMu37,52,C,INI,Trunk_Forward,1,L_EO,77.90367246552528,return,2
BMu37,52,C,INI,Trunk_Forward,1,L_EO,108.79546354364267,bending,3
BMu37,52,C,INI,Trunk_Forward,1,L_EO,83.42457898181647,return,3
BMu37,52,C,INI,Trunk_Forward,1,R_EO,113.57764434256117,bending,1
BMu37,52,C,INI,Trunk_Forward,1,R_EO,111.53879507465716,return,1
BMu37,52,C,INI,Trunk_Forward,1,R_EO,110.44047757694909,bending,2
BMu37,52,C,INI,Trunk_Forward,1,R_EO,108.6967147633971,return,2
BMu37,52,C,INI,Trunk_Forward,1,R_EO,118.1956998549519,bending,3
BMu37,52,C,INI,Trunk_Forward,1,R_EO,116.82325108639385,return,3
BMu37,52,C,REL,Trunk_Forward,1,L_EO,118.72815801238177,bending,1
BMu37,52,C,REL,Trunk_Forward,1,L_EO,94.24586125303054,return,1
BMu37,52,C,REL,Trunk_Forward,1,L_EO,100.68707656841971,bending,2
BMu37,52,C,REL,Trunk_Forward,1,L_EO,95.75302765624868,return,2
BMu37,52,C,REL,Trunk_Forward,1,L_EO,105.48526005441218,bending,3
BMu37,52,C,REL,Trunk_Forward,1,L_EO,101.43403648636672,return,3
BMu37,52,C,REL,Trunk_Forward,1,R_EO,110.08552001291464,bending,1
BMu37,52,C,REL,Trunk_Forward,1,R_EO,106.9456977518909,return,1
BMu37,52,C,REL,Trunk_Forward,1,R_EO,111.68169227178892,bending,2
BMu37,52,C,REL,Trunk_Forward,1,R_EO,101.13005626427844,return,2
BMu37,52,C,REL,Trunk_Forward,1,R_EO,116.64651302045941,bending,3
BMu37,52,C,REL,Trunk_Forward,1,R_EO,107.62476113396583,return,3
BMu37,53,P,INI,Trunk_Forward,1,L_EO,113.01273565371274,bending,1
BMu37,53,P,INI,Trunk_Forward,1,L_EO,114.06521370943955,return,1
BMu37,53,P,INI,Trunk_Forward,1,L_EO,121.57238317674938,bending,2
BMu37,53,P,INI,Trunk_Forward,1,L_EO,124.55815317614542,return,2
BMu37,53,P,INI,Trunk_Forward,1,L_EO,127.18985124164409,bending,3
BMu37,53,P,INI,Trunk_Forward,1,L_EO,123.09016766124265,return,3
BMu37,53,P,INI,Trunk_Forward,1,R_EO,112.44163005727138,bending,1
BMu37,53,P,INI,Trunk_Forward,1,R_EO,116.43590390680646,return,1
BMu37,53,P,INI,Trunk_Forward,1,R_EO,112.79997330096855,bending,2
BMu37,53,P,INI,Trunk_Forward,1,R_EO,120.4193720991928,return,2
BMu37,53,P,INI,Trunk_Forward,1,R_EO,120.10908778997916,bending,3
BMu37,53,P,INI,Trunk_Forward,1,R_EO,122.95376667605447,return,3
BMu37,53,P,REL,Trunk_Forward,1,L_EO,125.13109560646387,bending,1
BMu37,53,P,REL,Trunk_Forward,1,L_EO,139.6489844441267,return,1
BMu37,53,P,REL,Trunk_Forward,1,L_EO,157.49170321968208,bending,2
BMu37,53,P,REL,Trunk_Forward,1,L_EO,138.35212177582758,return,2
BMu37,53,P,REL,Trunk_Forward,1,L_EO,139.418591472187,bending,3
BMu37,53,P,REL,Trunk_Forward,1,L_EO,131.1514382312085,return,3
BMu37,53,P,REL,Trunk_Forward,1,R_EO,117.99964578257315,bending,1
BMu37,53,P,REL,Trunk_Forward,1,R_EO,123.95676178316236,return,1
BMu37,53,P,REL,Trunk_Forward,1,R_EO,124.48578693813906,bending,2
BMu37,53,P,REL,Trunk_Forward,1,R_EO,131.2021904599974,return,2
BMu37,53,P,REL,Trunk_Forward,1,R_EO,122.65383121898826,bending,3
BMu37,53,P,REL,Trunk_Forward,1,R_EO,125.83463792287655,return,3
BMu37,54,P,INI,Trunk_Forward,1,L_EO,111.17832721535088,bending,1
BMu37,54,P,INI,Trunk_Forward,1,L_EO,121.9217891424544,return,1
BMu37,54,P,INI,Trunk_Forward,1,L_EO,124.92994627051904,bending,2
BMu37,54,P,INI,Trunk_Forward,1,L_EO,131.11118349888525,return,2
BMu37,54,P,INI,Trunk_Forward,1,L_EO,127.3738985079765,bending,3
BMu37,54,P,INI,Trunk_Forward,1,L_EO,121.04526767378617,return,3
BMu37,54,P,INI,Trunk_Forward,1,R_EO,88.46739875051497,bending,1
BMu37,54,P,INI,Trunk_Forward,1,R_EO,81.96132799377878,return,1
BMu37,54,P,INI,Trunk_Forward,1,R_EO,91.25540907995918,bending,2
BMu37,54,P,INI,Trunk_Forward,1,R_EO,81.35639861206134,return,2
BMu37,54,P,INI,Trunk_Forward,1,R_EO,80.05566059123858,bending,3
BMu37,54,P,INI,Trunk_Forward,1,R_EO,89.23451791105312,return,3
BMu37,54,P,REL,Trunk_Forward,1,L_EO,90.41648922581611,bending,1
BMu37,54,P,REL,Trunk_Forward,1,L_EO,89.13127716379566,return,1
BMu37,54,P,REL,Trunk_Forward,1,L_EO,88.44081056627688,bending,2
BMu37,54,P,REL,Trunk_Forward,1,L_EO,78.49193759796597,return,2
BMu37,54,P,REL,Trunk_Forward,1,L_EO,82.09332851744556,bending,3
BMu37,54,P,REL,Trunk_Forward,1,L_EO,81.19681080233588,return,3
BMu37,54,P,REL,Trunk_Forward,1,R_EO,85.3631604910301,bending,1
BMu37,54,P,REL,Trunk_Forward,1,R_EO,88.34901099566152,return,1
BMu37,54,P,REL,Trunk_Forward,1,R_EO,86.02063136065215,bending,2
BMu37,54,P,REL,Trunk_Forward,1,R_EO,92.35060259292119,return,2
BMu37,54,P,REL,Trunk_Forward,1,R_EO,89.77471211019878,bending,3
BMu37,54,P,REL,Trunk_Forward,1,R_EO,89.23686823156558,return,3
BMu37,55,C,INI,Trunk_Forward,1,L_EO,108.3170410515407,bending,1
BMu37,55,C,INI,Trunk_Forward,1,L_EO,105.51432770212641,return,1
BMu37,55,C,INI,Trunk_Forward,1,L_EO,106.32081568901353,bending,2
BMu37,55,C,INI,Trunk_Forward,1,L_EO,94.85319198804103,return,2
BMu37,55,C,INI,Trunk_Forward,1,L_EO,98.20601720516608,bending,3
BMu37,55,C,INI,Trunk_Forward,1,L_EO,98.37925670229521,return,3
BMu37,55,C,INI,Trunk_Forward,1,R_EO,97.02854102364113,bending,1
BMu37,55,C,INI,Trunk_Forward,1,R_EO,105.1233882324098,return,1
BMu37,55,C,INI,Trunk_Forward,1,R_EO,93.79819013885817,bending,2
BMu37,55,C,INI,Trunk_Forward,1,R_EO,91.67465020427245,return,2
BMu37,55,C,INI,Trunk_Forward,1,R_EO,84.36004407140932,bending,3
BMu37,55,C,INI,Trunk_Forward,1,R_EO,99.13027240984434,return,3
BMu37,55,C,REL,Trunk_Forward,1,L_EO,100.0304855932713,bending,1
BMu37,55,C,REL,Trunk_Forward,1,L_EO,99.27329590157044,return,1
BMu37,55,C,REL,Trunk_Forward,1,L_EO,92.84846538986639,bending,2
BMu37,55,C,REL,Trunk_Forward,1,L_EO,106.65899396554853,return,2
BMu37,55,C,REL,Trunk_Forward,1,L_EO,96.16583781752075,bending,3
BMu37,55,C,REL,Trunk_Forward,1,L_EO,105.50014300059513,return,3
BMu37,55,C,REL,Trunk_Forward,1,R_EO,92.1531928727913,bending,1
BMu37,55,C,REL,Trunk_Forward,1,R_EO,69.85145377979963,return,1
BMu37,55,C,REL,Trunk_Forward,1,R_EO,85.41416476541966,bending,2
BMu37,55,C,REL,Trunk_Forward,1,R_EO,77.7699355471909,return,2
BMu37,55,C,REL,Trunk_Forward,1,R_EO,78.17101726181775,bending,3
BMu37,55,C,REL,Trunk_Forward,1,R_EO,80.92961316185375,return,3
BMu37,56,C,INI,Trunk_Forward,1,L_EO,100.8481645375247,bending,1
BMu37,56,C,INI,Trunk_Forward,1,L_EO,111.60093636088565,return,1
BMu37,56,C,INI,Trunk_Forward,1,L_EO,117.91985026804629,bending,2
BMu37,56,C,INI,Trunk_Forward,1,L_EO,115.38929839459126,return,2
BMu37,56,C,INI,Trunk_Forward,1,L_EO,117.94711764874009,bending,3
BMu37,56,C,INI,Trunk_Forward,1,L_EO,103.93550818610709,return,3
BMu37,56,C,INI,Trunk_Forward,1,R_EO,96.24539607612849,bending,1
BMu37,56,C,INI,Trunk_Forward,1,R_EO,94.09538283762114,return,1
BMu37,56,C,INI,Trunk_Forward,1,R_EO,99.25327873142791,bending,2
BMu37,56,C,INI,Trunk_Forward,1,R_EO,92.53095199520477,return,2
BMu37,56,C,INI,Trunk_Forward,1,R_EO,97.62203016427522,bending,3
BMu37,56,C,INI,Trunk_Forward,1,R_EO,94.99148316795419,return,3
BMu37,56,C,REL,Trunk_Forward,1,L_EO,94.74617175904609,bending,1
BMu37,56,C,REL,Trunk_Forward,1,L_EO,102.38075850499403,return,1
BMu37,56,C,REL,Trunk_Forward,1,L_EO,97.45862185201885,bending,2
BMu37,56,C,REL,Trunk_Forward,1,L_EO,92.05291811415904,return,2
BMu37,56,C,REL,Trunk_Forward,1,L_EO,91.69025872155326,bending,3
BMu37,56,C,REL,Trunk_Forward,1,L_EO,94.73170957480026,return,3
BMu37,56,C,REL,Trunk_Forward,1,R_EO,95.41956477334023,bending,1
BMu37,56,C,REL,Trunk_Forward,1,R_EO,100.66900796157532,return,1
BMu37,56,C,REL,Trunk_Forward,1,R_EO,102.34549754763188,bending,2
BMu37,56,C,REL,Trunk_Forward,1,R_EO,99.137438887534,return,2
BMu37,56,C,REL,Trunk_Forward,1,R_EO,95.05680936731306,bending,3
BMu37,56,C,REL,Trunk_Forward,1,R_EO,103.02651164944423,return,3
BMu37,57,C,INI,Trunk_Forward,1,L_EO,66.02734859745419,bending,1
BMu37,57,C,INI,Trunk_Forward,1,L_EO,67.23710861721523,return,1
BMu37,57,C,INI,Trunk_Forward,1,L_EO,66.57596410212751,bending,2
BMu37,57,C,INI,Trunk_Forward,1,L_EO,51.86547128164343,return,2
BMu37,57,C,INI,Trunk_Forward,1,L_EO,54.44497938340826,bending,3
BMu37,57,C,INI,Trunk_Forward,1,L_EO,56.902674059011446,return,3
BMu37,57,C,INI,Trunk_Forward,1,R_EO,225.2314746448726,bending,1
BMu37,57,C,INI,Trunk_Forward,1,R_EO,135.24295653910292,return,1
BMu37,57,C,INI,Trunk_Forward,1,R_EO,199.91115268018794,bending,2
BMu37,57,C,INI,Trunk_Forward,1,R_EO,163.67441137451206,return,2
BMu37,57,C,INI,Trunk_Forward,1,R_EO,163.2761920491496,bending,3
BMu37,57,C,INI,Trunk_Forward,1,R_EO,226.0338862180306,return,3
BMu37,57,C,REL,Trunk_Forward,1,L_EO,110.28691320603363,bending,1
BMu37,57,C,REL,Trunk_Forward,1,L_EO,106.73105296562753,return,1
BMu37,57,C,REL,Trunk_Forward,1,L_EO,104.86718105111657,bending,2
BMu37,57,C,REL,Trunk_Forward,1,L_EO,115.8189902150704,return,2
BMu37,57,C,REL,Trunk_Forward,1,L_EO,113.93483489034308,bending,3
BMu37,57,C,REL,Trunk_Forward,1,L_EO,108.69402229409101,return,3
BMu37,57,C,REL,Trunk_Forward,1,R_EO,127.26373186531794,bending,1
BMu37,57,C,REL,Trunk_Forward,1,R_EO,121.62668844689075,return,1
BMu37,57,C,REL,Trunk_Forward,1,R_EO,120.7242050864105,bending,2
BMu37,57,C,REL,Trunk_Forward,1,R_EO,133.05233415908722,return,2
BMu37,57,C,REL,Trunk_Forward,1,R_EO,130.5226343564552,bending,3
BMu37,57,C,REL,Trunk_Forward,1,R_EO,124.36124424984764,return,3
BMu37,58,P,INI,Trunk_Forward,1,L_EO,133.49593430038516,bending,1
BMu37,58,P,INI,Trunk_Forward,1,L_EO,135.73412788411235,return,1
BMu37,58,P,INI,Trunk_Forward,1,L_EO,141.6166085608294,bending,2
BMu37,58,P,INI,Trunk_Forward,1,L_EO,123.71715269240599,return,2
BMu37,58,P,INI,Trunk_Forward,1,L_EO,136.7242416895767,bending,3
BMu37,58,P,INI,Trunk_Forward,1,L_EO,123.31855377047674,return,3
BMu37,58,P,INI,Trunk_Forward,1,R_EO,134.93616936730785,bending,1
BMu37,58,P,INI,Trunk_Forward,1,R_EO,132.39091660149506,return,1
BMu37,58,P,INI,Trunk_Forward,1,R_EO,131.36888535842343,bending,2
BMu37,58,P,INI,Trunk_Forward,1,R_EO,126.36426412487951,return,2
BMu37,58,P,INI,Trunk_Forward,1,R_EO,131.04187459826585,bending,3
BMu37,58,P,INI,Trunk_Forward,1,R_EO,131.7257308587132,return,3
BMu37,58,P,REL,Trunk_Forward,1,L_EO,125.36585362088933,bending,1
BMu37,58,P,REL,Trunk_Forward,1,L_EO,127.64324533709487,return,1
BMu37,58,P,REL,Trunk_Forward,1,L_EO,127.66860494888014,bending,2
BMu37,58,P,REL,Trunk_Forward,1,L_EO,126.06628056747414,return,2
BMu37,58,P,REL,Trunk_Forward,1,L_EO,137.64023820672088,bending,3
BMu37,58,P,REL,Trunk_Forward,1,L_EO,133.54773584134898,return,3
BMu37,58,P,REL,Trunk_Forward,1,R_EO,130.83621115429253,bending,1
BMu37,58,P,REL,Trunk_Forward,1,R_EO,111.47479470551156,return,1
BMu37,58,P,REL,Trunk_Forward,1,R_EO,125.35135285017765,bending,2
BMu37,58,P,REL,Trunk_Forward,1,R_EO,123.58159178996327,return,2
BMu37,58,P,REL,Trunk_Forward,1,R_EO,130.2706716834753,bending,3
BMu37,58,P,REL,Trunk_Forward,1,R_EO,130.4820237335773,return,3
BMu37,60,C,INI,Trunk_Forward,1,L_EO,105.05843883426576,bending,1
BMu37,60,C,INI,Trunk_Forward,1,L_EO,103.5532157216817,return,1
BMu37,60,C,INI,Trunk_Forward,1,L_EO,100.89048602225535,bending,2
BMu37,60,C,INI,Trunk_Forward,1,L_EO,97.74628907573587,return,2
BMu37,60,C,INI,Trunk_Forward,1,L_EO,112.25004621172785,bending,3
BMu37,60,C,INI,Trunk_Forward,1,L_EO,98.5984009482109,return,3
BMu37,60,C,INI,Trunk_Forward,1,R_EO,77.79698592755537,bending,1
BMu37,60,C,INI,Trunk_Forward,1,R_EO,84.6486305376715,return,1
BMu37,60,C,INI,Trunk_Forward,1,R_EO,79.36636881755311,bending,2
BMu37,60,C,INI,Trunk_Forward,1,R_EO,81.92271228160277,return,2
BMu37,60,C,INI,Trunk_Forward,1,R_EO,83.81067694655728,bending,3
BMu37,60,C,INI,Trunk_Forward,1,R_EO,81.7464575347743,return,3
BMu37,60,C,REL,Trunk_Forward,1,L_EO,103.37682117767723,bending,1
BMu37,60,C,REL,Trunk_Forward,1,L_EO,96.0030526586569,return,1
BMu37,60,C,REL,Trunk_Forward,1,L_EO,101.29930763273298,bending,2
BMu37,60,C,REL,Trunk_Forward,1,L_EO,108.69747894453711,return,2
BMu37,60,C,REL,Trunk_Forward,1,L_EO,100.1981418945722,bending,3
BMu37,60,C,REL,Trunk_Forward,1,L_EO,90.39862382831997,return,3
BMu37,60,C,REL,Trunk_Forward,1,R_EO,84.61410548503044,bending,1
BMu37,60,C,REL,Trunk_Forward,1,R_EO,85.39677056881168,return,1
BMu37,60,C,REL,Trunk_Forward,1,R_EO,91.57588717790625,bending,2
BMu37,60,C,REL,Trunk_Forward,1,R_EO,82.8439825856177,return,2
BMu37,60,C,REL,Trunk_Forward,1,R_EO,85.08656610412909,bending,3
BMu37,60,C,REL,Trunk_Forward,1,R_EO,92.22894531425914,return,3
BMu37,61,P,INI,Trunk_Forward,1,L_EO,96.13140462836682,bending,1
BMu37,61,P,INI,Trunk_Forward,1,L_EO,99.34694144707782,return,1
BMu37,61,P,INI,Trunk_Forward,1,L_EO,105.96253904339557,bending,2
BMu37,61,P,INI,Trunk_Forward,1,L_EO,107.20192088434064,return,2
BMu37,61,P,INI,Trunk_Forward,1,L_EO,110.69367732887942,bending,3
BMu37,61,P,INI,Trunk_Forward,1,L_EO,113.17039774067727,return,3
BMu37,61,P,INI,Trunk_Forward,1,R_EO,102.61259337357751,bending,1
BMu37,61,P,INI,Trunk_Forward,1,R_EO,102.5562597597299,return,1
BMu37,61,P,INI,Trunk_Forward,1,R_EO,104.24401857364876,bending,2
BMu37,61,P,INI,Trunk_Forward,1,R_EO,113.48556452327814,return,2
BMu37,61,P,INI,Trunk_Forward,1,R_EO,109.22045630806865,bending,3
BMu37,61,P,INI,Trunk_Forward,1,R_EO,114.03462699759841,return,3
BMu37,61,P,REL,Trunk_Forward,1,L_EO,147.25064911896672,bending,1
BMu37,61,P,REL,Trunk_Forward,1,L_EO,138.5744098368327,return,1
BMu37,61,P,REL,Trunk_Forward,1,L_EO,151.68140406270183,bending,2
BMu37,61,P,REL,Trunk_Forward,1,L_EO,152.6036608027338,return,2
BMu37,61,P,REL,Trunk_Forward,1,L_EO,163.43674466137983,bending,3
BMu37,61,P,REL,Trunk_Forward,1,L_EO,151.3701925714299,return,3
BMu37,61,P,REL,Trunk_Forward,1,R_EO,148.3802150518233,bending,1
BMu37,61,P,REL,Trunk_Forward,1,R_EO,142.33234752352115,return,1
BMu37,61,P,REL,Trunk_Forward,1,R_EO,153.987054429454,bending,2
BMu37,61,P,REL,Trunk_Forward,1,R_EO,161.05016136930553,return,2
BMu37,61,P,REL,Trunk_Forward,1,R_EO,154.48967995862333,bending,3
BMu37,61,P,REL,Trunk_Forward,1,R_EO,147.52641629716257,return,3
BMu37,62,P,INI,Trunk_Forward,1,L_EO,107.90042065702212,bending,1
BMu37,62,P,INI,Trunk_Forward,1,L_EO,96.28339045866169,return,1
BMu37,62,P,INI,Trunk_Forward,1,L_EO,98.72766460583802,bending,2
BMu37,62,P,INI,Trunk_Forward,1,L_EO,81.811123094134,return,2
BMu37,62,P,INI,Trunk_Forward,1,L_EO,76.0549708960345,bending,3
BMu37,62,P,INI,Trunk_Forward,1,L_EO,66.51939298340052,return,3
BMu37,62,P,INI,Trunk_Forward,1,R_EO,151.28288688461234,bending,1
BMu37,62,P,INI,Trunk_Forward,1,R_EO,128.87638037688973,return,1
BMu37,62,P,INI,Trunk_Forward,1,R_EO,136.85316485542336,bending,2
BMu37,62,P,INI,Trunk_Forward,1,R_EO,121.79367061967457,return,2
BMu37,62,P,INI,Trunk_Forward,1,R_EO,117.6271989537201,bending,3
BMu37,62,P,INI,Trunk_Forward,1,R_EO,110.85305801665004,return,3
BMu37,62,P,REL,Trunk_Forward,1,L_EO,89.12216749971707,bending,1
BMu37,62,P,REL,Trunk_Forward,1,L_EO,93.93221362824187,return,1
BMu37,62,P,REL,Trunk_Forward,1,L_EO,97.03519974259547,bending,2
BMu37,62,P,REL,Trunk_Forward,1,L_EO,83.30919575078299,return,2
BMu37,62,P,REL,Trunk_Forward,1,L_EO,104.43779825317161,bending,3
BMu37,62,P,REL,Trunk_Forward,1,L_EO,103.25198699146141,return,3
BMu37,62,P,REL,Trunk_Forward,1,R_EO,121.59575934954195,bending,1
BMu37,62,P,REL,Trunk_Forward,1,R_EO,127.36503871220629,return,1
BMu37,62,P,REL,Trunk_Forward,1,R_EO,130.89741380204444,bending,2
BMu37,62,P,REL,Trunk_Forward,1,R_EO,109.54123774335388,return,2
BMu37,62,P,REL,Trunk_Forward,1,R_EO,124.0303793931696,bending,3
BMu37,62,P,REL,Trunk_Forward,1,R_EO,125.77857173797796,return,3
BMu37,63,P,INI,Trunk_Forward,1,L_EO,72.74673745274677,bending,1
BMu37,63,P,INI,Trunk_Forward,1,L_EO,70.9185292784044,return,1
BMu37,63,P,INI,Trunk_Forward,1,L_EO,93.21016866883998,bending,2
BMu37,63,P,INI,Trunk_Forward,1,L_EO,109.58223602405931,return,2
BMu37,63,P,INI,Trunk_Forward,1,L_EO,75.23703306390664,bending,3
BMu37,63,P,INI,Trunk_Forward,1,L_EO,76.19550502541597,return,3
BMu37,63,P,INI,Trunk_Forward,1,R_EO,62.58133520773535,bending,1
BMu37,63,P,INI,Trunk_Forward,1,R_EO,73.29921643510282,return,1
BMu37,63,P,INI,Trunk_Forward,1,R_EO,59.237859224430956,bending,2
BMu37,63,P,INI,Trunk_Forward,1,R_EO,78.89508056825656,return,2
BMu37,63,P,INI,Trunk_Forward,1,R_EO,60.32638410183752,bending,3
BMu37,63,P,INI,Trunk_Forward,1,R_EO,59.570267395140334,return,3
BMu37,63,P,REL,Trunk_Forward,1,L_EO,106.4857059602079,bending,1
BMu37,63,P,REL,Trunk_Forward,1,L_EO,116.33743525505918,return,1
BMu37,63,P,REL,Trunk_Forward,1,L_EO,93.80336691546724,bending,2
BMu37,63,P,REL,Trunk_Forward,1,L_EO,118.60627641956074,return,2
BMu37,63,P,REL,Trunk_Forward,1,L_EO,99.57302229057927,bending,3
BMu37,63,P,REL,Trunk_Forward,1,L_EO,120.03711431059236,return,3
BMu37,63,P,REL,Trunk_Forward,1,R_EO,137.5900949256979,bending,1
BMu37,63,P,REL,Trunk_Forward,1,R_EO,104.15079351903977,return,1
BMu37,63,P,REL,Trunk_Forward,1,R_EO,110.66784778609532,bending,2
BMu37,63,P,REL,Trunk_Forward,1,R_EO,85.66897475505992,return,2
BMu37,63,P,REL,Trunk_Forward,1,R_EO,77.42650011834749,bending,3
BMu37,63,P,REL,Trunk_Forward,1,R_EO,88.62059373270505,return,3
BMu37,64,C,INI,Trunk_Forward,1,L_EO,93.92656843469767,bending,1
BMu37,64,C,INI,Trunk_Forward,1,L_EO,102.19147078093273,return,1
BMu37,64,C,INI,Trunk_Forward,1,L_EO,79.09631956705582,bending,2
BMu37,64,C,INI,Trunk_Forward,1,L_EO,94.48083158028558,return,2
BMu37,64,C,INI,Trunk_Forward,1,L_EO,83.15014788441914,bending,3
BMu37,64,C,INI,Trunk_Forward,1,L_EO,90.91797148194634,return,3
BMu37,64,C,INI,Trunk_Forward,1,R_EO,87.96822093739293,bending,1
BMu37,64,C,INI,Trunk_Forward,1,R_EO,97.9686776476701,return,1
BMu37,64,C,INI,Trunk_Forward,1,R_EO,96.33767550788525,bending,2
BMu37,64,C,INI,Trunk_Forward,1,R_EO,109.41468679924627,return,2
BMu37,64,C,INI,Trunk_Forward,1,R_EO,97.49730675067416,bending,3
BMu37,64,C,INI,Trunk_Forward,1,R_EO,103.77656518040962,return,3
BMu37,64,C,REL,Trunk_Forward,1,L_EO,80.57111853738728,bending,1
BMu37,64,C,REL,Trunk_Forward,1,L_EO,94.39660899604952,return,1
BMu37,64,C,REL,Trunk_Forward,1,L_EO,83.0144073690832,bending,2
BMu37,64,C,REL,Trunk_Forward,1,L_EO,89.44811084458523,return,2
BMu37,64,C,REL,Trunk_Forward,1,L_EO,82.31636487903883,bending,3
BMu37,64,C,REL,Trunk_Forward,1,L_EO,84.7293051347257,return,3
BMu37,64,C,REL,Trunk_Forward,1,R_EO,79.33899678180379,bending,1
BMu37,64,C,REL,Trunk_Forward,1,R_EO,84.23711559528593,return,1
BMu37,64,C,REL,Trunk_Forward,1,R_EO,81.23678536367855,bending,2
BMu37,64,C,REL,Trunk_Forward,1,R_EO,86.70845657887436,return,2
BMu37,64,C,REL,Trunk_Forward,1,R_EO,81.68164939339754,bending,3
BMu37,64,C,REL,Trunk_Forward,1,R_EO,91.86880771689452,return,3
BMu37,65,P,INI,Trunk_Forward,1,L_EO,102.41233429875777,bending,1
BMu37,65,P,INI,Trunk_Forward,1,L_EO,106.70070952580784,return,1
BMu37,65,P,INI,Trunk_Forward,1,L_EO,102.16530007799985,bending,2
BMu37,65,P,INI,Trunk_Forward,1,L_EO,99.30407309073844,return,2
BMu37,65,P,INI,Trunk_Forward,1,L_EO,107.40698430160514,bending,3
BMu37,65,P,INI,Trunk_Forward,1,L_EO,118.4540027896373,return,3
BMu37,65,P,INI,Trunk_Forward,1,R_EO,106.48630655539854,bending,1
BMu37,65,P,INI,Trunk_Forward,1,R_EO,105.3490203394616,return,1
BMu37,65,P,INI,Trunk_Forward,1,R_EO,104.12180224878922,bending,2
BMu37,65,P,INI,Trunk_Forward,1,R_EO,108.73605304075586,return,2
BMu37,65,P,INI,Trunk_Forward,1,R_EO,106.87032148416704,bending,3
BMu37,65,P,INI,Trunk_Forward,1,R_EO,118.77135212450962,return,3
BMu37,65,P,REL,Trunk_Forward,1,L_EO,99.8837383793428,bending,1
BMu37,65,P,REL,Trunk_Forward,1,L_EO,100.4208309588158,return,1
BMu37,65,P,REL,Trunk_Forward,1,L_EO,106.02302210055515,bending,2
BMu37,65,P,REL,Trunk_Forward,1,L_EO,110.25427846666852,return,2
BMu37,65,P,REL,Trunk_Forward,1,L_EO,101.6116335890823,bending,3
BMu37,65,P,REL,Trunk_Forward,1,L_EO,105.01884482901681,return,3
BMu37,65,P,REL,Trunk_Forward,1,R_EO,106.62058589751629,bending,1
BMu37,65,P,REL,Trunk_Forward,1,R_EO,110.16645616465179,return,1
BMu37,65,P,REL,Trunk_Forward,1,R_EO,106.52114092417074,bending,2
BMu37,65,P,REL,Trunk_Forward,1,R_EO,112.85348636492377,return,2
BMu37,65,P,REL,Trunk_Forward,1,R_EO,111.56848803184938,bending,3
BMu37,65,P,REL,Trunk_Forward,1,R_EO,105.1418242889121,return,3
BMu37,66,C,INI,Trunk_Forward,1,L_EO,159.15821232843135,bending,1
BMu37,66,C,INI,Trunk_Forward,1,L_EO,156.89144430635704,return,1
BMu37,66,C,INI,Trunk_Forward,1,L_EO,148.89415997084055,bending,2
BMu37,66,C,INI,Trunk_Forward,1,L_EO,167.6974080611452,return,2
BMu37,66,C,INI,Trunk_Forward,1,L_EO,168.44726523381965,bending,3
BMu37,66,C,INI,Trunk_Forward,1,L_EO,139.57246058097562,return,3
BMu37,66,C,INI,Trunk_Forward,1,R_EO,223.7224626998316,bending,1
BMu37,66,C,INI,Trunk_Forward,1,R_EO,164.85037362414363,return,1
BMu37,66,C,INI,Trunk_Forward,1,R_EO,208.2531296216212,bending,2
BMu37,66,C,INI,Trunk_Forward,1,R_EO,136.3550174102581,return,2
BMu37,66,C,INI,Trunk_Forward,1,R_EO,192.97699039078378,bending,3
BMu37,66,C,INI,Trunk_Forward,1,R_EO,226.3155001111751,return,3
BMu37,66,C,REL,Trunk_Forward,1,L_EO,114.54301439344871,bending,1
BMu37,66,C,REL,Trunk_Forward,1,L_EO,121.01029967672565,return,1
BMu37,66,C,REL,Trunk_Forward,1,L_EO,126.0663478168228,bending,2
BMu37,66,C,REL,Trunk_Forward,1,L_EO,121.36790519146489,return,2
BMu37,66,C,REL,Trunk_Forward,1,L_EO,123.50265858994365,bending,3
BMu37,66,C,REL,Trunk_Forward,1,L_EO,117.78636930949683,return,3
BMu37,66,C,REL,Trunk_Forward,1,R_EO,77.21859316394132,bending,1
BMu37,66,C,REL,Trunk_Forward,1,R_EO,78.70879436563071,return,1
BMu37,66,C,REL,Trunk_Forward,1,R_EO,55.635183073067374,bending,2
BMu37,66,C,REL,Trunk_Forward,1,R_EO,66.43926905007027,return,2
BMu37,66,C,REL,Trunk_Forward,1,R_EO,64.81600739043095,bending,3
BMu37,66,C,REL,Trunk_Forward,1,R_EO,78.25600892265673,return,3
BMu37,67,C,INI,Trunk_Forward,1,L_EO,59.57646008820833,bending,1
BMu37,67,C,INI,Trunk_Forward,1,L_EO,72.53624719753287,return,1
BMu37,67,C,INI,Trunk_Forward,1,L_EO,78.38356586799004,bending,2
BMu37,67,C,INI,Trunk_Forward,1,L_EO,125.20769983476033,return,2
BMu37,67,C,INI,Trunk_Forward,1,L_EO,69.15952773474777,bending,3
BMu37,67,C,INI,Trunk_Forward,1,L_EO,101.55238777034616,return,3
BMu37,67,C,INI,Trunk_Forward,1,R_EO,56.99995673246747,bending,1
BMu37,67,C,INI,Trunk_Forward,1,R_EO,83.5248138112112,return,1
BMu37,67,C,INI,Trunk_Forward,1,R_EO,69.92043978036197,bending,2
BMu37,67,C,INI,Trunk_Forward,1,R_EO,112.67730797323743,return,2
BMu37,67,C,INI,Trunk_Forward,1,R_EO,61.292949939096026,bending,3
BMu37,67,C,INI,Trunk_Forward,1,R_EO,59.25906809605089,return,3
BMu37,67,C,REL,Trunk_Forward,1,L_EO,69.63905905303059,bending,1
BMu37,67,C,REL,Trunk_Forward,1,L_EO,54.67554308504618,return,1
BMu37,67,C,REL,Trunk_Forward,1,L_EO,63.55221972527738,bending,2
BMu37,67,C,REL,Trunk_Forward,1,L_EO,88.03287004041502,return,2
BMu37,67,C,REL,Trunk_Forward,1,L_EO,60.72120753341605,bending,3
BMu37,67,C,REL,Trunk_Forward,1,L_EO,60.48808438558876,return,3
BMu37,67,C,REL,Trunk_Forward,1,R_EO,82.16242370896666,bending,1
BMu37,67,C,REL,Trunk_Forward,1,R_EO,54.48489959623017,return,1
BMu37,67,C,REL,Trunk_Forward,1,R_EO,72.12259207532811,bending,2
BMu37,67,C,REL,Trunk_Forward,1,R_EO,54.15809204576562,return,2
BMu37,67,C,REL,Trunk_Forward,1,R_EO,56.54093441832943,bending,3
BMu37,67,C,REL,Trunk_Forward,1,R_EO,73.80618194256732,return,3
BMu37,68,C,INI,Trunk_Forward,1,L_EO,78.5278262374659,bending,1
BMu37,68,C,INI,Trunk_Forward,1,L_EO,80.03679418235849,return,1
BMu37,68,C,INI,Trunk_Forward,1,L_EO,92.60341370082203,bending,2
BMu37,68,C,INI,Trunk_Forward,1,L_EO,65.70567263057049,return,2
BMu37,68,C,INI,Trunk_Forward,1,L_EO,90.47638175368776,bending,3
BMu37,68,C,INI,Trunk_Forward,1,L_EO,98.5427235998163,return,3
BMu37,68,C,INI,Trunk_Forward,1,R_EO,48.75603571584532,bending,1
BMu37,68,C,INI,Trunk_Forward,1,R_EO,56.15870274341319,return,1
BMu37,68,C,INI,Trunk_Forward,1,R_EO,51.64580819612929,bending,2
BMu37,68,C,INI,Trunk_Forward,1,R_EO,35.51778334694124,return,2
BMu37,68,C,INI,Trunk_Forward,1,R_EO,44.721410785488196,bending,3
BMu37,68,C,INI,Trunk_Forward,1,R_EO,49.4852944743099,return,3
BMu37,68,C,REL,Trunk_Forward,1,L_EO,87.6455114585868,bending,1
BMu37,68,C,REL,Trunk_Forward,1,L_EO,95.2811361867192,return,1
BMu37,68,C,REL,Trunk_Forward,1,L_EO,83.53658069328586,bending,2
BMu37,68,C,REL,Trunk_Forward,1,L_EO,88.99471586959466,return,2
BMu37,68,C,REL,Trunk_Forward,1,L_EO,104.03496623642722,bending,3
BMu37,68,C,REL,Trunk_Forward,1,L_EO,83.77135301293205,return,3
BMu37,68,C,REL,Trunk_Forward,1,L_EO,81.70346100251358,bending,4
BMu37,68,C,REL,Trunk_Forward,1,L_EO,99.89982360041262,return,4
BMu37,68,C,REL,Trunk_Forward,1,R_EO,66.74148470830491,bending,1
BMu37,68,C,REL,Trunk_Forward,1,R_EO,59.595899894571616,return,1
BMu37,68,C,REL,Trunk_Forward,1,R_EO,57.01683798482926,bending,2
BMu37,68,C,REL,Trunk_Forward,1,R_EO,85.9926997958546,return,2
BMu37,68,C,REL,Trunk_Forward,1,R_EO,65.83920723325176,bending,3
BMu37,68,C,REL,Trunk_Forward,1,R_EO,79.37475733875915,return,3
BMu37,68,C,REL,Trunk_Forward,1,R_EO,56.98741426356812,bending,4
BMu37,68,C,REL,Trunk_Forward,1,R_EO,69.25274311527204,return,4
