BMu,subject,P_C,session,task,trials,channel,value,event,repetition
BMu38,1,C,INI,Trunk_Forward,1,L_MTF,105.53118877644981,bending,1
BMu38,1,C,INI,Trunk_Forward,1,L_MTF,107.56643325681773,return,1
BMu38,1,C,INI,Trunk_Forward,1,L_MTF,100.88917050084757,bending,2
BMu38,1,C,INI,Trunk_Forward,1,L_MTF,107.84986095181966,return,2
BMu38,1,C,INI,Trunk_Forward,1,L_MTF,105.63648052060533,bending,3
BMu38,1,C,INI,Trunk_Forward,1,L_MTF,98.6799752517653,return,3
BMu38,1,C,INI,Trunk_Forward,1,R_MTF,110.41679755723858,bending,1
BMu38,1,C,INI,Trunk_Forward,1,R_MTF,101.150129119709,return,1
BMu38,1,C,INI,Trunk_Forward,1,R_MTF,97.98162037543196,bending,2
BMu38,1,C,INI,Trunk_Forward,1,R_MTF,98.8668847403573,return,2
BMu38,1,C,INI,Trunk_Forward,1,R_MTF,110.53914079016748,bending,3
BMu38,1,C,INI,Trunk_Forward,1,R_MTF,93.18975474465394,return,3
BMu38,1,C,REL,Trunk_Forward,1,L_MTF,112.38994239659618,bending,1
BMu38,1,C,REL,Trunk_Forward,1,L_MTF,103.34625932041581,return,1
BMu38,1,C,REL,Trunk_Forward,1,L_MTF,103.70833500156432,bending,2
BMu38,1,C,REL,Trunk_Forward,1,L_MTF,111.09741984905745,return,2
BMu38,1,C,REL,Trunk_Forward,1,L_MTF,104.41517241635646,bending,3
BMu38,1,C,REL,Trunk_Forward,1,L_MTF,115.51759187811793,return,3
BMu38,1,C,REL,Trunk_Forward,1,R_MTF,97.65768958744657,bending,1
BMu38,1,C,REL,Trunk_Forward,1,R_MTF,101.33864590443764,return,1
BMu38,1,C,REL,Trunk_Forward,1,R_MTF,135.11125006252135,bending,2
BMu38,1,C,REL,Trunk_Forward,1,R_MTF,95.53124056406914,return,2
BMu38,1,C,REL,Trunk_Forward,1,R_MTF,128.7666163384947,bending,3
BMu38,1,C,REL,Trunk_Forward,1,R_MTF,159.2558870935588,return,3
BMu38,2,C,INI,Trunk_Forward,1,L_MTF,106.2444460903454,bending,1
BMu38,2,C,INI,Trunk_Forward,1,L_MTF,118.94458254662376,return,1
BMu38,2,C,INI,Trunk_Forward,1,L_MTF,102.4761788299715,bending,2
BMu38,2,C,INI,Trunk_Forward,1,L_MTF,112.55531678357842,return,2
BMu38,2,C,INI,Trunk_Forward,1,L_MTF,108.88786189709023,bending,3
BMu38,2,C,INI,Trunk_Forward,1,L_MTF,121.01379414641177,return,3
BMu38,2,C,INI,Trunk_Forward,1,R_MTF,113.48338603838242,bending,1
BMu38,2,C,INI,Trunk_Forward,1,R_MTF,113.50680707787348,return,1
BMu38,2,C,INI,Trunk_Forward,1,R_MTF,112.02199287121589,bending,2
BMu38,2,C,INI,Trunk_Forward,1,R_MTF,110.87134504195461,return,2
BMu38,2,C,INI,Trunk_Forward,1,R_MTF,111.74725551455192,bending,3
BMu38,2,C,INI,Trunk_Forward,1,R_MTF,120.9982884858918,return,3
BMu38,2,C,REL,Trunk_Forward,1,L_MTF,110.54941373463113,bending,1
BMu38,2,C,REL,Trunk_Forward,1,L_MTF,105.77926870244765,return,1
BMu38,2,C,REL,Trunk_Forward,1,L_MTF,107.64288991531774,bending,2
BMu38,2,C,REL,Trunk_Forward,1,L_MTF,104.79176705642938,return,2
BMu38,2,C,REL,Trunk_Forward,1,L_MTF,96.72778499414468,bending,3
BMu38,2,C,REL,Trunk_Forward,1,L_MTF,104.6365057614223,return,3
BMu38,2,C,REL,Trunk_Forward,1,R_MTF,101.09647764470412,bending,1
BMu38,2,C,REL,Trunk_Forward,1,R_MTF,105.09972794353999,return,1
BMu38,2,C,REL,Trunk_Forward,1,R_MTF,113.4057365131564,bending,2
BMu38,2,C,REL,Trunk_Forward,1,R_MTF,112.00499215933651,return,2
BMu38,2,C,REL,Trunk_Forward,1,R_MTF,100.96208324169478,bending,3
BMu38,2,C,REL,Trunk_Forward,1,R_MTF,102.29399996064458,return,3
BMu38,3,C,INI,Trunk_Forward,1,L_MTF,115.61585250728044,bending,1
BMu38,3,C,INI,Trunk_Forward,1,L_MTF,113.93015055731375,return,1
BMu38,3,C,INI,Trunk_Forward,1,L_MTF,111.31940106159772,bending,2
BMu38,3,C,INI,Trunk_Forward,1,L_MTF,110.43209179434243,return,2
BMu38,3,C,INI,Trunk_Forward,1,L_MTF,112.18920102683188,bending,3
BMu38,3,C,INI,Trunk_Forward,1,L_MTF,114.45398547842075,return,3
BMu38,3,C,INI,Trunk_Forward,1,R_MTF,109.21952384639019,bending,1
BMu38,3,C,INI,Trunk_Forward,1,R_MTF,106.54829707928558,return,1
BMu38,3,C,INI,Trunk_Forward,1,R_MTF,110.57804774369804,bending,2
BMu38,3,C,INI,Trunk_Forward,1,R_MTF,108.11856796134222,return,2
BMu38,3,C,INI,Trunk_Forward,1,R_MTF,112.82409444565103,bending,3
BMu38,3,C,INI,Trunk_Forward,1,R_MTF,113.47610138413643,return,3
BMu38,3,C,REL,Trunk_Forward,1,L_MTF,101.9589641009265,bending,1
BMu38,3,C,REL,Trunk_Forward,1,L_MTF,101.54323126481702,return,1
BMu38,3,C,REL,Trunk_Forward,1,L_MTF,100.80642453187559,bending,2
BMu38,3,C,REL,Trunk_Forward,1,L_MTF,105.5277452812325,return,2
BMu38,3,C,REL,Trunk_Forward,1,L_MTF,102.4861204954328,bending,3
BMu38,3,C,REL,Trunk_Forward,1,L_MTF,103.92453033094387,return,3
BMu38,3,C,REL,Trunk_Forward,1,R_MTF,93.50086964883477,bending,1
BMu38,3,C,REL,Trunk_Forward,1,R_MTF,95.06293641546407,return,1
BMu38,3,C,REL,Trunk_Forward,1,R_MTF,86.68231981681365,bending,2
BMu38,3,C,REL,Trunk_Forward,1,R_MTF,82.5529782690705,return,2
BMu38,3,C,REL,Trunk_Forward,1,R_MTF,89.29416773053657,bending,3
BMu38,3,C,REL,Trunk_Forward,1,R_MTF,101.06041579442564,return,3
BMu38,5,C,INI,Trunk_Forward,1,L_MTF,118.020143317553,bending,1
BMu38,5,C,INI,Trunk_Forward,1,L_MTF,139.35174430603692,return,1
BMu38,5,C,INI,Trunk_Forward,1,L_MTF,138.1556919301844,bending,2
BMu38,5,C,INI,Trunk_Forward,1,L_MTF,134.86704635532075,return,2
BMu38,5,C,INI,Trunk_Forward,1,L_MTF,138.47552402193853,bending,3
BMu38,5,C,INI,Trunk_Forward,1,L_MTF,137.87098172801976,return,3
BMu38,5,C,INI,Trunk_Forward,1,R_MTF,112.99517515995417,bending,1
BMu38,5,C,INI,Trunk_Forward,1,R_MTF,119.70875239216615,return,1
BMu38,5,C,INI,Trunk_Forward,1,R_MTF,117.14158666323122,bending,2
BMu38,5,C,INI,Trunk_Forward,1,R_MTF,126.7306661727803,return,2
BMu38,5,C,INI,Trunk_Forward,1,R_MTF,118.32065835097515,bending,3
BMu38,5,C,INI,Trunk_Forward,1,R_MTF,135.27194253550883,return,3
BMu38,5,C,REL,Trunk_Forward,1,L_MTF,140.28290003573616,bending,1
BMu38,5,C,REL,Trunk_Forward,1,L_MTF,142.44274577913214,return,1
BMu38,5,C,REL,Trunk_Forward,1,L_MTF,131.49642429804834,bending,2
BMu38,5,C,REL,Trunk_Forward,1,L_MTF,134.720317768599,return,2
BMu38,5,C,REL,Trunk_Forward,1,L_MTF,135.42644368476013,bending,3
BMu38,5,C,REL,Trunk_Forward,1,L_MTF,134.62505878635068,return,3
BMu38,5,C,REL,Trunk_Forward,1,L_MTF,129.4186493156956,bending,4
BMu38,5,C,REL,Trunk_Forward,1,L_MTF,136.29210402504592,return,4
BMu38,5,C,REL,Trunk_Forward,1,R_MTF,119.10604040741055,bending,1
BMu38,5,C,REL,Trunk_Forward,1,R_MTF,125.80445999289915,return,1
BMu38,5,C,REL,Trunk_Forward,1,R_MTF,126.86031996824269,bending,2
BMu38,5,C,REL,Trunk_Forward,1,R_MTF,137.41104412834986,return,2
BMu38,5,C,REL,Trunk_Forward,1,R_MTF,136.33300527866433,bending,3
BMu38,5,C,REL,Trunk_Forward,1,R_MTF,130.57510965623428,return,3
BMu38,5,C,REL,Trunk_Forward,1,R_MTF,129.13846283749382,bending,4
BMu38,5,C,REL,Trunk_Forward,1,R_MTF,135.15560543407977,return,4
BMu38,6,C,INI,Trunk_Forward,1,L_MTF,104.08762439295462,bending,1
BMu38,6,C,INI,Trunk_Forward,1,L_MTF,105.45883530054765,return,1
BMu38,6,C,INI,Trunk_Forward,1,L_MTF,111.02097945983297,bending,2
BMu38,6,C,INI,Trunk_Forward,1,L_MTF,109.59933353716056,return,2
BMu38,6,C,INI,Trunk_Forward,1,L_MTF,113.64846241680429,bending,3
BMu38,6,C,INI,Trunk_Forward,1,L_MTF,107.95596314775958,return,3
BMu38,6,C,INI,Trunk_Forward,1,L_MTF,111.90314274033115,bending,4
BMu38,6,C,INI,Trunk_Forward,1,L_MTF,116.64855451810982,return,4
BMu38,6,C,INI,Trunk_Forward,1,R_MTF,99.96599860574254,bending,1
BMu38,6,C,INI,Trunk_Forward,1,R_MTF,104.89647532514853,return,1
BMu38,6,C,INI,Trunk_Forward,1,R_MTF,101.04420680984478,bending,2
BMu38,6,C,INI,Trunk_Forward,1,R_MTF,106.99663937337414,return,2
BMu38,6,C,INI,Trunk_Forward,1,R_MTF,99.21001027949035,bending,3
BMu38,6,C,INI,Trunk_Forward,1,R_MTF,109.7725727378413,return,3
BMu38,6,C,INI,Trunk_Forward,1,R_MTF,107.29329350278488,bending,4
BMu38,6,C,INI,Trunk_Forward,1,R_MTF,107.79664766464089,return,4
BMu38,6,C,REL,Trunk_Forward,1,L_MTF,104.41895883628843,bending,1
BMu38,6,C,REL,Trunk_Forward,1,L_MTF,101.86866645286153,return,1
BMu38,6,C,REL,Trunk_Forward,1,L_MTF,104.31630976141581,bending,2
BMu38,6,C,REL,Trunk_Forward,1,L_MTF,108.01683801498515,return,2
BMu38,6,C,REL,Trunk_Forward,1,L_MTF,112.23461035767556,bending,3
BMu38,6,C,REL,Trunk_Forward,1,L_MTF,110.2872603933371,return,3
BMu38,6,C,REL,Trunk_Forward,1,R_MTF,109.96654417851457,bending,1
BMu38,6,C,REL,Trunk_Forward,1,R_MTF,109.48977168442458,return,1
BMu38,6,C,REL,Trunk_Forward,1,R_MTF,115.6541942705362,bending,2
BMu38,6,C,REL,Trunk_Forward,1,R_MTF,108.83272885192437,return,2
BMu38,6,C,REL,Trunk_Forward,1,R_MTF,107.91071932463116,bending,3
BMu38,6,C,REL,Trunk_Forward,1,R_MTF,117.69746860364862,return,3
BMu38,7,C,INI,Trunk_Forward,1,L_MTF,109.21892980505793,bending,1
BMu38,7,C,INI,Trunk_Forward,1,L_MTF,111.87072258946925,return,1
BMu38,7,C,INI,Trunk_Forward,1,L_MTF,104.67808103613362,bending,2
BMu38,7,C,INI,Trunk_Forward,1,L_MTF,107.71782437569154,return,2
BMu38,7,C,INI,Trunk_Forward,1,L_MTF,102.89770188508353,bending,3
BMu38,7,C,INI,Trunk_Forward,1,L_MTF,102.00199327115088,return,3
BMu38,7,C,INI,Trunk_Forward,1,R_MTF,112.55791366213047,bending,1
BMu38,7,C,INI,Trunk_Forward,1,R_MTF,109.75393144372057,return,1
BMu38,7,C,INI,Trunk_Forward,1,R_MTF,110.33178880446951,bending,2
BMu38,7,C,INI,Trunk_Forward,1,R_MTF,110.6305278166566,return,2
BMu38,7,C,INI,Trunk_Forward,1,R_MTF,105.53168107886755,bending,3
BMu38,7,C,INI,Trunk_Forward,1,R_MTF,104.7852693883646,return,3
BMu38,7,C,REL,Trunk_Forward,1,L_MTF,116.28232004123285,bending,1
BMu38,7,C,REL,Trunk_Forward,1,L_MTF,117.75437455529863,return,1
BMu38,7,C,REL,Trunk_Forward,1,L_MTF,117.43081054143939,bending,2
BMu38,7,C,REL,Trunk_Forward,1,L_MTF,117.2261125009536,return,2
BMu38,7,C,REL,Trunk_Forward,1,L_MTF,113.18730041382261,bending,3
BMu38,7,C,REL,Trunk_Forward,1,L_MTF,129.03369434525425,return,3
BMu38,7,C,REL,Trunk_Forward,1,R_MTF,119.22339363103279,bending,1
BMu38,7,C,REL,Trunk_Forward,1,R_MTF,109.81369906831789,return,1
BMu38,7,C,REL,Trunk_Forward,1,R_MTF,113.50181572748534,bending,2
BMu38,7,C,REL,Trunk_Forward,1,R_MTF,117.4538990420135,return,2
BMu38,7,C,REL,Trunk_Forward,1,R_MTF,113.82807483247387,bending,3
BMu38,7,C,REL,Trunk_Forward,1,R_MTF,126.65359764564153,return,3
BMu38,8,C,INI,Trunk_Forward,1,L_MTF,116.6209106229304,bending,1
BMu38,8,C,INI,Trunk_Forward,1,L_MTF,104.07839398982738,return,1
BMu38,8,C,INI,Trunk_Forward,1,L_MTF,108.72704482698114,bending,2
BMu38,8,C,INI,Trunk_Forward,1,L_MTF,107.65850439859727,return,2
BMu38,8,C,INI,Trunk_Forward,1,L_MTF,102.86064680322804,bending,3
BMu38,8,C,INI,Trunk_Forward,1,L_MTF,118.07226762674979,return,3
BMu38,8,C,INI,Trunk_Forward,1,R_MTF,131.90847824062186,bending,1
BMu38,8,C,INI,Trunk_Forward,1,R_MTF,124.25345543535495,return,1
BMu38,8,C,INI,Trunk_Forward,1,R_MTF,129.10808131862532,bending,2
BMu38,8,C,INI,Trunk_Forward,1,R_MTF,127.68518049997486,return,2
BMu38,8,C,INI,Trunk_Forward,1,R_MTF,127.11179956535517,bending,3
BMu38,8,C,INI,Trunk_Forward,1,R_MTF,130.2551602160236,return,3
BMu38,8,C,REL,Trunk_Forward,1,L_MTF,108.87597696127166,bending,1
BMu38,8,C,REL,Trunk_Forward,1,L_MTF,116.2972402314812,return,1
BMu38,8,C,REL,Trunk_Forward,1,L_MTF,114.00511831228346,bending,2
BMu38,8,C,REL,Trunk_Forward,1,L_MTF,113.77536007617697,return,2
BMu38,8,C,REL,Trunk_Forward,1,L_MTF,111.6934894407781,bending,3
BMu38,8,C,REL,Trunk_Forward,1,L_MTF,116.95471930291396,return,3
BMu38,8,C,REL,Trunk_Forward,1,R_MTF,131.5826514816084,bending,1
BMu38,8,C,REL,Trunk_Forward,1,R_MTF,132.73928287930272,return,1
BMu38,8,C,REL,Trunk_Forward,1,R_MTF,131.81266698707265,bending,2
BMu38,8,C,REL,Trunk_Forward,1,R_MTF,128.4961673871171,return,2
BMu38,8,C,REL,Trunk_Forward,1,R_MTF,134.2870201983738,bending,3
BMu38,8,C,REL,Trunk_Forward,1,R_MTF,141.77253353610138,return,3
BMu38,9,P,INI,Trunk_Forward,1,L_MTF,134.4723369689635,bending,1
BMu38,9,P,INI,Trunk_Forward,1,L_MTF,129.21592870949002,return,1
BMu38,9,P,INI,Trunk_Forward,1,L_MTF,135.37517024689657,bending,2
BMu38,9,P,INI,Trunk_Forward,1,L_MTF,125.84164544866614,return,2
BMu38,9,P,INI,Trunk_Forward,1,L_MTF,119.15450849127592,bending,3
BMu38,9,P,INI,Trunk_Forward,1,L_MTF,105.56332792904885,return,3
BMu38,9,P,INI,Trunk_Forward,1,L_MTF,114.83636986684685,bending,4
BMu38,9,P,INI,Trunk_Forward,1,L_MTF,118.48351404804794,return,4
BMu38,9,P,INI,Trunk_Forward,1,R_MTF,134.41718069672677,bending,1
BMu38,9,P,INI,Trunk_Forward,1,R_MTF,134.40428591568875,return,1
BMu38,9,P,INI,Trunk_Forward,1,R_MTF,140.17666284783368,bending,2
BMu38,9,P,INI,Trunk_Forward,1,R_MTF,128.86483886783793,return,2
BMu38,9,P,INI,Trunk_Forward,1,R_MTF,117.83335063941234,bending,3
BMu38,9,P,INI,Trunk_Forward,1,R_MTF,117.61055961318502,return,3
BMu38,9,P,INI,Trunk_Forward,1,R_MTF,129.6394980870544,bending,4
BMu38,9,P,INI,Trunk_Forward,1,R_MTF,131.84400745016586,return,4
BMu38,9,P,REL,Trunk_Forward,1,L_MTF,133.05272656408982,bending,1
BMu38,9,P,REL,Trunk_Forward,1,L_MTF,129.7472607094197,return,1
BMu38,9,P,REL,Trunk_Forward,1,L_MTF,134.90761115627245,bending,2
BMu38,9,P,REL,Trunk_Forward,1,L_MTF,124.04325122649986,return,2
BMu38,9,P,REL,Trunk_Forward,1,L_MTF,133.99431849905125,bending,3
BMu38,9,P,REL,Trunk_Forward,1,L_MTF,130.7096963538071,return,3
BMu38,9,P,REL,Trunk_Forward,1,R_MTF,143.73703673602012,bending,1
BMu38,9,P,REL,Trunk_Forward,1,R_MTF,134.87005083026474,return,1
BMu38,9,P,REL,Trunk_Forward,1,R_MTF,141.2685209710202,bending,2
BMu38,9,P,REL,Trunk_Forward,1,R_MTF,135.71774842939803,return,2
BMu38,9,P,REL,Trunk_Forward,1,R_MTF,135.27756739117493,bending,3
BMu38,9,P,REL,Trunk_Forward,1,R_MTF,136.90369759147737,return,3
BMu38,10,P,INI,Trunk_Forward,1,L_MTF,117.38799510792487,bending,1
BMu38,10,P,INI,Trunk_Forward,1,L_MTF,98.51322601377154,return,1
BMu38,10,P,INI,Trunk_Forward,1,L_MTF,95.37472616044596,bending,2
BMu38,10,P,INI,Trunk_Forward,1,L_MTF,103.95956259469651,return,2
BMu38,10,P,INI,Trunk_Forward,1,L_MTF,108.53547150211062,bending,3
BMu38,10,P,INI,Trunk_Forward,1,L_MTF,100.61612410064116,return,3
BMu38,10,P,INI,Trunk_Forward,1,R_MTF,117.3387064205277,bending,1
BMu38,10,P,INI,Trunk_Forward,1,R_MTF,94.38908815103348,return,1
BMu38,10,P,INI,Trunk_Forward,1,R_MTF,110.83966640085151,bending,2
BMu38,10,P,INI,Trunk_Forward,1,R_MTF,101.02330433043797,return,2
BMu38,10,P,INI,Trunk_Forward,1,R_MTF,122.05802002817293,bending,3
BMu38,10,P,INI,Trunk_Forward,1,R_MTF,141.97994099974395,return,3
BMu38,10,P,REL,Trunk_Forward,1,L_MTF,111.57624664201339,bending,1
BMu38,10,P,REL,Trunk_Forward,1,L_MTF,120.08223806804612,return,1
BMu38,10,P,REL,Trunk_Forward,1,L_MTF,110.38743870948335,bending,2
BMu38,10,P,REL,Trunk_Forward,1,L_MTF,111.67426503861333,return,2
BMu38,10,P,REL,Trunk_Forward,1,L_MTF,123.76101574479448,bending,3
BMu38,10,P,REL,Trunk_Forward,1,L_MTF,123.03719171512337,return,3
BMu38,10,P,REL,Trunk_Forward,1,R_MTF,97.56895964750044,bending,1
BMu38,10,P,REL,Trunk_Forward,1,R_MTF,117.79846399718778,return,1
BMu38,10,P,REL,Trunk_Forward,1,R_MTF,119.5692418562442,bending,2
BMu38,10,P,REL,Trunk_Forward,1,R_MTF,113.1943429903602,return,2
BMu38,10,P,REL,Trunk_Forward,1,R_MTF,131.77061594602336,bending,3
BMu38,10,P,REL,Trunk_Forward,1,R_MTF,137.4088720658563,return,3
BMu38,11,P,INI,Trunk_Forward,1,L_MTF,134.69578005927562,bending,1
BMu38,11,P,INI,Trunk_Forward,1,L_MTF,122.8753905182549,return,1
BMu38,11,P,INI,Trunk_Forward,1,L_MTF,123.65910924864764,bending,2
BMu38,11,P,INI,Trunk_Forward,1,L_MTF,123.68294176017889,return,2
BMu38,11,P,INI,Trunk_Forward,1,L_MTF,125.13187891202291,bending,3
BMu38,11,P,INI,Trunk_Forward,1,L_MTF,132.5387112645912,return,3
BMu38,11,P,INI,Trunk_Forward,1,R_MTF,162.45668921385953,bending,1
BMu38,11,P,INI,Trunk_Forward,1,R_MTF,118.07335554675863,return,1
BMu38,11,P,INI,Trunk_Forward,1,R_MTF,120.79812561969061,bending,2
BMu38,11,P,INI,Trunk_Forward,1,R_MTF,115.78368580136966,return,2
BMu38,11,P,INI,Trunk_Forward,1,R_MTF,153.76722667866758,bending,3
BMu38,11,P,INI,Trunk_Forward,1,R_MTF,137.05103256882666,return,3
BMu38,11,P,REL,Trunk_Forward,1,L_MTF,122.8959905769879,bending,1
BMu38,11,P,REL,Trunk_Forward,1,L_MTF,116.24264714441271,return,1
BMu38,11,P,REL,Trunk_Forward,1,L_MTF,123.3527906089633,bending,2
BMu38,11,P,REL,Trunk_Forward,1,L_MTF,115.96384597031896,return,2
BMu38,11,P,REL,Trunk_Forward,1,L_MTF,121.51420812129915,bending,3
BMu38,11,P,REL,Trunk_Forward,1,L_MTF,118.79928675368512,return,3
BMu38,11,P,REL,Trunk_Forward,1,R_MTF,123.15644795571369,bending,1
BMu38,11,P,REL,Trunk_Forward,1,R_MTF,128.80272062497386,return,1
BMu38,11,P,REL,Trunk_Forward,1,R_MTF,144.50779851995037,bending,2
BMu38,11,P,REL,Trunk_Forward,1,R_MTF,121.29671361812267,return,2
BMu38,11,P,REL,Trunk_Forward,1,R_MTF,136.28034849009558,bending,3
BMu38,11,P,REL,Trunk_Forward,1,R_MTF,142.24924438417844,return,3
BMu38,12,P,INI,Trunk_Forward,1,L_MTF,106.17723371366651,bending,1
BMu38,12,P,INI,Trunk_Forward,1,L_MTF,100.77567005183775,return,1
BMu38,12,P,INI,Trunk_Forward,1,L_MTF,101.06938264782764,bending,2
BMu38,12,P,INI,Trunk_Forward,1,L_MTF,97.03592943208517,return,2
BMu38,12,P,INI,Trunk_Forward,1,L_MTF,99.54869355185478,bending,3
BMu38,12,P,INI,Trunk_Forward,1,L_MTF,102.79177433389475,return,3
BMu38,12,P,INI,Trunk_Forward,1,R_MTF,102.66722718635415,bending,1
BMu38,12,P,INI,Trunk_Forward,1,R_MTF,100.05905776056072,return,1
BMu38,12,P,INI,Trunk_Forward,1,R_MTF,107.61079999874568,bending,2
BMu38,12,P,INI,Trunk_Forward,1,R_MTF,102.66972074470912,return,2
BMu38,12,P,INI,Trunk_Forward,1,R_MTF,104.1663715816932,bending,3
BMu38,12,P,INI,Trunk_Forward,1,R_MTF,106.56970913215027,return,3
BMu38,12,P,REL,Trunk_Forward,1,L_MTF,102.93728145148351,bending,1
BMu38,12,P,REL,Trunk_Forward,1,L_MTF,100.86754780625603,return,1
BMu38,12,P,REL,Trunk_Forward,1,L_MTF,97.73551547605672,bending,2
BMu38,12,P,REL,Trunk_Forward,1,L_MTF,91.62780239805078,return,2
BMu38,12,P,REL,Trunk_Forward,1,L_MTF,95.01782101598052,bending,3
BMu38,12,P,REL,Trunk_Forward,1,L_MTF,101.96476384103869,return,3
BMu38,12,P,REL,Trunk_Forward,1,R_MTF,111.13685266867785,bending,1
BMu38,12,P,REL,Trunk_Forward,1,R_MTF,247.83040450095044,return,1
BMu38,12,P,REL,Trunk_Forward,1,R_MTF,174.684617553134,bending,2
BMu38,12,P,REL,Trunk_Forward,1,R_MTF,200.28554578802127,return,2
BMu38,12,P,REL,Trunk_Forward,1,R_MTF,251.14183222515445,bending,3
BMu38,12,P,REL,Trunk_Forward,1,R_MTF,245.02316819892698,return,3
BMu38,13,C,INI,Trunk_Forward,1,L_MTF,97.33885812839877,bending,1
BMu38,13,C,INI,Trunk_Forward,1,L_MTF,104.9439912138517,return,1
BMu38,13,C,INI,Trunk_Forward,1,L_MTF,106.23799706833388,bending,2
BMu38,13,C,INI,Trunk_Forward,1,L_MTF,98.32405684817358,return,2
BMu38,13,C,INI,Trunk_Forward,1,L_MTF,108.029978516839,bending,3
BMu38,13,C,INI,Trunk_Forward,1,L_MTF,108.92068753545179,return,3
BMu38,13,C,INI,Trunk_Forward,1,R_MTF,107.76772148055618,bending,1
BMu38,13,C,INI,Trunk_Forward,1,R_MTF,104.05693577449104,return,1
BMu38,13,C,INI,Trunk_Forward,1,R_MTF,108.54782092294869,bending,2
BMu38,13,C,INI,Trunk_Forward,1,R_MTF,96.91920745648946,return,2
BMu38,13,C,INI,Trunk_Forward,1,R_MTF,109.47961649998366,bending,3
BMu38,13,C,INI,Trunk_Forward,1,R_MTF,108.96857896756,return,3
BMu38,13,C,REL,Trunk_Forward,1,L_MTF,117.60191915978291,bending,1
BMu38,13,C,REL,Trunk_Forward,1,L_MTF,116.04302310948604,return,1
BMu38,13,C,REL,Trunk_Forward,1,L_MTF,115.22247656269792,bending,2
BMu38,13,C,REL,Trunk_Forward,1,L_MTF,119.41106176989385,return,2
BMu38,13,C,REL,Trunk_Forward,1,L_MTF,119.59719992278724,bending,3
BMu38,13,C,REL,Trunk_Forward,1,L_MTF,115.18196891623172,return,3
BMu38,13,C,REL,Trunk_Forward,1,R_MTF,120.30939575020965,bending,1
BMu38,13,C,REL,Trunk_Forward,1,R_MTF,105.08520471503236,return,1
BMu38,13,C,REL,Trunk_Forward,1,R_MTF,119.21853973526187,bending,2
BMu38,13,C,REL,Trunk_Forward,1,R_MTF,113.10140338005093,return,2
BMu38,13,C,REL,Trunk_Forward,1,R_MTF,114.84433784156755,bending,3
BMu38,13,C,REL,Trunk_Forward,1,R_MTF,115.011901860374,return,3
BMu38,14,P,INI,Trunk_Forward,1,L_MTF,91.63234291317752,bending,1
BMu38,14,P,INI,Trunk_Forward,1,L_MTF,86.81802350229849,return,1
BMu38,14,P,INI,Trunk_Forward,1,L_MTF,86.84551440154183,bending,2
BMu38,14,P,INI,Trunk_Forward,1,L_MTF,85.04427396211165,return,2
BMu38,14,P,INI,Trunk_Forward,1,L_MTF,85.50114292862091,bending,3
BMu38,14,P,INI,Trunk_Forward,1,L_MTF,91.97955786523221,return,3
BMu38,14,P,INI,Trunk_Forward,1,R_MTF,101.42088430843533,bending,1
BMu38,14,P,INI,Trunk_Forward,1,R_MTF,95.09861424303472,return,1
BMu38,14,P,INI,Trunk_Forward,1,R_MTF,96.86705426795073,bending,2
BMu38,14,P,INI,Trunk_Forward,1,R_MTF,96.42158028448584,return,2
BMu38,14,P,INI,Trunk_Forward,1,R_MTF,98.09280376711123,bending,3
BMu38,14,P,INI,Trunk_Forward,1,R_MTF,101.89919619313258,return,3
BMu38,14,P,REL,Trunk_Forward,1,L_MTF,99.53651953313755,bending,1
BMu38,14,P,REL,Trunk_Forward,1,L_MTF,93.45490536398361,return,1
BMu38,14,P,REL,Trunk_Forward,1,L_MTF,90.06675580440027,bending,2
BMu38,14,P,REL,Trunk_Forward,1,L_MTF,91.85519452839644,return,2
BMu38,14,P,REL,Trunk_Forward,1,L_MTF,90.79352914347119,bending,3
BMu38,14,P,REL,Trunk_Forward,1,L_MTF,88.52039134185061,return,3
BMu38,14,P,REL,Trunk_Forward,1,L_MTF,91.25039152659568,bending,4
BMu38,14,P,REL,Trunk_Forward,1,L_MTF,97.84437372056198,return,4
BMu38,14,P,REL,Trunk_Forward,1,R_MTF,111.04428388723528,bending,1
BMu38,14,P,REL,Trunk_Forward,1,R_MTF,101.92151556373807,return,1
BMu38,14,P,REL,Trunk_Forward,1,R_MTF,102.09621102670727,bending,2
BMu38,14,P,REL,Trunk_Forward,1,R_MTF,94.72037925270413,return,2
BMu38,14,P,REL,Trunk_Forward,1,R_MTF,101.1219883023989,bending,3
BMu38,14,P,REL,Trunk_Forward,1,R_MTF,88.69648591076432,return,3
BMu38,14,P,REL,Trunk_Forward,1,R_MTF,94.54744209270959,bending,4
BMu38,14,P,REL,Trunk_Forward,1,R_MTF,104.67339323627266,return,4
BMu38,16,C,INI,Trunk_Forward,1,L_MTF,121.28686902866522,bending,1
BMu38,16,C,INI,Trunk_Forward,1,L_MTF,107.38345813305966,return,1
BMu38,16,C,INI,Trunk_Forward,1,L_MTF,125.04879548883939,bending,2
BMu38,16,C,INI,Trunk_Forward,1,L_MTF,122.1677575210161,return,2
BMu38,16,C,INI,Trunk_Forward,1,L_MTF,125.02145485761426,bending,3
BMu38,16,C,INI,Trunk_Forward,1,L_MTF,118.34960002066686,return,3
BMu38,16,C,INI,Trunk_Forward,1,R_MTF,108.4480660106765,bending,1
BMu38,16,C,INI,Trunk_Forward,1,R_MTF,111.10326973236135,return,1
BMu38,16,C,INI,Trunk_Forward,1,R_MTF,125.6826596802294,bending,2
BMu38,16,C,INI,Trunk_Forward,1,R_MTF,143.93299468328064,return,2
BMu38,16,C,INI,Trunk_Forward,1,R_MTF,125.5136949525772,bending,3
BMu38,16,C,INI,Trunk_Forward,1,R_MTF,155.60388549295052,return,3
BMu38,16,C,REL,Trunk_Forward,1,L_MTF,114.42247400352721,bending,1
BMu38,16,C,REL,Trunk_Forward,1,L_MTF,114.62825035895021,return,1
BMu38,16,C,REL,Trunk_Forward,1,L_MTF,111.5833886259271,bending,2
BMu38,16,C,REL,Trunk_Forward,1,L_MTF,114.47747004203326,return,2
BMu38,16,C,REL,Trunk_Forward,1,L_MTF,108.21499230962867,bending,3
BMu38,16,C,REL,Trunk_Forward,1,L_MTF,126.06766033212504,return,3
BMu38,16,C,REL,Trunk_Forward,1,R_MTF,136.59328056639407,bending,1
BMu38,16,C,REL,Trunk_Forward,1,R_MTF,129.42062757434337,return,1
BMu38,16,C,REL,Trunk_Forward,1,R_MTF,129.15910964393998,bending,2
BMu38,16,C,REL,Trunk_Forward,1,R_MTF,125.89924160337434,return,2
BMu38,16,C,REL,Trunk_Forward,1,R_MTF,130.0035547142339,bending,3
BMu38,16,C,REL,Trunk_Forward,1,R_MTF,139.5895704688706,return,3
BMu38,17,P,INI,Trunk_Forward,1,L_MTF,134.63157744291422,bending,1
BMu38,17,P,INI,Trunk_Forward,1,L_MTF,131.0931692992892,return,1
BMu38,17,P,INI,Trunk_Forward,1,L_MTF,128.40325157352598,bending,2
BMu38,17,P,INI,Trunk_Forward,1,L_MTF,136.5040429804117,return,2
BMu38,17,P,INI,Trunk_Forward,1,L_MTF,129.1655452655367,bending,3
BMu38,17,P,INI,Trunk_Forward,1,L_MTF,129.04576220440416,return,3
BMu38,17,P,INI,Trunk_Forward,1,R_MTF,168.6412967595187,bending,1
BMu38,17,P,INI,Trunk_Forward,1,R_MTF,159.99248416761506,return,1
BMu38,17,P,INI,Trunk_Forward,1,R_MTF,171.5729648738368,bending,2
BMu38,17,P,INI,Trunk_Forward,1,R_MTF,155.3094632645039,return,2
BMu38,17,P,INI,Trunk_Forward,1,R_MTF,166.64826392057552,bending,3
BMu38,17,P,INI,Trunk_Forward,1,R_MTF,168.92622891007835,return,3
BMu38,17,P,REL,Trunk_Forward,1,L_MTF,105.6853700646927,bending,1
BMu38,17,P,REL,Trunk_Forward,1,L_MTF,119.3087771391435,return,1
BMu38,17,P,REL,Trunk_Forward,1,L_MTF,110.69469339661265,bending,2
BMu38,17,P,REL,Trunk_Forward,1,L_MTF,109.09883468154855,return,2
BMu38,17,P,REL,Trunk_Forward,1,L_MTF,101.68243734041772,bending,3
BMu38,17,P,REL,Trunk_Forward,1,L_MTF,111.79823724491943,return,3
BMu38,17,P,REL,Trunk_Forward,1,R_MTF,122.86099595865998,bending,1
BMu38,17,P,REL,Trunk_Forward,1,R_MTF,118.21224716538826,return,1
BMu38,17,P,REL,Trunk_Forward,1,R_MTF,123.15309123819401,bending,2
BMu38,17,P,REL,Trunk_Forward,1,R_MTF,117.61681250409407,return,2
BMu38,17,P,REL,Trunk_Forward,1,R_MTF,116.71179431422458,bending,3
BMu38,17,P,REL,Trunk_Forward,1,R_MTF,112.04589970521033,return,3
BMu38,21,C,INI,Trunk_Forward,1,L_MTF,128.01533065214244,bending,1
BMu38,21,C,INI,Trunk_Forward,1,L_MTF,81.03157891128824,return,1
BMu38,21,C,INI,Trunk_Forward,1,L_MTF,143.36614379262903,bending,2
BMu38,21,C,INI,Trunk_Forward,1,L_MTF,73.50183646186278,return,2
BMu38,21,C,INI,Trunk_Forward,1,L_MTF,118.24259816966025,bending,3
BMu38,21,C,INI,Trunk_Forward,1,L_MTF,68.00749931890373,return,3
BMu38,21,C,INI,Trunk_Forward,1,R_MTF,100.8447891311121,bending,1
BMu38,21,C,INI,Trunk_Forward,1,R_MTF,96.71715956593923,return,1
BMu38,21,C,INI,Trunk_Forward,1,R_MTF,96.8616032235249,bending,2
BMu38,21,C,INI,Trunk_Forward,1,R_MTF,91.47823166526794,return,2
BMu38,21,C,INI,Trunk_Forward,1,R_MTF,98.7238679086544,bending,3
BMu38,21,C,INI,Trunk_Forward,1,R_MTF,88.12199709571817,return,3
BMu38,21,C,REL,Trunk_Forward,1,L_MTF,102.11752817795201,bending,1
BMu38,21,C,REL,Trunk_Forward,1,L_MTF,80.8259639681471,return,1
BMu38,21,C,REL,Trunk_Forward,1,L_MTF,84.85053575520693,bending,2
BMu38,21,C,REL,Trunk_Forward,1,L_MTF,81.79591268643925,return,2
BMu38,21,C,REL,Trunk_Forward,1,L_MTF,95.01414623147724,bending,3
BMu38,21,C,REL,Trunk_Forward,1,L_MTF,95.04469876923365,return,3
BMu38,21,C,REL,Trunk_Forward,1,R_MTF,102.84315352008159,bending,1
BMu38,21,C,REL,Trunk_Forward,1,R_MTF,89.39075359494134,return,1
BMu38,21,C,REL,Trunk_Forward,1,R_MTF,100.20992777681005,bending,2
BMu38,21,C,REL,Trunk_Forward,1,R_MTF,84.72207940031753,return,2
BMu38,21,C,REL,Trunk_Forward,1,R_MTF,95.42693249351322,bending,3
BMu38,21,C,REL,Trunk_Forward,1,R_MTF,92.7998913847149,return,3
BMu38,22,C,INI,Trunk_Forward,1,L_MTF,129.30396438647944,bending,1
BMu38,22,C,INI,Trunk_Forward,1,L_MTF,120.63736103095826,return,1
BMu38,22,C,INI,Trunk_Forward,1,L_MTF,117.53818296337317,bending,2
BMu38,22,C,INI,Trunk_Forward,1,L_MTF,117.18789969210522,return,2
BMu38,22,C,INI,Trunk_Forward,1,L_MTF,126.58650828071333,bending,3
BMu38,22,C,INI,Trunk_Forward,1,L_MTF,123.60832537966829,return,3
BMu38,22,C,INI,Trunk_Forward,1,R_MTF,109.85511638305084,bending,1
BMu38,22,C,INI,Trunk_Forward,1,R_MTF,117.24941906813348,return,1
BMu38,22,C,INI,Trunk_Forward,1,R_MTF,164.01526416047187,bending,2
BMu38,22,C,INI,Trunk_Forward,1,R_MTF,127.76286535131611,return,2
BMu38,22,C,INI,Trunk_Forward,1,R_MTF,166.56751324443871,bending,3
BMu38,22,C,INI,Trunk_Forward,1,R_MTF,192.15438285132058,return,3
BMu38,22,C,REL,Trunk_Forward,1,L_MTF,113.10958062999777,bending,1
BMu38,22,C,REL,Trunk_Forward,1,L_MTF,122.60641071199738,return,1
BMu38,22,C,REL,Trunk_Forward,1,L_MTF,97.56213054596253,bending,2
BMu38,22,C,REL,Trunk_Forward,1,L_MTF,110.80883527229263,return,2
BMu38,22,C,REL,Trunk_Forward,1,L_MTF,110.98102897996303,bending,3
BMu38,22,C,REL,Trunk_Forward,1,L_MTF,121.63050997226846,return,3
BMu38,22,C,REL,Trunk_Forward,1,R_MTF,95.92865822581015,bending,1
BMu38,22,C,REL,Trunk_Forward,1,R_MTF,100.41798883444206,return,1
BMu38,22,C,REL,Trunk_Forward,1,R_MTF,106.08147301075931,bending,2
BMu38,22,C,REL,Trunk_Forward,1,R_MTF,122.0582413491896,return,2
BMu38,22,C,REL,Trunk_Forward,1,R_MTF,101.91268657656799,bending,3
BMu38,22,C,REL,Trunk_Forward,1,R_MTF,118.56716677947796,return,3
BMu38,23,C,INI,Trunk_Forward,1,L_MTF,96.76293341943848,bending,1
BMu38,23,C,INI,Trunk_Forward,1,L_MTF,97.50015021175803,return,1
BMu38,23,C,INI,Trunk_Forward,1,L_MTF,106.40696638367454,bending,2
BMu38,23,C,INI,Trunk_Forward,1,L_MTF,89.82052343761656,return,2
BMu38,23,C,INI,Trunk_Forward,1,L_MTF,105.1974147514151,bending,3
BMu38,23,C,INI,Trunk_Forward,1,L_MTF,99.78938575599804,return,3
BMu38,23,C,INI,Trunk_Forward,1,R_MTF,98.93889414996366,bending,1
BMu38,23,C,INI,Trunk_Forward,1,R_MTF,88.28023301696282,return,1
BMu38,23,C,INI,Trunk_Forward,1,R_MTF,103.30100035306523,bending,2
BMu38,23,C,INI,Trunk_Forward,1,R_MTF,109.97359488756699,return,2
BMu38,23,C,INI,Trunk_Forward,1,R_MTF,108.05015944386149,bending,3
BMu38,23,C,INI,Trunk_Forward,1,R_MTF,115.44534738573026,return,3
BMu38,23,C,REL,Trunk_Forward,1,L_MTF,119.65466117202611,bending,1
BMu38,23,C,REL,Trunk_Forward,1,L_MTF,106.8785680203856,return,1
BMu38,23,C,REL,Trunk_Forward,1,L_MTF,126.68149664193264,bending,2
BMu38,23,C,REL,Trunk_Forward,1,L_MTF,125.55040724607062,return,2
BMu38,23,C,REL,Trunk_Forward,1,L_MTF,122.91048055960023,bending,3
BMu38,23,C,REL,Trunk_Forward,1,L_MTF,136.76783889706422,return,3
BMu38,23,C,REL,Trunk_Forward,1,R_MTF,127.11471674064413,bending,1
BMu38,23,C,REL,Trunk_Forward,1,R_MTF,131.98003909147693,return,1
BMu38,23,C,REL,Trunk_Forward,1,R_MTF,129.5482046948653,bending,2
BMu38,23,C,REL,Trunk_Forward,1,R_MTF,130.00770172035013,return,2
BMu38,23,C,REL,Trunk_Forward,1,R_MTF,134.17179865967515,bending,3
BMu38,23,C,REL,Trunk_Forward,1,R_MTF,134.86646201141147,return,3
BMu38,24,P,INI,Trunk_Forward,1,L_MTF,115.79935633423287,bending,1
BMu38,24,P,INI,Trunk_Forward,1,L_MTF,119.84861414914364,return,1
BMu38,24,P,INI,Trunk_Forward,1,L_MTF,114.76279389425311,bending,2
BMu38,24,P,INI,Trunk_Forward,1,L_MTF,115.8071809382829,return,2
BMu38,24,P,INI,Trunk_Forward,1,L_MTF,108.01140629869715,bending,3
BMu38,24,P,INI,Trunk_Forward,1,L_MTF,118.57917537792474,return,3
BMu38,24,P,INI,Trunk_Forward,1,R_MTF,123.96795470741094,bending,1
BMu38,24,P,INI,Trunk_Forward,1,R_MTF,117.46939434770063,return,1
BMu38,24,P,INI,Trunk_Forward,1,R_MTF,123.19666454350886,bending,2
BMu38,24,P,INI,Trunk_Forward,1,R_MTF,112.04026816686216,return,2
BMu38,24,P,INI,Trunk_Forward,1,R_MTF,114.61732003984804,bending,3
BMu38,24,P,INI,Trunk_Forward,1,R_MTF,124.35676175685386,return,3
BMu38,24,P,REL,Trunk_Forward,1,L_MTF,125.54318834237951,bending,1
BMu38,24,P,REL,Trunk_Forward,1,L_MTF,125.81582691431224,return,1
BMu38,24,P,REL,Trunk_Forward,1,L_MTF,126.03631832282697,bending,2
BMu38,24,P,REL,Trunk_Forward,1,L_MTF,119.06280791450091,return,2
BMu38,24,P,REL,Trunk_Forward,1,L_MTF,113.2326808366744,bending,3
BMu38,24,P,REL,Trunk_Forward,1,L_MTF,122.03121035047414,return,3
BMu38,24,P,REL,Trunk_Forward,1,R_MTF,119.28108167190311,bending,1
BMu38,24,P,REL,Trunk_Forward,1,R_MTF,121.29070364884184,return,1
BMu38,24,P,REL,Trunk_Forward,1,R_MTF,119.19998763215389,bending,2
BMu38,24,P,REL,Trunk_Forward,1,R_MTF,118.44332335571288,return,2
BMu38,24,P,REL,Trunk_Forward,1,R_MTF,109.53545560555239,bending,3
BMu38,24,P,REL,Trunk_Forward,1,R_MTF,120.08069700075586,return,3
BMu38,25,C,INI,Trunk_Forward,1,L_MTF,128.56441202342486,bending,1
BMu38,25,C,INI,Trunk_Forward,1,L_MTF,109.39969230158732,return,1
BMu38,25,C,INI,Trunk_Forward,1,L_MTF,130.45991868453802,bending,2
BMu38,25,C,INI,Trunk_Forward,1,L_MTF,121.78910227400304,return,2
BMu38,25,C,INI,Trunk_Forward,1,L_MTF,125.10593815583594,bending,3
BMu38,25,C,INI,Trunk_Forward,1,L_MTF,133.48567670410975,return,3
BMu38,25,C,INI,Trunk_Forward,1,R_MTF,124.39713712340041,bending,1
BMu38,25,C,INI,Trunk_Forward,1,R_MTF,118.13569590647187,return,1
BMu38,25,C,INI,Trunk_Forward,1,R_MTF,128.42057098444678,bending,2
BMu38,25,C,INI,Trunk_Forward,1,R_MTF,130.94972557471925,return,2
BMu38,25,C,INI,Trunk_Forward,1,R_MTF,118.2500173270643,bending,3
BMu38,25,C,INI,Trunk_Forward,1,R_MTF,124.8455955547342,return,3
BMu38,25,C,REL,Trunk_Forward,1,L_MTF,128.93147852063186,bending,1
BMu38,25,C,REL,Trunk_Forward,1,L_MTF,134.4062881363507,return,1
BMu38,25,C,REL,Trunk_Forward,1,L_MTF,136.79278678457035,bending,2
BMu38,25,C,REL,Trunk_Forward,1,L_MTF,134.19350505561633,return,2
BMu38,25,C,REL,Trunk_Forward,1,L_MTF,128.7534991339774,bending,3
BMu38,25,C,REL,Trunk_Forward,1,L_MTF,132.57589172924665,return,3
BMu38,25,C,REL,Trunk_Forward,1,R_MTF,130.89475082767936,bending,1
BMu38,25,C,REL,Trunk_Forward,1,R_MTF,130.23098835145694,return,1
BMu38,25,C,REL,Trunk_Forward,1,R_MTF,133.97983017155514,bending,2
BMu38,25,C,REL,Trunk_Forward,1,R_MTF,129.3470448985038,return,2
BMu38,25,C,REL,Trunk_Forward,1,R_MTF,144.54487871841044,bending,3
BMu38,25,C,REL,Trunk_Forward,1,R_MTF,138.3520507738192,return,3
BMu38,26,P,INI,Trunk_Forward,1,L_MTF,113.44631292851179,bending,1
BMu38,26,P,INI,Trunk_Forward,1,L_MTF,111.4520826203764,return,1
BMu38,26,P,INI,Trunk_Forward,1,L_MTF,119.29021245885731,bending,2
BMu38,26,P,INI,Trunk_Forward,1,L_MTF,114.56211543223458,return,2
BMu38,26,P,INI,Trunk_Forward,1,L_MTF,120.05038423778997,bending,3
BMu38,26,P,INI,Trunk_Forward,1,L_MTF,121.75182798825513,return,3
BMu38,26,P,INI,Trunk_Forward,1,R_MTF,97.79526169166795,bending,1
BMu38,26,P,INI,Trunk_Forward,1,R_MTF,66.71708170788432,return,1
BMu38,26,P,INI,Trunk_Forward,1,R_MTF,99.24765375281297,bending,2
BMu38,26,P,INI,Trunk_Forward,1,R_MTF,100.37102001758113,return,2
BMu38,26,P,INI,Trunk_Forward,1,R_MTF,112.42479371926846,bending,3
BMu38,26,P,INI,Trunk_Forward,1,R_MTF,115.89080459691475,return,3
BMu38,26,P,REL,Trunk_Forward,1,L_MTF,96.920223258962,bending,1
BMu38,26,P,REL,Trunk_Forward,1,L_MTF,72.1491337295031,return,1
BMu38,26,P,REL,Trunk_Forward,1,L_MTF,65.61763222719654,bending,2
BMu38,26,P,REL,Trunk_Forward,1,L_MTF,84.41257984883947,return,2
BMu38,26,P,REL,Trunk_Forward,1,L_MTF,80.14336567198568,bending,3
BMu38,26,P,REL,Trunk_Forward,1,L_MTF,88.30670380880618,return,3
BMu38,26,P,REL,Trunk_Forward,1,R_MTF,88.98853016691356,bending,1
BMu38,26,P,REL,Trunk_Forward,1,R_MTF,90.76763413853243,return,1
BMu38,26,P,REL,Trunk_Forward,1,R_MTF,81.92226134398788,bending,2
BMu38,26,P,REL,Trunk_Forward,1,R_MTF,100.71595727111205,return,2
BMu38,26,P,REL,Trunk_Forward,1,R_MTF,73.06115909832238,bending,3
BMu38,26,P,REL,Trunk_Forward,1,R_MTF,93.5518524383468,return,3
BMu38,27,P,INI,Trunk_Forward,1,L_MTF,97.89077486942944,bending,1
BMu38,27,P,INI,Trunk_Forward,1,L_MTF,89.71871050505048,return,1
BMu38,27,P,INI,Trunk_Forward,1,L_MTF,91.89314057815504,bending,2
BMu38,27,P,INI,Trunk_Forward,1,L_MTF,92.17271166478127,return,2
BMu38,27,P,INI,Trunk_Forward,1,L_MTF,90.35250901779249,bending,3
BMu38,27,P,INI,Trunk_Forward,1,L_MTF,91.0893139186719,return,3
BMu38,27,P,INI,Trunk_Forward,1,R_MTF,96.74753637152666,bending,1
BMu38,27,P,INI,Trunk_Forward,1,R_MTF,86.52797434303335,return,1
BMu38,27,P,INI,Trunk_Forward,1,R_MTF,88.48588649012368,bending,2
BMu38,27,P,INI,Trunk_Forward,1,R_MTF,85.7671089487257,return,2
BMu38,27,P,INI,Trunk_Forward,1,R_MTF,88.70483473349792,bending,3
BMu38,27,P,INI,Trunk_Forward,1,R_MTF,87.67523509943223,return,3
BMu38,27,P,REL,Trunk_Forward,1,L_MTF,101.28456954994228,bending,1
BMu38,27,P,REL,Trunk_Forward,1,L_MTF,103.51638375078824,return,1
BMu38,27,P,REL,Trunk_Forward,1,L_MTF,101.24619943731074,bending,2
BMu38,27,P,REL,Trunk_Forward,1,L_MTF,100.57978886694066,return,2
BMu38,27,P,REL,Trunk_Forward,1,L_MTF,103.70211247069143,bending,3
BMu38,27,P,REL,Trunk_Forward,1,L_MTF,99.94494711136959,return,3
BMu38,27,P,REL,Trunk_Forward,1,L_MTF,101.97443668469697,bending,4
BMu38,27,P,REL,Trunk_Forward,1,L_MTF,99.55720170104804,return,4
BMu38,27,P,REL,Trunk_Forward,1,R_MTF,106.30546096245071,bending,1
BMu38,27,P,REL,Trunk_Forward,1,R_MTF,94.1403476773944,return,1
BMu38,27,P,REL,Trunk_Forward,1,R_MTF,94.98638677243002,bending,2
BMu38,27,P,REL,Trunk_Forward,1,R_MTF,88.95225397663656,return,2
BMu38,27,P,REL,Trunk_Forward,1,R_MTF,97.15501454633885,bending,3
BMu38,27,P,REL,Trunk_Forward,1,R_MTF,88.80212631698217,return,3
BMu38,27,P,REL,Trunk_Forward,1,R_MTF,91.48619853758893,bending,4
BMu38,27,P,REL,Trunk_Forward,1,R_MTF,93.14395334531349,return,4
BMu38,28,P,INI,Trunk_Forward,1,L_MTF,139.4162884694157,bending,1
BMu38,28,P,INI,Trunk_Forward,1,L_MTF,135.4743075034218,return,1
BMu38,28,P,INI,Trunk_Forward,1,L_MTF,140.36682698672072,bending,2
BMu38,28,P,INI,Trunk_Forward,1,L_MTF,128.01107037723102,return,2
BMu38,28,P,INI,Trunk_Forward,1,L_MTF,123.17505931628871,bending,3
BMu38,28,P,INI,Trunk_Forward,1,L_MTF,131.1992711723279,return,3
BMu38,28,P,INI,Trunk_Forward,1,R_MTF,138.6086445903258,bending,1
BMu38,28,P,INI,Trunk_Forward,1,R_MTF,129.66472548437014,return,1
BMu38,28,P,INI,Trunk_Forward,1,R_MTF,132.61712500341392,bending,2
BMu38,28,P,INI,Trunk_Forward,1,R_MTF,114.84633614649191,return,2
BMu38,28,P,INI,Trunk_Forward,1,R_MTF,118.21353384448932,bending,3
BMu38,28,P,INI,Trunk_Forward,1,R_MTF,120.80379581576933,return,3
BMu38,28,P,REL,Trunk_Forward,1,L_MTF,147.76404376509683,bending,1
BMu38,28,P,REL,Trunk_Forward,1,L_MTF,152.42258146514808,return,1
BMu38,28,P,REL,Trunk_Forward,1,L_MTF,151.32440199947942,bending,2
BMu38,28,P,REL,Trunk_Forward,1,L_MTF,143.03522055941818,return,2
BMu38,28,P,REL,Trunk_Forward,1,L_MTF,142.78785761253212,bending,3
BMu38,28,P,REL,Trunk_Forward,1,L_MTF,139.96095603238487,return,3
BMu38,28,P,REL,Trunk_Forward,1,R_MTF,129.35772641651394,bending,1
BMu38,28,P,REL,Trunk_Forward,1,R_MTF,128.23037462640406,return,1
BMu38,28,P,REL,Trunk_Forward,1,R_MTF,117.86794715306209,bending,2
BMu38,28,P,REL,Trunk_Forward,1,R_MTF,122.5708554217174,return,2
BMu38,28,P,REL,Trunk_Forward,1,R_MTF,124.549442888445,bending,3
BMu38,28,P,REL,Trunk_Forward,1,R_MTF,120.87078319629207,return,3
BMu38,29,P,INI,Trunk_Forward,1,L_MTF,98.8938460588743,bending,1
BMu38,29,P,INI,Trunk_Forward,1,L_MTF,109.41950473674984,return,1
BMu38,29,P,INI,Trunk_Forward,1,L_MTF,106.14269021328516,bending,2
BMu38,29,P,INI,Trunk_Forward,1,L_MTF,107.29626663870386,return,2
BMu38,29,P,INI,Trunk_Forward,1,L_MTF,111.48957315037016,bending,3
BMu38,29,P,INI,Trunk_Forward,1,L_MTF,109.82845469415832,return,3
BMu38,29,P,INI,Trunk_Forward,1,R_MTF,109.04858605698057,bending,1
BMu38,29,P,INI,Trunk_Forward,1,R_MTF,110.57705444228242,return,1
BMu38,29,P,INI,Trunk_Forward,1,R_MTF,107.0190520173428,bending,2
BMu38,29,P,INI,Trunk_Forward,1,R_MTF,110.23882150658228,return,2
BMu38,29,P,INI,Trunk_Forward,1,R_MTF,116.9091377168656,bending,3
BMu38,29,P,INI,Trunk_Forward,1,R_MTF,119.82289308424379,return,3
BMu38,29,P,REL,Trunk_Forward,1,L_MTF,105.9081688470296,bending,1
BMu38,29,P,REL,Trunk_Forward,1,L_MTF,110.54560309489132,return,1
BMu38,29,P,REL,Trunk_Forward,1,L_MTF,108.40620609841379,bending,2
BMu38,29,P,REL,Trunk_Forward,1,L_MTF,113.71199176439183,return,2
BMu38,29,P,REL,Trunk_Forward,1,L_MTF,111.64432487453388,bending,3
BMu38,29,P,REL,Trunk_Forward,1,L_MTF,119.95643411374884,return,3
BMu38,29,P,REL,Trunk_Forward,1,R_MTF,112.19696421564488,bending,1
BMu38,29,P,REL,Trunk_Forward,1,R_MTF,113.96922963266731,return,1
BMu38,29,P,REL,Trunk_Forward,1,R_MTF,115.0429011170158,bending,2
BMu38,29,P,REL,Trunk_Forward,1,R_MTF,112.57271475274457,return,2
BMu38,29,P,REL,Trunk_Forward,1,R_MTF,113.7315418439955,bending,3
BMu38,29,P,REL,Trunk_Forward,1,R_MTF,119.80656002554376,return,3
BMu38,30,P,INI,Trunk_Forward,1,L_MTF,105.90437506086135,bending,1
BMu38,30,P,INI,Trunk_Forward,1,L_MTF,101.25214519971935,return,1
BMu38,30,P,INI,Trunk_Forward,1,L_MTF,111.80630601676681,bending,2
BMu38,30,P,INI,Trunk_Forward,1,L_MTF,104.09684992698887,return,2
BMu38,30,P,INI,Trunk_Forward,1,L_MTF,104.33205642322046,bending,3
BMu38,30,P,INI,Trunk_Forward,1,L_MTF,85.62072239513418,return,3
BMu38,30,P,INI,Trunk_Forward,1,R_MTF,134.24637891599528,bending,1
BMu38,30,P,INI,Trunk_Forward,1,R_MTF,127.30919327321925,return,1
BMu38,30,P,INI,Trunk_Forward,1,R_MTF,133.08310052972385,bending,2
BMu38,30,P,INI,Trunk_Forward,1,R_MTF,105.16572751528311,return,2
BMu38,30,P,INI,Trunk_Forward,1,R_MTF,112.29642392892514,bending,3
BMu38,30,P,INI,Trunk_Forward,1,R_MTF,101.15165232077894,return,3
BMu38,30,P,REL,Trunk_Forward,1,L_MTF,126.53214611562505,bending,1
BMu38,30,P,REL,Trunk_Forward,1,L_MTF,130.70808289576868,return,1
BMu38,30,P,REL,Trunk_Forward,1,L_MTF,135.00337277371767,bending,2
BMu38,30,P,REL,Trunk_Forward,1,L_MTF,125.32627918280106,return,2
BMu38,30,P,REL,Trunk_Forward,1,L_MTF,132.6110970893598,bending,3
BMu38,30,P,REL,Trunk_Forward,1,L_MTF,134.53604971811285,return,3
BMu38,30,P,REL,Trunk_Forward,1,R_MTF,122.7838912541707,bending,1
BMu38,30,P,REL,Trunk_Forward,1,R_MTF,125.1325563328054,return,1
BMu38,30,P,REL,Trunk_Forward,1,R_MTF,121.45880243911901,bending,2
BMu38,30,P,REL,Trunk_Forward,1,R_MTF,119.17591212655134,return,2
BMu38,30,P,REL,Trunk_Forward,1,R_MTF,122.08455468452149,bending,3
BMu38,30,P,REL,Trunk_Forward,1,R_MTF,124.67822138090712,return,3
BMu38,32,P,INI,Trunk_Forward,1,L_MTF,114.96856004978231,bending,1
BMu38,32,P,INI,Trunk_Forward,1,L_MTF,116.7380583092687,return,1
BMu38,32,P,INI,Trunk_Forward,1,L_MTF,119.57220260773988,bending,2
BMu38,32,P,INI,Trunk_Forward,1,L_MTF,106.89378928863627,return,2
BMu38,32,P,INI,Trunk_Forward,1,L_MTF,112.78013997353654,bending,3
BMu38,32,P,INI,Trunk_Forward,1,L_MTF,128.53648706452742,return,3
BMu38,32,P,INI,Trunk_Forward,1,R_MTF,129.3109471203449,bending,1
BMu38,32,P,INI,Trunk_Forward,1,R_MTF,123.47859765176636,return,1
BMu38,32,P,INI,Trunk_Forward,1,R_MTF,124.95561056569068,bending,2
BMu38,32,P,INI,Trunk_Forward,1,R_MTF,119.27357242650157,return,2
BMu38,32,P,INI,Trunk_Forward,1,R_MTF,132.40437495616987,bending,3
BMu38,32,P,INI,Trunk_Forward,1,R_MTF,131.70073765518063,return,3
BMu38,32,P,REL,Trunk_Forward,1,L_MTF,126.65037661197378,bending,1
BMu38,32,P,REL,Trunk_Forward,1,L_MTF,112.21463264462818,return,1
BMu38,32,P,REL,Trunk_Forward,1,L_MTF,117.67688326661758,bending,2
BMu38,32,P,REL,Trunk_Forward,1,L_MTF,105.23945740108921,return,2
BMu38,32,P,REL,Trunk_Forward,1,L_MTF,116.90072184042414,bending,3
BMu38,32,P,REL,Trunk_Forward,1,L_MTF,109.67463339934453,return,3
BMu38,32,P,REL,Trunk_Forward,1,L_MTF,109.37694565020641,bending,4
BMu38,32,P,REL,Trunk_Forward,1,L_MTF,131.90040768523707,return,4
BMu38,32,P,REL,Trunk_Forward,1,R_MTF,120.09098912982606,bending,1
BMu38,32,P,REL,Trunk_Forward,1,R_MTF,112.92322616619352,return,1
BMu38,32,P,REL,Trunk_Forward,1,R_MTF,117.99288098194926,bending,2
BMu38,32,P,REL,Trunk_Forward,1,R_MTF,110.23815428802007,return,2
BMu38,32,P,REL,Trunk_Forward,1,R_MTF,117.7796130660214,bending,3
BMu38,32,P,REL,Trunk_Forward,1,R_MTF,107.28138823613277,return,3
BMu38,32,P,REL,Trunk_Forward,1,R_MTF,114.83926075570609,bending,4
BMu38,32,P,REL,Trunk_Forward,1,R_MTF,113.78899147242892,return,4
BMu38,33,P,INI,Trunk_Forward,1,L_MTF,111.08054268195373,bending,1
BMu38,33,P,INI,Trunk_Forward,1,L_MTF,107.0898665368379,return,1
BMu38,33,P,INI,Trunk_Forward,1,L_MTF,103.31403873517912,bending,2
BMu38,33,P,INI,Trunk_Forward,1,L_MTF,97.80185296022114,return,2
BMu38,33,P,INI,Trunk_Forward,1,L_MTF,105.7723451572931,bending,3
BMu38,33,P,INI,Trunk_Forward,1,L_MTF,97.12091966644383,return,3
BMu38,33,P,INI,Trunk_Forward,1,L_MTF,100.33482296419437,bending,4
BMu38,33,P,INI,Trunk_Forward,1,L_MTF,105.64311150433804,return,4
BMu38,33,P,INI,Trunk_Forward,1,R_MTF,110.51972719151522,bending,1
BMu38,33,P,INI,Trunk_Forward,1,R_MTF,102.04466558153851,return,1
BMu38,33,P,INI,Trunk_Forward,1,R_MTF,96.58985569815589,bending,2
BMu38,33,P,INI,Trunk_Forward,1,R_MTF,95.82216659021036,return,2
BMu38,33,P,INI,Trunk_Forward,1,R_MTF,100.97775774858978,bending,3
BMu38,33,P,INI,Trunk_Forward,1,R_MTF,93.0740411088065,return,3
BMu38,33,P,INI,Trunk_Forward,1,R_MTF,90.64318339291262,bending,4
BMu38,33,P,INI,Trunk_Forward,1,R_MTF,103.16942478599114,return,4
BMu38,33,P,REL,Trunk_Forward,1,L_MTF,108.12037826601237,bending,1
BMu38,33,P,REL,Trunk_Forward,1,L_MTF,98.09858914311745,return,1
BMu38,33,P,REL,Trunk_Forward,1,L_MTF,110.04134286570832,bending,2
BMu38,33,P,REL,Trunk_Forward,1,L_MTF,103.07757471987499,return,2
BMu38,33,P,REL,Trunk_Forward,1,L_MTF,106.12775913853464,bending,3
BMu38,33,P,REL,Trunk_Forward,1,L_MTF,107.11813336160813,return,3
BMu38,33,P,REL,Trunk_Forward,1,R_MTF,106.96295127126041,bending,1
BMu38,33,P,REL,Trunk_Forward,1,R_MTF,92.6063621233437,return,1
BMu38,33,P,REL,Trunk_Forward,1,R_MTF,108.57087810578444,bending,2
BMu38,33,P,REL,Trunk_Forward,1,R_MTF,99.16891811941993,return,2
BMu38,33,P,REL,Trunk_Forward,1,R_MTF,110.95867063146704,bending,3
BMu38,33,P,REL,Trunk_Forward,1,R_MTF,103.79657881730557,return,3
BMu38,34,P,INI,Trunk_Forward,1,L_MTF,114.07507238001598,bending,1
BMu38,34,P,INI,Trunk_Forward,1,L_MTF,107.36125883157716,return,1
BMu38,34,P,INI,Trunk_Forward,1,L_MTF,108.7339748046695,bending,2
BMu38,34,P,INI,Trunk_Forward,1,L_MTF,110.63118261548708,return,2
BMu38,34,P,INI,Trunk_Forward,1,L_MTF,102.01382660363018,bending,3
BMu38,34,P,INI,Trunk_Forward,1,L_MTF,105.8397215760954,return,3
BMu38,34,P,INI,Trunk_Forward,1,R_MTF,91.44008101894742,bending,1
BMu38,34,P,INI,Trunk_Forward,1,R_MTF,163.94473760412,return,1
BMu38,34,P,INI,Trunk_Forward,1,R_MTF,202.53688721119352,bending,2
BMu38,34,P,INI,Trunk_Forward,1,R_MTF,168.8129747970662,return,2
BMu38,34,P,INI,Trunk_Forward,1,R_MTF,197.866205154316,bending,3
BMu38,34,P,INI,Trunk_Forward,1,R_MTF,159.26856422736944,return,3
BMu38,34,P,REL,Trunk_Forward,1,L_MTF,129.23952192042935,bending,1
BMu38,34,P,REL,Trunk_Forward,1,L_MTF,113.09671692982447,return,1
BMu38,34,P,REL,Trunk_Forward,1,L_MTF,130.0890616653463,bending,2
BMu38,34,P,REL,Trunk_Forward,1,L_MTF,119.0126353103985,return,2
BMu38,34,P,REL,Trunk_Forward,1,L_MTF,121.5605178439168,bending,3
BMu38,34,P,REL,Trunk_Forward,1,L_MTF,128.36630442648288,return,3
BMu38,34,P,REL,Trunk_Forward,1,R_MTF,133.79305034850458,bending,1
BMu38,34,P,REL,Trunk_Forward,1,R_MTF,108.09056415322134,return,1
BMu38,34,P,REL,Trunk_Forward,1,R_MTF,119.3975915062908,bending,2
BMu38,34,P,REL,Trunk_Forward,1,R_MTF,126.66100368494216,return,2
BMu38,34,P,REL,Trunk_Forward,1,R_MTF,129.76514257366162,bending,3
BMu38,34,P,REL,Trunk_Forward,1,R_MTF,133.34656503216192,return,3
BMu38,35,C,INI,Trunk_Forward,1,L_MTF,123.97832813851856,bending,1
BMu38,35,C,INI,Trunk_Forward,1,L_MTF,131.80704520147188,return,1
BMu38,35,C,INI,Trunk_Forward,1,L_MTF,121.13284077137983,bending,2
BMu38,35,C,INI,Trunk_Forward,1,L_MTF,136.51327515975512,return,2
BMu38,35,C,INI,Trunk_Forward,1,L_MTF,142.76665495624098,bending,3
BMu38,35,C,INI,Trunk_Forward,1,L_MTF,133.04080243929698,return,3
BMu38,35,C,INI,Trunk_Forward,1,R_MTF,109.71352170931088,bending,1
BMu38,35,C,INI,Trunk_Forward,1,R_MTF,128.66397506524297,return,1
BMu38,35,C,INI,Trunk_Forward,1,R_MTF,118.4336944239904,bending,2
BMu38,35,C,INI,Trunk_Forward,1,R_MTF,133.0451004055888,return,2
BMu38,35,C,INI,Trunk_Forward,1,R_MTF,115.82452474094683,bending,3
BMu38,35,C,INI,Trunk_Forward,1,R_MTF,131.49762217506103,return,3
BMu38,35,C,REL,Trunk_Forward,1,L_MTF,113.3010924756586,bending,1
BMu38,35,C,REL,Trunk_Forward,1,L_MTF,116.89137390758579,return,1
BMu38,35,C,REL,Trunk_Forward,1,L_MTF,114.78548085169552,bending,2
BMu38,35,C,REL,Trunk_Forward,1,L_MTF,116.8650257310027,return,2
BMu38,35,C,REL,Trunk_Forward,1,L_MTF,116.74542614925258,bending,3
BMu38,35,C,REL,Trunk_Forward,1,L_MTF,128.84550504770192,return,3
BMu38,35,C,REL,Trunk_Forward,1,R_MTF,100.88781416204117,bending,1
BMu38,35,C,REL,Trunk_Forward,1,R_MTF,113.1134293573393,return,1
BMu38,35,C,REL,Trunk_Forward,1,R_MTF,109.90629631627512,bending,2
BMu38,35,C,REL,Trunk_Forward,1,R_MTF,108.49422668107346,return,2
BMu38,35,C,REL,Trunk_Forward,1,R_MTF,104.49199495443091,bending,3
BMu38,35,C,REL,Trunk_Forward,1,R_MTF,113.16211351609503,return,3
BMu38,36,P,INI,Trunk_Forward,1,L_MTF,110.5549779777654,bending,1
BMu38,36,P,INI,Trunk_Forward,1,L_MTF,117.36500822527339,return,1
BMu38,36,P,INI,Trunk_Forward,1,L_MTF,117.60656209731155,bending,2
BMu38,36,P,INI,Trunk_Forward,1,L_MTF,111.11934496994932,return,2
BMu38,36,P,INI,Trunk_Forward,1,L_MTF,114.42531081311087,bending,3
BMu38,36,P,INI,Trunk_Forward,1,L_MTF,114.31797227775266,return,3
BMu38,36,P,INI,Trunk_Forward,1,R_MTF,112.17112830495941,bending,1
BMu38,36,P,INI,Trunk_Forward,1,R_MTF,110.69039124044298,return,1
BMu38,36,P,INI,Trunk_Forward,1,R_MTF,110.94908913801669,bending,2
BMu38,36,P,INI,Trunk_Forward,1,R_MTF,105.77590347509474,return,2
BMu38,36,P,INI,Trunk_Forward,1,R_MTF,104.532065686207,bending,3
BMu38,36,P,INI,Trunk_Forward,1,R_MTF,110.95227926353776,return,3
BMu38,36,P,REL,Trunk_Forward,1,L_MTF,117.04764896719563,bending,1
BMu38,36,P,REL,Trunk_Forward,1,L_MTF,121.90804303837321,return,1
BMu38,36,P,REL,Trunk_Forward,1,L_MTF,122.02397024424856,bending,2
BMu38,36,P,REL,Trunk_Forward,1,L_MTF,113.61721416618006,return,2
BMu38,36,P,REL,Trunk_Forward,1,L_MTF,115.857483443711,bending,3
BMu38,36,P,REL,Trunk_Forward,1,L_MTF,119.46220839143452,return,3
BMu38,36,P,REL,Trunk_Forward,1,R_MTF,110.7978227982707,bending,1
BMu38,36,P,REL,Trunk_Forward,1,R_MTF,118.28395884394058,return,1
BMu38,36,P,REL,Trunk_Forward,1,R_MTF,106.92853155761031,bending,2
BMu38,36,P,REL,Trunk_Forward,1,R_MTF,114.06832073644198,return,2
BMu38,36,P,REL,Trunk_Forward,1,R_MTF,110.3273970107452,bending,3
BMu38,36,P,REL,Trunk_Forward,1,R_MTF,116.42305805297049,return,3
BMu38,38,C,INI,Trunk_Forward,1,L_MTF,83.48697775981722,bending,1
BMu38,38,C,INI,Trunk_Forward,1,L_MTF,61.93197838244792,return,1
BMu38,38,C,INI,Trunk_Forward,1,L_MTF,84.61944570693794,bending,2
BMu38,38,C,INI,Trunk_Forward,1,L_MTF,92.280288739431,return,2
BMu38,38,C,INI,Trunk_Forward,1,L_MTF,80.46073273384584,bending,3
BMu38,38,C,INI,Trunk_Forward,1,L_MTF,99.77062520915042,return,3
BMu38,38,C,INI,Trunk_Forward,1,R_MTF,113.58858351259904,bending,1
BMu38,38,C,INI,Trunk_Forward,1,R_MTF,123.18735257861204,return,1
BMu38,38,C,INI,Trunk_Forward,1,R_MTF,112.26223602648936,bending,2
BMu38,38,C,INI,Trunk_Forward,1,R_MTF,116.50851898979414,return,2
BMu38,38,C,INI,Trunk_Forward,1,R_MTF,113.01371329806251,bending,3
BMu38,38,C,INI,Trunk_Forward,1,R_MTF,119.54969047116792,return,3
BMu38,38,C,REL,Trunk_Forward,1,L_MTF,110.4947113071282,bending,1
BMu38,38,C,REL,Trunk_Forward,1,L_MTF,117.12508010054935,return,1
BMu38,38,C,REL,Trunk_Forward,1,L_MTF,124.1195572545268,bending,2
BMu38,38,C,REL,Trunk_Forward,1,L_MTF,111.07861495428128,return,2
BMu38,38,C,REL,Trunk_Forward,1,L_MTF,104.04254538676417,bending,3
BMu38,38,C,REL,Trunk_Forward,1,L_MTF,110.46182625198655,return,3
BMu38,38,C,REL,Trunk_Forward,1,R_MTF,99.85553704077454,bending,1
BMu38,38,C,REL,Trunk_Forward,1,R_MTF,111.3660397387493,return,1
BMu38,38,C,REL,Trunk_Forward,1,R_MTF,96.5877643816672,bending,2
BMu38,38,C,REL,Trunk_Forward,1,R_MTF,118.98482202488994,return,2
BMu38,38,C,REL,Trunk_Forward,1,R_MTF,106.11291809256439,bending,3
BMu38,38,C,REL,Trunk_Forward,1,R_MTF,131.37531157105053,return,3
BMu38,39,C,INI,Trunk_Forward,1,L_MTF,113.38560689096225,bending,1
BMu38,39,C,INI,Trunk_Forward,1,L_MTF,98.47459554376172,return,1
BMu38,39,C,INI,Trunk_Forward,1,L_MTF,107.74283141322285,bending,2
BMu38,39,C,INI,Trunk_Forward,1,L_MTF,122.55908668390974,return,2
BMu38,39,C,INI,Trunk_Forward,1,L_MTF,130.4808439341189,bending,3
BMu38,39,C,INI,Trunk_Forward,1,L_MTF,116.42168908601433,return,3
BMu38,39,C,INI,Trunk_Forward,1,R_MTF,133.9351140352633,bending,1
BMu38,39,C,INI,Trunk_Forward,1,R_MTF,114.1400526607652,return,1
BMu38,39,C,INI,Trunk_Forward,1,R_MTF,133.21938313557683,bending,2
BMu38,39,C,INI,Trunk_Forward,1,R_MTF,121.96374157976206,return,2
BMu38,39,C,INI,Trunk_Forward,1,R_MTF,124.21878062183863,bending,3
BMu38,39,C,INI,Trunk_Forward,1,R_MTF,136.58687871914802,return,3
BMu38,39,C,REL,Trunk_Forward,1,L_MTF,112.30414378268635,bending,1
BMu38,39,C,REL,Trunk_Forward,1,L_MTF,105.96256979303577,return,1
BMu38,39,C,REL,Trunk_Forward,1,L_MTF,104.33481378528212,bending,2
BMu38,39,C,REL,Trunk_Forward,1,L_MTF,93.0522577368001,return,2
BMu38,39,C,REL,Trunk_Forward,1,L_MTF,109.43011347032707,bending,3
BMu38,39,C,REL,Trunk_Forward,1,L_MTF,119.35987267217925,return,3
BMu38,39,C,REL,Trunk_Forward,1,R_MTF,107.11333308998233,bending,1
BMu38,39,C,REL,Trunk_Forward,1,R_MTF,92.22561889991576,return,1
BMu38,39,C,REL,Trunk_Forward,1,R_MTF,100.28224109639909,bending,2
BMu38,39,C,REL,Trunk_Forward,1,R_MTF,86.98956306205812,return,2
BMu38,39,C,REL,Trunk_Forward,1,R_MTF,101.32545989293831,bending,3
BMu38,39,C,REL,Trunk_Forward,1,R_MTF,106.73172509183328,return,3
BMu38,40,C,INI,Trunk_Forward,1,L_MTF,117.68231196841816,bending,1
BMu38,40,C,INI,Trunk_Forward,1,L_MTF,107.04045248103891,return,1
BMu38,40,C,INI,Trunk_Forward,1,L_MTF,96.63540981621607,bending,2
BMu38,40,C,INI,Trunk_Forward,1,L_MTF,103.99742750449462,return,2
BMu38,40,C,INI,Trunk_Forward,1,L_MTF,94.24602215910005,bending,3
BMu38,40,C,INI,Trunk_Forward,1,L_MTF,109.3323194460846,return,3
BMu38,40,C,INI,Trunk_Forward,1,R_MTF,127.51125710748244,bending,1
BMu38,40,C,INI,Trunk_Forward,1,R_MTF,149.06487223998155,return,1
BMu38,40,C,INI,Trunk_Forward,1,R_MTF,132.34296967869065,bending,2
BMu38,40,C,INI,Trunk_Forward,1,R_MTF,151.69764257130433,return,2
BMu38,40,C,INI,Trunk_Forward,1,R_MTF,137.5999034661743,bending,3
BMu38,40,C,INI,Trunk_Forward,1,R_MTF,141.29610065734403,return,3
BMu38,40,C,REL,Trunk_Forward,1,L_MTF,123.65233350474712,bending,1
BMu38,40,C,REL,Trunk_Forward,1,L_MTF,123.7729525360893,return,1
BMu38,40,C,REL,Trunk_Forward,1,L_MTF,117.73958456755003,bending,2
BMu38,40,C,REL,Trunk_Forward,1,L_MTF,127.7362246899435,return,2
BMu38,40,C,REL,Trunk_Forward,1,L_MTF,115.4960330780792,bending,3
BMu38,40,C,REL,Trunk_Forward,1,L_MTF,132.6852767796636,return,3
BMu38,40,C,REL,Trunk_Forward,1,R_MTF,119.77291137500369,bending,1
BMu38,40,C,REL,Trunk_Forward,1,R_MTF,134.27438085759013,return,1
BMu38,40,C,REL,Trunk_Forward,1,R_MTF,111.00333044894428,bending,2
BMu38,40,C,REL,Trunk_Forward,1,R_MTF,133.15420879078724,return,2
BMu38,40,C,REL,Trunk_Forward,1,R_MTF,111.87160487644702,bending,3
BMu38,40,C,REL,Trunk_Forward,1,R_MTF,128.83091230850138,return,3
BMu38,41,P,INI,Trunk_Forward,1,L_MTF,81.88295171042896,bending,1
BMu38,41,P,INI,Trunk_Forward,1,L_MTF,93.10338216855418,return,1
BMu38,41,P,INI,Trunk_Forward,1,L_MTF,101.62694796821476,bending,2
BMu38,41,P,INI,Trunk_Forward,1,L_MTF,106.89320631446125,return,2
BMu38,41,P,INI,Trunk_Forward,1,L_MTF,112.82908439435924,bending,3
BMu38,41,P,INI,Trunk_Forward,1,L_MTF,120.17543941936957,return,3
BMu38,41,P,INI,Trunk_Forward,1,R_MTF,102.59594626575138,bending,1
BMu38,41,P,INI,Trunk_Forward,1,R_MTF,100.23976757282414,return,1
BMu38,41,P,INI,Trunk_Forward,1,R_MTF,115.30328292680011,bending,2
BMu38,41,P,INI,Trunk_Forward,1,R_MTF,109.42035087016248,return,2
BMu38,41,P,INI,Trunk_Forward,1,R_MTF,115.50029107769826,bending,3
BMu38,41,P,INI,Trunk_Forward,1,R_MTF,113.52854772257355,return,3
BMu38,41,P,REL,Trunk_Forward,1,L_MTF,102.99815263873327,bending,1
BMu38,41,P,REL,Trunk_Forward,1,L_MTF,90.59709946147655,return,1
BMu38,41,P,REL,Trunk_Forward,1,L_MTF,95.33515284155854,bending,2
BMu38,41,P,REL,Trunk_Forward,1,L_MTF,91.63383957472237,return,2
BMu38,41,P,REL,Trunk_Forward,1,L_MTF,107.60116114039766,bending,3
BMu38,41,P,REL,Trunk_Forward,1,L_MTF,100.09827625779367,return,3
BMu38,41,P,REL,Trunk_Forward,1,R_MTF,104.2622766556998,bending,1
BMu38,41,P,REL,Trunk_Forward,1,R_MTF,87.09179498204418,return,1
BMu38,41,P,REL,Trunk_Forward,1,R_MTF,101.69972851498862,bending,2
BMu38,41,P,REL,Trunk_Forward,1,R_MTF,100.1493984896511,return,2
BMu38,41,P,REL,Trunk_Forward,1,R_MTF,112.31971601627059,bending,3
BMu38,41,P,REL,Trunk_Forward,1,R_MTF,114.63723389440739,return,3
BMu38,42,P,INI,Trunk_Forward,1,L_MTF,107.28627029495458,bending,1
BMu38,42,P,INI,Trunk_Forward,1,L_MTF,100.49533932569283,return,1
BMu38,42,P,INI,Trunk_Forward,1,L_MTF,108.13803864119963,bending,2
BMu38,42,P,INI,Trunk_Forward,1,L_MTF,103.5890071018073,return,2
BMu38,42,P,INI,Trunk_Forward,1,L_MTF,110.66971105730856,bending,3
BMu38,42,P,INI,Trunk_Forward,1,L_MTF,110.90369189928326,return,3
BMu38,42,P,INI,Trunk_Forward,1,R_MTF,109.10947995545844,bending,1
BMu38,42,P,INI,Trunk_Forward,1,R_MTF,101.28844045930227,return,1
BMu38,42,P,INI,Trunk_Forward,1,R_MTF,104.59267671708186,bending,2
BMu38,42,P,INI,Trunk_Forward,1,R_MTF,106.95131313621685,return,2
BMu38,42,P,INI,Trunk_Forward,1,R_MTF,107.4863098804478,bending,3
BMu38,42,P,INI,Trunk_Forward,1,R_MTF,118.15277192903729,return,3
BMu38,42,P,REL,Trunk_Forward,1,L_MTF,113.29707371568017,bending,1
BMu38,42,P,REL,Trunk_Forward,1,L_MTF,104.26556090374116,return,1
BMu38,42,P,REL,Trunk_Forward,1,L_MTF,113.25536500824323,bending,2
BMu38,42,P,REL,Trunk_Forward,1,L_MTF,102.22392490688141,return,2
BMu38,42,P,REL,Trunk_Forward,1,L_MTF,111.90211260915962,bending,3
BMu38,42,P,REL,Trunk_Forward,1,L_MTF,111.41466193569015,return,3
BMu38,42,P,REL,Trunk_Forward,1,R_MTF,115.07670248392365,bending,1
BMu38,42,P,REL,Trunk_Forward,1,R_MTF,106.34279590984993,return,1
BMu38,42,P,REL,Trunk_Forward,1,R_MTF,104.47284293455778,bending,2
BMu38,42,P,REL,Trunk_Forward,1,R_MTF,100.16757212191375,return,2
BMu38,42,P,REL,Trunk_Forward,1,R_MTF,104.19578439361804,bending,3
BMu38,42,P,REL,Trunk_Forward,1,R_MTF,116.16457414374,return,3
BMu38,43,P,INI,Trunk_Forward,1,L_MTF,119.88199326575223,bending,1
BMu38,43,P,INI,Trunk_Forward,1,L_MTF,136.94649828290994,return,1
BMu38,43,P,INI,Trunk_Forward,1,L_MTF,115.40253178971626,bending,2
BMu38,43,P,INI,Trunk_Forward,1,L_MTF,128.24710280030143,return,2
BMu38,43,P,INI,Trunk_Forward,1,L_MTF,114.99678205792343,bending,3
BMu38,43,P,INI,Trunk_Forward,1,L_MTF,134.26633935517208,return,3
BMu38,43,P,INI,Trunk_Forward,1,R_MTF,96.24914043147737,bending,1
BMu38,43,P,INI,Trunk_Forward,1,R_MTF,134.9548399651564,return,1
BMu38,43,P,INI,Trunk_Forward,1,R_MTF,117.00934468518112,bending,2
BMu38,43,P,INI,Trunk_Forward,1,R_MTF,129.99754036088277,return,2
BMu38,43,P,INI,Trunk_Forward,1,R_MTF,126.61079345194074,bending,3
BMu38,43,P,INI,Trunk_Forward,1,R_MTF,134.6698828969608,return,3
BMu38,43,P,REL,Trunk_Forward,1,L_MTF,121.52506638779042,bending,1
BMu38,43,P,REL,Trunk_Forward,1,L_MTF,130.20958692338942,return,1
BMu38,43,P,REL,Trunk_Forward,1,L_MTF,121.8476105278984,bending,2
BMu38,43,P,REL,Trunk_Forward,1,L_MTF,144.82613920057173,return,2
BMu38,43,P,REL,Trunk_Forward,1,L_MTF,116.4749406229343,bending,3
BMu38,43,P,REL,Trunk_Forward,1,L_MTF,143.297702632842,return,3
BMu38,43,P,REL,Trunk_Forward,1,R_MTF,187.35259244632218,bending,1
BMu38,43,P,REL,Trunk_Forward,1,R_MTF,184.35033668298283,return,1
BMu38,43,P,REL,Trunk_Forward,1,R_MTF,169.99982859110872,bending,2
BMu38,43,P,REL,Trunk_Forward,1,R_MTF,185.66095573633018,return,2
BMu38,43,P,REL,Trunk_Forward,1,R_MTF,165.47950660448592,bending,3
BMu38,43,P,REL,Trunk_Forward,1,R_MTF,198.4025999842668,return,3
BMu38,44,C,INI,Trunk_Forward,1,L_MTF,69.39597455138718,bending,1
BMu38,44,C,INI,Trunk_Forward,1,L_MTF,68.58346083549525,return,1
BMu38,44,C,INI,Trunk_Forward,1,L_MTF,93.97931046658671,bending,2
BMu38,44,C,INI,Trunk_Forward,1,L_MTF,78.24547751394445,return,2
BMu38,44,C,INI,Trunk_Forward,1,L_MTF,67.85672385462043,bending,3
BMu38,44,C,INI,Trunk_Forward,1,L_MTF,85.21623592702713,return,3
BMu38,44,C,INI,Trunk_Forward,1,R_MTF,127.8728197983112,bending,1
BMu38,44,C,INI,Trunk_Forward,1,R_MTF,137.69193005116085,return,1
BMu38,44,C,INI,Trunk_Forward,1,R_MTF,148.35675471357075,bending,2
BMu38,44,C,INI,Trunk_Forward,1,R_MTF,145.32437041689835,return,2
BMu38,44,C,INI,Trunk_Forward,1,R_MTF,153.84748099985256,bending,3
BMu38,44,C,INI,Trunk_Forward,1,R_MTF,140.53701524109624,return,3
BMu38,44,C,REL,Trunk_Forward,1,L_MTF,140.43268051832604,bending,1
BMu38,44,C,REL,Trunk_Forward,1,L_MTF,126.6084271630745,return,1
BMu38,44,C,REL,Trunk_Forward,1,L_MTF,140.4089037815579,bending,2
BMu38,44,C,REL,Trunk_Forward,1,L_MTF,128.78521563647686,return,2
BMu38,44,C,REL,Trunk_Forward,1,L_MTF,139.34319830931648,bending,3
BMu38,44,C,REL,Trunk_Forward,1,L_MTF,126.42409605964605,return,3
BMu38,44,C,REL,Trunk_Forward,1,R_MTF,119.11384299366419,bending,1
BMu38,44,C,REL,Trunk_Forward,1,R_MTF,121.29496220743012,return,1
BMu38,44,C,REL,Trunk_Forward,1,R_MTF,120.10530396938829,bending,2
BMu38,44,C,REL,Trunk_Forward,1,R_MTF,118.04769921731155,return,2
BMu38,44,C,REL,Trunk_Forward,1,R_MTF,119.96657686868612,bending,3
BMu38,44,C,REL,Trunk_Forward,1,R_MTF,125.44389499117977,return,3
BMu38,45,P,INI,Trunk_Forward,1,L_MTF,123.97546728345722,bending,1
BMu38,45,P,INI,Trunk_Forward,1,L_MTF,100.11507761728545,return,1
BMu38,45,P,INI,Trunk_Forward,1,L_MTF,118.95754372516056,bending,2
BMu38,45,P,INI,Trunk_Forward,1,L_MTF,103.98939560243326,return,2
BMu38,45,P,INI,Trunk_Forward,1,L_MTF,115.74033435277167,bending,3
BMu38,45,P,INI,Trunk_Forward,1,L_MTF,89.40966490650223,return,3
BMu38,45,P,INI,Trunk_Forward,1,R_MTF,117.32043753484749,bending,1
BMu38,45,P,INI,Trunk_Forward,1,R_MTF,76.83376314094738,return,1
BMu38,45,P,INI,Trunk_Forward,1,R_MTF,102.93789506686534,bending,2
BMu38,45,P,INI,Trunk_Forward,1,R_MTF,86.50841866817287,return,2
BMu38,45,P,INI,Trunk_Forward,1,R_MTF,104.69199296170147,bending,3
BMu38,45,P,INI,Trunk_Forward,1,R_MTF,73.70436470309377,return,3
BMu38,45,P,REL,Trunk_Forward,1,L_MTF,85.25821734465333,bending,1
BMu38,45,P,REL,Trunk_Forward,1,L_MTF,103.15037337886871,return,1
BMu38,45,P,REL,Trunk_Forward,1,L_MTF,120.85172925187423,bending,2
BMu38,45,P,REL,Trunk_Forward,1,L_MTF,101.71369494982552,return,2
BMu38,45,P,REL,Trunk_Forward,1,L_MTF,114.4861134290427,bending,3
BMu38,45,P,REL,Trunk_Forward,1,L_MTF,96.92619051800828,return,3
BMu38,45,P,REL,Trunk_Forward,1,R_MTF,76.68687513950735,bending,1
BMu38,45,P,REL,Trunk_Forward,1,R_MTF,92.41133349861958,return,1
BMu38,45,P,REL,Trunk_Forward,1,R_MTF,77.17868267128618,bending,2
BMu38,45,P,REL,Trunk_Forward,1,R_MTF,77.96847307091308,return,2
BMu38,45,P,REL,Trunk_Forward,1,R_MTF,89.12056389141244,bending,3
BMu38,45,P,REL,Trunk_Forward,1,R_MTF,99.04591039530206,return,3
BMu38,46,C,INI,Trunk_Forward,1,L_MTF,81.07545884224201,bending,1
BMu38,46,C,INI,Trunk_Forward,1,L_MTF,111.06545432293836,return,1
BMu38,46,C,INI,Trunk_Forward,1,L_MTF,98.78581750660636,bending,2
BMu38,46,C,INI,Trunk_Forward,1,L_MTF,126.18804156710503,return,2
BMu38,46,C,INI,Trunk_Forward,1,L_MTF,75.01143652385655,bending,3
BMu38,46,C,INI,Trunk_Forward,1,L_MTF,112.48396425980914,return,3
BMu38,46,C,INI,Trunk_Forward,1,R_MTF,87.24193911565399,bending,1
BMu38,46,C,INI,Trunk_Forward,1,R_MTF,77.45355908703054,return,1
BMu38,46,C,INI,Trunk_Forward,1,R_MTF,87.99020535246872,bending,2
BMu38,46,C,INI,Trunk_Forward,1,R_MTF,72.84672848546631,return,2
BMu38,46,C,INI,Trunk_Forward,1,R_MTF,85.34844109556528,bending,3
BMu38,46,C,INI,Trunk_Forward,1,R_MTF,83.69840318002692,return,3
BMu38,46,C,REL,Trunk_Forward,1,L_MTF,77.05220986639726,bending,1
BMu38,46,C,REL,Trunk_Forward,1,L_MTF,67.07979122583664,return,1
BMu38,46,C,REL,Trunk_Forward,1,L_MTF,94.12089653830375,bending,2
BMu38,46,C,REL,Trunk_Forward,1,L_MTF,84.88161690954047,return,2
BMu38,46,C,REL,Trunk_Forward,1,L_MTF,79.35952260364898,bending,3
BMu38,46,C,REL,Trunk_Forward,1,L_MTF,81.6737922274407,return,3
BMu38,46,C,REL,Trunk_Forward,1,R_MTF,100.32343704093564,bending,1
BMu38,46,C,REL,Trunk_Forward,1,R_MTF,90.00942547678801,return,1
BMu38,46,C,REL,Trunk_Forward,1,R_MTF,102.1258734233942,bending,2
BMu38,46,C,REL,Trunk_Forward,1,R_MTF,105.6034971980035,return,2
BMu38,46,C,REL,Trunk_Forward,1,R_MTF,101.9824381260768,bending,3
BMu38,46,C,REL,Trunk_Forward,1,R_MTF,101.93151007479452,return,3
BMu38,47,P,INI,Trunk_Forward,1,L_MTF,100.47440857055157,bending,1
BMu38,47,P,INI,Trunk_Forward,1,L_MTF,88.29580212031803,return,1
BMu38,47,P,INI,Trunk_Forward,1,L_MTF,88.64703361591323,bending,2
BMu38,47,P,INI,Trunk_Forward,1,L_MTF,87.95025364633878,return,2
BMu38,47,P,INI,Trunk_Forward,1,L_MTF,87.84603012083618,bending,3
BMu38,47,P,INI,Trunk_Forward,1,L_MTF,94.3359952472664,return,3
BMu38,47,P,INI,Trunk_Forward,1,R_MTF,73.58789480763076,bending,1
BMu38,47,P,INI,Trunk_Forward,1,R_MTF,86.06456675944429,return,1
BMu38,47,P,INI,Trunk_Forward,1,R_MTF,84.24593421981227,bending,2
BMu38,47,P,INI,Trunk_Forward,1,R_MTF,88.62935355885485,return,2
BMu38,47,P,INI,Trunk_Forward,1,R_MTF,80.42894644820906,bending,3
BMu38,47,P,INI,Trunk_Forward,1,R_MTF,99.0499436415108,return,3
BMu38,47,P,REL,Trunk_Forward,1,L_MTF,110.37181505505758,bending,1
BMu38,47,P,REL,Trunk_Forward,1,L_MTF,104.07568672423969,return,1
BMu38,47,P,REL,Trunk_Forward,1,L_MTF,103.89438376838831,bending,2
BMu38,47,P,REL,Trunk_Forward,1,L_MTF,102.56949937373575,return,2
BMu38,47,P,REL,Trunk_Forward,1,L_MTF,108.65644785817152,bending,3
BMu38,47,P,REL,Trunk_Forward,1,L_MTF,106.4636347214036,return,3
BMu38,47,P,REL,Trunk_Forward,1,R_MTF,83.99306457715133,bending,1
BMu38,47,P,REL,Trunk_Forward,1,R_MTF,77.95570530082149,return,1
BMu38,47,P,REL,Trunk_Forward,1,R_MTF,71.30670943412522,bending,2
BMu38,47,P,REL,Trunk_Forward,1,R_MTF,83.93900260962435,return,2
BMu38,47,P,REL,Trunk_Forward,1,R_MTF,90.75987142193686,bending,3
BMu38,47,P,REL,Trunk_Forward,1,R_MTF,76.93933376778324,return,3
BMu38,48,C,INI,Trunk_Forward,1,L_MTF,116.50348656777633,bending,1
BMu38,48,C,INI,Trunk_Forward,1,L_MTF,124.66655808889999,return,1
BMu38,48,C,INI,Trunk_Forward,1,L_MTF,118.36929934346482,bending,2
BMu38,48,C,INI,Trunk_Forward,1,L_MTF,123.7891939563249,return,2
BMu38,48,C,INI,Trunk_Forward,1,L_MTF,120.74441818125386,bending,3
BMu38,48,C,INI,Trunk_Forward,1,L_MTF,122.34438375323667,return,3
BMu38,48,C,INI,Trunk_Forward,1,R_MTF,117.79327543736547,bending,1
BMu38,48,C,INI,Trunk_Forward,1,R_MTF,126.84478154661792,return,1
BMu38,48,C,INI,Trunk_Forward,1,R_MTF,124.72102818906427,bending,2
BMu38,48,C,INI,Trunk_Forward,1,R_MTF,127.48268960520403,return,2
BMu38,48,C,INI,Trunk_Forward,1,R_MTF,124.40676768856538,bending,3
BMu38,48,C,INI,Trunk_Forward,1,R_MTF,125.01120883119991,return,3
BMu38,48,C,REL,Trunk_Forward,1,L_MTF,111.29280280568057,bending,1
BMu38,48,C,REL,Trunk_Forward,1,L_MTF,119.65432655721268,return,1
BMu38,48,C,REL,Trunk_Forward,1,L_MTF,110.53707846776035,bending,2
BMu38,48,C,REL,Trunk_Forward,1,L_MTF,117.48750970616845,return,2
BMu38,48,C,REL,Trunk_Forward,1,L_MTF,111.37078677431684,bending,3
BMu38,48,C,REL,Trunk_Forward,1,L_MTF,118.15200358959567,return,3
BMu38,48,C,REL,Trunk_Forward,1,R_MTF,130.7379081809393,bending,1
BMu38,48,C,REL,Trunk_Forward,1,R_MTF,121.05992373238236,return,1
BMu38,48,C,REL,Trunk_Forward,1,R_MTF,124.90510581819164,bending,2
BMu38,48,C,REL,Trunk_Forward,1,R_MTF,121.51655799870271,return,2
BMu38,48,C,REL,Trunk_Forward,1,R_MTF,130.2196310522822,bending,3
BMu38,48,C,REL,Trunk_Forward,1,R_MTF,125.17377512280632,return,3
BMu38,49,C,INI,Trunk_Forward,1,L_MTF,106.7547501089191,bending,1
BMu38,49,C,INI,Trunk_Forward,1,L_MTF,110.13812201084475,return,1
BMu38,49,C,INI,Trunk_Forward,1,L_MTF,117.8060069065519,bending,2
BMu38,49,C,INI,Trunk_Forward,1,L_MTF,115.59052272367937,return,2
BMu38,49,C,INI,Trunk_Forward,1,L_MTF,121.43927302412297,bending,3
BMu38,49,C,INI,Trunk_Forward,1,L_MTF,119.00680500022955,return,3
BMu38,49,C,INI,Trunk_Forward,1,R_MTF,120.98269516485824,bending,1
BMu38,49,C,INI,Trunk_Forward,1,R_MTF,104.67554404142851,return,1
BMu38,49,C,INI,Trunk_Forward,1,R_MTF,119.26705520254806,bending,2
BMu38,49,C,INI,Trunk_Forward,1,R_MTF,105.81197844809948,return,2
BMu38,49,C,INI,Trunk_Forward,1,R_MTF,122.33183861863111,bending,3
BMu38,49,C,INI,Trunk_Forward,1,R_MTF,115.98036969182742,return,3
BMu38,49,C,REL,Trunk_Forward,1,L_MTF,114.94420217856235,bending,1
BMu38,49,C,REL,Trunk_Forward,1,L_MTF,117.07489799273168,return,1
BMu38,49,C,REL,Trunk_Forward,1,L_MTF,113.37131391236217,bending,2
BMu38,49,C,REL,Trunk_Forward,1,L_MTF,129.19177781288093,return,2
BMu38,49,C,REL,Trunk_Forward,1,L_MTF,103.22176218486902,bending,3
BMu38,49,C,REL,Trunk_Forward,1,L_MTF,127.13315013580599,return,3
BMu38,49,C,REL,Trunk_Forward,1,R_MTF,122.77399297818808,bending,1
BMu38,49,C,REL,Trunk_Forward,1,R_MTF,111.84570121848424,return,1
BMu38,49,C,REL,Trunk_Forward,1,R_MTF,121.96618775297469,bending,2
BMu38,49,C,REL,Trunk_Forward,1,R_MTF,118.65005266949903,return,2
BMu38,49,C,REL,Trunk_Forward,1,R_MTF,127.75308429035272,bending,3
BMu38,49,C,REL,Trunk_Forward,1,R_MTF,119.42345008975914,return,3
BMu38,50,P,INI,Trunk_Forward,1,L_MTF,127.64160866211942,bending,1
BMu38,50,P,INI,Trunk_Forward,1,L_MTF,118.92058681381283,return,1
BMu38,50,P,INI,Trunk_Forward,1,L_MTF,122.3306885371594,bending,2
BMu38,50,P,INI,Trunk_Forward,1,L_MTF,116.88160517570167,return,2
BMu38,50,P,INI,Trunk_Forward,1,L_MTF,115.81980939716912,bending,3
BMu38,50,P,INI,Trunk_Forward,1,L_MTF,110.44743247533881,return,3
BMu38,50,P,INI,Trunk_Forward,1,R_MTF,118.640693044563,bending,1
BMu38,50,P,INI,Trunk_Forward,1,R_MTF,114.84033032687435,return,1
BMu38,50,P,INI,Trunk_Forward,1,R_MTF,101.77370526874286,bending,2
BMu38,50,P,INI,Trunk_Forward,1,R_MTF,99.26117406154319,return,2
BMu38,50,P,INI,Trunk_Forward,1,R_MTF,97.9383792272831,bending,3
BMu38,50,P,INI,Trunk_Forward,1,R_MTF,96.76605694098346,return,3
BMu38,50,P,REL,Trunk_Forward,1,L_MTF,138.09301579443095,bending,1
BMu38,50,P,REL,Trunk_Forward,1,L_MTF,133.8113542565925,return,1
BMu38,50,P,REL,Trunk_Forward,1,L_MTF,143.86345092031627,bending,2
BMu38,50,P,REL,Trunk_Forward,1,L_MTF,132.34420611311154,return,2
BMu38,50,P,REL,Trunk_Forward,1,L_MTF,137.2007508818338,bending,3
BMu38,50,P,REL,Trunk_Forward,1,L_MTF,135.60547163793447,return,3
BMu38,50,P,REL,Trunk_Forward,1,R_MTF,119.30098778578842,bending,1
BMu38,50,P,REL,Trunk_Forward,1,R_MTF,102.50167662798223,return,1
BMu38,50,P,REL,Trunk_Forward,1,R_MTF,184.48903535185116,bending,2
BMu38,50,P,REL,Trunk_Forward,1,R_MTF,183.51088707075255,return,2
BMu38,50,P,REL,Trunk_Forward,1,R_MTF,167.52780652667155,bending,3
BMu38,50,P,REL,Trunk_Forward,1,R_MTF,166.32327723522377,return,3
BMu38,51,P,INI,Trunk_Forward,1,L_MTF,98.87770588724979,bending,1
BMu38,51,P,INI,Trunk_Forward,1,L_MTF,80.77522014365073,return,1
BMu38,51,P,INI,Trunk_Forward,1,L_MTF,97.91048290060304,bending,2
BMu38,51,P,INI,Trunk_Forward,1,L_MTF,92.86195672943192,return,2
BMu38,51,P,INI,Trunk_Forward,1,L_MTF,106.33046002781488,bending,3
BMu38,51,P,INI,Trunk_Forward,1,L_MTF,100.97375832308893,return,3
BMu38,51,P,INI,Trunk_Forward,1,R_MTF,94.20940947374507,bending,1
BMu38,51,P,INI,Trunk_Forward,1,R_MTF,83.97583699172803,return,1
BMu38,51,P,INI,Trunk_Forward,1,R_MTF,96.4200251830814,bending,2
BMu38,51,P,INI,Trunk_Forward,1,R_MTF,97.00806284447613,return,2
BMu38,51,P,INI,Trunk_Forward,1,R_MTF,103.43194080421056,bending,3
BMu38,51,P,INI,Trunk_Forward,1,R_MTF,92.44335139307735,return,3
BMu38,51,P,REL,Trunk_Forward,1,L_MTF,82.16755333486998,bending,1
BMu38,51,P,REL,Trunk_Forward,1,L_MTF,86.61473019863459,return,1
BMu38,51,P,REL,Trunk_Forward,1,L_MTF,93.79556925763052,bending,2
BMu38,51,P,REL,Trunk_Forward,1,L_MTF,86.02173390950487,return,2
BMu38,51,P,REL,Trunk_Forward,1,L_MTF,89.00811748643909,bending,3
BMu38,51,P,REL,Trunk_Forward,1,L_MTF,84.96474875099017,return,3
BMu38,51,P,REL,Trunk_Forward,1,R_MTF,79.13198777085208,bending,1
BMu38,51,P,REL,Trunk_Forward,1,R_MTF,91.85717450420591,return,1
BMu38,51,P,REL,Trunk_Forward,1,R_MTF,98.53232607193637,bending,2
BMu38,51,P,REL,Trunk_Forward,1,R_MTF,88.71155393461136,return,2
BMu38,51,P,REL,Trunk_Forward,1,R_MTF,101.7613141840711,bending,3
BMu38,51,P,REL,Trunk_Forward,1,R_MTF,93.66307245315195,return,3
BMu38,52,C,INI,Trunk_Forward,1,L_MTF,110.92188647083768,bending,1
BMu38,52,C,INI,Trunk_Forward,1,L_MTF,139.77759485806428,return,1
BMu38,52,C,INI,Trunk_Forward,1,L_MTF,133.8529279545888,bending,2
BMu38,52,C,INI,Trunk_Forward,1,L_MTF,130.1941585902274,return,2
BMu38,52,C,INI,Trunk_Forward,1,L_MTF,119.56961124923993,bending,3
BMu38,52,C,INI,Trunk_Forward,1,L_MTF,132.8461377661127,return,3
BMu38,52,C,INI,Trunk_Forward,1,R_MTF,119.47180012062192,bending,1
BMu38,52,C,INI,Trunk_Forward,1,R_MTF,111.46241253740247,return,1
BMu38,52,C,INI,Trunk_Forward,1,R_MTF,112.96403456804637,bending,2
BMu38,52,C,INI,Trunk_Forward,1,R_MTF,115.90425232098833,return,2
BMu38,52,C,INI,Trunk_Forward,1,R_MTF,119.74569857569993,bending,3
BMu38,52,C,INI,Trunk_Forward,1,R_MTF,116.65855652165668,return,3
BMu38,52,C,REL,Trunk_Forward,1,L_MTF,119.0025086775566,bending,1
BMu38,52,C,REL,Trunk_Forward,1,L_MTF,121.93297691766134,return,1
BMu38,52,C,REL,Trunk_Forward,1,L_MTF,112.71596292142098,bending,2
BMu38,52,C,REL,Trunk_Forward,1,L_MTF,123.87763958129399,return,2
BMu38,52,C,REL,Trunk_Forward,1,L_MTF,125.7833211164062,bending,3
BMu38,52,C,REL,Trunk_Forward,1,L_MTF,129.12468050090536,return,3
BMu38,52,C,REL,Trunk_Forward,1,R_MTF,125.89864950955662,bending,1
BMu38,52,C,REL,Trunk_Forward,1,R_MTF,113.11891816837847,return,1
BMu38,52,C,REL,Trunk_Forward,1,R_MTF,134.5463284028707,bending,2
BMu38,52,C,REL,Trunk_Forward,1,R_MTF,131.00899329098053,return,2
BMu38,52,C,REL,Trunk_Forward,1,R_MTF,138.43794789691736,bending,3
BMu38,52,C,REL,Trunk_Forward,1,R_MTF,135.24022935800218,return,3
BMu38,53,P,INI,Trunk_Forward,1,L_MTF,109.37956883801148,bending,1
BMu38,53,P,INI,Trunk_Forward,1,L_MTF,98.55788236563819,return,1
BMu38,53,P,INI,Trunk_Forward,1,L_MTF,106.98750003183699,bending,2
BMu38,53,P,INI,Trunk_Forward,1,L_MTF,103.50433373185871,return,2
BMu38,53,P,INI,Trunk_Forward,1,L_MTF,105.81377376499827,bending,3
BMu38,53,P,INI,Trunk_Forward,1,L_MTF,103.63385254867512,return,3
BMu38,53,P,INI,Trunk_Forward,1,R_MTF,104.99514099658494,bending,1
BMu38,53,P,INI,Trunk_Forward,1,R_MTF,108.51788166520858,return,1
BMu38,53,P,INI,Trunk_Forward,1,R_MTF,111.17245063142774,bending,2
BMu38,53,P,INI,Trunk_Forward,1,R_MTF,105.1310378327304,return,2
BMu38,53,P,INI,Trunk_Forward,1,R_MTF,102.36059700525175,bending,3
BMu38,53,P,INI,Trunk_Forward,1,R_MTF,105.97971479191561,return,3
BMu38,53,P,REL,Trunk_Forward,1,L_MTF,103.39348322130844,bending,1
BMu38,53,P,REL,Trunk_Forward,1,L_MTF,102.49356397198773,return,1
BMu38,53,P,REL,Trunk_Forward,1,L_MTF,105.91305929499232,bending,2
BMu38,53,P,REL,Trunk_Forward,1,L_MTF,95.55867897279558,return,2
BMu38,53,P,REL,Trunk_Forward,1,L_MTF,100.65170492756013,bending,3
BMu38,53,P,REL,Trunk_Forward,1,L_MTF,98.79051947944457,return,3
BMu38,53,P,REL,Trunk_Forward,1,R_MTF,100.16463300860929,bending,1
BMu38,53,P,REL,Trunk_Forward,1,R_MTF,98.67837617433578,return,1
BMu38,53,P,REL,Trunk_Forward,1,R_MTF,101.08824708395262,bending,2
BMu38,53,P,REL,Trunk_Forward,1,R_MTF,97.6422900836654,return,2
BMu38,53,P,REL,Trunk_Forward,1,R_MTF,97.56708942725052,bending,3
BMu38,53,P,REL,Trunk_Forward,1,R_MTF,98.53143261381824,return,3
BMu38,54,P,INI,Trunk_Forward,1,L_MTF,107.66865503748124,bending,1
BMu38,54,P,INI,Trunk_Forward,1,L_MTF,105.08254517480394,return,1
BMu38,54,P,INI,Trunk_Forward,1,L_MTF,73.39978249745916,bending,2
BMu38,54,P,INI,Trunk_Forward,1,L_MTF,89.97524307591686,return,2
BMu38,54,P,INI,Trunk_Forward,1,L_MTF,79.91936283901569,bending,3
BMu38,54,P,INI,Trunk_Forward,1,L_MTF,98.68829681417891,return,3
BMu38,54,P,INI,Trunk_Forward,1,R_MTF,108.70822704102854,bending,1
BMu38,54,P,INI,Trunk_Forward,1,R_MTF,112.47458287186343,return,1
BMu38,54,P,INI,Trunk_Forward,1,R_MTF,117.71375319130875,bending,2
BMu38,54,P,INI,Trunk_Forward,1,R_MTF,111.40596326228292,return,2
BMu38,54,P,INI,Trunk_Forward,1,R_MTF,106.2294119933766,bending,3
BMu38,54,P,INI,Trunk_Forward,1,R_MTF,119.67207924621198,return,3
BMu38,54,P,REL,Trunk_Forward,1,L_MTF,101.45599747928817,bending,1
BMu38,54,P,REL,Trunk_Forward,1,L_MTF,104.01562251988898,return,1
BMu38,54,P,REL,Trunk_Forward,1,L_MTF,101.12425587424873,bending,2
BMu38,54,P,REL,Trunk_Forward,1,L_MTF,103.15556846152353,return,2
BMu38,54,P,REL,Trunk_Forward,1,L_MTF,103.95195861423093,bending,3
BMu38,54,P,REL,Trunk_Forward,1,L_MTF,104.59015598506474,return,3
BMu38,54,P,REL,Trunk_Forward,1,R_MTF,119.88144338040111,bending,1
BMu38,54,P,REL,Trunk_Forward,1,R_MTF,121.77191584800497,return,1
BMu38,54,P,REL,Trunk_Forward,1,R_MTF,123.61356324617645,bending,2
BMu38,54,P,REL,Trunk_Forward,1,R_MTF,120.77917309068722,return,2
BMu38,54,P,REL,Trunk_Forward,1,R_MTF,115.7031822375734,bending,3
BMu38,54,P,REL,Trunk_Forward,1,R_MTF,128.63785330586526,return,3
BMu38,55,C,INI,Trunk_Forward,1,L_MTF,87.68819095647879,bending,1
BMu38,55,C,INI,Trunk_Forward,1,L_MTF,79.91552920981276,return,1
BMu38,55,C,INI,Trunk_Forward,1,L_MTF,89.2843493614817,bending,2
BMu38,55,C,INI,Trunk_Forward,1,L_MTF,89.97017695225036,return,2
BMu38,55,C,INI,Trunk_Forward,1,L_MTF,98.60301724159599,bending,3
BMu38,55,C,INI,Trunk_Forward,1,L_MTF,75.02657020001877,return,3
BMu38,55,C,INI,Trunk_Forward,1,R_MTF,87.91953902483576,bending,1
BMu38,55,C,INI,Trunk_Forward,1,R_MTF,115.51826921007962,return,1
BMu38,55,C,INI,Trunk_Forward,1,R_MTF,110.44062237383129,bending,2
BMu38,55,C,INI,Trunk_Forward,1,R_MTF,107.7481416130974,return,2
BMu38,55,C,INI,Trunk_Forward,1,R_MTF,107.91683111579881,bending,3
BMu38,55,C,INI,Trunk_Forward,1,R_MTF,125.67826778265602,return,3
BMu38,55,C,REL,Trunk_Forward,1,L_MTF,95.70618973194895,bending,1
BMu38,55,C,REL,Trunk_Forward,1,L_MTF,84.65220442359596,return,1
BMu38,55,C,REL,Trunk_Forward,1,L_MTF,101.04004246568893,bending,2
BMu38,55,C,REL,Trunk_Forward,1,L_MTF,97.6295027499356,return,2
BMu38,55,C,REL,Trunk_Forward,1,L_MTF,88.69346200259088,bending,3
BMu38,55,C,REL,Trunk_Forward,1,L_MTF,108.35983463198464,return,3
BMu38,55,C,REL,Trunk_Forward,1,R_MTF,122.797486965746,bending,1
BMu38,55,C,REL,Trunk_Forward,1,R_MTF,119.54436583883178,return,1
BMu38,55,C,REL,Trunk_Forward,1,R_MTF,121.73997220108784,bending,2
BMu38,55,C,REL,Trunk_Forward,1,R_MTF,125.06235454871212,return,2
BMu38,55,C,REL,Trunk_Forward,1,R_MTF,116.2091108231887,bending,3
BMu38,55,C,REL,Trunk_Forward,1,R_MTF,128.08056785209527,return,3
BMu38,56,C,INI,Trunk_Forward,1,L_MTF,83.94510152244129,bending,1
BMu38,56,C,INI,Trunk_Forward,1,L_MTF,84.03941259773434,return,1
BMu38,56,C,INI,Trunk_Forward,1,L_MTF,82.29826015803314,bending,2
BMu38,56,C,INI,Trunk_Forward,1,L_MTF,79.05639220890623,return,2
BMu38,56,C,INI,Trunk_Forward,1,L_MTF,93.14671867340772,bending,3
BMu38,56,C,INI,Trunk_Forward,1,L_MTF,91.61281240846239,return,3
BMu38,56,C,INI,Trunk_Forward,1,R_MTF,75.40729741681575,bending,1
BMu38,56,C,INI,Trunk_Forward,1,R_MTF,81.24972747051825,return,1
BMu38,56,C,INI,Trunk_Forward,1,R_MTF,85.55041171562382,bending,2
BMu38,56,C,INI,Trunk_Forward,1,R_MTF,87.18726108871523,return,2
BMu38,56,C,INI,Trunk_Forward,1,R_MTF,97.2785820614318,bending,3
BMu38,56,C,INI,Trunk_Forward,1,R_MTF,97.52465907635728,return,3
BMu38,56,C,REL,Trunk_Forward,1,L_MTF,90.0165805105057,bending,1
BMu38,56,C,REL,Trunk_Forward,1,L_MTF,88.6684231796344,return,1
BMu38,56,C,REL,Trunk_Forward,1,L_MTF,79.73804565571825,bending,2
BMu38,56,C,REL,Trunk_Forward,1,L_MTF,86.85772125090604,return,2
BMu38,56,C,REL,Trunk_Forward,1,L_MTF,81.31528275913197,bending,3
BMu38,56,C,REL,Trunk_Forward,1,L_MTF,90.99114181884018,return,3
BMu38,56,C,REL,Trunk_Forward,1,R_MTF,75.25121855271598,bending,1
BMu38,56,C,REL,Trunk_Forward,1,R_MTF,65.38772457611076,return,1
BMu38,56,C,REL,Trunk_Forward,1,R_MTF,71.97086447844401,bending,2
BMu38,56,C,REL,Trunk_Forward,1,R_MTF,64.24987301017214,return,2
BMu38,56,C,REL,Trunk_Forward,1,R_MTF,78.50423288327579,bending,3
BMu38,56,C,REL,Trunk_Forward,1,R_MTF,77.06681049049789,return,3
BMu38,57,C,INI,Trunk_Forward,1,L_MTF,70.83174096083802,bending,1
BMu38,57,C,INI,Trunk_Forward,1,L_MTF,83.87986859101653,return,1
BMu38,57,C,INI,Trunk_Forward,1,L_MTF,76.277028396649,bending,2
BMu38,57,C,INI,Trunk_Forward,1,L_MTF,80.45125224926434,return,2
BMu38,57,C,INI,Trunk_Forward,1,L_MTF,61.426286532921125,bending,3
BMu38,57,C,INI,Trunk_Forward,1,L_MTF,72.09798291473808,return,3
BMu38,57,C,INI,Trunk_Forward,1,R_MTF,79.49421121734262,bending,1
BMu38,57,C,INI,Trunk_Forward,1,R_MTF,82.12847375688212,return,1
BMu38,57,C,INI,Trunk_Forward,1,R_MTF,80.86386719619267,bending,2
BMu38,57,C,INI,Trunk_Forward,1,R_MTF,83.66676303085644,return,2
BMu38,57,C,INI,Trunk_Forward,1,R_MTF,81.76482378049545,bending,3
BMu38,57,C,INI,Trunk_Forward,1,R_MTF,81.5659625211461,return,3
BMu38,57,C,REL,Trunk_Forward,1,L_MTF,91.62482827101506,bending,1
BMu38,57,C,REL,Trunk_Forward,1,L_MTF,88.78344568216022,return,1
BMu38,57,C,REL,Trunk_Forward,1,L_MTF,87.72371785381576,bending,2
BMu38,57,C,REL,Trunk_Forward,1,L_MTF,84.40158204451383,return,2
BMu38,57,C,REL,Trunk_Forward,1,L_MTF,85.0083715335826,bending,3
BMu38,57,C,REL,Trunk_Forward,1,L_MTF,93.3054242880562,return,3
BMu38,57,C,REL,Trunk_Forward,1,R_MTF,78.8944889257549,bending,1
BMu38,57,C,REL,Trunk_Forward,1,R_MTF,85.03354441487865,return,1
BMu38,57,C,REL,Trunk_Forward,1,R_MTF,87.72114967273143,bending,2
BMu38,57,C,REL,Trunk_Forward,1,R_MTF,86.69730763072388,return,2
BMu38,57,C,REL,Trunk_Forward,1,R_MTF,88.41906557316646,bending,3
BMu38,57,C,REL,Trunk_Forward,1,R_MTF,89.36231703948246,return,3
BMu38,58,P,INI,Trunk_Forward,1,L_MTF,128.710973643443,bending,1
BMu38,58,P,INI,Trunk_Forward,1,L_MTF,117.20321389899176,return,1
BMu38,58,P,INI,Trunk_Forward,1,L_MTF,119.36775649021209,bending,2
BMu38,58,P,INI,Trunk_Forward,1,L_MTF,105.93681818389257,return,2
BMu38,58,P,INI,Trunk_Forward,1,L_MTF,129.1474123390494,bending,3
BMu38,58,P,INI,Trunk_Forward,1,L_MTF,113.4643091173163,return,3
BMu38,58,P,INI,Trunk_Forward,1,R_MTF,55.047108727241756,bending,1
BMu38,58,P,INI,Trunk_Forward,1,R_MTF,62.803194001063126,return,1
BMu38,58,P,INI,Trunk_Forward,1,R_MTF,55.040382630054445,bending,2
BMu38,58,P,INI,Trunk_Forward,1,R_MTF,53.740062638325774,return,2
BMu38,58,P,INI,Trunk_Forward,1,R_MTF,56.03563182843604,bending,3
BMu38,58,P,INI,Trunk_Forward,1,R_MTF,51.00986581330373,return,3
BMu38,58,P,REL,Trunk_Forward,1,L_MTF,100.54137771879485,bending,1
BMu38,58,P,REL,Trunk_Forward,1,L_MTF,74.19677482045881,return,1
BMu38,58,P,REL,Trunk_Forward,1,L_MTF,71.04412522840016,bending,2
BMu38,58,P,REL,Trunk_Forward,1,L_MTF,72.3694665035051,return,2
BMu38,58,P,REL,Trunk_Forward,1,L_MTF,73.94958691522584,bending,3
BMu38,58,P,REL,Trunk_Forward,1,L_MTF,86.65916985820557,return,3
BMu38,58,P,REL,Trunk_Forward,1,R_MTF,117.58406955582747,bending,1
BMu38,58,P,REL,Trunk_Forward,1,R_MTF,88.42339304971739,return,1
BMu38,58,P,REL,Trunk_Forward,1,R_MTF,109.85818496314832,bending,2
BMu38,58,P,REL,Trunk_Forward,1,R_MTF,91.1255342729668,return,2
BMu38,58,P,REL,Trunk_Forward,1,R_MTF,110.24808842833222,bending,3
BMu38,58,P,REL,Trunk_Forward,1,R_MTF,105.71205743796811,return,3
BMu38,60,C,INI,Trunk_Forward,1,L_MTF,113.7146895309379,bending,1
BMu38,60,C,INI,Trunk_Forward,1,L_MTF,110.49672303203577,return,1
BMu38,60,C,INI,Trunk_Forward,1,L_MTF,119.31159882134125,bending,2
BMu38,60,C,INI,Trunk_Forward,1,L_MTF,122.92378509522706,return,2
BMu38,60,C,INI,Trunk_Forward,1,L_MTF,126.38437618207918,bending,3
BMu38,60,C,INI,Trunk_Forward,1,L_MTF,139.2693609238033,return,3
BMu38,60,C,INI,Trunk_Forward,1,R_MTF,114.30095368580358,bending,1
BMu38,60,C,INI,Trunk_Forward,1,R_MTF,116.06186010026242,return,1
BMu38,60,C,INI,Trunk_Forward,1,R_MTF,117.21438477773837,bending,2
BMu38,60,C,INI,Trunk_Forward,1,R_MTF,135.4203970391277,return,2
BMu38,60,C,INI,Trunk_Forward,1,R_MTF,119.08999081165429,bending,3
BMu38,60,C,INI,Trunk_Forward,1,R_MTF,132.85459452465332,return,3
BMu38,60,C,REL,Trunk_Forward,1,L_MTF,118.23959676772368,bending,1
BMu38,60,C,REL,Trunk_Forward,1,L_MTF,106.19281410060321,return,1
BMu38,60,C,REL,Trunk_Forward,1,L_MTF,109.0319500031581,bending,2
BMu38,60,C,REL,Trunk_Forward,1,L_MTF,101.78829589718686,return,2
BMu38,60,C,REL,Trunk_Forward,1,L_MTF,110.91046431122015,bending,3
BMu38,60,C,REL,Trunk_Forward,1,L_MTF,119.23885639581819,return,3
BMu38,60,C,REL,Trunk_Forward,1,R_MTF,124.58527508017065,bending,1
BMu38,60,C,REL,Trunk_Forward,1,R_MTF,113.21468298533296,return,1
BMu38,60,C,REL,Trunk_Forward,1,R_MTF,122.84863936051121,bending,2
BMu38,60,C,REL,Trunk_Forward,1,R_MTF,114.47393246255041,return,2
BMu38,60,C,REL,Trunk_Forward,1,R_MTF,122.41415594661868,bending,3
BMu38,60,C,REL,Trunk_Forward,1,R_MTF,127.93762659307815,return,3
BMu38,61,P,INI,Trunk_Forward,1,L_MTF,103.03644141664576,bending,1
BMu38,61,P,INI,Trunk_Forward,1,L_MTF,102.88798412549252,return,1
BMu38,61,P,INI,Trunk_Forward,1,L_MTF,107.5995542062117,bending,2
BMu38,61,P,INI,Trunk_Forward,1,L_MTF,107.26711670888002,return,2
BMu38,61,P,INI,Trunk_Forward,1,L_MTF,108.39256227098763,bending,3
BMu38,61,P,INI,Trunk_Forward,1,L_MTF,101.02205933957248,return,3
BMu38,61,P,INI,Trunk_Forward,1,R_MTF,106.86487807079419,bending,1
BMu38,61,P,INI,Trunk_Forward,1,R_MTF,106.92038214082424,return,1
BMu38,61,P,INI,Trunk_Forward,1,R_MTF,108.37707880605791,bending,2
BMu38,61,P,INI,Trunk_Forward,1,R_MTF,108.5440274216627,return,2
BMu38,61,P,INI,Trunk_Forward,1,R_MTF,109.64667030873632,bending,3
BMu38,61,P,INI,Trunk_Forward,1,R_MTF,107.10134847443116,return,3
BMu38,61,P,REL,Trunk_Forward,1,L_MTF,102.21114438284917,bending,1
BMu38,61,P,REL,Trunk_Forward,1,L_MTF,96.73375892347428,return,1
BMu38,61,P,REL,Trunk_Forward,1,L_MTF,105.01576969195368,bending,2
BMu38,61,P,REL,Trunk_Forward,1,L_MTF,100.68899617333804,return,2
BMu38,61,P,REL,Trunk_Forward,1,L_MTF,112.20461309808195,bending,3
BMu38,61,P,REL,Trunk_Forward,1,L_MTF,98.63450454309067,return,3
BMu38,61,P,REL,Trunk_Forward,1,R_MTF,99.07528118435827,bending,1
BMu38,61,P,REL,Trunk_Forward,1,R_MTF,112.43216351896622,return,1
BMu38,61,P,REL,Trunk_Forward,1,R_MTF,114.96724851490987,bending,2
BMu38,61,P,REL,Trunk_Forward,1,R_MTF,121.6366656218556,return,2
BMu38,61,P,REL,Trunk_Forward,1,R_MTF,124.82400183075322,bending,3
BMu38,61,P,REL,Trunk_Forward,1,R_MTF,113.04304090273956,return,3
BMu38,62,P,INI,Trunk_Forward,1,L_MTF,118.38850461973239,bending,1
BMu38,62,P,INI,Trunk_Forward,1,L_MTF,102.47017512435907,return,1
BMu38,62,P,INI,Trunk_Forward,1,L_MTF,105.90310566017487,bending,2
BMu38,62,P,INI,Trunk_Forward,1,L_MTF,102.91784674101531,return,2
BMu38,62,P,INI,Trunk_Forward,1,L_MTF,116.08931241900386,bending,3
BMu38,62,P,INI,Trunk_Forward,1,L_MTF,114.14398526292698,return,3
BMu38,62,P,INI,Trunk_Forward,1,R_MTF,104.8025863385589,bending,1
BMu38,62,P,INI,Trunk_Forward,1,R_MTF,95.05767142622005,return,1
BMu38,62,P,INI,Trunk_Forward,1,R_MTF,95.80751430375199,bending,2
BMu38,62,P,INI,Trunk_Forward,1,R_MTF,88.37357746482927,return,2
BMu38,62,P,INI,Trunk_Forward,1,R_MTF,102.78718485221351,bending,3
BMu38,62,P,INI,Trunk_Forward,1,R_MTF,103.58119911562181,return,3
BMu38,62,P,REL,Trunk_Forward,1,L_MTF,116.34113677592774,bending,1
BMu38,62,P,REL,Trunk_Forward,1,L_MTF,108.3947878688395,return,1
BMu38,62,P,REL,Trunk_Forward,1,L_MTF,116.7354773503182,bending,2
BMu38,62,P,REL,Trunk_Forward,1,L_MTF,115.47611320739554,return,2
BMu38,62,P,REL,Trunk_Forward,1,L_MTF,125.11819338252931,bending,3
BMu38,62,P,REL,Trunk_Forward,1,L_MTF,124.97023724672297,return,3
BMu38,62,P,REL,Trunk_Forward,1,R_MTF,97.50987960584867,bending,1
BMu38,62,P,REL,Trunk_Forward,1,R_MTF,93.54043730243092,return,1
BMu38,62,P,REL,Trunk_Forward,1,R_MTF,100.12632782130805,bending,2
BMu38,62,P,REL,Trunk_Forward,1,R_MTF,98.72273506431405,return,2
BMu38,62,P,REL,Trunk_Forward,1,R_MTF,105.1142577428184,bending,3
BMu38,62,P,REL,Trunk_Forward,1,R_MTF,102.65249893133272,return,3
BMu38,63,P,INI,Trunk_Forward,1,L_MTF,93.53717473286696,bending,1
BMu38,63,P,INI,Trunk_Forward,1,L_MTF,81.14620460971797,return,1
BMu38,63,P,INI,Trunk_Forward,1,L_MTF,87.78473087447661,bending,2
BMu38,63,P,INI,Trunk_Forward,1,L_MTF,91.57374958326386,return,2
BMu38,63,P,INI,Trunk_Forward,1,L_MTF,85.62647923629389,bending,3
BMu38,63,P,INI,Trunk_Forward,1,L_MTF,77.98252697836288,return,3
BMu38,63,P,INI,Trunk_Forward,1,R_MTF,103.38774580544583,bending,1
BMu38,63,P,INI,Trunk_Forward,1,R_MTF,98.33839234611145,return,1
BMu38,63,P,INI,Trunk_Forward,1,R_MTF,110.51187940984076,bending,2
BMu38,63,P,INI,Trunk_Forward,1,R_MTF,98.19481469480905,return,2
BMu38,63,P,INI,Trunk_Forward,1,R_MTF,112.61952487195065,bending,3
BMu38,63,P,INI,Trunk_Forward,1,R_MTF,100.10559396154522,return,3
BMu38,63,P,REL,Trunk_Forward,1,L_MTF,99.62442648047772,bending,1
BMu38,63,P,REL,Trunk_Forward,1,L_MTF,113.59895862666559,return,1
BMu38,63,P,REL,Trunk_Forward,1,L_MTF,110.29768779458335,bending,2
BMu38,63,P,REL,Trunk_Forward,1,L_MTF,122.28509583949331,return,2
BMu38,63,P,REL,Trunk_Forward,1,L_MTF,115.99287831111359,bending,3
BMu38,63,P,REL,Trunk_Forward,1,L_MTF,116.59077229275718,return,3
BMu38,63,P,REL,Trunk_Forward,1,R_MTF,92.2853785944901,bending,1
BMu38,63,P,REL,Trunk_Forward,1,R_MTF,88.18679902314744,return,1
BMu38,63,P,REL,Trunk_Forward,1,R_MTF,104.63997401576768,bending,2
BMu38,63,P,REL,Trunk_Forward,1,R_MTF,96.5266732034135,return,2
BMu38,63,P,REL,Trunk_Forward,1,R_MTF,106.97235723766903,bending,3
BMu38,63,P,REL,Trunk_Forward,1,R_MTF,105.4258078289045,return,3
BMu38,64,C,INI,Trunk_Forward,1,L_MTF,110.93664201789474,bending,1
BMu38,64,C,INI,Trunk_Forward,1,L_MTF,100.72251963032217,return,1
BMu38,64,C,INI,Trunk_Forward,1,L_MTF,117.85329058384389,bending,2
BMu38,64,C,INI,Trunk_Forward,1,L_MTF,104.69443355389059,return,2
BMu38,64,C,INI,Trunk_Forward,1,L_MTF,124.74339696694406,bending,3
BMu38,64,C,INI,Trunk_Forward,1,L_MTF,119.66106453236131,return,3
BMu38,64,C,INI,Trunk_Forward,1,R_MTF,112.9429705492462,bending,1
BMu38,64,C,INI,Trunk_Forward,1,R_MTF,101.86050244642927,return,1
BMu38,64,C,INI,Trunk_Forward,1,R_MTF,116.86478546441606,bending,2
BMu38,64,C,INI,Trunk_Forward,1,R_MTF,104.2202516504051,return,2
BMu38,64,C,INI,Trunk_Forward,1,R_MTF,119.34524458254974,bending,3
BMu38,64,C,INI,Trunk_Forward,1,R_MTF,119.24635936468334,return,3
BMu38,64,C,REL,Trunk_Forward,1,L_MTF,113.00590480822297,bending,1
BMu38,64,C,REL,Trunk_Forward,1,L_MTF,113.77271663575277,return,1
BMu38,64,C,REL,Trunk_Forward,1,L_MTF,126.19207124048349,bending,2
BMu38,64,C,REL,Trunk_Forward,1,L_MTF,117.73154296741458,return,2
BMu38,64,C,REL,Trunk_Forward,1,L_MTF,127.52893552027659,bending,3
BMu38,64,C,REL,Trunk_Forward,1,L_MTF,129.81681429241291,return,3
BMu38,64,C,REL,Trunk_Forward,1,R_MTF,122.66357866933905,bending,1
BMu38,64,C,REL,Trunk_Forward,1,R_MTF,101.42356829827668,return,1
BMu38,64,C,REL,Trunk_Forward,1,R_MTF,116.80498174709446,bending,2
BMu38,64,C,REL,Trunk_Forward,1,R_MTF,122.52333954692149,return,2
BMu38,64,C,REL,Trunk_Forward,1,R_MTF,126.54516868135278,bending,3
BMu38,64,C,REL,Trunk_Forward,1,R_MTF,129.6222825269312,return,3
BMu38,65,P,INI,Trunk_Forward,1,L_MTF,87.8483113821381,bending,1
BMu38,65,P,INI,Trunk_Forward,1,L_MTF,90.57773799666559,return,1
BMu38,65,P,INI,Trunk_Forward,1,L_MTF,95.39080632111782,bending,2
BMu38,65,P,INI,Trunk_Forward,1,L_MTF,94.95898534582443,return,2
BMu38,65,P,INI,Trunk_Forward,1,L_MTF,99.35917969934115,bending,3
BMu38,65,P,INI,Trunk_Forward,1,L_MTF,101.91274969621989,return,3
BMu38,65,P,INI,Trunk_Forward,1,R_MTF,106.55603037901281,bending,1
BMu38,65,P,INI,Trunk_Forward,1,R_MTF,100.99473366427729,return,1
BMu38,65,P,INI,Trunk_Forward,1,R_MTF,110.68122667632318,bending,2
BMu38,65,P,INI,Trunk_Forward,1,R_MTF,115.27884553323449,return,2
BMu38,65,P,INI,Trunk_Forward,1,R_MTF,119.48408079065396,bending,3
BMu38,65,P,INI,Trunk_Forward,1,R_MTF,126.25633112195067,return,3
BMu38,65,P,REL,Trunk_Forward,1,L_MTF,103.06558576596443,bending,1
BMu38,65,P,REL,Trunk_Forward,1,L_MTF,103.86507281740039,return,1
BMu38,65,P,REL,Trunk_Forward,1,L_MTF,98.02406259147389,bending,2
BMu38,65,P,REL,Trunk_Forward,1,L_MTF,99.66994454236966,return,2
BMu38,65,P,REL,Trunk_Forward,1,L_MTF,103.52764332215214,bending,3
BMu38,65,P,REL,Trunk_Forward,1,L_MTF,103.27839703765488,return,3
BMu38,65,P,REL,Trunk_Forward,1,R_MTF,97.49229239222409,bending,1
BMu38,65,P,REL,Trunk_Forward,1,R_MTF,94.20095254328622,return,1
BMu38,65,P,REL,Trunk_Forward,1,R_MTF,101.36889531777908,bending,2
BMu38,65,P,REL,Trunk_Forward,1,R_MTF,111.44812101413422,return,2
BMu38,65,P,REL,Trunk_Forward,1,R_MTF,102.41914010152685,bending,3
BMu38,65,P,REL,Trunk_Forward,1,R_MTF,101.25422657775991,return,3
BMu38,66,C,INI,Trunk_Forward,1,L_MTF,107.38511006772247,bending,1
BMu38,66,C,INI,Trunk_Forward,1,L_MTF,97.04431326617475,return,1
BMu38,66,C,INI,Trunk_Forward,1,L_MTF,110.13315255655822,bending,2
BMu38,66,C,INI,Trunk_Forward,1,L_MTF,86.52978531498005,return,2
BMu38,66,C,INI,Trunk_Forward,1,L_MTF,115.26152642312586,bending,3
BMu38,66,C,INI,Trunk_Forward,1,L_MTF,129.24999828833748,return,3
BMu38,66,C,INI,Trunk_Forward,1,R_MTF,86.60366440193654,bending,1
BMu38,66,C,INI,Trunk_Forward,1,R_MTF,71.76260835486035,return,1
BMu38,66,C,INI,Trunk_Forward,1,R_MTF,62.41702155248769,bending,2
BMu38,66,C,INI,Trunk_Forward,1,R_MTF,80.98037670354734,return,2
BMu38,66,C,INI,Trunk_Forward,1,R_MTF,50.91413647055523,bending,3
BMu38,66,C,INI,Trunk_Forward,1,R_MTF,77.31730415953528,return,3
BMu38,66,C,REL,Trunk_Forward,1,L_MTF,83.0921552940869,bending,1
BMu38,66,C,REL,Trunk_Forward,1,L_MTF,86.55724025930695,return,1
BMu38,66,C,REL,Trunk_Forward,1,L_MTF,106.67291769643123,bending,2
BMu38,66,C,REL,Trunk_Forward,1,L_MTF,97.8489697772238,return,2
BMu38,66,C,REL,Trunk_Forward,1,L_MTF,93.80404294694114,bending,3
BMu38,66,C,REL,Trunk_Forward,1,L_MTF,96.77788268565628,return,3
BMu38,66,C,REL,Trunk_Forward,1,R_MTF,91.27130055937262,bending,1
BMu38,66,C,REL,Trunk_Forward,1,R_MTF,73.63538380083803,return,1
BMu38,66,C,REL,Trunk_Forward,1,R_MTF,93.45853927920547,bending,2
BMu38,66,C,REL,Trunk_Forward,1,R_MTF,93.17852074363921,return,2
BMu38,66,C,REL,Trunk_Forward,1,R_MTF,99.13956254934776,bending,3
BMu38,66,C,REL,Trunk_Forward,1,R_MTF,93.69457732701315,return,3
BMu38,67,C,INI,Trunk_Forward,1,L_MTF,115.39486506248973,bending,1
BMu38,67,C,INI,Trunk_Forward,1,L_MTF,123.20966116601137,return,1
BMu38,67,C,INI,Trunk_Forward,1,L_MTF,126.93046405429466,bending,2
BMu38,67,C,INI,Trunk_Forward,1,L_MTF,118.68157531046312,return,2
BMu38,67,C,INI,Trunk_Forward,1,L_MTF,124.14389766679766,bending,3
BMu38,67,C,INI,Trunk_Forward,1,L_MTF,123.07585099566064,return,3
BMu38,67,C,INI,Trunk_Forward,1,R_MTF,86.67079167354709,bending,1
BMu38,67,C,INI,Trunk_Forward,1,R_MTF,97.89162285598715,return,1
BMu38,67,C,INI,Trunk_Forward,1,R_MTF,90.76740892490949,bending,2
BMu38,67,C,INI,Trunk_Forward,1,R_MTF,91.5113549534817,return,2
BMu38,67,C,INI,Trunk_Forward,1,R_MTF,91.57955156917242,bending,3
BMu38,67,C,INI,Trunk_Forward,1,R_MTF,115.77028574742049,return,3
BMu38,67,C,REL,Trunk_Forward,1,L_MTF,85.94670744664418,bending,1
BMu38,67,C,REL,Trunk_Forward,1,L_MTF,92.13136351622373,return,1
BMu38,67,C,REL,Trunk_Forward,1,L_MTF,79.20588220971943,bending,2
BMu38,67,C,REL,Trunk_Forward,1,L_MTF,72.14021618540848,return,2
BMu38,67,C,REL,Trunk_Forward,1,L_MTF,76.7541561932732,bending,3
BMu38,67,C,REL,Trunk_Forward,1,L_MTF,80.10046023165371,return,3
BMu38,67,C,REL,Trunk_Forward,1,R_MTF,97.48090616097272,bending,1
BMu38,67,C,REL,Trunk_Forward,1,R_MTF,92.02476367375364,return,1
BMu38,67,C,REL,Trunk_Forward,1,R_MTF,70.1504495861408,bending,2
BMu38,67,C,REL,Trunk_Forward,1,R_MTF,97.17860832845639,return,2
BMu38,67,C,REL,Trunk_Forward,1,R_MTF,74.3641490563805,bending,3
BMu38,67,C,REL,Trunk_Forward,1,R_MTF,96.02546756362878,return,3
BMu38,68,C,INI,Trunk_Forward,1,L_MTF,114.45924590789429,bending,1
BMu38,68,C,INI,Trunk_Forward,1,L_MTF,110.30410822079185,return,1
BMu38,68,C,INI,Trunk_Forward,1,L_MTF,122.99292141799205,bending,2
BMu38,68,C,INI,Trunk_Forward,1,L_MTF,110.53420707853083,return,2
BMu38,68,C,INI,Trunk_Forward,1,L_MTF,118.1555737510546,bending,3
BMu38,68,C,INI,Trunk_Forward,1,L_MTF,115.45470574664202,return,3
BMu38,68,C,INI,Trunk_Forward,1,R_MTF,114.10843957125992,bending,1
BMu38,68,C,INI,Trunk_Forward,1,R_MTF,107.65481005023665,return,1
BMu38,68,C,INI,Trunk_Forward,1,R_MTF,115.05194246582757,bending,2
BMu38,68,C,INI,Trunk_Forward,1,R_MTF,107.25529590519047,return,2
BMu38,68,C,INI,Trunk_Forward,1,R_MTF,109.91786130184532,bending,3
BMu38,68,C,INI,Trunk_Forward,1,R_MTF,106.51031519786845,return,3
BMu38,68,C,REL,Trunk_Forward,1,L_MTF,122.84659253443431,bending,1
BMu38,68,C,REL,Trunk_Forward,1,L_MTF,121.28536737909039,return,1
BMu38,68,C,REL,Trunk_Forward,1,L_MTF,126.02867469083809,bending,2
BMu38,68,C,REL,Trunk_Forward,1,L_MTF,112.41402883555511,return,2
BMu38,68,C,REL,Trunk_Forward,1,L_MTF,129.62130523111813,bending,3
BMu38,68,C,REL,Trunk_Forward,1,L_MTF,114.7897562987919,return,3
BMu38,68,C,REL,Trunk_Forward,1,L_MTF,125.79102333380064,bending,4
BMu38,68,C,REL,Trunk_Forward,1,L_MTF,120.28235865347537,return,4
BMu38,68,C,REL,Trunk_Forward,1,R_MTF,120.407925769878,bending,1
BMu38,68,C,REL,Trunk_Forward,1,R_MTF,116.23995067220835,return,1
BMu38,68,C,REL,Trunk_Forward,1,R_MTF,124.20805467283785,bending,2
BMu38,68,C,REL,Trunk_Forward,1,R_MTF,110.77203426224402,return,2
BMu38,68,C,REL,Trunk_Forward,1,R_MTF,111.79512229446233,bending,3
BMu38,68,C,REL,Trunk_Forward,1,R_MTF,107.3342334750825,return,3
BMu38,68,C,REL,Trunk_Forward,1,R_MTF,115.92595974054883,bending,4
BMu38,68,C,REL,Trunk_Forward,1,R_MTF,109.9943120995743,return,4
