BMu,subject,P_C,session,task,trials,channel,value,event,rep
BMu35,1,C,INI,Trunk_Forward,1,R_L_LES,0.5962593118110121,,1
BMu35,1,C,INI,Trunk_Forward,1,R_L_LES,0.7010054374824398,,2
BMu35,1,C,INI,Trunk_Forward,1,R_L_LES,0.530518634225968,,3
BMu35,1,C,REL,Trunk_Forward,1,R_L_LES,0.7149339762361214,,1
BMu35,1,C,REL,Trunk_Forward,1,R_L_LES,2.306504339619082,,2
BMu35,1,C,REL,Trunk_Forward,1,R_L_LES,0.7215431066816536,,3
BMu35,2,C,INI,Trunk_Forward,1,R_L_LES,0.5924089182918606,,1
BMu35,2,C,INI,Trunk_Forward,1,R_L_LES,0.5101146162926778,,2
BMu35,2,C,INI,Trunk_Forward,1,R_L_LES,0.5454895106886638,,3
BMu35,2,C,REL,Trunk_Forward,1,R_L_LES,0.48008731273145683,,1
BMu35,2,C,REL,Trunk_Forward,1,R_L_LES,0.348225456986755,,2
BMu35,2,C,REL,Trunk_Forward,1,R_L_LES,0.4490190223284261,,3
BMu35,3,C,INI,Trunk_Forward,1,R_L_LES,0.41537986112978864,,1
BMu35,3,C,INI,Trunk_Forward,1,R_L_LES,0.3937090448855449,,2
BMu35,3,C,INI,Trunk_Forward,1,R_L_LES,0.311400937981493,,3
BMu35,3,C,REL,Trunk_Forward,1,R_L_LES,0.6377977867096,,1
BMu35,3,C,REL,Trunk_Forward,1,R_L_LES,0.7922485130404738,,2
BMu35,3,C,REL,Trunk_Forward,1,R_L_LES,0.8233494458124136,,3
BMu35,5,C,INI,Trunk_Forward,1,R_L_LES,0.2774180379012779,,1
BMu35,5,C,INI,Trunk_Forward,1,R_L_LES,0.342381934101534,,2
BMu35,5,C,INI,Trunk_Forward,1,R_L_LES,0.2239035372383082,,3
BMu35,5,C,REL,Trunk_Forward,1,R_L_LES,0.3339689019748674,,1
BMu35,5,C,REL,Trunk_Forward,1,R_L_LES,0.27257919248039697,,2
BMu35,5,C,REL,Trunk_Forward,1,R_L_LES,0.21860193889546584,,3
BMu35,5,C,REL,Trunk_Forward,1,R_L_LES,0.2720215334353985,,4
BMu35,6,C,INI,Trunk_Forward,1,R_L_LES,0.5253520523418684,,1
BMu35,6,C,INI,Trunk_Forward,1,R_L_LES,1.1490747581537963,,2
BMu35,6,C,INI,Trunk_Forward,1,R_L_LES,1.8410136732324607,,3
BMu35,6,C,INI,Trunk_Forward,1,R_L_LES,0.5114811783445079,,4
BMu35,6,C,REL,Trunk_Forward,1,R_L_LES,0.4798833261102405,,1
BMu35,6,C,REL,Trunk_Forward,1,R_L_LES,0.3409147543567803,,2
BMu35,6,C,REL,Trunk_Forward,1,R_L_LES,0.3276175001016663,,3
BMu35,7,C,INI,Trunk_Forward,1,R_L_LES,0.852118953919891,,1
BMu35,7,C,INI,Trunk_Forward,1,R_L_LES,0.5829632518805933,,2
BMu35,7,C,INI,Trunk_Forward,1,R_L_LES,0.4579185579100818,,3
BMu35,7,C,REL,Trunk_Forward,1,R_L_LES,0.46434489342206686,,1
BMu35,7,C,REL,Trunk_Forward,1,R_L_LES,0.4789940176243004,,2
BMu35,7,C,REL,Trunk_Forward,1,R_L_LES,0.43855594323871183,,3
BMu35,8,C,INI,Trunk_Forward,1,R_L_LES,0.4767931167420088,,1
BMu35,8,C,INI,Trunk_Forward,1,R_L_LES,0.440798082159242,,2
BMu35,8,C,INI,Trunk_Forward,1,R_L_LES,0.6766028929789666,,3
BMu35,8,C,REL,Trunk_Forward,1,R_L_LES,0.5039796617371515,,1
BMu35,8,C,REL,Trunk_Forward,1,R_L_LES,0.5397666906989739,,2
BMu35,8,C,REL,Trunk_Forward,1,R_L_LES,0.5509598135085112,,3
BMu35,9,P,INI,Trunk_Forward,1,R_L_LES,0.4817058813798467,,1
BMu35,9,P,INI,Trunk_Forward,1,R_L_LES,0.3441870946714379,,2
BMu35,9,P,INI,Trunk_Forward,1,R_L_LES,0.43903536024343426,,3
BMu35,9,P,INI,Trunk_Forward,1,R_L_LES,0.24044719271317883,,4
BMu35,9,P,REL,Trunk_Forward,1,R_L_LES,0.42013656078912626,,1
BMu35,9,P,REL,Trunk_Forward,1,R_L_LES,0.425778819793329,,2
BMu35,9,P,REL,Trunk_Forward,1,R_L_LES,0.41930405760147266,,3
BMu35,10,P,INI,Trunk_Forward,1,R_L_LES,0.3076342206830547,,1
BMu35,10,P,INI,Trunk_Forward,1,R_L_LES,0.3295490729394093,,2
BMu35,10,P,INI,Trunk_Forward,1,R_L_LES,0.43098308318919926,,3
BMu35,10,P,REL,Trunk_Forward,1,R_L_LES,0.3697978122769358,,1
BMu35,10,P,REL,Trunk_Forward,1,R_L_LES,0.3796126818165208,,2
BMu35,10,P,REL,Trunk_Forward,1,R_L_LES,0.37551428375569673,,3
BMu35,11,P,INI,Trunk_Forward,1,R_L_LES,0.43967249689605237,,1
BMu35,11,P,INI,Trunk_Forward,1,R_L_LES,0.5528884780901971,,2
BMu35,11,P,INI,Trunk_Forward,1,R_L_LES,0.4731885477744512,,3
BMu35,11,P,REL,Trunk_Forward,1,R_L_LES,0.4607610463785765,,1
BMu35,11,P,REL,Trunk_Forward,1,R_L_LES,0.29156788402892025,,2
BMu35,11,P,REL,Trunk_Forward,1,R_L_LES,0.4112365222957585,,3
BMu35,12,P,INI,Trunk_Forward,1,R_L_LES,0.46103841778743276,,1
BMu35,12,P,INI,Trunk_Forward,1,R_L_LES,0.39071399837434045,,2
BMu35,12,P,INI,Trunk_Forward,1,R_L_LES,0.4599627026259935,,3
BMu35,12,P,REL,Trunk_Forward,1,R_L_LES,1.520922126219076,,1
BMu35,12,P,REL,Trunk_Forward,1,R_L_LES,1.2144164233027952,,2
BMu35,12,P,REL,Trunk_Forward,1,R_L_LES,0.40130608313715654,,3
BMu35,13,C,INI,Trunk_Forward,1,R_L_LES,0.6899138734775329,,1
BMu35,13,C,INI,Trunk_Forward,1,R_L_LES,0.5600183016220867,,2
BMu35,13,C,INI,Trunk_Forward,1,R_L_LES,0.5866463010055616,,3
BMu35,13,C,REL,Trunk_Forward,1,R_L_LES,0.5059967397399621,,1
BMu35,13,C,REL,Trunk_Forward,1,R_L_LES,0.5568127288843122,,2
BMu35,13,C,REL,Trunk_Forward,1,R_L_LES,0.5270971275590386,,3
BMu35,14,P,INI,Trunk_Forward,1,R_L_LES,0.5017631159184479,,1
BMu35,14,P,INI,Trunk_Forward,1,R_L_LES,0.42589073843374736,,2
BMu35,14,P,INI,Trunk_Forward,1,R_L_LES,0.3138187980840624,,3
BMu35,14,P,REL,Trunk_Forward,1,R_L_LES,0.7154753698851518,,1
BMu35,14,P,REL,Trunk_Forward,1,R_L_LES,0.45310815158115136,,2
BMu35,14,P,REL,Trunk_Forward,1,R_L_LES,0.47876538764012777,,3
BMu35,14,P,REL,Trunk_Forward,1,R_L_LES,1.1674451137357957,,4
BMu35,16,C,INI,Trunk_Forward,1,R_L_LES,0.3287773777136602,,1
BMu35,16,C,INI,Trunk_Forward,1,R_L_LES,0.492292625823981,,2
BMu35,16,C,INI,Trunk_Forward,1,R_L_LES,0.5461936394218208,,3
BMu35,16,C,REL,Trunk_Forward,1,R_L_LES,0.17229480422226343,,1
BMu35,16,C,REL,Trunk_Forward,1,R_L_LES,0.24009668709216928,,2
BMu35,16,C,REL,Trunk_Forward,1,R_L_LES,0.2432450044046955,,3
BMu35,17,P,INI,Trunk_Forward,1,R_L_LES,0.3984111176956129,,1
BMu35,17,P,INI,Trunk_Forward,1,R_L_LES,0.3794378937155812,,2
BMu35,17,P,INI,Trunk_Forward,1,R_L_LES,0.3456558125937425,,3
BMu35,17,P,REL,Trunk_Forward,1,R_L_LES,0.6481951984671417,,1
BMu35,17,P,REL,Trunk_Forward,1,R_L_LES,0.5494185778964633,,2
BMu35,17,P,REL,Trunk_Forward,1,R_L_LES,0.39194323162840666,,3
BMu35,21,C,INI,Trunk_Forward,1,R_L_LES,0.3609119472110612,,1
BMu35,21,C,INI,Trunk_Forward,1,R_L_LES,0.31529184816192957,,2
BMu35,21,C,INI,Trunk_Forward,1,R_L_LES,0.306396243844418,,3
BMu35,21,C,REL,Trunk_Forward,1,R_L_LES,0.2094492699867773,,1
BMu35,21,C,REL,Trunk_Forward,1,R_L_LES,4.007894449313817,,2
BMu35,21,C,REL,Trunk_Forward,1,R_L_LES,1.1481793043362547,,3
BMu35,22,C,INI,Trunk_Forward,1,R_L_LES,1.1275282610312913,,1
BMu35,22,C,INI,Trunk_Forward,1,R_L_LES,0.5837271170232319,,2
BMu35,22,C,INI,Trunk_Forward,1,R_L_LES,0.6315114683457669,,3
BMu35,22,C,REL,Trunk_Forward,1,R_L_LES,0.6433797653450842,,1
BMu35,22,C,REL,Trunk_Forward,1,R_L_LES,0.8983701347431333,,2
BMu35,22,C,REL,Trunk_Forward,1,R_L_LES,0.4565600822452714,,3
BMu35,23,C,INI,Trunk_Forward,1,R_L_LES,0.6275441813409293,,1
BMu35,23,C,INI,Trunk_Forward,1,R_L_LES,0.45508015432586035,,2
BMu35,23,C,INI,Trunk_Forward,1,R_L_LES,0.4849824299853571,,3
BMu35,23,C,REL,Trunk_Forward,1,R_L_LES,0.5636095791753265,,1
BMu35,23,C,REL,Trunk_Forward,1,R_L_LES,0.5319725654740539,,2
BMu35,23,C,REL,Trunk_Forward,1,R_L_LES,0.5758709082896852,,3
BMu35,24,P,INI,Trunk_Forward,1,R_L_LES,0.47927856766850707,,1
BMu35,24,P,INI,Trunk_Forward,1,R_L_LES,0.31466226499029826,,2
BMu35,24,P,INI,Trunk_Forward,1,R_L_LES,0.29352153587859475,,3
BMu35,24,P,REL,Trunk_Forward,1,R_L_LES,0.6943918024745342,,1
BMu35,24,P,REL,Trunk_Forward,1,R_L_LES,0.5221772901510993,,2
BMu35,24,P,REL,Trunk_Forward,1,R_L_LES,0.5138613064303793,,3
BMu35,25,C,INI,Trunk_Forward,1,R_L_LES,0.40091850948000035,,1
BMu35,25,C,INI,Trunk_Forward,1,R_L_LES,0.5116519546667704,,2
BMu35,25,C,INI,Trunk_Forward,1,R_L_LES,0.5323050740945557,,3
BMu35,25,C,REL,Trunk_Forward,1,R_L_LES,0.4905549935543028,,1
BMu35,25,C,REL,Trunk_Forward,1,R_L_LES,0.4166850573652964,,2
BMu35,25,C,REL,Trunk_Forward,1,R_L_LES,0.26060592697469803,,3
BMu35,26,P,INI,Trunk_Forward,1,R_L_LES,1.4432609299684271,,1
BMu35,26,P,INI,Trunk_Forward,1,R_L_LES,1.2529633583365087,,2
BMu35,26,P,INI,Trunk_Forward,1,R_L_LES,1.358415521534413,,3
BMu35,26,P,REL,Trunk_Forward,1,R_L_LES,1.3492768712486978,,1
BMu35,26,P,REL,Trunk_Forward,1,R_L_LES,1.116426215898509,,2
BMu35,26,P,REL,Trunk_Forward,1,R_L_LES,1.0067185993724057,,3
BMu35,27,P,INI,Trunk_Forward,1,R_L_LES,0.30392064847211697,,1
BMu35,27,P,INI,Trunk_Forward,1,R_L_LES,0.29485934363494964,,2
BMu35,27,P,INI,Trunk_Forward,1,R_L_LES,0.5457686571145075,,3
BMu35,27,P,REL,Trunk_Forward,1,R_L_LES,0.529514589809544,,1
BMu35,27,P,REL,Trunk_Forward,1,R_L_LES,0.5292546580147213,,2
BMu35,27,P,REL,Trunk_Forward,1,R_L_LES,0.710049077964361,,3
BMu35,27,P,REL,Trunk_Forward,1,R_L_LES,0.5319160245518145,,4
BMu35,28,P,INI,Trunk_Forward,1,R_L_LES,0.6493194642481405,,1
BMu35,28,P,INI,Trunk_Forward,1,R_L_LES,0.5162718061014957,,2
BMu35,28,P,INI,Trunk_Forward,1,R_L_LES,0.4415043317418722,,3
BMu35,28,P,REL,Trunk_Forward,1,R_L_LES,0.8272473926068229,,1
BMu35,28,P,REL,Trunk_Forward,1,R_L_LES,0.5533731844916371,,2
BMu35,28,P,REL,Trunk_Forward,1,R_L_LES,0.6447463494852305,,3
BMu35,29,P,INI,Trunk_Forward,1,R_L_LES,0.3809128131912386,,1
BMu35,29,P,INI,Trunk_Forward,1,R_L_LES,0.4168012310729469,,2
BMu35,29,P,INI,Trunk_Forward,1,R_L_LES,0.5101728372078017,,3
BMu35,29,P,REL,Trunk_Forward,1,R_L_LES,0.4370538787109409,,1
BMu35,29,P,REL,Trunk_Forward,1,R_L_LES,0.4163925868364048,,2
BMu35,29,P,REL,Trunk_Forward,1,R_L_LES,0.42815230699878676,,3
BMu35,30,P,INI,Trunk_Forward,1,R_L_LES,0.4705285484402349,,1
BMu35,30,P,INI,Trunk_Forward,1,R_L_LES,0.43743988520389165,,2
BMu35,30,P,INI,Trunk_Forward,1,R_L_LES,0.4066370046353289,,3
BMu35,30,P,REL,Trunk_Forward,1,R_L_LES,0.5831912686020391,,1
BMu35,30,P,REL,Trunk_Forward,1,R_L_LES,0.6973137149484804,,2
BMu35,30,P,REL,Trunk_Forward,1,R_L_LES,0.866719296191668,,3
BMu35,32,P,INI,Trunk_Forward,1,R_L_LES,0.379578664647263,,1
BMu35,32,P,INI,Trunk_Forward,1,R_L_LES,0.4713346580407877,,2
BMu35,32,P,INI,Trunk_Forward,1,R_L_LES,0.4135697732510825,,3
BMu35,32,P,REL,Trunk_Forward,1,R_L_LES,0.6364916710840592,,1
BMu35,32,P,REL,Trunk_Forward,1,R_L_LES,0.36266488027538096,,2
BMu35,32,P,REL,Trunk_Forward,1,R_L_LES,0.47387165345328935,,3
BMu35,32,P,REL,Trunk_Forward,1,R_L_LES,0.43369667889083524,,4
BMu35,33,P,INI,Trunk_Forward,1,R_L_LES,0.7629600781180632,,1
BMu35,33,P,INI,Trunk_Forward,1,R_L_LES,0.8169748448361656,,2
BMu35,33,P,INI,Trunk_Forward,1,R_L_LES,0.6417366534924935,,3
BMu35,33,P,INI,Trunk_Forward,1,R_L_LES,1.31534955991851,,4
BMu35,33,P,REL,Trunk_Forward,1,R_L_LES,0.7328352502076706,,1
BMu35,33,P,REL,Trunk_Forward,1,R_L_LES,0.7144412694710593,,2
BMu35,33,P,REL,Trunk_Forward,1,R_L_LES,0.45004012219466427,,3
BMu35,34,P,INI,Trunk_Forward,1,R_L_LES,0.35610508685614806,,1
BMu35,34,P,INI,Trunk_Forward,1,R_L_LES,0.9931358024165735,,2
BMu35,34,P,INI,Trunk_Forward,1,R_L_LES,0.5102625041797466,,3
BMu35,34,P,REL,Trunk_Forward,1,R_L_LES,0.29077173996380046,,1
BMu35,34,P,REL,Trunk_Forward,1,R_L_LES,0.3033707135299901,,2
BMu35,34,P,REL,Trunk_Forward,1,R_L_LES,0.42834495540956435,,3
BMu35,35,C,INI,Trunk_Forward,1,R_L_LES,0.6891536873647403,,1
BMu35,35,C,INI,Trunk_Forward,1,R_L_LES,0.668431820885183,,2
BMu35,35,C,INI,Trunk_Forward,1,R_L_LES,0.6905790369633676,,3
BMu35,35,C,REL,Trunk_Forward,1,R_L_LES,0.5604064355274841,,1
BMu35,35,C,REL,Trunk_Forward,1,R_L_LES,0.47183656939101926,,2
BMu35,35,C,REL,Trunk_Forward,1,R_L_LES,0.5241380859969035,,3
BMu35,36,P,INI,Trunk_Forward,1,R_L_LES,0.6832079550169355,,1
BMu35,36,P,INI,Trunk_Forward,1,R_L_LES,0.7081431040082722,,2
BMu35,36,P,INI,Trunk_Forward,1,R_L_LES,0.6812929256562176,,3
BMu35,36,P,REL,Trunk_Forward,1,R_L_LES,0.8118890564522795,,1
BMu35,36,P,REL,Trunk_Forward,1,R_L_LES,0.6128600909639313,,2
BMu35,36,P,REL,Trunk_Forward,1,R_L_LES,0.6127469346880632,,3
BMu35,38,C,INI,Trunk_Forward,1,R_L_LES,1.4689810480337135,,1
BMu35,38,C,INI,Trunk_Forward,1,R_L_LES,0.9116275698504421,,2
BMu35,38,C,INI,Trunk_Forward,1,R_L_LES,1.683961904055932,,3
BMu35,38,C,REL,Trunk_Forward,1,R_L_LES,1.1692765662742486,,1
BMu35,38,C,REL,Trunk_Forward,1,R_L_LES,0.9880431458685701,,2
BMu35,38,C,REL,Trunk_Forward,1,R_L_LES,0.7145518972696068,,3
BMu35,39,C,INI,Trunk_Forward,1,R_L_LES,1.3846351086084245,,1
BMu35,39,C,INI,Trunk_Forward,1,R_L_LES,0.8819907310871848,,2
BMu35,39,C,INI,Trunk_Forward,1,R_L_LES,0.800695273478101,,3
BMu35,39,C,REL,Trunk_Forward,1,R_L_LES,0.9569209366570891,,1
BMu35,39,C,REL,Trunk_Forward,1,R_L_LES,0.6770011237346609,,2
BMu35,39,C,REL,Trunk_Forward,1,R_L_LES,1.3620014241846707,,3
BMu35,40,C,INI,Trunk_Forward,1,R_L_LES,0.4925790660868931,,1
BMu35,40,C,INI,Trunk_Forward,1,R_L_LES,0.6736194630644879,,2
BMu35,40,C,INI,Trunk_Forward,1,R_L_LES,0.5339251196200007,,3
BMu35,40,C,REL,Trunk_Forward,1,R_L_LES,0.5548378280636129,,1
BMu35,40,C,REL,Trunk_Forward,1,R_L_LES,0.6927220288537995,,2
BMu35,40,C,REL,Trunk_Forward,1,R_L_LES,0.6613265739161773,,3
BMu35,41,P,INI,Trunk_Forward,1,R_L_LES,0.4116999751299507,,1
BMu35,41,P,INI,Trunk_Forward,1,R_L_LES,0.36421183512432936,,2
BMu35,41,P,INI,Trunk_Forward,1,R_L_LES,0.3613953566639706,,3
BMu35,41,P,REL,Trunk_Forward,1,R_L_LES,0.46879032852699076,,1
BMu35,41,P,REL,Trunk_Forward,1,R_L_LES,0.45461164333166043,,2
BMu35,41,P,REL,Trunk_Forward,1,R_L_LES,0.36996320999126153,,3
BMu35,42,P,INI,Trunk_Forward,1,R_L_LES,0.4877569751505101,,1
BMu35,42,P,INI,Trunk_Forward,1,R_L_LES,0.2760589804737496,,2
BMu35,42,P,INI,Trunk_Forward,1,R_L_LES,0.4166155373901677,,3
BMu35,42,P,REL,Trunk_Forward,1,R_L_LES,0.3746007022259779,,1
BMu35,42,P,REL,Trunk_Forward,1,R_L_LES,0.23668264293453653,,2
BMu35,42,P,REL,Trunk_Forward,1,R_L_LES,0.2790200401043846,,3
BMu35,43,P,INI,Trunk_Forward,1,R_L_LES,0.44467525463722857,,1
BMu35,43,P,INI,Trunk_Forward,1,R_L_LES,0.17267983170152226,,2
BMu35,43,P,INI,Trunk_Forward,1,R_L_LES,0.0986073925897655,,3
BMu35,43,P,REL,Trunk_Forward,1,R_L_LES,0.2799384327973429,,1
BMu35,43,P,REL,Trunk_Forward,1,R_L_LES,0.2722071302695369,,2
BMu35,43,P,REL,Trunk_Forward,1,R_L_LES,0.26811847929400046,,3
BMu35,44,C,INI,Trunk_Forward,1,R_L_LES,0.47472859284672153,,1
BMu35,44,C,INI,Trunk_Forward,1,R_L_LES,0.4393078338669475,,2
BMu35,44,C,INI,Trunk_Forward,1,R_L_LES,0.2853691769227756,,3
BMu35,44,C,REL,Trunk_Forward,1,R_L_LES,0.34020237832626266,,1
BMu35,44,C,REL,Trunk_Forward,1,R_L_LES,0.35916417402315387,,2
BMu35,44,C,REL,Trunk_Forward,1,R_L_LES,0.3658576876633459,,3
BMu35,45,P,INI,Trunk_Forward,1,R_L_LES,1.097682681563332,,1
BMu35,45,P,INI,Trunk_Forward,1,R_L_LES,0.5254249022244478,,2
BMu35,45,P,INI,Trunk_Forward,1,R_L_LES,0.9754207898968029,,3
BMu35,45,P,REL,Trunk_Forward,1,R_L_LES,0.9096051403882168,,1
BMu35,45,P,REL,Trunk_Forward,1,R_L_LES,0.5640936035458014,,2
BMu35,45,P,REL,Trunk_Forward,1,R_L_LES,0.39111148319163175,,3
BMu35,46,C,INI,Trunk_Forward,1,R_L_LES,0.5767840786880807,,1
BMu35,46,C,INI,Trunk_Forward,1,R_L_LES,0.5238603799293101,,2
BMu35,46,C,INI,Trunk_Forward,1,R_L_LES,0.8616722306227452,,3
BMu35,46,C,REL,Trunk_Forward,1,R_L_LES,0.6315203679319037,,1
BMu35,46,C,REL,Trunk_Forward,1,R_L_LES,0.5121236184820522,,2
BMu35,46,C,REL,Trunk_Forward,1,R_L_LES,0.42668522443132506,,3
BMu35,47,P,INI,Trunk_Forward,1,R_L_LES,0.7081853134126189,,1
BMu35,47,P,INI,Trunk_Forward,1,R_L_LES,0.931703699910298,,2
BMu35,47,P,INI,Trunk_Forward,1,R_L_LES,0.5874870593521785,,3
BMu35,47,P,REL,Trunk_Forward,1,R_L_LES,0.7812187970141036,,1
BMu35,47,P,REL,Trunk_Forward,1,R_L_LES,0.566658734178852,,2
BMu35,47,P,REL,Trunk_Forward,1,R_L_LES,0.592388769642761,,3
BMu35,48,C,INI,Trunk_Forward,1,R_L_LES,0.4915594024601507,,1
BMu35,48,C,INI,Trunk_Forward,1,R_L_LES,0.3877802672970033,,2
BMu35,48,C,INI,Trunk_Forward,1,R_L_LES,0.3743933135902179,,3
BMu35,48,C,REL,Trunk_Forward,1,R_L_LES,0.5955748930507428,,1
BMu35,48,C,REL,Trunk_Forward,1,R_L_LES,0.45257919029941657,,2
BMu35,48,C,REL,Trunk_Forward,1,R_L_LES,0.5357359432684877,,3
BMu35,49,C,INI,Trunk_Forward,1,R_L_LES,0.601890931910959,,1
BMu35,49,C,INI,Trunk_Forward,1,R_L_LES,0.7266077594861531,,2
BMu35,49,C,INI,Trunk_Forward,1,R_L_LES,0.6423392884102168,,3
BMu35,49,C,REL,Trunk_Forward,1,R_L_LES,0.7419344594172955,,1
BMu35,49,C,REL,Trunk_Forward,1,R_L_LES,0.4727122256166669,,2
BMu35,49,C,REL,Trunk_Forward,1,R_L_LES,0.4633319932597934,,3
BMu35,50,P,INI,Trunk_Forward,1,R_L_LES,0.445559695104683,,1
BMu35,50,P,INI,Trunk_Forward,1,R_L_LES,0.5114433969292076,,2
BMu35,50,P,INI,Trunk_Forward,1,R_L_LES,0.5841766479534692,,3
BMu35,50,P,REL,Trunk_Forward,1,R_L_LES,0.5661224493923737,,1
BMu35,50,P,REL,Trunk_Forward,1,R_L_LES,0.5886719855224785,,2
BMu35,50,P,REL,Trunk_Forward,1,R_L_LES,0.6712180557223032,,3
BMu35,51,P,INI,Trunk_Forward,1,R_L_LES,0.7159324313389158,,1
BMu35,51,P,INI,Trunk_Forward,1,R_L_LES,0.5793823135768594,,2
BMu35,51,P,INI,Trunk_Forward,1,R_L_LES,0.41493227039855207,,3
BMu35,51,P,REL,Trunk_Forward,1,R_L_LES,0.7142610676568252,,1
BMu35,51,P,REL,Trunk_Forward,1,R_L_LES,0.6696774374700399,,2
BMu35,51,P,REL,Trunk_Forward,1,R_L_LES,0.2601272324917512,,3
BMu35,52,C,INI,Trunk_Forward,1,R_L_LES,0.3961636275079098,,1
BMu35,52,C,INI,Trunk_Forward,1,R_L_LES,0.41776615049250404,,2
BMu35,52,C,INI,Trunk_Forward,1,R_L_LES,0.25930617992899646,,3
BMu35,52,C,REL,Trunk_Forward,1,R_L_LES,0.3869244351916966,,1
BMu35,52,C,REL,Trunk_Forward,1,R_L_LES,0.22395298722017765,,2
BMu35,52,C,REL,Trunk_Forward,1,R_L_LES,0.26031857197270764,,3
BMu35,53,P,INI,Trunk_Forward,1,R_L_LES,0.7590822215312755,,1
BMu35,53,P,INI,Trunk_Forward,1,R_L_LES,0.6876093350346271,,2
BMu35,53,P,INI,Trunk_Forward,1,R_L_LES,0.5418977587655884,,3
BMu35,53,P,REL,Trunk_Forward,1,R_L_LES,0.5907546834630575,,1
BMu35,53,P,REL,Trunk_Forward,1,R_L_LES,0.4886551594375461,,2
BMu35,53,P,REL,Trunk_Forward,1,R_L_LES,0.5550363170210518,,3
BMu35,54,P,INI,Trunk_Forward,1,R_L_LES,0.27878380855099,,1
BMu35,54,P,INI,Trunk_Forward,1,R_L_LES,0.2897706008556529,,2
BMu35,54,P,INI,Trunk_Forward,1,R_L_LES,0.2439055418700744,,3
BMu35,54,P,REL,Trunk_Forward,1,R_L_LES,0.4454061940715601,,1
BMu35,54,P,REL,Trunk_Forward,1,R_L_LES,0.5720395509850121,,2
BMu35,54,P,REL,Trunk_Forward,1,R_L_LES,0.5350470701519472,,3
BMu35,55,C,INI,Trunk_Forward,1,R_L_LES,0.5359516678170829,,1
BMu35,55,C,INI,Trunk_Forward,1,R_L_LES,0.4928008331212619,,2
BMu35,55,C,INI,Trunk_Forward,1,R_L_LES,0.5228487929479536,,3
BMu35,55,C,REL,Trunk_Forward,1,R_L_LES,0.4291809565669061,,1
BMu35,55,C,REL,Trunk_Forward,1,R_L_LES,0.9589346982416497,,2
BMu35,55,C,REL,Trunk_Forward,1,R_L_LES,0.7039434527566855,,3
BMu35,56,C,INI,Trunk_Forward,1,R_L_LES,0.31029494003453933,,1
BMu35,56,C,INI,Trunk_Forward,1,R_L_LES,0.43524642351607723,,2
BMu35,56,C,INI,Trunk_Forward,1,R_L_LES,0.38425393514866957,,3
BMu35,56,C,REL,Trunk_Forward,1,R_L_LES,0.3458315768816475,,1
BMu35,56,C,REL,Trunk_Forward,1,R_L_LES,0.3569322053175935,,2
BMu35,56,C,REL,Trunk_Forward,1,R_L_LES,0.3575215864053454,,3
BMu35,57,C,INI,Trunk_Forward,1,R_L_LES,0.8060201351933107,,1
BMu35,57,C,INI,Trunk_Forward,1,R_L_LES,0.22125762533868853,,2
BMu35,57,C,INI,Trunk_Forward,1,R_L_LES,2.1682328278418983,,3
BMu35,57,C,REL,Trunk_Forward,1,R_L_LES,1.842164685348674,,1
BMu35,57,C,REL,Trunk_Forward,1,R_L_LES,5.363686545156119,,2
BMu35,57,C,REL,Trunk_Forward,1,R_L_LES,4.7101883601129995,,3
BMu35,58,P,INI,Trunk_Forward,1,R_L_LES,0.46994742723714444,,1
BMu35,58,P,INI,Trunk_Forward,1,R_L_LES,0.37960487436091234,,2
BMu35,58,P,INI,Trunk_Forward,1,R_L_LES,0.434147491475654,,3
BMu35,58,P,REL,Trunk_Forward,1,R_L_LES,0.913128186251568,,1
BMu35,58,P,REL,Trunk_Forward,1,R_L_LES,1.0612933045720558,,2
BMu35,58,P,REL,Trunk_Forward,1,R_L_LES,2.787765720702692,,3
BMu35,60,C,INI,Trunk_Forward,1,R_L_LES,0.3209544101627025,,1
BMu35,60,C,INI,Trunk_Forward,1,R_L_LES,0.22965571432120954,,2
BMu35,60,C,INI,Trunk_Forward,1,R_L_LES,0.2784000613010041,,3
BMu35,60,C,REL,Trunk_Forward,1,R_L_LES,0.23974636569353855,,1
BMu35,60,C,REL,Trunk_Forward,1,R_L_LES,0.17392969933676264,,2
BMu35,60,C,REL,Trunk_Forward,1,R_L_LES,0.20823578073868276,,3
BMu35,61,P,INI,Trunk_Forward,1,R_L_LES,0.45265045166007845,,1
BMu35,61,P,INI,Trunk_Forward,1,R_L_LES,0.5332718152125916,,2
BMu35,61,P,INI,Trunk_Forward,1,R_L_LES,0.5250687175835319,,3
BMu35,61,P,REL,Trunk_Forward,1,R_L_LES,0.5325113260166094,,1
BMu35,61,P,REL,Trunk_Forward,1,R_L_LES,0.5176092970574002,,2
BMu35,61,P,REL,Trunk_Forward,1,R_L_LES,0.47132156225048066,,3
BMu35,62,P,INI,Trunk_Forward,1,R_L_LES,0.5072448199251339,,1
BMu35,62,P,INI,Trunk_Forward,1,R_L_LES,0.6897046328751021,,2
BMu35,62,P,INI,Trunk_Forward,1,R_L_LES,0.3290766291914813,,3
BMu35,62,P,REL,Trunk_Forward,1,R_L_LES,0.6961584739455079,,1
BMu35,62,P,REL,Trunk_Forward,1,R_L_LES,1.2293655917525106,,2
BMu35,62,P,REL,Trunk_Forward,1,R_L_LES,1.1672222409257291,,3
BMu35,63,P,INI,Trunk_Forward,1,R_L_LES,1.2784887652519703,,1
BMu35,63,P,INI,Trunk_Forward,1,R_L_LES,0.842309772554198,,2
BMu35,63,P,INI,Trunk_Forward,1,R_L_LES,1.7865618494574589,,3
BMu35,63,P,REL,Trunk_Forward,1,R_L_LES,0.6405849435338457,,1
BMu35,63,P,REL,Trunk_Forward,1,R_L_LES,0.32792387823804636,,2
BMu35,63,P,REL,Trunk_Forward,1,R_L_LES,0.1901833195031731,,3
BMu35,64,C,INI,Trunk_Forward,1,R_L_LES,0.30997044863112605,,1
BMu35,64,C,INI,Trunk_Forward,1,R_L_LES,0.27334174673310324,,2
BMu35,64,C,INI,Trunk_Forward,1,R_L_LES,0.40454943979676805,,3
BMu35,64,C,REL,Trunk_Forward,1,R_L_LES,0.17351616604718512,,1
BMu35,64,C,REL,Trunk_Forward,1,R_L_LES,0.25328413565001795,,2
BMu35,64,C,REL,Trunk_Forward,1,R_L_LES,0.2949424037023271,,3
BMu35,65,P,INI,Trunk_Forward,1,R_L_LES,0.41194785462918293,,1
BMu35,65,P,INI,Trunk_Forward,1,R_L_LES,0.34925877554611023,,2
BMu35,65,P,INI,Trunk_Forward,1,R_L_LES,0.47303241407443763,,3
BMu35,65,P,REL,Trunk_Forward,1,R_L_LES,0.47245575723950095,,1
BMu35,65,P,REL,Trunk_Forward,1,R_L_LES,0.43784489471478216,,2
BMu35,65,P,REL,Trunk_Forward,1,R_L_LES,0.3541816172845569,,3
BMu35,66,C,INI,Trunk_Forward,1,R_L_LES,0.4224551787082538,,1
BMu35,66,C,INI,Trunk_Forward,1,R_L_LES,0.49353113918826097,,2
BMu35,66,C,INI,Trunk_Forward,1,R_L_LES,0.49139564850187184,,3
BMu35,66,C,REL,Trunk_Forward,1,R_L_LES,0.628320307094647,,1
BMu35,66,C,REL,Trunk_Forward,1,R_L_LES,0.4502721598923144,,2
BMu35,66,C,REL,Trunk_Forward,1,R_L_LES,0.4108847904547955,,3
BMu35,67,C,INI,Trunk_Forward,1,R_L_LES,0.40959380530461253,,1
BMu35,67,C,INI,Trunk_Forward,1,R_L_LES,0.3051532386379103,,2
BMu35,67,C,INI,Trunk_Forward,1,R_L_LES,0.36154427946661866,,3
BMu35,67,C,REL,Trunk_Forward,1,R_L_LES,0.7791788479571902,,1
BMu35,67,C,REL,Trunk_Forward,1,R_L_LES,0.9895717627697606,,2
BMu35,67,C,REL,Trunk_Forward,1,R_L_LES,0.6622087133355054,,3
BMu35,68,C,INI,Trunk_Forward,1,R_L_LES,0.5946314710115407,,1
BMu35,68,C,INI,Trunk_Forward,1,R_L_LES,0.5405526702601725,,2
BMu35,68,C,INI,Trunk_Forward,1,R_L_LES,0.7186796698366976,,3
BMu35,68,C,REL,Trunk_Forward,1,R_L_LES,0.5604818426046944,,1
BMu35,68,C,REL,Trunk_Forward,1,R_L_LES,0.7191965965092835,,2
BMu35,68,C,REL,Trunk_Forward,1,R_L_LES,0.7063567843943295,,3
BMu35,68,C,REL,Trunk_Forward,1,R_L_LES,0.6774922695904207,,4
