BMu,subject,P_C,session,task,trials,channel,value,event,rep
BMu44,1,C,INI,Trunk_Forward,1,R_L_LES,13.156249706173506,,1
BMu44,1,C,INI,Trunk_Forward,1,R_L_LES,12.902633047591921,,2
BMu44,1,C,INI,Trunk_Forward,1,R_L_LES,10.715197071851772,,3
BMu44,1,C,REL,Trunk_Forward,1,R_L_LES,20.332174144094537,,1
BMu44,1,C,REL,Trunk_Forward,1,R_L_LES,16.57361409352867,,2
BMu44,1,C,REL,Trunk_Forward,1,R_L_LES,22.52290141503891,,3
BMu44,2,C,INI,Trunk_Forward,1,R_L_LES,19.3383659952744,,1
BMu44,2,C,INI,Trunk_Forward,1,R_L_LES,19.938354367549415,,2
BMu44,2,C,INI,Trunk_Forward,1,R_L_LES,21.595394491661597,,3
BMu44,2,C,REL,Trunk_Forward,1,R_L_LES,13.436350525376326,,1
BMu44,2,C,REL,Trunk_Forward,1,R_L_LES,16.081925934253473,,2
BMu44,2,C,REL,Trunk_Forward,1,R_L_LES,11.336805217820611,,3
BMu44,3,C,INI,Trunk_Forward,1,R_L_LES,15.297279069146942,,1
BMu44,3,C,INI,Trunk_Forward,1,R_L_LES,16.19438719571794,,2
BMu44,3,C,INI,Trunk_Forward,1,R_L_LES,17.18258329424224,,3
BMu44,3,C,REL,Trunk_Forward,1,R_L_LES,13.577241644151144,,1
BMu44,3,C,REL,Trunk_Forward,1,R_L_LES,17.86688628817946,,2
BMu44,3,C,REL,Trunk_Forward,1,R_L_LES,27.993668141851508,,3
BMu44,5,C,INI,Trunk_Forward,1,R_L_LES,14.885214880088212,,1
BMu44,5,C,INI,Trunk_Forward,1,R_L_LES,13.012719396643263,,2
BMu44,5,C,INI,Trunk_Forward,1,R_L_LES,16.98120572458474,,3
BMu44,5,C,REL,Trunk_Forward,1,R_L_LES,2.196497222430722,,1
BMu44,5,C,REL,Trunk_Forward,1,R_L_LES,17.958685831793822,,2
BMu44,5,C,REL,Trunk_Forward,1,R_L_LES,21.03052950666537,,3
BMu44,5,C,REL,Trunk_Forward,1,R_L_LES,20.05441119777042,,4
BMu44,6,C,INI,Trunk_Forward,1,R_L_LES,4.141694927133982,,1
BMu44,6,C,INI,Trunk_Forward,1,R_L_LES,4.264358645136293,,2
BMu44,6,C,INI,Trunk_Forward,1,R_L_LES,5.938872750866884,,3
BMu44,6,C,INI,Trunk_Forward,1,R_L_LES,,,4
BMu44,6,C,REL,Trunk_Forward,1,R_L_LES,3.187565173404956,,1
BMu44,6,C,REL,Trunk_Forward,1,R_L_LES,3.2796070582846206,,2
BMu44,6,C,REL,Trunk_Forward,1,R_L_LES,3.5473611787865527,,3
BMu44,7,C,INI,Trunk_Forward,1,R_L_LES,4.585424212602644,,1
BMu44,7,C,INI,Trunk_Forward,1,R_L_LES,6.448729973126391,,2
BMu44,7,C,INI,Trunk_Forward,1,R_L_LES,8.375777251400754,,3
BMu44,7,C,REL,Trunk_Forward,1,R_L_LES,8.588703171060795,,1
BMu44,7,C,REL,Trunk_Forward,1,R_L_LES,16.33636623735661,,2
BMu44,7,C,REL,Trunk_Forward,1,R_L_LES,18.876200542848537,,3
BMu44,8,C,INI,Trunk_Forward,1,R_L_LES,15.786224254160162,,1
BMu44,8,C,INI,Trunk_Forward,1,R_L_LES,14.443959905088555,,2
BMu44,8,C,INI,Trunk_Forward,1,R_L_LES,13.335360176389795,,3
BMu44,8,C,REL,Trunk_Forward,1,R_L_LES,14.229904606506707,,1
BMu44,8,C,REL,Trunk_Forward,1,R_L_LES,12.992841234072463,,2
BMu44,8,C,REL,Trunk_Forward,1,R_L_LES,14.233328845114658,,3
BMu44,9,P,INI,Trunk_Forward,1,R_L_LES,4.339746104609805,,1
BMu44,9,P,INI,Trunk_Forward,1,R_L_LES,9.350617703763165,,2
BMu44,9,P,INI,Trunk_Forward,1,R_L_LES,10.98934620098334,,3
BMu44,9,P,INI,Trunk_Forward,1,R_L_LES,,,4
BMu44,9,P,REL,Trunk_Forward,1,R_L_LES,5.611925912965478,,1
BMu44,9,P,REL,Trunk_Forward,1,R_L_LES,9.394191474868503,,2
BMu44,9,P,REL,Trunk_Forward,1,R_L_LES,12.86265931021341,,3
BMu44,10,P,INI,Trunk_Forward,1,R_L_LES,4.390240392794728,,1
BMu44,10,P,INI,Trunk_Forward,1,R_L_LES,10.131980009009197,,2
BMu44,10,P,INI,Trunk_Forward,1,R_L_LES,12.140951392972152,,3
BMu44,10,P,REL,Trunk_Forward,1,R_L_LES,3.735164746207969,,1
BMu44,10,P,REL,Trunk_Forward,1,R_L_LES,10.698738542017109,,2
BMu44,10,P,REL,Trunk_Forward,1,R_L_LES,15.37793748170392,,3
BMu44,11,P,INI,Trunk_Forward,1,R_L_LES,10.307879128913193,,1
BMu44,11,P,INI,Trunk_Forward,1,R_L_LES,11.563362149969892,,2
BMu44,11,P,INI,Trunk_Forward,1,R_L_LES,11.931738753106146,,3
BMu44,11,P,REL,Trunk_Forward,1,R_L_LES,19.752751194332134,,1
BMu44,11,P,REL,Trunk_Forward,1,R_L_LES,23.083610822965287,,2
BMu44,11,P,REL,Trunk_Forward,1,R_L_LES,23.146423029674768,,3
BMu44,12,P,INI,Trunk_Forward,1,R_L_LES,3.9612401532395127,,1
BMu44,12,P,INI,Trunk_Forward,1,R_L_LES,4.043793615958713,,2
BMu44,12,P,INI,Trunk_Forward,1,R_L_LES,3.7786155180137766,,3
BMu44,12,P,REL,Trunk_Forward,1,R_L_LES,3.614654721837304,,1
BMu44,12,P,REL,Trunk_Forward,1,R_L_LES,3.6816094474473844,,2
BMu44,12,P,REL,Trunk_Forward,1,R_L_LES,4.177064083087572,,3
BMu44,13,C,INI,Trunk_Forward,1,R_L_LES,2.596702739984009,,1
BMu44,13,C,INI,Trunk_Forward,1,R_L_LES,5.018822152430293,,2
BMu44,13,C,INI,Trunk_Forward,1,R_L_LES,5.401161307422041,,3
BMu44,13,C,REL,Trunk_Forward,1,R_L_LES,3.8465018035698884,,1
BMu44,13,C,REL,Trunk_Forward,1,R_L_LES,3.512207319424604,,2
BMu44,13,C,REL,Trunk_Forward,1,R_L_LES,4.770259397590111,,3
BMu44,14,P,INI,Trunk_Forward,1,R_L_LES,4.3123170262084765,,1
BMu44,14,P,INI,Trunk_Forward,1,R_L_LES,5.063779763959196,,2
BMu44,14,P,INI,Trunk_Forward,1,R_L_LES,5.849843086329279,,3
BMu44,14,P,REL,Trunk_Forward,1,R_L_LES,3.697221154749409,,1
BMu44,14,P,REL,Trunk_Forward,1,R_L_LES,9.62671971288205,,2
BMu44,14,P,REL,Trunk_Forward,1,R_L_LES,13.165887335909293,,3
BMu44,14,P,REL,Trunk_Forward,1,R_L_LES,,,4
BMu44,16,C,INI,Trunk_Forward,1,R_L_LES,9.986694046449598,,1
BMu44,16,C,INI,Trunk_Forward,1,R_L_LES,9.580650193425328,,2
BMu44,16,C,INI,Trunk_Forward,1,R_L_LES,9.811727212302442,,3
BMu44,16,C,REL,Trunk_Forward,1,R_L_LES,7.120310133139202,,1
BMu44,16,C,REL,Trunk_Forward,1,R_L_LES,6.191162540226849,,2
BMu44,16,C,REL,Trunk_Forward,1,R_L_LES,7.181112025256079,,3
BMu44,17,P,INI,Trunk_Forward,1,R_L_LES,14.79503693923324,,1
BMu44,17,P,INI,Trunk_Forward,1,R_L_LES,13.627018778012598,,2
BMu44,17,P,INI,Trunk_Forward,1,R_L_LES,8.919241600867377,,3
BMu44,17,P,REL,Trunk_Forward,1,R_L_LES,2.1767499829543864,,1
BMu44,17,P,REL,Trunk_Forward,1,R_L_LES,2.2418970260694886,,2
BMu44,17,P,REL,Trunk_Forward,1,R_L_LES,3.099130771305727,,3
BMu44,21,C,INI,Trunk_Forward,1,R_L_LES,8.05539714202615,,1
BMu44,21,C,INI,Trunk_Forward,1,R_L_LES,13.534614553574245,,2
BMu44,21,C,INI,Trunk_Forward,1,R_L_LES,9.588887874770526,,3
BMu44,21,C,REL,Trunk_Forward,1,R_L_LES,12.907403789006803,,1
BMu44,21,C,REL,Trunk_Forward,1,R_L_LES,23.152044517110227,,2
BMu44,21,C,REL,Trunk_Forward,1,R_L_LES,20.11479879640022,,3
BMu44,22,C,INI,Trunk_Forward,1,R_L_LES,7.487877890937726,,1
BMu44,22,C,INI,Trunk_Forward,1,R_L_LES,7.4824683038326745,,2
BMu44,22,C,INI,Trunk_Forward,1,R_L_LES,9.1048068056626,,3
BMu44,22,C,REL,Trunk_Forward,1,R_L_LES,5.021207732755517,,1
BMu44,22,C,REL,Trunk_Forward,1,R_L_LES,8.55124976016658,,2
BMu44,22,C,REL,Trunk_Forward,1,R_L_LES,7.1216981941902775,,3
BMu44,23,C,INI,Trunk_Forward,1,R_L_LES,7.178843817585586,,1
BMu44,23,C,INI,Trunk_Forward,1,R_L_LES,9.498754781919352,,2
BMu44,23,C,INI,Trunk_Forward,1,R_L_LES,8.40171984823956,,3
BMu44,23,C,REL,Trunk_Forward,1,R_L_LES,7.616494882187923,,1
BMu44,23,C,REL,Trunk_Forward,1,R_L_LES,7.752152863427373,,2
BMu44,23,C,REL,Trunk_Forward,1,R_L_LES,8.86782962661106,,3
BMu44,24,P,INI,Trunk_Forward,1,R_L_LES,2.4030316452050484,,1
BMu44,24,P,INI,Trunk_Forward,1,R_L_LES,4.975902325773455,,2
BMu44,24,P,INI,Trunk_Forward,1,R_L_LES,8.74464424315777,,3
BMu44,24,P,REL,Trunk_Forward,1,R_L_LES,2.2643195282150246,,1
BMu44,24,P,REL,Trunk_Forward,1,R_L_LES,3.576424754954395,,2
BMu44,24,P,REL,Trunk_Forward,1,R_L_LES,4.127466053512137,,3
BMu44,25,C,INI,Trunk_Forward,1,R_L_LES,6.097085406568663,,1
BMu44,25,C,INI,Trunk_Forward,1,R_L_LES,16.424425773458506,,2
BMu44,25,C,INI,Trunk_Forward,1,R_L_LES,21.222388645546772,,3
BMu44,25,C,REL,Trunk_Forward,1,R_L_LES,3.6953811753467183,,1
BMu44,25,C,REL,Trunk_Forward,1,R_L_LES,5.78065464221855,,2
BMu44,25,C,REL,Trunk_Forward,1,R_L_LES,14.739709236170338,,3
BMu44,26,P,INI,Trunk_Forward,1,R_L_LES,5.262366935221246,,1
BMu44,26,P,INI,Trunk_Forward,1,R_L_LES,6.75215380615331,,2
BMu44,26,P,INI,Trunk_Forward,1,R_L_LES,7.363094180150441,,3
BMu44,26,P,REL,Trunk_Forward,1,R_L_LES,5.233065698122794,,1
BMu44,26,P,REL,Trunk_Forward,1,R_L_LES,8.04634759215268,,2
BMu44,26,P,REL,Trunk_Forward,1,R_L_LES,6.925603444644075,,3
BMu44,27,P,INI,Trunk_Forward,1,R_L_LES,4.109051675537138,,1
BMu44,27,P,INI,Trunk_Forward,1,R_L_LES,4.71927051920658,,2
BMu44,27,P,INI,Trunk_Forward,1,R_L_LES,5.3567905687362085,,3
BMu44,27,P,REL,Trunk_Forward,1,R_L_LES,2.7057050924474004,,1
BMu44,27,P,REL,Trunk_Forward,1,R_L_LES,3.4060436964910887,,2
BMu44,27,P,REL,Trunk_Forward,1,R_L_LES,2.916593430820287,,3
BMu44,27,P,REL,Trunk_Forward,1,R_L_LES,,,4
BMu44,28,P,INI,Trunk_Forward,1,R_L_LES,1.9452660146164606,,1
BMu44,28,P,INI,Trunk_Forward,1,R_L_LES,3.540163585858425,,2
BMu44,28,P,INI,Trunk_Forward,1,R_L_LES,4.838223681402964,,3
BMu44,28,P,REL,Trunk_Forward,1,R_L_LES,1.3568525268550216,,1
BMu44,28,P,REL,Trunk_Forward,1,R_L_LES,1.9628370686657906,,2
BMu44,28,P,REL,Trunk_Forward,1,R_L_LES,2.3040590086294044,,3
BMu44,29,P,INI,Trunk_Forward,1,R_L_LES,7.391609919210973,,1
BMu44,29,P,INI,Trunk_Forward,1,R_L_LES,11.532500289935586,,2
BMu44,29,P,INI,Trunk_Forward,1,R_L_LES,9.748171255972098,,3
BMu44,29,P,REL,Trunk_Forward,1,R_L_LES,12.804481621690178,,1
BMu44,29,P,REL,Trunk_Forward,1,R_L_LES,20.30528019019286,,2
BMu44,29,P,REL,Trunk_Forward,1,R_L_LES,22.862100917334768,,3
BMu44,30,P,INI,Trunk_Forward,1,R_L_LES,3.326805424339452,,1
BMu44,30,P,INI,Trunk_Forward,1,R_L_LES,3.0408923033110873,,2
BMu44,30,P,INI,Trunk_Forward,1,R_L_LES,3.117589013007457,,3
BMu44,30,P,REL,Trunk_Forward,1,R_L_LES,2.3321643045571956,,1
BMu44,30,P,REL,Trunk_Forward,1,R_L_LES,2.8439188862702944,,2
BMu44,30,P,REL,Trunk_Forward,1,R_L_LES,3.1176377839665266,,3
BMu44,32,P,INI,Trunk_Forward,1,R_L_LES,5.288939674116575,,1
BMu44,32,P,INI,Trunk_Forward,1,R_L_LES,3.942971706467416,,2
BMu44,32,P,INI,Trunk_Forward,1,R_L_LES,6.116290855772201,,3
BMu44,32,P,REL,Trunk_Forward,1,R_L_LES,5.24593180969797,,1
BMu44,32,P,REL,Trunk_Forward,1,R_L_LES,3.6323732635408477,,2
BMu44,32,P,REL,Trunk_Forward,1,R_L_LES,6.8798805941136445,,3
BMu44,32,P,REL,Trunk_Forward,1,R_L_LES,7.203693781431051,,4
BMu44,33,P,INI,Trunk_Forward,1,R_L_LES,2.315659749452147,,1
BMu44,33,P,INI,Trunk_Forward,1,R_L_LES,2.4812143043180073,,2
BMu44,33,P,INI,Trunk_Forward,1,R_L_LES,3.1061875279427897,,3
BMu44,33,P,INI,Trunk_Forward,1,R_L_LES,2.7469284234998708,,4
BMu44,33,P,REL,Trunk_Forward,1,R_L_LES,1.8314687925908515,,1
BMu44,33,P,REL,Trunk_Forward,1,R_L_LES,1.9256478966575683,,2
BMu44,33,P,REL,Trunk_Forward,1,R_L_LES,2.0257285765003292,,3
BMu44,34,P,INI,Trunk_Forward,1,R_L_LES,8.071197682473079,,1
BMu44,34,P,INI,Trunk_Forward,1,R_L_LES,6.1422108597319784,,2
BMu44,34,P,INI,Trunk_Forward,1,R_L_LES,6.43021246849238,,3
BMu44,34,P,REL,Trunk_Forward,1,R_L_LES,12.176021424870648,,1
BMu44,34,P,REL,Trunk_Forward,1,R_L_LES,9.595769465690429,,2
BMu44,34,P,REL,Trunk_Forward,1,R_L_LES,10.496898442637406,,3
BMu44,35,C,INI,Trunk_Forward,1,R_L_LES,11.236138878759752,,1
BMu44,35,C,INI,Trunk_Forward,1,R_L_LES,17.18467678236227,,2
BMu44,35,C,INI,Trunk_Forward,1,R_L_LES,16.938592143358022,,3
BMu44,35,C,REL,Trunk_Forward,1,R_L_LES,19.486651267911736,,1
BMu44,35,C,REL,Trunk_Forward,1,R_L_LES,19.65081150396044,,2
BMu44,35,C,REL,Trunk_Forward,1,R_L_LES,19.812264609745338,,3
BMu44,36,P,INI,Trunk_Forward,1,R_L_LES,2.3192756752391985,,1
BMu44,36,P,INI,Trunk_Forward,1,R_L_LES,2.804099442741785,,2
BMu44,36,P,INI,Trunk_Forward,1,R_L_LES,2.6619261370677116,,3
BMu44,36,P,REL,Trunk_Forward,1,R_L_LES,1.7368153600051235,,1
BMu44,36,P,REL,Trunk_Forward,1,R_L_LES,1.9252877540192326,,2
BMu44,36,P,REL,Trunk_Forward,1,R_L_LES,1.873807607379888,,3
BMu44,38,C,INI,Trunk_Forward,1,R_L_LES,12.802331326808313,,1
BMu44,38,C,INI,Trunk_Forward,1,R_L_LES,11.592993205248893,,2
BMu44,38,C,INI,Trunk_Forward,1,R_L_LES,8.899039081978582,,3
BMu44,38,C,REL,Trunk_Forward,1,R_L_LES,5.833773218084023,,1
BMu44,38,C,REL,Trunk_Forward,1,R_L_LES,9.571057757086454,,2
BMu44,38,C,REL,Trunk_Forward,1,R_L_LES,11.507628221506895,,3
BMu44,39,C,INI,Trunk_Forward,1,R_L_LES,10.644217527269571,,1
BMu44,39,C,INI,Trunk_Forward,1,R_L_LES,9.51022384105911,,2
BMu44,39,C,INI,Trunk_Forward,1,R_L_LES,11.23284400335089,,3
BMu44,39,C,REL,Trunk_Forward,1,R_L_LES,3.19164970095859,,1
BMu44,39,C,REL,Trunk_Forward,1,R_L_LES,6.544705645800804,,2
BMu44,39,C,REL,Trunk_Forward,1,R_L_LES,5.8976201580500485,,3
BMu44,40,C,INI,Trunk_Forward,1,R_L_LES,11.171931182919707,,1
BMu44,40,C,INI,Trunk_Forward,1,R_L_LES,15.384724643448074,,2
BMu44,40,C,INI,Trunk_Forward,1,R_L_LES,12.973945083583596,,3
BMu44,40,C,REL,Trunk_Forward,1,R_L_LES,5.827000328080372,,1
BMu44,40,C,REL,Trunk_Forward,1,R_L_LES,9.21632621877475,,2
BMu44,40,C,REL,Trunk_Forward,1,R_L_LES,10.520549825633429,,3
BMu44,41,P,INI,Trunk_Forward,1,R_L_LES,9.500958606140625,,1
BMu44,41,P,INI,Trunk_Forward,1,R_L_LES,13.759001505680523,,2
BMu44,41,P,INI,Trunk_Forward,1,R_L_LES,20.07538366054195,,3
BMu44,41,P,REL,Trunk_Forward,1,R_L_LES,6.688007975505978,,1
BMu44,41,P,REL,Trunk_Forward,1,R_L_LES,13.318105071845038,,2
BMu44,41,P,REL,Trunk_Forward,1,R_L_LES,15.804880384402146,,3
BMu44,42,P,INI,Trunk_Forward,1,R_L_LES,8.72884472595853,,1
BMu44,42,P,INI,Trunk_Forward,1,R_L_LES,12.60020681600816,,2
BMu44,42,P,INI,Trunk_Forward,1,R_L_LES,14.148320804521521,,3
BMu44,42,P,REL,Trunk_Forward,1,R_L_LES,10.34746433818069,,1
BMu44,42,P,REL,Trunk_Forward,1,R_L_LES,19.767369987155305,,2
BMu44,42,P,REL,Trunk_Forward,1,R_L_LES,19.696000133565043,,3
BMu44,43,P,INI,Trunk_Forward,1,R_L_LES,12.496994568635749,,1
BMu44,43,P,INI,Trunk_Forward,1,R_L_LES,15.243203329862773,,2
BMu44,43,P,INI,Trunk_Forward,1,R_L_LES,14.597199591982656,,3
BMu44,43,P,REL,Trunk_Forward,1,R_L_LES,14.372709483625574,,1
BMu44,43,P,REL,Trunk_Forward,1,R_L_LES,12.303962070144127,,2
BMu44,43,P,REL,Trunk_Forward,1,R_L_LES,11.551272626370482,,3
BMu44,44,C,INI,Trunk_Forward,1,R_L_LES,22.263845257095962,,1
BMu44,44,C,INI,Trunk_Forward,1,R_L_LES,25.11294051600233,,2
BMu44,44,C,INI,Trunk_Forward,1,R_L_LES,29.456059051435037,,3
BMu44,44,C,REL,Trunk_Forward,1,R_L_LES,26.060676875344615,,1
BMu44,44,C,REL,Trunk_Forward,1,R_L_LES,27.68083299047695,,2
BMu44,44,C,REL,Trunk_Forward,1,R_L_LES,25.579226650807716,,3
BMu44,45,P,INI,Trunk_Forward,1,R_L_LES,4.814141675786425,,1
BMu44,45,P,INI,Trunk_Forward,1,R_L_LES,5.683875069120723,,2
BMu44,45,P,INI,Trunk_Forward,1,R_L_LES,8.017074809920471,,3
BMu44,45,P,REL,Trunk_Forward,1,R_L_LES,5.083687306306707,,1
BMu44,45,P,REL,Trunk_Forward,1,R_L_LES,5.551224034702787,,2
BMu44,45,P,REL,Trunk_Forward,1,R_L_LES,6.512527545012545,,3
BMu44,46,C,INI,Trunk_Forward,1,R_L_LES,5.8155211849655135,,1
BMu44,46,C,INI,Trunk_Forward,1,R_L_LES,6.490493617397953,,2
BMu44,46,C,INI,Trunk_Forward,1,R_L_LES,4.610160258514535,,3
BMu44,46,C,REL,Trunk_Forward,1,R_L_LES,4.0600549256076235,,1
BMu44,46,C,REL,Trunk_Forward,1,R_L_LES,5.703130340148613,,2
BMu44,46,C,REL,Trunk_Forward,1,R_L_LES,5.444856138483348,,3
BMu44,47,P,INI,Trunk_Forward,1,R_L_LES,2.109203369103369,,1
BMu44,47,P,INI,Trunk_Forward,1,R_L_LES,1.4658370447966709,,2
BMu44,47,P,INI,Trunk_Forward,1,R_L_LES,2.2556084469927056,,3
BMu44,47,P,REL,Trunk_Forward,1,R_L_LES,2.4085902262792946,,1
BMu44,47,P,REL,Trunk_Forward,1,R_L_LES,2.8032887208982995,,2
BMu44,47,P,REL,Trunk_Forward,1,R_L_LES,2.6772413866450626,,3
BMu44,48,C,INI,Trunk_Forward,1,R_L_LES,19.19454029204361,,1
BMu44,48,C,INI,Trunk_Forward,1,R_L_LES,21.070228835327082,,2
BMu44,48,C,INI,Trunk_Forward,1,R_L_LES,14.07773619778528,,3
BMu44,48,C,REL,Trunk_Forward,1,R_L_LES,16.749590527793433,,1
BMu44,48,C,REL,Trunk_Forward,1,R_L_LES,21.63682680365526,,2
BMu44,48,C,REL,Trunk_Forward,1,R_L_LES,22.275144130495793,,3
BMu44,49,C,INI,Trunk_Forward,1,R_L_LES,15.21479482851323,,1
BMu44,49,C,INI,Trunk_Forward,1,R_L_LES,16.582906991784444,,2
BMu44,49,C,INI,Trunk_Forward,1,R_L_LES,19.41081381045193,,3
BMu44,49,C,REL,Trunk_Forward,1,R_L_LES,15.628459889381833,,1
BMu44,49,C,REL,Trunk_Forward,1,R_L_LES,17.37140260421567,,2
BMu44,49,C,REL,Trunk_Forward,1,R_L_LES,16.22421845286548,,3
BMu44,50,P,INI,Trunk_Forward,1,R_L_LES,7.554047157742407,,1
BMu44,50,P,INI,Trunk_Forward,1,R_L_LES,8.974375998689203,,2
BMu44,50,P,INI,Trunk_Forward,1,R_L_LES,,,3
BMu44,50,P,REL,Trunk_Forward,1,R_L_LES,2.3942509222879207,,1
BMu44,50,P,REL,Trunk_Forward,1,R_L_LES,2.175476699349633,,2
BMu44,50,P,REL,Trunk_Forward,1,R_L_LES,2.3234797803122125,,3
BMu44,51,P,INI,Trunk_Forward,1,R_L_LES,1.6536965046400902,,1
BMu44,51,P,INI,Trunk_Forward,1,R_L_LES,2.2277078430082424,,2
BMu44,51,P,INI,Trunk_Forward,1,R_L_LES,2.9846964994497243,,3
BMu44,51,P,REL,Trunk_Forward,1,R_L_LES,2.360815549286654,,1
BMu44,51,P,REL,Trunk_Forward,1,R_L_LES,2.4465520631981694,,2
BMu44,51,P,REL,Trunk_Forward,1,R_L_LES,5.627092821240228,,3
BMu44,52,C,INI,Trunk_Forward,1,R_L_LES,16.417921339099898,,1
BMu44,52,C,INI,Trunk_Forward,1,R_L_LES,14.401136859161857,,2
BMu44,52,C,INI,Trunk_Forward,1,R_L_LES,19.284963766721177,,3
BMu44,52,C,REL,Trunk_Forward,1,R_L_LES,10.890433776845393,,1
BMu44,52,C,REL,Trunk_Forward,1,R_L_LES,21.595945948524044,,2
BMu44,52,C,REL,Trunk_Forward,1,R_L_LES,20.399751237436618,,3
BMu44,53,P,INI,Trunk_Forward,1,R_L_LES,1.4253552480717375,,1
BMu44,53,P,INI,Trunk_Forward,1,R_L_LES,1.5797121564751693,,2
BMu44,53,P,INI,Trunk_Forward,1,R_L_LES,,,3
BMu44,53,P,REL,Trunk_Forward,1,R_L_LES,1.9411719637134714,,1
BMu44,53,P,REL,Trunk_Forward,1,R_L_LES,2.356316033005074,,2
BMu44,53,P,REL,Trunk_Forward,1,R_L_LES,2.210106460424917,,3
BMu44,54,P,INI,Trunk_Forward,1,R_L_LES,16.041330856125935,,1
BMu44,54,P,INI,Trunk_Forward,1,R_L_LES,20.706597091916183,,2
BMu44,54,P,INI,Trunk_Forward,1,R_L_LES,18.79881794896848,,3
BMu44,54,P,REL,Trunk_Forward,1,R_L_LES,16.158324725769308,,1
BMu44,54,P,REL,Trunk_Forward,1,R_L_LES,17.448870532406048,,2
BMu44,54,P,REL,Trunk_Forward,1,R_L_LES,16.124523212818488,,3
BMu44,55,C,INI,Trunk_Forward,1,R_L_LES,7.027496289248775,,1
BMu44,55,C,INI,Trunk_Forward,1,R_L_LES,15.650617290918442,,2
BMu44,55,C,INI,Trunk_Forward,1,R_L_LES,15.744702965782109,,3
BMu44,55,C,REL,Trunk_Forward,1,R_L_LES,8.983151067094774,,1
BMu44,55,C,REL,Trunk_Forward,1,R_L_LES,11.319447348719445,,2
BMu44,55,C,REL,Trunk_Forward,1,R_L_LES,12.488201032051126,,3
BMu44,56,C,INI,Trunk_Forward,1,R_L_LES,6.58173061749016,,1
BMu44,56,C,INI,Trunk_Forward,1,R_L_LES,7.939664047153212,,2
BMu44,56,C,INI,Trunk_Forward,1,R_L_LES,10.266478335163297,,3
BMu44,56,C,REL,Trunk_Forward,1,R_L_LES,3.909112651589887,,1
BMu44,56,C,REL,Trunk_Forward,1,R_L_LES,6.43037733366676,,2
BMu44,56,C,REL,Trunk_Forward,1,R_L_LES,7.230768040226566,,3
BMu44,57,C,INI,Trunk_Forward,1,R_L_LES,3.573326500050915,,1
BMu44,57,C,INI,Trunk_Forward,1,R_L_LES,19.02589971053613,,2
BMu44,57,C,INI,Trunk_Forward,1,R_L_LES,11.010295556095326,,3
BMu44,57,C,REL,Trunk_Forward,1,R_L_LES,7.94960667936836,,1
BMu44,57,C,REL,Trunk_Forward,1,R_L_LES,6.483672774795915,,2
BMu44,57,C,REL,Trunk_Forward,1,R_L_LES,11.61615268551182,,3
BMu44,58,P,INI,Trunk_Forward,1,R_L_LES,3.2484711848379977,,1
BMu44,58,P,INI,Trunk_Forward,1,R_L_LES,3.3322205225316313,,2
BMu44,58,P,INI,Trunk_Forward,1,R_L_LES,3.2136553042361453,,3
BMu44,58,P,REL,Trunk_Forward,1,R_L_LES,6.849202380794095,,1
BMu44,58,P,REL,Trunk_Forward,1,R_L_LES,15.028117272058342,,2
BMu44,58,P,REL,Trunk_Forward,1,R_L_LES,7.908955272973758,,3
BMu44,60,C,INI,Trunk_Forward,1,R_L_LES,6.006509179912602,,1
BMu44,60,C,INI,Trunk_Forward,1,R_L_LES,14.706385890178273,,2
BMu44,60,C,INI,Trunk_Forward,1,R_L_LES,15.280309514675213,,3
BMu44,60,C,REL,Trunk_Forward,1,R_L_LES,5.231461166603953,,1
BMu44,60,C,REL,Trunk_Forward,1,R_L_LES,7.824144133422739,,2
BMu44,60,C,REL,Trunk_Forward,1,R_L_LES,9.61751081301123,,3
BMu44,61,P,INI,Trunk_Forward,1,R_L_LES,21.86463546429965,,1
BMu44,61,P,INI,Trunk_Forward,1,R_L_LES,20.86441510068009,,2
BMu44,61,P,INI,Trunk_Forward,1,R_L_LES,12.006390107091056,,3
BMu44,61,P,REL,Trunk_Forward,1,R_L_LES,16.377356524216008,,1
BMu44,61,P,REL,Trunk_Forward,1,R_L_LES,19.171228565074603,,2
BMu44,61,P,REL,Trunk_Forward,1,R_L_LES,20.009983494718256,,3
BMu44,62,P,INI,Trunk_Forward,1,R_L_LES,2.249877916859256,,1
BMu44,62,P,INI,Trunk_Forward,1,R_L_LES,3.0660104141033457,,2
BMu44,62,P,INI,Trunk_Forward,1,R_L_LES,3.6177244226565,,3
BMu44,62,P,REL,Trunk_Forward,1,R_L_LES,2.9236483935306747,,1
BMu44,62,P,REL,Trunk_Forward,1,R_L_LES,2.8236124708100374,,2
BMu44,62,P,REL,Trunk_Forward,1,R_L_LES,2.667264194343022,,3
BMu44,63,P,INI,Trunk_Forward,1,R_L_LES,5.422817881372926,,1
BMu44,63,P,INI,Trunk_Forward,1,R_L_LES,18.40541139493156,,2
BMu44,63,P,INI,Trunk_Forward,1,R_L_LES,6.217074611428191,,3
BMu44,63,P,REL,Trunk_Forward,1,R_L_LES,20.21119444693404,,1
BMu44,63,P,REL,Trunk_Forward,1,R_L_LES,30.330810510324334,,2
BMu44,63,P,REL,Trunk_Forward,1,R_L_LES,18.168089210104586,,3
BMu44,64,C,INI,Trunk_Forward,1,R_L_LES,15.671952174031743,,1
BMu44,64,C,INI,Trunk_Forward,1,R_L_LES,19.427154538851685,,2
BMu44,64,C,INI,Trunk_Forward,1,R_L_LES,21.166497059136823,,3
BMu44,64,C,REL,Trunk_Forward,1,R_L_LES,22.77046181588202,,1
BMu44,64,C,REL,Trunk_Forward,1,R_L_LES,23.920719327657867,,2
BMu44,64,C,REL,Trunk_Forward,1,R_L_LES,22.04931433849623,,3
BMu44,65,P,INI,Trunk_Forward,1,R_L_LES,9.59934235966846,,1
BMu44,65,P,INI,Trunk_Forward,1,R_L_LES,18.31995303237301,,2
BMu44,65,P,INI,Trunk_Forward,1,R_L_LES,17.000233051152268,,3
BMu44,65,P,REL,Trunk_Forward,1,R_L_LES,7.900563191811291,,1
BMu44,65,P,REL,Trunk_Forward,1,R_L_LES,12.627937483565004,,2
BMu44,65,P,REL,Trunk_Forward,1,R_L_LES,17.149333454288016,,3
BMu44,66,C,INI,Trunk_Forward,1,R_L_LES,9.75420381068929,,1
BMu44,66,C,INI,Trunk_Forward,1,R_L_LES,13.958003932561548,,2
BMu44,66,C,INI,Trunk_Forward,1,R_L_LES,10.791928213910198,,3
BMu44,66,C,REL,Trunk_Forward,1,R_L_LES,4.439302297711709,,1
BMu44,66,C,REL,Trunk_Forward,1,R_L_LES,12.16401912471743,,2
BMu44,66,C,REL,Trunk_Forward,1,R_L_LES,8.813274015195361,,3
BMu44,67,C,INI,Trunk_Forward,1,R_L_LES,24.35295442110616,,1
BMu44,67,C,INI,Trunk_Forward,1,R_L_LES,31.478916179845328,,2
BMu44,67,C,INI,Trunk_Forward,1,R_L_LES,19.775357093298126,,3
BMu44,67,C,REL,Trunk_Forward,1,R_L_LES,20.190461964066422,,1
BMu44,67,C,REL,Trunk_Forward,1,R_L_LES,18.080386170402665,,2
BMu44,67,C,REL,Trunk_Forward,1,R_L_LES,17.231004665750916,,3
BMu44,68,C,INI,Trunk_Forward,1,R_L_LES,2.8552675621114156,,1
BMu44,68,C,INI,Trunk_Forward,1,R_L_LES,4.2887742930415085,,2
BMu44,68,C,INI,Trunk_Forward,1,R_L_LES,3.477554786339421,,3
BMu44,68,C,REL,Trunk_Forward,1,R_L_LES,4.560740172876448,,1
BMu44,68,C,REL,Trunk_Forward,1,R_L_LES,3.2399257088960436,,2
BMu44,68,C,REL,Trunk_Forward,1,R_L_LES,6.498481450981351,,3
BMu44,68,C,REL,Trunk_Forward,1,R_L_LES,5.259005833030329,,4
