BMu,subject,P_C,session,task,trials,channel,value,event,rep
BMu44,1,C,INI,Trunk_Forward,1,L_LES,16.824570469930197,,1
BMu44,1,C,INI,Trunk_Forward,1,L_LES,17.904162272717716,,2
BMu44,1,C,INI,Trunk_Forward,1,L_LES,12.532646907069342,,3
BMu44,1,C,INI,Trunk_Forward,1,R_LES,10.817208904125527,,1
BMu44,1,C,INI,Trunk_Forward,1,R_LES,9.309705067249435,,2
BMu44,1,C,INI,Trunk_Forward,1,R_LES,9.152580135758258,,3
BMu44,1,C,REL,Trunk_Forward,1,L_LES,24.67107629470332,,1
BMu44,1,C,REL,Trunk_Forward,1,L_LES,20.315577432087306,,2
BMu44,1,C,REL,Trunk_Forward,1,L_LES,22.333400176371658,,3
BMu44,1,C,REL,Trunk_Forward,1,R_LES,24.040396754389512,,1
BMu44,1,C,REL,Trunk_Forward,1,R_LES,13.4746394205103,,2
BMu44,1,C,REL,Trunk_Forward,1,R_LES,40.64711541741697,,3
BMu44,2,C,INI,Trunk_Forward,1,L_LES,20.202487319832013,,1
BMu44,2,C,INI,Trunk_Forward,1,L_LES,21.25266543616756,,2
BMu44,2,C,INI,Trunk_Forward,1,L_LES,22.160256362807804,,3
BMu44,2,C,INI,Trunk_Forward,1,R_LES,19.589249275089795,,1
BMu44,2,C,INI,Trunk_Forward,1,R_LES,21.791098686115237,,2
BMu44,2,C,INI,Trunk_Forward,1,R_LES,21.587741565731466,,3
BMu44,2,C,REL,Trunk_Forward,1,L_LES,14.39153572819626,,1
BMu44,2,C,REL,Trunk_Forward,1,L_LES,18.26159874462292,,2
BMu44,2,C,REL,Trunk_Forward,1,L_LES,12.171443172112673,,3
BMu44,2,C,REL,Trunk_Forward,1,R_LES,12.66694446720777,,1
BMu44,2,C,REL,Trunk_Forward,1,R_LES,14.64080759304029,,2
BMu44,2,C,REL,Trunk_Forward,1,R_LES,10.573801552182232,,3
BMu44,3,C,INI,Trunk_Forward,1,L_LES,16.95149706243035,,1
BMu44,3,C,INI,Trunk_Forward,1,L_LES,18.37477623830345,,2
BMu44,3,C,INI,Trunk_Forward,1,L_LES,20.439350956306967,,3
BMu44,3,C,INI,Trunk_Forward,1,R_LES,15.553491526038401,,1
BMu44,3,C,INI,Trunk_Forward,1,R_LES,15.68736356034527,,2
BMu44,3,C,INI,Trunk_Forward,1,R_LES,14.423893319522335,,3
BMu44,3,C,REL,Trunk_Forward,1,L_LES,13.205238584229487,,1
BMu44,3,C,REL,Trunk_Forward,1,L_LES,18.30392044166354,,2
BMu44,3,C,REL,Trunk_Forward,1,L_LES,29.542055880463323,,3
BMu44,3,C,REL,Trunk_Forward,1,R_LES,19.28021820119171,,1
BMu44,3,C,REL,Trunk_Forward,1,R_LES,15.18307314847697,,2
BMu44,3,C,REL,Trunk_Forward,1,R_LES,19.280736066948815,,3
BMu44,5,C,INI,Trunk_Forward,1,L_LES,21.123579505425575,,1
BMu44,5,C,INI,Trunk_Forward,1,L_LES,19.046064184438602,,2
BMu44,5,C,INI,Trunk_Forward,1,L_LES,25.17722526107036,,3
BMu44,5,C,INI,Trunk_Forward,1,R_LES,9.376865198059804,,1
BMu44,5,C,INI,Trunk_Forward,1,R_LES,7.602741277412225,,2
BMu44,5,C,INI,Trunk_Forward,1,R_LES,9.840007734461851,,3
BMu44,5,C,REL,Trunk_Forward,1,L_LES,2.251532912267621,,1
BMu44,5,C,REL,Trunk_Forward,1,L_LES,27.121250496626157,,2
BMu44,5,C,REL,Trunk_Forward,1,L_LES,35.87166229218811,,3
BMu44,5,C,REL,Trunk_Forward,1,L_LES,30.214272728745563,,4
BMu44,5,C,REL,Trunk_Forward,1,R_LES,2.0543441009898378,,1
BMu44,5,C,REL,Trunk_Forward,1,R_LES,8.579924294124286,,2
BMu44,5,C,REL,Trunk_Forward,1,R_LES,10.688474940109273,,3
BMu44,5,C,REL,Trunk_Forward,1,R_LES,10.235803098795186,,4
BMu44,6,C,INI,Trunk_Forward,1,L_LES,4.57506334403249,,1
BMu44,6,C,INI,Trunk_Forward,1,L_LES,4.478551168978238,,2
BMu44,6,C,INI,Trunk_Forward,1,L_LES,6.616146393090902,,3
BMu44,6,C,INI,Trunk_Forward,1,L_LES,,,4
BMu44,6,C,INI,Trunk_Forward,1,R_LES,4.707408550382873,,1
BMu44,6,C,INI,Trunk_Forward,1,R_LES,4.119533437764497,,2
BMu44,6,C,INI,Trunk_Forward,1,R_LES,5.50108731389678,,3
BMu44,6,C,INI,Trunk_Forward,1,R_LES,,,4
BMu44,6,C,REL,Trunk_Forward,1,L_LES,3.507325408950851,,1
BMu44,6,C,REL,Trunk_Forward,1,L_LES,3.703289321788895,,2
BMu44,6,C,REL,Trunk_Forward,1,L_LES,3.6546039930529224,,3
BMu44,6,C,REL,Trunk_Forward,1,R_LES,3.1355944669578113,,1
BMu44,6,C,REL,Trunk_Forward,1,R_LES,2.963588000592111,,2
BMu44,6,C,REL,Trunk_Forward,1,R_LES,3.4841778781503305,,3
BMu44,7,C,INI,Trunk_Forward,1,L_LES,4.566365702020624,,1
BMu44,7,C,INI,Trunk_Forward,1,L_LES,6.624225499215698,,2
BMu44,7,C,INI,Trunk_Forward,1,L_LES,7.856347414120283,,3
BMu44,7,C,INI,Trunk_Forward,1,R_LES,5.03884405040606,,1
BMu44,7,C,INI,Trunk_Forward,1,R_LES,6.7189338617633085,,2
BMu44,7,C,INI,Trunk_Forward,1,R_LES,10.271564977425578,,3
BMu44,7,C,REL,Trunk_Forward,1,L_LES,7.649199945791986,,1
BMu44,7,C,REL,Trunk_Forward,1,L_LES,16.348021056305083,,2
BMu44,7,C,REL,Trunk_Forward,1,L_LES,21.9987168635562,,3
BMu44,7,C,REL,Trunk_Forward,1,R_LES,10.412548325986561,,1
BMu44,7,C,REL,Trunk_Forward,1,R_LES,16.481943689274807,,2
BMu44,7,C,REL,Trunk_Forward,1,R_LES,16.48294350148372,,3
BMu44,8,C,INI,Trunk_Forward,1,L_LES,19.612396206636582,,1
BMu44,8,C,INI,Trunk_Forward,1,L_LES,15.501840012782928,,2
BMu44,8,C,INI,Trunk_Forward,1,L_LES,15.36194400713654,,3
BMu44,8,C,INI,Trunk_Forward,1,R_LES,12.658197839345952,,1
BMu44,8,C,INI,Trunk_Forward,1,R_LES,14.037818711317009,,2
BMu44,8,C,INI,Trunk_Forward,1,R_LES,15.82246483432392,,3
BMu44,8,C,REL,Trunk_Forward,1,L_LES,17.935242594283938,,1
BMu44,8,C,REL,Trunk_Forward,1,L_LES,15.996770850120166,,2
BMu44,8,C,REL,Trunk_Forward,1,L_LES,16.459021016366755,,3
BMu44,8,C,REL,Trunk_Forward,1,R_LES,11.217594405919856,,1
BMu44,8,C,REL,Trunk_Forward,1,R_LES,11.209646729002447,,2
BMu44,8,C,REL,Trunk_Forward,1,R_LES,11.960694786339346,,3
BMu44,9,P,INI,Trunk_Forward,1,L_LES,5.163087314899402,,1
BMu44,9,P,INI,Trunk_Forward,1,L_LES,14.92274608699001,,2
BMu44,9,P,INI,Trunk_Forward,1,L_LES,13.571003164843763,,3
BMu44,9,P,INI,Trunk_Forward,1,L_LES,,,4
BMu44,9,P,INI,Trunk_Forward,1,R_LES,3.701125226979135,,1
BMu44,9,P,INI,Trunk_Forward,1,R_LES,6.706375945104597,,2
BMu44,9,P,INI,Trunk_Forward,1,R_LES,8.999013582152644,,3
BMu44,9,P,INI,Trunk_Forward,1,R_LES,,,4
BMu44,9,P,REL,Trunk_Forward,1,L_LES,7.954535740123228,,1
BMu44,9,P,REL,Trunk_Forward,1,L_LES,14.0640059269991,,2
BMu44,9,P,REL,Trunk_Forward,1,L_LES,17.89060048143016,,3
BMu44,9,P,REL,Trunk_Forward,1,R_LES,4.37602304787049,,1
BMu44,9,P,REL,Trunk_Forward,1,R_LES,6.781313603373103,,2
BMu44,9,P,REL,Trunk_Forward,1,R_LES,9.965658280857191,,3
BMu44,10,P,INI,Trunk_Forward,1,L_LES,4.344421866535114,,1
BMu44,10,P,INI,Trunk_Forward,1,L_LES,11.84450972669574,,2
BMu44,10,P,INI,Trunk_Forward,1,L_LES,12.490362004839096,,3
BMu44,10,P,INI,Trunk_Forward,1,R_LES,5.0019513659950405,,1
BMu44,10,P,INI,Trunk_Forward,1,R_LES,9.079226619607438,,2
BMu44,10,P,INI,Trunk_Forward,1,R_LES,12.876786689377372,,3
BMu44,10,P,REL,Trunk_Forward,1,L_LES,3.4646747148169688,,1
BMu44,10,P,REL,Trunk_Forward,1,L_LES,10.596786091707873,,2
BMu44,10,P,REL,Trunk_Forward,1,L_LES,16.341794180244996,,3
BMu44,10,P,REL,Trunk_Forward,1,R_LES,4.244083245963527,,1
BMu44,10,P,REL,Trunk_Forward,1,R_LES,11.249135239334946,,2
BMu44,10,P,REL,Trunk_Forward,1,R_LES,14.500356334871503,,3
BMu44,11,P,INI,Trunk_Forward,1,L_LES,18.469669253688608,,1
BMu44,11,P,INI,Trunk_Forward,1,L_LES,20.273313035552754,,2
BMu44,11,P,INI,Trunk_Forward,1,L_LES,20.382908835772202,,3
BMu44,11,P,INI,Trunk_Forward,1,R_LES,5.379225614730958,,1
BMu44,11,P,INI,Trunk_Forward,1,R_LES,5.9937945532581915,,2
BMu44,11,P,INI,Trunk_Forward,1,R_LES,6.45067585831108,,3
BMu44,11,P,REL,Trunk_Forward,1,L_LES,27.33834102497682,,1
BMu44,11,P,REL,Trunk_Forward,1,L_LES,28.356903485598203,,2
BMu44,11,P,REL,Trunk_Forward,1,L_LES,31.275232371081117,,3
BMu44,11,P,REL,Trunk_Forward,1,R_LES,13.491905839366582,,1
BMu44,11,P,REL,Trunk_Forward,1,R_LES,17.586445807151595,,2
BMu44,11,P,REL,Trunk_Forward,1,R_LES,16.042857139594535,,3
BMu44,12,P,INI,Trunk_Forward,1,L_LES,3.4427424645503253,,1
BMu44,12,P,INI,Trunk_Forward,1,L_LES,3.7814551681802135,,2
BMu44,12,P,INI,Trunk_Forward,1,L_LES,3.6469072782024816,,3
BMu44,12,P,INI,Trunk_Forward,1,R_LES,4.849047983081831,,1
BMu44,12,P,INI,Trunk_Forward,1,R_LES,4.35829093532228,,2
BMu44,12,P,INI,Trunk_Forward,1,R_LES,4.3046117625066325,,3
BMu44,12,P,REL,Trunk_Forward,1,L_LES,2.7373443308007044,,1
BMu44,12,P,REL,Trunk_Forward,1,L_LES,3.271995886567447,,2
BMu44,12,P,REL,Trunk_Forward,1,L_LES,3.5626155381797644,,3
BMu44,12,P,REL,Trunk_Forward,1,R_LES,5.142719537352341,,1
BMu44,12,P,REL,Trunk_Forward,1,R_LES,4.5307299511394925,,2
BMu44,12,P,REL,Trunk_Forward,1,R_LES,5.329509486588198,,3
BMu44,13,C,INI,Trunk_Forward,1,L_LES,2.567819426934143,,1
BMu44,13,C,INI,Trunk_Forward,1,L_LES,4.547100223299695,,2
BMu44,13,C,INI,Trunk_Forward,1,L_LES,5.672974075842606,,3
BMu44,13,C,INI,Trunk_Forward,1,R_LES,2.7159744251001663,,1
BMu44,13,C,INI,Trunk_Forward,1,R_LES,5.748443340073603,,2
BMu44,13,C,INI,Trunk_Forward,1,R_LES,5.250778934166887,,3
BMu44,13,C,REL,Trunk_Forward,1,L_LES,4.350984500548114,,1
BMu44,13,C,REL,Trunk_Forward,1,L_LES,4.639073259225565,,2
BMu44,13,C,REL,Trunk_Forward,1,L_LES,5.045013243219286,,3
BMu44,13,C,REL,Trunk_Forward,1,R_LES,3.585728198213821,,1
BMu44,13,C,REL,Trunk_Forward,1,R_LES,2.6946070027078974,,2
BMu44,13,C,REL,Trunk_Forward,1,R_LES,4.564079323342605,,3
BMu44,14,P,INI,Trunk_Forward,1,L_LES,5.828790432887425,,1
BMu44,14,P,INI,Trunk_Forward,1,L_LES,7.505058967373989,,2
BMu44,14,P,INI,Trunk_Forward,1,L_LES,8.352767944498806,,3
BMu44,14,P,INI,Trunk_Forward,1,R_LES,3.1840409124858082,,1
BMu44,14,P,INI,Trunk_Forward,1,R_LES,3.430579194933581,,2
BMu44,14,P,INI,Trunk_Forward,1,R_LES,4.358075406991544,,3
BMu44,14,P,REL,Trunk_Forward,1,L_LES,5.854065388932607,,1
BMu44,14,P,REL,Trunk_Forward,1,L_LES,18.75494880571058,,2
BMu44,14,P,REL,Trunk_Forward,1,L_LES,26.095530542131762,,3
BMu44,14,P,REL,Trunk_Forward,1,L_LES,,,4
BMu44,14,P,REL,Trunk_Forward,1,R_LES,3.4304338365148372,,1
BMu44,14,P,REL,Trunk_Forward,1,R_LES,4.170546401217902,,2
BMu44,14,P,REL,Trunk_Forward,1,R_LES,4.866821449499421,,3
BMu44,14,P,REL,Trunk_Forward,1,R_LES,,,4
BMu44,16,C,INI,Trunk_Forward,1,L_LES,12.549088393153326,,1
BMu44,16,C,INI,Trunk_Forward,1,L_LES,11.660661695698604,,2
BMu44,16,C,INI,Trunk_Forward,1,L_LES,11.447196167285984,,3
BMu44,16,C,INI,Trunk_Forward,1,R_LES,8.143223933816152,,1
BMu44,16,C,INI,Trunk_Forward,1,R_LES,8.45640662473577,,2
BMu44,16,C,INI,Trunk_Forward,1,R_LES,8.458008126529602,,3
BMu44,16,C,REL,Trunk_Forward,1,L_LES,8.30484590533239,,1
BMu44,16,C,REL,Trunk_Forward,1,L_LES,7.55266733305781,,2
BMu44,16,C,REL,Trunk_Forward,1,L_LES,8.601563566686236,,3
BMu44,16,C,REL,Trunk_Forward,1,R_LES,6.368083007650176,,1
BMu44,16,C,REL,Trunk_Forward,1,R_LES,4.971806465488641,,2
BMu44,16,C,REL,Trunk_Forward,1,R_LES,5.959112369235912,,3
BMu44,17,P,INI,Trunk_Forward,1,L_LES,14.357277284627463,,1
BMu44,17,P,INI,Trunk_Forward,1,L_LES,13.387304491499453,,2
BMu44,17,P,INI,Trunk_Forward,1,L_LES,8.884352134068864,,3
BMu44,17,P,INI,Trunk_Forward,1,R_LES,15.537731549210134,,1
BMu44,17,P,INI,Trunk_Forward,1,R_LES,14.289978392899197,,2
BMu44,17,P,INI,Trunk_Forward,1,R_LES,9.0827740458931,,3
BMu44,17,P,REL,Trunk_Forward,1,L_LES,2.0029687253585706,,1
BMu44,17,P,REL,Trunk_Forward,1,L_LES,2.1029629441757067,,2
BMu44,17,P,REL,Trunk_Forward,1,L_LES,2.848349324935501,,3
BMu44,17,P,REL,Trunk_Forward,1,R_LES,2.4311985698336915,,1
BMu44,17,P,REL,Trunk_Forward,1,R_LES,2.4300420609183373,,2
BMu44,17,P,REL,Trunk_Forward,1,R_LES,3.4453528374883406,,3
BMu44,21,C,INI,Trunk_Forward,1,L_LES,7.550452147229318,,1
BMu44,21,C,INI,Trunk_Forward,1,L_LES,16.080699120883292,,2
BMu44,21,C,INI,Trunk_Forward,1,L_LES,9.422875427475455,,3
BMu44,21,C,INI,Trunk_Forward,1,R_LES,9.192392106961904,,1
BMu44,21,C,INI,Trunk_Forward,1,R_LES,11.085352844469227,,2
BMu44,21,C,INI,Trunk_Forward,1,R_LES,10.452215875169728,,3
BMu44,21,C,REL,Trunk_Forward,1,L_LES,14.697720558334153,,1
BMu44,21,C,REL,Trunk_Forward,1,L_LES,30.327998887412146,,2
BMu44,21,C,REL,Trunk_Forward,1,L_LES,28.20215187435419,,3
BMu44,21,C,REL,Trunk_Forward,1,R_LES,4.875227588814362,,1
BMu44,21,C,REL,Trunk_Forward,1,R_LES,12.59137880812752,,2
BMu44,21,C,REL,Trunk_Forward,1,R_LES,9.755081232728402,,3
BMu44,22,C,INI,Trunk_Forward,1,L_LES,12.070707350975033,,1
BMu44,22,C,INI,Trunk_Forward,1,L_LES,12.973264816247445,,2
BMu44,22,C,INI,Trunk_Forward,1,L_LES,11.114565291340197,,3
BMu44,22,C,INI,Trunk_Forward,1,R_LES,7.835304012306159,,1
BMu44,22,C,INI,Trunk_Forward,1,R_LES,5.973579941873168,,2
BMu44,22,C,INI,Trunk_Forward,1,R_LES,9.320408272250665,,3
BMu44,22,C,REL,Trunk_Forward,1,L_LES,5.775386983279901,,1
BMu44,22,C,REL,Trunk_Forward,1,L_LES,7.164707140347711,,2
BMu44,22,C,REL,Trunk_Forward,1,L_LES,7.4803561777125,,3
BMu44,22,C,REL,Trunk_Forward,1,R_LES,4.535334385775229,,1
BMu44,22,C,REL,Trunk_Forward,1,R_LES,10.4950292183049,,2
BMu44,22,C,REL,Trunk_Forward,1,R_LES,6.941482308719727,,3
BMu44,23,C,INI,Trunk_Forward,1,L_LES,6.248572201012343,,1
BMu44,23,C,INI,Trunk_Forward,1,L_LES,8.562528853071042,,2
BMu44,23,C,INI,Trunk_Forward,1,L_LES,9.11388526935079,,3
BMu44,23,C,INI,Trunk_Forward,1,R_LES,8.932887320342932,,1
BMu44,23,C,INI,Trunk_Forward,1,R_LES,10.975810759265107,,2
BMu44,23,C,INI,Trunk_Forward,1,R_LES,7.76221165414787,,3
BMu44,23,C,REL,Trunk_Forward,1,L_LES,8.43759471879096,,1
BMu44,23,C,REL,Trunk_Forward,1,L_LES,7.809165970849362,,2
BMu44,23,C,REL,Trunk_Forward,1,L_LES,8.47924510711872,,3
BMu44,23,C,REL,Trunk_Forward,1,R_LES,6.779560243887028,,1
BMu44,23,C,REL,Trunk_Forward,1,R_LES,7.816710739756269,,2
BMu44,23,C,REL,Trunk_Forward,1,R_LES,9.469702040215532,,3
BMu44,24,P,INI,Trunk_Forward,1,L_LES,2.177487175308601,,1
BMu44,24,P,INI,Trunk_Forward,1,L_LES,5.694228526822026,,2
BMu44,24,P,INI,Trunk_Forward,1,L_LES,11.417679808597505,,3
BMu44,24,P,INI,Trunk_Forward,1,R_LES,2.7760804734120543,,1
BMu44,24,P,INI,Trunk_Forward,1,R_LES,4.540993899253495,,2
BMu44,24,P,INI,Trunk_Forward,1,R_LES,6.819279517893199,,3
BMu44,24,P,REL,Trunk_Forward,1,L_LES,2.3156035395735874,,1
BMu44,24,P,REL,Trunk_Forward,1,L_LES,3.7529814491590043,,2
BMu44,24,P,REL,Trunk_Forward,1,L_LES,4.550738147809263,,3
BMu44,24,P,REL,Trunk_Forward,1,R_LES,2.2679303896438716,,1
BMu44,24,P,REL,Trunk_Forward,1,R_LES,3.4042192262003863,,2
BMu44,24,P,REL,Trunk_Forward,1,R_LES,3.65399652998795,,3
BMu44,25,C,INI,Trunk_Forward,1,L_LES,6.193358170101917,,1
BMu44,25,C,INI,Trunk_Forward,1,L_LES,22.25754281380503,,2
BMu44,25,C,INI,Trunk_Forward,1,L_LES,32.034784387929015,,3
BMu44,25,C,INI,Trunk_Forward,1,R_LES,5.935159747428811,,1
BMu44,25,C,INI,Trunk_Forward,1,R_LES,10.42093397271505,,2
BMu44,25,C,INI,Trunk_Forward,1,R_LES,13.863854734068884,,3
BMu44,25,C,REL,Trunk_Forward,1,L_LES,3.345126068050456,,1
BMu44,25,C,REL,Trunk_Forward,1,L_LES,5.334517124980435,,2
BMu44,25,C,REL,Trunk_Forward,1,L_LES,16.65321475560962,,3
BMu44,25,C,REL,Trunk_Forward,1,R_LES,4.652129271432064,,1
BMu44,25,C,REL,Trunk_Forward,1,R_LES,7.135625798100388,,2
BMu44,25,C,REL,Trunk_Forward,1,R_LES,12.838815648733458,,3
BMu44,26,P,INI,Trunk_Forward,1,L_LES,6.310758994270178,,1
BMu44,26,P,INI,Trunk_Forward,1,L_LES,7.955797485611592,,2
BMu44,26,P,INI,Trunk_Forward,1,L_LES,8.168109944670377,,3
BMu44,26,P,INI,Trunk_Forward,1,R_LES,4.40547141909947,,1
BMu44,26,P,INI,Trunk_Forward,1,R_LES,7.328865141588448,,2
BMu44,26,P,INI,Trunk_Forward,1,R_LES,8.040203929127413,,3
BMu44,26,P,REL,Trunk_Forward,1,L_LES,4.04025921001611,,1
BMu44,26,P,REL,Trunk_Forward,1,L_LES,8.48026410108743,,2
BMu44,26,P,REL,Trunk_Forward,1,L_LES,7.948718097669151,,3
BMu44,26,P,REL,Trunk_Forward,1,R_LES,8.355471179002771,,1
BMu44,26,P,REL,Trunk_Forward,1,R_LES,8.64938255467183,,2
BMu44,26,P,REL,Trunk_Forward,1,R_LES,6.043592258232711,,3
BMu44,27,P,INI,Trunk_Forward,1,L_LES,5.5146946987744885,,1
BMu44,27,P,INI,Trunk_Forward,1,L_LES,5.921729108358715,,2
BMu44,27,P,INI,Trunk_Forward,1,L_LES,5.519869278644186,,3
BMu44,27,P,INI,Trunk_Forward,1,R_LES,2.660286524639861,,1
BMu44,27,P,INI,Trunk_Forward,1,R_LES,3.311622178254936,,2
BMu44,27,P,INI,Trunk_Forward,1,R_LES,5.4065511636907475,,3
BMu44,27,P,REL,Trunk_Forward,1,L_LES,3.048713835571077,,1
BMu44,27,P,REL,Trunk_Forward,1,L_LES,3.972382246878345,,2
BMu44,27,P,REL,Trunk_Forward,1,L_LES,3.0216468210940057,,3
BMu44,27,P,REL,Trunk_Forward,1,L_LES,,,4
BMu44,27,P,REL,Trunk_Forward,1,R_LES,2.6301767567517484,,1
BMu44,27,P,REL,Trunk_Forward,1,R_LES,2.9051511170071493,,2
BMu44,27,P,REL,Trunk_Forward,1,R_LES,2.8896595287819054,,3
BMu44,27,P,REL,Trunk_Forward,1,R_LES,,,4
BMu44,28,P,INI,Trunk_Forward,1,L_LES,2.4747048802930114,,1
BMu44,28,P,INI,Trunk_Forward,1,L_LES,3.94376673166179,,2
BMu44,28,P,INI,Trunk_Forward,1,L_LES,5.738785600541274,,3
BMu44,28,P,INI,Trunk_Forward,1,R_LES,1.6931448133896931,,1
BMu44,28,P,INI,Trunk_Forward,1,R_LES,3.6457497617472474,,2
BMu44,28,P,INI,Trunk_Forward,1,R_LES,4.204364900971762,,3
BMu44,28,P,REL,Trunk_Forward,1,L_LES,1.6987368323893066,,1
BMu44,28,P,REL,Trunk_Forward,1,L_LES,2.4216588893959305,,2
BMu44,28,P,REL,Trunk_Forward,1,L_LES,2.8429395910496975,,3
BMu44,28,P,REL,Trunk_Forward,1,R_LES,1.3514057055183821,,1
BMu44,28,P,REL,Trunk_Forward,1,R_LES,1.755549935465864,,2
BMu44,28,P,REL,Trunk_Forward,1,R_LES,2.1294218858000056,,3
BMu44,29,P,INI,Trunk_Forward,1,L_LES,7.120496289412082,,1
BMu44,29,P,INI,Trunk_Forward,1,L_LES,14.131560565483557,,2
BMu44,29,P,INI,Trunk_Forward,1,L_LES,9.307864156020383,,3
BMu44,29,P,INI,Trunk_Forward,1,R_LES,8.061096565124913,,1
BMu44,29,P,INI,Trunk_Forward,1,R_LES,10.0113187392904,,2
BMu44,29,P,INI,Trunk_Forward,1,R_LES,10.578391057154844,,3
BMu44,29,P,REL,Trunk_Forward,1,L_LES,10.595219234281519,,1
BMu44,29,P,REL,Trunk_Forward,1,L_LES,21.440885003790164,,2
BMu44,29,P,REL,Trunk_Forward,1,L_LES,23.54896887488788,,3
BMu44,29,P,REL,Trunk_Forward,1,R_LES,16.576413162014376,,1
BMu44,29,P,REL,Trunk_Forward,1,R_LES,19.405747994215886,,2
BMu44,29,P,REL,Trunk_Forward,1,R_LES,22.5474992055457,,3
BMu44,30,P,INI,Trunk_Forward,1,L_LES,3.2618300929940283,,1
BMu44,30,P,INI,Trunk_Forward,1,L_LES,2.97014450184203,,2
BMu44,30,P,INI,Trunk_Forward,1,L_LES,3.0840385137936552,,3
BMu44,30,P,INI,Trunk_Forward,1,R_LES,3.4206325098661154,,1
BMu44,30,P,INI,Trunk_Forward,1,R_LES,3.280815983632903,,2
BMu44,30,P,INI,Trunk_Forward,1,R_LES,3.1863613312429564,,3
BMu44,30,P,REL,Trunk_Forward,1,L_LES,1.9342283629556298,,1
BMu44,30,P,REL,Trunk_Forward,1,L_LES,2.3514086223782034,,2
BMu44,30,P,REL,Trunk_Forward,1,L_LES,2.7702364209749675,,3
BMu44,30,P,REL,Trunk_Forward,1,R_LES,3.209224592129554,,1
BMu44,30,P,REL,Trunk_Forward,1,R_LES,3.848979810532404,,2
BMu44,30,P,REL,Trunk_Forward,1,R_LES,3.7333998178656693,,3
BMu44,32,P,INI,Trunk_Forward,1,L_LES,6.518296617795035,,1
BMu44,32,P,INI,Trunk_Forward,1,L_LES,5.106649444957048,,2
BMu44,32,P,INI,Trunk_Forward,1,L_LES,8.429620607959617,,3
BMu44,32,P,INI,Trunk_Forward,1,R_LES,4.036254322397504,,1
BMu44,32,P,INI,Trunk_Forward,1,R_LES,2.9866974359331544,,2
BMu44,32,P,INI,Trunk_Forward,1,R_LES,4.608383059182726,,3
BMu44,32,P,REL,Trunk_Forward,1,L_LES,6.389089137713403,,1
BMu44,32,P,REL,Trunk_Forward,1,L_LES,4.111796702358981,,2
BMu44,32,P,REL,Trunk_Forward,1,L_LES,8.573045181264552,,3
BMu44,32,P,REL,Trunk_Forward,1,L_LES,9.885976083791457,,4
BMu44,32,P,REL,Trunk_Forward,1,R_LES,3.379318266392997,,1
BMu44,32,P,REL,Trunk_Forward,1,R_LES,3.000665974722113,,2
BMu44,32,P,REL,Trunk_Forward,1,R_LES,5.466403044740457,,3
BMu44,32,P,REL,Trunk_Forward,1,R_LES,5.442784985676695,,4
BMu44,33,P,INI,Trunk_Forward,1,L_LES,2.2574660653318186,,1
BMu44,33,P,INI,Trunk_Forward,1,L_LES,2.547786796020736,,2
BMu44,33,P,INI,Trunk_Forward,1,L_LES,3.0447456405034274,,3
BMu44,33,P,INI,Trunk_Forward,1,L_LES,2.2588099005943514,,4
BMu44,33,P,INI,Trunk_Forward,1,R_LES,2.437142376398758,,1
BMu44,33,P,INI,Trunk_Forward,1,R_LES,2.463686968643475,,2
BMu44,33,P,INI,Trunk_Forward,1,R_LES,3.4430952809492337,,3
BMu44,33,P,INI,Trunk_Forward,1,R_LES,3.3289392323501157,,4
BMu44,33,P,REL,Trunk_Forward,1,L_LES,1.7255884201356828,,1
BMu44,33,P,REL,Trunk_Forward,1,L_LES,1.897848945594361,,2
BMu44,33,P,REL,Trunk_Forward,1,L_LES,1.7508175889238016,,3
BMu44,33,P,REL,Trunk_Forward,1,R_LES,2.063445100228112,,1
BMu44,33,P,REL,Trunk_Forward,1,R_LES,2.057375883605973,,2
BMu44,33,P,REL,Trunk_Forward,1,R_LES,2.2859914582007126,,3
BMu44,34,P,INI,Trunk_Forward,1,L_LES,8.554448374225235,,1
BMu44,34,P,INI,Trunk_Forward,1,L_LES,7.0326178553927265,,2
BMu44,34,P,INI,Trunk_Forward,1,L_LES,6.375016384546011,,3
BMu44,34,P,INI,Trunk_Forward,1,R_LES,7.8682669560730965,,1
BMu44,34,P,INI,Trunk_Forward,1,R_LES,5.550168738594637,,2
BMu44,34,P,INI,Trunk_Forward,1,R_LES,6.577021809719613,,3
BMu44,34,P,REL,Trunk_Forward,1,L_LES,13.733562889925967,,1
BMu44,34,P,REL,Trunk_Forward,1,L_LES,10.617858652620745,,2
BMu44,34,P,REL,Trunk_Forward,1,L_LES,10.35039296333814,,3
BMu44,34,P,REL,Trunk_Forward,1,R_LES,11.562855693763105,,1
BMu44,34,P,REL,Trunk_Forward,1,R_LES,9.62147699344971,,2
BMu44,34,P,REL,Trunk_Forward,1,R_LES,10.995626917330082,,3
BMu44,35,C,INI,Trunk_Forward,1,L_LES,13.653422464458638,,1
BMu44,35,C,INI,Trunk_Forward,1,L_LES,19.38322316058139,,2
BMu44,35,C,INI,Trunk_Forward,1,L_LES,16.70687895046368,,3
BMu44,35,C,INI,Trunk_Forward,1,R_LES,9.366968230072919,,1
BMu44,35,C,INI,Trunk_Forward,1,R_LES,15.715739179981806,,2
BMu44,35,C,INI,Trunk_Forward,1,R_LES,17.660853098638967,,3
BMu44,35,C,REL,Trunk_Forward,1,L_LES,24.60767157402199,,1
BMu44,35,C,REL,Trunk_Forward,1,L_LES,25.16558966996894,,2
BMu44,35,C,REL,Trunk_Forward,1,L_LES,24.036279214068287,,3
BMu44,35,C,REL,Trunk_Forward,1,R_LES,15.515727938959296,,1
BMu44,35,C,REL,Trunk_Forward,1,R_LES,16.727490539669027,,2
BMu44,35,C,REL,Trunk_Forward,1,R_LES,15.958829979249716,,3
BMu44,36,P,INI,Trunk_Forward,1,L_LES,1.5889520826674406,,1
BMu44,36,P,INI,Trunk_Forward,1,L_LES,2.0203573584148473,,2
BMu44,36,P,INI,Trunk_Forward,1,L_LES,1.91553662225968,,3
BMu44,36,P,INI,Trunk_Forward,1,R_LES,3.622480948504403,,1
BMu44,36,P,INI,Trunk_Forward,1,R_LES,3.9764006173665414,,2
BMu44,36,P,INI,Trunk_Forward,1,R_LES,3.7078223476842305,,3
BMu44,36,P,REL,Trunk_Forward,1,L_LES,1.2773263452538506,,1
BMu44,36,P,REL,Trunk_Forward,1,L_LES,1.4935846338738221,,2
BMu44,36,P,REL,Trunk_Forward,1,L_LES,1.4377581343354586,,3
BMu44,36,P,REL,Trunk_Forward,1,R_LES,2.2784816600547644,,1
BMu44,36,P,REL,Trunk_Forward,1,R_LES,2.539275177339368,,2
BMu44,36,P,REL,Trunk_Forward,1,R_LES,2.4115829979010477,,3
BMu44,38,C,INI,Trunk_Forward,1,L_LES,17.318566873160044,,1
BMu44,38,C,INI,Trunk_Forward,1,L_LES,12.636087902524986,,2
BMu44,38,C,INI,Trunk_Forward,1,L_LES,9.702272369831045,,3
BMu44,38,C,INI,Trunk_Forward,1,R_LES,9.238029461719805,,1
BMu44,38,C,INI,Trunk_Forward,1,R_LES,11.813971139244956,,2
BMu44,38,C,INI,Trunk_Forward,1,R_LES,9.008020942948331,,3
BMu44,38,C,REL,Trunk_Forward,1,L_LES,4.831968485054155,,1
BMu44,38,C,REL,Trunk_Forward,1,L_LES,10.04808989482567,,2
BMu44,38,C,REL,Trunk_Forward,1,L_LES,11.543558863621236,,3
BMu44,38,C,REL,Trunk_Forward,1,R_LES,12.620282032498109,,1
BMu44,38,C,REL,Trunk_Forward,1,R_LES,10.636985311781347,,2
BMu44,38,C,REL,Trunk_Forward,1,R_LES,12.193759088659958,,3
BMu44,39,C,INI,Trunk_Forward,1,L_LES,10.24074530481867,,1
BMu44,39,C,INI,Trunk_Forward,1,L_LES,9.169861228240569,,2
BMu44,39,C,INI,Trunk_Forward,1,L_LES,9.91874710150608,,3
BMu44,39,C,INI,Trunk_Forward,1,R_LES,11.668828878842675,,1
BMu44,39,C,INI,Trunk_Forward,1,R_LES,11.02414575595892,,2
BMu44,39,C,INI,Trunk_Forward,1,R_LES,13.926950848394005,,3
BMu44,39,C,REL,Trunk_Forward,1,L_LES,2.6518331232073287,,1
BMu44,39,C,REL,Trunk_Forward,1,L_LES,7.196350117122446,,2
BMu44,39,C,REL,Trunk_Forward,1,L_LES,7.671974087305479,,3
BMu44,39,C,REL,Trunk_Forward,1,R_LES,4.578782275136433,,1
BMu44,39,C,REL,Trunk_Forward,1,R_LES,5.655559487648597,,2
BMu44,39,C,REL,Trunk_Forward,1,R_LES,4.896016433007952,,3
BMu44,40,C,INI,Trunk_Forward,1,L_LES,19.089121605768042,,1
BMu44,40,C,INI,Trunk_Forward,1,L_LES,18.82724886287291,,2
BMu44,40,C,INI,Trunk_Forward,1,L_LES,17.78275179366231,,3
BMu44,40,C,INI,Trunk_Forward,1,R_LES,7.684689768469377,,1
BMu44,40,C,INI,Trunk_Forward,1,R_LES,12.92876503987689,,2
BMu44,40,C,INI,Trunk_Forward,1,R_LES,10.061012391542638,,3
BMu44,40,C,REL,Trunk_Forward,1,L_LES,7.113727700547194,,1
BMu44,40,C,REL,Trunk_Forward,1,L_LES,9.97515161794538,,2
BMu44,40,C,REL,Trunk_Forward,1,L_LES,10.204210684313766,,3
BMu44,40,C,REL,Trunk_Forward,1,R_LES,5.038311969276358,,1
BMu44,40,C,REL,Trunk_Forward,1,R_LES,9.478835070299473,,2
BMu44,40,C,REL,Trunk_Forward,1,R_LES,11.163790693913224,,3
BMu44,41,P,INI,Trunk_Forward,1,L_LES,5.599943191714437,,1
BMu44,41,P,INI,Trunk_Forward,1,L_LES,10.612729956679301,,2
BMu44,41,P,INI,Trunk_Forward,1,L_LES,17.710914024494485,,3
BMu44,41,P,INI,Trunk_Forward,1,R_LES,20.3305803395125,,1
BMu44,41,P,INI,Trunk_Forward,1,R_LES,18.378501587257094,,2
BMu44,41,P,INI,Trunk_Forward,1,R_LES,23.2355973212711,,3
BMu44,41,P,REL,Trunk_Forward,1,L_LES,4.070000860125623,,1
BMu44,41,P,REL,Trunk_Forward,1,L_LES,10.368248824709772,,2
BMu44,41,P,REL,Trunk_Forward,1,L_LES,11.796167821318916,,3
BMu44,41,P,REL,Trunk_Forward,1,R_LES,15.142594706331456,,1
BMu44,41,P,REL,Trunk_Forward,1,R_LES,18.79346807577118,,2
BMu44,41,P,REL,Trunk_Forward,1,R_LES,22.438615310628727,,3
BMu44,42,P,INI,Trunk_Forward,1,L_LES,6.431286612275469,,1
BMu44,42,P,INI,Trunk_Forward,1,L_LES,9.945670898175702,,2
BMu44,42,P,INI,Trunk_Forward,1,L_LES,9.422396637686392,,3
BMu44,42,P,INI,Trunk_Forward,1,R_LES,12.400091786965852,,1
BMu44,42,P,INI,Trunk_Forward,1,R_LES,16.259160444024083,,2
BMu44,42,P,INI,Trunk_Forward,1,R_LES,22.62158583490308,,3
BMu44,42,P,REL,Trunk_Forward,1,L_LES,7.438831318489732,,1
BMu44,42,P,REL,Trunk_Forward,1,L_LES,13.064875168763784,,2
BMu44,42,P,REL,Trunk_Forward,1,L_LES,13.520812897619344,,3
BMu44,42,P,REL,Trunk_Forward,1,R_LES,16.908801069554656,,1
BMu44,42,P,REL,Trunk_Forward,1,R_LES,30.498289675718,,2
BMu44,42,P,REL,Trunk_Forward,1,R_LES,30.7154831683188,,3
BMu44,43,P,INI,Trunk_Forward,1,L_LES,16.149635823294535,,1
BMu44,43,P,INI,Trunk_Forward,1,L_LES,21.785149943580358,,2
BMu44,43,P,INI,Trunk_Forward,1,L_LES,19.246445283323016,,3
BMu44,43,P,INI,Trunk_Forward,1,R_LES,7.868779910762368,,1
BMu44,43,P,INI,Trunk_Forward,1,R_LES,10.392728722515987,,2
BMu44,43,P,INI,Trunk_Forward,1,R_LES,10.746286906708933,,3
BMu44,43,P,REL,Trunk_Forward,1,L_LES,12.902739854990937,,1
BMu44,43,P,REL,Trunk_Forward,1,L_LES,12.26870428741656,,2
BMu44,43,P,REL,Trunk_Forward,1,L_LES,15.204193914411386,,3
BMu44,43,P,REL,Trunk_Forward,1,R_LES,17.02311778305612,,1
BMu44,43,P,REL,Trunk_Forward,1,R_LES,16.26004571411367,,2
BMu44,43,P,REL,Trunk_Forward,1,R_LES,9.78324125089534,,3
BMu44,44,C,INI,Trunk_Forward,1,L_LES,19.10331846160767,,1
BMu44,44,C,INI,Trunk_Forward,1,L_LES,23.243830557880553,,2
BMu44,44,C,INI,Trunk_Forward,1,L_LES,27.22521475792094,,3
BMu44,44,C,INI,Trunk_Forward,1,R_LES,25.265329820295946,,1
BMu44,44,C,INI,Trunk_Forward,1,R_LES,27.687263134847136,,2
BMu44,44,C,INI,Trunk_Forward,1,R_LES,31.78365294210621,,3
BMu44,44,C,REL,Trunk_Forward,1,L_LES,21.563484522399644,,1
BMu44,44,C,REL,Trunk_Forward,1,L_LES,23.022537764474624,,2
BMu44,44,C,REL,Trunk_Forward,1,L_LES,22.101577398351573,,3
BMu44,44,C,REL,Trunk_Forward,1,R_LES,31.4557427514441,,1
BMu44,44,C,REL,Trunk_Forward,1,R_LES,32.990157692686374,,2
BMu44,44,C,REL,Trunk_Forward,1,R_LES,29.79882624910183,,3
BMu44,45,P,INI,Trunk_Forward,1,L_LES,5.7213935889632275,,1
BMu44,45,P,INI,Trunk_Forward,1,L_LES,8.414668926246447,,2
BMu44,45,P,INI,Trunk_Forward,1,L_LES,10.73223188870165,,3
BMu44,45,P,INI,Trunk_Forward,1,R_LES,4.204208284522786,,1
BMu44,45,P,INI,Trunk_Forward,1,R_LES,4.384251247772278,,2
BMu44,45,P,INI,Trunk_Forward,1,R_LES,6.392703985655665,,3
BMu44,45,P,REL,Trunk_Forward,1,L_LES,5.524954471664037,,1
BMu44,45,P,REL,Trunk_Forward,1,L_LES,5.778529321768195,,2
BMu44,45,P,REL,Trunk_Forward,1,L_LES,6.680356885033151,,3
BMu44,45,P,REL,Trunk_Forward,1,R_LES,4.864517513809355,,1
BMu44,45,P,REL,Trunk_Forward,1,R_LES,5.944342975727169,,2
BMu44,45,P,REL,Trunk_Forward,1,R_LES,6.377716138511878,,3
BMu44,46,C,INI,Trunk_Forward,1,L_LES,6.739656674033821,,1
BMu44,46,C,INI,Trunk_Forward,1,L_LES,13.842132670453342,,2
BMu44,46,C,INI,Trunk_Forward,1,L_LES,8.07168263066466,,3
BMu44,46,C,INI,Trunk_Forward,1,R_LES,6.292916398565151,,1
BMu44,46,C,INI,Trunk_Forward,1,R_LES,4.7960287569296005,,2
BMu44,46,C,INI,Trunk_Forward,1,R_LES,4.41082760545195,,3
BMu44,46,C,REL,Trunk_Forward,1,L_LES,3.409208612402949,,1
BMu44,46,C,REL,Trunk_Forward,1,L_LES,4.636766793180168,,2
BMu44,46,C,REL,Trunk_Forward,1,L_LES,6.554135373273738,,3
BMu44,46,C,REL,Trunk_Forward,1,R_LES,6.873143809087643,,1
BMu44,46,C,REL,Trunk_Forward,1,R_LES,10.525498616766404,,2
BMu44,46,C,REL,Trunk_Forward,1,R_LES,4.291831298623389,,3
BMu44,47,P,INI,Trunk_Forward,1,L_LES,1.7697421465292025,,1
BMu44,47,P,INI,Trunk_Forward,1,L_LES,1.3086391779244941,,2
BMu44,47,P,INI,Trunk_Forward,1,L_LES,2.026715173123144,,3
BMu44,47,P,INI,Trunk_Forward,1,R_LES,2.6951207714125474,,1
BMu44,47,P,INI,Trunk_Forward,1,R_LES,1.7336221049981648,,2
BMu44,47,P,INI,Trunk_Forward,1,R_LES,2.6163845628402917,,3
BMu44,47,P,REL,Trunk_Forward,1,L_LES,2.0490447160273457,,1
BMu44,47,P,REL,Trunk_Forward,1,L_LES,2.5351871592494217,,2
BMu44,47,P,REL,Trunk_Forward,1,L_LES,2.496526508494489,,3
BMu44,47,P,REL,Trunk_Forward,1,R_LES,3.0044807104421687,,1
BMu44,47,P,REL,Trunk_Forward,1,R_LES,3.3438398950468855,,2
BMu44,47,P,REL,Trunk_Forward,1,R_LES,3.2532396105165353,,3
BMu44,48,C,INI,Trunk_Forward,1,L_LES,19.478062528551064,,1
BMu44,48,C,INI,Trunk_Forward,1,L_LES,20.468148629496184,,2
BMu44,48,C,INI,Trunk_Forward,1,L_LES,15.322856037521865,,3
BMu44,48,C,INI,Trunk_Forward,1,R_LES,19.332780054400217,,1
BMu44,48,C,INI,Trunk_Forward,1,R_LES,23.032382380256887,,2
BMu44,48,C,INI,Trunk_Forward,1,R_LES,13.160936613420745,,3
BMu44,48,C,REL,Trunk_Forward,1,L_LES,18.904275663351637,,1
BMu44,48,C,REL,Trunk_Forward,1,L_LES,22.438139446174254,,2
BMu44,48,C,REL,Trunk_Forward,1,L_LES,24.062662167338956,,3
BMu44,48,C,REL,Trunk_Forward,1,R_LES,15.136056404551319,,1
BMu44,48,C,REL,Trunk_Forward,1,R_LES,23.300722582676027,,2
BMu44,48,C,REL,Trunk_Forward,1,R_LES,23.109617337652793,,3
BMu44,49,C,INI,Trunk_Forward,1,L_LES,10.550931418913345,,1
BMu44,49,C,INI,Trunk_Forward,1,L_LES,15.295765000340849,,2
BMu44,49,C,INI,Trunk_Forward,1,L_LES,16.83163087386126,,3
BMu44,49,C,INI,Trunk_Forward,1,R_LES,21.57125908075618,,1
BMu44,49,C,INI,Trunk_Forward,1,R_LES,18.664517243381983,,2
BMu44,49,C,INI,Trunk_Forward,1,R_LES,24.983661855571125,,3
BMu44,49,C,REL,Trunk_Forward,1,L_LES,11.552784102503376,,1
BMu44,49,C,REL,Trunk_Forward,1,L_LES,14.707082073571206,,2
BMu44,49,C,REL,Trunk_Forward,1,L_LES,12.783340722814833,,3
BMu44,49,C,REL,Trunk_Forward,1,R_LES,21.76503734872226,,1
BMu44,49,C,REL,Trunk_Forward,1,R_LES,22.338375668686638,,2
BMu44,49,C,REL,Trunk_Forward,1,R_LES,22.388461444192256,,3
BMu44,50,P,INI,Trunk_Forward,1,L_LES,7.852558518414767,,1
BMu44,50,P,INI,Trunk_Forward,1,L_LES,11.361978215670932,,2
BMu44,50,P,INI,Trunk_Forward,1,L_LES,,,3
BMu44,50,P,INI,Trunk_Forward,1,R_LES,7.873170414437164,,1
BMu44,50,P,INI,Trunk_Forward,1,R_LES,7.323591702940568,,2
BMu44,50,P,INI,Trunk_Forward,1,R_LES,,,3
BMu44,50,P,REL,Trunk_Forward,1,L_LES,2.499276452098283,,1
BMu44,50,P,REL,Trunk_Forward,1,L_LES,2.1383778541674636,,2
BMu44,50,P,REL,Trunk_Forward,1,L_LES,2.2844787664187867,,3
BMu44,50,P,REL,Trunk_Forward,1,R_LES,2.389824773552558,,1
BMu44,50,P,REL,Trunk_Forward,1,R_LES,2.3622076610149536,,2
BMu44,50,P,REL,Trunk_Forward,1,R_LES,2.510005515113096,,3
BMu44,51,P,INI,Trunk_Forward,1,L_LES,1.6314973537832322,,1
BMu44,51,P,INI,Trunk_Forward,1,L_LES,2.198291120737468,,2
BMu44,51,P,INI,Trunk_Forward,1,L_LES,1.816650065358928,,3
BMu44,51,P,INI,Trunk_Forward,1,R_LES,1.761858816488448,,1
BMu44,51,P,INI,Trunk_Forward,1,R_LES,2.346216328767294,,2
BMu44,51,P,INI,Trunk_Forward,1,R_LES,4.6123058033276365,,3
BMu44,51,P,REL,Trunk_Forward,1,L_LES,2.2196957815256417,,1
BMu44,51,P,REL,Trunk_Forward,1,L_LES,2.281474096537335,,2
BMu44,51,P,REL,Trunk_Forward,1,L_LES,5.265161762021712,,3
BMu44,51,P,REL,Trunk_Forward,1,R_LES,2.640852756483002,,1
BMu44,51,P,REL,Trunk_Forward,1,R_LES,2.8748443447076277,,2
BMu44,51,P,REL,Trunk_Forward,1,R_LES,7.9570445134457595,,3
BMu44,52,C,INI,Trunk_Forward,1,L_LES,19.85489175431535,,1
BMu44,52,C,INI,Trunk_Forward,1,L_LES,21.01684337986344,,2
BMu44,52,C,INI,Trunk_Forward,1,L_LES,20.556151785810822,,3
BMu44,52,C,INI,Trunk_Forward,1,R_LES,13.73487881628322,,1
BMu44,52,C,INI,Trunk_Forward,1,R_LES,11.073202833998728,,2
BMu44,52,C,INI,Trunk_Forward,1,R_LES,18.697125089521077,,3
BMu44,52,C,REL,Trunk_Forward,1,L_LES,12.424629866147377,,1
BMu44,52,C,REL,Trunk_Forward,1,L_LES,22.26703739617045,,2
BMu44,52,C,REL,Trunk_Forward,1,L_LES,20.57559083604457,,3
BMu44,52,C,REL,Trunk_Forward,1,R_LES,9.59969505024854,,1
BMu44,52,C,REL,Trunk_Forward,1,R_LES,22.003036146909352,,2
BMu44,52,C,REL,Trunk_Forward,1,R_LES,20.229192758477097,,3
BMu44,53,P,INI,Trunk_Forward,1,L_LES,1.6067990640017598,,1
BMu44,53,P,INI,Trunk_Forward,1,L_LES,1.664625796236872,,2
BMu44,53,P,INI,Trunk_Forward,1,L_LES,,,3
BMu44,53,P,INI,Trunk_Forward,1,R_LES,1.3611966655506715,,1
BMu44,53,P,INI,Trunk_Forward,1,R_LES,1.5804334668471827,,2
BMu44,53,P,INI,Trunk_Forward,1,R_LES,,,3
BMu44,53,P,REL,Trunk_Forward,1,L_LES,2.077855136256043,,1
BMu44,53,P,REL,Trunk_Forward,1,L_LES,2.527939474083876,,2
BMu44,53,P,REL,Trunk_Forward,1,L_LES,2.366137368936329,,3
BMu44,53,P,REL,Trunk_Forward,1,R_LES,1.8012148319181405,,1
BMu44,53,P,REL,Trunk_Forward,1,R_LES,2.2011106875224407,,2
BMu44,53,P,REL,Trunk_Forward,1,R_LES,2.1087649751659767,,3
BMu44,54,P,INI,Trunk_Forward,1,L_LES,16.781420829606184,,1
BMu44,54,P,INI,Trunk_Forward,1,L_LES,23.433385975872078,,2
BMu44,54,P,INI,Trunk_Forward,1,L_LES,21.07428082044658,,3
BMu44,54,P,INI,Trunk_Forward,1,R_LES,15.549010050746553,,1
BMu44,54,P,INI,Trunk_Forward,1,R_LES,18.294433412264173,,2
BMu44,54,P,INI,Trunk_Forward,1,R_LES,17.344440168500935,,3
BMu44,54,P,REL,Trunk_Forward,1,L_LES,19.11875526573079,,1
BMu44,54,P,REL,Trunk_Forward,1,L_LES,20.10433997146897,,2
BMu44,54,P,REL,Trunk_Forward,1,L_LES,17.658649554235126,,3
BMu44,54,P,REL,Trunk_Forward,1,R_LES,15.328483023357599,,1
BMu44,54,P,REL,Trunk_Forward,1,R_LES,14.854072766498662,,2
BMu44,54,P,REL,Trunk_Forward,1,R_LES,14.687629991580833,,3
BMu44,55,C,INI,Trunk_Forward,1,L_LES,8.342501211754058,,1
BMu44,55,C,INI,Trunk_Forward,1,L_LES,20.813723500213182,,2
BMu44,55,C,INI,Trunk_Forward,1,L_LES,19.275848233978405,,3
BMu44,55,C,INI,Trunk_Forward,1,R_LES,5.755510850853369,,1
BMu44,55,C,INI,Trunk_Forward,1,R_LES,10.982080035269073,,2
BMu44,55,C,INI,Trunk_Forward,1,R_LES,12.301871967957771,,3
BMu44,55,C,REL,Trunk_Forward,1,L_LES,10.125555641569834,,1
BMu44,55,C,REL,Trunk_Forward,1,L_LES,11.800506054067544,,2
BMu44,55,C,REL,Trunk_Forward,1,L_LES,11.871683771874677,,3
BMu44,55,C,REL,Trunk_Forward,1,R_LES,9.43601604872965,,1
BMu44,55,C,REL,Trunk_Forward,1,R_LES,10.969473378176426,,2
BMu44,55,C,REL,Trunk_Forward,1,R_LES,13.644242303873112,,3
BMu44,56,C,INI,Trunk_Forward,1,L_LES,8.20442847796463,,1
BMu44,56,C,INI,Trunk_Forward,1,L_LES,7.899591631095486,,2
BMu44,56,C,INI,Trunk_Forward,1,L_LES,11.076113704203971,,3
BMu44,56,C,INI,Trunk_Forward,1,R_LES,5.285988793683916,,1
BMu44,56,C,INI,Trunk_Forward,1,R_LES,8.584307275956697,,2
BMu44,56,C,INI,Trunk_Forward,1,R_LES,9.497852882030173,,3
BMu44,56,C,REL,Trunk_Forward,1,L_LES,5.2178482513248,,1
BMu44,56,C,REL,Trunk_Forward,1,L_LES,6.318495795844447,,2
BMu44,56,C,REL,Trunk_Forward,1,L_LES,8.430812452176871,,3
BMu44,56,C,REL,Trunk_Forward,1,R_LES,2.9331596847328782,,1
BMu44,56,C,REL,Trunk_Forward,1,R_LES,6.673470383934142,,2
BMu44,56,C,REL,Trunk_Forward,1,R_LES,6.532783131961153,,3
BMu44,57,C,INI,Trunk_Forward,1,L_LES,3.711920281576439,,1
BMu44,57,C,INI,Trunk_Forward,1,L_LES,20.219619369070347,,2
BMu44,57,C,INI,Trunk_Forward,1,L_LES,11.269319150526982,,3
BMu44,57,C,INI,Trunk_Forward,1,R_LES,9.472517462448216,,1
BMu44,57,C,INI,Trunk_Forward,1,R_LES,10.005373117136447,,2
BMu44,57,C,INI,Trunk_Forward,1,R_LES,13.923255513564449,,3
BMu44,57,C,REL,Trunk_Forward,1,L_LES,8.900741069044559,,1
BMu44,57,C,REL,Trunk_Forward,1,L_LES,7.220091192246414,,2
BMu44,57,C,REL,Trunk_Forward,1,L_LES,14.605768309484304,,3
BMu44,57,C,REL,Trunk_Forward,1,R_LES,9.118643442532644,,1
BMu44,57,C,REL,Trunk_Forward,1,R_LES,12.035663858030961,,2
BMu44,57,C,REL,Trunk_Forward,1,R_LES,10.886632434303376,,3
BMu44,58,P,INI,Trunk_Forward,1,L_LES,3.1008245818311817,,1
BMu44,58,P,INI,Trunk_Forward,1,L_LES,2.7944369195277776,,2
BMu44,58,P,INI,Trunk_Forward,1,L_LES,2.706362693049519,,3
BMu44,58,P,INI,Trunk_Forward,1,R_LES,3.5864942727751914,,1
BMu44,58,P,INI,Trunk_Forward,1,R_LES,4.026820383860591,,2
BMu44,58,P,INI,Trunk_Forward,1,R_LES,4.015854344568893,,3
BMu44,58,P,REL,Trunk_Forward,1,L_LES,8.157035268657355,,1
BMu44,58,P,REL,Trunk_Forward,1,L_LES,18.630023620815436,,2
BMu44,58,P,REL,Trunk_Forward,1,L_LES,9.132570604802464,,3
BMu44,58,P,REL,Trunk_Forward,1,R_LES,2.840210215925463,,1
BMu44,58,P,REL,Trunk_Forward,1,R_LES,2.5907106149875303,,2
BMu44,58,P,REL,Trunk_Forward,1,R_LES,3.6250351695205327,,3
BMu44,60,C,INI,Trunk_Forward,1,L_LES,8.200359650580898,,1
BMu44,60,C,INI,Trunk_Forward,1,L_LES,15.653803746347545,,2
BMu44,60,C,INI,Trunk_Forward,1,L_LES,17.42218428392319,,3
BMu44,60,C,INI,Trunk_Forward,1,R_LES,4.69963033699531,,1
BMu44,60,C,INI,Trunk_Forward,1,R_LES,14.246884814880419,,2
BMu44,60,C,INI,Trunk_Forward,1,R_LES,13.82575363290415,,3
BMu44,60,C,REL,Trunk_Forward,1,L_LES,7.0821715401230625,,1
BMu44,60,C,REL,Trunk_Forward,1,L_LES,8.97864729361537,,2
BMu44,60,C,REL,Trunk_Forward,1,L_LES,10.607768422947771,,3
BMu44,60,C,REL,Trunk_Forward,1,R_LES,3.7459741753844593,,1
BMu44,60,C,REL,Trunk_Forward,1,R_LES,6.779450209962727,,2
BMu44,60,C,REL,Trunk_Forward,1,R_LES,8.865492919566773,,3
BMu44,61,P,INI,Trunk_Forward,1,L_LES,26.20751090420098,,1
BMu44,61,P,INI,Trunk_Forward,1,L_LES,24.792167446278352,,2
BMu44,61,P,INI,Trunk_Forward,1,L_LES,12.057170832543333,,3
BMu44,61,P,INI,Trunk_Forward,1,R_LES,17.40255270874634,,1
BMu44,61,P,INI,Trunk_Forward,1,R_LES,16.785420580709037,,2
BMu44,61,P,INI,Trunk_Forward,1,R_LES,15.347483319219887,,3
BMu44,61,P,REL,Trunk_Forward,1,L_LES,22.267027714151133,,1
BMu44,61,P,REL,Trunk_Forward,1,L_LES,23.053977299862886,,2
BMu44,61,P,REL,Trunk_Forward,1,L_LES,23.027348204996102,,3
BMu44,61,P,REL,Trunk_Forward,1,R_LES,11.687978915707735,,1
BMu44,61,P,REL,Trunk_Forward,1,R_LES,16.1254822951125,,2
BMu44,61,P,REL,Trunk_Forward,1,R_LES,17.03551955337562,,3
BMu44,62,P,INI,Trunk_Forward,1,L_LES,2.2432459698316247,,1
BMu44,62,P,INI,Trunk_Forward,1,L_LES,2.78231115790382,,2
BMu44,62,P,INI,Trunk_Forward,1,L_LES,3.9369473105430814,,3
BMu44,62,P,INI,Trunk_Forward,1,R_LES,2.313104615783312,,1
BMu44,62,P,INI,Trunk_Forward,1,R_LES,5.126451432663018,,2
BMu44,62,P,INI,Trunk_Forward,1,R_LES,3.436733363343077,,3
BMu44,62,P,REL,Trunk_Forward,1,L_LES,3.4157775989505064,,1
BMu44,62,P,REL,Trunk_Forward,1,L_LES,3.0287931140400977,,2
BMu44,62,P,REL,Trunk_Forward,1,L_LES,2.916677016416201,,3
BMu44,62,P,REL,Trunk_Forward,1,R_LES,2.124703369971196,,1
BMu44,62,P,REL,Trunk_Forward,1,R_LES,2.440636627648154,,2
BMu44,62,P,REL,Trunk_Forward,1,R_LES,2.2835572665614077,,3
BMu44,63,P,INI,Trunk_Forward,1,L_LES,4.2303414531445735,,1
BMu44,63,P,INI,Trunk_Forward,1,L_LES,24.794227669655225,,2
BMu44,63,P,INI,Trunk_Forward,1,L_LES,7.6164124145416885,,3
BMu44,63,P,INI,Trunk_Forward,1,R_LES,8.903025374717934,,1
BMu44,63,P,INI,Trunk_Forward,1,R_LES,14.855721731508579,,2
BMu44,63,P,INI,Trunk_Forward,1,R_LES,5.892894698944659,,3
BMu44,63,P,REL,Trunk_Forward,1,L_LES,19.935907855632102,,1
BMu44,63,P,REL,Trunk_Forward,1,L_LES,32.74097509621416,,2
BMu44,63,P,REL,Trunk_Forward,1,L_LES,20.586820082931037,,3
BMu44,63,P,REL,Trunk_Forward,1,R_LES,20.727112384909326,,1
BMu44,63,P,REL,Trunk_Forward,1,R_LES,28.10268344479194,,2
BMu44,63,P,REL,Trunk_Forward,1,R_LES,16.12604835090818,,3
BMu44,64,C,INI,Trunk_Forward,1,L_LES,12.824518069359787,,1
BMu44,64,C,INI,Trunk_Forward,1,L_LES,15.414893979373485,,2
BMu44,64,C,INI,Trunk_Forward,1,L_LES,19.903207945781627,,3
BMu44,64,C,INI,Trunk_Forward,1,R_LES,19.136395297770044,,1
BMu44,64,C,INI,Trunk_Forward,1,R_LES,25.259748055811098,,2
BMu44,64,C,INI,Trunk_Forward,1,R_LES,22.683197207793174,,3
BMu44,64,C,REL,Trunk_Forward,1,L_LES,21.218314274836587,,1
BMu44,64,C,REL,Trunk_Forward,1,L_LES,21.385765895334902,,2
BMu44,64,C,REL,Trunk_Forward,1,L_LES,20.545875059063164,,3
BMu44,64,C,REL,Trunk_Forward,1,R_LES,25.219115162578603,,1
BMu44,64,C,REL,Trunk_Forward,1,R_LES,27.897773366933652,,2
BMu44,64,C,REL,Trunk_Forward,1,R_LES,24.047821308645354,,3
BMu44,65,P,INI,Trunk_Forward,1,L_LES,8.182634285395043,,1
BMu44,65,P,INI,Trunk_Forward,1,L_LES,20.138751531090218,,2
BMu44,65,P,INI,Trunk_Forward,1,L_LES,18.433412509192703,,3
BMu44,65,P,INI,Trunk_Forward,1,R_LES,13.702858655040673,,1
BMu44,65,P,INI,Trunk_Forward,1,R_LES,17.59820256197543,,2
BMu44,65,P,INI,Trunk_Forward,1,R_LES,15.926670872312627,,3
BMu44,65,P,REL,Trunk_Forward,1,L_LES,6.859344514081892,,1
BMu44,65,P,REL,Trunk_Forward,1,L_LES,12.441913458382688,,2
BMu44,65,P,REL,Trunk_Forward,1,L_LES,19.022224485261592,,3
BMu44,65,P,REL,Trunk_Forward,1,R_LES,10.80959812616839,,1
BMu44,65,P,REL,Trunk_Forward,1,R_LES,12.958385767833018,,2
BMu44,65,P,REL,Trunk_Forward,1,R_LES,15.066400391916684,,3
BMu44,66,C,INI,Trunk_Forward,1,L_LES,9.62977015111714,,1
BMu44,66,C,INI,Trunk_Forward,1,L_LES,15.23091981867632,,2
BMu44,66,C,INI,Trunk_Forward,1,L_LES,11.124201669053374,,3
BMu44,66,C,INI,Trunk_Forward,1,R_LES,10.01350572304659,,1
BMu44,66,C,INI,Trunk_Forward,1,R_LES,13.078700404852682,,2
BMu44,66,C,INI,Trunk_Forward,1,R_LES,11.452305596763438,,3
BMu44,66,C,REL,Trunk_Forward,1,L_LES,3.5355590025583585,,1
BMu44,66,C,REL,Trunk_Forward,1,L_LES,13.531426313569304,,2
BMu44,66,C,REL,Trunk_Forward,1,L_LES,8.262012877311607,,3
BMu44,66,C,REL,Trunk_Forward,1,R_LES,5.707914304582148,,1
BMu44,66,C,REL,Trunk_Forward,1,R_LES,11.51336612325551,,2
BMu44,66,C,REL,Trunk_Forward,1,R_LES,9.94499111529369,,3
BMu44,67,C,INI,Trunk_Forward,1,L_LES,29.02890041641873,,1
BMu44,67,C,INI,Trunk_Forward,1,L_LES,24.731979999963297,,2
BMu44,67,C,INI,Trunk_Forward,1,L_LES,38.695784711514094,,3
BMu44,67,C,INI,Trunk_Forward,1,R_LES,22.86742567559447,,1
BMu44,67,C,INI,Trunk_Forward,1,R_LES,39.920868847496344,,2
BMu44,67,C,INI,Trunk_Forward,1,R_LES,15.584334136014867,,3
BMu44,67,C,REL,Trunk_Forward,1,L_LES,25.033639607617097,,1
BMu44,67,C,REL,Trunk_Forward,1,L_LES,30.09916144303905,,2
BMu44,67,C,REL,Trunk_Forward,1,L_LES,19.799801429711167,,3
BMu44,67,C,REL,Trunk_Forward,1,R_LES,17.455910729806984,,1
BMu44,67,C,REL,Trunk_Forward,1,R_LES,21.53868403218486,,2
BMu44,67,C,REL,Trunk_Forward,1,R_LES,20.97928023104626,,3
BMu44,68,C,INI,Trunk_Forward,1,L_LES,4.615860599259118,,1
BMu44,68,C,INI,Trunk_Forward,1,L_LES,7.654277947204985,,2
BMu44,68,C,INI,Trunk_Forward,1,L_LES,7.578892914221196,,3
BMu44,68,C,INI,Trunk_Forward,1,R_LES,2.074543979906079,,1
BMu44,68,C,INI,Trunk_Forward,1,R_LES,3.2737033122911976,,2
BMu44,68,C,INI,Trunk_Forward,1,R_LES,2.3526545831831553,,3
BMu44,68,C,REL,Trunk_Forward,1,L_LES,6.9371536826088045,,1
BMu44,68,C,REL,Trunk_Forward,1,L_LES,6.031956000964238,,2
BMu44,68,C,REL,Trunk_Forward,1,L_LES,14.256200308839231,,3
BMu44,68,C,REL,Trunk_Forward,1,L_LES,9.519240764606662,,4
BMu44,68,C,REL,Trunk_Forward,1,R_LES,3.194321157632505,,1
BMu44,68,C,REL,Trunk_Forward,1,R_LES,2.201691031767095,,2
BMu44,68,C,REL,Trunk_Forward,1,R_LES,4.486982196669846,,3
BMu44,68,C,REL,Trunk_Forward,1,R_LES,3.5617406156120337,,4
