BMu,subject,P_C,session,task,trials,channel,value,event,repetition
BMu41,1,C,INI,Trunk_Forward,1,L_EO,0,0,0
BMu41,1,C,INI,Trunk_Forward,1,R_EO,0,0,0
BMu41,1,C,REL,Trunk_Forward,1,L_EO,0,0,0
BMu41,1,C,REL,Trunk_Forward,1,R_EO,0,0,0
BMu41,2,C,INI,Trunk_Forward,1,L_EO,0,0,0
BMu41,2,C,INI,Trunk_Forward,1,R_EO,0,0,0
BMu41,2,C,REL,Trunk_Forward,1,L_EO,0,0,0
BMu41,2,C,REL,Trunk_Forward,1,R_EO,0,0,0
BMu41,3,C,INI,Trunk_Forward,1,L_EO,0,0,0
BMu41,3,C,INI,Trunk_Forward,1,R_EO,0,0,0
BMu41,3,C,REL,Trunk_Forward,1,L_EO,0,0,0
BMu41,3,C,REL,Trunk_Forward,1,R_EO,0,0,0
BMu41,5,C,INI,Trunk_Forward,1,L_EO,0,0,0
BMu41,5,C,INI,Trunk_Forward,1,R_EO,0,0,0
BMu41,5,C,REL,Trunk_Forward,1,L_EO,0,0,0
BMu41,5,C,REL,Trunk_Forward,1,R_EO,0,0,0
BMu41,6,C,INI,Trunk_Forward,1,L_EO,0,0,0
BMu41,6,C,INI,Trunk_Forward,1,R_EO,0,0,0
BMu41,6,C,REL,Trunk_Forward,1,L_EO,0,0,0
BMu41,6,C,REL,Trunk_Forward,1,R_EO,0,0,0
BMu41,7,C,INI,Trunk_Forward,1,L_EO,0,0,0
BMu41,7,C,INI,Trunk_Forward,1,R_EO,0,0,0
BMu41,7,C,REL,Trunk_Forward,1,L_EO,0,0,0
BMu41,7,C,REL,Trunk_Forward,1,R_EO,0,0,0
BMu41,8,C,INI,Trunk_Forward,1,L_EO,0,0,0
BMu41,8,C,INI,Trunk_Forward,1,R_EO,0,0,0
BMu41,8,C,REL,Trunk_Forward,1,L_EO,0,0,0
BMu41,8,C,REL,Trunk_Forward,1,R_EO,0,0,0
BMu41,9,P,INI,Trunk_Forward,1,L_EO,0,0,0
BMu41,9,P,INI,Trunk_Forward,1,R_EO,0,0,0
BMu41,9,P,REL,Trunk_Forward,1,L_EO,0,0,0
BMu41,9,P,REL,Trunk_Forward,1,R_EO,0,0,0
BMu41,10,P,INI,Trunk_Forward,1,L_EO,0,0,0
BMu41,10,P,INI,Trunk_Forward,1,R_EO,0,0,0
BMu41,10,P,REL,Trunk_Forward,1,L_EO,0,0,0
BMu41,10,P,REL,Trunk_Forward,1,R_EO,0,0,0
BMu41,11,P,INI,Trunk_Forward,1,L_EO,0,0,0
BMu41,11,P,INI,Trunk_Forward,1,R_EO,0,0,0
BMu41,11,P,REL,Trunk_Forward,1,L_EO,0,0,0
BMu41,11,P,REL,Trunk_Forward,1,R_EO,0,0,0
BMu41,12,P,INI,Trunk_Forward,1,L_EO,0,0,0
BMu41,12,P,INI,Trunk_Forward,1,R_EO,0,0,0
BMu41,12,P,REL,Trunk_Forward,1,L_EO,0,0,0
BMu41,12,P,REL,Trunk_Forward,1,R_EO,0,0,0
BMu41,13,C,INI,Trunk_Forward,1,L_EO,0,0,0
BMu41,13,C,INI,Trunk_Forward,1,R_EO,0,0,0
BMu41,13,C,REL,Trunk_Forward,1,L_EO,0,0,0
BMu41,13,C,REL,Trunk_Forward,1,R_EO,0,0,0
BMu41,14,P,INI,Trunk_Forward,1,L_EO,0,0,0
BMu41,14,P,INI,Trunk_Forward,1,R_EO,0,0,0
BMu41,14,P,REL,Trunk_Forward,1,L_EO,0,0,0
BMu41,14,P,REL,Trunk_Forward,1,R_EO,0,0,0
BMu41,16,C,INI,Trunk_Forward,1,L_EO,0,0,0
BMu41,16,C,INI,Trunk_Forward,1,R_EO,0,0,0
BMu41,16,C,REL,Trunk_Forward,1,L_EO,0,0,0
BMu41,16,C,REL,Trunk_Forward,1,R_EO,0,0,0
BMu41,17,P,INI,Trunk_Forward,1,L_EO,0,0,0
BMu41,17,P,INI,Trunk_Forward,1,R_EO,0,0,0
BMu41,17,P,REL,Trunk_Forward,1,L_EO,0,0,0
BMu41,17,P,REL,Trunk_Forward,1,R_EO,0,0,0
BMu41,21,C,INI,Trunk_Forward,1,L_EO,0,0,0
BMu41,21,C,INI,Trunk_Forward,1,R_EO,0,0,0
BMu41,21,C,REL,Trunk_Forward,1,L_EO,0,0,0
BMu41,21,C,REL,Trunk_Forward,1,R_EO,0,0,0
BMu41,22,C,INI,Trunk_Forward,1,L_EO,0,0,0
BMu41,22,C,INI,Trunk_Forward,1,R_EO,0,0,0
BMu41,22,C,REL,Trunk_Forward,1,L_EO,0,0,0
BMu41,22,C,REL,Trunk_Forward,1,R_EO,0,0,0
BMu41,23,C,INI,Trunk_Forward,1,L_EO,0,0,0
BMu41,23,C,INI,Trunk_Forward,1,R_EO,0,0,0
BMu41,23,C,REL,Trunk_Forward,1,L_EO,0,0,0
BMu41,23,C,REL,Trunk_Forward,1,R_EO,0,0,0
BMu41,24,P,INI,Trunk_Forward,1,L_EO,0,0,0
BMu41,24,P,INI,Trunk_Forward,1,R_EO,0,0,0
BMu41,24,P,REL,Trunk_Forward,1,L_EO,0,0,0
BMu41,24,P,REL,Trunk_Forward,1,R_EO,0,0,0
BMu41,25,C,INI,Trunk_Forward,1,L_EO,0,0,0
BMu41,25,C,INI,Trunk_Forward,1,R_EO,0,0,0
BMu41,25,C,REL,Trunk_Forward,1,L_EO,0,0,0
BMu41,25,C,REL,Trunk_Forward,1,R_EO,0,0,0
BMu41,26,P,INI,Trunk_Forward,1,L_EO,0,0,0
BMu41,26,P,INI,Trunk_Forward,1,R_EO,0,0,0
BMu41,26,P,REL,Trunk_Forward,1,L_EO,0,0,0
BMu41,26,P,REL,Trunk_Forward,1,R_EO,0,0,0
BMu41,27,P,INI,Trunk_Forward,1,L_EO,0,0,0
BMu41,27,P,INI,Trunk_Forward,1,R_EO,0,0,0
BMu41,27,P,REL,Trunk_Forward,1,L_EO,0,0,0
BMu41,27,P,REL,Trunk_Forward,1,R_EO,0,0,0
BMu41,28,P,INI,Trunk_Forward,1,L_EO,0,0,0
BMu41,28,P,INI,Trunk_Forward,1,R_EO,0,0,0
BMu41,28,P,REL,Trunk_Forward,1,L_EO,0,0,0
BMu41,28,P,REL,Trunk_Forward,1,R_EO,0,0,0
BMu41,29,P,INI,Trunk_Forward,1,L_EO,0,0,0
BMu41,29,P,INI,Trunk_Forward,1,R_EO,0,0,0
BMu41,29,P,REL,Trunk_Forward,1,L_EO,0,0,0
BMu41,29,P,REL,Trunk_Forward,1,R_EO,0,0,0
BMu41,30,P,INI,Trunk_Forward,1,L_EO,0,0,0
BMu41,30,P,INI,Trunk_Forward,1,R_EO,0,0,0
BMu41,30,P,REL,Trunk_Forward,1,L_EO,0,0,0
BMu41,30,P,REL,Trunk_Forward,1,R_EO,0,0,0
BMu41,32,P,INI,Trunk_Forward,1,L_EO,0,0,0
BMu41,32,P,INI,Trunk_Forward,1,R_EO,0,0,0
BMu41,32,P,REL,Trunk_Forward,1,L_EO,0,0,0
BMu41,32,P,REL,Trunk_Forward,1,R_EO,0,0,0
BMu41,33,P,INI,Trunk_Forward,1,L_EO,0,0,0
BMu41,33,P,INI,Trunk_Forward,1,R_EO,0,0,0
BMu41,33,P,REL,Trunk_Forward,1,L_EO,0,0,0
BMu41,33,P,REL,Trunk_Forward,1,R_EO,0,0,0
BMu41,34,P,INI,Trunk_Forward,1,L_EO,0,0,0
BMu41,34,P,INI,Trunk_Forward,1,R_EO,0,0,0
BMu41,34,P,REL,Trunk_Forward,1,L_EO,0,0,0
BMu41,34,P,REL,Trunk_Forward,1,R_EO,0,0,0
BMu41,35,C,INI,Trunk_Forward,1,L_EO,0,0,0
BMu41,35,C,INI,Trunk_Forward,1,R_EO,0,0,0
BMu41,35,C,REL,Trunk_Forward,1,L_EO,0,0,0
BMu41,35,C,REL,Trunk_Forward,1,R_EO,0,0,0
BMu41,36,P,INI,Trunk_Forward,1,L_EO,0,0,0
BMu41,36,P,INI,Trunk_Forward,1,R_EO,0,0,0
BMu41,36,P,REL,Trunk_Forward,1,L_EO,0,0,0
BMu41,36,P,REL,Trunk_Forward,1,R_EO,0,0,0
BMu41,38,C,INI,Trunk_Forward,1,L_EO,0,0,0
BMu41,38,C,INI,Trunk_Forward,1,R_EO,0,0,0
BMu41,38,C,REL,Trunk_Forward,1,L_EO,0,0,0
BMu41,38,C,REL,Trunk_Forward,1,R_EO,0,0,0
BMu41,39,C,INI,Trunk_Forward,1,L_EO,0,0,0
BMu41,39,C,INI,Trunk_Forward,1,R_EO,0,0,0
BMu41,39,C,REL,Trunk_Forward,1,L_EO,0,0,0
BMu41,39,C,REL,Trunk_Forward,1,R_EO,0,0,0
BMu41,40,C,INI,Trunk_Forward,1,L_EO,0,0,0
BMu41,40,C,INI,Trunk_Forward,1,R_EO,0,0,0
BMu41,40,C,REL,Trunk_Forward,1,L_EO,0,0,0
BMu41,40,C,REL,Trunk_Forward,1,R_EO,0,0,0
BMu41,41,P,INI,Trunk_Forward,1,L_EO,0,0,0
BMu41,41,P,INI,Trunk_Forward,1,R_EO,0,0,0
BMu41,41,P,REL,Trunk_Forward,1,L_EO,0,0,0
BMu41,41,P,REL,Trunk_Forward,1,R_EO,0,0,0
BMu41,42,P,INI,Trunk_Forward,1,L_EO,0,0,0
BMu41,42,P,INI,Trunk_Forward,1,R_EO,0,0,0
BMu41,42,P,REL,Trunk_Forward,1,L_EO,0,0,0
BMu41,42,P,REL,Trunk_Forward,1,R_EO,0,0,0
BMu41,43,P,INI,Trunk_Forward,1,L_EO,0,0,0
BMu41,43,P,INI,Trunk_Forward,1,R_EO,0,0,0
BMu41,43,P,REL,Trunk_Forward,1,L_EO,0,0,0
BMu41,43,P,REL,Trunk_Forward,1,R_EO,0,0,0
BMu41,44,C,INI,Trunk_Forward,1,L_EO,0,0,0
BMu41,44,C,INI,Trunk_Forward,1,R_EO,0,0,0
BMu41,44,C,REL,Trunk_Forward,1,L_EO,0,0,0
BMu41,44,C,REL,Trunk_Forward,1,R_EO,0,0,0
BMu41,45,P,INI,Trunk_Forward,1,L_EO,0,0,0
BMu41,45,P,INI,Trunk_Forward,1,R_EO,0,0,0
BMu41,45,P,REL,Trunk_Forward,1,L_EO,0,0,0
BMu41,45,P,REL,Trunk_Forward,1,R_EO,0,0,0
BMu41,46,C,INI,Trunk_Forward,1,L_EO,0,0,0
BMu41,46,C,INI,Trunk_Forward,1,R_EO,0,0,0
BMu41,46,C,REL,Trunk_Forward,1,L_EO,0,0,0
BMu41,46,C,REL,Trunk_Forward,1,R_EO,0,0,0
BMu41,47,P,INI,Trunk_Forward,1,L_EO,0,0,0
BMu41,47,P,INI,Trunk_Forward,1,R_EO,0,0,0
BMu41,47,P,REL,Trunk_Forward,1,L_EO,0,0,0
BMu41,47,P,REL,Trunk_Forward,1,R_EO,0,0,0
BMu41,48,C,INI,Trunk_Forward,1,L_EO,0,0,0
BMu41,48,C,INI,Trunk_Forward,1,R_EO,0,0,0
BMu41,48,C,REL,Trunk_Forward,1,L_EO,0,0,0
BMu41,48,C,REL,Trunk_Forward,1,R_EO,0,0,0
BMu41,49,C,INI,Trunk_Forward,1,L_EO,0,0,0
BMu41,49,C,INI,Trunk_Forward,1,R_EO,0,0,0
BMu41,49,C,REL,Trunk_Forward,1,L_EO,0,0,0
BMu41,49,C,REL,Trunk_Forward,1,R_EO,0,0,0
BMu41,50,P,INI,Trunk_Forward,1,L_EO,0,0,0
BMu41,50,P,INI,Trunk_Forward,1,R_EO,0,0,0
BMu41,50,P,REL,Trunk_Forward,1,L_EO,0,0,0
BMu41,50,P,REL,Trunk_Forward,1,R_EO,0,0,0
BMu41,51,P,INI,Trunk_Forward,1,L_EO,0,0,0
BMu41,51,P,INI,Trunk_Forward,1,R_EO,0,0,0
BMu41,51,P,REL,Trunk_Forward,1,L_EO,0,0,0
BMu41,51,P,REL,Trunk_Forward,1,R_EO,0,0,0
BMu41,52,C,INI,Trunk_Forward,1,L_EO,0,0,0
BMu41,52,C,INI,Trunk_Forward,1,R_EO,0,0,0
BMu41,52,C,REL,Trunk_Forward,1,L_EO,0,0,0
BMu41,52,C,REL,Trunk_Forward,1,R_EO,0,0,0
BMu41,53,P,INI,Trunk_Forward,1,L_EO,0,0,0
BMu41,53,P,INI,Trunk_Forward,1,R_EO,0,0,0
BMu41,53,P,REL,Trunk_Forward,1,L_EO,0,0,0
BMu41,53,P,REL,Trunk_Forward,1,R_EO,0,0,0
BMu41,54,P,INI,Trunk_Forward,1,L_EO,0,0,0
BMu41,54,P,INI,Trunk_Forward,1,R_EO,0,0,0
BMu41,54,P,REL,Trunk_Forward,1,L_EO,0,0,0
BMu41,54,P,REL,Trunk_Forward,1,R_EO,0,0,0
BMu41,55,C,INI,Trunk_Forward,1,L_EO,0,0,0
BMu41,55,C,INI,Trunk_Forward,1,R_EO,0,0,0
BMu41,55,C,REL,Trunk_Forward,1,L_EO,0,0,0
BMu41,55,C,REL,Trunk_Forward,1,R_EO,0,0,0
BMu41,56,C,INI,Trunk_Forward,1,L_EO,0,0,0
BMu41,56,C,INI,Trunk_Forward,1,R_EO,0,0,0
BMu41,56,C,REL,Trunk_Forward,1,L_EO,0,0,0
BMu41,56,C,REL,Trunk_Forward,1,R_EO,0,0,0
BMu41,57,C,INI,Trunk_Forward,1,L_EO,0,0,0
BMu41,57,C,INI,Trunk_Forward,1,R_EO,0,0,0
BMu41,57,C,REL,Trunk_Forward,1,L_EO,0,0,0
BMu41,57,C,REL,Trunk_Forward,1,R_EO,0,0,0
BMu41,58,P,INI,Trunk_Forward,1,L_EO,0,0,0
BMu41,58,P,INI,Trunk_Forward,1,R_EO,0,0,0
BMu41,58,P,REL,Trunk_Forward,1,L_EO,0,0,0
BMu41,58,P,REL,Trunk_Forward,1,R_EO,0,0,0
BMu41,60,C,INI,Trunk_Forward,1,L_EO,0,0,0
BMu41,60,C,INI,Trunk_Forward,1,R_EO,0,0,0
BMu41,60,C,REL,Trunk_Forward,1,L_EO,0,0,0
BMu41,60,C,REL,Trunk_Forward,1,R_EO,0,0,0
BMu41,61,P,INI,Trunk_Forward,1,L_EO,0,0,0
BMu41,61,P,INI,Trunk_Forward,1,R_EO,0,0,0
BMu41,61,P,REL,Trunk_Forward,1,L_EO,0,0,0
BMu41,61,P,REL,Trunk_Forward,1,R_EO,0,0,0
BMu41,62,P,INI,Trunk_Forward,1,L_EO,0,0,0
BMu41,62,P,INI,Trunk_Forward,1,R_EO,0,0,0
BMu41,62,P,REL,Trunk_Forward,1,L_EO,0,0,0
BMu41,62,P,REL,Trunk_Forward,1,R_EO,0,0,0
BMu41,63,P,INI,Trunk_Forward,1,L_EO,0,0,0
BMu41,63,P,INI,Trunk_Forward,1,R_EO,0,0,0
BMu41,63,P,REL,Trunk_Forward,1,L_EO,0,0,0
BMu41,63,P,REL,Trunk_Forward,1,R_EO,0,0,0
BMu41,64,C,INI,Trunk_Forward,1,L_EO,0,0,0
BMu41,64,C,INI,Trunk_Forward,1,R_EO,0,0,0
BMu41,64,C,REL,Trunk_Forward,1,L_EO,0,0,0
BMu41,64,C,REL,Trunk_Forward,1,R_EO,0,0,0
BMu41,65,P,INI,Trunk_Forward,1,L_EO,0,0,0
BMu41,65,P,INI,Trunk_Forward,1,R_EO,0,0,0
BMu41,65,P,REL,Trunk_Forward,1,L_EO,0,0,0
BMu41,65,P,REL,Trunk_Forward,1,R_EO,0,0,0
BMu41,66,C,INI,Trunk_Forward,1,L_EO,0,0,0
BMu41,66,C,INI,Trunk_Forward,1,R_EO,0,0,0
BMu41,66,C,REL,Trunk_Forward,1,L_EO,0,0,0
BMu41,66,C,REL,Trunk_Forward,1,R_EO,0,0,0
BMu41,67,C,INI,Trunk_Forward,1,L_EO,0,0,0
BMu41,67,C,INI,Trunk_Forward,1,R_EO,0,0,0
BMu41,67,C,REL,Trunk_Forward,1,L_EO,0,0,0
BMu41,67,C,REL,Trunk_Forward,1,R_EO,0,0,0
BMu41,68,C,INI,Trunk_Forward,1,L_EO,0,0,0
BMu41,68,C,INI,Trunk_Forward,1,R_EO,0,0,0
BMu41,68,C,REL,Trunk_Forward,1,L_EO,0,0,0
BMu41,68,C,REL,Trunk_Forward,1,R_EO,0,0,0
