BMu,subject,P_C,session,task,trials,channel,value,event,rep
BMu40,1,C,INI,Trunk_Forward,1,L_EO,68.62845971807799,bending,1
BMu40,1,C,INI,Trunk_Forward,1,L_EO,69.79051819184123,return,1
BMu40,1,C,INI,Trunk_Forward,1,L_EO,68.27731092436974,bending,2
BMu40,1,C,INI,Trunk_Forward,1,L_EO,34.70105509964831,return,2
BMu40,1,C,INI,Trunk_Forward,1,L_EO,64.66109099987516,bending,3
BMu40,1,C,INI,Trunk_Forward,1,L_EO,48.31093352706139,return,3
BMu40,1,C,INI,Trunk_Forward,1,R_EO,48.564667146825805,bending,1
BMu40,1,C,INI,Trunk_Forward,1,R_EO,51.708930540242555,return,1
BMu40,1,C,INI,Trunk_Forward,1,R_EO,50.945378151260506,bending,2
BMu40,1,C,INI,Trunk_Forward,1,R_EO,44.78311840562721,return,2
BMu40,1,C,INI,Trunk_Forward,1,R_EO,47.4347771813756,bending,3
BMu40,1,C,INI,Trunk_Forward,1,R_EO,36.32401017072284,return,3
BMu40,1,C,REL,Trunk_Forward,1,L_EO,34.28631712205929,bending,1
BMu40,1,C,REL,Trunk_Forward,1,L_EO,57.41444866920151,return,1
BMu40,1,C,REL,Trunk_Forward,1,L_EO,59.992208804051415,bending,2
BMu40,1,C,REL,Trunk_Forward,1,L_EO,59.72045743329098,return,2
BMu40,1,C,REL,Trunk_Forward,1,L_EO,50.834501210345266,bending,3
BMu40,1,C,REL,Trunk_Forward,1,L_EO,61.554192229038854,return,3
BMu40,1,C,REL,Trunk_Forward,1,R_EO,45.996413123747224,bending,1
BMu40,1,C,REL,Trunk_Forward,1,R_EO,47.40177439797211,return,1
BMu40,1,C,REL,Trunk_Forward,1,R_EO,39.2156862745098,bending,2
BMu40,1,C,REL,Trunk_Forward,1,R_EO,37.73824650571792,return,2
BMu40,1,C,REL,Trunk_Forward,1,R_EO,37.202191361956935,bending,3
BMu40,1,C,REL,Trunk_Forward,1,R_EO,40.081799591002046,return,3
BMu40,2,C,INI,Trunk_Forward,1,L_EO,61.18421052631579,bending,1
BMu40,2,C,INI,Trunk_Forward,1,L_EO,57.761732851985556,return,1
BMu40,2,C,INI,Trunk_Forward,1,L_EO,56.66937072661954,bending,2
BMu40,2,C,INI,Trunk_Forward,1,L_EO,64.94845360824742,return,2
BMu40,2,C,INI,Trunk_Forward,1,L_EO,61.23151014791882,bending,3
BMu40,2,C,INI,Trunk_Forward,1,L_EO,62.685265911072364,return,3
BMu40,2,C,INI,Trunk_Forward,1,R_EO,73.35526315789474,bending,1
BMu40,2,C,INI,Trunk_Forward,1,R_EO,78.09867629362213,return,1
BMu40,2,C,INI,Trunk_Forward,1,R_EO,81.35357515355199,bending,2
BMu40,2,C,INI,Trunk_Forward,1,R_EO,94.84536082474226,return,2
BMu40,2,C,INI,Trunk_Forward,1,R_EO,101.364522417154,bending,3
BMu40,2,C,INI,Trunk_Forward,1,R_EO,78.46556233653008,return,3
BMu40,2,C,REL,Trunk_Forward,1,L_EO,57.883794725899996,bending,1
BMu40,2,C,REL,Trunk_Forward,1,L_EO,28.64516129032258,return,1
BMu40,2,C,REL,Trunk_Forward,1,L_EO,52.820974167844746,bending,2
BMu40,2,C,REL,Trunk_Forward,1,L_EO,39.82843137254902,return,2
BMu40,2,C,REL,Trunk_Forward,1,L_EO,65.77077141749581,bending,3
BMu40,2,C,REL,Trunk_Forward,1,L_EO,62.426614481409,return,3
BMu40,2,C,REL,Trunk_Forward,1,R_EO,32.060400481453115,bending,1
BMu40,2,C,REL,Trunk_Forward,1,R_EO,51.483870967741936,return,1
BMu40,2,C,REL,Trunk_Forward,1,R_EO,63.23094717902583,bending,2
BMu40,2,C,REL,Trunk_Forward,1,R_EO,78.30882352941177,return,2
BMu40,2,C,REL,Trunk_Forward,1,R_EO,96.91174570357929,bending,3
BMu40,2,C,REL,Trunk_Forward,1,R_EO,79.6477495107632,return,3
BMu40,3,C,INI,Trunk_Forward,1,L_EO,80.76923076923076,bending,1
BMu40,3,C,INI,Trunk_Forward,1,L_EO,81.66047087980174,return,1
BMu40,3,C,INI,Trunk_Forward,1,L_EO,82.37760513010235,bending,2
BMu40,3,C,INI,Trunk_Forward,1,L_EO,91.45835801445325,return,2
BMu40,3,C,INI,Trunk_Forward,1,L_EO,104.73441108545035,bending,3
BMu40,3,C,INI,Trunk_Forward,1,L_EO,81.34715025906735,return,3
BMu40,3,C,INI,Trunk_Forward,1,R_EO,73.18087318087318,bending,1
BMu40,3,C,INI,Trunk_Forward,1,R_EO,78.68649318463444,return,1
BMu40,3,C,INI,Trunk_Forward,1,R_EO,77.6914539400666,bending,2
BMu40,3,C,INI,Trunk_Forward,1,R_EO,76.41274730482169,return,2
BMu40,3,C,INI,Trunk_Forward,1,R_EO,84.75750577367205,bending,3
BMu40,3,C,INI,Trunk_Forward,1,R_EO,76.6839378238342,return,3
BMu40,3,C,REL,Trunk_Forward,1,L_EO,68.1377825618945,bending,1
BMu40,3,C,REL,Trunk_Forward,1,L_EO,65.44303797468353,return,1
BMu40,3,C,REL,Trunk_Forward,1,L_EO,71.38271921941198,bending,2
BMu40,3,C,REL,Trunk_Forward,1,L_EO,71.6616629682809,return,2
BMu40,3,C,REL,Trunk_Forward,1,L_EO,76.88172043010752,bending,3
BMu40,3,C,REL,Trunk_Forward,1,L_EO,63.047619047619044,return,3
BMu40,3,C,REL,Trunk_Forward,1,R_EO,65.66200215285252,bending,1
BMu40,3,C,REL,Trunk_Forward,1,R_EO,66.96202531645568,return,1
BMu40,3,C,REL,Trunk_Forward,1,R_EO,72.15303633329053,bending,2
BMu40,3,C,REL,Trunk_Forward,1,R_EO,73.09750685289126,return,2
BMu40,3,C,REL,Trunk_Forward,1,R_EO,74.32795698924731,bending,3
BMu40,3,C,REL,Trunk_Forward,1,R_EO,66.38095238095238,return,3
BMu40,5,C,INI,Trunk_Forward,1,L_EO,67.71900228943247,bending,1
BMu40,5,C,INI,Trunk_Forward,1,L_EO,65.19886363636364,return,1
BMu40,5,C,INI,Trunk_Forward,1,L_EO,58.055152394775035,bending,2
BMu40,5,C,INI,Trunk_Forward,1,L_EO,55.44267053701016,return,2
BMu40,5,C,INI,Trunk_Forward,1,L_EO,68.9556098261744,bending,3
BMu40,5,C,INI,Trunk_Forward,1,L_EO,66.77474921471273,return,3
BMu40,5,C,INI,Trunk_Forward,1,R_EO,73.86432100253043,bending,1
BMu40,5,C,INI,Trunk_Forward,1,R_EO,74.28977272727273,return,1
BMu40,5,C,INI,Trunk_Forward,1,R_EO,61.393323657474596,bending,2
BMu40,5,C,INI,Trunk_Forward,1,R_EO,74.74600870827285,return,2
BMu40,5,C,INI,Trunk_Forward,1,R_EO,82.02844418905329,bending,3
BMu40,5,C,INI,Trunk_Forward,1,R_EO,75.69155942851353,return,3
BMu40,5,C,REL,Trunk_Forward,1,L_EO,73.07692307692308,bending,1
BMu40,5,C,REL,Trunk_Forward,1,L_EO,73.23232323232324,return,1
BMu40,5,C,REL,Trunk_Forward,1,L_EO,66.1849710982659,bending,2
BMu40,5,C,REL,Trunk_Forward,1,L_EO,65.41424516826598,return,2
BMu40,5,C,REL,Trunk_Forward,1,L_EO,28.840970350404312,bending,3
BMu40,5,C,REL,Trunk_Forward,1,L_EO,68.04260985352863,return,3
BMu40,5,C,REL,Trunk_Forward,1,L_EO,31.793478260869563,bending,4
BMu40,5,C,REL,Trunk_Forward,1,L_EO,69.56521739130434,return,4
BMu40,5,C,REL,Trunk_Forward,1,R_EO,67.13286713286715,bending,1
BMu40,5,C,REL,Trunk_Forward,1,R_EO,22.474747474747478,return,1
BMu40,5,C,REL,Trunk_Forward,1,R_EO,61.84971098265896,bending,2
BMu40,5,C,REL,Trunk_Forward,1,R_EO,76.49682389512097,return,2
BMu40,5,C,REL,Trunk_Forward,1,R_EO,64.01617250673854,bending,3
BMu40,5,C,REL,Trunk_Forward,1,R_EO,76.96404793608522,return,3
BMu40,5,C,REL,Trunk_Forward,1,R_EO,68.34239130434783,bending,4
BMu40,5,C,REL,Trunk_Forward,1,R_EO,82.20424671385237,return,4
BMu40,6,C,INI,Trunk_Forward,1,L_EO,118.11263318112633,bending,1
BMu40,6,C,INI,Trunk_Forward,1,L_EO,113.70978162553303,return,1
BMu40,6,C,INI,Trunk_Forward,1,L_EO,100.38022813688211,bending,2
BMu40,6,C,INI,Trunk_Forward,1,L_EO,111.30242282622063,return,2
BMu40,6,C,INI,Trunk_Forward,1,L_EO,81.32054861026823,bending,3
BMu40,6,C,INI,Trunk_Forward,1,L_EO,108.82464335311198,return,3
BMu40,6,C,INI,Trunk_Forward,1,L_EO,77.37948084054388,bending,4
BMu40,6,C,INI,Trunk_Forward,1,L_EO,108.05947532910312,return,4
BMu40,6,C,INI,Trunk_Forward,1,R_EO,138.0517503805175,bending,1
BMu40,6,C,INI,Trunk_Forward,1,R_EO,130.76624886936298,return,1
BMu40,6,C,INI,Trunk_Forward,1,R_EO,143.8529784537389,bending,2
BMu40,6,C,INI,Trunk_Forward,1,R_EO,137.8674209814291,return,2
BMu40,6,C,INI,Trunk_Forward,1,R_EO,144.19225634178903,bending,3
BMu40,6,C,INI,Trunk_Forward,1,R_EO,137.8613811387451,return,3
BMu40,6,C,INI,Trunk_Forward,1,R_EO,134.9814585908529,bending,4
BMu40,6,C,INI,Trunk_Forward,1,R_EO,129.6524292073113,return,4
BMu40,6,C,REL,Trunk_Forward,1,L_EO,54.76190476190476,bending,1
BMu40,6,C,REL,Trunk_Forward,1,L_EO,78.77551020408163,return,1
BMu40,6,C,REL,Trunk_Forward,1,L_EO,44.182412274470806,bending,2
BMu40,6,C,REL,Trunk_Forward,1,L_EO,72.52808209679655,return,2
BMu40,6,C,REL,Trunk_Forward,1,L_EO,47.23404255319149,bending,3
BMu40,6,C,REL,Trunk_Forward,1,L_EO,75.24605778389248,return,3
BMu40,6,C,REL,Trunk_Forward,1,R_EO,35.238095238095234,bending,1
BMu40,6,C,REL,Trunk_Forward,1,R_EO,87.89115646258503,return,1
BMu40,6,C,REL,Trunk_Forward,1,R_EO,31.254439551072593,bending,2
BMu40,6,C,REL,Trunk_Forward,1,R_EO,82.6515046456802,return,2
BMu40,6,C,REL,Trunk_Forward,1,R_EO,31.20567375886525,bending,3
BMu40,6,C,REL,Trunk_Forward,1,R_EO,77.36268388189227,return,3
BMu40,7,C,INI,Trunk_Forward,1,L_EO,91.65751920965971,bending,1
BMu40,7,C,INI,Trunk_Forward,1,L_EO,93.12169312169311,return,1
BMu40,7,C,INI,Trunk_Forward,1,L_EO,95.43133918052101,bending,2
BMu40,7,C,INI,Trunk_Forward,1,L_EO,93.45794392523364,return,2
BMu40,7,C,INI,Trunk_Forward,1,L_EO,33.8255033557047,bending,3
BMu40,7,C,INI,Trunk_Forward,1,L_EO,93.41963322545847,return,3
BMu40,7,C,INI,Trunk_Forward,1,R_EO,33.69923161361142,bending,1
BMu40,7,C,INI,Trunk_Forward,1,R_EO,35.05291005291005,return,1
BMu40,7,C,INI,Trunk_Forward,1,R_EO,43.853907579526116,bending,2
BMu40,7,C,INI,Trunk_Forward,1,R_EO,36.9826435246996,return,2
BMu40,7,C,INI,Trunk_Forward,1,R_EO,63.758389261744966,bending,3
BMu40,7,C,INI,Trunk_Forward,1,R_EO,37.001078748651565,return,3
BMu40,7,C,REL,Trunk_Forward,1,L_EO,84.42211055276381,bending,1
BMu40,7,C,REL,Trunk_Forward,1,L_EO,86.58743633276741,return,1
BMu40,7,C,REL,Trunk_Forward,1,L_EO,86.14173228346456,bending,2
BMu40,7,C,REL,Trunk_Forward,1,L_EO,84.3280111610603,return,2
BMu40,7,C,REL,Trunk_Forward,1,L_EO,82.65625,bending,3
BMu40,7,C,REL,Trunk_Forward,1,L_EO,82.07967264412082,return,3
BMu40,7,C,REL,Trunk_Forward,1,R_EO,76.63316582914572,bending,1
BMu40,7,C,REL,Trunk_Forward,1,R_EO,26.392961876832846,return,1
BMu40,7,C,REL,Trunk_Forward,1,R_EO,76.85039370078741,bending,2
BMu40,7,C,REL,Trunk_Forward,1,R_EO,46.96946209889939,return,2
BMu40,7,C,REL,Trunk_Forward,1,R_EO,76.25,bending,3
BMu40,7,C,REL,Trunk_Forward,1,R_EO,69.56312432302322,return,3
BMu40,8,C,INI,Trunk_Forward,1,L_EO,51.38888888888889,bending,1
BMu40,8,C,INI,Trunk_Forward,1,L_EO,47.48074251799469,return,1
BMu40,8,C,INI,Trunk_Forward,1,L_EO,51.86666666666667,bending,2
BMu40,8,C,INI,Trunk_Forward,1,L_EO,61.30718954248366,return,2
BMu40,8,C,INI,Trunk_Forward,1,L_EO,75.06527415143603,bending,3
BMu40,8,C,INI,Trunk_Forward,1,L_EO,67.23803693500663,return,3
BMu40,8,C,INI,Trunk_Forward,1,R_EO,70.94017094017094,bending,1
BMu40,8,C,INI,Trunk_Forward,1,R_EO,63.01300669276423,return,1
BMu40,8,C,INI,Trunk_Forward,1,R_EO,66.0,bending,2
BMu40,8,C,INI,Trunk_Forward,1,R_EO,61.04575163398693,return,2
BMu40,8,C,INI,Trunk_Forward,1,R_EO,73.7597911227154,bending,3
BMu40,8,C,INI,Trunk_Forward,1,R_EO,73.76798285889195,return,3
BMu40,8,C,REL,Trunk_Forward,1,L_EO,43.948412698412696,bending,1
BMu40,8,C,REL,Trunk_Forward,1,L_EO,36.569987389659524,return,1
BMu40,8,C,REL,Trunk_Forward,1,L_EO,35.88390501319261,bending,2
BMu40,8,C,REL,Trunk_Forward,1,L_EO,43.895387041661195,return,2
BMu40,8,C,REL,Trunk_Forward,1,L_EO,34.78260869565218,bending,3
BMu40,8,C,REL,Trunk_Forward,1,L_EO,49.044139725753176,return,3
BMu40,8,C,REL,Trunk_Forward,1,R_EO,62.698412698412696,bending,1
BMu40,8,C,REL,Trunk_Forward,1,R_EO,62.6733921815889,return,1
BMu40,8,C,REL,Trunk_Forward,1,R_EO,55.80474934036939,bending,2
BMu40,8,C,REL,Trunk_Forward,1,R_EO,68.7343934814036,return,2
BMu40,8,C,REL,Trunk_Forward,1,R_EO,56.010230179028135,bending,3
BMu40,8,C,REL,Trunk_Forward,1,R_EO,73.16584926433791,return,3
BMu40,9,P,INI,Trunk_Forward,1,L_EO,49.7037126617487,bending,1
BMu40,9,P,INI,Trunk_Forward,1,L_EO,54.4018058690745,return,1
BMu40,9,P,INI,Trunk_Forward,1,L_EO,54.706355591311336,bending,2
BMu40,9,P,INI,Trunk_Forward,1,L_EO,51.853806570787704,return,2
BMu40,9,P,INI,Trunk_Forward,1,L_EO,38.94224444152085,bending,3
BMu40,9,P,INI,Trunk_Forward,1,L_EO,52.989318906921895,return,3
BMu40,9,P,INI,Trunk_Forward,1,L_EO,52.388535031847134,bending,4
BMu40,9,P,INI,Trunk_Forward,1,L_EO,66.70506912442396,return,4
BMu40,9,P,INI,Trunk_Forward,1,R_EO,61.31333897690168,bending,1
BMu40,9,P,INI,Trunk_Forward,1,R_EO,58.23927765237021,return,1
BMu40,9,P,INI,Trunk_Forward,1,R_EO,60.22296287783013,bending,2
BMu40,9,P,INI,Trunk_Forward,1,R_EO,59.24264414830452,return,2
BMu40,9,P,INI,Trunk_Forward,1,R_EO,61.17616103144323,bending,3
BMu40,9,P,INI,Trunk_Forward,1,R_EO,62.42197253433208,return,3
BMu40,9,P,INI,Trunk_Forward,1,R_EO,65.60509554140127,bending,4
BMu40,9,P,INI,Trunk_Forward,1,R_EO,69.81566820276498,return,4
BMu40,9,P,REL,Trunk_Forward,1,L_EO,40.67900290564307,bending,1
BMu40,9,P,REL,Trunk_Forward,1,L_EO,52.68648930620761,return,1
BMu40,9,P,REL,Trunk_Forward,1,L_EO,46.4594127806563,bending,2
BMu40,9,P,REL,Trunk_Forward,1,L_EO,55.826086956521735,return,2
BMu40,9,P,REL,Trunk_Forward,1,L_EO,48.94366197183099,bending,3
BMu40,9,P,REL,Trunk_Forward,1,L_EO,55.59655596555965,return,3
BMu40,9,P,REL,Trunk_Forward,1,R_EO,26.456644746903198,bending,1
BMu40,9,P,REL,Trunk_Forward,1,R_EO,64.33663710659016,return,1
BMu40,9,P,REL,Trunk_Forward,1,R_EO,68.56649395509498,bending,2
BMu40,9,P,REL,Trunk_Forward,1,R_EO,60.52173913043478,return,2
BMu40,9,P,REL,Trunk_Forward,1,R_EO,61.79577464788733,bending,3
BMu40,9,P,REL,Trunk_Forward,1,R_EO,25.707257072570723,return,3
BMu40,10,P,INI,Trunk_Forward,1,L_EO,56.35686311968669,bending,1
BMu40,10,P,INI,Trunk_Forward,1,L_EO,59.74523729004621,return,1
BMu40,10,P,INI,Trunk_Forward,1,L_EO,55.9251324839328,bending,2
BMu40,10,P,INI,Trunk_Forward,1,L_EO,59.053797114416724,return,2
BMu40,10,P,INI,Trunk_Forward,1,L_EO,55.690915419422204,bending,3
BMu40,10,P,INI,Trunk_Forward,1,L_EO,56.55966190090819,return,3
BMu40,10,P,INI,Trunk_Forward,1,R_EO,52.91813926831598,bending,1
BMu40,10,P,INI,Trunk_Forward,1,R_EO,53.545259835418776,return,1
BMu40,10,P,INI,Trunk_Forward,1,R_EO,52.429811703687,bending,2
BMu40,10,P,INI,Trunk_Forward,1,R_EO,57.82350967453304,return,2
BMu40,10,P,INI,Trunk_Forward,1,R_EO,52.9063696484511,bending,3
BMu40,10,P,INI,Trunk_Forward,1,R_EO,60.33630069238377,return,3
BMu40,10,P,REL,Trunk_Forward,1,L_EO,53.58042098902205,bending,1
BMu40,10,P,REL,Trunk_Forward,1,L_EO,48.28951710482895,return,1
BMu40,10,P,REL,Trunk_Forward,1,L_EO,50.93922651933701,bending,2
BMu40,10,P,REL,Trunk_Forward,1,L_EO,43.40909090909091,return,2
BMu40,10,P,REL,Trunk_Forward,1,L_EO,53.462940461725395,bending,3
BMu40,10,P,REL,Trunk_Forward,1,L_EO,43.054545454545455,return,3
BMu40,10,P,REL,Trunk_Forward,1,R_EO,59.11975022660892,bending,1
BMu40,10,P,REL,Trunk_Forward,1,R_EO,64.67935320646794,return,1
BMu40,10,P,REL,Trunk_Forward,1,R_EO,55.35911602209944,bending,2
BMu40,10,P,REL,Trunk_Forward,1,R_EO,63.86363636363636,return,2
BMu40,10,P,REL,Trunk_Forward,1,R_EO,60.99635479951397,bending,3
BMu40,10,P,REL,Trunk_Forward,1,R_EO,61.74545454545454,return,3
BMu40,11,P,INI,Trunk_Forward,1,L_EO,46.45454545454545,bending,1
BMu40,11,P,INI,Trunk_Forward,1,L_EO,48.37935174069628,return,1
BMu40,11,P,INI,Trunk_Forward,1,L_EO,58.68544600938967,bending,2
BMu40,11,P,INI,Trunk_Forward,1,L_EO,60.02227171492204,return,2
BMu40,11,P,INI,Trunk_Forward,1,L_EO,54.281981232925524,bending,3
BMu40,11,P,INI,Trunk_Forward,1,L_EO,52.97259434375274,return,3
BMu40,11,P,INI,Trunk_Forward,1,R_EO,45.18181818181818,bending,1
BMu40,11,P,INI,Trunk_Forward,1,R_EO,45.13805522208884,return,1
BMu40,11,P,INI,Trunk_Forward,1,R_EO,45.539906103286384,bending,2
BMu40,11,P,INI,Trunk_Forward,1,R_EO,42.42761692650334,return,2
BMu40,11,P,INI,Trunk_Forward,1,R_EO,47.274023043116756,bending,3
BMu40,11,P,INI,Trunk_Forward,1,R_EO,46.05551177655197,return,3
BMu40,11,P,REL,Trunk_Forward,1,L_EO,70.27914614121511,bending,1
BMu40,11,P,REL,Trunk_Forward,1,L_EO,70.64980375054513,return,1
BMu40,11,P,REL,Trunk_Forward,1,L_EO,73.65177195685669,bending,2
BMu40,11,P,REL,Trunk_Forward,1,L_EO,69.69205834683954,return,2
BMu40,11,P,REL,Trunk_Forward,1,L_EO,76.63822250845274,bending,3
BMu40,11,P,REL,Trunk_Forward,1,L_EO,69.0341851974776,return,3
BMu40,11,P,REL,Trunk_Forward,1,R_EO,61.41215106732348,bending,1
BMu40,11,P,REL,Trunk_Forward,1,R_EO,62.3637156563454,return,1
BMu40,11,P,REL,Trunk_Forward,1,R_EO,66.87211093990754,bending,2
BMu40,11,P,REL,Trunk_Forward,1,R_EO,66.77471636952998,return,2
BMu40,11,P,REL,Trunk_Forward,1,R_EO,61.181774271453875,bending,3
BMu40,11,P,REL,Trunk_Forward,1,R_EO,64.27702179444628,return,3
BMu40,12,P,INI,Trunk_Forward,1,L_EO,45.621181262729124,bending,1
BMu40,12,P,INI,Trunk_Forward,1,L_EO,54.34272300469484,return,1
BMu40,12,P,INI,Trunk_Forward,1,L_EO,48.577737368489416,bending,2
BMu40,12,P,INI,Trunk_Forward,1,L_EO,54.15549597855228,return,2
BMu40,12,P,INI,Trunk_Forward,1,L_EO,47.47474747474748,bending,3
BMu40,12,P,INI,Trunk_Forward,1,L_EO,56.852248394004285,return,3
BMu40,12,P,INI,Trunk_Forward,1,R_EO,53.66598778004073,bending,1
BMu40,12,P,INI,Trunk_Forward,1,R_EO,57.98122065727699,return,1
BMu40,12,P,INI,Trunk_Forward,1,R_EO,55.85140927393168,bending,2
BMu40,12,P,INI,Trunk_Forward,1,R_EO,57.506702412868634,return,2
BMu40,12,P,INI,Trunk_Forward,1,R_EO,46.753246753246756,bending,3
BMu40,12,P,INI,Trunk_Forward,1,R_EO,53.21199143468951,return,3
BMu40,12,P,REL,Trunk_Forward,1,L_EO,71.66900420757364,bending,1
BMu40,12,P,REL,Trunk_Forward,1,L_EO,72.07488299531981,return,1
BMu40,12,P,REL,Trunk_Forward,1,L_EO,74.61255791660008,bending,2
BMu40,12,P,REL,Trunk_Forward,1,L_EO,66.40253565768622,return,2
BMu40,12,P,REL,Trunk_Forward,1,L_EO,66.40866873065016,bending,3
BMu40,12,P,REL,Trunk_Forward,1,L_EO,72.38723872387239,return,3
BMu40,12,P,REL,Trunk_Forward,1,R_EO,81.2061711079944,bending,1
BMu40,12,P,REL,Trunk_Forward,1,R_EO,82.99531981279252,return,1
BMu40,12,P,REL,Trunk_Forward,1,R_EO,85.63668317622623,bending,2
BMu40,12,P,REL,Trunk_Forward,1,R_EO,78.76386687797147,return,2
BMu40,12,P,REL,Trunk_Forward,1,R_EO,77.24458204334366,bending,3
BMu40,12,P,REL,Trunk_Forward,1,R_EO,78.43784378437844,return,3
BMu40,13,C,INI,Trunk_Forward,1,L_EO,26.802507836990596,bending,1
BMu40,13,C,INI,Trunk_Forward,1,L_EO,34.006734006734,return,1
BMu40,13,C,INI,Trunk_Forward,1,L_EO,23.063380281690144,bending,2
BMu40,13,C,INI,Trunk_Forward,1,L_EO,35.208711433756804,return,2
BMu40,13,C,INI,Trunk_Forward,1,L_EO,26.231364408378937,bending,3
BMu40,13,C,INI,Trunk_Forward,1,L_EO,26.808918068663655,return,3
BMu40,13,C,INI,Trunk_Forward,1,R_EO,44.043887147335425,bending,1
BMu40,13,C,INI,Trunk_Forward,1,R_EO,41.41414141414141,return,1
BMu40,13,C,INI,Trunk_Forward,1,R_EO,42.95774647887324,bending,2
BMu40,13,C,INI,Trunk_Forward,1,R_EO,46.64246823956443,return,2
BMu40,13,C,INI,Trunk_Forward,1,R_EO,48.12228722400452,bending,3
BMu40,13,C,INI,Trunk_Forward,1,R_EO,49.24086992203529,return,3
BMu40,13,C,REL,Trunk_Forward,1,L_EO,18.52080503765897,bending,1
BMu40,13,C,REL,Trunk_Forward,1,L_EO,29.48148148148148,return,1
BMu40,13,C,REL,Trunk_Forward,1,L_EO,23.75220670839352,bending,2
BMu40,13,C,REL,Trunk_Forward,1,L_EO,24.84066023860108,return,2
BMu40,13,C,REL,Trunk_Forward,1,L_EO,25.686880182084217,bending,3
BMu40,13,C,REL,Trunk_Forward,1,L_EO,26.297169811320753,return,3
BMu40,13,C,REL,Trunk_Forward,1,R_EO,66.67489813557229,bending,1
BMu40,13,C,REL,Trunk_Forward,1,R_EO,72.29629629629629,return,1
BMu40,13,C,REL,Trunk_Forward,1,R_EO,69.00978976087306,bending,2
BMu40,13,C,REL,Trunk_Forward,1,R_EO,66.51413629678052,return,2
BMu40,13,C,REL,Trunk_Forward,1,R_EO,78.52381726548529,bending,3
BMu40,13,C,REL,Trunk_Forward,1,R_EO,68.39622641509433,return,3
BMu40,14,P,INI,Trunk_Forward,1,L_EO,35.21212862208094,bending,1
BMu40,14,P,INI,Trunk_Forward,1,L_EO,90.44295684375446,return,1
BMu40,14,P,INI,Trunk_Forward,1,L_EO,40.32921810699589,bending,2
BMu40,14,P,INI,Trunk_Forward,1,L_EO,31.288427380789727,return,2
BMu40,14,P,INI,Trunk_Forward,1,L_EO,42.3076923076923,bending,3
BMu40,14,P,INI,Trunk_Forward,1,L_EO,37.6690946930281,return,3
BMu40,14,P,INI,Trunk_Forward,1,R_EO,61.621225088641644,bending,1
BMu40,14,P,INI,Trunk_Forward,1,R_EO,61.102407064520726,return,1
BMu40,14,P,INI,Trunk_Forward,1,R_EO,66.66666666666667,bending,2
BMu40,14,P,INI,Trunk_Forward,1,R_EO,28.96570569749966,return,2
BMu40,14,P,INI,Trunk_Forward,1,R_EO,79.12087912087911,bending,3
BMu40,14,P,INI,Trunk_Forward,1,R_EO,25.182101977107184,return,3
BMu40,14,P,REL,Trunk_Forward,1,L_EO,88.58243260032303,bending,1
BMu40,14,P,REL,Trunk_Forward,1,L_EO,76.59279778393352,return,1
BMu40,14,P,REL,Trunk_Forward,1,L_EO,52.26337448559671,bending,2
BMu40,14,P,REL,Trunk_Forward,1,L_EO,32.765957446808514,return,2
BMu40,14,P,REL,Trunk_Forward,1,L_EO,41.0085494855818,bending,3
BMu40,14,P,REL,Trunk_Forward,1,L_EO,27.576197387518143,return,3
BMu40,14,P,REL,Trunk_Forward,1,L_EO,26.068376068376068,bending,4
BMu40,14,P,REL,Trunk_Forward,1,L_EO,31.13300492610837,return,4
BMu40,14,P,REL,Trunk_Forward,1,R_EO,24.972046216921356,bending,1
BMu40,14,P,REL,Trunk_Forward,1,R_EO,73.40720221606648,return,1
BMu40,14,P,REL,Trunk_Forward,1,R_EO,29.35528120713306,bending,2
BMu40,14,P,REL,Trunk_Forward,1,R_EO,32.4822695035461,return,2
BMu40,14,P,REL,Trunk_Forward,1,R_EO,21.7359802927112,bending,3
BMu40,14,P,REL,Trunk_Forward,1,R_EO,30.478955007256893,return,3
BMu40,14,P,REL,Trunk_Forward,1,R_EO,20.37037037037037,bending,4
BMu40,14,P,REL,Trunk_Forward,1,R_EO,31.33004926108374,return,4
BMu40,16,C,INI,Trunk_Forward,1,L_EO,93.09828321235166,bending,1
BMu40,16,C,INI,Trunk_Forward,1,L_EO,97.46070133010883,return,1
BMu40,16,C,INI,Trunk_Forward,1,L_EO,91.67544783983139,bending,2
BMu40,16,C,INI,Trunk_Forward,1,L_EO,96.57079646017698,return,2
BMu40,16,C,INI,Trunk_Forward,1,L_EO,105.90809628008752,bending,3
BMu40,16,C,INI,Trunk_Forward,1,L_EO,92.70650263620385,return,3
BMu40,16,C,INI,Trunk_Forward,1,R_EO,22.928908860467796,bending,1
BMu40,16,C,INI,Trunk_Forward,1,R_EO,68.07738814993954,return,1
BMu40,16,C,INI,Trunk_Forward,1,R_EO,57.136166725207815,bending,2
BMu40,16,C,INI,Trunk_Forward,1,R_EO,79.20353982300884,return,2
BMu40,16,C,INI,Trunk_Forward,1,R_EO,91.2472647702407,bending,3
BMu40,16,C,INI,Trunk_Forward,1,R_EO,42.88224956063269,return,3
BMu40,16,C,REL,Trunk_Forward,1,L_EO,72.625,bending,1
BMu40,16,C,REL,Trunk_Forward,1,L_EO,77.7260544505572,return,1
BMu40,16,C,REL,Trunk_Forward,1,L_EO,72.3061714447112,bending,2
BMu40,16,C,REL,Trunk_Forward,1,L_EO,81.02710413694722,return,2
BMu40,16,C,REL,Trunk_Forward,1,L_EO,105.21739130434783,bending,3
BMu40,16,C,REL,Trunk_Forward,1,L_EO,89.97828110456096,return,3
BMu40,16,C,REL,Trunk_Forward,1,R_EO,64.5,bending,1
BMu40,16,C,REL,Trunk_Forward,1,R_EO,21.72379743264212,return,1
BMu40,16,C,REL,Trunk_Forward,1,R_EO,27.820929247281455,bending,2
BMu40,16,C,REL,Trunk_Forward,1,R_EO,30.52781740370899,return,2
BMu40,16,C,REL,Trunk_Forward,1,R_EO,64.6376811594203,bending,3
BMu40,16,C,REL,Trunk_Forward,1,R_EO,26.99348433136829,return,3
BMu40,17,P,INI,Trunk_Forward,1,L_EO,85.95354716384895,bending,1
BMu40,17,P,INI,Trunk_Forward,1,L_EO,54.62608345091715,return,1
BMu40,17,P,INI,Trunk_Forward,1,L_EO,69.24603174603175,bending,2
BMu40,17,P,INI,Trunk_Forward,1,L_EO,61.24016125935879,return,2
BMu40,17,P,INI,Trunk_Forward,1,L_EO,57.39130434782608,bending,3
BMu40,17,P,INI,Trunk_Forward,1,L_EO,67.83571758191047,return,3
BMu40,17,P,INI,Trunk_Forward,1,R_EO,79.47543055775003,bending,1
BMu40,17,P,INI,Trunk_Forward,1,R_EO,89.9012295908083,return,1
BMu40,17,P,INI,Trunk_Forward,1,R_EO,82.34126984126983,bending,2
BMu40,17,P,INI,Trunk_Forward,1,R_EO,89.65252447686694,return,2
BMu40,17,P,INI,Trunk_Forward,1,R_EO,86.08695652173911,bending,3
BMu40,17,P,INI,Trunk_Forward,1,R_EO,87.52499615443777,return,3
BMu40,17,P,REL,Trunk_Forward,1,L_EO,86.13692891739757,bending,1
BMu40,17,P,REL,Trunk_Forward,1,L_EO,84.33734939759036,return,1
BMu40,17,P,REL,Trunk_Forward,1,L_EO,88.20103178565485,bending,2
BMu40,17,P,REL,Trunk_Forward,1,L_EO,81.8356307799686,return,2
BMu40,17,P,REL,Trunk_Forward,1,L_EO,84.9056603773585,bending,3
BMu40,17,P,REL,Trunk_Forward,1,L_EO,60.52998605299861,return,3
BMu40,17,P,REL,Trunk_Forward,1,R_EO,79.19884801675612,bending,1
BMu40,17,P,REL,Trunk_Forward,1,R_EO,83.55499921764982,return,1
BMu40,17,P,REL,Trunk_Forward,1,R_EO,84.37343984023964,bending,2
BMu40,17,P,REL,Trunk_Forward,1,R_EO,87.94276740533938,return,2
BMu40,17,P,REL,Trunk_Forward,1,R_EO,87.16981132075472,bending,3
BMu40,17,P,REL,Trunk_Forward,1,R_EO,86.75034867503487,return,3
BMu40,21,C,INI,Trunk_Forward,1,L_EO,59.097744360902254,bending,1
BMu40,21,C,INI,Trunk_Forward,1,L_EO,67.19799968745116,return,1
BMu40,21,C,INI,Trunk_Forward,1,L_EO,60.118003508212404,bending,2
BMu40,21,C,INI,Trunk_Forward,1,L_EO,65.30050466432176,return,2
BMu40,21,C,INI,Trunk_Forward,1,L_EO,65.29313740342373,bending,3
BMu40,21,C,INI,Trunk_Forward,1,L_EO,67.9035250463822,return,3
BMu40,21,C,INI,Trunk_Forward,1,R_EO,59.69924812030075,bending,1
BMu40,21,C,INI,Trunk_Forward,1,R_EO,66.2603531801844,return,1
BMu40,21,C,INI,Trunk_Forward,1,R_EO,61.71264551108276,bending,2
BMu40,21,C,INI,Trunk_Forward,1,R_EO,65.14757608196972,return,2
BMu40,21,C,INI,Trunk_Forward,1,R_EO,56.5065899106196,bending,3
BMu40,21,C,INI,Trunk_Forward,1,R_EO,59.92578849721707,return,3
BMu40,21,C,REL,Trunk_Forward,1,L_EO,77.0981507823613,bending,1
BMu40,21,C,REL,Trunk_Forward,1,L_EO,76.91131498470948,return,1
BMu40,21,C,REL,Trunk_Forward,1,L_EO,69.14647322117611,bending,2
BMu40,21,C,REL,Trunk_Forward,1,L_EO,75.88796745423251,return,2
BMu40,21,C,REL,Trunk_Forward,1,L_EO,48.17275747508305,bending,3
BMu40,21,C,REL,Trunk_Forward,1,L_EO,57.87037037037037,return,3
BMu40,21,C,REL,Trunk_Forward,1,R_EO,44.66571834992887,bending,1
BMu40,21,C,REL,Trunk_Forward,1,R_EO,56.269113149847094,return,1
BMu40,21,C,REL,Trunk_Forward,1,R_EO,54.79240623553017,bending,2
BMu40,21,C,REL,Trunk_Forward,1,R_EO,59.615083711469254,return,2
BMu40,21,C,REL,Trunk_Forward,1,R_EO,57.641196013289026,bending,3
BMu40,21,C,REL,Trunk_Forward,1,R_EO,61.92129629629629,return,3
BMu40,22,C,INI,Trunk_Forward,1,L_EO,59.233064427008514,bending,1
BMu40,22,C,INI,Trunk_Forward,1,L_EO,48.604360505485346,return,1
BMu40,22,C,INI,Trunk_Forward,1,L_EO,59.480099867822,bending,2
BMu40,22,C,INI,Trunk_Forward,1,L_EO,51.186943620178035,return,2
BMu40,22,C,INI,Trunk_Forward,1,L_EO,52.1923835533303,bending,3
BMu40,22,C,INI,Trunk_Forward,1,L_EO,52.94055980710766,return,3
BMu40,22,C,INI,Trunk_Forward,1,R_EO,74.48336832799205,bending,1
BMu40,22,C,INI,Trunk_Forward,1,R_EO,74.85071517844743,return,1
BMu40,22,C,INI,Trunk_Forward,1,R_EO,72.6978998384491,bending,2
BMu40,22,C,INI,Trunk_Forward,1,R_EO,81.4540059347181,return,2
BMu40,22,C,INI,Trunk_Forward,1,R_EO,74.64724624487938,bending,3
BMu40,22,C,INI,Trunk_Forward,1,R_EO,69.92347206206101,return,3
BMu40,22,C,REL,Trunk_Forward,1,L_EO,59.31639845724165,bending,1
BMu40,22,C,REL,Trunk_Forward,1,L_EO,68.24925816023739,return,1
BMu40,22,C,REL,Trunk_Forward,1,L_EO,60.081313055262754,bending,2
BMu40,22,C,REL,Trunk_Forward,1,L_EO,66.14173228346456,return,2
BMu40,22,C,REL,Trunk_Forward,1,L_EO,55.9349593495935,bending,3
BMu40,22,C,REL,Trunk_Forward,1,L_EO,65.33180778032036,return,3
BMu40,22,C,REL,Trunk_Forward,1,R_EO,99.48131400452186,bending,1
BMu40,22,C,REL,Trunk_Forward,1,R_EO,97.6261127596439,return,1
BMu40,22,C,REL,Trunk_Forward,1,R_EO,96.52160819153741,bending,2
BMu40,22,C,REL,Trunk_Forward,1,R_EO,97.63779527559055,return,2
BMu40,22,C,REL,Trunk_Forward,1,R_EO,96.09756097560975,bending,3
BMu40,22,C,REL,Trunk_Forward,1,R_EO,91.87643020594965,return,3
BMu40,23,C,INI,Trunk_Forward,1,L_EO,76.62337662337661,bending,1
BMu40,23,C,INI,Trunk_Forward,1,L_EO,84.2026825633383,return,1
BMu40,23,C,INI,Trunk_Forward,1,L_EO,89.09090909090908,bending,2
BMu40,23,C,INI,Trunk_Forward,1,L_EO,84.5028807800266,return,2
BMu40,23,C,INI,Trunk_Forward,1,L_EO,87.52629024429703,bending,3
BMu40,23,C,INI,Trunk_Forward,1,L_EO,99.28656361474435,return,3
BMu40,23,C,INI,Trunk_Forward,1,R_EO,59.870129870129865,bending,1
BMu40,23,C,INI,Trunk_Forward,1,R_EO,61.25186289120715,return,1
BMu40,23,C,INI,Trunk_Forward,1,R_EO,61.06060606060605,bending,2
BMu40,23,C,INI,Trunk_Forward,1,R_EO,57.615600531836314,return,2
BMu40,23,C,INI,Trunk_Forward,1,R_EO,61.31693900663323,bending,3
BMu40,23,C,INI,Trunk_Forward,1,R_EO,60.87990487514863,return,3
BMu40,23,C,REL,Trunk_Forward,1,L_EO,51.97015316140856,bending,1
BMu40,23,C,REL,Trunk_Forward,1,L_EO,88.55357415028196,return,1
BMu40,23,C,REL,Trunk_Forward,1,L_EO,85.1808634772462,bending,2
BMu40,23,C,REL,Trunk_Forward,1,L_EO,96.4102564102564,return,2
BMu40,23,C,REL,Trunk_Forward,1,L_EO,73.76760563380283,bending,3
BMu40,23,C,REL,Trunk_Forward,1,L_EO,85.37729526873072,return,3
BMu40,23,C,REL,Trunk_Forward,1,R_EO,57.730069380809006,bending,1
BMu40,23,C,REL,Trunk_Forward,1,R_EO,62.49047401310775,return,1
BMu40,23,C,REL,Trunk_Forward,1,R_EO,63.84397399566594,bending,2
BMu40,23,C,REL,Trunk_Forward,1,R_EO,57.77777777777777,return,2
BMu40,23,C,REL,Trunk_Forward,1,R_EO,66.54929577464789,bending,3
BMu40,23,C,REL,Trunk_Forward,1,R_EO,63.39632757003082,return,3
BMu40,24,P,INI,Trunk_Forward,1,L_EO,58.77833269304648,bending,1
BMu40,24,P,INI,Trunk_Forward,1,L_EO,61.54066848371826,return,1
BMu40,24,P,INI,Trunk_Forward,1,L_EO,62.94117647058824,bending,2
BMu40,24,P,INI,Trunk_Forward,1,L_EO,62.98600311041991,return,2
BMu40,24,P,INI,Trunk_Forward,1,L_EO,56.071822334225864,bending,3
BMu40,24,P,INI,Trunk_Forward,1,L_EO,70.49941927990709,return,3
BMu40,24,P,INI,Trunk_Forward,1,R_EO,86.56678191829938,bending,1
BMu40,24,P,INI,Trunk_Forward,1,R_EO,82.34112752833165,return,1
BMu40,24,P,INI,Trunk_Forward,1,R_EO,86.17647058823529,bending,2
BMu40,24,P,INI,Trunk_Forward,1,R_EO,86.93623639191291,return,2
BMu40,24,P,INI,Trunk_Forward,1,R_EO,85.21026933375335,bending,3
BMu40,24,P,INI,Trunk_Forward,1,R_EO,83.739837398374,return,3
BMu40,24,P,REL,Trunk_Forward,1,L_EO,63.34177890385384,bending,1
BMu40,24,P,REL,Trunk_Forward,1,L_EO,63.14839873703203,return,1
BMu40,24,P,REL,Trunk_Forward,1,L_EO,64.25067257477448,bending,2
BMu40,24,P,REL,Trunk_Forward,1,L_EO,72.93354943273906,return,2
BMu40,24,P,REL,Trunk_Forward,1,L_EO,61.129568106312284,bending,3
BMu40,24,P,REL,Trunk_Forward,1,L_EO,70.3133078275256,return,3
BMu40,24,P,REL,Trunk_Forward,1,R_EO,74.67662354980664,bending,1
BMu40,24,P,REL,Trunk_Forward,1,R_EO,81.79221169748911,return,1
BMu40,24,P,REL,Trunk_Forward,1,R_EO,82.44975470802342,bending,2
BMu40,24,P,REL,Trunk_Forward,1,R_EO,80.87520259319287,return,2
BMu40,24,P,REL,Trunk_Forward,1,R_EO,80.06644518272424,bending,3
BMu40,24,P,REL,Trunk_Forward,1,R_EO,74.1391789887292,return,3
BMu40,25,C,INI,Trunk_Forward,1,L_EO,82.96943231441048,bending,1
BMu40,25,C,INI,Trunk_Forward,1,L_EO,71.02522273811019,return,1
BMu40,25,C,INI,Trunk_Forward,1,L_EO,73.22687383110343,bending,2
BMu40,25,C,INI,Trunk_Forward,1,L_EO,49.51606115864777,return,2
BMu40,25,C,INI,Trunk_Forward,1,L_EO,40.99722991689751,bending,3
BMu40,25,C,INI,Trunk_Forward,1,L_EO,45.420699925539836,return,3
BMu40,25,C,INI,Trunk_Forward,1,R_EO,40.17467248908297,bending,1
BMu40,25,C,INI,Trunk_Forward,1,R_EO,25.097251850922326,return,1
BMu40,25,C,INI,Trunk_Forward,1,R_EO,24.16918429003021,bending,2
BMu40,25,C,INI,Trunk_Forward,1,R_EO,20.620002805442557,return,2
BMu40,25,C,INI,Trunk_Forward,1,R_EO,26.59279778393352,bending,3
BMu40,25,C,INI,Trunk_Forward,1,R_EO,19.359642591213703,return,3
BMu40,25,C,REL,Trunk_Forward,1,L_EO,62.166521900980264,bending,1
BMu40,25,C,REL,Trunk_Forward,1,L_EO,61.895254185225006,return,1
BMu40,25,C,REL,Trunk_Forward,1,L_EO,62.34973553454079,bending,2
BMu40,25,C,REL,Trunk_Forward,1,L_EO,64.50622024266626,return,2
BMu40,25,C,REL,Trunk_Forward,1,L_EO,69.04726626166838,bending,3
BMu40,25,C,REL,Trunk_Forward,1,L_EO,59.02816743350915,return,3
BMu40,25,C,REL,Trunk_Forward,1,R_EO,48.51718575505645,bending,1
BMu40,25,C,REL,Trunk_Forward,1,R_EO,31.178006450622025,return,1
BMu40,25,C,REL,Trunk_Forward,1,R_EO,37.18544638563873,bending,2
BMu40,25,C,REL,Trunk_Forward,1,R_EO,33.0210413146982,return,2
BMu40,25,C,REL,Trunk_Forward,1,R_EO,37.93154541413542,bending,3
BMu40,25,C,REL,Trunk_Forward,1,R_EO,34.33958029401863,return,3
BMu40,26,P,INI,Trunk_Forward,1,L_EO,38.240406471453404,bending,1
BMu40,26,P,INI,Trunk_Forward,1,L_EO,32.08709353960751,return,1
BMu40,26,P,INI,Trunk_Forward,1,L_EO,32.46951219512195,bending,2
BMu40,26,P,INI,Trunk_Forward,1,L_EO,37.331334332833585,return,2
BMu40,26,P,INI,Trunk_Forward,1,L_EO,37.81388478581979,bending,3
BMu40,26,P,INI,Trunk_Forward,1,L_EO,36.02209944751381,return,3
BMu40,26,P,INI,Trunk_Forward,1,R_EO,38.106698756518256,bending,1
BMu40,26,P,INI,Trunk_Forward,1,R_EO,34.23578283913479,return,1
BMu40,26,P,INI,Trunk_Forward,1,R_EO,32.3170731707317,bending,2
BMu40,26,P,INI,Trunk_Forward,1,R_EO,37.93103448275862,return,2
BMu40,26,P,INI,Trunk_Forward,1,R_EO,34.71196454948301,bending,3
BMu40,26,P,INI,Trunk_Forward,1,R_EO,36.46408839779006,return,3
BMu40,26,P,REL,Trunk_Forward,1,L_EO,36.31327896599476,bending,1
BMu40,26,P,REL,Trunk_Forward,1,L_EO,28.1841363575359,return,1
BMu40,26,P,REL,Trunk_Forward,1,L_EO,36.89435471921765,bending,2
BMu40,26,P,REL,Trunk_Forward,1,L_EO,35.14376996805112,return,2
BMu40,26,P,REL,Trunk_Forward,1,L_EO,32.6797385620915,bending,3
BMu40,26,P,REL,Trunk_Forward,1,L_EO,41.992433795712486,return,3
BMu40,26,P,REL,Trunk_Forward,1,R_EO,27.081089398368977,bending,1
BMu40,26,P,REL,Trunk_Forward,1,R_EO,29.12360756945376,return,1
BMu40,26,P,REL,Trunk_Forward,1,R_EO,28.004148762779668,bending,2
BMu40,26,P,REL,Trunk_Forward,1,R_EO,24.281150159744406,return,2
BMu40,26,P,REL,Trunk_Forward,1,R_EO,25.260554672319376,bending,3
BMu40,26,P,REL,Trunk_Forward,1,R_EO,23.581336696090794,return,3
BMu40,27,P,INI,Trunk_Forward,1,L_EO,65.66623023466613,bending,1
BMu40,27,P,INI,Trunk_Forward,1,L_EO,74.39724454649827,return,1
BMu40,27,P,INI,Trunk_Forward,1,L_EO,65.36107711138311,bending,2
BMu40,27,P,INI,Trunk_Forward,1,L_EO,70.66666666666667,return,2
BMu40,27,P,INI,Trunk_Forward,1,L_EO,66.12285255221852,bending,3
BMu40,27,P,INI,Trunk_Forward,1,L_EO,68.52356443637096,return,3
BMu40,27,P,INI,Trunk_Forward,1,R_EO,70.09769362473561,bending,1
BMu40,27,P,INI,Trunk_Forward,1,R_EO,73.82319173363949,return,1
BMu40,27,P,INI,Trunk_Forward,1,R_EO,72.82741738066095,bending,2
BMu40,27,P,INI,Trunk_Forward,1,R_EO,67.39393939393939,return,2
BMu40,27,P,INI,Trunk_Forward,1,R_EO,73.29131133358054,bending,3
BMu40,27,P,INI,Trunk_Forward,1,R_EO,69.33091129276414,return,3
BMu40,27,P,REL,Trunk_Forward,1,L_EO,65.79496452914175,bending,1
BMu40,27,P,REL,Trunk_Forward,1,L_EO,67.44186046511628,return,1
BMu40,27,P,REL,Trunk_Forward,1,L_EO,62.55725690354665,bending,2
BMu40,27,P,REL,Trunk_Forward,1,L_EO,78.32373811755255,return,2
BMu40,27,P,REL,Trunk_Forward,1,L_EO,60.38514442916093,bending,3
BMu40,27,P,REL,Trunk_Forward,1,L_EO,62.575696406943884,return,3
BMu40,27,P,REL,Trunk_Forward,1,L_EO,50.86782376502002,bending,4
BMu40,27,P,REL,Trunk_Forward,1,L_EO,53.50109409190372,return,4
BMu40,27,P,REL,Trunk_Forward,1,R_EO,59.81360411740159,bending,1
BMu40,27,P,REL,Trunk_Forward,1,R_EO,38.37209302325581,return,1
BMu40,27,P,REL,Trunk_Forward,1,R_EO,32.194738908519824,bending,2
BMu40,27,P,REL,Trunk_Forward,1,R_EO,43.780961306734504,return,2
BMu40,27,P,REL,Trunk_Forward,1,R_EO,60.38514442916093,bending,3
BMu40,27,P,REL,Trunk_Forward,1,R_EO,23.146279101063115,return,3
BMu40,27,P,REL,Trunk_Forward,1,R_EO,36.3150867823765,bending,4
BMu40,27,P,REL,Trunk_Forward,1,R_EO,31.400437636761488,return,4
BMu40,28,P,INI,Trunk_Forward,1,L_EO,62.42774566473988,bending,1
BMu40,28,P,INI,Trunk_Forward,1,L_EO,63.632532659081335,return,1
BMu40,28,P,INI,Trunk_Forward,1,L_EO,66.33010797924554,bending,2
BMu40,28,P,INI,Trunk_Forward,1,L_EO,66.19248076643925,return,2
BMu40,28,P,INI,Trunk_Forward,1,L_EO,64.11945542380325,bending,3
BMu40,28,P,INI,Trunk_Forward,1,L_EO,78.21350762527234,return,3
BMu40,28,P,INI,Trunk_Forward,1,R_EO,76.41618497109826,bending,1
BMu40,28,P,INI,Trunk_Forward,1,R_EO,81.89352437140049,return,1
BMu40,28,P,INI,Trunk_Forward,1,R_EO,82.87757677745057,bending,2
BMu40,28,P,INI,Trunk_Forward,1,R_EO,78.3858324865728,return,2
BMu40,28,P,INI,Trunk_Forward,1,R_EO,76.56272873664177,bending,3
BMu40,28,P,INI,Trunk_Forward,1,R_EO,84.20479302832244,return,3
BMu40,28,P,REL,Trunk_Forward,1,L_EO,65.04161712247324,bending,1
BMu40,28,P,REL,Trunk_Forward,1,L_EO,71.04818807637355,return,1
BMu40,28,P,REL,Trunk_Forward,1,L_EO,72.47924080664295,bending,2
BMu40,28,P,REL,Trunk_Forward,1,L_EO,73.36645013374091,return,2
BMu40,28,P,REL,Trunk_Forward,1,L_EO,71.261521529784,bending,3
BMu40,28,P,REL,Trunk_Forward,1,L_EO,74.84276729559748,return,3
BMu40,28,P,REL,Trunk_Forward,1,R_EO,65.2794292508918,bending,1
BMu40,28,P,REL,Trunk_Forward,1,R_EO,76.89310300038966,return,1
BMu40,28,P,REL,Trunk_Forward,1,R_EO,76.39383155397391,bending,2
BMu40,28,P,REL,Trunk_Forward,1,R_EO,73.36645013374091,return,2
BMu40,28,P,REL,Trunk_Forward,1,R_EO,69.47310496629522,bending,3
BMu40,28,P,REL,Trunk_Forward,1,R_EO,74.84276729559748,return,3
BMu40,29,P,INI,Trunk_Forward,1,L_EO,81.01045296167247,bending,1
BMu40,29,P,INI,Trunk_Forward,1,L_EO,74.67105263157896,return,1
BMu40,29,P,INI,Trunk_Forward,1,L_EO,73.59154929577466,bending,2
BMu40,29,P,INI,Trunk_Forward,1,L_EO,74.25830520518741,return,2
BMu40,29,P,INI,Trunk_Forward,1,L_EO,74.59349593495935,bending,3
BMu40,29,P,INI,Trunk_Forward,1,L_EO,65.77515160939201,return,3
BMu40,29,P,INI,Trunk_Forward,1,R_EO,72.9965156794425,bending,1
BMu40,29,P,INI,Trunk_Forward,1,R_EO,68.58552631578948,return,1
BMu40,29,P,INI,Trunk_Forward,1,R_EO,76.05633802816902,bending,2
BMu40,29,P,INI,Trunk_Forward,1,R_EO,74.96891099662461,return,2
BMu40,29,P,INI,Trunk_Forward,1,R_EO,75.0,bending,3
BMu40,29,P,INI,Trunk_Forward,1,R_EO,64.22018348623854,return,3
BMu40,29,P,REL,Trunk_Forward,1,L_EO,70.50784283273799,bending,1
BMu40,29,P,REL,Trunk_Forward,1,L_EO,68.47386023587397,return,1
BMu40,29,P,REL,Trunk_Forward,1,L_EO,78.92918825561313,bending,2
BMu40,29,P,REL,Trunk_Forward,1,L_EO,61.77051535284611,return,2
BMu40,29,P,REL,Trunk_Forward,1,L_EO,79.73977695167287,bending,3
BMu40,29,P,REL,Trunk_Forward,1,L_EO,66.74581189816647,return,3
BMu40,29,P,REL,Trunk_Forward,1,R_EO,87.90184811306102,bending,1
BMu40,29,P,REL,Trunk_Forward,1,R_EO,89.24485125858124,return,1
BMu40,29,P,REL,Trunk_Forward,1,R_EO,83.41968911917098,bending,2
BMu40,29,P,REL,Trunk_Forward,1,R_EO,73.26270425570121,return,2
BMu40,29,P,REL,Trunk_Forward,1,R_EO,86.43122676579927,bending,3
BMu40,29,P,REL,Trunk_Forward,1,R_EO,76.9027832739744,return,3
BMu40,30,P,INI,Trunk_Forward,1,L_EO,88.2747068676717,bending,1
BMu40,30,P,INI,Trunk_Forward,1,L_EO,90.12567324955117,return,1
BMu40,30,P,INI,Trunk_Forward,1,L_EO,97.7244663961898,bending,2
BMu40,30,P,INI,Trunk_Forward,1,L_EO,84.83146067415731,return,2
BMu40,30,P,INI,Trunk_Forward,1,L_EO,95.55125725338492,bending,3
BMu40,30,P,INI,Trunk_Forward,1,L_EO,78.59922178988327,return,3
BMu40,30,P,INI,Trunk_Forward,1,R_EO,57.6214405360134,bending,1
BMu40,30,P,INI,Trunk_Forward,1,R_EO,46.319569120287255,return,1
BMu40,30,P,INI,Trunk_Forward,1,R_EO,69.14799788322455,bending,2
BMu40,30,P,INI,Trunk_Forward,1,R_EO,36.329588014981276,return,2
BMu40,30,P,INI,Trunk_Forward,1,R_EO,46.61508704061896,bending,3
BMu40,30,P,INI,Trunk_Forward,1,R_EO,44.16342412451362,return,3
BMu40,30,P,REL,Trunk_Forward,1,L_EO,85.87662337662337,bending,1
BMu40,30,P,REL,Trunk_Forward,1,L_EO,61.001788908765654,return,1
BMu40,30,P,REL,Trunk_Forward,1,L_EO,86.85524126455908,bending,2
BMu40,30,P,REL,Trunk_Forward,1,L_EO,82.71327219242083,return,2
BMu40,30,P,REL,Trunk_Forward,1,L_EO,104.01025453213697,bending,3
BMu40,30,P,REL,Trunk_Forward,1,L_EO,96.1827883431386,return,3
BMu40,30,P,REL,Trunk_Forward,1,R_EO,42.37012987012987,bending,1
BMu40,30,P,REL,Trunk_Forward,1,R_EO,26.833631484794278,return,1
BMu40,30,P,REL,Trunk_Forward,1,R_EO,33.27787021630616,bending,2
BMu40,30,P,REL,Trunk_Forward,1,R_EO,36.16542654438484,return,2
BMu40,30,P,REL,Trunk_Forward,1,R_EO,40.65189525727889,bending,3
BMu40,30,P,REL,Trunk_Forward,1,R_EO,40.49801614447941,return,3
BMu40,32,P,INI,Trunk_Forward,1,L_EO,83.64135600380189,bending,1
BMu40,32,P,INI,Trunk_Forward,1,L_EO,90.31179070600884,return,1
BMu40,32,P,INI,Trunk_Forward,1,L_EO,87.14285714285714,bending,2
BMu40,32,P,INI,Trunk_Forward,1,L_EO,90.23687178844466,return,2
BMu40,32,P,INI,Trunk_Forward,1,L_EO,90.70092863503372,bending,3
BMu40,32,P,INI,Trunk_Forward,1,L_EO,78.35820895522387,return,3
BMu40,32,P,INI,Trunk_Forward,1,R_EO,70.54599218502482,bending,1
BMu40,32,P,INI,Trunk_Forward,1,R_EO,69.88412376060207,return,1
BMu40,32,P,INI,Trunk_Forward,1,R_EO,76.30952380952381,bending,2
BMu40,32,P,INI,Trunk_Forward,1,R_EO,80.2105527008397,return,2
BMu40,32,P,INI,Trunk_Forward,1,R_EO,75.308484925582,bending,3
BMu40,32,P,INI,Trunk_Forward,1,R_EO,70.682302771855,return,3
BMu40,32,P,REL,Trunk_Forward,1,L_EO,30.25316455696202,bending,1
BMu40,32,P,REL,Trunk_Forward,1,L_EO,34.326241134751776,return,1
BMu40,32,P,REL,Trunk_Forward,1,L_EO,56.375213542475535,bending,2
BMu40,32,P,REL,Trunk_Forward,1,L_EO,69.42485503839524,return,2
BMu40,32,P,REL,Trunk_Forward,1,L_EO,48.55703160787907,bending,3
BMu40,32,P,REL,Trunk_Forward,1,L_EO,44.51510333863275,return,3
BMu40,32,P,REL,Trunk_Forward,1,L_EO,45.090671458911935,bending,4
BMu40,32,P,REL,Trunk_Forward,1,L_EO,47.94188861985472,return,4
BMu40,32,P,REL,Trunk_Forward,1,R_EO,62.27848101265822,bending,1
BMu40,32,P,REL,Trunk_Forward,1,R_EO,83.40425531914894,return,1
BMu40,32,P,REL,Trunk_Forward,1,R_EO,79.0495418543252,bending,2
BMu40,32,P,REL,Trunk_Forward,1,R_EO,80.70835292273938,return,2
BMu40,32,P,REL,Trunk_Forward,1,R_EO,89.93739502214078,bending,3
BMu40,32,P,REL,Trunk_Forward,1,R_EO,87.44038155802862,return,3
BMu40,32,P,REL,Trunk_Forward,1,R_EO,88.0575069433099,bending,4
BMu40,32,P,REL,Trunk_Forward,1,R_EO,65.2542372881356,return,4
BMu40,33,P,INI,Trunk_Forward,1,L_EO,39.569160997732425,bending,1
BMu40,33,P,INI,Trunk_Forward,1,L_EO,43.53051141674456,return,1
BMu40,33,P,INI,Trunk_Forward,1,L_EO,35.459940652818986,bending,2
BMu40,33,P,INI,Trunk_Forward,1,L_EO,42.98921417565485,return,2
BMu40,33,P,INI,Trunk_Forward,1,L_EO,33.73493975903614,bending,3
BMu40,33,P,INI,Trunk_Forward,1,L_EO,42.38683127572017,return,3
BMu40,33,P,INI,Trunk_Forward,1,L_EO,33.85490753911806,bending,4
BMu40,33,P,INI,Trunk_Forward,1,L_EO,42.124105011933175,return,4
BMu40,33,P,INI,Trunk_Forward,1,R_EO,60.317460317460316,bending,1
BMu40,33,P,INI,Trunk_Forward,1,R_EO,54.079316330618234,return,1
BMu40,33,P,INI,Trunk_Forward,1,R_EO,55.19287833827893,bending,2
BMu40,33,P,INI,Trunk_Forward,1,R_EO,46.379044684129425,return,2
BMu40,33,P,INI,Trunk_Forward,1,R_EO,54.66867469879517,bending,3
BMu40,33,P,INI,Trunk_Forward,1,R_EO,44.44444444444444,return,3
BMu40,33,P,INI,Trunk_Forward,1,R_EO,53.20056899004267,bending,4
BMu40,33,P,INI,Trunk_Forward,1,R_EO,46.53937947494033,return,4
BMu40,33,P,REL,Trunk_Forward,1,L_EO,37.51999015869111,bending,1
BMu40,33,P,REL,Trunk_Forward,1,L_EO,33.285714285714285,return,1
BMu40,33,P,REL,Trunk_Forward,1,L_EO,35.9375,bending,2
BMu40,33,P,REL,Trunk_Forward,1,L_EO,25.403737978588275,return,2
BMu40,33,P,REL,Trunk_Forward,1,L_EO,34.573998941612274,bending,3
BMu40,33,P,REL,Trunk_Forward,1,L_EO,36.689655172413794,return,3
BMu40,33,P,REL,Trunk_Forward,1,R_EO,41.825562799852385,bending,1
BMu40,33,P,REL,Trunk_Forward,1,R_EO,44.285714285714285,return,1
BMu40,33,P,REL,Trunk_Forward,1,R_EO,52.08333333333333,bending,2
BMu40,33,P,REL,Trunk_Forward,1,R_EO,41.008891308292505,return,2
BMu40,33,P,REL,Trunk_Forward,1,R_EO,38.63115187863821,bending,3
BMu40,33,P,REL,Trunk_Forward,1,R_EO,43.724137931034484,return,3
BMu40,34,P,INI,Trunk_Forward,1,L_EO,40.42528332749153,bending,1
BMu40,34,P,INI,Trunk_Forward,1,L_EO,58.91472868217054,return,1
BMu40,34,P,INI,Trunk_Forward,1,L_EO,55.807743658210946,bending,2
BMu40,34,P,INI,Trunk_Forward,1,L_EO,59.29577464788731,return,2
BMu40,34,P,INI,Trunk_Forward,1,L_EO,46.043808672329014,bending,3
BMu40,34,P,INI,Trunk_Forward,1,L_EO,47.96633941093969,return,3
BMu40,34,P,INI,Trunk_Forward,1,R_EO,58.184367332632306,bending,1
BMu40,34,P,INI,Trunk_Forward,1,R_EO,59.56072351421188,return,1
BMu40,34,P,INI,Trunk_Forward,1,R_EO,63.81842456608811,bending,2
BMu40,34,P,INI,Trunk_Forward,1,R_EO,59.577464788732385,return,2
BMu40,34,P,INI,Trunk_Forward,1,R_EO,58.70958128445835,bending,3
BMu40,34,P,INI,Trunk_Forward,1,R_EO,48.10659186535764,return,3
BMu40,34,P,REL,Trunk_Forward,1,L_EO,71.36498516320474,bending,1
BMu40,34,P,REL,Trunk_Forward,1,L_EO,68.00731261425959,return,1
BMu40,34,P,REL,Trunk_Forward,1,L_EO,63.82189239332097,bending,2
BMu40,34,P,REL,Trunk_Forward,1,L_EO,65.14598540145985,return,2
BMu40,34,P,REL,Trunk_Forward,1,L_EO,61.27770534550196,bending,3
BMu40,34,P,REL,Trunk_Forward,1,L_EO,64.2008720493159,return,3
BMu40,34,P,REL,Trunk_Forward,1,R_EO,53.85756676557863,bending,1
BMu40,34,P,REL,Trunk_Forward,1,R_EO,56.672760511883,return,1
BMu40,34,P,REL,Trunk_Forward,1,R_EO,46.3821892393321,bending,2
BMu40,34,P,REL,Trunk_Forward,1,R_EO,52.55474452554745,return,2
BMu40,34,P,REL,Trunk_Forward,1,R_EO,52.33749301545912,bending,3
BMu40,34,P,REL,Trunk_Forward,1,R_EO,50.518718989625626,return,3
BMu40,35,C,INI,Trunk_Forward,1,L_EO,33.28591749644381,bending,1
BMu40,35,C,INI,Trunk_Forward,1,L_EO,67.97153024911033,return,1
BMu40,35,C,INI,Trunk_Forward,1,L_EO,63.25757575757576,bending,2
BMu40,35,C,INI,Trunk_Forward,1,L_EO,71.89292543021033,return,2
BMu40,35,C,INI,Trunk_Forward,1,L_EO,64.92985971943887,bending,3
BMu40,35,C,INI,Trunk_Forward,1,L_EO,82.83185840707965,return,3
BMu40,35,C,INI,Trunk_Forward,1,R_EO,55.90327169274537,bending,1
BMu40,35,C,INI,Trunk_Forward,1,R_EO,40.569395017793596,return,1
BMu40,35,C,INI,Trunk_Forward,1,R_EO,28.977272727272727,bending,2
BMu40,35,C,INI,Trunk_Forward,1,R_EO,75.1434034416826,return,2
BMu40,35,C,INI,Trunk_Forward,1,R_EO,67.33466933867734,bending,3
BMu40,35,C,INI,Trunk_Forward,1,R_EO,84.070796460177,return,3
BMu40,35,C,REL,Trunk_Forward,1,L_EO,72.35023041474655,bending,1
BMu40,35,C,REL,Trunk_Forward,1,L_EO,30.5896558663715,return,1
BMu40,35,C,REL,Trunk_Forward,1,L_EO,53.94190871369294,bending,2
BMu40,35,C,REL,Trunk_Forward,1,L_EO,24.59349593495935,return,2
BMu40,35,C,REL,Trunk_Forward,1,L_EO,57.43971770241129,bending,3
BMu40,35,C,REL,Trunk_Forward,1,L_EO,45.21857923497267,return,3
BMu40,35,C,REL,Trunk_Forward,1,R_EO,59.13978494623656,bending,1
BMu40,35,C,REL,Trunk_Forward,1,R_EO,55.14187965385389,return,1
BMu40,35,C,REL,Trunk_Forward,1,R_EO,57.05394190871369,bending,2
BMu40,35,C,REL,Trunk_Forward,1,R_EO,39.43089430894309,return,2
BMu40,35,C,REL,Trunk_Forward,1,R_EO,69.59419721623212,bending,3
BMu40,35,C,REL,Trunk_Forward,1,R_EO,70.90163934426229,return,3
BMu40,36,P,INI,Trunk_Forward,1,L_EO,78.33273445921667,bending,1
BMu40,36,P,INI,Trunk_Forward,1,L_EO,58.855585831062676,return,1
BMu40,36,P,INI,Trunk_Forward,1,L_EO,72.47956403269755,bending,2
BMu40,36,P,INI,Trunk_Forward,1,L_EO,75.97122302158273,return,2
BMu40,36,P,INI,Trunk_Forward,1,L_EO,64.39994237141622,bending,3
BMu40,36,P,INI,Trunk_Forward,1,L_EO,69.57894736842105,return,3
BMu40,36,P,INI,Trunk_Forward,1,R_EO,89.95089232243383,bending,1
BMu40,36,P,INI,Trunk_Forward,1,R_EO,87.32970027247957,return,1
BMu40,36,P,INI,Trunk_Forward,1,R_EO,84.87738419618529,bending,2
BMu40,36,P,INI,Trunk_Forward,1,R_EO,85.89928057553956,return,2
BMu40,36,P,INI,Trunk_Forward,1,R_EO,105.31623685347932,bending,3
BMu40,36,P,INI,Trunk_Forward,1,R_EO,104.84210526315789,return,3
BMu40,36,P,REL,Trunk_Forward,1,L_EO,69.02086677367576,bending,1
BMu40,36,P,REL,Trunk_Forward,1,L_EO,62.537313432835816,return,1
BMu40,36,P,REL,Trunk_Forward,1,L_EO,53.43989970224103,bending,2
BMu40,36,P,REL,Trunk_Forward,1,L_EO,66.82027649769586,return,2
BMu40,36,P,REL,Trunk_Forward,1,L_EO,66.1042944785276,bending,3
BMu40,36,P,REL,Trunk_Forward,1,L_EO,61.032863849765256,return,3
BMu40,36,P,REL,Trunk_Forward,1,R_EO,90.50500061736017,bending,1
BMu40,36,P,REL,Trunk_Forward,1,R_EO,78.50746268656715,return,1
BMu40,36,P,REL,Trunk_Forward,1,R_EO,66.44726531891553,bending,2
BMu40,36,P,REL,Trunk_Forward,1,R_EO,76.036866359447,return,2
BMu40,36,P,REL,Trunk_Forward,1,R_EO,72.39263803680981,bending,3
BMu40,36,P,REL,Trunk_Forward,1,R_EO,85.91549295774648,return,3
BMu40,38,C,INI,Trunk_Forward,1,L_EO,41.711956521739125,bending,1
BMu40,38,C,INI,Trunk_Forward,1,L_EO,60.59211535511581,return,1
BMu40,38,C,INI,Trunk_Forward,1,L_EO,32.60701591716891,bending,2
BMu40,38,C,INI,Trunk_Forward,1,L_EO,34.43937726057556,return,2
BMu40,38,C,INI,Trunk_Forward,1,L_EO,38.79173290937997,bending,3
BMu40,38,C,INI,Trunk_Forward,1,L_EO,34.20074349442379,return,3
BMu40,38,C,INI,Trunk_Forward,1,R_EO,36.54891304347826,bending,1
BMu40,38,C,INI,Trunk_Forward,1,R_EO,46.47952139898757,return,1
BMu40,38,C,INI,Trunk_Forward,1,R_EO,37.70669139236594,bending,2
BMu40,38,C,INI,Trunk_Forward,1,R_EO,33.02406038685328,return,2
BMu40,38,C,INI,Trunk_Forward,1,R_EO,26.86804451510334,bending,3
BMu40,38,C,INI,Trunk_Forward,1,R_EO,46.468401486988846,return,3
BMu40,38,C,REL,Trunk_Forward,1,L_EO,37.340018472093945,bending,1
BMu40,38,C,REL,Trunk_Forward,1,L_EO,39.13110460637806,return,1
BMu40,38,C,REL,Trunk_Forward,1,L_EO,38.101285918399746,bending,2
BMu40,38,C,REL,Trunk_Forward,1,L_EO,35.531317137663194,return,2
BMu40,38,C,REL,Trunk_Forward,1,L_EO,35.96638655462185,bending,3
BMu40,38,C,REL,Trunk_Forward,1,L_EO,37.61140819964349,return,3
BMu40,38,C,REL,Trunk_Forward,1,R_EO,52.90935479614725,bending,1
BMu40,38,C,REL,Trunk_Forward,1,R_EO,54.38299183484825,return,1
BMu40,38,C,REL,Trunk_Forward,1,R_EO,49.53167169391967,bending,2
BMu40,38,C,REL,Trunk_Forward,1,R_EO,55.693273839034866,return,2
BMu40,38,C,REL,Trunk_Forward,1,R_EO,41.68067226890756,bending,3
BMu40,38,C,REL,Trunk_Forward,1,R_EO,57.75401069518717,return,3
BMu40,39,C,INI,Trunk_Forward,1,L_EO,24.1234221598878,bending,1
BMu40,39,C,INI,Trunk_Forward,1,L_EO,31.696501888651664,return,1
BMu40,39,C,INI,Trunk_Forward,1,L_EO,25.08331871601473,bending,2
BMu40,39,C,INI,Trunk_Forward,1,L_EO,34.90909090909091,return,2
BMu40,39,C,INI,Trunk_Forward,1,L_EO,24.20262664165103,bending,3
BMu40,39,C,INI,Trunk_Forward,1,L_EO,26.201527174726756,return,3
BMu40,39,C,INI,Trunk_Forward,1,R_EO,25.94670406732118,bending,1
BMu40,39,C,INI,Trunk_Forward,1,R_EO,23.156511742486448,return,1
BMu40,39,C,INI,Trunk_Forward,1,R_EO,28.416067356604103,bending,2
BMu40,39,C,INI,Trunk_Forward,1,R_EO,26.90909090909091,return,2
BMu40,39,C,INI,Trunk_Forward,1,R_EO,29.268292682926827,bending,3
BMu40,39,C,INI,Trunk_Forward,1,R_EO,29.944602485402005,return,3
BMu40,39,C,REL,Trunk_Forward,1,L_EO,53.83458646616541,bending,1
BMu40,39,C,REL,Trunk_Forward,1,L_EO,35.60311284046693,return,1
BMu40,39,C,REL,Trunk_Forward,1,L_EO,40.124055049428186,bending,2
BMu40,39,C,REL,Trunk_Forward,1,L_EO,36.30831643002029,return,2
BMu40,39,C,REL,Trunk_Forward,1,L_EO,32.907147348564244,bending,3
BMu40,39,C,REL,Trunk_Forward,1,L_EO,37.931593451126595,return,3
BMu40,39,C,REL,Trunk_Forward,1,R_EO,20.902255639097742,bending,1
BMu40,39,C,REL,Trunk_Forward,1,R_EO,36.964980544747085,return,1
BMu40,39,C,REL,Trunk_Forward,1,R_EO,21.903469664663696,bending,2
BMu40,39,C,REL,Trunk_Forward,1,R_EO,17.849898580121707,return,2
BMu40,39,C,REL,Trunk_Forward,1,R_EO,31.43994969608049,bending,3
BMu40,39,C,REL,Trunk_Forward,1,R_EO,25.449829794131947,return,3
BMu40,40,C,INI,Trunk_Forward,1,L_EO,37.74808665196524,bending,1
BMu40,40,C,INI,Trunk_Forward,1,L_EO,34.29054054054054,return,1
BMu40,40,C,INI,Trunk_Forward,1,L_EO,35.24305555555556,bending,2
BMu40,40,C,INI,Trunk_Forward,1,L_EO,40.07421150278294,return,2
BMu40,40,C,INI,Trunk_Forward,1,L_EO,28.277153558052436,bending,3
BMu40,40,C,INI,Trunk_Forward,1,L_EO,31.699483312386533,return,3
BMu40,40,C,INI,Trunk_Forward,1,R_EO,32.42962770787391,bending,1
BMu40,40,C,INI,Trunk_Forward,1,R_EO,28.37837837837838,return,1
BMu40,40,C,INI,Trunk_Forward,1,R_EO,33.15972222222222,bending,2
BMu40,40,C,INI,Trunk_Forward,1,R_EO,31.3543599257885,return,2
BMu40,40,C,INI,Trunk_Forward,1,R_EO,52.05992509363296,bending,3
BMu40,40,C,INI,Trunk_Forward,1,R_EO,41.055718475073306,return,3
BMu40,40,C,REL,Trunk_Forward,1,L_EO,32.931034482758626,bending,1
BMu40,40,C,REL,Trunk_Forward,1,L_EO,37.70794824399261,return,1
BMu40,40,C,REL,Trunk_Forward,1,L_EO,60.68052930056711,bending,2
BMu40,40,C,REL,Trunk_Forward,1,L_EO,34.23216676228724,return,2
BMu40,40,C,REL,Trunk_Forward,1,L_EO,71.74627731579965,bending,3
BMu40,40,C,REL,Trunk_Forward,1,L_EO,41.18476727785614,return,3
BMu40,40,C,REL,Trunk_Forward,1,R_EO,55.3448275862069,bending,1
BMu40,40,C,REL,Trunk_Forward,1,R_EO,44.547134935304996,return,1
BMu40,40,C,REL,Trunk_Forward,1,R_EO,84.68809073724007,bending,2
BMu40,40,C,REL,Trunk_Forward,1,R_EO,46.85408299866131,return,2
BMu40,40,C,REL,Trunk_Forward,1,R_EO,90.11796557725778,bending,3
BMu40,40,C,REL,Trunk_Forward,1,R_EO,56.558533145275035,return,3
BMu40,41,P,INI,Trunk_Forward,1,L_EO,75.30238002341005,bending,1
BMu40,41,P,INI,Trunk_Forward,1,L_EO,52.65257279617073,return,1
BMu40,41,P,INI,Trunk_Forward,1,L_EO,81.7671809256662,bending,2
BMu40,41,P,INI,Trunk_Forward,1,L_EO,78.74694640034487,return,2
BMu40,41,P,INI,Trunk_Forward,1,L_EO,76.6123214543356,bending,3
BMu40,41,P,INI,Trunk_Forward,1,L_EO,79.53488372093022,return,3
BMu40,41,P,INI,Trunk_Forward,1,R_EO,87.52763688386005,bending,1
BMu40,41,P,INI,Trunk_Forward,1,R_EO,88.81797633293446,return,1
BMu40,41,P,INI,Trunk_Forward,1,R_EO,121.17812061711079,bending,2
BMu40,41,P,INI,Trunk_Forward,1,R_EO,112.37246730852132,return,2
BMu40,41,P,INI,Trunk_Forward,1,R_EO,119.89611888616362,bending,3
BMu40,41,P,INI,Trunk_Forward,1,R_EO,114.76744186046511,return,3
BMu40,41,P,REL,Trunk_Forward,1,L_EO,78.0221145483911,bending,1
BMu40,41,P,REL,Trunk_Forward,1,L_EO,77.06796421283943,return,1
BMu40,41,P,REL,Trunk_Forward,1,L_EO,76.55729909652877,bending,2
BMu40,41,P,REL,Trunk_Forward,1,L_EO,81.94682009018815,return,2
BMu40,41,P,REL,Trunk_Forward,1,L_EO,75.12355848434925,bending,3
BMu40,41,P,REL,Trunk_Forward,1,L_EO,81.0052302589616,return,3
BMu40,41,P,REL,Trunk_Forward,1,R_EO,112.68480556590882,bending,1
BMu40,41,P,REL,Trunk_Forward,1,R_EO,113.48296970648249,return,1
BMu40,41,P,REL,Trunk_Forward,1,R_EO,93.20019020446979,bending,2
BMu40,41,P,REL,Trunk_Forward,1,R_EO,110.40273674389675,return,2
BMu40,41,P,REL,Trunk_Forward,1,R_EO,111.5321252059308,bending,3
BMu40,41,P,REL,Trunk_Forward,1,R_EO,95.93060339328996,return,3
BMu40,42,P,INI,Trunk_Forward,1,L_EO,65.52901023890784,bending,1
BMu40,42,P,INI,Trunk_Forward,1,L_EO,78.53306167808853,return,1
BMu40,42,P,INI,Trunk_Forward,1,L_EO,64.87311581759207,bending,2
BMu40,42,P,INI,Trunk_Forward,1,L_EO,71.11984282907663,return,2
BMu40,42,P,INI,Trunk_Forward,1,L_EO,75.21677757612422,bending,3
BMu40,42,P,INI,Trunk_Forward,1,L_EO,63.85326161908702,return,3
BMu40,42,P,INI,Trunk_Forward,1,R_EO,56.143344709897605,bending,1
BMu40,42,P,INI,Trunk_Forward,1,R_EO,34.82126319688831,return,1
BMu40,42,P,INI,Trunk_Forward,1,R_EO,56.66857469948483,bending,2
BMu40,42,P,INI,Trunk_Forward,1,R_EO,56.188605108055015,return,2
BMu40,42,P,INI,Trunk_Forward,1,R_EO,74.20850978019762,bending,3
BMu40,42,P,INI,Trunk_Forward,1,R_EO,55.026892842366564,return,3
BMu40,42,P,REL,Trunk_Forward,1,L_EO,44.331952753489794,bending,1
BMu40,42,P,REL,Trunk_Forward,1,L_EO,74.671669793621,return,1
BMu40,42,P,REL,Trunk_Forward,1,L_EO,38.332345386287294,bending,2
BMu40,42,P,REL,Trunk_Forward,1,L_EO,48.66832726575972,return,2
BMu40,42,P,REL,Trunk_Forward,1,L_EO,37.93716656787196,bending,3
BMu40,42,P,REL,Trunk_Forward,1,L_EO,69.71935007385524,return,3
BMu40,42,P,REL,Trunk_Forward,1,R_EO,52.7688295750882,bending,1
BMu40,42,P,REL,Trunk_Forward,1,R_EO,56.66041275797373,return,1
BMu40,42,P,REL,Trunk_Forward,1,R_EO,56.51057103339261,bending,2
BMu40,42,P,REL,Trunk_Forward,1,R_EO,51.92565625598773,return,2
BMu40,42,P,REL,Trunk_Forward,1,R_EO,57.49851807943094,bending,3
BMu40,42,P,REL,Trunk_Forward,1,R_EO,59.97045790251107,return,3
BMu40,43,P,INI,Trunk_Forward,1,L_EO,62.594579722107575,bending,1
BMu40,43,P,INI,Trunk_Forward,1,L_EO,29.537734455767247,return,1
BMu40,43,P,INI,Trunk_Forward,1,L_EO,72.89167743126038,bending,2
BMu40,43,P,INI,Trunk_Forward,1,L_EO,31.24370086676073,return,2
BMu40,43,P,INI,Trunk_Forward,1,L_EO,75.7510729613734,bending,3
BMu40,43,P,INI,Trunk_Forward,1,L_EO,79.55974842767296,return,3
BMu40,43,P,INI,Trunk_Forward,1,R_EO,74.83835465676158,bending,1
BMu40,43,P,INI,Trunk_Forward,1,R_EO,86.69325062767686,return,1
BMu40,43,P,INI,Trunk_Forward,1,R_EO,99.83391769699206,bending,2
BMu40,43,P,INI,Trunk_Forward,1,R_EO,88.89336827252569,return,2
BMu40,43,P,INI,Trunk_Forward,1,R_EO,78.11158798283262,bending,3
BMu40,43,P,INI,Trunk_Forward,1,R_EO,76.1006289308176,return,3
BMu40,43,P,REL,Trunk_Forward,1,L_EO,44.366519286476596,bending,1
BMu40,43,P,REL,Trunk_Forward,1,L_EO,68.19495280292814,return,1
BMu40,43,P,REL,Trunk_Forward,1,L_EO,80.24110001883594,bending,2
BMu40,43,P,REL,Trunk_Forward,1,L_EO,62.488341727289686,return,2
BMu40,43,P,REL,Trunk_Forward,1,L_EO,77.86407766990291,bending,3
BMu40,43,P,REL,Trunk_Forward,1,L_EO,72.47692540475109,return,3
BMu40,43,P,REL,Trunk_Forward,1,R_EO,62.204604360420795,bending,1
BMu40,43,P,REL,Trunk_Forward,1,R_EO,34.290117511076865,return,1
BMu40,43,P,REL,Trunk_Forward,1,R_EO,62.34695799585609,bending,2
BMu40,43,P,REL,Trunk_Forward,1,R_EO,41.78324939376982,return,2
BMu40,43,P,REL,Trunk_Forward,1,R_EO,51.262135922330096,bending,3
BMu40,43,P,REL,Trunk_Forward,1,R_EO,32.38008775911636,return,3
BMu40,44,C,INI,Trunk_Forward,1,L_EO,44.171779141104295,bending,1
BMu40,44,C,INI,Trunk_Forward,1,L_EO,34.806080409149025,return,1
BMu40,44,C,INI,Trunk_Forward,1,L_EO,39.936102236421725,bending,2
BMu40,44,C,INI,Trunk_Forward,1,L_EO,91.06858054226474,return,2
BMu40,44,C,INI,Trunk_Forward,1,L_EO,36.61538461538462,bending,3
BMu40,44,C,INI,Trunk_Forward,1,L_EO,92.42979242979244,return,3
BMu40,44,C,INI,Trunk_Forward,1,R_EO,134.23312883435582,bending,1
BMu40,44,C,INI,Trunk_Forward,1,R_EO,132.68930245773547,return,1
BMu40,44,C,INI,Trunk_Forward,1,R_EO,127.15654952076677,bending,2
BMu40,44,C,INI,Trunk_Forward,1,R_EO,124.56140350877192,return,2
BMu40,44,C,INI,Trunk_Forward,1,R_EO,85.84615384615385,bending,3
BMu40,44,C,INI,Trunk_Forward,1,R_EO,91.94139194139196,return,3
BMu40,44,C,REL,Trunk_Forward,1,L_EO,47.61904761904762,bending,1
BMu40,44,C,REL,Trunk_Forward,1,L_EO,41.37217721082572,return,1
BMu40,44,C,REL,Trunk_Forward,1,L_EO,52.20458553791887,bending,2
BMu40,44,C,REL,Trunk_Forward,1,L_EO,60.864922584089705,return,2
BMu40,44,C,REL,Trunk_Forward,1,L_EO,96.6020281088774,bending,3
BMu40,44,C,REL,Trunk_Forward,1,L_EO,76.36667130338016,return,3
BMu40,44,C,REL,Trunk_Forward,1,R_EO,70.2345835089198,bending,1
BMu40,44,C,REL,Trunk_Forward,1,R_EO,65.33356317876229,return,1
BMu40,44,C,REL,Trunk_Forward,1,R_EO,66.13756613756614,bending,2
BMu40,44,C,REL,Trunk_Forward,1,R_EO,65.13614522156968,return,2
BMu40,44,C,REL,Trunk_Forward,1,R_EO,140.36648283223624,bending,3
BMu40,44,C,REL,Trunk_Forward,1,R_EO,127.2777855056336,return,3
BMu40,45,P,INI,Trunk_Forward,1,L_EO,89.06827199343275,bending,1
BMu40,45,P,INI,Trunk_Forward,1,L_EO,84.37136688257765,return,1
BMu40,45,P,INI,Trunk_Forward,1,L_EO,91.92439862542955,bending,2
BMu40,45,P,INI,Trunk_Forward,1,L_EO,94.51795841209831,return,2
BMu40,45,P,INI,Trunk_Forward,1,L_EO,95.7773823005986,bending,3
BMu40,45,P,INI,Trunk_Forward,1,L_EO,98.49462365591397,return,3
BMu40,45,P,INI,Trunk_Forward,1,R_EO,80.4487618005199,bending,1
BMu40,45,P,INI,Trunk_Forward,1,R_EO,82.0461717322704,return,1
BMu40,45,P,INI,Trunk_Forward,1,R_EO,81.78694158075601,bending,2
BMu40,45,P,INI,Trunk_Forward,1,R_EO,89.87798590823166,return,2
BMu40,45,P,INI,Trunk_Forward,1,R_EO,96.58631289435365,bending,3
BMu40,45,P,INI,Trunk_Forward,1,R_EO,91.61290322580643,return,3
BMu40,45,P,REL,Trunk_Forward,1,L_EO,93.02832244008715,bending,1
BMu40,45,P,REL,Trunk_Forward,1,L_EO,94.33092640958672,return,1
BMu40,45,P,REL,Trunk_Forward,1,L_EO,111.82058869334993,bending,2
BMu40,45,P,REL,Trunk_Forward,1,L_EO,84.0192576487032,return,2
BMu40,45,P,REL,Trunk_Forward,1,L_EO,77.73009060562708,bending,3
BMu40,45,P,REL,Trunk_Forward,1,L_EO,94.5985401459854,return,3
BMu40,45,P,REL,Trunk_Forward,1,R_EO,86.71023965141613,bending,1
BMu40,45,P,REL,Trunk_Forward,1,R_EO,89.87555692118606,return,1
BMu40,45,P,REL,Trunk_Forward,1,R_EO,110.10745989721227,bending,2
BMu40,45,P,REL,Trunk_Forward,1,R_EO,99.39431588756017,return,2
BMu40,45,P,REL,Trunk_Forward,1,R_EO,86.15482435224924,bending,3
BMu40,45,P,REL,Trunk_Forward,1,R_EO,94.01459854014598,return,3
BMu40,46,C,INI,Trunk_Forward,1,L_EO,66.16097766540246,bending,1
BMu40,46,C,INI,Trunk_Forward,1,L_EO,42.55663430420712,return,1
BMu40,46,C,INI,Trunk_Forward,1,L_EO,70.81928188851418,bending,2
BMu40,46,C,INI,Trunk_Forward,1,L_EO,62.790697674418595,return,2
BMu40,46,C,INI,Trunk_Forward,1,L_EO,47.403039237922435,bending,3
BMu40,46,C,INI,Trunk_Forward,1,L_EO,57.28924080111784,return,3
BMu40,46,C,INI,Trunk_Forward,1,R_EO,151.14482371119541,bending,1
BMu40,46,C,INI,Trunk_Forward,1,R_EO,126.37540453074435,return,1
BMu40,46,C,INI,Trunk_Forward,1,R_EO,142.8288038087681,bending,2
BMu40,46,C,INI,Trunk_Forward,1,R_EO,89.8520084566596,return,2
BMu40,46,C,INI,Trunk_Forward,1,R_EO,149.24019051939217,bending,3
BMu40,46,C,INI,Trunk_Forward,1,R_EO,93.30849247011334,return,3
BMu40,46,C,REL,Trunk_Forward,1,L_EO,40.51724137931035,bending,1
BMu40,46,C,REL,Trunk_Forward,1,L_EO,27.32142857142857,return,1
BMu40,46,C,REL,Trunk_Forward,1,L_EO,62.5514403292181,bending,2
BMu40,46,C,REL,Trunk_Forward,1,L_EO,46.97986577181209,return,2
BMu40,46,C,REL,Trunk_Forward,1,L_EO,52.82167042889391,bending,3
BMu40,46,C,REL,Trunk_Forward,1,L_EO,38.419146591088015,return,3
BMu40,46,C,REL,Trunk_Forward,1,R_EO,28.965517241379313,bending,1
BMu40,46,C,REL,Trunk_Forward,1,R_EO,30.178571428571423,return,1
BMu40,46,C,REL,Trunk_Forward,1,R_EO,36.419753086419746,bending,2
BMu40,46,C,REL,Trunk_Forward,1,R_EO,22.9486901926824,return,2
BMu40,46,C,REL,Trunk_Forward,1,R_EO,28.216704288939056,bending,3
BMu40,46,C,REL,Trunk_Forward,1,R_EO,24.877971972917653,return,3
BMu40,47,P,INI,Trunk_Forward,1,L_EO,28.051001821493625,bending,1
BMu40,47,P,INI,Trunk_Forward,1,L_EO,33.66892226440007,return,1
BMu40,47,P,INI,Trunk_Forward,1,L_EO,32.166666666666664,bending,2
BMu40,47,P,INI,Trunk_Forward,1,L_EO,34.02676987582648,return,2
BMu40,47,P,INI,Trunk_Forward,1,L_EO,30.761797390884194,bending,3
BMu40,47,P,INI,Trunk_Forward,1,L_EO,22.58064516129032,return,3
BMu40,47,P,INI,Trunk_Forward,1,R_EO,29.508196721311474,bending,1
BMu40,47,P,INI,Trunk_Forward,1,R_EO,28.717610166694172,return,1
BMu40,47,P,INI,Trunk_Forward,1,R_EO,26.0,bending,2
BMu40,47,P,INI,Trunk_Forward,1,R_EO,26.286082889856473,return,2
BMu40,47,P,INI,Trunk_Forward,1,R_EO,38.009341278788845,bending,3
BMu40,47,P,INI,Trunk_Forward,1,R_EO,36.10421836228288,return,3
BMu40,47,P,REL,Trunk_Forward,1,L_EO,64.4776119402985,bending,1
BMu40,47,P,REL,Trunk_Forward,1,L_EO,56.319702602230485,return,1
BMu40,47,P,REL,Trunk_Forward,1,L_EO,61.05675146771037,bending,2
BMu40,47,P,REL,Trunk_Forward,1,L_EO,59.1367180072257,return,2
BMu40,47,P,REL,Trunk_Forward,1,L_EO,60.531309297912706,bending,3
BMu40,47,P,REL,Trunk_Forward,1,L_EO,49.290780141843975,return,3
BMu40,47,P,REL,Trunk_Forward,1,R_EO,54.92537313432835,bending,1
BMu40,47,P,REL,Trunk_Forward,1,R_EO,46.46840148698885,return,1
BMu40,47,P,REL,Trunk_Forward,1,R_EO,52.44618395303326,bending,2
BMu40,47,P,REL,Trunk_Forward,1,R_EO,48.67845598022437,return,2
BMu40,47,P,REL,Trunk_Forward,1,R_EO,53.70018975332068,bending,3
BMu40,47,P,REL,Trunk_Forward,1,R_EO,56.20567375886525,return,3
BMu40,48,C,INI,Trunk_Forward,1,L_EO,81.74962292609351,bending,1
BMu40,48,C,INI,Trunk_Forward,1,L_EO,77.61437908496733,return,1
BMu40,48,C,INI,Trunk_Forward,1,L_EO,83.03616912888437,bending,2
BMu40,48,C,INI,Trunk_Forward,1,L_EO,71.76258992805755,return,2
BMu40,48,C,INI,Trunk_Forward,1,L_EO,83.15185111859037,bending,3
BMu40,48,C,INI,Trunk_Forward,1,L_EO,73.80607814761215,return,3
BMu40,48,C,INI,Trunk_Forward,1,R_EO,78.28054298642533,bending,1
BMu40,48,C,INI,Trunk_Forward,1,R_EO,82.51633986928104,return,1
BMu40,48,C,INI,Trunk_Forward,1,R_EO,70.97979283409747,bending,2
BMu40,48,C,INI,Trunk_Forward,1,R_EO,79.31654676258992,return,2
BMu40,48,C,INI,Trunk_Forward,1,R_EO,72.65887942981587,bending,3
BMu40,48,C,INI,Trunk_Forward,1,R_EO,69.94693680656054,return,3
BMu40,48,C,REL,Trunk_Forward,1,L_EO,66.8747213553277,bending,1
BMu40,48,C,REL,Trunk_Forward,1,L_EO,61.57804459691252,return,1
BMu40,48,C,REL,Trunk_Forward,1,L_EO,68.65262797466187,bending,2
BMu40,48,C,REL,Trunk_Forward,1,L_EO,59.16955017301038,return,2
BMu40,48,C,REL,Trunk_Forward,1,L_EO,73.14974182444061,bending,3
BMu40,48,C,REL,Trunk_Forward,1,L_EO,62.378167641325525,return,3
BMu40,48,C,REL,Trunk_Forward,1,R_EO,77.87189775598158,bending,1
BMu40,48,C,REL,Trunk_Forward,1,R_EO,81.13207547169812,return,1
BMu40,48,C,REL,Trunk_Forward,1,R_EO,82.34891285738743,bending,2
BMu40,48,C,REL,Trunk_Forward,1,R_EO,73.35640138408304,return,2
BMu40,48,C,REL,Trunk_Forward,1,R_EO,77.28055077452667,bending,3
BMu40,48,C,REL,Trunk_Forward,1,R_EO,76.32328684960262,return,3
BMu40,49,C,INI,Trunk_Forward,1,L_EO,71.5213358070501,bending,1
BMu40,49,C,INI,Trunk_Forward,1,L_EO,74.19877790248161,return,1
BMu40,49,C,INI,Trunk_Forward,1,L_EO,74.05797101449275,bending,2
BMu40,49,C,INI,Trunk_Forward,1,L_EO,63.971631205673766,return,2
BMu40,49,C,INI,Trunk_Forward,1,L_EO,61.929504283106304,bending,3
BMu40,49,C,INI,Trunk_Forward,1,L_EO,63.96850781153894,return,3
BMu40,49,C,INI,Trunk_Forward,1,R_EO,30.333951762523192,bending,1
BMu40,49,C,INI,Trunk_Forward,1,R_EO,17.83264746227709,return,1
BMu40,49,C,INI,Trunk_Forward,1,R_EO,36.08695652173913,bending,2
BMu40,49,C,INI,Trunk_Forward,1,R_EO,23.120567375886527,return,2
BMu40,49,C,INI,Trunk_Forward,1,R_EO,33.28184243785985,bending,3
BMu40,49,C,INI,Trunk_Forward,1,R_EO,29.523926682248742,return,3
BMu40,49,C,REL,Trunk_Forward,1,L_EO,44.09392364222979,bending,1
BMu40,49,C,REL,Trunk_Forward,1,L_EO,27.07182320441989,return,1
BMu40,49,C,REL,Trunk_Forward,1,L_EO,34.69750889679715,bending,2
BMu40,49,C,REL,Trunk_Forward,1,L_EO,32.58058955352526,return,2
BMu40,49,C,REL,Trunk_Forward,1,L_EO,58.61879465103498,bending,3
BMu40,49,C,REL,Trunk_Forward,1,L_EO,24.028776978417266,return,3
BMu40,49,C,REL,Trunk_Forward,1,R_EO,23.480910557447572,bending,1
BMu40,49,C,REL,Trunk_Forward,1,R_EO,16.206261510128915,return,1
BMu40,49,C,REL,Trunk_Forward,1,R_EO,21.530249110320288,bending,2
BMu40,49,C,REL,Trunk_Forward,1,R_EO,21.892777107395275,return,2
BMu40,49,C,REL,Trunk_Forward,1,R_EO,31.324418391646816,bending,3
BMu40,49,C,REL,Trunk_Forward,1,R_EO,25.755395683453237,return,3
BMu40,50,P,INI,Trunk_Forward,1,L_EO,35.22405403442516,bending,1
BMu40,50,P,INI,Trunk_Forward,1,L_EO,41.11198120595145,return,1
BMu40,50,P,INI,Trunk_Forward,1,L_EO,39.42297103843189,bending,2
BMu40,50,P,INI,Trunk_Forward,1,L_EO,41.094194826092334,return,2
BMu40,50,P,INI,Trunk_Forward,1,L_EO,40.39653035935564,bending,3
BMu40,50,P,INI,Trunk_Forward,1,L_EO,44.042375907630046,return,3
BMu40,50,P,INI,Trunk_Forward,1,R_EO,65.8726123901518,bending,1
BMu40,50,P,INI,Trunk_Forward,1,R_EO,29.209083790133125,return,1
BMu40,50,P,INI,Trunk_Forward,1,R_EO,116.50699262195793,bending,2
BMu40,50,P,INI,Trunk_Forward,1,R_EO,28.84020299542022,return,2
BMu40,50,P,INI,Trunk_Forward,1,R_EO,51.92069392812887,bending,3
BMu40,50,P,INI,Trunk_Forward,1,R_EO,27.97286037376503,return,3
BMu40,50,P,REL,Trunk_Forward,1,L_EO,41.127348643006265,bending,1
BMu40,50,P,REL,Trunk_Forward,1,L_EO,39.43833943833944,return,1
BMu40,50,P,REL,Trunk_Forward,1,L_EO,60.123647604327665,bending,2
BMu40,50,P,REL,Trunk_Forward,1,L_EO,48.801517503017756,return,2
BMu40,50,P,REL,Trunk_Forward,1,L_EO,33.65781224220426,bending,3
BMu40,50,P,REL,Trunk_Forward,1,L_EO,43.23979591836735,return,3
BMu40,50,P,REL,Trunk_Forward,1,R_EO,26.61795407098121,bending,1
BMu40,50,P,REL,Trunk_Forward,1,R_EO,15.873015873015873,return,1
BMu40,50,P,REL,Trunk_Forward,1,R_EO,27.51159196290572,bending,2
BMu40,50,P,REL,Trunk_Forward,1,R_EO,20.520779444731847,return,2
BMu40,50,P,REL,Trunk_Forward,1,R_EO,23.263487873288238,bending,3
BMu40,50,P,REL,Trunk_Forward,1,R_EO,17.346938775510203,return,3
BMu40,51,P,INI,Trunk_Forward,1,L_EO,69.67984934086628,bending,1
BMu40,51,P,INI,Trunk_Forward,1,L_EO,87.03208556149731,return,1
BMu40,51,P,INI,Trunk_Forward,1,L_EO,74.31059506531204,bending,2
BMu40,51,P,INI,Trunk_Forward,1,L_EO,82.17446270543617,return,2
BMu40,51,P,INI,Trunk_Forward,1,L_EO,80.73136427566807,bending,3
BMu40,51,P,INI,Trunk_Forward,1,L_EO,81.64201353055843,return,3
BMu40,51,P,INI,Trunk_Forward,1,R_EO,45.48022598870056,bending,1
BMu40,51,P,INI,Trunk_Forward,1,R_EO,44.5187165775401,return,1
BMu40,51,P,INI,Trunk_Forward,1,R_EO,42.52539912917271,bending,2
BMu40,51,P,INI,Trunk_Forward,1,R_EO,48.6023317881725,return,2
BMu40,51,P,INI,Trunk_Forward,1,R_EO,45.85091420534458,bending,3
BMu40,51,P,INI,Trunk_Forward,1,R_EO,47.0129572296755,return,3
BMu40,51,P,REL,Trunk_Forward,1,L_EO,81.75388967468176,bending,1
BMu40,51,P,REL,Trunk_Forward,1,L_EO,100.25348542458808,return,1
BMu40,51,P,REL,Trunk_Forward,1,L_EO,90.50657637713243,bending,2
BMu40,51,P,REL,Trunk_Forward,1,L_EO,97.66839378238343,return,2
BMu40,51,P,REL,Trunk_Forward,1,L_EO,96.08361667296312,bending,3
BMu40,51,P,REL,Trunk_Forward,1,L_EO,96.14587650227932,return,3
BMu40,51,P,REL,Trunk_Forward,1,R_EO,34.51202263083451,bending,1
BMu40,51,P,REL,Trunk_Forward,1,R_EO,53.86565272496831,return,1
BMu40,51,P,REL,Trunk_Forward,1,R_EO,39.45826279463471,bending,2
BMu40,51,P,REL,Trunk_Forward,1,R_EO,46.502590673575135,return,2
BMu40,51,P,REL,Trunk_Forward,1,R_EO,47.97884397431054,bending,3
BMu40,51,P,REL,Trunk_Forward,1,R_EO,47.65851636966432,return,3
BMu40,52,C,INI,Trunk_Forward,1,L_EO,84.63687150837988,bending,1
BMu40,52,C,INI,Trunk_Forward,1,L_EO,38.950321835286346,return,1
BMu40,52,C,INI,Trunk_Forward,1,L_EO,92.60235459497451,bending,2
BMu40,52,C,INI,Trunk_Forward,1,L_EO,28.5472972972973,return,2
BMu40,52,C,INI,Trunk_Forward,1,L_EO,90.11579124014096,bending,3
BMu40,52,C,INI,Trunk_Forward,1,L_EO,40.329356410687275,return,3
BMu40,52,C,INI,Trunk_Forward,1,R_EO,122.20670391061452,bending,1
BMu40,52,C,INI,Trunk_Forward,1,R_EO,117.67618418881003,return,1
BMu40,52,C,INI,Trunk_Forward,1,R_EO,118.08118081180811,bending,2
BMu40,52,C,INI,Trunk_Forward,1,R_EO,109.45945945945945,return,2
BMu40,52,C,INI,Trunk_Forward,1,R_EO,115.45561335794596,bending,3
BMu40,52,C,INI,Trunk_Forward,1,R_EO,113.5943538901025,return,3
BMu40,52,C,REL,Trunk_Forward,1,L_EO,78.68020304568527,bending,1
BMu40,52,C,REL,Trunk_Forward,1,L_EO,57.688317078232,return,1
BMu40,52,C,REL,Trunk_Forward,1,L_EO,67.47086485381313,bending,2
BMu40,52,C,REL,Trunk_Forward,1,L_EO,89.04535100434873,return,2
BMu40,52,C,REL,Trunk_Forward,1,L_EO,93.34138000402334,bending,3
BMu40,52,C,REL,Trunk_Forward,1,L_EO,109.01254911902649,return,3
BMu40,52,C,REL,Trunk_Forward,1,R_EO,103.8917089678511,bending,1
BMu40,52,C,REL,Trunk_Forward,1,R_EO,75.9493670886076,return,1
BMu40,52,C,REL,Trunk_Forward,1,R_EO,113.26927008791658,bending,2
BMu40,52,C,REL,Trunk_Forward,1,R_EO,77.86291157589562,return,2
BMu40,52,C,REL,Trunk_Forward,1,R_EO,100.98571715952524,bending,3
BMu40,52,C,REL,Trunk_Forward,1,R_EO,85.30865762454049,return,3
BMu40,53,P,INI,Trunk_Forward,1,L_EO,93.7472440250463,bending,1
BMu40,53,P,INI,Trunk_Forward,1,L_EO,92.03883495145631,return,1
BMu40,53,P,INI,Trunk_Forward,1,L_EO,94.38748546665258,bending,2
BMu40,53,P,INI,Trunk_Forward,1,L_EO,95.81339712918661,return,2
BMu40,53,P,INI,Trunk_Forward,1,L_EO,105.45833816201183,bending,3
BMu40,53,P,INI,Trunk_Forward,1,L_EO,95.6726986624705,return,3
BMu40,53,P,INI,Trunk_Forward,1,R_EO,82.37057941617427,bending,1
BMu40,53,P,INI,Trunk_Forward,1,R_EO,85.33980582524272,return,1
BMu40,53,P,INI,Trunk_Forward,1,R_EO,81.06965437057393,bending,2
BMu40,53,P,INI,Trunk_Forward,1,R_EO,76.67464114832536,return,2
BMu40,53,P,INI,Trunk_Forward,1,R_EO,86.10499478502724,bending,3
BMu40,53,P,INI,Trunk_Forward,1,R_EO,83.32022029897718,return,3
BMu40,53,P,REL,Trunk_Forward,1,L_EO,103.78698224852072,bending,1
BMu40,53,P,REL,Trunk_Forward,1,L_EO,124.30555555555554,return,1
BMu40,53,P,REL,Trunk_Forward,1,L_EO,141.15092290988056,bending,2
BMu40,53,P,REL,Trunk_Forward,1,L_EO,118.99344130638468,return,2
BMu40,53,P,REL,Trunk_Forward,1,L_EO,122.13225371120107,bending,3
BMu40,53,P,REL,Trunk_Forward,1,L_EO,105.38436232042987,return,3
BMu40,53,P,REL,Trunk_Forward,1,R_EO,84.37869822485207,bending,1
BMu40,53,P,REL,Trunk_Forward,1,R_EO,92.12962962962962,return,1
BMu40,53,P,REL,Trunk_Forward,1,R_EO,93.49740620098927,bending,2
BMu40,53,P,REL,Trunk_Forward,1,R_EO,96.77419354838709,return,2
BMu40,53,P,REL,Trunk_Forward,1,R_EO,88.3940620782726,bending,3
BMu40,53,P,REL,Trunk_Forward,1,R_EO,86.30332273275579,return,3
BMu40,54,P,INI,Trunk_Forward,1,L_EO,71.81500872600348,bending,1
BMu40,54,P,INI,Trunk_Forward,1,L_EO,52.33710222636671,return,1
BMu40,54,P,INI,Trunk_Forward,1,L_EO,64.6896551724138,bending,2
BMu40,54,P,INI,Trunk_Forward,1,L_EO,67.96536796536797,return,2
BMu40,54,P,INI,Trunk_Forward,1,L_EO,75.09655271062795,bending,3
BMu40,54,P,INI,Trunk_Forward,1,L_EO,66.77631578947368,return,3
BMu40,54,P,INI,Trunk_Forward,1,R_EO,59.424083769633505,bending,1
BMu40,54,P,INI,Trunk_Forward,1,R_EO,35.7850565333955,return,1
BMu40,54,P,INI,Trunk_Forward,1,R_EO,39.724137931034484,bending,2
BMu40,54,P,INI,Trunk_Forward,1,R_EO,38.81673881673882,return,2
BMu40,54,P,INI,Trunk_Forward,1,R_EO,30.324703189815473,bending,3
BMu40,54,P,INI,Trunk_Forward,1,R_EO,38.1578947368421,return,3
BMu40,54,P,REL,Trunk_Forward,1,L_EO,56.651162790697676,bending,1
BMu40,54,P,REL,Trunk_Forward,1,L_EO,41.71974522292994,return,1
BMu40,54,P,REL,Trunk_Forward,1,L_EO,41.12709832134293,bending,2
BMu40,54,P,REL,Trunk_Forward,1,L_EO,36.26634958382878,return,2
BMu40,54,P,REL,Trunk_Forward,1,L_EO,27.18786464410735,bending,3
BMu40,54,P,REL,Trunk_Forward,1,L_EO,32.6219512195122,return,3
BMu40,54,P,REL,Trunk_Forward,1,R_EO,64.18604651162791,bending,1
BMu40,54,P,REL,Trunk_Forward,1,R_EO,48.19532908704883,return,1
BMu40,54,P,REL,Trunk_Forward,1,R_EO,45.803357314148684,bending,2
BMu40,54,P,REL,Trunk_Forward,1,R_EO,58.14506539833531,return,2
BMu40,54,P,REL,Trunk_Forward,1,R_EO,47.841306884480744,bending,3
BMu40,54,P,REL,Trunk_Forward,1,R_EO,56.605691056910565,return,3
BMu40,55,C,INI,Trunk_Forward,1,L_EO,103.66245448704218,bending,1
BMu40,55,C,INI,Trunk_Forward,1,L_EO,82.69470682587774,return,1
BMu40,55,C,INI,Trunk_Forward,1,L_EO,100.94287298946202,bending,2
BMu40,55,C,INI,Trunk_Forward,1,L_EO,68.66874198864677,return,2
BMu40,55,C,INI,Trunk_Forward,1,L_EO,88.04554079696393,bending,3
BMu40,55,C,INI,Trunk_Forward,1,L_EO,55.26315789473684,return,3
BMu40,55,C,INI,Trunk_Forward,1,R_EO,112.22959948597129,bending,1
BMu40,55,C,INI,Trunk_Forward,1,R_EO,94.63553733737302,return,1
BMu40,55,C,INI,Trunk_Forward,1,R_EO,86.1527084488815,bending,2
BMu40,55,C,INI,Trunk_Forward,1,R_EO,76.72587438198133,return,2
BMu40,55,C,INI,Trunk_Forward,1,R_EO,84.2504743833017,bending,3
BMu40,55,C,INI,Trunk_Forward,1,R_EO,94.3859649122807,return,3
BMu40,55,C,REL,Trunk_Forward,1,L_EO,45.23770356966607,bending,1
BMu40,55,C,REL,Trunk_Forward,1,L_EO,56.830141022942534,return,1
BMu40,55,C,REL,Trunk_Forward,1,L_EO,67.84083496412264,bending,2
BMu40,55,C,REL,Trunk_Forward,1,L_EO,87.12698758440428,return,2
BMu40,55,C,REL,Trunk_Forward,1,L_EO,84.69827586206897,bending,3
BMu40,55,C,REL,Trunk_Forward,1,L_EO,80.2937576499388,return,3
BMu40,55,C,REL,Trunk_Forward,1,R_EO,32.07764434939957,bending,1
BMu40,55,C,REL,Trunk_Forward,1,R_EO,27.362660492527887,return,1
BMu40,55,C,REL,Trunk_Forward,1,R_EO,31.52859317242879,bending,2
BMu40,55,C,REL,Trunk_Forward,1,R_EO,27.227183620126333,return,2
BMu40,55,C,REL,Trunk_Forward,1,R_EO,28.017241379310345,bending,3
BMu40,55,C,REL,Trunk_Forward,1,R_EO,27.29498164014688,return,3
BMu40,56,C,INI,Trunk_Forward,1,L_EO,53.74233128834356,bending,1
BMu40,56,C,INI,Trunk_Forward,1,L_EO,58.41871845847989,return,1
BMu40,56,C,INI,Trunk_Forward,1,L_EO,55.90551181102362,bending,2
BMu40,56,C,INI,Trunk_Forward,1,L_EO,64.79514415781487,return,2
BMu40,56,C,INI,Trunk_Forward,1,L_EO,60.512151361931174,bending,3
BMu40,56,C,INI,Trunk_Forward,1,L_EO,61.54648585213195,return,3
BMu40,56,C,INI,Trunk_Forward,1,R_EO,50.79754601226994,bending,1
BMu40,56,C,INI,Trunk_Forward,1,R_EO,36.855788346842026,return,1
BMu40,56,C,INI,Trunk_Forward,1,R_EO,68.03149606299212,bending,2
BMu40,56,C,INI,Trunk_Forward,1,R_EO,57.51138088012139,return,2
BMu40,56,C,INI,Trunk_Forward,1,R_EO,58.06556842276954,bending,3
BMu40,56,C,INI,Trunk_Forward,1,R_EO,63.76320250358586,return,3
BMu40,56,C,REL,Trunk_Forward,1,L_EO,53.57686453576864,bending,1
BMu40,56,C,REL,Trunk_Forward,1,L_EO,61.6,return,1
BMu40,56,C,REL,Trunk_Forward,1,L_EO,58.3984375,bending,2
BMu40,56,C,REL,Trunk_Forward,1,L_EO,51.574803149606296,return,2
BMu40,56,C,REL,Trunk_Forward,1,L_EO,56.425702811244975,bending,3
BMu40,56,C,REL,Trunk_Forward,1,L_EO,53.953221409097424,return,3
BMu40,56,C,REL,Trunk_Forward,1,R_EO,63.62252663622526,bending,1
BMu40,56,C,REL,Trunk_Forward,1,R_EO,64.2,return,1
BMu40,56,C,REL,Trunk_Forward,1,R_EO,69.140625,bending,2
BMu40,56,C,REL,Trunk_Forward,1,R_EO,60.62992125984251,return,2
BMu40,56,C,REL,Trunk_Forward,1,R_EO,63.253012048192765,bending,3
BMu40,56,C,REL,Trunk_Forward,1,R_EO,68.87645286267757,return,3
BMu40,57,C,INI,Trunk_Forward,1,L_EO,32.09578428413321,bending,1
BMu40,57,C,INI,Trunk_Forward,1,L_EO,28.504096061048145,return,1
BMu40,57,C,INI,Trunk_Forward,1,L_EO,37.411764705882355,bending,2
BMu40,57,C,INI,Trunk_Forward,1,L_EO,32.5008961644163,return,2
BMu40,57,C,INI,Trunk_Forward,1,L_EO,33.990212934796986,bending,3
BMu40,57,C,INI,Trunk_Forward,1,L_EO,39.51890034364261,return,3
BMu40,57,C,INI,Trunk_Forward,1,R_EO,30.888419358084313,bending,1
BMu40,57,C,INI,Trunk_Forward,1,R_EO,26.03523734709909,return,1
BMu40,57,C,INI,Trunk_Forward,1,R_EO,31.88235294117647,bending,2
BMu40,57,C,INI,Trunk_Forward,1,R_EO,32.26191898673677,return,2
BMu40,57,C,INI,Trunk_Forward,1,R_EO,39.94180663933342,bending,3
BMu40,57,C,INI,Trunk_Forward,1,R_EO,39.63344788087056,return,3
BMu40,57,C,REL,Trunk_Forward,1,L_EO,70.93690248565966,bending,1
BMu40,57,C,REL,Trunk_Forward,1,L_EO,70.8695652173913,return,1
BMu40,57,C,REL,Trunk_Forward,1,L_EO,68.93464637421665,bending,2
BMu40,57,C,REL,Trunk_Forward,1,L_EO,77.04985578903997,return,2
BMu40,57,C,REL,Trunk_Forward,1,L_EO,84.95934959349594,bending,3
BMu40,57,C,REL,Trunk_Forward,1,L_EO,68.73727087576374,return,3
BMu40,57,C,REL,Trunk_Forward,1,R_EO,85.75525812619503,bending,1
BMu40,57,C,REL,Trunk_Forward,1,R_EO,81.41304347826086,return,1
BMu40,57,C,REL,Trunk_Forward,1,R_EO,76.86404911113954,bending,2
BMu40,57,C,REL,Trunk_Forward,1,R_EO,87.21329487707733,return,2
BMu40,57,C,REL,Trunk_Forward,1,R_EO,95.93495934959351,bending,3
BMu40,57,C,REL,Trunk_Forward,1,R_EO,78.71690427698574,return,3
BMu40,58,P,INI,Trunk_Forward,1,L_EO,97.08454810495626,bending,1
BMu40,58,P,INI,Trunk_Forward,1,L_EO,89.6260554885404,return,1
BMu40,58,P,INI,Trunk_Forward,1,L_EO,111.125,bending,2
BMu40,58,P,INI,Trunk_Forward,1,L_EO,98.9596879063719,return,2
BMu40,58,P,INI,Trunk_Forward,1,L_EO,102.76576222309606,bending,3
BMu40,58,P,INI,Trunk_Forward,1,L_EO,89.69616908850726,return,3
BMu40,58,P,INI,Trunk_Forward,1,R_EO,87.9008746355685,bending,1
BMu40,58,P,INI,Trunk_Forward,1,R_EO,83.5946924004825,return,1
BMu40,58,P,INI,Trunk_Forward,1,R_EO,86.125,bending,2
BMu40,58,P,INI,Trunk_Forward,1,R_EO,85.43563068920675,return,2
BMu40,58,P,INI,Trunk_Forward,1,R_EO,56.101717131996324,bending,3
BMu40,58,P,INI,Trunk_Forward,1,R_EO,84.67635402906208,return,3
BMu40,58,P,REL,Trunk_Forward,1,L_EO,84.2456608811749,bending,1
BMu40,58,P,REL,Trunk_Forward,1,L_EO,95.45454545454547,return,1
BMu40,58,P,REL,Trunk_Forward,1,L_EO,91.32853847197721,bending,2
BMu40,58,P,REL,Trunk_Forward,1,L_EO,98.65771812080537,return,2
BMu40,58,P,REL,Trunk_Forward,1,L_EO,103.11572700296735,bending,3
BMu40,58,P,REL,Trunk_Forward,1,L_EO,100.64102564102565,return,3
BMu40,58,P,REL,Trunk_Forward,1,R_EO,80.10680907877169,bending,1
BMu40,58,P,REL,Trunk_Forward,1,R_EO,71.5909090909091,return,1
BMu40,58,P,REL,Trunk_Forward,1,R_EO,74.36558556113448,bending,2
BMu40,58,P,REL,Trunk_Forward,1,R_EO,77.18120805369128,return,2
BMu40,58,P,REL,Trunk_Forward,1,R_EO,74.03560830860533,bending,3
BMu40,58,P,REL,Trunk_Forward,1,R_EO,78.20512820512822,return,3
BMu40,60,C,INI,Trunk_Forward,1,L_EO,59.85533453887884,bending,1
BMu40,60,C,INI,Trunk_Forward,1,L_EO,64.16103160874351,return,1
BMu40,60,C,INI,Trunk_Forward,1,L_EO,73.54228681491858,bending,2
BMu40,60,C,INI,Trunk_Forward,1,L_EO,63.000533902829694,return,2
BMu40,60,C,INI,Trunk_Forward,1,L_EO,57.855722292533,bending,3
BMu40,60,C,INI,Trunk_Forward,1,L_EO,66.71232876712328,return,3
BMu40,60,C,INI,Trunk_Forward,1,R_EO,38.155515370705245,bending,1
BMu40,60,C,INI,Trunk_Forward,1,R_EO,47.01997169366252,return,1
BMu40,60,C,INI,Trunk_Forward,1,R_EO,32.393626335142706,bending,2
BMu40,60,C,INI,Trunk_Forward,1,R_EO,31.856202171204846,return,2
BMu40,60,C,INI,Trunk_Forward,1,R_EO,37.42542035798228,bending,3
BMu40,60,C,INI,Trunk_Forward,1,R_EO,28.767123287671232,return,3
BMu40,60,C,REL,Trunk_Forward,1,L_EO,50.98872364765485,bending,1
BMu40,60,C,REL,Trunk_Forward,1,L_EO,52.90293656130912,return,1
BMu40,60,C,REL,Trunk_Forward,1,L_EO,46.698113207547166,bending,2
BMu40,60,C,REL,Trunk_Forward,1,L_EO,62.65954977953121,return,2
BMu40,60,C,REL,Trunk_Forward,1,L_EO,53.33333333333333,bending,3
BMu40,60,C,REL,Trunk_Forward,1,L_EO,41.23711340206186,return,3
BMu40,60,C,REL,Trunk_Forward,1,R_EO,30.070272920411835,bending,1
BMu40,60,C,REL,Trunk_Forward,1,R_EO,32.72808787267429,return,1
BMu40,60,C,REL,Trunk_Forward,1,R_EO,65.56603773584905,bending,2
BMu40,60,C,REL,Trunk_Forward,1,R_EO,29.705268043629612,return,2
BMu40,60,C,REL,Trunk_Forward,1,R_EO,45.747126436781606,bending,3
BMu40,60,C,REL,Trunk_Forward,1,R_EO,36.32793323514973,return,3
BMu40,61,P,INI,Trunk_Forward,1,L_EO,43.66756306825457,bending,1
BMu40,61,P,INI,Trunk_Forward,1,L_EO,42.271953932731314,return,1
BMu40,61,P,INI,Trunk_Forward,1,L_EO,62.16322775660402,bending,2
BMu40,61,P,INI,Trunk_Forward,1,L_EO,61.38036383835578,return,2
BMu40,61,P,INI,Trunk_Forward,1,L_EO,61.354019746121295,bending,3
BMu40,61,P,INI,Trunk_Forward,1,L_EO,74.24545167735829,return,3
BMu40,61,P,INI,Trunk_Forward,1,R_EO,44.69202202586759,bending,1
BMu40,61,P,INI,Trunk_Forward,1,R_EO,49.46996466431095,return,1
BMu40,61,P,INI,Trunk_Forward,1,R_EO,48.363779734524904,bending,2
BMu40,61,P,INI,Trunk_Forward,1,R_EO,47.91001249826412,return,2
BMu40,61,P,INI,Trunk_Forward,1,R_EO,45.55712270803949,bending,3
BMu40,61,P,INI,Trunk_Forward,1,R_EO,58.36575875486381,return,3
BMu40,61,P,REL,Trunk_Forward,1,L_EO,85.98668825328296,bending,1
BMu40,61,P,REL,Trunk_Forward,1,L_EO,102.53731343283582,return,1
BMu40,61,P,REL,Trunk_Forward,1,L_EO,99.98500974366661,bending,2
BMu40,61,P,REL,Trunk_Forward,1,L_EO,112.46246246246247,return,2
BMu40,61,P,REL,Trunk_Forward,1,L_EO,114.08882082695251,bending,3
BMu40,61,P,REL,Trunk_Forward,1,L_EO,107.17703349282297,return,3
BMu40,61,P,REL,Trunk_Forward,1,R_EO,95.52077711818673,bending,1
BMu40,61,P,REL,Trunk_Forward,1,R_EO,89.25373134328358,return,1
BMu40,61,P,REL,Trunk_Forward,1,R_EO,90.24134312696746,bending,2
BMu40,61,P,REL,Trunk_Forward,1,R_EO,100.0,return,2
BMu40,61,P,REL,Trunk_Forward,1,R_EO,98.16232771822358,bending,3
BMu40,61,P,REL,Trunk_Forward,1,R_EO,93.89952153110049,return,3
BMu40,62,P,INI,Trunk_Forward,1,L_EO,82.91491382819922,bending,1
BMu40,62,P,INI,Trunk_Forward,1,L_EO,72.71341463414635,return,1
BMu40,62,P,INI,Trunk_Forward,1,L_EO,60.2796977977817,bending,2
BMu40,62,P,INI,Trunk_Forward,1,L_EO,55.621704371491745,return,2
BMu40,62,P,INI,Trunk_Forward,1,L_EO,34.8692403486924,bending,3
BMu40,62,P,INI,Trunk_Forward,1,L_EO,35.245155416829235,return,3
BMu40,62,P,INI,Trunk_Forward,1,R_EO,104.08467906093094,bending,1
BMu40,62,P,INI,Trunk_Forward,1,R_EO,83.6890243902439,return,1
BMu40,62,P,INI,Trunk_Forward,1,R_EO,86.15978138562932,bending,2
BMu40,62,P,INI,Trunk_Forward,1,R_EO,86.06905936383738,return,2
BMu40,62,P,INI,Trunk_Forward,1,R_EO,63.5118306351183,bending,3
BMu40,62,P,INI,Trunk_Forward,1,R_EO,33.16426063207179,return,3
BMu40,62,P,REL,Trunk_Forward,1,L_EO,75.08650519031141,bending,1
BMu40,62,P,REL,Trunk_Forward,1,L_EO,83.34843268708099,return,1
BMu40,62,P,REL,Trunk_Forward,1,L_EO,85.81818181818183,bending,2
BMu40,62,P,REL,Trunk_Forward,1,L_EO,30.475851006950634,return,2
BMu40,62,P,REL,Trunk_Forward,1,L_EO,93.12721177127958,bending,3
BMu40,62,P,REL,Trunk_Forward,1,L_EO,92.20238894108172,return,3
BMu40,62,P,REL,Trunk_Forward,1,R_EO,83.21799307958477,bending,1
BMu40,62,P,REL,Trunk_Forward,1,R_EO,75.55716615328863,return,1
BMu40,62,P,REL,Trunk_Forward,1,R_EO,101.27272727272728,bending,2
BMu40,62,P,REL,Trunk_Forward,1,R_EO,75.20941008732846,return,2
BMu40,62,P,REL,Trunk_Forward,1,R_EO,82.69696405289626,bending,3
BMu40,62,P,REL,Trunk_Forward,1,R_EO,96.22869413501542,return,3
BMu40,63,P,INI,Trunk_Forward,1,L_EO,31.73254001983284,bending,1
BMu40,63,P,INI,Trunk_Forward,1,L_EO,40.080428954423596,return,1
BMu40,63,P,INI,Trunk_Forward,1,L_EO,63.41085271317829,bending,2
BMu40,63,P,INI,Trunk_Forward,1,L_EO,69.87381703470031,return,2
BMu40,63,P,INI,Trunk_Forward,1,L_EO,31.909671084928817,bending,3
BMu40,63,P,INI,Trunk_Forward,1,L_EO,47.38223511534742,return,3
BMu40,63,P,INI,Trunk_Forward,1,R_EO,32.299192520187,bending,1
BMu40,63,P,INI,Trunk_Forward,1,R_EO,36.193029490616624,return,1
BMu40,63,P,INI,Trunk_Forward,1,R_EO,27.5968992248062,bending,2
BMu40,63,P,INI,Trunk_Forward,1,R_EO,28.86435331230284,return,2
BMu40,63,P,INI,Trunk_Forward,1,R_EO,29.291441662575682,bending,3
BMu40,63,P,INI,Trunk_Forward,1,R_EO,21.549937836717778,return,3
BMu40,63,P,REL,Trunk_Forward,1,L_EO,104.01809010262653,bending,1
BMu40,63,P,REL,Trunk_Forward,1,L_EO,86.47187975004222,return,1
BMu40,63,P,REL,Trunk_Forward,1,L_EO,79.64764176913195,bending,2
BMu40,63,P,REL,Trunk_Forward,1,L_EO,93.23181049069373,return,2
BMu40,63,P,REL,Trunk_Forward,1,L_EO,97.74305555555556,bending,3
BMu40,63,P,REL,Trunk_Forward,1,L_EO,103.86332750922152,return,3
BMu40,63,P,REL,Trunk_Forward,1,R_EO,94.45120890589666,bending,1
BMu40,63,P,REL,Trunk_Forward,1,R_EO,47.12041884816754,return,1
BMu40,63,P,REL,Trunk_Forward,1,R_EO,73.95852449990824,bending,2
BMu40,63,P,REL,Trunk_Forward,1,R_EO,40.947546531302876,return,2
BMu40,63,P,REL,Trunk_Forward,1,R_EO,37.15277777777778,bending,3
BMu40,63,P,REL,Trunk_Forward,1,R_EO,38.245000970685304,return,3
BMu40,64,C,INI,Trunk_Forward,1,L_EO,60.43956043956043,bending,1
BMu40,64,C,INI,Trunk_Forward,1,L_EO,56.72582517830486,return,1
BMu40,64,C,INI,Trunk_Forward,1,L_EO,56.20567375886525,bending,2
BMu40,64,C,INI,Trunk_Forward,1,L_EO,54.00474365991607,return,2
BMu40,64,C,INI,Trunk_Forward,1,L_EO,58.02919708029197,bending,3
BMu40,64,C,INI,Trunk_Forward,1,L_EO,58.67768595041323,return,3
BMu40,64,C,INI,Trunk_Forward,1,R_EO,66.62087912087911,bending,1
BMu40,64,C,INI,Trunk_Forward,1,R_EO,61.53590976944767,return,1
BMu40,64,C,INI,Trunk_Forward,1,R_EO,69.32624113475177,bending,2
BMu40,64,C,INI,Trunk_Forward,1,R_EO,68.41817186644774,return,2
BMu40,64,C,INI,Trunk_Forward,1,R_EO,69.7080291970803,bending,3
BMu40,64,C,INI,Trunk_Forward,1,R_EO,72.56198347107438,return,3
BMu40,64,C,REL,Trunk_Forward,1,L_EO,54.0506329113924,bending,1
BMu40,64,C,REL,Trunk_Forward,1,L_EO,51.166666666666664,return,1
BMu40,64,C,REL,Trunk_Forward,1,L_EO,56.317425489120495,bending,2
BMu40,64,C,REL,Trunk_Forward,1,L_EO,52.36270753512133,return,2
BMu40,64,C,REL,Trunk_Forward,1,L_EO,59.40959409594096,bending,3
BMu40,64,C,REL,Trunk_Forward,1,L_EO,56.960408684546614,return,3
BMu40,64,C,REL,Trunk_Forward,1,R_EO,60.25316455696202,bending,1
BMu40,64,C,REL,Trunk_Forward,1,R_EO,60.83333333333333,return,1
BMu40,64,C,REL,Trunk_Forward,1,R_EO,59.24300603400987,bending,2
BMu40,64,C,REL,Trunk_Forward,1,R_EO,66.2287903667214,return,2
BMu40,64,C,REL,Trunk_Forward,1,R_EO,66.42066420664207,bending,3
BMu40,64,C,REL,Trunk_Forward,1,R_EO,66.28352490421456,return,3
BMu40,65,P,INI,Trunk_Forward,1,L_EO,63.08139534883721,bending,1
BMu40,65,P,INI,Trunk_Forward,1,L_EO,64.46043165467626,return,1
BMu40,65,P,INI,Trunk_Forward,1,L_EO,66.46971935007385,bending,2
BMu40,65,P,INI,Trunk_Forward,1,L_EO,64.46776611694153,return,2
BMu40,65,P,INI,Trunk_Forward,1,L_EO,62.34375,bending,3
BMu40,65,P,INI,Trunk_Forward,1,L_EO,68.35722160970231,return,3
BMu40,65,P,INI,Trunk_Forward,1,R_EO,60.46511627906977,bending,1
BMu40,65,P,INI,Trunk_Forward,1,R_EO,49.064748201438846,return,1
BMu40,65,P,INI,Trunk_Forward,1,R_EO,58.93648449039881,bending,2
BMu40,65,P,INI,Trunk_Forward,1,R_EO,69.86506746626686,return,2
BMu40,65,P,INI,Trunk_Forward,1,R_EO,70.0,bending,3
BMu40,65,P,INI,Trunk_Forward,1,R_EO,87.651598676957,return,3
BMu40,65,P,REL,Trunk_Forward,1,L_EO,84.4548709717249,bending,1
BMu40,65,P,REL,Trunk_Forward,1,L_EO,66.79791871747996,return,1
BMu40,65,P,REL,Trunk_Forward,1,L_EO,60.388945752302966,bending,2
BMu40,65,P,REL,Trunk_Forward,1,L_EO,60.67995983359633,return,2
BMu40,65,P,REL,Trunk_Forward,1,L_EO,63.127690100430414,bending,3
BMu40,65,P,REL,Trunk_Forward,1,L_EO,73.47771856219525,return,3
BMu40,65,P,REL,Trunk_Forward,1,R_EO,64.45240153105321,bending,1
BMu40,65,P,REL,Trunk_Forward,1,R_EO,64.96976515258051,return,1
BMu40,65,P,REL,Trunk_Forward,1,R_EO,60.388945752302966,bending,2
BMu40,65,P,REL,Trunk_Forward,1,R_EO,70.14775498493759,return,2
BMu40,65,P,REL,Trunk_Forward,1,R_EO,66.28407460545193,bending,3
BMu40,65,P,REL,Trunk_Forward,1,R_EO,67.58135843066107,return,3
BMu40,66,C,INI,Trunk_Forward,1,L_EO,99.9163491030765,bending,1
BMu40,66,C,INI,Trunk_Forward,1,L_EO,99.89594172736733,return,1
BMu40,66,C,INI,Trunk_Forward,1,L_EO,99.87789987789989,bending,2
BMu40,66,C,INI,Trunk_Forward,1,L_EO,28.980052691004893,return,2
BMu40,66,C,INI,Trunk_Forward,1,L_EO,99.99999999999999,bending,3
BMu40,66,C,INI,Trunk_Forward,1,L_EO,99.92907242493499,return,3
BMu40,66,C,INI,Trunk_Forward,1,R_EO,40.71010316943954,bending,1
BMu40,66,C,INI,Trunk_Forward,1,R_EO,37.6690946930281,return,1
BMu40,66,C,INI,Trunk_Forward,1,R_EO,103.66300366300368,bending,2
BMu40,66,C,INI,Trunk_Forward,1,R_EO,31.740057709195835,return,2
BMu40,66,C,INI,Trunk_Forward,1,R_EO,142.89617486338796,bending,3
BMu40,66,C,INI,Trunk_Forward,1,R_EO,296.2408385215541,return,3
BMu40,66,C,REL,Trunk_Forward,1,L_EO,60.1540530627216,bending,1
BMu40,66,C,REL,Trunk_Forward,1,L_EO,79.47310647639956,return,1
BMu40,66,C,REL,Trunk_Forward,1,L_EO,66.19928743822548,bending,2
BMu40,66,C,REL,Trunk_Forward,1,L_EO,72.63803680981594,return,2
BMu40,66,C,REL,Trunk_Forward,1,L_EO,100.66501499543615,bending,3
BMu40,66,C,REL,Trunk_Forward,1,L_EO,64.68213925327952,return,3
BMu40,66,C,REL,Trunk_Forward,1,R_EO,35.456657293067614,bending,1
BMu40,66,C,REL,Trunk_Forward,1,R_EO,30.625686059275523,return,1
BMu40,66,C,REL,Trunk_Forward,1,R_EO,29.766693483507638,bending,2
BMu40,66,C,REL,Trunk_Forward,1,R_EO,31.042944785276074,return,2
BMu40,66,C,REL,Trunk_Forward,1,R_EO,39.77050462902594,bending,3
BMu40,66,C,REL,Trunk_Forward,1,R_EO,40.46417759838547,return,3
BMu40,67,C,INI,Trunk_Forward,1,L_EO,24.299896280930504,bending,1
BMu40,67,C,INI,Trunk_Forward,1,L_EO,36.08479927830402,return,1
BMu40,67,C,INI,Trunk_Forward,1,L_EO,59.927797833935024,bending,2
BMu40,67,C,INI,Trunk_Forward,1,L_EO,78.74306839186691,return,2
BMu40,67,C,INI,Trunk_Forward,1,L_EO,51.964984168374,bending,3
BMu40,67,C,INI,Trunk_Forward,1,L_EO,37.17419171058254,return,3
BMu40,67,C,INI,Trunk_Forward,1,R_EO,27.707808564231733,bending,1
BMu40,67,C,INI,Trunk_Forward,1,R_EO,23.455119530897612,return,1
BMu40,67,C,INI,Trunk_Forward,1,R_EO,40.07220216606498,bending,2
BMu40,67,C,INI,Trunk_Forward,1,R_EO,27.726432532347506,return,2
BMu40,67,C,INI,Trunk_Forward,1,R_EO,40.603464332277895,bending,3
BMu40,67,C,INI,Trunk_Forward,1,R_EO,30.479988605611737,return,3
BMu40,67,C,REL,Trunk_Forward,1,L_EO,26.329113924050628,bending,1
BMu40,67,C,REL,Trunk_Forward,1,L_EO,32.6975476839237,return,1
BMu40,67,C,REL,Trunk_Forward,1,L_EO,25.34282242666204,bending,2
BMu40,67,C,REL,Trunk_Forward,1,L_EO,29.69575514665695,return,2
BMu40,67,C,REL,Trunk_Forward,1,L_EO,25.57200538358008,bending,3
BMu40,67,C,REL,Trunk_Forward,1,L_EO,25.357142857142854,return,3
BMu40,67,C,REL,Trunk_Forward,1,R_EO,26.708860759493668,bending,1
BMu40,67,C,REL,Trunk_Forward,1,R_EO,24.683442859432603,return,1
BMu40,67,C,REL,Trunk_Forward,1,R_EO,32.112480472140255,bending,2
BMu40,67,C,REL,Trunk_Forward,1,R_EO,40.80889050828931,return,2
BMu40,67,C,REL,Trunk_Forward,1,R_EO,25.57200538358008,bending,3
BMu40,67,C,REL,Trunk_Forward,1,R_EO,23.333333333333332,return,3
BMu40,68,C,INI,Trunk_Forward,1,L_EO,28.531468531468526,bending,1
BMu40,68,C,INI,Trunk_Forward,1,L_EO,33.96175959352855,return,1
BMu40,68,C,INI,Trunk_Forward,1,L_EO,37.149905674067625,bending,2
BMu40,68,C,INI,Trunk_Forward,1,L_EO,32.5115562403698,return,2
BMu40,68,C,INI,Trunk_Forward,1,L_EO,43.518094365551995,bending,3
BMu40,68,C,INI,Trunk_Forward,1,L_EO,56.8922305764411,return,3
BMu40,68,C,INI,Trunk_Forward,1,R_EO,23.916083916083913,bending,1
BMu40,68,C,INI,Trunk_Forward,1,R_EO,25.00334269287338,return,1
BMu40,68,C,INI,Trunk_Forward,1,R_EO,26.84661152227543,bending,2
BMu40,68,C,INI,Trunk_Forward,1,R_EO,25.577812018489983,return,2
BMu40,68,C,INI,Trunk_Forward,1,R_EO,26.721636891128416,bending,3
BMu40,68,C,INI,Trunk_Forward,1,R_EO,22.305764411027567,return,3
BMu40,68,C,REL,Trunk_Forward,1,L_EO,41.799665602675184,bending,1
BMu40,68,C,REL,Trunk_Forward,1,L_EO,48.8882344279193,return,1
BMu40,68,C,REL,Trunk_Forward,1,L_EO,46.05873261205564,bending,2
BMu40,68,C,REL,Trunk_Forward,1,L_EO,43.66000928936367,return,2
BMu40,68,C,REL,Trunk_Forward,1,L_EO,60.44878644481758,bending,3
BMu40,68,C,REL,Trunk_Forward,1,L_EO,42.65402843601896,return,3
BMu40,68,C,REL,Trunk_Forward,1,L_EO,38.46153846153846,bending,4
BMu40,68,C,REL,Trunk_Forward,1,L_EO,42.0,return,4
BMu40,68,C,REL,Trunk_Forward,1,R_EO,25.535795713634293,bending,1
BMu40,68,C,REL,Trunk_Forward,1,R_EO,27.683699013400087,return,1
BMu40,68,C,REL,Trunk_Forward,1,R_EO,28.902627511591962,bending,2
BMu40,68,C,REL,Trunk_Forward,1,R_EO,26.78433193992878,return,2
BMu40,68,C,REL,Trunk_Forward,1,R_EO,23.507861395206838,bending,3
BMu40,68,C,REL,Trunk_Forward,1,R_EO,29.743422127798663,return,3
BMu40,68,C,REL,Trunk_Forward,1,R_EO,27.25752508361204,bending,4
BMu40,68,C,REL,Trunk_Forward,1,R_EO,28.125,return,4
