BMu,subject,P_C,session,task,trials,channel,value,event,repetition
BMu41,1,C,INI,Trunk_Forward,1,L_EO,0,0,0
BMu41,1,C,INI,Trunk_Forward,1,R_EO,0,0,0
BMu41,1,C,REL,Trunk_Forward,1,L_EO,0,0,0
BMu41,1,C,REL,Trunk_Forward,1,R_EO,0,0,0
BMu41,2,C,INI,Trunk_Forward,1,L_EO,0,0,0
BMu41,2,C,INI,Trunk_Forward,1,R_EO,0,0,0
BMu41,2,C,REL,Trunk_Forward,1,L_EO,0,0,0
BMu41,2,C,REL,Trunk_Forward,1,R_EO,0,0,0
BMu41,3,C,INI,Trunk_Forward,1,L_EO,0,0,0
BMu41,3,C,INI,Trunk_Forward,1,R_EO,0,0,0
BMu41,3,C,REL,Trunk_Forward,1,L_EO,0,0,0
BMu41,3,C,REL,Trunk_Forward,1,R_EO,0,0,0
BMu41,5,C,INI,Trunk_Forward,1,L_EO,0,0,0
BMu41,5,C,INI,Trunk_Forward,1,R_EO,0,0,0
BMu41,5,C,REL,Trunk_Forward,1,L_EO,0,0,0
BMu41,5,C,REL,Trunk_Forward,1,R_EO,0,0,0
BMu41,6,C,INI,Trunk_Forward,1,L_EO,0,0,0
BMu41,6,C,INI,Trunk_Forward,1,R_EO,0,0,0
BMu41,6,C,REL,Trunk_Forward,1,L_EO,0,0,0
BMu41,6,C,REL,Trunk_Forward,1,R_EO,0,0,0
BMu41,7,C,INI,Trunk_Forward,1,L_EO,0,0,0
BMu41,7,C,INI,Trunk_Forward,1,R_EO,0,0,0
BMu41,7,C,REL,Trunk_Forward,1,L_EO,0,0,0
BMu41,7,C,REL,Trunk_Forward,1,R_EO,0,0,0
BMu41,8,C,INI,Trunk_Forward,1,L_EO,0,0,0
BMu41,8,C,INI,Trunk_Forward,1,R_EO,0,0,0
BMu41,8,C,REL,Trunk_Forward,1,L_EO,0,0,0
BMu41,8,C,REL,Trunk_Forward,1,R_EO,0,0,0
BMu41,9,P,INI,Trunk_Forward,1,L_EO,0,0,0
BMu41,9,P,INI,Trunk_Forward,1,R_EO,0,0,0
BMu41,9,P,REL,Trunk_Forward,1,L_EO,0,0,0
BMu41,9,P,REL,Trunk_Forward,1,R_EO,0,0,0
BMu41,10,P,INI,Trunk_Forward,1,L_EO,0,0,0
BMu41,10,P,INI,Trunk_Forward,1,R_EO,0,0,0
BMu41,10,P,REL,Trunk_Forward,1,L_EO,0,0,0
BMu41,10,P,REL,Trunk_Forward,1,R_EO,0,0,0
BMu41,11,P,INI,Trunk_Forward,1,L_EO,0,0,0
BMu41,11,P,INI,Trunk_Forward,1,R_EO,0,0,0
BMu41,11,P,REL,Trunk_Forward,1,L_EO,0,0,0
BMu41,11,P,REL,Trunk_Forward,1,R_EO,0,0,0
