BMu,subject,P_C,session,task,trials,channel,value,event,rep
BMu67,1,C,INI,Posture_Sitting,1,L_ESI,24.61657810546949,total,1
BMu67,1,C,INI,Posture_Sitting,1,L_ESI,25.128086307386198,start,1
BMu67,1,C,INI,Posture_Sitting,1,L_ESI,24.418795910274905,middle,1
BMu67,1,C,INI,Posture_Sitting,1,L_ESI,24.303597172062933,end,1
BMu67,1,C,INI,Posture_Sitting,1,R_ESI,25.3681161325661,total,1
BMu67,1,C,INI,Posture_Sitting,1,R_ESI,25.588195849187322,start,1
BMu67,1,C,INI,Posture_Sitting,1,R_ESI,25.41091499821803,middle,1
BMu67,1,C,INI,Posture_Sitting,1,R_ESI,25.105076320953266,end,1
BMu67,1,C,REL,Posture_Sitting,1,L_ESI,18.96710137307829,total,1
BMu67,1,C,REL,Posture_Sitting,1,L_ESI,19.85384833146516,start,1
BMu67,1,C,REL,Posture_Sitting,1,L_ESI,18.811622056222863,middle,1
BMu67,1,C,REL,Posture_Sitting,1,L_ESI,18.236419443976615,end,1
BMu67,1,C,REL,Posture_Sitting,1,R_ESI,26.033578782362156,total,1
BMu67,1,C,REL,Posture_Sitting,1,R_ESI,27.34695539462856,start,1
BMu67,1,C,REL,Posture_Sitting,1,R_ESI,25.50046858146063,middle,1
BMu67,1,C,REL,Posture_Sitting,1,R_ESI,25.255320672020325,end,1
BMu67,2,C,INI,Posture_Sitting,1,L_ESI,9.336773839444717,total,1
BMu67,2,C,INI,Posture_Sitting,1,L_ESI,9.266906639964537,start,1
BMu67,2,C,INI,Posture_Sitting,1,L_ESI,9.385459516572645,middle,1
BMu67,2,C,INI,Posture_Sitting,1,L_ESI,9.357771956011412,end,1
BMu67,2,C,INI,Posture_Sitting,1,R_ESI,34.20898370703109,total,1
BMu67,2,C,INI,Posture_Sitting,1,R_ESI,33.65098310862291,start,1
BMu67,2,C,INI,Posture_Sitting,1,R_ESI,34.3302549401461,middle,1
BMu67,2,C,INI,Posture_Sitting,1,R_ESI,34.64525622655182,end,1
BMu67,2,C,REL,Posture_Sitting,1,L_ESI,24.831061233180893,total,1
BMu67,2,C,REL,Posture_Sitting,1,L_ESI,25.23646509867633,start,1
BMu67,2,C,REL,Posture_Sitting,1,L_ESI,25.145563308944816,middle,1
BMu67,2,C,REL,Posture_Sitting,1,L_ESI,24.10997051841798,end,1
BMu67,2,C,REL,Posture_Sitting,1,R_ESI,23.9039195345954,total,1
BMu67,2,C,REL,Posture_Sitting,1,R_ESI,23.671059680021266,start,1
BMu67,2,C,REL,Posture_Sitting,1,R_ESI,24.164725096063215,middle,1
BMu67,2,C,REL,Posture_Sitting,1,R_ESI,23.874991336511307,end,1
BMu67,3,C,INI,Posture_Sitting,1,L_ESI,23.405795625193157,total,1
BMu67,3,C,INI,Posture_Sitting,1,L_ESI,23.533605571460686,start,1
BMu67,3,C,INI,Posture_Sitting,1,L_ESI,23.398468940291437,middle,1
BMu67,3,C,INI,Posture_Sitting,1,L_ESI,23.2853399644787,end,1
BMu67,3,C,INI,Posture_Sitting,1,R_ESI,32.390256877801384,total,1
BMu67,3,C,INI,Posture_Sitting,1,R_ESI,32.61752702204529,start,1
BMu67,3,C,INI,Posture_Sitting,1,R_ESI,32.040640135939,middle,1
BMu67,3,C,INI,Posture_Sitting,1,R_ESI,32.513920530803844,end,1
BMu67,3,C,REL,Posture_Sitting,1,L_ESI,12.113945468561534,total,1
BMu67,3,C,REL,Posture_Sitting,1,L_ESI,12.064102556175449,start,1
BMu67,3,C,REL,Posture_Sitting,1,L_ESI,12.081805020110988,middle,1
BMu67,3,C,REL,Posture_Sitting,1,L_ESI,12.196049906982866,end,1
BMu67,3,C,REL,Posture_Sitting,1,R_ESI,24.423753142466055,total,1
BMu67,3,C,REL,Posture_Sitting,1,R_ESI,24.156282665055922,start,1
BMu67,3,C,REL,Posture_Sitting,1,R_ESI,24.66602688541101,middle,1
BMu67,3,C,REL,Posture_Sitting,1,R_ESI,24.448037197704707,end,1
BMu67,5,C,INI,Posture_Sitting,1,L_ESI,11.608986541798084,total,1
BMu67,5,C,INI,Posture_Sitting,1,L_ESI,11.844995421642608,start,1
BMu67,5,C,INI,Posture_Sitting,1,L_ESI,11.421171908290157,middle,1
BMu67,5,C,INI,Posture_Sitting,1,L_ESI,11.561499819571845,end,1
BMu67,5,C,INI,Posture_Sitting,1,R_ESI,22.9459677785393,total,1
BMu67,5,C,INI,Posture_Sitting,1,R_ESI,23.059957741064057,start,1
BMu67,5,C,INI,Posture_Sitting,1,R_ESI,23.07799870292069,middle,1
BMu67,5,C,INI,Posture_Sitting,1,R_ESI,22.699449512592075,end,1
BMu67,5,C,REL,Posture_Sitting,1,L_ESI,14.299445315926674,total,1
BMu67,5,C,REL,Posture_Sitting,1,L_ESI,13.492750905014375,start,1
BMu67,5,C,REL,Posture_Sitting,1,L_ESI,14.514449675358732,middle,1
BMu67,5,C,REL,Posture_Sitting,1,L_ESI,14.890325415779136,end,1
BMu67,5,C,REL,Posture_Sitting,1,R_ESI,29.16120792893865,total,1
BMu67,5,C,REL,Posture_Sitting,1,R_ESI,29.12062668099637,start,1
BMu67,5,C,REL,Posture_Sitting,1,R_ESI,29.402760829282627,middle,1
BMu67,5,C,REL,Posture_Sitting,1,R_ESI,28.959326312825798,end,1
BMu67,6,C,INI,Posture_Sitting,1,L_ESI,40.29983859481979,total,1
BMu67,6,C,INI,Posture_Sitting,1,L_ESI,37.84881590159384,start,1
BMu67,6,C,INI,Posture_Sitting,1,L_ESI,40.636852267994946,middle,1
BMu67,6,C,INI,Posture_Sitting,1,L_ESI,42.41257803701696,end,1
BMu67,6,C,INI,Posture_Sitting,1,R_ESI,43.461677378859044,total,1
BMu67,6,C,INI,Posture_Sitting,1,R_ESI,42.63248366034267,start,1
BMu67,6,C,INI,Posture_Sitting,1,R_ESI,43.14406304905593,middle,1
BMu67,6,C,INI,Posture_Sitting,1,R_ESI,44.609681924980286,end,1
BMu67,6,C,REL,Posture_Sitting,1,L_ESI,37.16454789433237,total,1
BMu67,6,C,REL,Posture_Sitting,1,L_ESI,37.91942727958146,start,1
BMu67,6,C,REL,Posture_Sitting,1,L_ESI,36.62265935719328,middle,1
BMu67,6,C,REL,Posture_Sitting,1,L_ESI,36.953598416471316,end,1
BMu67,6,C,REL,Posture_Sitting,1,R_ESI,36.00935129933333,total,1
BMu67,6,C,REL,Posture_Sitting,1,R_ESI,36.710513179188915,start,1
BMu67,6,C,REL,Posture_Sitting,1,R_ESI,35.6691175012267,middle,1
BMu67,6,C,REL,Posture_Sitting,1,R_ESI,35.649704926101045,end,1
BMu67,7,C,INI,Posture_Sitting,1,L_ESI,8.048337111003704,total,1
BMu67,7,C,INI,Posture_Sitting,1,L_ESI,8.095587366178162,start,1
BMu67,7,C,INI,Posture_Sitting,1,L_ESI,8.108136876374424,middle,1
BMu67,7,C,INI,Posture_Sitting,1,L_ESI,7.941061816341151,end,1
BMu67,7,C,INI,Posture_Sitting,1,R_ESI,11.622379378418632,total,1
BMu67,7,C,INI,Posture_Sitting,1,R_ESI,13.756447207302426,start,1
BMu67,7,C,INI,Posture_Sitting,1,R_ESI,11.23938711030115,middle,1
BMu67,7,C,INI,Posture_Sitting,1,R_ESI,9.872746603332608,end,1
BMu67,7,C,REL,Posture_Sitting,1,L_ESI,4.803370042919565,total,1
BMu67,7,C,REL,Posture_Sitting,1,L_ESI,4.8507328231929145,start,1
BMu67,7,C,REL,Posture_Sitting,1,L_ESI,4.751164343975639,middle,1
BMu67,7,C,REL,Posture_Sitting,1,L_ESI,4.808409627792401,end,1
BMu67,7,C,REL,Posture_Sitting,1,R_ESI,8.688950919935051,total,1
BMu67,7,C,REL,Posture_Sitting,1,R_ESI,8.79550934249238,start,1
BMu67,7,C,REL,Posture_Sitting,1,R_ESI,8.657330386912758,middle,1
BMu67,7,C,REL,Posture_Sitting,1,R_ESI,8.614132149390255,end,1
BMu67,8,C,INI,Posture_Sitting,1,L_ESI,32.61724030217157,total,1
BMu67,8,C,INI,Posture_Sitting,1,L_ESI,34.24448278881187,start,1
BMu67,8,C,INI,Posture_Sitting,1,L_ESI,32.40158638705337,middle,1
BMu67,8,C,INI,Posture_Sitting,1,L_ESI,31.20646412924476,end,1
BMu67,8,C,INI,Posture_Sitting,1,R_ESI,53.58102956381531,total,1
BMu67,8,C,INI,Posture_Sitting,1,R_ESI,54.30517046461517,start,1
BMu67,8,C,INI,Posture_Sitting,1,R_ESI,53.294171387485484,middle,1
BMu67,8,C,INI,Posture_Sitting,1,R_ESI,53.14482747439598,end,1
BMu67,8,C,REL,Posture_Sitting,1,L_ESI,30.088001281252325,total,1
BMu67,8,C,REL,Posture_Sitting,1,L_ESI,30.763947242680636,start,1
BMu67,8,C,REL,Posture_Sitting,1,L_ESI,29.70892757908071,middle,1
BMu67,8,C,REL,Posture_Sitting,1,L_ESI,29.792557045887474,end,1
BMu67,8,C,REL,Posture_Sitting,1,R_ESI,31.573615999044016,total,1
BMu67,8,C,REL,Posture_Sitting,1,R_ESI,30.36046406706722,start,1
BMu67,8,C,REL,Posture_Sitting,1,R_ESI,31.147861923367774,middle,1
BMu67,8,C,REL,Posture_Sitting,1,R_ESI,33.21412588211397,end,1
BMu67,9,P,INI,Posture_Sitting,1,L_ESI,10.941125701746111,total,1
BMu67,9,P,INI,Posture_Sitting,1,L_ESI,11.069913171425991,start,1
BMu67,9,P,INI,Posture_Sitting,1,L_ESI,10.876881733449265,middle,1
BMu67,9,P,INI,Posture_Sitting,1,L_ESI,10.87682421641724,end,1
BMu67,9,P,INI,Posture_Sitting,1,R_ESI,22.718959675929376,total,1
BMu67,9,P,INI,Posture_Sitting,1,R_ESI,22.576203433552646,start,1
BMu67,9,P,INI,Posture_Sitting,1,R_ESI,22.922104897719798,middle,1
BMu67,9,P,INI,Posture_Sitting,1,R_ESI,22.65780541992549,end,1
BMu67,9,P,REL,Posture_Sitting,1,L_ESI,13.725045846820068,total,1
BMu67,9,P,REL,Posture_Sitting,1,L_ESI,13.865799329726812,start,1
BMu67,9,P,REL,Posture_Sitting,1,L_ESI,13.72041316868576,middle,1
BMu67,9,P,REL,Posture_Sitting,1,L_ESI,13.58894249399701,end,1
BMu67,9,P,REL,Posture_Sitting,1,R_ESI,23.517257030521375,total,1
BMu67,9,P,REL,Posture_Sitting,1,R_ESI,23.431272803750964,start,1
BMu67,9,P,REL,Posture_Sitting,1,R_ESI,23.351544613344974,middle,1
BMu67,9,P,REL,Posture_Sitting,1,R_ESI,23.7695779364245,end,1
BMu67,10,P,INI,Posture_Sitting,1,L_ESI,41.82709164471151,total,1
BMu67,10,P,INI,Posture_Sitting,1,L_ESI,42.40578700045938,start,1
BMu67,10,P,INI,Posture_Sitting,1,L_ESI,41.800071352593854,middle,1
BMu67,10,P,INI,Posture_Sitting,1,L_ESI,41.275518370317755,end,1
BMu67,10,P,INI,Posture_Sitting,1,R_ESI,34.83552790280247,total,1
BMu67,10,P,INI,Posture_Sitting,1,R_ESI,35.023588043008026,start,1
BMu67,10,P,INI,Posture_Sitting,1,R_ESI,34.45927267095887,middle,1
BMu67,10,P,INI,Posture_Sitting,1,R_ESI,35.02514040075868,end,1
BMu67,10,P,REL,Posture_Sitting,1,L_ESI,19.41602960714741,total,1
BMu67,10,P,REL,Posture_Sitting,1,L_ESI,19.630732624193467,start,1
BMu67,10,P,REL,Posture_Sitting,1,L_ESI,19.360812670885462,middle,1
BMu67,10,P,REL,Posture_Sitting,1,L_ESI,19.25675153631958,end,1
BMu67,10,P,REL,Posture_Sitting,1,R_ESI,57.41378463713455,total,1
BMu67,10,P,REL,Posture_Sitting,1,R_ESI,62.153761520498875,start,1
BMu67,10,P,REL,Posture_Sitting,1,R_ESI,55.86161343598545,middle,1
BMu67,10,P,REL,Posture_Sitting,1,R_ESI,54.231826201897356,end,1
BMu67,11,P,INI,Posture_Sitting,1,L_ESI,10.378768443344962,total,1
BMu67,11,P,INI,Posture_Sitting,1,L_ESI,10.086225995078168,start,1
BMu67,11,P,INI,Posture_Sitting,1,L_ESI,10.578681136211168,middle,1
BMu67,11,P,INI,Posture_Sitting,1,L_ESI,10.47064509954594,end,1
BMu67,11,P,INI,Posture_Sitting,1,R_ESI,20.058123777248372,total,1
BMu67,11,P,INI,Posture_Sitting,1,R_ESI,20.199243274488154,start,1
BMu67,11,P,INI,Posture_Sitting,1,R_ESI,20.070626429004847,middle,1
BMu67,11,P,INI,Posture_Sitting,1,R_ESI,19.90445452900646,end,1
BMu67,11,P,REL,Posture_Sitting,1,L_ESI,19.58189164951989,total,1
BMu67,11,P,REL,Posture_Sitting,1,L_ESI,19.769961320894765,start,1
BMu67,11,P,REL,Posture_Sitting,1,L_ESI,19.51891556845311,middle,1
BMu67,11,P,REL,Posture_Sitting,1,L_ESI,19.457050939328767,end,1
BMu67,11,P,REL,Posture_Sitting,1,R_ESI,18.65883341581437,total,1
BMu67,11,P,REL,Posture_Sitting,1,R_ESI,18.45423458476376,start,1
BMu67,11,P,REL,Posture_Sitting,1,R_ESI,18.843021290983852,middle,1
BMu67,11,P,REL,Posture_Sitting,1,R_ESI,18.678539896556963,end,1
BMu67,12,P,INI,Posture_Sitting,1,L_ESI,40.042110816155336,total,1
BMu67,12,P,INI,Posture_Sitting,1,L_ESI,40.246266938445395,start,1
BMu67,12,P,INI,Posture_Sitting,1,L_ESI,40.70586333172345,middle,1
BMu67,12,P,INI,Posture_Sitting,1,L_ESI,39.17170172932097,end,1
BMu67,12,P,INI,Posture_Sitting,1,R_ESI,24.910010748334955,total,1
BMu67,12,P,INI,Posture_Sitting,1,R_ESI,25.39630914556179,start,1
BMu67,12,P,INI,Posture_Sitting,1,R_ESI,24.600072227326663,middle,1
BMu67,12,P,INI,Posture_Sitting,1,R_ESI,24.734818454068073,end,1
BMu67,12,P,REL,Posture_Sitting,1,L_ESI,20.685434073740513,total,1
BMu67,12,P,REL,Posture_Sitting,1,L_ESI,20.56875959787816,start,1
BMu67,12,P,REL,Posture_Sitting,1,L_ESI,20.28442485762431,middle,1
BMu67,12,P,REL,Posture_Sitting,1,L_ESI,21.20462842377366,end,1
BMu67,12,P,REL,Posture_Sitting,1,R_ESI,15.634589069170662,total,1
BMu67,12,P,REL,Posture_Sitting,1,R_ESI,17.07400038146838,start,1
BMu67,12,P,REL,Posture_Sitting,1,R_ESI,15.202812282901862,middle,1
BMu67,12,P,REL,Posture_Sitting,1,R_ESI,14.628581106955599,end,1
BMu67,13,C,INI,Posture_Sitting,1,L_ESI,26.819702126780435,total,1
BMu67,13,C,INI,Posture_Sitting,1,L_ESI,26.801721051839372,start,1
BMu67,13,C,INI,Posture_Sitting,1,L_ESI,27.080684297651906,middle,1
BMu67,13,C,INI,Posture_Sitting,1,L_ESI,26.575717874347173,end,1
BMu67,13,C,INI,Posture_Sitting,1,R_ESI,20.896439913967075,total,1
BMu67,13,C,INI,Posture_Sitting,1,R_ESI,20.99744476341688,start,1
BMu67,13,C,INI,Posture_Sitting,1,R_ESI,20.75646712076526,middle,1
BMu67,13,C,INI,Posture_Sitting,1,R_ESI,20.93593515489575,end,1
BMu67,13,C,REL,Posture_Sitting,1,L_ESI,22.453594866940442,total,1
BMu67,13,C,REL,Posture_Sitting,1,L_ESI,22.507899499248246,start,1
BMu67,13,C,REL,Posture_Sitting,1,L_ESI,22.59371554727023,middle,1
BMu67,13,C,REL,Posture_Sitting,1,L_ESI,22.258641700014596,end,1
BMu67,13,C,REL,Posture_Sitting,1,R_ESI,28.29525740747782,total,1
BMu67,13,C,REL,Posture_Sitting,1,R_ESI,27.971264263880347,start,1
BMu67,13,C,REL,Posture_Sitting,1,R_ESI,28.24293818994214,middle,1
BMu67,13,C,REL,Posture_Sitting,1,R_ESI,28.67176686245371,end,1
BMu67,14,P,INI,Posture_Sitting,1,L_ESI,16.413373009047277,total,1
BMu67,14,P,INI,Posture_Sitting,1,L_ESI,17.284454101893957,start,1
BMu67,14,P,INI,Posture_Sitting,1,L_ESI,16.171138206654902,middle,1
BMu67,14,P,INI,Posture_Sitting,1,L_ESI,15.785439251124961,end,1
BMu67,14,P,INI,Posture_Sitting,1,R_ESI,47.55234774191849,total,1
BMu67,14,P,INI,Posture_Sitting,1,R_ESI,47.76459288616276,start,1
BMu67,14,P,INI,Posture_Sitting,1,R_ESI,45.75855498011992,middle,1
BMu67,14,P,INI,Posture_Sitting,1,R_ESI,49.14065282881503,end,1
BMu67,14,P,REL,Posture_Sitting,1,L_ESI,26.56223360522543,total,1
BMu67,14,P,REL,Posture_Sitting,1,L_ESI,26.257814966696138,start,1
BMu67,14,P,REL,Posture_Sitting,1,L_ESI,26.798458442265375,middle,1
BMu67,14,P,REL,Posture_Sitting,1,L_ESI,26.629528484254074,end,1
BMu67,14,P,REL,Posture_Sitting,1,R_ESI,42.080703892586186,total,1
BMu67,14,P,REL,Posture_Sitting,1,R_ESI,42.36917431718448,start,1
BMu67,14,P,REL,Posture_Sitting,1,R_ESI,42.050275251050046,middle,1
BMu67,14,P,REL,Posture_Sitting,1,R_ESI,41.82277790170604,end,1
BMu67,16,C,INI,Posture_Sitting,1,L_ESI,36.44036675577127,total,1
BMu67,16,C,INI,Posture_Sitting,1,L_ESI,36.54635189554093,start,1
BMu67,16,C,INI,Posture_Sitting,1,L_ESI,36.315731813698186,middle,1
BMu67,16,C,INI,Posture_Sitting,1,L_ESI,36.45949180443474,end,1
BMu67,16,C,INI,Posture_Sitting,1,R_ESI,59.053775135764916,total,1
BMu67,16,C,INI,Posture_Sitting,1,R_ESI,59.56650873631563,start,1
BMu67,16,C,INI,Posture_Sitting,1,R_ESI,58.95222504758624,middle,1
BMu67,16,C,INI,Posture_Sitting,1,R_ESI,58.642978844736774,end,1
BMu67,16,C,REL,Posture_Sitting,1,L_ESI,45.198041361936106,total,1
BMu67,16,C,REL,Posture_Sitting,1,L_ESI,45.95416947320006,start,1
BMu67,16,C,REL,Posture_Sitting,1,L_ESI,44.49405776400907,middle,1
BMu67,16,C,REL,Posture_Sitting,1,L_ESI,45.148585313889924,end,1
BMu67,16,C,REL,Posture_Sitting,1,R_ESI,54.29004254151683,total,1
BMu67,16,C,REL,Posture_Sitting,1,R_ESI,54.388126809787295,start,1
BMu67,16,C,REL,Posture_Sitting,1,R_ESI,53.81586482646273,middle,1
BMu67,16,C,REL,Posture_Sitting,1,R_ESI,54.66794684061621,end,1
BMu67,17,P,INI,Posture_Sitting,1,L_ESI,14.295570203802804,total,1
BMu67,17,P,INI,Posture_Sitting,1,L_ESI,14.318238077095183,start,1
BMu67,17,P,INI,Posture_Sitting,1,L_ESI,14.364469218304002,middle,1
BMu67,17,P,INI,Posture_Sitting,1,L_ESI,14.203752180204726,end,1
BMu67,17,P,INI,Posture_Sitting,1,R_ESI,40.327056854213325,total,1
BMu67,17,P,INI,Posture_Sitting,1,R_ESI,42.2769802048483,start,1
BMu67,17,P,INI,Posture_Sitting,1,R_ESI,39.590040376159244,middle,1
BMu67,17,P,INI,Posture_Sitting,1,R_ESI,39.11705732529138,end,1
BMu67,17,P,REL,Posture_Sitting,1,L_ESI,12.596435302760257,total,1
BMu67,17,P,REL,Posture_Sitting,1,L_ESI,12.365062796227903,start,1
BMu67,17,P,REL,Posture_Sitting,1,L_ESI,12.547151499714,middle,1
BMu67,17,P,REL,Posture_Sitting,1,L_ESI,12.87727820859453,end,1
BMu67,17,P,REL,Posture_Sitting,1,R_ESI,12.171589121077012,total,1
BMu67,17,P,REL,Posture_Sitting,1,R_ESI,12.184642375698912,start,1
BMu67,17,P,REL,Posture_Sitting,1,R_ESI,12.150786284751806,middle,1
BMu67,17,P,REL,Posture_Sitting,1,R_ESI,12.179417465601484,end,1
BMu67,21,C,INI,Posture_Sitting,1,L_ESI,12.53815466657852,total,1
BMu67,21,C,INI,Posture_Sitting,1,L_ESI,12.854893293687905,start,1
BMu67,21,C,INI,Posture_Sitting,1,L_ESI,12.345017066681052,middle,1
BMu67,21,C,INI,Posture_Sitting,1,L_ESI,12.415290607586329,end,1
BMu67,21,C,INI,Posture_Sitting,1,R_ESI,19.658313403865165,total,1
BMu67,21,C,INI,Posture_Sitting,1,R_ESI,19.8407401517845,start,1
BMu67,21,C,INI,Posture_Sitting,1,R_ESI,19.858637022226187,middle,1
BMu67,21,C,INI,Posture_Sitting,1,R_ESI,19.27482442481122,end,1
BMu67,21,C,REL,Posture_Sitting,1,L_ESI,11.047226740448139,total,1
BMu67,21,C,REL,Posture_Sitting,1,L_ESI,11.06906281523282,start,1
BMu67,21,C,REL,Posture_Sitting,1,L_ESI,10.909764934321979,middle,1
BMu67,21,C,REL,Posture_Sitting,1,L_ESI,11.163365687805735,end,1
BMu67,21,C,REL,Posture_Sitting,1,R_ESI,72.12904777296606,total,1
BMu67,21,C,REL,Posture_Sitting,1,R_ESI,171.2905103806509,start,1
BMu67,21,C,REL,Posture_Sitting,1,R_ESI,22.493105506274638,middle,1
BMu67,21,C,REL,Posture_Sitting,1,R_ESI,22.793439388391263,end,1
BMu67,22,C,INI,Posture_Sitting,1,L_ESI,25.51900515860485,total,1
BMu67,22,C,INI,Posture_Sitting,1,L_ESI,27.12116604023426,start,1
BMu67,22,C,INI,Posture_Sitting,1,L_ESI,24.798184775995512,middle,1
BMu67,22,C,INI,Posture_Sitting,1,L_ESI,24.64043214405537,end,1
BMu67,22,C,INI,Posture_Sitting,1,R_ESI,21.621884935467005,total,1
BMu67,22,C,INI,Posture_Sitting,1,R_ESI,21.500758926884846,start,1
BMu67,22,C,INI,Posture_Sitting,1,R_ESI,21.771811563284945,middle,1
BMu67,22,C,INI,Posture_Sitting,1,R_ESI,21.592519379120112,end,1
BMu67,22,C,REL,Posture_Sitting,1,L_ESI,26.718261957746787,total,1
BMu67,22,C,REL,Posture_Sitting,1,L_ESI,29.55131144868382,start,1
BMu67,22,C,REL,Posture_Sitting,1,L_ESI,25.446507905344184,middle,1
BMu67,22,C,REL,Posture_Sitting,1,L_ESI,25.1617573953955,end,1
BMu67,22,C,REL,Posture_Sitting,1,R_ESI,31.02648083363578,total,1
BMu67,22,C,REL,Posture_Sitting,1,R_ESI,35.775247931271785,start,1
BMu67,22,C,REL,Posture_Sitting,1,R_ESI,28.408850330611138,middle,1
BMu67,22,C,REL,Posture_Sitting,1,R_ESI,28.905205220878205,end,1
BMu67,23,C,INI,Posture_Sitting,1,L_ESI,16.07434786353933,total,1
BMu67,23,C,INI,Posture_Sitting,1,L_ESI,16.359131654889236,start,1
BMu67,23,C,INI,Posture_Sitting,1,L_ESI,15.834832980964372,middle,1
BMu67,23,C,INI,Posture_Sitting,1,L_ESI,16.029981240976294,end,1
BMu67,23,C,INI,Posture_Sitting,1,R_ESI,52.18766223567986,total,1
BMu67,23,C,INI,Posture_Sitting,1,R_ESI,83.90847587538262,start,1
BMu67,23,C,INI,Posture_Sitting,1,R_ESI,34.748480648300685,middle,1
BMu67,23,C,INI,Posture_Sitting,1,R_ESI,37.97172603041308,end,1
BMu67,23,C,REL,Posture_Sitting,1,L_ESI,11.265066544738524,total,1
BMu67,23,C,REL,Posture_Sitting,1,L_ESI,11.111187366521747,start,1
BMu67,23,C,REL,Posture_Sitting,1,L_ESI,11.41638429349437,middle,1
BMu67,23,C,REL,Posture_Sitting,1,L_ESI,11.267056215866203,end,1
BMu67,23,C,REL,Posture_Sitting,1,R_ESI,10.454048655622467,total,1
BMu67,23,C,REL,Posture_Sitting,1,R_ESI,10.107499761855463,start,1
BMu67,23,C,REL,Posture_Sitting,1,R_ESI,10.851308614120905,middle,1
BMu67,23,C,REL,Posture_Sitting,1,R_ESI,10.40183653306004,end,1
BMu67,24,P,INI,Posture_Sitting,1,L_ESI,46.01556579538717,total,1
BMu67,24,P,INI,Posture_Sitting,1,L_ESI,46.489483332493535,start,1
BMu67,24,P,INI,Posture_Sitting,1,L_ESI,45.696505794502464,middle,1
BMu67,24,P,INI,Posture_Sitting,1,L_ESI,45.86191020301333,end,1
BMu67,24,P,INI,Posture_Sitting,1,R_ESI,51.13309090841152,total,1
BMu67,24,P,INI,Posture_Sitting,1,R_ESI,50.59392912251797,start,1
BMu67,24,P,INI,Posture_Sitting,1,R_ESI,51.44627614299542,middle,1
BMu67,24,P,INI,Posture_Sitting,1,R_ESI,51.35788764694333,end,1
BMu67,24,P,REL,Posture_Sitting,1,L_ESI,26.266847245172375,total,1
BMu67,24,P,REL,Posture_Sitting,1,L_ESI,26.846461841125695,start,1
BMu67,24,P,REL,Posture_Sitting,1,L_ESI,25.852109487935767,middle,1
BMu67,24,P,REL,Posture_Sitting,1,L_ESI,26.103532781853367,end,1
BMu67,24,P,REL,Posture_Sitting,1,R_ESI,42.55888994618303,total,1
BMu67,24,P,REL,Posture_Sitting,1,R_ESI,42.64822428122143,start,1
BMu67,24,P,REL,Posture_Sitting,1,R_ESI,42.61367973598418,middle,1
BMu67,24,P,REL,Posture_Sitting,1,R_ESI,42.414559420507906,end,1
BMu67,25,C,INI,Posture_Sitting,1,L_ESI,19.21062804220662,total,1
BMu67,25,C,INI,Posture_Sitting,1,L_ESI,20.341633667367518,start,1
BMu67,25,C,INI,Posture_Sitting,1,L_ESI,18.87926971226307,middle,1
BMu67,25,C,INI,Posture_Sitting,1,L_ESI,18.412229020370443,end,1
BMu67,25,C,INI,Posture_Sitting,1,R_ESI,16.987164654472473,total,1
BMu67,25,C,INI,Posture_Sitting,1,R_ESI,20.06179358216488,start,1
BMu67,25,C,INI,Posture_Sitting,1,R_ESI,15.31536004141812,middle,1
BMu67,25,C,INI,Posture_Sitting,1,R_ESI,15.59063826268232,end,1
BMu67,25,C,REL,Posture_Sitting,1,L_ESI,10.873356137439789,total,1
BMu67,25,C,REL,Posture_Sitting,1,L_ESI,9.57701803786895,start,1
BMu67,25,C,REL,Posture_Sitting,1,L_ESI,13.668013715189106,middle,1
BMu67,25,C,REL,Posture_Sitting,1,L_ESI,9.36451747618225,end,1
BMu67,25,C,REL,Posture_Sitting,1,R_ESI,22.34494391216915,total,1
BMu67,25,C,REL,Posture_Sitting,1,R_ESI,19.46489176773907,start,1
BMu67,25,C,REL,Posture_Sitting,1,R_ESI,28.748520675776646,middle,1
BMu67,25,C,REL,Posture_Sitting,1,R_ESI,18.797320585381584,end,1
BMu67,26,P,INI,Posture_Sitting,1,L_ESI,17.82181994548086,total,1
BMu67,26,P,INI,Posture_Sitting,1,L_ESI,18.37599585421938,start,1
BMu67,26,P,INI,Posture_Sitting,1,L_ESI,18.53093197409011,middle,1
BMu67,26,P,INI,Posture_Sitting,1,L_ESI,16.555855305624377,end,1
BMu67,26,P,INI,Posture_Sitting,1,R_ESI,22.25099434953797,total,1
BMu67,26,P,INI,Posture_Sitting,1,R_ESI,23.04688489932764,start,1
BMu67,26,P,INI,Posture_Sitting,1,R_ESI,22.949635686944674,middle,1
BMu67,26,P,INI,Posture_Sitting,1,R_ESI,20.753825283806922,end,1
BMu67,26,P,REL,Posture_Sitting,1,L_ESI,22.507651134983618,total,1
BMu67,26,P,REL,Posture_Sitting,1,L_ESI,22.180794897826463,start,1
BMu67,26,P,REL,Posture_Sitting,1,L_ESI,22.912289538898545,middle,1
BMu67,26,P,REL,Posture_Sitting,1,L_ESI,22.42834463851097,end,1
BMu67,26,P,REL,Posture_Sitting,1,R_ESI,76.09221122926755,total,1
BMu67,26,P,REL,Posture_Sitting,1,R_ESI,76.44181028323798,start,1
BMu67,26,P,REL,Posture_Sitting,1,R_ESI,75.89806189362731,middle,1
BMu67,26,P,REL,Posture_Sitting,1,R_ESI,75.93749289876065,end,1
BMu67,27,P,INI,Posture_Sitting,1,L_ESI,16.152898985068546,total,1
BMu67,27,P,INI,Posture_Sitting,1,L_ESI,15.269362947028318,start,1
BMu67,27,P,INI,Posture_Sitting,1,L_ESI,16.379173752242316,middle,1
BMu67,27,P,INI,Posture_Sitting,1,L_ESI,16.80926738915646,end,1
BMu67,27,P,INI,Posture_Sitting,1,R_ESI,20.20849731110572,total,1
BMu67,27,P,INI,Posture_Sitting,1,R_ESI,19.924847032970966,start,1
BMu67,27,P,INI,Posture_Sitting,1,R_ESI,21.04551085510406,middle,1
BMu67,27,P,INI,Posture_Sitting,1,R_ESI,19.65198241415597,end,1
BMu67,27,P,REL,Posture_Sitting,1,L_ESI,14.769861773438523,total,1
BMu67,27,P,REL,Posture_Sitting,1,L_ESI,14.792565940979822,start,1
BMu67,27,P,REL,Posture_Sitting,1,L_ESI,14.873281321150486,middle,1
BMu67,27,P,REL,Posture_Sitting,1,L_ESI,14.643348462219688,end,1
BMu67,27,P,REL,Posture_Sitting,1,R_ESI,25.235764104250453,total,1
BMu67,27,P,REL,Posture_Sitting,1,R_ESI,25.363046027946304,start,1
BMu67,27,P,REL,Posture_Sitting,1,R_ESI,25.029512315210003,middle,1
BMu67,27,P,REL,Posture_Sitting,1,R_ESI,25.31551094906051,end,1
BMu67,28,P,INI,Posture_Sitting,1,L_ESI,15.494003949769041,total,1
BMu67,28,P,INI,Posture_Sitting,1,L_ESI,15.09346374049499,start,1
BMu67,28,P,INI,Posture_Sitting,1,L_ESI,15.63404204871598,middle,1
BMu67,28,P,INI,Posture_Sitting,1,L_ESI,15.753978516903572,end,1
BMu67,28,P,INI,Posture_Sitting,1,R_ESI,19.78437657289224,total,1
BMu67,28,P,INI,Posture_Sitting,1,R_ESI,20.03357899657715,start,1
BMu67,28,P,INI,Posture_Sitting,1,R_ESI,19.83357838461911,middle,1
BMu67,28,P,INI,Posture_Sitting,1,R_ESI,19.485786987343356,end,1
BMu67,28,P,REL,Posture_Sitting,1,L_ESI,17.531309724942275,total,1
BMu67,28,P,REL,Posture_Sitting,1,L_ESI,17.59732665353021,start,1
BMu67,28,P,REL,Posture_Sitting,1,L_ESI,17.4249808082379,middle,1
BMu67,28,P,REL,Posture_Sitting,1,L_ESI,17.572022269025993,end,1
BMu67,28,P,REL,Posture_Sitting,1,R_ESI,18.02600029360575,total,1
BMu67,28,P,REL,Posture_Sitting,1,R_ESI,18.132909528619184,start,1
BMu67,28,P,REL,Posture_Sitting,1,R_ESI,18.13007703061665,middle,1
BMu67,28,P,REL,Posture_Sitting,1,R_ESI,17.814622249891443,end,1
BMu67,29,P,INI,Posture_Sitting,1,L_ESI,9.169992655766952,total,1
BMu67,29,P,INI,Posture_Sitting,1,L_ESI,9.577579716404928,start,1
BMu67,29,P,INI,Posture_Sitting,1,L_ESI,9.077744184315545,middle,1
BMu67,29,P,INI,Posture_Sitting,1,L_ESI,8.855018994893353,end,1
BMu67,29,P,INI,Posture_Sitting,1,R_ESI,20.58568390796179,total,1
BMu67,29,P,INI,Posture_Sitting,1,R_ESI,20.60116525291383,start,1
BMu67,29,P,INI,Posture_Sitting,1,R_ESI,21.109168811894197,middle,1
BMu67,29,P,INI,Posture_Sitting,1,R_ESI,20.044764251341576,end,1
BMu67,29,P,REL,Posture_Sitting,1,L_ESI,9.792101792804342,total,1
BMu67,29,P,REL,Posture_Sitting,1,L_ESI,10.150167143343275,start,1
BMu67,29,P,REL,Posture_Sitting,1,L_ESI,11.459576907531046,middle,1
BMu67,29,P,REL,Posture_Sitting,1,L_ESI,7.760348375302208,end,1
BMu67,29,P,REL,Posture_Sitting,1,R_ESI,2.311511995497134,total,1
BMu67,29,P,REL,Posture_Sitting,1,R_ESI,2.406981093509603,start,1
BMu67,29,P,REL,Posture_Sitting,1,R_ESI,2.33399715816611,middle,1
BMu67,29,P,REL,Posture_Sitting,1,R_ESI,2.193478533031135,end,1
BMu67,30,P,INI,Posture_Sitting,1,L_ESI,13.64051804698998,total,1
BMu67,30,P,INI,Posture_Sitting,1,L_ESI,12.92006003308017,start,1
BMu67,30,P,INI,Posture_Sitting,1,L_ESI,14.814982935024716,middle,1
BMu67,30,P,INI,Posture_Sitting,1,L_ESI,13.18208679863217,end,1
BMu67,30,P,INI,Posture_Sitting,1,R_ESI,14.20039153908872,total,1
BMu67,30,P,INI,Posture_Sitting,1,R_ESI,14.185835325903914,start,1
BMu67,30,P,INI,Posture_Sitting,1,R_ESI,14.024255217635947,middle,1
BMu67,30,P,INI,Posture_Sitting,1,R_ESI,14.391747603994475,end,1
BMu67,30,P,REL,Posture_Sitting,1,L_ESI,14.781773235992647,total,1
BMu67,30,P,REL,Posture_Sitting,1,L_ESI,14.987629498762566,start,1
BMu67,30,P,REL,Posture_Sitting,1,L_ESI,14.748286585045948,middle,1
BMu67,30,P,REL,Posture_Sitting,1,L_ESI,14.609529773088056,end,1
BMu67,30,P,REL,Posture_Sitting,1,R_ESI,23.468581362888077,total,1
BMu67,30,P,REL,Posture_Sitting,1,R_ESI,23.876664271915278,start,1
BMu67,30,P,REL,Posture_Sitting,1,R_ESI,23.17544588539478,middle,1
BMu67,30,P,REL,Posture_Sitting,1,R_ESI,23.35473821388028,end,1
BMu67,32,P,INI,Posture_Sitting,1,L_ESI,8.650996548081247,total,1
BMu67,32,P,INI,Posture_Sitting,1,L_ESI,8.597483631262106,start,1
BMu67,32,P,INI,Posture_Sitting,1,L_ESI,8.642138226910372,middle,1
BMu67,32,P,INI,Posture_Sitting,1,L_ESI,8.713401156611614,end,1
BMu67,32,P,INI,Posture_Sitting,1,R_ESI,22.79925983142812,total,1
BMu67,32,P,INI,Posture_Sitting,1,R_ESI,22.844939279235245,start,1
BMu67,32,P,INI,Posture_Sitting,1,R_ESI,22.569404832405354,middle,1
BMu67,32,P,INI,Posture_Sitting,1,R_ESI,22.98430127871723,end,1
BMu67,32,P,REL,Posture_Sitting,1,L_ESI,12.987407201391608,total,1
BMu67,32,P,REL,Posture_Sitting,1,L_ESI,13.054661992061801,start,1
BMu67,32,P,REL,Posture_Sitting,1,L_ESI,12.99924077625926,middle,1
BMu67,32,P,REL,Posture_Sitting,1,L_ESI,12.908274257114751,end,1
BMu67,32,P,REL,Posture_Sitting,1,R_ESI,28.323906993989745,total,1
BMu67,32,P,REL,Posture_Sitting,1,R_ESI,28.346576984934643,start,1
BMu67,32,P,REL,Posture_Sitting,1,R_ESI,28.27969409284644,middle,1
BMu67,32,P,REL,Posture_Sitting,1,R_ESI,28.345616460398197,end,1
BMu67,33,P,INI,Posture_Sitting,1,L_ESI,6.717216769469371,total,1
BMu67,33,P,INI,Posture_Sitting,1,L_ESI,6.488015641085663,start,1
BMu67,33,P,INI,Posture_Sitting,1,L_ESI,6.586576549966044,middle,1
BMu67,33,P,INI,Posture_Sitting,1,L_ESI,7.077550257416818,end,1
BMu67,33,P,INI,Posture_Sitting,1,R_ESI,6.726291684686668,total,1
BMu67,33,P,INI,Posture_Sitting,1,R_ESI,6.938261253498158,start,1
BMu67,33,P,INI,Posture_Sitting,1,R_ESI,6.615352911036197,middle,1
BMu67,33,P,INI,Posture_Sitting,1,R_ESI,6.625678811471695,end,1
BMu67,33,P,REL,Posture_Sitting,1,L_ESI,12.607685645879442,total,1
BMu67,33,P,REL,Posture_Sitting,1,L_ESI,13.11317388187798,start,1
BMu67,33,P,REL,Posture_Sitting,1,L_ESI,12.207114060399437,middle,1
BMu67,33,P,REL,Posture_Sitting,1,L_ESI,12.504278004799408,end,1
BMu67,33,P,REL,Posture_Sitting,1,R_ESI,54.27698771443079,total,1
BMu67,33,P,REL,Posture_Sitting,1,R_ESI,56.37076371995984,start,1
BMu67,33,P,REL,Posture_Sitting,1,R_ESI,53.2048888766762,middle,1
BMu67,33,P,REL,Posture_Sitting,1,R_ESI,53.259349293596465,end,1
BMu67,34,P,INI,Posture_Sitting,1,L_ESI,20.46357386687687,total,1
BMu67,34,P,INI,Posture_Sitting,1,L_ESI,20.053723087536305,start,1
BMu67,34,P,INI,Posture_Sitting,1,L_ESI,20.77040379765934,middle,1
BMu67,34,P,INI,Posture_Sitting,1,L_ESI,20.56543884397941,end,1
BMu67,34,P,INI,Posture_Sitting,1,R_ESI,25.771034194124802,total,1
BMu67,34,P,INI,Posture_Sitting,1,R_ESI,25.771913377074796,start,1
BMu67,34,P,INI,Posture_Sitting,1,R_ESI,25.906847515129606,middle,1
BMu67,34,P,INI,Posture_Sitting,1,R_ESI,25.633830062309485,end,1
BMu67,34,P,REL,Posture_Sitting,1,L_ESI,21.385255037045393,total,1
BMu67,34,P,REL,Posture_Sitting,1,L_ESI,21.17805395361022,start,1
BMu67,34,P,REL,Posture_Sitting,1,L_ESI,21.803464493403,middle,1
BMu67,34,P,REL,Posture_Sitting,1,L_ESI,21.17267121034695,end,1
BMu67,34,P,REL,Posture_Sitting,1,R_ESI,107.18574682460354,total,1
BMu67,34,P,REL,Posture_Sitting,1,R_ESI,116.65902332556603,start,1
BMu67,34,P,REL,Posture_Sitting,1,R_ESI,105.5986833249121,middle,1
BMu67,34,P,REL,Posture_Sitting,1,R_ESI,99.30551251450117,end,1
BMu67,35,C,INI,Posture_Sitting,1,L_ESI,13.370093159764904,total,1
BMu67,35,C,INI,Posture_Sitting,1,L_ESI,13.721452445224681,start,1
BMu67,35,C,INI,Posture_Sitting,1,L_ESI,13.291117848028325,middle,1
BMu67,35,C,INI,Posture_Sitting,1,L_ESI,13.0980066971362,end,1
BMu67,35,C,INI,Posture_Sitting,1,R_ESI,10.38493239233871,total,1
BMu67,35,C,INI,Posture_Sitting,1,R_ESI,10.231110698878028,start,1
BMu67,35,C,INI,Posture_Sitting,1,R_ESI,10.497334546987359,middle,1
BMu67,35,C,INI,Posture_Sitting,1,R_ESI,10.425928496442886,end,1
BMu67,35,C,REL,Posture_Sitting,1,L_ESI,12.992765760209256,total,1
BMu67,35,C,REL,Posture_Sitting,1,L_ESI,13.106785134797288,start,1
BMu67,35,C,REL,Posture_Sitting,1,L_ESI,13.00949167261254,middle,1
BMu67,35,C,REL,Posture_Sitting,1,L_ESI,12.861957464356102,end,1
BMu67,35,C,REL,Posture_Sitting,1,R_ESI,16.76806075803977,total,1
BMu67,35,C,REL,Posture_Sitting,1,R_ESI,16.81144634595701,start,1
BMu67,35,C,REL,Posture_Sitting,1,R_ESI,16.82630070709478,middle,1
BMu67,35,C,REL,Posture_Sitting,1,R_ESI,16.666215822997344,end,1
BMu67,36,P,INI,Posture_Sitting,1,L_ESI,9.562130690408383,total,1
BMu67,36,P,INI,Posture_Sitting,1,L_ESI,9.661990538828105,start,1
BMu67,36,P,INI,Posture_Sitting,1,L_ESI,9.565768624811502,middle,1
BMu67,36,P,INI,Posture_Sitting,1,L_ESI,9.458619202975553,end,1
BMu67,36,P,INI,Posture_Sitting,1,R_ESI,6.229557486868786,total,1
BMu67,36,P,INI,Posture_Sitting,1,R_ESI,6.341569315704255,start,1
BMu67,36,P,INI,Posture_Sitting,1,R_ESI,6.165623865126442,middle,1
BMu67,36,P,INI,Posture_Sitting,1,R_ESI,6.181720126710748,end,1
BMu67,36,P,REL,Posture_Sitting,1,L_ESI,8.024520198581627,total,1
BMu67,36,P,REL,Posture_Sitting,1,L_ESI,7.936654555040925,start,1
BMu67,36,P,REL,Posture_Sitting,1,L_ESI,8.13370491678409,middle,1
BMu67,36,P,REL,Posture_Sitting,1,L_ESI,8.00278980974712,end,1
BMu67,36,P,REL,Posture_Sitting,1,R_ESI,4.856970258805391,total,1
BMu67,36,P,REL,Posture_Sitting,1,R_ESI,4.781072830577343,start,1
BMu67,36,P,REL,Posture_Sitting,1,R_ESI,4.91047960152484,middle,1
BMu67,36,P,REL,Posture_Sitting,1,R_ESI,4.879156767102479,end,1
BMu67,38,C,INI,Posture_Sitting,1,L_ESI,20.436908852582928,total,1
BMu67,38,C,INI,Posture_Sitting,1,L_ESI,20.407540459433278,start,1
BMu67,38,C,INI,Posture_Sitting,1,L_ESI,20.11529965847471,middle,1
BMu67,38,C,INI,Posture_Sitting,1,L_ESI,20.78911809495094,end,1
BMu67,38,C,INI,Posture_Sitting,1,R_ESI,30.95590910002778,total,1
BMu67,38,C,INI,Posture_Sitting,1,R_ESI,30.759312123547726,start,1
BMu67,38,C,INI,Posture_Sitting,1,R_ESI,31.391174520011113,middle,1
BMu67,38,C,INI,Posture_Sitting,1,R_ESI,30.715561489829085,end,1
BMu67,38,C,REL,Posture_Sitting,1,L_ESI,20.599317893546637,total,1
BMu67,38,C,REL,Posture_Sitting,1,L_ESI,20.50721044527645,start,1
BMu67,38,C,REL,Posture_Sitting,1,L_ESI,20.792452557400278,middle,1
BMu67,38,C,REL,Posture_Sitting,1,L_ESI,20.497563112551095,end,1
BMu67,38,C,REL,Posture_Sitting,1,R_ESI,28.023135360178845,total,1
BMu67,38,C,REL,Posture_Sitting,1,R_ESI,28.464012719293102,start,1
BMu67,38,C,REL,Posture_Sitting,1,R_ESI,27.699550665758938,middle,1
BMu67,38,C,REL,Posture_Sitting,1,R_ESI,27.90706168448855,end,1
BMu67,39,C,INI,Posture_Sitting,1,L_ESI,12.4318914448236,total,1
BMu67,39,C,INI,Posture_Sitting,1,L_ESI,12.884082873903811,start,1
BMu67,39,C,INI,Posture_Sitting,1,L_ESI,12.22899344196195,middle,1
BMu67,39,C,INI,Posture_Sitting,1,L_ESI,12.183362363886795,end,1
BMu67,39,C,INI,Posture_Sitting,1,R_ESI,8.144552268869074,total,1
BMu67,39,C,INI,Posture_Sitting,1,R_ESI,8.14127211258147,start,1
BMu67,39,C,INI,Posture_Sitting,1,R_ESI,8.24193696871732,middle,1
BMu67,39,C,INI,Posture_Sitting,1,R_ESI,8.050080863462604,end,1
BMu67,39,C,REL,Posture_Sitting,1,L_ESI,12.468451945132937,total,1
BMu67,39,C,REL,Posture_Sitting,1,L_ESI,12.23236755385487,start,1
BMu67,39,C,REL,Posture_Sitting,1,L_ESI,12.393280317815432,middle,1
BMu67,39,C,REL,Posture_Sitting,1,L_ESI,12.779991145809419,end,1
BMu67,39,C,REL,Posture_Sitting,1,R_ESI,11.423668169166579,total,1
BMu67,39,C,REL,Posture_Sitting,1,R_ESI,11.474083027254178,start,1
BMu67,39,C,REL,Posture_Sitting,1,R_ESI,11.381925822893944,middle,1
BMu67,39,C,REL,Posture_Sitting,1,R_ESI,11.41515290663437,end,1
BMu67,40,C,INI,Posture_Sitting,1,L_ESI,18.121690061010433,total,1
BMu67,40,C,INI,Posture_Sitting,1,L_ESI,18.039742659337506,start,1
BMu67,40,C,INI,Posture_Sitting,1,L_ESI,17.84269991680096,middle,1
BMu67,40,C,INI,Posture_Sitting,1,L_ESI,18.48367860196117,end,1
BMu67,40,C,INI,Posture_Sitting,1,R_ESI,15.287125177682505,total,1
BMu67,40,C,INI,Posture_Sitting,1,R_ESI,15.595332583182872,start,1
BMu67,40,C,INI,Posture_Sitting,1,R_ESI,14.841828924836959,middle,1
BMu67,40,C,INI,Posture_Sitting,1,R_ESI,15.425891518571483,end,1
BMu67,40,C,REL,Posture_Sitting,1,L_ESI,9.1251176081846,total,1
BMu67,40,C,REL,Posture_Sitting,1,L_ESI,10.428746261730709,start,1
BMu67,40,C,REL,Posture_Sitting,1,L_ESI,8.900989230263955,middle,1
BMu67,40,C,REL,Posture_Sitting,1,L_ESI,8.046461655646388,end,1
BMu67,40,C,REL,Posture_Sitting,1,R_ESI,10.522242293128372,total,1
BMu67,40,C,REL,Posture_Sitting,1,R_ESI,11.136213724183785,start,1
BMu67,40,C,REL,Posture_Sitting,1,R_ESI,11.094490328514272,middle,1
BMu67,40,C,REL,Posture_Sitting,1,R_ESI,9.333867087943082,end,1
BMu67,41,P,INI,Posture_Sitting,1,L_ESI,18.292642482563668,total,1
BMu67,41,P,INI,Posture_Sitting,1,L_ESI,18.055676537958277,start,1
BMu67,41,P,INI,Posture_Sitting,1,L_ESI,18.499945744827272,middle,1
BMu67,41,P,INI,Posture_Sitting,1,L_ESI,18.32152422439263,end,1
BMu67,41,P,INI,Posture_Sitting,1,R_ESI,19.90552571999984,total,1
BMu67,41,P,INI,Posture_Sitting,1,R_ESI,19.395573539164157,start,1
BMu67,41,P,INI,Posture_Sitting,1,R_ESI,19.93000897599999,middle,1
BMu67,41,P,INI,Posture_Sitting,1,R_ESI,20.39090241297039,end,1
BMu67,41,P,REL,Posture_Sitting,1,L_ESI,12.180248515371524,total,1
BMu67,41,P,REL,Posture_Sitting,1,L_ESI,12.144929924947917,start,1
BMu67,41,P,REL,Posture_Sitting,1,L_ESI,12.334420345898579,middle,1
BMu67,41,P,REL,Posture_Sitting,1,L_ESI,12.060814488322993,end,1
BMu67,41,P,REL,Posture_Sitting,1,R_ESI,12.575625104038778,total,1
BMu67,41,P,REL,Posture_Sitting,1,R_ESI,12.666244066051949,start,1
BMu67,41,P,REL,Posture_Sitting,1,R_ESI,12.646547732304608,middle,1
BMu67,41,P,REL,Posture_Sitting,1,R_ESI,12.413816338255238,end,1
BMu67,42,P,INI,Posture_Sitting,1,L_ESI,23.88643002483983,total,1
BMu67,42,P,INI,Posture_Sitting,1,L_ESI,24.229807612468676,start,1
BMu67,42,P,INI,Posture_Sitting,1,L_ESI,23.959409305605597,middle,1
BMu67,42,P,INI,Posture_Sitting,1,L_ESI,23.469838858857447,end,1
BMu67,42,P,INI,Posture_Sitting,1,R_ESI,17.741294432894055,total,1
BMu67,42,P,INI,Posture_Sitting,1,R_ESI,17.72370433619645,start,1
BMu67,42,P,INI,Posture_Sitting,1,R_ESI,17.757066824652963,middle,1
BMu67,42,P,INI,Posture_Sitting,1,R_ESI,17.74305223149702,end,1
BMu67,42,P,REL,Posture_Sitting,1,L_ESI,25.35376741128434,total,1
BMu67,42,P,REL,Posture_Sitting,1,L_ESI,25.0718039557109,start,1
BMu67,42,P,REL,Posture_Sitting,1,L_ESI,25.483966022424926,middle,1
BMu67,42,P,REL,Posture_Sitting,1,L_ESI,25.505041779257525,end,1
BMu67,42,P,REL,Posture_Sitting,1,R_ESI,16.943507989295778,total,1
BMu67,42,P,REL,Posture_Sitting,1,R_ESI,16.749186338453324,start,1
BMu67,42,P,REL,Posture_Sitting,1,R_ESI,16.992248802062075,middle,1
BMu67,42,P,REL,Posture_Sitting,1,R_ESI,17.08890521388268,end,1
BMu67,43,P,INI,Posture_Sitting,1,L_ESI,10.023708265473928,total,1
BMu67,43,P,INI,Posture_Sitting,1,L_ESI,9.882221185376254,start,1
BMu67,43,P,INI,Posture_Sitting,1,L_ESI,10.315794728112442,middle,1
BMu67,43,P,INI,Posture_Sitting,1,L_ESI,9.872013113498957,end,1
BMu67,43,P,INI,Posture_Sitting,1,R_ESI,20.69544583237532,total,1
BMu67,43,P,INI,Posture_Sitting,1,R_ESI,20.949205119531598,start,1
BMu67,43,P,INI,Posture_Sitting,1,R_ESI,20.806327195099684,middle,1
BMu67,43,P,INI,Posture_Sitting,1,R_ESI,20.330420396730904,end,1
BMu67,43,P,REL,Posture_Sitting,1,L_ESI,8.540837236999355,total,1
BMu67,43,P,REL,Posture_Sitting,1,L_ESI,8.816421487061188,start,1
BMu67,43,P,REL,Posture_Sitting,1,L_ESI,8.479833836478534,middle,1
BMu67,43,P,REL,Posture_Sitting,1,L_ESI,8.326486195838427,end,1
BMu67,43,P,REL,Posture_Sitting,1,R_ESI,11.267598735936266,total,1
BMu67,43,P,REL,Posture_Sitting,1,R_ESI,11.770703416672411,start,1
BMu67,43,P,REL,Posture_Sitting,1,R_ESI,11.097797852649732,middle,1
BMu67,43,P,REL,Posture_Sitting,1,R_ESI,10.934934602269196,end,1
BMu67,44,C,INI,Posture_Sitting,1,L_ESI,26.68128092932023,total,1
BMu67,44,C,INI,Posture_Sitting,1,L_ESI,21.782620249058784,start,1
BMu67,44,C,INI,Posture_Sitting,1,L_ESI,25.659940053645123,middle,1
BMu67,44,C,INI,Posture_Sitting,1,L_ESI,32.60513001982286,end,1
BMu67,44,C,INI,Posture_Sitting,1,R_ESI,10.589771209269651,total,1
BMu67,44,C,INI,Posture_Sitting,1,R_ESI,10.492672801199989,start,1
BMu67,44,C,INI,Posture_Sitting,1,R_ESI,10.73932752327146,middle,1
BMu67,44,C,INI,Posture_Sitting,1,R_ESI,10.536749903691604,end,1
BMu67,44,C,REL,Posture_Sitting,1,L_ESI,9.388304892497072,total,1
BMu67,44,C,REL,Posture_Sitting,1,L_ESI,9.349064769712877,start,1
BMu67,44,C,REL,Posture_Sitting,1,L_ESI,9.388513316263186,middle,1
BMu67,44,C,REL,Posture_Sitting,1,L_ESI,9.427335806353545,end,1
BMu67,44,C,REL,Posture_Sitting,1,R_ESI,9.460936468022732,total,1
BMu67,44,C,REL,Posture_Sitting,1,R_ESI,9.274851283465557,start,1
BMu67,44,C,REL,Posture_Sitting,1,R_ESI,9.448339254864562,middle,1
BMu67,44,C,REL,Posture_Sitting,1,R_ESI,9.659666321209814,end,1
BMu67,45,P,INI,Posture_Sitting,1,L_ESI,13.935434474350052,total,1
BMu67,45,P,INI,Posture_Sitting,1,L_ESI,13.702264887655392,start,1
BMu67,45,P,INI,Posture_Sitting,1,L_ESI,13.898370426247931,middle,1
BMu67,45,P,INI,Posture_Sitting,1,L_ESI,14.205807734623141,end,1
BMu67,45,P,INI,Posture_Sitting,1,R_ESI,13.773021649416176,total,1
BMu67,45,P,INI,Posture_Sitting,1,R_ESI,13.66104607043913,start,1
BMu67,45,P,INI,Posture_Sitting,1,R_ESI,13.603378529489488,middle,1
BMu67,45,P,INI,Posture_Sitting,1,R_ESI,14.055279417785703,end,1
BMu67,45,P,REL,Posture_Sitting,1,L_ESI,13.315035684986299,total,1
BMu67,45,P,REL,Posture_Sitting,1,L_ESI,13.330782256769083,start,1
BMu67,45,P,REL,Posture_Sitting,1,L_ESI,13.382192417585966,middle,1
BMu67,45,P,REL,Posture_Sitting,1,L_ESI,13.23187939175734,end,1
BMu67,45,P,REL,Posture_Sitting,1,R_ESI,18.187422413006512,total,1
BMu67,45,P,REL,Posture_Sitting,1,R_ESI,16.648012469791276,start,1
BMu67,45,P,REL,Posture_Sitting,1,R_ESI,19.224150522180977,middle,1
BMu67,45,P,REL,Posture_Sitting,1,R_ESI,18.686198746610888,end,1
BMu67,46,C,INI,Posture_Sitting,1,L_ESI,11.755922903111939,total,1
BMu67,46,C,INI,Posture_Sitting,1,L_ESI,11.75000392280688,start,1
BMu67,46,C,INI,Posture_Sitting,1,L_ESI,11.789988207605603,middle,1
BMu67,46,C,INI,Posture_Sitting,1,L_ESI,11.7276482501355,end,1
BMu67,46,C,INI,Posture_Sitting,1,R_ESI,16.436142504519708,total,1
BMu67,46,C,INI,Posture_Sitting,1,R_ESI,16.24829577148128,start,1
BMu67,46,C,INI,Posture_Sitting,1,R_ESI,16.397533085730498,middle,1
BMu67,46,C,INI,Posture_Sitting,1,R_ESI,16.662744103452134,end,1
BMu67,46,C,REL,Posture_Sitting,1,L_ESI,8.125952072552069,total,1
BMu67,46,C,REL,Posture_Sitting,1,L_ESI,8.317384929400738,start,1
BMu67,46,C,REL,Posture_Sitting,1,L_ESI,7.938188569187464,middle,1
BMu67,46,C,REL,Posture_Sitting,1,L_ESI,8.122990050563926,end,1
BMu67,46,C,REL,Posture_Sitting,1,R_ESI,9.269516600529377,total,1
BMu67,46,C,REL,Posture_Sitting,1,R_ESI,9.151374626898415,start,1
BMu67,46,C,REL,Posture_Sitting,1,R_ESI,9.373279418567131,middle,1
BMu67,46,C,REL,Posture_Sitting,1,R_ESI,9.283504867009476,end,1
BMu67,47,P,INI,Posture_Sitting,1,L_ESI,21.542216357434544,total,1
BMu67,47,P,INI,Posture_Sitting,1,L_ESI,21.017863721164556,start,1
BMu67,47,P,INI,Posture_Sitting,1,L_ESI,21.29082717546512,middle,1
BMu67,47,P,INI,Posture_Sitting,1,L_ESI,22.31890519403992,end,1
BMu67,47,P,INI,Posture_Sitting,1,R_ESI,47.00876846531976,total,1
BMu67,47,P,INI,Posture_Sitting,1,R_ESI,49.0429803007578,start,1
BMu67,47,P,INI,Posture_Sitting,1,R_ESI,45.99627093671786,middle,1
BMu67,47,P,INI,Posture_Sitting,1,R_ESI,45.99086837891889,end,1
BMu67,47,P,REL,Posture_Sitting,1,L_ESI,16.41146599155439,total,1
BMu67,47,P,REL,Posture_Sitting,1,L_ESI,16.38686807270688,start,1
BMu67,47,P,REL,Posture_Sitting,1,L_ESI,16.193562519522573,middle,1
BMu67,47,P,REL,Posture_Sitting,1,L_ESI,16.654788255425952,end,1
BMu67,47,P,REL,Posture_Sitting,1,R_ESI,22.775060395358764,total,1
BMu67,47,P,REL,Posture_Sitting,1,R_ESI,23.110721301973467,start,1
BMu67,47,P,REL,Posture_Sitting,1,R_ESI,22.521049564384615,middle,1
BMu67,47,P,REL,Posture_Sitting,1,R_ESI,22.694367214204267,end,1
BMu67,48,C,INI,Posture_Sitting,1,L_ESI,8.769413552340364,total,1
BMu67,48,C,INI,Posture_Sitting,1,L_ESI,8.74512617052324,start,1
BMu67,48,C,INI,Posture_Sitting,1,L_ESI,8.733441279323136,middle,1
BMu67,48,C,INI,Posture_Sitting,1,L_ESI,8.829806066733541,end,1
BMu67,48,C,INI,Posture_Sitting,1,R_ESI,12.01183052929141,total,1
BMu67,48,C,INI,Posture_Sitting,1,R_ESI,12.106261113587562,start,1
BMu67,48,C,INI,Posture_Sitting,1,R_ESI,12.049292374201466,middle,1
BMu67,48,C,INI,Posture_Sitting,1,R_ESI,11.879803221430137,end,1
BMu67,48,C,REL,Posture_Sitting,1,L_ESI,11.823573094363985,total,1
BMu67,48,C,REL,Posture_Sitting,1,L_ESI,11.91103458231009,start,1
BMu67,48,C,REL,Posture_Sitting,1,L_ESI,11.890874645730607,middle,1
BMu67,48,C,REL,Posture_Sitting,1,L_ESI,11.6685708421329,end,1
BMu67,48,C,REL,Posture_Sitting,1,R_ESI,10.46604452986379,total,1
BMu67,48,C,REL,Posture_Sitting,1,R_ESI,10.765724455123195,start,1
BMu67,48,C,REL,Posture_Sitting,1,R_ESI,10.437214763362546,middle,1
BMu67,48,C,REL,Posture_Sitting,1,R_ESI,10.195330885105989,end,1
BMu67,49,C,INI,Posture_Sitting,1,L_ESI,18.494602719510834,total,1
BMu67,49,C,INI,Posture_Sitting,1,L_ESI,18.51544569922706,start,1
BMu67,49,C,INI,Posture_Sitting,1,L_ESI,18.593438354429946,middle,1
BMu67,49,C,INI,Posture_Sitting,1,L_ESI,18.37455177715342,end,1
BMu67,49,C,INI,Posture_Sitting,1,R_ESI,16.461694983732976,total,1
BMu67,49,C,INI,Posture_Sitting,1,R_ESI,16.232149292705742,start,1
BMu67,49,C,INI,Posture_Sitting,1,R_ESI,16.524502612552546,middle,1
BMu67,49,C,INI,Posture_Sitting,1,R_ESI,16.628196440779085,end,1
BMu67,49,C,REL,Posture_Sitting,1,L_ESI,3.8087940554448623,total,1
BMu67,49,C,REL,Posture_Sitting,1,L_ESI,3.8264777407440014,start,1
BMu67,49,C,REL,Posture_Sitting,1,L_ESI,3.789259539374799,middle,1
BMu67,49,C,REL,Posture_Sitting,1,L_ESI,3.8107184754822128,end,1
BMu67,49,C,REL,Posture_Sitting,1,R_ESI,25.485040662453606,total,1
BMu67,49,C,REL,Posture_Sitting,1,R_ESI,25.533650615304392,start,1
BMu67,49,C,REL,Posture_Sitting,1,R_ESI,25.233312921480977,middle,1
BMu67,49,C,REL,Posture_Sitting,1,R_ESI,25.689106744340744,end,1
BMu67,50,P,INI,Posture_Sitting,1,L_ESI,18.386396169080815,total,1
BMu67,50,P,INI,Posture_Sitting,1,L_ESI,18.580932698839977,start,1
BMu67,50,P,INI,Posture_Sitting,1,L_ESI,18.17083668696583,middle,1
BMu67,50,P,INI,Posture_Sitting,1,L_ESI,18.40823116428955,end,1
BMu67,50,P,INI,Posture_Sitting,1,R_ESI,28.649756600173614,total,1
BMu67,50,P,INI,Posture_Sitting,1,R_ESI,28.501250067895317,start,1
BMu67,50,P,INI,Posture_Sitting,1,R_ESI,28.60712792201338,middle,1
BMu67,50,P,INI,Posture_Sitting,1,R_ESI,28.841052398831643,end,1
BMu67,50,P,REL,Posture_Sitting,1,L_ESI,22.25270568366092,total,1
BMu67,50,P,REL,Posture_Sitting,1,L_ESI,21.682285962759423,start,1
BMu67,50,P,REL,Posture_Sitting,1,L_ESI,22.769549538286473,middle,1
BMu67,50,P,REL,Posture_Sitting,1,L_ESI,22.304334526525512,end,1
BMu67,50,P,REL,Posture_Sitting,1,R_ESI,24.5674624038854,total,1
BMu67,50,P,REL,Posture_Sitting,1,R_ESI,24.45155415193625,start,1
BMu67,50,P,REL,Posture_Sitting,1,R_ESI,24.950189118116633,middle,1
BMu67,50,P,REL,Posture_Sitting,1,R_ESI,24.299202156301824,end,1
BMu67,51,P,INI,Posture_Sitting,1,L_ESI,9.354070729634342,total,1
BMu67,51,P,INI,Posture_Sitting,1,L_ESI,9.34281820697752,start,1
BMu67,51,P,INI,Posture_Sitting,1,L_ESI,9.41124717299099,middle,1
BMu67,51,P,INI,Posture_Sitting,1,L_ESI,9.307931417239717,end,1
BMu67,51,P,INI,Posture_Sitting,1,R_ESI,21.16582073676937,total,1
BMu67,51,P,INI,Posture_Sitting,1,R_ESI,20.99379409204313,start,1
BMu67,51,P,INI,Posture_Sitting,1,R_ESI,21.212822591613318,middle,1
BMu67,51,P,INI,Posture_Sitting,1,R_ESI,21.29066846406119,end,1
BMu67,51,P,REL,Posture_Sitting,1,L_ESI,6.540316276244484,total,1
BMu67,51,P,REL,Posture_Sitting,1,L_ESI,6.644060505688368,start,1
BMu67,51,P,REL,Posture_Sitting,1,L_ESI,6.544553415718727,middle,1
BMu67,51,P,REL,Posture_Sitting,1,L_ESI,6.432318945426686,end,1
BMu67,51,P,REL,Posture_Sitting,1,R_ESI,15.274649710502166,total,1
BMu67,51,P,REL,Posture_Sitting,1,R_ESI,15.175631837536534,start,1
BMu67,51,P,REL,Posture_Sitting,1,R_ESI,15.514646442485097,middle,1
BMu67,51,P,REL,Posture_Sitting,1,R_ESI,15.132766750078533,end,1
BMu67,52,C,INI,Posture_Sitting,1,L_ESI,3.903113231733782,total,1
BMu67,52,C,INI,Posture_Sitting,1,L_ESI,3.8942288695889626,start,1
BMu67,52,C,INI,Posture_Sitting,1,L_ESI,3.8702054582827934,middle,1
BMu67,52,C,INI,Posture_Sitting,1,L_ESI,3.9450281988424347,end,1
BMu67,52,C,INI,Posture_Sitting,1,R_ESI,14.260041563195328,total,1
BMu67,52,C,INI,Posture_Sitting,1,R_ESI,14.200780710840712,start,1
BMu67,52,C,INI,Posture_Sitting,1,R_ESI,14.241545251020275,middle,1
BMu67,52,C,INI,Posture_Sitting,1,R_ESI,14.337865019743855,end,1
BMu67,52,C,REL,Posture_Sitting,1,L_ESI,5.976786882127063,total,1
BMu67,52,C,REL,Posture_Sitting,1,L_ESI,5.998978747476846,start,1
BMu67,52,C,REL,Posture_Sitting,1,L_ESI,5.8893786403733595,middle,1
BMu67,52,C,REL,Posture_Sitting,1,L_ESI,6.042332537657586,end,1
BMu67,52,C,REL,Posture_Sitting,1,R_ESI,18.33064405995519,total,1
BMu67,52,C,REL,Posture_Sitting,1,R_ESI,18.904295207394455,start,1
BMu67,52,C,REL,Posture_Sitting,1,R_ESI,18.191593298907602,middle,1
BMu67,52,C,REL,Posture_Sitting,1,R_ESI,17.89656749731552,end,1
BMu67,53,P,INI,Posture_Sitting,1,L_ESI,10.087549645563758,total,1
BMu67,53,P,INI,Posture_Sitting,1,L_ESI,10.244971152805563,start,1
BMu67,53,P,INI,Posture_Sitting,1,L_ESI,10.116906140608613,middle,1
BMu67,53,P,INI,Posture_Sitting,1,L_ESI,9.900661053235998,end,1
BMu67,53,P,INI,Posture_Sitting,1,R_ESI,17.180163942572026,total,1
BMu67,53,P,INI,Posture_Sitting,1,R_ESI,17.12673690514724,start,1
BMu67,53,P,INI,Posture_Sitting,1,R_ESI,17.186615908651678,middle,1
BMu67,53,P,INI,Posture_Sitting,1,R_ESI,17.227114708454515,end,1
BMu67,53,P,REL,Posture_Sitting,1,L_ESI,11.8957515196111,total,1
BMu67,53,P,REL,Posture_Sitting,1,L_ESI,12.007942353518725,start,1
BMu67,53,P,REL,Posture_Sitting,1,L_ESI,11.90646933824387,middle,1
BMu67,53,P,REL,Posture_Sitting,1,L_ESI,11.772802491542178,end,1
BMu67,53,P,REL,Posture_Sitting,1,R_ESI,14.347738537625931,total,1
BMu67,53,P,REL,Posture_Sitting,1,R_ESI,14.268674176511935,start,1
BMu67,53,P,REL,Posture_Sitting,1,R_ESI,14.269047927247845,middle,1
BMu67,53,P,REL,Posture_Sitting,1,R_ESI,14.505789947702482,end,1
BMu67,54,P,INI,Posture_Sitting,1,L_ESI,44.60710324309817,total,1
BMu67,54,P,INI,Posture_Sitting,1,L_ESI,44.30487869928335,start,1
BMu67,54,P,INI,Posture_Sitting,1,L_ESI,44.44905439467565,middle,1
BMu67,54,P,INI,Posture_Sitting,1,L_ESI,45.06797202755171,end,1
BMu67,54,P,INI,Posture_Sitting,1,R_ESI,34.989435573265965,total,1
BMu67,54,P,INI,Posture_Sitting,1,R_ESI,35.301612424818614,start,1
BMu67,54,P,INI,Posture_Sitting,1,R_ESI,34.941606965191994,middle,1
BMu67,54,P,INI,Posture_Sitting,1,R_ESI,34.72526750687331,end,1
BMu67,54,P,REL,Posture_Sitting,1,L_ESI,42.642400292069794,total,1
BMu67,54,P,REL,Posture_Sitting,1,L_ESI,42.15423940416368,start,1
BMu67,54,P,REL,Posture_Sitting,1,L_ESI,43.04421453488028,middle,1
BMu67,54,P,REL,Posture_Sitting,1,L_ESI,42.72723324646217,end,1
BMu67,54,P,REL,Posture_Sitting,1,R_ESI,37.36821103644292,total,1
BMu67,54,P,REL,Posture_Sitting,1,R_ESI,37.08213928908091,start,1
BMu67,54,P,REL,Posture_Sitting,1,R_ESI,37.171314501341975,middle,1
BMu67,54,P,REL,Posture_Sitting,1,R_ESI,37.851921055815446,end,1
BMu67,55,C,INI,Posture_Sitting,1,L_ESI,11.538055313923453,total,1
BMu67,55,C,INI,Posture_Sitting,1,L_ESI,11.669634266454715,start,1
BMu67,55,C,INI,Posture_Sitting,1,L_ESI,11.455410279683191,middle,1
BMu67,55,C,INI,Posture_Sitting,1,L_ESI,11.48943273108717,end,1
BMu67,55,C,INI,Posture_Sitting,1,R_ESI,15.91467203258579,total,1
BMu67,55,C,INI,Posture_Sitting,1,R_ESI,17.44850185948465,start,1
BMu67,55,C,INI,Posture_Sitting,1,R_ESI,15.247559438539412,middle,1
BMu67,55,C,INI,Posture_Sitting,1,R_ESI,15.050467906597216,end,1
BMu67,55,C,REL,Posture_Sitting,1,L_ESI,7.618406381887713,total,1
BMu67,55,C,REL,Posture_Sitting,1,L_ESI,7.752014590932637,start,1
BMu67,55,C,REL,Posture_Sitting,1,L_ESI,7.52699580529611,middle,1
BMu67,55,C,REL,Posture_Sitting,1,L_ESI,7.576553105918616,end,1
BMu67,55,C,REL,Posture_Sitting,1,R_ESI,14.855785335576558,total,1
BMu67,55,C,REL,Posture_Sitting,1,R_ESI,14.916479421647407,start,1
BMu67,55,C,REL,Posture_Sitting,1,R_ESI,14.865549452739682,middle,1
BMu67,55,C,REL,Posture_Sitting,1,R_ESI,14.785290349541485,end,1
BMu67,56,C,INI,Posture_Sitting,1,L_ESI,13.29768227471744,total,1
BMu67,56,C,INI,Posture_Sitting,1,L_ESI,13.107286852300478,start,1
BMu67,56,C,INI,Posture_Sitting,1,L_ESI,13.398699238875198,middle,1
BMu67,56,C,INI,Posture_Sitting,1,L_ESI,13.386680187880872,end,1
BMu67,56,C,INI,Posture_Sitting,1,R_ESI,7.537495634373441,total,1
BMu67,56,C,INI,Posture_Sitting,1,R_ESI,7.457471220719658,start,1
BMu67,56,C,INI,Posture_Sitting,1,R_ESI,7.563776082860071,middle,1
BMu67,56,C,INI,Posture_Sitting,1,R_ESI,7.59114059739902,end,1
BMu67,56,C,REL,Posture_Sitting,1,L_ESI,15.738240758747235,total,1
BMu67,56,C,REL,Posture_Sitting,1,L_ESI,15.932692039701855,start,1
BMu67,56,C,REL,Posture_Sitting,1,L_ESI,15.747437985446886,middle,1
BMu67,56,C,REL,Posture_Sitting,1,L_ESI,15.534557603847873,end,1
BMu67,56,C,REL,Posture_Sitting,1,R_ESI,24.1616933059029,total,1
BMu67,56,C,REL,Posture_Sitting,1,R_ESI,24.162902551965455,start,1
BMu67,56,C,REL,Posture_Sitting,1,R_ESI,24.28235434247506,middle,1
BMu67,56,C,REL,Posture_Sitting,1,R_ESI,24.03936847619185,end,1
BMu67,57,C,INI,Posture_Sitting,1,L_ESI,7.278135921072311,total,1
BMu67,57,C,INI,Posture_Sitting,1,L_ESI,7.19829687611239,start,1
BMu67,57,C,INI,Posture_Sitting,1,L_ESI,7.359251797036863,middle,1
BMu67,57,C,INI,Posture_Sitting,1,L_ESI,7.276553515167015,end,1
BMu67,57,C,INI,Posture_Sitting,1,R_ESI,8.35284878289468,total,1
BMu67,57,C,INI,Posture_Sitting,1,R_ESI,8.2520472061246,start,1
BMu67,57,C,INI,Posture_Sitting,1,R_ESI,8.556420189115123,middle,1
BMu67,57,C,INI,Posture_Sitting,1,R_ESI,8.249312071357494,end,1
BMu67,57,C,REL,Posture_Sitting,1,L_ESI,14.002093671551622,total,1
BMu67,57,C,REL,Posture_Sitting,1,L_ESI,13.98123562161207,start,1
BMu67,57,C,REL,Posture_Sitting,1,L_ESI,13.970043926241281,middle,1
BMu67,57,C,REL,Posture_Sitting,1,L_ESI,14.055122202694749,end,1
BMu67,57,C,REL,Posture_Sitting,1,R_ESI,16.97773246834677,total,1
BMu67,57,C,REL,Posture_Sitting,1,R_ESI,16.787526131721847,start,1
BMu67,57,C,REL,Posture_Sitting,1,R_ESI,16.95746976922164,middle,1
BMu67,57,C,REL,Posture_Sitting,1,R_ESI,17.188277836531114,end,1
BMu67,58,P,INI,Posture_Sitting,1,L_ESI,24.280327469632624,total,1
BMu67,58,P,INI,Posture_Sitting,1,L_ESI,24.573752731458256,start,1
BMu67,58,P,INI,Posture_Sitting,1,L_ESI,24.223107435565296,middle,1
BMu67,58,P,INI,Posture_Sitting,1,L_ESI,24.04433779778145,end,1
BMu67,58,P,INI,Posture_Sitting,1,R_ESI,15.235894818815419,total,1
BMu67,58,P,INI,Posture_Sitting,1,R_ESI,15.128792625276375,start,1
BMu67,58,P,INI,Posture_Sitting,1,R_ESI,15.335850377675975,middle,1
BMu67,58,P,INI,Posture_Sitting,1,R_ESI,15.242664906861007,end,1
BMu67,58,P,REL,Posture_Sitting,1,L_ESI,15.193790305330063,total,1
BMu67,58,P,REL,Posture_Sitting,1,L_ESI,16.585852007708752,start,1
BMu67,58,P,REL,Posture_Sitting,1,L_ESI,14.687097294042365,middle,1
BMu67,58,P,REL,Posture_Sitting,1,L_ESI,14.310330397997499,end,1
BMu67,58,P,REL,Posture_Sitting,1,R_ESI,11.437313199271122,total,1
BMu67,58,P,REL,Posture_Sitting,1,R_ESI,11.635712748137257,start,1
BMu67,58,P,REL,Posture_Sitting,1,R_ESI,11.08431942994373,middle,1
BMu67,58,P,REL,Posture_Sitting,1,R_ESI,11.593237196853263,end,1
BMu67,60,C,INI,Posture_Sitting,1,L_ESI,6.199404881720498,total,1
BMu67,60,C,INI,Posture_Sitting,1,L_ESI,6.171141051934231,start,1
BMu67,60,C,INI,Posture_Sitting,1,L_ESI,6.210021972031692,middle,1
BMu67,60,C,INI,Posture_Sitting,1,L_ESI,6.2170116251247824,end,1
BMu67,60,C,INI,Posture_Sitting,1,R_ESI,8.644797216688243,total,1
BMu67,60,C,INI,Posture_Sitting,1,R_ESI,8.789798611790518,start,1
BMu67,60,C,INI,Posture_Sitting,1,R_ESI,8.572237726681037,middle,1
BMu67,60,C,INI,Posture_Sitting,1,R_ESI,8.57262865338586,end,1
BMu67,60,C,REL,Posture_Sitting,1,L_ESI,13.603468033464138,total,1
BMu67,60,C,REL,Posture_Sitting,1,L_ESI,13.26931418098456,start,1
BMu67,60,C,REL,Posture_Sitting,1,L_ESI,13.651723686313558,middle,1
BMu67,60,C,REL,Posture_Sitting,1,L_ESI,13.889184447270614,end,1
BMu67,60,C,REL,Posture_Sitting,1,R_ESI,15.171339221435623,total,1
BMu67,60,C,REL,Posture_Sitting,1,R_ESI,14.647354919184254,start,1
BMu67,60,C,REL,Posture_Sitting,1,R_ESI,15.206596152353175,middle,1
BMu67,60,C,REL,Posture_Sitting,1,R_ESI,15.659933774957452,end,1
BMu67,61,P,REL,Posture_Sitting,1,L_ESI,9.971302134061483,total,1
BMu67,61,P,REL,Posture_Sitting,1,L_ESI,10.163407087435777,start,1
BMu67,61,P,REL,Posture_Sitting,1,L_ESI,9.436050004393163,middle,1
BMu67,61,P,REL,Posture_Sitting,1,L_ESI,10.31646568032512,end,1
BMu67,61,P,REL,Posture_Sitting,1,R_ESI,4.61737476933707,total,1
BMu67,61,P,REL,Posture_Sitting,1,R_ESI,4.60779869373009,start,1
BMu67,61,P,REL,Posture_Sitting,1,R_ESI,4.5854464378491935,middle,1
BMu67,61,P,REL,Posture_Sitting,1,R_ESI,4.658999454942228,end,1
BMu67,62,P,INI,Posture_Sitting,1,L_ESI,6.4575724802076495,total,1
BMu67,62,P,INI,Posture_Sitting,1,L_ESI,6.287960313206156,start,1
BMu67,62,P,INI,Posture_Sitting,1,L_ESI,6.421796727656133,middle,1
BMu67,62,P,INI,Posture_Sitting,1,L_ESI,6.663095172046629,end,1
BMu67,62,P,INI,Posture_Sitting,1,R_ESI,12.246385216805862,total,1
BMu67,62,P,INI,Posture_Sitting,1,R_ESI,12.061795782818368,start,1
BMu67,62,P,INI,Posture_Sitting,1,R_ESI,12.227123025671203,middle,1
BMu67,62,P,INI,Posture_Sitting,1,R_ESI,12.450309405308149,end,1
BMu67,62,P,REL,Posture_Sitting,1,L_ESI,12.606895107166155,total,1
BMu67,62,P,REL,Posture_Sitting,1,L_ESI,12.550284946521407,start,1
BMu67,62,P,REL,Posture_Sitting,1,L_ESI,12.69431065069697,middle,1
BMu67,62,P,REL,Posture_Sitting,1,L_ESI,12.575760417646665,end,1
BMu67,62,P,REL,Posture_Sitting,1,R_ESI,8.684612936542198,total,1
BMu67,62,P,REL,Posture_Sitting,1,R_ESI,8.82035273473932,start,1
BMu67,62,P,REL,Posture_Sitting,1,R_ESI,8.665446318659034,middle,1
BMu67,62,P,REL,Posture_Sitting,1,R_ESI,8.568111959570512,end,1
BMu67,63,P,INI,Posture_Sitting,1,L_ESI,10.496015782238317,total,1
BMu67,63,P,INI,Posture_Sitting,1,L_ESI,11.17396643653225,start,1
BMu67,63,P,INI,Posture_Sitting,1,L_ESI,10.705843444311453,middle,1
BMu67,63,P,INI,Posture_Sitting,1,L_ESI,9.607447015589688,end,1
BMu67,63,P,INI,Posture_Sitting,1,R_ESI,18.682184994181704,total,1
BMu67,63,P,INI,Posture_Sitting,1,R_ESI,21.03604682483967,start,1
BMu67,63,P,INI,Posture_Sitting,1,R_ESI,19.25722688944617,middle,1
BMu67,63,P,INI,Posture_Sitting,1,R_ESI,15.75111500465261,end,1
BMu67,63,P,REL,Posture_Sitting,1,L_ESI,14.135908508412856,total,1
BMu67,63,P,REL,Posture_Sitting,1,L_ESI,15.78553965445498,start,1
BMu67,63,P,REL,Posture_Sitting,1,L_ESI,14.161290618732865,middle,1
BMu67,63,P,REL,Posture_Sitting,1,L_ESI,12.46079963407523,end,1
BMu67,63,P,REL,Posture_Sitting,1,R_ESI,15.336684542012508,total,1
BMu67,63,P,REL,Posture_Sitting,1,R_ESI,16.538598387300656,start,1
BMu67,63,P,REL,Posture_Sitting,1,R_ESI,15.274337398076051,middle,1
BMu67,63,P,REL,Posture_Sitting,1,R_ESI,14.197352711111117,end,1
BMu67,64,C,INI,Posture_Sitting,1,L_ESI,7.260151748513239,total,1
BMu67,64,C,INI,Posture_Sitting,1,L_ESI,7.179733634199528,start,1
BMu67,64,C,INI,Posture_Sitting,1,L_ESI,7.190719869347128,middle,1
BMu67,64,C,INI,Posture_Sitting,1,L_ESI,7.410259083922741,end,1
BMu67,64,C,INI,Posture_Sitting,1,R_ESI,7.067014536945267,total,1
BMu67,64,C,INI,Posture_Sitting,1,R_ESI,6.9914955836806305,start,1
BMu67,64,C,INI,Posture_Sitting,1,R_ESI,7.039980456488721,middle,1
BMu67,64,C,INI,Posture_Sitting,1,R_ESI,7.1696655202416055,end,1
BMu67,64,C,REL,Posture_Sitting,1,L_ESI,6.1337083285126885,total,1
BMu67,64,C,REL,Posture_Sitting,1,L_ESI,6.07800830152963,start,1
BMu67,64,C,REL,Posture_Sitting,1,L_ESI,6.25479677316341,middle,1
BMu67,64,C,REL,Posture_Sitting,1,L_ESI,6.067863753662406,end,1
BMu67,64,C,REL,Posture_Sitting,1,R_ESI,9.480891198838336,total,1
BMu67,64,C,REL,Posture_Sitting,1,R_ESI,9.63545934517183,start,1
BMu67,64,C,REL,Posture_Sitting,1,R_ESI,9.400291700933812,middle,1
BMu67,64,C,REL,Posture_Sitting,1,R_ESI,9.407226180041338,end,1
BMu67,65,P,INI,Posture_Sitting,1,L_ESI,20.903592220006562,total,1
BMu67,65,P,INI,Posture_Sitting,1,L_ESI,19.869731417328005,start,1
BMu67,65,P,INI,Posture_Sitting,1,L_ESI,21.260766111419244,middle,1
BMu67,65,P,INI,Posture_Sitting,1,L_ESI,21.578708814028992,end,1
BMu67,65,P,INI,Posture_Sitting,1,R_ESI,19.42500692777162,total,1
BMu67,65,P,INI,Posture_Sitting,1,R_ESI,18.866526658104167,start,1
BMu67,65,P,INI,Posture_Sitting,1,R_ESI,19.726790492107604,middle,1
BMu67,65,P,INI,Posture_Sitting,1,R_ESI,19.680376839778432,end,1
BMu67,65,P,REL,Posture_Sitting,1,L_ESI,23.41631511994716,total,1
BMu67,65,P,REL,Posture_Sitting,1,L_ESI,23.664091431912425,start,1
BMu67,65,P,REL,Posture_Sitting,1,L_ESI,23.13496862297244,middle,1
BMu67,65,P,REL,Posture_Sitting,1,L_ESI,23.450945176736873,end,1
BMu67,65,P,REL,Posture_Sitting,1,R_ESI,22.721324449867762,total,1
BMu67,65,P,REL,Posture_Sitting,1,R_ESI,23.007372635843794,start,1
BMu67,65,P,REL,Posture_Sitting,1,R_ESI,22.405051360097737,middle,1
BMu67,65,P,REL,Posture_Sitting,1,R_ESI,22.752740798823876,end,1
BMu67,66,C,INI,Posture_Sitting,1,L_ESI,13.624719686340113,total,1
BMu67,66,C,INI,Posture_Sitting,1,L_ESI,13.842152904367808,start,1
BMu67,66,C,INI,Posture_Sitting,1,L_ESI,13.530421387210088,middle,1
BMu67,66,C,INI,Posture_Sitting,1,L_ESI,13.501940002383156,end,1
BMu67,66,C,INI,Posture_Sitting,1,R_ESI,15.458398389878353,total,1
BMu67,66,C,INI,Posture_Sitting,1,R_ESI,15.13779179781718,start,1
BMu67,66,C,INI,Posture_Sitting,1,R_ESI,15.916228077203373,middle,1
BMu67,66,C,INI,Posture_Sitting,1,R_ESI,15.319450585862208,end,1
BMu67,66,C,REL,Posture_Sitting,1,L_ESI,21.869465871850927,total,1
BMu67,66,C,REL,Posture_Sitting,1,L_ESI,22.959972792294487,start,1
BMu67,66,C,REL,Posture_Sitting,1,L_ESI,21.279436651863698,middle,1
BMu67,66,C,REL,Posture_Sitting,1,L_ESI,21.371210894359034,end,1
BMu67,66,C,REL,Posture_Sitting,1,R_ESI,27.609511383973707,total,1
BMu67,66,C,REL,Posture_Sitting,1,R_ESI,27.782341518710986,start,1
BMu67,66,C,REL,Posture_Sitting,1,R_ESI,27.378138085895003,middle,1
BMu67,66,C,REL,Posture_Sitting,1,R_ESI,27.668926163034453,end,1
BMu67,67,C,INI,Posture_Sitting,1,L_ESI,6.948931993874402,total,1
BMu67,67,C,INI,Posture_Sitting,1,L_ESI,6.994832676283492,start,1
BMu67,67,C,INI,Posture_Sitting,1,L_ESI,7.0315964087000715,middle,1
BMu67,67,C,INI,Posture_Sitting,1,L_ESI,6.820055488175535,end,1
BMu67,67,C,INI,Posture_Sitting,1,R_ESI,26.799936727105823,total,1
BMu67,67,C,INI,Posture_Sitting,1,R_ESI,27.653153639346236,start,1
BMu67,67,C,INI,Posture_Sitting,1,R_ESI,27.82465043358292,middle,1
BMu67,67,C,INI,Posture_Sitting,1,R_ESI,24.918145867894783,end,1
BMu67,67,C,REL,Posture_Sitting,1,L_ESI,3.875867803875025,total,1
BMu67,67,C,REL,Posture_Sitting,1,L_ESI,4.213798103289644,start,1
BMu67,67,C,REL,Posture_Sitting,1,L_ESI,3.6687041870618415,middle,1
BMu67,67,C,REL,Posture_Sitting,1,L_ESI,3.7458815357223805,end,1
BMu67,67,C,REL,Posture_Sitting,1,R_ESI,9.746680635583397,total,1
BMu67,67,C,REL,Posture_Sitting,1,R_ESI,10.328293483361518,start,1
BMu67,67,C,REL,Posture_Sitting,1,R_ESI,9.473101435782988,middle,1
BMu67,67,C,REL,Posture_Sitting,1,R_ESI,9.439677598886265,end,1
BMu67,68,C,INI,Posture_Sitting,1,L_ESI,14.466452044601933,total,1
BMu67,68,C,INI,Posture_Sitting,1,L_ESI,14.545359499717073,start,1
BMu67,68,C,INI,Posture_Sitting,1,L_ESI,14.404167261605464,middle,1
BMu67,68,C,INI,Posture_Sitting,1,L_ESI,14.450065864507526,end,1
BMu67,68,C,INI,Posture_Sitting,1,R_ESI,19.13685091418671,total,1
BMu67,68,C,INI,Posture_Sitting,1,R_ESI,18.602499056430563,start,1
BMu67,68,C,INI,Posture_Sitting,1,R_ESI,18.78507452488871,middle,1
BMu67,68,C,INI,Posture_Sitting,1,R_ESI,20.024265399496937,end,1
BMu67,68,C,REL,Posture_Sitting,1,L_ESI,17.10297205366636,total,1
BMu67,68,C,REL,Posture_Sitting,1,L_ESI,16.840466864451667,start,1
BMu67,68,C,REL,Posture_Sitting,1,L_ESI,17.583838467103135,middle,1
BMu67,68,C,REL,Posture_Sitting,1,L_ESI,16.882799338108306,end,1
BMu67,68,C,REL,Posture_Sitting,1,R_ESI,19.911849376629537,total,1
BMu67,68,C,REL,Posture_Sitting,1,R_ESI,19.814258457091427,start,1
BMu67,68,C,REL,Posture_Sitting,1,R_ESI,20.042011269560977,middle,1
BMu67,68,C,REL,Posture_Sitting,1,R_ESI,19.878788065099194,end,1
