BMu,subject,P_C,session,task,trials,channel,value,event,repetition
BMu67,1,C,INI,Posture_Sitting,1,L_ESI,22.619786106616726,total,1
BMu67,1,C,INI,Posture_Sitting,1,L_ESI,23.506059554397417,start,1
BMu67,1,C,INI,Posture_Sitting,1,L_ESI,22.24030941817861,end,1
BMu67,1,C,INI,Posture_Sitting,1,R_ESI,25.349316639959493,total,1
BMu67,1,C,INI,Posture_Sitting,1,R_ESI,26.43147098352891,start,1
BMu67,1,C,INI,Posture_Sitting,1,R_ESI,24.63400517724706,end,1
BMu67,1,C,REL,Posture_Sitting,1,L_ESI,18.223913616456727,total,1
BMu67,1,C,REL,Posture_Sitting,1,L_ESI,20.40945074294684,start,1
BMu67,1,C,REL,Posture_Sitting,1,L_ESI,17.374798524528096,end,1
BMu67,1,C,REL,Posture_Sitting,1,R_ESI,24.900761408530013,total,1
BMu67,1,C,REL,Posture_Sitting,1,R_ESI,27.36119263726819,start,1
BMu67,1,C,REL,Posture_Sitting,1,R_ESI,24.385339527493596,end,1
BMu67,2,C,INI,Posture_Sitting,1,L_ESI,8.4315030849381,total,1
BMu67,2,C,INI,Posture_Sitting,1,L_ESI,8.630975707103758,start,1
BMu67,2,C,INI,Posture_Sitting,1,L_ESI,8.3223367198964,end,1
BMu67,2,C,INI,Posture_Sitting,1,R_ESI,31.235578570055793,total,1
BMu67,2,C,INI,Posture_Sitting,1,R_ESI,31.268500952838618,start,1
BMu67,2,C,INI,Posture_Sitting,1,R_ESI,31.36471470511042,end,1
BMu67,2,C,REL,Posture_Sitting,1,L_ESI,21.05568850323695,total,1
BMu67,2,C,REL,Posture_Sitting,1,L_ESI,21.74846711326201,start,1
BMu67,2,C,REL,Posture_Sitting,1,L_ESI,20.334022806651245,end,1
BMu67,2,C,REL,Posture_Sitting,1,R_ESI,22.050420971361177,total,1
BMu67,2,C,REL,Posture_Sitting,1,R_ESI,22.131996899339722,start,1
BMu67,2,C,REL,Posture_Sitting,1,R_ESI,21.753732720103635,end,1
BMu67,3,C,INI,Posture_Sitting,1,L_ESI,21.1729805804766,total,1
BMu67,3,C,INI,Posture_Sitting,1,L_ESI,21.62469197580389,start,1
BMu67,3,C,INI,Posture_Sitting,1,L_ESI,21.081228814774544,end,1
BMu67,3,C,INI,Posture_Sitting,1,R_ESI,31.15121141937695,total,1
BMu67,3,C,INI,Posture_Sitting,1,R_ESI,31.718213385255275,start,1
BMu67,3,C,INI,Posture_Sitting,1,R_ESI,30.94368537393105,end,1
BMu67,3,C,REL,Posture_Sitting,1,L_ESI,11.629356067217074,total,1
BMu67,3,C,REL,Posture_Sitting,1,L_ESI,11.748287775884855,start,1
BMu67,3,C,REL,Posture_Sitting,1,L_ESI,11.61238529551652,end,1
BMu67,3,C,REL,Posture_Sitting,1,R_ESI,22.422898993237624,total,1
BMu67,3,C,REL,Posture_Sitting,1,R_ESI,22.60232370555375,start,1
BMu67,3,C,REL,Posture_Sitting,1,R_ESI,22.203311158129015,end,1
BMu67,5,C,INI,Posture_Sitting,1,L_ESI,10.052094059195047,total,1
BMu67,5,C,INI,Posture_Sitting,1,L_ESI,10.152522381147644,start,1
BMu67,5,C,INI,Posture_Sitting,1,L_ESI,10.01196981558103,end,1
BMu67,5,C,INI,Posture_Sitting,1,R_ESI,18.884462720605306,total,1
BMu67,5,C,INI,Posture_Sitting,1,R_ESI,19.26097643960087,start,1
BMu67,5,C,INI,Posture_Sitting,1,R_ESI,18.710302629214283,end,1
BMu67,5,C,REL,Posture_Sitting,1,L_ESI,12.52555731082335,total,1
BMu67,5,C,REL,Posture_Sitting,1,L_ESI,11.98946581361527,start,1
BMu67,5,C,REL,Posture_Sitting,1,L_ESI,13.168583082400959,end,1
BMu67,5,C,REL,Posture_Sitting,1,R_ESI,25.64056843097965,total,1
BMu67,5,C,REL,Posture_Sitting,1,R_ESI,26.42972929385717,start,1
BMu67,5,C,REL,Posture_Sitting,1,R_ESI,25.397787917903344,end,1
BMu67,6,C,INI,Posture_Sitting,1,L_ESI,36.77115872889894,total,1
BMu67,6,C,INI,Posture_Sitting,1,L_ESI,34.97346398359667,start,1
BMu67,6,C,INI,Posture_Sitting,1,L_ESI,38.303304718018595,end,1
BMu67,6,C,INI,Posture_Sitting,1,R_ESI,40.097226469291144,total,1
BMu67,6,C,INI,Posture_Sitting,1,R_ESI,41.07068439109956,start,1
BMu67,6,C,INI,Posture_Sitting,1,R_ESI,40.69565062709121,end,1
BMu67,6,C,REL,Posture_Sitting,1,L_ESI,33.7016038778179,total,1
BMu67,6,C,REL,Posture_Sitting,1,L_ESI,35.27195100151058,start,1
BMu67,6,C,REL,Posture_Sitting,1,L_ESI,33.33556283777876,end,1
BMu67,6,C,REL,Posture_Sitting,1,R_ESI,33.4955332236255,total,1
BMu67,6,C,REL,Posture_Sitting,1,R_ESI,34.82229339328039,start,1
BMu67,6,C,REL,Posture_Sitting,1,R_ESI,33.3235719999869,end,1
BMu67,7,C,INI,Posture_Sitting,1,L_ESI,6.962958280585765,total,1
BMu67,7,C,INI,Posture_Sitting,1,L_ESI,7.319654388705286,start,1
BMu67,7,C,INI,Posture_Sitting,1,L_ESI,6.732344102544245,end,1
BMu67,7,C,INI,Posture_Sitting,1,R_ESI,10.882620373674056,total,1
BMu67,7,C,INI,Posture_Sitting,1,R_ESI,15.288025398407378,start,1
BMu67,7,C,INI,Posture_Sitting,1,R_ESI,8.901621915570438,end,1
BMu67,7,C,REL,Posture_Sitting,1,L_ESI,4.234926677827974,total,1
BMu67,7,C,REL,Posture_Sitting,1,L_ESI,4.440805704140533,start,1
BMu67,7,C,REL,Posture_Sitting,1,L_ESI,4.230241743303228,end,1
BMu67,7,C,REL,Posture_Sitting,1,R_ESI,7.13752158735501,total,1
BMu67,7,C,REL,Posture_Sitting,1,R_ESI,7.5027385326111755,start,1
BMu67,7,C,REL,Posture_Sitting,1,R_ESI,7.076272769821475,end,1
BMu67,8,C,INI,Posture_Sitting,1,L_ESI,30.10193550889005,total,1
BMu67,8,C,INI,Posture_Sitting,1,L_ESI,32.8104456228859,start,1
BMu67,8,C,INI,Posture_Sitting,1,L_ESI,29.257545058715174,end,1
BMu67,8,C,INI,Posture_Sitting,1,R_ESI,48.3791124479042,total,1
BMu67,8,C,INI,Posture_Sitting,1,R_ESI,50.21514948954906,start,1
BMu67,8,C,INI,Posture_Sitting,1,R_ESI,48.695862784246344,end,1
BMu67,8,C,REL,Posture_Sitting,1,L_ESI,26.63611763639508,total,1
BMu67,8,C,REL,Posture_Sitting,1,L_ESI,27.69900183781424,start,1
BMu67,8,C,REL,Posture_Sitting,1,L_ESI,26.03905838151892,end,1
BMu67,8,C,REL,Posture_Sitting,1,R_ESI,36.65175909159093,total,1
BMu67,8,C,REL,Posture_Sitting,1,R_ESI,35.09528305705783,start,1
BMu67,8,C,REL,Posture_Sitting,1,R_ESI,38.273426107986154,end,1
BMu67,9,P,INI,Posture_Sitting,1,L_ESI,10.307202084621077,total,1
BMu67,9,P,INI,Posture_Sitting,1,L_ESI,10.638159095639065,start,1
BMu67,9,P,INI,Posture_Sitting,1,L_ESI,10.231420236667956,end,1
BMu67,9,P,INI,Posture_Sitting,1,R_ESI,20.431121429986764,total,1
BMu67,9,P,INI,Posture_Sitting,1,R_ESI,20.636920417752876,start,1
BMu67,9,P,INI,Posture_Sitting,1,R_ESI,20.235339906833296,end,1
BMu67,9,P,REL,Posture_Sitting,1,L_ESI,12.15839627037728,total,1
BMu67,9,P,REL,Posture_Sitting,1,L_ESI,12.525800133290224,start,1
BMu67,9,P,REL,Posture_Sitting,1,L_ESI,11.888544619972365,end,1
BMu67,9,P,REL,Posture_Sitting,1,R_ESI,20.440285142470305,total,1
BMu67,9,P,REL,Posture_Sitting,1,R_ESI,20.81280945751851,start,1
BMu67,9,P,REL,Posture_Sitting,1,R_ESI,20.631015050422754,end,1
BMu67,10,P,INI,Posture_Sitting,1,L_ESI,38.39594084351491,total,1
BMu67,10,P,INI,Posture_Sitting,1,L_ESI,39.302234460194946,start,1
BMu67,10,P,INI,Posture_Sitting,1,L_ESI,38.467323622230595,end,1
BMu67,10,P,INI,Posture_Sitting,1,R_ESI,30.93559964063823,total,1
BMu67,10,P,INI,Posture_Sitting,1,R_ESI,31.09141991111938,start,1
BMu67,10,P,INI,Posture_Sitting,1,R_ESI,31.765106237133423,end,1
BMu67,10,P,REL,Posture_Sitting,1,L_ESI,14.788091689822123,total,1
BMu67,10,P,REL,Posture_Sitting,1,L_ESI,15.036665629105988,start,1
BMu67,10,P,REL,Posture_Sitting,1,L_ESI,14.629329663192024,end,1
BMu67,10,P,REL,Posture_Sitting,1,R_ESI,54.207488526345934,total,1
BMu67,10,P,REL,Posture_Sitting,1,R_ESI,60.24012602338573,start,1
BMu67,10,P,REL,Posture_Sitting,1,R_ESI,50.93158907833077,end,1
BMu67,11,P,INI,Posture_Sitting,1,L_ESI,8.805836915967536,total,1
BMu67,11,P,INI,Posture_Sitting,1,L_ESI,8.877268770258151,start,1
BMu67,11,P,INI,Posture_Sitting,1,L_ESI,8.82988718927301,end,1
BMu67,11,P,INI,Posture_Sitting,1,R_ESI,17.882710576662564,total,1
BMu67,11,P,INI,Posture_Sitting,1,R_ESI,18.36103695861878,start,1
BMu67,11,P,INI,Posture_Sitting,1,R_ESI,17.784785153141943,end,1
BMu67,11,P,REL,Posture_Sitting,1,L_ESI,16.749537700065435,total,1
BMu67,11,P,REL,Posture_Sitting,1,L_ESI,17.500307622453185,start,1
BMu67,11,P,REL,Posture_Sitting,1,L_ESI,16.43739751779172,end,1
BMu67,11,P,REL,Posture_Sitting,1,R_ESI,16.66169590023992,total,1
BMu67,11,P,REL,Posture_Sitting,1,R_ESI,17.02935623440917,start,1
BMu67,11,P,REL,Posture_Sitting,1,R_ESI,16.321311905171438,end,1
BMu67,12,P,INI,Posture_Sitting,1,L_ESI,37.76576498780484,total,1
BMu67,12,P,INI,Posture_Sitting,1,L_ESI,38.23115042259919,start,1
BMu67,12,P,INI,Posture_Sitting,1,L_ESI,37.105740773178766,end,1
BMu67,12,P,INI,Posture_Sitting,1,R_ESI,27.270121803380864,total,1
BMu67,12,P,INI,Posture_Sitting,1,R_ESI,28.375276550136636,start,1
BMu67,12,P,INI,Posture_Sitting,1,R_ESI,27.163680592171104,end,1
BMu67,12,P,REL,Posture_Sitting,1,L_ESI,21.31119898264195,total,1
BMu67,12,P,REL,Posture_Sitting,1,L_ESI,21.83645592938041,start,1
BMu67,12,P,REL,Posture_Sitting,1,L_ESI,23.531694173442595,end,1
BMu67,12,P,REL,Posture_Sitting,1,R_ESI,17.612869951904557,total,1
BMu67,12,P,REL,Posture_Sitting,1,R_ESI,19.871589870355884,start,1
BMu67,12,P,REL,Posture_Sitting,1,R_ESI,16.61303943670875,end,1
BMu67,13,C,INI,Posture_Sitting,1,L_ESI,24.31141432778477,total,1
BMu67,13,C,INI,Posture_Sitting,1,L_ESI,25.014648210381214,start,1
BMu67,13,C,INI,Posture_Sitting,1,L_ESI,24.22534947406592,end,1
BMu67,13,C,INI,Posture_Sitting,1,R_ESI,18.878272654106976,total,1
BMu67,13,C,INI,Posture_Sitting,1,R_ESI,19.823969818483175,start,1
BMu67,13,C,INI,Posture_Sitting,1,R_ESI,18.643574642116224,end,1
BMu67,13,C,REL,Posture_Sitting,1,L_ESI,20.10628815972025,total,1
BMu67,13,C,REL,Posture_Sitting,1,L_ESI,20.788724950324706,start,1
BMu67,13,C,REL,Posture_Sitting,1,L_ESI,19.840692959020497,end,1
BMu67,13,C,REL,Posture_Sitting,1,R_ESI,25.181915891040966,total,1
BMu67,13,C,REL,Posture_Sitting,1,R_ESI,25.847310611221527,start,1
BMu67,13,C,REL,Posture_Sitting,1,R_ESI,25.625334546534727,end,1
BMu67,14,P,INI,Posture_Sitting,1,L_ESI,18.79677466966458,total,1
BMu67,14,P,INI,Posture_Sitting,1,L_ESI,20.97845690618414,start,1
BMu67,14,P,INI,Posture_Sitting,1,L_ESI,17.871000314658346,end,1
BMu67,14,P,INI,Posture_Sitting,1,R_ESI,43.26338576896955,total,1
BMu67,14,P,INI,Posture_Sitting,1,R_ESI,45.1088633173801,start,1
BMu67,14,P,INI,Posture_Sitting,1,R_ESI,45.65245951760333,end,1
BMu67,14,P,REL,Posture_Sitting,1,L_ESI,25.327732537903422,total,1
BMu67,14,P,REL,Posture_Sitting,1,L_ESI,25.629848271546603,start,1
BMu67,14,P,REL,Posture_Sitting,1,L_ESI,25.068286564783534,end,1
BMu67,14,P,REL,Posture_Sitting,1,R_ESI,40.76773706324696,total,1
BMu67,14,P,REL,Posture_Sitting,1,R_ESI,42.256046473807245,start,1
BMu67,14,P,REL,Posture_Sitting,1,R_ESI,39.805540299203784,end,1
BMu67,16,C,INI,Posture_Sitting,1,L_ESI,32.00917280455057,total,1
BMu67,16,C,INI,Posture_Sitting,1,L_ESI,32.63663169727957,start,1
BMu67,16,C,INI,Posture_Sitting,1,L_ESI,31.587464267194964,end,1
BMu67,16,C,INI,Posture_Sitting,1,R_ESI,52.30347736278824,total,1
BMu67,16,C,INI,Posture_Sitting,1,R_ESI,54.2740805003248,start,1
BMu67,16,C,INI,Posture_Sitting,1,R_ESI,51.99732616307396,end,1
BMu67,16,C,REL,Posture_Sitting,1,L_ESI,41.430401595847975,total,1
BMu67,16,C,REL,Posture_Sitting,1,L_ESI,42.73733719767506,start,1
BMu67,16,C,REL,Posture_Sitting,1,L_ESI,41.32959481312036,end,1
BMu67,16,C,REL,Posture_Sitting,1,R_ESI,51.875761064819756,total,1
BMu67,16,C,REL,Posture_Sitting,1,R_ESI,53.17000389846178,start,1
BMu67,16,C,REL,Posture_Sitting,1,R_ESI,51.1283063776059,end,1
BMu67,17,P,INI,Posture_Sitting,1,L_ESI,13.928017829793596,total,1
BMu67,17,P,INI,Posture_Sitting,1,L_ESI,14.004988706422543,start,1
BMu67,17,P,INI,Posture_Sitting,1,L_ESI,13.928987175538118,end,1
BMu67,17,P,INI,Posture_Sitting,1,R_ESI,40.26525779607441,total,1
BMu67,17,P,INI,Posture_Sitting,1,R_ESI,43.14138925239514,start,1
BMu67,17,P,INI,Posture_Sitting,1,R_ESI,39.53736549168137,end,1
BMu67,17,P,REL,Posture_Sitting,1,L_ESI,12.147476377986575,total,1
BMu67,17,P,REL,Posture_Sitting,1,L_ESI,12.111630713633797,start,1
BMu67,17,P,REL,Posture_Sitting,1,L_ESI,12.371003707848034,end,1
BMu67,17,P,REL,Posture_Sitting,1,R_ESI,12.219776765259239,total,1
BMu67,17,P,REL,Posture_Sitting,1,R_ESI,12.656083430633181,start,1
BMu67,17,P,REL,Posture_Sitting,1,R_ESI,12.048360929851563,end,1
BMu67,21,C,INI,Posture_Sitting,1,L_ESI,11.420467092903527,total,1
BMu67,21,C,INI,Posture_Sitting,1,L_ESI,11.91508616930392,start,1
BMu67,21,C,INI,Posture_Sitting,1,L_ESI,11.221113217445662,end,1
BMu67,21,C,INI,Posture_Sitting,1,R_ESI,17.399781734120065,total,1
BMu67,21,C,INI,Posture_Sitting,1,R_ESI,17.60374552185378,start,1
BMu67,21,C,INI,Posture_Sitting,1,R_ESI,16.944503318572078,end,1
BMu67,21,C,REL,Posture_Sitting,1,L_ESI,10.270728338716008,total,1
BMu67,21,C,REL,Posture_Sitting,1,L_ESI,10.507125247290352,start,1
BMu67,21,C,REL,Posture_Sitting,1,L_ESI,10.306739223206636,end,1
BMu67,21,C,REL,Posture_Sitting,1,R_ESI,71.01658536771335,total,1
BMu67,21,C,REL,Posture_Sitting,1,R_ESI,169.93790368811023,start,1
BMu67,21,C,REL,Posture_Sitting,1,R_ESI,20.520266861628404,end,1
BMu67,22,C,INI,Posture_Sitting,1,L_ESI,21.803508578756997,total,1
BMu67,22,C,INI,Posture_Sitting,1,L_ESI,23.447448038842825,start,1
BMu67,22,C,INI,Posture_Sitting,1,L_ESI,21.25512012352609,end,1
BMu67,22,C,INI,Posture_Sitting,1,R_ESI,21.039401883059305,total,1
BMu67,22,C,INI,Posture_Sitting,1,R_ESI,21.596255480852612,start,1
BMu67,22,C,INI,Posture_Sitting,1,R_ESI,21.174131082042678,end,1
BMu67,22,C,REL,Posture_Sitting,1,L_ESI,23.910436633854804,total,1
BMu67,22,C,REL,Posture_Sitting,1,L_ESI,30.0233813977337,start,1
BMu67,22,C,REL,Posture_Sitting,1,L_ESI,22.169076489848695,end,1
BMu67,22,C,REL,Posture_Sitting,1,R_ESI,29.244801732774782,total,1
BMu67,22,C,REL,Posture_Sitting,1,R_ESI,40.91183619463741,start,1
BMu67,22,C,REL,Posture_Sitting,1,R_ESI,26.740762987499846,end,1
BMu67,23,C,INI,Posture_Sitting,1,L_ESI,14.756473307146903,total,1
BMu67,23,C,INI,Posture_Sitting,1,L_ESI,15.512851653884892,start,1
BMu67,23,C,INI,Posture_Sitting,1,L_ESI,14.622231589556696,end,1
BMu67,23,C,INI,Posture_Sitting,1,R_ESI,49.84202354088717,total,1
BMu67,23,C,INI,Posture_Sitting,1,R_ESI,23.0408322122529,start,1
BMu67,23,C,INI,Posture_Sitting,1,R_ESI,43.49122417599181,end,1
BMu67,23,C,REL,Posture_Sitting,1,L_ESI,9.560368229460105,total,1
BMu67,23,C,REL,Posture_Sitting,1,L_ESI,9.74700101430471,start,1
BMu67,23,C,REL,Posture_Sitting,1,L_ESI,9.574430233581493,end,1
BMu67,23,C,REL,Posture_Sitting,1,R_ESI,9.688932169390089,total,1
BMu67,23,C,REL,Posture_Sitting,1,R_ESI,9.57312796417236,start,1
BMu67,23,C,REL,Posture_Sitting,1,R_ESI,9.710770926717132,end,1
BMu67,24,P,INI,Posture_Sitting,1,L_ESI,44.037876079492,total,1
BMu67,24,P,INI,Posture_Sitting,1,L_ESI,44.48111964716402,start,1
BMu67,24,P,INI,Posture_Sitting,1,L_ESI,43.68283607967295,end,1
BMu67,24,P,INI,Posture_Sitting,1,R_ESI,55.70846471269682,total,1
BMu67,24,P,INI,Posture_Sitting,1,R_ESI,54.66679540429236,start,1
BMu67,24,P,INI,Posture_Sitting,1,R_ESI,55.05287059474248,end,1
BMu67,24,P,REL,Posture_Sitting,1,L_ESI,24.330691796778204,total,1
BMu67,24,P,REL,Posture_Sitting,1,L_ESI,25.509854302911272,start,1
BMu67,24,P,REL,Posture_Sitting,1,L_ESI,23.986149663122287,end,1
BMu67,24,P,REL,Posture_Sitting,1,R_ESI,38.8932503517244,total,1
BMu67,24,P,REL,Posture_Sitting,1,R_ESI,39.353006281907355,start,1
BMu67,24,P,REL,Posture_Sitting,1,R_ESI,38.73000040128049,end,1
BMu67,25,C,INI,Posture_Sitting,1,L_ESI,14.116687960978313,total,1
BMu67,25,C,INI,Posture_Sitting,1,L_ESI,15.645253582004278,start,1
BMu67,25,C,INI,Posture_Sitting,1,L_ESI,13.316527647873752,end,1
BMu67,25,C,INI,Posture_Sitting,1,R_ESI,13.249050617895787,total,1
BMu67,25,C,INI,Posture_Sitting,1,R_ESI,19.500060423950284,start,1
BMu67,25,C,INI,Posture_Sitting,1,R_ESI,11.852875980635481,end,1
BMu67,25,C,REL,Posture_Sitting,1,L_ESI,9.688272531695759,total,1
BMu67,25,C,REL,Posture_Sitting,1,L_ESI,7.804875931294985,start,1
BMu67,25,C,REL,Posture_Sitting,1,L_ESI,7.569659547416268,end,1
BMu67,25,C,REL,Posture_Sitting,1,R_ESI,17.81741055060164,total,1
BMu67,25,C,REL,Posture_Sitting,1,R_ESI,14.189183284734758,start,1
BMu67,25,C,REL,Posture_Sitting,1,R_ESI,13.82206265437183,end,1
BMu67,26,P,INI,Posture_Sitting,1,L_ESI,16.27015798600661,total,1
BMu67,26,P,INI,Posture_Sitting,1,L_ESI,17.257508245445155,start,1
BMu67,26,P,INI,Posture_Sitting,1,L_ESI,14.932118556201912,end,1
BMu67,26,P,INI,Posture_Sitting,1,R_ESI,19.338954144576142,total,1
BMu67,26,P,INI,Posture_Sitting,1,R_ESI,20.901773517214117,start,1
BMu67,26,P,INI,Posture_Sitting,1,R_ESI,19.2658508649025,end,1
BMu67,26,P,REL,Posture_Sitting,1,L_ESI,20.058272422341105,total,1
BMu67,26,P,REL,Posture_Sitting,1,L_ESI,20.01341573110725,start,1
BMu67,26,P,REL,Posture_Sitting,1,L_ESI,19.755072850381417,end,1
BMu67,26,P,REL,Posture_Sitting,1,R_ESI,74.96985093203077,total,1
BMu67,26,P,REL,Posture_Sitting,1,R_ESI,75.03693350732755,start,1
BMu67,26,P,REL,Posture_Sitting,1,R_ESI,74.89738627810327,end,1
BMu67,27,P,INI,Posture_Sitting,1,L_ESI,15.06704421371127,total,1
BMu67,27,P,INI,Posture_Sitting,1,L_ESI,14.333662838421507,start,1
BMu67,27,P,INI,Posture_Sitting,1,L_ESI,16.766352614191078,end,1
BMu67,27,P,INI,Posture_Sitting,1,R_ESI,19.593762821617393,total,1
BMu67,27,P,INI,Posture_Sitting,1,R_ESI,20.19928917129606,start,1
BMu67,27,P,INI,Posture_Sitting,1,R_ESI,18.460110565447568,end,1
BMu67,27,P,REL,Posture_Sitting,1,L_ESI,13.368390917604758,total,1
BMu67,27,P,REL,Posture_Sitting,1,L_ESI,13.715956471303585,start,1
BMu67,27,P,REL,Posture_Sitting,1,L_ESI,13.178478301986365,end,1
BMu67,27,P,REL,Posture_Sitting,1,R_ESI,23.639852063658086,total,1
BMu67,27,P,REL,Posture_Sitting,1,R_ESI,24.13987936760991,start,1
BMu67,27,P,REL,Posture_Sitting,1,R_ESI,23.50216515856576,end,1
BMu67,28,P,INI,Posture_Sitting,1,L_ESI,13.961375704741364,total,1
BMu67,28,P,INI,Posture_Sitting,1,L_ESI,13.851144877263605,start,1
BMu67,28,P,INI,Posture_Sitting,1,L_ESI,13.92463542623218,end,1
BMu67,28,P,INI,Posture_Sitting,1,R_ESI,18.759168456622664,total,1
BMu67,28,P,INI,Posture_Sitting,1,R_ESI,19.130860549992267,start,1
BMu67,28,P,INI,Posture_Sitting,1,R_ESI,18.325304563425913,end,1
BMu67,28,P,REL,Posture_Sitting,1,L_ESI,15.888396643001919,total,1
BMu67,28,P,REL,Posture_Sitting,1,L_ESI,16.233120934842013,start,1
BMu67,28,P,REL,Posture_Sitting,1,L_ESI,15.905701402199151,end,1
BMu67,28,P,REL,Posture_Sitting,1,R_ESI,16.764416744830033,total,1
BMu67,28,P,REL,Posture_Sitting,1,R_ESI,17.002604904185095,start,1
BMu67,28,P,REL,Posture_Sitting,1,R_ESI,16.445470362780167,end,1
BMu67,29,P,INI,Posture_Sitting,1,L_ESI,9.327743808660456,total,1
BMu67,29,P,INI,Posture_Sitting,1,L_ESI,9.971583951503433,start,1
BMu67,29,P,INI,Posture_Sitting,1,L_ESI,8.881763610441716,end,1
BMu67,29,P,INI,Posture_Sitting,1,R_ESI,19.429888956016914,total,1
BMu67,29,P,INI,Posture_Sitting,1,R_ESI,20.55330041936315,start,1
BMu67,29,P,INI,Posture_Sitting,1,R_ESI,18.713344099770673,end,1
BMu67,29,P,REL,Posture_Sitting,1,L_ESI,9.548544595590736,total,1
BMu67,29,P,REL,Posture_Sitting,1,L_ESI,10.284958700076267,start,1
BMu67,29,P,REL,Posture_Sitting,1,L_ESI,7.357836897752222,end,1
BMu67,29,P,REL,Posture_Sitting,1,R_ESI,3.6947441376736028,total,1
BMu67,29,P,REL,Posture_Sitting,1,R_ESI,3.9101431333670567,start,1
BMu67,29,P,REL,Posture_Sitting,1,R_ESI,3.4417488271906533,end,1
BMu67,30,P,INI,Posture_Sitting,1,L_ESI,13.418595237706949,total,1
BMu67,30,P,INI,Posture_Sitting,1,L_ESI,12.745724396850584,start,1
BMu67,30,P,INI,Posture_Sitting,1,L_ESI,13.076810727946318,end,1
BMu67,30,P,INI,Posture_Sitting,1,R_ESI,14.841943000010845,total,1
BMu67,30,P,INI,Posture_Sitting,1,R_ESI,15.305236878642448,start,1
BMu67,30,P,INI,Posture_Sitting,1,R_ESI,14.997732299701148,end,1
BMu67,30,P,REL,Posture_Sitting,1,L_ESI,13.475325723369574,total,1
BMu67,30,P,REL,Posture_Sitting,1,L_ESI,13.905144857850974,start,1
BMu67,30,P,REL,Posture_Sitting,1,L_ESI,13.386534861524503,end,1
BMu67,30,P,REL,Posture_Sitting,1,R_ESI,21.96094654771551,total,1
BMu67,30,P,REL,Posture_Sitting,1,R_ESI,22.74842002345956,start,1
BMu67,30,P,REL,Posture_Sitting,1,R_ESI,21.84054787443343,end,1
BMu67,32,P,INI,Posture_Sitting,1,L_ESI,7.63525879826853,total,1
BMu67,32,P,INI,Posture_Sitting,1,L_ESI,7.797525043619147,start,1
BMu67,32,P,INI,Posture_Sitting,1,L_ESI,7.6608977155217115,end,1
BMu67,32,P,INI,Posture_Sitting,1,R_ESI,20.172311510082036,total,1
BMu67,32,P,INI,Posture_Sitting,1,R_ESI,20.79144275251483,start,1
BMu67,32,P,INI,Posture_Sitting,1,R_ESI,20.03986023949106,end,1
BMu67,32,P,REL,Posture_Sitting,1,L_ESI,12.478715707469028,total,1
BMu67,32,P,REL,Posture_Sitting,1,L_ESI,12.94807335653416,start,1
BMu67,32,P,REL,Posture_Sitting,1,L_ESI,12.276946402183366,end,1
BMu67,32,P,REL,Posture_Sitting,1,R_ESI,26.76081327711318,total,1
BMu67,32,P,REL,Posture_Sitting,1,R_ESI,27.906173324105385,start,1
BMu67,32,P,REL,Posture_Sitting,1,R_ESI,26.293302205256335,end,1
BMu67,33,P,INI,Posture_Sitting,1,L_ESI,6.07996491997935,total,1
BMu67,33,P,INI,Posture_Sitting,1,L_ESI,6.00035087602426,start,1
BMu67,33,P,INI,Posture_Sitting,1,L_ESI,6.445488479473357,end,1
BMu67,33,P,INI,Posture_Sitting,1,R_ESI,6.824548826589748,total,1
BMu67,33,P,INI,Posture_Sitting,1,R_ESI,7.300186273657764,start,1
BMu67,33,P,INI,Posture_Sitting,1,R_ESI,6.74300537876041,end,1
BMu67,33,P,REL,Posture_Sitting,1,L_ESI,10.651882155024133,total,1
BMu67,33,P,REL,Posture_Sitting,1,L_ESI,11.756634016300199,start,1
BMu67,33,P,REL,Posture_Sitting,1,L_ESI,10.596848483407253,end,1
BMu67,33,P,REL,Posture_Sitting,1,R_ESI,45.59918929233332,total,1
BMu67,33,P,REL,Posture_Sitting,1,R_ESI,47.32800388116507,start,1
BMu67,33,P,REL,Posture_Sitting,1,R_ESI,45.381438726781425,end,1
BMu67,34,P,INI,Posture_Sitting,1,L_ESI,18.311810874907568,total,1
BMu67,34,P,INI,Posture_Sitting,1,L_ESI,17.989710034192274,start,1
BMu67,34,P,INI,Posture_Sitting,1,L_ESI,18.008237058267742,end,1
BMu67,34,P,INI,Posture_Sitting,1,R_ESI,21.521018999148076,total,1
BMu67,34,P,INI,Posture_Sitting,1,R_ESI,21.800708066781137,start,1
BMu67,34,P,INI,Posture_Sitting,1,R_ESI,21.123988451605836,end,1
BMu67,34,P,REL,Posture_Sitting,1,L_ESI,19.224887869740144,total,1
BMu67,34,P,REL,Posture_Sitting,1,L_ESI,19.263467089425216,start,1
BMu67,34,P,REL,Posture_Sitting,1,L_ESI,19.1004551983941,end,1
BMu67,34,P,REL,Posture_Sitting,1,R_ESI,94.52998750770698,total,1
BMu67,34,P,REL,Posture_Sitting,1,R_ESI,101.13783551418157,start,1
BMu67,34,P,REL,Posture_Sitting,1,R_ESI,88.15840602051799,end,1
BMu67,35,C,INI,Posture_Sitting,1,L_ESI,12.22247764486388,total,1
BMu67,35,C,INI,Posture_Sitting,1,L_ESI,12.894287390694702,start,1
BMu67,35,C,INI,Posture_Sitting,1,L_ESI,11.922838435144918,end,1
BMu67,35,C,INI,Posture_Sitting,1,R_ESI,10.697606617357753,total,1
BMu67,35,C,INI,Posture_Sitting,1,R_ESI,10.668467507958221,start,1
BMu67,35,C,INI,Posture_Sitting,1,R_ESI,10.603313300405336,end,1
BMu67,35,C,REL,Posture_Sitting,1,L_ESI,11.019867470021689,total,1
BMu67,35,C,REL,Posture_Sitting,1,L_ESI,11.526026032025719,start,1
BMu67,35,C,REL,Posture_Sitting,1,L_ESI,10.83457912102793,end,1
BMu67,35,C,REL,Posture_Sitting,1,R_ESI,14.82861881471266,total,1
BMu67,35,C,REL,Posture_Sitting,1,R_ESI,15.454645530936372,start,1
BMu67,35,C,REL,Posture_Sitting,1,R_ESI,14.476384951385343,end,1
BMu67,36,P,INI,Posture_Sitting,1,L_ESI,8.459207659770762,total,1
BMu67,36,P,INI,Posture_Sitting,1,L_ESI,8.825541971778899,start,1
BMu67,36,P,INI,Posture_Sitting,1,L_ESI,8.388590303798443,end,1
BMu67,36,P,INI,Posture_Sitting,1,R_ESI,5.197476233242674,total,1
BMu67,36,P,INI,Posture_Sitting,1,R_ESI,5.4421093291645795,start,1
BMu67,36,P,INI,Posture_Sitting,1,R_ESI,5.162496704312299,end,1
BMu67,36,P,REL,Posture_Sitting,1,L_ESI,7.065144800893226,total,1
BMu67,36,P,REL,Posture_Sitting,1,L_ESI,7.121115651571475,start,1
BMu67,36,P,REL,Posture_Sitting,1,L_ESI,7.0299356294649336,end,1
BMu67,36,P,REL,Posture_Sitting,1,R_ESI,4.161106645693451,total,1
BMu67,36,P,REL,Posture_Sitting,1,R_ESI,4.175206128828369,start,1
BMu67,36,P,REL,Posture_Sitting,1,R_ESI,4.124812413980333,end,1
BMu67,38,C,INI,Posture_Sitting,1,L_ESI,18.962954388277836,total,1
BMu67,38,C,INI,Posture_Sitting,1,L_ESI,19.29920720472469,start,1
BMu67,38,C,INI,Posture_Sitting,1,L_ESI,19.359143177257668,end,1
BMu67,38,C,INI,Posture_Sitting,1,R_ESI,28.188638394813296,total,1
BMu67,38,C,INI,Posture_Sitting,1,R_ESI,28.367605470815995,start,1
BMu67,38,C,INI,Posture_Sitting,1,R_ESI,27.812838586855285,end,1
BMu67,38,C,REL,Posture_Sitting,1,L_ESI,19.635944889567472,total,1
BMu67,38,C,REL,Posture_Sitting,1,L_ESI,19.740622438759484,start,1
BMu67,38,C,REL,Posture_Sitting,1,L_ESI,19.202164345779817,end,1
BMu67,38,C,REL,Posture_Sitting,1,R_ESI,25.206081633200483,total,1
BMu67,38,C,REL,Posture_Sitting,1,R_ESI,26.66227334921747,start,1
BMu67,38,C,REL,Posture_Sitting,1,R_ESI,25.05257769812509,end,1
BMu67,39,C,INI,Posture_Sitting,1,L_ESI,12.193656294094309,total,1
BMu67,39,C,INI,Posture_Sitting,1,L_ESI,13.119006175352146,start,1
BMu67,39,C,INI,Posture_Sitting,1,L_ESI,11.855442651140859,end,1
BMu67,39,C,INI,Posture_Sitting,1,R_ESI,7.585764805300615,total,1
BMu67,39,C,INI,Posture_Sitting,1,R_ESI,7.838006915204636,start,1
BMu67,39,C,INI,Posture_Sitting,1,R_ESI,7.428554775488488,end,1
BMu67,39,C,REL,Posture_Sitting,1,L_ESI,12.958490410321152,total,1
BMu67,39,C,REL,Posture_Sitting,1,L_ESI,12.981869322256616,start,1
BMu67,39,C,REL,Posture_Sitting,1,L_ESI,12.929506862474108,end,1
BMu67,39,C,REL,Posture_Sitting,1,R_ESI,10.453029977320842,total,1
BMu67,39,C,REL,Posture_Sitting,1,R_ESI,10.549354791312291,start,1
BMu67,39,C,REL,Posture_Sitting,1,R_ESI,10.191379809827538,end,1
BMu67,40,C,INI,Posture_Sitting,1,L_ESI,17.26291211168108,total,1
BMu67,40,C,INI,Posture_Sitting,1,L_ESI,17.155840242832,start,1
BMu67,40,C,INI,Posture_Sitting,1,L_ESI,17.298888552352214,end,1
BMu67,40,C,INI,Posture_Sitting,1,R_ESI,13.816871081560954,total,1
BMu67,40,C,INI,Posture_Sitting,1,R_ESI,14.557562300035324,start,1
BMu67,40,C,INI,Posture_Sitting,1,R_ESI,13.40855411337332,end,1
BMu67,40,C,REL,Posture_Sitting,1,L_ESI,8.422060438213064,total,1
BMu67,40,C,REL,Posture_Sitting,1,L_ESI,9.48909916613711,start,1
BMu67,40,C,REL,Posture_Sitting,1,L_ESI,7.214363334979191,end,1
BMu67,40,C,REL,Posture_Sitting,1,R_ESI,9.928580690449836,total,1
BMu67,40,C,REL,Posture_Sitting,1,R_ESI,11.609543311063641,start,1
BMu67,40,C,REL,Posture_Sitting,1,R_ESI,8.2080539572911,end,1
BMu67,41,P,INI,Posture_Sitting,1,L_ESI,17.01585862949703,total,1
BMu67,41,P,INI,Posture_Sitting,1,L_ESI,16.79814081379249,start,1
BMu67,41,P,INI,Posture_Sitting,1,L_ESI,17.26110483471866,end,1
BMu67,41,P,INI,Posture_Sitting,1,R_ESI,25.24275125728681,total,1
BMu67,41,P,INI,Posture_Sitting,1,R_ESI,24.80989501776914,start,1
BMu67,41,P,INI,Posture_Sitting,1,R_ESI,25.600236150162882,end,1
BMu67,41,P,REL,Posture_Sitting,1,L_ESI,11.141477121095095,total,1
BMu67,41,P,REL,Posture_Sitting,1,L_ESI,11.063387419732436,start,1
BMu67,41,P,REL,Posture_Sitting,1,L_ESI,10.80696396683689,end,1
BMu67,41,P,REL,Posture_Sitting,1,R_ESI,15.782074059405234,total,1
BMu67,41,P,REL,Posture_Sitting,1,R_ESI,15.804521238616525,start,1
BMu67,41,P,REL,Posture_Sitting,1,R_ESI,15.123801907917052,end,1
BMu67,42,P,INI,Posture_Sitting,1,L_ESI,20.231510688852378,total,1
BMu67,42,P,INI,Posture_Sitting,1,L_ESI,20.851744427024414,start,1
BMu67,42,P,INI,Posture_Sitting,1,L_ESI,20.090502253671698,end,1
BMu67,42,P,INI,Posture_Sitting,1,R_ESI,15.862141773426005,total,1
BMu67,42,P,INI,Posture_Sitting,1,R_ESI,16.237894312151532,start,1
BMu67,42,P,INI,Posture_Sitting,1,R_ESI,15.714908131378206,end,1
BMu67,42,P,REL,Posture_Sitting,1,L_ESI,21.78618249526257,total,1
BMu67,42,P,REL,Posture_Sitting,1,L_ESI,21.84739604560088,start,1
BMu67,42,P,REL,Posture_Sitting,1,L_ESI,21.630300562791305,end,1
BMu67,42,P,REL,Posture_Sitting,1,R_ESI,15.139523797528486,total,1
BMu67,42,P,REL,Posture_Sitting,1,R_ESI,14.955153250413165,start,1
BMu67,42,P,REL,Posture_Sitting,1,R_ESI,15.401062162372037,end,1
BMu67,43,P,INI,Posture_Sitting,1,L_ESI,9.304021864681088,total,1
BMu67,43,P,INI,Posture_Sitting,1,L_ESI,9.361250530590196,start,1
BMu67,43,P,INI,Posture_Sitting,1,L_ESI,8.9679607761714,end,1
BMu67,43,P,INI,Posture_Sitting,1,R_ESI,17.603990363805053,total,1
BMu67,43,P,INI,Posture_Sitting,1,R_ESI,18.55340640372287,start,1
BMu67,43,P,INI,Posture_Sitting,1,R_ESI,17.493997798960667,end,1
BMu67,43,P,REL,Posture_Sitting,1,L_ESI,8.09063595154224,total,1
BMu67,43,P,REL,Posture_Sitting,1,L_ESI,8.417888261089017,start,1
BMu67,43,P,REL,Posture_Sitting,1,L_ESI,7.739134723317139,end,1
BMu67,43,P,REL,Posture_Sitting,1,R_ESI,9.498342688443136,total,1
BMu67,43,P,REL,Posture_Sitting,1,R_ESI,9.961346564215653,start,1
BMu67,43,P,REL,Posture_Sitting,1,R_ESI,9.236590612666408,end,1
BMu67,44,C,INI,Posture_Sitting,1,L_ESI,23.061149920505613,total,1
BMu67,44,C,INI,Posture_Sitting,1,L_ESI,18.200834360367473,start,1
BMu67,44,C,INI,Posture_Sitting,1,L_ESI,30.800704908147864,end,1
BMu67,44,C,INI,Posture_Sitting,1,R_ESI,9.43536969889431,total,1
BMu67,44,C,INI,Posture_Sitting,1,R_ESI,9.471794765792058,start,1
BMu67,44,C,INI,Posture_Sitting,1,R_ESI,9.332545593975096,end,1
BMu67,44,C,REL,Posture_Sitting,1,L_ESI,8.095675242394755,total,1
BMu67,44,C,REL,Posture_Sitting,1,L_ESI,8.097011482538216,start,1
BMu67,44,C,REL,Posture_Sitting,1,L_ESI,8.1731676391709,end,1
BMu67,44,C,REL,Posture_Sitting,1,R_ESI,8.695696731244139,total,1
BMu67,44,C,REL,Posture_Sitting,1,R_ESI,8.56812968375072,start,1
BMu67,44,C,REL,Posture_Sitting,1,R_ESI,8.731111103157955,end,1
BMu67,45,P,INI,Posture_Sitting,1,L_ESI,13.933212825520801,total,1
BMu67,45,P,INI,Posture_Sitting,1,L_ESI,13.807666279277546,start,1
BMu67,45,P,INI,Posture_Sitting,1,L_ESI,14.69273472438275,end,1
BMu67,45,P,INI,Posture_Sitting,1,R_ESI,13.682159036633541,total,1
BMu67,45,P,INI,Posture_Sitting,1,R_ESI,14.289574657053695,start,1
BMu67,45,P,INI,Posture_Sitting,1,R_ESI,13.900945359211784,end,1
BMu67,45,P,REL,Posture_Sitting,1,L_ESI,13.423142540851787,total,1
BMu67,45,P,REL,Posture_Sitting,1,L_ESI,14.08779879850023,start,1
BMu67,45,P,REL,Posture_Sitting,1,L_ESI,13.471421659651117,end,1
BMu67,45,P,REL,Posture_Sitting,1,R_ESI,18.691032566782116,total,1
BMu67,45,P,REL,Posture_Sitting,1,R_ESI,17.69101886466888,start,1
BMu67,45,P,REL,Posture_Sitting,1,R_ESI,19.88691110286185,end,1
BMu67,46,C,INI,Posture_Sitting,1,L_ESI,10.800018877396116,total,1
BMu67,46,C,INI,Posture_Sitting,1,L_ESI,10.839157498863468,start,1
BMu67,46,C,INI,Posture_Sitting,1,L_ESI,10.863240140638563,end,1
BMu67,46,C,INI,Posture_Sitting,1,R_ESI,14.412083012625137,total,1
BMu67,46,C,INI,Posture_Sitting,1,R_ESI,14.574087953449375,start,1
BMu67,46,C,INI,Posture_Sitting,1,R_ESI,14.428558554016252,end,1
BMu67,46,C,REL,Posture_Sitting,1,L_ESI,7.715656633200282,total,1
BMu67,46,C,REL,Posture_Sitting,1,L_ESI,7.948407573191177,start,1
BMu67,46,C,REL,Posture_Sitting,1,L_ESI,7.672503189716605,end,1
BMu67,46,C,REL,Posture_Sitting,1,R_ESI,7.8815160758158,total,1
BMu67,46,C,REL,Posture_Sitting,1,R_ESI,7.959862781279813,start,1
BMu67,46,C,REL,Posture_Sitting,1,R_ESI,7.806810818463815,end,1
BMu67,47,P,INI,Posture_Sitting,1,L_ESI,19.744657079395274,total,1
BMu67,47,P,INI,Posture_Sitting,1,L_ESI,20.329722441432743,start,1
BMu67,47,P,INI,Posture_Sitting,1,L_ESI,20.562132520830914,end,1
BMu67,47,P,INI,Posture_Sitting,1,R_ESI,43.05402657545154,total,1
BMu67,47,P,INI,Posture_Sitting,1,R_ESI,47.09550290861889,start,1
BMu67,47,P,INI,Posture_Sitting,1,R_ESI,42.120498452860396,end,1
BMu67,47,P,REL,Posture_Sitting,1,L_ESI,15.602067333983777,total,1
BMu67,47,P,REL,Posture_Sitting,1,L_ESI,15.886009562245144,start,1
BMu67,47,P,REL,Posture_Sitting,1,L_ESI,15.7380148802234,end,1
BMu67,47,P,REL,Posture_Sitting,1,R_ESI,26.09346095512932,total,1
BMu67,47,P,REL,Posture_Sitting,1,R_ESI,27.400324805517094,start,1
BMu67,47,P,REL,Posture_Sitting,1,R_ESI,26.359427701179214,end,1
BMu67,48,C,INI,Posture_Sitting,1,L_ESI,7.927981529787749,total,1
BMu67,48,C,INI,Posture_Sitting,1,L_ESI,7.908724000278411,start,1
BMu67,48,C,INI,Posture_Sitting,1,L_ESI,7.916304214969772,end,1
BMu67,48,C,INI,Posture_Sitting,1,R_ESI,10.214385306738842,total,1
BMu67,48,C,INI,Posture_Sitting,1,R_ESI,10.581169138354127,start,1
BMu67,48,C,INI,Posture_Sitting,1,R_ESI,9.964378199354217,end,1
BMu67,48,C,REL,Posture_Sitting,1,L_ESI,10.238197393641926,total,1
BMu67,48,C,REL,Posture_Sitting,1,L_ESI,10.557308372508164,start,1
BMu67,48,C,REL,Posture_Sitting,1,L_ESI,10.029726620785885,end,1
BMu67,48,C,REL,Posture_Sitting,1,R_ESI,8.973127925915215,total,1
BMu67,48,C,REL,Posture_Sitting,1,R_ESI,9.637156595520407,start,1
BMu67,48,C,REL,Posture_Sitting,1,R_ESI,8.590756450142004,end,1
BMu67,49,C,INI,Posture_Sitting,1,L_ESI,18.649314469246693,total,1
BMu67,49,C,INI,Posture_Sitting,1,L_ESI,19.15479628690012,start,1
BMu67,49,C,INI,Posture_Sitting,1,L_ESI,18.57783498219421,end,1
BMu67,49,C,INI,Posture_Sitting,1,R_ESI,15.882508787512949,total,1
BMu67,49,C,INI,Posture_Sitting,1,R_ESI,15.83065282837761,start,1
BMu67,49,C,INI,Posture_Sitting,1,R_ESI,16.027540180871025,end,1
BMu67,49,C,REL,Posture_Sitting,1,L_ESI,3.6476534020472346,total,1
BMu67,49,C,REL,Posture_Sitting,1,L_ESI,3.778935964810792,start,1
BMu67,49,C,REL,Posture_Sitting,1,L_ESI,3.6121780369119003,end,1
BMu67,49,C,REL,Posture_Sitting,1,R_ESI,23.055503412424383,total,1
BMu67,49,C,REL,Posture_Sitting,1,R_ESI,23.584661128857597,start,1
BMu67,49,C,REL,Posture_Sitting,1,R_ESI,22.909693832678077,end,1
BMu67,50,P,INI,Posture_Sitting,1,L_ESI,16.64683347933139,total,1
BMu67,50,P,INI,Posture_Sitting,1,L_ESI,17.170545579860388,start,1
BMu67,50,P,INI,Posture_Sitting,1,L_ESI,16.541759223710407,end,1
BMu67,50,P,INI,Posture_Sitting,1,R_ESI,24.96281619893411,total,1
BMu67,50,P,INI,Posture_Sitting,1,R_ESI,25.53846309235054,start,1
BMu67,50,P,INI,Posture_Sitting,1,R_ESI,24.29044716802246,end,1
BMu67,50,P,REL,Posture_Sitting,1,L_ESI,19.30137608181782,total,1
BMu67,50,P,REL,Posture_Sitting,1,L_ESI,18.768914394811357,start,1
BMu67,50,P,REL,Posture_Sitting,1,L_ESI,19.5774481668613,end,1
BMu67,50,P,REL,Posture_Sitting,1,R_ESI,21.389469890405884,total,1
BMu67,50,P,REL,Posture_Sitting,1,R_ESI,21.863464000925198,start,1
BMu67,50,P,REL,Posture_Sitting,1,R_ESI,21.200175767102543,end,1
BMu67,51,P,INI,Posture_Sitting,1,L_ESI,9.763218771256662,total,1
BMu67,51,P,INI,Posture_Sitting,1,L_ESI,10.021737249446156,start,1
BMu67,51,P,INI,Posture_Sitting,1,L_ESI,9.52665989821167,end,1
BMu67,51,P,INI,Posture_Sitting,1,R_ESI,19.04960964201104,total,1
BMu67,51,P,INI,Posture_Sitting,1,R_ESI,19.4454818041682,start,1
BMu67,51,P,INI,Posture_Sitting,1,R_ESI,18.748723005488923,end,1
BMu67,51,P,REL,Posture_Sitting,1,L_ESI,6.658773832243942,total,1
BMu67,51,P,REL,Posture_Sitting,1,L_ESI,6.989759232932095,start,1
BMu67,51,P,REL,Posture_Sitting,1,L_ESI,6.572193614407762,end,1
BMu67,51,P,REL,Posture_Sitting,1,R_ESI,14.633047530154345,total,1
BMu67,51,P,REL,Posture_Sitting,1,R_ESI,14.813609085173445,start,1
BMu67,51,P,REL,Posture_Sitting,1,R_ESI,14.285454262049853,end,1
BMu67,52,C,INI,Posture_Sitting,1,L_ESI,3.321494430332743,total,1
BMu67,52,C,INI,Posture_Sitting,1,L_ESI,3.4690826929824254,start,1
BMu67,52,C,INI,Posture_Sitting,1,L_ESI,3.304027226479191,end,1
BMu67,52,C,INI,Posture_Sitting,1,R_ESI,12.714060157206054,total,1
BMu67,52,C,INI,Posture_Sitting,1,R_ESI,13.019279983394803,start,1
BMu67,52,C,INI,Posture_Sitting,1,R_ESI,12.503321243004578,end,1
BMu67,52,C,REL,Posture_Sitting,1,L_ESI,5.256981778479402,total,1
BMu67,52,C,REL,Posture_Sitting,1,L_ESI,5.526716754341509,start,1
BMu67,52,C,REL,Posture_Sitting,1,L_ESI,5.239272437058893,end,1
BMu67,52,C,REL,Posture_Sitting,1,R_ESI,16.746337161478113,total,1
BMu67,52,C,REL,Posture_Sitting,1,R_ESI,17.997385284804196,start,1
BMu67,52,C,REL,Posture_Sitting,1,R_ESI,15.772708491751299,end,1
BMu67,53,P,INI,Posture_Sitting,1,L_ESI,9.149316098695193,total,1
BMu67,53,P,INI,Posture_Sitting,1,L_ESI,9.551969316088167,start,1
BMu67,53,P,INI,Posture_Sitting,1,L_ESI,8.991733531844645,end,1
BMu67,53,P,INI,Posture_Sitting,1,R_ESI,15.400972425690963,total,1
BMu67,53,P,INI,Posture_Sitting,1,R_ESI,15.640264764847055,start,1
BMu67,53,P,INI,Posture_Sitting,1,R_ESI,15.514196623340906,end,1
BMu67,53,P,REL,Posture_Sitting,1,L_ESI,10.657254037241568,total,1
BMu67,53,P,REL,Posture_Sitting,1,L_ESI,10.958558064066969,start,1
BMu67,53,P,REL,Posture_Sitting,1,L_ESI,10.351564963048265,end,1
BMu67,53,P,REL,Posture_Sitting,1,R_ESI,12.342872626576646,total,1
BMu67,53,P,REL,Posture_Sitting,1,R_ESI,12.38587267514231,start,1
BMu67,53,P,REL,Posture_Sitting,1,R_ESI,12.561121876168338,end,1
BMu67,54,P,INI,Posture_Sitting,1,L_ESI,37.46292280349648,total,1
BMu67,54,P,INI,Posture_Sitting,1,L_ESI,37.792137880593934,start,1
BMu67,54,P,INI,Posture_Sitting,1,L_ESI,37.90513878974385,end,1
BMu67,54,P,INI,Posture_Sitting,1,R_ESI,31.26747816913621,total,1
BMu67,54,P,INI,Posture_Sitting,1,R_ESI,31.497492308959494,start,1
BMu67,54,P,INI,Posture_Sitting,1,R_ESI,31.363574529859353,end,1
BMu67,54,P,REL,Posture_Sitting,1,L_ESI,36.041500633928294,total,1
BMu67,54,P,REL,Posture_Sitting,1,L_ESI,35.50717668470995,start,1
BMu67,54,P,REL,Posture_Sitting,1,L_ESI,36.49908136627732,end,1
BMu67,54,P,REL,Posture_Sitting,1,R_ESI,33.01174227042322,total,1
BMu67,54,P,REL,Posture_Sitting,1,R_ESI,33.21206845427389,start,1
BMu67,54,P,REL,Posture_Sitting,1,R_ESI,32.72840757864751,end,1
BMu67,55,C,INI,Posture_Sitting,1,L_ESI,11.411254634393858,total,1
BMu67,55,C,INI,Posture_Sitting,1,L_ESI,11.85252432831903,start,1
BMu67,55,C,INI,Posture_Sitting,1,L_ESI,11.474446575539394,end,1
BMu67,55,C,INI,Posture_Sitting,1,R_ESI,14.115232176899962,total,1
BMu67,55,C,INI,Posture_Sitting,1,R_ESI,15.281837561608762,start,1
BMu67,55,C,INI,Posture_Sitting,1,R_ESI,13.962413206214158,end,1
BMu67,55,C,REL,Posture_Sitting,1,L_ESI,7.292436351468821,total,1
BMu67,55,C,REL,Posture_Sitting,1,L_ESI,7.609003993772434,start,1
BMu67,55,C,REL,Posture_Sitting,1,L_ESI,7.251178936805999,end,1
BMu67,55,C,REL,Posture_Sitting,1,R_ESI,13.93838347021931,total,1
BMu67,55,C,REL,Posture_Sitting,1,R_ESI,14.185878615571916,start,1
BMu67,55,C,REL,Posture_Sitting,1,R_ESI,14.130059870201116,end,1
BMu67,56,C,INI,Posture_Sitting,1,L_ESI,12.00647904744144,total,1
BMu67,56,C,INI,Posture_Sitting,1,L_ESI,11.98800411340164,start,1
BMu67,56,C,INI,Posture_Sitting,1,L_ESI,11.934483143566561,end,1
BMu67,56,C,INI,Posture_Sitting,1,R_ESI,6.3577006688652276,total,1
BMu67,56,C,INI,Posture_Sitting,1,R_ESI,6.530874604507895,start,1
BMu67,56,C,INI,Posture_Sitting,1,R_ESI,6.417360195232172,end,1
BMu67,56,C,REL,Posture_Sitting,1,L_ESI,13.37702233412474,total,1
BMu67,56,C,REL,Posture_Sitting,1,L_ESI,13.678493862419963,start,1
BMu67,56,C,REL,Posture_Sitting,1,L_ESI,12.914014536073035,end,1
BMu67,56,C,REL,Posture_Sitting,1,R_ESI,22.732259416651655,total,1
BMu67,56,C,REL,Posture_Sitting,1,R_ESI,22.843390697856233,start,1
BMu67,56,C,REL,Posture_Sitting,1,R_ESI,22.618749550493057,end,1
BMu67,57,C,INI,Posture_Sitting,1,L_ESI,6.811736864528121,total,1
BMu67,57,C,INI,Posture_Sitting,1,L_ESI,7.035952566351453,start,1
BMu67,57,C,INI,Posture_Sitting,1,L_ESI,6.773174972844551,end,1
BMu67,57,C,INI,Posture_Sitting,1,R_ESI,8.498928488419043,total,1
BMu67,57,C,INI,Posture_Sitting,1,R_ESI,8.760007445420332,start,1
BMu67,57,C,INI,Posture_Sitting,1,R_ESI,8.354716733835751,end,1
BMu67,57,C,REL,Posture_Sitting,1,L_ESI,12.96478271567066,total,1
BMu67,57,C,REL,Posture_Sitting,1,L_ESI,13.26169719940508,start,1
BMu67,57,C,REL,Posture_Sitting,1,L_ESI,13.09276427068379,end,1
BMu67,57,C,REL,Posture_Sitting,1,R_ESI,16.668820453454238,total,1
BMu67,57,C,REL,Posture_Sitting,1,R_ESI,17.066116617227756,start,1
BMu67,57,C,REL,Posture_Sitting,1,R_ESI,16.952101105571494,end,1
BMu67,58,P,INI,Posture_Sitting,1,L_ESI,22.72596563302534,total,1
BMu67,58,P,INI,Posture_Sitting,1,L_ESI,23.691214051853926,start,1
BMu67,58,P,INI,Posture_Sitting,1,L_ESI,22.583282307771835,end,1
BMu67,58,P,INI,Posture_Sitting,1,R_ESI,13.846547575420283,total,1
BMu67,58,P,INI,Posture_Sitting,1,R_ESI,14.265702530018915,start,1
BMu67,58,P,INI,Posture_Sitting,1,R_ESI,13.830395870902215,end,1
BMu67,58,P,REL,Posture_Sitting,1,L_ESI,15.917120186169969,total,1
BMu67,58,P,REL,Posture_Sitting,1,L_ESI,17.64605820761935,start,1
BMu67,58,P,REL,Posture_Sitting,1,L_ESI,15.086700244296324,end,1
BMu67,58,P,REL,Posture_Sitting,1,R_ESI,10.670278409820973,total,1
BMu67,58,P,REL,Posture_Sitting,1,R_ESI,11.211853011154854,start,1
BMu67,58,P,REL,Posture_Sitting,1,R_ESI,10.258805600483987,end,1
BMu67,60,C,INI,Posture_Sitting,1,L_ESI,5.023452266372879,total,1
BMu67,60,C,INI,Posture_Sitting,1,L_ESI,5.089256950593806,start,1
BMu67,60,C,INI,Posture_Sitting,1,L_ESI,4.945036273111638,end,1
BMu67,60,C,INI,Posture_Sitting,1,R_ESI,7.063431439778068,total,1
BMu67,60,C,INI,Posture_Sitting,1,R_ESI,7.4238818300839515,start,1
BMu67,60,C,INI,Posture_Sitting,1,R_ESI,6.910405621702189,end,1
BMu67,60,C,REL,Posture_Sitting,1,L_ESI,11.855623212789405,total,1
BMu67,60,C,REL,Posture_Sitting,1,L_ESI,12.088416818873403,start,1
BMu67,60,C,REL,Posture_Sitting,1,L_ESI,12.050315592566237,end,1
BMu67,60,C,REL,Posture_Sitting,1,R_ESI,12.062709694537919,total,1
BMu67,60,C,REL,Posture_Sitting,1,R_ESI,12.036458209960427,start,1
BMu67,60,C,REL,Posture_Sitting,1,R_ESI,12.3187796522229,end,1
BMu67,61,P,REL,Posture_Sitting,1,L_ESI,10.720817827255935,total,1
BMu67,61,P,REL,Posture_Sitting,1,L_ESI,10.566374104701135,start,1
BMu67,61,P,REL,Posture_Sitting,1,L_ESI,11.528621024928041,end,1
BMu67,61,P,REL,Posture_Sitting,1,R_ESI,4.0841782267721,total,1
BMu67,61,P,REL,Posture_Sitting,1,R_ESI,4.169424969068429,start,1
BMu67,61,P,REL,Posture_Sitting,1,R_ESI,4.152003002950568,end,1
BMu67,62,P,INI,Posture_Sitting,1,L_ESI,6.30889253859818,total,1
BMu67,62,P,INI,Posture_Sitting,1,L_ESI,6.314224783651891,start,1
BMu67,62,P,INI,Posture_Sitting,1,L_ESI,6.432136873435705,end,1
BMu67,62,P,INI,Posture_Sitting,1,R_ESI,10.996570547131393,total,1
BMu67,62,P,INI,Posture_Sitting,1,R_ESI,11.182398252494902,start,1
BMu67,62,P,INI,Posture_Sitting,1,R_ESI,11.078583160743287,end,1
BMu67,62,P,REL,Posture_Sitting,1,L_ESI,12.386211504523178,total,1
BMu67,62,P,REL,Posture_Sitting,1,L_ESI,12.677888939050177,start,1
BMu67,62,P,REL,Posture_Sitting,1,L_ESI,12.187286942308898,end,1
BMu67,62,P,REL,Posture_Sitting,1,R_ESI,7.590457191718357,total,1
BMu67,62,P,REL,Posture_Sitting,1,R_ESI,8.030923835464112,start,1
BMu67,62,P,REL,Posture_Sitting,1,R_ESI,7.394960266096532,end,1
BMu67,63,P,INI,Posture_Sitting,1,L_ESI,9.610673249171619,total,1
BMu67,63,P,INI,Posture_Sitting,1,L_ESI,10.88051830252247,start,1
BMu67,63,P,INI,Posture_Sitting,1,L_ESI,8.345111740375017,end,1
BMu67,63,P,INI,Posture_Sitting,1,R_ESI,18.337093834843774,total,1
BMu67,63,P,INI,Posture_Sitting,1,R_ESI,21.74432425371781,start,1
BMu67,63,P,INI,Posture_Sitting,1,R_ESI,14.62357207260419,end,1
BMu67,63,P,REL,Posture_Sitting,1,L_ESI,12.967344586492121,total,1
BMu67,63,P,REL,Posture_Sitting,1,L_ESI,13.106050753211939,start,1
BMu67,63,P,REL,Posture_Sitting,1,L_ESI,11.468572173084128,end,1
BMu67,63,P,REL,Posture_Sitting,1,R_ESI,15.087848794456383,total,1
BMu67,63,P,REL,Posture_Sitting,1,R_ESI,15.611006641798896,start,1
BMu67,63,P,REL,Posture_Sitting,1,R_ESI,13.938138429756666,end,1
BMu67,64,C,INI,Posture_Sitting,1,L_ESI,6.387540542958752,total,1
BMu67,64,C,INI,Posture_Sitting,1,L_ESI,6.494412137711144,start,1
BMu67,64,C,INI,Posture_Sitting,1,L_ESI,6.558367184570936,end,1
BMu67,64,C,INI,Posture_Sitting,1,R_ESI,6.386400631901988,total,1
BMu67,64,C,INI,Posture_Sitting,1,R_ESI,6.490433169905262,start,1
BMu67,64,C,INI,Posture_Sitting,1,R_ESI,6.478913604737357,end,1
BMu67,64,C,REL,Posture_Sitting,1,L_ESI,4.979804039576512,total,1
BMu67,64,C,REL,Posture_Sitting,1,L_ESI,5.063391383194408,start,1
BMu67,64,C,REL,Posture_Sitting,1,L_ESI,4.958720203181264,end,1
BMu67,64,C,REL,Posture_Sitting,1,R_ESI,8.046190953857195,total,1
BMu67,64,C,REL,Posture_Sitting,1,R_ESI,8.495540614902716,start,1
BMu67,64,C,REL,Posture_Sitting,1,R_ESI,7.863887882139947,end,1
BMu67,65,P,INI,Posture_Sitting,1,L_ESI,19.592305746914473,total,1
BMu67,65,P,INI,Posture_Sitting,1,L_ESI,17.82409445453227,start,1
BMu67,65,P,INI,Posture_Sitting,1,L_ESI,20.395247234377006,end,1
BMu67,65,P,INI,Posture_Sitting,1,R_ESI,18.251970721441857,total,1
BMu67,65,P,INI,Posture_Sitting,1,R_ESI,17.677269135906187,start,1
BMu67,65,P,INI,Posture_Sitting,1,R_ESI,18.287942509602452,end,1
BMu67,65,P,REL,Posture_Sitting,1,L_ESI,20.860331759595848,total,1
BMu67,65,P,REL,Posture_Sitting,1,L_ESI,21.629096245669846,start,1
BMu67,65,P,REL,Posture_Sitting,1,L_ESI,20.67162137825875,end,1
BMu67,65,P,REL,Posture_Sitting,1,R_ESI,20.32405949358298,total,1
BMu67,65,P,REL,Posture_Sitting,1,R_ESI,20.62326167797527,start,1
BMu67,65,P,REL,Posture_Sitting,1,R_ESI,19.935054236217873,end,1
BMu67,66,C,INI,Posture_Sitting,1,L_ESI,11.835905232819664,total,1
BMu67,66,C,INI,Posture_Sitting,1,L_ESI,11.938151208629508,start,1
BMu67,66,C,INI,Posture_Sitting,1,L_ESI,11.928988654554045,end,1
BMu67,66,C,INI,Posture_Sitting,1,R_ESI,15.182183338294251,total,1
BMu67,66,C,INI,Posture_Sitting,1,R_ESI,15.147117782884974,start,1
BMu67,66,C,INI,Posture_Sitting,1,R_ESI,14.885102566924544,end,1
BMu67,66,C,REL,Posture_Sitting,1,L_ESI,19.75338044858276,total,1
BMu67,66,C,REL,Posture_Sitting,1,L_ESI,21.230414822895927,start,1
BMu67,66,C,REL,Posture_Sitting,1,L_ESI,19.793597014445798,end,1
BMu67,66,C,REL,Posture_Sitting,1,R_ESI,26.19971000244566,total,1
BMu67,66,C,REL,Posture_Sitting,1,R_ESI,27.002187549685516,start,1
BMu67,66,C,REL,Posture_Sitting,1,R_ESI,26.66480774380301,end,1
BMu67,67,C,INI,Posture_Sitting,1,L_ESI,6.546650792203834,total,1
BMu67,67,C,INI,Posture_Sitting,1,L_ESI,6.722042625381689,start,1
BMu67,67,C,INI,Posture_Sitting,1,L_ESI,6.467042459819735,end,1
BMu67,67,C,INI,Posture_Sitting,1,R_ESI,21.45551901790743,total,1
BMu67,67,C,INI,Posture_Sitting,1,R_ESI,23.23669417052379,start,1
BMu67,67,C,INI,Posture_Sitting,1,R_ESI,19.947870530158163,end,1
BMu67,67,C,REL,Posture_Sitting,1,L_ESI,3.9404055962609537,total,1
BMu67,67,C,REL,Posture_Sitting,1,L_ESI,4.558961381761375,start,1
BMu67,67,C,REL,Posture_Sitting,1,L_ESI,3.8582637262247794,end,1
BMu67,67,C,REL,Posture_Sitting,1,R_ESI,9.036022161313307,total,1
BMu67,67,C,REL,Posture_Sitting,1,R_ESI,9.485779786331257,start,1
BMu67,67,C,REL,Posture_Sitting,1,R_ESI,8.850742019531395,end,1
BMu67,68,C,INI,Posture_Sitting,1,L_ESI,13.048571618199174,total,1
BMu67,68,C,INI,Posture_Sitting,1,L_ESI,13.358611645422547,start,1
BMu67,68,C,INI,Posture_Sitting,1,L_ESI,12.709466015432474,end,1
BMu67,68,C,INI,Posture_Sitting,1,R_ESI,17.241901037624043,total,1
BMu67,68,C,INI,Posture_Sitting,1,R_ESI,17.39175445407659,start,1
BMu67,68,C,INI,Posture_Sitting,1,R_ESI,18.221500203325963,end,1
BMu67,68,C,REL,Posture_Sitting,1,L_ESI,13.962492576633137,total,1
BMu67,68,C,REL,Posture_Sitting,1,L_ESI,13.966590361960744,start,1
BMu67,68,C,REL,Posture_Sitting,1,L_ESI,13.727936072914604,end,1
BMu67,68,C,REL,Posture_Sitting,1,R_ESI,16.517778820398167,total,1
BMu67,68,C,REL,Posture_Sitting,1,R_ESI,16.518145422879073,start,1
BMu67,68,C,REL,Posture_Sitting,1,R_ESI,16.456105710125204,end,1
