BMu,subject,P_C,session,task,trials,channel,value,event,rep
BMu67,1,C,INI,Posture_Sitting,1,L_ESI,24.36017988560755,total,1
BMu67,1,C,INI,Posture_Sitting,1,L_ESI,24.588032576053163,start,1
BMu67,1,C,INI,Posture_Sitting,1,L_ESI,24.036029829029484,end,1
BMu67,1,C,INI,Posture_Sitting,1,R_ESI,27.05519649878178,total,1
BMu67,1,C,INI,Posture_Sitting,1,R_ESI,27.792008890547812,start,1
BMu67,1,C,INI,Posture_Sitting,1,R_ESI,26.099153700057165,end,1
BMu67,1,C,REL,Posture_Sitting,1,L_ESI,18.728910862582023,total,1
BMu67,1,C,REL,Posture_Sitting,1,L_ESI,21.03476198033293,start,1
BMu67,1,C,REL,Posture_Sitting,1,L_ESI,17.637165336222704,end,1
BMu67,1,C,REL,Posture_Sitting,1,R_ESI,25.774457917059436,total,1
BMu67,1,C,REL,Posture_Sitting,1,R_ESI,28.07907096560259,start,1
BMu67,1,C,REL,Posture_Sitting,1,R_ESI,24.976988736519743,end,1
BMu67,2,C,INI,Posture_Sitting,1,L_ESI,9.736828954647043,total,1
BMu67,2,C,INI,Posture_Sitting,1,L_ESI,9.61256015184108,start,1
BMu67,2,C,INI,Posture_Sitting,1,L_ESI,9.88085055409342,end,1
BMu67,2,C,INI,Posture_Sitting,1,R_ESI,34.03482521197722,total,1
BMu67,2,C,INI,Posture_Sitting,1,R_ESI,33.51971966690101,start,1
BMu67,2,C,INI,Posture_Sitting,1,R_ESI,34.42042612710942,end,1
BMu67,2,C,REL,Posture_Sitting,1,L_ESI,23.25461301079069,total,1
BMu67,2,C,REL,Posture_Sitting,1,L_ESI,23.2534331257052,start,1
BMu67,2,C,REL,Posture_Sitting,1,L_ESI,22.44697223744648,end,1
BMu67,2,C,REL,Posture_Sitting,1,R_ESI,23.40768673477629,total,1
BMu67,2,C,REL,Posture_Sitting,1,R_ESI,23.30675072054116,start,1
BMu67,2,C,REL,Posture_Sitting,1,R_ESI,23.66980550629468,end,1
BMu67,3,C,INI,Posture_Sitting,1,L_ESI,23.34126542953491,total,1
BMu67,3,C,INI,Posture_Sitting,1,L_ESI,23.546254505357908,start,1
BMu67,3,C,INI,Posture_Sitting,1,L_ESI,23.76986727550857,end,1
BMu67,3,C,INI,Posture_Sitting,1,R_ESI,33.23120170162957,total,1
BMu67,3,C,INI,Posture_Sitting,1,R_ESI,33.17650590714205,start,1
BMu67,3,C,INI,Posture_Sitting,1,R_ESI,32.850281564471025,end,1
BMu67,3,C,REL,Posture_Sitting,1,L_ESI,12.633132587674028,total,1
BMu67,3,C,REL,Posture_Sitting,1,L_ESI,12.662311411885474,start,1
BMu67,3,C,REL,Posture_Sitting,1,L_ESI,12.7976125338587,end,1
BMu67,3,C,REL,Posture_Sitting,1,R_ESI,23.821324396776458,total,1
BMu67,3,C,REL,Posture_Sitting,1,R_ESI,23.424095411839783,start,1
BMu67,3,C,REL,Posture_Sitting,1,R_ESI,23.594343902606866,end,1
BMu67,5,C,INI,Posture_Sitting,1,L_ESI,11.084983069460087,total,1
BMu67,5,C,INI,Posture_Sitting,1,L_ESI,11.175213423306888,start,1
BMu67,5,C,INI,Posture_Sitting,1,L_ESI,10.858150383447823,end,1
BMu67,5,C,INI,Posture_Sitting,1,R_ESI,20.600436769226594,total,1
BMu67,5,C,INI,Posture_Sitting,1,R_ESI,20.298367475502424,start,1
BMu67,5,C,INI,Posture_Sitting,1,R_ESI,20.3149179612711,end,1
BMu67,5,C,REL,Posture_Sitting,1,L_ESI,14.025411703687924,total,1
BMu67,5,C,REL,Posture_Sitting,1,L_ESI,13.188879563977322,start,1
BMu67,5,C,REL,Posture_Sitting,1,L_ESI,14.823536317409356,end,1
BMu67,5,C,REL,Posture_Sitting,1,R_ESI,28.84108383313611,total,1
BMu67,5,C,REL,Posture_Sitting,1,R_ESI,28.844403118335933,start,1
BMu67,5,C,REL,Posture_Sitting,1,R_ESI,28.268397257844054,end,1
BMu67,6,C,INI,Posture_Sitting,1,L_ESI,40.114844013189945,total,1
BMu67,6,C,INI,Posture_Sitting,1,L_ESI,37.298196269917064,start,1
BMu67,6,C,INI,Posture_Sitting,1,L_ESI,41.85532783685855,end,1
BMu67,6,C,INI,Posture_Sitting,1,R_ESI,43.726541792048835,total,1
BMu67,6,C,INI,Posture_Sitting,1,R_ESI,43.30472724443418,start,1
BMu67,6,C,INI,Posture_Sitting,1,R_ESI,44.639937925572,end,1
BMu67,6,C,REL,Posture_Sitting,1,L_ESI,37.770657120489865,total,1
BMu67,6,C,REL,Posture_Sitting,1,L_ESI,39.15232512908385,start,1
BMu67,6,C,REL,Posture_Sitting,1,L_ESI,37.188525528162046,end,1
BMu67,6,C,REL,Posture_Sitting,1,R_ESI,37.98890999286064,total,1
BMu67,6,C,REL,Posture_Sitting,1,R_ESI,38.91901065369419,start,1
BMu67,6,C,REL,Posture_Sitting,1,R_ESI,36.80672176721804,end,1
BMu67,7,C,INI,Posture_Sitting,1,L_ESI,7.711421037187716,total,1
BMu67,7,C,INI,Posture_Sitting,1,L_ESI,8.066120884478,start,1
BMu67,7,C,INI,Posture_Sitting,1,L_ESI,7.494500716576313,end,1
BMu67,7,C,INI,Posture_Sitting,1,R_ESI,12.073351128426491,total,1
BMu67,7,C,INI,Posture_Sitting,1,R_ESI,16.13108558141164,start,1
BMu67,7,C,INI,Posture_Sitting,1,R_ESI,10.271370214445053,end,1
BMu67,7,C,REL,Posture_Sitting,1,L_ESI,4.625256125523158,total,1
BMu67,7,C,REL,Posture_Sitting,1,L_ESI,4.682961681390075,start,1
BMu67,7,C,REL,Posture_Sitting,1,L_ESI,4.620895695682016,end,1
BMu67,7,C,REL,Posture_Sitting,1,R_ESI,7.94381565850955,total,1
BMu67,7,C,REL,Posture_Sitting,1,R_ESI,8.11378422066868,start,1
BMu67,7,C,REL,Posture_Sitting,1,R_ESI,7.853424768336962,end,1
BMu67,8,C,INI,Posture_Sitting,1,L_ESI,32.43568823850932,total,1
BMu67,8,C,INI,Posture_Sitting,1,L_ESI,34.221641991373374,start,1
BMu67,8,C,INI,Posture_Sitting,1,L_ESI,31.796877460112146,end,1
BMu67,8,C,INI,Posture_Sitting,1,R_ESI,49.46412160557424,total,1
BMu67,8,C,INI,Posture_Sitting,1,R_ESI,50.30139102249769,start,1
BMu67,8,C,INI,Posture_Sitting,1,R_ESI,50.73841621843617,end,1
BMu67,8,C,REL,Posture_Sitting,1,L_ESI,29.331327999769652,total,1
BMu67,8,C,REL,Posture_Sitting,1,L_ESI,30.64152515358339,start,1
BMu67,8,C,REL,Posture_Sitting,1,L_ESI,28.671101922487914,end,1
BMu67,8,C,REL,Posture_Sitting,1,R_ESI,34.816816143852655,total,1
BMu67,8,C,REL,Posture_Sitting,1,R_ESI,33.00907301287851,start,1
BMu67,8,C,REL,Posture_Sitting,1,R_ESI,36.55604383841624,end,1
BMu67,9,P,INI,Posture_Sitting,1,L_ESI,10.855590371112308,total,1
BMu67,9,P,INI,Posture_Sitting,1,L_ESI,10.925965443511105,start,1
BMu67,9,P,INI,Posture_Sitting,1,L_ESI,10.723859793744188,end,1
BMu67,9,P,INI,Posture_Sitting,1,R_ESI,20.598467369864643,total,1
BMu67,9,P,INI,Posture_Sitting,1,R_ESI,20.345779480980184,start,1
BMu67,9,P,INI,Posture_Sitting,1,R_ESI,20.372962682888964,end,1
BMu67,9,P,REL,Posture_Sitting,1,L_ESI,13.350910262801152,total,1
BMu67,9,P,REL,Posture_Sitting,1,L_ESI,13.38867081139406,start,1
BMu67,9,P,REL,Posture_Sitting,1,L_ESI,13.206066899438037,end,1
BMu67,9,P,REL,Posture_Sitting,1,R_ESI,22.87035468163796,total,1
BMu67,9,P,REL,Posture_Sitting,1,R_ESI,22.69246451375448,start,1
BMu67,9,P,REL,Posture_Sitting,1,R_ESI,23.456886643838693,end,1
BMu67,10,P,INI,Posture_Sitting,1,L_ESI,40.26335699959177,total,1
BMu67,10,P,INI,Posture_Sitting,1,L_ESI,40.102263855810804,start,1
BMu67,10,P,INI,Posture_Sitting,1,L_ESI,40.39754394696832,end,1
BMu67,10,P,INI,Posture_Sitting,1,R_ESI,34.236498756370054,total,1
BMu67,10,P,INI,Posture_Sitting,1,R_ESI,33.852312507568506,start,1
BMu67,10,P,INI,Posture_Sitting,1,R_ESI,35.56413006207295,end,1
BMu67,10,P,REL,Posture_Sitting,1,L_ESI,13.297449019844864,total,1
BMu67,10,P,REL,Posture_Sitting,1,L_ESI,13.415274873222414,start,1
BMu67,10,P,REL,Posture_Sitting,1,L_ESI,13.215765104560525,end,1
BMu67,10,P,REL,Posture_Sitting,1,R_ESI,58.14139345032221,total,1
BMu67,10,P,REL,Posture_Sitting,1,R_ESI,64.080000033874,start,1
BMu67,10,P,REL,Posture_Sitting,1,R_ESI,54.934189979500495,end,1
BMu67,11,P,INI,Posture_Sitting,1,L_ESI,9.777340144354566,total,1
BMu67,11,P,INI,Posture_Sitting,1,L_ESI,9.663486172161406,start,1
BMu67,11,P,INI,Posture_Sitting,1,L_ESI,9.908039990581443,end,1
BMu67,11,P,INI,Posture_Sitting,1,R_ESI,19.12247674791563,total,1
BMu67,11,P,INI,Posture_Sitting,1,R_ESI,19.471983718506113,start,1
BMu67,11,P,INI,Posture_Sitting,1,R_ESI,18.896652807231273,end,1
BMu67,11,P,REL,Posture_Sitting,1,L_ESI,18.623372264936453,total,1
BMu67,11,P,REL,Posture_Sitting,1,L_ESI,19.050464989479863,start,1
BMu67,11,P,REL,Posture_Sitting,1,L_ESI,18.37873561961005,end,1
BMu67,11,P,REL,Posture_Sitting,1,R_ESI,17.97221940102849,total,1
BMu67,11,P,REL,Posture_Sitting,1,R_ESI,17.734993333128767,start,1
BMu67,11,P,REL,Posture_Sitting,1,R_ESI,17.48703542086398,end,1
BMu67,12,P,INI,Posture_Sitting,1,L_ESI,37.76311636379909,total,1
BMu67,12,P,INI,Posture_Sitting,1,L_ESI,38.11471781876908,start,1
BMu67,12,P,INI,Posture_Sitting,1,L_ESI,36.94468659711733,end,1
BMu67,12,P,INI,Posture_Sitting,1,R_ESI,26.441642466753663,total,1
BMu67,12,P,INI,Posture_Sitting,1,R_ESI,27.15996882091495,start,1
BMu67,12,P,INI,Posture_Sitting,1,R_ESI,26.468282828854562,end,1
BMu67,12,P,REL,Posture_Sitting,1,L_ESI,23.165609893364262,total,1
BMu67,12,P,REL,Posture_Sitting,1,L_ESI,23.504096119110354,start,1
BMu67,12,P,REL,Posture_Sitting,1,L_ESI,26.293605476083457,end,1
BMu67,12,P,REL,Posture_Sitting,1,R_ESI,17.04418351019624,total,1
BMu67,12,P,REL,Posture_Sitting,1,R_ESI,19.070257342713838,start,1
BMu67,12,P,REL,Posture_Sitting,1,R_ESI,15.498959909960181,end,1
BMu67,13,C,INI,Posture_Sitting,1,L_ESI,26.346562428218697,total,1
BMu67,13,C,INI,Posture_Sitting,1,L_ESI,26.193414649195056,start,1
BMu67,13,C,INI,Posture_Sitting,1,L_ESI,26.107316082796864,end,1
BMu67,13,C,INI,Posture_Sitting,1,R_ESI,21.7923310663492,total,1
BMu67,13,C,INI,Posture_Sitting,1,R_ESI,22.215886337177245,start,1
BMu67,13,C,INI,Posture_Sitting,1,R_ESI,21.76576635667129,end,1
BMu67,13,C,REL,Posture_Sitting,1,L_ESI,22.327527258970424,total,1
BMu67,13,C,REL,Posture_Sitting,1,L_ESI,22.678060507063975,start,1
BMu67,13,C,REL,Posture_Sitting,1,L_ESI,22.04217584234443,end,1
BMu67,13,C,REL,Posture_Sitting,1,R_ESI,28.652676416085818,total,1
BMu67,13,C,REL,Posture_Sitting,1,R_ESI,28.44601633759752,start,1
BMu67,13,C,REL,Posture_Sitting,1,R_ESI,29.08984580563929,end,1
BMu67,14,P,INI,Posture_Sitting,1,L_ESI,17.5691943922465,total,1
BMu67,14,P,INI,Posture_Sitting,1,L_ESI,19.4011004858165,start,1
BMu67,14,P,INI,Posture_Sitting,1,L_ESI,16.85203870330284,end,1
BMu67,14,P,INI,Posture_Sitting,1,R_ESI,46.67022151019626,total,1
BMu67,14,P,INI,Posture_Sitting,1,R_ESI,49.008800550646825,start,1
BMu67,14,P,INI,Posture_Sitting,1,R_ESI,49.21383546677391,end,1
BMu67,14,P,REL,Posture_Sitting,1,L_ESI,27.79069174485626,total,1
BMu67,14,P,REL,Posture_Sitting,1,L_ESI,27.825062634813946,start,1
BMu67,14,P,REL,Posture_Sitting,1,L_ESI,27.436446683682227,end,1
BMu67,14,P,REL,Posture_Sitting,1,R_ESI,42.2695905640865,total,1
BMu67,14,P,REL,Posture_Sitting,1,R_ESI,42.93123505129939,start,1
BMu67,14,P,REL,Posture_Sitting,1,R_ESI,41.78778997752046,end,1
BMu67,16,C,INI,Posture_Sitting,1,L_ESI,38.045362023307455,total,1
BMu67,16,C,INI,Posture_Sitting,1,L_ESI,38.186784888916534,start,1
BMu67,16,C,INI,Posture_Sitting,1,L_ESI,37.795914724156404,end,1
BMu67,16,C,INI,Posture_Sitting,1,R_ESI,60.51687742580197,total,1
BMu67,16,C,INI,Posture_Sitting,1,R_ESI,61.617767724046814,start,1
BMu67,16,C,INI,Posture_Sitting,1,R_ESI,61.0023926759932,end,1
BMu67,16,C,REL,Posture_Sitting,1,L_ESI,45.13791293513864,total,1
BMu67,16,C,REL,Posture_Sitting,1,L_ESI,46.34662045906988,start,1
BMu67,16,C,REL,Posture_Sitting,1,L_ESI,45.153616544139155,end,1
BMu67,16,C,REL,Posture_Sitting,1,R_ESI,58.190263928220894,total,1
BMu67,16,C,REL,Posture_Sitting,1,R_ESI,58.5234895819639,start,1
BMu67,16,C,REL,Posture_Sitting,1,R_ESI,57.934568455516285,end,1
BMu67,17,P,INI,Posture_Sitting,1,L_ESI,14.527233967364985,total,1
BMu67,17,P,INI,Posture_Sitting,1,L_ESI,14.369300985844891,start,1
BMu67,17,P,INI,Posture_Sitting,1,L_ESI,14.571951788941217,end,1
BMu67,17,P,INI,Posture_Sitting,1,R_ESI,38.16600421500299,total,1
BMu67,17,P,INI,Posture_Sitting,1,R_ESI,40.03737378599172,start,1
BMu67,17,P,INI,Posture_Sitting,1,R_ESI,37.510700731841304,end,1
BMu67,17,P,REL,Posture_Sitting,1,L_ESI,11.71121661044611,total,1
BMu67,17,P,REL,Posture_Sitting,1,L_ESI,11.450842504648747,start,1
BMu67,17,P,REL,Posture_Sitting,1,L_ESI,11.964037831001699,end,1
BMu67,17,P,REL,Posture_Sitting,1,R_ESI,10.906511159991917,total,1
BMu67,17,P,REL,Posture_Sitting,1,R_ESI,11.06976639135973,start,1
BMu67,17,P,REL,Posture_Sitting,1,R_ESI,10.989621414640627,end,1
BMu67,21,C,INI,Posture_Sitting,1,L_ESI,12.87280231811585,total,1
BMu67,21,C,INI,Posture_Sitting,1,L_ESI,13.120761084279494,start,1
BMu67,21,C,INI,Posture_Sitting,1,L_ESI,12.634176377706408,end,1
BMu67,21,C,INI,Posture_Sitting,1,R_ESI,18.941410242303835,total,1
BMu67,21,C,INI,Posture_Sitting,1,R_ESI,18.66225745851913,start,1
BMu67,21,C,INI,Posture_Sitting,1,R_ESI,18.830369451519104,end,1
BMu67,21,C,REL,Posture_Sitting,1,L_ESI,11.039573594931234,total,1
BMu67,21,C,REL,Posture_Sitting,1,L_ESI,11.12836795802989,start,1
BMu67,21,C,REL,Posture_Sitting,1,L_ESI,11.144645447431667,end,1
BMu67,21,C,REL,Posture_Sitting,1,R_ESI,75.12871981905558,total,1
BMu67,21,C,REL,Posture_Sitting,1,R_ESI,191.77976434223422,start,1
BMu67,21,C,REL,Posture_Sitting,1,R_ESI,18.47580506276793,end,1
BMu67,22,C,INI,Posture_Sitting,1,L_ESI,24.606251298671364,total,1
BMu67,22,C,INI,Posture_Sitting,1,L_ESI,27.209665533344623,start,1
BMu67,22,C,INI,Posture_Sitting,1,L_ESI,23.75758721584082,end,1
BMu67,22,C,INI,Posture_Sitting,1,R_ESI,21.040884126309724,total,1
BMu67,22,C,INI,Posture_Sitting,1,R_ESI,21.09528992969959,start,1
BMu67,22,C,INI,Posture_Sitting,1,R_ESI,21.219709537565,end,1
BMu67,22,C,REL,Posture_Sitting,1,L_ESI,26.27791845224459,total,1
BMu67,22,C,REL,Posture_Sitting,1,L_ESI,31.944370293088273,start,1
BMu67,22,C,REL,Posture_Sitting,1,L_ESI,24.44218845413711,end,1
BMu67,22,C,REL,Posture_Sitting,1,R_ESI,30.608975880506787,total,1
BMu67,22,C,REL,Posture_Sitting,1,R_ESI,40.882077341893854,start,1
BMu67,22,C,REL,Posture_Sitting,1,R_ESI,28.166375487475275,end,1
BMu67,23,C,INI,Posture_Sitting,1,L_ESI,15.464209895163433,total,1
BMu67,23,C,INI,Posture_Sitting,1,L_ESI,15.867795783934058,start,1
BMu67,23,C,INI,Posture_Sitting,1,L_ESI,15.380750580579297,end,1
BMu67,23,C,INI,Posture_Sitting,1,R_ESI,59.86640646044315,total,1
BMu67,23,C,INI,Posture_Sitting,1,R_ESI,23.890805095273944,start,1
BMu67,23,C,INI,Posture_Sitting,1,R_ESI,51.15111702418831,end,1
BMu67,23,C,REL,Posture_Sitting,1,L_ESI,10.746912492041972,total,1
BMu67,23,C,REL,Posture_Sitting,1,L_ESI,10.73854013093838,start,1
BMu67,23,C,REL,Posture_Sitting,1,L_ESI,10.938601254490992,end,1
BMu67,23,C,REL,Posture_Sitting,1,R_ESI,10.82596965705561,total,1
BMu67,23,C,REL,Posture_Sitting,1,R_ESI,10.415762347856626,start,1
BMu67,23,C,REL,Posture_Sitting,1,R_ESI,10.785577151528315,end,1
BMu67,24,P,INI,Posture_Sitting,1,L_ESI,44.60230227638063,total,1
BMu67,24,P,INI,Posture_Sitting,1,L_ESI,44.787564907849394,start,1
BMu67,24,P,INI,Posture_Sitting,1,L_ESI,44.461585695376286,end,1
BMu67,24,P,INI,Posture_Sitting,1,R_ESI,53.178601204947114,total,1
BMu67,24,P,INI,Posture_Sitting,1,R_ESI,53.053259120405336,start,1
BMu67,24,P,INI,Posture_Sitting,1,R_ESI,52.40091047912354,end,1
BMu67,24,P,REL,Posture_Sitting,1,L_ESI,27.472823655765655,total,1
BMu67,24,P,REL,Posture_Sitting,1,L_ESI,28.132999198653607,start,1
BMu67,24,P,REL,Posture_Sitting,1,L_ESI,27.152880565060194,end,1
BMu67,24,P,REL,Posture_Sitting,1,R_ESI,42.57719021234677,total,1
BMu67,24,P,REL,Posture_Sitting,1,R_ESI,42.47510096211648,start,1
BMu67,24,P,REL,Posture_Sitting,1,R_ESI,42.7920580602544,end,1
BMu67,25,C,INI,Posture_Sitting,1,L_ESI,13.672979210766595,total,1
BMu67,25,C,INI,Posture_Sitting,1,L_ESI,14.917273822337508,start,1
BMu67,25,C,INI,Posture_Sitting,1,L_ESI,12.967335953718528,end,1
BMu67,25,C,INI,Posture_Sitting,1,R_ESI,13.69280151336026,total,1
BMu67,25,C,INI,Posture_Sitting,1,R_ESI,19.165838655190424,start,1
BMu67,25,C,INI,Posture_Sitting,1,R_ESI,12.438077635276189,end,1
BMu67,25,C,REL,Posture_Sitting,1,L_ESI,10.178436815180879,total,1
BMu67,25,C,REL,Posture_Sitting,1,L_ESI,7.9688462056868,start,1
BMu67,25,C,REL,Posture_Sitting,1,L_ESI,7.909096639568794,end,1
BMu67,25,C,REL,Posture_Sitting,1,R_ESI,19.437651289891836,total,1
BMu67,25,C,REL,Posture_Sitting,1,R_ESI,14.992477608215228,start,1
BMu67,25,C,REL,Posture_Sitting,1,R_ESI,15.131935069268684,end,1
BMu67,26,P,INI,Posture_Sitting,1,L_ESI,17.461949261482804,total,1
BMu67,26,P,INI,Posture_Sitting,1,L_ESI,18.770875427063377,start,1
BMu67,26,P,INI,Posture_Sitting,1,L_ESI,15.690559941039874,end,1
BMu67,26,P,INI,Posture_Sitting,1,R_ESI,21.096180137364144,total,1
BMu67,26,P,INI,Posture_Sitting,1,R_ESI,22.68479008490108,start,1
BMu67,26,P,INI,Posture_Sitting,1,R_ESI,21.299118497545,end,1
BMu67,26,P,REL,Posture_Sitting,1,L_ESI,21.437515830794048,total,1
BMu67,26,P,REL,Posture_Sitting,1,L_ESI,20.909168236568885,start,1
BMu67,26,P,REL,Posture_Sitting,1,L_ESI,21.420659219139058,end,1
BMu67,26,P,REL,Posture_Sitting,1,R_ESI,71.43117270056648,total,1
BMu67,26,P,REL,Posture_Sitting,1,R_ESI,71.86226824383786,start,1
BMu67,26,P,REL,Posture_Sitting,1,R_ESI,70.69374586639789,end,1
BMu67,27,P,INI,Posture_Sitting,1,L_ESI,16.515816644317177,total,1
BMu67,27,P,INI,Posture_Sitting,1,L_ESI,15.780423682443885,start,1
BMu67,27,P,INI,Posture_Sitting,1,L_ESI,18.13265761304024,end,1
BMu67,27,P,INI,Posture_Sitting,1,R_ESI,21.71267731196099,total,1
BMu67,27,P,INI,Posture_Sitting,1,R_ESI,21.815759369597625,start,1
BMu67,27,P,INI,Posture_Sitting,1,R_ESI,20.41212760770002,end,1
BMu67,27,P,REL,Posture_Sitting,1,L_ESI,14.683446480444688,total,1
BMu67,27,P,REL,Posture_Sitting,1,L_ESI,14.493873383026791,start,1
BMu67,27,P,REL,Posture_Sitting,1,L_ESI,14.643465961465205,end,1
BMu67,27,P,REL,Posture_Sitting,1,R_ESI,26.069076298928582,total,1
BMu67,27,P,REL,Posture_Sitting,1,R_ESI,26.008467966527366,start,1
BMu67,27,P,REL,Posture_Sitting,1,R_ESI,26.260712443558933,end,1
BMu67,28,P,INI,Posture_Sitting,1,L_ESI,14.99275981485189,total,1
BMu67,28,P,INI,Posture_Sitting,1,L_ESI,14.244564046112268,start,1
BMu67,28,P,INI,Posture_Sitting,1,L_ESI,14.986631028332306,end,1
BMu67,28,P,INI,Posture_Sitting,1,R_ESI,19.640767104720428,total,1
BMu67,28,P,INI,Posture_Sitting,1,R_ESI,20.04076235003398,start,1
BMu67,28,P,INI,Posture_Sitting,1,R_ESI,19.039628469864592,end,1
BMu67,28,P,REL,Posture_Sitting,1,L_ESI,17.40199176583709,total,1
BMu67,28,P,REL,Posture_Sitting,1,L_ESI,17.61331458784532,start,1
BMu67,28,P,REL,Posture_Sitting,1,L_ESI,17.457953826003653,end,1
BMu67,28,P,REL,Posture_Sitting,1,R_ESI,17.85088862843525,total,1
BMu67,28,P,REL,Posture_Sitting,1,R_ESI,17.865889997932612,start,1
BMu67,28,P,REL,Posture_Sitting,1,R_ESI,17.6081406715434,end,1
BMu67,29,P,INI,Posture_Sitting,1,L_ESI,10.195370236839484,total,1
BMu67,29,P,INI,Posture_Sitting,1,L_ESI,10.909004210042756,start,1
BMu67,29,P,INI,Posture_Sitting,1,L_ESI,9.681452048432682,end,1
BMu67,29,P,INI,Posture_Sitting,1,R_ESI,20.483380254228425,total,1
BMu67,29,P,INI,Posture_Sitting,1,R_ESI,21.634020900879953,start,1
BMu67,29,P,INI,Posture_Sitting,1,R_ESI,19.66114302353365,end,1
BMu67,29,P,REL,Posture_Sitting,1,L_ESI,9.839606686225428,total,1
BMu67,29,P,REL,Posture_Sitting,1,L_ESI,10.574485715844995,start,1
BMu67,29,P,REL,Posture_Sitting,1,L_ESI,7.593546773093699,end,1
BMu67,29,P,REL,Posture_Sitting,1,R_ESI,2.5407684835629896,total,1
BMu67,29,P,REL,Posture_Sitting,1,R_ESI,2.694718212374072,start,1
BMu67,29,P,REL,Posture_Sitting,1,R_ESI,2.3867167890645047,end,1
BMu67,30,P,INI,Posture_Sitting,1,L_ESI,15.11945858487221,total,1
BMu67,30,P,INI,Posture_Sitting,1,L_ESI,13.557753025263064,start,1
BMu67,30,P,INI,Posture_Sitting,1,L_ESI,14.658901591892041,end,1
BMu67,30,P,INI,Posture_Sitting,1,R_ESI,15.389318713758747,total,1
BMu67,30,P,INI,Posture_Sitting,1,R_ESI,15.322632827340046,start,1
BMu67,30,P,INI,Posture_Sitting,1,R_ESI,15.74764742660577,end,1
BMu67,30,P,REL,Posture_Sitting,1,L_ESI,14.926473196202181,total,1
BMu67,30,P,REL,Posture_Sitting,1,L_ESI,14.979645173365025,start,1
BMu67,30,P,REL,Posture_Sitting,1,L_ESI,14.823804584939916,end,1
BMu67,30,P,REL,Posture_Sitting,1,R_ESI,24.230458471430655,total,1
BMu67,30,P,REL,Posture_Sitting,1,R_ESI,24.939323387396556,start,1
BMu67,30,P,REL,Posture_Sitting,1,R_ESI,24.022327788105834,end,1
BMu67,32,P,INI,Posture_Sitting,1,L_ESI,8.190526487328674,total,1
BMu67,32,P,INI,Posture_Sitting,1,L_ESI,8.069510981835277,start,1
BMu67,32,P,INI,Posture_Sitting,1,L_ESI,8.305999139029645,end,1
BMu67,32,P,INI,Posture_Sitting,1,R_ESI,22.249760683847228,total,1
BMu67,32,P,INI,Posture_Sitting,1,R_ESI,22.138265116891773,start,1
BMu67,32,P,INI,Posture_Sitting,1,R_ESI,22.485965188515777,end,1
BMu67,32,P,REL,Posture_Sitting,1,L_ESI,12.821572968639273,total,1
BMu67,32,P,REL,Posture_Sitting,1,L_ESI,13.081412121967006,start,1
BMu67,32,P,REL,Posture_Sitting,1,L_ESI,12.719851460219472,end,1
BMu67,32,P,REL,Posture_Sitting,1,R_ESI,27.16138397586635,total,1
BMu67,32,P,REL,Posture_Sitting,1,R_ESI,27.507256696238617,start,1
BMu67,32,P,REL,Posture_Sitting,1,R_ESI,27.320058152288777,end,1
BMu67,33,P,INI,Posture_Sitting,1,L_ESI,6.859059604723002,total,1
BMu67,33,P,INI,Posture_Sitting,1,L_ESI,6.680705469085385,start,1
BMu67,33,P,INI,Posture_Sitting,1,L_ESI,7.2970521828131725,end,1
BMu67,33,P,INI,Posture_Sitting,1,R_ESI,7.086561277878063,total,1
BMu67,33,P,INI,Posture_Sitting,1,R_ESI,7.445042851826704,start,1
BMu67,33,P,INI,Posture_Sitting,1,R_ESI,7.05900715841345,end,1
BMu67,33,P,REL,Posture_Sitting,1,L_ESI,11.529287943258959,total,1
BMu67,33,P,REL,Posture_Sitting,1,L_ESI,12.78776812522895,start,1
BMu67,33,P,REL,Posture_Sitting,1,L_ESI,11.469313064093738,end,1
BMu67,33,P,REL,Posture_Sitting,1,R_ESI,48.51947420792524,total,1
BMu67,33,P,REL,Posture_Sitting,1,R_ESI,52.22046143040697,start,1
BMu67,33,P,REL,Posture_Sitting,1,R_ESI,47.3120540677777,end,1
BMu67,34,P,INI,Posture_Sitting,1,L_ESI,19.653281262124075,total,1
BMu67,34,P,INI,Posture_Sitting,1,L_ESI,19.217435237402203,start,1
BMu67,34,P,INI,Posture_Sitting,1,L_ESI,19.702422026537047,end,1
BMu67,34,P,INI,Posture_Sitting,1,R_ESI,24.189769514470193,total,1
BMu67,34,P,INI,Posture_Sitting,1,R_ESI,24.56059840336471,start,1
BMu67,34,P,INI,Posture_Sitting,1,R_ESI,23.831996397361955,end,1
BMu67,34,P,REL,Posture_Sitting,1,L_ESI,21.299948831281313,total,1
BMu67,34,P,REL,Posture_Sitting,1,L_ESI,21.0024713132621,start,1
BMu67,34,P,REL,Posture_Sitting,1,L_ESI,21.071007430405782,end,1
BMu67,34,P,REL,Posture_Sitting,1,R_ESI,100.56530697963937,total,1
BMu67,34,P,REL,Posture_Sitting,1,R_ESI,112.56038557211366,start,1
BMu67,34,P,REL,Posture_Sitting,1,R_ESI,91.91965070362212,end,1
BMu67,35,C,INI,Posture_Sitting,1,L_ESI,12.463484144112886,total,1
BMu67,35,C,INI,Posture_Sitting,1,L_ESI,12.937322177569992,start,1
BMu67,35,C,INI,Posture_Sitting,1,L_ESI,12.180523762711323,end,1
BMu67,35,C,INI,Posture_Sitting,1,R_ESI,9.132905439685116,total,1
BMu67,35,C,INI,Posture_Sitting,1,R_ESI,8.956741031866901,start,1
BMu67,35,C,INI,Posture_Sitting,1,R_ESI,9.028061345259752,end,1
BMu67,35,C,REL,Posture_Sitting,1,L_ESI,12.57700719789092,total,1
BMu67,35,C,REL,Posture_Sitting,1,L_ESI,12.890461834885171,start,1
BMu67,35,C,REL,Posture_Sitting,1,L_ESI,12.454653191356359,end,1
BMu67,35,C,REL,Posture_Sitting,1,R_ESI,16.921317665215913,total,1
BMu67,35,C,REL,Posture_Sitting,1,R_ESI,17.170879941141266,start,1
BMu67,35,C,REL,Posture_Sitting,1,R_ESI,16.705940765604545,end,1
BMu67,36,P,INI,Posture_Sitting,1,L_ESI,8.315650227342521,total,1
BMu67,36,P,INI,Posture_Sitting,1,L_ESI,8.435931869741207,start,1
BMu67,36,P,INI,Posture_Sitting,1,L_ESI,8.3654686415902,end,1
BMu67,36,P,INI,Posture_Sitting,1,R_ESI,5.718354410398837,total,1
BMu67,36,P,INI,Posture_Sitting,1,R_ESI,5.818885594454759,start,1
BMu67,36,P,INI,Posture_Sitting,1,R_ESI,5.737103640747745,end,1
BMu67,36,P,REL,Posture_Sitting,1,L_ESI,7.991274606133908,total,1
BMu67,36,P,REL,Posture_Sitting,1,L_ESI,7.95184913103137,start,1
BMu67,36,P,REL,Posture_Sitting,1,L_ESI,7.893383588229651,end,1
BMu67,36,P,REL,Posture_Sitting,1,R_ESI,4.367762274263435,total,1
BMu67,36,P,REL,Posture_Sitting,1,R_ESI,4.285644441910208,start,1
BMu67,36,P,REL,Posture_Sitting,1,R_ESI,4.341883063586172,end,1
BMu67,38,C,INI,Posture_Sitting,1,L_ESI,20.080699186163155,total,1
BMu67,38,C,INI,Posture_Sitting,1,L_ESI,20.16015628737161,start,1
BMu67,38,C,INI,Posture_Sitting,1,L_ESI,20.65883495138031,end,1
BMu67,38,C,INI,Posture_Sitting,1,R_ESI,31.73268953098524,total,1
BMu67,38,C,INI,Posture_Sitting,1,R_ESI,31.671756499831837,start,1
BMu67,38,C,INI,Posture_Sitting,1,R_ESI,31.218692851867566,end,1
BMu67,38,C,REL,Posture_Sitting,1,L_ESI,20.538359340431985,total,1
BMu67,38,C,REL,Posture_Sitting,1,L_ESI,20.284339523875165,start,1
BMu67,38,C,REL,Posture_Sitting,1,L_ESI,20.14198199051267,end,1
BMu67,38,C,REL,Posture_Sitting,1,R_ESI,28.407434197325735,total,1
BMu67,38,C,REL,Posture_Sitting,1,R_ESI,29.22500244775638,start,1
BMu67,38,C,REL,Posture_Sitting,1,R_ESI,28.411749994427222,end,1
BMu67,39,C,INI,Posture_Sitting,1,L_ESI,13.117628190093884,total,1
BMu67,39,C,INI,Posture_Sitting,1,L_ESI,13.878408623439986,start,1
BMu67,39,C,INI,Posture_Sitting,1,L_ESI,12.79625538432599,end,1
BMu67,39,C,INI,Posture_Sitting,1,R_ESI,8.736427146628309,total,1
BMu67,39,C,INI,Posture_Sitting,1,R_ESI,8.609332814878073,start,1
BMu67,39,C,INI,Posture_Sitting,1,R_ESI,8.670600496980034,end,1
BMu67,39,C,REL,Posture_Sitting,1,L_ESI,12.92387045874805,total,1
BMu67,39,C,REL,Posture_Sitting,1,L_ESI,12.521435374535614,start,1
BMu67,39,C,REL,Posture_Sitting,1,L_ESI,13.204514781315861,end,1
BMu67,39,C,REL,Posture_Sitting,1,R_ESI,11.549889865614425,total,1
BMu67,39,C,REL,Posture_Sitting,1,R_ESI,11.453129969022102,start,1
BMu67,39,C,REL,Posture_Sitting,1,R_ESI,11.632877674357811,end,1
BMu67,40,C,INI,Posture_Sitting,1,L_ESI,17.940755596754673,total,1
BMu67,40,C,INI,Posture_Sitting,1,L_ESI,17.63825073267819,start,1
BMu67,40,C,INI,Posture_Sitting,1,L_ESI,18.144922301749098,end,1
BMu67,40,C,INI,Posture_Sitting,1,R_ESI,14.638353610354557,total,1
BMu67,40,C,INI,Posture_Sitting,1,R_ESI,15.247551156660636,start,1
BMu67,40,C,INI,Posture_Sitting,1,R_ESI,14.250094823468332,end,1
BMu67,40,C,REL,Posture_Sitting,1,L_ESI,9.220468702664457,total,1
BMu67,40,C,REL,Posture_Sitting,1,L_ESI,10.45210344027236,start,1
BMu67,40,C,REL,Posture_Sitting,1,L_ESI,7.720325695873354,end,1
BMu67,40,C,REL,Posture_Sitting,1,R_ESI,10.614461005485564,total,1
BMu67,40,C,REL,Posture_Sitting,1,R_ESI,12.419392925661644,start,1
BMu67,40,C,REL,Posture_Sitting,1,R_ESI,8.833494948155998,end,1
BMu67,41,P,INI,Posture_Sitting,1,L_ESI,18.294499712179483,total,1
BMu67,41,P,INI,Posture_Sitting,1,L_ESI,17.916504175159695,start,1
BMu67,41,P,INI,Posture_Sitting,1,L_ESI,18.63941500641657,end,1
BMu67,41,P,INI,Posture_Sitting,1,R_ESI,31.09763171261953,total,1
BMu67,41,P,INI,Posture_Sitting,1,R_ESI,30.249802562173304,start,1
BMu67,41,P,INI,Posture_Sitting,1,R_ESI,31.6096245041407,end,1
BMu67,41,P,REL,Posture_Sitting,1,L_ESI,11.659606507391207,total,1
BMu67,41,P,REL,Posture_Sitting,1,L_ESI,11.298944792671207,start,1
BMu67,41,P,REL,Posture_Sitting,1,L_ESI,11.402513177087423,end,1
BMu67,41,P,REL,Posture_Sitting,1,R_ESI,18.373836512814954,total,1
BMu67,41,P,REL,Posture_Sitting,1,R_ESI,18.317210599117256,start,1
BMu67,41,P,REL,Posture_Sitting,1,R_ESI,17.764851150324514,end,1
BMu67,42,P,INI,Posture_Sitting,1,L_ESI,21.99356913619334,total,1
BMu67,42,P,INI,Posture_Sitting,1,L_ESI,21.969067678729573,start,1
BMu67,42,P,INI,Posture_Sitting,1,L_ESI,21.944315940554294,end,1
BMu67,42,P,INI,Posture_Sitting,1,R_ESI,16.846209894905954,total,1
BMu67,42,P,INI,Posture_Sitting,1,R_ESI,16.880459544621477,start,1
BMu67,42,P,INI,Posture_Sitting,1,R_ESI,17.02830737524337,end,1
BMu67,42,P,REL,Posture_Sitting,1,L_ESI,24.107559170652845,total,1
BMu67,42,P,REL,Posture_Sitting,1,L_ESI,23.799758487246063,start,1
BMu67,42,P,REL,Posture_Sitting,1,L_ESI,23.976406157552706,end,1
BMu67,42,P,REL,Posture_Sitting,1,R_ESI,16.82613249501117,total,1
BMu67,42,P,REL,Posture_Sitting,1,R_ESI,16.341232606980935,start,1
BMu67,42,P,REL,Posture_Sitting,1,R_ESI,17.06126724570188,end,1
BMu67,43,P,INI,Posture_Sitting,1,L_ESI,10.131066926733359,total,1
BMu67,43,P,INI,Posture_Sitting,1,L_ESI,9.954401215881683,start,1
BMu67,43,P,INI,Posture_Sitting,1,L_ESI,9.888452371273303,end,1
BMu67,43,P,INI,Posture_Sitting,1,R_ESI,18.315154722172228,total,1
BMu67,43,P,INI,Posture_Sitting,1,R_ESI,19.0085536021009,start,1
BMu67,43,P,INI,Posture_Sitting,1,R_ESI,17.924993555876448,end,1
BMu67,43,P,REL,Posture_Sitting,1,L_ESI,8.551695188162538,total,1
BMu67,43,P,REL,Posture_Sitting,1,L_ESI,8.61005293034872,start,1
BMu67,43,P,REL,Posture_Sitting,1,L_ESI,8.257544497374802,end,1
BMu67,43,P,REL,Posture_Sitting,1,R_ESI,10.277630687542876,total,1
BMu67,43,P,REL,Posture_Sitting,1,R_ESI,10.563952678649338,start,1
BMu67,43,P,REL,Posture_Sitting,1,R_ESI,9.972004260070241,end,1
BMu67,44,C,INI,Posture_Sitting,1,L_ESI,25.23570787139361,total,1
BMu67,44,C,INI,Posture_Sitting,1,L_ESI,19.7905054394874,start,1
BMu67,44,C,INI,Posture_Sitting,1,L_ESI,33.889088443788054,end,1
BMu67,44,C,INI,Posture_Sitting,1,R_ESI,10.959312623989005,total,1
BMu67,44,C,INI,Posture_Sitting,1,R_ESI,10.725557197856915,start,1
BMu67,44,C,INI,Posture_Sitting,1,R_ESI,10.925540474686356,end,1
BMu67,44,C,REL,Posture_Sitting,1,L_ESI,8.94460368446864,total,1
BMu67,44,C,REL,Posture_Sitting,1,L_ESI,9.019127507205905,start,1
BMu67,44,C,REL,Posture_Sitting,1,L_ESI,8.97629463964248,end,1
BMu67,44,C,REL,Posture_Sitting,1,R_ESI,9.64443186631669,total,1
BMu67,44,C,REL,Posture_Sitting,1,R_ESI,9.327111157710789,start,1
BMu67,44,C,REL,Posture_Sitting,1,R_ESI,9.811447630440014,end,1
BMu67,45,P,INI,Posture_Sitting,1,L_ESI,15.190756476150057,total,1
BMu67,45,P,INI,Posture_Sitting,1,L_ESI,14.492346949590804,start,1
BMu67,45,P,INI,Posture_Sitting,1,L_ESI,16.774752082966373,end,1
BMu67,45,P,INI,Posture_Sitting,1,R_ESI,14.61887054747733,total,1
BMu67,45,P,INI,Posture_Sitting,1,R_ESI,14.75022402071024,start,1
BMu67,45,P,INI,Posture_Sitting,1,R_ESI,14.974404654724543,end,1
BMu67,45,P,REL,Posture_Sitting,1,L_ESI,15.01461998294001,total,1
BMu67,45,P,REL,Posture_Sitting,1,L_ESI,15.289252463912607,start,1
BMu67,45,P,REL,Posture_Sitting,1,L_ESI,15.252908360889654,end,1
BMu67,45,P,REL,Posture_Sitting,1,R_ESI,21.062018682151496,total,1
BMu67,45,P,REL,Posture_Sitting,1,R_ESI,18.88897436956335,start,1
BMu67,45,P,REL,Posture_Sitting,1,R_ESI,22.974120089423508,end,1
BMu67,46,C,INI,Posture_Sitting,1,L_ESI,11.589058846787996,total,1
BMu67,46,C,INI,Posture_Sitting,1,L_ESI,11.465017995562595,start,1
BMu67,46,C,INI,Posture_Sitting,1,L_ESI,11.614773164141216,end,1
BMu67,46,C,INI,Posture_Sitting,1,R_ESI,15.995583201142628,total,1
BMu67,46,C,INI,Posture_Sitting,1,R_ESI,15.99509704072472,start,1
BMu67,46,C,INI,Posture_Sitting,1,R_ESI,15.918454263883893,end,1
BMu67,46,C,REL,Posture_Sitting,1,L_ESI,7.965315136151564,total,1
BMu67,46,C,REL,Posture_Sitting,1,L_ESI,8.121682558767237,start,1
BMu67,46,C,REL,Posture_Sitting,1,L_ESI,7.835233907471087,end,1
BMu67,46,C,REL,Posture_Sitting,1,R_ESI,9.004689680476307,total,1
BMu67,46,C,REL,Posture_Sitting,1,R_ESI,8.841286596818934,start,1
BMu67,46,C,REL,Posture_Sitting,1,R_ESI,9.000635625186995,end,1
BMu67,47,P,INI,Posture_Sitting,1,L_ESI,21.142931050711226,total,1
BMu67,47,P,INI,Posture_Sitting,1,L_ESI,21.276348313996092,start,1
BMu67,47,P,INI,Posture_Sitting,1,L_ESI,21.931308312161438,end,1
BMu67,47,P,INI,Posture_Sitting,1,R_ESI,47.505482793172156,total,1
BMu67,47,P,INI,Posture_Sitting,1,R_ESI,51.60520268607588,start,1
BMu67,47,P,INI,Posture_Sitting,1,R_ESI,46.34985926649599,end,1
BMu67,47,P,REL,Posture_Sitting,1,L_ESI,15.36581183832187,total,1
BMu67,47,P,REL,Posture_Sitting,1,L_ESI,15.731800461666634,start,1
BMu67,47,P,REL,Posture_Sitting,1,L_ESI,15.639427357452748,end,1
BMu67,47,P,REL,Posture_Sitting,1,R_ESI,23.354326366073387,total,1
BMu67,47,P,REL,Posture_Sitting,1,R_ESI,24.548818908395816,start,1
BMu67,47,P,REL,Posture_Sitting,1,R_ESI,23.55087665641876,end,1
BMu67,48,C,INI,Posture_Sitting,1,L_ESI,8.712641211929173,total,1
BMu67,48,C,INI,Posture_Sitting,1,L_ESI,8.618770180946353,start,1
BMu67,48,C,INI,Posture_Sitting,1,L_ESI,8.57503043216981,end,1
BMu67,48,C,INI,Posture_Sitting,1,R_ESI,11.332016132873733,total,1
BMu67,48,C,INI,Posture_Sitting,1,R_ESI,11.636675449723542,start,1
BMu67,48,C,INI,Posture_Sitting,1,R_ESI,10.957565569464201,end,1
BMu67,48,C,REL,Posture_Sitting,1,L_ESI,11.16525082054426,total,1
BMu67,48,C,REL,Posture_Sitting,1,L_ESI,11.426575728239417,start,1
BMu67,48,C,REL,Posture_Sitting,1,L_ESI,10.901249203212775,end,1
BMu67,48,C,REL,Posture_Sitting,1,R_ESI,9.6947355970819,total,1
BMu67,48,C,REL,Posture_Sitting,1,R_ESI,10.250261888323728,start,1
BMu67,48,C,REL,Posture_Sitting,1,R_ESI,9.320222554410313,end,1
BMu67,49,C,INI,Posture_Sitting,1,L_ESI,18.22844778281198,total,1
BMu67,49,C,INI,Posture_Sitting,1,L_ESI,18.43077132089275,start,1
BMu67,49,C,INI,Posture_Sitting,1,L_ESI,18.1557756751743,end,1
BMu67,49,C,INI,Posture_Sitting,1,R_ESI,18.124118404430376,total,1
BMu67,49,C,INI,Posture_Sitting,1,R_ESI,17.771404779159866,start,1
BMu67,49,C,INI,Posture_Sitting,1,R_ESI,18.474463441090418,end,1
BMu67,49,C,REL,Posture_Sitting,1,L_ESI,3.0570810856834605,total,1
BMu67,49,C,REL,Posture_Sitting,1,L_ESI,3.134798822157528,start,1
BMu67,49,C,REL,Posture_Sitting,1,L_ESI,3.081199131251509,end,1
BMu67,49,C,REL,Posture_Sitting,1,R_ESI,24.618824079668684,total,1
BMu67,49,C,REL,Posture_Sitting,1,R_ESI,25.054357252454913,start,1
BMu67,49,C,REL,Posture_Sitting,1,R_ESI,24.566089998538388,end,1
BMu67,50,P,INI,Posture_Sitting,1,L_ESI,17.509626608403863,total,1
BMu67,50,P,INI,Posture_Sitting,1,L_ESI,17.658081157105055,start,1
BMu67,50,P,INI,Posture_Sitting,1,L_ESI,17.35976039912823,end,1
BMu67,50,P,INI,Posture_Sitting,1,R_ESI,27.723607857770386,total,1
BMu67,50,P,INI,Posture_Sitting,1,R_ESI,27.486646801921573,start,1
BMu67,50,P,INI,Posture_Sitting,1,R_ESI,27.470523587953974,end,1
BMu67,50,P,REL,Posture_Sitting,1,L_ESI,21.4113725364914,total,1
BMu67,50,P,REL,Posture_Sitting,1,L_ESI,20.094904922453672,start,1
BMu67,50,P,REL,Posture_Sitting,1,L_ESI,21.303983415843597,end,1
BMu67,50,P,REL,Posture_Sitting,1,R_ESI,24.49463856000521,total,1
BMu67,50,P,REL,Posture_Sitting,1,R_ESI,24.250718428593295,start,1
BMu67,50,P,REL,Posture_Sitting,1,R_ESI,24.14023030208535,end,1
BMu67,51,P,INI,Posture_Sitting,1,L_ESI,9.207569723902468,total,1
BMu67,51,P,INI,Posture_Sitting,1,L_ESI,9.159464830930505,start,1
BMu67,51,P,INI,Posture_Sitting,1,L_ESI,8.969469723935624,end,1
BMu67,51,P,INI,Posture_Sitting,1,R_ESI,20.85967632713196,total,1
BMu67,51,P,INI,Posture_Sitting,1,R_ESI,20.736691248259977,start,1
BMu67,51,P,INI,Posture_Sitting,1,R_ESI,20.59318563915191,end,1
BMu67,51,P,REL,Posture_Sitting,1,L_ESI,6.999125970448886,total,1
BMu67,51,P,REL,Posture_Sitting,1,L_ESI,7.257247411714185,start,1
BMu67,51,P,REL,Posture_Sitting,1,L_ESI,6.92212096230749,end,1
BMu67,51,P,REL,Posture_Sitting,1,R_ESI,15.397593598366239,total,1
BMu67,51,P,REL,Posture_Sitting,1,R_ESI,15.143446788336385,start,1
BMu67,51,P,REL,Posture_Sitting,1,R_ESI,15.270993620388133,end,1
BMu67,52,C,INI,Posture_Sitting,1,L_ESI,3.597988385842844,total,1
BMu67,52,C,INI,Posture_Sitting,1,L_ESI,3.6445257626004883,start,1
BMu67,52,C,INI,Posture_Sitting,1,L_ESI,3.590464487958402,end,1
BMu67,52,C,INI,Posture_Sitting,1,R_ESI,14.473211052071536,total,1
BMu67,52,C,INI,Posture_Sitting,1,R_ESI,14.653160768291476,start,1
BMu67,52,C,INI,Posture_Sitting,1,R_ESI,14.504043769219198,end,1
BMu67,52,C,REL,Posture_Sitting,1,L_ESI,5.947229953470786,total,1
BMu67,52,C,REL,Posture_Sitting,1,L_ESI,6.001692102541139,start,1
BMu67,52,C,REL,Posture_Sitting,1,L_ESI,5.996328150111952,end,1
BMu67,52,C,REL,Posture_Sitting,1,R_ESI,17.829526833435338,total,1
BMu67,52,C,REL,Posture_Sitting,1,R_ESI,18.536316151534944,start,1
BMu67,52,C,REL,Posture_Sitting,1,R_ESI,17.184368697006846,end,1
BMu67,53,P,INI,Posture_Sitting,1,L_ESI,10.181532685829968,total,1
BMu67,53,P,INI,Posture_Sitting,1,L_ESI,10.2725899693205,start,1
BMu67,53,P,INI,Posture_Sitting,1,L_ESI,10.063460336307381,end,1
BMu67,53,P,INI,Posture_Sitting,1,R_ESI,16.95565648262156,total,1
BMu67,53,P,INI,Posture_Sitting,1,R_ESI,17.123167741367464,start,1
BMu67,53,P,INI,Posture_Sitting,1,R_ESI,17.068778974605376,end,1
BMu67,53,P,REL,Posture_Sitting,1,L_ESI,12.021942353574513,total,1
BMu67,53,P,REL,Posture_Sitting,1,L_ESI,12.198604151921458,start,1
BMu67,53,P,REL,Posture_Sitting,1,L_ESI,11.690357923594147,end,1
BMu67,53,P,REL,Posture_Sitting,1,R_ESI,13.922842170265953,total,1
BMu67,53,P,REL,Posture_Sitting,1,R_ESI,13.70115806125898,start,1
BMu67,53,P,REL,Posture_Sitting,1,R_ESI,14.166002620184594,end,1
BMu67,54,P,INI,Posture_Sitting,1,L_ESI,44.404915634460586,total,1
BMu67,54,P,INI,Posture_Sitting,1,L_ESI,44.71745482774548,start,1
BMu67,54,P,INI,Posture_Sitting,1,L_ESI,44.85286117383922,end,1
BMu67,54,P,INI,Posture_Sitting,1,R_ESI,35.193212045428645,total,1
BMu67,54,P,INI,Posture_Sitting,1,R_ESI,35.840317823481364,start,1
BMu67,54,P,INI,Posture_Sitting,1,R_ESI,34.436946041546676,end,1
BMu67,54,P,REL,Posture_Sitting,1,L_ESI,40.659025176152724,total,1
BMu67,54,P,REL,Posture_Sitting,1,L_ESI,39.56344863697748,start,1
BMu67,54,P,REL,Posture_Sitting,1,L_ESI,41.43381807153247,end,1
BMu67,54,P,REL,Posture_Sitting,1,R_ESI,36.83691236767012,total,1
BMu67,54,P,REL,Posture_Sitting,1,R_ESI,36.27107311929345,start,1
BMu67,54,P,REL,Posture_Sitting,1,R_ESI,37.44080402380629,end,1
BMu67,55,C,INI,Posture_Sitting,1,L_ESI,11.679195891235043,total,1
BMu67,55,C,INI,Posture_Sitting,1,L_ESI,11.811744752731595,start,1
BMu67,55,C,INI,Posture_Sitting,1,L_ESI,11.847893965977988,end,1
BMu67,55,C,INI,Posture_Sitting,1,R_ESI,15.966596271366376,total,1
BMu67,55,C,INI,Posture_Sitting,1,R_ESI,17.17587809721327,start,1
BMu67,55,C,INI,Posture_Sitting,1,R_ESI,15.900584847190412,end,1
BMu67,55,C,REL,Posture_Sitting,1,L_ESI,7.677199537704316,total,1
BMu67,55,C,REL,Posture_Sitting,1,L_ESI,7.743043697643375,start,1
BMu67,55,C,REL,Posture_Sitting,1,L_ESI,7.636179731045541,end,1
BMu67,55,C,REL,Posture_Sitting,1,R_ESI,15.195565205525133,total,1
BMu67,55,C,REL,Posture_Sitting,1,R_ESI,14.944111383813508,start,1
BMu67,55,C,REL,Posture_Sitting,1,R_ESI,15.552441828978342,end,1
BMu67,56,C,INI,Posture_Sitting,1,L_ESI,13.157204333681163,total,1
BMu67,56,C,INI,Posture_Sitting,1,L_ESI,13.003863365524293,start,1
BMu67,56,C,INI,Posture_Sitting,1,L_ESI,13.203538288179592,end,1
BMu67,56,C,INI,Posture_Sitting,1,R_ESI,5.720436103969862,total,1
BMu67,56,C,INI,Posture_Sitting,1,R_ESI,5.722400985112629,start,1
BMu67,56,C,INI,Posture_Sitting,1,R_ESI,5.880186548259355,end,1
BMu67,56,C,REL,Posture_Sitting,1,L_ESI,14.598943871756434,total,1
BMu67,56,C,REL,Posture_Sitting,1,L_ESI,14.724356751201784,start,1
BMu67,56,C,REL,Posture_Sitting,1,L_ESI,14.161946960198984,end,1
BMu67,56,C,REL,Posture_Sitting,1,R_ESI,25.000383222297117,total,1
BMu67,56,C,REL,Posture_Sitting,1,R_ESI,25.07077973233067,start,1
BMu67,56,C,REL,Posture_Sitting,1,R_ESI,25.028365151826492,end,1
BMu67,57,C,INI,Posture_Sitting,1,L_ESI,7.566287300319061,total,1
BMu67,57,C,INI,Posture_Sitting,1,L_ESI,7.636196858054308,start,1
BMu67,57,C,INI,Posture_Sitting,1,L_ESI,7.527052845974588,end,1
BMu67,57,C,INI,Posture_Sitting,1,R_ESI,8.742122823880369,total,1
BMu67,57,C,INI,Posture_Sitting,1,R_ESI,8.737830092408407,start,1
BMu67,57,C,INI,Posture_Sitting,1,R_ESI,8.65090229201055,end,1
BMu67,57,C,REL,Posture_Sitting,1,L_ESI,14.146356447550541,total,1
BMu67,57,C,REL,Posture_Sitting,1,L_ESI,13.824061341557314,start,1
BMu67,57,C,REL,Posture_Sitting,1,L_ESI,14.429125802438195,end,1
BMu67,57,C,REL,Posture_Sitting,1,R_ESI,18.388831433415785,total,1
BMu67,57,C,REL,Posture_Sitting,1,R_ESI,18.185299762152983,start,1
BMu67,57,C,REL,Posture_Sitting,1,R_ESI,18.826658058920522,end,1
BMu67,58,P,INI,Posture_Sitting,1,L_ESI,24.83763951920507,total,1
BMu67,58,P,INI,Posture_Sitting,1,L_ESI,25.806503434226133,start,1
BMu67,58,P,INI,Posture_Sitting,1,L_ESI,24.806962048307486,end,1
BMu67,58,P,INI,Posture_Sitting,1,R_ESI,16.215783873485982,total,1
BMu67,58,P,INI,Posture_Sitting,1,R_ESI,16.49068480896658,start,1
BMu67,58,P,INI,Posture_Sitting,1,R_ESI,16.150260408824845,end,1
BMu67,58,P,REL,Posture_Sitting,1,L_ESI,15.390386904860721,total,1
BMu67,58,P,REL,Posture_Sitting,1,L_ESI,16.89832047732334,start,1
BMu67,58,P,REL,Posture_Sitting,1,L_ESI,14.334135993013877,end,1
BMu67,58,P,REL,Posture_Sitting,1,R_ESI,11.914855233316976,total,1
BMu67,58,P,REL,Posture_Sitting,1,R_ESI,12.372771397104279,start,1
BMu67,58,P,REL,Posture_Sitting,1,R_ESI,11.352122324609779,end,1
BMu67,60,C,INI,Posture_Sitting,1,L_ESI,5.847384825079035,total,1
BMu67,60,C,INI,Posture_Sitting,1,L_ESI,5.8182706427477155,start,1
BMu67,60,C,INI,Posture_Sitting,1,L_ESI,5.6761253500096975,end,1
BMu67,60,C,INI,Posture_Sitting,1,R_ESI,8.538589565234323,total,1
BMu67,60,C,INI,Posture_Sitting,1,R_ESI,8.643941168038507,start,1
BMu67,60,C,INI,Posture_Sitting,1,R_ESI,8.389876907199817,end,1
BMu67,60,C,REL,Posture_Sitting,1,L_ESI,13.460736081518368,total,1
BMu67,60,C,REL,Posture_Sitting,1,L_ESI,13.399605156946288,start,1
BMu67,60,C,REL,Posture_Sitting,1,L_ESI,13.700197998011195,end,1
BMu67,60,C,REL,Posture_Sitting,1,R_ESI,14.875243942443893,total,1
BMu67,60,C,REL,Posture_Sitting,1,R_ESI,14.360147558471999,start,1
BMu67,60,C,REL,Posture_Sitting,1,R_ESI,15.404902501810227,end,1
BMu67,61,P,REL,Posture_Sitting,1,L_ESI,9.90230377579193,total,1
BMu67,61,P,REL,Posture_Sitting,1,L_ESI,9.578386609009469,start,1
BMu67,61,P,REL,Posture_Sitting,1,L_ESI,10.637602596168614,end,1
BMu67,61,P,REL,Posture_Sitting,1,R_ESI,3.520192625472276,total,1
BMu67,61,P,REL,Posture_Sitting,1,R_ESI,3.4858083036598315,start,1
BMu67,61,P,REL,Posture_Sitting,1,R_ESI,3.638549021325618,end,1
BMu67,62,P,INI,Posture_Sitting,1,L_ESI,6.588933390952595,total,1
BMu67,62,P,INI,Posture_Sitting,1,L_ESI,6.368888035085666,start,1
BMu67,62,P,INI,Posture_Sitting,1,L_ESI,6.763872614823757,end,1
BMu67,62,P,INI,Posture_Sitting,1,R_ESI,10.873629190567636,total,1
BMu67,62,P,INI,Posture_Sitting,1,R_ESI,10.726430623983266,start,1
BMu67,62,P,INI,Posture_Sitting,1,R_ESI,11.148574953092806,end,1
BMu67,62,P,REL,Posture_Sitting,1,L_ESI,11.989752592850655,total,1
BMu67,62,P,REL,Posture_Sitting,1,L_ESI,11.976590446230185,start,1
BMu67,62,P,REL,Posture_Sitting,1,L_ESI,11.774864084680827,end,1
BMu67,62,P,REL,Posture_Sitting,1,R_ESI,8.011989615512174,total,1
BMu67,62,P,REL,Posture_Sitting,1,R_ESI,8.261273809562715,start,1
BMu67,62,P,REL,Posture_Sitting,1,R_ESI,7.912191522850137,end,1
BMu67,63,P,INI,Posture_Sitting,1,L_ESI,10.189917836756111,total,1
BMu67,63,P,INI,Posture_Sitting,1,L_ESI,11.249056216219719,start,1
BMu67,63,P,INI,Posture_Sitting,1,L_ESI,8.727817374276134,end,1
BMu67,63,P,INI,Posture_Sitting,1,R_ESI,17.63892267283331,total,1
BMu67,63,P,INI,Posture_Sitting,1,R_ESI,20.81801873526177,start,1
BMu67,63,P,INI,Posture_Sitting,1,R_ESI,13.99053363119679,end,1
BMu67,63,P,REL,Posture_Sitting,1,L_ESI,13.387322866532912,total,1
BMu67,63,P,REL,Posture_Sitting,1,L_ESI,13.267448606011541,start,1
BMu67,63,P,REL,Posture_Sitting,1,L_ESI,11.740378459549893,end,1
BMu67,63,P,REL,Posture_Sitting,1,R_ESI,15.64323978919825,total,1
BMu67,63,P,REL,Posture_Sitting,1,R_ESI,15.59061536609041,start,1
BMu67,63,P,REL,Posture_Sitting,1,R_ESI,14.669865147504169,end,1
BMu67,64,C,INI,Posture_Sitting,1,L_ESI,6.9857325179927,total,1
BMu67,64,C,INI,Posture_Sitting,1,L_ESI,6.914094432046507,start,1
BMu67,64,C,INI,Posture_Sitting,1,L_ESI,7.199668174691355,end,1
BMu67,64,C,INI,Posture_Sitting,1,R_ESI,7.469227705084914,total,1
BMu67,64,C,INI,Posture_Sitting,1,R_ESI,7.485418807904339,start,1
BMu67,64,C,INI,Posture_Sitting,1,R_ESI,7.71309485689476,end,1
BMu67,64,C,REL,Posture_Sitting,1,L_ESI,5.424559566470285,total,1
BMu67,64,C,REL,Posture_Sitting,1,L_ESI,5.4882316919943195,start,1
BMu67,64,C,REL,Posture_Sitting,1,L_ESI,5.487867807398435,end,1
BMu67,64,C,REL,Posture_Sitting,1,R_ESI,9.053592737169879,total,1
BMu67,64,C,REL,Posture_Sitting,1,R_ESI,9.31667392463509,start,1
BMu67,64,C,REL,Posture_Sitting,1,R_ESI,9.009231800336574,end,1
BMu67,65,P,INI,Posture_Sitting,1,L_ESI,20.11541442789761,total,1
BMu67,65,P,INI,Posture_Sitting,1,L_ESI,17.80079869540377,start,1
BMu67,65,P,INI,Posture_Sitting,1,L_ESI,21.01098364964265,end,1
BMu67,65,P,INI,Posture_Sitting,1,R_ESI,19.20483894950781,total,1
BMu67,65,P,INI,Posture_Sitting,1,R_ESI,18.007206771450758,start,1
BMu67,65,P,INI,Posture_Sitting,1,R_ESI,19.42218263126572,end,1
BMu67,65,P,REL,Posture_Sitting,1,L_ESI,22.478809353290117,total,1
BMu67,65,P,REL,Posture_Sitting,1,L_ESI,23.058024114635888,start,1
BMu67,65,P,REL,Posture_Sitting,1,L_ESI,22.427109004390296,end,1
BMu67,65,P,REL,Posture_Sitting,1,R_ESI,22.300071233372893,total,1
BMu67,65,P,REL,Posture_Sitting,1,R_ESI,22.60140887000651,start,1
BMu67,65,P,REL,Posture_Sitting,1,R_ESI,21.763832494033377,end,1
BMu67,66,C,INI,Posture_Sitting,1,L_ESI,10.545109961971106,total,1
BMu67,66,C,INI,Posture_Sitting,1,L_ESI,10.498936349186279,start,1
BMu67,66,C,INI,Posture_Sitting,1,L_ESI,10.631325047073258,end,1
BMu67,66,C,INI,Posture_Sitting,1,R_ESI,15.536960289709986,total,1
BMu67,66,C,INI,Posture_Sitting,1,R_ESI,15.26413182189375,start,1
BMu67,66,C,INI,Posture_Sitting,1,R_ESI,15.25864535340707,end,1
BMu67,66,C,REL,Posture_Sitting,1,L_ESI,19.67127981122565,total,1
BMu67,66,C,REL,Posture_Sitting,1,L_ESI,21.59378566975487,start,1
BMu67,66,C,REL,Posture_Sitting,1,L_ESI,19.419936559174058,end,1
BMu67,66,C,REL,Posture_Sitting,1,R_ESI,27.939682159164967,total,1
BMu67,66,C,REL,Posture_Sitting,1,R_ESI,28.255932263119355,start,1
BMu67,66,C,REL,Posture_Sitting,1,R_ESI,28.310937628380216,end,1
BMu67,67,C,INI,Posture_Sitting,1,L_ESI,6.8141356530285595,total,1
BMu67,67,C,INI,Posture_Sitting,1,L_ESI,6.951576155944506,start,1
BMu67,67,C,INI,Posture_Sitting,1,L_ESI,6.738422613767338,end,1
BMu67,67,C,INI,Posture_Sitting,1,R_ESI,23.804654139786265,total,1
BMu67,67,C,INI,Posture_Sitting,1,R_ESI,25.693845687505796,start,1
BMu67,67,C,INI,Posture_Sitting,1,R_ESI,22.350438117775322,end,1
BMu67,67,C,REL,Posture_Sitting,1,L_ESI,4.118229197322926,total,1
BMu67,67,C,REL,Posture_Sitting,1,L_ESI,4.9451372930327375,start,1
BMu67,67,C,REL,Posture_Sitting,1,L_ESI,3.81901339736925,end,1
BMu67,67,C,REL,Posture_Sitting,1,R_ESI,9.750128481399885,total,1
BMu67,67,C,REL,Posture_Sitting,1,R_ESI,9.91857709157304,start,1
BMu67,67,C,REL,Posture_Sitting,1,R_ESI,9.5049101117763,end,1
BMu67,68,C,INI,Posture_Sitting,1,L_ESI,14.30377650349648,total,1
BMu67,68,C,INI,Posture_Sitting,1,L_ESI,14.382942193169898,start,1
BMu67,68,C,INI,Posture_Sitting,1,L_ESI,14.084430352664834,end,1
BMu67,68,C,INI,Posture_Sitting,1,R_ESI,18.36828478944144,total,1
BMu67,68,C,INI,Posture_Sitting,1,R_ESI,18.236743132702138,start,1
BMu67,68,C,INI,Posture_Sitting,1,R_ESI,20.161138674708802,end,1
BMu67,68,C,REL,Posture_Sitting,1,L_ESI,16.214572891373095,total,1
BMu67,68,C,REL,Posture_Sitting,1,L_ESI,15.940644410489584,start,1
BMu67,68,C,REL,Posture_Sitting,1,L_ESI,16.015319150900957,end,1
BMu67,68,C,REL,Posture_Sitting,1,R_ESI,18.51254538899466,total,1
BMu67,68,C,REL,Posture_Sitting,1,R_ESI,18.439385826957167,start,1
BMu67,68,C,REL,Posture_Sitting,1,R_ESI,18.291376954804825,end,1
