BMu,subject,P_C,session,task,trials,channel,value,event,repetition
BMu86,1,C,INI,Perturbation_R_Shoulder,1,L_EO,,,
BMu86,1,C,INI,Perturbation_R_Shoulder,1,R_EO,,,
BMu86,1,C,REL,Perturbation_R_Shoulder,1,L_EO,,,
BMu86,1,C,REL,Perturbation_R_Shoulder,1,R_EO,,,
BMu86,2,C,INI,Perturbation_R_Shoulder,1,L_EO,,,
BMu86,2,C,INI,Perturbation_R_Shoulder,1,R_EO,,,
BMu86,2,C,REL,Perturbation_R_Shoulder,1,L_EO,,,
BMu86,2,C,REL,Perturbation_R_Shoulder,1,R_EO,,,
BMu86,3,C,INI,Perturbation_R_Shoulder,1,L_EO,,,
BMu86,3,C,INI,Perturbation_R_Shoulder,1,R_EO,,,
BMu86,3,C,REL,Perturbation_R_Shoulder,1,L_EO,,,
BMu86,3,C,REL,Perturbation_R_Shoulder,1,R_EO,,,
BMu86,5,C,INI,Perturbation_R_Shoulder,1,L_EO,,,
BMu86,5,C,INI,Perturbation_R_Shoulder,1,R_EO,,,
BMu86,5,C,REL,Perturbation_R_Shoulder,1,L_EO,,,
BMu86,5,C,REL,Perturbation_R_Shoulder,1,R_EO,,,
BMu86,6,C,INI,Perturbation_R_Shoulder,1,L_EO,,,
BMu86,6,C,INI,Perturbation_R_Shoulder,1,R_EO,,,
BMu86,6,C,REL,Perturbation_R_Shoulder,1,L_EO,,,
BMu86,6,C,REL,Perturbation_R_Shoulder,1,R_EO,,,
BMu86,7,C,INI,Perturbation_R_Shoulder,1,L_EO,,,
BMu86,7,C,INI,Perturbation_R_Shoulder,1,R_EO,,,
BMu86,7,C,REL,Perturbation_R_Shoulder,1,L_EO,,,
BMu86,7,C,REL,Perturbation_R_Shoulder,1,R_EO,,,
BMu86,8,C,INI,Perturbation_R_Shoulder,1,L_EO,,,
BMu86,8,C,INI,Perturbation_R_Shoulder,1,R_EO,,,
BMu86,8,C,REL,Perturbation_R_Shoulder,1,L_EO,,,
BMu86,8,C,REL,Perturbation_R_Shoulder,1,R_EO,,,
BMu86,10,P,INI,Perturbation_R_Shoulder,1,L_EO,,,
BMu86,10,P,INI,Perturbation_R_Shoulder,1,R_EO,,,
BMu86,10,P,REL,Perturbation_R_Shoulder,1,L_EO,,,
BMu86,10,P,REL,Perturbation_R_Shoulder,1,R_EO,,,
BMu86,11,P,INI,Perturbation_R_Shoulder,1,L_EO,,,
BMu86,11,P,INI,Perturbation_R_Shoulder,1,R_EO,,,
BMu86,11,P,REL,Perturbation_R_Shoulder,1,L_EO,,,
BMu86,11,P,REL,Perturbation_R_Shoulder,1,R_EO,,,
BMu86,12,P,INI,Perturbation_R_Shoulder,1,L_EO,,,
BMu86,12,P,INI,Perturbation_R_Shoulder,1,R_EO,,,
BMu86,12,P,REL,Perturbation_R_Shoulder,1,L_EO,,,
BMu86,12,P,REL,Perturbation_R_Shoulder,1,R_EO,,,
BMu86,13,C,INI,Perturbation_R_Shoulder,1,L_EO,,,
BMu86,13,C,INI,Perturbation_R_Shoulder,1,R_EO,,,
BMu86,13,C,REL,Perturbation_R_Shoulder,1,L_EO,,,
BMu86,13,C,REL,Perturbation_R_Shoulder,1,R_EO,,,
BMu86,14,P,INI,Perturbation_R_Shoulder,1,L_EO,,,
BMu86,14,P,INI,Perturbation_R_Shoulder,1,R_EO,,,
BMu86,14,P,REL,Perturbation_R_Shoulder,1,L_EO,,,
BMu86,14,P,REL,Perturbation_R_Shoulder,1,R_EO,,,
BMu86,16,C,INI,Perturbation_R_Shoulder,1,L_EO,,,
BMu86,16,C,INI,Perturbation_R_Shoulder,1,R_EO,,,
BMu86,16,C,REL,Perturbation_R_Shoulder,1,L_EO,,,
BMu86,16,C,REL,Perturbation_R_Shoulder,1,R_EO,,,
BMu86,17,P,INI,Perturbation_R_Shoulder,1,L_EO,,,
BMu86,17,P,INI,Perturbation_R_Shoulder,1,R_EO,,,
BMu86,17,P,REL,Perturbation_R_Shoulder,1,L_EO,,,
BMu86,17,P,REL,Perturbation_R_Shoulder,1,R_EO,,,
BMu86,21,C,INI,Perturbation_R_Shoulder,1,L_EO,,,
BMu86,21,C,INI,Perturbation_R_Shoulder,1,R_EO,,,
BMu86,21,C,REL,Perturbation_R_Shoulder,1,L_EO,,,
BMu86,21,C,REL,Perturbation_R_Shoulder,1,R_EO,,,
BMu86,22,C,INI,Perturbation_R_Shoulder,1,L_EO,,,
BMu86,22,C,INI,Perturbation_R_Shoulder,1,R_EO,,,
BMu86,22,C,REL,Perturbation_R_Shoulder,1,L_EO,,,
BMu86,22,C,REL,Perturbation_R_Shoulder,1,R_EO,,,
BMu86,23,C,INI,Perturbation_R_Shoulder,1,L_EO,,,
BMu86,23,C,INI,Perturbation_R_Shoulder,1,R_EO,,,
BMu86,23,C,REL,Perturbation_R_Shoulder,1,L_EO,,,
BMu86,23,C,REL,Perturbation_R_Shoulder,1,R_EO,,,
BMu86,24,P,INI,Perturbation_R_Shoulder,1,L_EO,,,
BMu86,24,P,INI,Perturbation_R_Shoulder,1,R_EO,,,
BMu86,24,P,REL,Perturbation_R_Shoulder,1,L_EO,,,
BMu86,24,P,REL,Perturbation_R_Shoulder,1,R_EO,,,
BMu86,25,C,INI,Perturbation_R_Shoulder,1,L_EO,,,
BMu86,25,C,INI,Perturbation_R_Shoulder,1,R_EO,,,
BMu86,25,C,REL,Perturbation_R_Shoulder,1,L_EO,,,
BMu86,25,C,REL,Perturbation_R_Shoulder,1,R_EO,,,
BMu86,26,P,INI,Perturbation_R_Shoulder,1,L_EO,,,
BMu86,26,P,INI,Perturbation_R_Shoulder,1,R_EO,,,
BMu86,26,P,REL,Perturbation_R_Shoulder,1,L_EO,,,
BMu86,26,P,REL,Perturbation_R_Shoulder,1,R_EO,,,
BMu86,27,P,INI,Perturbation_R_Shoulder,1,L_EO,,,
BMu86,27,P,INI,Perturbation_R_Shoulder,1,R_EO,,,
BMu86,27,P,REL,Perturbation_R_Shoulder,1,L_EO,,,
BMu86,27,P,REL,Perturbation_R_Shoulder,1,R_EO,,,
BMu86,28,P,INI,Perturbation_R_Shoulder,1,L_EO,,,
BMu86,28,P,INI,Perturbation_R_Shoulder,1,R_EO,,,
BMu86,28,P,REL,Perturbation_R_Shoulder,1,L_EO,,,
BMu86,28,P,REL,Perturbation_R_Shoulder,1,R_EO,,,
BMu86,29,P,INI,Perturbation_R_Shoulder,1,L_EO,,,
BMu86,29,P,INI,Perturbation_R_Shoulder,1,R_EO,,,
BMu86,29,P,REL,Perturbation_R_Shoulder,1,L_EO,,,
BMu86,29,P,REL,Perturbation_R_Shoulder,1,R_EO,,,
BMu86,30,P,INI,Perturbation_R_Shoulder,1,L_EO,,,
BMu86,30,P,INI,Perturbation_R_Shoulder,1,R_EO,,,
BMu86,30,P,REL,Perturbation_R_Shoulder,1,L_EO,,,
BMu86,30,P,REL,Perturbation_R_Shoulder,1,R_EO,,,
BMu86,32,P,INI,Perturbation_R_Shoulder,1,L_EO,,,
BMu86,32,P,INI,Perturbation_R_Shoulder,1,R_EO,,,
BMu86,32,P,REL,Perturbation_R_Shoulder,1,L_EO,,,
BMu86,32,P,REL,Perturbation_R_Shoulder,1,R_EO,,,
BMu86,33,P,INI,Perturbation_R_Shoulder,1,L_EO,,,
BMu86,33,P,INI,Perturbation_R_Shoulder,1,R_EO,,,
BMu86,33,P,REL,Perturbation_R_Shoulder,1,L_EO,,,
BMu86,33,P,REL,Perturbation_R_Shoulder,1,R_EO,,,
BMu86,34,P,INI,Perturbation_R_Shoulder,1,L_EO,,,
BMu86,34,P,INI,Perturbation_R_Shoulder,1,R_EO,,,
BMu86,34,P,REL,Perturbation_R_Shoulder,1,L_EO,,,
BMu86,34,P,REL,Perturbation_R_Shoulder,1,R_EO,,,
BMu86,35,C,INI,Perturbation_R_Shoulder,1,L_EO,,,
BMu86,35,C,INI,Perturbation_R_Shoulder,1,R_EO,,,
BMu86,35,C,REL,Perturbation_R_Shoulder,1,L_EO,,,
BMu86,35,C,REL,Perturbation_R_Shoulder,1,R_EO,,,
BMu86,36,P,INI,Perturbation_R_Shoulder,1,L_EO,,,
BMu86,36,P,INI,Perturbation_R_Shoulder,1,R_EO,,,
BMu86,36,P,REL,Perturbation_R_Shoulder,1,L_EO,,,
BMu86,36,P,REL,Perturbation_R_Shoulder,1,R_EO,,,
BMu86,38,C,INI,Perturbation_R_Shoulder,1,L_EO,,,
BMu86,38,C,INI,Perturbation_R_Shoulder,1,R_EO,,,
BMu86,38,C,REL,Perturbation_R_Shoulder,1,L_EO,,,
BMu86,38,C,REL,Perturbation_R_Shoulder,1,R_EO,,,
BMu86,40,C,INI,Perturbation_R_Shoulder,1,L_EO,,,
BMu86,40,C,INI,Perturbation_R_Shoulder,1,R_EO,,,
BMu86,40,C,REL,Perturbation_R_Shoulder,1,L_EO,,,
BMu86,40,C,REL,Perturbation_R_Shoulder,1,R_EO,,,
BMu86,41,P,INI,Perturbation_R_Shoulder,1,L_EO,,,
BMu86,41,P,INI,Perturbation_R_Shoulder,1,R_EO,,,
BMu86,41,P,REL,Perturbation_R_Shoulder,1,L_EO,,,
BMu86,41,P,REL,Perturbation_R_Shoulder,1,R_EO,,,
BMu86,42,P,INI,Perturbation_R_Shoulder,1,L_EO,,,
BMu86,42,P,INI,Perturbation_R_Shoulder,1,R_EO,,,
BMu86,42,P,REL,Perturbation_R_Shoulder,1,L_EO,,,
BMu86,42,P,REL,Perturbation_R_Shoulder,1,R_EO,,,
BMu86,43,P,REL,Perturbation_R_Shoulder,1,L_EO,,,
BMu86,43,P,REL,Perturbation_R_Shoulder,1,R_EO,,,
BMu86,44,C,INI,Perturbation_R_Shoulder,1,L_EO,,,
BMu86,44,C,INI,Perturbation_R_Shoulder,1,R_EO,,,
BMu86,44,C,REL,Perturbation_R_Shoulder,1,L_EO,,,
BMu86,44,C,REL,Perturbation_R_Shoulder,1,R_EO,,,
BMu86,45,P,INI,Perturbation_R_Shoulder,1,L_EO,,,
BMu86,45,P,INI,Perturbation_R_Shoulder,1,R_EO,,,
BMu86,45,P,REL,Perturbation_R_Shoulder,1,L_EO,,,
BMu86,45,P,REL,Perturbation_R_Shoulder,1,R_EO,,,
BMu86,46,C,INI,Perturbation_R_Shoulder,1,L_EO,,,
BMu86,46,C,INI,Perturbation_R_Shoulder,1,R_EO,,,
BMu86,46,C,REL,Perturbation_R_Shoulder,1,L_EO,,,
BMu86,46,C,REL,Perturbation_R_Shoulder,1,R_EO,,,
BMu86,47,P,INI,Perturbation_R_Shoulder,1,L_EO,,,
BMu86,47,P,INI,Perturbation_R_Shoulder,1,R_EO,,,
BMu86,47,P,REL,Perturbation_R_Shoulder,1,L_EO,,,
BMu86,47,P,REL,Perturbation_R_Shoulder,1,R_EO,,,
BMu86,48,C,REL,Perturbation_R_Shoulder,1,L_EO,,,
BMu86,48,C,REL,Perturbation_R_Shoulder,1,R_EO,,,
BMu86,49,C,INI,Perturbation_R_Shoulder,1,L_EO,,,
BMu86,49,C,INI,Perturbation_R_Shoulder,1,R_EO,,,
BMu86,49,C,REL,Perturbation_R_Shoulder,1,L_EO,,,
BMu86,49,C,REL,Perturbation_R_Shoulder,1,R_EO,,,
BMu86,50,P,INI,Perturbation_R_Shoulder,1,L_EO,,,
BMu86,50,P,INI,Perturbation_R_Shoulder,1,R_EO,,,
BMu86,50,P,REL,Perturbation_R_Shoulder,1,L_EO,,,
BMu86,50,P,REL,Perturbation_R_Shoulder,1,R_EO,,,
BMu86,51,P,INI,Perturbation_R_Shoulder,1,L_EO,,,
BMu86,51,P,INI,Perturbation_R_Shoulder,1,R_EO,,,
BMu86,51,P,REL,Perturbation_R_Shoulder,1,L_EO,,,
BMu86,51,P,REL,Perturbation_R_Shoulder,1,R_EO,,,
BMu86,52,C,INI,Perturbation_R_Shoulder,1,L_EO,,,
BMu86,52,C,INI,Perturbation_R_Shoulder,1,R_EO,,,
BMu86,52,C,REL,Perturbation_R_Shoulder,1,L_EO,,,
BMu86,52,C,REL,Perturbation_R_Shoulder,1,R_EO,,,
BMu86,53,P,INI,Perturbation_R_Shoulder,1,L_EO,,,
BMu86,53,P,INI,Perturbation_R_Shoulder,1,R_EO,,,
BMu86,53,P,REL,Perturbation_R_Shoulder,1,L_EO,,,
BMu86,53,P,REL,Perturbation_R_Shoulder,1,R_EO,,,
BMu86,54,P,INI,Perturbation_R_Shoulder,1,L_EO,,,
BMu86,54,P,INI,Perturbation_R_Shoulder,1,R_EO,,,
BMu86,55,C,INI,Perturbation_R_Shoulder,1,L_EO,,,
BMu86,55,C,INI,Perturbation_R_Shoulder,1,R_EO,,,
BMu86,55,C,REL,Perturbation_R_Shoulder,1,L_EO,,,
BMu86,55,C,REL,Perturbation_R_Shoulder,1,R_EO,,,
BMu86,56,C,INI,Perturbation_R_Shoulder,1,L_EO,,,
BMu86,56,C,INI,Perturbation_R_Shoulder,1,R_EO,,,
BMu86,56,C,REL,Perturbation_R_Shoulder,1,L_EO,,,
BMu86,56,C,REL,Perturbation_R_Shoulder,1,R_EO,,,
BMu86,57,C,INI,Perturbation_R_Shoulder,1,L_EO,,,
BMu86,57,C,INI,Perturbation_R_Shoulder,1,R_EO,,,
BMu86,57,C,REL,Perturbation_R_Shoulder,1,L_EO,,,
BMu86,57,C,REL,Perturbation_R_Shoulder,1,R_EO,,,
BMu86,58,P,REL,Perturbation_R_Shoulder,1,L_EO,,,
BMu86,58,P,REL,Perturbation_R_Shoulder,1,R_EO,,,
BMu86,60,C,INI,Perturbation_R_Shoulder,1,L_EO,,,
BMu86,60,C,INI,Perturbation_R_Shoulder,1,R_EO,,,
BMu86,60,C,REL,Perturbation_R_Shoulder,1,L_EO,,,
BMu86,60,C,REL,Perturbation_R_Shoulder,1,R_EO,,,
BMu86,61,P,INI,Perturbation_R_Shoulder,1,L_EO,,,
BMu86,61,P,INI,Perturbation_R_Shoulder,1,R_EO,,,
BMu86,61,P,REL,Perturbation_R_Shoulder,1,L_EO,,,
BMu86,61,P,REL,Perturbation_R_Shoulder,1,R_EO,,,
BMu86,62,P,INI,Perturbation_R_Shoulder,1,L_EO,,,
BMu86,62,P,INI,Perturbation_R_Shoulder,1,R_EO,,,
BMu86,62,P,REL,Perturbation_R_Shoulder,1,L_EO,,,
BMu86,62,P,REL,Perturbation_R_Shoulder,1,R_EO,,,
BMu86,63,P,INI,Perturbation_R_Shoulder,1,L_EO,,,
BMu86,63,P,INI,Perturbation_R_Shoulder,1,R_EO,,,
BMu86,63,P,REL,Perturbation_R_Shoulder,1,L_EO,,,
BMu86,63,P,REL,Perturbation_R_Shoulder,1,R_EO,,,
BMu86,64,C,INI,Perturbation_R_Shoulder,1,L_EO,,,
BMu86,64,C,INI,Perturbation_R_Shoulder,1,R_EO,,,
BMu86,64,C,REL,Perturbation_R_Shoulder,1,L_EO,,,
BMu86,64,C,REL,Perturbation_R_Shoulder,1,R_EO,,,
BMu86,65,P,INI,Perturbation_R_Shoulder,1,L_EO,,,
BMu86,65,P,INI,Perturbation_R_Shoulder,1,R_EO,,,
BMu86,65,P,REL,Perturbation_R_Shoulder,1,L_EO,,,
BMu86,65,P,REL,Perturbation_R_Shoulder,1,R_EO,,,
BMu86,66,C,INI,Perturbation_R_Shoulder,1,L_EO,,,
BMu86,66,C,INI,Perturbation_R_Shoulder,1,R_EO,,,
BMu86,66,C,REL,Perturbation_R_Shoulder,1,L_EO,,,
BMu86,66,C,REL,Perturbation_R_Shoulder,1,R_EO,,,
BMu86,67,C,INI,Perturbation_R_Shoulder,1,L_EO,,,
BMu86,67,C,INI,Perturbation_R_Shoulder,1,R_EO,,,
BMu86,67,C,REL,Perturbation_R_Shoulder,1,L_EO,,,
BMu86,67,C,REL,Perturbation_R_Shoulder,1,R_EO,,,
BMu86,68,C,INI,Perturbation_R_Shoulder,1,L_EO,,,
BMu86,68,C,INI,Perturbation_R_Shoulder,1,R_EO,,,
BMu86,68,C,REL,Perturbation_R_Shoulder,1,L_EO,,,
BMu86,68,C,REL,Perturbation_R_Shoulder,1,R_EO,,,
