BMu,subject,P_C,session,task,trials,channel,value,event,rep
BMu97,1,C,INI,Weight_Unconstrained,1,L_ESI,63.181355511399296,return,1
BMu97,1,C,INI,Weight_Unconstrained,1,L_ESI,50.63602949855036,bending,2
BMu97,1,C,INI,Weight_Unconstrained,1,L_ESI,77.1484673327513,return,3
BMu97,1,C,INI,Weight_Unconstrained,1,L_ESI,52.49664307443007,bending,4
BMu97,1,C,INI,Weight_Unconstrained,1,L_ESI,65.49148363266337,return,5
BMu97,1,C,INI,Weight_Unconstrained,1,L_ESI,55.03937778088122,bending,6
BMu97,1,C,INI,Weight_Unconstrained,1,R_ESI,57.72237118656246,return,1
BMu97,1,C,INI,Weight_Unconstrained,1,R_ESI,40.83368847679583,bending,2
BMu97,1,C,INI,Weight_Unconstrained,1,R_ESI,82.99966433040078,return,3
BMu97,1,C,INI,Weight_Unconstrained,1,R_ESI,42.1130961568453,bending,4
BMu97,1,C,INI,Weight_Unconstrained,1,R_ESI,58.776823676565016,return,5
BMu97,1,C,INI,Weight_Unconstrained,1,R_ESI,42.57081055041569,bending,6
BMu97,1,C,REL,Weight_Unconstrained,1,L_ESI,51.035231207817816,return,1
BMu97,1,C,REL,Weight_Unconstrained,1,L_ESI,43.37667274455514,bending,2
BMu97,1,C,REL,Weight_Unconstrained,1,L_ESI,51.65500484123797,return,3
BMu97,1,C,REL,Weight_Unconstrained,1,L_ESI,43.394196749037945,bending,4
BMu97,1,C,REL,Weight_Unconstrained,1,L_ESI,53.087573864193715,return,5
BMu97,1,C,REL,Weight_Unconstrained,1,L_ESI,49.085741265992134,bending,6
BMu97,2,C,INI,Weight_Unconstrained,1,L_ESI,74.94449855309536,return,1
BMu97,2,C,INI,Weight_Unconstrained,1,L_ESI,51.544744724527405,bending,2
BMu97,2,C,INI,Weight_Unconstrained,1,L_ESI,82.88931129606544,return,3
BMu97,2,C,INI,Weight_Unconstrained,1,L_ESI,57.689938014704076,bending,4
BMu97,2,C,INI,Weight_Unconstrained,1,L_ESI,67.59803803578507,return,5
BMu97,2,C,INI,Weight_Unconstrained,1,L_ESI,56.83616470112511,bending,6
BMu97,2,C,REL,Weight_Unconstrained,1,L_ESI,74.28344127004348,return,1
BMu97,2,C,REL,Weight_Unconstrained,1,L_ESI,55.837271809628895,bending,2
BMu97,2,C,REL,Weight_Unconstrained,1,L_ESI,73.91383991662931,return,3
BMu97,2,C,REL,Weight_Unconstrained,1,L_ESI,55.82451894348297,bending,4
BMu97,2,C,REL,Weight_Unconstrained,1,L_ESI,72.08848876027749,return,5
BMu97,2,C,REL,Weight_Unconstrained,1,L_ESI,59.642075847677475,bending,6
BMu97,2,C,REL,Weight_Unconstrained,1,R_ESI,71.15970577820016,return,1
BMu97,2,C,REL,Weight_Unconstrained,1,R_ESI,55.941511768798975,bending,2
BMu97,2,C,REL,Weight_Unconstrained,1,R_ESI,69.65293812487859,return,3
BMu97,2,C,REL,Weight_Unconstrained,1,R_ESI,57.55553919975879,bending,4
BMu97,2,C,REL,Weight_Unconstrained,1,R_ESI,67.08721059984691,return,5
BMu97,2,C,REL,Weight_Unconstrained,1,R_ESI,57.43098113023825,bending,6
BMu97,3,C,INI,Weight_Unconstrained,1,L_ESI,103.44843247422442,return,1
BMu97,3,C,INI,Weight_Unconstrained,1,L_ESI,73.48272725099318,bending,2
BMu97,3,C,INI,Weight_Unconstrained,1,L_ESI,102.39679213781714,return,3
BMu97,3,C,INI,Weight_Unconstrained,1,L_ESI,71.23120086774779,bending,4
BMu97,3,C,INI,Weight_Unconstrained,1,L_ESI,112.99433732611215,return,5
BMu97,3,C,INI,Weight_Unconstrained,1,L_ESI,72.03715418282954,bending,6
BMu97,3,C,INI,Weight_Unconstrained,1,R_ESI,93.17230005915215,return,1
BMu97,3,C,INI,Weight_Unconstrained,1,R_ESI,61.02686503678977,bending,2
BMu97,3,C,INI,Weight_Unconstrained,1,R_ESI,88.62936918100152,return,3
BMu97,3,C,INI,Weight_Unconstrained,1,R_ESI,61.870158393127106,bending,4
BMu97,3,C,INI,Weight_Unconstrained,1,R_ESI,97.31815289705536,return,5
BMu97,3,C,INI,Weight_Unconstrained,1,R_ESI,58.799326039499725,bending,6
BMu97,3,C,REL,Weight_Unconstrained,1,L_ESI,89.06994198221095,return,1
BMu97,3,C,REL,Weight_Unconstrained,1,L_ESI,72.48858971292417,bending,2
BMu97,3,C,REL,Weight_Unconstrained,1,L_ESI,91.21319343294167,return,3
BMu97,3,C,REL,Weight_Unconstrained,1,L_ESI,58.02307832944337,bending,4
BMu97,3,C,REL,Weight_Unconstrained,1,L_ESI,97.78221087806304,return,5
BMu97,3,C,REL,Weight_Unconstrained,1,L_ESI,62.840986421325844,bending,6
BMu97,3,C,REL,Weight_Unconstrained,1,R_ESI,115.98262181476466,return,1
BMu97,3,C,REL,Weight_Unconstrained,1,R_ESI,75.01754376303586,bending,2
BMu97,3,C,REL,Weight_Unconstrained,1,R_ESI,116.27190267458913,return,3
BMu97,3,C,REL,Weight_Unconstrained,1,R_ESI,76.26205895092701,bending,4
BMu97,3,C,REL,Weight_Unconstrained,1,R_ESI,112.4035319517138,return,5
BMu97,3,C,REL,Weight_Unconstrained,1,R_ESI,76.16449470330345,bending,6
BMu97,5,C,INI,Weight_Unconstrained,1,L_ESI,42.92282559676863,return,1
BMu97,5,C,INI,Weight_Unconstrained,1,L_ESI,27.081277512457866,bending,2
BMu97,5,C,INI,Weight_Unconstrained,1,L_ESI,41.59427375645304,return,3
BMu97,5,C,INI,Weight_Unconstrained,1,L_ESI,26.48346181378263,bending,4
BMu97,5,C,INI,Weight_Unconstrained,1,L_ESI,41.6251632669183,return,5
BMu97,5,C,INI,Weight_Unconstrained,1,L_ESI,31.443186773013615,bending,6
BMu97,5,C,INI,Weight_Unconstrained,1,R_ESI,61.08443275915628,return,1
BMu97,5,C,INI,Weight_Unconstrained,1,R_ESI,34.67952873999427,bending,2
BMu97,5,C,INI,Weight_Unconstrained,1,R_ESI,46.58884327736176,return,3
BMu97,5,C,INI,Weight_Unconstrained,1,R_ESI,27.204882872103823,bending,4
BMu97,5,C,INI,Weight_Unconstrained,1,R_ESI,40.13658876830469,return,5
BMu97,5,C,INI,Weight_Unconstrained,1,R_ESI,31.817256027079374,bending,6
BMu97,5,C,REL,Weight_Unconstrained,1,L_ESI,44.82931272313992,return,1
BMu97,5,C,REL,Weight_Unconstrained,1,L_ESI,35.06007880025524,bending,2
BMu97,5,C,REL,Weight_Unconstrained,1,L_ESI,43.43109571720374,return,3
BMu97,5,C,REL,Weight_Unconstrained,1,L_ESI,31.922695508587424,bending,4
BMu97,5,C,REL,Weight_Unconstrained,1,L_ESI,43.02396050471244,return,5
BMu97,5,C,REL,Weight_Unconstrained,1,L_ESI,32.54379751937569,bending,6
BMu97,5,C,REL,Weight_Unconstrained,1,L_ESI,56.20651719627531,return,7
BMu97,5,C,REL,Weight_Unconstrained,1,L_ESI,38.903754926903794,bending,8
BMu97,5,C,REL,Weight_Unconstrained,1,R_ESI,78.75748007593909,return,1
BMu97,5,C,REL,Weight_Unconstrained,1,R_ESI,57.95421261641677,bending,2
BMu97,5,C,REL,Weight_Unconstrained,1,R_ESI,79.57074263835584,return,3
BMu97,5,C,REL,Weight_Unconstrained,1,R_ESI,65.2504700613992,bending,4
BMu97,5,C,REL,Weight_Unconstrained,1,R_ESI,100.26333728627183,return,5
BMu97,5,C,REL,Weight_Unconstrained,1,R_ESI,62.28000730405479,bending,6
BMu97,5,C,REL,Weight_Unconstrained,1,R_ESI,103.36016535765627,return,7
BMu97,5,C,REL,Weight_Unconstrained,1,R_ESI,74.33617221959172,bending,8
BMu97,6,C,INI,Weight_Unconstrained,1,L_ESI,66.66931925842215,return,1
BMu97,6,C,INI,Weight_Unconstrained,1,L_ESI,66.03468483432712,bending,2
BMu97,6,C,INI,Weight_Unconstrained,1,L_ESI,71.6303810499543,return,3
BMu97,6,C,INI,Weight_Unconstrained,1,L_ESI,67.33013008641366,bending,4
BMu97,6,C,INI,Weight_Unconstrained,1,L_ESI,68.62162307610622,return,5
BMu97,6,C,INI,Weight_Unconstrained,1,L_ESI,69.67857378237217,bending,6
BMu97,6,C,INI,Weight_Unconstrained,1,R_ESI,82.46982724626153,return,1
BMu97,6,C,INI,Weight_Unconstrained,1,R_ESI,67.14834700330691,bending,2
BMu97,6,C,INI,Weight_Unconstrained,1,R_ESI,79.22740793308999,return,3
BMu97,6,C,INI,Weight_Unconstrained,1,R_ESI,73.96009098672805,bending,4
BMu97,6,C,INI,Weight_Unconstrained,1,R_ESI,82.19301792359326,return,5
BMu97,6,C,INI,Weight_Unconstrained,1,R_ESI,73.39700495886666,bending,6
BMu97,6,C,REL,Weight_Unconstrained,1,L_ESI,62.35152371449644,return,1
BMu97,6,C,REL,Weight_Unconstrained,1,L_ESI,56.95790376470304,bending,2
BMu97,6,C,REL,Weight_Unconstrained,1,L_ESI,62.87617491565812,return,3
BMu97,6,C,REL,Weight_Unconstrained,1,L_ESI,54.06006134596796,bending,4
BMu97,6,C,REL,Weight_Unconstrained,1,L_ESI,64.47643543265467,return,5
BMu97,6,C,REL,Weight_Unconstrained,1,L_ESI,57.6018857306606,bending,6
BMu97,6,C,REL,Weight_Unconstrained,1,R_ESI,66.54994381731956,return,1
BMu97,6,C,REL,Weight_Unconstrained,1,R_ESI,56.63958697559519,bending,2
BMu97,6,C,REL,Weight_Unconstrained,1,R_ESI,65.8263491710393,return,3
BMu97,6,C,REL,Weight_Unconstrained,1,R_ESI,59.77568573996967,bending,4
BMu97,6,C,REL,Weight_Unconstrained,1,R_ESI,68.77467721101628,return,5
BMu97,6,C,REL,Weight_Unconstrained,1,R_ESI,56.461623544583695,bending,6
BMu97,7,C,INI,Weight_Unconstrained,1,L_ESI,48.814275156284126,return,1
BMu97,7,C,INI,Weight_Unconstrained,1,L_ESI,31.37720250408665,bending,2
BMu97,7,C,INI,Weight_Unconstrained,1,L_ESI,54.589282616146534,return,3
BMu97,7,C,INI,Weight_Unconstrained,1,L_ESI,30.932310203538854,bending,4
BMu97,7,C,INI,Weight_Unconstrained,1,L_ESI,64.2070242028498,return,5
BMu97,7,C,INI,Weight_Unconstrained,1,L_ESI,34.48193764303438,bending,6
BMu97,7,C,INI,Weight_Unconstrained,1,R_ESI,38.806357513937854,return,1
BMu97,7,C,INI,Weight_Unconstrained,1,R_ESI,29.30115037980077,bending,2
BMu97,7,C,INI,Weight_Unconstrained,1,R_ESI,49.29134934774716,return,3
BMu97,7,C,INI,Weight_Unconstrained,1,R_ESI,26.313769430521514,bending,4
BMu97,7,C,INI,Weight_Unconstrained,1,R_ESI,50.96367382775414,return,5
BMu97,7,C,INI,Weight_Unconstrained,1,R_ESI,28.678710785483965,bending,6
BMu97,7,C,REL,Weight_Unconstrained,1,L_ESI,31.0589897222351,return,1
BMu97,7,C,REL,Weight_Unconstrained,1,L_ESI,25.875666640071927,bending,2
BMu97,7,C,REL,Weight_Unconstrained,1,L_ESI,32.4795914528503,return,3
BMu97,7,C,REL,Weight_Unconstrained,1,L_ESI,23.218602232866267,bending,4
BMu97,7,C,REL,Weight_Unconstrained,1,L_ESI,33.983309528045886,return,5
BMu97,7,C,REL,Weight_Unconstrained,1,L_ESI,25.485101698537242,bending,6
BMu97,7,C,REL,Weight_Unconstrained,1,R_ESI,28.523159326788477,return,1
BMu97,7,C,REL,Weight_Unconstrained,1,R_ESI,24.181990401568235,bending,2
BMu97,7,C,REL,Weight_Unconstrained,1,R_ESI,32.38861325022909,return,3
BMu97,7,C,REL,Weight_Unconstrained,1,R_ESI,23.05201006575062,bending,4
BMu97,7,C,REL,Weight_Unconstrained,1,R_ESI,32.28295691585829,return,5
BMu97,7,C,REL,Weight_Unconstrained,1,R_ESI,24.165404014517485,bending,6
BMu97,8,C,INI,Weight_Unconstrained,1,L_ESI,112.92003513813275,return,1
BMu97,8,C,INI,Weight_Unconstrained,1,L_ESI,61.30288784832944,bending,2
BMu97,8,C,INI,Weight_Unconstrained,1,L_ESI,38.56724525385885,return,3
BMu97,8,C,INI,Weight_Unconstrained,1,L_ESI,58.071361156450585,bending,4
BMu97,8,C,INI,Weight_Unconstrained,1,L_ESI,75.21649294799387,return,5
BMu97,8,C,INI,Weight_Unconstrained,1,L_ESI,62.252356625068366,bending,6
BMu97,8,C,INI,Weight_Unconstrained,1,R_ESI,110.32938672258766,return,1
BMu97,8,C,INI,Weight_Unconstrained,1,R_ESI,69.22138233816936,bending,2
BMu97,8,C,INI,Weight_Unconstrained,1,R_ESI,65.48537728126234,return,3
BMu97,8,C,INI,Weight_Unconstrained,1,R_ESI,78.75379043697372,bending,4
BMu97,8,C,INI,Weight_Unconstrained,1,R_ESI,89.0726053002038,return,5
BMu97,8,C,INI,Weight_Unconstrained,1,R_ESI,85.53798336913721,bending,6
BMu97,8,C,REL,Weight_Unconstrained,1,L_ESI,57.13616998813933,return,1
BMu97,8,C,REL,Weight_Unconstrained,1,L_ESI,108.67862374961358,bending,2
BMu97,8,C,REL,Weight_Unconstrained,1,L_ESI,79.88768920887142,return,3
BMu97,8,C,REL,Weight_Unconstrained,1,L_ESI,34.920329816392226,bending,4
BMu97,8,C,REL,Weight_Unconstrained,1,L_ESI,63.307340802115014,return,5
BMu97,8,C,REL,Weight_Unconstrained,1,L_ESI,82.70245623203871,bending,6
BMu97,8,C,REL,Weight_Unconstrained,1,R_ESI,82.70832952495348,return,1
BMu97,8,C,REL,Weight_Unconstrained,1,R_ESI,96.9934122484578,bending,2
BMu97,8,C,REL,Weight_Unconstrained,1,R_ESI,96.55482873211308,return,3
BMu97,8,C,REL,Weight_Unconstrained,1,R_ESI,81.89050186952416,bending,4
BMu97,8,C,REL,Weight_Unconstrained,1,R_ESI,88.21494756143674,return,5
BMu97,8,C,REL,Weight_Unconstrained,1,R_ESI,102.47155303534345,bending,6
BMu97,9,P,INI,Weight_Unconstrained,1,L_ESI,66.31974583092419,return,1
BMu97,9,P,INI,Weight_Unconstrained,1,L_ESI,32.04195322665099,bending,2
BMu97,9,P,INI,Weight_Unconstrained,1,L_ESI,52.0428982599555,return,3
BMu97,9,P,INI,Weight_Unconstrained,1,L_ESI,32.48404086060559,bending,4
BMu97,9,P,INI,Weight_Unconstrained,1,L_ESI,52.6176779752064,return,5
BMu97,9,P,INI,Weight_Unconstrained,1,L_ESI,34.529638152187836,bending,6
BMu97,9,P,INI,Weight_Unconstrained,1,R_ESI,57.956680121123256,return,1
BMu97,9,P,INI,Weight_Unconstrained,1,R_ESI,48.40868219390535,bending,2
BMu97,9,P,INI,Weight_Unconstrained,1,R_ESI,61.32736425920518,return,3
BMu97,9,P,INI,Weight_Unconstrained,1,R_ESI,49.8127379084417,bending,4
BMu97,9,P,INI,Weight_Unconstrained,1,R_ESI,62.75910068514744,return,5
BMu97,9,P,INI,Weight_Unconstrained,1,R_ESI,48.780824519244106,bending,6
BMu97,9,P,REL,Weight_Unconstrained,1,L_ESI,21.605431023083277,return,1
BMu97,9,P,REL,Weight_Unconstrained,1,L_ESI,23.59257288758224,bending,2
BMu97,9,P,REL,Weight_Unconstrained,1,L_ESI,30.569499909725756,return,3
BMu97,9,P,REL,Weight_Unconstrained,1,L_ESI,28.663054574145963,bending,4
BMu97,9,P,REL,Weight_Unconstrained,1,L_ESI,31.571789865217777,return,5
BMu97,9,P,REL,Weight_Unconstrained,1,L_ESI,30.241439661944636,bending,6
BMu97,9,P,REL,Weight_Unconstrained,1,L_ESI,32.11550160741892,return,7
BMu97,9,P,REL,Weight_Unconstrained,1,L_ESI,31.06293615032068,bending,8
BMu97,9,P,REL,Weight_Unconstrained,1,L_ESI,30.673260726636126,return,9
BMu97,9,P,REL,Weight_Unconstrained,1,L_ESI,29.687075599085958,bending,10
BMu97,9,P,REL,Weight_Unconstrained,1,L_ESI,28.55073986728635,return,11
BMu97,9,P,REL,Weight_Unconstrained,1,R_ESI,32.33899455224488,return,1
BMu97,9,P,REL,Weight_Unconstrained,1,R_ESI,30.039535624321065,bending,2
BMu97,9,P,REL,Weight_Unconstrained,1,R_ESI,37.782790513540625,return,3
BMu97,9,P,REL,Weight_Unconstrained,1,R_ESI,35.770977948312805,bending,4
BMu97,9,P,REL,Weight_Unconstrained,1,R_ESI,40.418155171492934,return,5
BMu97,9,P,REL,Weight_Unconstrained,1,R_ESI,35.29276197167181,bending,6
BMu97,9,P,REL,Weight_Unconstrained,1,R_ESI,44.16798105283015,return,7
BMu97,9,P,REL,Weight_Unconstrained,1,R_ESI,36.7934327149642,bending,8
BMu97,9,P,REL,Weight_Unconstrained,1,R_ESI,45.55117242067591,return,9
BMu97,9,P,REL,Weight_Unconstrained,1,R_ESI,40.68365513329371,bending,10
BMu97,9,P,REL,Weight_Unconstrained,1,R_ESI,38.83665137224112,return,11
BMu97,10,P,INI,Weight_Unconstrained,1,L_ESI,108.46062695001656,return,1
BMu97,10,P,INI,Weight_Unconstrained,1,L_ESI,68.95951982408754,bending,2
BMu97,10,P,INI,Weight_Unconstrained,1,L_ESI,124.56618859194083,return,3
BMu97,10,P,INI,Weight_Unconstrained,1,L_ESI,65.01053673859147,bending,4
BMu97,10,P,INI,Weight_Unconstrained,1,L_ESI,134.5522480259652,return,5
BMu97,10,P,INI,Weight_Unconstrained,1,L_ESI,75.74364413140061,bending,6
BMu97,10,P,INI,Weight_Unconstrained,1,R_ESI,77.43616865921015,return,1
BMu97,10,P,INI,Weight_Unconstrained,1,R_ESI,65.6045405037545,bending,2
BMu97,10,P,INI,Weight_Unconstrained,1,R_ESI,81.0130539979433,return,3
BMu97,10,P,INI,Weight_Unconstrained,1,R_ESI,74.79772565658206,bending,4
BMu97,10,P,INI,Weight_Unconstrained,1,R_ESI,87.76862622517172,return,5
BMu97,10,P,INI,Weight_Unconstrained,1,R_ESI,69.73928465415412,bending,6
BMu97,10,P,REL,Weight_Unconstrained,1,L_ESI,67.14771087758409,return,1
BMu97,10,P,REL,Weight_Unconstrained,1,L_ESI,42.86633907404377,bending,2
BMu97,10,P,REL,Weight_Unconstrained,1,L_ESI,71.51488028599115,return,3
BMu97,10,P,REL,Weight_Unconstrained,1,L_ESI,46.58024572596511,bending,4
BMu97,10,P,REL,Weight_Unconstrained,1,L_ESI,73.77396160021893,return,5
BMu97,10,P,REL,Weight_Unconstrained,1,L_ESI,39.631598619678506,bending,6
BMu97,11,P,INI,Weight_Unconstrained,1,L_ESI,35.175832235821844,return,1
BMu97,11,P,INI,Weight_Unconstrained,1,L_ESI,27.111053537152966,bending,2
BMu97,11,P,INI,Weight_Unconstrained,1,L_ESI,32.22802551205149,return,3
BMu97,11,P,INI,Weight_Unconstrained,1,L_ESI,26.920032374774667,bending,4
BMu97,11,P,INI,Weight_Unconstrained,1,L_ESI,37.947201598585984,return,5
BMu97,11,P,INI,Weight_Unconstrained,1,L_ESI,25.452383148362767,bending,6
BMu97,11,P,INI,Weight_Unconstrained,1,R_ESI,36.49213486894451,return,1
BMu97,11,P,INI,Weight_Unconstrained,1,R_ESI,37.41672645253804,bending,2
BMu97,11,P,INI,Weight_Unconstrained,1,R_ESI,41.18829881092951,return,3
BMu97,11,P,INI,Weight_Unconstrained,1,R_ESI,33.01965832609505,bending,4
BMu97,11,P,INI,Weight_Unconstrained,1,R_ESI,48.60053166241556,return,5
BMu97,11,P,INI,Weight_Unconstrained,1,R_ESI,33.63009964579682,bending,6
BMu97,11,P,REL,Weight_Unconstrained,1,L_ESI,72.16256241860165,return,1
BMu97,11,P,REL,Weight_Unconstrained,1,L_ESI,61.82967931629794,bending,2
BMu97,11,P,REL,Weight_Unconstrained,1,L_ESI,87.77178641661185,return,3
BMu97,11,P,REL,Weight_Unconstrained,1,L_ESI,54.14492812696225,bending,4
BMu97,11,P,REL,Weight_Unconstrained,1,L_ESI,78.92060287050126,return,5
BMu97,11,P,REL,Weight_Unconstrained,1,L_ESI,58.182330449417435,bending,6
BMu97,11,P,REL,Weight_Unconstrained,1,R_ESI,51.97739832309807,return,1
BMu97,11,P,REL,Weight_Unconstrained,1,R_ESI,46.296276505763984,bending,2
BMu97,11,P,REL,Weight_Unconstrained,1,R_ESI,70.63987371792854,return,3
BMu97,11,P,REL,Weight_Unconstrained,1,R_ESI,43.19949626288576,bending,4
BMu97,11,P,REL,Weight_Unconstrained,1,R_ESI,77.59612201646206,return,5
BMu97,11,P,REL,Weight_Unconstrained,1,R_ESI,48.9257829938368,bending,6
BMu97,12,P,INI,Weight_Unconstrained,1,L_ESI,70.71342873327086,return,1
BMu97,12,P,INI,Weight_Unconstrained,1,L_ESI,60.862124107352635,bending,2
BMu97,12,P,INI,Weight_Unconstrained,1,L_ESI,61.49204479113005,return,3
BMu97,12,P,INI,Weight_Unconstrained,1,L_ESI,54.297834685373545,bending,4
BMu97,12,P,INI,Weight_Unconstrained,1,L_ESI,60.105473560611735,return,5
BMu97,12,P,INI,Weight_Unconstrained,1,L_ESI,59.66951310622658,bending,6
BMu97,12,P,REL,Weight_Unconstrained,1,L_ESI,62.88296572115296,return,1
BMu97,12,P,REL,Weight_Unconstrained,1,L_ESI,46.80317819731572,bending,2
BMu97,12,P,REL,Weight_Unconstrained,1,L_ESI,72.61083045301386,return,3
BMu97,12,P,REL,Weight_Unconstrained,1,L_ESI,47.838086902839514,bending,4
BMu97,12,P,REL,Weight_Unconstrained,1,L_ESI,68.53553495472846,return,5
BMu97,12,P,REL,Weight_Unconstrained,1,L_ESI,55.179546191294165,bending,6
BMu97,13,C,INI,Weight_Unconstrained,1,L_ESI,102.89625768235001,return,1
BMu97,13,C,INI,Weight_Unconstrained,1,L_ESI,56.77925973750171,bending,2
BMu97,13,C,INI,Weight_Unconstrained,1,L_ESI,94.3058771941803,return,3
BMu97,13,C,INI,Weight_Unconstrained,1,L_ESI,60.157507989745596,bending,4
BMu97,13,C,INI,Weight_Unconstrained,1,L_ESI,95.44629454048302,return,5
BMu97,13,C,INI,Weight_Unconstrained,1,L_ESI,58.51215111804848,bending,6
BMu97,13,C,INI,Weight_Unconstrained,1,R_ESI,76.10346473379332,return,1
BMu97,13,C,INI,Weight_Unconstrained,1,R_ESI,51.45637514323938,bending,2
BMu97,13,C,INI,Weight_Unconstrained,1,R_ESI,78.64981455780139,return,3
BMu97,13,C,INI,Weight_Unconstrained,1,R_ESI,57.96827246751821,bending,4
BMu97,13,C,INI,Weight_Unconstrained,1,R_ESI,85.32759160872388,return,5
BMu97,13,C,INI,Weight_Unconstrained,1,R_ESI,61.56486495538404,bending,6
BMu97,13,C,REL,Weight_Unconstrained,1,L_ESI,91.42107253504467,return,1
BMu97,13,C,REL,Weight_Unconstrained,1,L_ESI,71.2633826362843,bending,2
BMu97,13,C,REL,Weight_Unconstrained,1,L_ESI,99.83784707132078,return,3
BMu97,13,C,REL,Weight_Unconstrained,1,L_ESI,66.36843777457338,bending,4
BMu97,13,C,REL,Weight_Unconstrained,1,L_ESI,96.75056460832916,return,5
BMu97,13,C,REL,Weight_Unconstrained,1,L_ESI,71.07329698419882,bending,6
BMu97,13,C,REL,Weight_Unconstrained,1,R_ESI,80.63137217272204,return,1
BMu97,13,C,REL,Weight_Unconstrained,1,R_ESI,67.55670572053643,bending,2
BMu97,13,C,REL,Weight_Unconstrained,1,R_ESI,92.0002519054853,return,3
BMu97,13,C,REL,Weight_Unconstrained,1,R_ESI,68.15965582214024,bending,4
BMu97,13,C,REL,Weight_Unconstrained,1,R_ESI,83.47136507351196,return,5
BMu97,13,C,REL,Weight_Unconstrained,1,R_ESI,69.87008609637623,bending,6
BMu97,14,P,INI,Weight_Unconstrained,1,L_ESI,53.63736084628688,return,1
BMu97,14,P,INI,Weight_Unconstrained,1,L_ESI,40.585483874526155,bending,2
BMu97,14,P,INI,Weight_Unconstrained,1,L_ESI,59.93898827853677,return,3
BMu97,14,P,INI,Weight_Unconstrained,1,L_ESI,42.4447859041786,bending,4
BMu97,14,P,INI,Weight_Unconstrained,1,L_ESI,67.05777937901395,return,5
BMu97,14,P,INI,Weight_Unconstrained,1,L_ESI,43.41010307320629,bending,6
BMu97,14,P,INI,Weight_Unconstrained,1,R_ESI,95.71012640285822,return,1
BMu97,14,P,INI,Weight_Unconstrained,1,R_ESI,65.48215025760013,bending,2
BMu97,14,P,INI,Weight_Unconstrained,1,R_ESI,93.92755785597109,return,3
BMu97,14,P,INI,Weight_Unconstrained,1,R_ESI,69.0869327776151,bending,4
BMu97,14,P,INI,Weight_Unconstrained,1,R_ESI,88.727294370701,return,5
BMu97,14,P,INI,Weight_Unconstrained,1,R_ESI,69.20586715012195,bending,6
BMu97,14,P,REL,Weight_Unconstrained,1,L_ESI,100.61938660400733,return,1
BMu97,14,P,REL,Weight_Unconstrained,1,L_ESI,74.81655123812996,bending,2
BMu97,14,P,REL,Weight_Unconstrained,1,L_ESI,101.0123743491794,return,3
BMu97,14,P,REL,Weight_Unconstrained,1,L_ESI,74.31986129442392,bending,4
BMu97,14,P,REL,Weight_Unconstrained,1,L_ESI,112.39315101556392,return,5
BMu97,14,P,REL,Weight_Unconstrained,1,L_ESI,75.04672062446166,bending,6
BMu97,14,P,REL,Weight_Unconstrained,1,R_ESI,80.90393357790452,return,1
BMu97,14,P,REL,Weight_Unconstrained,1,R_ESI,67.9895807280652,bending,2
BMu97,14,P,REL,Weight_Unconstrained,1,R_ESI,87.51176458714112,return,3
BMu97,14,P,REL,Weight_Unconstrained,1,R_ESI,64.71924890897918,bending,4
BMu97,14,P,REL,Weight_Unconstrained,1,R_ESI,79.09902205066409,return,5
BMu97,14,P,REL,Weight_Unconstrained,1,R_ESI,64.30787557041053,bending,6
BMu97,16,C,INI,Weight_Unconstrained,1,L_ESI,104.7642381751572,return,1
BMu97,16,C,INI,Weight_Unconstrained,1,L_ESI,73.988721890774,bending,2
BMu97,16,C,INI,Weight_Unconstrained,1,L_ESI,99.68454151716644,return,3
BMu97,16,C,INI,Weight_Unconstrained,1,L_ESI,66.84095956990403,bending,4
BMu97,16,C,INI,Weight_Unconstrained,1,L_ESI,115.03322237344099,return,5
BMu97,16,C,INI,Weight_Unconstrained,1,L_ESI,73.38523838442383,bending,6
BMu97,16,C,INI,Weight_Unconstrained,1,R_ESI,157.83148912478995,return,1
BMu97,16,C,INI,Weight_Unconstrained,1,R_ESI,110.51968867345246,bending,2
BMu97,16,C,INI,Weight_Unconstrained,1,R_ESI,149.06457073501537,return,3
BMu97,16,C,INI,Weight_Unconstrained,1,R_ESI,96.74922630681775,bending,4
BMu97,16,C,INI,Weight_Unconstrained,1,R_ESI,149.66565320235824,return,5
BMu97,16,C,INI,Weight_Unconstrained,1,R_ESI,109.72973887684059,bending,6
BMu97,16,C,REL,Weight_Unconstrained,1,L_ESI,131.9827367791451,return,1
BMu97,16,C,REL,Weight_Unconstrained,1,L_ESI,85.24045041394305,bending,2
BMu97,16,C,REL,Weight_Unconstrained,1,L_ESI,132.20865491731018,return,3
BMu97,16,C,REL,Weight_Unconstrained,1,L_ESI,89.31483279663861,bending,4
BMu97,16,C,REL,Weight_Unconstrained,1,L_ESI,139.9876169286191,return,5
BMu97,16,C,REL,Weight_Unconstrained,1,L_ESI,87.43301308183236,bending,6
BMu97,16,C,REL,Weight_Unconstrained,1,R_ESI,113.07838399971122,return,1
BMu97,16,C,REL,Weight_Unconstrained,1,R_ESI,92.05743345609227,bending,2
BMu97,16,C,REL,Weight_Unconstrained,1,R_ESI,145.8402053211592,return,3
BMu97,16,C,REL,Weight_Unconstrained,1,R_ESI,92.57316432165767,bending,4
BMu97,16,C,REL,Weight_Unconstrained,1,R_ESI,156.53537060797657,return,5
BMu97,16,C,REL,Weight_Unconstrained,1,R_ESI,92.7127671126537,bending,6
BMu97,17,P,INI,Weight_Unconstrained,1,L_ESI,38.83007348700766,return,1
BMu97,17,P,INI,Weight_Unconstrained,1,L_ESI,45.13170697436355,bending,2
BMu97,17,P,INI,Weight_Unconstrained,1,L_ESI,44.22344571192007,return,3
BMu97,17,P,INI,Weight_Unconstrained,1,L_ESI,44.73207998784311,bending,4
BMu97,17,P,INI,Weight_Unconstrained,1,L_ESI,40.507580460941846,return,5
BMu97,17,P,INI,Weight_Unconstrained,1,L_ESI,50.659226633204504,bending,6
BMu97,17,P,REL,Weight_Unconstrained,1,L_ESI,29.126643886548138,return,1
BMu97,17,P,REL,Weight_Unconstrained,1,L_ESI,24.684835043741785,bending,2
BMu97,17,P,REL,Weight_Unconstrained,1,L_ESI,31.66392735324445,return,3
BMu97,17,P,REL,Weight_Unconstrained,1,L_ESI,26.531044954019432,bending,4
BMu97,17,P,REL,Weight_Unconstrained,1,L_ESI,41.47456359285018,return,5
BMu97,17,P,REL,Weight_Unconstrained,1,L_ESI,28.338111410500677,bending,6
BMu97,21,C,INI,Weight_Unconstrained,1,L_ESI,51.75496284563165,return,1
BMu97,21,C,INI,Weight_Unconstrained,1,L_ESI,39.65257848532206,bending,2
BMu97,21,C,INI,Weight_Unconstrained,1,L_ESI,58.393369215884995,return,3
BMu97,21,C,INI,Weight_Unconstrained,1,L_ESI,45.4232172849712,bending,4
BMu97,21,C,INI,Weight_Unconstrained,1,L_ESI,91.6320752928503,return,5
BMu97,21,C,INI,Weight_Unconstrained,1,L_ESI,56.17703330141655,bending,6
BMu97,21,C,INI,Weight_Unconstrained,1,R_ESI,47.0430800564014,return,1
BMu97,21,C,INI,Weight_Unconstrained,1,R_ESI,46.004448295699866,bending,2
BMu97,21,C,INI,Weight_Unconstrained,1,R_ESI,65.48112471741243,return,3
BMu97,21,C,INI,Weight_Unconstrained,1,R_ESI,50.60684683577686,bending,4
BMu97,21,C,INI,Weight_Unconstrained,1,R_ESI,91.98122128052935,return,5
BMu97,21,C,INI,Weight_Unconstrained,1,R_ESI,54.43649867682985,bending,6
BMu97,21,C,REL,Weight_Unconstrained,1,L_ESI,66.18981106395057,return,1
BMu97,21,C,REL,Weight_Unconstrained,1,L_ESI,66.58791413357218,bending,2
BMu97,21,C,REL,Weight_Unconstrained,1,L_ESI,97.34807952776967,return,3
BMu97,21,C,REL,Weight_Unconstrained,1,L_ESI,162.28620149537434,bending,4
BMu97,21,C,REL,Weight_Unconstrained,1,L_ESI,126.95073150310951,return,5
BMu97,21,C,REL,Weight_Unconstrained,1,L_ESI,226.70526133947124,bending,6
BMu97,21,C,REL,Weight_Unconstrained,1,L_ESI,95.39404732315107,return,7
BMu97,21,C,REL,Weight_Unconstrained,1,L_ESI,154.46932839460783,bending,8
BMu97,22,C,INI,Weight_Unconstrained,1,L_ESI,80.73556473600524,return,1
BMu97,22,C,INI,Weight_Unconstrained,1,L_ESI,70.05216386465858,bending,2
BMu97,22,C,INI,Weight_Unconstrained,1,L_ESI,90.5575113567658,return,3
BMu97,22,C,INI,Weight_Unconstrained,1,L_ESI,77.7849392242121,bending,4
BMu97,22,C,INI,Weight_Unconstrained,1,L_ESI,75.81158322611452,return,5
BMu97,22,C,INI,Weight_Unconstrained,1,L_ESI,69.87640056485337,bending,6
BMu97,22,C,REL,Weight_Unconstrained,1,L_ESI,42.41488418270928,return,1
BMu97,22,C,REL,Weight_Unconstrained,1,L_ESI,36.08124353707266,bending,2
BMu97,22,C,REL,Weight_Unconstrained,1,L_ESI,46.29990362065121,return,3
BMu97,22,C,REL,Weight_Unconstrained,1,L_ESI,46.67321695569116,bending,4
BMu97,22,C,REL,Weight_Unconstrained,1,L_ESI,40.57604541543184,return,5
BMu97,22,C,REL,Weight_Unconstrained,1,R_ESI,40.70586841711407,return,1
BMu97,22,C,REL,Weight_Unconstrained,1,R_ESI,37.21434217904015,bending,2
BMu97,22,C,REL,Weight_Unconstrained,1,R_ESI,45.64115708856782,return,3
BMu97,22,C,REL,Weight_Unconstrained,1,R_ESI,40.63476430961799,bending,4
BMu97,22,C,REL,Weight_Unconstrained,1,R_ESI,38.91800835185779,return,5
BMu97,23,C,INI,Weight_Unconstrained,1,L_ESI,77.11994004963708,return,1
BMu97,23,C,INI,Weight_Unconstrained,1,L_ESI,57.43079811616007,bending,2
BMu97,23,C,INI,Weight_Unconstrained,1,L_ESI,82.6420800978398,return,3
BMu97,23,C,INI,Weight_Unconstrained,1,L_ESI,52.9885298296565,bending,4
BMu97,23,C,INI,Weight_Unconstrained,1,L_ESI,84.24979529685267,return,5
BMu97,23,C,INI,Weight_Unconstrained,1,L_ESI,70.34070994584934,bending,6
BMu97,23,C,REL,Weight_Unconstrained,1,R_ESI,44.536907011238995,return,1
BMu97,23,C,REL,Weight_Unconstrained,1,R_ESI,37.97304445129829,bending,2
BMu97,23,C,REL,Weight_Unconstrained,1,R_ESI,50.172635506959516,return,3
BMu97,23,C,REL,Weight_Unconstrained,1,R_ESI,38.03724803349005,bending,4
BMu97,23,C,REL,Weight_Unconstrained,1,R_ESI,56.45991923467101,return,5
BMu97,23,C,REL,Weight_Unconstrained,1,R_ESI,35.33182248899443,bending,6
BMu97,24,P,INI,Weight_Unconstrained,1,L_ESI,92.08316735876342,return,1
BMu97,24,P,INI,Weight_Unconstrained,1,L_ESI,76.38039735566996,bending,2
BMu97,24,P,INI,Weight_Unconstrained,1,L_ESI,91.73379431424797,return,3
BMu97,24,P,INI,Weight_Unconstrained,1,L_ESI,79.99139830296991,bending,4
BMu97,24,P,INI,Weight_Unconstrained,1,L_ESI,91.62185620381894,return,5
BMu97,24,P,INI,Weight_Unconstrained,1,L_ESI,80.4969077250749,bending,6
BMu97,24,P,INI,Weight_Unconstrained,1,R_ESI,80.91335410754586,return,1
BMu97,24,P,INI,Weight_Unconstrained,1,R_ESI,76.36344687795139,bending,2
BMu97,24,P,INI,Weight_Unconstrained,1,R_ESI,80.94209533642557,return,3
BMu97,24,P,INI,Weight_Unconstrained,1,R_ESI,74.98552587555808,bending,4
BMu97,24,P,INI,Weight_Unconstrained,1,R_ESI,80.89582224745081,return,5
BMu97,24,P,INI,Weight_Unconstrained,1,R_ESI,76.19310745364429,bending,6
BMu97,24,P,REL,Weight_Unconstrained,1,L_ESI,87.05883650170254,return,1
BMu97,24,P,REL,Weight_Unconstrained,1,L_ESI,67.23011152550636,bending,2
BMu97,24,P,REL,Weight_Unconstrained,1,L_ESI,83.86675547262465,return,3
BMu97,24,P,REL,Weight_Unconstrained,1,L_ESI,67.8721190163759,bending,4
BMu97,24,P,REL,Weight_Unconstrained,1,L_ESI,103.05540314954543,return,5
BMu97,24,P,REL,Weight_Unconstrained,1,L_ESI,107.30882965359994,bending,6
BMu97,24,P,REL,Weight_Unconstrained,1,R_ESI,71.51484619330246,return,1
BMu97,24,P,REL,Weight_Unconstrained,1,R_ESI,69.80291552739213,bending,2
BMu97,24,P,REL,Weight_Unconstrained,1,R_ESI,73.32405539752085,return,3
BMu97,24,P,REL,Weight_Unconstrained,1,R_ESI,70.97463900597158,bending,4
BMu97,24,P,REL,Weight_Unconstrained,1,R_ESI,74.32006836260551,return,5
BMu97,24,P,REL,Weight_Unconstrained,1,R_ESI,67.4732510184263,bending,6
BMu97,25,C,INI,Weight_Unconstrained,1,R_ESI,66.65462862409645,return,1
BMu97,25,C,INI,Weight_Unconstrained,1,R_ESI,63.316906027852106,bending,2
BMu97,25,C,INI,Weight_Unconstrained,1,R_ESI,55.96925368132469,return,3
BMu97,25,C,INI,Weight_Unconstrained,1,R_ESI,28.452153425890806,bending,4
BMu97,25,C,INI,Weight_Unconstrained,1,R_ESI,72.88016372446124,return,5
BMu97,25,C,INI,Weight_Unconstrained,1,R_ESI,31.972305372478132,bending,6
BMu97,25,C,REL,Weight_Unconstrained,1,R_ESI,107.77726017469287,return,1
BMu97,25,C,REL,Weight_Unconstrained,1,R_ESI,59.9866632500239,bending,2
BMu97,25,C,REL,Weight_Unconstrained,1,R_ESI,94.1951849400984,return,3
BMu97,25,C,REL,Weight_Unconstrained,1,R_ESI,37.874336686644824,bending,4
BMu97,25,C,REL,Weight_Unconstrained,1,R_ESI,81.09618911564822,return,5
BMu97,25,C,REL,Weight_Unconstrained,1,R_ESI,38.214478147260024,bending,6
BMu97,26,P,INI,Weight_Unconstrained,1,L_ESI,77.75065627560313,return,1
BMu97,26,P,INI,Weight_Unconstrained,1,L_ESI,77.51636417447511,bending,2
BMu97,26,P,INI,Weight_Unconstrained,1,L_ESI,95.36293084518132,return,3
BMu97,26,P,INI,Weight_Unconstrained,1,L_ESI,96.39856530674057,bending,4
BMu97,26,P,INI,Weight_Unconstrained,1,L_ESI,114.67311773657707,return,5
BMu97,26,P,INI,Weight_Unconstrained,1,L_ESI,107.61560490433561,bending,6
BMu97,26,P,INI,Weight_Unconstrained,1,R_ESI,65.8901790136782,return,1
BMu97,26,P,INI,Weight_Unconstrained,1,R_ESI,60.34511378278475,bending,2
BMu97,26,P,INI,Weight_Unconstrained,1,R_ESI,81.02382372565677,return,3
BMu97,26,P,INI,Weight_Unconstrained,1,R_ESI,55.35611790325115,bending,4
BMu97,26,P,INI,Weight_Unconstrained,1,R_ESI,67.63502513293808,return,5
BMu97,26,P,INI,Weight_Unconstrained,1,R_ESI,51.632453570322376,bending,6
BMu97,26,P,REL,Weight_Unconstrained,1,L_ESI,151.80041044688724,return,1
BMu97,26,P,REL,Weight_Unconstrained,1,L_ESI,136.1661244971809,bending,2
BMu97,26,P,REL,Weight_Unconstrained,1,L_ESI,188.6072753695632,return,3
BMu97,26,P,REL,Weight_Unconstrained,1,L_ESI,153.66143772308854,bending,4
BMu97,26,P,REL,Weight_Unconstrained,1,L_ESI,288.6614629058169,return,5
BMu97,26,P,REL,Weight_Unconstrained,1,L_ESI,216.49698164740133,bending,6
BMu97,27,P,INI,Weight_Unconstrained,1,L_ESI,66.9511080043952,return,1
BMu97,27,P,INI,Weight_Unconstrained,1,L_ESI,46.3761834973135,bending,2
BMu97,27,P,INI,Weight_Unconstrained,1,L_ESI,63.01939304949032,return,3
BMu97,27,P,INI,Weight_Unconstrained,1,L_ESI,45.23887303637535,bending,4
BMu97,27,P,INI,Weight_Unconstrained,1,L_ESI,61.27644876083344,return,5
BMu97,27,P,INI,Weight_Unconstrained,1,L_ESI,45.96328371266858,bending,6
BMu97,27,P,INI,Weight_Unconstrained,1,R_ESI,74.99230618373448,return,1
BMu97,27,P,INI,Weight_Unconstrained,1,R_ESI,57.14826441101922,bending,2
BMu97,27,P,INI,Weight_Unconstrained,1,R_ESI,77.01199702225438,return,3
BMu97,27,P,INI,Weight_Unconstrained,1,R_ESI,55.69067202206022,bending,4
BMu97,27,P,INI,Weight_Unconstrained,1,R_ESI,59.49445850306471,return,5
BMu97,27,P,INI,Weight_Unconstrained,1,R_ESI,65.24321534817061,bending,6
BMu97,27,P,REL,Weight_Unconstrained,1,L_ESI,64.2304602329996,return,1
BMu97,27,P,REL,Weight_Unconstrained,1,L_ESI,48.12171220833162,bending,2
BMu97,27,P,REL,Weight_Unconstrained,1,L_ESI,61.80468025878038,return,3
BMu97,27,P,REL,Weight_Unconstrained,1,L_ESI,49.11383439657696,bending,4
BMu97,27,P,REL,Weight_Unconstrained,1,L_ESI,59.51830569314302,return,5
BMu97,27,P,REL,Weight_Unconstrained,1,L_ESI,41.977193064666956,bending,6
BMu97,27,P,REL,Weight_Unconstrained,1,R_ESI,96.39617471520765,return,1
BMu97,27,P,REL,Weight_Unconstrained,1,R_ESI,71.37403180564532,bending,2
BMu97,27,P,REL,Weight_Unconstrained,1,R_ESI,101.65853930207639,return,3
BMu97,27,P,REL,Weight_Unconstrained,1,R_ESI,71.42688755372403,bending,4
BMu97,27,P,REL,Weight_Unconstrained,1,R_ESI,82.1544486845268,return,5
BMu97,27,P,REL,Weight_Unconstrained,1,R_ESI,56.3455350562005,bending,6
BMu97,28,P,INI,Weight_Unconstrained,1,L_ESI,42.96553035085893,return,1
BMu97,28,P,INI,Weight_Unconstrained,1,L_ESI,32.73842940349708,bending,2
BMu97,28,P,INI,Weight_Unconstrained,1,L_ESI,41.29447020540807,return,3
BMu97,28,P,INI,Weight_Unconstrained,1,L_ESI,33.33591348028812,bending,4
BMu97,28,P,INI,Weight_Unconstrained,1,L_ESI,43.991463711950544,return,5
BMu97,28,P,INI,Weight_Unconstrained,1,L_ESI,32.4798446902747,bending,6
BMu97,28,P,INI,Weight_Unconstrained,1,R_ESI,44.399548874327536,return,1
BMu97,28,P,INI,Weight_Unconstrained,1,R_ESI,41.013485006949324,bending,2
BMu97,28,P,INI,Weight_Unconstrained,1,R_ESI,47.69772715834245,return,3
BMu97,28,P,INI,Weight_Unconstrained,1,R_ESI,42.99518847436734,bending,4
BMu97,28,P,INI,Weight_Unconstrained,1,R_ESI,46.27266242688058,return,5
BMu97,28,P,INI,Weight_Unconstrained,1,R_ESI,39.11513376435567,bending,6
BMu97,28,P,REL,Weight_Unconstrained,1,L_ESI,41.41497811971368,return,1
BMu97,28,P,REL,Weight_Unconstrained,1,L_ESI,39.35942910823677,bending,2
BMu97,28,P,REL,Weight_Unconstrained,1,L_ESI,52.31161820402631,return,3
BMu97,28,P,REL,Weight_Unconstrained,1,L_ESI,34.402246679600154,bending,4
BMu97,28,P,REL,Weight_Unconstrained,1,L_ESI,49.531598617352834,return,5
BMu97,28,P,REL,Weight_Unconstrained,1,L_ESI,39.342377257450515,bending,6
BMu97,28,P,REL,Weight_Unconstrained,1,R_ESI,50.15345020288443,return,1
BMu97,28,P,REL,Weight_Unconstrained,1,R_ESI,42.72932141575648,bending,2
BMu97,28,P,REL,Weight_Unconstrained,1,R_ESI,55.11779879060492,return,3
BMu97,28,P,REL,Weight_Unconstrained,1,R_ESI,38.53384058152432,bending,4
BMu97,28,P,REL,Weight_Unconstrained,1,R_ESI,49.279278571737166,return,5
BMu97,28,P,REL,Weight_Unconstrained,1,R_ESI,38.86003555258184,bending,6
BMu97,29,P,INI,Weight_Unconstrained,1,L_ESI,56.015565063881674,return,1
BMu97,29,P,INI,Weight_Unconstrained,1,L_ESI,58.298199187712385,bending,2
BMu97,29,P,INI,Weight_Unconstrained,1,L_ESI,,return,3
BMu97,29,P,INI,Weight_Unconstrained,1,L_ESI,,bending,4
BMu97,29,P,INI,Weight_Unconstrained,1,L_ESI,,return,5
BMu97,29,P,INI,Weight_Unconstrained,1,L_ESI,,bending,6
BMu97,29,P,INI,Weight_Unconstrained,1,L_ESI,31.736614406253356,return,7
BMu97,29,P,INI,Weight_Unconstrained,1,R_ESI,53.96534318402227,return,1
BMu97,29,P,INI,Weight_Unconstrained,1,R_ESI,57.18874651497717,bending,2
BMu97,29,P,INI,Weight_Unconstrained,1,R_ESI,,return,3
BMu97,29,P,INI,Weight_Unconstrained,1,R_ESI,,bending,4
BMu97,29,P,INI,Weight_Unconstrained,1,R_ESI,,return,5
BMu97,29,P,INI,Weight_Unconstrained,1,R_ESI,,bending,6
BMu97,29,P,INI,Weight_Unconstrained,1,R_ESI,38.55895769139538,return,7
BMu97,29,P,REL,Weight_Unconstrained,1,L_ESI,,return,1
BMu97,29,P,REL,Weight_Unconstrained,1,L_ESI,,bending,2
BMu97,29,P,REL,Weight_Unconstrained,1,L_ESI,46.83536604657114,return,3
BMu97,29,P,REL,Weight_Unconstrained,1,L_ESI,58.19355717890394,bending,4
BMu97,29,P,REL,Weight_Unconstrained,1,L_ESI,62.76752875880832,return,5
BMu97,29,P,REL,Weight_Unconstrained,1,L_ESI,73.91804234470547,bending,6
BMu97,29,P,REL,Weight_Unconstrained,1,R_ESI,,return,1
BMu97,29,P,REL,Weight_Unconstrained,1,R_ESI,,bending,2
BMu97,29,P,REL,Weight_Unconstrained,1,R_ESI,40.7544121697825,return,3
BMu97,29,P,REL,Weight_Unconstrained,1,R_ESI,47.19127657626376,bending,4
BMu97,29,P,REL,Weight_Unconstrained,1,R_ESI,49.01175732894038,return,5
BMu97,29,P,REL,Weight_Unconstrained,1,R_ESI,56.86266357719294,bending,6
BMu97,30,P,INI,Weight_Unconstrained,1,L_ESI,40.61140281114709,return,1
BMu97,30,P,INI,Weight_Unconstrained,1,L_ESI,32.992264948030346,bending,2
BMu97,30,P,INI,Weight_Unconstrained,1,L_ESI,44.92649430412705,return,3
BMu97,30,P,INI,Weight_Unconstrained,1,L_ESI,35.84046778961761,bending,4
BMu97,30,P,INI,Weight_Unconstrained,1,L_ESI,49.435202752051524,return,5
BMu97,30,P,INI,Weight_Unconstrained,1,L_ESI,40.128778503834674,bending,6
BMu97,30,P,INI,Weight_Unconstrained,1,R_ESI,44.10536793325315,return,1
BMu97,30,P,INI,Weight_Unconstrained,1,R_ESI,36.63753925719237,bending,2
BMu97,30,P,INI,Weight_Unconstrained,1,R_ESI,46.998319030378816,return,3
BMu97,30,P,INI,Weight_Unconstrained,1,R_ESI,39.598167853013564,bending,4
BMu97,30,P,INI,Weight_Unconstrained,1,R_ESI,50.78746471024002,return,5
BMu97,30,P,INI,Weight_Unconstrained,1,R_ESI,41.88048883486982,bending,6
BMu97,30,P,REL,Weight_Unconstrained,1,L_ESI,68.57312037885886,return,1
BMu97,30,P,REL,Weight_Unconstrained,1,L_ESI,55.96731656204124,bending,2
BMu97,30,P,REL,Weight_Unconstrained,1,L_ESI,68.92432313536631,return,3
BMu97,30,P,REL,Weight_Unconstrained,1,L_ESI,56.82350484079865,bending,4
BMu97,30,P,REL,Weight_Unconstrained,1,L_ESI,70.00859360541087,return,5
BMu97,30,P,REL,Weight_Unconstrained,1,L_ESI,55.87903896165232,bending,6
BMu97,30,P,REL,Weight_Unconstrained,1,R_ESI,66.60220976365734,return,1
BMu97,30,P,REL,Weight_Unconstrained,1,R_ESI,50.66978341842005,bending,2
BMu97,30,P,REL,Weight_Unconstrained,1,R_ESI,73.97258574729355,return,3
BMu97,30,P,REL,Weight_Unconstrained,1,R_ESI,49.21063123522367,bending,4
BMu97,30,P,REL,Weight_Unconstrained,1,R_ESI,70.07787091911915,return,5
BMu97,30,P,REL,Weight_Unconstrained,1,R_ESI,48.951365512960486,bending,6
BMu97,32,P,INI,Weight_Unconstrained,1,L_ESI,35.234413859460915,return,1
BMu97,32,P,INI,Weight_Unconstrained,1,L_ESI,27.865135247816557,bending,2
BMu97,32,P,INI,Weight_Unconstrained,1,L_ESI,37.26614706125061,return,3
BMu97,32,P,INI,Weight_Unconstrained,1,L_ESI,29.354197446485877,bending,4
BMu97,32,P,INI,Weight_Unconstrained,1,L_ESI,34.75683265563004,return,5
BMu97,32,P,INI,Weight_Unconstrained,1,L_ESI,31.503596666206015,bending,6
BMu97,32,P,INI,Weight_Unconstrained,1,R_ESI,60.77343680854377,return,1
BMu97,32,P,INI,Weight_Unconstrained,1,R_ESI,51.65300865104118,bending,2
BMu97,32,P,INI,Weight_Unconstrained,1,R_ESI,68.64305283578496,return,3
BMu97,32,P,INI,Weight_Unconstrained,1,R_ESI,53.30815652768034,bending,4
BMu97,32,P,INI,Weight_Unconstrained,1,R_ESI,63.735966469722705,return,5
BMu97,32,P,INI,Weight_Unconstrained,1,R_ESI,57.954422219412066,bending,6
BMu97,32,P,REL,Weight_Unconstrained,1,L_ESI,47.72793464732991,return,1
BMu97,32,P,REL,Weight_Unconstrained,1,L_ESI,42.42974662420783,bending,2
BMu97,32,P,REL,Weight_Unconstrained,1,L_ESI,56.58035748941342,return,3
BMu97,32,P,REL,Weight_Unconstrained,1,L_ESI,40.18313310517915,bending,4
BMu97,32,P,REL,Weight_Unconstrained,1,L_ESI,44.801146626777395,return,5
BMu97,32,P,REL,Weight_Unconstrained,1,L_ESI,40.85592300821451,bending,6
BMu97,32,P,REL,Weight_Unconstrained,1,R_ESI,71.44286629911505,return,1
BMu97,32,P,REL,Weight_Unconstrained,1,R_ESI,65.9328415865392,bending,2
BMu97,32,P,REL,Weight_Unconstrained,1,R_ESI,85.32260736903771,return,3
BMu97,32,P,REL,Weight_Unconstrained,1,R_ESI,62.48454006562351,bending,4
BMu97,32,P,REL,Weight_Unconstrained,1,R_ESI,77.56962346535967,return,5
BMu97,32,P,REL,Weight_Unconstrained,1,R_ESI,69.75156197195636,bending,6
BMu97,33,P,INI,Weight_Unconstrained,1,L_ESI,85.53490188046744,return,1
BMu97,33,P,INI,Weight_Unconstrained,1,L_ESI,71.03760356980791,bending,2
BMu97,33,P,INI,Weight_Unconstrained,1,L_ESI,106.4297541953628,return,3
BMu97,33,P,INI,Weight_Unconstrained,1,L_ESI,96.78240760300952,bending,4
BMu97,33,P,INI,Weight_Unconstrained,1,L_ESI,89.70622917013752,return,5
BMu97,33,P,INI,Weight_Unconstrained,1,L_ESI,97.03196622207835,bending,6
BMu97,33,P,INI,Weight_Unconstrained,1,R_ESI,58.04883167719404,return,1
BMu97,33,P,INI,Weight_Unconstrained,1,R_ESI,49.82455822051915,bending,2
BMu97,33,P,INI,Weight_Unconstrained,1,R_ESI,92.00050956173024,return,3
BMu97,33,P,INI,Weight_Unconstrained,1,R_ESI,51.0179838475882,bending,4
BMu97,33,P,INI,Weight_Unconstrained,1,R_ESI,66.39029493686441,return,5
BMu97,33,P,INI,Weight_Unconstrained,1,R_ESI,82.39014980167482,bending,6
BMu97,33,P,REL,Weight_Unconstrained,1,L_ESI,50.70408818417089,return,1
BMu97,33,P,REL,Weight_Unconstrained,1,L_ESI,38.231848284197234,bending,2
BMu97,33,P,REL,Weight_Unconstrained,1,L_ESI,29.34665739048397,return,3
BMu97,34,P,INI,Weight_Unconstrained,1,L_ESI,78.97560937038227,return,1
BMu97,34,P,INI,Weight_Unconstrained,1,L_ESI,53.18887026556496,bending,2
BMu97,34,P,INI,Weight_Unconstrained,1,L_ESI,68.11061552979447,return,3
BMu97,34,P,INI,Weight_Unconstrained,1,L_ESI,48.7582307271979,bending,4
BMu97,34,P,INI,Weight_Unconstrained,1,L_ESI,67.2963961247185,return,5
BMu97,34,P,INI,Weight_Unconstrained,1,L_ESI,55.58316662245098,bending,6
BMu97,34,P,INI,Weight_Unconstrained,1,R_ESI,57.9620428255405,return,1
BMu97,34,P,INI,Weight_Unconstrained,1,R_ESI,49.48091950889866,bending,2
BMu97,34,P,INI,Weight_Unconstrained,1,R_ESI,53.76594466905975,return,3
BMu97,34,P,INI,Weight_Unconstrained,1,R_ESI,44.1782514693993,bending,4
BMu97,34,P,INI,Weight_Unconstrained,1,R_ESI,55.43500982612919,return,5
BMu97,34,P,INI,Weight_Unconstrained,1,R_ESI,47.33518149809171,bending,6
BMu97,34,P,REL,Weight_Unconstrained,1,L_ESI,97.45907757703958,return,1
BMu97,34,P,REL,Weight_Unconstrained,1,L_ESI,75.50161713959172,bending,2
BMu97,34,P,REL,Weight_Unconstrained,1,L_ESI,103.33863360126536,return,3
BMu97,34,P,REL,Weight_Unconstrained,1,L_ESI,87.12573170338365,bending,4
BMu97,34,P,REL,Weight_Unconstrained,1,L_ESI,112.8305488531013,return,5
BMu97,34,P,REL,Weight_Unconstrained,1,L_ESI,72.11712186954489,bending,6
BMu97,35,C,INI,Weight_Unconstrained,1,R_ESI,50.96641360967685,return,1
BMu97,35,C,INI,Weight_Unconstrained,1,R_ESI,42.951866238756224,bending,2
BMu97,35,C,INI,Weight_Unconstrained,1,R_ESI,65.74635087581595,return,3
BMu97,35,C,INI,Weight_Unconstrained,1,R_ESI,49.628355879955485,bending,4
BMu97,35,C,INI,Weight_Unconstrained,1,R_ESI,65.38077585298485,return,5
BMu97,35,C,INI,Weight_Unconstrained,1,R_ESI,53.127889430495614,bending,6
BMu97,35,C,REL,Weight_Unconstrained,1,L_ESI,69.75297061213482,return,1
BMu97,35,C,REL,Weight_Unconstrained,1,L_ESI,59.719246300405594,bending,2
BMu97,35,C,REL,Weight_Unconstrained,1,L_ESI,74.28484797712835,return,3
BMu97,35,C,REL,Weight_Unconstrained,1,L_ESI,51.48654319211246,bending,4
BMu97,35,C,REL,Weight_Unconstrained,1,L_ESI,84.26275920015293,return,5
BMu97,35,C,REL,Weight_Unconstrained,1,L_ESI,62.590818515026356,bending,6
BMu97,35,C,REL,Weight_Unconstrained,1,R_ESI,79.01782959815722,return,1
BMu97,35,C,REL,Weight_Unconstrained,1,R_ESI,67.13707730894754,bending,2
BMu97,35,C,REL,Weight_Unconstrained,1,R_ESI,70.2896321696965,return,3
BMu97,35,C,REL,Weight_Unconstrained,1,R_ESI,61.80664344546819,bending,4
BMu97,35,C,REL,Weight_Unconstrained,1,R_ESI,88.82441926820931,return,5
BMu97,35,C,REL,Weight_Unconstrained,1,R_ESI,64.01370718184376,bending,6
BMu97,36,P,INI,Weight_Unconstrained,1,L_ESI,57.02862860773333,return,1
BMu97,36,P,INI,Weight_Unconstrained,1,L_ESI,35.02715593662592,bending,2
BMu97,36,P,INI,Weight_Unconstrained,1,L_ESI,56.924476421048865,return,3
BMu97,36,P,INI,Weight_Unconstrained,1,L_ESI,34.37607686293587,bending,4
BMu97,36,P,INI,Weight_Unconstrained,1,L_ESI,113.92693288731441,return,5
BMu97,36,P,INI,Weight_Unconstrained,1,L_ESI,38.963104666977245,bending,6
BMu97,36,P,INI,Weight_Unconstrained,1,R_ESI,58.22809031553422,return,1
BMu97,36,P,INI,Weight_Unconstrained,1,R_ESI,21.565807840830544,bending,2
BMu97,36,P,INI,Weight_Unconstrained,1,R_ESI,49.011390896347436,return,3
BMu97,36,P,INI,Weight_Unconstrained,1,R_ESI,21.998853265616457,bending,4
BMu97,36,P,INI,Weight_Unconstrained,1,R_ESI,62.029183108601096,return,5
BMu97,36,P,INI,Weight_Unconstrained,1,R_ESI,25.52222365859026,bending,6
BMu97,36,P,REL,Weight_Unconstrained,1,L_ESI,22.984784123569167,return,1
BMu97,36,P,REL,Weight_Unconstrained,1,L_ESI,24.382539890263804,bending,2
BMu97,36,P,REL,Weight_Unconstrained,1,L_ESI,22.87473464278051,return,3
BMu97,36,P,REL,Weight_Unconstrained,1,L_ESI,24.95322300883379,bending,4
BMu97,36,P,REL,Weight_Unconstrained,1,L_ESI,25.856755881508757,return,5
BMu97,36,P,REL,Weight_Unconstrained,1,L_ESI,28.933157932870298,bending,6
BMu97,36,P,REL,Weight_Unconstrained,1,R_ESI,14.602020270914132,return,1
BMu97,36,P,REL,Weight_Unconstrained,1,R_ESI,12.583311004907257,bending,2
BMu97,36,P,REL,Weight_Unconstrained,1,R_ESI,13.350891560215754,return,3
BMu97,36,P,REL,Weight_Unconstrained,1,R_ESI,12.082521564326871,bending,4
BMu97,36,P,REL,Weight_Unconstrained,1,R_ESI,13.075135251868247,return,5
BMu97,36,P,REL,Weight_Unconstrained,1,R_ESI,12.91265538117975,bending,6
BMu97,38,C,INI,Weight_Unconstrained,1,L_ESI,76.18943021008954,return,1
BMu97,38,C,INI,Weight_Unconstrained,1,L_ESI,67.64821402370585,bending,2
BMu97,38,C,INI,Weight_Unconstrained,1,L_ESI,84.54418831937583,return,3
BMu97,38,C,INI,Weight_Unconstrained,1,L_ESI,71.15802013180691,bending,4
BMu97,38,C,INI,Weight_Unconstrained,1,L_ESI,79.31459009817891,return,5
BMu97,38,C,INI,Weight_Unconstrained,1,L_ESI,72.48938402540753,bending,6
BMu97,38,C,INI,Weight_Unconstrained,1,L_ESI,82.63282028391784,return,7
BMu97,38,C,INI,Weight_Unconstrained,1,L_ESI,71.06696376677765,bending,8
BMu97,38,C,INI,Weight_Unconstrained,1,R_ESI,84.89557723501426,return,1
BMu97,38,C,INI,Weight_Unconstrained,1,R_ESI,74.83045296057053,bending,2
BMu97,38,C,INI,Weight_Unconstrained,1,R_ESI,92.5747704665498,return,3
BMu97,38,C,INI,Weight_Unconstrained,1,R_ESI,79.1164066679944,bending,4
BMu97,38,C,INI,Weight_Unconstrained,1,R_ESI,77.22691382023933,return,5
BMu97,38,C,INI,Weight_Unconstrained,1,R_ESI,79.68034208236791,bending,6
BMu97,38,C,INI,Weight_Unconstrained,1,R_ESI,86.00791624763221,return,7
BMu97,38,C,INI,Weight_Unconstrained,1,R_ESI,71.91677215990208,bending,8
BMu97,38,C,REL,Weight_Unconstrained,1,L_ESI,62.11059560966899,return,1
BMu97,38,C,REL,Weight_Unconstrained,1,L_ESI,54.66014862966248,bending,2
BMu97,38,C,REL,Weight_Unconstrained,1,L_ESI,65.81976658779567,return,3
BMu97,38,C,REL,Weight_Unconstrained,1,L_ESI,56.93989773052289,bending,4
BMu97,38,C,REL,Weight_Unconstrained,1,L_ESI,69.53149147293385,return,5
BMu97,38,C,REL,Weight_Unconstrained,1,L_ESI,54.071415705627786,bending,6
BMu97,38,C,REL,Weight_Unconstrained,1,L_ESI,62.20996302765162,return,7
BMu97,38,C,REL,Weight_Unconstrained,1,L_ESI,57.050813051571744,bending,8
BMu97,38,C,REL,Weight_Unconstrained,1,L_ESI,61.35844022865973,return,9
BMu97,38,C,REL,Weight_Unconstrained,1,L_ESI,54.32262132885176,bending,10
BMu97,38,C,REL,Weight_Unconstrained,1,R_ESI,76.39485178142692,return,1
BMu97,38,C,REL,Weight_Unconstrained,1,R_ESI,72.90370816640484,bending,2
BMu97,38,C,REL,Weight_Unconstrained,1,R_ESI,89.52932029951921,return,3
BMu97,38,C,REL,Weight_Unconstrained,1,R_ESI,65.01433889728216,bending,4
BMu97,38,C,REL,Weight_Unconstrained,1,R_ESI,87.88105900691022,return,5
BMu97,38,C,REL,Weight_Unconstrained,1,R_ESI,75.24962072689743,bending,6
BMu97,38,C,REL,Weight_Unconstrained,1,R_ESI,80.51903967257302,return,7
BMu97,38,C,REL,Weight_Unconstrained,1,R_ESI,68.77499865648858,bending,8
BMu97,38,C,REL,Weight_Unconstrained,1,R_ESI,82.54646774563368,return,9
BMu97,38,C,REL,Weight_Unconstrained,1,R_ESI,69.95840255652689,bending,10
BMu97,39,C,INI,Weight_Unconstrained,1,L_ESI,47.254546198238614,return,1
BMu97,39,C,INI,Weight_Unconstrained,1,L_ESI,53.730234916105246,bending,2
BMu97,39,C,INI,Weight_Unconstrained,1,L_ESI,69.3665559551938,return,3
BMu97,39,C,INI,Weight_Unconstrained,1,L_ESI,27.39976827718194,bending,4
BMu97,39,C,INI,Weight_Unconstrained,1,L_ESI,64.1965020605253,return,5
BMu97,39,C,INI,Weight_Unconstrained,1,L_ESI,39.62440351224168,bending,6
BMu97,39,C,INI,Weight_Unconstrained,1,R_ESI,19.237216339950784,return,1
BMu97,39,C,INI,Weight_Unconstrained,1,R_ESI,23.20162338469621,bending,2
BMu97,39,C,INI,Weight_Unconstrained,1,R_ESI,49.28356767592416,return,3
BMu97,39,C,INI,Weight_Unconstrained,1,R_ESI,14.909929971748134,bending,4
BMu97,39,C,INI,Weight_Unconstrained,1,R_ESI,45.60508768362757,return,5
BMu97,39,C,INI,Weight_Unconstrained,1,R_ESI,18.793948622036762,bending,6
BMu97,39,C,REL,Weight_Unconstrained,1,L_ESI,58.6890462937415,return,1
BMu97,39,C,REL,Weight_Unconstrained,1,L_ESI,50.46062543597906,bending,2
BMu97,39,C,REL,Weight_Unconstrained,1,L_ESI,58.89751082950036,return,3
BMu97,39,C,REL,Weight_Unconstrained,1,L_ESI,38.90323823673333,bending,4
BMu97,39,C,REL,Weight_Unconstrained,1,L_ESI,56.97658792808101,return,5
BMu97,39,C,REL,Weight_Unconstrained,1,L_ESI,47.765830231120134,bending,6
BMu97,39,C,REL,Weight_Unconstrained,1,R_ESI,33.819383657298786,return,1
BMu97,39,C,REL,Weight_Unconstrained,1,R_ESI,26.088399723992683,bending,2
BMu97,39,C,REL,Weight_Unconstrained,1,R_ESI,44.864748027268476,return,3
BMu97,39,C,REL,Weight_Unconstrained,1,R_ESI,48.908140692333674,bending,4
BMu97,39,C,REL,Weight_Unconstrained,1,R_ESI,38.09979481503408,return,5
BMu97,39,C,REL,Weight_Unconstrained,1,R_ESI,31.888297851055484,bending,6
BMu97,40,C,INI,Weight_Unconstrained,1,L_ESI,71.28606635589739,return,1
BMu97,40,C,INI,Weight_Unconstrained,1,L_ESI,47.025300695398215,bending,2
BMu97,40,C,INI,Weight_Unconstrained,1,L_ESI,67.29341255419764,return,3
BMu97,40,C,INI,Weight_Unconstrained,1,L_ESI,46.0416737124309,bending,4
BMu97,40,C,INI,Weight_Unconstrained,1,L_ESI,72.72819192604013,return,5
BMu97,40,C,INI,Weight_Unconstrained,1,L_ESI,51.73355839539287,bending,6
BMu97,40,C,INI,Weight_Unconstrained,1,R_ESI,44.795851316472245,return,1
BMu97,40,C,INI,Weight_Unconstrained,1,R_ESI,35.570936821794454,bending,2
BMu97,40,C,INI,Weight_Unconstrained,1,R_ESI,42.2105750967269,return,3
BMu97,40,C,INI,Weight_Unconstrained,1,R_ESI,35.52590299999648,bending,4
BMu97,40,C,INI,Weight_Unconstrained,1,R_ESI,49.67113778552454,return,5
BMu97,40,C,INI,Weight_Unconstrained,1,R_ESI,36.90999798389251,bending,6
BMu97,40,C,REL,Weight_Unconstrained,1,L_ESI,49.85894393358545,return,1
BMu97,40,C,REL,Weight_Unconstrained,1,L_ESI,33.888444372946736,bending,2
BMu97,40,C,REL,Weight_Unconstrained,1,L_ESI,47.86313711331831,return,3
BMu97,40,C,REL,Weight_Unconstrained,1,L_ESI,35.78373720198725,bending,4
BMu97,40,C,REL,Weight_Unconstrained,1,L_ESI,48.9793645090939,return,5
BMu97,40,C,REL,Weight_Unconstrained,1,L_ESI,33.708071460896655,bending,6
BMu97,40,C,REL,Weight_Unconstrained,1,R_ESI,25.031473663811525,return,1
BMu97,40,C,REL,Weight_Unconstrained,1,R_ESI,19.933393180023096,bending,2
BMu97,40,C,REL,Weight_Unconstrained,1,R_ESI,24.182634824500617,return,3
BMu97,40,C,REL,Weight_Unconstrained,1,R_ESI,19.73139112191206,bending,4
BMu97,40,C,REL,Weight_Unconstrained,1,R_ESI,27.130219072054288,return,5
BMu97,40,C,REL,Weight_Unconstrained,1,R_ESI,21.652130014941275,bending,6
BMu97,41,P,INI,Weight_Unconstrained,1,L_ESI,63.1947775407237,return,1
BMu97,41,P,INI,Weight_Unconstrained,1,L_ESI,64.92057357858947,bending,2
BMu97,41,P,INI,Weight_Unconstrained,1,L_ESI,65.49649136963852,return,3
BMu97,41,P,INI,Weight_Unconstrained,1,L_ESI,49.917591302589486,bending,4
BMu97,41,P,INI,Weight_Unconstrained,1,L_ESI,64.63355551142048,return,5
BMu97,41,P,INI,Weight_Unconstrained,1,L_ESI,54.446554323842,bending,6
BMu97,41,P,INI,Weight_Unconstrained,1,L_ESI,66.94429757055366,return,7
BMu97,41,P,INI,Weight_Unconstrained,1,L_ESI,51.79568068560527,bending,8
BMu97,41,P,INI,Weight_Unconstrained,1,R_ESI,24.375157234749814,return,1
BMu97,41,P,INI,Weight_Unconstrained,1,R_ESI,23.218315639492417,bending,2
BMu97,41,P,INI,Weight_Unconstrained,1,R_ESI,33.25916518508997,return,3
BMu97,41,P,INI,Weight_Unconstrained,1,R_ESI,15.964427237258255,bending,4
BMu97,41,P,INI,Weight_Unconstrained,1,R_ESI,30.458366701774818,return,5
BMu97,41,P,INI,Weight_Unconstrained,1,R_ESI,14.389682221606742,bending,6
BMu97,41,P,INI,Weight_Unconstrained,1,R_ESI,35.05227509501638,return,7
BMu97,41,P,INI,Weight_Unconstrained,1,R_ESI,15.774933508360872,bending,8
BMu97,41,P,REL,Weight_Unconstrained,1,L_ESI,55.35105582189767,return,1
BMu97,41,P,REL,Weight_Unconstrained,1,L_ESI,43.70712827731931,bending,2
BMu97,41,P,REL,Weight_Unconstrained,1,L_ESI,48.32642172933333,return,3
BMu97,41,P,REL,Weight_Unconstrained,1,L_ESI,43.65145067341621,bending,4
BMu97,41,P,REL,Weight_Unconstrained,1,L_ESI,54.338549847519126,return,5
BMu97,41,P,REL,Weight_Unconstrained,1,L_ESI,39.64169924449589,bending,6
BMu97,41,P,REL,Weight_Unconstrained,1,R_ESI,27.02330464011232,return,1
BMu97,41,P,REL,Weight_Unconstrained,1,R_ESI,16.947381745963852,bending,2
BMu97,41,P,REL,Weight_Unconstrained,1,R_ESI,21.05592026651434,return,3
BMu97,41,P,REL,Weight_Unconstrained,1,R_ESI,15.99014282317929,bending,4
BMu97,41,P,REL,Weight_Unconstrained,1,R_ESI,21.01815122308364,return,5
BMu97,41,P,REL,Weight_Unconstrained,1,R_ESI,14.246937919514519,bending,6
BMu97,42,P,INI,Weight_Unconstrained,1,L_ESI,91.92738064949555,return,1
BMu97,42,P,INI,Weight_Unconstrained,1,L_ESI,77.1680800898174,bending,2
BMu97,42,P,INI,Weight_Unconstrained,1,L_ESI,113.06657920593882,return,3
BMu97,42,P,INI,Weight_Unconstrained,1,L_ESI,94.00831836605249,bending,4
BMu97,42,P,INI,Weight_Unconstrained,1,L_ESI,115.50030268664405,return,5
BMu97,42,P,INI,Weight_Unconstrained,1,L_ESI,89.14071887890482,bending,6
BMu97,42,P,INI,Weight_Unconstrained,1,R_ESI,73.24672340020348,return,1
BMu97,42,P,INI,Weight_Unconstrained,1,R_ESI,54.318768734220576,bending,2
BMu97,42,P,INI,Weight_Unconstrained,1,R_ESI,100.43061209222994,return,3
BMu97,42,P,INI,Weight_Unconstrained,1,R_ESI,61.114169972230336,bending,4
BMu97,42,P,INI,Weight_Unconstrained,1,R_ESI,81.22608418320942,return,5
BMu97,42,P,INI,Weight_Unconstrained,1,R_ESI,64.13835344387324,bending,6
BMu97,42,P,REL,Weight_Unconstrained,1,L_ESI,106.3801673037003,return,1
BMu97,42,P,REL,Weight_Unconstrained,1,L_ESI,100.4916941240502,bending,2
BMu97,42,P,REL,Weight_Unconstrained,1,L_ESI,105.12864800649899,return,3
BMu97,42,P,REL,Weight_Unconstrained,1,L_ESI,98.24768317657026,bending,4
BMu97,42,P,REL,Weight_Unconstrained,1,L_ESI,116.1641949368139,return,5
BMu97,42,P,REL,Weight_Unconstrained,1,L_ESI,104.98903185724014,bending,6
BMu97,42,P,REL,Weight_Unconstrained,1,R_ESI,102.16061954413507,return,1
BMu97,42,P,REL,Weight_Unconstrained,1,R_ESI,89.8875386656932,bending,2
BMu97,42,P,REL,Weight_Unconstrained,1,R_ESI,107.0980095541369,return,3
BMu97,42,P,REL,Weight_Unconstrained,1,R_ESI,86.23732048593186,bending,4
BMu97,42,P,REL,Weight_Unconstrained,1,R_ESI,114.6679638040491,return,5
BMu97,42,P,REL,Weight_Unconstrained,1,R_ESI,78.09052273178956,bending,6
BMu97,43,P,INI,Weight_Unconstrained,1,L_ESI,38.35886804990358,return,1
BMu97,43,P,INI,Weight_Unconstrained,1,L_ESI,23.342962281986964,bending,2
BMu97,43,P,INI,Weight_Unconstrained,1,L_ESI,43.66089438435584,return,3
BMu97,43,P,INI,Weight_Unconstrained,1,L_ESI,26.434127770345967,bending,4
BMu97,43,P,INI,Weight_Unconstrained,1,L_ESI,41.511909042307,return,5
BMu97,43,P,INI,Weight_Unconstrained,1,L_ESI,25.338263374703033,bending,6
BMu97,43,P,INI,Weight_Unconstrained,1,R_ESI,55.2656043175649,return,1
BMu97,43,P,INI,Weight_Unconstrained,1,R_ESI,34.94251946797488,bending,2
BMu97,43,P,INI,Weight_Unconstrained,1,R_ESI,61.37510324838252,return,3
BMu97,43,P,INI,Weight_Unconstrained,1,R_ESI,41.29504192109376,bending,4
BMu97,43,P,INI,Weight_Unconstrained,1,R_ESI,57.178875092312225,return,5
BMu97,43,P,INI,Weight_Unconstrained,1,R_ESI,39.81467428249606,bending,6
BMu97,43,P,REL,Weight_Unconstrained,1,L_ESI,40.751137048825235,return,1
BMu97,43,P,REL,Weight_Unconstrained,1,L_ESI,27.09983479185339,bending,2
BMu97,43,P,REL,Weight_Unconstrained,1,L_ESI,36.53459246981185,return,3
BMu97,43,P,REL,Weight_Unconstrained,1,L_ESI,26.021501131823985,bending,4
BMu97,43,P,REL,Weight_Unconstrained,1,L_ESI,42.83802778255961,return,5
BMu97,43,P,REL,Weight_Unconstrained,1,L_ESI,26.355557607209374,bending,6
BMu97,43,P,REL,Weight_Unconstrained,1,L_ESI,41.463784010520165,return,7
BMu97,43,P,REL,Weight_Unconstrained,1,L_ESI,31.387571642781392,bending,8
BMu97,43,P,REL,Weight_Unconstrained,1,R_ESI,44.97702230337005,return,1
BMu97,43,P,REL,Weight_Unconstrained,1,R_ESI,29.989368351229896,bending,2
BMu97,43,P,REL,Weight_Unconstrained,1,R_ESI,46.36217399229783,return,3
BMu97,43,P,REL,Weight_Unconstrained,1,R_ESI,32.01357796472877,bending,4
BMu97,43,P,REL,Weight_Unconstrained,1,R_ESI,41.215939101675545,return,5
BMu97,43,P,REL,Weight_Unconstrained,1,R_ESI,26.22276260209266,bending,6
BMu97,43,P,REL,Weight_Unconstrained,1,R_ESI,44.24446534875697,return,7
BMu97,43,P,REL,Weight_Unconstrained,1,R_ESI,30.412766100967314,bending,8
BMu97,44,C,INI,Weight_Unconstrained,1,L_ESI,31.0963470786643,return,1
BMu97,44,C,INI,Weight_Unconstrained,1,L_ESI,39.970403061421685,bending,2
BMu97,44,C,INI,Weight_Unconstrained,1,L_ESI,33.460737117599514,return,3
BMu97,44,C,INI,Weight_Unconstrained,1,L_ESI,33.11172358061911,bending,4
BMu97,44,C,INI,Weight_Unconstrained,1,L_ESI,35.14708205039424,return,5
BMu97,44,C,INI,Weight_Unconstrained,1,L_ESI,32.03823772055244,bending,6
BMu97,44,C,INI,Weight_Unconstrained,1,R_ESI,48.437409422367764,return,1
BMu97,44,C,INI,Weight_Unconstrained,1,R_ESI,42.01053271978724,bending,2
BMu97,44,C,INI,Weight_Unconstrained,1,R_ESI,54.341112382712204,return,3
BMu97,44,C,INI,Weight_Unconstrained,1,R_ESI,42.30141004814385,bending,4
BMu97,44,C,INI,Weight_Unconstrained,1,R_ESI,57.37177683974973,return,5
BMu97,44,C,INI,Weight_Unconstrained,1,R_ESI,47.94305383115648,bending,6
BMu97,44,C,REL,Weight_Unconstrained,1,L_ESI,32.51014781444965,return,1
BMu97,44,C,REL,Weight_Unconstrained,1,L_ESI,24.4652084381016,bending,2
BMu97,44,C,REL,Weight_Unconstrained,1,L_ESI,33.8783819003008,return,3
BMu97,44,C,REL,Weight_Unconstrained,1,L_ESI,27.63301368448724,bending,4
BMu97,44,C,REL,Weight_Unconstrained,1,L_ESI,40.51212952680674,return,5
BMu97,44,C,REL,Weight_Unconstrained,1,L_ESI,27.381039925827636,bending,6
BMu97,44,C,REL,Weight_Unconstrained,1,R_ESI,60.51865140555381,return,1
BMu97,44,C,REL,Weight_Unconstrained,1,R_ESI,42.6934544142597,bending,2
BMu97,44,C,REL,Weight_Unconstrained,1,R_ESI,65.27540051990297,return,3
BMu97,44,C,REL,Weight_Unconstrained,1,R_ESI,47.92340888234413,bending,4
BMu97,44,C,REL,Weight_Unconstrained,1,R_ESI,60.84444480405528,return,5
BMu97,44,C,REL,Weight_Unconstrained,1,R_ESI,44.85907792496517,bending,6
BMu97,45,P,INI,Weight_Unconstrained,1,L_ESI,61.70066207148672,return,1
BMu97,45,P,INI,Weight_Unconstrained,1,L_ESI,41.01044285406041,bending,2
BMu97,45,P,INI,Weight_Unconstrained,1,L_ESI,61.65951603967888,return,3
BMu97,45,P,INI,Weight_Unconstrained,1,L_ESI,44.86576451258571,bending,4
BMu97,45,P,INI,Weight_Unconstrained,1,L_ESI,60.17426750238326,return,5
BMu97,45,P,INI,Weight_Unconstrained,1,L_ESI,40.770752992569605,bending,6
BMu97,45,P,INI,Weight_Unconstrained,1,R_ESI,47.24043989377519,return,1
BMu97,45,P,INI,Weight_Unconstrained,1,R_ESI,27.225722646341826,bending,2
BMu97,45,P,INI,Weight_Unconstrained,1,R_ESI,43.36576641165616,return,3
BMu97,45,P,INI,Weight_Unconstrained,1,R_ESI,30.875970851303546,bending,4
BMu97,45,P,INI,Weight_Unconstrained,1,R_ESI,46.97170695997915,return,5
BMu97,45,P,INI,Weight_Unconstrained,1,R_ESI,30.482991249769057,bending,6
BMu97,45,P,REL,Weight_Unconstrained,1,L_ESI,62.81642647606246,return,1
BMu97,45,P,REL,Weight_Unconstrained,1,L_ESI,46.336045149450335,bending,2
BMu97,45,P,REL,Weight_Unconstrained,1,L_ESI,65.69163810556985,return,3
BMu97,45,P,REL,Weight_Unconstrained,1,L_ESI,51.743328018119136,bending,4
BMu97,45,P,REL,Weight_Unconstrained,1,L_ESI,59.767734622780374,return,5
BMu97,45,P,REL,Weight_Unconstrained,1,L_ESI,48.70821760311795,bending,6
BMu97,46,C,INI,Weight_Unconstrained,1,L_ESI,50.317704288648606,return,1
BMu97,46,C,INI,Weight_Unconstrained,1,L_ESI,32.52423449548502,bending,2
BMu97,46,C,INI,Weight_Unconstrained,1,L_ESI,53.47674503962029,return,3
BMu97,46,C,INI,Weight_Unconstrained,1,L_ESI,31.849869930343143,bending,4
BMu97,46,C,INI,Weight_Unconstrained,1,L_ESI,64.21213129316808,return,5
BMu97,46,C,INI,Weight_Unconstrained,1,L_ESI,34.266982132804216,bending,6
BMu97,46,C,INI,Weight_Unconstrained,1,R_ESI,57.07820969215995,return,1
BMu97,46,C,INI,Weight_Unconstrained,1,R_ESI,29.256789283168203,bending,2
BMu97,46,C,INI,Weight_Unconstrained,1,R_ESI,55.84725209530039,return,3
BMu97,46,C,INI,Weight_Unconstrained,1,R_ESI,33.494867357716224,bending,4
BMu97,46,C,INI,Weight_Unconstrained,1,R_ESI,66.58624997667019,return,5
BMu97,46,C,INI,Weight_Unconstrained,1,R_ESI,33.204100673814914,bending,6
BMu97,46,C,REL,Weight_Unconstrained,1,L_ESI,33.22234216949088,return,1
BMu97,46,C,REL,Weight_Unconstrained,1,L_ESI,18.380425025827275,bending,2
BMu97,46,C,REL,Weight_Unconstrained,1,L_ESI,27.992893368853593,return,3
BMu97,46,C,REL,Weight_Unconstrained,1,L_ESI,21.005339422310453,bending,4
BMu97,46,C,REL,Weight_Unconstrained,1,L_ESI,36.52558964590957,return,5
BMu97,46,C,REL,Weight_Unconstrained,1,L_ESI,28.237363603949007,bending,6
BMu97,46,C,REL,Weight_Unconstrained,1,R_ESI,28.36140709577977,return,1
BMu97,46,C,REL,Weight_Unconstrained,1,R_ESI,18.469599366235094,bending,2
BMu97,46,C,REL,Weight_Unconstrained,1,R_ESI,24.69027765439355,return,3
BMu97,46,C,REL,Weight_Unconstrained,1,R_ESI,17.417419244211835,bending,4
BMu97,46,C,REL,Weight_Unconstrained,1,R_ESI,29.679461425433185,return,5
BMu97,46,C,REL,Weight_Unconstrained,1,R_ESI,19.282590749843965,bending,6
BMu97,47,P,INI,Weight_Unconstrained,1,L_ESI,130.5639145431588,return,1
BMu97,47,P,INI,Weight_Unconstrained,1,L_ESI,143.9673833838773,bending,2
BMu97,47,P,INI,Weight_Unconstrained,1,L_ESI,175.77265932784294,return,3
BMu97,47,P,INI,Weight_Unconstrained,1,L_ESI,133.94158450256646,bending,4
BMu97,47,P,INI,Weight_Unconstrained,1,L_ESI,163.06744964764297,return,5
BMu97,47,P,INI,Weight_Unconstrained,1,L_ESI,168.03458113005743,bending,6
BMu97,47,P,REL,Weight_Unconstrained,1,L_ESI,59.8075534767558,return,1
BMu97,47,P,REL,Weight_Unconstrained,1,L_ESI,50.448692169568574,bending,2
BMu97,47,P,REL,Weight_Unconstrained,1,L_ESI,63.10511077184509,return,3
BMu97,47,P,REL,Weight_Unconstrained,1,L_ESI,48.57434490414617,bending,4
BMu97,47,P,REL,Weight_Unconstrained,1,L_ESI,76.89509783266706,return,5
BMu97,47,P,REL,Weight_Unconstrained,1,L_ESI,49.723984970920405,bending,6
BMu97,47,P,REL,Weight_Unconstrained,1,R_ESI,58.691254444498725,return,1
BMu97,47,P,REL,Weight_Unconstrained,1,R_ESI,47.291257028357904,bending,2
BMu97,47,P,REL,Weight_Unconstrained,1,R_ESI,54.815747482609204,return,3
BMu97,47,P,REL,Weight_Unconstrained,1,R_ESI,36.20917436047358,bending,4
BMu97,47,P,REL,Weight_Unconstrained,1,R_ESI,48.963366528764645,return,5
BMu97,47,P,REL,Weight_Unconstrained,1,R_ESI,42.22813104711638,bending,6
BMu97,48,C,INI,Weight_Unconstrained,1,L_ESI,77.68742206098412,return,1
BMu97,48,C,INI,Weight_Unconstrained,1,L_ESI,37.96580878186823,bending,2
BMu97,48,C,INI,Weight_Unconstrained,1,L_ESI,69.12150372535771,return,3
BMu97,48,C,INI,Weight_Unconstrained,1,L_ESI,41.00441781824195,bending,4
BMu97,48,C,INI,Weight_Unconstrained,1,L_ESI,82.97708440302547,return,5
BMu97,48,C,INI,Weight_Unconstrained,1,L_ESI,37.64745136438091,bending,6
BMu97,48,C,INI,Weight_Unconstrained,1,R_ESI,93.8131105791668,return,1
BMu97,48,C,INI,Weight_Unconstrained,1,R_ESI,56.37896280987377,bending,2
BMu97,48,C,INI,Weight_Unconstrained,1,R_ESI,91.438840599494,return,3
BMu97,48,C,INI,Weight_Unconstrained,1,R_ESI,54.625388896142674,bending,4
BMu97,48,C,INI,Weight_Unconstrained,1,R_ESI,86.6628429835879,return,5
BMu97,48,C,INI,Weight_Unconstrained,1,R_ESI,53.037074663728355,bending,6
BMu97,48,C,REL,Weight_Unconstrained,1,L_ESI,103.70549110743701,return,1
BMu97,48,C,REL,Weight_Unconstrained,1,L_ESI,57.6048731101489,bending,2
BMu97,48,C,REL,Weight_Unconstrained,1,L_ESI,97.05929439781849,return,3
BMu97,48,C,REL,Weight_Unconstrained,1,L_ESI,48.62742712774707,bending,4
BMu97,48,C,REL,Weight_Unconstrained,1,L_ESI,105.19505740695388,return,5
BMu97,48,C,REL,Weight_Unconstrained,1,L_ESI,56.16647270984499,bending,6
BMu97,48,C,REL,Weight_Unconstrained,1,R_ESI,87.22571343722896,return,1
BMu97,48,C,REL,Weight_Unconstrained,1,R_ESI,61.7480485341712,bending,2
BMu97,48,C,REL,Weight_Unconstrained,1,R_ESI,82.93922771092672,return,3
BMu97,48,C,REL,Weight_Unconstrained,1,R_ESI,61.14782090785801,bending,4
BMu97,48,C,REL,Weight_Unconstrained,1,R_ESI,100.23994977479234,return,5
BMu97,48,C,REL,Weight_Unconstrained,1,R_ESI,59.51447132767928,bending,6
BMu97,49,C,INI,Weight_Unconstrained,1,R_ESI,78.293126130545,return,1
BMu97,49,C,INI,Weight_Unconstrained,1,R_ESI,57.133428183547515,bending,2
BMu97,49,C,INI,Weight_Unconstrained,1,R_ESI,72.37868445696515,return,3
BMu97,49,C,INI,Weight_Unconstrained,1,R_ESI,54.44556838224228,bending,4
BMu97,49,C,INI,Weight_Unconstrained,1,R_ESI,74.88128883393249,return,5
BMu97,49,C,INI,Weight_Unconstrained,1,R_ESI,54.437954717784784,bending,6
BMu97,49,C,REL,Weight_Unconstrained,1,L_ESI,14.92866533896678,return,1
BMu97,49,C,REL,Weight_Unconstrained,1,L_ESI,12.699291062003018,bending,2
BMu97,49,C,REL,Weight_Unconstrained,1,L_ESI,12.42003325869371,return,3
BMu97,49,C,REL,Weight_Unconstrained,1,L_ESI,13.698003738175666,bending,4
BMu97,49,C,REL,Weight_Unconstrained,1,L_ESI,18.39634427968911,return,5
BMu97,49,C,REL,Weight_Unconstrained,1,L_ESI,11.862131477897195,bending,6
BMu97,50,P,INI,Weight_Unconstrained,1,L_ESI,92.1857733287518,return,1
BMu97,50,P,INI,Weight_Unconstrained,1,L_ESI,79.4216915954732,bending,2
BMu97,50,P,INI,Weight_Unconstrained,1,L_ESI,120.31434837436916,return,3
BMu97,50,P,INI,Weight_Unconstrained,1,L_ESI,78.63349322084746,bending,4
BMu97,50,P,INI,Weight_Unconstrained,1,L_ESI,123.55815026116518,return,5
BMu97,50,P,INI,Weight_Unconstrained,1,L_ESI,80.39062792689985,bending,6
BMu97,50,P,INI,Weight_Unconstrained,1,R_ESI,91.36713690934496,return,1
BMu97,50,P,INI,Weight_Unconstrained,1,R_ESI,71.78561304638134,bending,2
BMu97,50,P,INI,Weight_Unconstrained,1,R_ESI,135.7466607431401,return,3
BMu97,50,P,INI,Weight_Unconstrained,1,R_ESI,73.32182964199365,bending,4
BMu97,50,P,INI,Weight_Unconstrained,1,R_ESI,146.45574677430335,return,5
BMu97,50,P,INI,Weight_Unconstrained,1,R_ESI,74.19259745944775,bending,6
BMu97,50,P,REL,Weight_Unconstrained,1,L_ESI,102.78327343108342,return,1
BMu97,50,P,REL,Weight_Unconstrained,1,L_ESI,100.18735985092975,bending,2
BMu97,50,P,REL,Weight_Unconstrained,1,L_ESI,133.7117393765973,return,3
BMu97,50,P,REL,Weight_Unconstrained,1,L_ESI,87.45990775227955,bending,4
BMu97,50,P,REL,Weight_Unconstrained,1,L_ESI,145.44628811225405,return,5
BMu97,50,P,REL,Weight_Unconstrained,1,L_ESI,89.46525883566095,bending,6
BMu97,50,P,REL,Weight_Unconstrained,1,R_ESI,95.17872717153287,return,1
BMu97,50,P,REL,Weight_Unconstrained,1,R_ESI,77.53781825528925,bending,2
BMu97,50,P,REL,Weight_Unconstrained,1,R_ESI,83.7790800540416,return,3
BMu97,50,P,REL,Weight_Unconstrained,1,R_ESI,67.1869386890061,bending,4
BMu97,50,P,REL,Weight_Unconstrained,1,R_ESI,74.73584177411044,return,5
BMu97,50,P,REL,Weight_Unconstrained,1,R_ESI,63.98752327602871,bending,6
BMu97,51,P,INI,Weight_Unconstrained,1,L_ESI,67.29221189031357,return,1
BMu97,51,P,INI,Weight_Unconstrained,1,L_ESI,76.40737290502948,bending,2
BMu97,51,P,INI,Weight_Unconstrained,1,L_ESI,53.0134251742064,return,3
BMu97,51,P,INI,Weight_Unconstrained,1,L_ESI,34.23570879283224,bending,4
BMu97,51,P,INI,Weight_Unconstrained,1,L_ESI,50.67224125037878,return,5
BMu97,51,P,INI,Weight_Unconstrained,1,L_ESI,41.839346820680696,bending,6
BMu97,51,P,INI,Weight_Unconstrained,1,L_ESI,51.96097684289021,return,7
BMu97,51,P,INI,Weight_Unconstrained,1,L_ESI,37.14994213745172,bending,8
BMu97,51,P,INI,Weight_Unconstrained,1,L_ESI,40.94921284184242,return,9
BMu97,51,P,INI,Weight_Unconstrained,1,R_ESI,109.45067992565,return,1
BMu97,51,P,INI,Weight_Unconstrained,1,R_ESI,94.09232713992559,bending,2
BMu97,51,P,INI,Weight_Unconstrained,1,R_ESI,61.553828408658326,return,3
BMu97,51,P,INI,Weight_Unconstrained,1,R_ESI,59.95561537618937,bending,4
BMu97,51,P,INI,Weight_Unconstrained,1,R_ESI,63.50683270322596,return,5
BMu97,51,P,INI,Weight_Unconstrained,1,R_ESI,59.33126490659577,bending,6
BMu97,51,P,INI,Weight_Unconstrained,1,R_ESI,70.89344347624098,return,7
BMu97,51,P,INI,Weight_Unconstrained,1,R_ESI,53.54378114155584,bending,8
BMu97,51,P,INI,Weight_Unconstrained,1,R_ESI,58.68197817050033,return,9
BMu97,51,P,REL,Weight_Unconstrained,1,L_ESI,39.39056779626886,return,1
BMu97,51,P,REL,Weight_Unconstrained,1,L_ESI,33.77232719858525,bending,2
BMu97,51,P,REL,Weight_Unconstrained,1,L_ESI,35.70574285456068,return,3
BMu97,51,P,REL,Weight_Unconstrained,1,L_ESI,22.77048583258447,bending,4
BMu97,51,P,REL,Weight_Unconstrained,1,L_ESI,45.653397932666635,return,5
BMu97,51,P,REL,Weight_Unconstrained,1,L_ESI,32.004293256575764,bending,6
BMu97,52,C,INI,Weight_Unconstrained,1,L_ESI,29.49999912754743,return,1
BMu97,52,C,INI,Weight_Unconstrained,1,L_ESI,20.71323211996938,bending,2
BMu97,52,C,INI,Weight_Unconstrained,1,L_ESI,40.7445420117299,return,3
BMu97,52,C,INI,Weight_Unconstrained,1,L_ESI,19.166522556992796,bending,4
BMu97,52,C,INI,Weight_Unconstrained,1,L_ESI,38.21805326717007,return,5
BMu97,52,C,INI,Weight_Unconstrained,1,L_ESI,19.698994874796895,bending,6
BMu97,52,C,INI,Weight_Unconstrained,1,R_ESI,50.99776667765524,return,1
BMu97,52,C,INI,Weight_Unconstrained,1,R_ESI,46.30832286918827,bending,2
BMu97,52,C,INI,Weight_Unconstrained,1,R_ESI,61.95926631930144,return,3
BMu97,52,C,INI,Weight_Unconstrained,1,R_ESI,38.12184209164121,bending,4
BMu97,52,C,INI,Weight_Unconstrained,1,R_ESI,61.519728094331136,return,5
BMu97,52,C,INI,Weight_Unconstrained,1,R_ESI,39.59068173465146,bending,6
BMu97,52,C,REL,Weight_Unconstrained,1,L_ESI,28.938409153444066,return,1
BMu97,52,C,REL,Weight_Unconstrained,1,L_ESI,19.521839756672723,bending,2
BMu97,52,C,REL,Weight_Unconstrained,1,L_ESI,32.22913237681439,return,3
BMu97,52,C,REL,Weight_Unconstrained,1,L_ESI,20.065628927160844,bending,4
BMu97,52,C,REL,Weight_Unconstrained,1,L_ESI,37.30418669950985,return,5
BMu97,52,C,REL,Weight_Unconstrained,1,L_ESI,24.391142445975937,bending,6
BMu97,52,C,REL,Weight_Unconstrained,1,R_ESI,52.27913071567055,return,1
BMu97,52,C,REL,Weight_Unconstrained,1,R_ESI,39.745342803344414,bending,2
BMu97,52,C,REL,Weight_Unconstrained,1,R_ESI,59.90445175518162,return,3
BMu97,52,C,REL,Weight_Unconstrained,1,R_ESI,40.71644327159071,bending,4
BMu97,52,C,REL,Weight_Unconstrained,1,R_ESI,62.23845781829815,return,5
BMu97,52,C,REL,Weight_Unconstrained,1,R_ESI,36.44031060526565,bending,6
BMu97,53,P,INI,Weight_Unconstrained,1,L_ESI,47.241485040271726,return,1
BMu97,53,P,INI,Weight_Unconstrained,1,L_ESI,56.60991397544472,bending,2
BMu97,53,P,INI,Weight_Unconstrained,1,L_ESI,52.432545183069074,return,3
BMu97,53,P,INI,Weight_Unconstrained,1,L_ESI,49.65372244765644,bending,4
BMu97,53,P,INI,Weight_Unconstrained,1,L_ESI,53.339092593199695,return,5
BMu97,53,P,INI,Weight_Unconstrained,1,L_ESI,47.68153618614554,bending,6
BMu97,53,P,INI,Weight_Unconstrained,1,R_ESI,37.905041354622846,return,1
BMu97,53,P,INI,Weight_Unconstrained,1,R_ESI,39.97014338902356,bending,2
BMu97,53,P,INI,Weight_Unconstrained,1,R_ESI,38.14012009240548,return,3
BMu97,53,P,INI,Weight_Unconstrained,1,R_ESI,33.636469278322004,bending,4
BMu97,53,P,INI,Weight_Unconstrained,1,R_ESI,39.38954976986231,return,5
BMu97,53,P,INI,Weight_Unconstrained,1,R_ESI,33.516786169078216,bending,6
BMu97,53,P,REL,Weight_Unconstrained,1,L_ESI,56.51015256079208,return,1
BMu97,53,P,REL,Weight_Unconstrained,1,L_ESI,48.19983655752525,bending,2
BMu97,53,P,REL,Weight_Unconstrained,1,L_ESI,53.63888418991718,return,3
BMu97,53,P,REL,Weight_Unconstrained,1,L_ESI,48.5063712133957,bending,4
BMu97,53,P,REL,Weight_Unconstrained,1,L_ESI,53.70715389760591,return,5
BMu97,53,P,REL,Weight_Unconstrained,1,L_ESI,49.3329414198165,bending,6
BMu97,53,P,REL,Weight_Unconstrained,1,R_ESI,40.0087782579185,return,1
BMu97,53,P,REL,Weight_Unconstrained,1,R_ESI,30.064394357621172,bending,2
BMu97,53,P,REL,Weight_Unconstrained,1,R_ESI,36.70516395676228,return,3
BMu97,53,P,REL,Weight_Unconstrained,1,R_ESI,29.9705191126952,bending,4
BMu97,53,P,REL,Weight_Unconstrained,1,R_ESI,41.77284092455569,return,5
BMu97,53,P,REL,Weight_Unconstrained,1,R_ESI,31.651448655101238,bending,6
BMu97,54,P,INI,Weight_Unconstrained,1,L_ESI,89.24866443814506,return,1
BMu97,54,P,INI,Weight_Unconstrained,1,L_ESI,85.11935429634123,bending,2
BMu97,54,P,INI,Weight_Unconstrained,1,L_ESI,92.35540065780712,return,3
BMu97,54,P,INI,Weight_Unconstrained,1,L_ESI,77.12157102388494,bending,4
BMu97,54,P,INI,Weight_Unconstrained,1,L_ESI,114.62031621585346,return,5
BMu97,54,P,INI,Weight_Unconstrained,1,L_ESI,86.09885603733927,bending,6
BMu97,54,P,INI,Weight_Unconstrained,1,R_ESI,81.30814170948801,return,1
BMu97,54,P,INI,Weight_Unconstrained,1,R_ESI,69.85485925151816,bending,2
BMu97,54,P,INI,Weight_Unconstrained,1,R_ESI,80.99797653680896,return,3
BMu97,54,P,INI,Weight_Unconstrained,1,R_ESI,64.86408475941816,bending,4
BMu97,54,P,INI,Weight_Unconstrained,1,R_ESI,101.75923900057776,return,5
BMu97,54,P,INI,Weight_Unconstrained,1,R_ESI,68.59672986664576,bending,6
BMu97,54,P,REL,Weight_Unconstrained,1,L_ESI,82.1205938881601,return,1
BMu97,54,P,REL,Weight_Unconstrained,1,L_ESI,75.10900475529147,bending,2
BMu97,54,P,REL,Weight_Unconstrained,1,L_ESI,86.89737864288333,return,3
BMu97,54,P,REL,Weight_Unconstrained,1,L_ESI,74.58097305837381,bending,4
BMu97,54,P,REL,Weight_Unconstrained,1,L_ESI,90.71664427710502,return,5
BMu97,54,P,REL,Weight_Unconstrained,1,L_ESI,73.66821875641442,bending,6
BMu97,54,P,REL,Weight_Unconstrained,1,R_ESI,81.38470955858867,return,1
BMu97,54,P,REL,Weight_Unconstrained,1,R_ESI,72.97912250861275,bending,2
BMu97,54,P,REL,Weight_Unconstrained,1,R_ESI,100.23319516787478,return,3
BMu97,54,P,REL,Weight_Unconstrained,1,R_ESI,73.81306433342884,bending,4
BMu97,54,P,REL,Weight_Unconstrained,1,R_ESI,93.41494050604422,return,5
BMu97,54,P,REL,Weight_Unconstrained,1,R_ESI,65.71761803984799,bending,6
BMu97,55,C,INI,Weight_Unconstrained,1,L_ESI,48.8250389993207,return,1
BMu97,55,C,INI,Weight_Unconstrained,1,L_ESI,37.66589823930696,bending,2
BMu97,55,C,INI,Weight_Unconstrained,1,L_ESI,61.98187824767301,return,3
BMu97,55,C,INI,Weight_Unconstrained,1,L_ESI,41.41418225101648,bending,4
BMu97,55,C,INI,Weight_Unconstrained,1,L_ESI,66.118880184033,return,5
BMu97,55,C,INI,Weight_Unconstrained,1,L_ESI,44.153761549853655,bending,6
BMu97,55,C,INI,Weight_Unconstrained,1,R_ESI,47.378227636122226,return,1
BMu97,55,C,INI,Weight_Unconstrained,1,R_ESI,37.66254163218203,bending,2
BMu97,55,C,INI,Weight_Unconstrained,1,R_ESI,62.84534413289141,return,3
BMu97,55,C,INI,Weight_Unconstrained,1,R_ESI,49.41818551223809,bending,4
BMu97,55,C,INI,Weight_Unconstrained,1,R_ESI,66.85867725935366,return,5
BMu97,55,C,INI,Weight_Unconstrained,1,R_ESI,50.986639072996965,bending,6
BMu97,55,C,REL,Weight_Unconstrained,1,L_ESI,47.20931460733211,return,1
BMu97,55,C,REL,Weight_Unconstrained,1,L_ESI,38.95076980246999,bending,2
BMu97,55,C,REL,Weight_Unconstrained,1,L_ESI,56.39138903237738,return,3
BMu97,55,C,REL,Weight_Unconstrained,1,L_ESI,41.16479144268229,bending,4
BMu97,55,C,REL,Weight_Unconstrained,1,L_ESI,59.21515597663704,return,5
BMu97,55,C,REL,Weight_Unconstrained,1,L_ESI,39.822822915796834,bending,6
BMu97,55,C,REL,Weight_Unconstrained,1,R_ESI,48.80533206814013,return,1
BMu97,55,C,REL,Weight_Unconstrained,1,R_ESI,40.095929952129545,bending,2
BMu97,55,C,REL,Weight_Unconstrained,1,R_ESI,54.03798364791733,return,3
BMu97,55,C,REL,Weight_Unconstrained,1,R_ESI,44.483473151166514,bending,4
BMu97,55,C,REL,Weight_Unconstrained,1,R_ESI,54.02871013224975,return,5
BMu97,55,C,REL,Weight_Unconstrained,1,R_ESI,37.460944246360576,bending,6
BMu97,56,C,INI,Weight_Unconstrained,1,L_ESI,60.142908593561586,return,1
BMu97,56,C,INI,Weight_Unconstrained,1,L_ESI,46.75807692267954,bending,2
BMu97,56,C,INI,Weight_Unconstrained,1,L_ESI,69.29126103532312,return,3
BMu97,56,C,INI,Weight_Unconstrained,1,L_ESI,50.66215581581463,bending,4
BMu97,56,C,INI,Weight_Unconstrained,1,L_ESI,59.10941243130692,return,5
BMu97,56,C,INI,Weight_Unconstrained,1,L_ESI,49.84936859737063,bending,6
BMu97,56,C,INI,Weight_Unconstrained,1,R_ESI,25.976107268414978,return,1
BMu97,56,C,INI,Weight_Unconstrained,1,R_ESI,22.826893554704235,bending,2
BMu97,56,C,INI,Weight_Unconstrained,1,R_ESI,26.420480774723096,return,3
BMu97,56,C,INI,Weight_Unconstrained,1,R_ESI,22.87076191147965,bending,4
BMu97,56,C,INI,Weight_Unconstrained,1,R_ESI,26.3863116397925,return,5
BMu97,56,C,INI,Weight_Unconstrained,1,R_ESI,20.26329135815201,bending,6
BMu97,56,C,REL,Weight_Unconstrained,1,L_ESI,67.9733888774638,return,1
BMu97,56,C,REL,Weight_Unconstrained,1,L_ESI,44.74965724852207,bending,2
BMu97,56,C,REL,Weight_Unconstrained,1,L_ESI,61.24818187643352,return,3
BMu97,56,C,REL,Weight_Unconstrained,1,L_ESI,48.57743171582826,bending,4
BMu97,56,C,REL,Weight_Unconstrained,1,L_ESI,59.365769456115316,return,5
BMu97,56,C,REL,Weight_Unconstrained,1,L_ESI,43.59803772298779,bending,6
BMu97,56,C,REL,Weight_Unconstrained,1,R_ESI,72.27725649610362,return,1
BMu97,56,C,REL,Weight_Unconstrained,1,R_ESI,58.37913442603737,bending,2
BMu97,56,C,REL,Weight_Unconstrained,1,R_ESI,72.21461382846627,return,3
BMu97,56,C,REL,Weight_Unconstrained,1,R_ESI,56.44495260182697,bending,4
BMu97,56,C,REL,Weight_Unconstrained,1,R_ESI,70.55420244744421,return,5
BMu97,56,C,REL,Weight_Unconstrained,1,R_ESI,53.644443470983866,bending,6
BMu97,57,C,INI,Weight_Unconstrained,1,L_ESI,26.40388793990391,return,1
BMu97,57,C,INI,Weight_Unconstrained,1,L_ESI,24.362463866388598,bending,2
BMu97,57,C,INI,Weight_Unconstrained,1,L_ESI,30.321641517797772,return,3
BMu97,57,C,INI,Weight_Unconstrained,1,L_ESI,25.812946888070996,bending,4
BMu97,57,C,INI,Weight_Unconstrained,1,L_ESI,31.001164444968452,return,5
BMu97,57,C,INI,Weight_Unconstrained,1,L_ESI,26.145719362432583,bending,6
BMu97,57,C,INI,Weight_Unconstrained,1,R_ESI,23.160032884628347,return,1
BMu97,57,C,INI,Weight_Unconstrained,1,R_ESI,19.835070958995765,bending,2
BMu97,57,C,INI,Weight_Unconstrained,1,R_ESI,27.36143937484459,return,3
BMu97,57,C,INI,Weight_Unconstrained,1,R_ESI,20.759629851251763,bending,4
BMu97,57,C,INI,Weight_Unconstrained,1,R_ESI,28.52639802779545,return,5
BMu97,57,C,INI,Weight_Unconstrained,1,R_ESI,21.332447939081643,bending,6
BMu97,57,C,REL,Weight_Unconstrained,1,L_ESI,52.20810244160523,return,1
BMu97,57,C,REL,Weight_Unconstrained,1,L_ESI,49.63758340062538,bending,2
BMu97,57,C,REL,Weight_Unconstrained,1,L_ESI,55.507092480906465,return,3
BMu97,57,C,REL,Weight_Unconstrained,1,L_ESI,48.57665664627058,bending,4
BMu97,57,C,REL,Weight_Unconstrained,1,L_ESI,58.75959979144766,return,5
BMu97,57,C,REL,Weight_Unconstrained,1,L_ESI,50.21178708650701,bending,6
BMu97,57,C,REL,Weight_Unconstrained,1,R_ESI,49.2456496958747,return,1
BMu97,57,C,REL,Weight_Unconstrained,1,R_ESI,48.711016009647686,bending,2
BMu97,57,C,REL,Weight_Unconstrained,1,R_ESI,53.73539137871787,return,3
BMu97,57,C,REL,Weight_Unconstrained,1,R_ESI,52.116144510463904,bending,4
BMu97,57,C,REL,Weight_Unconstrained,1,R_ESI,55.97886610675881,return,5
BMu97,57,C,REL,Weight_Unconstrained,1,R_ESI,47.035533806310255,bending,6
BMu97,58,P,INI,Weight_Unconstrained,1,L_ESI,60.15150728586703,return,1
BMu97,58,P,INI,Weight_Unconstrained,1,L_ESI,43.69281808228061,bending,2
BMu97,58,P,INI,Weight_Unconstrained,1,L_ESI,77.95847017947712,return,3
BMu97,58,P,INI,Weight_Unconstrained,1,L_ESI,53.83854533623616,bending,4
BMu97,58,P,INI,Weight_Unconstrained,1,L_ESI,85.85191697301839,return,5
BMu97,58,P,INI,Weight_Unconstrained,1,L_ESI,55.58461140421242,bending,6
BMu97,58,P,INI,Weight_Unconstrained,1,R_ESI,62.32165385178755,return,1
BMu97,58,P,INI,Weight_Unconstrained,1,R_ESI,45.973987229575684,bending,2
BMu97,58,P,INI,Weight_Unconstrained,1,R_ESI,79.29325223834357,return,3
BMu97,58,P,INI,Weight_Unconstrained,1,R_ESI,56.22385675216119,bending,4
BMu97,58,P,INI,Weight_Unconstrained,1,R_ESI,84.800568502428,return,5
BMu97,58,P,INI,Weight_Unconstrained,1,R_ESI,55.05419565290594,bending,6
BMu97,58,P,REL,Weight_Unconstrained,1,L_ESI,59.17958935633188,return,1
BMu97,58,P,REL,Weight_Unconstrained,1,L_ESI,53.58552534757295,bending,2
BMu97,58,P,REL,Weight_Unconstrained,1,L_ESI,76.67644383864,return,3
BMu97,58,P,REL,Weight_Unconstrained,1,L_ESI,60.32221239178156,bending,4
BMu97,58,P,REL,Weight_Unconstrained,1,L_ESI,80.514165454661,return,5
BMu97,58,P,REL,Weight_Unconstrained,1,L_ESI,64.22532470456359,bending,6
BMu97,58,P,REL,Weight_Unconstrained,1,R_ESI,62.1319507886309,return,1
BMu97,58,P,REL,Weight_Unconstrained,1,R_ESI,42.342655998018216,bending,2
BMu97,58,P,REL,Weight_Unconstrained,1,R_ESI,70.00873059878442,return,3
BMu97,58,P,REL,Weight_Unconstrained,1,R_ESI,47.36398121615379,bending,4
BMu97,58,P,REL,Weight_Unconstrained,1,R_ESI,69.92711145378505,return,5
BMu97,58,P,REL,Weight_Unconstrained,1,R_ESI,51.32379149820739,bending,6
BMu97,60,C,INI,Weight_Unconstrained,1,L_ESI,34.735034776209574,return,1
BMu97,60,C,INI,Weight_Unconstrained,1,L_ESI,15.546552323262965,bending,2
BMu97,60,C,INI,Weight_Unconstrained,1,L_ESI,25.243957716133128,return,3
BMu97,60,C,INI,Weight_Unconstrained,1,R_ESI,49.24566792833469,return,1
BMu97,60,C,INI,Weight_Unconstrained,1,R_ESI,31.957930583575603,bending,2
BMu97,60,C,INI,Weight_Unconstrained,1,R_ESI,45.31747347849281,return,3
BMu97,60,C,REL,Weight_Unconstrained,1,L_ESI,65.17137157015812,return,1
BMu97,60,C,REL,Weight_Unconstrained,1,L_ESI,48.90667714092711,bending,2
BMu97,60,C,REL,Weight_Unconstrained,1,L_ESI,62.537087840429095,return,3
BMu97,60,C,REL,Weight_Unconstrained,1,L_ESI,53.033710429241324,bending,4
BMu97,60,C,REL,Weight_Unconstrained,1,L_ESI,79.27084870817981,return,5
BMu97,60,C,REL,Weight_Unconstrained,1,L_ESI,51.90475245734715,bending,6
BMu97,60,C,REL,Weight_Unconstrained,1,R_ESI,68.42750411261788,return,1
BMu97,60,C,REL,Weight_Unconstrained,1,R_ESI,54.53244262758896,bending,2
BMu97,60,C,REL,Weight_Unconstrained,1,R_ESI,70.07511296377943,return,3
BMu97,60,C,REL,Weight_Unconstrained,1,R_ESI,59.97778450242113,bending,4
BMu97,60,C,REL,Weight_Unconstrained,1,R_ESI,79.2721639423153,return,5
BMu97,60,C,REL,Weight_Unconstrained,1,R_ESI,49.939280980411574,bending,6
BMu97,61,P,REL,Weight_Unconstrained,1,L_ESI,54.237466102052885,return,1
BMu97,61,P,REL,Weight_Unconstrained,1,L_ESI,38.89063962223331,bending,2
BMu97,61,P,REL,Weight_Unconstrained,1,L_ESI,47.05440751147123,return,3
BMu97,61,P,REL,Weight_Unconstrained,1,L_ESI,36.67605416891901,bending,4
BMu97,61,P,REL,Weight_Unconstrained,1,L_ESI,56.6628176337342,return,5
BMu97,61,P,REL,Weight_Unconstrained,1,L_ESI,36.24126052651918,bending,6
BMu97,61,P,REL,Weight_Unconstrained,1,R_ESI,20.550241943630812,return,1
BMu97,61,P,REL,Weight_Unconstrained,1,R_ESI,13.71401333158716,bending,2
BMu97,61,P,REL,Weight_Unconstrained,1,R_ESI,19.98400482144975,return,3
BMu97,61,P,REL,Weight_Unconstrained,1,R_ESI,15.443068747272685,bending,4
BMu97,61,P,REL,Weight_Unconstrained,1,R_ESI,20.205804116730985,return,5
BMu97,61,P,REL,Weight_Unconstrained,1,R_ESI,15.347337105980369,bending,6
BMu97,62,P,INI,Weight_Unconstrained,1,L_ESI,95.9379921385798,return,1
BMu97,62,P,INI,Weight_Unconstrained,1,L_ESI,193.95019800353168,bending,2
BMu97,62,P,INI,Weight_Unconstrained,1,L_ESI,95.36982158908373,return,3
BMu97,62,P,INI,Weight_Unconstrained,1,L_ESI,126.41280243303186,bending,4
BMu97,62,P,INI,Weight_Unconstrained,1,L_ESI,86.9737040484076,return,5
BMu97,62,P,INI,Weight_Unconstrained,1,L_ESI,110.82929455117092,bending,6
BMu97,62,P,INI,Weight_Unconstrained,1,L_ESI,83.43339044480427,return,7
BMu97,62,P,INI,Weight_Unconstrained,1,L_ESI,101.7784648981479,bending,8
BMu97,62,P,INI,Weight_Unconstrained,1,R_ESI,110.59640882159408,return,1
BMu97,62,P,INI,Weight_Unconstrained,1,R_ESI,181.76428069062564,bending,2
BMu97,62,P,INI,Weight_Unconstrained,1,R_ESI,99.9139218698754,return,3
BMu97,62,P,INI,Weight_Unconstrained,1,R_ESI,127.68535748820904,bending,4
BMu97,62,P,INI,Weight_Unconstrained,1,R_ESI,99.87463717387591,return,5
BMu97,62,P,INI,Weight_Unconstrained,1,R_ESI,131.02396268226832,bending,6
BMu97,62,P,INI,Weight_Unconstrained,1,R_ESI,91.51126830372378,return,7
BMu97,62,P,INI,Weight_Unconstrained,1,R_ESI,130.15910414317992,bending,8
BMu97,62,P,REL,Weight_Unconstrained,1,L_ESI,77.0002154852581,return,1
BMu97,62,P,REL,Weight_Unconstrained,1,L_ESI,52.46663055958148,bending,2
BMu97,62,P,REL,Weight_Unconstrained,1,L_ESI,61.80095638450761,return,3
BMu97,62,P,REL,Weight_Unconstrained,1,L_ESI,47.07274966832419,bending,4
BMu97,62,P,REL,Weight_Unconstrained,1,L_ESI,87.37978355687207,return,5
BMu97,62,P,REL,Weight_Unconstrained,1,L_ESI,41.99396545441859,bending,6
BMu97,62,P,REL,Weight_Unconstrained,1,R_ESI,74.27451547565,return,1
BMu97,62,P,REL,Weight_Unconstrained,1,R_ESI,49.694148682801696,bending,2
BMu97,62,P,REL,Weight_Unconstrained,1,R_ESI,45.41650977738955,return,3
BMu97,62,P,REL,Weight_Unconstrained,1,R_ESI,47.910788413808056,bending,4
BMu97,62,P,REL,Weight_Unconstrained,1,R_ESI,81.2698195762317,return,5
BMu97,62,P,REL,Weight_Unconstrained,1,R_ESI,39.43795800427823,bending,6
BMu97,63,P,INI,Weight_Unconstrained,1,L_ESI,84.95186354970302,return,1
BMu97,63,P,INI,Weight_Unconstrained,1,L_ESI,82.13820665949031,bending,2
BMu97,63,P,INI,Weight_Unconstrained,1,L_ESI,88.72300633790667,return,3
BMu97,63,P,INI,Weight_Unconstrained,1,L_ESI,68.23652614005138,bending,4
BMu97,63,P,INI,Weight_Unconstrained,1,L_ESI,80.16321891453329,return,5
BMu97,63,P,INI,Weight_Unconstrained,1,L_ESI,68.01456961431111,bending,6
BMu97,63,P,REL,Weight_Unconstrained,1,L_ESI,50.76106544965636,return,1
BMu97,63,P,REL,Weight_Unconstrained,1,L_ESI,48.5020932841908,bending,2
BMu97,63,P,REL,Weight_Unconstrained,1,L_ESI,52.61758281652659,return,3
BMu97,63,P,REL,Weight_Unconstrained,1,L_ESI,53.71825372884541,bending,4
BMu97,63,P,REL,Weight_Unconstrained,1,L_ESI,59.651181191632524,return,5
BMu97,63,P,REL,Weight_Unconstrained,1,L_ESI,56.58185489624221,bending,6
BMu97,63,P,REL,Weight_Unconstrained,1,R_ESI,44.1513794540402,return,1
BMu97,63,P,REL,Weight_Unconstrained,1,R_ESI,34.87408659291227,bending,2
BMu97,63,P,REL,Weight_Unconstrained,1,R_ESI,44.84247727087081,return,3
BMu97,63,P,REL,Weight_Unconstrained,1,R_ESI,38.863074664029085,bending,4
BMu97,63,P,REL,Weight_Unconstrained,1,R_ESI,45.02610563622671,return,5
BMu97,63,P,REL,Weight_Unconstrained,1,R_ESI,41.92330729399674,bending,6
BMu97,64,C,INI,Weight_Unconstrained,1,L_ESI,69.70712589877486,return,1
BMu97,64,C,INI,Weight_Unconstrained,1,L_ESI,39.42785616274133,bending,2
BMu97,64,C,INI,Weight_Unconstrained,1,L_ESI,86.659401328089,return,3
BMu97,64,C,INI,Weight_Unconstrained,1,L_ESI,50.51316153639975,bending,4
BMu97,64,C,INI,Weight_Unconstrained,1,L_ESI,66.34643473716369,return,5
BMu97,64,C,INI,Weight_Unconstrained,1,L_ESI,59.429675577197656,bending,6
BMu97,64,C,INI,Weight_Unconstrained,1,R_ESI,79.6468462321838,return,1
BMu97,64,C,INI,Weight_Unconstrained,1,R_ESI,45.927684822203105,bending,2
BMu97,64,C,INI,Weight_Unconstrained,1,R_ESI,81.28280363660058,return,3
BMu97,64,C,INI,Weight_Unconstrained,1,R_ESI,49.448357428330816,bending,4
BMu97,64,C,INI,Weight_Unconstrained,1,R_ESI,78.74486562519516,return,5
BMu97,64,C,INI,Weight_Unconstrained,1,R_ESI,54.642682420016264,bending,6
BMu97,64,C,REL,Weight_Unconstrained,1,L_ESI,51.72941156280057,return,1
BMu97,64,C,REL,Weight_Unconstrained,1,L_ESI,33.62480793383885,bending,2
BMu97,64,C,REL,Weight_Unconstrained,1,L_ESI,49.5085332125336,return,3
BMu97,64,C,REL,Weight_Unconstrained,1,L_ESI,33.430202754247695,bending,4
BMu97,64,C,REL,Weight_Unconstrained,1,L_ESI,54.21937719873032,return,5
BMu97,64,C,REL,Weight_Unconstrained,1,L_ESI,31.43962319390442,bending,6
BMu97,64,C,REL,Weight_Unconstrained,1,R_ESI,75.75668532934611,return,1
BMu97,64,C,REL,Weight_Unconstrained,1,R_ESI,39.72029025028868,bending,2
BMu97,64,C,REL,Weight_Unconstrained,1,R_ESI,77.09509452605164,return,3
BMu97,64,C,REL,Weight_Unconstrained,1,R_ESI,44.53933527400466,bending,4
BMu97,64,C,REL,Weight_Unconstrained,1,R_ESI,75.44719065509163,return,5
BMu97,64,C,REL,Weight_Unconstrained,1,R_ESI,45.521677055108924,bending,6
BMu97,65,P,INI,Weight_Unconstrained,1,L_ESI,,return,1
BMu97,65,P,INI,Weight_Unconstrained,1,L_ESI,,bending,2
BMu97,65,P,INI,Weight_Unconstrained,1,L_ESI,79.55907921790782,return,3
BMu97,65,P,INI,Weight_Unconstrained,1,L_ESI,65.64975575851398,bending,4
BMu97,65,P,INI,Weight_Unconstrained,1,L_ESI,113.04395633373078,return,5
BMu97,65,P,INI,Weight_Unconstrained,1,L_ESI,103.03723003809891,bending,6
BMu97,65,P,INI,Weight_Unconstrained,1,L_ESI,144.30589102619234,return,7
BMu97,65,P,INI,Weight_Unconstrained,1,L_ESI,69.00321404046073,bending,8
BMu97,65,P,INI,Weight_Unconstrained,1,L_ESI,66.11240561462749,return,9
BMu97,65,P,INI,Weight_Unconstrained,1,R_ESI,,return,1
BMu97,65,P,INI,Weight_Unconstrained,1,R_ESI,,bending,2
BMu97,65,P,INI,Weight_Unconstrained,1,R_ESI,82.87291620038961,return,3
BMu97,65,P,INI,Weight_Unconstrained,1,R_ESI,57.96084817129628,bending,4
BMu97,65,P,INI,Weight_Unconstrained,1,R_ESI,105.90954251416036,return,5
BMu97,65,P,INI,Weight_Unconstrained,1,R_ESI,99.40331136532193,bending,6
BMu97,65,P,INI,Weight_Unconstrained,1,R_ESI,132.03513119354398,return,7
BMu97,65,P,INI,Weight_Unconstrained,1,R_ESI,51.25836119018952,bending,8
BMu97,65,P,INI,Weight_Unconstrained,1,R_ESI,58.2633027578799,return,9
BMu97,65,P,REL,Weight_Unconstrained,1,L_ESI,87.06543336752453,return,1
BMu97,65,P,REL,Weight_Unconstrained,1,L_ESI,64.32925571641915,bending,2
BMu97,65,P,REL,Weight_Unconstrained,1,L_ESI,90.49641890741736,return,3
BMu97,65,P,REL,Weight_Unconstrained,1,L_ESI,71.89339686087077,bending,4
BMu97,65,P,REL,Weight_Unconstrained,1,L_ESI,89.164287928533,return,5
BMu97,65,P,REL,Weight_Unconstrained,1,L_ESI,84.18337488433812,bending,6
BMu97,65,P,REL,Weight_Unconstrained,1,R_ESI,102.0345901782405,return,1
BMu97,65,P,REL,Weight_Unconstrained,1,R_ESI,82.53801377588778,bending,2
BMu97,65,P,REL,Weight_Unconstrained,1,R_ESI,117.78372265814511,return,3
BMu97,65,P,REL,Weight_Unconstrained,1,R_ESI,85.15066891914545,bending,4
BMu97,65,P,REL,Weight_Unconstrained,1,R_ESI,107.16325977951398,return,5
BMu97,65,P,REL,Weight_Unconstrained,1,R_ESI,95.6002128704407,bending,6
BMu97,66,C,INI,Weight_Unconstrained,1,L_ESI,68.4747305297346,return,1
BMu97,66,C,INI,Weight_Unconstrained,1,L_ESI,43.310931750201355,bending,2
BMu97,66,C,INI,Weight_Unconstrained,1,L_ESI,68.95971828646525,return,3
BMu97,66,C,INI,Weight_Unconstrained,1,L_ESI,47.149056213613115,bending,4
BMu97,66,C,INI,Weight_Unconstrained,1,L_ESI,72.45486930070516,return,5
BMu97,66,C,INI,Weight_Unconstrained,1,L_ESI,45.06640650832051,bending,6
BMu97,66,C,INI,Weight_Unconstrained,1,R_ESI,85.62062774180106,return,1
BMu97,66,C,INI,Weight_Unconstrained,1,R_ESI,41.51503268988868,bending,2
BMu97,66,C,INI,Weight_Unconstrained,1,R_ESI,78.44960314000629,return,3
BMu97,66,C,INI,Weight_Unconstrained,1,R_ESI,41.09172223542813,bending,4
BMu97,66,C,INI,Weight_Unconstrained,1,R_ESI,90.7488987221585,return,5
BMu97,66,C,INI,Weight_Unconstrained,1,R_ESI,44.56233833617383,bending,6
BMu97,66,C,REL,Weight_Unconstrained,1,L_ESI,69.48045058713414,return,1
BMu97,66,C,REL,Weight_Unconstrained,1,L_ESI,51.207188919315755,bending,2
BMu97,66,C,REL,Weight_Unconstrained,1,L_ESI,60.29954720682212,return,3
BMu97,66,C,REL,Weight_Unconstrained,1,L_ESI,44.69665484280105,bending,4
BMu97,66,C,REL,Weight_Unconstrained,1,L_ESI,66.23910705092887,return,5
BMu97,66,C,REL,Weight_Unconstrained,1,L_ESI,47.04511350844412,bending,6
BMu97,66,C,REL,Weight_Unconstrained,1,R_ESI,111.2857058063016,return,1
BMu97,66,C,REL,Weight_Unconstrained,1,R_ESI,74.38461453999479,bending,2
BMu97,66,C,REL,Weight_Unconstrained,1,R_ESI,116.2507345675432,return,3
BMu97,66,C,REL,Weight_Unconstrained,1,R_ESI,69.52057002439099,bending,4
BMu97,66,C,REL,Weight_Unconstrained,1,R_ESI,122.03910949459127,return,5
BMu97,66,C,REL,Weight_Unconstrained,1,R_ESI,70.32719043537072,bending,6
BMu97,67,C,INI,Weight_Unconstrained,1,L_ESI,50.771833125610314,return,1
BMu97,67,C,INI,Weight_Unconstrained,1,L_ESI,30.744465866318333,bending,2
BMu97,67,C,INI,Weight_Unconstrained,1,L_ESI,50.722921444628966,return,3
BMu97,67,C,INI,Weight_Unconstrained,1,L_ESI,30.584349111992186,bending,4
BMu97,67,C,INI,Weight_Unconstrained,1,L_ESI,47.169854490102765,return,5
BMu97,67,C,INI,Weight_Unconstrained,1,L_ESI,60.322924667166525,bending,6
BMu97,67,C,INI,Weight_Unconstrained,1,R_ESI,71.86336022460674,return,1
BMu97,67,C,INI,Weight_Unconstrained,1,R_ESI,50.510419365490314,bending,2
BMu97,67,C,INI,Weight_Unconstrained,1,R_ESI,61.717861361765905,return,3
BMu97,67,C,INI,Weight_Unconstrained,1,R_ESI,55.730039622155076,bending,4
BMu97,67,C,INI,Weight_Unconstrained,1,R_ESI,57.981156253698316,return,5
BMu97,67,C,INI,Weight_Unconstrained,1,R_ESI,43.80035598065711,bending,6
BMu97,67,C,REL,Weight_Unconstrained,1,L_ESI,100.66168725938456,return,1
BMu97,67,C,REL,Weight_Unconstrained,1,L_ESI,69.69616521608079,bending,2
BMu97,67,C,REL,Weight_Unconstrained,1,L_ESI,56.39556824211724,return,3
BMu97,67,C,REL,Weight_Unconstrained,1,L_ESI,52.17425952032241,bending,4
BMu97,67,C,REL,Weight_Unconstrained,1,L_ESI,61.23144601467814,return,5
BMu97,67,C,REL,Weight_Unconstrained,1,L_ESI,56.38382676009406,bending,6
BMu97,67,C,REL,Weight_Unconstrained,1,R_ESI,74.79880577608388,return,1
BMu97,67,C,REL,Weight_Unconstrained,1,R_ESI,47.40924492988295,bending,2
BMu97,67,C,REL,Weight_Unconstrained,1,R_ESI,72.4938830548119,return,3
BMu97,67,C,REL,Weight_Unconstrained,1,R_ESI,78.55723553003976,bending,4
BMu97,67,C,REL,Weight_Unconstrained,1,R_ESI,68.90859114060792,return,5
BMu97,67,C,REL,Weight_Unconstrained,1,R_ESI,71.16757232265871,bending,6
BMu97,68,C,INI,Weight_Unconstrained,1,L_ESI,82.71753994111948,return,1
BMu97,68,C,INI,Weight_Unconstrained,1,L_ESI,56.96411878839025,bending,2
BMu97,68,C,INI,Weight_Unconstrained,1,L_ESI,99.06826136882118,return,3
BMu97,68,C,INI,Weight_Unconstrained,1,L_ESI,57.06218210677585,bending,4
BMu97,68,C,INI,Weight_Unconstrained,1,L_ESI,93.53027955752762,return,5
BMu97,68,C,INI,Weight_Unconstrained,1,L_ESI,70.25925714839964,bending,6
BMu97,68,C,INI,Weight_Unconstrained,1,R_ESI,73.26401870939961,return,1
BMu97,68,C,INI,Weight_Unconstrained,1,R_ESI,56.41751589072753,bending,2
BMu97,68,C,INI,Weight_Unconstrained,1,R_ESI,69.0267047092247,return,3
BMu97,68,C,INI,Weight_Unconstrained,1,R_ESI,55.46121547082262,bending,4
BMu97,68,C,INI,Weight_Unconstrained,1,R_ESI,95.98606896156626,return,5
BMu97,68,C,INI,Weight_Unconstrained,1,R_ESI,53.614860180283884,bending,6
BMu97,68,C,REL,Weight_Unconstrained,1,L_ESI,81.26600748512233,return,1
BMu97,68,C,REL,Weight_Unconstrained,1,L_ESI,54.96056350391172,bending,2
BMu97,68,C,REL,Weight_Unconstrained,1,L_ESI,76.08734721623775,return,3
BMu97,68,C,REL,Weight_Unconstrained,1,L_ESI,49.60243093315825,bending,4
BMu97,68,C,REL,Weight_Unconstrained,1,L_ESI,95.99768844378313,return,5
BMu97,68,C,REL,Weight_Unconstrained,1,L_ESI,86.87386587460689,bending,6
