BMu,subject,P_C,session,task,trials,channel,value,event
BMu91,1,C,INI,Posture_Standing,1,L_LES,,
BMu91,1,C,INI,Posture_Standing,1,R_LES,,
BMu91,1,C,REL,Posture_Standing,1,L_LES,,
BMu91,1,C,REL,Posture_Standing,1,R_LES,,
BMu91,2,C,INI,Posture_Standing,1,L_LES,,
BMu91,2,C,INI,Posture_Standing,1,R_LES,,
BMu91,2,C,REL,Posture_Standing,1,L_LES,,
BMu91,2,C,REL,Posture_Standing,1,R_LES,,
BMu91,3,C,INI,Posture_Standing,1,L_LES,,
BMu91,3,C,INI,Posture_Standing,1,R_LES,,
BMu91,3,C,REL,Posture_Standing,1,L_LES,,
BMu91,3,C,REL,Posture_Standing,1,R_LES,,
BMu91,5,C,INI,Posture_Standing,1,L_LES,,
BMu91,5,C,INI,Posture_Standing,1,R_LES,,
BMu91,5,C,REL,Posture_Standing,1,L_LES,,
BMu91,5,C,REL,Posture_Standing,1,R_LES,,
BMu91,6,C,INI,Posture_Standing,1,L_LES,,
BMu91,6,C,INI,Posture_Standing,1,R_LES,,
BMu91,6,C,REL,Posture_Standing,1,L_LES,,
BMu91,6,C,REL,Posture_Standing,1,R_LES,,
BMu91,7,C,INI,Posture_Standing,1,L_LES,,
BMu91,7,C,INI,Posture_Standing,1,R_LES,,
BMu91,7,C,REL,Posture_Standing,1,L_LES,,
BMu91,7,C,REL,Posture_Standing,1,R_LES,,
BMu91,8,C,INI,Posture_Standing,1,L_LES,,
BMu91,8,C,INI,Posture_Standing,1,R_LES,,
BMu91,8,C,REL,Posture_Standing,1,L_LES,,
BMu91,8,C,REL,Posture_Standing,1,R_LES,,
BMu91,9,P,INI,Posture_Standing,1,L_LES,,
BMu91,9,P,INI,Posture_Standing,1,R_LES,,
BMu91,9,P,REL,Posture_Standing,1,L_LES,,
BMu91,9,P,REL,Posture_Standing,1,R_LES,,
BMu91,10,P,INI,Posture_Standing,1,L_LES,,
BMu91,10,P,INI,Posture_Standing,1,R_LES,,
BMu91,10,P,REL,Posture_Standing,1,L_LES,,
BMu91,10,P,REL,Posture_Standing,1,R_LES,,
BMu91,11,P,INI,Posture_Standing,1,L_LES,,
BMu91,11,P,INI,Posture_Standing,1,R_LES,,
BMu91,11,P,REL,Posture_Standing,1,L_LES,,
BMu91,11,P,REL,Posture_Standing,1,R_LES,,
BMu91,12,P,INI,Posture_Standing,1,L_LES,,
BMu91,12,P,INI,Posture_Standing,1,R_LES,,
BMu91,12,P,REL,Posture_Standing,1,L_LES,,
BMu91,12,P,REL,Posture_Standing,1,R_LES,,
BMu91,13,C,INI,Posture_Standing,1,L_LES,,
BMu91,13,C,INI,Posture_Standing,1,R_LES,,
BMu91,13,C,REL,Posture_Standing,1,L_LES,,
BMu91,13,C,REL,Posture_Standing,1,R_LES,,
BMu91,14,P,INI,Posture_Standing,1,L_LES,,
BMu91,14,P,INI,Posture_Standing,1,R_LES,,
BMu91,14,P,REL,Posture_Standing,1,L_LES,,
BMu91,14,P,REL,Posture_Standing,1,R_LES,,
BMu91,16,C,INI,Posture_Standing,1,L_LES,,
BMu91,16,C,INI,Posture_Standing,1,R_LES,,
BMu91,16,C,REL,Posture_Standing,1,L_LES,,
BMu91,16,C,REL,Posture_Standing,1,R_LES,,
BMu91,17,P,INI,Posture_Standing,1,L_LES,,
BMu91,17,P,INI,Posture_Standing,1,R_LES,,
BMu91,17,P,REL,Posture_Standing,1,L_LES,,
BMu91,17,P,REL,Posture_Standing,1,R_LES,,
BMu91,21,C,INI,Posture_Standing,1,L_LES,,
BMu91,21,C,INI,Posture_Standing,1,R_LES,,
BMu91,21,C,REL,Posture_Standing,1,L_LES,,
BMu91,21,C,REL,Posture_Standing,1,R_LES,,
BMu91,22,C,INI,Posture_Standing,1,L_LES,,
BMu91,22,C,INI,Posture_Standing,1,R_LES,,
BMu91,22,C,REL,Posture_Standing,1,L_LES,,
BMu91,22,C,REL,Posture_Standing,1,R_LES,,
BMu91,23,C,INI,Posture_Standing,1,L_LES,,
BMu91,23,C,INI,Posture_Standing,1,R_LES,,
BMu91,23,C,REL,Posture_Standing,1,L_LES,,
BMu91,23,C,REL,Posture_Standing,1,R_LES,,
BMu91,24,P,INI,Posture_Standing,1,L_LES,,
BMu91,24,P,INI,Posture_Standing,1,R_LES,,
BMu91,24,P,REL,Posture_Standing,1,L_LES,,
BMu91,24,P,REL,Posture_Standing,1,R_LES,,
BMu91,25,C,INI,Posture_Standing,1,L_LES,,
BMu91,25,C,INI,Posture_Standing,1,R_LES,,
BMu91,25,C,REL,Posture_Standing,1,L_LES,,
BMu91,25,C,REL,Posture_Standing,1,R_LES,,
BMu91,26,P,INI,Posture_Standing,1,L_LES,,
BMu91,26,P,INI,Posture_Standing,1,R_LES,,
BMu91,26,P,REL,Posture_Standing,1,L_LES,,
BMu91,26,P,REL,Posture_Standing,1,R_LES,,
BMu91,27,P,INI,Posture_Standing,1,L_LES,,
BMu91,27,P,INI,Posture_Standing,1,R_LES,,
BMu91,27,P,REL,Posture_Standing,1,L_LES,,
BMu91,27,P,REL,Posture_Standing,1,R_LES,,
BMu91,28,P,INI,Posture_Standing,1,L_LES,,
BMu91,28,P,INI,Posture_Standing,1,R_LES,,
BMu91,28,P,REL,Posture_Standing,1,L_LES,,
BMu91,28,P,REL,Posture_Standing,1,R_LES,,
BMu91,29,P,INI,Posture_Standing,1,L_LES,,
BMu91,29,P,INI,Posture_Standing,1,R_LES,,
BMu91,29,P,REL,Posture_Standing,1,L_LES,,
BMu91,29,P,REL,Posture_Standing,1,R_LES,,
BMu91,30,P,INI,Posture_Standing,1,L_LES,,
BMu91,30,P,INI,Posture_Standing,1,R_LES,,
BMu91,30,P,REL,Posture_Standing,1,L_LES,,
BMu91,30,P,REL,Posture_Standing,1,R_LES,,
BMu91,32,P,INI,Posture_Standing,1,L_LES,,
BMu91,32,P,INI,Posture_Standing,1,R_LES,,
BMu91,32,P,REL,Posture_Standing,1,L_LES,,
BMu91,32,P,REL,Posture_Standing,1,R_LES,,
BMu91,33,P,INI,Posture_Standing,1,L_LES,,
BMu91,33,P,INI,Posture_Standing,1,R_LES,,
BMu91,33,P,REL,Posture_Standing,1,L_LES,,
BMu91,33,P,REL,Posture_Standing,1,R_LES,,
BMu91,34,P,INI,Posture_Standing,1,L_LES,,
BMu91,34,P,INI,Posture_Standing,1,R_LES,,
BMu91,34,P,REL,Posture_Standing,1,L_LES,,
BMu91,34,P,REL,Posture_Standing,1,R_LES,,
BMu91,35,C,INI,Posture_Standing,1,L_LES,,
BMu91,35,C,INI,Posture_Standing,1,R_LES,,
BMu91,35,C,REL,Posture_Standing,1,L_LES,,
BMu91,35,C,REL,Posture_Standing,1,R_LES,,
BMu91,36,P,INI,Posture_Standing,1,L_LES,,
BMu91,36,P,INI,Posture_Standing,1,R_LES,,
BMu91,36,P,REL,Posture_Standing,1,L_LES,,
BMu91,36,P,REL,Posture_Standing,1,R_LES,,
BMu91,38,C,INI,Posture_Standing,1,L_LES,,
BMu91,38,C,INI,Posture_Standing,1,R_LES,,
BMu91,38,C,REL,Posture_Standing,1,L_LES,,
BMu91,38,C,REL,Posture_Standing,1,R_LES,,
BMu91,39,C,INI,Posture_Standing,1,L_LES,,
BMu91,39,C,INI,Posture_Standing,1,R_LES,,
BMu91,39,C,REL,Posture_Standing,1,L_LES,,
BMu91,39,C,REL,Posture_Standing,1,R_LES,,
BMu91,40,C,INI,Posture_Standing,1,L_LES,,
BMu91,40,C,INI,Posture_Standing,1,R_LES,,
BMu91,40,C,REL,Posture_Standing,1,L_LES,,
BMu91,40,C,REL,Posture_Standing,1,R_LES,,
BMu91,41,P,INI,Posture_Standing,1,L_LES,,
BMu91,41,P,INI,Posture_Standing,1,R_LES,,
BMu91,41,P,REL,Posture_Standing,1,L_LES,,
BMu91,41,P,REL,Posture_Standing,1,R_LES,,
BMu91,42,P,INI,Posture_Standing,1,L_LES,,
BMu91,42,P,INI,Posture_Standing,1,R_LES,,
BMu91,42,P,REL,Posture_Standing,1,L_LES,,
BMu91,42,P,REL,Posture_Standing,1,R_LES,,
BMu91,43,P,INI,Posture_Standing,1,L_LES,,
BMu91,43,P,INI,Posture_Standing,1,R_LES,,
BMu91,43,P,REL,Posture_Standing,1,L_LES,,
BMu91,43,P,REL,Posture_Standing,1,R_LES,,
BMu91,44,C,INI,Posture_Standing,1,L_LES,,
BMu91,44,C,INI,Posture_Standing,1,R_LES,,
BMu91,44,C,REL,Posture_Standing,1,L_LES,,
BMu91,44,C,REL,Posture_Standing,1,R_LES,,
BMu91,45,P,INI,Posture_Standing,1,L_LES,,
BMu91,45,P,INI,Posture_Standing,1,R_LES,,
BMu91,45,P,REL,Posture_Standing,1,L_LES,,
BMu91,45,P,REL,Posture_Standing,1,R_LES,,
BMu91,46,C,INI,Posture_Standing,1,L_LES,,
BMu91,46,C,INI,Posture_Standing,1,R_LES,,
BMu91,46,C,REL,Posture_Standing,1,L_LES,,
BMu91,46,C,REL,Posture_Standing,1,R_LES,,
BMu91,47,P,INI,Posture_Standing,1,L_LES,,
BMu91,47,P,INI,Posture_Standing,1,R_LES,,
BMu91,47,P,REL,Posture_Standing,1,L_LES,,
BMu91,47,P,REL,Posture_Standing,1,R_LES,,
BMu91,48,C,INI,Posture_Standing,1,L_LES,,
BMu91,48,C,INI,Posture_Standing,1,R_LES,,
BMu91,48,C,REL,Posture_Standing,1,L_LES,,
BMu91,48,C,REL,Posture_Standing,1,R_LES,,
BMu91,49,C,INI,Posture_Standing,1,L_LES,,
BMu91,49,C,INI,Posture_Standing,1,R_LES,,
BMu91,49,C,REL,Posture_Standing,1,L_LES,,
BMu91,49,C,REL,Posture_Standing,1,R_LES,,
BMu91,50,P,INI,Posture_Standing,1,L_LES,,
BMu91,50,P,INI,Posture_Standing,1,R_LES,,
BMu91,50,P,REL,Posture_Standing,1,L_LES,,
BMu91,50,P,REL,Posture_Standing,1,R_LES,,
BMu91,51,P,INI,Posture_Standing,1,L_LES,,
BMu91,51,P,INI,Posture_Standing,1,R_LES,,
BMu91,51,P,REL,Posture_Standing,1,L_LES,,
BMu91,51,P,REL,Posture_Standing,1,R_LES,,
BMu91,52,C,INI,Posture_Standing,1,L_LES,,
BMu91,52,C,INI,Posture_Standing,1,R_LES,,
BMu91,52,C,REL,Posture_Standing,1,L_LES,,
BMu91,52,C,REL,Posture_Standing,1,R_LES,,
BMu91,53,P,INI,Posture_Standing,1,L_LES,,
BMu91,53,P,INI,Posture_Standing,1,R_LES,,
BMu91,53,P,REL,Posture_Standing,1,L_LES,,
BMu91,53,P,REL,Posture_Standing,1,R_LES,,
BMu91,54,P,INI,Posture_Standing,1,L_LES,,
BMu91,54,P,INI,Posture_Standing,1,R_LES,,
BMu91,54,P,REL,Posture_Standing,1,L_LES,,
BMu91,54,P,REL,Posture_Standing,1,R_LES,,
BMu91,55,C,INI,Posture_Standing,1,L_LES,,
BMu91,55,C,INI,Posture_Standing,1,R_LES,,
BMu91,55,C,REL,Posture_Standing,1,L_LES,,
BMu91,55,C,REL,Posture_Standing,1,R_LES,,
BMu91,56,C,INI,Posture_Standing,1,L_LES,,
BMu91,56,C,INI,Posture_Standing,1,R_LES,,
BMu91,56,C,REL,Posture_Standing,1,L_LES,,
BMu91,56,C,REL,Posture_Standing,1,R_LES,,
BMu91,57,C,INI,Posture_Standing,1,L_LES,,
BMu91,57,C,INI,Posture_Standing,1,R_LES,,
BMu91,57,C,REL,Posture_Standing,1,L_LES,,
BMu91,57,C,REL,Posture_Standing,1,R_LES,,
BMu91,58,P,INI,Posture_Standing,1,L_LES,,
BMu91,58,P,INI,Posture_Standing,1,R_LES,,
BMu91,58,P,REL,Posture_Standing,1,L_LES,,
BMu91,58,P,REL,Posture_Standing,1,R_LES,,
BMu91,60,C,INI,Posture_Standing,1,L_LES,,
BMu91,60,C,INI,Posture_Standing,1,R_LES,,
BMu91,60,C,REL,Posture_Standing,1,L_LES,,
BMu91,60,C,REL,Posture_Standing,1,R_LES,,
BMu91,61,P,INI,Posture_Standing,1,L_LES,,
BMu91,61,P,INI,Posture_Standing,1,R_LES,,
BMu91,61,P,REL,Posture_Standing,1,L_LES,,
BMu91,61,P,REL,Posture_Standing,1,R_LES,,
BMu91,62,P,INI,Posture_Standing,1,L_LES,,
BMu91,62,P,INI,Posture_Standing,1,R_LES,,
BMu91,62,P,REL,Posture_Standing,1,L_LES,,
BMu91,62,P,REL,Posture_Standing,1,R_LES,,
BMu91,63,P,INI,Posture_Standing,1,L_LES,,
BMu91,63,P,INI,Posture_Standing,1,R_LES,,
BMu91,63,P,REL,Posture_Standing,1,L_LES,,
BMu91,63,P,REL,Posture_Standing,1,R_LES,,
BMu91,64,C,INI,Posture_Standing,1,L_LES,,
BMu91,64,C,INI,Posture_Standing,1,R_LES,,
BMu91,64,C,REL,Posture_Standing,1,L_LES,,
BMu91,64,C,REL,Posture_Standing,1,R_LES,,
BMu91,65,P,INI,Posture_Standing,1,L_LES,,
BMu91,65,P,INI,Posture_Standing,1,R_LES,,
BMu91,65,P,REL,Posture_Standing,1,L_LES,,
BMu91,65,P,REL,Posture_Standing,1,R_LES,,
BMu91,66,C,INI,Posture_Standing,1,L_LES,,
BMu91,66,C,INI,Posture_Standing,1,R_LES,,
BMu91,66,C,REL,Posture_Standing,1,L_LES,,
BMu91,66,C,REL,Posture_Standing,1,R_LES,,
BMu91,67,C,INI,Posture_Standing,1,L_LES,,
BMu91,67,C,INI,Posture_Standing,1,R_LES,,
BMu91,67,C,REL,Posture_Standing,1,L_LES,,
BMu91,67,C,REL,Posture_Standing,1,R_LES,,
BMu91,68,C,INI,Posture_Standing,1,L_LES,,
BMu91,68,C,INI,Posture_Standing,1,R_LES,,
BMu91,68,C,REL,Posture_Standing,1,L_LES,,
BMu91,68,C,REL,Posture_Standing,1,R_LES,,
