Group,Participant,Session,Operator,Measure,Value,Unit
CTR,P01,INI,FM,M1,79.34668071654373,Hz
CTR,P01,INI,FM,M2,80.72487644151566,Hz
CTR,P01,INI,FM,M3,70.22436303714032,Hz
CTR,P01,REL,FM,M1,122.7878787878788,Hz
CTR,P01,REL,FM,M2,30.04291845493562,Hz
CTR,P01,REL,FM,M3,68.20950060901339,Hz
CTR,P02,INI,FM,M1,102.9053297318664,Hz
CTR,P02,INI,FM,M2,97.4381625441696,Hz
CTR,P02,INI,FM,M3,104.24972431928067,Hz
CTR,P03,INI,FM,M1,91.19839209446444,Hz
CTR,P03,INI,FM,M2,79.3249706705171,Hz
CTR,P03,INI,FM,M3,91.81565638578248,Hz
CTR,P03,REL,FM,M1,87.19728903215142,Hz
CTR,P03,REL,FM,M2,82.88694671553426,Hz
CTR,P03,REL,FM,M3,83.5292914834884,Hz
CTR,P05,INI,FM,M1,136.23695638084126,Hz
CTR,P05,INI,FM,M2,137.7887133899516,Hz
CTR,P05,INI,FM,M3,134.6631205673759,Hz
CTR,P05,REL,FM,M1,,Hz
CTR,P05,REL,FM,M2,,Hz
CTR,P05,REL,FM,M3,,Hz
CTR,P06,INI,FM,M1,77.62520193861066,Hz
CTR,P06,INI,FM,M2,79.43201376936317,Hz
CTR,P06,INI,FM,M3,79.84084880636604,Hz
CTR,P06,REL,FM,M1,87.940234791889,Hz
CTR,P06,REL,FM,M2,85.11576626240353,Hz
CTR,P06,REL,FM,M3,82.64761732525544,Hz
CTR,P07,INI,FM,M1,120.29984282432596,Hz
CTR,P07,INI,FM,M2,117.17417783191227,Hz
CTR,P07,INI,FM,M3,124.27163894480348,Hz
CTR,P07,REL,FM,M1,120.01655400744929,Hz
CTR,P07,REL,FM,M2,123.2707848239967,Hz
CTR,P07,REL,FM,M3,121.54160835396704,Hz
CTR,P08,INI,FM,M1,33.98972602739726,Hz
CTR,P08,INI,FM,M2,29.5863309352518,Hz
CTR,P08,INI,FM,M3,42.039972432804966,Hz
CTR,P08,REL,FM,M1,100.70388180361,Hz
CTR,P08,REL,FM,M2,105.96552545873382,Hz
CTR,P08,REL,FM,M3,100.80971659919028,Hz
CTR,P13,INI,FM,M1,49.159120310478656,Hz
CTR,P13,INI,FM,M2,56.47058823529412,Hz
CTR,P13,INI,FM,M3,53.03225806451613,Hz
CTR,P13,REL,FM,M1,85.89153920205369,Hz
CTR,P13,REL,FM,M2,86.39820471262934,Hz
CTR,P13,REL,FM,M3,74.45887445887446,Hz
CTR,P16,INI,FM,M1,106.02409638554217,Hz
CTR,P16,INI,FM,M2,106.26029654036245,Hz
CTR,P16,INI,FM,M3,101.76289525230855,Hz
CTR,P16,REL,FM,M1,111.9047619047619,Hz
CTR,P16,REL,FM,M2,110.77811077811076,Hz
CTR,P16,REL,FM,M3,106.48379052369076,Hz
CTR,P21,INI,FM,M1,51.74363807728559,Hz
CTR,P21,INI,FM,M2,100.01190617930703,Hz
CTR,P21,INI,FM,M3,43.74193548387097,Hz
CTR,P21,REL,FM,M1,78.83597883597884,Hz
CTR,P21,REL,FM,M2,80.31907578049787,Hz
CTR,P21,REL,FM,M3,92.93044469783352,Hz
CTR,P22,INI,FM,M1,98.40674789128398,Hz
CTR,P22,INI,FM,M2,87.97106521992767,Hz
CTR,P22,INI,FM,M3,98.09939794593318,Hz
CTR,P22,REL,FM,M1,110.18229428945511,Hz
CTR,P22,REL,FM,M2,99.46931555313648,Hz
CTR,P22,REL,FM,M3,100.35294117647058,Hz
CTR,P23,INI,FM,M1,87.38379814077025,Hz
CTR,P23,INI,FM,M2,85.19833307609198,Hz
CTR,P23,INI,FM,M3,80.90957165520888,Hz
CTR,P23,REL,FM,M1,105.48424737456244,Hz
CTR,P23,REL,FM,M2,96.25862695241554,Hz
CTR,P23,REL,FM,M3,99.50727076072587,Hz
CTR,P25,INI,FM,M1,32.081185039692286,Hz
CTR,P25,INI,FM,M2,99.98820893762527,Hz
CTR,P25,INI,FM,M3,99.87980769230768,Hz
CTR,P25,REL,FM,M1,129.76809022937525,Hz
CTR,P25,REL,FM,M2,124.70892626131952,Hz
CTR,P25,REL,FM,M3,104.99479708636838,Hz
CTR,P35,INI,FM,M1,139.8890331719986,Hz
CTR,P35,INI,FM,M2,111.89284264646192,Hz
CTR,P35,INI,FM,M3,134.79188900747064,Hz
CTR,P35,REL,FM,M1,98.27188940092168,Hz
CTR,P35,REL,FM,M2,81.58508158508158,Hz
CTR,P35,REL,FM,M3,102.27531285551764,Hz
CTR,P38,INI,FM,M1,61.40441862877295,Hz
CTR,P38,INI,FM,M2,29.542920847268668,Hz
CTR,P38,INI,FM,M3,24.12443127711353,Hz
CTR,P38,REL,FM,M1,65.35162950257289,Hz
CTR,P38,REL,FM,M2,62.82335550628233,Hz
CTR,P38,REL,FM,M3,77.26394727871833,Hz
CTR,P39,INI,FM,M1,81.90255220417632,Hz
CTR,P39,INI,FM,M2,84.18275572610625,Hz
CTR,P39,INI,FM,M3,85.12501216071603,Hz
CTR,P39,REL,FM,M1,87.59894459102902,Hz
CTR,P39,REL,FM,M2,76.87165775401068,Hz
CTR,P39,REL,FM,M3,77.16155700998966,Hz
CTR,P40,INI,FM,M1,105.46139359698682,Hz
CTR,P40,INI,FM,M2,91.73728813559325,Hz
CTR,P40,INI,FM,M3,98.79491911844534,Hz
CTR,P40,REL,FM,M1,116.87371848992883,Hz
CTR,P40,REL,FM,M2,99.33065595716198,Hz
CTR,P40,REL,FM,M3,93.15960912052115,Hz
CTR,P44,INI,FM,M1,184.4806007509387,Hz
CTR,P44,INI,FM,M2,33.53365384615385,Hz
CTR,P44,INI,FM,M3,59.99999999999999,Hz
CTR,P44,REL,FM,M1,107.61548064918853,Hz
CTR,P44,REL,FM,M2,104.9437349854596,Hz
CTR,P44,REL,FM,M3,108.4487967496614,Hz
CTR,P46,INI,FM,M1,45.5313649468138,Hz
CTR,P46,INI,FM,M2,52.30157516439823,Hz
CTR,P46,INI,FM,M3,31.50102378327296,Hz
CTR,P46,REL,FM,M1,34.21418636995827,Hz
CTR,P46,REL,FM,M2,39.285714285714285,Hz
CTR,P46,REL,FM,M3,39.846322722283205,Hz
CTR,P48,INI,FM,M1,114.35597909621886,Hz
CTR,P48,INI,FM,M2,121.8633380517308,Hz
CTR,P48,INI,FM,M3,116.43922969009054,Hz
CTR,P48,REL,FM,M1,114.1899441340782,Hz
CTR,P48,REL,FM,M2,118.66666666666669,Hz
CTR,P48,REL,FM,M3,112.67605633802816,Hz
CTR,P49,INI,FM,M1,127.75280898876404,Hz
CTR,P49,INI,FM,M2,113.16315727561464,Hz
CTR,P49,INI,FM,M3,115.51606288448392,Hz
CTR,P49,REL,FM,M1,108.51808634772462,Hz
CTR,P49,REL,FM,M2,98.10771470160115,Hz
CTR,P49,REL,FM,M3,92.62536873156344,Hz
CTR,P52,INI,FM,M1,112.8382807378968,Hz
CTR,P52,INI,FM,M2,116.27906976744184,Hz
CTR,P52,INI,FM,M3,117.38648947951276,Hz
CTR,P52,REL,FM,M1,103.52201257861635,Hz
CTR,P52,REL,FM,M2,97.50656167979002,Hz
CTR,P52,REL,FM,M3,102.70197607205267,Hz
CTR,P55,INI,FM,M1,,Hz
CTR,P55,INI,FM,M2,,Hz
CTR,P55,INI,FM,M3,,Hz
CTR,P55,REL,FM,M1,67.08715596330275,Hz
CTR,P55,REL,FM,M2,69.75627326209629,Hz
CTR,P55,REL,FM,M3,78.30188679245283,Hz
CTR,P56,INI,FM,M1,59.19292941039656,Hz
CTR,P56,INI,FM,M2,60.642092746730086,Hz
CTR,P56,INI,FM,M3,31.42312233221324,Hz
CTR,P56,REL,FM,M1,54.71464019851116,Hz
CTR,P56,REL,FM,M2,53.91388252321794,Hz
CTR,P56,REL,FM,M3,64.16747809152872,Hz
CTR,P57,INI,FM,M1,,Hz
CTR,P57,INI,FM,M2,,Hz
CTR,P57,INI,FM,M3,,Hz
CTR,P57,REL,FM,M1,42.11055276381909,Hz
CTR,P57,REL,FM,M2,64.53614644740925,Hz
CTR,P57,REL,FM,M3,43.68932038834952,Hz
CTR,P60,INI,FM,M1,95.07818239059712,Hz
CTR,P60,INI,FM,M2,106.71462829736213,Hz
CTR,P60,INI,FM,M3,106.48887219457224,Hz
CTR,P60,REL,FM,M1,83.34470058655026,Hz
CTR,P60,REL,FM,M2,86.98602252680148,Hz
CTR,P60,REL,FM,M3,86.85300207039337,Hz
CTR,P64,INI,FM,M1,110.0507008648971,Hz
CTR,P64,INI,FM,M2,108.38398898956304,Hz
CTR,P64,INI,FM,M3,108.57473928157587,Hz
CTR,P64,REL,FM,M1,106.2304935845567,Hz
CTR,P64,REL,FM,M2,105.87529976019184,Hz
CTR,P64,REL,FM,M3,103.13725490196076,Hz
CTR,P66,INI,FM,M1,,Hz
CTR,P66,INI,FM,M2,,Hz
CTR,P66,INI,FM,M3,,Hz
CTR,P66,REL,FM,M1,64.65390279823269,Hz
CTR,P66,REL,FM,M2,41.32053080159672,Hz
CTR,P66,REL,FM,M3,63.98926054368498,Hz
CTR,P67,INI,FM,M1,92.2092209220922,Hz
CTR,P67,INI,FM,M2,89.51533135509398,Hz
CTR,P67,INI,FM,M3,92.49524661670952,Hz
CTR,P67,REL,FM,M1,106.6122924555782,Hz
CTR,P67,REL,FM,M2,37.22469237927826,Hz
CTR,P67,REL,FM,M3,35.09655751469354,Hz
CTR,P68,INI,FM,M1,88.67713004484305,Hz
CTR,P68,INI,FM,M2,67.99877663370373,Hz
CTR,P68,INI,FM,M3,84.79182519839114,Hz
CTR,P68,REL,FM,M1,115.48601071519688,Hz
CTR,P68,REL,FM,M2,118.65577166532395,Hz
CTR,P68,REL,FM,M3,86.12862547288778,Hz
