Group,Participant,Session,Operator,Measure,Value,Unit
CTR,P01,INI,FM,M1,20.146423220066865,%subMVIC
CTR,P01,INI,FM,M2,22.440355085158803,%subMVIC
CTR,P01,INI,FM,M3,25.936866414962257,%subMVIC
CTR,P01,REL,FM,M1,22.34215865737113,%subMVIC
CTR,P01,REL,FM,M2,22.948829288952535,%subMVIC
CTR,P01,REL,FM,M3,22.60960564517698,%subMVIC
CTR,P02,INI,FM,M1,10.45235641397369,%subMVIC
CTR,P02,INI,FM,M2,9.465653244889696,%subMVIC
CTR,P02,INI,FM,M3,9.82174324277284,%subMVIC
CTR,P02,REL,FM,M1,8.493216800605548,%subMVIC
CTR,P02,REL,FM,M2,7.884775581866158,%subMVIC
CTR,P02,REL,FM,M3,7.774333612818905,%subMVIC
CTR,P03,INI,FM,M1,7.341727413073059,%subMVIC
CTR,P03,INI,FM,M2,6.576791797080621,%subMVIC
CTR,P03,INI,FM,M3,7.169717833675462,%subMVIC
CTR,P03,REL,FM,M1,,%subMVIC
CTR,P03,REL,FM,M2,,%subMVIC
CTR,P03,REL,FM,M3,,%subMVIC
CTR,P05,INI,FM,M1,7.65099784030087,%subMVIC
CTR,P05,INI,FM,M2,7.388469403391704,%subMVIC
CTR,P05,INI,FM,M3,7.429379839247205,%subMVIC
CTR,P05,REL,FM,M1,13.375902129337982,%subMVIC
CTR,P05,REL,FM,M2,11.295524686105722,%subMVIC
CTR,P05,REL,FM,M3,10.90594148479413,%subMVIC
CTR,P06,INI,FM,M1,15.646993053974878,%subMVIC
CTR,P06,INI,FM,M2,15.417780870196006,%subMVIC
CTR,P06,INI,FM,M3,15.999272445395706,%subMVIC
CTR,P06,REL,FM,M1,10.989381292412515,%subMVIC
CTR,P06,REL,FM,M2,11.271550919690368,%subMVIC
CTR,P06,REL,FM,M3,11.51102231552451,%subMVIC
CTR,P07,INI,FM,M1,2.5839904699292475,%subMVIC
CTR,P07,INI,FM,M2,3.502724916269383,%subMVIC
CTR,P07,INI,FM,M3,3.6858512636318315,%subMVIC
CTR,P07,REL,FM,M1,2.872624981796937,%subMVIC
CTR,P07,REL,FM,M2,2.9560787718345307,%subMVIC
CTR,P07,REL,FM,M3,2.9592965413868715,%subMVIC
CTR,P08,INI,FM,M1,11.807986953682867,%subMVIC
CTR,P08,INI,FM,M2,14.753778598304427,%subMVIC
CTR,P08,INI,FM,M3,20.820543517050435,%subMVIC
CTR,P08,REL,FM,M1,8.554705763892837,%subMVIC
CTR,P08,REL,FM,M2,4.951001337906394,%subMVIC
CTR,P08,REL,FM,M3,5.662782263330418,%subMVIC
CTR,P13,REL,FM,M1,11.452012114091284,%subMVIC
CTR,P13,REL,FM,M2,12.128745505616797,%subMVIC
CTR,P13,REL,FM,M3,11.304835213935869,%subMVIC
CTR,P16,INI,FM,M1,5.543356680116529,%subMVIC
CTR,P16,INI,FM,M2,5.860192232811677,%subMVIC
CTR,P16,INI,FM,M3,5.782640572172845,%subMVIC
CTR,P16,REL,FM,M1,5.977820836495436,%subMVIC
CTR,P16,REL,FM,M2,6.807935139018717,%subMVIC
CTR,P16,REL,FM,M3,6.263492733814974,%subMVIC
CTR,P21,INI,FM,M1,8.476944020157527,%subMVIC
CTR,P21,INI,FM,M2,8.447448260999794,%subMVIC
CTR,P21,INI,FM,M3,8.140151144353238,%subMVIC
CTR,P21,REL,FM,M1,9.70458315716847,%subMVIC
CTR,P21,REL,FM,M2,9.179640843534592,%subMVIC
CTR,P21,REL,FM,M3,9.200148211056081,%subMVIC
CTR,P22,INI,FM,M1,24.633141324440484,%subMVIC
CTR,P22,INI,FM,M2,25.183721518632137,%subMVIC
CTR,P22,INI,FM,M3,25.1248054863983,%subMVIC
CTR,P23,INI,FM,M1,20.135267586188718,%subMVIC
CTR,P23,INI,FM,M2,19.198484450037576,%subMVIC
CTR,P23,INI,FM,M3,17.634087880902616,%subMVIC
CTR,P23,REL,FM,M1,12.530064648329809,%subMVIC
CTR,P23,REL,FM,M2,12.066919187876493,%subMVIC
CTR,P23,REL,FM,M3,12.09230784666028,%subMVIC
CTR,P25,INI,FM,M1,,%subMVIC
CTR,P25,INI,FM,M2,,%subMVIC
CTR,P25,INI,FM,M3,,%subMVIC
CTR,P25,REL,FM,M1,17.386632673699076,%subMVIC
CTR,P25,REL,FM,M2,19.38270441991948,%subMVIC
CTR,P25,REL,FM,M3,19.339077171539813,%subMVIC
CTR,P35,INI,FM,M1,19.695905372343063,%subMVIC
CTR,P35,INI,FM,M2,19.52486735075595,%subMVIC
CTR,P35,INI,FM,M3,19.124823551621052,%subMVIC
CTR,P35,REL,FM,M1,6.0643777019014165,%subMVIC
CTR,P35,REL,FM,M2,6.222203118957723,%subMVIC
CTR,P35,REL,FM,M3,5.976396624675092,%subMVIC
CTR,P38,INI,FM,M1,4.694615815173912,%subMVIC
CTR,P38,INI,FM,M2,4.350693114592727,%subMVIC
CTR,P38,INI,FM,M3,4.281687221442039,%subMVIC
CTR,P38,REL,FM,M1,6.156586110340314,%subMVIC
CTR,P38,REL,FM,M2,6.191476522347372,%subMVIC
CTR,P38,REL,FM,M3,6.572019253160895,%subMVIC
CTR,P39,REL,FM,M1,28.9206460938354,%subMVIC
CTR,P39,REL,FM,M2,29.886917797400244,%subMVIC
CTR,P39,REL,FM,M3,29.532959542098833,%subMVIC
CTR,P40,INI,FM,M1,11.014338072718042,%subMVIC
CTR,P40,INI,FM,M2,13.127145142235376,%subMVIC
CTR,P40,INI,FM,M3,14.570865162199828,%subMVIC
CTR,P40,REL,FM,M1,13.402606302464742,%subMVIC
CTR,P40,REL,FM,M2,13.63689027831609,%subMVIC
CTR,P40,REL,FM,M3,13.417886101513206,%subMVIC
CTR,P44,INI,FM,M1,8.565994315539315,%subMVIC
CTR,P44,INI,FM,M2,7.6484220886877905,%subMVIC
CTR,P44,INI,FM,M3,8.762777473201252,%subMVIC
CTR,P44,REL,FM,M1,20.26337261777963,%subMVIC
CTR,P44,REL,FM,M2,19.712308532179147,%subMVIC
CTR,P44,REL,FM,M3,21.843719210334477,%subMVIC
CTR,P46,INI,FM,M1,2.799880861437027,%subMVIC
CTR,P46,INI,FM,M2,2.72384078072142,%subMVIC
CTR,P46,INI,FM,M3,2.6775328689452835,%subMVIC
CTR,P46,REL,FM,M1,2.3361129199260735,%subMVIC
CTR,P46,REL,FM,M2,2.4653341845004095,%subMVIC
CTR,P46,REL,FM,M3,2.2941671038319247,%subMVIC
CTR,P48,INI,FM,M1,21.597462842344452,%subMVIC
CTR,P48,INI,FM,M2,21.938814016778856,%subMVIC
CTR,P48,INI,FM,M3,21.925348747080143,%subMVIC
CTR,P48,REL,FM,M1,13.136173648326833,%subMVIC
CTR,P48,REL,FM,M2,12.876468114773285,%subMVIC
CTR,P48,REL,FM,M3,13.163262865501187,%subMVIC
CTR,P49,INI,FM,M1,6.302646899475062,%subMVIC
CTR,P49,INI,FM,M2,5.452565327959965,%subMVIC
CTR,P49,INI,FM,M3,6.839522763986955,%subMVIC
CTR,P49,REL,FM,M1,6.15076464822794,%subMVIC
CTR,P49,REL,FM,M2,6.363816871733324,%subMVIC
CTR,P49,REL,FM,M3,7.013904736884659,%subMVIC
CTR,P52,INI,FM,M1,3.3493069433394367,%subMVIC
CTR,P52,INI,FM,M2,3.16910060297254,%subMVIC
CTR,P52,INI,FM,M3,3.204696115359918,%subMVIC
CTR,P52,REL,FM,M1,3.3169155164802975,%subMVIC
CTR,P52,REL,FM,M2,3.0057011308810795,%subMVIC
CTR,P52,REL,FM,M3,3.1709945672762725,%subMVIC
CTR,P55,REL,FM,M1,10.707149403615446,%subMVIC
CTR,P55,REL,FM,M2,9.551957896182413,%subMVIC
CTR,P55,REL,FM,M3,9.794489856934536,%subMVIC
CTR,P56,INI,FM,M1,3.015220940700225,%subMVIC
CTR,P56,INI,FM,M2,2.7835215052834834,%subMVIC
CTR,P56,INI,FM,M3,2.8136571349953203,%subMVIC
CTR,P56,REL,FM,M1,4.059038686414975,%subMVIC
CTR,P56,REL,FM,M2,4.075732218162112,%subMVIC
CTR,P56,REL,FM,M3,4.363797078508342,%subMVIC
CTR,P57,INI,FM,M1,13.7839932483481,%subMVIC
CTR,P57,INI,FM,M2,16.08596942377016,%subMVIC
CTR,P57,INI,FM,M3,16.70021144888615,%subMVIC
CTR,P57,REL,FM,M1,19.911302792958498,%subMVIC
CTR,P57,REL,FM,M2,19.58707930096239,%subMVIC
CTR,P57,REL,FM,M3,20.200257921065624,%subMVIC
CTR,P60,INI,FM,M1,14.816654802733348,%subMVIC
CTR,P60,INI,FM,M2,14.182376864428191,%subMVIC
CTR,P60,INI,FM,M3,14.5105230269629,%subMVIC
CTR,P60,REL,FM,M1,19.518446164226845,%subMVIC
CTR,P60,REL,FM,M2,20.21434586038281,%subMVIC
CTR,P60,REL,FM,M3,19.35636506257868,%subMVIC
CTR,P64,INI,FM,M1,9.91123640525876,%subMVIC
CTR,P64,INI,FM,M2,11.921429427847048,%subMVIC
CTR,P64,INI,FM,M3,10.01571924395483,%subMVIC
CTR,P64,REL,FM,M1,7.436822806036585,%subMVIC
CTR,P64,REL,FM,M2,8.685073799147514,%subMVIC
CTR,P64,REL,FM,M3,8.073761260880222,%subMVIC
CTR,P66,INI,FM,M1,3.662604815863291,%subMVIC
CTR,P66,INI,FM,M2,3.7146077892189893,%subMVIC
CTR,P66,INI,FM,M3,3.8135622007464,%subMVIC
CTR,P66,REL,FM,M1,4.109987746856404,%subMVIC
CTR,P66,REL,FM,M2,4.201272545310988,%subMVIC
CTR,P66,REL,FM,M3,4.155394526362106,%subMVIC
CTR,P67,INI,FM,M1,5.981575931547866,%subMVIC
CTR,P67,INI,FM,M2,7.607104614108924,%subMVIC
CTR,P67,INI,FM,M3,7.121521197604373,%subMVIC
CTR,P67,REL,FM,M1,4.379643561968763,%subMVIC
CTR,P67,REL,FM,M2,4.76153969409332,%subMVIC
CTR,P67,REL,FM,M3,6.497435495700808,%subMVIC
CTR,P68,INI,FM,M1,4.793875129823054,%subMVIC
CTR,P68,INI,FM,M2,4.290389488983396,%subMVIC
CTR,P68,INI,FM,M3,5.499508098136459,%subMVIC
CTR,P68,REL,FM,M1,3.211953362431926,%subMVIC
CTR,P68,REL,FM,M2,3.227708126524847,%subMVIC
CTR,P68,REL,FM,M3,2.8233277559252747,%subMVIC
