Group,Participant,Session,Operator,Measure,Value,Unit
PAT,P09,INI,FM,M1,10.666080803774904,%MAX
PAT,P09,INI,FM,M2,13.787450438297318,%MAX
PAT,P09,INI,FM,M3,16.22096792266785,%MAX
PAT,P09,REL,FM,M1,13.918859490451137,%MAX
PAT,P09,REL,FM,M2,15.336741491158062,%MAX
PAT,P09,REL,FM,M3,17.00344393951578,%MAX
PAT,P10,INI,FM,M1,6.7213863497582516,%MAX
PAT,P10,INI,FM,M2,6.643699445582268,%MAX
PAT,P10,INI,FM,M3,6.78128152814843,%MAX
PAT,P10,REL,FM,M1,9.029912180170536,%MAX
PAT,P10,REL,FM,M2,10.070607934648653,%MAX
PAT,P10,REL,FM,M3,8.7642787334244,%MAX
PAT,P11,INI,FM,M1,7.230144594740558,%MAX
PAT,P11,INI,FM,M2,7.668544656801582,%MAX
PAT,P11,INI,FM,M3,8.37686972453966,%MAX
PAT,P11,REL,FM,M1,8.870484524039066,%MAX
PAT,P11,REL,FM,M2,5.420074638912198,%MAX
PAT,P11,REL,FM,M3,5.966854163781939,%MAX
PAT,P12,INI,FM,M1,15.76657381964408,%MAX
PAT,P12,INI,FM,M2,11.579369060329304,%MAX
PAT,P12,INI,FM,M3,12.935193212306649,%MAX
PAT,P12,REL,FM,M1,14.24089888755607,%MAX
PAT,P12,REL,FM,M2,14.397390240360401,%MAX
PAT,P12,REL,FM,M3,12.090292358430027,%MAX
PAT,P14,INI,FM,M1,10.023352874650262,%MAX
PAT,P14,INI,FM,M2,10.61874968628973,%MAX
PAT,P14,INI,FM,M3,11.466306336000029,%MAX
PAT,P14,REL,FM,M1,9.365901474950032,%MAX
PAT,P14,REL,FM,M2,9.412418142519629,%MAX
PAT,P14,REL,FM,M3,8.898280011860205,%MAX
PAT,P17,INI,FM,M1,30.4510573729659,%MAX
PAT,P17,INI,FM,M2,27.88174292917181,%MAX
PAT,P17,INI,FM,M3,27.207175161112094,%MAX
PAT,P17,REL,FM,M1,21.232592969013805,%MAX
PAT,P17,REL,FM,M2,24.883776408176992,%MAX
PAT,P17,REL,FM,M3,26.96505624103596,%MAX
PAT,P24,INI,FM,M1,,%MAX
PAT,P24,INI,FM,M2,,%MAX
PAT,P24,INI,FM,M3,,%MAX
PAT,P24,REL,FM,M1,12.443673008399468,%MAX
PAT,P24,REL,FM,M2,10.390270594831673,%MAX
PAT,P24,REL,FM,M3,10.862295126423962,%MAX
PAT,P26,INI,FM,M1,,%MAX
PAT,P26,INI,FM,M2,,%MAX
PAT,P26,INI,FM,M3,,%MAX
PAT,P28,REL,FM,M1,15.242705359932781,%MAX
PAT,P28,REL,FM,M2,16.698005346414114,%MAX
PAT,P28,REL,FM,M3,22.142483419245284,%MAX
PAT,P29,INI,FM,M1,,%MAX
PAT,P29,INI,FM,M2,,%MAX
PAT,P29,INI,FM,M3,,%MAX
PAT,P30,INI,FM,M1,,%MAX
PAT,P30,INI,FM,M2,,%MAX
PAT,P30,INI,FM,M3,,%MAX
PAT,P30,REL,FM,M1,34.563443987461,%MAX
PAT,P30,REL,FM,M2,27.442100721014445,%MAX
PAT,P30,REL,FM,M3,25.497650412153977,%MAX
PAT,P32,INI,FM,M1,,%MAX
PAT,P32,INI,FM,M2,,%MAX
PAT,P32,INI,FM,M3,,%MAX
PAT,P32,REL,FM,M1,,%MAX
PAT,P32,REL,FM,M2,,%MAX
PAT,P32,REL,FM,M3,,%MAX
PAT,P33,INI,FM,M1,12.572100192369403,%MAX
PAT,P33,INI,FM,M2,11.563958090468503,%MAX
PAT,P33,INI,FM,M3,25.44980124855216,%MAX
PAT,P36,INI,FM,M1,,%MAX
PAT,P36,INI,FM,M2,,%MAX
PAT,P36,INI,FM,M3,,%MAX
PAT,P36,REL,FM,M1,,%MAX
PAT,P36,REL,FM,M2,,%MAX
PAT,P36,REL,FM,M3,,%MAX
PAT,P41,INI,FM,M1,10.926227069329919,%MAX
PAT,P41,INI,FM,M2,9.378432584864179,%MAX
PAT,P41,INI,FM,M3,25.540123678058393,%MAX
PAT,P41,REL,FM,M1,10.205399270028026,%MAX
PAT,P41,REL,FM,M2,9.699201790708884,%MAX
PAT,P41,REL,FM,M3,22.13330586004209,%MAX
PAT,P42,INI,FM,M1,3.381979337626822,%MAX
PAT,P42,INI,FM,M2,4.118472145661175,%MAX
PAT,P42,INI,FM,M3,4.492374692237205,%MAX
PAT,P42,REL,FM,M1,4.791453050366479,%MAX
PAT,P42,REL,FM,M2,4.027005920589337,%MAX
PAT,P42,REL,FM,M3,21.897009248279108,%MAX
PAT,P43,INI,FM,M1,,%MAX
PAT,P43,INI,FM,M2,,%MAX
PAT,P43,INI,FM,M3,,%MAX
PAT,P43,REL,FM,M1,12.000168883638429,%MAX
PAT,P43,REL,FM,M2,10.522592211725867,%MAX
PAT,P43,REL,FM,M3,20.987785575890744,%MAX
PAT,P45,REL,FM,M1,9.095102283995576,%MAX
PAT,P45,REL,FM,M2,8.71930563221631,%MAX
PAT,P45,REL,FM,M3,8.897548195497457,%MAX
PAT,P47,INI,FM,M1,13.958899140325363,%MAX
PAT,P47,INI,FM,M2,10.684591118919995,%MAX
PAT,P47,INI,FM,M3,16.05082845731817,%MAX
PAT,P47,REL,FM,M1,,%MAX
PAT,P47,REL,FM,M2,,%MAX
PAT,P47,REL,FM,M3,,%MAX
PAT,P50,REL,FM,M1,12.832271128528555,%MAX
PAT,P50,REL,FM,M2,9.520052903168878,%MAX
PAT,P50,REL,FM,M3,5.878207368828299,%MAX
PAT,P51,INI,FM,M1,20.346847477719205,%MAX
PAT,P51,INI,FM,M2,18.411370910904587,%MAX
PAT,P51,INI,FM,M3,18.81042692674097,%MAX
PAT,P58,REL,FM,M1,23.2276477388496,%MAX
PAT,P58,REL,FM,M2,11.651011497103246,%MAX
PAT,P58,REL,FM,M3,9.262250957117837,%MAX
PAT,P63,INI,FM,M1,16.185615101453728,%MAX
PAT,P63,INI,FM,M2,20.618299666567953,%MAX
PAT,P63,INI,FM,M3,24.30086209314977,%MAX
