Group,Participant,Session,Operator,Measure,Value,Unit
PAT,P09,INI,FM,M1,0.0081317237576193,V
PAT,P09,INI,FM,M2,0.00791174058674005,V
PAT,P09,INI,FM,M3,0.006621463305914617,V
PAT,P09,REL,FM,M1,0.010031942336592837,V
PAT,P09,REL,FM,M2,0.008468077916520326,V
PAT,P09,REL,FM,M3,0.009424834599518712,V
PAT,P10,INI,FM,M1,0.015594762807272879,V
PAT,P10,INI,FM,M2,0.01576275206124641,V
PAT,P10,INI,FM,M3,0.015685225565338287,V
PAT,P10,REL,FM,M1,0.015068026380788415,V
PAT,P10,REL,FM,M2,0.0163218898270884,V
PAT,P10,REL,FM,M3,0.015899740087624285,V
PAT,P11,INI,FM,M1,0.0055826491188488,V
PAT,P11,INI,FM,M2,0.005566837933237634,V
PAT,P11,INI,FM,M3,0.005425839612344317,V
PAT,P11,REL,FM,M1,0.006477095676234785,V
PAT,P11,REL,FM,M2,0.007529028689066134,V
PAT,P11,REL,FM,M3,0.0074979688832697506,V
PAT,P12,INI,FM,M1,0.00595921364059108,V
PAT,P12,INI,FM,M2,0.00753044841265374,V
PAT,P12,INI,FM,M3,0.00854427219833854,V
PAT,P12,REL,FM,M1,0.006079395860863567,V
PAT,P12,REL,FM,M2,0.0066892002265963495,V
PAT,P12,REL,FM,M3,0.006806987356419317,V
PAT,P14,INI,FM,M1,0.010805571280716386,V
PAT,P14,INI,FM,M2,0.012559241752960542,V
PAT,P14,INI,FM,M3,0.014168093646183629,V
PAT,P14,REL,FM,M1,,V
PAT,P14,REL,FM,M2,,V
PAT,P14,REL,FM,M3,,V
PAT,P17,INI,FM,M1,0.00900765274013822,V
PAT,P17,INI,FM,M2,0.009373918312662492,V
PAT,P17,INI,FM,M3,0.008459621498362671,V
PAT,P17,REL,FM,M1,0.010856509760466513,V
PAT,P17,REL,FM,M2,0.009755838356880512,V
PAT,P17,REL,FM,M3,0.008889517471357564,V
PAT,P24,INI,FM,M1,0.0199268473734482,V
PAT,P24,INI,FM,M2,0.018509578978170065,V
PAT,P24,INI,FM,M3,0.017601672429663526,V
PAT,P24,REL,FM,M1,,V
PAT,P24,REL,FM,M2,,V
PAT,P24,REL,FM,M3,,V
PAT,P26,INI,FM,M1,0.004677700952271828,V
PAT,P26,INI,FM,M2,0.0053386346684697284,V
PAT,P26,INI,FM,M3,0.012370493121625272,V
PAT,P26,REL,FM,M1,,V
PAT,P26,REL,FM,M2,,V
PAT,P26,REL,FM,M3,,V
PAT,P27,INI,FM,M1,0.0079799003918963,V
PAT,P27,INI,FM,M2,0.007160402300734622,V
PAT,P27,INI,FM,M3,0.0074653310980536776,V
PAT,P27,REL,FM,M1,0.007141593109982243,V
PAT,P27,REL,FM,M2,0.006508728460514615,V
PAT,P27,REL,FM,M3,0.006642074879424156,V
PAT,P28,INI,FM,M1,0.008154208809849,V
PAT,P28,INI,FM,M2,0.010195018445011075,V
PAT,P28,INI,FM,M3,0.009722327096283137,V
PAT,P28,REL,FM,M1,0.012546588280976744,V
PAT,P28,REL,FM,M2,0.013542795958268532,V
PAT,P28,REL,FM,M3,0.013961156364267377,V
PAT,P29,REL,FM,M1,0.015684736215658236,V
PAT,P29,REL,FM,M2,0.014402399364985566,V
PAT,P29,REL,FM,M3,0.015319361836899565,V
PAT,P30,INI,FM,M1,0.008783418850102432,V
PAT,P30,INI,FM,M2,0.009321701085796478,V
PAT,P30,INI,FM,M3,0.009580243424745312,V
PAT,P30,REL,FM,M1,0.012180822660578156,V
PAT,P30,REL,FM,M2,0.01296955427335339,V
PAT,P30,REL,FM,M3,0.013352673825704878,V
PAT,P32,INI,FM,M1,0.008076407691946728,V
PAT,P32,INI,FM,M2,0.007369500311848214,V
PAT,P32,INI,FM,M3,0.006629860340089557,V
PAT,P32,REL,FM,M1,0.009501787575260563,V
PAT,P32,REL,FM,M2,0.010173316098788625,V
PAT,P32,REL,FM,M3,0.009400881918868051,V
PAT,P33,INI,FM,M1,0.006026005853229117,V
PAT,P33,INI,FM,M2,0.005878642556829784,V
PAT,P33,INI,FM,M3,0.006484266503971982,V
PAT,P33,REL,FM,M1,0.0038580458451957502,V
PAT,P33,REL,FM,M2,0.004448820823145438,V
PAT,P33,REL,FM,M3,0.004623586359907551,V
PAT,P34,INI,FM,M1,0.004605942237089562,V
PAT,P34,INI,FM,M2,0.004319574488411038,V
PAT,P34,INI,FM,M3,0.005006478101767537,V
PAT,P34,REL,FM,M1,0.0041871115540799714,V
PAT,P34,REL,FM,M2,0.0042448376276814715,V
PAT,P34,REL,FM,M3,0.0037878272502276,V
PAT,P36,INI,FM,M1,0.011507380178432088,V
PAT,P36,INI,FM,M2,0.01206962207007975,V
PAT,P36,INI,FM,M3,0.011781844233961437,V
PAT,P36,REL,FM,M1,0.015295526694315833,V
PAT,P36,REL,FM,M2,0.017521857213061633,V
PAT,P36,REL,FM,M3,0.017082504358191017,V
PAT,P41,INI,FM,M1,0.007660190175518301,V
PAT,P41,INI,FM,M2,0.00923176989340015,V
PAT,P41,INI,FM,M3,0.009623021042501517,V
PAT,P41,REL,FM,M1,0.010295605749831628,V
PAT,P41,REL,FM,M2,0.012817528533732274,V
PAT,P41,REL,FM,M3,0.012007397512957329,V
PAT,P42,INI,FM,M1,,V
PAT,P42,INI,FM,M2,,V
PAT,P42,INI,FM,M3,,V
PAT,P42,REL,FM,M1,0.013440669038593284,V
PAT,P42,REL,FM,M2,0.014610982608840568,V
PAT,P42,REL,FM,M3,0.0148727536380824,V
PAT,P43,INI,FM,M1,0.008770831817727975,V
PAT,P43,INI,FM,M2,0.010228833881856837,V
PAT,P43,INI,FM,M3,0.01187013482166055,V
PAT,P43,REL,FM,M1,0.0170842798151386,V
PAT,P43,REL,FM,M2,0.015825428341022085,V
PAT,P43,REL,FM,M3,0.015476514686372645,V
PAT,P45,INI,FM,M1,0.005563080416357563,V
PAT,P45,INI,FM,M2,0.0044909868215618366,V
PAT,P45,INI,FM,M3,0.004465885144413588,V
PAT,P45,REL,FM,M1,0.00531263004275552,V
PAT,P45,REL,FM,M2,0.00501444315711008,V
PAT,P45,REL,FM,M3,0.004504465421211121,V
PAT,P47,INI,FM,M1,0.00398861849688054,V
PAT,P47,INI,FM,M2,0.00431101292116272,V
PAT,P47,INI,FM,M3,0.00520801443595948,V
PAT,P47,REL,FM,M1,0.0073759603903209,V
PAT,P47,REL,FM,M2,0.007852551222197237,V
PAT,P47,REL,FM,M3,0.006474380583524513,V
PAT,P50,REL,FM,M1,0.02024462166027792,V
PAT,P50,REL,FM,M2,0.017610690220853358,V
PAT,P50,REL,FM,M3,0.01685010654008358,V
PAT,P51,INI,FM,M1,0.003494876758106716,V
PAT,P51,INI,FM,M2,0.0034912322721227,V
PAT,P51,INI,FM,M3,0.0030617061908021666,V
PAT,P51,REL,FM,M1,0.005640118025647684,V
PAT,P51,REL,FM,M2,0.008159029503028934,V
PAT,P51,REL,FM,M3,0.006319902299914249,V
PAT,P53,INI,FM,M1,0.00573525470337992,V
PAT,P53,INI,FM,M2,0.007398893170697959,V
PAT,P53,INI,FM,M3,0.008076026956287518,V
PAT,P53,REL,FM,M1,0.0088726041534561,V
PAT,P53,REL,FM,M2,0.010475280298328836,V
PAT,P53,REL,FM,M3,0.010861170381341101,V
PAT,P54,INI,FM,M1,0.0052936191331919595,V
PAT,P54,INI,FM,M2,0.00743496453754674,V
PAT,P54,INI,FM,M3,0.010194306701374122,V
PAT,P54,REL,FM,M1,0.007913729823535437,V
PAT,P54,REL,FM,M2,0.00845483635982645,V
PAT,P54,REL,FM,M3,0.008820468444673438,V
PAT,P58,INI,FM,M1,0.004505547030548684,V
PAT,P58,INI,FM,M2,0.0064282204254207664,V
PAT,P58,INI,FM,M3,0.008331332180023217,V
PAT,P58,REL,FM,M1,,V
PAT,P58,REL,FM,M2,,V
PAT,P58,REL,FM,M3,,V
PAT,P61,INI,FM,M1,0.01116992616559805,V
PAT,P61,INI,FM,M2,0.012111801727569513,V
PAT,P61,INI,FM,M3,0.01260792895856035,V
PAT,P61,REL,FM,M1,,V
PAT,P61,REL,FM,M2,,V
PAT,P61,REL,FM,M3,,V
PAT,P62,INI,FM,M1,,V
PAT,P62,INI,FM,M2,,V
PAT,P62,INI,FM,M3,,V
PAT,P62,REL,FM,M1,0.0114446816219751,V
PAT,P62,REL,FM,M2,0.010412612151815343,V
PAT,P62,REL,FM,M3,0.011932028595630887,V
PAT,P63,REL,FM,M1,0.01019629366306798,V
PAT,P63,REL,FM,M2,0.011322354168166859,V
PAT,P63,REL,FM,M3,0.013179024575158039,V
PAT,P65,INI,FM,M1,0.017011845948053123,V
PAT,P65,INI,FM,M2,0.0198193477938307,V
PAT,P65,INI,FM,M3,0.018748917318258274,V
PAT,P65,REL,FM,M1,0.012729191951525366,V
PAT,P65,REL,FM,M2,0.013259120392072034,V
PAT,P65,REL,FM,M3,0.012547993504371633,V
