Group,Participant,Session,Operator,Measure,Value,Unit
PAT,P09,INI,FM,M1,19.779278842648328,%MAX
PAT,P09,INI,FM,M2,25.5979734062047,%MAX
PAT,P09,INI,FM,M3,26.043649291660426,%MAX
PAT,P09,REL,FM,M1,23.11847897108298,%MAX
PAT,P09,REL,FM,M2,28.86190870659643,%MAX
PAT,P09,REL,FM,M3,24.97484373912736,%MAX
PAT,P10,INI,FM,M1,8.499277280812375,%MAX
PAT,P10,INI,FM,M2,7.534779010713955,%MAX
PAT,P10,INI,FM,M3,7.440986665693408,%MAX
PAT,P10,REL,FM,M1,20.83100163554886,%MAX
PAT,P10,REL,FM,M2,19.338664889330694,%MAX
PAT,P10,REL,FM,M3,19.44247376978399,%MAX
PAT,P11,INI,FM,M1,27.24609697601304,%MAX
PAT,P11,INI,FM,M2,28.524202441537287,%MAX
PAT,P11,INI,FM,M3,25.372437034524314,%MAX
PAT,P11,REL,FM,M1,19.036962446490556,%MAX
PAT,P11,REL,FM,M2,21.995698762178932,%MAX
PAT,P11,REL,FM,M3,18.257226785203077,%MAX
PAT,P12,INI,FM,M1,39.719203767500666,%MAX
PAT,P12,INI,FM,M2,39.15760348669234,%MAX
PAT,P12,INI,FM,M3,36.70583589631212,%MAX
PAT,P12,REL,FM,M1,39.08387468629022,%MAX
PAT,P12,REL,FM,M2,36.51583461741132,%MAX
PAT,P12,REL,FM,M3,42.03176360247778,%MAX
PAT,P14,INI,FM,M1,48.150448418674266,%MAX
PAT,P14,INI,FM,M2,44.380000725394716,%MAX
PAT,P14,INI,FM,M3,42.95506774625248,%MAX
PAT,P14,REL,FM,M1,7.497415023050375,%MAX
PAT,P14,REL,FM,M2,6.3437641066262955,%MAX
PAT,P14,REL,FM,M3,5.5406431972896355,%MAX
PAT,P17,INI,FM,M1,,%MAX
PAT,P17,INI,FM,M2,,%MAX
PAT,P17,INI,FM,M3,,%MAX
PAT,P17,REL,FM,M1,27.97945080722376,%MAX
PAT,P17,REL,FM,M2,31.460408312347386,%MAX
PAT,P17,REL,FM,M3,35.869447081248104,%MAX
PAT,P24,INI,FM,M1,17.5715154049386,%MAX
PAT,P24,INI,FM,M2,17.949423576429176,%MAX
PAT,P24,INI,FM,M3,34.47326328500152,%MAX
PAT,P24,REL,FM,M1,17.482475119772094,%MAX
PAT,P24,REL,FM,M2,21.89087201169456,%MAX
PAT,P24,REL,FM,M3,23.390611528066977,%MAX
PAT,P26,INI,FM,M1,19.671533308924836,%MAX
PAT,P26,INI,FM,M2,19.435625153260897,%MAX
PAT,P26,INI,FM,M3,41.15566320657779,%MAX
PAT,P26,REL,FM,M1,18.614080127124616,%MAX
PAT,P26,REL,FM,M2,15.899458582025144,%MAX
PAT,P26,REL,FM,M3,28.98941607671525,%MAX
PAT,P27,INI,FM,M1,33.78851740847011,%MAX
PAT,P27,INI,FM,M2,30.55401965050823,%MAX
PAT,P27,INI,FM,M3,36.63100785525967,%MAX
PAT,P28,INI,FM,M1,15.678417816474473,%MAX
PAT,P28,INI,FM,M2,22.639853708564743,%MAX
PAT,P28,INI,FM,M3,34.356199646791886,%MAX
PAT,P28,REL,FM,M1,8.383854576006748,%MAX
PAT,P28,REL,FM,M2,6.321463695903319,%MAX
PAT,P28,REL,FM,M3,35.65769552322309,%MAX
PAT,P29,INI,FM,M1,27.319953892281013,%MAX
PAT,P29,INI,FM,M2,29.245493308313346,%MAX
PAT,P29,INI,FM,M3,34.44292254343834,%MAX
PAT,P29,REL,FM,M1,21.759052152150975,%MAX
PAT,P29,REL,FM,M2,18.60456809399949,%MAX
PAT,P29,REL,FM,M3,30.151424470397767,%MAX
PAT,P30,INI,FM,M1,30.113144015422147,%MAX
PAT,P30,INI,FM,M2,21.84680375398171,%MAX
PAT,P30,INI,FM,M3,35.75254769830186,%MAX
PAT,P30,REL,FM,M1,28.670892761562488,%MAX
PAT,P30,REL,FM,M2,27.77487632164939,%MAX
PAT,P30,REL,FM,M3,29.858880727389835,%MAX
PAT,P32,INI,FM,M1,18.018594466010292,%MAX
PAT,P32,INI,FM,M2,22.0514505544245,%MAX
PAT,P32,INI,FM,M3,39.89377079023676,%MAX
PAT,P32,REL,FM,M1,,%MAX
PAT,P32,REL,FM,M2,,%MAX
PAT,P32,REL,FM,M3,,%MAX
PAT,P33,INI,FM,M1,11.08479530026486,%MAX
PAT,P33,INI,FM,M2,9.026711827171427,%MAX
PAT,P33,INI,FM,M3,27.85930243717944,%MAX
PAT,P33,REL,FM,M1,,%MAX
PAT,P33,REL,FM,M2,,%MAX
PAT,P33,REL,FM,M3,,%MAX
PAT,P34,INI,FM,M1,,%MAX
PAT,P34,INI,FM,M2,,%MAX
PAT,P34,INI,FM,M3,,%MAX
PAT,P34,REL,FM,M1,31.032192638161273,%MAX
PAT,P34,REL,FM,M2,36.760850073420045,%MAX
PAT,P34,REL,FM,M3,37.01493252907873,%MAX
PAT,P36,INI,FM,M1,12.005988247290968,%MAX
PAT,P36,INI,FM,M2,20.152687289461326,%MAX
PAT,P36,INI,FM,M3,30.488227422857207,%MAX
PAT,P36,REL,FM,M1,10.131350373871308,%MAX
PAT,P36,REL,FM,M2,10.10132600774443,%MAX
PAT,P36,REL,FM,M3,21.370083683066028,%MAX
PAT,P41,INI,FM,M1,16.568550204701236,%MAX
PAT,P41,INI,FM,M2,15.826439432455295,%MAX
PAT,P41,INI,FM,M3,33.996453257484646,%MAX
PAT,P42,INI,FM,M1,24.17702552482902,%MAX
PAT,P42,INI,FM,M2,18.18075098047591,%MAX
PAT,P42,INI,FM,M3,20.31787626355779,%MAX
PAT,P42,REL,FM,M1,12.05071777269926,%MAX
PAT,P42,REL,FM,M2,16.110517104581586,%MAX
PAT,P42,REL,FM,M3,31.297427121614003,%MAX
PAT,P43,INI,FM,M1,12.852347479446259,%MAX
PAT,P43,INI,FM,M2,18.287872247152357,%MAX
PAT,P43,INI,FM,M3,29.145523679645684,%MAX
PAT,P43,REL,FM,M1,14.7723394925372,%MAX
PAT,P43,REL,FM,M2,10.761485223311892,%MAX
PAT,P43,REL,FM,M3,19.58574685103309,%MAX
PAT,P45,INI,FM,M1,,%MAX
PAT,P45,INI,FM,M2,,%MAX
PAT,P45,INI,FM,M3,,%MAX
PAT,P45,REL,FM,M1,16.891415228235466,%MAX
PAT,P45,REL,FM,M2,18.04184572083423,%MAX
PAT,P45,REL,FM,M3,22.599288842318558,%MAX
PAT,P47,INI,FM,M1,19.12385703889546,%MAX
PAT,P47,INI,FM,M2,13.908881672594827,%MAX
PAT,P47,INI,FM,M3,16.37835956012263,%MAX
PAT,P47,REL,FM,M1,16.563407756497483,%MAX
PAT,P47,REL,FM,M2,18.251522935130403,%MAX
PAT,P47,REL,FM,M3,23.096180584619,%MAX
PAT,P50,INI,FM,M1,,%MAX
PAT,P50,INI,FM,M2,,%MAX
PAT,P50,INI,FM,M3,,%MAX
PAT,P50,REL,FM,M1,22.74799719197153,%MAX
PAT,P50,REL,FM,M2,22.193517479675542,%MAX
PAT,P50,REL,FM,M3,20.345077513370455,%MAX
PAT,P51,INI,FM,M1,21.664951288694308,%MAX
PAT,P51,INI,FM,M2,19.98834841903033,%MAX
PAT,P51,INI,FM,M3,28.226608830294296,%MAX
PAT,P51,REL,FM,M1,,%MAX
PAT,P51,REL,FM,M2,,%MAX
PAT,P51,REL,FM,M3,,%MAX
PAT,P53,INI,FM,M1,,%MAX
PAT,P53,INI,FM,M2,,%MAX
PAT,P53,INI,FM,M3,,%MAX
PAT,P53,REL,FM,M1,27.94494756340988,%MAX
PAT,P53,REL,FM,M2,25.98196190462581,%MAX
PAT,P53,REL,FM,M3,40.06106724777852,%MAX
PAT,P54,INI,FM,M1,20.172201174352768,%MAX
PAT,P54,INI,FM,M2,12.881575389364807,%MAX
PAT,P54,INI,FM,M3,12.101276373633008,%MAX
PAT,P54,REL,FM,M1,19.515980199927245,%MAX
PAT,P54,REL,FM,M2,30.901179926708632,%MAX
PAT,P54,REL,FM,M3,37.478906618384684,%MAX
PAT,P58,REL,FM,M1,30.794532953580216,%MAX
PAT,P58,REL,FM,M2,31.933704246891686,%MAX
PAT,P58,REL,FM,M3,33.39358024571369,%MAX
PAT,P61,INI,FM,M1,,%MAX
PAT,P61,INI,FM,M2,,%MAX
PAT,P61,INI,FM,M3,,%MAX
PAT,P61,REL,FM,M1,,%MAX
PAT,P61,REL,FM,M2,,%MAX
PAT,P61,REL,FM,M3,,%MAX
PAT,P62,INI,FM,M1,22.94099540625243,%MAX
PAT,P62,INI,FM,M2,20.591968000456767,%MAX
PAT,P62,INI,FM,M3,23.145611984612344,%MAX
PAT,P62,REL,FM,M1,,%MAX
PAT,P62,REL,FM,M2,,%MAX
PAT,P62,REL,FM,M3,,%MAX
PAT,P63,INI,FM,M1,27.76247502350555,%MAX
PAT,P63,INI,FM,M2,30.07057074131188,%MAX
PAT,P63,INI,FM,M3,31.973028840499666,%MAX
PAT,P63,REL,FM,M1,24.443435765985775,%MAX
PAT,P63,REL,FM,M2,21.85213325317178,%MAX
PAT,P63,REL,FM,M3,27.684104297142333,%MAX
PAT,P65,INI,FM,M1,,%MAX
PAT,P65,INI,FM,M2,,%MAX
PAT,P65,INI,FM,M3,,%MAX
