Group,Participant,Session,Operator,Measure,Value,Unit
PAT,P10,INI,FM,M1,0.668,s
PAT,P10,INI,FM,M2,0.299,s
PAT,P10,INI,FM,M3,0.556,s
PAT,P10,REL,FM,M1,0.7896666666666666,s
PAT,P10,REL,FM,M2,0.7520000000000001,s
PAT,P10,REL,FM,M3,0.7986666666666666,s
PAT,P11,INI,FM,M1,0.221,s
PAT,P11,INI,FM,M2,0.281,s
PAT,P11,INI,FM,M3,0.201,s
PAT,P11,REL,FM,M1,0.5425,s
PAT,P11,REL,FM,M2,0.841,s
PAT,P11,REL,FM,M3,2.428,s
PAT,P12,INI,FM,M1,0.83,s
PAT,P12,INI,FM,M2,4.102,s
PAT,P12,INI,FM,M3,2.36,s
PAT,P12,REL,FM,M1,,s
PAT,P12,REL,FM,M2,,s
PAT,P12,REL,FM,M3,,s
PAT,P14,INI,FM,M1,0.463,s
PAT,P14,INI,FM,M2,,s
PAT,P14,INI,FM,M3,,s
PAT,P14,REL,FM,M1,,s
PAT,P14,REL,FM,M2,,s
PAT,P14,REL,FM,M3,,s
PAT,P17,INI,FM,M1,0.6779999999999999,s
PAT,P17,INI,FM,M2,0.632,s
PAT,P17,INI,FM,M3,2.511,s
PAT,P17,REL,FM,M1,1.061,s
PAT,P17,REL,FM,M2,3.205,s
PAT,P17,REL,FM,M3,0.704,s
PAT,P24,INI,FM,M1,0.397,s
PAT,P24,INI,FM,M2,,s
PAT,P24,INI,FM,M3,,s
PAT,P24,REL,FM,M1,4.759,s
PAT,P24,REL,FM,M2,0.577,s
PAT,P24,REL,FM,M3,12.025,s
PAT,P26,REL,FM,M1,1.542,s
PAT,P26,REL,FM,M2,1.289,s
PAT,P26,REL,FM,M3,1.073,s
PAT,P27,INI,FM,M1,0.68,s
PAT,P27,INI,FM,M2,0.861,s
PAT,P27,INI,FM,M3,0.399,s
PAT,P27,REL,FM,M1,0.629,s
PAT,P27,REL,FM,M2,0.7423333333333333,s
PAT,P27,REL,FM,M3,0.7949999999999999,s
PAT,P28,INI,FM,M1,0.39,s
PAT,P28,INI,FM,M2,0.445,s
PAT,P28,INI,FM,M3,0.392,s
PAT,P28,REL,FM,M1,0.218,s
PAT,P28,REL,FM,M2,,s
PAT,P28,REL,FM,M3,,s
PAT,P29,INI,FM,M1,0.96825,s
PAT,P29,INI,FM,M2,0.63075,s
PAT,P29,INI,FM,M3,0.86975,s
PAT,P29,REL,FM,M1,0.4673333333333333,s
PAT,P29,REL,FM,M2,0.61,s
PAT,P29,REL,FM,M3,0.4583333333333333,s
PAT,P30,INI,FM,M1,0.33999999999999997,s
PAT,P30,INI,FM,M2,0.6245,s
PAT,P30,INI,FM,M3,0.6585,s
PAT,P30,REL,FM,M1,2.336,s
PAT,P30,REL,FM,M2,10.857,s
PAT,P30,REL,FM,M3,,s
PAT,P32,INI,FM,M1,0.268,s
PAT,P32,INI,FM,M2,0.256,s
PAT,P32,INI,FM,M3,,s
PAT,P32,REL,FM,M1,,s
PAT,P32,REL,FM,M2,,s
PAT,P32,REL,FM,M3,,s
PAT,P33,INI,FM,M1,0.27,s
PAT,P33,INI,FM,M2,23.073,s
PAT,P33,INI,FM,M3,,s
PAT,P33,REL,FM,M1,0.3205,s
PAT,P33,REL,FM,M2,0.3335,s
PAT,P33,REL,FM,M3,0.5425,s
PAT,P34,INI,FM,M1,2.408,s
PAT,P34,INI,FM,M2,2.1445,s
PAT,P34,INI,FM,M3,1.157,s
PAT,P34,REL,FM,M1,0.769,s
PAT,P34,REL,FM,M2,0.7196666666666666,s
PAT,P34,REL,FM,M3,0.527,s
PAT,P36,INI,FM,M1,0.7573333333333334,s
PAT,P36,INI,FM,M2,0.9423333333333334,s
PAT,P36,INI,FM,M3,0.7959999999999999,s
PAT,P36,REL,FM,M1,1.0996666666666668,s
PAT,P36,REL,FM,M2,1.112,s
PAT,P36,REL,FM,M3,1.0733333333333335,s
PAT,P41,INI,FM,M1,0.6286666666666667,s
PAT,P41,INI,FM,M2,0.9049999999999999,s
PAT,P41,INI,FM,M3,0.7159999999999999,s
PAT,P41,REL,FM,M1,0.2455,s
PAT,P41,REL,FM,M2,0.7070000000000001,s
PAT,P41,REL,FM,M3,0.5569999999999999,s
PAT,P42,INI,FM,M1,1.3476666666666668,s
PAT,P42,INI,FM,M2,1.0733333333333335,s
PAT,P42,INI,FM,M3,2.3089999999999997,s
PAT,P42,REL,FM,M1,,s
PAT,P42,REL,FM,M2,,s
PAT,P42,REL,FM,M3,,s
PAT,P43,REL,FM,M1,0.9123333333333333,s
PAT,P43,REL,FM,M2,0.9740000000000001,s
PAT,P43,REL,FM,M3,1.202,s
PAT,P45,INI,FM,M1,0.6763333333333333,s
PAT,P45,INI,FM,M2,0.5083333333333333,s
PAT,P45,INI,FM,M3,0.5306666666666667,s
PAT,P47,INI,FM,M1,0.3635,s
PAT,P47,INI,FM,M2,2.6105,s
PAT,P47,INI,FM,M3,13.440999999999999,s
PAT,P47,REL,FM,M1,,s
PAT,P47,REL,FM,M2,,s
PAT,P47,REL,FM,M3,,s
PAT,P50,INI,FM,M1,2.895,s
PAT,P50,INI,FM,M2,0.8850000000000001,s
PAT,P50,INI,FM,M3,1.0466666666666666,s
PAT,P50,REL,FM,M1,1.1293333333333333,s
PAT,P50,REL,FM,M2,1.1026666666666667,s
PAT,P50,REL,FM,M3,0.81,s
PAT,P51,INI,FM,M1,0.34850000000000003,s
PAT,P51,INI,FM,M2,0.4395,s
PAT,P51,INI,FM,M3,2.2075,s
PAT,P51,REL,FM,M1,0.611,s
PAT,P51,REL,FM,M2,0.2905,s
PAT,P51,REL,FM,M3,0.3105,s
PAT,P53,INI,FM,M1,,s
PAT,P53,INI,FM,M2,,s
PAT,P53,INI,FM,M3,,s
PAT,P53,REL,FM,M1,0.312,s
PAT,P53,REL,FM,M2,0.263,s
PAT,P53,REL,FM,M3,0.413,s
PAT,P54,INI,FM,M1,0.858,s
PAT,P54,INI,FM,M2,0.737,s
PAT,P54,INI,FM,M3,,s
PAT,P61,INI,FM,M1,1.84,s
PAT,P61,INI,FM,M2,5.686,s
PAT,P61,INI,FM,M3,,s
PAT,P62,INI,FM,M1,0.516,s
PAT,P62,INI,FM,M2,0.6253333333333333,s
PAT,P62,INI,FM,M3,0.5249999999999999,s
PAT,P62,REL,FM,M1,1.0825,s
PAT,P62,REL,FM,M2,1.9545,s
PAT,P62,REL,FM,M3,5.698,s
PAT,P63,REL,FM,M1,3.3325,s
PAT,P63,REL,FM,M2,3.473,s
PAT,P63,REL,FM,M3,1.315,s
PAT,P65,INI,FM,M1,0.8163333333333332,s
PAT,P65,INI,FM,M2,0.5256666666666666,s
PAT,P65,INI,FM,M3,0.44766666666666666,s
PAT,P65,REL,FM,M1,0.5113333333333333,s
PAT,P65,REL,FM,M2,0.6309999999999999,s
PAT,P65,REL,FM,M3,0.5283333333333333,s
