Group,Participant,Session,Operator,Measure,Value,Unit
PAT,P09,INI,FM,M1,0.015705191677866385,V
PAT,P09,INI,FM,M2,0.015586801892540816,V
PAT,P09,INI,FM,M3,0.012134659600817284,V
PAT,P09,REL,FM,M1,0.0195678327408274,V
PAT,P09,REL,FM,M2,0.016232860743163935,V
PAT,P09,REL,FM,M3,0.0176993728276831,V
PAT,P10,INI,FM,M1,0.02880351471143855,V
PAT,P10,INI,FM,M2,0.03193953650871482,V
PAT,P10,INI,FM,M3,0.031802016219860986,V
PAT,P10,REL,FM,M1,0.02829004948659019,V
PAT,P10,REL,FM,M2,0.03055022028345972,V
PAT,P10,REL,FM,M3,0.028566092938674927,V
PAT,P11,INI,FM,M1,0.013077160740505534,V
PAT,P11,INI,FM,M2,0.014093611544947449,V
PAT,P11,INI,FM,M3,0.011488806311009467,V
PAT,P11,REL,FM,M1,0.01709928785830475,V
PAT,P11,REL,FM,M2,0.020316435119384735,V
PAT,P11,REL,FM,M3,0.019875247695083635,V
PAT,P12,INI,FM,M1,0.01274829540650036,V
PAT,P12,INI,FM,M2,0.01732059773818114,V
PAT,P12,INI,FM,M3,0.01857289136923908,V
PAT,P12,REL,FM,M1,0.013207543880689865,V
PAT,P12,REL,FM,M2,0.014350078007612782,V
PAT,P12,REL,FM,M3,0.015493976469840284,V
PAT,P14,INI,FM,M1,0.0224162839795867,V
PAT,P14,INI,FM,M2,0.02704396352546873,V
PAT,P14,INI,FM,M3,0.03013102969501353,V
PAT,P14,REL,FM,M1,,V
PAT,P14,REL,FM,M2,,V
PAT,P14,REL,FM,M3,,V
PAT,P17,INI,FM,M1,0.00696475738381062,V
PAT,P17,INI,FM,M2,0.008934539671674612,V
PAT,P17,INI,FM,M3,0.00898973373787752,V
PAT,P17,REL,FM,M1,0.016384359681406963,V
PAT,P17,REL,FM,M2,0.009981029390969114,V
PAT,P17,REL,FM,M3,0.007325951234832137,V
PAT,P24,INI,FM,M1,0.039882422945424524,V
PAT,P24,INI,FM,M2,0.03624751516310497,V
PAT,P24,INI,FM,M3,0.01638339073683249,V
PAT,P24,REL,FM,M1,,V
PAT,P24,REL,FM,M2,,V
PAT,P24,REL,FM,M3,,V
PAT,P26,INI,FM,M1,0.005990299369233885,V
PAT,P26,INI,FM,M2,0.007194302610146386,V
PAT,P26,INI,FM,M3,0.005444737445032529,V
PAT,P26,REL,FM,M1,,V
PAT,P26,REL,FM,M2,,V
PAT,P26,REL,FM,M3,,V
PAT,P27,INI,FM,M1,0.013753082634898335,V
PAT,P27,INI,FM,M2,0.01169953958178189,V
PAT,P27,INI,FM,M3,0.006123629978426911,V
PAT,P27,REL,FM,M1,0.011609684652608369,V
PAT,P27,REL,FM,M2,0.010223799063853472,V
PAT,P27,REL,FM,M3,0.007428754996604943,V
PAT,P28,INI,FM,M1,0.01747031565381265,V
PAT,P28,INI,FM,M2,0.021045938496631087,V
PAT,P28,INI,FM,M3,0.009092478768558938,V
PAT,P28,REL,FM,M1,0.028481773446913067,V
PAT,P28,REL,FM,M2,0.028541545093064613,V
PAT,P28,REL,FM,M3,0.01202220980455371,V
PAT,P29,INI,FM,M1,0.02947781212833084,V
PAT,P29,INI,FM,M2,0.03407475014710994,V
PAT,P29,INI,FM,M3,0.02275470656593006,V
PAT,P29,REL,FM,M1,0.029787788574756516,V
PAT,P29,REL,FM,M2,0.0289536080167327,V
PAT,P29,REL,FM,M3,0.018874571979810285,V
PAT,P30,INI,FM,M1,0.014341526577116166,V
PAT,P30,INI,FM,M2,0.015700174879287654,V
PAT,P30,INI,FM,M3,0.005744668911792467,V
PAT,P30,REL,FM,M1,0.023271185283837856,V
PAT,P30,REL,FM,M2,0.018428861821511714,V
PAT,P30,REL,FM,M3,0.019281661246102214,V
PAT,P32,INI,FM,M1,0.017421936219013643,V
PAT,P32,INI,FM,M2,0.0157521791220498,V
PAT,P32,INI,FM,M3,0.009402688217576043,V
PAT,P32,REL,FM,M1,0.022726554000666435,V
PAT,P32,REL,FM,M2,0.01810069881907681,V
PAT,P32,REL,FM,M3,0.009931496419892976,V
PAT,P33,INI,FM,M1,0.012757356952501915,V
PAT,P33,INI,FM,M2,0.012019440904202016,V
PAT,P33,INI,FM,M3,0.006675056271791851,V
PAT,P33,REL,FM,M1,0.0074045194072406,V
PAT,P33,REL,FM,M2,0.006680616108531075,V
PAT,P33,REL,FM,M3,0.004204424917804525,V
PAT,P34,INI,FM,M1,0.006690552401482,V
PAT,P34,INI,FM,M2,0.006212140459502838,V
PAT,P34,INI,FM,M3,0.005566415912457675,V
PAT,P34,REL,FM,M1,0.00789009738973613,V
PAT,P34,REL,FM,M2,0.007724245849434786,V
PAT,P34,REL,FM,M3,0.00408680713562347,V
PAT,P36,INI,FM,M1,0.02539246822395535,V
PAT,P36,INI,FM,M2,0.023496654070957985,V
PAT,P36,INI,FM,M3,0.009805279820841926,V
PAT,P41,INI,FM,M1,0.014678610418520999,V
PAT,P41,INI,FM,M2,0.01751628430953795,V
PAT,P41,INI,FM,M3,0.010947545522297401,V
PAT,P41,REL,FM,M1,0.02079067809904834,V
PAT,P41,REL,FM,M2,0.026732226934528813,V
PAT,P41,REL,FM,M3,0.016361216210847584,V
PAT,P42,REL,FM,M1,0.03522510557381137,V
PAT,P42,REL,FM,M2,0.0364062286716934,V
PAT,P42,REL,FM,M3,0.02080181479760518,V
PAT,P43,INI,FM,M1,0.02251198711807216,V
PAT,P43,INI,FM,M2,0.022486101462143526,V
PAT,P43,INI,FM,M3,0.013497815616412962,V
PAT,P43,REL,FM,M1,0.0386985308046621,V
PAT,P43,REL,FM,M2,0.03450749066316981,V
PAT,P43,REL,FM,M3,0.020482117318176615,V
PAT,P45,INI,FM,M1,0.013226950592259465,V
PAT,P45,INI,FM,M2,0.008633158893939438,V
PAT,P45,INI,FM,M3,0.004547251423082125,V
PAT,P45,REL,FM,M1,0.01319343004243206,V
PAT,P45,REL,FM,M2,0.01203349295154136,V
PAT,P45,REL,FM,M3,0.01087730845025984,V
PAT,P47,INI,FM,M1,0.0078441922083547,V
PAT,P47,INI,FM,M2,0.00927580765833858,V
PAT,P47,INI,FM,M3,0.010458949560351701,V
PAT,P47,REL,FM,M1,0.01656140658100895,V
PAT,P47,REL,FM,M2,0.016081130255860387,V
PAT,P47,REL,FM,M3,0.006986341248059176,V
PAT,P50,REL,FM,M1,0.03473246806326994,V
PAT,P50,REL,FM,M2,0.04100549115327405,V
PAT,P50,REL,FM,M3,0.0377686515689208,V
PAT,P51,INI,FM,M1,0.005859503892040267,V
PAT,P51,INI,FM,M2,0.005936748152379733,V
PAT,P51,INI,FM,M3,0.005201387136519083,V
PAT,P51,REL,FM,M1,0.005715529481382917,V
PAT,P51,REL,FM,M2,0.008809267463647298,V
PAT,P51,REL,FM,M3,0.006961340159528967,V
PAT,P53,INI,FM,M1,0.0081213071987694,V
PAT,P53,INI,FM,M2,0.011657253230495542,V
PAT,P53,INI,FM,M3,0.012980255876128879,V
PAT,P53,REL,FM,M1,0.016180145092991833,V
PAT,P53,REL,FM,M2,0.019391130940572467,V
PAT,P53,REL,FM,M3,0.011856343431575817,V
PAT,P54,INI,FM,M1,0.00722610374453832,V
PAT,P54,INI,FM,M2,0.011884560898904257,V
PAT,P54,INI,FM,M3,0.00322186292325944,V
PAT,P54,REL,FM,M1,0.013133203389987413,V
PAT,P54,REL,FM,M2,0.01088846870661755,V
PAT,P54,REL,FM,M3,0.008731905281026738,V
PAT,P58,INI,FM,M1,0.004464956857090167,V
PAT,P58,INI,FM,M2,0.006977891003880567,V
PAT,P58,INI,FM,M3,0.009924428734533251,V
PAT,P58,REL,FM,M1,,V
PAT,P58,REL,FM,M2,,V
PAT,P58,REL,FM,M3,,V
PAT,P61,INI,FM,M1,0.014744484223293226,V
PAT,P61,INI,FM,M2,0.016143945637832488,V
PAT,P61,INI,FM,M3,0.012716472140796426,V
PAT,P61,REL,FM,M1,0.026131005624293917,V
PAT,P61,REL,FM,M2,0.019247965086341533,V
PAT,P61,REL,FM,M3,0.02253513134964553,V
PAT,P62,INI,FM,M1,,V
PAT,P62,INI,FM,M2,,V
PAT,P62,INI,FM,M3,,V
PAT,P62,REL,FM,M1,0.012703981777448244,V
PAT,P62,REL,FM,M2,0.009394960441787444,V
PAT,P62,REL,FM,M3,0.011468581776463944,V
PAT,P63,INI,FM,M1,,V
PAT,P63,INI,FM,M2,,V
PAT,P63,INI,FM,M3,,V
PAT,P63,REL,FM,M1,0.01437023276153938,V
PAT,P63,REL,FM,M2,0.01685243435095856,V
PAT,P63,REL,FM,M3,0.016465298603245422,V
PAT,P65,INI,FM,M1,,V
PAT,P65,INI,FM,M2,,V
PAT,P65,INI,FM,M3,,V
PAT,P65,REL,FM,M1,0.017290649512791,V
PAT,P65,REL,FM,M2,0.01856676418501803,V
PAT,P65,REL,FM,M3,0.010034689055813834,V
