Group,Participant,Session,Operator,Measure,Value,Unit
PAT,P09,INI,FM,M1,27.504287347232268,%subMVIC
PAT,P09,INI,FM,M2,24.599242778656045,%subMVIC
PAT,P09,INI,FM,M3,21.38318756528003,%subMVIC
PAT,P09,REL,FM,M1,45.910747187373026,%subMVIC
PAT,P09,REL,FM,M2,47.23676286169625,%subMVIC
PAT,P09,REL,FM,M3,45.00865567559402,%subMVIC
PAT,P10,INI,FM,M1,51.46601820606988,%subMVIC
PAT,P10,INI,FM,M2,51.075218562136726,%subMVIC
PAT,P10,INI,FM,M3,49.8565841020159,%subMVIC
PAT,P10,REL,FM,M1,35.59748978897129,%subMVIC
PAT,P10,REL,FM,M2,37.66423039998618,%subMVIC
PAT,P10,REL,FM,M3,40.104704640809906,%subMVIC
PAT,P11,INI,FM,M1,65.89220366295834,%subMVIC
PAT,P11,INI,FM,M2,53.82556107313287,%subMVIC
PAT,P11,INI,FM,M3,57.144998582270524,%subMVIC
PAT,P11,REL,FM,M1,89.43409905898385,%subMVIC
PAT,P11,REL,FM,M2,78.02406752127976,%subMVIC
PAT,P11,REL,FM,M3,78.7605846354366,%subMVIC
PAT,P12,INI,FM,M1,19.175604419396088,%subMVIC
PAT,P12,INI,FM,M2,20.553515063439786,%subMVIC
PAT,P12,INI,FM,M3,24.494768082544336,%subMVIC
PAT,P12,REL,FM,M1,14.39700655268676,%subMVIC
PAT,P12,REL,FM,M2,14.154013042535633,%subMVIC
PAT,P12,REL,FM,M3,13.664788678869407,%subMVIC
PAT,P14,INI,FM,M1,31.671481100695157,%subMVIC
PAT,P14,INI,FM,M2,35.88615216110755,%subMVIC
PAT,P14,INI,FM,M3,42.811028450792264,%subMVIC
PAT,P14,REL,FM,M1,50.60325553512301,%subMVIC
PAT,P14,REL,FM,M2,54.29863892595536,%subMVIC
PAT,P14,REL,FM,M3,50.28789090511679,%subMVIC
PAT,P17,INI,FM,M1,22.72915336595066,%subMVIC
PAT,P17,INI,FM,M2,25.3957728900316,%subMVIC
PAT,P17,INI,FM,M3,25.866896611142586,%subMVIC
PAT,P17,REL,FM,M1,18.605292815829642,%subMVIC
PAT,P17,REL,FM,M2,17.748748881585545,%subMVIC
PAT,P17,REL,FM,M3,21.162641420980115,%subMVIC
PAT,P24,INI,FM,M1,18.74405086939373,%subMVIC
PAT,P24,INI,FM,M2,18.34880171508204,%subMVIC
PAT,P24,INI,FM,M3,15.667336626729078,%subMVIC
PAT,P24,REL,FM,M1,29.732608498835692,%subMVIC
PAT,P24,REL,FM,M2,27.846917650122048,%subMVIC
PAT,P24,REL,FM,M3,27.31320071918578,%subMVIC
PAT,P26,INI,FM,M1,69.61874209818801,%subMVIC
PAT,P26,INI,FM,M2,77.77359699200521,%subMVIC
PAT,P26,INI,FM,M3,64.09578905194508,%subMVIC
PAT,P26,REL,FM,M1,42.07748567932837,%subMVIC
PAT,P26,REL,FM,M2,38.043996636487165,%subMVIC
PAT,P26,REL,FM,M3,41.32910789790411,%subMVIC
PAT,P27,INI,FM,M1,38.35928417243301,%subMVIC
PAT,P27,INI,FM,M2,35.25159059486022,%subMVIC
PAT,P27,INI,FM,M3,34.40796899296352,%subMVIC
PAT,P27,REL,FM,M1,44.308717528364504,%subMVIC
PAT,P27,REL,FM,M2,42.41919206849713,%subMVIC
PAT,P27,REL,FM,M3,47.61174651289145,%subMVIC
PAT,P28,INI,FM,M1,64.4310002442243,%subMVIC
PAT,P28,INI,FM,M2,67.59105395487717,%subMVIC
PAT,P28,INI,FM,M3,65.35755433254685,%subMVIC
PAT,P28,REL,FM,M1,,%subMVIC
PAT,P28,REL,FM,M2,,%subMVIC
PAT,P28,REL,FM,M3,,%subMVIC
PAT,P29,INI,FM,M1,34.18659931280825,%subMVIC
PAT,P29,INI,FM,M2,41.98277116344409,%subMVIC
PAT,P29,INI,FM,M3,47.28622337391268,%subMVIC
PAT,P29,REL,FM,M1,28.343512436162012,%subMVIC
PAT,P29,REL,FM,M2,26.852792971583668,%subMVIC
PAT,P29,REL,FM,M3,26.76229308622926,%subMVIC
PAT,P30,INI,FM,M1,53.1446414143061,%subMVIC
PAT,P30,INI,FM,M2,60.31241124982887,%subMVIC
PAT,P30,INI,FM,M3,41.428310852001374,%subMVIC
PAT,P30,REL,FM,M1,75.47046234861108,%subMVIC
PAT,P30,REL,FM,M2,68.03637343887434,%subMVIC
PAT,P30,REL,FM,M3,74.01597541852132,%subMVIC
PAT,P32,INI,FM,M1,33.64368717698583,%subMVIC
PAT,P32,INI,FM,M2,34.42758896228231,%subMVIC
PAT,P32,INI,FM,M3,32.133831726807955,%subMVIC
PAT,P32,REL,FM,M1,42.47340354283588,%subMVIC
PAT,P32,REL,FM,M2,57.108668580887,%subMVIC
PAT,P32,REL,FM,M3,49.04901128384978,%subMVIC
PAT,P33,INI,FM,M1,58.566110290335985,%subMVIC
PAT,P33,INI,FM,M2,61.57450263482854,%subMVIC
PAT,P33,INI,FM,M3,59.74886161840559,%subMVIC
PAT,P33,REL,FM,M1,,%subMVIC
PAT,P33,REL,FM,M2,,%subMVIC
PAT,P33,REL,FM,M3,,%subMVIC
PAT,P34,INI,FM,M1,54.989281417923735,%subMVIC
PAT,P34,INI,FM,M2,53.87970506169337,%subMVIC
PAT,P34,INI,FM,M3,52.079292405894705,%subMVIC
PAT,P34,REL,FM,M1,61.53658251506259,%subMVIC
PAT,P34,REL,FM,M2,55.38820040804884,%subMVIC
PAT,P34,REL,FM,M3,51.22512107285013,%subMVIC
PAT,P36,INI,FM,M1,19.867365933908403,%subMVIC
PAT,P36,INI,FM,M2,19.848159612065267,%subMVIC
PAT,P36,INI,FM,M3,13.958096399986374,%subMVIC
PAT,P36,REL,FM,M1,23.263317737466977,%subMVIC
PAT,P36,REL,FM,M2,18.39084507189458,%subMVIC
PAT,P36,REL,FM,M3,18.349226917508044,%subMVIC
PAT,P41,INI,FM,M1,86.10056934772689,%subMVIC
PAT,P41,INI,FM,M2,75.54309583553214,%subMVIC
PAT,P41,INI,FM,M3,79.1651627976026,%subMVIC
PAT,P41,REL,FM,M1,61.30337821217203,%subMVIC
PAT,P41,REL,FM,M2,75.72350735704403,%subMVIC
PAT,P41,REL,FM,M3,61.27655861001808,%subMVIC
PAT,P42,INI,FM,M1,,%subMVIC
PAT,P42,INI,FM,M2,,%subMVIC
PAT,P42,INI,FM,M3,,%subMVIC
PAT,P42,REL,FM,M1,69.5051627050906,%subMVIC
PAT,P42,REL,FM,M2,62.45578294260749,%subMVIC
PAT,P42,REL,FM,M3,44.89234100411543,%subMVIC
PAT,P43,INI,FM,M1,,%subMVIC
PAT,P43,INI,FM,M2,,%subMVIC
PAT,P43,INI,FM,M3,,%subMVIC
PAT,P43,REL,FM,M1,41.9651101224777,%subMVIC
PAT,P43,REL,FM,M2,45.143116498846304,%subMVIC
PAT,P43,REL,FM,M3,38.529056679947985,%subMVIC
PAT,P45,INI,FM,M1,22.14322110867967,%subMVIC
PAT,P45,INI,FM,M2,21.574214325168523,%subMVIC
PAT,P45,INI,FM,M3,20.972857430433294,%subMVIC
PAT,P45,REL,FM,M1,15.581466468968447,%subMVIC
PAT,P45,REL,FM,M2,15.549925862363361,%subMVIC
PAT,P45,REL,FM,M3,16.62277214912547,%subMVIC
PAT,P47,REL,FM,M1,52.82434088806289,%subMVIC
PAT,P47,REL,FM,M2,48.96285140209602,%subMVIC
PAT,P47,REL,FM,M3,49.10425738087573,%subMVIC
PAT,P50,INI,FM,M1,38.48682164247809,%subMVIC
PAT,P50,INI,FM,M2,34.95426416186494,%subMVIC
PAT,P50,INI,FM,M3,32.612768656896996,%subMVIC
PAT,P50,REL,FM,M1,24.634635232789766,%subMVIC
PAT,P50,REL,FM,M2,25.178831808325178,%subMVIC
PAT,P50,REL,FM,M3,27.746626116659957,%subMVIC
PAT,P51,INI,FM,M1,63.63847298806837,%subMVIC
PAT,P51,INI,FM,M2,61.16009442674411,%subMVIC
PAT,P51,INI,FM,M3,64.2923710685052,%subMVIC
PAT,P51,REL,FM,M1,44.16397977495118,%subMVIC
PAT,P51,REL,FM,M2,47.55736952268551,%subMVIC
PAT,P51,REL,FM,M3,36.84444944065899,%subMVIC
PAT,P53,INI,FM,M1,50.92543790184949,%subMVIC
PAT,P53,INI,FM,M2,51.75538710412726,%subMVIC
PAT,P53,INI,FM,M3,51.88647275515166,%subMVIC
PAT,P53,REL,FM,M1,68.8737591558072,%subMVIC
PAT,P53,REL,FM,M2,72.5561458191064,%subMVIC
PAT,P53,REL,FM,M3,61.613623000794064,%subMVIC
PAT,P54,INI,FM,M1,35.71215414094397,%subMVIC
PAT,P54,INI,FM,M2,70.1145969822534,%subMVIC
PAT,P54,INI,FM,M3,59.489864912966425,%subMVIC
PAT,P54,REL,FM,M1,46.244917498901394,%subMVIC
PAT,P54,REL,FM,M2,40.161274581832,%subMVIC
PAT,P54,REL,FM,M3,40.630653621896116,%subMVIC
PAT,P58,INI,FM,M1,56.95148267389829,%subMVIC
PAT,P58,INI,FM,M2,63.91333557819541,%subMVIC
PAT,P58,INI,FM,M3,79.41488281100725,%subMVIC
PAT,P58,REL,FM,M1,70.82939959062014,%subMVIC
PAT,P58,REL,FM,M2,79.30943062503407,%subMVIC
PAT,P58,REL,FM,M3,71.29477816070202,%subMVIC
PAT,P61,INI,FM,M1,39.47869568117903,%subMVIC
PAT,P61,INI,FM,M2,42.70776145156779,%subMVIC
PAT,P61,INI,FM,M3,33.05038354179761,%subMVIC
PAT,P61,REL,FM,M1,37.48419681688301,%subMVIC
PAT,P61,REL,FM,M2,26.128841402057446,%subMVIC
PAT,P61,REL,FM,M3,30.834373877300944,%subMVIC
PAT,P62,INI,FM,M1,30.539601280454537,%subMVIC
PAT,P62,INI,FM,M2,34.14725209285134,%subMVIC
PAT,P62,INI,FM,M3,27.99590739912519,%subMVIC
PAT,P62,REL,FM,M1,71.4830837633504,%subMVIC
PAT,P62,REL,FM,M2,77.18694293095201,%subMVIC
PAT,P62,REL,FM,M3,75.59780109581335,%subMVIC
PAT,P63,INI,FM,M1,,%subMVIC
PAT,P63,INI,FM,M2,,%subMVIC
PAT,P63,INI,FM,M3,,%subMVIC
PAT,P63,REL,FM,M1,,%subMVIC
PAT,P63,REL,FM,M2,,%subMVIC
PAT,P63,REL,FM,M3,,%subMVIC
PAT,P65,INI,FM,M1,15.591884246003524,%subMVIC
PAT,P65,INI,FM,M2,11.320215026255791,%subMVIC
PAT,P65,INI,FM,M3,14.14040465134697,%subMVIC
PAT,P65,REL,FM,M1,9.089746628456398,%subMVIC
PAT,P65,REL,FM,M2,9.383964000420042,%subMVIC
PAT,P65,REL,FM,M3,10.068230258249008,%subMVIC
