Group,Participant,Session,Operator,Measure,Value,Unit
CTR,P01,INI,FM,M1,0.0023886319827848,V
CTR,P01,INI,FM,M2,0.0024500288838912,V
CTR,P01,INI,FM,M3,0.0024984572405516,V
CTR,P01,REL,FM,M1,0.0029413297356447,V
CTR,P01,REL,FM,M2,0.0023420873147982,V
CTR,P01,REL,FM,M3,0.0052529189648501,V
CTR,P02,INI,FM,M1,0.0084424131761781,V
CTR,P02,INI,FM,M2,0.0089572444817379,V
CTR,P02,INI,FM,M3,0.0077296195202812,V
CTR,P02,REL,FM,M1,0.0038237010388318,V
CTR,P02,REL,FM,M2,0.0035861716733785,V
CTR,P02,REL,FM,M3,0.0040854310201842,V
CTR,P03,INI,FM,M1,0.0050136676945816,V
CTR,P03,INI,FM,M2,0.0037592019179036,V
CTR,P03,INI,FM,M3,0.0039169278366093,V
CTR,P03,REL,FM,M1,0.0069313700763904,V
CTR,P03,REL,FM,M2,0.0083097961692663,V
CTR,P03,REL,FM,M3,0.0061971534714673,V
CTR,P05,INI,FM,M1,0.0049328824918081,V
CTR,P05,INI,FM,M2,0.0052070504169851,V
CTR,P05,INI,FM,M3,0.0049409681948563,V
CTR,P05,REL,FM,M1,0.0031131480001514,V
CTR,P05,REL,FM,M2,0.00295508324967,V
CTR,P05,REL,FM,M3,0.0033641924801377,V
CTR,P06,INI,FM,M1,0.0019375600874404,V
CTR,P06,INI,FM,M2,0.0018540341442175,V
CTR,P06,INI,FM,M3,0.0019874874839078,V
CTR,P06,REL,FM,M1,0.0030594445844313,V
CTR,P06,REL,FM,M2,0.0028004610783765,V
CTR,P06,REL,FM,M3,,V
CTR,P07,INI,FM,M1,0.006397641783893,V
CTR,P07,INI,FM,M2,0.0069432268463924,V
CTR,P07,INI,FM,M3,0.0068673980690113,V
CTR,P07,REL,FM,M1,0.0064341262028621,V
CTR,P07,REL,FM,M2,0.0076609752539127,V
CTR,P07,REL,FM,M3,0.0071260844256378,V
CTR,P08,INI,FM,M1,0.0059350821797044,V
CTR,P08,INI,FM,M2,0.0034456845778918,V
CTR,P08,INI,FM,M3,0.0037523199086243,V
CTR,P08,REL,FM,M1,0.004795638454904,V
CTR,P08,REL,FM,M2,0.0034601778560585,V
CTR,P08,REL,FM,M3,0.0034520103282386,V
CTR,P13,INI,FM,M1,0.004327997200547,V
CTR,P13,INI,FM,M2,0.0031457078663623,V
CTR,P13,INI,FM,M3,0.0034174479449377,V
CTR,P13,REL,FM,M1,0.0031987228208587,V
CTR,P13,REL,FM,M2,0.0029692310558108,V
CTR,P13,REL,FM,M3,0.0033194909387396,V
CTR,P16,INI,FM,M1,0.0026667707652842,V
CTR,P16,INI,FM,M2,0.0027123732096445,V
CTR,P16,INI,FM,M3,0.0028441523885071,V
CTR,P16,REL,FM,M1,,V
CTR,P16,REL,FM,M2,,V
CTR,P16,REL,FM,M3,,V
CTR,P21,INI,FM,M1,0.0037865725263295,V
CTR,P21,INI,FM,M2,0.0037826134214701,V
CTR,P21,INI,FM,M3,0.0038062353069993,V
CTR,P21,REL,FM,M1,0.0035406272091522,V
CTR,P21,REL,FM,M2,0.0055717197961719,V
CTR,P21,REL,FM,M3,0.0043874178332787,V
CTR,P22,INI,FM,M1,,V
CTR,P22,INI,FM,M2,0.0035135771683522,V
CTR,P22,INI,FM,M3,0.0033766363889719,V
CTR,P22,REL,FM,M1,0.0041388755261565,V
CTR,P22,REL,FM,M2,0.0039412710064172,V
CTR,P22,REL,FM,M3,0.0063704462552682,V
CTR,P23,INI,FM,M1,0.002576222565881,V
CTR,P23,INI,FM,M2,0.0024887395703218,V
CTR,P23,INI,FM,M3,0.0025829574926345,V
CTR,P23,REL,FM,M1,0.0047164345507632,V
CTR,P23,REL,FM,M2,0.0067702257503359,V
CTR,P23,REL,FM,M3,0.0049604786093532,V
CTR,P25,INI,FM,M1,0.0077832739685135,V
CTR,P25,INI,FM,M2,0.0115456439796387,V
CTR,P25,INI,FM,M3,0.011458420565043,V
CTR,P25,REL,FM,M1,0.0070256556184309,V
CTR,P25,REL,FM,M2,0.0115042005186298,V
CTR,P25,REL,FM,M3,0.0072653977354719,V
CTR,P35,INI,FM,M1,,V
CTR,P35,INI,FM,M2,,V
CTR,P35,INI,FM,M3,,V
CTR,P35,REL,FM,M1,,V
CTR,P35,REL,FM,M2,,V
CTR,P35,REL,FM,M3,,V
CTR,P38,INI,FM,M1,0.0058320764301515,V
CTR,P38,INI,FM,M2,,V
CTR,P38,INI,FM,M3,0.0048225095151963,V
CTR,P38,REL,FM,M1,,V
CTR,P38,REL,FM,M2,,V
CTR,P38,REL,FM,M3,0.0052133053749226,V
CTR,P39,INI,FM,M1,0.0049579817271418,V
CTR,P39,INI,FM,M2,0.0037973457893215,V
CTR,P39,INI,FM,M3,0.0046773872303526,V
CTR,P39,REL,FM,M1,0.0049703040021733,V
CTR,P39,REL,FM,M2,0.0043256008294995,V
CTR,P39,REL,FM,M3,0.0042860231349671,V
CTR,P40,INI,FM,M1,0.0155484622245987,V
CTR,P40,INI,FM,M2,,V
CTR,P40,INI,FM,M3,,V
CTR,P40,REL,FM,M1,0.0122955344518148,V
CTR,P40,REL,FM,M2,0.014465205095501,V
CTR,P40,REL,FM,M3,0.0127432156042859,V
CTR,P44,INI,FM,M1,0.0076321159225437,V
CTR,P44,INI,FM,M2,0.0085389688629375,V
CTR,P44,INI,FM,M3,0.0084232712326153,V
CTR,P44,REL,FM,M1,0.003376508744108,V
CTR,P44,REL,FM,M2,0.0035575939779527,V
CTR,P44,REL,FM,M3,0.0028652480104605,V
CTR,P46,INI,FM,M1,0.0059620215960414,V
CTR,P46,INI,FM,M2,0.0054829143285304,V
CTR,P46,INI,FM,M3,0.0051261399367189,V
CTR,P46,REL,FM,M1,0.0040073364006318,V
CTR,P46,REL,FM,M2,,V
CTR,P46,REL,FM,M3,,V
CTR,P48,INI,FM,M1,0.0096478885267094,V
CTR,P48,INI,FM,M2,0.006610932009468,V
CTR,P48,INI,FM,M3,0.0073720054402711,V
CTR,P48,REL,FM,M1,0.0072568969354407,V
CTR,P48,REL,FM,M2,0.0056619047528134,V
CTR,P48,REL,FM,M3,0.0051852283621399,V
CTR,P49,INI,FM,M1,0.0048135688627639,V
CTR,P49,INI,FM,M2,0.0055495864916361,V
CTR,P49,INI,FM,M3,0.0061507511695117,V
CTR,P49,REL,FM,M1,0.0050834605011969,V
CTR,P49,REL,FM,M2,0.0043205333048342,V
CTR,P49,REL,FM,M3,0.0041351135394116,V
CTR,P52,INI,FM,M1,0.0078725923765101,V
CTR,P52,INI,FM,M2,0.0089592164032998,V
CTR,P52,INI,FM,M3,0.0060642098713807,V
CTR,P52,REL,FM,M1,0.0070941238403412,V
CTR,P52,REL,FM,M2,0.0086133613976332,V
CTR,P52,REL,FM,M3,0.00690033318822,V
CTR,P55,INI,FM,M1,0.0025847238673614,V
CTR,P55,INI,FM,M2,0.0022647201291565,V
CTR,P55,INI,FM,M3,0.0025892523606023,V
CTR,P55,REL,FM,M1,0.0049375210024055,V
CTR,P55,REL,FM,M2,0.0053097541520338,V
CTR,P55,REL,FM,M3,0.00478065316255,V
CTR,P56,INI,FM,M1,0.0057703248858193,V
CTR,P56,INI,FM,M2,0.0062029383593109,V
CTR,P56,INI,FM,M3,0.0050659025052246,V
CTR,P56,REL,FM,M1,0.0051585320944639,V
CTR,P56,REL,FM,M2,0.0046151825850682,V
CTR,P56,REL,FM,M3,0.00556480281174,V
CTR,P57,INI,FM,M1,0.0025126061624419,V
CTR,P57,INI,FM,M2,0.0021634632750839,V
CTR,P57,INI,FM,M3,0.002345309748789,V
CTR,P57,REL,FM,M1,0.0020974764996277,V
CTR,P57,REL,FM,M2,0.002559330394057,V
CTR,P57,REL,FM,M3,0.0020141732954856,V
CTR,P60,INI,FM,M1,0.00537445877893,V
CTR,P60,INI,FM,M2,0.0055181283686316,V
CTR,P60,INI,FM,M3,0.0051499388084037,V
CTR,P60,REL,FM,M1,,V
CTR,P60,REL,FM,M2,0.0038767639303341,V
CTR,P60,REL,FM,M3,0.0045700459449643,V
CTR,P64,INI,FM,M1,0.0060473124859428,V
CTR,P64,INI,FM,M2,0.0049444088745361,V
CTR,P64,INI,FM,M3,0.006038084226896,V
CTR,P64,REL,FM,M1,0.0071387460792473,V
CTR,P64,REL,FM,M2,,V
CTR,P64,REL,FM,M3,0.0073619433944963,V
CTR,P66,INI,FM,M1,0.0070189590737975,V
CTR,P66,INI,FM,M2,0.0049723739241402,V
CTR,P66,INI,FM,M3,0.0050526614804277,V
CTR,P66,REL,FM,M1,0.0033869780644885,V
CTR,P66,REL,FM,M2,0.0037929482540505,V
CTR,P66,REL,FM,M3,0.0034128288045516,V
CTR,P67,INI,FM,M1,0.006569194265228,V
CTR,P67,INI,FM,M2,0.0041622034266779,V
CTR,P67,INI,FM,M3,0.0050687937988217,V
CTR,P67,REL,FM,M1,0.0037185698514582,V
CTR,P67,REL,FM,M2,0.0038824673253111,V
CTR,P67,REL,FM,M3,0.004568872511093,V
CTR,P68,INI,FM,M1,,V
CTR,P68,INI,FM,M2,,V
CTR,P68,INI,FM,M3,,V
CTR,P68,REL,FM,M1,0.0075312068575481,V
CTR,P68,REL,FM,M2,,V
CTR,P68,REL,FM,M3,0.0061757435805827,V
