Group,Participant,Session,Operator,Measure,Value,Unit
CTR,P01,INI,FM,M1,0.0084221700481615,V
CTR,P01,INI,FM,M2,0.0096772945577425,V
CTR,P01,INI,FM,M3,0.008939979021205,V
CTR,P01,REL,FM,M1,0.0234381695478161,V
CTR,P01,REL,FM,M2,,V
CTR,P01,REL,FM,M3,0.0210117863743479,V
CTR,P02,INI,FM,M1,0.0120110498791914,V
CTR,P02,INI,FM,M2,0.0214027147292342,V
CTR,P02,INI,FM,M3,0.0332559286923635,V
CTR,P02,REL,FM,M1,0.010091935336228,V
CTR,P02,REL,FM,M2,0.0099694589258443,V
CTR,P02,REL,FM,M3,0.0099282678671581,V
CTR,P03,INI,FM,M1,0.0129807193062336,V
CTR,P03,INI,FM,M2,0.0070898561037828,V
CTR,P03,INI,FM,M3,0.010038696142618,V
CTR,P03,REL,FM,M1,0.0039774394628346,V
CTR,P03,REL,FM,M2,0.0035377927535516,V
CTR,P03,REL,FM,M3,0.0036170078190966,V
CTR,P05,INI,FM,M1,0.0147464234485653,V
CTR,P05,INI,FM,M2,0.0148700194541943,V
CTR,P05,INI,FM,M3,0.0184313592618211,V
CTR,P05,REL,FM,M1,0.0135735159428882,V
CTR,P05,REL,FM,M2,0.0126979179326145,V
CTR,P05,REL,FM,M3,0.0126921529980931,V
CTR,P06,INI,FM,M1,0.0033376536762498,V
CTR,P06,INI,FM,M2,0.0037579661673233,V
CTR,P06,INI,FM,M3,0.0035257398715454,V
CTR,P06,REL,FM,M1,0.004040533319487,V
CTR,P06,REL,FM,M2,0.0043640590399118,V
CTR,P06,REL,FM,M3,0.0043419172330381,V
CTR,P07,INI,FM,M1,0.0362072903976712,V
CTR,P07,INI,FM,M2,0.0355496309335898,V
CTR,P07,INI,FM,M3,0.0337913033205453,V
CTR,P07,REL,FM,M1,0.0159905079932335,V
CTR,P07,REL,FM,M2,0.0199408417099517,V
CTR,P07,REL,FM,M3,0.0149224883055548,V
CTR,P08,INI,FM,M1,0.042741793533651,V
CTR,P08,INI,FM,M2,0.0568145102491015,V
CTR,P08,INI,FM,M3,0.0456757657271776,V
CTR,P08,REL,FM,M1,,V
CTR,P08,REL,FM,M2,0.0129678593088744,V
CTR,P08,REL,FM,M3,0.0137878974460451,V
CTR,P13,INI,FM,M1,0.0053742377993273,V
CTR,P13,INI,FM,M2,0.0056165861153175,V
CTR,P13,INI,FM,M3,0.0053153286443986,V
CTR,P13,REL,FM,M1,0.0058977273883299,V
CTR,P13,REL,FM,M2,0.00442419591756,V
CTR,P13,REL,FM,M3,0.0048378169383833,V
CTR,P16,INI,FM,M1,0.0061971877279999,V
CTR,P16,INI,FM,M2,0.0056758821998972,V
CTR,P16,INI,FM,M3,0.0047840490015081,V
CTR,P16,REL,FM,M1,0.005771680758311,V
CTR,P16,REL,FM,M2,0.00558390636276,V
CTR,P16,REL,FM,M3,0.0074155508434332,V
CTR,P21,INI,FM,M1,,V
CTR,P21,INI,FM,M2,,V
CTR,P21,INI,FM,M3,,V
CTR,P21,REL,FM,M1,,V
CTR,P21,REL,FM,M2,,V
CTR,P21,REL,FM,M3,,V
CTR,P22,INI,FM,M1,0.0092019588369423,V
CTR,P22,INI,FM,M2,0.0090101994489077,V
CTR,P22,INI,FM,M3,0.006947902972211,V
CTR,P22,REL,FM,M1,0.0059282732456581,V
CTR,P22,REL,FM,M2,0.0066635522907601,V
CTR,P22,REL,FM,M3,0.0075748511773696,V
CTR,P23,INI,FM,M1,0.0096614926916848,V
CTR,P23,INI,FM,M2,0.0068451990448591,V
CTR,P23,INI,FM,M3,0.0096320640032235,V
CTR,P23,REL,FM,M1,0.0082266289387997,V
CTR,P23,REL,FM,M2,0.0083465277318411,V
CTR,P23,REL,FM,M3,0.0105587768584918,V
CTR,P25,INI,FM,M1,0.0501105331844871,V
CTR,P25,INI,FM,M2,0.1225230365938342,V
CTR,P25,INI,FM,M3,0.067091557118773,V
CTR,P25,REL,FM,M1,0.0227021046574575,V
CTR,P25,REL,FM,M2,0.020359813004468,V
CTR,P25,REL,FM,M3,0.0217214816891699,V
CTR,P35,INI,FM,M1,,V
CTR,P35,INI,FM,M2,,V
CTR,P35,INI,FM,M3,,V
CTR,P35,REL,FM,M1,0.0088939554258645,V
CTR,P35,REL,FM,M2,0.0093988427822701,V
CTR,P35,REL,FM,M3,0.0087138937729269,V
CTR,P38,INI,FM,M1,0.0541851546250611,V
CTR,P38,INI,FM,M2,0.0748890182502467,V
CTR,P38,INI,FM,M3,0.0209671019270879,V
CTR,P38,REL,FM,M1,0.0110256486371671,V
CTR,P38,REL,FM,M2,0.0099943427595856,V
CTR,P38,REL,FM,M3,0.0089851727502243,V
CTR,P39,INI,FM,M1,0.0053235573757509,V
CTR,P39,INI,FM,M2,0.0043784357877439,V
CTR,P39,INI,FM,M3,0.0048008176494904,V
CTR,P39,REL,FM,M1,0.0040506738636535,V
CTR,P39,REL,FM,M2,0.0048346582494316,V
CTR,P39,REL,FM,M3,0.0047953806843243,V
CTR,P40,INI,FM,M1,0.0098636820101703,V
CTR,P40,INI,FM,M2,0.0125379039069658,V
CTR,P40,INI,FM,M3,0.0147953044784057,V
CTR,P40,REL,FM,M1,0.0116294701376822,V
CTR,P40,REL,FM,M2,0.0078010697663604,V
CTR,P40,REL,FM,M3,0.0075114297751135,V
CTR,P44,INI,FM,M1,0.0554833041264894,V
CTR,P44,INI,FM,M2,0.0599987966481127,V
CTR,P44,INI,FM,M3,0.0587258276027541,V
CTR,P44,REL,FM,M1,0.0070417904127817,V
CTR,P44,REL,FM,M2,0.0076507175644594,V
CTR,P44,REL,FM,M3,0.0080465142144797,V
CTR,P46,INI,FM,M1,0.0148287230452307,V
CTR,P46,INI,FM,M2,0.0214730617636212,V
CTR,P46,INI,FM,M3,0.0145536960334429,V
CTR,P46,REL,FM,M1,0.0075106039764476,V
CTR,P46,REL,FM,M2,0.0082488896633048,V
CTR,P46,REL,FM,M3,0.0057534022742008,V
CTR,P48,INI,FM,M1,0.0097584300226931,V
CTR,P48,INI,FM,M2,0.0085258635590173,V
CTR,P48,INI,FM,M3,0.0077459680135012,V
CTR,P48,REL,FM,M1,0.0083748724941041,V
CTR,P48,REL,FM,M2,0.0078603391436546,V
CTR,P48,REL,FM,M3,0.0071801759015214,V
CTR,P49,INI,FM,M1,0.0118331029901244,V
CTR,P49,INI,FM,M2,0.0098282236390681,V
CTR,P49,INI,FM,M3,0.0110009973627436,V
CTR,P49,REL,FM,M1,,V
CTR,P49,REL,FM,M2,0.0164771571008993,V
CTR,P49,REL,FM,M3,0.0144794239613861,V
CTR,P52,INI,FM,M1,0.0113624894927047,V
CTR,P52,INI,FM,M2,0.0115977307638546,V
CTR,P52,INI,FM,M3,0.0112904989084643,V
CTR,P52,REL,FM,M1,0.01353957087529,V
CTR,P52,REL,FM,M2,0.0148406322489084,V
CTR,P52,REL,FM,M3,0.0117418135406815,V
CTR,P55,INI,FM,M1,0.0075281828177992,V
CTR,P55,INI,FM,M2,0.0087587151412563,V
CTR,P55,INI,FM,M3,0.0064465717806197,V
CTR,P55,REL,FM,M1,0.0066347348329881,V
CTR,P55,REL,FM,M2,0.0075185740292949,V
CTR,P55,REL,FM,M3,0.0054575359476948,V
CTR,P56,INI,FM,M1,0.010422908762768,V
CTR,P56,INI,FM,M2,0.011310259077219,V
CTR,P56,INI,FM,M3,0.0117659926459635,V
CTR,P56,REL,FM,M1,0.012503373203685,V
CTR,P56,REL,FM,M2,0.0140711055936287,V
CTR,P56,REL,FM,M3,0.0134848432972454,V
CTR,P57,INI,FM,M1,0.169811840849955,V
CTR,P57,INI,FM,M2,0.1750396667557455,V
CTR,P57,INI,FM,M3,0.1653631195926361,V
CTR,P57,REL,FM,M1,0.0039418549354804,V
CTR,P57,REL,FM,M2,0.0045950420163869,V
CTR,P57,REL,FM,M3,0.0043678468443422,V
CTR,P60,INI,FM,M1,0.0074294246676748,V
CTR,P60,INI,FM,M2,0.0058475339725341,V
CTR,P60,INI,FM,M3,0.0087485716927986,V
CTR,P60,REL,FM,M1,0.0102414847904638,V
CTR,P60,REL,FM,M2,0.007163700264596,V
CTR,P60,REL,FM,M3,0.0121767412464434,V
CTR,P64,INI,FM,M1,0.0100198318252243,V
CTR,P64,INI,FM,M2,0.0085363424690125,V
CTR,P64,INI,FM,M3,0.0082856520101456,V
CTR,P64,REL,FM,M1,0.0144354742055823,V
CTR,P64,REL,FM,M2,0.0089322954096638,V
CTR,P64,REL,FM,M3,0.0093777589796161,V
CTR,P66,INI,FM,M1,,V
CTR,P66,INI,FM,M2,0.0152003729925709,V
CTR,P66,INI,FM,M3,,V
CTR,P66,REL,FM,M1,0.0194265363597699,V
CTR,P66,REL,FM,M2,0.0172964536329112,V
CTR,P66,REL,FM,M3,0.0162540519805519,V
CTR,P67,INI,FM,M1,0.0144882586512543,V
CTR,P67,INI,FM,M2,0.0125968737014132,V
CTR,P67,INI,FM,M3,0.0125717815680783,V
CTR,P67,REL,FM,M1,0.0105413161185906,V
CTR,P67,REL,FM,M2,0.0123469246274762,V
CTR,P67,REL,FM,M3,0.0102653724018015,V
CTR,P68,INI,FM,M1,,V
CTR,P68,INI,FM,M2,,V
CTR,P68,INI,FM,M3,,V
CTR,P68,REL,FM,M1,0.0116666561618978,V
CTR,P68,REL,FM,M2,0.0107826485244847,V
CTR,P68,REL,FM,M3,0.0104726716508503,V
