Group,Participant,Session,Operator,Measure,Value,Unit
CTR,P01,INI,FM,M1,32.48708727845163,%MAX
CTR,P01,INI,FM,M2,36.24697884923453,%MAX
CTR,P01,INI,FM,M3,41.329958813849125,%MAX
CTR,P01,REL,FM,M1,31.537821310704476,%MAX
CTR,P01,REL,FM,M2,23.853731104785354,%MAX
CTR,P01,REL,FM,M3,29.34331231160425,%MAX
CTR,P02,INI,FM,M1,33.8803108736988,%MAX
CTR,P02,INI,FM,M2,30.842503363528508,%MAX
CTR,P02,INI,FM,M3,32.30330860382674,%MAX
CTR,P02,REL,FM,M1,29.26832513161998,%MAX
CTR,P02,REL,FM,M2,24.951926989093177,%MAX
CTR,P02,REL,FM,M3,22.708386045007483,%MAX
CTR,P03,INI,FM,M1,28.34711212057169,%MAX
CTR,P03,INI,FM,M2,24.837821790048405,%MAX
CTR,P03,INI,FM,M3,23.077044323896327,%MAX
CTR,P03,REL,FM,M1,35.0193122558608,%MAX
CTR,P03,REL,FM,M2,39.473192884929205,%MAX
CTR,P03,REL,FM,M3,50.09066770551778,%MAX
CTR,P05,INI,FM,M1,31.068881766686374,%MAX
CTR,P05,INI,FM,M2,32.96088223825554,%MAX
CTR,P05,INI,FM,M3,30.910266477251366,%MAX
CTR,P05,REL,FM,M1,30.148107816019994,%MAX
CTR,P05,REL,FM,M2,32.7354457794535,%MAX
CTR,P05,REL,FM,M3,34.37341267076234,%MAX
CTR,P06,INI,FM,M1,37.70746063895498,%MAX
CTR,P06,INI,FM,M2,40.54592476279597,%MAX
CTR,P06,INI,FM,M3,41.1811138862622,%MAX
CTR,P06,REL,FM,M1,31.614406533133756,%MAX
CTR,P06,REL,FM,M2,30.041278975344458,%MAX
CTR,P06,REL,FM,M3,30.456867375658383,%MAX
CTR,P07,INI,FM,M1,20.473983821283433,%MAX
CTR,P07,INI,FM,M2,20.86323097244949,%MAX
CTR,P07,INI,FM,M3,25.900463576790113,%MAX
CTR,P07,REL,FM,M1,37.12250595539454,%MAX
CTR,P07,REL,FM,M2,32.80855239477484,%MAX
CTR,P07,REL,FM,M3,32.516440639432865,%MAX
CTR,P08,INI,FM,M1,15.477156592980615,%MAX
CTR,P08,INI,FM,M2,22.479133783304565,%MAX
CTR,P08,INI,FM,M3,20.949912554105023,%MAX
CTR,P08,REL,FM,M1,20.96576252234957,%MAX
CTR,P08,REL,FM,M2,18.561270674960998,%MAX
CTR,P08,REL,FM,M3,18.631909546375827,%MAX
CTR,P13,INI,FM,M1,34.24348712414681,%MAX
CTR,P13,INI,FM,M2,34.50032150410782,%MAX
CTR,P13,INI,FM,M3,33.97343468492782,%MAX
CTR,P13,REL,FM,M1,31.80804089823724,%MAX
CTR,P13,REL,FM,M2,29.954910044041487,%MAX
CTR,P13,REL,FM,M3,30.149401582113057,%MAX
CTR,P16,INI,FM,M1,59.72699704513212,%MAX
CTR,P16,INI,FM,M2,58.428916572391564,%MAX
CTR,P16,INI,FM,M3,49.99989913360588,%MAX
CTR,P16,REL,FM,M1,27.541911474950123,%MAX
CTR,P16,REL,FM,M2,33.203434605627955,%MAX
CTR,P16,REL,FM,M3,26.853730515864925,%MAX
CTR,P21,INI,FM,M1,40.580535513318004,%MAX
CTR,P21,INI,FM,M2,47.58086537590026,%MAX
CTR,P21,INI,FM,M3,47.71574642302148,%MAX
CTR,P21,REL,FM,M1,47.30560530849428,%MAX
CTR,P21,REL,FM,M2,44.05653253967247,%MAX
CTR,P21,REL,FM,M3,65.90211582706839,%MAX
CTR,P22,INI,FM,M1,55.56527632874169,%MAX
CTR,P22,INI,FM,M2,41.13136680281696,%MAX
CTR,P22,INI,FM,M3,31.070194735952736,%MAX
CTR,P22,REL,FM,M1,,%MAX
CTR,P22,REL,FM,M2,,%MAX
CTR,P22,REL,FM,M3,,%MAX
CTR,P23,INI,FM,M1,45.421085346374255,%MAX
CTR,P23,INI,FM,M2,39.61909797502709,%MAX
CTR,P23,INI,FM,M3,35.48802625602919,%MAX
CTR,P23,REL,FM,M1,30.174788823557275,%MAX
CTR,P23,REL,FM,M2,56.86540424476472,%MAX
CTR,P23,REL,FM,M3,62.983914827890786,%MAX
CTR,P25,INI,FM,M1,,%MAX
CTR,P25,INI,FM,M2,,%MAX
CTR,P25,INI,FM,M3,,%MAX
CTR,P25,REL,FM,M1,,%MAX
CTR,P25,REL,FM,M2,,%MAX
CTR,P25,REL,FM,M3,,%MAX
CTR,P35,INI,FM,M1,37.30638898447823,%MAX
CTR,P35,INI,FM,M2,24.5969073752032,%MAX
CTR,P35,INI,FM,M3,68.45726257929215,%MAX
CTR,P35,REL,FM,M1,17.914354889863272,%MAX
CTR,P35,REL,FM,M2,21.42325725009958,%MAX
CTR,P35,REL,FM,M3,71.7345348218873,%MAX
CTR,P38,INI,FM,M1,,%MAX
CTR,P38,INI,FM,M2,,%MAX
CTR,P38,INI,FM,M3,,%MAX
CTR,P38,REL,FM,M1,54.91037637908375,%MAX
CTR,P38,REL,FM,M2,33.21682799614458,%MAX
CTR,P38,REL,FM,M3,64.60039952645819,%MAX
CTR,P39,INI,FM,M1,26.30129261555312,%MAX
CTR,P39,INI,FM,M2,28.09854905923397,%MAX
CTR,P39,INI,FM,M3,46.95606253779093,%MAX
CTR,P39,REL,FM,M1,32.71724815830159,%MAX
CTR,P39,REL,FM,M2,33.329553678010136,%MAX
CTR,P39,REL,FM,M3,27.461925858939026,%MAX
CTR,P40,INI,FM,M1,21.172704639032624,%MAX
CTR,P40,INI,FM,M2,24.211266242421075,%MAX
CTR,P40,INI,FM,M3,18.979094727524235,%MAX
CTR,P40,REL,FM,M1,24.667502694206267,%MAX
CTR,P40,REL,FM,M2,21.357200339721015,%MAX
CTR,P40,REL,FM,M3,40.80758649053738,%MAX
CTR,P44,INI,FM,M1,30.650654279887625,%MAX
CTR,P44,INI,FM,M2,35.89545642481168,%MAX
CTR,P44,INI,FM,M3,43.87007970098033,%MAX
CTR,P44,REL,FM,M1,28.133932713546326,%MAX
CTR,P44,REL,FM,M2,31.625200629335396,%MAX
CTR,P44,REL,FM,M3,32.05794722169144,%MAX
CTR,P46,INI,FM,M1,,%MAX
CTR,P46,INI,FM,M2,,%MAX
CTR,P46,INI,FM,M3,,%MAX
CTR,P46,REL,FM,M1,,%MAX
CTR,P46,REL,FM,M2,,%MAX
CTR,P46,REL,FM,M3,,%MAX
CTR,P48,INI,FM,M1,32.40692511854664,%MAX
CTR,P48,INI,FM,M2,32.80287156101079,%MAX
CTR,P48,INI,FM,M3,41.71600471803325,%MAX
CTR,P48,REL,FM,M1,32.82628626245272,%MAX
CTR,P48,REL,FM,M2,33.07599002253784,%MAX
CTR,P48,REL,FM,M3,46.69516818811372,%MAX
CTR,P49,INI,FM,M1,25.265237353397843,%MAX
CTR,P49,INI,FM,M2,27.660556479421587,%MAX
CTR,P49,INI,FM,M3,46.43347398548548,%MAX
CTR,P49,REL,FM,M1,29.52366769910445,%MAX
CTR,P49,REL,FM,M2,33.98704807458545,%MAX
CTR,P49,REL,FM,M3,33.273458281115445,%MAX
CTR,P52,INI,FM,M1,32.70077264663533,%MAX
CTR,P52,INI,FM,M2,42.66792077387112,%MAX
CTR,P52,INI,FM,M3,38.67415998279728,%MAX
CTR,P52,REL,FM,M1,28.781776753762887,%MAX
CTR,P52,REL,FM,M2,45.77520234302243,%MAX
CTR,P52,REL,FM,M3,35.62143472644654,%MAX
CTR,P55,INI,FM,M1,30.56687765781473,%MAX
CTR,P55,INI,FM,M2,41.18166496785044,%MAX
CTR,P55,INI,FM,M3,41.431435984059384,%MAX
CTR,P55,REL,FM,M1,35.47308006487024,%MAX
CTR,P55,REL,FM,M2,38.56345229876308,%MAX
CTR,P55,REL,FM,M3,38.68532922533939,%MAX
CTR,P56,INI,FM,M1,28.974634688818163,%MAX
CTR,P56,INI,FM,M2,18.219951657261667,%MAX
CTR,P56,INI,FM,M3,32.105895669817784,%MAX
CTR,P56,REL,FM,M1,38.89738073520905,%MAX
CTR,P56,REL,FM,M2,33.04000710867012,%MAX
CTR,P56,REL,FM,M3,40.35057975285824,%MAX
CTR,P57,INI,FM,M1,22.97506619728765,%MAX
CTR,P57,INI,FM,M2,17.033808945814556,%MAX
CTR,P57,INI,FM,M3,46.44733307082223,%MAX
CTR,P57,REL,FM,M1,23.460978178841998,%MAX
CTR,P57,REL,FM,M2,27.26684605452231,%MAX
CTR,P57,REL,FM,M3,26.38924948034081,%MAX
CTR,P60,INI,FM,M1,44.08620556724685,%MAX
CTR,P60,INI,FM,M2,50.14451999887489,%MAX
CTR,P60,INI,FM,M3,50.355676253165825,%MAX
CTR,P60,REL,FM,M1,30.508190255097045,%MAX
CTR,P60,REL,FM,M2,53.94918776833766,%MAX
CTR,P60,REL,FM,M3,57.46294424961124,%MAX
CTR,P64,INI,FM,M1,25.591256792646806,%MAX
CTR,P64,INI,FM,M2,25.386588007088875,%MAX
CTR,P64,INI,FM,M3,37.429574895986235,%MAX
CTR,P64,REL,FM,M1,26.05185217584333,%MAX
CTR,P64,REL,FM,M2,50.22884063634409,%MAX
CTR,P64,REL,FM,M3,26.561780517014576,%MAX
CTR,P66,INI,FM,M1,32.18917947584175,%MAX
CTR,P66,INI,FM,M2,33.101780208185296,%MAX
CTR,P66,INI,FM,M3,32.34916286635845,%MAX
CTR,P66,REL,FM,M1,21.010123625701482,%MAX
CTR,P66,REL,FM,M2,21.700731151352098,%MAX
CTR,P66,REL,FM,M3,20.3573162742286,%MAX
CTR,P67,INI,FM,M1,46.22627788023218,%MAX
CTR,P67,INI,FM,M2,105.68608360914936,%MAX
CTR,P67,INI,FM,M3,40.898228526778674,%MAX
CTR,P67,REL,FM,M1,50.35404451020444,%MAX
CTR,P67,REL,FM,M2,32.0346703536048,%MAX
CTR,P67,REL,FM,M3,32.91089260595169,%MAX
CTR,P68,INI,FM,M1,22.057981905908097,%MAX
CTR,P68,INI,FM,M2,44.54247425156984,%MAX
CTR,P68,INI,FM,M3,93.11769160356539,%MAX
CTR,P68,REL,FM,M1,63.156467095277854,%MAX
CTR,P68,REL,FM,M2,64.45531077880285,%MAX
CTR,P68,REL,FM,M3,38.306532099734284,%MAX
