Group,Participant,Session,Operator,Measure,Value,Unit
CTR,P01,INI,FM,M1,8.157601898077138,%subMVIC
CTR,P01,INI,FM,M2,9.054517032140565,%subMVIC
CTR,P01,INI,FM,M3,9.312552250287036,%subMVIC
CTR,P01,REL,FM,M1,11.674428762899943,%subMVIC
CTR,P01,REL,FM,M2,15.91331950594664,%subMVIC
CTR,P01,REL,FM,M3,13.578111862252172,%subMVIC
CTR,P02,INI,FM,M1,21.50650889561574,%subMVIC
CTR,P02,INI,FM,M2,24.247426036530133,%subMVIC
CTR,P02,INI,FM,M3,24.20232036626911,%subMVIC
CTR,P02,REL,FM,M1,18.0804561115207,%subMVIC
CTR,P02,REL,FM,M2,20.823888839683,%subMVIC
CTR,P02,REL,FM,M3,20.227236436557554,%subMVIC
CTR,P03,INI,FM,M1,27.819654966751937,%subMVIC
CTR,P03,INI,FM,M2,34.280020211813344,%subMVIC
CTR,P03,INI,FM,M3,32.82497827245203,%subMVIC
CTR,P03,REL,FM,M1,39.091920485368156,%subMVIC
CTR,P03,REL,FM,M2,38.951670212680874,%subMVIC
CTR,P03,REL,FM,M3,45.727508973048465,%subMVIC
CTR,P05,INI,FM,M1,13.423684760463475,%subMVIC
CTR,P05,INI,FM,M2,11.208601160376887,%subMVIC
CTR,P05,INI,FM,M3,11.075777806762682,%subMVIC
CTR,P05,REL,FM,M1,11.70325628309479,%subMVIC
CTR,P05,REL,FM,M2,14.48221649870495,%subMVIC
CTR,P05,REL,FM,M3,13.068338395434234,%subMVIC
CTR,P06,INI,FM,M1,41.86270959756198,%subMVIC
CTR,P06,INI,FM,M2,39.580456705020914,%subMVIC
CTR,P06,INI,FM,M3,39.022051323863515,%subMVIC
CTR,P06,REL,FM,M1,37.358078930168304,%subMVIC
CTR,P06,REL,FM,M2,34.57135739830252,%subMVIC
CTR,P06,REL,FM,M3,39.86661033127098,%subMVIC
CTR,P07,INI,FM,M1,97.7772491153914,%subMVIC
CTR,P07,INI,FM,M2,125.59388664629734,%subMVIC
CTR,P07,INI,FM,M3,126.74275576786015,%subMVIC
CTR,P07,REL,FM,M1,53.84510255474861,%subMVIC
CTR,P07,REL,FM,M2,56.523617964602764,%subMVIC
CTR,P07,REL,FM,M3,50.48870898940231,%subMVIC
CTR,P08,INI,FM,M1,44.72093019393905,%subMVIC
CTR,P08,INI,FM,M2,43.855522106670584,%subMVIC
CTR,P08,INI,FM,M3,63.35722978751238,%subMVIC
CTR,P08,REL,FM,M1,21.222677110958347,%subMVIC
CTR,P08,REL,FM,M2,21.58164751872271,%subMVIC
CTR,P08,REL,FM,M3,20.528210392331335,%subMVIC
CTR,P13,INI,FM,M1,18.547698768206242,%subMVIC
CTR,P13,INI,FM,M2,19.322152989153857,%subMVIC
CTR,P13,INI,FM,M3,21.23909417350073,%subMVIC
CTR,P13,REL,FM,M1,17.47238029955661,%subMVIC
CTR,P13,REL,FM,M2,19.933686555447665,%subMVIC
CTR,P13,REL,FM,M3,18.355749934200695,%subMVIC
CTR,P16,INI,FM,M1,13.65975283138559,%subMVIC
CTR,P16,INI,FM,M2,13.504040970776964,%subMVIC
CTR,P16,INI,FM,M3,12.882060373472953,%subMVIC
CTR,P16,REL,FM,M1,41.21922406330524,%subMVIC
CTR,P16,REL,FM,M2,37.262115732037465,%subMVIC
CTR,P16,REL,FM,M3,43.29166816094499,%subMVIC
CTR,P21,INI,FM,M1,11.637805256541355,%subMVIC
CTR,P21,INI,FM,M2,12.86187414405866,%subMVIC
CTR,P21,INI,FM,M3,12.146861690896344,%subMVIC
CTR,P21,REL,FM,M1,14.924813211314529,%subMVIC
CTR,P21,REL,FM,M2,14.978627166418338,%subMVIC
CTR,P21,REL,FM,M3,14.748263364691251,%subMVIC
CTR,P22,INI,FM,M1,10.023228240817382,%subMVIC
CTR,P22,INI,FM,M2,11.693737503964105,%subMVIC
CTR,P22,INI,FM,M3,12.151065583131258,%subMVIC
CTR,P22,REL,FM,M1,,%subMVIC
CTR,P22,REL,FM,M2,,%subMVIC
CTR,P22,REL,FM,M3,,%subMVIC
CTR,P23,INI,FM,M1,16.065815219317333,%subMVIC
CTR,P23,INI,FM,M2,16.047263696975143,%subMVIC
CTR,P23,INI,FM,M3,16.005190296832225,%subMVIC
CTR,P23,REL,FM,M1,21.09259145720918,%subMVIC
CTR,P23,REL,FM,M2,20.84537173238294,%subMVIC
CTR,P23,REL,FM,M3,21.082789494558458,%subMVIC
CTR,P25,INI,FM,M1,,%subMVIC
CTR,P25,INI,FM,M2,,%subMVIC
CTR,P25,INI,FM,M3,,%subMVIC
CTR,P25,REL,FM,M1,,%subMVIC
CTR,P25,REL,FM,M2,,%subMVIC
CTR,P25,REL,FM,M3,,%subMVIC
CTR,P35,INI,FM,M1,11.968541527997111,%subMVIC
CTR,P35,INI,FM,M2,10.886263578078012,%subMVIC
CTR,P35,INI,FM,M3,8.260476353168157,%subMVIC
CTR,P35,REL,FM,M1,9.024437484855996,%subMVIC
CTR,P35,REL,FM,M2,8.843599089464439,%subMVIC
CTR,P35,REL,FM,M3,8.83838624536496,%subMVIC
CTR,P38,INI,FM,M1,,%subMVIC
CTR,P38,INI,FM,M2,,%subMVIC
CTR,P38,INI,FM,M3,,%subMVIC
CTR,P38,REL,FM,M1,9.944205054709538,%subMVIC
CTR,P38,REL,FM,M2,11.581018049845692,%subMVIC
CTR,P38,REL,FM,M3,12.7457353611351,%subMVIC
CTR,P39,INI,FM,M1,17.59061054965338,%subMVIC
CTR,P39,INI,FM,M2,16.141849149460274,%subMVIC
CTR,P39,INI,FM,M3,16.657907618639847,%subMVIC
CTR,P39,REL,FM,M1,19.942376309996373,%subMVIC
CTR,P39,REL,FM,M2,21.541581907652635,%subMVIC
CTR,P39,REL,FM,M3,22.711779956447188,%subMVIC
CTR,P40,INI,FM,M1,6.040638966898887,%subMVIC
CTR,P40,INI,FM,M2,6.20883798901117,%subMVIC
CTR,P40,INI,FM,M3,8.35952155667107,%subMVIC
CTR,P40,REL,FM,M1,6.055884851448002,%subMVIC
CTR,P40,REL,FM,M2,6.768959120020039,%subMVIC
CTR,P40,REL,FM,M3,8.180764550947574,%subMVIC
CTR,P44,INI,FM,M1,18.405333345001008,%subMVIC
CTR,P44,INI,FM,M2,2.668894246276262,%subMVIC
CTR,P44,INI,FM,M3,2.4723631408085875,%subMVIC
CTR,P44,REL,FM,M1,11.334348420271656,%subMVIC
CTR,P44,REL,FM,M2,11.14160761347252,%subMVIC
CTR,P44,REL,FM,M3,12.437895676124208,%subMVIC
CTR,P46,INI,FM,M1,,%subMVIC
CTR,P46,INI,FM,M2,,%subMVIC
CTR,P46,INI,FM,M3,,%subMVIC
CTR,P46,REL,FM,M1,,%subMVIC
CTR,P46,REL,FM,M2,,%subMVIC
CTR,P46,REL,FM,M3,,%subMVIC
CTR,P48,INI,FM,M1,19.224491955022412,%subMVIC
CTR,P48,INI,FM,M2,18.214205194402073,%subMVIC
CTR,P48,INI,FM,M3,16.85657243452944,%subMVIC
CTR,P48,REL,FM,M1,15.617369608983134,%subMVIC
CTR,P48,REL,FM,M2,15.716050273630572,%subMVIC
CTR,P48,REL,FM,M3,12.662690813843685,%subMVIC
CTR,P49,INI,FM,M1,12.537630352408593,%subMVIC
CTR,P49,INI,FM,M2,10.443578411230934,%subMVIC
CTR,P49,INI,FM,M3,11.62481831823607,%subMVIC
CTR,P49,REL,FM,M1,15.387970708660935,%subMVIC
CTR,P49,REL,FM,M2,14.995704036335553,%subMVIC
CTR,P49,REL,FM,M3,15.125779853801303,%subMVIC
CTR,P52,INI,FM,M1,9.70626525212641,%subMVIC
CTR,P52,INI,FM,M2,9.148898267865118,%subMVIC
CTR,P52,INI,FM,M3,8.3983040311474,%subMVIC
CTR,P52,REL,FM,M1,13.412499906100463,%subMVIC
CTR,P52,REL,FM,M2,11.307755351719916,%subMVIC
CTR,P52,REL,FM,M3,10.945263622213012,%subMVIC
CTR,P55,INI,FM,M1,28.2208019387879,%subMVIC
CTR,P55,INI,FM,M2,28.8723472448854,%subMVIC
CTR,P55,INI,FM,M3,27.066421634914658,%subMVIC
CTR,P55,REL,FM,M1,23.833151201058538,%subMVIC
CTR,P55,REL,FM,M2,23.185296208179995,%subMVIC
CTR,P55,REL,FM,M3,20.391653386188143,%subMVIC
CTR,P56,INI,FM,M1,21.461436917837467,%subMVIC
CTR,P56,INI,FM,M2,83.41514696116373,%subMVIC
CTR,P56,INI,FM,M3,36.407957466783785,%subMVIC
CTR,P56,REL,FM,M1,9.321478290755193,%subMVIC
CTR,P56,REL,FM,M2,8.565941163576587,%subMVIC
CTR,P56,REL,FM,M3,9.711176407573541,%subMVIC
CTR,P57,INI,FM,M1,85.35486123358181,%subMVIC
CTR,P57,INI,FM,M2,94.20479330933763,%subMVIC
CTR,P57,INI,FM,M3,78.36142214855373,%subMVIC
CTR,P57,REL,FM,M1,31.303296826240274,%subMVIC
CTR,P57,REL,FM,M2,36.39461635932942,%subMVIC
CTR,P57,REL,FM,M3,37.58804548490372,%subMVIC
CTR,P60,INI,FM,M1,7.25025160710134,%subMVIC
CTR,P60,INI,FM,M2,5.451871246344866,%subMVIC
CTR,P60,INI,FM,M3,5.582730096985778,%subMVIC
CTR,P60,REL,FM,M1,6.271911682359771,%subMVIC
CTR,P60,REL,FM,M2,7.01871491614795,%subMVIC
CTR,P60,REL,FM,M3,6.615719482730433,%subMVIC
CTR,P64,INI,FM,M1,7.628202825308319,%subMVIC
CTR,P64,INI,FM,M2,8.171759056114936,%subMVIC
CTR,P64,INI,FM,M3,7.074990726501738,%subMVIC
CTR,P64,REL,FM,M1,7.575548286437784,%subMVIC
CTR,P64,REL,FM,M2,7.761007778616363,%subMVIC
CTR,P64,REL,FM,M3,7.020339553388588,%subMVIC
CTR,P66,INI,FM,M1,57.43306810938226,%subMVIC
CTR,P66,INI,FM,M2,41.57181687736895,%subMVIC
CTR,P66,INI,FM,M3,31.62333007996023,%subMVIC
CTR,P66,REL,FM,M1,10.841791499417386,%subMVIC
CTR,P66,REL,FM,M2,11.477177636647559,%subMVIC
CTR,P66,REL,FM,M3,10.788926382127688,%subMVIC
CTR,P67,INI,FM,M1,16.591607711831532,%subMVIC
CTR,P67,INI,FM,M2,17.637073908290454,%subMVIC
CTR,P67,INI,FM,M3,20.099066130102354,%subMVIC
CTR,P67,REL,FM,M1,8.963100543121891,%subMVIC
CTR,P67,REL,FM,M2,12.739318169593442,%subMVIC
CTR,P67,REL,FM,M3,16.115234203849795,%subMVIC
CTR,P68,INI,FM,M1,21.678942153442392,%subMVIC
CTR,P68,INI,FM,M2,21.71284556431358,%subMVIC
CTR,P68,INI,FM,M3,21.549692317476687,%subMVIC
CTR,P68,REL,FM,M1,18.65230520914652,%subMVIC
CTR,P68,REL,FM,M2,17.231013131378614,%subMVIC
CTR,P68,REL,FM,M3,15.794701958123033,%subMVIC
