Group,Participant,Session,Operator,Measure,Value,Unit
CTR,P01,INI,FM,M1,79.51460961200702,Hz
CTR,P01,INI,FM,M2,81.44044321329639,Hz
CTR,P01,INI,FM,M3,77.87338660110633,Hz
CTR,P01,REL,FM,M1,52.27704531061086,Hz
CTR,P01,REL,FM,M2,58.57041936934044,Hz
CTR,P01,REL,FM,M3,58.71007998184809,Hz
CTR,P02,INI,FM,M1,84.73895582329318,Hz
CTR,P02,INI,FM,M2,81.8595541217812,Hz
CTR,P02,INI,FM,M3,82.01674013174187,Hz
CTR,P02,REL,FM,M1,78.86790218485405,Hz
CTR,P02,REL,FM,M2,85.18913493507307,Hz
CTR,P02,REL,FM,M3,89.25886742023498,Hz
CTR,P03,INI,FM,M1,65.40418315432447,Hz
CTR,P03,INI,FM,M2,65.19637462235649,Hz
CTR,P03,INI,FM,M3,72.03557312252963,Hz
CTR,P03,REL,FM,M1,65.44502617801047,Hz
CTR,P03,REL,FM,M2,71.5210355987055,Hz
CTR,P03,REL,FM,M3,72.07357859531771,Hz
CTR,P05,INI,FM,M1,114.3490449181824,Hz
CTR,P05,INI,FM,M2,107.76487663280116,Hz
CTR,P05,INI,FM,M3,108.91265597147948,Hz
CTR,P05,REL,FM,M1,110.55718475073311,Hz
CTR,P05,REL,FM,M2,116.20923248830223,Hz
CTR,P05,REL,FM,M3,112.926992632284,Hz
CTR,P06,INI,FM,M1,80.43888461807254,Hz
CTR,P06,INI,FM,M2,86.26178141189688,Hz
CTR,P06,INI,FM,M3,84.77722772277228,Hz
CTR,P06,REL,FM,M1,73.33333333333333,Hz
CTR,P06,REL,FM,M2,80.49122807017544,Hz
CTR,P06,REL,FM,M3,81.58070186071883,Hz
CTR,P07,INI,FM,M1,66.2867426514697,Hz
CTR,P07,INI,FM,M2,95.9746182827682,Hz
CTR,P07,INI,FM,M3,99.94019138755982,Hz
CTR,P07,REL,FM,M1,114.68938292125492,Hz
CTR,P07,REL,FM,M2,116.86586985391769,Hz
CTR,P07,REL,FM,M3,121.35427289414643,Hz
CTR,P08,INI,FM,M1,27.8372591006424,Hz
CTR,P08,INI,FM,M2,29.966996699669963,Hz
CTR,P08,INI,FM,M3,31.498768684496877,Hz
CTR,P08,REL,FM,M1,80.23320377568017,Hz
CTR,P08,REL,FM,M2,81.90137599578642,Hz
CTR,P08,REL,FM,M3,78.99612598955702,Hz
CTR,P13,INI,FM,M1,78.57142857142857,Hz
CTR,P13,INI,FM,M2,87.3994638069705,Hz
CTR,P13,INI,FM,M3,85.72561459159398,Hz
CTR,P13,REL,FM,M1,83.23792848003232,Hz
CTR,P13,REL,FM,M2,83.56275303643724,Hz
CTR,P13,REL,FM,M3,86.66529970610348,Hz
CTR,P16,INI,FM,M1,73.160658445926,Hz
CTR,P16,INI,FM,M2,78.09567146351175,Hz
CTR,P16,INI,FM,M3,75.682261208577,Hz
CTR,P16,REL,FM,M1,39.43269931738352,Hz
CTR,P16,REL,FM,M2,44.78035625576609,Hz
CTR,P16,REL,FM,M3,43.75641257770536,Hz
CTR,P21,INI,FM,M1,31.34339796152962,Hz
CTR,P21,INI,FM,M2,34.58235753317721,Hz
CTR,P21,INI,FM,M3,38.69568843299141,Hz
CTR,P21,REL,FM,M1,61.680176860722185,Hz
CTR,P21,REL,FM,M2,51.35975135975136,Hz
CTR,P21,REL,FM,M3,56.88949522510232,Hz
CTR,P22,INI,FM,M1,66.21538461538462,Hz
CTR,P22,INI,FM,M2,67.45885305188575,Hz
CTR,P22,INI,FM,M3,70.24178549287043,Hz
CTR,P22,REL,FM,M1,63.25829300792482,Hz
CTR,P22,REL,FM,M2,57.50134708644446,Hz
CTR,P22,REL,FM,M3,36.87038280725319,Hz
CTR,P23,INI,FM,M1,35.04510756419153,Hz
CTR,P23,INI,FM,M2,55.57633330840003,Hz
CTR,P23,INI,FM,M3,38.85957096840518,Hz
CTR,P23,REL,FM,M1,69.64788732394365,Hz
CTR,P23,REL,FM,M2,75.70259093594396,Hz
CTR,P23,REL,FM,M3,70.2381858306065,Hz
CTR,P25,INI,FM,M1,25.920952770155875,Hz
CTR,P25,INI,FM,M2,21.519886363636367,Hz
CTR,P25,INI,FM,M3,23.945610974068952,Hz
CTR,P25,REL,FM,M1,111.1187371310913,Hz
CTR,P25,REL,FM,M2,112.15686274509804,Hz
CTR,P25,REL,FM,M3,106.1941251596424,Hz
CTR,P35,INI,FM,M1,99.1304347826087,Hz
CTR,P35,INI,FM,M2,92.57849666983826,Hz
CTR,P35,INI,FM,M3,94.17293233082708,Hz
CTR,P35,REL,FM,M1,86.68002439236867,Hz
CTR,P35,REL,FM,M2,92.29979466119096,Hz
CTR,P35,REL,FM,M3,91.05547057402784,Hz
CTR,P38,INI,FM,M1,21.111031054110526,Hz
CTR,P38,INI,FM,M2,23.850350740452065,Hz
CTR,P38,INI,FM,M3,27.994428969359333,Hz
CTR,P38,REL,FM,M1,85.85643212508883,Hz
CTR,P38,REL,FM,M2,75.22267206477733,Hz
CTR,P38,REL,FM,M3,78.02768166089965,Hz
CTR,P39,INI,FM,M1,82.15447461986534,Hz
CTR,P39,INI,FM,M2,82.40335684313901,Hz
CTR,P39,INI,FM,M3,83.68723457406945,Hz
CTR,P39,REL,FM,M1,79.98303647158609,Hz
CTR,P39,REL,FM,M2,74.14015264149073,Hz
CTR,P39,REL,FM,M3,80.25594149908592,Hz
CTR,P40,INI,FM,M1,42.18944896910999,Hz
CTR,P40,INI,FM,M2,41.345291479820624,Hz
CTR,P40,INI,FM,M3,48.876089912806975,Hz
CTR,P40,REL,FM,M1,94.64763603925066,Hz
CTR,P40,REL,FM,M2,92.40422093354884,Hz
CTR,P40,REL,FM,M3,100.72587880270775,Hz
CTR,P44,INI,FM,M1,,Hz
CTR,P44,INI,FM,M2,,Hz
CTR,P44,INI,FM,M3,,Hz
CTR,P44,REL,FM,M1,,Hz
CTR,P44,REL,FM,M2,,Hz
CTR,P44,REL,FM,M3,,Hz
CTR,P46,INI,FM,M1,,Hz
CTR,P46,INI,FM,M2,,Hz
CTR,P46,INI,FM,M3,,Hz
CTR,P46,REL,FM,M1,,Hz
CTR,P46,REL,FM,M2,,Hz
CTR,P46,REL,FM,M3,,Hz
CTR,P48,INI,FM,M1,90.66666666666669,Hz
CTR,P48,INI,FM,M2,86.81980959035724,Hz
CTR,P48,INI,FM,M3,90.23957409050576,Hz
CTR,P48,REL,FM,M1,92.7621625925631,Hz
CTR,P48,REL,FM,M2,97.15170811462008,Hz
CTR,P48,REL,FM,M3,87.82755028447791,Hz
CTR,P49,INI,FM,M1,82.07883398053089,Hz
CTR,P49,INI,FM,M2,83.87096774193547,Hz
CTR,P49,INI,FM,M3,82.22950819672131,Hz
CTR,P49,REL,FM,M1,85.11218094286492,Hz
CTR,P49,REL,FM,M2,83.44278084230803,Hz
CTR,P49,REL,FM,M3,84.77717785478282,Hz
CTR,P52,INI,FM,M1,87.52553143202965,Hz
CTR,P52,INI,FM,M2,87.33097924382051,Hz
CTR,P52,INI,FM,M3,93.19899244332494,Hz
CTR,P52,REL,FM,M1,98.70444589430517,Hz
CTR,P52,REL,FM,M2,96.3991769547325,Hz
CTR,P52,REL,FM,M3,99.22239502332816,Hz
CTR,P55,INI,FM,M1,46.10894941634241,Hz
CTR,P55,INI,FM,M2,39.926402943882245,Hz
CTR,P55,INI,FM,M3,31.631722880583407,Hz
CTR,P55,REL,FM,M1,68.88273314866112,Hz
CTR,P55,REL,FM,M2,63.54733405875952,Hz
CTR,P55,REL,FM,M3,67.52537080405934,Hz
CTR,P56,INI,FM,M1,49.22050513990061,Hz
CTR,P56,INI,FM,M2,66.0741885625966,Hz
CTR,P56,INI,FM,M3,69.71014492753623,Hz
CTR,P56,REL,FM,M1,58.68625756266206,Hz
CTR,P56,REL,FM,M2,59.60784313725489,Hz
CTR,P56,REL,FM,M3,60.75822244539293,Hz
CTR,P57,INI,FM,M1,45.51724137931034,Hz
CTR,P57,INI,FM,M2,49.143399134507085,Hz
CTR,P57,INI,FM,M3,37.81228899392303,Hz
CTR,P57,REL,FM,M1,66.12410986775178,Hz
CTR,P57,REL,FM,M2,52.516556291390735,Hz
CTR,P57,REL,FM,M3,63.77906976744186,Hz
CTR,P60,INI,FM,M1,84.02725208175625,Hz
CTR,P60,INI,FM,M2,84.28949691085614,Hz
CTR,P60,INI,FM,M3,83.70353051204116,Hz
CTR,P60,REL,FM,M1,81.85255198487712,Hz
CTR,P60,REL,FM,M2,78.37173938472336,Hz
CTR,P60,REL,FM,M3,84.88672211069688,Hz
CTR,P64,INI,FM,M1,71.07972048989404,Hz
CTR,P64,INI,FM,M2,73.46461649132272,Hz
CTR,P64,INI,FM,M3,73.46053772766696,Hz
CTR,P64,REL,FM,M1,74.10071942446042,Hz
CTR,P64,REL,FM,M2,73.2420091324201,Hz
CTR,P64,REL,FM,M3,69.9622641509434,Hz
CTR,P66,INI,FM,M1,47.62138543865679,Hz
CTR,P66,INI,FM,M2,23.575273807313906,Hz
CTR,P66,INI,FM,M3,26.78794542455895,Hz
CTR,P66,REL,FM,M1,45.40459251547226,Hz
CTR,P66,REL,FM,M2,65.33736870215418,Hz
CTR,P66,REL,FM,M3,61.94891632060982,Hz
CTR,P67,INI,FM,M1,82.23880597014924,Hz
CTR,P67,INI,FM,M2,77.07762557077625,Hz
CTR,P67,INI,FM,M3,86.11783696529459,Hz
CTR,P67,REL,FM,M1,87.84213876511775,Hz
CTR,P67,REL,FM,M2,78.66666666666667,Hz
CTR,P67,REL,FM,M3,76.1708697889861,Hz
CTR,P68,INI,FM,M1,93.7179574817144,Hz
CTR,P68,INI,FM,M2,93.93916747627232,Hz
CTR,P68,INI,FM,M3,92.16050657306076,Hz
CTR,P68,REL,FM,M1,105.31039640987284,Hz
CTR,P68,REL,FM,M2,98.07409699125996,Hz
CTR,P68,REL,FM,M3,102.68350434096293,Hz
