Group,Participant,Session,Operator,Measure,Value,Unit
CTR,P01,INI,FM,M1,3.926,s
CTR,P01,INI,FM,M2,7.059,s
CTR,P01,INI,FM,M3,6.088,s
CTR,P01,REL,FM,M1,29.153,s
CTR,P01,REL,FM,M2,,s
CTR,P01,REL,FM,M3,,s
CTR,P02,INI,FM,M1,0.5196666666666667,s
CTR,P02,INI,FM,M2,1.6769999999999998,s
CTR,P02,INI,FM,M3,2.844,s
CTR,P02,REL,FM,M1,0.38266666666666665,s
CTR,P02,REL,FM,M2,0.2806666666666667,s
CTR,P02,REL,FM,M3,0.282,s
CTR,P03,INI,FM,M1,1.66,s
CTR,P03,INI,FM,M2,25.431,s
CTR,P03,INI,FM,M3,,s
CTR,P03,REL,FM,M1,3.451,s
CTR,P03,REL,FM,M2,0.8300000000000001,s
CTR,P03,REL,FM,M3,0.7475,s
CTR,P05,INI,FM,M1,0.36600000000000005,s
CTR,P05,INI,FM,M2,0.3980000000000001,s
CTR,P05,INI,FM,M3,0.5556666666666666,s
CTR,P05,REL,FM,M1,0.4583333333333333,s
CTR,P05,REL,FM,M2,0.4023333333333334,s
CTR,P05,REL,FM,M3,0.8586666666666666,s
CTR,P06,INI,FM,M1,0.8146666666666667,s
CTR,P06,INI,FM,M2,0.5513333333333333,s
CTR,P06,INI,FM,M3,0.6113333333333334,s
CTR,P06,REL,FM,M1,0.42400000000000004,s
CTR,P06,REL,FM,M2,0.8505,s
CTR,P06,REL,FM,M3,0.9790000000000001,s
CTR,P07,INI,FM,M1,1.2525,s
CTR,P07,INI,FM,M2,7.762,s
CTR,P07,INI,FM,M3,6.939,s
CTR,P07,REL,FM,M1,2.355,s
CTR,P07,REL,FM,M2,8.704,s
CTR,P07,REL,FM,M3,9.51,s
CTR,P08,INI,FM,M1,0.8373333333333334,s
CTR,P08,INI,FM,M2,0.5683333333333334,s
CTR,P08,INI,FM,M3,0.6003333333333334,s
CTR,P08,REL,FM,M1,0.6753333333333332,s
CTR,P08,REL,FM,M2,0.631,s
CTR,P08,REL,FM,M3,0.6509999999999999,s
CTR,P13,INI,FM,M1,0.6293333333333333,s
CTR,P13,INI,FM,M2,0.7473333333333333,s
CTR,P13,INI,FM,M3,0.6523333333333333,s
CTR,P13,REL,FM,M1,0.456,s
CTR,P13,REL,FM,M2,0.36599999999999994,s
CTR,P13,REL,FM,M3,0.5213333333333333,s
CTR,P16,INI,FM,M1,2.255333333333333,s
CTR,P16,INI,FM,M2,1.021,s
CTR,P16,INI,FM,M3,1.1933333333333334,s
CTR,P16,REL,FM,M1,0.6366666666666667,s
CTR,P16,REL,FM,M2,1.5173333333333332,s
CTR,P16,REL,FM,M3,0.5479999999999999,s
CTR,P21,INI,FM,M1,0.39199999999999996,s
CTR,P21,INI,FM,M2,0.30466666666666664,s
CTR,P21,INI,FM,M3,0.49799999999999994,s
CTR,P21,REL,FM,M1,0.7326666666666667,s
CTR,P21,REL,FM,M2,0.6596666666666666,s
CTR,P21,REL,FM,M3,0.4426666666666666,s
CTR,P22,INI,FM,M1,0.32266666666666666,s
CTR,P22,INI,FM,M2,0.387,s
CTR,P22,INI,FM,M3,0.793,s
CTR,P22,REL,FM,M1,0.35150000000000003,s
CTR,P22,REL,FM,M2,0.377,s
CTR,P22,REL,FM,M3,0.353,s
CTR,P23,INI,FM,M1,,s
CTR,P23,INI,FM,M2,,s
CTR,P23,INI,FM,M3,,s
CTR,P23,REL,FM,M1,1.059,s
CTR,P23,REL,FM,M2,0.731,s
CTR,P23,REL,FM,M3,0.3,s
CTR,P25,INI,FM,M1,25.464,s
CTR,P25,INI,FM,M2,,s
CTR,P25,INI,FM,M3,,s
CTR,P25,REL,FM,M1,0.48666666666666664,s
CTR,P25,REL,FM,M2,0.9926666666666666,s
CTR,P25,REL,FM,M3,0.84,s
CTR,P35,INI,FM,M1,0.5456666666666666,s
CTR,P35,INI,FM,M2,0.771,s
CTR,P35,INI,FM,M3,0.793,s
CTR,P35,REL,FM,M1,2.73,s
CTR,P35,REL,FM,M2,4.364,s
CTR,P35,REL,FM,M3,1.8135000000000001,s
CTR,P38,INI,FM,M1,0.7486666666666668,s
CTR,P38,INI,FM,M2,0.7033333333333333,s
CTR,P38,INI,FM,M3,1.9083333333333334,s
CTR,P38,REL,FM,M1,0.27999999999999997,s
CTR,P38,REL,FM,M2,0.3395,s
CTR,P38,REL,FM,M3,0.35,s
CTR,P40,INI,FM,M1,0.653,s
CTR,P40,INI,FM,M2,0.603,s
CTR,P40,INI,FM,M3,0.443,s
CTR,P40,REL,FM,M1,1.475666666666667,s
CTR,P40,REL,FM,M2,1.3016666666666667,s
CTR,P40,REL,FM,M3,1.1043333333333334,s
CTR,P44,INI,FM,M1,0.275,s
CTR,P44,INI,FM,M2,1.112,s
CTR,P44,INI,FM,M3,1.519,s
CTR,P44,REL,FM,M1,1.616,s
CTR,P44,REL,FM,M2,0.627,s
CTR,P44,REL,FM,M3,0.253,s
CTR,P46,INI,FM,M1,1.0936666666666668,s
CTR,P46,INI,FM,M2,0.8236666666666667,s
CTR,P46,INI,FM,M3,0.902,s
CTR,P46,REL,FM,M1,,s
CTR,P46,REL,FM,M2,,s
CTR,P46,REL,FM,M3,,s
CTR,P48,REL,FM,M1,,s
CTR,P48,REL,FM,M2,,s
CTR,P48,REL,FM,M3,,s
CTR,P49,INI,FM,M1,0.7505,s
CTR,P49,INI,FM,M2,3.3025,s
CTR,P49,INI,FM,M3,1.3565,s
CTR,P49,REL,FM,M1,2.871,s
CTR,P49,REL,FM,M2,0.5429999999999999,s
CTR,P49,REL,FM,M3,4.131,s
CTR,P52,INI,FM,M1,1.0623333333333334,s
CTR,P52,INI,FM,M2,0.8729999999999999,s
CTR,P52,INI,FM,M3,0.5413333333333333,s
CTR,P52,REL,FM,M1,0.5083333333333333,s
CTR,P52,REL,FM,M2,0.39299999999999996,s
CTR,P52,REL,FM,M3,0.395,s
CTR,P55,INI,FM,M1,1.15,s
CTR,P55,INI,FM,M2,0.981,s
CTR,P55,INI,FM,M3,0.864,s
CTR,P55,REL,FM,M1,0.5419999999999999,s
CTR,P55,REL,FM,M2,0.6136666666666667,s
CTR,P55,REL,FM,M3,0.766,s
CTR,P56,INI,FM,M1,0.8756666666666666,s
CTR,P56,INI,FM,M2,0.995,s
CTR,P56,INI,FM,M3,0.8693333333333332,s
CTR,P56,REL,FM,M1,0.227,s
CTR,P56,REL,FM,M2,,s
CTR,P56,REL,FM,M3,,s
CTR,P57,INI,FM,M1,0.349,s
CTR,P57,INI,FM,M2,0.448,s
CTR,P57,INI,FM,M3,0.652,s
CTR,P57,REL,FM,M1,0.204,s
CTR,P57,REL,FM,M2,0.215,s
CTR,P57,REL,FM,M3,0.282,s
CTR,P60,INI,FM,M1,,s
CTR,P60,INI,FM,M2,,s
CTR,P60,INI,FM,M3,,s
CTR,P60,REL,FM,M1,0.28,s
CTR,P60,REL,FM,M2,,s
CTR,P60,REL,FM,M3,,s
CTR,P64,INI,FM,M1,0.608,s
CTR,P64,INI,FM,M2,0.297,s
CTR,P64,INI,FM,M3,0.227,s
CTR,P64,REL,FM,M1,0.351,s
CTR,P64,REL,FM,M2,0.313,s
CTR,P64,REL,FM,M3,0.244,s
CTR,P66,INI,FM,M1,0.39266666666666666,s
CTR,P66,INI,FM,M2,0.40166666666666667,s
CTR,P66,INI,FM,M3,0.6,s
CTR,P66,REL,FM,M1,0.472,s
CTR,P66,REL,FM,M2,0.4303333333333333,s
CTR,P66,REL,FM,M3,0.49899999999999994,s
CTR,P67,INI,FM,M1,0.383,s
CTR,P67,INI,FM,M2,0.574,s
CTR,P67,INI,FM,M3,0.513,s
CTR,P67,REL,FM,M1,1.139,s
CTR,P67,REL,FM,M2,21.72,s
CTR,P67,REL,FM,M3,,s
CTR,P68,INI,FM,M1,2.2075000000000005,s
CTR,P68,INI,FM,M2,0.6012500000000001,s
CTR,P68,INI,FM,M3,0.846,s
CTR,P68,REL,FM,M1,1.3155000000000001,s
CTR,P68,REL,FM,M2,2.2865,s
CTR,P68,REL,FM,M3,3.041,s
