Group,Participant,Session,Operator,Measure,Value,Unit
PAT,P09,INI,FM,M1,0.0081317237576193,V
PAT,P09,INI,FM,M2,0.00791174058674005,V
PAT,P09,INI,FM,M3,0.006621463305914617,V
PAT,P09,REL,FM,M1,0.010031942336592837,V
PAT,P09,REL,FM,M2,0.008468077916520326,V
PAT,P09,REL,FM,M3,0.009424834599518712,V
PAT,P11,INI,FM,M1,0.0055826491188488,V
PAT,P11,INI,FM,M2,0.005566837933237634,V
PAT,P11,INI,FM,M3,0.005425839612344317,V
PAT,P11,REL,FM,M1,0.006477095676234785,V
PAT,P11,REL,FM,M2,0.007529028689066134,V
PAT,P11,REL,FM,M3,0.0074979688832697506,V
PAT,P17,INI,FM,M1,0.00900765274013822,V
PAT,P17,INI,FM,M2,0.009373918312662492,V
PAT,P17,INI,FM,M3,0.008459621498362671,V
PAT,P17,REL,FM,M1,0.010856509760466513,V
PAT,P17,REL,FM,M2,0.009755838356880512,V
PAT,P17,REL,FM,M3,0.008889517471357564,V
PAT,P24,INI,FM,M1,0.0199268473734482,V
PAT,P24,INI,FM,M2,0.018509578978170065,V
PAT,P24,INI,FM,M3,0.017601672429663526,V
PAT,P24,REL,FM,M1,0.033520201133895214,V
PAT,P24,REL,FM,M2,0.0284126012696862,V
PAT,P24,REL,FM,M3,0.026086302950099338,V
PAT,P27,INI,FM,M1,0.0079799003918963,V
PAT,P27,INI,FM,M2,0.007160402300734622,V
PAT,P27,INI,FM,M3,0.0074653310980536776,V
PAT,P27,REL,FM,M1,0.007141593109982243,V
PAT,P27,REL,FM,M2,0.006508728460514615,V
PAT,P27,REL,FM,M3,0.006642074879424156,V
PAT,P33,INI,FM,M1,0.006026005853229117,V
PAT,P33,INI,FM,M2,0.005878642556829784,V
PAT,P33,INI,FM,M3,0.006484266503971982,V
PAT,P33,REL,FM,M1,0.0038580458451957502,V
PAT,P33,REL,FM,M2,0.004448820823145438,V
PAT,P33,REL,FM,M3,0.004623586359907551,V
PAT,P34,INI,FM,M1,0.004605942237089562,V
PAT,P34,INI,FM,M2,0.004319574488411038,V
PAT,P34,INI,FM,M3,0.005006478101767537,V
PAT,P34,REL,FM,M1,0.0041871115540799714,V
PAT,P34,REL,FM,M2,0.0042448376276814715,V
PAT,P34,REL,FM,M3,0.0037878272502276,V
PAT,P36,INI,FM,M1,0.011507380178432088,V
PAT,P36,INI,FM,M2,0.01206962207007975,V
PAT,P36,INI,FM,M3,0.011781844233961437,V
PAT,P36,REL,FM,M1,0.015295526694315833,V
PAT,P36,REL,FM,M2,0.017521857213061633,V
PAT,P36,REL,FM,M3,0.017082504358191017,V
PAT,P43,INI,FM,M1,0.008770831817727975,V
PAT,P43,INI,FM,M2,0.010228833881856837,V
PAT,P43,INI,FM,M3,0.01187013482166055,V
PAT,P43,REL,FM,M1,0.0170842798151386,V
PAT,P43,REL,FM,M2,0.015825428341022085,V
PAT,P43,REL,FM,M3,0.015476514686372645,V
PAT,P47,INI,FM,M1,0.00398861849688054,V
PAT,P47,INI,FM,M2,0.00431101292116272,V
PAT,P47,INI,FM,M3,0.00520801443595948,V
PAT,P47,REL,FM,M1,0.0073759603903209,V
PAT,P47,REL,FM,M2,0.007852551222197237,V
PAT,P47,REL,FM,M3,0.006474380583524513,V
PAT,P51,INI,FM,M1,0.003494876758106716,V
PAT,P51,INI,FM,M2,0.0034912322721227,V
PAT,P51,INI,FM,M3,0.0030617061908021666,V
PAT,P51,REL,FM,M1,0.005640118025647684,V
PAT,P51,REL,FM,M2,0.008159029503028934,V
PAT,P51,REL,FM,M3,0.006319902299914249,V
PAT,P58,INI,FM,M1,0.00437975289486556,V
PAT,P58,INI,FM,M2,0.00612148681962584,V
PAT,P58,INI,FM,M3,0.00720910871319754,V
PAT,P58,REL,FM,M1,0.03713272931926695,V
PAT,P58,REL,FM,M2,0.057845180491988224,V
PAT,P58,REL,FM,M3,0.07330199328110845,V
PAT,P61,INI,FM,M1,0.01116992616559805,V
PAT,P61,INI,FM,M2,0.012111801727569513,V
PAT,P61,INI,FM,M3,0.01260792895856035,V
PAT,P61,REL,FM,M1,0.016123276761065033,V
PAT,P61,REL,FM,M2,0.017502453798382802,V
PAT,P61,REL,FM,M3,0.019367874547745717,V
PAT,P62,INI,FM,M1,0.019199426224312012,V
PAT,P62,INI,FM,M2,0.027992826186345913,V
PAT,P62,INI,FM,M3,0.028625651215443543,V
PAT,P62,REL,FM,M1,0.0114446816219751,V
PAT,P62,REL,FM,M2,0.010412612151815343,V
PAT,P62,REL,FM,M3,0.011932028595630887,V
PAT,P63,INI,FM,M1,0.04011831062677806,V
PAT,P63,INI,FM,M2,0.050485315163486325,V
PAT,P63,INI,FM,M3,0.05201772395280579,V
PAT,P63,REL,FM,M1,0.01019629366306798,V
PAT,P63,REL,FM,M2,0.011322354168166859,V
PAT,P63,REL,FM,M3,0.013179024575158039,V
PAT,P65,INI,FM,M1,0.017011845948053123,V
PAT,P65,INI,FM,M2,0.0198193477938307,V
PAT,P65,INI,FM,M3,0.018748917318258274,V
PAT,P65,REL,FM,M1,0.012729191951525366,V
PAT,P65,REL,FM,M2,0.013259120392072034,V
PAT,P65,REL,FM,M3,0.012547993504371633,V
