Group,Participant,Session,Operator,Measure,Value,Unit
PAT,P09,INI,FM,M1,120.69899626126842,Hz
PAT,P09,INI,FM,M2,117.449374128668,Hz
PAT,P09,INI,FM,M3,102.02997057426684,Hz
PAT,P09,REL,FM,M1,120.49186079157928,Hz
PAT,P09,REL,FM,M2,123.54091319916982,Hz
PAT,P09,REL,FM,M3,125.88133127097574,Hz
PAT,P11,INI,FM,M1,123.03286447880944,Hz
PAT,P11,INI,FM,M2,123.957159963252,Hz
PAT,P11,INI,FM,M3,125.53953647158768,Hz
PAT,P11,REL,FM,M1,123.53817261339852,Hz
PAT,P11,REL,FM,M2,113.6281294537646,Hz
PAT,P11,REL,FM,M3,111.41252942727976,Hz
PAT,P17,INI,FM,M1,119.42241962751562,Hz
PAT,P17,INI,FM,M2,121.61039983589444,Hz
PAT,P17,INI,FM,M3,115.05813146631432,Hz
PAT,P17,REL,FM,M1,104.62358585903738,Hz
PAT,P17,REL,FM,M2,72.94739050417617,Hz
PAT,P17,REL,FM,M3,67.18049342908085,Hz
PAT,P24,INI,FM,M1,111.21245637282328,Hz
PAT,P24,INI,FM,M2,108.72712640410688,Hz
PAT,P24,INI,FM,M3,104.56569406283812,Hz
PAT,P24,REL,FM,M1,122.43222365666954,Hz
PAT,P24,REL,FM,M2,115.673888832645,Hz
PAT,P24,REL,FM,M3,111.21097445573125,Hz
PAT,P27,INI,FM,M1,88.81195996423232,Hz
PAT,P27,INI,FM,M2,85.60297415234139,Hz
PAT,P27,INI,FM,M3,84.05107214467748,Hz
PAT,P27,REL,FM,M1,98.3276374388532,Hz
PAT,P27,REL,FM,M2,97.97691588816213,Hz
PAT,P27,REL,FM,M3,97.0711853163582,Hz
PAT,P33,INI,FM,M1,102.29004738722388,Hz
PAT,P33,INI,FM,M2,94.9174204696102,Hz
PAT,P33,INI,FM,M3,93.15939740079344,Hz
PAT,P33,REL,FM,M1,92.2162059539542,Hz
PAT,P33,REL,FM,M2,98.31601004773384,Hz
PAT,P33,REL,FM,M3,96.44162893328712,Hz
PAT,P34,INI,FM,M1,108.98351360698211,Hz
PAT,P34,INI,FM,M2,101.90419159848835,Hz
PAT,P34,INI,FM,M3,103.8264409623701,Hz
PAT,P34,REL,FM,M1,103.08523582208164,Hz
PAT,P34,REL,FM,M2,103.93635235990148,Hz
PAT,P34,REL,FM,M3,105.30755341819426,Hz
PAT,P36,INI,FM,M1,108.08758199697584,Hz
PAT,P36,INI,FM,M2,107.6654990728303,Hz
PAT,P36,INI,FM,M3,106.45792274170148,Hz
PAT,P36,REL,FM,M1,116.58895940488776,Hz
PAT,P36,REL,FM,M2,114.91012207134332,Hz
PAT,P36,REL,FM,M3,115.44560272644163,Hz
PAT,P43,INI,FM,M1,114.697191059148,Hz
PAT,P43,INI,FM,M2,103.09281641911495,Hz
PAT,P43,INI,FM,M3,108.49272170733238,Hz
PAT,P43,REL,FM,M1,108.10850931264358,Hz
PAT,P43,REL,FM,M2,110.22577722231262,Hz
PAT,P43,REL,FM,M3,106.13547452427773,Hz
PAT,P47,INI,FM,M1,79.05225082364566,Hz
PAT,P47,INI,FM,M2,85.14850342081752,Hz
PAT,P47,INI,FM,M3,81.89012594487339,Hz
PAT,P47,REL,FM,M1,98.92368184764295,Hz
PAT,P47,REL,FM,M2,95.57734440079264,Hz
PAT,P47,REL,FM,M3,98.2803898732154,Hz
PAT,P51,INI,FM,M1,78.50832357950702,Hz
PAT,P51,INI,FM,M2,78.75334667426586,Hz
PAT,P51,INI,FM,M3,81.19601814155048,Hz
PAT,P51,REL,FM,M1,81.25019328470594,Hz
PAT,P51,REL,FM,M2,83.49185554986516,Hz
PAT,P51,REL,FM,M3,83.88806872130155,Hz
PAT,P58,INI,FM,M1,45.6311999052495,Hz
PAT,P58,INI,FM,M2,48.268579063698745,Hz
PAT,P58,INI,FM,M3,50.42325286205848,Hz
PAT,P58,REL,FM,M1,73.55774804265641,Hz
PAT,P58,REL,FM,M2,64.73129773028165,Hz
PAT,P58,REL,FM,M3,58.35678211167843,Hz
PAT,P61,INI,FM,M1,83.3074930067158,Hz
PAT,P61,INI,FM,M2,85.18750671184758,Hz
PAT,P61,INI,FM,M3,82.67953055042598,Hz
PAT,P61,REL,FM,M1,80.73976236127757,Hz
PAT,P61,REL,FM,M2,81.81147409656768,Hz
PAT,P61,REL,FM,M3,83.81192696908762,Hz
PAT,P62,INI,FM,M1,98.48727353376717,Hz
PAT,P62,INI,FM,M2,98.69200317706544,Hz
PAT,P62,INI,FM,M3,95.50576535256474,Hz
PAT,P62,REL,FM,M1,97.18826392804117,Hz
PAT,P62,REL,FM,M2,96.06525191324036,Hz
PAT,P62,REL,FM,M3,94.59081145258722,Hz
PAT,P63,INI,FM,M1,91.46566170912432,Hz
PAT,P63,INI,FM,M2,91.76287396457164,Hz
PAT,P63,INI,FM,M3,86.46969963489258,Hz
PAT,P63,REL,FM,M1,100.67519264372628,Hz
PAT,P63,REL,FM,M2,100.19345612990044,Hz
PAT,P63,REL,FM,M3,104.5263640629709,Hz
PAT,P65,INI,FM,M1,94.31182266797803,Hz
PAT,P65,INI,FM,M2,100.43407506213374,Hz
PAT,P65,INI,FM,M3,98.13951184983738,Hz
PAT,P65,REL,FM,M1,96.38045939734997,Hz
PAT,P65,REL,FM,M2,94.28343226291476,Hz
PAT,P65,REL,FM,M3,95.36397184293024,Hz
