Group,Participant,Session,Operator,Measure,Value,Unit
PAT,P09,INI,FM,M1,23.89399537174296,%subMVIC
PAT,P09,INI,FM,M2,25.273891807583368,%subMVIC
PAT,P09,INI,FM,M3,26.91005526291003,%subMVIC
PAT,P09,REL,FM,M1,8.027828856590563,%subMVIC
PAT,P09,REL,FM,M2,8.511325766720153,%subMVIC
PAT,P09,REL,FM,M3,8.718894817338747,%subMVIC
PAT,P11,INI,FM,M1,3.8674299975069295,%subMVIC
PAT,P11,INI,FM,M2,3.713496091189578,%subMVIC
PAT,P11,INI,FM,M3,3.759358526558855,%subMVIC
PAT,P11,REL,FM,M1,4.029276447609328,%subMVIC
PAT,P11,REL,FM,M2,4.274925211826879,%subMVIC
PAT,P11,REL,FM,M3,3.988423057309288,%subMVIC
PAT,P17,INI,FM,M1,12.832217416304935,%subMVIC
PAT,P17,INI,FM,M2,13.21831046559316,%subMVIC
PAT,P17,INI,FM,M3,13.688696682454912,%subMVIC
PAT,P17,REL,FM,M1,9.813405469315908,%subMVIC
PAT,P17,REL,FM,M2,11.094585317299032,%subMVIC
PAT,P17,REL,FM,M3,11.272671097606333,%subMVIC
PAT,P24,INI,FM,M1,8.536933766886253,%subMVIC
PAT,P24,INI,FM,M2,8.598007448385399,%subMVIC
PAT,P24,INI,FM,M3,8.54599311845165,%subMVIC
PAT,P24,REL,FM,M1,6.000931712217506,%subMVIC
PAT,P24,REL,FM,M2,6.11389150542753,%subMVIC
PAT,P24,REL,FM,M3,6.080964454746083,%subMVIC
PAT,P27,INI,FM,M1,5.482306285115806,%subMVIC
PAT,P27,INI,FM,M2,5.342707491296292,%subMVIC
PAT,P27,INI,FM,M3,5.809236250964281,%subMVIC
PAT,P27,REL,FM,M1,7.32826721492886,%subMVIC
PAT,P27,REL,FM,M2,6.421515958329579,%subMVIC
PAT,P27,REL,FM,M3,6.010272922089582,%subMVIC
PAT,P33,INI,FM,M1,24.175769548026786,%subMVIC
PAT,P33,INI,FM,M2,24.79940823249935,%subMVIC
PAT,P33,INI,FM,M3,26.06904092480558,%subMVIC
PAT,P33,REL,FM,M1,29.97979971175564,%subMVIC
PAT,P33,REL,FM,M2,32.8023529709365,%subMVIC
PAT,P33,REL,FM,M3,32.84683307870057,%subMVIC
PAT,P34,INI,FM,M1,10.557731153571538,%subMVIC
PAT,P34,INI,FM,M2,10.485480590963824,%subMVIC
PAT,P34,INI,FM,M3,10.733327306777232,%subMVIC
PAT,P34,REL,FM,M1,7.579527334172739,%subMVIC
PAT,P34,REL,FM,M2,7.481952962180046,%subMVIC
PAT,P34,REL,FM,M3,7.404059959288355,%subMVIC
PAT,P36,INI,FM,M1,2.787101978795719,%subMVIC
PAT,P36,INI,FM,M2,2.7597148553105977,%subMVIC
PAT,P36,INI,FM,M3,2.799392148301449,%subMVIC
PAT,P36,REL,FM,M1,2.7738959156933296,%subMVIC
PAT,P36,REL,FM,M2,2.774858435340012,%subMVIC
PAT,P36,REL,FM,M3,2.796953872728243,%subMVIC
PAT,P43,INI,FM,M1,2.7822170147069456,%subMVIC
PAT,P43,INI,FM,M2,2.721244352684247,%subMVIC
PAT,P43,INI,FM,M3,2.7439144738879877,%subMVIC
PAT,P43,REL,FM,M1,4.50548520662022,%subMVIC
PAT,P43,REL,FM,M2,4.416699578219278,%subMVIC
PAT,P43,REL,FM,M3,4.380003971063158,%subMVIC
PAT,P47,INI,FM,M1,2.463306265685941,%subMVIC
PAT,P47,INI,FM,M2,2.300214858152331,%subMVIC
PAT,P47,INI,FM,M3,2.4617772836772778,%subMVIC
PAT,P47,REL,FM,M1,2.918309183926443,%subMVIC
PAT,P47,REL,FM,M2,2.5721678360072997,%subMVIC
PAT,P47,REL,FM,M3,2.5252771521719835,%subMVIC
PAT,P51,INI,FM,M1,9.20653056562354,%subMVIC
PAT,P51,INI,FM,M2,9.275141057555384,%subMVIC
PAT,P51,INI,FM,M3,9.702178748074145,%subMVIC
PAT,P51,REL,FM,M1,10.10761788156198,%subMVIC
PAT,P51,REL,FM,M2,10.331492143748896,%subMVIC
PAT,P51,REL,FM,M3,10.278843323787283,%subMVIC
PAT,P58,INI,FM,M1,8.653384813936299,%subMVIC
PAT,P58,INI,FM,M2,8.525404186463634,%subMVIC
PAT,P58,INI,FM,M3,8.600398296898607,%subMVIC
PAT,P58,REL,FM,M1,35.80906420685273,%subMVIC
PAT,P58,REL,FM,M2,22.104080773905373,%subMVIC
PAT,P58,REL,FM,M3,18.77376431048861,%subMVIC
PAT,P61,REL,FM,M1,13.274182098357745,%subMVIC
PAT,P61,REL,FM,M2,13.141308828523748,%subMVIC
PAT,P61,REL,FM,M3,15.455639421467042,%subMVIC
PAT,P62,INI,FM,M1,11.879971483479734,%subMVIC
PAT,P62,INI,FM,M2,12.385693736349564,%subMVIC
PAT,P62,INI,FM,M3,11.347700631020048,%subMVIC
PAT,P62,REL,FM,M1,11.084314701892527,%subMVIC
PAT,P62,REL,FM,M2,11.207965296379696,%subMVIC
PAT,P62,REL,FM,M3,11.713150509538089,%subMVIC
PAT,P63,INI,FM,M1,16.41927416677979,%subMVIC
PAT,P63,INI,FM,M2,12.384327179493969,%subMVIC
PAT,P63,INI,FM,M3,10.77793893191629,%subMVIC
PAT,P63,REL,FM,M1,8.849929536386766,%subMVIC
PAT,P63,REL,FM,M2,7.364323889370607,%subMVIC
PAT,P63,REL,FM,M3,6.471096802098388,%subMVIC
PAT,P65,INI,FM,M1,9.199735511882706,%subMVIC
PAT,P65,INI,FM,M2,9.038225920664182,%subMVIC
PAT,P65,INI,FM,M3,8.907289935221435,%subMVIC
PAT,P65,REL,FM,M1,14.142715449227278,%subMVIC
PAT,P65,REL,FM,M2,12.852232452485326,%subMVIC
PAT,P65,REL,FM,M3,13.377648122927727,%subMVIC
