Group,Participant,Session,Operator,Measure,Value,Unit
PAT,P09,INI,FM,M1,11.832696970902388,%SubMVIC
PAT,P09,INI,FM,M2,10.851554407002448,%SubMVIC
PAT,P09,INI,FM,M3,8.535044913299588,%SubMVIC
PAT,P09,REL,FM,M1,10.73641226233554,%SubMVIC
PAT,P09,REL,FM,M2,10.871622002239487,%SubMVIC
PAT,P09,REL,FM,M3,9.100273779146098,%SubMVIC
PAT,P11,INI,FM,M1,7.217374092947384,%SubMVIC
PAT,P11,INI,FM,M2,8.339075127068497,%SubMVIC
PAT,P11,INI,FM,M3,7.608137428699576,%SubMVIC
PAT,P11,REL,FM,M1,4.489883893665544,%SubMVIC
PAT,P11,REL,FM,M2,3.841847417303436,%SubMVIC
PAT,P11,REL,FM,M3,3.4990723358218405,%SubMVIC
PAT,P17,INI,FM,M1,7.881048372822248,%SubMVIC
PAT,P17,INI,FM,M2,8.443070782106533,%SubMVIC
PAT,P17,INI,FM,M3,7.76070281918776,%SubMVIC
PAT,P17,REL,FM,M1,3.0047404716573096,%SubMVIC
PAT,P17,REL,FM,M2,3.530218214403878,%SubMVIC
PAT,P17,REL,FM,M3,3.088236618516247,%SubMVIC
PAT,P24,INI,FM,M1,10.309451366161584,%SubMVIC
PAT,P24,INI,FM,M2,11.500869494790614,%SubMVIC
PAT,P24,INI,FM,M3,10.324487960309815,%SubMVIC
PAT,P24,REL,FM,M1,10.425373321816515,%SubMVIC
PAT,P24,REL,FM,M2,10.76487342631238,%SubMVIC
PAT,P24,REL,FM,M3,8.496045063103352,%SubMVIC
PAT,P27,INI,FM,M1,12.703727233404218,%SubMVIC
PAT,P27,INI,FM,M2,12.038101844064256,%SubMVIC
PAT,P27,INI,FM,M3,9.73540704902664,%SubMVIC
PAT,P27,REL,FM,M1,12.783914984868025,%SubMVIC
PAT,P27,REL,FM,M2,11.932887584657172,%SubMVIC
PAT,P27,REL,FM,M3,11.350241384731293,%SubMVIC
PAT,P33,INI,FM,M1,9.323950558415405,%SubMVIC
PAT,P33,INI,FM,M2,9.970884538017664,%SubMVIC
PAT,P33,INI,FM,M3,9.169747920168474,%SubMVIC
PAT,P33,REL,FM,M1,9.817230850984412,%SubMVIC
PAT,P33,REL,FM,M2,10.288770815582062,%SubMVIC
PAT,P33,REL,FM,M3,11.013469779779818,%SubMVIC
PAT,P34,INI,FM,M1,8.886755336860116,%SubMVIC
PAT,P34,INI,FM,M2,9.394323179211796,%SubMVIC
PAT,P34,INI,FM,M3,8.075356554913315,%SubMVIC
PAT,P34,REL,FM,M1,7.658570606685586,%SubMVIC
PAT,P34,REL,FM,M2,7.999667194834778,%SubMVIC
PAT,P34,REL,FM,M3,7.677351945583095,%SubMVIC
PAT,P36,INI,FM,M1,10.807629056534976,%SubMVIC
PAT,P36,INI,FM,M2,11.662124615840469,%SubMVIC
PAT,P36,INI,FM,M3,10.730682077932324,%SubMVIC
PAT,P36,REL,FM,M1,10.46995197419571,%SubMVIC
PAT,P36,REL,FM,M2,11.201007904563038,%SubMVIC
PAT,P36,REL,FM,M3,10.59190811624404,%SubMVIC
PAT,P43,INI,FM,M1,4.833482187514247,%SubMVIC
PAT,P43,INI,FM,M2,3.7208552148345255,%SubMVIC
PAT,P43,INI,FM,M3,2.6890701620087727,%SubMVIC
PAT,P43,REL,FM,M1,4.843528012053865,%SubMVIC
PAT,P43,REL,FM,M2,3.959003358914329,%SubMVIC
PAT,P43,REL,FM,M3,3.346345777677945,%SubMVIC
PAT,P47,INI,FM,M1,2.099198579268012,%SubMVIC
PAT,P47,INI,FM,M2,1.858285909776092,%SubMVIC
PAT,P47,INI,FM,M3,1.6299436332863435,%SubMVIC
PAT,P47,REL,FM,M1,7.604841615103764,%SubMVIC
PAT,P47,REL,FM,M2,7.706409608902067,%SubMVIC
PAT,P47,REL,FM,M3,7.057172665779743,%SubMVIC
PAT,P51,INI,FM,M1,10.022632403782936,%SubMVIC
PAT,P51,INI,FM,M2,10.41673771365552,%SubMVIC
PAT,P51,INI,FM,M3,8.861248960483056,%SubMVIC
PAT,P51,REL,FM,M1,11.448487486364746,%SubMVIC
PAT,P51,REL,FM,M2,11.451074656985668,%SubMVIC
PAT,P51,REL,FM,M3,12.052990718196972,%SubMVIC
PAT,P58,INI,FM,M1,1.165218174289483,%SubMVIC
PAT,P58,INI,FM,M2,1.1029602671887329,%SubMVIC
PAT,P58,INI,FM,M3,1.0022189575019815,%SubMVIC
PAT,P58,REL,FM,M1,5.581553788702466,%SubMVIC
PAT,P58,REL,FM,M2,6.283670219932825,%SubMVIC
PAT,P58,REL,FM,M3,6.256311781432551,%SubMVIC
PAT,P61,INI,FM,M1,9.53181272764096,%SubMVIC
PAT,P61,INI,FM,M2,9.953809189321705,%SubMVIC
PAT,P61,INI,FM,M3,9.109835081546132,%SubMVIC
PAT,P61,REL,FM,M1,7.2288284488566,%SubMVIC
PAT,P61,REL,FM,M2,6.990643427312837,%SubMVIC
PAT,P61,REL,FM,M3,6.534633779591218,%SubMVIC
PAT,P62,INI,FM,M1,8.105134282210583,%SubMVIC
PAT,P62,INI,FM,M2,8.452637742977117,%SubMVIC
PAT,P62,INI,FM,M3,7.387352540133698,%SubMVIC
PAT,P62,REL,FM,M1,7.324786080638104,%SubMVIC
PAT,P62,REL,FM,M2,7.085832218289137,%SubMVIC
PAT,P62,REL,FM,M3,5.5324244991061535,%SubMVIC
PAT,P63,INI,FM,M1,5.93629391634811,%SubMVIC
PAT,P63,INI,FM,M2,6.075660038464299,%SubMVIC
PAT,P63,INI,FM,M3,7.1044892864933535,%SubMVIC
PAT,P63,REL,FM,M1,5.401813502395992,%SubMVIC
PAT,P63,REL,FM,M2,4.886138876653033,%SubMVIC
PAT,P63,REL,FM,M3,5.607181183388738,%SubMVIC
PAT,P65,INI,FM,M1,6.770188913630763,%SubMVIC
PAT,P65,INI,FM,M2,6.095417663745051,%SubMVIC
PAT,P65,INI,FM,M3,4.394316705953201,%SubMVIC
PAT,P65,REL,FM,M1,7.591712157004305,%SubMVIC
PAT,P65,REL,FM,M2,6.388873911432859,%SubMVIC
PAT,P65,REL,FM,M3,5.757098598122154,%SubMVIC
