Group,Participant,Session,Operator,Measure,Value,Unit
PAT,P09,INI,FM,M1,119.6478220574606,Hz
PAT,P09,INI,FM,M2,119.15517030887558,Hz
PAT,P09,INI,FM,M3,121.82111400570648,Hz
PAT,P09,REL,FM,M1,129.76791120080728,Hz
PAT,P09,REL,FM,M2,140.66093693257474,Hz
PAT,P09,REL,FM,M3,142.87449884582674,Hz
PAT,P11,INI,FM,M1,118.05259417199714,Hz
PAT,P11,INI,FM,M2,126.953125,Hz
PAT,P11,INI,FM,M3,123.72047244094487,Hz
PAT,P11,REL,FM,M1,126.18328298086608,Hz
PAT,P11,REL,FM,M2,120.7318494347978,Hz
PAT,P11,REL,FM,M3,115.27173363019938,Hz
PAT,P17,INI,FM,M1,127.58514250437288,Hz
PAT,P17,INI,FM,M2,121.36838133568104,Hz
PAT,P17,INI,FM,M3,129.01078418319796,Hz
PAT,P17,REL,FM,M1,68.9419795221843,Hz
PAT,P17,REL,FM,M2,93.84594847149911,Hz
PAT,P17,REL,FM,M3,73.40254423161281,Hz
PAT,P24,INI,FM,M1,110.54131054131057,Hz
PAT,P24,INI,FM,M2,119.44444444444446,Hz
PAT,P24,INI,FM,M3,109.81366459627328,Hz
PAT,P24,REL,FM,M1,81.99283022336613,Hz
PAT,P24,REL,FM,M2,90.2621722846442,Hz
PAT,P24,REL,FM,M3,85.83157109093172,Hz
PAT,P27,INI,FM,M1,68.37686567164178,Hz
PAT,P27,INI,FM,M2,65.17558951523125,Hz
PAT,P27,INI,FM,M3,66.22889305816135,Hz
PAT,P27,REL,FM,M1,91.81338028169014,Hz
PAT,P27,REL,FM,M2,83.0574488802337,Hz
PAT,P27,REL,FM,M3,82.88699622442707,Hz
PAT,P33,INI,FM,M1,95.95426561125768,Hz
PAT,P33,INI,FM,M2,95.3235258940318,Hz
PAT,P33,INI,FM,M3,93.3420365535248,Hz
PAT,P33,REL,FM,M1,88.23144390627046,Hz
PAT,P33,REL,FM,M2,76.98986975397973,Hz
PAT,P33,REL,FM,M3,100.010461345329,Hz
PAT,P34,INI,FM,M1,62.88079089550524,Hz
PAT,P34,INI,FM,M2,57.6857435430652,Hz
PAT,P34,INI,FM,M3,55.10078338174456,Hz
PAT,P34,REL,FM,M1,111.9193689745837,Hz
PAT,P34,REL,FM,M2,97.48571428571428,Hz
PAT,P34,REL,FM,M3,90.72188536780688,Hz
PAT,P36,INI,FM,M1,132.68251273344654,Hz
PAT,P36,INI,FM,M2,124.02040054733176,Hz
PAT,P36,INI,FM,M3,117.52988047808763,Hz
PAT,P36,REL,FM,M1,133.93881453154876,Hz
PAT,P36,REL,FM,M2,138.65404125803178,Hz
PAT,P36,REL,FM,M3,112.39157372986368,Hz
PAT,P43,INI,FM,M1,92.2705314009662,Hz
PAT,P43,INI,FM,M2,103.16389263757684,Hz
PAT,P43,INI,FM,M3,108.43201597945496,Hz
PAT,P43,REL,FM,M1,99.88663559642272,Hz
PAT,P43,REL,FM,M2,93.06539285126009,Hz
PAT,P43,REL,FM,M3,86.13409896976862,Hz
PAT,P47,INI,FM,M1,90.49723138878012,Hz
PAT,P47,INI,FM,M2,88.84838819911151,Hz
PAT,P47,INI,FM,M3,81.61248888449758,Hz
PAT,P47,REL,FM,M1,107.8558225508318,Hz
PAT,P47,REL,FM,M2,95.28404293812568,Hz
PAT,P47,REL,FM,M3,96.05110336817654,Hz
PAT,P51,INI,FM,M1,89.57270165282962,Hz
PAT,P51,INI,FM,M2,92.24720233894546,Hz
PAT,P51,INI,FM,M3,83.01967953543392,Hz
PAT,P51,REL,FM,M1,88.32735323307122,Hz
PAT,P51,REL,FM,M2,85.38812785388127,Hz
PAT,P51,REL,FM,M3,84.38095238095238,Hz
PAT,P58,INI,FM,M1,23.217371703358623,Hz
PAT,P58,INI,FM,M2,21.310946076848563,Hz
PAT,P58,INI,FM,M3,19.616634906400627,Hz
PAT,P58,REL,FM,M1,30.45240442545734,Hz
PAT,P58,REL,FM,M2,32.456912819222545,Hz
PAT,P58,REL,FM,M3,35.547240411599624,Hz
PAT,P61,INI,FM,M1,60.8040657046919,Hz
PAT,P61,INI,FM,M2,72.07799320845658,Hz
PAT,P61,INI,FM,M3,58.83010848898333,Hz
PAT,P61,REL,FM,M1,67.8646934460888,Hz
PAT,P61,REL,FM,M2,70.31687381032359,Hz
PAT,P61,REL,FM,M3,76.45968489341983,Hz
PAT,P62,INI,FM,M1,115.98105673693009,Hz
PAT,P62,INI,FM,M2,111.81120403253522,Hz
PAT,P62,INI,FM,M3,106.76156583629894,Hz
PAT,P62,REL,FM,M1,103.60531309297912,Hz
PAT,P62,REL,FM,M2,101.6489988221437,Hz
PAT,P62,REL,FM,M3,99.47916666666669,Hz
PAT,P63,INI,FM,M1,98.98580121703856,Hz
PAT,P63,INI,FM,M2,81.21591831999072,Hz
PAT,P63,INI,FM,M3,76.07709750566893,Hz
PAT,P63,REL,FM,M1,114.4925593243062,Hz
PAT,P63,REL,FM,M2,107.3911193077032,Hz
PAT,P63,REL,FM,M3,110.22727272727272,Hz
PAT,P65,INI,FM,M1,83.58475807352777,Hz
PAT,P65,INI,FM,M2,96.00470035252644,Hz
PAT,P65,INI,FM,M3,87.80709736123748,Hz
PAT,P65,REL,FM,M1,106.26930461641204,Hz
PAT,P65,REL,FM,M2,88.96034297963558,Hz
PAT,P65,REL,FM,M3,81.45956607495069,Hz
