Group,Participant,Session,Operator,Measure,Value,Unit
PAT,P09,INI,FM,M1,14.362632938531135,%subMVIC
PAT,P09,INI,FM,M2,12.833675381445971,%subMVIC
PAT,P09,INI,FM,M3,12.242385394015983,%subMVIC
PAT,P09,REL,FM,M1,19.319437785598964,%subMVIC
PAT,P09,REL,FM,M2,21.268043066978755,%subMVIC
PAT,P09,REL,FM,M3,19.311143876548577,%subMVIC
PAT,P11,INI,FM,M1,12.6448727375315,%subMVIC
PAT,P11,INI,FM,M2,12.201884898945236,%subMVIC
PAT,P11,INI,FM,M3,12.738034394117653,%subMVIC
PAT,P11,REL,FM,M1,35.3611343689799,%subMVIC
PAT,P11,REL,FM,M2,36.2909236824536,%subMVIC
PAT,P11,REL,FM,M3,38.39375168620766,%subMVIC
PAT,P17,INI,FM,M1,36.48067800216866,%subMVIC
PAT,P17,INI,FM,M2,44.377444400708285,%subMVIC
PAT,P17,INI,FM,M3,50.48713835126896,%subMVIC
PAT,P17,REL,FM,M1,16.931610446959844,%subMVIC
PAT,P17,REL,FM,M2,16.874671130344495,%subMVIC
PAT,P17,REL,FM,M3,17.368174404562257,%subMVIC
PAT,P24,INI,FM,M1,96.10491972140082,%subMVIC
PAT,P24,INI,FM,M2,100.7915731483466,%subMVIC
PAT,P24,INI,FM,M3,83.37593206010763,%subMVIC
PAT,P24,REL,FM,M1,37.79622064524738,%subMVIC
PAT,P24,REL,FM,M2,37.670778219077576,%subMVIC
PAT,P24,REL,FM,M3,42.39181845862039,%subMVIC
PAT,P27,INI,FM,M1,25.647673045036242,%subMVIC
PAT,P27,INI,FM,M2,24.922749209619553,%subMVIC
PAT,P27,INI,FM,M3,25.19898859161698,%subMVIC
PAT,P27,REL,FM,M1,26.184328484133975,%subMVIC
PAT,P27,REL,FM,M2,26.058500187098716,%subMVIC
PAT,P27,REL,FM,M3,26.833432073180315,%subMVIC
PAT,P33,INI,FM,M1,22.545303159184787,%subMVIC
PAT,P33,INI,FM,M2,30.86997147410055,%subMVIC
PAT,P33,INI,FM,M3,20.694207446061544,%subMVIC
PAT,P33,REL,FM,M1,60.238280120212536,%subMVIC
PAT,P33,REL,FM,M2,79.67335437646517,%subMVIC
PAT,P33,REL,FM,M3,56.82683141886332,%subMVIC
PAT,P34,INI,FM,M1,22.43962419247179,%subMVIC
PAT,P34,INI,FM,M2,25.056457618920625,%subMVIC
PAT,P34,INI,FM,M3,22.40469713085076,%subMVIC
PAT,P34,REL,FM,M1,21.665976639435062,%subMVIC
PAT,P34,REL,FM,M2,22.12484144618299,%subMVIC
PAT,P34,REL,FM,M3,20.428968478175012,%subMVIC
PAT,P36,INI,FM,M1,32.96428128985386,%subMVIC
PAT,P36,INI,FM,M2,28.070670104172663,%subMVIC
PAT,P36,INI,FM,M3,19.576684476321432,%subMVIC
PAT,P36,REL,FM,M1,16.905010145945926,%subMVIC
PAT,P36,REL,FM,M2,15.429870360695901,%subMVIC
PAT,P36,REL,FM,M3,13.89936987609854,%subMVIC
PAT,P43,INI,FM,M1,19.456156755728173,%subMVIC
PAT,P43,INI,FM,M2,28.226594562840305,%subMVIC
PAT,P43,INI,FM,M3,31.012062852871885,%subMVIC
PAT,P43,REL,FM,M1,34.15116704729037,%subMVIC
PAT,P43,REL,FM,M2,25.952731561719496,%subMVIC
PAT,P43,REL,FM,M3,29.147205937466822,%subMVIC
PAT,P47,INI,FM,M1,28.157442710707507,%subMVIC
PAT,P47,INI,FM,M2,29.517066220336392,%subMVIC
PAT,P47,INI,FM,M3,33.27369982152362,%subMVIC
PAT,P47,REL,FM,M1,22.191818129405725,%subMVIC
PAT,P47,REL,FM,M2,23.224617369072156,%subMVIC
PAT,P47,REL,FM,M3,22.641707219689046,%subMVIC
PAT,P51,INI,FM,M1,15.15395247784223,%subMVIC
PAT,P51,INI,FM,M2,14.168781764439915,%subMVIC
PAT,P51,INI,FM,M3,14.349540284758028,%subMVIC
PAT,P51,REL,FM,M1,8.554270235776688,%subMVIC
PAT,P51,REL,FM,M2,9.860311154945794,%subMVIC
PAT,P51,REL,FM,M3,8.125310820302817,%subMVIC
PAT,P58,INI,FM,M1,28.173277413887234,%subMVIC
PAT,P58,INI,FM,M2,27.365140978236635,%subMVIC
PAT,P58,INI,FM,M3,27.440222129732977,%subMVIC
PAT,P58,REL,FM,M1,33.3502765005545,%subMVIC
PAT,P58,REL,FM,M2,31.420836282112045,%subMVIC
PAT,P58,REL,FM,M3,23.860344302648446,%subMVIC
PAT,P61,REL,FM,M1,14.038314938013864,%subMVIC
PAT,P61,REL,FM,M2,12.361499719962689,%subMVIC
PAT,P61,REL,FM,M3,13.155287784437048,%subMVIC
PAT,P62,INI,FM,M1,10.823701102391864,%subMVIC
PAT,P62,INI,FM,M2,11.01238679416129,%subMVIC
PAT,P62,INI,FM,M3,12.559439561487602,%subMVIC
PAT,P62,REL,FM,M1,20.79787407488044,%subMVIC
PAT,P62,REL,FM,M2,19.18689808050042,%subMVIC
PAT,P62,REL,FM,M3,18.556985319984722,%subMVIC
PAT,P63,INI,FM,M1,29.191338611345696,%subMVIC
PAT,P63,INI,FM,M2,45.48087369949487,%subMVIC
PAT,P63,INI,FM,M3,60.28434290932426,%subMVIC
PAT,P63,REL,FM,M1,26.81442112645966,%subMVIC
PAT,P63,REL,FM,M2,32.83025732606244,%subMVIC
PAT,P63,REL,FM,M3,33.09908428439211,%subMVIC
PAT,P65,INI,FM,M1,22.811649282869134,%subMVIC
PAT,P65,INI,FM,M2,25.40981747033688,%subMVIC
PAT,P65,INI,FM,M3,22.152311530478016,%subMVIC
PAT,P65,REL,FM,M1,21.333847433286852,%subMVIC
PAT,P65,REL,FM,M2,20.495448926383474,%subMVIC
PAT,P65,REL,FM,M3,17.81855925655951,%subMVIC
