Group,Participant,Session,Operator,Measure,Value,Unit
PAT,P09,INI,FM,M1,19.779278842648328,%MAX
PAT,P09,INI,FM,M2,25.5979734062047,%MAX
PAT,P09,INI,FM,M3,26.043649291660426,%MAX
PAT,P09,REL,FM,M1,23.11847897108298,%MAX
PAT,P09,REL,FM,M2,28.86190870659643,%MAX
PAT,P09,REL,FM,M3,24.97484373912736,%MAX
PAT,P11,INI,FM,M1,27.24609697601304,%MAX
PAT,P11,INI,FM,M2,28.524202441537287,%MAX
PAT,P11,INI,FM,M3,25.372437034524314,%MAX
PAT,P11,REL,FM,M1,19.036962446490556,%MAX
PAT,P11,REL,FM,M2,21.995698762178932,%MAX
PAT,P11,REL,FM,M3,18.257226785203077,%MAX
PAT,P17,INI,FM,M1,37.378386347134,%MAX
PAT,P17,INI,FM,M2,27.614692259855882,%MAX
PAT,P17,INI,FM,M3,36.7869553828711,%MAX
PAT,P17,REL,FM,M1,27.97945080722376,%MAX
PAT,P17,REL,FM,M2,31.460408312347386,%MAX
PAT,P17,REL,FM,M3,35.869447081248104,%MAX
PAT,P24,INI,FM,M1,17.5715154049386,%MAX
PAT,P24,INI,FM,M2,17.949423576429176,%MAX
PAT,P24,INI,FM,M3,34.47326328500152,%MAX
PAT,P24,REL,FM,M1,17.482475119772094,%MAX
PAT,P24,REL,FM,M2,21.89087201169456,%MAX
PAT,P24,REL,FM,M3,23.390611528066977,%MAX
PAT,P27,INI,FM,M1,28.81455820202215,%MAX
PAT,P27,INI,FM,M2,33.300186291804906,%MAX
PAT,P27,INI,FM,M3,35.38048844605342,%MAX
PAT,P27,REL,FM,M1,23.59969872679181,%MAX
PAT,P27,REL,FM,M2,26.915926535584585,%MAX
PAT,P27,REL,FM,M3,42.445367533099024,%MAX
PAT,P33,INI,FM,M1,11.08479530026486,%MAX
PAT,P33,INI,FM,M2,9.026711827171427,%MAX
PAT,P33,INI,FM,M3,27.85930243717944,%MAX
PAT,P33,REL,FM,M1,33.34641462312625,%MAX
PAT,P33,REL,FM,M2,41.74072355799728,%MAX
PAT,P33,REL,FM,M3,29.979988837446303,%MAX
PAT,P34,INI,FM,M1,28.127721233581816,%MAX
PAT,P34,INI,FM,M2,30.387330118716797,%MAX
PAT,P34,INI,FM,M3,48.60814563942043,%MAX
PAT,P34,REL,FM,M1,31.032192638161273,%MAX
PAT,P34,REL,FM,M2,36.760850073420045,%MAX
PAT,P34,REL,FM,M3,37.01493252907873,%MAX
PAT,P36,INI,FM,M1,12.005988247290968,%MAX
PAT,P36,INI,FM,M2,20.152687289461326,%MAX
PAT,P36,INI,FM,M3,30.488227422857207,%MAX
PAT,P36,REL,FM,M1,10.131350373871308,%MAX
PAT,P36,REL,FM,M2,10.10132600774443,%MAX
PAT,P36,REL,FM,M3,21.370083683066028,%MAX
PAT,P43,INI,FM,M1,12.852347479446259,%MAX
PAT,P43,INI,FM,M2,18.287872247152357,%MAX
PAT,P43,INI,FM,M3,29.145523679645684,%MAX
PAT,P43,REL,FM,M1,14.7723394925372,%MAX
PAT,P43,REL,FM,M2,10.761485223311892,%MAX
PAT,P43,REL,FM,M3,19.58574685103309,%MAX
PAT,P47,INI,FM,M1,19.12385703889546,%MAX
PAT,P47,INI,FM,M2,13.908881672594827,%MAX
PAT,P47,INI,FM,M3,16.37835956012263,%MAX
PAT,P47,REL,FM,M1,16.563407756497483,%MAX
PAT,P47,REL,FM,M2,18.251522935130403,%MAX
PAT,P47,REL,FM,M3,23.096180584619,%MAX
PAT,P51,INI,FM,M1,21.664951288694308,%MAX
PAT,P51,INI,FM,M2,19.98834841903033,%MAX
PAT,P51,INI,FM,M3,28.226608830294296,%MAX
PAT,P51,REL,FM,M1,41.60421328474319,%MAX
PAT,P51,REL,FM,M2,42.99899988216506,%MAX
PAT,P51,REL,FM,M3,45.01411657170464,%MAX
PAT,P58,INI,FM,M1,56.63616999674682,%MAX
PAT,P58,INI,FM,M2,57.06508959505933,%MAX
PAT,P58,INI,FM,M3,52.720356295188225,%MAX
PAT,P58,REL,FM,M1,30.794532953580216,%MAX
PAT,P58,REL,FM,M2,31.933704246891686,%MAX
PAT,P58,REL,FM,M3,33.39358024571369,%MAX
PAT,P61,INI,FM,M1,24.65773059897354,%MAX
PAT,P61,INI,FM,M2,17.005175607852514,%MAX
PAT,P61,INI,FM,M3,35.63526006929446,%MAX
PAT,P61,REL,FM,M1,25.213436993128298,%MAX
PAT,P61,REL,FM,M2,49.07814175997044,%MAX
PAT,P61,REL,FM,M3,46.51467745563419,%MAX
PAT,P62,INI,FM,M1,22.94099540625243,%MAX
PAT,P62,INI,FM,M2,20.591968000456767,%MAX
PAT,P62,INI,FM,M3,23.145611984612344,%MAX
PAT,P62,REL,FM,M1,34.22847086050246,%MAX
PAT,P62,REL,FM,M2,45.22920538895456,%MAX
PAT,P62,REL,FM,M3,40.88576141008817,%MAX
PAT,P63,INI,FM,M1,27.76247502350555,%MAX
PAT,P63,INI,FM,M2,30.07057074131188,%MAX
PAT,P63,INI,FM,M3,31.973028840499666,%MAX
PAT,P63,REL,FM,M1,24.443435765985775,%MAX
PAT,P63,REL,FM,M2,21.85213325317178,%MAX
PAT,P63,REL,FM,M3,27.684104297142333,%MAX
PAT,P65,INI,FM,M1,33.533373834969844,%MAX
PAT,P65,INI,FM,M2,27.247391212174698,%MAX
PAT,P65,INI,FM,M3,26.628799243347103,%MAX
PAT,P65,REL,FM,M1,30.135532088007835,%MAX
PAT,P65,REL,FM,M2,29.572018517046132,%MAX
PAT,P65,REL,FM,M3,62.93081071513421,%MAX
