Group,Participant,Session,Operator,Measure,Value,Unit
CTR,P01,INI,FM,M1,8.108096042191324,%subMVIC
CTR,P01,INI,FM,M2,8.994346116038104,%subMVIC
CTR,P01,INI,FM,M3,9.54696294980968,%subMVIC
CTR,P01,REL,FM,M1,9.540212614595784,%subMVIC
CTR,P01,REL,FM,M2,8.175206385132046,%subMVIC
CTR,P01,REL,FM,M3,7.593026601736278,%subMVIC
CTR,P02,INI,FM,M1,4.8484717123316265,%subMVIC
CTR,P02,INI,FM,M2,4.620658300302849,%subMVIC
CTR,P02,INI,FM,M3,4.505003443775838,%subMVIC
CTR,P02,REL,FM,M1,4.552726204829781,%subMVIC
CTR,P02,REL,FM,M2,4.718996815441544,%subMVIC
CTR,P02,REL,FM,M3,4.731401832793946,%subMVIC
CTR,P03,INI,FM,M1,10.217390941611823,%subMVIC
CTR,P03,INI,FM,M2,15.83657022443149,%subMVIC
CTR,P03,INI,FM,M3,8.655848508930028,%subMVIC
CTR,P03,REL,FM,M1,13.771956161215686,%subMVIC
CTR,P03,REL,FM,M2,14.213338490658826,%subMVIC
CTR,P03,REL,FM,M3,14.405945013634902,%subMVIC
CTR,P05,INI,FM,M1,2.4227961858120795,%subMVIC
CTR,P05,INI,FM,M2,2.4460457305658125,%subMVIC
CTR,P05,INI,FM,M3,2.4149276550406213,%subMVIC
CTR,P05,REL,FM,M1,2.144086763830607,%subMVIC
CTR,P05,REL,FM,M2,2.155808599922646,%subMVIC
CTR,P05,REL,FM,M3,2.175867422402713,%subMVIC
CTR,P06,INI,FM,M1,21.63100835609934,%subMVIC
CTR,P06,INI,FM,M2,22.395473547893296,%subMVIC
CTR,P06,INI,FM,M3,24.1418311248282,%subMVIC
CTR,P06,REL,FM,M1,24.21754384888085,%subMVIC
CTR,P06,REL,FM,M2,24.18329851495569,%subMVIC
CTR,P06,REL,FM,M3,24.015343521269426,%subMVIC
CTR,P07,INI,FM,M1,3.4913006995460822,%subMVIC
CTR,P07,INI,FM,M2,3.539259907735562,%subMVIC
CTR,P07,INI,FM,M3,3.678094881743589,%subMVIC
CTR,P07,REL,FM,M1,2.5076848286839755,%subMVIC
CTR,P07,REL,FM,M2,2.4644846631691406,%subMVIC
CTR,P07,REL,FM,M3,2.4744673379193016,%subMVIC
CTR,P08,INI,FM,M1,9.918504705179904,%subMVIC
CTR,P08,INI,FM,M2,9.77905431808605,%subMVIC
CTR,P08,INI,FM,M3,9.607855626817964,%subMVIC
CTR,P08,REL,FM,M1,7.795405082060338,%subMVIC
CTR,P08,REL,FM,M2,7.457280300680466,%subMVIC
CTR,P08,REL,FM,M3,7.164553666914215,%subMVIC
CTR,P13,INI,FM,M1,15.71394677526342,%subMVIC
CTR,P13,INI,FM,M2,15.239330791710936,%subMVIC
CTR,P13,INI,FM,M3,14.332217128569129,%subMVIC
CTR,P13,REL,FM,M1,12.370945144005946,%subMVIC
CTR,P13,REL,FM,M2,12.35985965776774,%subMVIC
CTR,P13,REL,FM,M3,12.228038655034366,%subMVIC
CTR,P16,INI,FM,M1,8.347091229851687,%subMVIC
CTR,P16,INI,FM,M2,8.27905535353081,%subMVIC
CTR,P16,INI,FM,M3,8.326142295441485,%subMVIC
CTR,P16,REL,FM,M1,11.941812293118533,%subMVIC
CTR,P16,REL,FM,M2,11.8077700414389,%subMVIC
CTR,P16,REL,FM,M3,12.01364621190495,%subMVIC
CTR,P21,INI,FM,M1,44.41948889518763,%subMVIC
CTR,P21,INI,FM,M2,45.38184575188539,%subMVIC
CTR,P21,INI,FM,M3,42.33965209692383,%subMVIC
CTR,P21,REL,FM,M1,4.238595855246855,%subMVIC
CTR,P21,REL,FM,M2,4.133644773931577,%subMVIC
CTR,P21,REL,FM,M3,4.515591620729377,%subMVIC
CTR,P22,INI,FM,M1,7.595160095550271,%subMVIC
CTR,P22,INI,FM,M2,7.782469180528571,%subMVIC
CTR,P22,INI,FM,M3,7.657392768784669,%subMVIC
CTR,P22,REL,FM,M1,11.449300115473022,%subMVIC
CTR,P22,REL,FM,M2,10.664095791037315,%subMVIC
CTR,P22,REL,FM,M3,10.535671775634375,%subMVIC
CTR,P23,INI,FM,M1,6.543919867285749,%subMVIC
CTR,P23,INI,FM,M2,6.090085439587679,%subMVIC
CTR,P23,INI,FM,M3,6.053339814862328,%subMVIC
CTR,P23,REL,FM,M1,7.024185333979226,%subMVIC
CTR,P23,REL,FM,M2,6.808316268059979,%subMVIC
CTR,P23,REL,FM,M3,6.987535123744335,%subMVIC
CTR,P25,INI,FM,M1,3.08475107040752,%subMVIC
CTR,P25,INI,FM,M2,3.073188816827284,%subMVIC
CTR,P25,INI,FM,M3,3.060355699946705,%subMVIC
CTR,P25,REL,FM,M1,3.2356107581638005,%subMVIC
CTR,P25,REL,FM,M2,3.472796781914275,%subMVIC
CTR,P25,REL,FM,M3,2.962604884788784,%subMVIC
CTR,P35,INI,FM,M1,3.4374808293134045,%subMVIC
CTR,P35,INI,FM,M2,3.428111428960233,%subMVIC
CTR,P35,INI,FM,M3,3.4022216852905545,%subMVIC
CTR,P35,REL,FM,M1,3.904294836859461,%subMVIC
CTR,P35,REL,FM,M2,3.943550480247066,%subMVIC
CTR,P35,REL,FM,M3,3.9308988693398623,%subMVIC
CTR,P38,INI,FM,M1,13.611024196431725,%subMVIC
CTR,P38,INI,FM,M2,12.74634862433054,%subMVIC
CTR,P38,INI,FM,M3,12.199245606153603,%subMVIC
CTR,P38,REL,FM,M1,8.99539191519237,%subMVIC
CTR,P38,REL,FM,M2,9.01498678714899,%subMVIC
CTR,P38,REL,FM,M3,9.278054329817946,%subMVIC
CTR,P39,INI,FM,M1,8.017244755106745,%subMVIC
CTR,P39,INI,FM,M2,7.5938773325284705,%subMVIC
CTR,P39,INI,FM,M3,7.414831984633317,%subMVIC
CTR,P39,REL,FM,M1,10.90950383579519,%subMVIC
CTR,P39,REL,FM,M2,10.946631457315016,%subMVIC
CTR,P39,REL,FM,M3,11.301785469260244,%subMVIC
CTR,P40,INI,FM,M1,2.8815791806188016,%subMVIC
CTR,P40,INI,FM,M2,2.9273252731054886,%subMVIC
CTR,P40,INI,FM,M3,3.258154608956166,%subMVIC
CTR,P40,REL,FM,M1,4.610841392916002,%subMVIC
CTR,P40,REL,FM,M2,4.896994955487169,%subMVIC
CTR,P40,REL,FM,M3,5.071912917347777,%subMVIC
CTR,P44,INI,FM,M1,9.14891053120679,%subMVIC
CTR,P44,INI,FM,M2,9.3529435576556,%subMVIC
CTR,P44,INI,FM,M3,9.245266324067275,%subMVIC
CTR,P44,REL,FM,M1,5.707817681137833,%subMVIC
CTR,P44,REL,FM,M2,5.7146874811539625,%subMVIC
CTR,P44,REL,FM,M3,5.704760270680034,%subMVIC
CTR,P46,INI,FM,M1,7.070894434288033,%subMVIC
CTR,P46,INI,FM,M2,6.945073266501377,%subMVIC
CTR,P46,INI,FM,M3,6.863123659121165,%subMVIC
CTR,P46,REL,FM,M1,5.122485199965042,%subMVIC
CTR,P46,REL,FM,M2,5.110431220148663,%subMVIC
CTR,P46,REL,FM,M3,4.982090247004022,%subMVIC
CTR,P48,INI,FM,M1,9.459559895140076,%subMVIC
CTR,P48,INI,FM,M2,8.339999794269122,%subMVIC
CTR,P48,INI,FM,M3,7.557849598168172,%subMVIC
CTR,P48,REL,FM,M1,4.639590796062805,%subMVIC
CTR,P48,REL,FM,M2,4.43476118539908,%subMVIC
CTR,P48,REL,FM,M3,4.362188970290351,%subMVIC
CTR,P49,INI,FM,M1,5.744056805736121,%subMVIC
CTR,P49,INI,FM,M2,6.789140893755316,%subMVIC
CTR,P49,INI,FM,M3,7.781163397610762,%subMVIC
CTR,P49,REL,FM,M1,14.26444333883386,%subMVIC
CTR,P49,REL,FM,M2,14.92308538171497,%subMVIC
CTR,P49,REL,FM,M3,15.601644164402046,%subMVIC
CTR,P52,INI,FM,M1,1.5759322182914688,%subMVIC
CTR,P52,INI,FM,M2,1.5797074040781662,%subMVIC
CTR,P52,INI,FM,M3,1.6007508363698717,%subMVIC
CTR,P52,REL,FM,M1,1.859170349061026,%subMVIC
CTR,P52,REL,FM,M2,1.885308175451099,%subMVIC
CTR,P52,REL,FM,M3,1.8685620954180608,%subMVIC
CTR,P55,INI,FM,M1,5.358300761584941,%subMVIC
CTR,P55,INI,FM,M2,5.312379014285994,%subMVIC
CTR,P55,INI,FM,M3,5.286642045665758,%subMVIC
CTR,P55,REL,FM,M1,5.52696773520669,%subMVIC
CTR,P55,REL,FM,M2,5.515144353946504,%subMVIC
CTR,P55,REL,FM,M3,5.556277942948166,%subMVIC
CTR,P56,INI,FM,M1,8.908065508240433,%subMVIC
CTR,P56,INI,FM,M2,9.484022167421015,%subMVIC
CTR,P56,INI,FM,M3,9.214338857698255,%subMVIC
CTR,P56,REL,FM,M1,14.705604929945212,%subMVIC
CTR,P56,REL,FM,M2,14.79777120751471,%subMVIC
CTR,P56,REL,FM,M3,14.03901771307385,%subMVIC
CTR,P57,INI,FM,M1,5.147318071253832,%subMVIC
CTR,P57,INI,FM,M2,5.595723209943387,%subMVIC
CTR,P57,INI,FM,M3,5.397838305243432,%subMVIC
CTR,P57,REL,FM,M1,7.45741739932209,%subMVIC
CTR,P57,REL,FM,M2,7.2676828328006495,%subMVIC
CTR,P57,REL,FM,M3,6.878489384417498,%subMVIC
CTR,P60,INI,FM,M1,2.902123355713489,%subMVIC
CTR,P60,INI,FM,M2,2.938131017686937,%subMVIC
CTR,P60,INI,FM,M3,3.0032155929467117,%subMVIC
CTR,P60,REL,FM,M1,3.531321516708492,%subMVIC
CTR,P60,REL,FM,M2,3.634591192532106,%subMVIC
CTR,P60,REL,FM,M3,3.677947714120466,%subMVIC
CTR,P64,INI,FM,M1,2.413803945440847,%subMVIC
CTR,P64,INI,FM,M2,2.451890964127209,%subMVIC
CTR,P64,INI,FM,M3,2.470083345620456,%subMVIC
CTR,P64,REL,FM,M1,3.0405359506964302,%subMVIC
CTR,P64,REL,FM,M2,2.963949383431024,%subMVIC
CTR,P64,REL,FM,M3,3.023068952962497,%subMVIC
CTR,P66,INI,FM,M1,6.666038254382737,%subMVIC
CTR,P66,INI,FM,M2,5.910701521205295,%subMVIC
CTR,P66,INI,FM,M3,5.161416763176399,%subMVIC
CTR,P66,REL,FM,M1,5.725720150835816,%subMVIC
CTR,P66,REL,FM,M2,5.940331124499448,%subMVIC
CTR,P66,REL,FM,M3,6.222248405293687,%subMVIC
CTR,P67,INI,FM,M1,3.7650944351756994,%subMVIC
CTR,P67,INI,FM,M2,3.859532819346933,%subMVIC
CTR,P67,INI,FM,M3,3.695209891908113,%subMVIC
CTR,P67,REL,FM,M1,3.0028806992931507,%subMVIC
CTR,P67,REL,FM,M2,2.300284713462478,%subMVIC
CTR,P67,REL,FM,M3,2.834740760371921,%subMVIC
CTR,P68,INI,FM,M1,5.996460561927245,%subMVIC
CTR,P68,INI,FM,M2,6.061617940902099,%subMVIC
CTR,P68,INI,FM,M3,6.421418883389952,%subMVIC
CTR,P68,REL,FM,M1,5.370885966692295,%subMVIC
CTR,P68,REL,FM,M2,5.310118438154483,%subMVIC
CTR,P68,REL,FM,M3,5.30051531476174,%subMVIC
