Group,Participant,Session,Operator,Measure,Value,Unit
CTR,P01,INI,FM,M1,7.80425770648574,%MAX
CTR,P01,INI,FM,M2,17.70258087525183,%MAX
CTR,P01,INI,FM,M3,17.912445861116634,%MAX
CTR,P01,REL,FM,M1,13.809144140693357,%MAX
CTR,P01,REL,FM,M2,16.237574044679352,%MAX
CTR,P01,REL,FM,M3,18.91907628369442,%MAX
CTR,P02,INI,FM,M1,7.025786398236304,%MAX
CTR,P02,INI,FM,M2,7.370098679117436,%MAX
CTR,P02,INI,FM,M3,6.372281907694295,%MAX
CTR,P02,REL,FM,M1,7.555107804199414,%MAX
CTR,P02,REL,FM,M2,6.359614915318516,%MAX
CTR,P02,REL,FM,M3,8.57669834105965,%MAX
CTR,P03,INI,FM,M1,11.894694500500202,%MAX
CTR,P03,INI,FM,M2,8.10091474893135,%MAX
CTR,P03,INI,FM,M3,8.389351613103106,%MAX
CTR,P03,REL,FM,M1,25.82742607759772,%MAX
CTR,P03,REL,FM,M2,28.13158321808092,%MAX
CTR,P03,REL,FM,M3,37.79058201232653,%MAX
CTR,P05,INI,FM,M1,11.223759629278325,%MAX
CTR,P05,INI,FM,M2,12.990788934524508,%MAX
CTR,P05,INI,FM,M3,12.502035067267641,%MAX
CTR,P05,REL,FM,M1,10.569608557340057,%MAX
CTR,P05,REL,FM,M2,13.141815839668402,%MAX
CTR,P05,REL,FM,M3,14.540247201538307,%MAX
CTR,P06,INI,FM,M1,25.89424509718365,%MAX
CTR,P06,INI,FM,M2,28.479038301273825,%MAX
CTR,P06,INI,FM,M3,27.906040507993225,%MAX
CTR,P06,REL,FM,M1,18.121380555707145,%MAX
CTR,P06,REL,FM,M2,16.23846951263034,%MAX
CTR,P06,REL,FM,M3,17.223259169763743,%MAX
CTR,P07,INI,FM,M1,28.285419805880174,%MAX
CTR,P07,INI,FM,M2,24.37406991705859,%MAX
CTR,P07,INI,FM,M3,22.993679268789545,%MAX
CTR,P07,REL,FM,M1,25.74480094811469,%MAX
CTR,P07,REL,FM,M2,21.407482901180224,%MAX
CTR,P07,REL,FM,M3,22.35324363074203,%MAX
CTR,P08,INI,FM,M1,10.321892270041193,%MAX
CTR,P08,INI,FM,M2,9.562902739014785,%MAX
CTR,P08,INI,FM,M3,9.71121114747675,%MAX
CTR,P08,REL,FM,M1,7.058538645948334,%MAX
CTR,P08,REL,FM,M2,19.615053672163565,%MAX
CTR,P08,REL,FM,M3,6.635742200825229,%MAX
CTR,P13,INI,FM,M1,24.14447488904934,%MAX
CTR,P13,INI,FM,M2,23.396162495764784,%MAX
CTR,P13,INI,FM,M3,23.078359919765155,%MAX
CTR,P13,REL,FM,M1,19.65890887081742,%MAX
CTR,P13,REL,FM,M2,16.94777043845805,%MAX
CTR,P13,REL,FM,M3,15.954474824048523,%MAX
CTR,P16,INI,FM,M1,66.04850343758775,%MAX
CTR,P16,INI,FM,M2,61.30558802381184,%MAX
CTR,P16,INI,FM,M3,62.709762808821836,%MAX
CTR,P16,REL,FM,M1,19.07757326363378,%MAX
CTR,P16,REL,FM,M2,25.36658680597294,%MAX
CTR,P16,REL,FM,M3,18.55954707336431,%MAX
CTR,P21,INI,FM,M1,78.14145572432152,%MAX
CTR,P21,INI,FM,M2,109.65914477039114,%MAX
CTR,P21,INI,FM,M3,99.7889722887545,%MAX
CTR,P21,REL,FM,M1,62.09387915302963,%MAX
CTR,P21,REL,FM,M2,51.48827158213264,%MAX
CTR,P21,REL,FM,M3,95.61644423497151,%MAX
CTR,P22,INI,FM,M1,31.48705934149385,%MAX
CTR,P22,INI,FM,M2,28.13941954973735,%MAX
CTR,P22,INI,FM,M3,32.81333675774539,%MAX
CTR,P22,REL,FM,M1,10.13445559635781,%MAX
CTR,P22,REL,FM,M2,10.123023535079875,%MAX
CTR,P22,REL,FM,M3,10.194357823221498,%MAX
CTR,P23,INI,FM,M1,62.65955276202438,%MAX
CTR,P23,INI,FM,M2,45.40993990241028,%MAX
CTR,P23,INI,FM,M3,45.455891740855186,%MAX
CTR,P23,REL,FM,M1,23.56556031489974,%MAX
CTR,P23,REL,FM,M2,84.6341705544223,%MAX
CTR,P23,REL,FM,M3,111.65805065774029,%MAX
CTR,P25,INI,FM,M1,28.41920335751783,%MAX
CTR,P25,INI,FM,M2,65.81839697165259,%MAX
CTR,P25,INI,FM,M3,67.4251041848564,%MAX
CTR,P25,REL,FM,M1,6.849874767504025,%MAX
CTR,P25,REL,FM,M2,49.08827870640291,%MAX
CTR,P25,REL,FM,M3,62.83876046646477,%MAX
CTR,P35,INI,FM,M1,38.552014464170234,%MAX
CTR,P35,INI,FM,M2,7.823931799413639,%MAX
CTR,P35,INI,FM,M3,86.57179669205202,%MAX
CTR,P35,REL,FM,M1,6.673794890037057,%MAX
CTR,P35,REL,FM,M2,8.900429665140422,%MAX
CTR,P35,REL,FM,M3,87.4076811869278,%MAX
CTR,P38,INI,FM,M1,13.158781780535373,%MAX
CTR,P38,INI,FM,M2,14.19390190929534,%MAX
CTR,P38,INI,FM,M3,18.605936416811364,%MAX
CTR,P38,REL,FM,M1,17.411816444745504,%MAX
CTR,P38,REL,FM,M2,14.902483628432794,%MAX
CTR,P38,REL,FM,M3,36.99581621596745,%MAX
CTR,P39,INI,FM,M1,16.64551788751938,%MAX
CTR,P39,INI,FM,M2,31.83454573199708,%MAX
CTR,P39,INI,FM,M3,55.426404683010674,%MAX
CTR,P39,REL,FM,M1,15.67888112880997,%MAX
CTR,P39,REL,FM,M2,18.54628740071198,%MAX
CTR,P39,REL,FM,M3,26.15701395162838,%MAX
CTR,P40,INI,FM,M1,6.202525298552126,%MAX
CTR,P40,INI,FM,M2,5.018504242622577,%MAX
CTR,P40,INI,FM,M3,30.47627471179855,%MAX
CTR,P40,REL,FM,M1,8.329522224776666,%MAX
CTR,P40,REL,FM,M2,9.472400480742609,%MAX
CTR,P40,REL,FM,M3,16.62636123712128,%MAX
CTR,P44,INI,FM,M1,14.449752355884929,%MAX
CTR,P44,INI,FM,M2,19.550460858272338,%MAX
CTR,P44,INI,FM,M3,51.30621957634958,%MAX
CTR,P44,REL,FM,M1,10.754968935831272,%MAX
CTR,P44,REL,FM,M2,11.96412582163184,%MAX
CTR,P44,REL,FM,M3,38.11868312701715,%MAX
CTR,P46,INI,FM,M1,15.78974976120565,%MAX
CTR,P46,INI,FM,M2,17.01210499554945,%MAX
CTR,P46,INI,FM,M3,18.241922004265582,%MAX
CTR,P46,REL,FM,M1,9.563113148612166,%MAX
CTR,P46,REL,FM,M2,14.597465524304141,%MAX
CTR,P46,REL,FM,M3,55.43227513828945,%MAX
CTR,P48,INI,FM,M1,11.522051946759374,%MAX
CTR,P48,INI,FM,M2,11.398000783632124,%MAX
CTR,P48,INI,FM,M3,65.49115076790243,%MAX
CTR,P48,REL,FM,M1,22.106046983315146,%MAX
CTR,P48,REL,FM,M2,11.802126688901254,%MAX
CTR,P48,REL,FM,M3,59.737947707461565,%MAX
CTR,P49,INI,FM,M1,9.66819813913369,%MAX
CTR,P49,INI,FM,M2,10.739035861637493,%MAX
CTR,P49,INI,FM,M3,64.14520076879761,%MAX
CTR,P49,REL,FM,M1,11.266680432864437,%MAX
CTR,P49,REL,FM,M2,16.958373946043913,%MAX
CTR,P49,REL,FM,M3,38.438587643506054,%MAX
CTR,P52,INI,FM,M1,35.485192062597115,%MAX
CTR,P52,INI,FM,M2,58.28379933069746,%MAX
CTR,P52,INI,FM,M3,47.40046189567153,%MAX
CTR,P52,REL,FM,M1,32.97702381014959,%MAX
CTR,P52,REL,FM,M2,71.67189147677627,%MAX
CTR,P52,REL,FM,M3,45.81483856190273,%MAX
CTR,P55,INI,FM,M1,62.13244191570641,%MAX
CTR,P55,INI,FM,M2,84.97514099875966,%MAX
CTR,P55,INI,FM,M3,66.39039943187825,%MAX
CTR,P55,REL,FM,M1,45.27980707396136,%MAX
CTR,P55,REL,FM,M2,53.19522303859439,%MAX
CTR,P55,REL,FM,M3,69.62849553308511,%MAX
CTR,P56,INI,FM,M1,25.73238302355917,%MAX
CTR,P56,INI,FM,M2,14.185241367951189,%MAX
CTR,P56,INI,FM,M3,30.465762974650488,%MAX
CTR,P56,REL,FM,M1,40.70804852134791,%MAX
CTR,P56,REL,FM,M2,24.93850188452265,%MAX
CTR,P56,REL,FM,M3,30.323979713099785,%MAX
CTR,P57,INI,FM,M1,28.261885559579646,%MAX
CTR,P57,INI,FM,M2,15.049691342657749,%MAX
CTR,P57,INI,FM,M3,19.011289614898324,%MAX
CTR,P57,REL,FM,M1,14.264593563113086,%MAX
CTR,P57,REL,FM,M2,42.70739408152054,%MAX
CTR,P57,REL,FM,M3,62.59639596798442,%MAX
CTR,P60,INI,FM,M1,59.17309935691975,%MAX
CTR,P60,INI,FM,M2,72.11983547773069,%MAX
CTR,P60,INI,FM,M3,67.7727086392291,%MAX
CTR,P60,REL,FM,M1,18.53937277886067,%MAX
CTR,P60,REL,FM,M2,69.23825743555047,%MAX
CTR,P60,REL,FM,M3,87.22384500241849,%MAX
CTR,P64,INI,FM,M1,38.81854052351343,%MAX
CTR,P64,INI,FM,M2,34.766353602099656,%MAX
CTR,P64,INI,FM,M3,40.095910473562554,%MAX
CTR,P64,REL,FM,M1,25.60999407255788,%MAX
CTR,P64,REL,FM,M2,21.527204828635497,%MAX
CTR,P64,REL,FM,M3,20.429997380571553,%MAX
CTR,P66,INI,FM,M1,25.802306434961032,%MAX
CTR,P66,INI,FM,M2,44.22798982495454,%MAX
CTR,P66,INI,FM,M3,51.02793115702845,%MAX
CTR,P66,REL,FM,M1,22.395910335147487,%MAX
CTR,P66,REL,FM,M2,8.924528112851924,%MAX
CTR,P66,REL,FM,M3,3.1994387635036916,%MAX
CTR,P67,INI,FM,M1,49.99050143205207,%MAX
CTR,P67,INI,FM,M2,172.32142635431953,%MAX
CTR,P67,INI,FM,M3,64.45510560831777,%MAX
CTR,P67,REL,FM,M1,70.81034912434617,%MAX
CTR,P67,REL,FM,M2,31.77652776771385,%MAX
CTR,P67,REL,FM,M3,28.35314713527773,%MAX
CTR,P68,INI,FM,M1,3.3765230032140767,%MAX
CTR,P68,INI,FM,M2,74.91367600473654,%MAX
CTR,P68,INI,FM,M3,96.12392321426624,%MAX
CTR,P68,REL,FM,M1,41.21262541279588,%MAX
CTR,P68,REL,FM,M2,34.31675244796649,%MAX
CTR,P68,REL,FM,M3,45.30515261180753,%MAX
