Group,Participant,Session,Operator,Measure,Value,Unit
CTR,P01,INI,FM,M1,0.1115441640550475,V
CTR,P01,INI,FM,M2,0.1268160629381191,V
CTR,P01,INI,FM,M3,0.1412584830612747,V
CTR,P01,REL,FM,M1,0.0115750397699791,V
CTR,P01,REL,FM,M2,0.0117268415558163,V
CTR,P01,REL,FM,M3,0.0114169920052456,V
CTR,P02,INI,FM,M1,0.0260934204434897,V
CTR,P02,INI,FM,M2,0.0268901375091472,V
CTR,P02,INI,FM,M3,0.0260848151456556,V
CTR,P02,REL,FM,M1,0.0273514836563881,V
CTR,P02,REL,FM,M2,0.0323788626656732,V
CTR,P02,REL,FM,M3,0.0326541871343441,V
CTR,P03,INI,FM,M1,0.0119612916638364,V
CTR,P03,INI,FM,M2,0.0123321181798113,V
CTR,P03,INI,FM,M3,0.0134879801815327,V
CTR,P03,REL,FM,M1,0.010465043665943,V
CTR,P03,REL,FM,M2,0.0098528028514822,V
CTR,P03,REL,FM,M3,0.0097913876177235,V
CTR,P05,INI,FM,M1,0.0382798548919646,V
CTR,P05,INI,FM,M2,0.0368909981112286,V
CTR,P05,INI,FM,M3,0.0391655723248931,V
CTR,P05,REL,FM,M1,0.0332890130847546,V
CTR,P05,REL,FM,M2,0.0309740439891966,V
CTR,P05,REL,FM,M3,0.0336218733980228,V
CTR,P06,INI,FM,M1,0.0068248179466869,V
CTR,P06,INI,FM,M2,0.0070310888612769,V
CTR,P06,INI,FM,M3,0.0072592988744589,V
CTR,P06,REL,FM,M1,0.006662988624338,V
CTR,P06,REL,FM,M2,0.0070196261865777,V
CTR,P06,REL,FM,M3,0.0072435782528205,V
CTR,P07,INI,FM,M1,0.0464488934489649,V
CTR,P07,INI,FM,M2,0.0462444572315141,V
CTR,P07,INI,FM,M3,0.0465878130416961,V
CTR,P07,REL,FM,M1,0.0522372183347817,V
CTR,P07,REL,FM,M2,0.0542420594727728,V
CTR,P07,REL,FM,M3,0.0539047756098832,V
CTR,P08,INI,FM,M1,0.0122467196423823,V
CTR,P08,INI,FM,M2,0.008650343879863,V
CTR,P08,INI,FM,M3,0.0109166906763659,V
CTR,P08,REL,FM,M1,0.0093678898268435,V
CTR,P08,REL,FM,M2,0.0111446073184864,V
CTR,P08,REL,FM,M3,0.0097596456002257,V
CTR,P13,INI,FM,M1,0.0138533318628822,V
CTR,P13,INI,FM,M2,0.0141731674060108,V
CTR,P13,INI,FM,M3,0.0148995595532723,V
CTR,P13,REL,FM,M1,0.0109905929138611,V
CTR,P13,REL,FM,M2,0.0113231276602508,V
CTR,P13,REL,FM,M3,0.0110005724179435,V
CTR,P16,INI,FM,M1,0.0136677207593601,V
CTR,P16,INI,FM,M2,0.0124080989630998,V
CTR,P16,INI,FM,M3,0.014704924082339,V
CTR,P16,REL,FM,M1,0.013471341109869,V
CTR,P16,REL,FM,M2,0.0128339842141364,V
CTR,P16,REL,FM,M3,0.013479110596482,V
CTR,P21,INI,FM,M1,0.1511433449683222,V
CTR,P21,INI,FM,M2,0.3041347441397203,V
CTR,P21,INI,FM,M3,0.4947857569634196,V
CTR,P21,REL,FM,M1,0.0363571529914487,V
CTR,P21,REL,FM,M2,0.043802375624952,V
CTR,P21,REL,FM,M3,0.0463968135487176,V
CTR,P22,INI,FM,M1,0.0334884160887007,V
CTR,P22,INI,FM,M2,0.0968297026006881,V
CTR,P22,INI,FM,M3,0.0320179462284907,V
CTR,P22,REL,FM,M1,,V
CTR,P22,REL,FM,M2,,V
CTR,P22,REL,FM,M3,,V
CTR,P23,INI,FM,M1,0.0169488630122745,V
CTR,P23,INI,FM,M2,0.0382096663737514,V
CTR,P23,INI,FM,M3,0.0176115375883363,V
CTR,P23,REL,FM,M1,0.0159544667185175,V
CTR,P23,REL,FM,M2,0.0168905005145796,V
CTR,P23,REL,FM,M3,0.0154318017791192,V
CTR,P25,INI,FM,M1,0.022107549907782,V
CTR,P25,INI,FM,M2,0.0241665214602401,V
CTR,P25,INI,FM,M3,0.0257380125178543,V
CTR,P25,REL,FM,M1,0.022277303523913,V
CTR,P25,REL,FM,M2,0.0226520427983065,V
CTR,P25,REL,FM,M3,0.0229334657327569,V
CTR,P35,INI,FM,M1,0.0261601697206541,V
CTR,P35,INI,FM,M2,0.026646392206947,V
CTR,P35,INI,FM,M3,0.0324346070097248,V
CTR,P35,REL,FM,M1,0.0244093567126675,V
CTR,P35,REL,FM,M2,0.0232292376886343,V
CTR,P35,REL,FM,M3,0.0221873714857058,V
CTR,P38,INI,FM,M1,0.0435580491212757,V
CTR,P38,INI,FM,M2,0.0446622171648993,V
CTR,P38,INI,FM,M3,0.0515319643903425,V
CTR,P38,REL,FM,M1,0.0171323973482767,V
CTR,P38,REL,FM,M2,0.0173055937173303,V
CTR,P38,REL,FM,M3,0.0180335721218443,V
CTR,P39,INI,FM,M1,0.0075761369942301,V
CTR,P39,INI,FM,M2,0.0069468864308194,V
CTR,P39,INI,FM,M3,0.0082180184803025,V
CTR,P39,REL,FM,M1,0.0077668099800884,V
CTR,P39,REL,FM,M2,0.0092336055714776,V
CTR,P39,REL,FM,M3,0.0075867911033878,V
CTR,P40,INI,FM,M1,0.0184414179202083,V
CTR,P40,INI,FM,M2,0.0182557280671187,V
CTR,P40,INI,FM,M3,0.0201680576005924,V
CTR,P40,REL,FM,M1,0.0206784711801781,V
CTR,P40,REL,FM,M2,0.0219353050806805,V
CTR,P40,REL,FM,M3,0.0240364568685778,V
CTR,P44,INI,FM,M1,0.022566306624773,V
CTR,P44,INI,FM,M2,0.0238720154433558,V
CTR,P44,INI,FM,M3,0.0246499120315801,V
CTR,P44,REL,FM,M1,0.021632638621083,V
CTR,P44,REL,FM,M2,0.0219442285755978,V
CTR,P44,REL,FM,M3,0.0231559985729473,V
CTR,P46,INI,FM,M1,0.0195548002971995,V
CTR,P46,INI,FM,M2,0.020400241848615,V
CTR,P46,INI,FM,M3,0.0209321402511043,V
CTR,P46,REL,FM,M1,0.0249745752738631,V
CTR,P46,REL,FM,M2,0.0262298990929166,V
CTR,P46,REL,FM,M3,0.0267148373041888,V
CTR,P48,INI,FM,M1,0.0298698203527869,V
CTR,P48,INI,FM,M2,0.0287622751274955,V
CTR,P48,INI,FM,M3,0.0288622224293817,V
CTR,P48,REL,FM,M1,0.0280319724397072,V
CTR,P48,REL,FM,M2,0.0253229426260937,V
CTR,P48,REL,FM,M3,0.0259510729335433,V
CTR,P49,INI,FM,M1,0.0265332185198844,V
CTR,P49,INI,FM,M2,0.0245077505334759,V
CTR,P49,INI,FM,M3,0.0246791727552846,V
CTR,P49,REL,FM,M1,0.0219660438884527,V
CTR,P49,REL,FM,M2,0.0204982436359564,V
CTR,P49,REL,FM,M3,0.024651349817508,V
CTR,P52,INI,FM,M1,0.0354196737444203,V
CTR,P52,INI,FM,M2,0.0397466597360044,V
CTR,P52,INI,FM,M3,0.0362999722230975,V
CTR,P52,REL,FM,M1,0.0405586039484194,V
CTR,P52,REL,FM,M2,0.0478328178522538,V
CTR,P52,REL,FM,M3,0.046248704392171,V
CTR,P55,INI,FM,M1,0.0085780465428214,V
CTR,P55,INI,FM,M2,0.0105265300618991,V
CTR,P55,INI,FM,M3,0.0108995807626795,V
CTR,P55,REL,FM,M1,0.0126515382457076,V
CTR,P55,REL,FM,M2,0.0138195752285585,V
CTR,P55,REL,FM,M3,0.0148514253199714,V
CTR,P56,INI,FM,M1,0.0296809015697002,V
CTR,P56,INI,FM,M2,0.0298413299076977,V
CTR,P56,INI,FM,M3,0.0313932013560859,V
CTR,P56,REL,FM,M1,0.036158562713321,V
CTR,P56,REL,FM,M2,0.0345574217221147,V
CTR,P56,REL,FM,M3,0.033497658683093,V
CTR,P57,INI,FM,M1,0.0440393034464122,V
CTR,P57,INI,FM,M2,0.0409312976732887,V
CTR,P57,INI,FM,M3,0.0361809794197957,V
CTR,P57,REL,FM,M1,0.0133851940560025,V
CTR,P57,REL,FM,M2,0.0147720522729763,V
CTR,P57,REL,FM,M3,0.0138781237061735,V
CTR,P60,INI,FM,M1,0.0179122230532951,V
CTR,P60,INI,FM,M2,,V
CTR,P60,INI,FM,M3,,V
CTR,P60,REL,FM,M1,0.0197264547790865,V
CTR,P60,REL,FM,M2,0.0194783709995196,V
CTR,P60,REL,FM,M3,0.0210971433507573,V
CTR,P64,INI,FM,M1,0.027594620282774,V
CTR,P64,INI,FM,M2,0.0295695008291733,V
CTR,P64,INI,FM,M3,0.0294513176721101,V
CTR,P64,REL,FM,M1,0.024175374829528,V
CTR,P64,REL,FM,M2,0.0260143424259815,V
CTR,P64,REL,FM,M3,0.0299652938329136,V
CTR,P66,INI,FM,M1,0.0389906420913292,V
CTR,P66,INI,FM,M2,0.0658208055234047,V
CTR,P66,INI,FM,M3,0.0684158013218715,V
CTR,P66,REL,FM,M1,0.0245867738813346,V
CTR,P66,REL,FM,M2,0.0234803990997657,V
CTR,P66,REL,FM,M3,0.0230135623794098,V
CTR,P67,INI,FM,M1,0.0372528074460096,V
CTR,P67,INI,FM,M2,0.0378840666342544,V
CTR,P67,INI,FM,M3,0.0350424881601106,V
CTR,P67,REL,FM,M1,0.0439889558505007,V
CTR,P67,REL,FM,M2,0.045836736356854,V
CTR,P67,REL,FM,M3,0.0440598564089116,V
CTR,P68,INI,FM,M1,0.0295304038986502,V
CTR,P68,INI,FM,M2,0.0293093300722542,V
CTR,P68,INI,FM,M3,0.0597719146578545,V
CTR,P68,REL,FM,M1,0.0269921917040097,V
CTR,P68,REL,FM,M2,0.0282800626001202,V
CTR,P68,REL,FM,M3,0.0309567254507507,V
