Group,Participant,Session,Operator,Measure,Value,Unit
CTR,P01,INI,FM,M1,92.86611512704106,Hz
CTR,P01,INI,FM,M2,89.5455599143179,Hz
CTR,P01,INI,FM,M3,88.1693988135868,Hz
CTR,P01,REL,FM,M1,105.67623598627588,Hz
CTR,P01,REL,FM,M2,106.19077453795252,Hz
CTR,P01,REL,FM,M3,101.87510438142203,Hz
CTR,P02,INI,FM,M1,114.6994416883018,Hz
CTR,P02,INI,FM,M2,110.38346855543767,Hz
CTR,P02,INI,FM,M3,110.54514094227876,Hz
CTR,P02,REL,FM,M1,101.37863816079852,Hz
CTR,P02,REL,FM,M2,97.23258461617328,Hz
CTR,P02,REL,FM,M3,96.36154541753412,Hz
CTR,P03,INI,FM,M1,92.83389227638725,Hz
CTR,P03,INI,FM,M2,91.40984311682274,Hz
CTR,P03,INI,FM,M3,91.00848293855194,Hz
CTR,P03,REL,FM,M1,76.50011816224371,Hz
CTR,P03,REL,FM,M2,78.95531395846076,Hz
CTR,P03,REL,FM,M3,75.38956687990725,Hz
CTR,P05,INI,FM,M1,121.38581055015214,Hz
CTR,P05,INI,FM,M2,119.34179856974129,Hz
CTR,P05,INI,FM,M3,115.78099008445402,Hz
CTR,P05,REL,FM,M1,127.03406918986704,Hz
CTR,P05,REL,FM,M2,118.75816544445728,Hz
CTR,P05,REL,FM,M3,116.5808929400189,Hz
CTR,P06,INI,FM,M1,122.9141964146488,Hz
CTR,P06,INI,FM,M2,120.99507799869444,Hz
CTR,P06,INI,FM,M3,116.78004330410027,Hz
CTR,P06,REL,FM,M1,113.56938177101736,Hz
CTR,P06,REL,FM,M2,108.16686435957332,Hz
CTR,P06,REL,FM,M3,106.62141056195156,Hz
CTR,P07,INI,FM,M1,114.7933492170711,Hz
CTR,P07,INI,FM,M2,109.08627174790992,Hz
CTR,P07,INI,FM,M3,111.40492815893008,Hz
CTR,P07,REL,FM,M1,99.30009420555416,Hz
CTR,P07,REL,FM,M2,95.91599413824392,Hz
CTR,P07,REL,FM,M3,93.76389221871516,Hz
CTR,P08,INI,FM,M1,98.22251453186178,Hz
CTR,P08,INI,FM,M2,95.21224246279294,Hz
CTR,P08,INI,FM,M3,93.31034936900716,Hz
CTR,P08,REL,FM,M1,96.7328927748873,Hz
CTR,P08,REL,FM,M2,99.1602421112228,Hz
CTR,P08,REL,FM,M3,97.91459661392967,Hz
CTR,P13,INI,FM,M1,107.68801746008673,Hz
CTR,P13,INI,FM,M2,106.85990833062296,Hz
CTR,P13,INI,FM,M3,105.90191714357292,Hz
CTR,P13,REL,FM,M1,111.33436319829494,Hz
CTR,P13,REL,FM,M2,111.286073407285,Hz
CTR,P13,REL,FM,M3,104.59262151846283,Hz
CTR,P16,INI,FM,M1,108.66047086779945,Hz
CTR,P16,INI,FM,M2,109.06051043365017,Hz
CTR,P16,INI,FM,M3,106.547946813323,Hz
CTR,P16,REL,FM,M1,107.87227884689132,Hz
CTR,P16,REL,FM,M2,109.31020581544892,Hz
CTR,P16,REL,FM,M3,108.34745540897312,Hz
CTR,P21,INI,FM,M1,101.22119055252674,Hz
CTR,P21,INI,FM,M2,101.51859584408795,Hz
CTR,P21,INI,FM,M3,98.8952881484704,Hz
CTR,P21,REL,FM,M1,102.41019082216415,Hz
CTR,P21,REL,FM,M2,97.58979958037447,Hz
CTR,P21,REL,FM,M3,91.7410389655597,Hz
CTR,P22,INI,FM,M1,88.13309565231751,Hz
CTR,P22,INI,FM,M2,84.41728051021968,Hz
CTR,P22,INI,FM,M3,87.12770343828059,Hz
CTR,P22,REL,FM,M1,75.50769575235289,Hz
CTR,P22,REL,FM,M2,93.0642178087646,Hz
CTR,P22,REL,FM,M3,87.28732198302028,Hz
CTR,P23,INI,FM,M1,74.97625539852339,Hz
CTR,P23,INI,FM,M2,95.0096092822612,Hz
CTR,P23,INI,FM,M3,79.96704679138587,Hz
CTR,P23,REL,FM,M1,90.00279467984824,Hz
CTR,P23,REL,FM,M2,88.68318291799928,Hz
CTR,P23,REL,FM,M3,81.33838526998731,Hz
CTR,P25,INI,FM,M1,111.19952170640964,Hz
CTR,P25,INI,FM,M2,103.67938184439082,Hz
CTR,P25,INI,FM,M3,102.91891490538802,Hz
CTR,P25,REL,FM,M1,102.52492634025808,Hz
CTR,P25,REL,FM,M2,99.14621778379492,Hz
CTR,P25,REL,FM,M3,96.51446574524552,Hz
CTR,P35,INI,FM,M1,114.66722768149552,Hz
CTR,P35,INI,FM,M2,113.87772730985994,Hz
CTR,P35,INI,FM,M3,109.53958189889472,Hz
CTR,P35,REL,FM,M1,112.26376862410945,Hz
CTR,P35,REL,FM,M2,106.96511242833164,Hz
CTR,P35,REL,FM,M3,100.22674935411068,Hz
CTR,P38,INI,FM,M1,111.68809772405449,Hz
CTR,P38,INI,FM,M2,107.50450088264373,Hz
CTR,P38,INI,FM,M3,103.1472457248048,Hz
CTR,P38,REL,FM,M1,112.32265002171316,Hz
CTR,P38,REL,FM,M2,108.69091334980476,Hz
CTR,P38,REL,FM,M3,104.6873052220697,Hz
CTR,P39,INI,FM,M1,124.38841433118256,Hz
CTR,P39,INI,FM,M2,116.4456601594686,Hz
CTR,P39,INI,FM,M3,114.45151760656957,Hz
CTR,P39,REL,FM,M1,113.37138020906936,Hz
CTR,P39,REL,FM,M2,112.87358911169468,Hz
CTR,P39,REL,FM,M3,112.1607591804705,Hz
CTR,P40,INI,FM,M1,102.61089041614945,Hz
CTR,P40,INI,FM,M2,97.52855239339895,Hz
CTR,P40,INI,FM,M3,93.63056603964615,Hz
CTR,P40,REL,FM,M1,126.98617707678004,Hz
CTR,P40,REL,FM,M2,122.66371926273582,Hz
CTR,P40,REL,FM,M3,116.442845472919,Hz
CTR,P44,INI,FM,M1,129.2931459124581,Hz
CTR,P44,INI,FM,M2,127.28025019315125,Hz
CTR,P44,INI,FM,M3,126.65533310889988,Hz
CTR,P44,REL,FM,M1,124.28971075208888,Hz
CTR,P44,REL,FM,M2,119.57971983899048,Hz
CTR,P44,REL,FM,M3,114.81064185414132,Hz
CTR,P46,INI,FM,M1,98.0385170855469,Hz
CTR,P46,INI,FM,M2,98.7524787024865,Hz
CTR,P46,INI,FM,M3,95.43119348711448,Hz
CTR,P46,REL,FM,M1,98.73267076383163,Hz
CTR,P46,REL,FM,M2,99.46156897043048,Hz
CTR,P46,REL,FM,M3,94.02276390121855,Hz
CTR,P48,INI,FM,M1,156.76642518285928,Hz
CTR,P48,INI,FM,M2,157.15830276958212,Hz
CTR,P48,INI,FM,M3,153.8120131209294,Hz
CTR,P48,REL,FM,M1,134.7858601544263,Hz
CTR,P48,REL,FM,M2,129.41624351914365,Hz
CTR,P48,REL,FM,M3,127.03821846798456,Hz
CTR,P49,INI,FM,M1,121.9167166623401,Hz
CTR,P49,INI,FM,M2,114.8406838931464,Hz
CTR,P49,INI,FM,M3,106.7192636990544,Hz
CTR,P49,REL,FM,M1,109.36115821596842,Hz
CTR,P49,REL,FM,M2,119.36440846756274,Hz
CTR,P49,REL,FM,M3,118.63687913979996,Hz
CTR,P52,INI,FM,M1,128.16066500202024,Hz
CTR,P52,INI,FM,M2,120.99146878567656,Hz
CTR,P52,INI,FM,M3,117.49271951833984,Hz
CTR,P52,REL,FM,M1,131.39818484487125,Hz
CTR,P52,REL,FM,M2,126.92343567177846,Hz
CTR,P52,REL,FM,M3,125.61952153711604,Hz
CTR,P55,INI,FM,M1,114.33474982513656,Hz
CTR,P55,INI,FM,M2,111.66023325135774,Hz
CTR,P55,INI,FM,M3,110.50475403108128,Hz
CTR,P55,REL,FM,M1,102.00142913115032,Hz
CTR,P55,REL,FM,M2,100.4477436007629,Hz
CTR,P55,REL,FM,M3,99.41598671034998,Hz
CTR,P56,INI,FM,M1,83.5697759002328,Hz
CTR,P56,INI,FM,M2,80.47398608501412,Hz
CTR,P56,INI,FM,M3,80.63016902011894,Hz
CTR,P56,REL,FM,M1,87.09281540020673,Hz
CTR,P56,REL,FM,M2,81.42706303813624,Hz
CTR,P56,REL,FM,M3,80.56156429001891,Hz
CTR,P57,INI,FM,M1,104.62911015376508,Hz
CTR,P57,INI,FM,M2,103.33677565145216,Hz
CTR,P57,INI,FM,M3,100.87791493247946,Hz
CTR,P57,REL,FM,M1,109.3665320126196,Hz
CTR,P57,REL,FM,M2,101.9189731354366,Hz
CTR,P57,REL,FM,M3,100.18277651792914,Hz
CTR,P60,INI,FM,M1,118.06419092383496,Hz
CTR,P60,INI,FM,M2,117.32616153976,Hz
CTR,P60,INI,FM,M3,116.17243690947372,Hz
CTR,P60,REL,FM,M1,110.10671525130998,Hz
CTR,P60,REL,FM,M2,113.16292229559468,Hz
CTR,P60,REL,FM,M3,112.59344778132346,Hz
CTR,P64,INI,FM,M1,109.21406872983266,Hz
CTR,P64,INI,FM,M2,108.82982044097972,Hz
CTR,P64,INI,FM,M3,105.0639449760747,Hz
CTR,P64,REL,FM,M1,97.95963994064368,Hz
CTR,P64,REL,FM,M2,94.73719184571756,Hz
CTR,P64,REL,FM,M3,93.1769307964726,Hz
CTR,P66,INI,FM,M1,96.10403342466012,Hz
CTR,P66,INI,FM,M2,77.19692941701743,Hz
CTR,P66,INI,FM,M3,61.80036244374608,Hz
CTR,P66,REL,FM,M1,102.80314041260684,Hz
CTR,P66,REL,FM,M2,99.01095627847398,Hz
CTR,P66,REL,FM,M3,95.05769726486812,Hz
CTR,P67,INI,FM,M1,95.5941439530519,Hz
CTR,P67,INI,FM,M2,109.82432090818428,Hz
CTR,P67,INI,FM,M3,109.17383963463396,Hz
CTR,P67,REL,FM,M1,95.96632784314694,Hz
CTR,P67,REL,FM,M2,99.33093850043086,Hz
CTR,P67,REL,FM,M3,105.45300513427512,Hz
CTR,P68,INI,FM,M1,139.05750107225387,Hz
CTR,P68,INI,FM,M2,134.24837440261902,Hz
CTR,P68,INI,FM,M3,131.02347131145578,Hz
CTR,P68,REL,FM,M1,144.16526841325324,Hz
CTR,P68,REL,FM,M2,142.58074406256148,Hz
CTR,P68,REL,FM,M3,142.31136797578836,Hz
