Group,Participant,Session,Operator,Measure,Value,Unit
CTR,P01,INI,FM,M1,30.870753860942695,%MAX
CTR,P01,INI,FM,M2,36.3432457304746,%MAX
CTR,P01,INI,FM,M3,41.73354208600038,%MAX
CTR,P01,REL,FM,M1,24.71143324554805,%MAX
CTR,P01,REL,FM,M2,16.76899996279797,%MAX
CTR,P01,REL,FM,M3,15.984964459058462,%MAX
CTR,P02,INI,FM,M1,27.854713170265896,%MAX
CTR,P02,INI,FM,M2,30.928746173258165,%MAX
CTR,P02,INI,FM,M3,29.504328265359607,%MAX
CTR,P02,REL,FM,M1,27.852440408423227,%MAX
CTR,P02,REL,FM,M2,27.03944143458549,%MAX
CTR,P02,REL,FM,M3,32.213019794224294,%MAX
CTR,P03,INI,FM,M1,28.34711212057169,%MAX
CTR,P03,INI,FM,M2,24.837821790048405,%MAX
CTR,P03,INI,FM,M3,23.077044323896327,%MAX
CTR,P03,REL,FM,M1,35.0193122558608,%MAX
CTR,P03,REL,FM,M2,39.473192884929205,%MAX
CTR,P03,REL,FM,M3,50.09066770551778,%MAX
CTR,P05,INI,FM,M1,31.068881766686374,%MAX
CTR,P05,INI,FM,M2,32.96088223825554,%MAX
CTR,P05,INI,FM,M3,30.910266477251366,%MAX
CTR,P05,REL,FM,M1,30.148107816019994,%MAX
CTR,P05,REL,FM,M2,32.7354457794535,%MAX
CTR,P05,REL,FM,M3,34.37341267076234,%MAX
CTR,P06,INI,FM,M1,37.70746063895498,%MAX
CTR,P06,INI,FM,M2,40.54592476279597,%MAX
CTR,P06,INI,FM,M3,41.1811138862622,%MAX
CTR,P06,REL,FM,M1,31.614406533133756,%MAX
CTR,P06,REL,FM,M2,30.041278975344458,%MAX
CTR,P06,REL,FM,M3,30.456867375658383,%MAX
CTR,P07,INI,FM,M1,33.44056216911326,%MAX
CTR,P07,INI,FM,M2,32.69449041946721,%MAX
CTR,P07,INI,FM,M3,33.95574054701694,%MAX
CTR,P07,REL,FM,M1,35.42620644935178,%MAX
CTR,P07,REL,FM,M2,38.40369234171291,%MAX
CTR,P07,REL,FM,M3,36.303975740584946,%MAX
CTR,P08,INI,FM,M1,21.060330263775693,%MAX
CTR,P08,INI,FM,M2,21.425159023827007,%MAX
CTR,P08,INI,FM,M3,21.787464410161824,%MAX
CTR,P08,REL,FM,M1,16.659462162181953,%MAX
CTR,P08,REL,FM,M2,25.683794010607166,%MAX
CTR,P08,REL,FM,M3,14.781912393120152,%MAX
CTR,P13,INI,FM,M1,34.24348712414681,%MAX
CTR,P13,INI,FM,M2,34.50032150410782,%MAX
CTR,P13,INI,FM,M3,33.97343468492782,%MAX
CTR,P13,REL,FM,M1,31.80804089823724,%MAX
CTR,P13,REL,FM,M2,29.954910044041487,%MAX
CTR,P13,REL,FM,M3,30.149401582113057,%MAX
CTR,P16,INI,FM,M1,59.72699704513212,%MAX
CTR,P16,INI,FM,M2,58.428916572391564,%MAX
CTR,P16,INI,FM,M3,49.99989913360588,%MAX
CTR,P16,REL,FM,M1,27.541911474950123,%MAX
CTR,P16,REL,FM,M2,33.203434605627955,%MAX
CTR,P16,REL,FM,M3,26.853730515864925,%MAX
CTR,P21,INI,FM,M1,40.580535513318004,%MAX
CTR,P21,INI,FM,M2,47.58086537590026,%MAX
CTR,P21,INI,FM,M3,47.71574642302148,%MAX
CTR,P21,REL,FM,M1,47.30560530849428,%MAX
CTR,P21,REL,FM,M2,44.05653253967247,%MAX
CTR,P21,REL,FM,M3,65.90211582706839,%MAX
CTR,P22,INI,FM,M1,37.82553596654972,%MAX
CTR,P22,INI,FM,M2,37.510461646150446,%MAX
CTR,P22,INI,FM,M3,37.14442030623021,%MAX
CTR,P22,REL,FM,M1,17.36529568985616,%MAX
CTR,P22,REL,FM,M2,14.501675724881071,%MAX
CTR,P22,REL,FM,M3,17.43009178242165,%MAX
CTR,P23,INI,FM,M1,45.421085346374255,%MAX
CTR,P23,INI,FM,M2,39.61909797502709,%MAX
CTR,P23,INI,FM,M3,35.48802625602919,%MAX
CTR,P23,REL,FM,M1,30.174788823557275,%MAX
CTR,P23,REL,FM,M2,56.86540424476472,%MAX
CTR,P23,REL,FM,M3,62.983914827890786,%MAX
CTR,P25,INI,FM,M1,30.378112349557874,%MAX
CTR,P25,INI,FM,M2,48.05906720638363,%MAX
CTR,P25,INI,FM,M3,46.19916246040604,%MAX
CTR,P25,REL,FM,M1,24.4770430979186,%MAX
CTR,P25,REL,FM,M2,36.49041630694422,%MAX
CTR,P25,REL,FM,M3,41.70491699452598,%MAX
CTR,P35,INI,FM,M1,37.30638898447823,%MAX
CTR,P35,INI,FM,M2,24.5969073752032,%MAX
CTR,P35,INI,FM,M3,68.45726257929215,%MAX
CTR,P35,REL,FM,M1,17.914354889863272,%MAX
CTR,P35,REL,FM,M2,21.42325725009958,%MAX
CTR,P35,REL,FM,M3,71.7345348218873,%MAX
CTR,P38,INI,FM,M1,24.651304593244163,%MAX
CTR,P38,INI,FM,M2,28.885907367047142,%MAX
CTR,P38,INI,FM,M3,29.8484104530975,%MAX
CTR,P38,REL,FM,M1,29.22284263415588,%MAX
CTR,P38,REL,FM,M2,29.335953274077742,%MAX
CTR,P38,REL,FM,M3,40.34557980738155,%MAX
CTR,P39,INI,FM,M1,25.933284058104245,%MAX
CTR,P39,INI,FM,M2,34.82926705373561,%MAX
CTR,P39,INI,FM,M3,51.63058603938199,%MAX
CTR,P39,REL,FM,M1,30.794813861910836,%MAX
CTR,P39,REL,FM,M2,33.42649230484255,%MAX
CTR,P39,REL,FM,M3,36.67665232422589,%MAX
CTR,P40,INI,FM,M1,21.89627422513476,%MAX
CTR,P40,INI,FM,M2,20.522462442901055,%MAX
CTR,P40,INI,FM,M3,34.84158809067744,%MAX
CTR,P40,REL,FM,M1,24.48239270658472,%MAX
CTR,P40,REL,FM,M2,25.56704712967859,%MAX
CTR,P40,REL,FM,M3,23.603471153491697,%MAX
CTR,P44,INI,FM,M1,30.512228382635325,%MAX
CTR,P44,INI,FM,M2,31.308444725554047,%MAX
CTR,P44,INI,FM,M3,56.2249527386043,%MAX
CTR,P44,REL,FM,M1,24.887413694854022,%MAX
CTR,P44,REL,FM,M2,28.986528128451763,%MAX
CTR,P44,REL,FM,M3,34.50268066439544,%MAX
CTR,P46,INI,FM,M1,26.753816786810262,%MAX
CTR,P46,INI,FM,M2,27.53025120435755,%MAX
CTR,P46,INI,FM,M3,28.701734672756924,%MAX
CTR,P46,REL,FM,M1,21.761718498669893,%MAX
CTR,P46,REL,FM,M2,29.05966577238692,%MAX
CTR,P46,REL,FM,M3,43.13381244939378,%MAX
CTR,P48,INI,FM,M1,32.40692511854664,%MAX
CTR,P48,INI,FM,M2,32.80287156101079,%MAX
CTR,P48,INI,FM,M3,41.71600471803325,%MAX
CTR,P48,REL,FM,M1,32.82628626245272,%MAX
CTR,P48,REL,FM,M2,33.07599002253784,%MAX
CTR,P48,REL,FM,M3,46.69516818811372,%MAX
CTR,P49,INI,FM,M1,25.265237353397843,%MAX
CTR,P49,INI,FM,M2,27.660556479421587,%MAX
CTR,P49,INI,FM,M3,46.43347398548548,%MAX
CTR,P49,REL,FM,M1,29.52366769910445,%MAX
CTR,P49,REL,FM,M2,33.98704807458545,%MAX
CTR,P49,REL,FM,M3,33.273458281115445,%MAX
CTR,P52,INI,FM,M1,32.70077264663533,%MAX
CTR,P52,INI,FM,M2,42.66792077387112,%MAX
CTR,P52,INI,FM,M3,38.67415998279728,%MAX
CTR,P52,REL,FM,M1,28.781776753762887,%MAX
CTR,P52,REL,FM,M2,45.77520234302243,%MAX
CTR,P52,REL,FM,M3,35.62143472644654,%MAX
CTR,P55,INI,FM,M1,48.80736598018401,%MAX
CTR,P55,INI,FM,M2,59.11815124195895,%MAX
CTR,P55,INI,FM,M3,56.14470268079856,%MAX
CTR,P55,REL,FM,M1,42.85752772961238,%MAX
CTR,P55,REL,FM,M2,46.43957562059609,%MAX
CTR,P55,REL,FM,M3,54.216880703181424,%MAX
CTR,P56,INI,FM,M1,28.43785943751059,%MAX
CTR,P56,INI,FM,M2,17.273835626718167,%MAX
CTR,P56,INI,FM,M3,31.440168118286476,%MAX
CTR,P56,REL,FM,M1,38.89738073520905,%MAX
CTR,P56,REL,FM,M2,31.80382886272029,%MAX
CTR,P56,REL,FM,M3,32.13655593820084,%MAX
CTR,P57,INI,FM,M1,22.54943749788635,%MAX
CTR,P57,INI,FM,M2,15.328879208528049,%MAX
CTR,P57,INI,FM,M3,18.548051873894266,%MAX
CTR,P57,REL,FM,M1,20.7692368865249,%MAX
CTR,P57,REL,FM,M2,36.69950895097883,%MAX
CTR,P57,REL,FM,M3,37.042374220203165,%MAX
CTR,P60,INI,FM,M1,44.08620556724685,%MAX
CTR,P60,INI,FM,M2,50.14451999887489,%MAX
CTR,P60,INI,FM,M3,50.355676253165825,%MAX
CTR,P60,REL,FM,M1,30.508190255097045,%MAX
CTR,P60,REL,FM,M2,53.94918776833766,%MAX
CTR,P60,REL,FM,M3,57.46294424961124,%MAX
CTR,P64,INI,FM,M1,35.03645572852424,%MAX
CTR,P64,INI,FM,M2,34.67857552601222,%MAX
CTR,P64,INI,FM,M3,44.12081147847866,%MAX
CTR,P64,REL,FM,M1,27.66687481326,%MAX
CTR,P64,REL,FM,M2,36.24957963414686,%MAX
CTR,P64,REL,FM,M3,25.083474407862116,%MAX
CTR,P66,INI,FM,M1,30.77018808715717,%MAX
CTR,P66,INI,FM,M2,37.47289401369312,%MAX
CTR,P66,INI,FM,M3,42.91659225547903,%MAX
CTR,P66,REL,FM,M1,26.85001766177628,%MAX
CTR,P66,REL,FM,M2,20.258586564348672,%MAX
CTR,P66,REL,FM,M3,20.978247054288698,%MAX
CTR,P67,INI,FM,M1,46.22627788023218,%MAX
CTR,P67,INI,FM,M2,105.68608360914936,%MAX
CTR,P67,INI,FM,M3,40.898228526778674,%MAX
CTR,P67,REL,FM,M1,50.35404451020444,%MAX
CTR,P67,REL,FM,M2,32.0346703536048,%MAX
CTR,P67,REL,FM,M3,32.91089260595169,%MAX
CTR,P68,INI,FM,M1,24.640160485545138,%MAX
CTR,P68,INI,FM,M2,54.305263470785206,%MAX
CTR,P68,INI,FM,M3,65.7144291362013,%MAX
CTR,P68,REL,FM,M1,45.121746105500655,%MAX
CTR,P68,REL,FM,M2,39.219556206143366,%MAX
CTR,P68,REL,FM,M3,35.33147424238433,%MAX
