Group,Participant,Session,Operator,Measure,Value,Unit
CTR,P01,INI,FM,M1,10.921023199543155,%MAX
CTR,P01,INI,FM,M2,11.170533483973125,%MAX
CTR,P01,INI,FM,M3,13.642284608415563,%MAX
CTR,P01,REL,FM,M1,16.073078678427652,%MAX
CTR,P01,REL,FM,M2,11.318210438866146,%MAX
CTR,P01,REL,FM,M3,15.722335884829116,%MAX
CTR,P02,INI,FM,M1,16.279870397308173,%MAX
CTR,P02,INI,FM,M2,18.618132770050007,%MAX
CTR,P02,INI,FM,M3,13.307211822888823,%MAX
CTR,P02,REL,FM,M1,12.71956663741329,%MAX
CTR,P02,REL,FM,M2,10.788948808438509,%MAX
CTR,P02,REL,FM,M3,9.449141309037811,%MAX
CTR,P03,INI,FM,M1,17.233015577084895,%MAX
CTR,P03,INI,FM,M2,12.541013589309328,%MAX
CTR,P03,INI,FM,M3,15.411601839471183,%MAX
CTR,P03,REL,FM,M1,9.73993424184438,%MAX
CTR,P03,REL,FM,M2,11.15839448496831,%MAX
CTR,P03,REL,FM,M3,10.79254709226691,%MAX
CTR,P05,INI,FM,M1,7.683690283086839,%MAX
CTR,P05,INI,FM,M2,10.077794431187524,%MAX
CTR,P05,INI,FM,M3,8.558568746873538,%MAX
CTR,P05,REL,FM,M1,5.789745602378009,%MAX
CTR,P05,REL,FM,M2,5.741629359908995,%MAX
CTR,P05,REL,FM,M3,6.361923838186027,%MAX
CTR,P06,INI,FM,M1,5.809524447770828,%MAX
CTR,P06,INI,FM,M2,4.509406887515787,%MAX
CTR,P06,INI,FM,M3,6.012751960097588,%MAX
CTR,P06,REL,FM,M1,10.196229404492907,%MAX
CTR,P06,REL,FM,M2,10.51579131644917,%MAX
CTR,P06,REL,FM,M3,10.823971128651433,%MAX
CTR,P07,INI,FM,M1,16.353236652557552,%MAX
CTR,P07,INI,FM,M2,18.78243200573214,%MAX
CTR,P07,INI,FM,M3,21.065833362408,%MAX
CTR,P07,REL,FM,M1,14.839977474927139,%MAX
CTR,P07,REL,FM,M2,18.385340103286513,%MAX
CTR,P07,REL,FM,M3,19.435039992079197,%MAX
CTR,P08,INI,FM,M1,9.400217094902258,%MAX
CTR,P08,INI,FM,M2,7.358891922777404,%MAX
CTR,P08,INI,FM,M3,10.761909446426198,%MAX
CTR,P08,REL,FM,M1,7.522710894314765,%MAX
CTR,P08,REL,FM,M2,8.762114235977275,%MAX
CTR,P08,REL,FM,M3,7.177561428040164,%MAX
CTR,P13,INI,FM,M1,20.08438197395081,%MAX
CTR,P13,INI,FM,M2,21.179687536522227,%MAX
CTR,P13,INI,FM,M3,18.57516076704562,%MAX
CTR,P13,REL,FM,M1,10.66090812526083,%MAX
CTR,P13,REL,FM,M2,13.473707697284757,%MAX
CTR,P13,REL,FM,M3,12.217738406482551,%MAX
CTR,P16,INI,FM,M1,68.5437695579009,%MAX
CTR,P16,INI,FM,M2,80.1156455779807,%MAX
CTR,P16,INI,FM,M3,65.7002238386039,%MAX
CTR,P16,REL,FM,M1,49.241857175947274,%MAX
CTR,P16,REL,FM,M2,35.43561419098398,%MAX
CTR,P16,REL,FM,M3,49.91020623067911,%MAX
CTR,P21,INI,FM,M1,85.78320219138998,%MAX
CTR,P21,INI,FM,M2,94.03798537616564,%MAX
CTR,P21,INI,FM,M3,105.93242477129438,%MAX
CTR,P21,REL,FM,M1,19.71018006290756,%MAX
CTR,P21,REL,FM,M2,28.250258157986295,%MAX
CTR,P21,REL,FM,M3,29.069248757302766,%MAX
CTR,P22,INI,FM,M1,13.26150365728612,%MAX
CTR,P22,INI,FM,M2,30.809260586805024,%MAX
CTR,P22,INI,FM,M3,19.249061614721857,%MAX
CTR,P22,REL,FM,M1,38.64844179260606,%MAX
CTR,P22,REL,FM,M2,74.76365870415643,%MAX
CTR,P22,REL,FM,M3,84.30265214347754,%MAX
CTR,P23,INI,FM,M1,16.71048771264123,%MAX
CTR,P23,INI,FM,M2,18.54764668079481,%MAX
CTR,P23,INI,FM,M3,28.740058147164554,%MAX
CTR,P23,REL,FM,M1,40.26628020756447,%MAX
CTR,P23,REL,FM,M2,93.4168613115219,%MAX
CTR,P23,REL,FM,M3,95.26428038300936,%MAX
CTR,P25,INI,FM,M1,30.201962893609,%MAX
CTR,P25,INI,FM,M2,54.037960238074994,%MAX
CTR,P25,INI,FM,M3,45.78566036737494,%MAX
CTR,P25,REL,FM,M1,24.60726941154757,%MAX
CTR,P25,REL,FM,M2,62.002077866305356,%MAX
CTR,P25,REL,FM,M3,65.42486222673722,%MAX
CTR,P35,INI,FM,M1,91.46842508521678,%MAX
CTR,P35,INI,FM,M2,6.8703573616127125,%MAX
CTR,P35,INI,FM,M3,100.63260957105526,%MAX
CTR,P35,REL,FM,M1,8.155151387250546,%MAX
CTR,P35,REL,FM,M2,8.30046675283045,%MAX
CTR,P35,REL,FM,M3,70.20201155951902,%MAX
CTR,P38,INI,FM,M1,20.426911791405768,%MAX
CTR,P38,INI,FM,M2,19.216301594910625,%MAX
CTR,P38,INI,FM,M3,23.308120730324433,%MAX
CTR,P38,REL,FM,M1,2.843826011944313,%MAX
CTR,P38,REL,FM,M2,5.006952374423121,%MAX
CTR,P38,REL,FM,M3,25.73596279236517,%MAX
CTR,P39,INI,FM,M1,8.061179738149203,%MAX
CTR,P39,INI,FM,M2,10.313914321919428,%MAX
CTR,P39,INI,FM,M3,63.69219671633133,%MAX
CTR,P39,REL,FM,M1,26.821222703749495,%MAX
CTR,P39,REL,FM,M2,26.036845637271046,%MAX
CTR,P39,REL,FM,M3,6.3328750313644795,%MAX
CTR,P40,INI,FM,M1,5.856771763779204,%MAX
CTR,P40,INI,FM,M2,6.251379068135242,%MAX
CTR,P40,INI,FM,M3,67.27921084184679,%MAX
CTR,P40,REL,FM,M1,11.356572142383682,%MAX
CTR,P40,REL,FM,M2,9.587648091540938,%MAX
CTR,P40,REL,FM,M3,58.95479304049394,%MAX
CTR,P44,INI,FM,M1,4.490292125426102,%MAX
CTR,P44,INI,FM,M2,6.187779512651331,%MAX
CTR,P44,INI,FM,M3,80.79826657750118,%MAX
CTR,P44,REL,FM,M1,4.458257688855864,%MAX
CTR,P44,REL,FM,M2,4.671969152109208,%MAX
CTR,P44,REL,FM,M3,53.71321133860564,%MAX
CTR,P46,INI,FM,M1,6.838130570023225,%MAX
CTR,P46,INI,FM,M2,6.520697968829587,%MAX
CTR,P46,INI,FM,M3,8.046214834281995,%MAX
CTR,P46,REL,FM,M1,8.97643238920653,%MAX
CTR,P46,REL,FM,M2,9.143847219787794,%MAX
CTR,P46,REL,FM,M3,43.59004815162097,%MAX
CTR,P48,INI,FM,M1,9.369752387741816,%MAX
CTR,P48,INI,FM,M2,10.80149506685108,%MAX
CTR,P48,INI,FM,M3,73.01774594166535,%MAX
CTR,P48,REL,FM,M1,27.126258404364542,%MAX
CTR,P48,REL,FM,M2,11.149583765133873,%MAX
CTR,P48,REL,FM,M3,55.382092555335376,%MAX
CTR,P49,INI,FM,M1,9.040546700804214,%MAX
CTR,P49,INI,FM,M2,8.320553280095192,%MAX
CTR,P49,INI,FM,M3,108.45021238678534,%MAX
CTR,P49,REL,FM,M1,9.145690159458322,%MAX
CTR,P49,REL,FM,M2,14.819184545949213,%MAX
CTR,P49,REL,FM,M3,61.068836847698364,%MAX
CTR,P52,INI,FM,M1,48.96723026028885,%MAX
CTR,P52,INI,FM,M2,42.953786683556736,%MAX
CTR,P52,INI,FM,M3,40.98117026883393,%MAX
CTR,P52,REL,FM,M1,71.91007764110593,%MAX
CTR,P52,REL,FM,M2,97.28974084031557,%MAX
CTR,P52,REL,FM,M3,59.38620924846596,%MAX
CTR,P55,INI,FM,M1,82.49847925487153,%MAX
CTR,P55,INI,FM,M2,108.33897605474662,%MAX
CTR,P55,INI,FM,M3,62.771851794714046,%MAX
CTR,P55,REL,FM,M1,73.3203974563071,%MAX
CTR,P55,REL,FM,M2,75.01347295321594,%MAX
CTR,P55,REL,FM,M3,68.17433476873286,%MAX
CTR,P56,INI,FM,M1,33.99688386887537,%MAX
CTR,P56,INI,FM,M2,61.48032787227582,%MAX
CTR,P56,INI,FM,M3,54.42387026006516,%MAX
CTR,P56,REL,FM,M1,51.42579615629749,%MAX
CTR,P56,REL,FM,M2,58.710390577627784,%MAX
CTR,P56,REL,FM,M3,53.57048004271426,%MAX
CTR,P57,INI,FM,M1,72.64633923911049,%MAX
CTR,P57,INI,FM,M2,80.31921931708489,%MAX
CTR,P57,INI,FM,M3,103.21065742855633,%MAX
CTR,P57,REL,FM,M1,71.0958342883925,%MAX
CTR,P57,REL,FM,M2,86.23230987578683,%MAX
CTR,P57,REL,FM,M3,119.11628529350065,%MAX
CTR,P60,INI,FM,M1,58.84192486797775,%MAX
CTR,P60,INI,FM,M2,57.452254935900896,%MAX
CTR,P60,INI,FM,M3,43.59975540016155,%MAX
CTR,P60,REL,FM,M1,16.95176876134799,%MAX
CTR,P60,REL,FM,M2,37.28787676710482,%MAX
CTR,P60,REL,FM,M3,56.45191564151643,%MAX
CTR,P64,INI,FM,M1,28.59080374183118,%MAX
CTR,P64,INI,FM,M2,38.121992912265355,%MAX
CTR,P64,INI,FM,M3,24.084211272424405,%MAX
CTR,P64,REL,FM,M1,64.73275931692191,%MAX
CTR,P64,REL,FM,M2,54.768200557329486,%MAX
CTR,P64,REL,FM,M3,31.92216397654148,%MAX
CTR,P66,INI,FM,M1,34.279104369072215,%MAX
CTR,P66,INI,FM,M2,59.62961591056522,%MAX
CTR,P66,INI,FM,M3,57.07210593687164,%MAX
CTR,P66,REL,FM,M1,8.392016939446325,%MAX
CTR,P66,REL,FM,M2,11.280886110523946,%MAX
CTR,P66,REL,FM,M3,9.67285333247481,%MAX
CTR,P67,INI,FM,M1,53.56053025085501,%MAX
CTR,P67,INI,FM,M2,114.57332250118088,%MAX
CTR,P67,INI,FM,M3,110.23825743619061,%MAX
CTR,P67,REL,FM,M1,33.621347814597726,%MAX
CTR,P67,REL,FM,M2,37.648485302779434,%MAX
CTR,P67,REL,FM,M3,25.47090922858157,%MAX
CTR,P68,INI,FM,M1,6.516456434675976,%MAX
CTR,P68,INI,FM,M2,48.8241354666045,%MAX
CTR,P68,INI,FM,M3,96.56484100321909,%MAX
CTR,P68,REL,FM,M1,35.00593664186968,%MAX
CTR,P68,REL,FM,M2,30.159967283301103,%MAX
CTR,P68,REL,FM,M3,29.90585276615289,%MAX
