Group,Participant,Session,Operator,Measure,Value,Unit
CTR,P01,INI,FM,M1,1.6684999999999999,s
CTR,P01,INI,FM,M2,1.1555,s
CTR,P01,INI,FM,M3,5.939,s
CTR,P01,REL,FM,M1,1.1263333333333334,s
CTR,P01,REL,FM,M2,1.1746666666666667,s
CTR,P01,REL,FM,M3,1.2096666666666667,s
CTR,P02,INI,FM,M1,1.0536666666666668,s
CTR,P02,INI,FM,M2,0.9193333333333333,s
CTR,P02,INI,FM,M3,1.6079999999999999,s
CTR,P02,REL,FM,M1,0.7966666666666667,s
CTR,P02,REL,FM,M2,0.8630000000000001,s
CTR,P02,REL,FM,M3,2.409333333333333,s
CTR,P03,INI,FM,M1,1.6666666666666667,s
CTR,P03,INI,FM,M2,0.9393333333333332,s
CTR,P03,INI,FM,M3,1.9353333333333331,s
CTR,P03,REL,FM,M1,0.8413333333333334,s
CTR,P03,REL,FM,M2,1.063,s
CTR,P03,REL,FM,M3,1.1626666666666667,s
CTR,P05,INI,FM,M1,1.3584999999999998,s
CTR,P05,INI,FM,M2,3.8765,s
CTR,P05,INI,FM,M3,1.4075,s
CTR,P05,REL,FM,M1,14.997,s
CTR,P05,REL,FM,M2,0.227,s
CTR,P05,REL,FM,M3,0.622,s
CTR,P06,INI,FM,M1,,s
CTR,P06,INI,FM,M2,,s
CTR,P06,INI,FM,M3,,s
CTR,P06,REL,FM,M1,0.477,s
CTR,P06,REL,FM,M2,,s
CTR,P06,REL,FM,M3,,s
CTR,P07,INI,FM,M1,2.732666666666667,s
CTR,P07,INI,FM,M2,2.7976666666666663,s
CTR,P07,INI,FM,M3,1.643,s
CTR,P07,REL,FM,M1,1.178,s
CTR,P07,REL,FM,M2,12.248,s
CTR,P07,REL,FM,M3,0.573,s
CTR,P08,INI,FM,M1,0.457,s
CTR,P08,INI,FM,M2,0.6636666666666666,s
CTR,P08,INI,FM,M3,0.5343333333333334,s
CTR,P08,REL,FM,M1,0.7493333333333333,s
CTR,P08,REL,FM,M2,0.6796666666666668,s
CTR,P08,REL,FM,M3,0.5476666666666666,s
CTR,P13,INI,FM,M1,0.302,s
CTR,P13,INI,FM,M2,0.2405,s
CTR,P13,INI,FM,M3,0.2595,s
CTR,P13,REL,FM,M1,0.484,s
CTR,P13,REL,FM,M2,0.343,s
CTR,P13,REL,FM,M3,0.236,s
CTR,P16,INI,FM,M1,2.346,s
CTR,P16,INI,FM,M2,1.0863333333333332,s
CTR,P16,INI,FM,M3,0.9563333333333334,s
CTR,P16,REL,FM,M1,0.6263333333333333,s
CTR,P16,REL,FM,M2,0.7986666666666666,s
CTR,P16,REL,FM,M3,0.7033333333333333,s
CTR,P21,INI,FM,M1,0.267,s
CTR,P21,INI,FM,M2,0.359,s
CTR,P21,INI,FM,M3,0.27849999999999997,s
CTR,P21,REL,FM,M1,0.5985,s
CTR,P21,REL,FM,M2,0.8787499999999999,s
CTR,P21,REL,FM,M3,0.542,s
CTR,P22,INI,FM,M1,0.514,s
CTR,P22,INI,FM,M2,0.505,s
CTR,P22,INI,FM,M3,2.6636666666666664,s
CTR,P22,REL,FM,M1,0.162,s
CTR,P22,REL,FM,M2,0.158,s
CTR,P22,REL,FM,M3,0.2205,s
CTR,P23,INI,FM,M1,0.476,s
CTR,P23,INI,FM,M2,0.6015,s
CTR,P23,INI,FM,M3,0.7415,s
CTR,P23,REL,FM,M1,1.2123333333333333,s
CTR,P23,REL,FM,M2,0.9703333333333334,s
CTR,P23,REL,FM,M3,1.5729999999999997,s
CTR,P25,INI,FM,M1,1.0753333333333333,s
CTR,P25,INI,FM,M2,1.064,s
CTR,P25,INI,FM,M3,0.8826666666666667,s
CTR,P25,REL,FM,M1,0.5523333333333333,s
CTR,P25,REL,FM,M2,0.5793333333333334,s
CTR,P25,REL,FM,M3,0.6066666666666667,s
CTR,P35,INI,FM,M1,1.0716666666666665,s
CTR,P35,INI,FM,M2,1.1980000000000002,s
CTR,P35,INI,FM,M3,1.3550000000000002,s
CTR,P35,REL,FM,M1,0.8807499999999999,s
CTR,P35,REL,FM,M2,0.595,s
CTR,P35,REL,FM,M3,0.70175,s
CTR,P38,INI,FM,M1,1.195,s
CTR,P38,INI,FM,M2,1.2593333333333334,s
CTR,P38,INI,FM,M3,2.158,s
CTR,P38,REL,FM,M1,0.8653333333333334,s
CTR,P38,REL,FM,M2,0.7450000000000001,s
CTR,P38,REL,FM,M3,0.8109999999999999,s
CTR,P40,INI,FM,M1,0.25,s
CTR,P40,INI,FM,M2,0.24666666666666667,s
CTR,P40,INI,FM,M3,0.3356666666666667,s
CTR,P40,REL,FM,M1,0.4293333333333333,s
CTR,P40,REL,FM,M2,0.26766666666666666,s
CTR,P40,REL,FM,M3,0.5066666666666667,s
CTR,P44,INI,FM,M1,0.35566666666666674,s
CTR,P44,INI,FM,M2,0.4643333333333333,s
CTR,P44,INI,FM,M3,0.737,s
CTR,P44,REL,FM,M1,0.49300000000000005,s
CTR,P44,REL,FM,M2,0.381,s
CTR,P44,REL,FM,M3,0.3173333333333333,s
CTR,P46,INI,FM,M1,0.644,s
CTR,P46,INI,FM,M2,0.5453333333333333,s
CTR,P46,INI,FM,M3,0.8263333333333334,s
CTR,P46,REL,FM,M1,0.442,s
CTR,P46,REL,FM,M2,0.52,s
CTR,P46,REL,FM,M3,0.215,s
CTR,P48,REL,FM,M1,0.4873333333333334,s
CTR,P48,REL,FM,M2,0.9726666666666667,s
CTR,P48,REL,FM,M3,0.7656666666666666,s
CTR,P49,INI,FM,M1,0.7233333333333333,s
CTR,P49,INI,FM,M2,1.0263333333333333,s
CTR,P49,INI,FM,M3,0.8563333333333333,s
CTR,P49,REL,FM,M1,0.783,s
CTR,P49,REL,FM,M2,2.511,s
CTR,P49,REL,FM,M3,2.163,s
CTR,P52,INI,FM,M1,3.838,s
CTR,P52,INI,FM,M2,2.319,s
CTR,P52,INI,FM,M3,2.2445000000000004,s
CTR,P52,REL,FM,M1,1.1644999999999999,s
CTR,P52,REL,FM,M2,1.4655,s
CTR,P52,REL,FM,M3,1.75425,s
CTR,P55,INI,FM,M1,0.6483333333333333,s
CTR,P55,INI,FM,M2,0.7370000000000001,s
CTR,P55,INI,FM,M3,0.7936666666666667,s
CTR,P55,REL,FM,M1,0.8454999999999999,s
CTR,P55,REL,FM,M2,0.5830000000000001,s
CTR,P55,REL,FM,M3,1.639,s
CTR,P56,INI,FM,M1,0.8574999999999999,s
CTR,P56,INI,FM,M2,1.6625,s
CTR,P56,INI,FM,M3,1.186,s
CTR,P56,REL,FM,M1,0.9010000000000001,s
CTR,P56,REL,FM,M2,0.831,s
CTR,P56,REL,FM,M3,1.1036666666666666,s
CTR,P57,INI,FM,M1,0.226,s
CTR,P57,INI,FM,M2,0.174,s
CTR,P57,INI,FM,M3,0.156,s
CTR,P57,REL,FM,M1,1.4316666666666666,s
CTR,P57,REL,FM,M2,1.5030000000000001,s
CTR,P57,REL,FM,M3,1.9456666666666667,s
CTR,P60,INI,FM,M1,0.57,s
CTR,P60,INI,FM,M2,0.524,s
CTR,P60,INI,FM,M3,0.488,s
CTR,P60,REL,FM,M1,1.144,s
CTR,P60,REL,FM,M2,0.892,s
CTR,P60,REL,FM,M3,0.5476666666666666,s
CTR,P64,INI,FM,M1,0.657,s
CTR,P64,INI,FM,M2,0.5115,s
CTR,P64,INI,FM,M3,0.5640000000000001,s
CTR,P64,REL,FM,M1,,s
CTR,P64,REL,FM,M2,,s
CTR,P64,REL,FM,M3,,s
CTR,P66,INI,FM,M1,0.46025000000000005,s
CTR,P66,INI,FM,M2,0.85975,s
CTR,P66,INI,FM,M3,0.5489999999999999,s
CTR,P66,REL,FM,M1,0.6333333333333333,s
CTR,P66,REL,FM,M2,0.6676666666666667,s
CTR,P66,REL,FM,M3,0.6856666666666666,s
CTR,P67,INI,FM,M1,0.584,s
CTR,P67,INI,FM,M2,0.6596666666666667,s
CTR,P67,INI,FM,M3,0.7643333333333334,s
CTR,P67,REL,FM,M1,0.7793333333333333,s
CTR,P67,REL,FM,M2,1.1349999999999998,s
CTR,P67,REL,FM,M3,0.721,s
CTR,P68,INI,FM,M1,0.5775714285714286,s
CTR,P68,INI,FM,M2,0.7508571428571429,s
CTR,P68,INI,FM,M3,0.519,s
CTR,P68,REL,FM,M1,0.5043333333333334,s
CTR,P68,REL,FM,M2,0.5565,s
CTR,P68,REL,FM,M3,0.7196666666666666,s
