Group,Participant,Session,Operator,Measure,Value,Unit
CTR,P01,INI,FM,M1,41.759944119978236,%subMVIC
CTR,P01,INI,FM,M2,42.62348720588273,%subMVIC
CTR,P01,INI,FM,M3,42.26712609129205,%subMVIC
CTR,P01,REL,FM,M1,119.5015813468767,%subMVIC
CTR,P01,REL,FM,M2,68.34399040840061,%subMVIC
CTR,P01,REL,FM,M3,69.62599414326623,%subMVIC
CTR,P02,INI,FM,M1,55.202475519431424,%subMVIC
CTR,P02,INI,FM,M2,49.64819172910274,%subMVIC
CTR,P02,INI,FM,M3,50.46287329997572,%subMVIC
CTR,P02,REL,FM,M1,42.916899047603195,%subMVIC
CTR,P02,REL,FM,M2,39.933384415443165,%subMVIC
CTR,P02,REL,FM,M3,39.605171996564266,%subMVIC
CTR,P03,INI,FM,M1,38.401754861039564,%subMVIC
CTR,P03,INI,FM,M2,40.56684731140181,%subMVIC
CTR,P03,INI,FM,M3,39.77284044958247,%subMVIC
CTR,P03,REL,FM,M1,26.323226506251302,%subMVIC
CTR,P03,REL,FM,M2,25.19488689485534,%subMVIC
CTR,P03,REL,FM,M3,26.316904434785624,%subMVIC
CTR,P05,INI,FM,M1,14.747359227355062,%subMVIC
CTR,P05,INI,FM,M2,14.694301582055386,%subMVIC
CTR,P05,INI,FM,M3,14.715005088738437,%subMVIC
CTR,P05,REL,FM,M1,26.03037097790474,%subMVIC
CTR,P05,REL,FM,M2,24.495115420427283,%subMVIC
CTR,P05,REL,FM,M3,25.52753870765891,%subMVIC
CTR,P06,INI,FM,M1,80.08646339453027,%subMVIC
CTR,P06,INI,FM,M2,67.1899007633781,%subMVIC
CTR,P06,INI,FM,M3,77.45268890485491,%subMVIC
CTR,P06,REL,FM,M1,89.69205313798405,%subMVIC
CTR,P06,REL,FM,M2,118.841089231098,%subMVIC
CTR,P06,REL,FM,M3,101.30102920267855,%subMVIC
CTR,P07,INI,FM,M1,36.64934467462581,%subMVIC
CTR,P07,INI,FM,M2,57.04287562673189,%subMVIC
CTR,P07,INI,FM,M3,41.619754661908374,%subMVIC
CTR,P07,REL,FM,M1,39.8638208971927,%subMVIC
CTR,P07,REL,FM,M2,71.18209572062936,%subMVIC
CTR,P07,REL,FM,M3,56.39855806537432,%subMVIC
CTR,P08,INI,FM,M1,80.61320339978377,%subMVIC
CTR,P08,INI,FM,M2,78.14732253325124,%subMVIC
CTR,P08,INI,FM,M3,137.1201947100116,%subMVIC
CTR,P08,REL,FM,M1,30.22596278878271,%subMVIC
CTR,P08,REL,FM,M2,30.819190064842143,%subMVIC
CTR,P08,REL,FM,M3,30.537364952682044,%subMVIC
CTR,P13,INI,FM,M1,67.63450604298777,%subMVIC
CTR,P13,INI,FM,M2,73.41196956874128,%subMVIC
CTR,P13,INI,FM,M3,76.27232487335195,%subMVIC
CTR,P13,REL,FM,M1,36.28560874125743,%subMVIC
CTR,P13,REL,FM,M2,41.49042476507161,%subMVIC
CTR,P13,REL,FM,M3,42.93394146554665,%subMVIC
CTR,P16,INI,FM,M1,41.59451153913735,%subMVIC
CTR,P16,INI,FM,M2,43.05419165582782,%subMVIC
CTR,P16,INI,FM,M3,35.34266940116803,%subMVIC
CTR,P16,REL,FM,M1,45.00116748838658,%subMVIC
CTR,P16,REL,FM,M2,42.278368785543606,%subMVIC
CTR,P16,REL,FM,M3,41.01941206680778,%subMVIC
CTR,P21,INI,FM,M1,13.671947392156417,%subMVIC
CTR,P21,INI,FM,M2,13.232213410550216,%subMVIC
CTR,P21,INI,FM,M3,13.527008922445438,%subMVIC
CTR,P21,REL,FM,M1,63.268769355594785,%subMVIC
CTR,P21,REL,FM,M2,33.659336760633494,%subMVIC
CTR,P21,REL,FM,M3,33.557041089525356,%subMVIC
CTR,P22,INI,FM,M1,25.279967579657864,%subMVIC
CTR,P22,INI,FM,M2,26.45549182930695,%subMVIC
CTR,P22,INI,FM,M3,25.238594327562588,%subMVIC
CTR,P22,REL,FM,M1,50.21512756720972,%subMVIC
CTR,P22,REL,FM,M2,54.52854747847595,%subMVIC
CTR,P22,REL,FM,M3,39.529739703737675,%subMVIC
CTR,P23,INI,FM,M1,30.543423641539693,%subMVIC
CTR,P23,INI,FM,M2,34.307250565033506,%subMVIC
CTR,P23,INI,FM,M3,33.68643992852856,%subMVIC
CTR,P23,REL,FM,M1,19.618150423728792,%subMVIC
CTR,P23,REL,FM,M2,15.578931980761617,%subMVIC
CTR,P23,REL,FM,M3,17.971229833092096,%subMVIC
CTR,P25,INI,FM,M1,88.41249034484693,%subMVIC
CTR,P25,INI,FM,M2,72.95928625120057,%subMVIC
CTR,P25,INI,FM,M3,81.17932901467525,%subMVIC
CTR,P25,REL,FM,M1,110.9015359319708,%subMVIC
CTR,P25,REL,FM,M2,59.50908647251169,%subMVIC
CTR,P25,REL,FM,M3,69.49278693493133,%subMVIC
CTR,P35,INI,FM,M1,21.549452971716413,%subMVIC
CTR,P35,INI,FM,M2,17.52372633622356,%subMVIC
CTR,P35,INI,FM,M3,15.994817850210868,%subMVIC
CTR,P35,REL,FM,M1,17.19162138753252,%subMVIC
CTR,P35,REL,FM,M2,16.825238190558377,%subMVIC
CTR,P35,REL,FM,M3,15.92599881894723,%subMVIC
CTR,P38,INI,FM,M1,32.40413121021948,%subMVIC
CTR,P38,INI,FM,M2,32.05446562749264,%subMVIC
CTR,P38,INI,FM,M3,33.8235642917276,%subMVIC
CTR,P38,REL,FM,M1,35.39137011895514,%subMVIC
CTR,P38,REL,FM,M2,30.87856790389171,%subMVIC
CTR,P38,REL,FM,M3,30.938412971841984,%subMVIC
CTR,P39,INI,FM,M1,19.609210850035737,%subMVIC
CTR,P39,INI,FM,M2,13.742912827484055,%subMVIC
CTR,P39,INI,FM,M3,15.329906366815521,%subMVIC
CTR,P39,REL,FM,M1,18.93923108558066,%subMVIC
CTR,P39,REL,FM,M2,18.853393512676778,%subMVIC
CTR,P39,REL,FM,M3,18.53257886736815,%subMVIC
CTR,P40,INI,FM,M1,19.12525441183534,%subMVIC
CTR,P40,INI,FM,M2,20.09741379921954,%subMVIC
CTR,P40,INI,FM,M3,19.247980782943035,%subMVIC
CTR,P40,REL,FM,M1,11.487583511726498,%subMVIC
CTR,P40,REL,FM,M2,10.973428498208953,%subMVIC
CTR,P40,REL,FM,M3,10.350275345553591,%subMVIC
CTR,P44,INI,FM,M1,20.17887842804735,%subMVIC
CTR,P44,INI,FM,M2,18.728231795633945,%subMVIC
CTR,P44,INI,FM,M3,16.331924909397326,%subMVIC
CTR,P44,REL,FM,M1,16.625193982216107,%subMVIC
CTR,P44,REL,FM,M2,33.3852171375078,%subMVIC
CTR,P44,REL,FM,M3,25.733184781703017,%subMVIC
CTR,P46,INI,FM,M1,19.718343098937066,%subMVIC
CTR,P46,INI,FM,M2,20.848887036804847,%subMVIC
CTR,P46,INI,FM,M3,20.52216936442627,%subMVIC
CTR,P46,REL,FM,M1,10.609781177675385,%subMVIC
CTR,P46,REL,FM,M2,12.30224924017236,%subMVIC
CTR,P46,REL,FM,M3,11.42463875075814,%subMVIC
CTR,P48,INI,FM,M1,13.906203635125397,%subMVIC
CTR,P48,INI,FM,M2,16.501065884245218,%subMVIC
CTR,P48,INI,FM,M3,12.387219558119286,%subMVIC
CTR,P48,REL,FM,M1,17.745863514242266,%subMVIC
CTR,P48,REL,FM,M2,17.949307594309918,%subMVIC
CTR,P48,REL,FM,M3,16.728911498238997,%subMVIC
CTR,P49,INI,FM,M1,43.3983984367902,%subMVIC
CTR,P49,INI,FM,M2,48.063885240570734,%subMVIC
CTR,P49,INI,FM,M3,47.598522730956724,%subMVIC
CTR,P49,REL,FM,M1,12.037244514810109,%subMVIC
CTR,P49,REL,FM,M2,12.906113428453384,%subMVIC
CTR,P49,REL,FM,M3,11.63255037437514,%subMVIC
CTR,P52,INI,FM,M1,6.733273336798379,%subMVIC
CTR,P52,INI,FM,M2,6.302215309442264,%subMVIC
CTR,P52,INI,FM,M3,6.7560677528808055,%subMVIC
CTR,P52,REL,FM,M1,9.730079275886391,%subMVIC
CTR,P52,REL,FM,M2,7.624033404831552,%subMVIC
CTR,P52,REL,FM,M3,8.889127833676662,%subMVIC
CTR,P55,INI,FM,M1,37.49450356300651,%subMVIC
CTR,P55,INI,FM,M2,31.500978389754348,%subMVIC
CTR,P55,INI,FM,M3,36.95313559791999,%subMVIC
CTR,P55,REL,FM,M1,23.230411096624827,%subMVIC
CTR,P55,REL,FM,M2,23.82508444079426,%subMVIC
CTR,P55,REL,FM,M3,24.23514929890573,%subMVIC
CTR,P56,INI,FM,M1,36.61076897855871,%subMVIC
CTR,P56,INI,FM,M2,32.42263736065424,%subMVIC
CTR,P56,INI,FM,M3,57.84147669688366,%subMVIC
CTR,P56,REL,FM,M1,28.671006835085745,%subMVIC
CTR,P56,REL,FM,M2,40.64395982647783,%subMVIC
CTR,P56,REL,FM,M3,31.679970071529553,%subMVIC
CTR,P57,INI,FM,M1,12.340303026513663,%subMVIC
CTR,P57,INI,FM,M2,12.511472459352365,%subMVIC
CTR,P57,INI,FM,M3,12.815659222391961,%subMVIC
CTR,P57,REL,FM,M1,24.950406339565497,%subMVIC
CTR,P57,REL,FM,M2,26.846363952773658,%subMVIC
CTR,P57,REL,FM,M3,29.511683604700025,%subMVIC
CTR,P60,INI,FM,M1,9.4236210898244,%subMVIC
CTR,P60,INI,FM,M2,8.30724061317401,%subMVIC
CTR,P60,INI,FM,M3,8.782717742566051,%subMVIC
CTR,P60,REL,FM,M1,21.077636663325993,%subMVIC
CTR,P60,REL,FM,M2,19.462098729975846,%subMVIC
CTR,P60,REL,FM,M3,16.88249808768147,%subMVIC
CTR,P64,INI,FM,M1,21.359450762679863,%subMVIC
CTR,P64,INI,FM,M2,26.700081004139953,%subMVIC
CTR,P64,INI,FM,M3,15.477347483954922,%subMVIC
CTR,P64,REL,FM,M1,18.061117409251672,%subMVIC
CTR,P64,REL,FM,M2,17.407514601305486,%subMVIC
CTR,P64,REL,FM,M3,20.481260657006125,%subMVIC
CTR,P66,INI,FM,M1,22.90620117317485,%subMVIC
CTR,P66,INI,FM,M2,26.354185218287668,%subMVIC
CTR,P66,INI,FM,M3,24.764857591197938,%subMVIC
CTR,P66,REL,FM,M1,39.683670224704265,%subMVIC
CTR,P66,REL,FM,M2,42.95631435584212,%subMVIC
CTR,P66,REL,FM,M3,40.190250286240676,%subMVIC
CTR,P67,INI,FM,M1,8.86472185400798,%subMVIC
CTR,P67,INI,FM,M2,10.954573452252243,%subMVIC
CTR,P67,INI,FM,M3,12.210295808674552,%subMVIC
CTR,P67,REL,FM,M1,9.30364658882495,%subMVIC
CTR,P67,REL,FM,M2,11.948299564796487,%subMVIC
CTR,P67,REL,FM,M3,13.501971353984315,%subMVIC
CTR,P68,INI,FM,M1,52.195852934047444,%subMVIC
CTR,P68,INI,FM,M2,34.334944447929246,%subMVIC
CTR,P68,INI,FM,M3,33.181618877634996,%subMVIC
CTR,P68,REL,FM,M1,51.862730705932336,%subMVIC
CTR,P68,REL,FM,M2,37.92768505577451,%subMVIC
CTR,P68,REL,FM,M3,41.38828146791317,%subMVIC
