Group,Participant,Session,Operator,Measure,Value,Unit
CTR,P01,INI,FM,M1,68.98046556020809,%subMVIC
CTR,P01,INI,FM,M2,82.3953008187173,%subMVIC
CTR,P01,INI,FM,M3,92.98790919667643,%subMVIC
CTR,P01,REL,FM,M1,127.01724856773221,%subMVIC
CTR,P01,REL,FM,M2,86.25200510537742,%subMVIC
CTR,P01,REL,FM,M3,83.16744806407483,%subMVIC
CTR,P02,INI,FM,M1,43.0203054420584,%subMVIC
CTR,P02,INI,FM,M2,35.97732002138193,%subMVIC
CTR,P02,INI,FM,M3,38.86389279214494,%subMVIC
CTR,P02,REL,FM,M1,56.26245668418511,%subMVIC
CTR,P02,REL,FM,M2,52.935330086058705,%subMVIC
CTR,P02,REL,FM,M3,55.73330766979641,%subMVIC
CTR,P03,INI,FM,M1,40.56217616131418,%subMVIC
CTR,P03,INI,FM,M2,36.51097483290354,%subMVIC
CTR,P03,INI,FM,M3,39.76950347840741,%subMVIC
CTR,P03,REL,FM,M1,42.12956309657448,%subMVIC
CTR,P03,REL,FM,M2,39.628699037902614,%subMVIC
CTR,P03,REL,FM,M3,40.30907609299057,%subMVIC
CTR,P05,INI,FM,M1,36.45522378151319,%subMVIC
CTR,P05,INI,FM,M2,34.778064289616,%subMVIC
CTR,P05,INI,FM,M3,36.92154699550576,%subMVIC
CTR,P05,REL,FM,M1,28.59189421925378,%subMVIC
CTR,P05,REL,FM,M2,26.744592121193808,%subMVIC
CTR,P05,REL,FM,M3,29.979035324161007,%subMVIC
CTR,P06,INI,FM,M1,23.424860122588978,%subMVIC
CTR,P06,INI,FM,M2,23.119784744048502,%subMVIC
CTR,P06,INI,FM,M3,23.30503970442718,%subMVIC
CTR,P06,REL,FM,M1,48.977420714308174,%subMVIC
CTR,P06,REL,FM,M2,49.240425139721886,%subMVIC
CTR,P06,REL,FM,M3,49.59708485273278,%subMVIC
CTR,P07,INI,FM,M1,27.22157203647135,%subMVIC
CTR,P07,INI,FM,M2,37.47828820627419,%subMVIC
CTR,P07,INI,FM,M3,36.85255561601178,%subMVIC
CTR,P07,REL,FM,M1,39.75790751854721,%subMVIC
CTR,P07,REL,FM,M2,71.39736725197713,%subMVIC
CTR,P07,REL,FM,M3,77.8243766051655,%subMVIC
CTR,P08,INI,FM,M1,15.826401551768239,%subMVIC
CTR,P08,INI,FM,M2,16.491082583789176,%subMVIC
CTR,P08,INI,FM,M3,18.580416068412916,%subMVIC
CTR,P08,REL,FM,M1,42.275506534593184,%subMVIC
CTR,P08,REL,FM,M2,38.61603708702168,%subMVIC
CTR,P08,REL,FM,M3,37.887448359044356,%subMVIC
CTR,P13,INI,FM,M1,119.007741282577,%subMVIC
CTR,P13,INI,FM,M2,118.73177988693698,%subMVIC
CTR,P13,INI,FM,M3,119.50564774773073,%subMVIC
CTR,P13,REL,FM,M1,30.536508092644794,%subMVIC
CTR,P13,REL,FM,M2,32.30446609856845,%subMVIC
CTR,P13,REL,FM,M3,30.21304639463075,%subMVIC
CTR,P16,INI,FM,M1,15.938009067286691,%subMVIC
CTR,P16,INI,FM,M2,15.71186277192235,%subMVIC
CTR,P16,INI,FM,M3,14.58685509921188,%subMVIC
CTR,P16,REL,FM,M1,17.87445426308696,%subMVIC
CTR,P16,REL,FM,M2,16.900301025770215,%subMVIC
CTR,P16,REL,FM,M3,19.447730862943484,%subMVIC
CTR,P21,INI,FM,M1,13.913140749186569,%subMVIC
CTR,P21,INI,FM,M2,13.037481410629118,%subMVIC
CTR,P21,INI,FM,M3,11.992521946689855,%subMVIC
CTR,P21,REL,FM,M1,16.56494127424026,%subMVIC
CTR,P21,REL,FM,M2,15.031239940360887,%subMVIC
CTR,P21,REL,FM,M3,14.554925460922803,%subMVIC
CTR,P22,INI,FM,M1,54.7574159818034,%subMVIC
CTR,P22,INI,FM,M2,59.27389762830036,%subMVIC
CTR,P22,INI,FM,M3,55.04374936051452,%subMVIC
CTR,P22,REL,FM,M1,33.89048546968827,%subMVIC
CTR,P22,REL,FM,M2,33.71488967130297,%subMVIC
CTR,P22,REL,FM,M3,35.14793183604267,%subMVIC
CTR,P23,INI,FM,M1,38.877365802507946,%subMVIC
CTR,P23,INI,FM,M2,40.75496421672732,%subMVIC
CTR,P23,INI,FM,M3,40.501102012448705,%subMVIC
CTR,P23,REL,FM,M1,31.746233513498783,%subMVIC
CTR,P23,REL,FM,M2,26.915210595229187,%subMVIC
CTR,P23,REL,FM,M3,27.83383511397703,%subMVIC
CTR,P25,INI,FM,M1,81.08269785683875,%subMVIC
CTR,P25,INI,FM,M2,61.463408692660984,%subMVIC
CTR,P25,INI,FM,M3,65.92488742427686,%subMVIC
CTR,P25,REL,FM,M1,27.199852276799028,%subMVIC
CTR,P25,REL,FM,M2,16.510042080294138,%subMVIC
CTR,P25,REL,FM,M3,16.83464341669658,%subMVIC
CTR,P35,INI,FM,M1,24.25657927427326,%subMVIC
CTR,P35,INI,FM,M2,32.368025248746186,%subMVIC
CTR,P35,INI,FM,M3,26.667571105412932,%subMVIC
CTR,P35,REL,FM,M1,32.392963943764755,%subMVIC
CTR,P35,REL,FM,M2,35.55388651790283,%subMVIC
CTR,P35,REL,FM,M3,25.05197334980673,%subMVIC
CTR,P38,INI,FM,M1,12.244732527824988,%subMVIC
CTR,P38,INI,FM,M2,10.839402196434976,%subMVIC
CTR,P38,INI,FM,M3,12.685990236359658,%subMVIC
CTR,P38,REL,FM,M1,31.03577374317704,%subMVIC
CTR,P38,REL,FM,M2,31.13129207001915,%subMVIC
CTR,P38,REL,FM,M3,30.93130722791568,%subMVIC
CTR,P39,INI,FM,M1,4665.9720809635,%subMVIC
CTR,P39,INI,FM,M2,4179.931268216018,%subMVIC
CTR,P39,INI,FM,M3,1646.5834331271662,%subMVIC
CTR,P39,REL,FM,M1,363.0257979728502,%subMVIC
CTR,P39,REL,FM,M2,456.9188819361736,%subMVIC
CTR,P39,REL,FM,M3,851.9220176340738,%subMVIC
CTR,P40,INI,FM,M1,8.721401168586986,%subMVIC
CTR,P40,INI,FM,M2,13.27522456563075,%subMVIC
CTR,P40,INI,FM,M3,8.394214445453361,%subMVIC
CTR,P40,REL,FM,M1,21.02125762219207,%subMVIC
CTR,P40,REL,FM,M2,19.44067293262124,%subMVIC
CTR,P40,REL,FM,M3,18.039811172212048,%subMVIC
CTR,P44,INI,FM,M1,45.35621494631858,%subMVIC
CTR,P44,INI,FM,M2,39.02213599237528,%subMVIC
CTR,P44,INI,FM,M3,36.44360686253923,%subMVIC
CTR,P44,REL,FM,M1,62.83704824313986,%subMVIC
CTR,P44,REL,FM,M2,76.70250841426868,%subMVIC
CTR,P44,REL,FM,M3,81.5010416897118,%subMVIC
CTR,P46,INI,FM,M1,8.773611755263786,%subMVIC
CTR,P46,INI,FM,M2,8.133790710445895,%subMVIC
CTR,P46,INI,FM,M3,8.580837578204733,%subMVIC
CTR,P46,REL,FM,M1,15.422186319349143,%subMVIC
CTR,P46,REL,FM,M2,15.909505083881434,%subMVIC
CTR,P46,REL,FM,M3,11.829030175234642,%subMVIC
CTR,P48,INI,FM,M1,60.363220094933595,%subMVIC
CTR,P48,INI,FM,M2,55.80734281322863,%subMVIC
CTR,P48,INI,FM,M3,46.87706967565041,%subMVIC
CTR,P48,REL,FM,M1,65.54866542698754,%subMVIC
CTR,P48,REL,FM,M2,73.07355134406994,%subMVIC
CTR,P48,REL,FM,M3,58.27701555513388,%subMVIC
CTR,P49,INI,FM,M1,49.5515957137185,%subMVIC
CTR,P49,INI,FM,M2,48.57636303090957,%subMVIC
CTR,P49,INI,FM,M3,44.54321929464546,%subMVIC
CTR,P49,REL,FM,M1,60.381973665096716,%subMVIC
CTR,P49,REL,FM,M2,55.700125924693005,%subMVIC
CTR,P49,REL,FM,M3,36.887812407329534,%subMVIC
CTR,P52,INI,FM,M1,25.337267700632015,%subMVIC
CTR,P52,INI,FM,M2,25.71725049161978,%subMVIC
CTR,P52,INI,FM,M3,21.38054336717587,%subMVIC
CTR,P52,REL,FM,M1,28.975452778307684,%subMVIC
CTR,P52,REL,FM,M2,17.17821309442873,%subMVIC
CTR,P52,REL,FM,M3,32.156922248223935,%subMVIC
CTR,P55,INI,FM,M1,99.59217833903314,%subMVIC
CTR,P55,INI,FM,M2,62.45173837022626,%subMVIC
CTR,P55,INI,FM,M3,90.60717589408007,%subMVIC
CTR,P55,REL,FM,M1,110.6902755296671,%subMVIC
CTR,P55,REL,FM,M2,111.21658612113161,%subMVIC
CTR,P55,REL,FM,M3,107.60196689609772,%subMVIC
CTR,P56,INI,FM,M1,79.83309623233353,%subMVIC
CTR,P56,INI,FM,M2,89.45949367252443,%subMVIC
CTR,P56,INI,FM,M3,93.0608179674758,%subMVIC
CTR,P56,REL,FM,M1,52.23940727574293,%subMVIC
CTR,P56,REL,FM,M2,52.6547723002561,%subMVIC
CTR,P56,REL,FM,M3,52.197063086757986,%subMVIC
CTR,P57,INI,FM,M1,933.2766474516254,%subMVIC
CTR,P57,INI,FM,M2,1101.5580733220813,%subMVIC
CTR,P57,INI,FM,M3,2166.3801430463736,%subMVIC
CTR,P57,REL,FM,M1,56.53553002459719,%subMVIC
CTR,P57,REL,FM,M2,59.35274933420487,%subMVIC
CTR,P57,REL,FM,M3,61.472554125455645,%subMVIC
CTR,P60,INI,FM,M1,69.86215857678805,%subMVIC
CTR,P60,INI,FM,M2,56.65561123184117,%subMVIC
CTR,P60,INI,FM,M3,51.79675191510588,%subMVIC
CTR,P60,REL,FM,M1,36.70281436648619,%subMVIC
CTR,P60,REL,FM,M2,39.06899392704308,%subMVIC
CTR,P60,REL,FM,M3,57.02067062781227,%subMVIC
CTR,P64,INI,FM,M1,32.60753338769317,%subMVIC
CTR,P64,INI,FM,M2,35.75588290079667,%subMVIC
CTR,P64,INI,FM,M3,40.56457124324732,%subMVIC
CTR,P64,REL,FM,M1,45.12299426633509,%subMVIC
CTR,P64,REL,FM,M2,34.99817595786065,%subMVIC
CTR,P64,REL,FM,M3,39.162571539723444,%subMVIC
CTR,P66,INI,FM,M1,95.92374918708296,%subMVIC
CTR,P66,INI,FM,M2,86.04375865114434,%subMVIC
CTR,P66,INI,FM,M3,95.09407629120619,%subMVIC
CTR,P66,REL,FM,M1,23.59561991781939,%subMVIC
CTR,P66,REL,FM,M2,25.035669212098863,%subMVIC
CTR,P66,REL,FM,M3,22.498847721833048,%subMVIC
CTR,P67,INI,FM,M1,21.91223560143835,%subMVIC
CTR,P67,INI,FM,M2,39.086959576032804,%subMVIC
CTR,P67,INI,FM,M3,32.791232815925106,%subMVIC
CTR,P67,REL,FM,M1,61.82304161890897,%subMVIC
CTR,P67,REL,FM,M2,67.43801474520694,%subMVIC
CTR,P67,REL,FM,M3,61.72230366223688,%subMVIC
CTR,P68,INI,FM,M1,34.15257605490171,%subMVIC
CTR,P68,INI,FM,M2,64.28742475500094,%subMVIC
CTR,P68,INI,FM,M3,49.87344124426182,%subMVIC
CTR,P68,REL,FM,M1,54.15129875894518,%subMVIC
CTR,P68,REL,FM,M2,48.516565030627795,%subMVIC
CTR,P68,REL,FM,M3,39.51588531996732,%subMVIC
