Group,Participant,Session,Operator,Measure,Value,Unit
CTR,P01,INI,FM,M1,50.66794400979296,Hz
CTR,P01,INI,FM,M2,46.86980609418283,Hz
CTR,P01,INI,FM,M3,40.07375537799632,Hz
CTR,P01,REL,FM,M1,46.57723530427774,Hz
CTR,P01,REL,FM,M2,38.597392588786846,Hz
CTR,P01,REL,FM,M3,38.34590731181576,Hz
CTR,P02,INI,FM,M1,75.27251864601263,Hz
CTR,P02,INI,FM,M2,88.25393167809204,Hz
CTR,P02,INI,FM,M3,87.56376603437175,Hz
CTR,P02,REL,FM,M1,41.151045058914086,Hz
CTR,P02,REL,FM,M2,70.25908035882316,Hz
CTR,P02,REL,FM,M3,85.41678267164096,Hz
CTR,P03,INI,FM,M1,81.2888637648389,Hz
CTR,P03,INI,FM,M2,86.10271903323262,Hz
CTR,P03,INI,FM,M3,87.99407114624505,Hz
CTR,P03,REL,FM,M1,66.66666666666666,Hz
CTR,P03,REL,FM,M2,71.3915857605178,Hz
CTR,P03,REL,FM,M3,65.6633221850613,Hz
CTR,P05,INI,FM,M1,66.95351717843405,Hz
CTR,P05,INI,FM,M2,56.894049346879534,Hz
CTR,P05,INI,FM,M3,67.20142602495542,Hz
CTR,P05,REL,FM,M1,73.31378299120233,Hz
CTR,P05,REL,FM,M2,65.85655422864725,Hz
CTR,P05,REL,FM,M3,35.23107836570664,Hz
CTR,P06,INI,FM,M1,115.52169962960372,Hz
CTR,P06,INI,FM,M2,106.11072966731165,Hz
CTR,P06,INI,FM,M3,92.82178217821782,Hz
CTR,P06,REL,FM,M1,65.14285714285714,Hz
CTR,P06,REL,FM,M2,56.21052631578947,Hz
CTR,P06,REL,FM,M3,57.1549790896418,Hz
CTR,P07,INI,FM,M1,34.553089382123574,Hz
CTR,P07,INI,FM,M2,37.14720074030009,Hz
CTR,P07,INI,FM,M3,37.141148325358856,Hz
CTR,P07,REL,FM,M1,27.14869450792991,Hz
CTR,P07,REL,FM,M2,62.65135536286228,Hz
CTR,P07,REL,FM,M3,72.54062138826569,Hz
CTR,P08,INI,FM,M1,67.88587302505933,Hz
CTR,P08,INI,FM,M2,61.51815181518151,Hz
CTR,P08,INI,FM,M3,73.76438921023995,Hz
CTR,P08,REL,FM,M1,62.576346474181,Hz
CTR,P08,REL,FM,M2,62.94028573309632,Hz
CTR,P08,REL,FM,M3,67.43023973948684,Hz
CTR,P13,INI,FM,M1,32.467532467532465,Hz
CTR,P13,INI,FM,M2,31.54602323503128,Hz
CTR,P13,INI,FM,M3,26.407613005551152,Hz
CTR,P13,REL,FM,M1,28.48676678564213,Hz
CTR,P13,REL,FM,M2,24.37246963562753,Hz
CTR,P13,REL,FM,M3,26.24564281320484,Hz
CTR,P16,INI,FM,M1,95.58086022774204,Hz
CTR,P16,INI,FM,M2,94.93202889482966,Hz
CTR,P16,INI,FM,M3,98.97660818713452,Hz
CTR,P16,REL,FM,M1,73.16588243090993,Hz
CTR,P16,REL,FM,M2,75.43822297920657,Hz
CTR,P16,REL,FM,M3,96.62622970607762,Hz
CTR,P21,INI,FM,M1,64.60265154417964,Hz
CTR,P21,INI,FM,M2,62.0608899297424,Hz
CTR,P21,INI,FM,M3,67.63405887749146,Hz
CTR,P21,REL,FM,M1,76.86072218128224,Hz
CTR,P21,REL,FM,M2,74.12587412587412,Hz
CTR,P21,REL,FM,M3,54.91132332878581,Hz
CTR,P22,INI,FM,M1,74.52307692307693,Hz
CTR,P22,INI,FM,M2,76.75843235663149,Hz
CTR,P22,INI,FM,M3,72.65964042157471,Hz
CTR,P22,REL,FM,M1,98.18360333824252,Hz
CTR,P22,REL,FM,M2,97.22115310599646,Hz
CTR,P22,REL,FM,M3,93.41840161182002,Hz
CTR,P23,INI,FM,M1,80.36086051353227,Hz
CTR,P23,INI,FM,M2,86.3190964170843,Hz
CTR,P23,INI,FM,M3,94.16763758481255,Hz
CTR,P23,REL,FM,M1,66.90140845070421,Hz
CTR,P23,REL,FM,M2,90.13418853911725,Hz
CTR,P23,REL,FM,M3,80.89186515485883,Hz
CTR,P25,INI,FM,M1,25.278767003327687,Hz
CTR,P25,INI,FM,M2,21.37784090909091,Hz
CTR,P25,INI,FM,M3,24.48709463931172,Hz
CTR,P25,REL,FM,M1,31.434454358270425,Hz
CTR,P25,REL,FM,M2,33.09803921568627,Hz
CTR,P25,REL,FM,M3,34.35504469987229,Hz
CTR,P35,INI,FM,M1,35.65217391304348,Hz
CTR,P35,INI,FM,M2,68.50618458610847,Hz
CTR,P35,INI,FM,M3,77.63157894736841,Hz
CTR,P35,REL,FM,M1,33.88796933530795,Hz
CTR,P35,REL,FM,M2,26.79671457905544,Hz
CTR,P35,REL,FM,M3,48.54681587633846,Hz
CTR,P38,INI,FM,M1,51.66078247712372,Hz
CTR,P38,INI,FM,M2,32.891660171473106,Hz
CTR,P38,INI,FM,M3,37.53481894150418,Hz
CTR,P38,REL,FM,M1,38.09523809523809,Hz
CTR,P38,REL,FM,M2,36.59919028340081,Hz
CTR,P38,REL,FM,M3,36.937716262975776,Hz
CTR,P39,INI,FM,M1,25.266661623420838,Hz
CTR,P39,INI,FM,M2,27.85465583430051,Hz
CTR,P39,INI,FM,M3,29.89424598218003,Hz
CTR,P39,REL,FM,M1,36.04749787955895,Hz
CTR,P39,REL,FM,M2,20.913866587372382,Hz
CTR,P39,REL,FM,M3,29.79890310786106,Hz
CTR,P40,INI,FM,M1,30.22965734830142,Hz
CTR,P40,INI,FM,M2,32.82511210762332,Hz
CTR,P40,INI,FM,M3,45.59635229181666,Hz
CTR,P40,REL,FM,M1,47.27921498661909,Hz
CTR,P40,REL,FM,M2,79.09497100484838,Hz
CTR,P40,REL,FM,M3,84.98491150803359,Hz
CTR,P44,INI,FM,M1,133.71518862334582,Hz
CTR,P44,INI,FM,M2,126.09736632083,Hz
CTR,P44,INI,FM,M3,89.92511912865896,Hz
CTR,P44,REL,FM,M1,67.80185758513932,Hz
CTR,P44,REL,FM,M2,65.55053591992205,Hz
CTR,P44,REL,FM,M3,136.14363778298204,Hz
CTR,P46,INI,FM,M1,146.47717873524326,Hz
CTR,P46,INI,FM,M2,129.97646095588988,Hz
CTR,P46,INI,FM,M3,132.44239631336407,Hz
CTR,P46,REL,FM,M1,30.175438596491222,Hz
CTR,P46,REL,FM,M2,24.47515560713155,Hz
CTR,P46,REL,FM,M3,25.04405899267229,Hz
CTR,P48,INI,FM,M1,80.3921568627451,Hz
CTR,P48,INI,FM,M2,78.95886103589832,Hz
CTR,P48,INI,FM,M3,80.47914818101154,Hz
CTR,P48,REL,FM,M1,65.53069511903814,Hz
CTR,P48,REL,FM,M2,63.763875742190855,Hz
CTR,P48,REL,FM,M3,66.7521436012501,Hz
CTR,P49,INI,FM,M1,73.35496568966435,Hz
CTR,P49,INI,FM,M2,68.67383512544802,Hz
CTR,P49,INI,FM,M3,63.34426229508197,Hz
CTR,P49,REL,FM,M1,27.068761922063764,Hz
CTR,P49,REL,FM,M2,34.67297084318361,Hz
CTR,P49,REL,FM,M3,24.09541461842211,Hz
CTR,P52,INI,FM,M1,72.69838868295635,Hz
CTR,P52,INI,FM,M2,56.928774438032896,Hz
CTR,P52,INI,FM,M3,73.46767422334173,Hz
CTR,P52,REL,FM,M1,70.55643582812937,Hz
CTR,P52,REL,FM,M2,77.46913580246913,Hz
CTR,P52,REL,FM,M3,102.099533437014,Hz
CTR,P55,INI,FM,M1,108.85214007782102,Hz
CTR,P55,INI,FM,M2,82.42870285188593,Hz
CTR,P55,INI,FM,M3,89.60802187784867,Hz
CTR,P55,REL,FM,M1,28.90120036934441,Hz
CTR,P55,REL,FM,M2,30.359085963003263,Hz
CTR,P55,REL,FM,M3,27.634660421545668,Hz
CTR,P56,INI,FM,M1,56.16447681938866,Hz
CTR,P56,INI,FM,M2,59.89180834621329,Hz
CTR,P56,INI,FM,M3,61.01449275362319,Hz
CTR,P56,REL,FM,M1,56.17977528089887,Hz
CTR,P56,REL,FM,M2,54.11764705882352,Hz
CTR,P56,REL,FM,M3,55.067369654364384,Hz
CTR,P57,INI,FM,M1,28.59416445623342,Hz
CTR,P57,INI,FM,M2,32.07066216136108,Hz
CTR,P57,INI,FM,M3,39.89933091891229,Hz
CTR,P57,REL,FM,M1,83.16378433367244,Hz
CTR,P57,REL,FM,M2,81.45695364238411,Hz
CTR,P57,REL,FM,M3,86.68604651162791,Hz
CTR,P60,INI,FM,M1,62.074186222558666,Hz
CTR,P60,INI,FM,M2,67.7846425419241,Hz
CTR,P60,INI,FM,M3,64.76502221183073,Hz
CTR,P60,REL,FM,M1,51.98487712665406,Hz
CTR,P60,REL,FM,M2,56.380863258860686,Hz
CTR,P60,REL,FM,M3,42.06098843322818,Hz
CTR,P64,INI,FM,M1,63.86655646554962,Hz
CTR,P64,INI,FM,M2,68.60893804513982,Hz
CTR,P64,INI,FM,M3,71.37901127493495,Hz
CTR,P64,REL,FM,M1,60.50359712230215,Hz
CTR,P64,REL,FM,M2,64.01826484018264,Hz
CTR,P64,REL,FM,M3,66.26415094339622,Hz
CTR,P66,INI,FM,M1,39.96268839903776,Hz
CTR,P66,INI,FM,M2,35.70323618587958,Hz
CTR,P66,INI,FM,M3,222.24998750562247,Hz
CTR,P66,REL,FM,M1,33.258141014517896,Hz
CTR,P66,REL,FM,M2,29.909204201531068,Hz
CTR,P66,REL,FM,M3,40.27532851698049,Hz
CTR,P67,INI,FM,M1,30.373134328358205,Hz
CTR,P67,INI,FM,M2,77.35159817351598,Hz
CTR,P67,INI,FM,M3,40.35512510088781,Hz
CTR,P67,REL,FM,M1,31.54395643256241,Hz
CTR,P67,REL,FM,M2,28.177777777777777,Hz
CTR,P67,REL,FM,M3,25.365781927799425,Hz
CTR,P68,INI,FM,M1,24.882083532709004,Hz
CTR,P68,INI,FM,M2,26.156490546296983,Hz
CTR,P68,INI,FM,M3,24.64037442356666,Hz
CTR,P68,REL,FM,M1,26.477187733732237,Hz
CTR,P68,REL,FM,M2,28.308453863407845,Hz
CTR,P68,REL,FM,M3,27.86108918705604,Hz
