Group,Participant,Session,Operator,Measure,Value,Unit
CTR,P01,INI,FM,M1,66.97751063776248,%MAX
CTR,P01,INI,FM,M2,68.82608389363322,%MAX
CTR,P01,INI,FM,M3,72.56783491751747,%MAX
CTR,P01,REL,FM,M1,79.48856801992257,%MAX
CTR,P01,REL,FM,M2,67.60248717923885,%MAX
CTR,P01,REL,FM,M3,75.67957254744384,%MAX
CTR,P02,INI,FM,M1,62.90878888636613,%MAX
CTR,P02,INI,FM,M2,67.78429494277962,%MAX
CTR,P02,INI,FM,M3,57.680265073827236,%MAX
CTR,P02,REL,FM,M1,60.591931300824925,%MAX
CTR,P02,REL,FM,M2,58.18992692570673,%MAX
CTR,P02,REL,FM,M3,60.9674764547108,%MAX
CTR,P03,INI,FM,M1,72.49941364993168,%MAX
CTR,P03,INI,FM,M2,68.26723245868625,%MAX
CTR,P03,INI,FM,M3,71.57884707847586,%MAX
CTR,P03,REL,FM,M1,55.81547987747707,%MAX
CTR,P03,REL,FM,M2,59.92755354030882,%MAX
CTR,P03,REL,FM,M3,60.991014621127896,%MAX
CTR,P05,INI,FM,M1,58.47570229029885,%MAX
CTR,P05,INI,FM,M2,64.17746290068773,%MAX
CTR,P05,INI,FM,M3,61.012151386151636,%MAX
CTR,P05,REL,FM,M1,52.924975078711114,%MAX
CTR,P05,REL,FM,M2,51.33425264556143,%MAX
CTR,P05,REL,FM,M3,52.135837863996485,%MAX
CTR,P06,INI,FM,M1,47.872879895792366,%MAX
CTR,P06,INI,FM,M2,44.09575520332293,%MAX
CTR,P06,INI,FM,M3,45.239270804273524,%MAX
CTR,P06,REL,FM,M1,51.9163491448738,%MAX
CTR,P06,REL,FM,M2,52.91295715681274,%MAX
CTR,P06,REL,FM,M3,55.062344438783384,%MAX
CTR,P07,INI,FM,M1,73.1818622802633,%MAX
CTR,P07,INI,FM,M2,76.05009238192542,%MAX
CTR,P07,INI,FM,M3,69.43994739969246,%MAX
CTR,P07,REL,FM,M1,71.41102034739781,%MAX
CTR,P07,REL,FM,M2,78.55387743104016,%MAX
CTR,P07,REL,FM,M3,81.83935746351989,%MAX
CTR,P08,INI,FM,M1,60.56285114163719,%MAX
CTR,P08,INI,FM,M2,56.50813733929853,%MAX
CTR,P08,INI,FM,M3,64.19171773967314,%MAX
CTR,P08,REL,FM,M1,60.181271956531,%MAX
CTR,P08,REL,FM,M2,60.79348043953919,%MAX
CTR,P08,REL,FM,M3,56.133335231475556,%MAX
CTR,P13,INI,FM,M1,74.87338977399338,%MAX
CTR,P13,INI,FM,M2,74.85065307182677,%MAX
CTR,P13,INI,FM,M3,69.50001990606351,%MAX
CTR,P13,REL,FM,M1,61.688600059788506,%MAX
CTR,P13,REL,FM,M2,66.83202924197545,%MAX
CTR,P13,REL,FM,M3,63.270108837065294,%MAX
CTR,P16,INI,FM,M1,145.99692233236652,%MAX
CTR,P16,INI,FM,M2,154.711655288796,%MAX
CTR,P16,INI,FM,M3,146.82986668366522,%MAX
CTR,P16,REL,FM,M1,129.72145144465225,%MAX
CTR,P16,REL,FM,M2,124.86293855656471,%MAX
CTR,P16,REL,FM,M3,132.0648211527297,%MAX
CTR,P21,INI,FM,M1,147.23797538429054,%MAX
CTR,P21,INI,FM,M2,158.1385716275059,%MAX
CTR,P21,INI,FM,M3,152.67406458081555,%MAX
CTR,P21,REL,FM,M1,118.88083310997435,%MAX
CTR,P21,REL,FM,M2,150.87393984190683,%MAX
CTR,P21,REL,FM,M3,174.66578721996677,%MAX
CTR,P22,INI,FM,M1,73.46296621222933,%MAX
CTR,P22,INI,FM,M2,83.89150392735093,%MAX
CTR,P22,INI,FM,M3,101.34599236128696,%MAX
CTR,P22,REL,FM,M1,104.90668852368407,%MAX
CTR,P22,REL,FM,M2,151.74316532527124,%MAX
CTR,P22,REL,FM,M3,156.61542049461212,%MAX
CTR,P23,INI,FM,M1,93.50647111264672,%MAX
CTR,P23,INI,FM,M2,89.86068266219331,%MAX
CTR,P23,INI,FM,M3,113.2013922773982,%MAX
CTR,P23,REL,FM,M1,100.92972870814481,%MAX
CTR,P23,REL,FM,M2,191.18274698901504,%MAX
CTR,P23,REL,FM,M3,185.9769551455716,%MAX
CTR,P25,INI,FM,M1,111.91261019100932,%MAX
CTR,P25,INI,FM,M2,158.09162713736217,%MAX
CTR,P25,INI,FM,M3,152.2861354778116,%MAX
CTR,P25,REL,FM,M1,83.27048063661348,%MAX
CTR,P25,REL,FM,M2,125.14622236116713,%MAX
CTR,P25,REL,FM,M3,140.645167548269,%MAX
CTR,P35,INI,FM,M1,149.41314124853392,%MAX
CTR,P35,INI,FM,M2,55.530701228461496,%MAX
CTR,P35,INI,FM,M3,246.85754202719116,%MAX
CTR,P35,REL,FM,M1,50.63933108325083,%MAX
CTR,P35,REL,FM,M2,51.59063792255262,%MAX
CTR,P35,REL,FM,M3,201.31450050156036,%MAX
CTR,P38,INI,FM,M1,68.99221552551721,%MAX
CTR,P38,INI,FM,M2,66.20462128207915,%MAX
CTR,P38,INI,FM,M3,65.21789009090907,%MAX
CTR,P38,REL,FM,M1,41.48158040202811,%MAX
CTR,P38,REL,FM,M2,43.775690799289755,%MAX
CTR,P38,REL,FM,M3,124.3788001158223,%MAX
CTR,P39,INI,FM,M1,53.21864143004199,%MAX
CTR,P39,INI,FM,M2,59.322556590573534,%MAX
CTR,P39,INI,FM,M3,142.75231394634443,%MAX
CTR,P39,REL,FM,M1,76.21856874837187,%MAX
CTR,P39,REL,FM,M2,77.61442521851895,%MAX
CTR,P39,REL,FM,M3,67.47234330617154,%MAX
CTR,P40,INI,FM,M1,62.95347074566635,%MAX
CTR,P40,INI,FM,M2,62.23269352838573,%MAX
CTR,P40,INI,FM,M3,169.76063290888047,%MAX
CTR,P40,REL,FM,M1,65.46120947133687,%MAX
CTR,P40,REL,FM,M2,67.17175910306295,%MAX
CTR,P40,REL,FM,M3,182.9264098857437,%MAX
CTR,P44,INI,FM,M1,43.457970192106494,%MAX
CTR,P44,INI,FM,M2,49.74856864158168,%MAX
CTR,P44,INI,FM,M3,141.46004683218283,%MAX
CTR,P44,REL,FM,M1,34.718175818842276,%MAX
CTR,P44,REL,FM,M2,36.88111176480709,%MAX
CTR,P44,REL,FM,M3,171.7925406641024,%MAX
CTR,P46,INI,FM,M1,57.209660341437726,%MAX
CTR,P46,INI,FM,M2,55.6721017534103,%MAX
CTR,P46,INI,FM,M3,61.43591775027471,%MAX
CTR,P46,REL,FM,M1,55.592951678026985,%MAX
CTR,P46,REL,FM,M2,58.272121359972715,%MAX
CTR,P46,REL,FM,M3,134.60362198440086,%MAX
CTR,P48,INI,FM,M1,66.69672812946271,%MAX
CTR,P48,INI,FM,M2,70.98597595028798,%MAX
CTR,P48,INI,FM,M3,244.01569957808186,%MAX
CTR,P48,REL,FM,M1,93.54186457106782,%MAX
CTR,P48,REL,FM,M2,65.93566551527066,%MAX
CTR,P48,REL,FM,M3,147.17283747794937,%MAX
CTR,P49,INI,FM,M1,56.37154214828365,%MAX
CTR,P49,INI,FM,M2,53.53257489341006,%MAX
CTR,P49,INI,FM,M3,171.66586903117997,%MAX
CTR,P49,REL,FM,M1,62.34457871978421,%MAX
CTR,P49,REL,FM,M2,77.52411370003668,%MAX
CTR,P49,REL,FM,M3,165.9397394921579,%MAX
CTR,P52,INI,FM,M1,138.21717425923148,%MAX
CTR,P52,INI,FM,M2,147.52761742647434,%MAX
CTR,P52,INI,FM,M3,131.03029025805048,%MAX
CTR,P52,REL,FM,M1,156.62042944465713,%MAX
CTR,P52,REL,FM,M2,153.18995539557935,%MAX
CTR,P52,REL,FM,M3,145.66991415702927,%MAX
CTR,P55,INI,FM,M1,145.23557608575166,%MAX
CTR,P55,INI,FM,M2,250.83558093932248,%MAX
CTR,P55,INI,FM,M3,193.52797119571497,%MAX
CTR,P55,REL,FM,M1,173.76124062557298,%MAX
CTR,P55,REL,FM,M2,160.56042088570757,%MAX
CTR,P55,REL,FM,M3,287.60799832981,%MAX
CTR,P56,INI,FM,M1,111.85949455932555,%MAX
CTR,P56,INI,FM,M2,146.9724731973568,%MAX
CTR,P56,INI,FM,M3,141.2774972093545,%MAX
CTR,P56,REL,FM,M1,127.54213607892778,%MAX
CTR,P56,REL,FM,M2,115.1612211953577,%MAX
CTR,P56,REL,FM,M3,112.47491652707559,%MAX
CTR,P57,INI,FM,M1,125.19728466936314,%MAX
CTR,P57,INI,FM,M2,143.6454794492031,%MAX
CTR,P57,INI,FM,M3,161.7324362490097,%MAX
CTR,P57,REL,FM,M1,123.67363079935177,%MAX
CTR,P57,REL,FM,M2,121.33648428916051,%MAX
CTR,P57,REL,FM,M3,179.24945090121068,%MAX
CTR,P60,INI,FM,M1,140.38395650454663,%MAX
CTR,P60,INI,FM,M2,133.51921647985822,%MAX
CTR,P60,INI,FM,M3,123.47810018053742,%MAX
CTR,P60,REL,FM,M1,81.53098755251757,%MAX
CTR,P60,REL,FM,M2,119.02579502391238,%MAX
CTR,P60,REL,FM,M3,131.98179384135616,%MAX
CTR,P64,INI,FM,M1,137.31639198258875,%MAX
CTR,P64,INI,FM,M2,184.81990784403445,%MAX
CTR,P64,INI,FM,M3,194.79238907044015,%MAX
CTR,P64,REL,FM,M1,155.4475797800021,%MAX
CTR,P64,REL,FM,M2,144.0940022130322,%MAX
CTR,P64,REL,FM,M3,146.16792623931943,%MAX
CTR,P66,INI,FM,M1,140.02951221813305,%MAX
CTR,P66,INI,FM,M2,176.9592900023196,%MAX
CTR,P66,INI,FM,M3,209.00226665127985,%MAX
CTR,P66,REL,FM,M1,61.21083298408598,%MAX
CTR,P66,REL,FM,M2,56.77716868095797,%MAX
CTR,P66,REL,FM,M3,52.93455543481843,%MAX
CTR,P67,INI,FM,M1,138.55879765463155,%MAX
CTR,P67,INI,FM,M2,295.8667128211905,%MAX
CTR,P67,INI,FM,M3,244.98424658110002,%MAX
CTR,P67,REL,FM,M1,139.85327683519307,%MAX
CTR,P67,REL,FM,M2,121.43947846937766,%MAX
CTR,P67,REL,FM,M3,120.92268160946237,%MAX
CTR,P68,INI,FM,M1,31.969823994817858,%MAX
CTR,P68,INI,FM,M2,176.689483567258,%MAX
CTR,P68,INI,FM,M3,235.42707371589094,%MAX
CTR,P68,REL,FM,M1,120.24683324079972,%MAX
CTR,P68,REL,FM,M2,116.08150019447255,%MAX
CTR,P68,REL,FM,M3,119.49153718636974,%MAX
