Group,Participant,Session,Operator,Measure,Value,Unit
CTR,P01,INI,FM,M1,44.75685072395519,%MAX
CTR,P01,INI,FM,M2,47.00989787069824,%MAX
CTR,P01,INI,FM,M3,49.88104947885654,%MAX
CTR,P01,REL,FM,M1,16.69279901714484,%MAX
CTR,P01,REL,FM,M2,24.897775525547264,%MAX
CTR,P01,REL,FM,M3,22.900516625999035,%MAX
CTR,P02,INI,FM,M1,20.133108304003567,%MAX
CTR,P02,INI,FM,M2,25.52595645907437,%MAX
CTR,P02,INI,FM,M3,29.9464084100136,%MAX
CTR,P02,REL,FM,M1,39.25601006259491,%MAX
CTR,P02,REL,FM,M2,26.848915082002225,%MAX
CTR,P02,REL,FM,M3,37.68958875122009,%MAX
CTR,P03,INI,FM,M1,20.20452621623662,%MAX
CTR,P03,INI,FM,M2,16.141530575580493,%MAX
CTR,P03,INI,FM,M3,19.039624905848697,%MAX
CTR,P03,REL,FM,M1,17.83172974027573,%MAX
CTR,P03,REL,FM,M2,14.29961202361246,%MAX
CTR,P03,REL,FM,M3,13.294327878210572,%MAX
CTR,P05,INI,FM,M1,16.529347905146466,%MAX
CTR,P05,INI,FM,M2,18.954499974416397,%MAX
CTR,P05,INI,FM,M3,16.830877022205275,%MAX
CTR,P05,REL,FM,M1,21.332971303118892,%MAX
CTR,P05,REL,FM,M2,20.66950328590122,%MAX
CTR,P05,REL,FM,M3,21.58352866674038,%MAX
CTR,P06,INI,FM,M1,15.44398148282781,%MAX
CTR,P06,INI,FM,M2,12.58901333431781,%MAX
CTR,P06,INI,FM,M3,11.494062490105465,%MAX
CTR,P06,REL,FM,M1,10.218307602316063,%MAX
CTR,P06,REL,FM,M2,10.784374518944,%MAX
CTR,P06,REL,FM,M3,11.448998771566213,%MAX
CTR,P07,INI,FM,M1,23.761267214301018,%MAX
CTR,P07,INI,FM,M2,25.88860086824925,%MAX
CTR,P07,INI,FM,M3,17.853100240932868,%MAX
CTR,P07,REL,FM,M1,16.581122905672046,%MAX
CTR,P07,REL,FM,M2,14.330195849071231,%MAX
CTR,P07,REL,FM,M3,13.534291561838238,%MAX
CTR,P08,INI,FM,M1,46.93851253306616,%MAX
CTR,P08,INI,FM,M2,40.86208994286597,%MAX
CTR,P08,INI,FM,M3,35.974847366894664,%MAX
CTR,P08,REL,FM,M1,53.31784318087682,%MAX
CTR,P08,REL,FM,M2,53.82990872210813,%MAX
CTR,P08,REL,FM,M3,63.29350935001868,%MAX
CTR,P13,INI,FM,M1,15.405941383892221,%MAX
CTR,P13,INI,FM,M2,14.384324740210424,%MAX
CTR,P13,INI,FM,M3,12.626995433585751,%MAX
CTR,P13,REL,FM,M1,26.22590888077322,%MAX
CTR,P13,REL,FM,M2,23.307743786743515,%MAX
CTR,P13,REL,FM,M3,23.24867867666223,%MAX
CTR,P16,INI,FM,M1,38.51797729783477,%MAX
CTR,P16,INI,FM,M2,40.81815783128274,%MAX
CTR,P16,INI,FM,M3,41.171005126664234,%MAX
CTR,P16,REL,FM,M1,32.580691635822106,%MAX
CTR,P16,REL,FM,M2,28.409705716505496,%MAX
CTR,P16,REL,FM,M3,30.732928792743092,%MAX
CTR,P21,INI,FM,M1,29.567552956015604,%MAX
CTR,P21,INI,FM,M2,27.410140813309358,%MAX
CTR,P21,INI,FM,M3,34.39831163277073,%MAX
CTR,P21,REL,FM,M1,14.731413560668054,%MAX
CTR,P21,REL,FM,M2,10.290642982725434,%MAX
CTR,P21,REL,FM,M3,17.50570961429846,%MAX
CTR,P22,INI,FM,M1,48.21300738960147,%MAX
CTR,P22,INI,FM,M2,38.68519336398667,%MAX
CTR,P22,INI,FM,M3,50.06141223061071,%MAX
CTR,P22,REL,FM,M1,26.38410981762513,%MAX
CTR,P22,REL,FM,M2,26.380942009667407,%MAX
CTR,P22,REL,FM,M3,27.741840374943095,%MAX
CTR,P23,INI,FM,M1,35.25051412708043,%MAX
CTR,P23,INI,FM,M2,26.713878967561886,%MAX
CTR,P23,INI,FM,M3,25.343188302186327,%MAX
CTR,P23,REL,FM,M1,26.55001935374059,%MAX
CTR,P23,REL,FM,M2,59.75524604671427,%MAX
CTR,P23,REL,FM,M3,53.694424926341135,%MAX
CTR,P25,INI,FM,M1,10.138137210865114,%MAX
CTR,P25,INI,FM,M2,10.991277887847044,%MAX
CTR,P25,INI,FM,M3,13.324184525825313,%MAX
CTR,P25,REL,FM,M1,9.885698621664478,%MAX
CTR,P25,REL,FM,M2,12.78885473382228,%MAX
CTR,P25,REL,FM,M3,11.479760582182216,%MAX
CTR,P35,INI,FM,M1,20.154870008724984,%MAX
CTR,P35,INI,FM,M2,11.052873111977364,%MAX
CTR,P35,INI,FM,M3,31.626912178937136,%MAX
CTR,P35,REL,FM,M1,14.590598787953374,%MAX
CTR,P35,REL,FM,M2,13.97074711606301,%MAX
CTR,P35,REL,FM,M3,41.22559142845874,%MAX
CTR,P38,INI,FM,M1,18.093506475442975,%MAX
CTR,P38,INI,FM,M2,15.023821284552428,%MAX
CTR,P38,INI,FM,M3,17.841737381386228,%MAX
CTR,P38,REL,FM,M1,20.292653423475908,%MAX
CTR,P38,REL,FM,M2,22.909105319328834,%MAX
CTR,P38,REL,FM,M3,31.1671359461585,%MAX
CTR,P39,INI,FM,M1,22.66480458902176,%MAX
CTR,P39,INI,FM,M2,31.436342929797704,%MAX
CTR,P39,INI,FM,M3,29.789657788589803,%MAX
CTR,P39,REL,FM,M1,33.600666303709744,%MAX
CTR,P39,REL,FM,M2,38.91079845695369,%MAX
CTR,P39,REL,FM,M3,36.42449943912015,%MAX
CTR,P40,INI,FM,M1,42.97671709013483,%MAX
CTR,P40,INI,FM,M2,34.95194903475334,%MAX
CTR,P40,INI,FM,M3,40.483557172146206,%MAX
CTR,P40,REL,FM,M1,35.765405445395,%MAX
CTR,P40,REL,FM,M2,31.61782841692222,%MAX
CTR,P40,REL,FM,M3,44.01828411736464,%MAX
CTR,P44,INI,FM,M1,16.400519469367772,%MAX
CTR,P44,INI,FM,M2,18.315167673728777,%MAX
CTR,P44,INI,FM,M3,24.89176132164318,%MAX
CTR,P44,REL,FM,M1,11.96188397363127,%MAX
CTR,P44,REL,FM,M2,21.450342616505658,%MAX
CTR,P44,REL,FM,M3,57.39013456104508,%MAX
CTR,P46,INI,FM,M1,27.486934415656055,%MAX
CTR,P46,INI,FM,M2,31.628232264582998,%MAX
CTR,P46,INI,FM,M3,22.605879229910418,%MAX
CTR,P46,REL,FM,M1,18.332235759724785,%MAX
CTR,P46,REL,FM,M2,20.464399756272957,%MAX
CTR,P46,REL,FM,M3,20.367351116664054,%MAX
CTR,P48,INI,FM,M1,22.77066620058193,%MAX
CTR,P48,INI,FM,M2,22.325233188119675,%MAX
CTR,P48,INI,FM,M3,31.725321014798766,%MAX
CTR,P48,REL,FM,M1,17.81458487653098,%MAX
CTR,P48,REL,FM,M2,15.840151298500237,%MAX
CTR,P48,REL,FM,M3,19.04102364941615,%MAX
CTR,P49,INI,FM,M1,18.49110303827609,%MAX
CTR,P49,INI,FM,M2,25.054783811642245,%MAX
CTR,P49,INI,FM,M3,32.6980482923369,%MAX
CTR,P49,REL,FM,M1,21.5109514234907,%MAX
CTR,P49,REL,FM,M2,28.41024517189099,%MAX
CTR,P49,REL,FM,M3,40.36034846772176,%MAX
CTR,P52,INI,FM,M1,26.182531033474366,%MAX
CTR,P52,INI,FM,M2,29.01966549613608,%MAX
CTR,P52,INI,FM,M3,24.56551074024644,%MAX
CTR,P52,REL,FM,M1,18.80516546140763,%MAX
CTR,P52,REL,FM,M2,27.756163700727182,%MAX
CTR,P52,REL,FM,M3,35.91917618168492,%MAX
CTR,P55,INI,FM,M1,33.728002962382995,%MAX
CTR,P55,INI,FM,M2,34.661980010551716,%MAX
CTR,P55,INI,FM,M3,30.33581110541035,%MAX
CTR,P55,REL,FM,M1,34.696816393716226,%MAX
CTR,P55,REL,FM,M2,31.780072589207418,%MAX
CTR,P55,REL,FM,M3,49.916972765051995,%MAX
CTR,P56,INI,FM,M1,15.849146392539376,%MAX
CTR,P56,INI,FM,M2,16.75605002369948,%MAX
CTR,P56,INI,FM,M3,19.672641871183725,%MAX
CTR,P56,REL,FM,M1,22.05126284968753,%MAX
CTR,P56,REL,FM,M2,17.32398506277392,%MAX
CTR,P56,REL,FM,M3,18.23365673344646,%MAX
CTR,P57,INI,FM,M1,38.66060997323048,%MAX
CTR,P57,INI,FM,M2,41.32927833591075,%MAX
CTR,P57,INI,FM,M3,42.18697705272286,%MAX
CTR,P57,REL,FM,M1,26.978644284210628,%MAX
CTR,P57,REL,FM,M2,49.49951030490727,%MAX
CTR,P57,REL,FM,M3,40.585833696979826,%MAX
CTR,P60,INI,FM,M1,11.192102736607728,%MAX
CTR,P60,INI,FM,M2,16.047127527165348,%MAX
CTR,P60,INI,FM,M3,10.84824360994388,%MAX
CTR,P60,REL,FM,M1,14.13608618712012,%MAX
CTR,P60,REL,FM,M2,18.750139256684015,%MAX
CTR,P60,REL,FM,M3,23.895657838925104,%MAX
CTR,P64,INI,FM,M1,19.60844231225134,%MAX
CTR,P64,INI,FM,M2,28.205026544782285,%MAX
CTR,P64,INI,FM,M3,30.08694198982856,%MAX
CTR,P64,REL,FM,M1,34.96160401606131,%MAX
CTR,P64,REL,FM,M2,37.43249567877602,%MAX
CTR,P64,REL,FM,M3,27.0513038900658,%MAX
CTR,P66,INI,FM,M1,21.606646752546396,%MAX
CTR,P66,INI,FM,M2,31.79851082414061,%MAX
CTR,P66,INI,FM,M3,34.4866959441306,%MAX
CTR,P66,REL,FM,M1,32.65495937028078,%MAX
CTR,P66,REL,FM,M2,33.62839390433449,%MAX
CTR,P66,REL,FM,M3,30.21812517428918,%MAX
CTR,P67,INI,FM,M1,24.589804243735912,%MAX
CTR,P67,INI,FM,M2,40.14972272202374,%MAX
CTR,P67,INI,FM,M3,37.418408957466866,%MAX
CTR,P67,REL,FM,M1,27.193210771871104,%MAX
CTR,P67,REL,FM,M2,23.012414398304262,%MAX
CTR,P67,REL,FM,M3,15.957803528708247,%MAX
CTR,P68,INI,FM,M1,27.603328180088763,%MAX
CTR,P68,INI,FM,M2,21.392973272472673,%MAX
CTR,P68,INI,FM,M3,36.92214866242494,%MAX
CTR,P68,REL,FM,M1,29.6216893044936,%MAX
CTR,P68,REL,FM,M2,26.106220377930782,%MAX
CTR,P68,REL,FM,M3,38.111567224797916,%MAX
