Group,Participant,Session,Operator,Measure,Value,Unit
CTR,P01,INI,FM,M1,0.0012223209329803,V
CTR,P01,INI,FM,M2,0.0014024445882009,V
CTR,P01,INI,FM,M3,0.0038748175019404,V
CTR,P01,REL,FM,M1,0.0026595062930659,V
CTR,P01,REL,FM,M2,0.0022094223972991,V
CTR,P01,REL,FM,M3,0.0022936143470455,V
CTR,P02,INI,FM,M1,0.000705152667605,V
CTR,P02,INI,FM,M2,0.0003992161562409,V
CTR,P02,INI,FM,M3,0.0006746940141996,V
CTR,P02,REL,FM,M1,0.0005963407863812,V
CTR,P02,REL,FM,M2,0.0004467825997626,V
CTR,P02,REL,FM,M3,0.0009635281885616,V
CTR,P03,INI,FM,M1,0.0001838569527383,V
CTR,P03,INI,FM,M2,0.0003590468379833,V
CTR,P03,INI,FM,M3,0.0005542473475787,V
CTR,P03,REL,FM,M1,0.077604368812912,V
CTR,P03,REL,FM,M2,0.0208182997141672,V
CTR,P03,REL,FM,M3,0.0103314948456175,V
CTR,P05,INI,FM,M1,0.0056008933926057,V
CTR,P05,INI,FM,M2,0.0043469049049446,V
CTR,P05,INI,FM,M3,0.0038894387735974,V
CTR,P05,REL,FM,M1,0.0235947740123869,V
CTR,P05,REL,FM,M2,0.0017944649451474,V
CTR,P05,REL,FM,M3,0.0061423119507569,V
CTR,P06,INI,FM,M1,0.0006358293885462,V
CTR,P06,INI,FM,M2,0.0003940517347563,V
CTR,P06,INI,FM,M3,0.0002422620559916,V
CTR,P06,REL,FM,M1,0.000731818041366,V
CTR,P06,REL,FM,M2,0.0007811274364218,V
CTR,P06,REL,FM,M3,0.0011999995864253,V
CTR,P07,INI,FM,M1,0.00346775473753,V
CTR,P07,INI,FM,M2,0.0022665575990725,V
CTR,P07,INI,FM,M3,0.0035647394431312,V
CTR,P07,REL,FM,M1,0.0034783159484607,V
CTR,P07,REL,FM,M2,0.0055299928487446,V
CTR,P07,REL,FM,M3,0.008564446331113,V
CTR,P08,INI,FM,M1,0.0003861453919557,V
CTR,P08,INI,FM,M2,0.0004168309339507,V
CTR,P08,INI,FM,M3,0.000558374113857,V
CTR,P08,REL,FM,M1,0.0004382145354079,V
CTR,P08,REL,FM,M2,0.0014575706271157,V
CTR,P08,REL,FM,M3,0.000313688990384,V
CTR,P13,INI,FM,M1,0.003513848714502,V
CTR,P13,INI,FM,M2,0.0083440439255124,V
CTR,P13,INI,FM,M3,0.008438634090066,V
CTR,P13,REL,FM,M1,0.0060142257600874,V
CTR,P13,REL,FM,M2,0.0080091013520488,V
CTR,P13,REL,FM,M3,0.0082931852456591,V
CTR,P16,INI,FM,M1,0.0010756886542118,V
CTR,P16,INI,FM,M2,0.0006933701450956,V
CTR,P16,INI,FM,M3,0.0004864191600552,V
CTR,P16,REL,FM,M1,0.0004021250304417,V
CTR,P16,REL,FM,M2,0.0008521308071702,V
CTR,P16,REL,FM,M3,0.000644351947835,V
CTR,P21,INI,FM,M1,0.009103677536651,V
CTR,P21,INI,FM,M2,0.0072156245605283,V
CTR,P21,INI,FM,M3,0.0095776729412402,V
CTR,P21,REL,FM,M1,0.0617651909989081,V
CTR,P21,REL,FM,M2,0.019671573732062,V
CTR,P21,REL,FM,M3,0.0196111126527152,V
CTR,P22,INI,FM,M1,0.002910323125635,V
CTR,P22,INI,FM,M2,0.0027179130153943,V
CTR,P22,INI,FM,M3,0.0015492617603525,V
CTR,P22,REL,FM,M1,0.0037440466338962,V
CTR,P22,REL,FM,M2,0.0026408091061827,V
CTR,P22,REL,FM,M3,0.0040180564783678,V
CTR,P23,INI,FM,M1,0.0010129651470666,V
CTR,P23,INI,FM,M2,0.000511875561741,V
CTR,P23,INI,FM,M3,0.0008831630640016,V
CTR,P23,REL,FM,M1,0.0010295277530159,V
CTR,P23,REL,FM,M2,0.0013043545183824,V
CTR,P23,REL,FM,M3,0.0020486807676778,V
CTR,P25,INI,FM,M1,0.0015448368446091,V
CTR,P25,INI,FM,M2,0.0059152265930623,V
CTR,P25,INI,FM,M3,0.0041765043742014,V
CTR,P25,REL,FM,M1,0.0046716311080563,V
CTR,P25,REL,FM,M2,0.0042896721677519,V
CTR,P25,REL,FM,M3,0.0045870703890912,V
CTR,P35,INI,FM,M1,0.0078162262078463,V
CTR,P35,INI,FM,M2,0.0041334263896474,V
CTR,P35,INI,FM,M3,0.006352551065512,V
CTR,P35,REL,FM,M1,0.0071491675444371,V
CTR,P35,REL,FM,M2,0.0099263209290131,V
CTR,P35,REL,FM,M3,0.0041722352634973,V
CTR,P38,INI,FM,M1,0.1596488433081166,V
CTR,P38,INI,FM,M2,0.0558100818918522,V
CTR,P38,INI,FM,M3,0.048104645986852,V
CTR,P38,REL,FM,M1,0.0408800439841174,V
CTR,P38,REL,FM,M2,0.0134977286262366,V
CTR,P38,REL,FM,M3,0.0129811797665053,V
CTR,P39,INI,FM,M1,0.0025263682788037,V
CTR,P39,INI,FM,M2,0.0038168830312706,V
CTR,P39,INI,FM,M3,0.0042541969787515,V
CTR,P39,REL,FM,M1,0.0042977785595929,V
CTR,P39,REL,FM,M2,0.0029205019339997,V
CTR,P39,REL,FM,M3,0.0044583841073396,V
CTR,P40,INI,FM,M1,0.0066768389277651,V
CTR,P40,INI,FM,M2,0.0082852433623634,V
CTR,P40,INI,FM,M3,0.0110037925929095,V
CTR,P40,REL,FM,M1,0.0064507812358395,V
CTR,P40,REL,FM,M2,0.0103588471045204,V
CTR,P40,REL,FM,M3,0.0077378088119012,V
CTR,P44,INI,FM,M1,0.0016315072920262,V
CTR,P44,INI,FM,M2,0.0024800019936609,V
CTR,P44,INI,FM,M3,0.0016831086340272,V
CTR,P44,REL,FM,M1,0.0038004504271531,V
CTR,P44,REL,FM,M2,0.0050536938468703,V
CTR,P44,REL,FM,M3,0.0042847200366171,V
CTR,P46,INI,FM,M1,0.0106058328377082,V
CTR,P46,INI,FM,M2,0.0115767903632452,V
CTR,P46,INI,FM,M3,0.0111316033418092,V
CTR,P46,REL,FM,M1,0.0048870118583163,V
CTR,P46,REL,FM,M2,0.0125525829204344,V
CTR,P46,REL,FM,M3,0.0133239903152304,V
CTR,P48,INI,FM,M1,0.0086526447376485,V
CTR,P48,INI,FM,M2,0.0069602974786351,V
CTR,P48,INI,FM,M3,0.0184618893710652,V
CTR,P48,REL,FM,M1,0.0083135530362186,V
CTR,P48,REL,FM,M2,0.0077305129711499,V
CTR,P48,REL,FM,M3,0.0084075543933946,V
CTR,P49,INI,FM,M1,0.0010401872226629,V
CTR,P49,INI,FM,M2,0.0016062813986579,V
CTR,P49,INI,FM,M3,0.0022514769018257,V
CTR,P49,REL,FM,M1,0.0052431817814138,V
CTR,P49,REL,FM,M2,0.0019655793682266,V
CTR,P49,REL,FM,M3,0.0020690096378874,V
CTR,P52,INI,FM,M1,0.0024036965387343,V
CTR,P52,INI,FM,M2,0.0037322455059601,V
CTR,P52,INI,FM,M3,0.0034222943300724,V
CTR,P52,REL,FM,M1,0.0110141978667905,V
CTR,P52,REL,FM,M2,0.008908805932019,V
CTR,P52,REL,FM,M3,0.0088966194051695,V
CTR,P55,INI,FM,M1,0.008636087541564,V
CTR,P55,INI,FM,M2,0.0023937135386199,V
CTR,P55,INI,FM,M3,0.0025410414204018,V
CTR,P55,REL,FM,M1,0.0053240029774623,V
CTR,P55,REL,FM,M2,0.0049948464250998,V
CTR,P55,REL,FM,M3,0.0045069422340536,V
CTR,P56,INI,FM,M1,0.0007220367795488,V
CTR,P56,INI,FM,M2,0.0016147123616857,V
CTR,P56,INI,FM,M3,0.0026092078997006,V
CTR,P56,REL,FM,M1,0.0034875934396641,V
CTR,P56,REL,FM,M2,0.0029040448364313,V
CTR,P56,REL,FM,M3,0.0048949398039339,V
CTR,P57,INI,FM,M1,0.0002789665824348,V
CTR,P57,INI,FM,M2,0.0001270261926112,V
CTR,P57,INI,FM,M3,0.0003820882588703,V
CTR,P57,REL,FM,M1,0.0002157731151688,V
CTR,P57,REL,FM,M2,0.0005348100281546,V
CTR,P57,REL,FM,M3,0.0006089417570238,V
CTR,P60,INI,FM,M1,0.004857957924814,V
CTR,P60,INI,FM,M2,0.0036376069521016,V
CTR,P60,INI,FM,M3,0.0054969997260959,V
CTR,P60,REL,FM,M1,0.0092371522646393,V
CTR,P60,REL,FM,M2,0.0121471180347775,V
CTR,P60,REL,FM,M3,0.009348148707829,V
CTR,P64,INI,FM,M1,0.0028298447269223,V
CTR,P64,INI,FM,M2,0.0096466803330922,V
CTR,P64,INI,FM,M3,0.0088117779586798,V
CTR,P64,REL,FM,M1,0.0017106563230324,V
CTR,P64,REL,FM,M2,0.0080131130394648,V
CTR,P64,REL,FM,M3,0.007800223168182,V
CTR,P66,INI,FM,M1,0.0010002785945077,V
CTR,P66,INI,FM,M2,0.0004848052809398,V
CTR,P66,INI,FM,M3,0.0008570676004589,V
CTR,P66,REL,FM,M1,0.0020655355206562,V
CTR,P66,REL,FM,M2,0.0008129959027499,V
CTR,P66,REL,FM,M3,0.0021764391114834,V
CTR,P67,INI,FM,M1,0.0019703195333927,V
CTR,P67,INI,FM,M2,0.0090346899333893,V
CTR,P67,INI,FM,M3,0.0129322977853819,V
CTR,P67,REL,FM,M1,0.0088726045592793,V
CTR,P67,REL,FM,M2,0.0089177822233544,V
CTR,P67,REL,FM,M3,0.0165974574475812,V
CTR,P68,INI,FM,M1,0.0158586964129619,V
CTR,P68,INI,FM,M2,0.0138122708637277,V
CTR,P68,INI,FM,M3,0.0106721675275371,V
CTR,P68,REL,FM,M1,0.0102803835675944,V
CTR,P68,REL,FM,M2,0.0117576102199702,V
CTR,P68,REL,FM,M3,0.0132900536464791,V
