Group,Participant,Session,Operator,Measure,Value,Unit
CTR,P01,INI,FM,M1,0.5768217339351758,NAN
CTR,P01,INI,FM,M2,0.8034017378737781,NAN
CTR,P01,INI,FM,M3,0.419034129371946,NAN
CTR,P01,REL,FM,M1,0.7008417552750464,NAN
CTR,P01,REL,FM,M2,5.964075460488157,NAN
CTR,P01,REL,FM,M3,0.6331599501076893,NAN
CTR,P02,INI,FM,M1,0.6845336014620723,NAN
CTR,P02,INI,FM,M2,0.658899355792352,NAN
CTR,P02,INI,FM,M3,0.74435188405714,NAN
CTR,P02,REL,FM,M1,0.5544856808581994,NAN
CTR,P02,REL,FM,M2,0.345948070516319,NAN
CTR,P02,REL,FM,M3,0.5428280790081911,NAN
CTR,P03,INI,FM,M1,0.346855299693643,NAN
CTR,P03,INI,FM,M2,0.30602071573393,NAN
CTR,P03,INI,FM,M3,0.2589200670413003,NAN
CTR,P03,REL,FM,M1,0.688324788651275,NAN
CTR,P03,REL,FM,M2,0.8309874514798729,NAN
CTR,P03,REL,FM,M3,0.8861307681579446,NAN
CTR,P05,INI,FM,M1,0.267646377561383,NAN
CTR,P05,INI,FM,M2,0.3232945548516466,NAN
CTR,P05,INI,FM,M3,0.2069079095365484,NAN
CTR,P05,REL,FM,M1,0.3174854524410546,NAN
CTR,P05,REL,FM,M2,0.2812260077306949,NAN
CTR,P05,REL,FM,M3,0.2253923077228343,NAN
CTR,P06,INI,FM,M1,0.5546359896707421,NAN
CTR,P06,INI,FM,M2,0.3475595884097706,NAN
CTR,P06,INI,FM,M3,0.3665461504375225,NAN
CTR,P06,REL,FM,M1,0.3886144463271168,NAN
CTR,P06,REL,FM,M2,0.3085044462747088,NAN
CTR,P06,REL,FM,M3,0.3297912928708225,NAN
CTR,P07,INI,FM,M1,0.5449592788961823,NAN
CTR,P07,INI,FM,M2,0.6806490342606504,NAN
CTR,P07,INI,FM,M3,0.5212454777020841,NAN
CTR,P07,REL,FM,M1,0.51156770403712,NAN
CTR,P07,REL,FM,M2,0.5740658997299855,NAN
CTR,P07,REL,FM,M3,0.566566648881281,NAN
CTR,P08,INI,FM,M1,0.4694296883371683,NAN
CTR,P08,INI,FM,M2,0.3445856410617544,NAN
CTR,P08,INI,FM,M3,0.5669065367885741,NAN
CTR,P08,REL,FM,M1,0.5199238108091926,NAN
CTR,P08,REL,FM,M2,0.4514199633716558,NAN
CTR,P08,REL,FM,M3,0.6223582160923253,NAN
CTR,P13,INI,FM,M1,0.6927109836259677,NAN
CTR,P13,INI,FM,M2,0.5647922584549703,NAN
CTR,P13,INI,FM,M3,0.5591414948638214,NAN
CTR,P13,REL,FM,M1,0.5536803270933516,NAN
CTR,P13,REL,FM,M2,0.5275239466366243,NAN
CTR,P13,REL,FM,M3,0.5215403175354906,NAN
CTR,P16,INI,FM,M1,0.3327274389817679,NAN
CTR,P16,INI,FM,M2,0.4691181191961799,NAN
CTR,P16,INI,FM,M3,0.548738732890942,NAN
CTR,P16,REL,FM,M1,0.1700877159656049,NAN
CTR,P16,REL,FM,M2,0.2302641814826864,NAN
CTR,P16,REL,FM,M3,0.2708753417898481,NAN
CTR,P21,INI,FM,M1,0.4150530809968572,NAN
CTR,P21,INI,FM,M2,0.3301416748291848,NAN
CTR,P21,INI,FM,M3,0.3458235959909876,NAN
CTR,P21,REL,FM,M1,0.2054349138963545,NAN
CTR,P21,REL,FM,M2,5.041415843761929,NAN
CTR,P21,REL,FM,M3,1.2107441974045217,NAN
CTR,P22,INI,FM,M1,0.7223585594796966,NAN
CTR,P22,INI,FM,M2,0.878429621316049,NAN
CTR,P22,INI,FM,M3,0.8660817013010734,NAN
CTR,P22,REL,FM,M1,0.6838241562042068,NAN
CTR,P22,REL,FM,M2,1.5234653365019353,NAN
CTR,P22,REL,FM,M3,0.7160530926217239,NAN
CTR,P23,INI,FM,M1,0.4740181596923197,NAN
CTR,P23,INI,FM,M2,0.4796966448289032,NAN
CTR,P23,INI,FM,M3,0.4192890239164927,NAN
CTR,P23,REL,FM,M1,0.7593477301546411,NAN
CTR,P23,REL,FM,M2,0.5423606773609138,NAN
CTR,P23,REL,FM,M3,0.5391527752217448,NAN
CTR,P25,INI,FM,M1,0.4524416729069118,NAN
CTR,P25,INI,FM,M2,0.5891702323644815,NAN
CTR,P25,INI,FM,M3,0.5254905730990463,NAN
CTR,P25,REL,FM,M1,0.4252389198877506,NAN
CTR,P25,REL,FM,M2,0.3854150078164873,NAN
CTR,P25,REL,FM,M3,0.2803115841920184,NAN
CTR,P35,INI,FM,M1,0.6693304272435393,NAN
CTR,P35,INI,FM,M2,0.6292613648474326,NAN
CTR,P35,INI,FM,M3,0.5634895399557978,NAN
CTR,P35,REL,FM,M1,0.525089687107431,NAN
CTR,P35,REL,FM,M2,0.4309309980765829,NAN
CTR,P35,REL,FM,M3,0.4753964104663212,NAN
CTR,P38,INI,FM,M1,1.9943816010325817,NAN
CTR,P38,INI,FM,M2,1.0132180247427272,NAN
CTR,P38,INI,FM,M3,1.3462678651350692,NAN
CTR,P38,REL,FM,M1,1.60019007276378,NAN
CTR,P38,REL,FM,M2,1.0679176662422385,NAN
CTR,P38,REL,FM,M3,0.7944119974313192,NAN
CTR,P39,INI,FM,M1,0.593094140516154,NAN
CTR,P39,INI,FM,M2,0.5336799478421266,NAN
CTR,P39,INI,FM,M3,0.4483060690273246,NAN
CTR,P39,REL,FM,M1,1.1856778089059468,NAN
CTR,P39,REL,FM,M2,1.197129500587914,NAN
CTR,P39,REL,FM,M3,2.546609778029901,NAN
CTR,P40,INI,FM,M1,0.5096658195586439,NAN
CTR,P40,INI,FM,M2,0.9565278585255702,NAN
CTR,P40,INI,FM,M3,0.8196500962120501,NAN
CTR,P40,REL,FM,M1,0.6770131651948046,NAN
CTR,P40,REL,FM,M2,0.5345938296420649,NAN
CTR,P40,REL,FM,M3,0.6725985660865925,NAN
CTR,P44,INI,FM,M1,0.6286895269984089,NAN
CTR,P44,INI,FM,M2,0.4924581473821181,NAN
CTR,P44,INI,FM,M3,0.3041568555832576,NAN
CTR,P44,REL,FM,M1,0.3925272543009941,NAN
CTR,P44,REL,FM,M2,0.3920380445540461,NAN
CTR,P44,REL,FM,M3,0.4796112917070952,NAN
CTR,P46,INI,FM,M1,0.5767566808511455,NAN
CTR,P46,INI,FM,M2,0.8904219171228887,NAN
CTR,P46,INI,FM,M3,0.8877223350784583,NAN
CTR,P46,REL,FM,M1,0.4790725800062029,NAN
CTR,P46,REL,FM,M2,0.3459691511420782,NAN
CTR,P46,REL,FM,M3,0.4824830398232231,NAN
CTR,P48,INI,FM,M1,0.5372506263014664,NAN
CTR,P48,INI,FM,M2,0.3074455837386232,NAN
CTR,P48,INI,FM,M3,0.3635272168110591,NAN
CTR,P48,REL,FM,M1,0.6230906251485273,NAN
CTR,P48,REL,FM,M2,0.4370970668425055,NAN
CTR,P48,REL,FM,M3,0.541497985414654,NAN
CTR,P49,INI,FM,M1,0.7909150282644046,NAN
CTR,P49,INI,FM,M2,0.7299568179810222,NAN
CTR,P49,INI,FM,M3,0.7703365527661239,NAN
CTR,P49,REL,FM,M1,0.8327816737701763,NAN
CTR,P49,REL,FM,M2,0.4301063105269682,NAN
CTR,P49,REL,FM,M3,0.3675877545705421,NAN
CTR,P52,INI,FM,M1,0.5656973202454746,NAN
CTR,P52,INI,FM,M2,0.5325841820577911,NAN
CTR,P52,INI,FM,M3,0.3145189350637221,NAN
CTR,P52,REL,FM,M1,0.580768545992723,NAN
CTR,P52,REL,FM,M2,0.2791020662394814,NAN
CTR,P52,REL,FM,M3,0.3408454875002953,NAN
CTR,P55,INI,FM,M1,0.7001151078741226,NAN
CTR,P55,INI,FM,M2,0.4682327860056797,NAN
CTR,P55,INI,FM,M3,0.4904223470619145,NAN
CTR,P55,REL,FM,M1,0.4136079212542672,NAN
CTR,P55,REL,FM,M2,0.6086187206970666,NAN
CTR,P55,REL,FM,M3,0.4382516121233186,NAN
CTR,P56,INI,FM,M1,0.2907060523049711,NAN
CTR,P56,INI,FM,M2,0.331309944441335,NAN
CTR,P56,INI,FM,M3,0.2701710314598846,NAN
CTR,P56,REL,FM,M1,0.2940348443189802,NAN
CTR,P56,REL,FM,M2,0.2823777704663711,NAN
CTR,P56,REL,FM,M3,0.2725980929630137,NAN
CTR,P57,INI,FM,M1,0.3150671049944523,NAN
CTR,P57,INI,FM,M2,0.6376265533729525,NAN
CTR,P57,INI,FM,M3,0.2303641141528064,NAN
CTR,P57,REL,FM,M1,0.3253491849912799,NAN
CTR,P57,REL,FM,M2,0.2994847248787666,NAN
CTR,P57,REL,FM,M3,0.3956310686199183,NAN
CTR,P60,INI,FM,M1,0.286539897533015,NAN
CTR,P60,INI,FM,M2,0.24214701281278,NAN
CTR,P60,INI,FM,M3,0.138478077074992,NAN
CTR,P60,REL,FM,M1,0.2397877946365867,NAN
CTR,P60,REL,FM,M2,0.1275192129701318,NAN
CTR,P60,REL,FM,M3,0.1669299358791115,NAN
CTR,P64,INI,FM,M1,0.2998646731846114,NAN
CTR,P64,INI,FM,M2,0.2274258124115121,NAN
CTR,P64,INI,FM,M3,0.4386846638688223,NAN
CTR,P64,REL,FM,M1,0.1482643895701015,NAN
CTR,P64,REL,FM,M2,0.2390630055995216,NAN
CTR,P64,REL,FM,M3,0.1959757391810049,NAN
CTR,P66,INI,FM,M1,0.4648341694035093,NAN
CTR,P66,INI,FM,M2,0.5921376270103542,NAN
CTR,P66,INI,FM,M3,0.4469206998823701,NAN
CTR,P66,REL,FM,M1,0.6556717738189687,NAN
CTR,P66,REL,FM,M2,0.4666263218945166,NAN
CTR,P66,REL,FM,M3,0.463407070828626,NAN
CTR,P67,INI,FM,M1,0.4581261333365828,NAN
CTR,P67,INI,FM,M2,0.3578953146150144,NAN
CTR,P67,INI,FM,M3,0.4219854245124755,NAN
CTR,P67,REL,FM,M1,1.0239946489240217,NAN
CTR,P67,REL,FM,M2,0.7991481845992214,NAN
CTR,P67,REL,FM,M3,0.6255811254856521,NAN
CTR,P68,INI,FM,M1,0.6286620517295188,NAN
CTR,P68,INI,FM,M2,0.4367605606455235,NAN
CTR,P68,INI,FM,M3,0.6686415369364048,NAN
CTR,P68,REL,FM,M1,0.6861378769032639,NAN
CTR,P68,REL,FM,M2,0.7089399701353774,NAN
CTR,P68,REL,FM,M3,0.6884471362871042,NAN
