Group,Participant,Session,Operator,Measure,Value,Unit
CTR,P01,INI,FM,M1,0.0777499124339735,%MAX
CTR,P01,INI,FM,M2,0.3103428076602343,%MAX
CTR,P01,INI,FM,M3,0.0782808110017,%MAX
CTR,P01,REL,FM,M1,3.197882173623724,%MAX
CTR,P01,REL,FM,M2,2.61675460708566,%MAX
CTR,P01,REL,FM,M3,2.4629469812373324,%MAX
CTR,P02,INI,FM,M1,7.653264157833667,%MAX
CTR,P02,INI,FM,M2,7.401067041901243,%MAX
CTR,P02,INI,FM,M3,7.806327188588403,%MAX
CTR,P03,INI,FM,M1,9.100399750982962,%MAX
CTR,P03,INI,FM,M2,11.530253464150851,%MAX
CTR,P03,INI,FM,M3,9.98199102074276,%MAX
CTR,P03,REL,FM,M1,9.151483220917871,%MAX
CTR,P03,REL,FM,M2,9.88308609894629,%MAX
CTR,P03,REL,FM,M3,8.964058175688493,%MAX
CTR,P05,INI,FM,M1,3.223739874091816,%MAX
CTR,P05,INI,FM,M2,4.295357073984377,%MAX
CTR,P05,INI,FM,M3,3.594424394579917,%MAX
CTR,P05,REL,FM,M1,5.438338852483149,%MAX
CTR,P05,REL,FM,M2,7.926665308719414,%MAX
CTR,P05,REL,FM,M3,6.669887879708195,%MAX
CTR,P06,INI,FM,M1,18.05820630305114,%MAX
CTR,P06,INI,FM,M2,19.000012328432994,%MAX
CTR,P06,INI,FM,M3,18.590443852437872,%MAX
CTR,P06,REL,FM,M1,12.899587728154188,%MAX
CTR,P06,REL,FM,M2,13.52418570857273,%MAX
CTR,P06,REL,FM,M3,12.8795936430245,%MAX
CTR,P07,INI,FM,M1,6.947138396317538,%MAX
CTR,P07,INI,FM,M2,6.542040229311166,%MAX
CTR,P07,INI,FM,M3,6.657176613009763,%MAX
CTR,P07,REL,FM,M1,8.265823559042802,%MAX
CTR,P07,REL,FM,M2,9.63406846531322,%MAX
CTR,P07,REL,FM,M3,12.235288166856156,%MAX
CTR,P08,INI,FM,M1,3.9318329418783904,%MAX
CTR,P08,INI,FM,M2,3.9538379027714776,%MAX
CTR,P08,INI,FM,M3,3.463855343389283,%MAX
CTR,P08,REL,FM,M1,2.3346874161144258,%MAX
CTR,P08,REL,FM,M2,2.174611056793659,%MAX
CTR,P08,REL,FM,M3,2.154484312067693,%MAX
CTR,P13,INI,FM,M1,9.067339841579368,%MAX
CTR,P13,INI,FM,M2,9.481503717235,%MAX
CTR,P13,INI,FM,M3,9.24157732047233,%MAX
CTR,P13,REL,FM,M1,11.675037054203573,%MAX
CTR,P13,REL,FM,M2,11.340130474044548,%MAX
CTR,P13,REL,FM,M3,11.40699734408447,%MAX
CTR,P16,INI,FM,M1,7.180703887474773,%MAX
CTR,P16,INI,FM,M2,7.330509117477828,%MAX
CTR,P16,INI,FM,M3,6.466149506926261,%MAX
CTR,P16,REL,FM,M1,7.929289419321291,%MAX
CTR,P16,REL,FM,M2,8.418798464610907,%MAX
CTR,P16,REL,FM,M3,7.719240218853439,%MAX
CTR,P21,INI,FM,M1,4.281365862056972,%MAX
CTR,P21,INI,FM,M2,5.06212645647827,%MAX
CTR,P21,INI,FM,M3,5.174764323188109,%MAX
CTR,P21,REL,FM,M1,3.4067250703979544,%MAX
CTR,P21,REL,FM,M2,3.115164748532232,%MAX
CTR,P21,REL,FM,M3,3.845040527150438,%MAX
CTR,P22,INI,FM,M1,5.082281727799785,%MAX
CTR,P22,INI,FM,M2,5.116204148663973,%MAX
CTR,P22,INI,FM,M3,5.044721510133815,%MAX
CTR,P22,REL,FM,M1,6.52960615565646,%MAX
CTR,P22,REL,FM,M2,6.589168140494969,%MAX
CTR,P22,REL,FM,M3,6.84571347005404,%MAX
CTR,P23,INI,FM,M1,9.373641592365336,%MAX
CTR,P23,INI,FM,M2,10.351358345769489,%MAX
CTR,P23,INI,FM,M3,10.46818897781936,%MAX
CTR,P23,REL,FM,M1,8.169220459942988,%MAX
CTR,P23,REL,FM,M2,10.016484215585118,%MAX
CTR,P23,REL,FM,M3,8.408205519377628,%MAX
CTR,P25,INI,FM,M1,5.895111650249097,%MAX
CTR,P25,INI,FM,M2,6.03250466856024,%MAX
CTR,P25,INI,FM,M3,7.053796739795608,%MAX
CTR,P25,REL,FM,M1,6.237636752947587,%MAX
CTR,P25,REL,FM,M2,6.661178117784701,%MAX
CTR,P25,REL,FM,M3,5.684585217941101,%MAX
CTR,P35,INI,FM,M1,1.798047389587048,%MAX
CTR,P35,INI,FM,M2,3.3694194734304883,%MAX
CTR,P35,INI,FM,M3,2.662246387154687,%MAX
CTR,P35,REL,FM,M1,4.94589203952199,%MAX
CTR,P35,REL,FM,M2,4.97823236517759,%MAX
CTR,P35,REL,FM,M3,4.501127432849268,%MAX
CTR,P38,INI,FM,M1,1.3699729711977402,%MAX
CTR,P38,INI,FM,M2,1.6961904952559657,%MAX
CTR,P38,INI,FM,M3,1.1533170868714648,%MAX
CTR,P38,REL,FM,M1,6.794279666294687,%MAX
CTR,P38,REL,FM,M2,6.455661883097579,%MAX
CTR,P38,REL,FM,M3,6.320890867822465,%MAX
CTR,P39,INI,FM,M1,1.670426456769328,%MAX
CTR,P39,INI,FM,M2,1.5289987776483582,%MAX
CTR,P39,INI,FM,M3,1.4730269657398205,%MAX
CTR,P39,REL,FM,M1,2.4464546996254226,%MAX
CTR,P39,REL,FM,M2,2.713127634860718,%MAX
CTR,P39,REL,FM,M3,2.5606275186885075,%MAX
CTR,P40,INI,FM,M1,6.013507895799627,%MAX
CTR,P40,INI,FM,M2,5.945803795761563,%MAX
CTR,P40,INI,FM,M3,5.558476888754305,%MAX
CTR,P40,REL,FM,M1,3.726247462099339,%MAX
CTR,P40,REL,FM,M2,3.688237801626826,%MAX
CTR,P40,REL,FM,M3,3.4970571312046435,%MAX
CTR,P44,INI,FM,M1,13.359782534451412,%MAX
CTR,P44,INI,FM,M2,13.578637876354186,%MAX
CTR,P44,INI,FM,M3,13.65631871250456,%MAX
CTR,P44,REL,FM,M1,7.562390852510664,%MAX
CTR,P44,REL,FM,M2,7.660477117512588,%MAX
CTR,P44,REL,FM,M3,7.7908871439855485,%MAX
CTR,P46,INI,FM,M1,9.072193231326263,%MAX
CTR,P46,INI,FM,M2,9.21256942923812,%MAX
CTR,P46,INI,FM,M3,9.04064606214319,%MAX
CTR,P46,REL,FM,M1,12.62841824928805,%MAX
CTR,P46,REL,FM,M2,13.477567772824958,%MAX
CTR,P46,REL,FM,M3,13.73112651380287,%MAX
CTR,P48,INI,FM,M1,6.733480458146492,%MAX
CTR,P48,INI,FM,M2,6.709000921870001,%MAX
CTR,P48,INI,FM,M3,5.385580333610344,%MAX
CTR,P48,REL,FM,M1,4.69319514882989,%MAX
CTR,P48,REL,FM,M2,4.703317044679834,%MAX
CTR,P48,REL,FM,M3,3.4118804361787527,%MAX
CTR,P49,INI,FM,M1,3.090110037789099,%MAX
CTR,P49,INI,FM,M2,3.494931705683457,%MAX
CTR,P49,INI,FM,M3,3.1638583385271124,%MAX
CTR,P49,REL,FM,M1,2.433383273229132,%MAX
CTR,P49,REL,FM,M2,2.965810049464774,%MAX
CTR,P49,REL,FM,M3,2.5189868768559527,%MAX
CTR,P52,INI,FM,M1,4.662679079051236,%MAX
CTR,P52,INI,FM,M2,6.140726156393832,%MAX
CTR,P52,INI,FM,M3,5.296006380819071,%MAX
CTR,P52,REL,FM,M1,4.576520453213749,%MAX
CTR,P52,REL,FM,M2,3.955854680005902,%MAX
CTR,P52,REL,FM,M3,2.9286950050327185,%MAX
CTR,P55,INI,FM,M1,5.917472127915847,%MAX
CTR,P55,INI,FM,M2,6.990264937650856,%MAX
CTR,P55,INI,FM,M3,6.334997600562914,%MAX
CTR,P55,REL,FM,M1,3.1642106726431507,%MAX
CTR,P55,REL,FM,M2,3.859862586072115,%MAX
CTR,P55,REL,FM,M3,2.9291773182838696,%MAX
CTR,P56,INI,FM,M1,3.615129235472731,%MAX
CTR,P56,INI,FM,M2,3.406967104650867,%MAX
CTR,P56,INI,FM,M3,5.733430512022476,%MAX
CTR,P56,REL,FM,M1,5.677239991694554,%MAX
CTR,P56,REL,FM,M2,6.56852006236503,%MAX
CTR,P56,REL,FM,M3,5.635761096498631,%MAX
CTR,P57,INI,FM,M1,0.2260218786886388,%MAX
CTR,P57,INI,FM,M2,0.3859960181335358,%MAX
CTR,P57,INI,FM,M3,0.4210671117529536,%MAX
CTR,P57,REL,FM,M1,6.533993212778607,%MAX
CTR,P57,REL,FM,M2,6.6533631843563406,%MAX
CTR,P57,REL,FM,M3,5.66664337713002,%MAX
CTR,P60,INI,FM,M1,6.596939272385779,%MAX
CTR,P60,INI,FM,M2,7.229366132462311,%MAX
CTR,P60,INI,FM,M3,6.016026702175881,%MAX
CTR,P60,REL,FM,M1,6.659233667429211,%MAX
CTR,P60,REL,FM,M2,7.485064352960886,%MAX
CTR,P60,REL,FM,M3,6.414906885592421,%MAX
CTR,P64,INI,FM,M1,3.464286890208329,%MAX
CTR,P64,INI,FM,M2,3.947310287566234,%MAX
CTR,P64,INI,FM,M3,3.631415208191674,%MAX
CTR,P64,REL,FM,M1,2.228139295078475,%MAX
CTR,P64,REL,FM,M2,2.225848312902646,%MAX
CTR,P64,REL,FM,M3,2.2141200754105608,%MAX
CTR,P66,INI,FM,M1,4.265106200966997,%MAX
CTR,P66,INI,FM,M2,4.863085567916982,%MAX
CTR,P66,INI,FM,M3,4.372132669079282,%MAX
CTR,P66,REL,FM,M1,4.347378238339342,%MAX
CTR,P66,REL,FM,M2,4.019898098096809,%MAX
CTR,P66,REL,FM,M3,4.565087369853174,%MAX
CTR,P67,INI,FM,M1,1.7977367994665865,%MAX
CTR,P67,INI,FM,M2,2.4070949967887745,%MAX
CTR,P67,INI,FM,M3,2.308896642688137,%MAX
CTR,P67,REL,FM,M1,0.9485024263352848,%MAX
CTR,P67,REL,FM,M2,0.8358921494723632,%MAX
CTR,P67,REL,FM,M3,0.9020780514339896,%MAX
CTR,P68,INI,FM,M1,4.9486482751443255,%MAX
CTR,P68,INI,FM,M2,3.0311688772588097,%MAX
CTR,P68,INI,FM,M3,2.8563486510014897,%MAX
CTR,P68,REL,FM,M1,4.732634440544932,%MAX
CTR,P68,REL,FM,M2,4.595215568598893,%MAX
CTR,P68,REL,FM,M3,2.6549249300017053,%MAX
