Group,Participant,Session,Operator,Measure,Value,Unit
CTR,P01,INI,FM,M1,96.07670119837572,Hz
CTR,P01,INI,FM,M2,94.82868525084702,Hz
CTR,P01,INI,FM,M3,83.53140657208692,Hz
CTR,P01,REL,FM,M1,92.00466934992218,Hz
CTR,P01,REL,FM,M2,77.01949361331552,Hz
CTR,P01,REL,FM,M3,72.71432429609145,Hz
CTR,P02,INI,FM,M1,112.6971333119817,Hz
CTR,P02,INI,FM,M2,120.63009577918992,Hz
CTR,P02,INI,FM,M3,120.01752151523614,Hz
CTR,P02,REL,FM,M1,78.3714624946339,Hz
CTR,P02,REL,FM,M2,103.7486622924458,Hz
CTR,P02,REL,FM,M3,118.13291353283836,Hz
CTR,P03,INI,FM,M1,125.57004583116164,Hz
CTR,P03,INI,FM,M2,135.2067975875689,Hz
CTR,P03,INI,FM,M3,136.8005322172421,Hz
CTR,P03,REL,FM,M1,107.69406638522372,Hz
CTR,P03,REL,FM,M2,116.78098962349024,Hz
CTR,P03,REL,FM,M3,107.96873679778712,Hz
CTR,P05,INI,FM,M1,88.92725461086309,Hz
CTR,P05,INI,FM,M2,81.463597461519,Hz
CTR,P05,INI,FM,M3,87.11718870392029,Hz
CTR,P05,REL,FM,M1,88.59312522527416,Hz
CTR,P05,REL,FM,M2,84.89365569155116,Hz
CTR,P05,REL,FM,M3,56.40839160747287,Hz
CTR,P06,INI,FM,M1,153.60133045735765,Hz
CTR,P06,INI,FM,M2,151.34618348209844,Hz
CTR,P06,INI,FM,M3,142.16916740664695,Hz
CTR,P06,REL,FM,M1,116.46742176107594,Hz
CTR,P06,REL,FM,M2,109.84320612946864,Hz
CTR,P06,REL,FM,M3,110.49325187173297,Hz
CTR,P07,INI,FM,M1,51.75787341732817,Hz
CTR,P07,INI,FM,M2,54.81976533629427,Hz
CTR,P07,INI,FM,M3,57.81753608150761,Hz
CTR,P07,REL,FM,M1,44.79404629574687,Hz
CTR,P07,REL,FM,M2,90.68333690813454,Hz
CTR,P07,REL,FM,M3,101.28927354691167,Hz
CTR,P08,INI,FM,M1,89.63146799041448,Hz
CTR,P08,INI,FM,M2,87.3443260769179,Hz
CTR,P08,INI,FM,M3,102.12097076679024,Hz
CTR,P08,REL,FM,M1,106.86087705080264,Hz
CTR,P08,REL,FM,M2,107.11198412081498,Hz
CTR,P08,REL,FM,M3,106.78642128881636,Hz
CTR,P13,INI,FM,M1,55.15994567175509,Hz
CTR,P13,INI,FM,M2,43.21773202216404,Hz
CTR,P13,INI,FM,M3,37.01911807239564,Hz
CTR,P13,REL,FM,M1,41.50087026722901,Hz
CTR,P13,REL,FM,M2,42.78714792406834,Hz
CTR,P13,REL,FM,M3,47.42488304472918,Hz
CTR,P16,INI,FM,M1,141.9443677222454,Hz
CTR,P16,INI,FM,M2,138.30831895417603,Hz
CTR,P16,INI,FM,M3,139.60168280409,Hz
CTR,P16,REL,FM,M1,110.70956999599976,Hz
CTR,P16,REL,FM,M2,123.7793395416639,Hz
CTR,P16,REL,FM,M3,140.2402075662056,Hz
CTR,P21,INI,FM,M1,95.72787779522596,Hz
CTR,P21,INI,FM,M2,97.42116719452235,Hz
CTR,P21,INI,FM,M3,96.66978780010308,Hz
CTR,P21,REL,FM,M1,105.0808974070185,Hz
CTR,P21,REL,FM,M2,101.83669791187556,Hz
CTR,P21,REL,FM,M3,80.69985857504707,Hz
CTR,P22,INI,FM,M1,125.58653593701878,Hz
CTR,P22,INI,FM,M2,123.64468137294068,Hz
CTR,P22,INI,FM,M3,122.5085008584985,Hz
CTR,P22,REL,FM,M1,146.62643470878683,Hz
CTR,P22,REL,FM,M2,146.17327003659605,Hz
CTR,P22,REL,FM,M3,141.41917663401094,Hz
CTR,P23,INI,FM,M1,123.1851774216234,Hz
CTR,P23,INI,FM,M2,128.1638802807719,Hz
CTR,P23,INI,FM,M3,133.50126657233656,Hz
CTR,P23,REL,FM,M1,113.3071695971958,Hz
CTR,P23,REL,FM,M2,134.44599119694993,Hz
CTR,P23,REL,FM,M3,116.97015712714462,Hz
CTR,P25,INI,FM,M1,38.825587162175616,Hz
CTR,P25,INI,FM,M2,28.303488291992338,Hz
CTR,P25,INI,FM,M3,34.39239505819079,Hz
CTR,P25,REL,FM,M1,46.22545030887933,Hz
CTR,P25,REL,FM,M2,48.46933650667764,Hz
CTR,P25,REL,FM,M3,51.42552172319078,Hz
CTR,P35,INI,FM,M1,59.208260654177664,Hz
CTR,P35,INI,FM,M2,107.13501095991572,Hz
CTR,P35,INI,FM,M3,113.0379368339595,Hz
CTR,P35,REL,FM,M1,60.06637642720216,Hz
CTR,P35,REL,FM,M2,60.0590333085915,Hz
CTR,P35,REL,FM,M3,93.60673661380112,Hz
CTR,P38,INI,FM,M1,105.56916615067588,Hz
CTR,P38,INI,FM,M2,52.76627144637786,Hz
CTR,P38,INI,FM,M3,69.3012146266438,Hz
CTR,P38,REL,FM,M1,93.917971199237,Hz
CTR,P38,REL,FM,M2,86.95236478843664,Hz
CTR,P38,REL,FM,M3,95.05314928236288,Hz
CTR,P39,INI,FM,M1,32.89891158865265,Hz
CTR,P39,INI,FM,M2,41.93398142671068,Hz
CTR,P39,INI,FM,M3,38.44383780274328,Hz
CTR,P39,REL,FM,M1,66.4460504266828,Hz
CTR,P39,REL,FM,M2,38.83438157411501,Hz
CTR,P39,REL,FM,M3,57.2428058563206,Hz
CTR,P40,INI,FM,M1,59.840237755797126,Hz
CTR,P40,INI,FM,M2,53.94102035010043,Hz
CTR,P40,INI,FM,M3,77.97628809360299,Hz
CTR,P40,REL,FM,M1,80.19026928480592,Hz
CTR,P40,REL,FM,M2,96.0241821807288,Hz
CTR,P40,REL,FM,M3,99.68072198173972,Hz
CTR,P44,INI,FM,M1,144.0134580738668,Hz
CTR,P44,INI,FM,M2,139.32815487005823,Hz
CTR,P44,INI,FM,M3,114.70628663120476,Hz
CTR,P44,REL,FM,M1,105.04254967834407,Hz
CTR,P44,REL,FM,M2,103.1537401604381,Hz
CTR,P44,REL,FM,M3,146.1578295686944,Hz
CTR,P46,INI,FM,M1,153.2626936210329,Hz
CTR,P46,INI,FM,M2,136.54201673999563,Hz
CTR,P46,INI,FM,M3,139.97502988252396,Hz
CTR,P46,REL,FM,M1,43.774405165468266,Hz
CTR,P46,REL,FM,M2,48.63199044101573,Hz
CTR,P46,REL,FM,M3,35.27059477784828,Hz
CTR,P48,INI,FM,M1,108.90802486756908,Hz
CTR,P48,INI,FM,M2,106.71382141085836,Hz
CTR,P48,INI,FM,M3,105.59100935435428,Hz
CTR,P48,REL,FM,M1,94.10994323974435,Hz
CTR,P48,REL,FM,M2,94.1592704514567,Hz
CTR,P48,REL,FM,M3,98.64832522957136,Hz
CTR,P49,INI,FM,M1,100.5997278393186,Hz
CTR,P49,INI,FM,M2,94.59648756290686,Hz
CTR,P49,INI,FM,M3,90.94577902437231,Hz
CTR,P49,REL,FM,M1,42.8708931441071,Hz
CTR,P49,REL,FM,M2,51.78787737047992,Hz
CTR,P49,REL,FM,M3,30.1124705680854,Hz
CTR,P52,INI,FM,M1,92.44441995549998,Hz
CTR,P52,INI,FM,M2,83.3620324766746,Hz
CTR,P52,INI,FM,M3,95.09093026976558,Hz
CTR,P52,REL,FM,M1,95.36981376323384,Hz
CTR,P52,REL,FM,M2,93.12076377707548,Hz
CTR,P52,REL,FM,M3,116.9959349375626,Hz
CTR,P55,INI,FM,M1,120.856271546211,Hz
CTR,P55,INI,FM,M2,98.15398178056302,Hz
CTR,P55,INI,FM,M3,103.48311284010838,Hz
CTR,P55,REL,FM,M1,48.97645594286131,Hz
CTR,P55,REL,FM,M2,54.37227703364241,Hz
CTR,P55,REL,FM,M3,45.1688123265566,Hz
CTR,P56,INI,FM,M1,106.0389302265751,Hz
CTR,P56,INI,FM,M2,108.89768933275178,Hz
CTR,P56,INI,FM,M3,108.64468225610432,Hz
CTR,P56,REL,FM,M1,94.4523182313329,Hz
CTR,P56,REL,FM,M2,90.23101592771216,Hz
CTR,P56,REL,FM,M3,92.1530548180668,Hz
CTR,P57,INI,FM,M1,51.323244268211525,Hz
CTR,P57,INI,FM,M2,77.57503751751956,Hz
CTR,P57,INI,FM,M3,86.74134814002791,Hz
CTR,P57,REL,FM,M1,121.18082148165088,Hz
CTR,P57,REL,FM,M2,124.36252023906228,Hz
CTR,P57,REL,FM,M3,127.30646782518494,Hz
CTR,P60,INI,FM,M1,99.43190063004948,Hz
CTR,P60,INI,FM,M2,100.08037156915952,Hz
CTR,P60,INI,FM,M3,95.26120147169104,Hz
CTR,P60,REL,FM,M1,92.22744823882772,Hz
CTR,P60,REL,FM,M2,92.5805182675292,Hz
CTR,P60,REL,FM,M3,77.92403094162157,Hz
CTR,P64,INI,FM,M1,73.48549896492219,Hz
CTR,P64,INI,FM,M2,76.52915484546556,Hz
CTR,P64,INI,FM,M3,78.14861842913115,Hz
CTR,P64,REL,FM,M1,69.00116891672324,Hz
CTR,P64,REL,FM,M2,70.35543334144481,Hz
CTR,P64,REL,FM,M3,75.33757098389025,Hz
CTR,P66,INI,FM,M1,78.08887688421272,Hz
CTR,P66,INI,FM,M2,98.90641301686486,Hz
CTR,P66,INI,FM,M3,188.04174375901133,Hz
CTR,P66,REL,FM,M1,60.11794355269971,Hz
CTR,P66,REL,FM,M2,41.89444075262163,Hz
CTR,P66,REL,FM,M3,68.29636639148333,Hz
CTR,P67,INI,FM,M1,50.4025505059332,Hz
CTR,P67,INI,FM,M2,126.19561671029072,Hz
CTR,P67,INI,FM,M3,69.32920613900743,Hz
CTR,P67,REL,FM,M1,44.81211921345822,Hz
CTR,P67,REL,FM,M2,44.11368838345163,Hz
CTR,P67,REL,FM,M3,42.79438733732757,Hz
CTR,P68,INI,FM,M1,31.845381635799026,Hz
CTR,P68,INI,FM,M2,29.866232052085238,Hz
CTR,P68,INI,FM,M3,31.596150525701635,Hz
CTR,P68,REL,FM,M1,36.31379880747589,Hz
CTR,P68,REL,FM,M2,39.562549942618354,Hz
CTR,P68,REL,FM,M3,38.653755173442605,Hz
