Group,Participant,Session,Operator,Measure,Value,Unit
PAT,P09,INI,FM,M1,0.018592754284387,V
PAT,P09,INI,FM,M2,0.0192439956110741,V
PAT,P09,INI,FM,M3,0.0204994316272174,V
PAT,P09,REL,FM,M1,,V
PAT,P09,REL,FM,M2,,V
PAT,P09,REL,FM,M3,,V
PAT,P10,INI,FM,M1,0.1798545681015389,V
PAT,P10,INI,FM,M2,0.2987111609468608,V
PAT,P10,INI,FM,M3,0.4036620048461324,V
PAT,P10,REL,FM,M1,0.1346279355336635,V
PAT,P10,REL,FM,M2,0.1544535500932388,V
PAT,P10,REL,FM,M3,0.1892819973878584,V
PAT,P11,INI,FM,M1,0.0240562925559623,V
PAT,P11,INI,FM,M2,0.0240761531750712,V
PAT,P11,INI,FM,M3,0.0248257971769649,V
PAT,P11,REL,FM,M1,0.0254562243929147,V
PAT,P11,REL,FM,M2,0.0266658572595209,V
PAT,P11,REL,FM,M3,0.023888637029559,V
PAT,P12,INI,FM,M1,0.0186514657406553,V
PAT,P12,INI,FM,M2,0.0175540136047731,V
PAT,P12,INI,FM,M3,0.018791192162144,V
PAT,P12,REL,FM,M1,0.0301343465820978,V
PAT,P12,REL,FM,M2,0.0489076480444794,V
PAT,P12,REL,FM,M3,0.0641294026357141,V
PAT,P14,INI,FM,M1,0.0160090112195546,V
PAT,P14,INI,FM,M2,0.0175048901298827,V
PAT,P14,INI,FM,M3,0.0179478810133437,V
PAT,P14,REL,FM,M1,0.0155336868443621,V
PAT,P14,REL,FM,M2,0.0150260686231673,V
PAT,P14,REL,FM,M3,0.0152683352745002,V
PAT,P17,INI,FM,M1,0.0123249019408436,V
PAT,P17,INI,FM,M2,0.0134252119513278,V
PAT,P17,INI,FM,M3,0.0136841363375534,V
PAT,P17,REL,FM,M1,0.0142563817495984,V
PAT,P17,REL,FM,M2,0.0138617940165021,V
PAT,P17,REL,FM,M3,0.0145341107258664,V
PAT,P24,INI,FM,M1,0.0115056503870497,V
PAT,P24,INI,FM,M2,0.011338212331498,V
PAT,P24,INI,FM,M3,0.0091934926370152,V
PAT,P24,REL,FM,M1,0.0065745364898508,V
PAT,P24,REL,FM,M2,0.0065440981322592,V
PAT,P24,REL,FM,M3,0.0067224382280958,V
PAT,P26,INI,FM,M1,0.0322887199226252,V
PAT,P26,INI,FM,M2,0.1263659516476846,V
PAT,P26,INI,FM,M3,0.116344367784692,V
PAT,P26,REL,FM,M1,0.1221759857675369,V
PAT,P26,REL,FM,M2,0.1531936923248334,V
PAT,P26,REL,FM,M3,0.1140098585653832,V
PAT,P27,INI,FM,M1,0.0203758195759921,V
PAT,P27,INI,FM,M2,0.0192249906980076,V
PAT,P27,INI,FM,M3,0.0197295158548233,V
PAT,P27,REL,FM,M1,0.0201482163991069,V
PAT,P27,REL,FM,M2,0.0200881142779675,V
PAT,P27,REL,FM,M3,0.018744167251878,V
PAT,P28,INI,FM,M1,0.014965482983782,V
PAT,P28,INI,FM,M2,0.0172533284810518,V
PAT,P28,INI,FM,M3,0.0181314070356007,V
PAT,P28,REL,FM,M1,0.0158852723081565,V
PAT,P28,REL,FM,M2,0.0164467289764055,V
PAT,P28,REL,FM,M3,0.0167710798419236,V
PAT,P29,INI,FM,M1,0.032663832073381,V
PAT,P29,INI,FM,M2,,V
PAT,P29,INI,FM,M3,,V
PAT,P29,REL,FM,M1,,V
PAT,P29,REL,FM,M2,0.0292780759383476,V
PAT,P29,REL,FM,M3,0.0282557100177986,V
PAT,P32,INI,FM,M1,0.0115855027646769,V
PAT,P32,INI,FM,M2,0.0118807630571806,V
PAT,P32,INI,FM,M3,0.011644823429663,V
PAT,P32,REL,FM,M1,0.0121600451179841,V
PAT,P32,REL,FM,M2,0.0133632293834556,V
PAT,P32,REL,FM,M3,0.0130688650872325,V
PAT,P33,INI,FM,M1,0.0128419533926064,V
PAT,P33,INI,FM,M2,0.0134383396948154,V
PAT,P33,INI,FM,M3,0.0134385492144517,V
PAT,P33,REL,FM,M1,0.0106172320765308,V
PAT,P33,REL,FM,M2,,V
PAT,P33,REL,FM,M3,,V
PAT,P34,INI,FM,M1,0.0100843784004345,V
PAT,P34,INI,FM,M2,0.0093500932212467,V
PAT,P34,INI,FM,M3,0.0097401424110367,V
PAT,P34,REL,FM,M1,0.0113065950180559,V
PAT,P34,REL,FM,M2,0.0117762613817952,V
PAT,P34,REL,FM,M3,0.0115240912642209,V
PAT,P36,INI,FM,M1,0.0397694550169311,V
PAT,P36,INI,FM,M2,0.0417602332043013,V
PAT,P36,INI,FM,M3,0.0417221593258003,V
PAT,P36,REL,FM,M1,0.0252069868972408,V
PAT,P36,REL,FM,M2,0.02517956808889,V
PAT,P36,REL,FM,M3,0.0257295857761539,V
PAT,P41,INI,FM,M1,0.0229119535359986,V
PAT,P41,INI,FM,M2,0.0244102101804621,V
PAT,P41,INI,FM,M3,0.0281936969014144,V
PAT,P41,REL,FM,M1,0.0210140121335072,V
PAT,P41,REL,FM,M2,0.0223946657538714,V
PAT,P41,REL,FM,M3,0.0220975339914025,V
PAT,P42,INI,FM,M1,0.0293204840355497,V
PAT,P42,INI,FM,M2,0.0305998403538329,V
PAT,P42,INI,FM,M3,0.0314085281915575,V
PAT,P42,REL,FM,M1,0.0250788051394794,V
PAT,P42,REL,FM,M2,0.0256117454868773,V
PAT,P42,REL,FM,M3,0.02771417675343,V
PAT,P43,INI,FM,M1,0.0195508142809726,V
PAT,P43,INI,FM,M2,0.0231818939953558,V
PAT,P43,INI,FM,M3,0.0193981425053114,V
PAT,P43,REL,FM,M1,0.0273225219544137,V
PAT,P43,REL,FM,M2,0.0282609547996642,V
PAT,P43,REL,FM,M3,0.0292516587359871,V
PAT,P45,INI,FM,M1,0.0100297897296432,V
PAT,P45,INI,FM,M2,0.010981040211261,V
PAT,P45,INI,FM,M3,0.0116286155528827,V
PAT,P45,REL,FM,M1,0.01085473691522,V
PAT,P45,REL,FM,M2,0.0120635276484076,V
PAT,P45,REL,FM,M3,0.010797305622802,V
PAT,P47,INI,FM,M1,0.0219372083158127,V
PAT,P47,INI,FM,M2,0.0208126294284987,V
PAT,P47,INI,FM,M3,0.0224411644817165,V
PAT,P47,REL,FM,M1,0.0232746058428356,V
PAT,P47,REL,FM,M2,0.021139961135824,V
PAT,P47,REL,FM,M3,0.020271506796489,V
PAT,P50,INI,FM,M1,0.0421750556384574,V
PAT,P50,INI,FM,M2,0.0440298984612492,V
PAT,P50,INI,FM,M3,0.0473993128262459,V
PAT,P50,REL,FM,M1,0.0487860145700988,V
PAT,P50,REL,FM,M2,0.0477318699496218,V
PAT,P50,REL,FM,M3,0.0472946407700572,V
PAT,P51,INI,FM,M1,0.0094633535625843,V
PAT,P51,INI,FM,M2,,V
PAT,P51,INI,FM,M3,0.0087458638060643,V
PAT,P51,REL,FM,M1,0.0062537792258073,V
PAT,P51,REL,FM,M2,0.006382313411089,V
PAT,P51,REL,FM,M3,0.0069442901515881,V
PAT,P53,INI,FM,M1,0.0129103835468251,V
PAT,P53,INI,FM,M2,0.0123361569985204,V
PAT,P53,INI,FM,M3,0.0123217010662844,V
PAT,P53,REL,FM,M1,0.0122654234679025,V
PAT,P53,REL,FM,M2,0.011425859907531,V
PAT,P53,REL,FM,M3,0.0120417334043622,V
PAT,P54,INI,FM,M1,0.0207943946284559,V
PAT,P54,INI,FM,M2,0.0214525064325641,V
PAT,P54,INI,FM,M3,0.0237914322689051,V
PAT,P54,REL,FM,M1,0.0202648001207726,V
PAT,P54,REL,FM,M2,0.0204661240049767,V
PAT,P54,REL,FM,M3,0.0191919895903998,V
PAT,P58,INI,FM,M1,0.0065068351512566,V
PAT,P58,INI,FM,M2,0.0119351494550347,V
PAT,P58,INI,FM,M3,0.0079205649665777,V
PAT,P58,REL,FM,M1,0.0064340007059752,V
PAT,P58,REL,FM,M2,0.0068351378772144,V
PAT,P58,REL,FM,M3,0.0067338499329466,V
PAT,P61,INI,FM,M1,0.0214546192749477,V
PAT,P61,INI,FM,M2,0.0407074451487596,V
PAT,P61,INI,FM,M3,0.0428332681904852,V
PAT,P61,REL,FM,M1,0.0200426380451988,V
PAT,P61,REL,FM,M2,0.0193771648109025,V
PAT,P61,REL,FM,M3,0.0183433170495313,V
PAT,P62,INI,FM,M1,0.0129921766489523,V
PAT,P62,INI,FM,M2,0.0129040805695198,V
PAT,P62,INI,FM,M3,0.0122936927905187,V
PAT,P62,REL,FM,M1,0.015539911952774,V
PAT,P62,REL,FM,M2,0.0139216870614362,V
PAT,P62,REL,FM,M3,0.0147974179879755,V
PAT,P63,INI,FM,M1,0.0340774725153941,V
PAT,P63,INI,FM,M2,0.0332972661458329,V
PAT,P63,INI,FM,M3,0.0305034548491319,V
PAT,P63,REL,FM,M1,0.0194669272113054,V
PAT,P63,REL,FM,M2,0.0204338903771417,V
PAT,P63,REL,FM,M3,0.0204449980255072,V
PAT,P65,INI,FM,M1,,V
PAT,P65,INI,FM,M2,0.0240291856755574,V
PAT,P65,INI,FM,M3,0.0303732262773657,V
PAT,P65,REL,FM,M1,0.0338344662312566,V
PAT,P65,REL,FM,M2,0.0343463296547736,V
PAT,P65,REL,FM,M3,0.0329422790616479,V
