Group,Participant,Session,Operator,Measure,Value,Unit
PAT,P09,INI,FM,M1,14.362632938531135,%subMVIC
PAT,P09,INI,FM,M2,12.833675381445971,%subMVIC
PAT,P09,INI,FM,M3,12.242385394015983,%subMVIC
PAT,P09,REL,FM,M1,19.319437785598964,%subMVIC
PAT,P09,REL,FM,M2,21.268043066978755,%subMVIC
PAT,P09,REL,FM,M3,19.311143876548577,%subMVIC
PAT,P10,INI,FM,M1,67.09177415078693,%subMVIC
PAT,P10,INI,FM,M2,76.66713483428337,%subMVIC
PAT,P10,INI,FM,M3,77.64816414086201,%subMVIC
PAT,P10,REL,FM,M1,320.16084648247244,%subMVIC
PAT,P10,REL,FM,M2,504.1129181911563,%subMVIC
PAT,P10,REL,FM,M3,468.8095165450064,%subMVIC
PAT,P11,INI,FM,M1,12.6448727375315,%subMVIC
PAT,P11,INI,FM,M2,12.201884898945236,%subMVIC
PAT,P11,INI,FM,M3,12.738034394117653,%subMVIC
PAT,P11,REL,FM,M1,35.3611343689799,%subMVIC
PAT,P11,REL,FM,M2,36.2909236824536,%subMVIC
PAT,P11,REL,FM,M3,38.39375168620766,%subMVIC
PAT,P12,INI,FM,M1,57.45505461446119,%subMVIC
PAT,P12,INI,FM,M2,60.34420471711095,%subMVIC
PAT,P12,INI,FM,M3,58.018000063262456,%subMVIC
PAT,P12,REL,FM,M1,22.20513401289223,%subMVIC
PAT,P12,REL,FM,M2,22.040687645048738,%subMVIC
PAT,P12,REL,FM,M3,22.71772229765612,%subMVIC
PAT,P14,INI,FM,M1,41.137908853860885,%subMVIC
PAT,P14,INI,FM,M2,37.98572954122564,%subMVIC
PAT,P14,INI,FM,M3,43.098973273193124,%subMVIC
PAT,P14,REL,FM,M1,156.32798845007014,%subMVIC
PAT,P14,REL,FM,M2,203.33198154649466,%subMVIC
PAT,P14,REL,FM,M3,189.8680505729511,%subMVIC
PAT,P17,INI,FM,M1,1731.7007656016478,%subMVIC
PAT,P17,INI,FM,M2,1501.3687923268822,%subMVIC
PAT,P17,INI,FM,M3,1496.7411781772703,%subMVIC
PAT,P17,REL,FM,M1,16.58263680240502,%subMVIC
PAT,P17,REL,FM,M2,16.14624890812521,%subMVIC
PAT,P17,REL,FM,M3,16.158211941983787,%subMVIC
PAT,P24,INI,FM,M1,44.79539800719668,%subMVIC
PAT,P24,INI,FM,M2,46.88838928143361,%subMVIC
PAT,P24,INI,FM,M3,46.27234525192267,%subMVIC
PAT,P24,REL,FM,M1,71.10576743668413,%subMVIC
PAT,P24,REL,FM,M2,74.26559491969398,%subMVIC
PAT,P24,REL,FM,M3,63.51505039555559,%subMVIC
PAT,P26,INI,FM,M1,68.16352005571254,%subMVIC
PAT,P26,INI,FM,M2,69.75069444588003,%subMVIC
PAT,P26,INI,FM,M3,77.90829115566939,%subMVIC
PAT,P26,REL,FM,M1,434.9697201284612,%subMVIC
PAT,P26,REL,FM,M2,370.08052802399897,%subMVIC
PAT,P26,REL,FM,M3,466.89603090327074,%subMVIC
PAT,P27,INI,FM,M1,25.32977774339804,%subMVIC
PAT,P27,INI,FM,M2,25.07905737363746,%subMVIC
PAT,P27,INI,FM,M3,25.16692866874867,%subMVIC
PAT,P27,REL,FM,M1,608.9095869621937,%subMVIC
PAT,P27,REL,FM,M2,26.497980919037158,%subMVIC
PAT,P27,REL,FM,M3,26.736178701892957,%subMVIC
PAT,P28,INI,FM,M1,40.74716589623982,%subMVIC
PAT,P28,INI,FM,M2,44.20347379281482,%subMVIC
PAT,P28,INI,FM,M3,37.22982506462927,%subMVIC
PAT,P28,REL,FM,M1,94.80040191053874,%subMVIC
PAT,P28,REL,FM,M2,96.23343876737732,%subMVIC
PAT,P28,REL,FM,M3,78.27418543431104,%subMVIC
PAT,P29,INI,FM,M1,27.21779075302023,%subMVIC
PAT,P29,INI,FM,M2,37.474135267791254,%subMVIC
PAT,P29,INI,FM,M3,27.120725412078407,%subMVIC
PAT,P29,REL,FM,M1,2.802309473176027,%subMVIC
PAT,P29,REL,FM,M2,2.5881298159105928,%subMVIC
PAT,P29,REL,FM,M3,3.247917171598044,%subMVIC
PAT,P32,INI,FM,M1,29.61998816689038,%subMVIC
PAT,P32,INI,FM,M2,30.155240868226944,%subMVIC
PAT,P32,INI,FM,M3,27.723183380084386,%subMVIC
PAT,P32,REL,FM,M1,37.93324351374555,%subMVIC
PAT,P32,REL,FM,M2,39.59982694200815,%subMVIC
PAT,P32,REL,FM,M3,40.192649026117934,%subMVIC
PAT,P33,INI,FM,M1,22.545303159184787,%subMVIC
PAT,P33,INI,FM,M2,30.86997147410055,%subMVIC
PAT,P33,INI,FM,M3,20.694207446061544,%subMVIC
PAT,P33,REL,FM,M1,60.238280120212536,%subMVIC
PAT,P33,REL,FM,M2,79.67335437646517,%subMVIC
PAT,P33,REL,FM,M3,56.82683141886332,%subMVIC
PAT,P34,INI,FM,M1,22.43962419247179,%subMVIC
PAT,P34,INI,FM,M2,25.056457618920625,%subMVIC
PAT,P34,INI,FM,M3,22.40469713085076,%subMVIC
PAT,P34,REL,FM,M1,21.665976639435062,%subMVIC
PAT,P34,REL,FM,M2,22.12484144618299,%subMVIC
PAT,P34,REL,FM,M3,20.428968478175012,%subMVIC
PAT,P36,INI,FM,M1,11.341832882588566,%subMVIC
PAT,P36,INI,FM,M2,11.304901983085596,%subMVIC
PAT,P36,INI,FM,M3,8.705296222003824,%subMVIC
PAT,P36,REL,FM,M1,10.067577158346909,%subMVIC
PAT,P36,REL,FM,M2,8.370855049365847,%subMVIC
PAT,P36,REL,FM,M3,7.579739629670022,%subMVIC
PAT,P41,INI,FM,M1,7.816476511019938,%subMVIC
PAT,P41,INI,FM,M2,11.134778742980432,%subMVIC
PAT,P41,INI,FM,M3,8.016923369799402,%subMVIC
PAT,P41,REL,FM,M1,8.081173249258972,%subMVIC
PAT,P41,REL,FM,M2,8.920831720982557,%subMVIC
PAT,P41,REL,FM,M3,6.467664098462673,%subMVIC
PAT,P42,INI,FM,M1,41.143850291131834,%subMVIC
PAT,P42,INI,FM,M2,48.06751914237643,%subMVIC
PAT,P42,INI,FM,M3,42.36110662509096,%subMVIC
PAT,P42,REL,FM,M1,27.632644215257724,%subMVIC
PAT,P42,REL,FM,M2,29.91590741320127,%subMVIC
PAT,P42,REL,FM,M3,22.56867142033715,%subMVIC
PAT,P43,INI,FM,M1,40.99737837899672,%subMVIC
PAT,P43,INI,FM,M2,39.84887235452015,%subMVIC
PAT,P43,INI,FM,M3,43.08585212401136,%subMVIC
PAT,P43,REL,FM,M1,34.25182426976039,%subMVIC
PAT,P43,REL,FM,M2,37.97234975161479,%subMVIC
PAT,P43,REL,FM,M3,48.41804483231196,%subMVIC
PAT,P45,INI,FM,M1,47.95672637982256,%subMVIC
PAT,P45,INI,FM,M2,35.00697397669529,%subMVIC
PAT,P45,INI,FM,M3,25.692142938040654,%subMVIC
PAT,P45,REL,FM,M1,19.086114959016918,%subMVIC
PAT,P45,REL,FM,M2,19.498244663798584,%subMVIC
PAT,P45,REL,FM,M3,17.791697722338903,%subMVIC
PAT,P47,INI,FM,M1,253.66746973507034,%subMVIC
PAT,P47,INI,FM,M2,315.59785432962985,%subMVIC
PAT,P47,INI,FM,M3,312.1507368871778,%subMVIC
PAT,P47,REL,FM,M1,34.25172245011201,%subMVIC
PAT,P47,REL,FM,M2,40.15142350038258,%subMVIC
PAT,P47,REL,FM,M3,34.328174828213676,%subMVIC
PAT,P50,INI,FM,M1,24.042949719898562,%subMVIC
PAT,P50,INI,FM,M2,31.638992913863202,%subMVIC
PAT,P50,INI,FM,M3,23.858667727449305,%subMVIC
PAT,P50,REL,FM,M1,27.46356569286752,%subMVIC
PAT,P50,REL,FM,M2,24.411210986513318,%subMVIC
PAT,P50,REL,FM,M3,25.296758835962873,%subMVIC
PAT,P51,INI,FM,M1,28.433388747788925,%subMVIC
PAT,P51,INI,FM,M2,29.673384360943306,%subMVIC
PAT,P51,INI,FM,M3,26.38624946567954,%subMVIC
PAT,P51,REL,FM,M1,18.729068806457388,%subMVIC
PAT,P51,REL,FM,M2,34.83740457798101,%subMVIC
PAT,P51,REL,FM,M3,58.29310819446581,%subMVIC
PAT,P53,INI,FM,M1,15.182403284841381,%subMVIC
PAT,P53,INI,FM,M2,19.29653487318863,%subMVIC
PAT,P53,INI,FM,M3,20.352513167338707,%subMVIC
PAT,P53,REL,FM,M1,20.5233771040248,%subMVIC
PAT,P53,REL,FM,M2,25.09487343441037,%subMVIC
PAT,P53,REL,FM,M3,18.485874059866138,%subMVIC
PAT,P54,INI,FM,M1,41.087861267155546,%subMVIC
PAT,P54,INI,FM,M2,45.45959944126319,%subMVIC
PAT,P54,INI,FM,M3,46.96164000851816,%subMVIC
PAT,P54,REL,FM,M1,71.64907937377981,%subMVIC
PAT,P54,REL,FM,M2,57.362357613153065,%subMVIC
PAT,P54,REL,FM,M3,52.927606499033345,%subMVIC
PAT,P58,INI,FM,M1,16.985682713752933,%subMVIC
PAT,P58,INI,FM,M2,17.79820871307906,%subMVIC
PAT,P58,INI,FM,M3,16.991779543877055,%subMVIC
PAT,P58,REL,FM,M1,20.1120469872873,%subMVIC
PAT,P58,REL,FM,M2,15.674697428000181,%subMVIC
PAT,P58,REL,FM,M3,17.030388899005434,%subMVIC
PAT,P61,REL,FM,M1,14.038314938013864,%subMVIC
PAT,P61,REL,FM,M2,12.361499719962689,%subMVIC
PAT,P61,REL,FM,M3,13.155287784437048,%subMVIC
PAT,P62,INI,FM,M1,10.823701102391864,%subMVIC
PAT,P62,INI,FM,M2,11.01238679416129,%subMVIC
PAT,P62,INI,FM,M3,12.559439561487602,%subMVIC
PAT,P62,REL,FM,M1,20.79787407488044,%subMVIC
PAT,P62,REL,FM,M2,19.18689808050042,%subMVIC
PAT,P62,REL,FM,M3,18.556985319984722,%subMVIC
PAT,P63,INI,FM,M1,29.191338611345696,%subMVIC
PAT,P63,INI,FM,M2,45.48087369949487,%subMVIC
PAT,P63,INI,FM,M3,60.28434290932426,%subMVIC
PAT,P63,REL,FM,M1,26.81442112645966,%subMVIC
PAT,P63,REL,FM,M2,32.83025732606244,%subMVIC
PAT,P63,REL,FM,M3,33.09908428439211,%subMVIC
PAT,P65,INI,FM,M1,22.811649282869134,%subMVIC
PAT,P65,INI,FM,M2,25.40981747033688,%subMVIC
PAT,P65,INI,FM,M3,22.152311530478016,%subMVIC
PAT,P65,REL,FM,M1,21.333847433286852,%subMVIC
PAT,P65,REL,FM,M2,20.495448926383474,%subMVIC
PAT,P65,REL,FM,M3,17.81855925655951,%subMVIC
