Group,Participant,Session,Operator,Measure,Value,Unit
PAT,P09,INI,FM,M1,97.83531026015996,Hz
PAT,P09,INI,FM,M2,67.97706797706797,Hz
PAT,P09,INI,FM,M3,88.54308854308854,Hz
PAT,P09,REL,FM,M1,100.47413053425076,Hz
PAT,P09,REL,FM,M2,99.1900991900992,Hz
PAT,P09,REL,FM,M3,96.55109655109656,Hz
PAT,P10,INI,FM,M1,86.45756341147124,Hz
PAT,P10,INI,FM,M2,83.44708344708346,Hz
PAT,P10,INI,FM,M3,79.8980798980799,Hz
PAT,P10,REL,FM,M1,86.6393812285596,Hz
PAT,P10,REL,FM,M2,81.17208117208118,Hz
PAT,P10,REL,FM,M3,83.9020839020839,Hz
PAT,P11,INI,FM,M1,84.45647323402835,Hz
PAT,P11,INI,FM,M2,85.08508508508508,Hz
PAT,P11,INI,FM,M3,82.992082992083,Hz
PAT,P11,REL,FM,M1,87.91429432711999,Hz
PAT,P11,REL,FM,M2,89.36208936208938,Hz
PAT,P11,REL,FM,M3,91.8190918190918,Hz
PAT,P12,INI,FM,M1,65.2519890996845,Hz
PAT,P12,INI,FM,M2,65.33806533806535,Hz
PAT,P12,INI,FM,M3,66.52106652106653,Hz
PAT,P12,REL,FM,M1,62.06771537432861,Hz
PAT,P12,REL,FM,M2,67.70406770406771,Hz
PAT,P12,REL,FM,M3,65.70206570206571,Hz
PAT,P14,INI,FM,M1,91.00793269129944,Hz
PAT,P14,INI,FM,M2,91.81909181909182,Hz
PAT,P14,INI,FM,M3,87.81508781508784,Hz
PAT,P14,REL,FM,M1,81.26909930517145,Hz
PAT,P14,REL,FM,M2,83.53808353808355,Hz
PAT,P14,REL,FM,M3,80.53508053508054,Hz
PAT,P17,INI,FM,M1,81.27365842796704,Hz
PAT,P17,INI,FM,M2,99.55409955409957,Hz
PAT,P17,INI,FM,M3,99.73609973609972,Hz
PAT,P17,REL,FM,M1,101.29130770413336,Hz
PAT,P17,REL,FM,M2,93.0930930930931,Hz
PAT,P17,REL,FM,M3,96.64209664209665,Hz
PAT,P24,INI,FM,M1,99.92575924439652,Hz
PAT,P24,INI,FM,M2,101.55610155610158,Hz
PAT,P24,INI,FM,M3,102.37510237510236,Hz
PAT,P24,REL,FM,M1,50.05460917284564,Hz
PAT,P24,REL,FM,M2,50.05005005005005,Hz
PAT,P24,REL,FM,M3,50.05005005005005,Hz
PAT,P26,INI,FM,M1,71.98690765825035,Hz
PAT,P26,INI,FM,M2,71.61707161707162,Hz
PAT,P26,INI,FM,M3,61.7890617890618,Hz
PAT,P26,REL,FM,M1,74.35382184881183,Hz
PAT,P26,REL,FM,M2,69.16006916006917,Hz
PAT,P26,REL,FM,M3,68.15906815906817,Hz
PAT,P27,INI,FM,M1,90.55274987138716,Hz
PAT,P27,INI,FM,M2,87.26908726908728,Hz
PAT,P27,INI,FM,M3,80.35308035308036,Hz
PAT,P27,REL,FM,M1,90.462843969858,Hz
PAT,P27,REL,FM,M2,76.07607607607609,Hz
PAT,P27,REL,FM,M3,45.04504504504504,Hz
PAT,P28,INI,FM,M1,100.56257751648536,Hz
PAT,P28,INI,FM,M2,98.37109837109838,Hz
PAT,P28,INI,FM,M3,96.46009646009648,Hz
PAT,P28,REL,FM,M1,112.03150682108598,Hz
PAT,P28,REL,FM,M2,103.1941031941032,Hz
PAT,P28,REL,FM,M3,103.74010374010372,Hz
PAT,P29,INI,FM,M1,94.74057770650955,Hz
PAT,P29,INI,FM,M2,89.0890890890891,Hz
PAT,P29,INI,FM,M3,86.0860860860861,Hz
PAT,P29,REL,FM,M1,99.74521798169094,Hz
PAT,P29,REL,FM,M2,90.45409045409046,Hz
PAT,P29,REL,FM,M3,92.09209209209212,Hz
PAT,P32,INI,FM,M1,92.8275697814776,Hz
PAT,P32,INI,FM,M2,96.73309673309672,Hz
PAT,P32,INI,FM,M3,89.1800891800892,Hz
PAT,P32,REL,FM,M1,123.76978910045044,Hz
PAT,P32,REL,FM,M2,130.76713076713077,Hz
PAT,P32,REL,FM,M3,128.3101283101283,Hz
PAT,P33,INI,FM,M1,43.41087307019171,Hz
PAT,P33,INI,FM,M2,50.414050414050415,Hz
PAT,P33,INI,FM,M3,50.5960505960506,Hz
PAT,P33,REL,FM,M1,67.2547205613338,Hz
PAT,P33,REL,FM,M2,67.7950677950678,Hz
PAT,P33,REL,FM,M3,57.7850577850578,Hz
PAT,P34,INI,FM,M1,87.45929387211953,Hz
PAT,P34,INI,FM,M2,84.53908453908456,Hz
PAT,P34,INI,FM,M3,81.62708162708165,Hz
PAT,P34,REL,FM,M1,82.18074149937878,Hz
PAT,P34,REL,FM,M2,82.71908271908273,Hz
PAT,P34,REL,FM,M3,82.53708253708254,Hz
PAT,P36,INI,FM,M1,85.2740151337346,Hz
PAT,P36,INI,FM,M2,83.35608335608336,Hz
PAT,P36,INI,FM,M3,82.81008281008282,Hz
PAT,P36,REL,FM,M1,97.37848615604128,Hz
PAT,P36,REL,FM,M2,98.64409864409866,Hz
PAT,P36,REL,FM,M3,101.37410137410136,Hz
PAT,P41,INI,FM,M1,75.53846431601943,Hz
PAT,P41,INI,FM,M2,72.25407225407227,Hz
PAT,P41,INI,FM,M3,72.70907270907271,Hz
PAT,P41,REL,FM,M1,67.4376325678931,Hz
PAT,P41,REL,FM,M2,69.34206934206935,Hz
PAT,P41,REL,FM,M3,67.43106743106742,Hz
PAT,P42,INI,FM,M1,91.5539332373,Hz
PAT,P42,INI,FM,M2,89.81708981708984,Hz
PAT,P42,INI,FM,M3,90.90909090909092,Hz
PAT,P42,REL,FM,M1,87.45929387211953,Hz
PAT,P42,REL,FM,M2,85.995085995086,Hz
PAT,P42,REL,FM,M3,81.9000819000819,Hz
PAT,P43,INI,FM,M1,89.0057483243856,Hz
PAT,P43,INI,FM,M2,88.81608881608884,Hz
PAT,P43,INI,FM,M3,86.45008645008646,Hz
PAT,P43,REL,FM,M1,86.00311005120626,Hz
PAT,P43,REL,FM,M2,86.63208663208663,Hz
PAT,P43,REL,FM,M3,86.26808626808628,Hz
PAT,P45,INI,FM,M1,67.71026811106971,Hz
PAT,P45,INI,FM,M2,64.88306488306488,Hz
PAT,P45,INI,FM,M3,65.52006552006554,Hz
PAT,P45,REL,FM,M1,80.90436948152379,Hz
PAT,P45,REL,FM,M2,85.08508508508508,Hz
PAT,P45,REL,FM,M3,82.44608244608246,Hz
PAT,P47,INI,FM,M1,115.67078100144236,Hz
PAT,P47,INI,FM,M2,100.1001001001001,Hz
PAT,P47,INI,FM,M3,97.91609791609794,Hz
PAT,P47,REL,FM,M1,80.45155740546522,Hz
PAT,P47,REL,FM,M2,74.16507416507417,Hz
PAT,P47,REL,FM,M3,76.16707616707616,Hz
PAT,P50,INI,FM,M1,99.83567097795554,Hz
PAT,P50,INI,FM,M2,93.54809354809356,Hz
PAT,P50,INI,FM,M3,80.990080990081,Hz
PAT,P50,REL,FM,M1,95.1953957965982,Hz
PAT,P50,REL,FM,M2,91.09109109109112,Hz
PAT,P50,REL,FM,M3,91.91009191009192,Hz
PAT,P51,INI,FM,M1,74.35400421372366,Hz
PAT,P51,INI,FM,M2,66.24806624806625,Hz
PAT,P51,INI,FM,M3,72.70907270907271,Hz
PAT,P51,REL,FM,M1,80.8157401343774,Hz
PAT,P51,REL,FM,M2,64.51906451906451,Hz
PAT,P51,REL,FM,M3,54.50905450905452,Hz
PAT,P53,INI,FM,M1,87.36829378111943,Hz
PAT,P53,INI,FM,M2,84.63008463008464,Hz
PAT,P53,INI,FM,M3,84.53908453908456,Hz
PAT,P53,REL,FM,M1,85.63874495738224,Hz
PAT,P53,REL,FM,M2,85.995085995086,Hz
PAT,P53,REL,FM,M3,85.99508599508601,Hz
PAT,P54,INI,FM,M1,99.29076462142596,Hz
PAT,P54,INI,FM,M2,97.27909727909729,Hz
PAT,P54,INI,FM,M3,92.91109291109292,Hz
PAT,P54,REL,FM,M1,92.55529896812465,Hz
PAT,P54,REL,FM,M2,93.36609336609337,Hz
PAT,P54,REL,FM,M3,92.1830921830922,Hz
PAT,P58,INI,FM,M1,93.01084651786054,Hz
PAT,P58,INI,FM,M2,86.81408681408682,Hz
PAT,P58,INI,FM,M3,82.9010829010829,Hz
PAT,P58,REL,FM,M1,79.6325565864644,Hz
PAT,P58,REL,FM,M2,79.71607971607972,Hz
PAT,P58,REL,FM,M3,80.89908089908091,Hz
PAT,P61,REL,FM,M1,75.35573467437196,Hz
PAT,P61,REL,FM,M2,75.71207571207573,Hz
PAT,P61,REL,FM,M3,80.35308035308036,Hz
PAT,P62,INI,FM,M1,74.35382184881183,Hz
PAT,P62,INI,FM,M2,75.25707525707527,Hz
PAT,P62,INI,FM,M3,75.25707525707526,Hz
PAT,P62,REL,FM,M1,79.81455676846458,Hz
PAT,P62,REL,FM,M2,71.07107107107107,Hz
PAT,P62,REL,FM,M3,84.72108472108472,Hz
PAT,P63,INI,FM,M1,85.36082083176272,Hz
PAT,P63,INI,FM,M2,92.36509236509238,Hz
PAT,P63,INI,FM,M3,110.74711074711075,Hz
PAT,P63,REL,FM,M1,114.39732682217654,Hz
PAT,P63,REL,FM,M2,115.47911547911548,Hz
PAT,P63,REL,FM,M3,113.20411320411324,Hz
PAT,P65,INI,FM,M1,91.73575105438834,Hz
PAT,P65,INI,FM,M2,98.09809809809808,Hz
PAT,P65,INI,FM,M3,96.73309673309672,Hz
PAT,P65,REL,FM,M1,113.48769064199928,Hz
PAT,P65,REL,FM,M2,117.20811720811724,Hz
PAT,P65,REL,FM,M3,110.83811083811086,Hz
