Group,Participant,Session,Operator,Measure,Value,Unit
PAT,P09,INI,FM,M1,9.532214535714058,%subMVIC
PAT,P09,INI,FM,M2,9.357044683390795,%subMVIC
PAT,P09,INI,FM,M3,9.388936114727558,%subMVIC
PAT,P09,REL,FM,M1,14.499197931599898,%subMVIC
PAT,P09,REL,FM,M2,15.02810939885185,%subMVIC
PAT,P09,REL,FM,M3,14.418600944738456,%subMVIC
PAT,P10,INI,FM,M1,7.946391257022209,%subMVIC
PAT,P10,INI,FM,M2,7.389076476529635,%subMVIC
PAT,P10,INI,FM,M3,7.307513743533253,%subMVIC
PAT,P10,REL,FM,M1,9.958880159778904,%subMVIC
PAT,P10,REL,FM,M2,10.291621059871662,%subMVIC
PAT,P10,REL,FM,M3,11.311232403362865,%subMVIC
PAT,P11,INI,FM,M1,14.033504734473132,%subMVIC
PAT,P11,INI,FM,M2,14.181499670831945,%subMVIC
PAT,P11,INI,FM,M3,13.50267813949854,%subMVIC
PAT,P11,REL,FM,M1,14.845497209140971,%subMVIC
PAT,P11,REL,FM,M2,13.14831033932841,%subMVIC
PAT,P11,REL,FM,M3,13.74806967609706,%subMVIC
PAT,P12,INI,FM,M1,12.452184586682709,%subMVIC
PAT,P12,INI,FM,M2,12.242869349814718,%subMVIC
PAT,P12,INI,FM,M3,12.630924192688498,%subMVIC
PAT,P12,REL,FM,M1,16.800426252767668,%subMVIC
PAT,P12,REL,FM,M2,16.348552672665214,%subMVIC
PAT,P12,REL,FM,M3,16.289840096337702,%subMVIC
PAT,P14,INI,FM,M1,15.188920565853184,%subMVIC
PAT,P14,INI,FM,M2,15.458620381235276,%subMVIC
PAT,P14,INI,FM,M3,16.351941937161424,%subMVIC
PAT,P14,REL,FM,M1,11.464627109712499,%subMVIC
PAT,P14,REL,FM,M2,11.707302437496567,%subMVIC
PAT,P14,REL,FM,M3,11.645442010863224,%subMVIC
PAT,P17,INI,FM,M1,19.756751017556855,%subMVIC
PAT,P17,INI,FM,M2,20.57586565143286,%subMVIC
PAT,P17,INI,FM,M3,21.898223532490604,%subMVIC
PAT,P17,REL,FM,M1,16.100747003948793,%subMVIC
PAT,P17,REL,FM,M2,19.87727840234193,%subMVIC
PAT,P17,REL,FM,M3,16.742198285529703,%subMVIC
PAT,P24,INI,FM,M1,11.22916520724107,%subMVIC
PAT,P24,INI,FM,M2,10.99218171453473,%subMVIC
PAT,P24,INI,FM,M3,11.313298704661333,%subMVIC
PAT,P24,REL,FM,M1,11.389665100163173,%subMVIC
PAT,P24,REL,FM,M2,11.40713582938275,%subMVIC
PAT,P24,REL,FM,M3,11.016051795352093,%subMVIC
PAT,P26,INI,FM,M1,29.428835325683053,%subMVIC
PAT,P26,INI,FM,M2,22.249808472452848,%subMVIC
PAT,P26,INI,FM,M3,22.083009240891993,%subMVIC
PAT,P26,REL,FM,M1,14.977611178974687,%subMVIC
PAT,P26,REL,FM,M2,12.654236813128266,%subMVIC
PAT,P26,REL,FM,M3,14.504503968211122,%subMVIC
PAT,P27,INI,FM,M1,21.222639517539065,%subMVIC
PAT,P27,INI,FM,M2,21.098759784075007,%subMVIC
PAT,P27,INI,FM,M3,24.910248776518966,%subMVIC
PAT,P27,REL,FM,M1,9.073308094627453,%subMVIC
PAT,P27,REL,FM,M2,11.045085071019232,%subMVIC
PAT,P27,REL,FM,M3,11.543803721301844,%subMVIC
PAT,P28,INI,FM,M1,8.871513255339728,%subMVIC
PAT,P28,INI,FM,M2,9.200863906309994,%subMVIC
PAT,P28,INI,FM,M3,9.199126138458748,%subMVIC
PAT,P28,REL,FM,M1,10.950107318596674,%subMVIC
PAT,P28,REL,FM,M2,10.733343855960749,%subMVIC
PAT,P28,REL,FM,M3,10.953313595219315,%subMVIC
PAT,P29,INI,FM,M1,6.206926237079922,%subMVIC
PAT,P29,INI,FM,M2,6.395723654398661,%subMVIC
PAT,P29,INI,FM,M3,6.1708689119275135,%subMVIC
PAT,P29,REL,FM,M1,4.717389215696623,%subMVIC
PAT,P29,REL,FM,M2,4.517945985367941,%subMVIC
PAT,P29,REL,FM,M3,4.58327151226805,%subMVIC
PAT,P32,INI,FM,M1,15.458612104267868,%subMVIC
PAT,P32,INI,FM,M2,15.562413332523692,%subMVIC
PAT,P32,INI,FM,M3,15.320659613598744,%subMVIC
PAT,P32,REL,FM,M1,362.4409513705002,%subMVIC
PAT,P32,REL,FM,M2,432.2929901207131,%subMVIC
PAT,P32,REL,FM,M3,425.3451115925633,%subMVIC
PAT,P33,INI,FM,M1,9.719481820055973,%subMVIC
PAT,P33,INI,FM,M2,9.725482471801383,%subMVIC
PAT,P33,INI,FM,M3,9.741763630389107,%subMVIC
PAT,P33,REL,FM,M1,13.055505520074911,%subMVIC
PAT,P33,REL,FM,M2,13.585623698456658,%subMVIC
PAT,P33,REL,FM,M3,12.78439189608876,%subMVIC
PAT,P34,INI,FM,M1,14.322896624077906,%subMVIC
PAT,P34,INI,FM,M2,13.609386381372722,%subMVIC
PAT,P34,INI,FM,M3,13.758242013832488,%subMVIC
PAT,P34,REL,FM,M1,8.502672154305678,%subMVIC
PAT,P34,REL,FM,M2,7.8692769415509565,%subMVIC
PAT,P34,REL,FM,M3,7.751418475206783,%subMVIC
PAT,P36,INI,FM,M1,601.7514509690922,%subMVIC
PAT,P36,INI,FM,M2,620.6295121951345,%subMVIC
PAT,P36,INI,FM,M3,809.4856884730059,%subMVIC
PAT,P36,REL,FM,M1,4.215658127066017,%subMVIC
PAT,P36,REL,FM,M2,6.4185402419792155,%subMVIC
PAT,P36,REL,FM,M3,6.065789145105746,%subMVIC
PAT,P41,INI,FM,M1,13.764219846793592,%subMVIC
PAT,P41,INI,FM,M2,13.67323747845525,%subMVIC
PAT,P41,INI,FM,M3,17.78572520285475,%subMVIC
PAT,P41,REL,FM,M1,22.75109724687155,%subMVIC
PAT,P41,REL,FM,M2,25.185261936642785,%subMVIC
PAT,P41,REL,FM,M3,20.67523577989447,%subMVIC
PAT,P42,INI,FM,M1,1.7454130392635816,%subMVIC
PAT,P42,INI,FM,M2,1.748960878417985,%subMVIC
PAT,P42,INI,FM,M3,1.666121910148486,%subMVIC
PAT,P42,REL,FM,M1,1.205507786255912,%subMVIC
PAT,P42,REL,FM,M2,1.2573685254244162,%subMVIC
PAT,P42,REL,FM,M3,1.248686321082377,%subMVIC
PAT,P43,INI,FM,M1,11.15113014609434,%subMVIC
PAT,P43,INI,FM,M2,10.249570444917616,%subMVIC
PAT,P43,INI,FM,M3,10.8217175157809,%subMVIC
PAT,P43,REL,FM,M1,35.2543065300524,%subMVIC
PAT,P43,REL,FM,M2,30.434361589670154,%subMVIC
PAT,P43,REL,FM,M3,32.86528500438799,%subMVIC
PAT,P45,INI,FM,M1,17.216511827078186,%subMVIC
PAT,P45,INI,FM,M2,17.816981672344937,%subMVIC
PAT,P45,INI,FM,M3,16.663164872428162,%subMVIC
PAT,P45,REL,FM,M1,28.597998017714918,%subMVIC
PAT,P45,REL,FM,M2,31.068444577481056,%subMVIC
PAT,P45,REL,FM,M3,32.348487730277455,%subMVIC
PAT,P47,REL,FM,M1,42.697867122597785,%subMVIC
PAT,P47,REL,FM,M2,42.168323061513334,%subMVIC
PAT,P47,REL,FM,M3,42.00696804303979,%subMVIC
PAT,P50,INI,FM,M1,9.735291871405463,%subMVIC
PAT,P50,INI,FM,M2,9.563701564795261,%subMVIC
PAT,P50,INI,FM,M3,10.214414602887038,%subMVIC
PAT,P50,REL,FM,M1,4.509756840051113,%subMVIC
PAT,P50,REL,FM,M2,4.626731908502657,%subMVIC
PAT,P50,REL,FM,M3,4.556841829185467,%subMVIC
PAT,P51,INI,FM,M1,22.885428629018804,%subMVIC
PAT,P51,INI,FM,M2,23.387086170256577,%subMVIC
PAT,P51,INI,FM,M3,23.102316837143224,%subMVIC
PAT,P51,REL,FM,M1,11.983420639129909,%subMVIC
PAT,P51,REL,FM,M2,11.933432031051906,%subMVIC
PAT,P51,REL,FM,M3,11.946366578144465,%subMVIC
PAT,P53,INI,FM,M1,15.363417818968264,%subMVIC
PAT,P53,INI,FM,M2,15.980785852442882,%subMVIC
PAT,P53,INI,FM,M3,15.455878561807472,%subMVIC
PAT,P53,REL,FM,M1,73.12619452312599,%subMVIC
PAT,P53,REL,FM,M2,75.98683021284513,%subMVIC
PAT,P53,REL,FM,M3,75.96574917479569,%subMVIC
PAT,P54,INI,FM,M1,6.610142711886441,%subMVIC
PAT,P54,INI,FM,M2,7.124259172059455,%subMVIC
PAT,P54,INI,FM,M3,7.312256430996899,%subMVIC
PAT,P54,REL,FM,M1,5.2135258524360175,%subMVIC
PAT,P54,REL,FM,M2,5.215336202103122,%subMVIC
PAT,P54,REL,FM,M3,5.2215460507286195,%subMVIC
PAT,P58,INI,FM,M1,30.33245646202067,%subMVIC
PAT,P58,INI,FM,M2,29.85736905421651,%subMVIC
PAT,P58,INI,FM,M3,30.26119142851712,%subMVIC
PAT,P58,REL,FM,M1,19.39057809098756,%subMVIC
PAT,P58,REL,FM,M2,19.046023191794212,%subMVIC
PAT,P58,REL,FM,M3,18.430979861550266,%subMVIC
PAT,P61,INI,FM,M1,34.08829830875431,%subMVIC
PAT,P61,INI,FM,M2,33.59038720978208,%subMVIC
PAT,P61,INI,FM,M3,34.07715116434834,%subMVIC
PAT,P61,REL,FM,M1,19.91422806934092,%subMVIC
PAT,P61,REL,FM,M2,19.446894778027374,%subMVIC
PAT,P61,REL,FM,M3,19.274788072899977,%subMVIC
PAT,P62,INI,FM,M1,3.043903892572757,%subMVIC
PAT,P62,INI,FM,M2,3.1225881189441766,%subMVIC
PAT,P62,INI,FM,M3,3.2507436216539367,%subMVIC
PAT,P62,REL,FM,M1,20.190581076209487,%subMVIC
PAT,P62,REL,FM,M2,20.590368970958888,%subMVIC
PAT,P62,REL,FM,M3,26.147090230757755,%subMVIC
PAT,P63,INI,FM,M1,75.51950107850917,%subMVIC
PAT,P63,INI,FM,M2,95.15238886832074,%subMVIC
PAT,P63,INI,FM,M3,106.31437178821172,%subMVIC
PAT,P63,REL,FM,M1,16.781570108543878,%subMVIC
PAT,P63,REL,FM,M2,13.923256015902634,%subMVIC
PAT,P63,REL,FM,M3,13.401674345866391,%subMVIC
PAT,P65,INI,FM,M1,7.3774895044575635,%subMVIC
PAT,P65,INI,FM,M2,5.951851715245642,%subMVIC
PAT,P65,INI,FM,M3,5.931449399446806,%subMVIC
PAT,P65,REL,FM,M1,6.810566154625942,%subMVIC
PAT,P65,REL,FM,M2,6.984058498197684,%subMVIC
PAT,P65,REL,FM,M3,8.296713070740646,%subMVIC
