Group,Participant,Session,Operator,Measure,Value,Unit
PAT,P09,INI,FM,M1,12.902969124825576,%MAX
PAT,P09,INI,FM,M2,15.465041240578701,%MAX
PAT,P09,INI,FM,M3,15.306851137960068,%MAX
PAT,P09,REL,FM,M1,17.630702418165278,%MAX
PAT,P09,REL,FM,M2,21.696250318872345,%MAX
PAT,P09,REL,FM,M3,16.06650019810882,%MAX
PAT,P10,INI,FM,M1,7.3672845050162135,%MAX
PAT,P10,INI,FM,M2,6.695367719687356,%MAX
PAT,P10,INI,FM,M3,5.610785671489311,%MAX
PAT,P10,REL,FM,M1,9.38675188918388,%MAX
PAT,P10,REL,FM,M2,6.60088041898413,%MAX
PAT,P10,REL,FM,M3,7.423457618746814,%MAX
PAT,P11,INI,FM,M1,26.752659462733845,%MAX
PAT,P11,INI,FM,M2,29.58837466948802,%MAX
PAT,P11,INI,FM,M3,26.04047690007468,%MAX
PAT,P11,REL,FM,M1,12.196407091834098,%MAX
PAT,P11,REL,FM,M2,13.481180251030061,%MAX
PAT,P11,REL,FM,M3,13.848916548360263,%MAX
PAT,P12,INI,FM,M1,26.817951763474042,%MAX
PAT,P12,INI,FM,M2,28.02215974991242,%MAX
PAT,P12,INI,FM,M3,21.9972718411506,%MAX
PAT,P12,REL,FM,M1,42.95429723710192,%MAX
PAT,P12,REL,FM,M2,42.658746796745895,%MAX
PAT,P12,REL,FM,M3,43.14400112183568,%MAX
PAT,P14,INI,FM,M1,30.279035792731698,%MAX
PAT,P14,INI,FM,M2,31.34849031530864,%MAX
PAT,P14,INI,FM,M3,30.865924469761815,%MAX
PAT,P14,REL,FM,M1,8.611058234722972,%MAX
PAT,P14,REL,FM,M2,8.265929689720524,%MAX
PAT,P14,REL,FM,M3,6.007034333363203,%MAX
PAT,P17,INI,FM,M1,20.336425320669655,%MAX
PAT,P17,INI,FM,M2,47.11031817890918,%MAX
PAT,P17,INI,FM,M3,29.056692642823627,%MAX
PAT,P17,REL,FM,M1,41.09933180260229,%MAX
PAT,P17,REL,FM,M2,54.780118778735876,%MAX
PAT,P17,REL,FM,M3,48.794419403498004,%MAX
PAT,P24,INI,FM,M1,21.299041362149588,%MAX
PAT,P24,INI,FM,M2,24.24970996021156,%MAX
PAT,P24,INI,FM,M3,26.22476730018287,%MAX
PAT,P24,REL,FM,M1,22.047854451307472,%MAX
PAT,P24,REL,FM,M2,15.063622822957736,%MAX
PAT,P24,REL,FM,M3,23.208318189348354,%MAX
PAT,P26,INI,FM,M1,20.754083480465756,%MAX
PAT,P26,INI,FM,M2,8.743287369834759,%MAX
PAT,P26,INI,FM,M3,42.48181785443022,%MAX
PAT,P26,REL,FM,M1,27.17795594336544,%MAX
PAT,P26,REL,FM,M2,13.350156317927105,%MAX
PAT,P26,REL,FM,M3,19.73386194173706,%MAX
PAT,P27,INI,FM,M1,29.433445990852263,%MAX
PAT,P27,INI,FM,M2,26.307220230448024,%MAX
PAT,P27,INI,FM,M3,41.80752372712179,%MAX
PAT,P27,REL,FM,M1,14.341546386124103,%MAX
PAT,P27,REL,FM,M2,35.40528553152354,%MAX
PAT,P27,REL,FM,M3,47.69841891162092,%MAX
PAT,P28,INI,FM,M1,15.147658989454209,%MAX
PAT,P28,INI,FM,M2,18.067783199190806,%MAX
PAT,P28,INI,FM,M3,27.057180445403297,%MAX
PAT,P28,REL,FM,M1,9.357175239181544,%MAX
PAT,P28,REL,FM,M2,7.386973730167471,%MAX
PAT,P28,REL,FM,M3,24.644655573019843,%MAX
PAT,P29,INI,FM,M1,14.894614125145708,%MAX
PAT,P29,INI,FM,M2,24.515846359559625,%MAX
PAT,P29,INI,FM,M3,50.59052355995412,%MAX
PAT,P29,REL,FM,M1,16.21960218934877,%MAX
PAT,P29,REL,FM,M2,13.32540790648669,%MAX
PAT,P29,REL,FM,M3,64.03416634505459,%MAX
PAT,P32,INI,FM,M1,33.15926421834401,%MAX
PAT,P32,INI,FM,M2,26.791509168228767,%MAX
PAT,P32,INI,FM,M3,56.83269254980788,%MAX
PAT,P32,REL,FM,M1,29.75068443714028,%MAX
PAT,P32,REL,FM,M2,38.61698205954574,%MAX
PAT,P32,REL,FM,M3,65.12167995420131,%MAX
PAT,P33,INI,FM,M1,6.970621175228327,%MAX
PAT,P33,INI,FM,M2,3.995459117489608,%MAX
PAT,P33,INI,FM,M3,13.592318769224478,%MAX
PAT,P33,REL,FM,M1,28.206589742637888,%MAX
PAT,P33,REL,FM,M2,31.19705665750306,%MAX
PAT,P33,REL,FM,M3,17.98603298819208,%MAX
PAT,P34,INI,FM,M1,25.385919132944558,%MAX
PAT,P34,INI,FM,M2,29.14514581249245,%MAX
PAT,P34,INI,FM,M3,49.86598720845753,%MAX
PAT,P34,REL,FM,M1,33.48738103529591,%MAX
PAT,P34,REL,FM,M2,36.962915180298346,%MAX
PAT,P34,REL,FM,M3,48.69612034477147,%MAX
PAT,P36,INI,FM,M1,25.43034098599079,%MAX
PAT,P36,INI,FM,M2,27.81273085212386,%MAX
PAT,P36,INI,FM,M3,62.576016870359275,%MAX
PAT,P36,REL,FM,M1,24.566784331651224,%MAX
PAT,P36,REL,FM,M2,28.32100136517006,%MAX
PAT,P36,REL,FM,M3,58.281248848679475,%MAX
PAT,P41,INI,FM,M1,24.78127314446645,%MAX
PAT,P41,INI,FM,M2,25.538359260080114,%MAX
PAT,P41,INI,FM,M3,69.73721156816028,%MAX
PAT,P41,REL,FM,M1,24.929885447231356,%MAX
PAT,P41,REL,FM,M2,28.068264445566392,%MAX
PAT,P41,REL,FM,M3,76.15303369470072,%MAX
PAT,P42,INI,FM,M1,14.353224315233627,%MAX
PAT,P42,INI,FM,M2,18.6658567956757,%MAX
PAT,P42,INI,FM,M3,17.767742663716835,%MAX
PAT,P42,REL,FM,M1,9.19885051854374,%MAX
PAT,P42,REL,FM,M2,8.984404702310071,%MAX
PAT,P42,REL,FM,M3,28.917573478871393,%MAX
PAT,P43,INI,FM,M1,17.727622043199954,%MAX
PAT,P43,INI,FM,M2,22.391431219029528,%MAX
PAT,P43,INI,FM,M3,61.74914311085462,%MAX
PAT,P43,REL,FM,M1,21.12514876160488,%MAX
PAT,P43,REL,FM,M2,24.630001604130147,%MAX
PAT,P43,REL,FM,M3,43.09955020288968,%MAX
PAT,P45,INI,FM,M1,8.641232744217238,%MAX
PAT,P45,INI,FM,M2,13.497487389469567,%MAX
PAT,P45,INI,FM,M3,26.68621310440364,%MAX
PAT,P45,REL,FM,M1,19.289354408076015,%MAX
PAT,P45,REL,FM,M2,20.575690406370384,%MAX
PAT,P45,REL,FM,M3,26.690036235434384,%MAX
PAT,P47,INI,FM,M1,12.588038681426253,%MAX
PAT,P47,INI,FM,M2,17.04940991709077,%MAX
PAT,P47,INI,FM,M3,14.389953503536978,%MAX
PAT,P47,REL,FM,M1,26.049624407351356,%MAX
PAT,P47,REL,FM,M2,39.17439815027573,%MAX
PAT,P47,REL,FM,M3,74.01043245531373,%MAX
PAT,P50,INI,FM,M1,11.578657834057132,%MAX
PAT,P50,INI,FM,M2,15.758576117472282,%MAX
PAT,P50,INI,FM,M3,76.69222453827585,%MAX
PAT,P50,REL,FM,M1,12.857269966367701,%MAX
PAT,P50,REL,FM,M2,13.291651054111583,%MAX
PAT,P50,REL,FM,M3,13.697076934658202,%MAX
PAT,P51,INI,FM,M1,26.079294892465274,%MAX
PAT,P51,INI,FM,M2,26.65851286238474,%MAX
PAT,P51,INI,FM,M3,32.033466017481906,%MAX
PAT,P51,REL,FM,M1,24.06346134829467,%MAX
PAT,P51,REL,FM,M2,29.80791815325725,%MAX
PAT,P51,REL,FM,M3,14.42650772168921,%MAX
PAT,P53,INI,FM,M1,28.139604831226343,%MAX
PAT,P53,INI,FM,M2,25.698044710395514,%MAX
PAT,P53,INI,FM,M3,21.92570916367358,%MAX
PAT,P53,REL,FM,M1,23.218666123178878,%MAX
PAT,P53,REL,FM,M2,17.62848019470852,%MAX
PAT,P53,REL,FM,M3,49.60721077376559,%MAX
PAT,P54,INI,FM,M1,33.82928614641647,%MAX
PAT,P54,INI,FM,M2,29.163888993253316,%MAX
PAT,P54,INI,FM,M3,41.38235787282982,%MAX
PAT,P54,REL,FM,M1,23.030102291325555,%MAX
PAT,P54,REL,FM,M2,43.41838927218683,%MAX
PAT,P54,REL,FM,M3,58.62550092468311,%MAX
PAT,P58,INI,FM,M1,57.471422331425806,%MAX
PAT,P58,INI,FM,M2,56.23527177038735,%MAX
PAT,P58,INI,FM,M3,52.97693406402948,%MAX
PAT,P58,REL,FM,M1,39.37391701942293,%MAX
PAT,P58,REL,FM,M2,47.773912208411005,%MAX
PAT,P58,REL,FM,M3,77.59215940771412,%MAX
PAT,P61,INI,FM,M1,61.703652401561556,%MAX
PAT,P61,INI,FM,M2,39.11874798738358,%MAX
PAT,P61,INI,FM,M3,86.44789313635161,%MAX
PAT,P61,REL,FM,M1,20.954755044171964,%MAX
PAT,P61,REL,FM,M2,83.7962891074918,%MAX
PAT,P61,REL,FM,M3,68.36406373406987,%MAX
PAT,P62,INI,FM,M1,54.01370710449499,%MAX
PAT,P62,INI,FM,M2,82.39901236945767,%MAX
PAT,P62,INI,FM,M3,55.92398442303163,%MAX
PAT,P62,REL,FM,M1,74.64911380572661,%MAX
PAT,P62,REL,FM,M2,126.03524317474091,%MAX
PAT,P62,REL,FM,M3,86.923821976298,%MAX
PAT,P63,INI,FM,M1,48.56691947443181,%MAX
PAT,P63,INI,FM,M2,34.588614511125044,%MAX
PAT,P63,INI,FM,M3,27.089944158159632,%MAX
PAT,P63,REL,FM,M1,35.33955972469619,%MAX
PAT,P63,REL,FM,M2,22.075138623097466,%MAX
PAT,P63,REL,FM,M3,26.697746898453573,%MAX
PAT,P65,INI,FM,M1,115.04416759868127,%MAX
PAT,P65,INI,FM,M2,83.42573974562215,%MAX
PAT,P65,INI,FM,M3,70.09992672348906,%MAX
PAT,P65,REL,FM,M1,65.3710268553932,%MAX
PAT,P65,REL,FM,M2,64.08611802343711,%MAX
PAT,P65,REL,FM,M3,106.52572505897443,%MAX
