Group,Participant,Session,Operator,Measure,Value,Unit
PAT,P09,INI,FM,M1,11.832696970902388,%SubMVIC
PAT,P09,INI,FM,M2,10.851554407002448,%SubMVIC
PAT,P09,INI,FM,M3,8.535044913299588,%SubMVIC
PAT,P09,REL,FM,M1,10.73641226233554,%SubMVIC
PAT,P09,REL,FM,M2,10.871622002239487,%SubMVIC
PAT,P09,REL,FM,M3,9.100273779146098,%SubMVIC
PAT,P10,INI,FM,M1,0.5103652925726982,%SubMVIC
PAT,P10,INI,FM,M2,0.4157016834699293,%SubMVIC
PAT,P10,INI,FM,M3,0.415864394426099,%SubMVIC
PAT,P10,REL,FM,M1,0.8127031082633569,%SubMVIC
PAT,P10,REL,FM,M2,0.6071159240384859,%SubMVIC
PAT,P10,REL,FM,M3,0.9388141488101492,%SubMVIC
PAT,P11,INI,FM,M1,7.217374092947384,%SubMVIC
PAT,P11,INI,FM,M2,8.339075127068497,%SubMVIC
PAT,P11,INI,FM,M3,7.608137428699576,%SubMVIC
PAT,P11,REL,FM,M1,4.489883893665544,%SubMVIC
PAT,P11,REL,FM,M2,3.841847417303436,%SubMVIC
PAT,P11,REL,FM,M3,3.4990723358218405,%SubMVIC
PAT,P12,INI,FM,M1,12.928455795233674,%SubMVIC
PAT,P12,INI,FM,M2,12.747565699606149,%SubMVIC
PAT,P12,INI,FM,M3,11.500818396080277,%SubMVIC
PAT,P12,REL,FM,M1,0.8268208724043729,%SubMVIC
PAT,P12,REL,FM,M2,0.3526346261469951,%SubMVIC
PAT,P12,REL,FM,M3,0.0135905209174712,%SubMVIC
PAT,P14,INI,FM,M1,9.374813445063792,%SubMVIC
PAT,P14,INI,FM,M2,9.06770883206952,%SubMVIC
PAT,P14,INI,FM,M3,8.311328801597329,%SubMVIC
PAT,P14,REL,FM,M1,10.4213120328235,%SubMVIC
PAT,P14,REL,FM,M2,10.559099658588822,%SubMVIC
PAT,P14,REL,FM,M3,10.619557364526072,%SubMVIC
PAT,P17,INI,FM,M1,2.035112476109488,%SubMVIC
PAT,P17,INI,FM,M2,2.185447125595996,%SubMVIC
PAT,P17,INI,FM,M3,1.9987676118193856,%SubMVIC
PAT,P17,REL,FM,M1,9.372356168520412,%SubMVIC
PAT,P17,REL,FM,M2,9.385287450531054,%SubMVIC
PAT,P17,REL,FM,M3,8.566282918783237,%SubMVIC
PAT,P24,INI,FM,M1,11.646693669445966,%SubMVIC
PAT,P24,INI,FM,M2,12.516582806961049,%SubMVIC
PAT,P24,INI,FM,M3,11.244741755237076,%SubMVIC
PAT,P24,REL,FM,M1,9.363629694857323,%SubMVIC
PAT,P24,REL,FM,M2,9.829239689026071,%SubMVIC
PAT,P24,REL,FM,M3,9.039415095370575,%SubMVIC
PAT,P26,INI,FM,M1,0.2438442177681869,%SubMVIC
PAT,P26,INI,FM,M2,0.5473733464643458,%SubMVIC
PAT,P26,INI,FM,M3,0.346867530499865,%SubMVIC
PAT,P26,REL,FM,M1,0.3719829967311239,%SubMVIC
PAT,P26,REL,FM,M2,0.4100646584574445,%SubMVIC
PAT,P26,REL,FM,M3,0.532015198614209,%SubMVIC
PAT,P27,INI,FM,M1,12.703727233404218,%SubMVIC
PAT,P27,INI,FM,M2,12.038101844064256,%SubMVIC
PAT,P27,INI,FM,M3,9.73540704902664,%SubMVIC
PAT,P27,REL,FM,M1,12.783914984868025,%SubMVIC
PAT,P27,REL,FM,M2,11.932887584657172,%SubMVIC
PAT,P27,REL,FM,M3,11.350241384731293,%SubMVIC
PAT,P28,INI,FM,M1,11.290647630593131,%SubMVIC
PAT,P28,INI,FM,M2,12.28272842521994,%SubMVIC
PAT,P28,INI,FM,M3,11.0768719038573,%SubMVIC
PAT,P28,REL,FM,M1,12.2348049672555,%SubMVIC
PAT,P28,REL,FM,M2,13.62294434415436,%SubMVIC
PAT,P28,REL,FM,M3,11.964874757829772,%SubMVIC
PAT,P29,INI,FM,M1,8.437676327992536,%SubMVIC
PAT,P29,INI,FM,M2,6.667470415184921,%SubMVIC
PAT,P29,INI,FM,M3,6.413869579138419,%SubMVIC
PAT,P29,REL,FM,M1,5.522358857523854,%SubMVIC
PAT,P29,REL,FM,M2,6.054007467268781,%SubMVIC
PAT,P29,REL,FM,M3,4.502281618719083,%SubMVIC
PAT,P32,INI,FM,M1,11.218314595842536,%SubMVIC
PAT,P32,INI,FM,M2,11.09953346519823,%SubMVIC
PAT,P32,INI,FM,M3,10.14313760745402,%SubMVIC
PAT,P32,REL,FM,M1,3.4259641998320736,%SubMVIC
PAT,P32,REL,FM,M2,3.589085520138604,%SubMVIC
PAT,P32,REL,FM,M3,3.4240598541025515,%SubMVIC
PAT,P33,INI,FM,M1,9.323950558415405,%SubMVIC
PAT,P33,INI,FM,M2,9.970884538017664,%SubMVIC
PAT,P33,INI,FM,M3,9.169747920168474,%SubMVIC
PAT,P33,REL,FM,M1,9.817230850984412,%SubMVIC
PAT,P33,REL,FM,M2,10.288770815582062,%SubMVIC
PAT,P33,REL,FM,M3,11.013469779779818,%SubMVIC
PAT,P34,INI,FM,M1,8.886755336860116,%SubMVIC
PAT,P34,INI,FM,M2,9.394323179211796,%SubMVIC
PAT,P34,INI,FM,M3,8.075356554913315,%SubMVIC
PAT,P34,REL,FM,M1,7.658570606685586,%SubMVIC
PAT,P34,REL,FM,M2,7.999667194834778,%SubMVIC
PAT,P34,REL,FM,M3,7.677351945583095,%SubMVIC
PAT,P36,INI,FM,M1,8.64875309574612,%SubMVIC
PAT,P36,INI,FM,M2,9.551102756540043,%SubMVIC
PAT,P36,INI,FM,M3,8.414367310278076,%SubMVIC
PAT,P36,REL,FM,M1,8.884669667233027,%SubMVIC
PAT,P36,REL,FM,M2,10.123983645569348,%SubMVIC
PAT,P36,REL,FM,M3,9.056968843471225,%SubMVIC
PAT,P41,INI,FM,M1,5.7669406848323925,%SubMVIC
PAT,P41,INI,FM,M2,5.021005909527453,%SubMVIC
PAT,P41,INI,FM,M3,4.782739391591375,%SubMVIC
PAT,P41,REL,FM,M1,7.72469554036882,%SubMVIC
PAT,P41,REL,FM,M2,6.990362508752972,%SubMVIC
PAT,P41,REL,FM,M3,6.005179447933292,%SubMVIC
PAT,P42,INI,FM,M1,5.699247404730416,%SubMVIC
PAT,P42,INI,FM,M2,5.3795867894893865,%SubMVIC
PAT,P42,INI,FM,M3,4.519700773152388,%SubMVIC
PAT,P42,REL,FM,M1,7.720442423295672,%SubMVIC
PAT,P42,REL,FM,M2,6.570402827324452,%SubMVIC
PAT,P42,REL,FM,M3,5.72450798540231,%SubMVIC
PAT,P43,INI,FM,M1,2.3746741738553485,%SubMVIC
PAT,P43,INI,FM,M2,2.2904201943547826,%SubMVIC
PAT,P43,INI,FM,M3,1.632806822473235,%SubMVIC
PAT,P43,REL,FM,M1,5.671236351814688,%SubMVIC
PAT,P43,REL,FM,M2,5.378675095815934,%SubMVIC
PAT,P43,REL,FM,M3,5.058402307091335,%SubMVIC
PAT,P45,INI,FM,M1,6.957691657528076,%SubMVIC
PAT,P45,INI,FM,M2,5.929884837590366,%SubMVIC
PAT,P45,INI,FM,M3,6.375132685238744,%SubMVIC
PAT,P45,REL,FM,M1,4.6687216079871785,%SubMVIC
PAT,P45,REL,FM,M2,3.9288567797829375,%SubMVIC
PAT,P45,REL,FM,M3,3.945646224554249,%SubMVIC
PAT,P47,INI,FM,M1,11.320174766845748,%SubMVIC
PAT,P47,INI,FM,M2,9.5598790084864,%SubMVIC
PAT,P47,INI,FM,M3,7.927370642931832,%SubMVIC
PAT,P47,REL,FM,M1,3.618511817635216,%SubMVIC
PAT,P47,REL,FM,M2,3.4774185744917623,%SubMVIC
PAT,P47,REL,FM,M3,3.3881571738113125,%SubMVIC
PAT,P50,INI,FM,M1,12.3777744632523,%SubMVIC
PAT,P50,INI,FM,M2,13.107103630867622,%SubMVIC
PAT,P50,INI,FM,M3,11.798709685208625,%SubMVIC
PAT,P50,REL,FM,M1,12.170998766149376,%SubMVIC
PAT,P50,REL,FM,M2,12.969212543065716,%SubMVIC
PAT,P50,REL,FM,M3,12.610937108808937,%SubMVIC
PAT,P51,INI,FM,M1,7.885388488425815,%SubMVIC
PAT,P51,INI,FM,M2,8.094355034401527,%SubMVIC
PAT,P51,INI,FM,M3,7.362172216853862,%SubMVIC
PAT,P51,REL,FM,M1,1.1337548009996543,%SubMVIC
PAT,P51,REL,FM,M2,1.041315689872256,%SubMVIC
PAT,P51,REL,FM,M3,1.0549138462376035,%SubMVIC
PAT,P53,INI,FM,M1,10.551503216795128,%SubMVIC
PAT,P53,INI,FM,M2,9.68522783027802,%SubMVIC
PAT,P53,INI,FM,M3,8.642733266625456,%SubMVIC
PAT,P53,REL,FM,M1,10.009196176154108,%SubMVIC
PAT,P53,REL,FM,M2,10.179545965477534,%SubMVIC
PAT,P53,REL,FM,M3,10.306895934087295,%SubMVIC
PAT,P54,INI,FM,M1,3.7938498359560033,%SubMVIC
PAT,P54,INI,FM,M2,4.654627924536427,%SubMVIC
PAT,P54,INI,FM,M3,4.101796025016808,%SubMVIC
PAT,P54,REL,FM,M1,5.81409900854914,%SubMVIC
PAT,P54,REL,FM,M2,7.041143624226752,%SubMVIC
PAT,P54,REL,FM,M3,5.943583862149299,%SubMVIC
PAT,P58,INI,FM,M1,2.2310096406133217,%SubMVIC
PAT,P58,INI,FM,M2,1.836835247531572,%SubMVIC
PAT,P58,INI,FM,M3,1.86700176205216,%SubMVIC
PAT,P58,REL,FM,M1,7.558396330493364,%SubMVIC
PAT,P58,REL,FM,M2,7.73707152367491,%SubMVIC
PAT,P58,REL,FM,M3,7.158255580080647,%SubMVIC
PAT,P61,INI,FM,M1,9.53181272764096,%SubMVIC
PAT,P61,INI,FM,M2,9.953809189321705,%SubMVIC
PAT,P61,INI,FM,M3,9.109835081546132,%SubMVIC
PAT,P61,REL,FM,M1,7.2288284488566,%SubMVIC
PAT,P61,REL,FM,M2,6.990643427312837,%SubMVIC
PAT,P61,REL,FM,M3,6.534633779591218,%SubMVIC
PAT,P62,INI,FM,M1,8.105134282210583,%SubMVIC
PAT,P62,INI,FM,M2,8.452637742977117,%SubMVIC
PAT,P62,INI,FM,M3,7.387352540133698,%SubMVIC
PAT,P62,REL,FM,M1,7.324786080638104,%SubMVIC
PAT,P62,REL,FM,M2,7.085832218289137,%SubMVIC
PAT,P62,REL,FM,M3,5.5324244991061535,%SubMVIC
PAT,P63,INI,FM,M1,5.93629391634811,%SubMVIC
PAT,P63,INI,FM,M2,6.075660038464299,%SubMVIC
PAT,P63,INI,FM,M3,7.1044892864933535,%SubMVIC
PAT,P63,REL,FM,M1,5.401813502395992,%SubMVIC
PAT,P63,REL,FM,M2,4.886138876653033,%SubMVIC
PAT,P63,REL,FM,M3,5.607181183388738,%SubMVIC
PAT,P65,INI,FM,M1,6.770188913630763,%SubMVIC
PAT,P65,INI,FM,M2,6.095417663745051,%SubMVIC
PAT,P65,INI,FM,M3,4.394316705953201,%SubMVIC
PAT,P65,REL,FM,M1,7.591712157004305,%SubMVIC
PAT,P65,REL,FM,M2,6.388873911432859,%SubMVIC
PAT,P65,REL,FM,M3,5.757098598122154,%SubMVIC
