Group,Participant,Session,Operator,Measure,Value,Unit
PAT,P09,INI,FM,M1,92.25365445794144,Hz
PAT,P09,INI,FM,M2,94.81959214782498,Hz
PAT,P09,INI,FM,M3,86.57398916501502,Hz
PAT,P09,REL,FM,M1,86.52714571651175,Hz
PAT,P09,REL,FM,M2,89.08286844163827,Hz
PAT,P09,REL,FM,M3,89.57484955419886,Hz
PAT,P10,INI,FM,M1,89.75308734538189,Hz
PAT,P10,INI,FM,M2,94.48474887419718,Hz
PAT,P10,INI,FM,M3,93.93384037555045,Hz
PAT,P10,REL,FM,M1,107.88389851024492,Hz
PAT,P10,REL,FM,M2,105.6365798981362,Hz
PAT,P10,REL,FM,M3,107.62498725876571,Hz
PAT,P11,INI,FM,M1,76.17836275664241,Hz
PAT,P11,INI,FM,M2,81.22843155923918,Hz
PAT,P11,INI,FM,M3,78.26105128670987,Hz
PAT,P11,REL,FM,M1,91.31235588807871,Hz
PAT,P11,REL,FM,M2,97.0333329357192,Hz
PAT,P11,REL,FM,M3,93.09988223780022,Hz
PAT,P12,INI,FM,M1,106.69611372672844,Hz
PAT,P12,INI,FM,M2,105.94282745425288,Hz
PAT,P12,INI,FM,M3,99.54852027916318,Hz
PAT,P12,REL,FM,M1,132.1353073029668,Hz
PAT,P12,REL,FM,M2,129.70822440645355,Hz
PAT,P12,REL,FM,M3,128.2329444223733,Hz
PAT,P14,INI,FM,M1,74.74309972364689,Hz
PAT,P14,INI,FM,M2,54.17188057601684,Hz
PAT,P14,INI,FM,M3,68.99068775036811,Hz
PAT,P14,REL,FM,M1,113.55127936458072,Hz
PAT,P14,REL,FM,M2,63.60184962007669,Hz
PAT,P14,REL,FM,M3,52.17507201200789,Hz
PAT,P17,INI,FM,M1,111.43008691040764,Hz
PAT,P17,INI,FM,M2,111.6666022485576,Hz
PAT,P17,INI,FM,M3,111.88310297013618,Hz
PAT,P17,REL,FM,M1,109.6536753195243,Hz
PAT,P17,REL,FM,M2,110.592021458074,Hz
PAT,P17,REL,FM,M3,114.1667832507146,Hz
PAT,P24,INI,FM,M1,132.8963718215244,Hz
PAT,P24,INI,FM,M2,132.12076865510036,Hz
PAT,P24,INI,FM,M3,132.628219034515,Hz
PAT,P24,REL,FM,M1,128.84691443887675,Hz
PAT,P24,REL,FM,M2,134.09236160260187,Hz
PAT,P24,REL,FM,M3,127.86320590370616,Hz
PAT,P26,INI,FM,M1,70.11265594828801,Hz
PAT,P26,INI,FM,M2,69.4334460799822,Hz
PAT,P26,INI,FM,M3,69.37053290776376,Hz
PAT,P26,REL,FM,M1,37.53164388395494,Hz
PAT,P26,REL,FM,M2,37.78488650393469,Hz
PAT,P26,REL,FM,M3,32.49992943154152,Hz
PAT,P27,INI,FM,M1,96.81865264851407,Hz
PAT,P27,INI,FM,M2,103.08621371986705,Hz
PAT,P27,INI,FM,M3,101.93805796872044,Hz
PAT,P27,REL,FM,M1,101.79803631665618,Hz
PAT,P27,REL,FM,M2,105.8906218314994,Hz
PAT,P27,REL,FM,M3,99.78838580415632,Hz
PAT,P28,INI,FM,M1,100.11292567320876,Hz
PAT,P28,INI,FM,M2,99.56286704696716,Hz
PAT,P28,INI,FM,M3,100.74757572152838,Hz
PAT,P28,REL,FM,M1,101.74640193253244,Hz
PAT,P28,REL,FM,M2,104.1530252508594,Hz
PAT,P28,REL,FM,M3,102.02672213855712,Hz
PAT,P29,INI,FM,M1,93.70115829820774,Hz
PAT,P29,INI,FM,M2,97.20940520691032,Hz
PAT,P29,INI,FM,M3,97.32588913713336,Hz
PAT,P29,REL,FM,M1,104.96888963074682,Hz
PAT,P29,REL,FM,M2,96.06504534488418,Hz
PAT,P29,REL,FM,M3,96.4923565725458,Hz
PAT,P32,INI,FM,M1,120.59670843782328,Hz
PAT,P32,INI,FM,M2,128.8683281394833,Hz
PAT,P32,INI,FM,M3,124.6407003764139,Hz
PAT,P32,REL,FM,M1,121.18504207552942,Hz
PAT,P32,REL,FM,M2,132.90624117170117,Hz
PAT,P32,REL,FM,M3,136.79871833567054,Hz
PAT,P33,INI,FM,M1,66.11000067838316,Hz
PAT,P33,INI,FM,M2,58.62812576105454,Hz
PAT,P33,INI,FM,M3,55.44144970680351,Hz
PAT,P33,REL,FM,M1,48.25006281127251,Hz
PAT,P33,REL,FM,M2,35.390953894708154,Hz
PAT,P33,REL,FM,M3,52.16861794998474,Hz
PAT,P34,INI,FM,M1,75.41481436282432,Hz
PAT,P34,INI,FM,M2,97.2233450948637,Hz
PAT,P34,INI,FM,M3,88.58866546313689,Hz
PAT,P34,REL,FM,M1,107.06187109221348,Hz
PAT,P34,REL,FM,M2,108.39680485591428,Hz
PAT,P34,REL,FM,M3,105.50760040675682,Hz
PAT,P36,INI,FM,M1,111.36402906585674,Hz
PAT,P36,INI,FM,M2,107.74363652657053,Hz
PAT,P36,INI,FM,M3,121.88317034245917,Hz
PAT,P36,REL,FM,M1,111.05413157875266,Hz
PAT,P36,REL,FM,M2,100.58946337912772,Hz
PAT,P36,REL,FM,M3,94.0972198262381,Hz
PAT,P41,INI,FM,M1,119.44243300627824,Hz
PAT,P41,INI,FM,M2,129.50247768733394,Hz
PAT,P41,INI,FM,M3,127.02418463125652,Hz
PAT,P41,REL,FM,M1,124.19694104651684,Hz
PAT,P41,REL,FM,M2,121.5994616135019,Hz
PAT,P41,REL,FM,M3,127.00450190438175,Hz
PAT,P42,INI,FM,M1,87.09261035874393,Hz
PAT,P42,INI,FM,M2,101.67850646531647,Hz
PAT,P42,INI,FM,M3,105.30331800324652,Hz
PAT,P42,REL,FM,M1,93.43837151623886,Hz
PAT,P42,REL,FM,M2,90.24033228615885,Hz
PAT,P42,REL,FM,M3,87.68325769426524,Hz
PAT,P43,INI,FM,M1,114.39569955303288,Hz
PAT,P43,INI,FM,M2,116.70668768670876,Hz
PAT,P43,INI,FM,M3,103.34359469451329,Hz
PAT,P43,REL,FM,M1,92.7827243670508,Hz
PAT,P43,REL,FM,M2,92.9434101656812,Hz
PAT,P43,REL,FM,M3,68.76390294157203,Hz
PAT,P45,INI,FM,M1,124.24987874784416,Hz
PAT,P45,INI,FM,M2,127.85668804052204,Hz
PAT,P45,INI,FM,M3,127.28810252281563,Hz
PAT,P45,REL,FM,M1,144.35681185654445,Hz
PAT,P45,REL,FM,M2,145.34043605252566,Hz
PAT,P45,REL,FM,M3,137.01104697684858,Hz
PAT,P47,INI,FM,M1,55.38002306429015,Hz
PAT,P47,INI,FM,M2,54.28108916407257,Hz
PAT,P47,INI,FM,M3,73.27781477776692,Hz
PAT,P47,REL,FM,M1,93.19227148268284,Hz
PAT,P47,REL,FM,M2,88.28519136954031,Hz
PAT,P47,REL,FM,M3,91.6061784136583,Hz
PAT,P50,INI,FM,M1,58.076161896007726,Hz
PAT,P50,INI,FM,M2,70.3010559061343,Hz
PAT,P50,INI,FM,M3,73.44921517177798,Hz
PAT,P50,REL,FM,M1,64.86058035859058,Hz
PAT,P50,REL,FM,M2,80.14548478457543,Hz
PAT,P50,REL,FM,M3,63.7102986445563,Hz
PAT,P51,INI,FM,M1,85.61821133013251,Hz
PAT,P51,INI,FM,M2,88.4635709921332,Hz
PAT,P51,INI,FM,M3,87.81550173406549,Hz
PAT,P51,REL,FM,M1,95.64703843519382,Hz
PAT,P51,REL,FM,M2,90.09664995378192,Hz
PAT,P51,REL,FM,M3,95.495237632177,Hz
PAT,P53,INI,FM,M1,113.97454759299453,Hz
PAT,P53,INI,FM,M2,113.30860377755022,Hz
PAT,P53,INI,FM,M3,120.0885073202264,Hz
PAT,P53,REL,FM,M1,120.25133948640772,Hz
PAT,P53,REL,FM,M2,124.29789529705218,Hz
PAT,P53,REL,FM,M3,123.0839351487332,Hz
PAT,P54,INI,FM,M1,104.19601657889744,Hz
PAT,P54,INI,FM,M2,120.8502675695182,Hz
PAT,P54,INI,FM,M3,124.08412182763944,Hz
PAT,P54,REL,FM,M1,87.61835593791152,Hz
PAT,P54,REL,FM,M2,75.67063376842489,Hz
PAT,P54,REL,FM,M3,52.962358537708,Hz
PAT,P58,INI,FM,M1,128.1926006451129,Hz
PAT,P58,INI,FM,M2,126.7976470906204,Hz
PAT,P58,INI,FM,M3,114.9088406719293,Hz
PAT,P58,REL,FM,M1,115.93962186383013,Hz
PAT,P58,REL,FM,M2,118.12044135220752,Hz
PAT,P58,REL,FM,M3,123.1354071518053,Hz
PAT,P61,INI,FM,M1,78.4382389330374,Hz
PAT,P61,INI,FM,M2,96.46892746382176,Hz
PAT,P61,INI,FM,M3,102.06528313012775,Hz
PAT,P61,REL,FM,M1,143.63629859821748,Hz
PAT,P61,REL,FM,M2,146.63571958016766,Hz
PAT,P61,REL,FM,M3,148.021860183414,Hz
PAT,P62,INI,FM,M1,101.95438573760268,Hz
PAT,P62,INI,FM,M2,83.96490551821627,Hz
PAT,P62,INI,FM,M3,56.92819222288708,Hz
PAT,P62,REL,FM,M1,90.06805824317397,Hz
PAT,P62,REL,FM,M2,61.550943273343066,Hz
PAT,P62,REL,FM,M3,103.11375401790008,Hz
PAT,P63,INI,FM,M1,47.99528405173897,Hz
PAT,P63,INI,FM,M2,96.44073847149,Hz
PAT,P63,INI,FM,M3,56.525719239931526,Hz
PAT,P63,REL,FM,M1,123.19198357748203,Hz
PAT,P63,REL,FM,M2,115.95887670207296,Hz
PAT,P63,REL,FM,M3,122.10499375512866,Hz
PAT,P65,INI,FM,M1,100.00049381556566,Hz
PAT,P65,INI,FM,M2,95.47272276118248,Hz
PAT,P65,INI,FM,M3,104.37214522884354,Hz
PAT,P65,REL,FM,M1,98.87175932945806,Hz
PAT,P65,REL,FM,M2,100.66988804354514,Hz
PAT,P65,REL,FM,M3,101.5277592865867,Hz
