Group,Participant,Session,Operator,Measure,Value,Unit
PAT,P09,INI,FM,M1,12.915447142164432,%MAX
PAT,P09,INI,FM,M2,11.187776680981173,%MAX
PAT,P09,INI,FM,M3,11.80962709089821,%MAX
PAT,P09,REL,FM,M1,12.665886881978913,%MAX
PAT,P09,REL,FM,M2,14.336365907250027,%MAX
PAT,P09,REL,FM,M3,14.21585676283099,%MAX
PAT,P10,INI,FM,M1,11.975720580889064,%MAX
PAT,P10,INI,FM,M2,10.528544533111175,%MAX
PAT,P10,INI,FM,M3,11.750150382219902,%MAX
PAT,P10,REL,FM,M1,5.662019240816483,%MAX
PAT,P10,REL,FM,M2,10.032854135598372,%MAX
PAT,P10,REL,FM,M3,7.262710135297255,%MAX
PAT,P11,INI,FM,M1,15.480911262078399,%MAX
PAT,P11,INI,FM,M2,14.842924674989062,%MAX
PAT,P11,INI,FM,M3,13.971320387167202,%MAX
PAT,P11,REL,FM,M1,15.007756512525441,%MAX
PAT,P11,REL,FM,M2,12.180847666074557,%MAX
PAT,P11,REL,FM,M3,10.402056182674547,%MAX
PAT,P12,INI,FM,M1,22.12437703063394,%MAX
PAT,P12,INI,FM,M2,18.557928477813483,%MAX
PAT,P12,INI,FM,M3,20.459866706822545,%MAX
PAT,P12,REL,FM,M1,15.4258244831392,%MAX
PAT,P12,REL,FM,M2,9.44449435832887,%MAX
PAT,P12,REL,FM,M3,11.393004171202328,%MAX
PAT,P14,INI,FM,M1,20.32986100735521,%MAX
PAT,P14,INI,FM,M2,21.74707816546859,%MAX
PAT,P14,INI,FM,M3,20.19720439968855,%MAX
PAT,P14,REL,FM,M1,21.62946418984014,%MAX
PAT,P14,REL,FM,M2,18.993313503494612,%MAX
PAT,P14,REL,FM,M3,22.994187218964804,%MAX
PAT,P17,INI,FM,M1,55.24356845998808,%MAX
PAT,P17,INI,FM,M2,46.03912419443723,%MAX
PAT,P17,INI,FM,M3,34.331028987951875,%MAX
PAT,P17,REL,FM,M1,53.741737191598645,%MAX
PAT,P17,REL,FM,M2,52.04379006681127,%MAX
PAT,P17,REL,FM,M3,65.00571832378432,%MAX
PAT,P24,INI,FM,M1,20.309304554718544,%MAX
PAT,P24,INI,FM,M2,19.0482941632405,%MAX
PAT,P24,INI,FM,M3,51.05417968807842,%MAX
PAT,P24,REL,FM,M1,28.78836006342359,%MAX
PAT,P24,REL,FM,M2,25.799723617324894,%MAX
PAT,P24,REL,FM,M3,24.05205092074967,%MAX
PAT,P26,INI,FM,M1,7.939407933158831,%MAX
PAT,P26,INI,FM,M2,11.865194672011567,%MAX
PAT,P26,INI,FM,M3,78.26789195891533,%MAX
PAT,P26,REL,FM,M1,26.253484782751592,%MAX
PAT,P26,REL,FM,M2,36.681137613635116,%MAX
PAT,P26,REL,FM,M3,73.38474302846782,%MAX
PAT,P27,INI,FM,M1,10.668273693780996,%MAX
PAT,P27,INI,FM,M2,11.189458233643613,%MAX
PAT,P27,INI,FM,M3,72.51760838010289,%MAX
PAT,P27,REL,FM,M1,9.65955455161296,%MAX
PAT,P27,REL,FM,M2,7.6395719285897075,%MAX
PAT,P27,REL,FM,M3,48.91293581418105,%MAX
PAT,P28,INI,FM,M1,7.051026283018851,%MAX
PAT,P28,INI,FM,M2,18.205492763770366,%MAX
PAT,P28,INI,FM,M3,58.58583708156677,%MAX
PAT,P28,REL,FM,M1,8.922917521499551,%MAX
PAT,P28,REL,FM,M2,8.250696124614212,%MAX
PAT,P28,REL,FM,M3,39.51409528054928,%MAX
PAT,P29,INI,FM,M1,16.535371890367557,%MAX
PAT,P29,INI,FM,M2,18.83416654003671,%MAX
PAT,P29,INI,FM,M3,50.07561681549896,%MAX
PAT,P29,REL,FM,M1,14.811555961337255,%MAX
PAT,P29,REL,FM,M2,18.244896129673847,%MAX
PAT,P29,REL,FM,M3,45.351257272814415,%MAX
PAT,P32,INI,FM,M1,10.35336578761859,%MAX
PAT,P32,INI,FM,M2,10.666441633692845,%MAX
PAT,P32,INI,FM,M3,100.29494732337616,%MAX
PAT,P32,REL,FM,M1,18.866860738326096,%MAX
PAT,P32,REL,FM,M2,27.51399874571186,%MAX
PAT,P32,REL,FM,M3,70.24728467791877,%MAX
PAT,P33,INI,FM,M1,13.961520088130165,%MAX
PAT,P33,INI,FM,M2,19.06150332591513,%MAX
PAT,P33,INI,FM,M3,50.152535995500195,%MAX
PAT,P33,REL,FM,M1,19.46333740064712,%MAX
PAT,P33,REL,FM,M2,32.94669218930006,%MAX
PAT,P33,REL,FM,M3,61.26692458808909,%MAX
PAT,P34,INI,FM,M1,24.91571293436733,%MAX
PAT,P34,INI,FM,M2,22.501660444718073,%MAX
PAT,P34,INI,FM,M3,56.94574916270595,%MAX
PAT,P34,REL,FM,M1,17.6504796245572,%MAX
PAT,P34,REL,FM,M2,18.902288725190655,%MAX
PAT,P34,REL,FM,M3,53.678530073922104,%MAX
PAT,P36,INI,FM,M1,9.791670317512576,%MAX
PAT,P36,INI,FM,M2,21.999201582711002,%MAX
PAT,P36,INI,FM,M3,142.53938454638566,%MAX
PAT,P36,REL,FM,M1,13.256708940996994,%MAX
PAT,P36,REL,FM,M2,10.61244701546466,%MAX
PAT,P36,REL,FM,M3,69.53598642506164,%MAX
PAT,P41,INI,FM,M1,9.11552361702415,%MAX
PAT,P41,INI,FM,M2,10.207388679791654,%MAX
PAT,P41,INI,FM,M3,46.31319687839439,%MAX
PAT,P41,REL,FM,M1,9.09593187454164,%MAX
PAT,P41,REL,FM,M2,9.648123709666878,%MAX
PAT,P41,REL,FM,M3,33.52038862416167,%MAX
PAT,P42,INI,FM,M1,14.26432114629273,%MAX
PAT,P42,INI,FM,M2,12.270139852524961,%MAX
PAT,P42,INI,FM,M3,12.103500738248918,%MAX
PAT,P42,REL,FM,M1,11.469349957746104,%MAX
PAT,P42,REL,FM,M2,9.857343730007786,%MAX
PAT,P42,REL,FM,M3,51.5409204785764,%MAX
PAT,P43,INI,FM,M1,7.823274373194491,%MAX
PAT,P43,INI,FM,M2,20.03079103739127,%MAX
PAT,P43,INI,FM,M3,45.153091965225926,%MAX
PAT,P43,REL,FM,M1,13.042779769516143,%MAX
PAT,P43,REL,FM,M2,7.874265150230392,%MAX
PAT,P43,REL,FM,M3,45.42271767214702,%MAX
PAT,P45,INI,FM,M1,13.517990763902116,%MAX
PAT,P45,INI,FM,M2,25.36845635825681,%MAX
PAT,P45,INI,FM,M3,41.700622298972206,%MAX
PAT,P45,REL,FM,M1,9.952972445282834,%MAX
PAT,P45,REL,FM,M2,11.015325745945953,%MAX
PAT,P45,REL,FM,M3,7.854333704038967,%MAX
PAT,P47,INI,FM,M1,15.208146855061619,%MAX
PAT,P47,INI,FM,M2,16.058682782330866,%MAX
PAT,P47,INI,FM,M3,21.922967830513926,%MAX
PAT,P47,REL,FM,M1,11.927829256192224,%MAX
PAT,P47,REL,FM,M2,9.601197201411228,%MAX
PAT,P47,REL,FM,M3,61.29334219414039,%MAX
PAT,P50,INI,FM,M1,15.955089772173281,%MAX
PAT,P50,INI,FM,M2,13.881197579560906,%MAX
PAT,P50,INI,FM,M3,85.31968213762248,%MAX
PAT,P50,REL,FM,M1,12.500997690265189,%MAX
PAT,P50,REL,FM,M2,12.697210977449378,%MAX
PAT,P50,REL,FM,M3,8.592095388732735,%MAX
PAT,P51,INI,FM,M1,15.855189865615147,%MAX
PAT,P51,INI,FM,M2,18.573292825108517,%MAX
PAT,P51,INI,FM,M3,15.474007614436452,%MAX
PAT,P51,REL,FM,M1,61.68421051078957,%MAX
PAT,P51,REL,FM,M2,46.300212889420095,%MAX
PAT,P51,REL,FM,M3,51.27585097857567,%MAX
PAT,P53,INI,FM,M1,21.4250941183492,%MAX
PAT,P53,INI,FM,M2,10.495524162512476,%MAX
PAT,P53,INI,FM,M3,11.15837809321311,%MAX
PAT,P53,REL,FM,M1,9.884828631081772,%MAX
PAT,P53,REL,FM,M2,8.464057877292094,%MAX
PAT,P53,REL,FM,M3,66.7078970364892,%MAX
PAT,P54,INI,FM,M1,38.34671215334548,%MAX
PAT,P54,INI,FM,M2,51.08919564626731,%MAX
PAT,P54,INI,FM,M3,218.58942960535077,%MAX
PAT,P54,REL,FM,M1,71.32489118313,%MAX
PAT,P54,REL,FM,M2,92.48638250475379,%MAX
PAT,P54,REL,FM,M3,117.05709123538938,%MAX
PAT,P58,INI,FM,M1,61.76741977963721,%MAX
PAT,P58,INI,FM,M2,52.20302450380299,%MAX
PAT,P58,INI,FM,M3,55.60274926938225,%MAX
PAT,P58,REL,FM,M1,15.84873983895811,%MAX
PAT,P58,REL,FM,M2,19.79450452993385,%MAX
PAT,P58,REL,FM,M3,32.51535171535034,%MAX
PAT,P61,INI,FM,M1,31.78792803664149,%MAX
PAT,P61,INI,FM,M2,29.089127513433244,%MAX
PAT,P61,INI,FM,M3,45.85493462299938,%MAX
PAT,P61,REL,FM,M1,13.516075837628774,%MAX
PAT,P61,REL,FM,M2,66.29589155023038,%MAX
PAT,P61,REL,FM,M3,68.45532650922803,%MAX
PAT,P62,INI,FM,M1,83.98017144697651,%MAX
PAT,P62,INI,FM,M2,52.37513049841876,%MAX
PAT,P62,INI,FM,M3,70.41864530223685,%MAX
PAT,P62,REL,FM,M1,49.87631923279446,%MAX
PAT,P62,REL,FM,M2,84.55708102380491,%MAX
PAT,P62,REL,FM,M3,75.94200038833735,%MAX
PAT,P63,INI,FM,M1,23.94623845442545,%MAX
PAT,P63,INI,FM,M2,33.60878120099756,%MAX
PAT,P63,INI,FM,M3,37.4839663403726,%MAX
PAT,P63,REL,FM,M1,44.30744801193858,%MAX
PAT,P63,REL,FM,M2,71.22088001494643,%MAX
PAT,P63,REL,FM,M3,65.92531607226879,%MAX
PAT,P65,INI,FM,M1,105.02952608320325,%MAX
PAT,P65,INI,FM,M2,81.679617391307,%MAX
PAT,P65,INI,FM,M3,99.03028799378944,%MAX
PAT,P65,REL,FM,M1,142.78661372875462,%MAX
PAT,P65,REL,FM,M2,71.65506601504545,%MAX
PAT,P65,REL,FM,M3,307.9056572367487,%MAX
