Biomarkers,Participant,Session,Task,Error
109,P29,REL,Gait_Normal,no values
109,P32,REL,Gait_Normal,no values
109,P38,INI,Gait_Normal,no values
109,P42,REL,Gait_Normal,no values
109,P45,INI,Gait_Normal,no values
109,P47,REL,Gait_Normal,no values
109,P50,INI,Gait_Normal,no values
109,P62,REL,Gait_Normal,no values
109,P63,REL,Gait_Normal,no values
