Biomarkers,Participant,Session,Task,Error
106,P23,INI,Gait_Normal,no values
106,P25,INI,Gait_Normal,no values
106,P27,REL,Gait_Normal,no values
106,P34,INI,Gait_Normal,no values
106,P46,INI,Gait_Normal,no values
106,P49,INI,Gait_Normal,no values
106,P53,INI,Gait_Normal,no values
106,P62,INI,Gait_Normal,no values
106,P63,REL,Gait_Normal,no values
106,P67,REL,Gait_Normal,no values
