Group,Participant,Session,Operator,Measure,Value,Unit
CTR,P01,INI,FM,MEAN,8.87691470201372,%subMVIC
CTR,P02,INI,FM,MEAN,3.672999836235385,%subMVIC
CTR,P03,INI,FM,MEAN,11.569936558324448,%subMVIC
CTR,P05,INI,FM,MEAN,2.4279231904728378,%subMVIC
CTR,P06,INI,FM,MEAN,22.722771009606944,%subMVIC
CTR,P07,INI,FM,MEAN,4.522304976208628,%subMVIC
PAT,P09,INI,FM,MEAN,25.35931414741212,%subMVIC
PAT,P11,INI,FM,MEAN,3.780094871751788,%subMVIC
PAT,P12,INI,FM,MEAN,25.09472036711739,%subMVIC
CTR,P13,INI,FM,MEAN,15.095164898514495,%subMVIC
PAT,P14,INI,FM,MEAN,7.52932205812541,%subMVIC
CTR,P16,INI,FM,MEAN,8.317429626274661,%subMVIC
PAT,P17,INI,FM,MEAN,13.24640818811767,%subMVIC
CTR,P22,INI,FM,MEAN,14.28641311723583,%subMVIC
CTR,P23,INI,FM,MEAN,6.229115040578584,%subMVIC
PAT,P24,INI,FM,MEAN,8.560311444574433,%subMVIC
PAT,P26,INI,FM,MEAN,17.069420976065064,%subMVIC
PAT,P27,INI,FM,MEAN,5.544750009125461,%subMVIC
PAT,P28,INI,FM,MEAN,14.93187539300064,%subMVIC
PAT,P29,INI,FM,MEAN,2.0114680607058752,%subMVIC
PAT,P32,INI,FM,MEAN,6.915874040128816,%subMVIC
PAT,P33,INI,FM,MEAN,25.014739568443904,%subMVIC
PAT,P34,INI,FM,MEAN,10.592179683770864,%subMVIC
CTR,P35,INI,FM,MEAN,3.422604647854731,%subMVIC
PAT,P36,INI,FM,MEAN,2.782069660802588,%subMVIC
CTR,P38,INI,FM,MEAN,12.85220614230529,%subMVIC
CTR,P39,INI,FM,MEAN,4.841713305010857,%subMVIC
CTR,P40,INI,FM,MEAN,3.0603016936396763,%subMVIC
PAT,P41,INI,FM,MEAN,3.093593514914088,%subMVIC
PAT,P42,INI,FM,MEAN,4.857417137537976,%subMVIC
PAT,P43,INI,FM,MEAN,2.749125280426393,%subMVIC
PAT,P45,INI,FM,MEAN,6.48660828706867,%subMVIC
CTR,P46,INI,FM,MEAN,8.649446683664346,%subMVIC
PAT,P47,INI,FM,MEAN,2.408432802505183,%subMVIC
CTR,P48,INI,FM,MEAN,8.452469762525789,%subMVIC
CTR,P49,INI,FM,MEAN,6.771453699034066,%subMVIC
PAT,P50,INI,FM,MEAN,11.309387319283926,%subMVIC
PAT,P51,INI,FM,MEAN,9.394616790417691,%subMVIC
CTR,P52,INI,FM,MEAN,1.5854634862465022,%subMVIC
PAT,P53,INI,FM,MEAN,6.005859268821617,%subMVIC
PAT,P54,INI,FM,MEAN,7.040358371254627,%subMVIC
CTR,P55,INI,FM,MEAN,5.713201932893447,%subMVIC
CTR,P56,INI,FM,MEAN,9.202142177786568,%subMVIC
PAT,P58,INI,FM,MEAN,8.593062432432847,%subMVIC
CTR,P60,INI,FM,MEAN,2.947823322115713,%subMVIC
PAT,P62,INI,FM,MEAN,11.871121950283117,%subMVIC
PAT,P63,INI,FM,MEAN,13.193846759396685,%subMVIC
CTR,P64,INI,FM,MEAN,2.303167870524169,%subMVIC
PAT,P65,INI,FM,MEAN,9.04841712258944,%subMVIC
CTR,P66,INI,FM,MEAN,5.8990961876428365,%subMVIC
CTR,P67,INI,FM,MEAN,3.773279048810249,%subMVIC
CTR,P68,INI,FM,MEAN,3.810757152504665,%subMVIC
