Biomarkers,Participant,Session,Task,Error
107,P16,INI,Gait_Normal,no values
107,P23,REL,Gait_Normal,no values
107,P25,INI,Gait_Normal,no values
107,P26,REL,Gait_Normal,no values
107,P28,INI,Gait_Normal,no values
107,P29,REL,Gait_Normal,no values
107,P33,REL,Gait_Normal,no values
107,P45,INI,Gait_Normal,no values
107,P46,INI,Gait_Normal,no values
107,P49,INI,Gait_Normal,no values
107,P50,INI,Gait_Normal,no values
107,P51,REL,Gait_Normal,no values
107,P52,REL,Gait_Normal,no values
107,P58,INI,Gait_Normal,no values
107,P63,REL,Gait_Normal,no values
107,P67,INI,Gait_Normal,no values
