Biomarkers,Participant,Session,Task,Error
105,P27,REL,Gait_Normal,no values
105,P41,REL,Gait_Normal,no values
105,P55,REL,Gait_Normal,no values
105,P58,INI,Gait_Normal,no values
105,P65,REL,Gait_Normal,no values
