Biomarkers,Participant,Session,Task,Error
110,P13,INI,Gait_Normal,no values
110,P22,REL,Gait_Normal,no values
110,P30,INI,Gait_Normal,no values
110,P32,REL,Gait_Normal,no values
110,P36,INI,Gait_Normal,no values
110,P39,INI,Gait_Normal,no values
110,P53,REL,Gait_Normal,no values
110,P55,INI,Gait_Normal,no values
