Biomarkers,Participant,Session,Task,Error
108,P16,INI,Gait_Normal,no values
108,P21,INI,Gait_Normal,no values
108,P22,REL,Gait_Normal,no values
108,P27,REL,Gait_Normal,no values
108,P28,INI,Gait_Normal,no values
108,P32,REL,Gait_Normal,no values
108,P33,REL,Gait_Normal,no values
108,P34,REL,Gait_Normal,no values
108,P36,INI,Gait_Normal,no values
108,P38,INI,Gait_Normal,no values
108,P40,INI,Gait_Normal,no values
108,P43,INI,Gait_Normal,no values
108,P44,INI,Gait_Normal,no values
108,P45,INI,Gait_Normal,no values
108,P47,REL,Gait_Normal,no values
108,P48,REL,Gait_Normal,no values
108,P49,INI,Gait_Normal,no values
108,P50,INI,Gait_Normal,no values
108,P51,REL,Gait_Normal,no values
108,P55,REL,Gait_Normal,no values
108,P57,INI,Gait_Normal,no values
108,P58,INI,Gait_Normal,no values
108,P63,REL,Gait_Normal,no values
108,P64,REL,Gait_Normal,no values
108,P66,INI,Gait_Normal,no values
108,P67,INI,Gait_Normal,no values
108,P68,INI,Gait_Normal,no values
