{
    "test_1": {
        "emg": "test_1",
        "event": {
            "frame": [],
            "event": []
        },
        "onset": {
            "4040": 1,
            "5608": 0,
            "7192": 1,
            "8842": 0,
            "10831": 1,
            "12726": 0,
            "14373": 1,
            "16297": 0,
            "18082": 1,
            "20161": 0,
            "21649": 1,
            "23519": 0,
            "25210": 1,
            "27028": 0,
            "28745": 1,
            "30826": 0,
            "32596": 1,
            "34864": 0,
            "36346": 1,
            "38912": 0,
            "40066": 1,
            "42436": 0,
            "45332": 1,
            "47287": 0,
            "47602": 1,
            "49494": 0,
            "49993": 1,
            "52115": 0,
            "52383": 1,
            "56848": 0,
            "57546": 1,
            "59896": 0,
            "60141": 1,
            "65651": 0,
            "65886": 1,
            "67576": 0,
            "68428": 1,
            "71072": 0,
            "77635": 1,
            "78280": 0,
            "79770": 1,
            "93462": 0,
            "96396": 1,
            "99209": 0,
            "99872": 1,
            "105978": 0,
            "106432": 1,
            "110661": 0
        },
        "param": {
            "nb_mean": 2.0,
            "nb_std": 1.0,
            "length_baseline": 1.5,
            "length_timethreshold": 0.2,
            "units": "sec",
            "sampling_frequency": 1000.0
        },
        "SNR": 29.652414189025134,
        "collection_changed": "True"
    },
    "test_2": {
        "emg": "test_2",
        "event": {
            "frame": [],
            "event": []
        },
        "onset": {
            "2351": 1,
            "3889": 0,
            "5745": 1,
            "7292": 0,
            "9306": 1,
            "11189": 0,
            "13022": 1,
            "14986": 0,
            "16915": 1,
            "18799": 0,
            "20585": 1,
            "22852": 0,
            "24039": 1,
            "25631": 0,
            "27455": 1,
            "29839": 0,
            "30941": 1,
            "33142": 0,
            "33635": 1,
            "36822": 0,
            "41210": 1,
            "43401": 0,
            "43816": 1,
            "45622": 0,
            "45903": 1,
            "47396": 0,
            "48153": 1,
            "49690": 0,
            "50271": 1,
            "52238": 0,
            "52625": 1,
            "54058": 0,
            "54780": 1,
            "56534": 0,
            "57004": 1,
            "58440": 0,
            "59190": 1,
            "60636": 0,
            "61723": 1,
            "63038": 0
        },
        "param": {
            "nb_mean": 1.0,
            "nb_std": 0.0,
            "length_baseline": 0.5,
            "length_timethreshold": 0.2,
            "units": "sec",
            "sampling_frequency": 1000.0
        },
        "SNR": 21.050894623004922,
        "collection_changed": "True"
    },
    "test_3": {
        "emg": "test_3",
        "event": {
            "frame": [],
            "event": []
        },
        "onset": {
            "0": 1,
            "10965": 0,
            "11445": 1,
            "13366": 0,
            "14327": 1,
            "16408": 0,
            "17289": 1,
            "20331": 0,
            "21291": 1,
            "24013": 0,
            "24653": 1,
            "27295": 0,
            "28015": 1,
            "29936": 0,
            "30336": 1,
            "37461": 0,
            "38101": 1,
            "42424": 0,
            "46747": 1,
            "47467": 0,
            "49468": 1,
            "50028": 0,
            "51789": 1,
            "52269": 0,
            "53950": 1,
            "55231": 0,
            "57152": 1,
            "57552": 0,
            "59542": 1,
            "60274": 0,
            "61795": 1,
            "62355": 0
        },
        "param": {
            "nb_mean": 3,
            "nb_std": 1,
            "length_baseline": 1.5,
            "length_timethreshold": 0.2,
            "units": "sec",
            "sampling_frequency": 1000
        },
        "SNR": 55.250730005816024,
        "collection_changed": "True"
    },
    "test_4": {
        "emg": "test_4",
        "event": {
            "frame": [],
            "event": []
        },
        "onset": {
            "5787": 1,
            "6102": 0,
            "8413": 1,
            "9065": 0,
            "11484": 1,
            "12125": 0,
            "14353": 1,
            "15074": 0,
            "17517": 1,
            "17922": 0,
            "22880": 1,
            "23126": 0,
            "23449": 1,
            "33452": 0,
            "34757": 1,
            "36581": 0,
            "37795": 1,
            "40132": 0,
            "40352": 1,
            "42619": 0,
            "43201": 1,
            "48202": 0,
            "49144": 1,
            "51239": 0,
            "51753": 1,
            "51965": 0,
            "52339": 1,
            "56582": 0
        },
        "param": {
            "nb_mean": 3,
            "nb_std": 1,
            "length_baseline": 1.5,
            "length_timethreshold": 0.2,
            "units": "sec",
            "sampling_frequency": 1000
        },
        "SNR": 80.06690482537947,
        "collection_changed": "True"
    },
    "test_5": {
        "emg": "test_5",
        "event": {
            "frame": [],
            "event": []
        },
        "onset": {
            "4130": 1,
            "4711": 0,
            "5958": 1,
            "6429": 0,
            "8015": 1,
            "10805": 0,
            "12607": 1,
            "13794": 0,
            "14739": 1,
            "16131": 0,
            "17128": 1,
            "18694": 0,
            "19081": 1,
            "21119": 0,
            "21410": 1,
            "23102": 0,
            "23789": 1,
            "25386": 0,
            "26109": 1,
            "27636": 0,
            "28240": 1,
            "29197": 0,
            "30485": 1,
            "32187": 0,
            "32648": 1,
            "33825": 0,
            "34888": 1,
            "36240": 0,
            "37014": 1,
            "38721": 0,
            "39899": 1,
            "40770": 0
        },
        "param": {
            "nb_mean": 1.5,
            "nb_std": 1.0,
            "length_baseline": 1.5,
            "length_timethreshold": 0.2,
            "units": "sec",
            "sampling_frequency": 1000.0
        },
        "SNR": 38.241611598126,
        "collection_changed": "True"
    },
    "test_6": {
        "emg": "test_6",
        "event": [],
        "onset": [
            {
                "4271": 1,
                "4827": 0,
                "6775": 1,
                "7090": 0,
                "7962": 1,
                "8242": 0,
                "9302": 1,
                "10940": 0,
                "11856": 1,
                "12234": 0,
                "14326": 1,
                "16889": 0,
                "18993": 1,
                "19910": 0,
                "21474": 1,
                "22085": 0,
                "24220": 1,
                "25277": 0,
                "25777": 1,
                "27582": 0,
                "29092": 1,
                "30488": 0,
                "31954": 1,
                "32532": 0,
                "33061": 1,
                "33274": 0,
                "34355": 1,
                "36493": 0,
                "36806": 1,
                "37367": 0,
                "39355": 1,
                "41679": 0,
                "42094": 1,
                "42749": 0,
                "44705": 1,
                "45809": 0,
                "46035": 1,
                "51125": 0,
                "51726": 1,
                "52355": 0,
                "53828": 1
            }
        ],
        "param": {
            "nb_mean": 3,
            "nb_std": 1,
            "length_baseline": 1.5,
            "length_timethreshold": 0.2,
            "units": "sec",
            "sampling_frequency": 1000
        },
        "SNR": 18.223763596796164,
        "collection_changed": "False"
    },
    "test_7": {
        "emg": "test_7",
        "event": [],
        "onset": [
            {}
        ],
        "param": {
            "nb_mean": 3,
            "nb_std": 1,
            "length_baseline": 1.5,
            "length_timethreshold": 0.2,
            "units": "sec",
            "sampling_frequency": 1000
        },
        "SNR": NaN,
        "collection_changed": "False"
    }
}