Group,Participant,Session,Operator,Measure,Value,Unit
CTR,P01,INI,FM,MEAN,16.99238560857199,%MAX
CTR,P02,INI,FM,MEAN,8.392944480069865,%MAX
CTR,P03,INI,FM,MEAN,9.509981167769734,%MAX
CTR,P05,INI,FM,MEAN,12.287156083424684,%MAX
CTR,P06,INI,FM,MEAN,27.42644130215023,%MAX
CTR,P07,INI,FM,MEAN,6.131745721325182,%MAX
CTR,P08,INI,FM,MEAN,9.534942725639931,%MAX
PAT,P09,INI,FM,MEAN,18.838569152409978,%MAX
PAT,P10,INI,FM,MEAN,7.3323331637460205,%MAX
PAT,P11,INI,FM,MEAN,12.307614324760786,%MAX
PAT,P12,INI,FM,MEAN,11.955520544419652,%MAX
CTR,P13,INI,FM,MEAN,23.539665768193096,%MAX
PAT,P14,INI,FM,MEAN,18.70098365096134,%MAX
CTR,P16,INI,FM,MEAN,13.989660739248555,%MAX
PAT,P17,INI,FM,MEAN,17.299579663361826,%MAX
CTR,P21,INI,FM,MEAN,3.197425730005134,%MAX
CTR,P22,INI,FM,MEAN,38.243009636361435,%MAX
CTR,P23,INI,FM,MEAN,6.29165600098236,%MAX
PAT,P24,INI,FM,MEAN,15.373208661513146,%MAX
CTR,P25,INI,FM,MEAN,5.644473983497735,%MAX
PAT,P26,INI,FM,MEAN,34.45679959024294,%MAX
PAT,P27,INI,FM,MEAN,7.544396132717182,%MAX
PAT,P28,INI,FM,MEAN,17.298451467671814,%MAX
PAT,P29,INI,FM,MEAN,19.68879053627539,%MAX
PAT,P30,INI,FM,MEAN,33.68622030183822,%MAX
PAT,P32,INI,FM,MEAN,8.422463929295487,%MAX
PAT,P33,INI,FM,MEAN,17.197336523368282,%MAX
PAT,P34,INI,FM,MEAN,23.055092926750998,%MAX
CTR,P35,INI,FM,MEAN,7.411255490056972,%MAX
PAT,P36,INI,FM,MEAN,9.01243031813807,%MAX
CTR,P38,INI,FM,MEAN,15.319540035547357,%MAX
CTR,P39,INI,FM,MEAN,8.706969315794288,%MAX
CTR,P40,INI,FM,MEAN,10.018542210204028,%MAX
PAT,P41,INI,FM,MEAN,8.548307725757025,%MAX
PAT,P42,INI,FM,MEAN,10.986042838130315,%MAX
PAT,P43,INI,FM,MEAN,6.24552680163837,%MAX
CTR,P44,INI,FM,MEAN,22.08237819293478,%MAX
PAT,P45,INI,FM,MEAN,17.456726728135067,%MAX
CTR,P46,INI,FM,MEAN,33.53165438120512,%MAX
PAT,P47,INI,FM,MEAN,14.305258312221246,%MAX
CTR,P48,INI,FM,MEAN,11.309820451838043,%MAX
CTR,P49,INI,FM,MEAN,10.23533837581635,%MAX
PAT,P50,INI,FM,MEAN,14.307800779061122,%MAX
PAT,P51,INI,FM,MEAN,19.34516239543071,%MAX
CTR,P52,INI,FM,MEAN,4.957711595833883,%MAX
PAT,P53,INI,FM,MEAN,11.369331460554658,%MAX
PAT,P54,INI,FM,MEAN,11.75203350741365,%MAX
CTR,P55,INI,FM,MEAN,27.69917060774504,%MAX
CTR,P56,INI,FM,MEAN,25.02748638615345,%MAX
CTR,P57,INI,FM,MEAN,17.98031205733077,%MAX
PAT,P58,INI,FM,MEAN,26.93758084142895,%MAX
CTR,P60,INI,FM,MEAN,16.401773679318566,%MAX
PAT,P61,INI,FM,MEAN,12.80678579502575,%MAX
PAT,P62,INI,FM,MEAN,10.48830389218395,%MAX
PAT,P63,INI,FM,MEAN,14.823023113683123,%MAX
CTR,P64,INI,FM,MEAN,20.08474068043687,%MAX
PAT,P65,INI,FM,MEAN,3.4174861278355393,%MAX
CTR,P66,INI,FM,MEAN,4.123616561326179,%MAX
CTR,P67,INI,FM,MEAN,16.160808112261563,%MAX
CTR,P68,INI,FM,MEAN,3.7089585271954,%MAX
