Group,Participant,Session,Operator,Measure,Value,Unit
CTR,P01,INI,FM,MEAN,8.96273235284856,%MAX
CTR,P02,INI,FM,MEAN,26.693823975441777,%MAX
CTR,P03,INI,FM,MEAN,15.041243103406213,%MAX
CTR,P05,INI,FM,MEAN,8.744038873399008,%MAX
CTR,P06,INI,FM,MEAN,5.4438944317947335,%MAX
CTR,P07,INI,FM,MEAN,18.010167385399757,%MAX
CTR,P08,INI,FM,MEAN,10.127338344898446,%MAX
PAT,P09,INI,FM,MEAN,10.806289077141395,%MAX
PAT,P10,INI,FM,MEAN,4.325662500341675,%MAX
PAT,P11,INI,FM,MEAN,9.183697358353252,%MAX
PAT,P12,INI,FM,MEAN,17.071558914112078,%MAX
CTR,P13,INI,FM,MEAN,19.946410092506216,%MAX
PAT,P14,INI,FM,MEAN,15.228285096152465,%MAX
CTR,P16,INI,FM,MEAN,11.536051154858974,%MAX
PAT,P17,INI,FM,MEAN,30.22463867758126,%MAX
CTR,P21,INI,FM,MEAN,7.008593295644946,%MAX
CTR,P22,INI,FM,MEAN,37.65880485107058,%MAX
CTR,P23,INI,FM,MEAN,21.332730846866863,%MAX
PAT,P24,INI,FM,MEAN,11.967005344694357,%MAX
CTR,P25,INI,FM,MEAN,6.557282573494435,%MAX
PAT,P26,INI,FM,MEAN,19.942498542684245,%MAX
PAT,P27,INI,FM,MEAN,10.942241615242256,%MAX
PAT,P28,INI,FM,MEAN,12.829194686464943,%MAX
PAT,P29,INI,FM,MEAN,14.476846147496394,%MAX
PAT,P30,INI,FM,MEAN,22.83009667019378,%MAX
PAT,P32,INI,FM,MEAN,12.752744094762596,%MAX
PAT,P33,INI,FM,MEAN,13.589046982537075,%MAX
PAT,P34,INI,FM,MEAN,21.07145298434989,%MAX
CTR,P35,INI,FM,MEAN,6.2613362686511485,%MAX
PAT,P36,INI,FM,MEAN,10.828563618261406,%MAX
CTR,P38,INI,FM,MEAN,20.983778038880274,%MAX
CTR,P39,INI,FM,MEAN,14.562364104260162,%MAX
CTR,P40,INI,FM,MEAN,8.99907944656706,%MAX
PAT,P41,INI,FM,MEAN,10.603360049570885,%MAX
PAT,P42,INI,FM,MEAN,4.644306875553748,%MAX
PAT,P43,INI,FM,MEAN,5.696900476097724,%MAX
CTR,P44,INI,FM,MEAN,5.992786093276886,%MAX
PAT,P45,INI,FM,MEAN,11.467234881078577,%MAX
CTR,P46,INI,FM,MEAN,6.237980654582777,%MAX
PAT,P47,INI,FM,MEAN,10.309671653115632,%MAX
CTR,P48,INI,FM,MEAN,10.409461268408172,%MAX
CTR,P49,INI,FM,MEAN,8.093247088493223,%MAX
PAT,P50,INI,FM,MEAN,10.892819714159675,%MAX
PAT,P51,INI,FM,MEAN,19.09454183548233,%MAX
CTR,P52,INI,FM,MEAN,6.227972239029357,%MAX
PAT,P53,INI,FM,MEAN,11.611808865351266,%MAX
PAT,P54,INI,FM,MEAN,6.399327111837634,%MAX
CTR,P55,INI,FM,MEAN,18.563519050104205,%MAX
CTR,P56,INI,FM,MEAN,29.17285590253518,%MAX
CTR,P57,INI,FM,MEAN,27.705187066519848,%MAX
PAT,P58,INI,FM,MEAN,12.144349486017852,%MAX
CTR,P60,INI,FM,MEAN,16.87016708993711,%MAX
PAT,P61,INI,FM,MEAN,13.136298525358853,%MAX
PAT,P62,INI,FM,MEAN,26.17904816602593,%MAX
PAT,P63,INI,FM,MEAN,24.213332125656112,%MAX
CTR,P64,INI,FM,MEAN,7.302387354080044,%MAX
PAT,P65,INI,FM,MEAN,4.63493281730592,%MAX
CTR,P66,INI,FM,MEAN,12.38488986624698,%MAX
CTR,P67,INI,FM,MEAN,4.532855295103062,%MAX
CTR,P68,INI,FM,MEAN,6.039774701106917,%MAX
