Group,Participant,Session,Operator,Measure,Value,Unit
CTR,P01,INI,FM,M1,35.91785099152253,Hz
CTR,P01,INI,FM,M2,47.66235195933342,Hz
CTR,P01,INI,FM,M3,40.46936345496353,Hz
CTR,P01,REL,FM,M1,84.46705248239621,Hz
CTR,P01,REL,FM,M2,78.83378747609251,Hz
CTR,P01,REL,FM,M3,73.51137728376519,Hz
CTR,P02,INI,FM,M1,76.90940465734911,Hz
CTR,P02,INI,FM,M2,61.622370304543495,Hz
CTR,P02,INI,FM,M3,70.01459354679399,Hz
CTR,P03,INI,FM,M1,68.6539320492726,Hz
CTR,P03,INI,FM,M2,67.06889548008255,Hz
CTR,P03,INI,FM,M3,62.317438607558366,Hz
CTR,P03,REL,FM,M1,66.1057831935582,Hz
CTR,P03,REL,FM,M2,82.84472481917102,Hz
CTR,P03,REL,FM,M3,74.31784490479755,Hz
CTR,P05,INI,FM,M1,90.37023145807755,Hz
CTR,P05,INI,FM,M2,92.42741314199893,Hz
CTR,P05,INI,FM,M3,98.7634520473066,Hz
CTR,P05,REL,FM,M1,88.64385146585076,Hz
CTR,P05,REL,FM,M2,91.15348400025944,Hz
CTR,P05,REL,FM,M3,86.06047867041181,Hz
CTR,P06,INI,FM,M1,164.59982205158653,Hz
CTR,P06,INI,FM,M2,164.07785629939482,Hz
CTR,P06,INI,FM,M3,157.8212497430218,Hz
CTR,P06,REL,FM,M1,118.78043010368594,Hz
CTR,P06,REL,FM,M2,124.35339247793485,Hz
CTR,P06,REL,FM,M3,124.0363072396681,Hz
CTR,P07,INI,FM,M1,144.59983523159875,Hz
CTR,P07,INI,FM,M2,128.17577597523663,Hz
CTR,P07,INI,FM,M3,137.77201856756275,Hz
CTR,P07,REL,FM,M1,89.87257225690493,Hz
CTR,P07,REL,FM,M2,32.533635187991,Hz
CTR,P07,REL,FM,M3,87.9811676920762,Hz
CTR,P08,INI,FM,M1,74.60126872275853,Hz
CTR,P08,INI,FM,M2,76.89047172403701,Hz
CTR,P08,INI,FM,M3,79.5314633332719,Hz
CTR,P08,REL,FM,M1,80.34012642079178,Hz
CTR,P08,REL,FM,M2,81.45817753389717,Hz
CTR,P08,REL,FM,M3,77.35671049003629,Hz
CTR,P13,INI,FM,M1,78.3805088903845,Hz
CTR,P13,INI,FM,M2,75.90564083541274,Hz
CTR,P13,INI,FM,M3,75.97380145153414,Hz
CTR,P13,REL,FM,M1,81.42513496341469,Hz
CTR,P13,REL,FM,M2,87.382907644204,Hz
CTR,P13,REL,FM,M3,85.4212187342125,Hz
CTR,P16,INI,FM,M1,82.8053445723543,Hz
CTR,P16,INI,FM,M2,82.39435004704865,Hz
CTR,P16,INI,FM,M3,81.94408548647729,Hz
CTR,P16,REL,FM,M1,99.64169923337832,Hz
CTR,P16,REL,FM,M2,97.67253250414458,Hz
CTR,P16,REL,FM,M3,103.45379566368904,Hz
CTR,P21,INI,FM,M1,64.27523718195371,Hz
CTR,P21,INI,FM,M2,64.06609798103692,Hz
CTR,P21,INI,FM,M3,63.21080011463432,Hz
CTR,P21,REL,FM,M1,59.11242271044915,Hz
CTR,P21,REL,FM,M2,60.94771551108046,Hz
CTR,P21,REL,FM,M3,61.075186423869205,Hz
CTR,P22,INI,FM,M1,98.56173756829835,Hz
CTR,P22,INI,FM,M2,98.84630614754153,Hz
CTR,P22,INI,FM,M3,99.94127989498104,Hz
CTR,P22,REL,FM,M1,94.26448782647655,Hz
CTR,P22,REL,FM,M2,80.99885452442419,Hz
CTR,P22,REL,FM,M3,85.82211928440252,Hz
CTR,P23,INI,FM,M1,52.57766420529888,Hz
CTR,P23,INI,FM,M2,68.58788662954638,Hz
CTR,P23,INI,FM,M3,105.27023109646078,Hz
CTR,P23,REL,FM,M1,71.79555570445527,Hz
CTR,P23,REL,FM,M2,74.32828707646884,Hz
CTR,P23,REL,FM,M3,73.14394698058564,Hz
CTR,P25,INI,FM,M1,92.0190588888236,Hz
CTR,P25,INI,FM,M2,90.93974821973625,Hz
CTR,P25,INI,FM,M3,86.34936325098296,Hz
CTR,P25,REL,FM,M1,91.40280363804813,Hz
CTR,P25,REL,FM,M2,89.29901946883632,Hz
CTR,P25,REL,FM,M3,92.99024001483023,Hz
CTR,P35,INI,FM,M1,79.26581091735291,Hz
CTR,P35,INI,FM,M2,68.53222066904833,Hz
CTR,P35,INI,FM,M3,79.15347332834833,Hz
CTR,P35,REL,FM,M1,70.20780050722773,Hz
CTR,P35,REL,FM,M2,70.11511760339138,Hz
CTR,P35,REL,FM,M3,72.87282763903107,Hz
CTR,P38,INI,FM,M1,68.88211781862613,Hz
CTR,P38,INI,FM,M2,82.07858687258285,Hz
CTR,P38,INI,FM,M3,69.64393770755532,Hz
CTR,P38,REL,FM,M1,82.92125906549037,Hz
CTR,P38,REL,FM,M2,84.66305415968009,Hz
CTR,P38,REL,FM,M3,78.8295779648912,Hz
CTR,P39,INI,FM,M1,46.89050666588432,Hz
CTR,P39,INI,FM,M2,48.74039181620042,Hz
CTR,P39,INI,FM,M3,51.65174682628275,Hz
CTR,P39,REL,FM,M1,59.178395750200345,Hz
CTR,P39,REL,FM,M2,80.58335422450426,Hz
CTR,P39,REL,FM,M3,73.94224683253462,Hz
CTR,P40,INI,FM,M1,86.33634469991088,Hz
CTR,P40,INI,FM,M2,102.296027543122,Hz
CTR,P40,INI,FM,M3,99.26223660127312,Hz
CTR,P40,REL,FM,M1,90.59892235539796,Hz
CTR,P40,REL,FM,M2,93.01641806069652,Hz
CTR,P40,REL,FM,M3,100.42171647741418,Hz
CTR,P44,INI,FM,M1,85.6927553236023,Hz
CTR,P44,INI,FM,M2,102.54705042002156,Hz
CTR,P44,INI,FM,M3,98.85317201840536,Hz
CTR,P44,REL,FM,M1,92.31753615839123,Hz
CTR,P44,REL,FM,M2,91.16496206789914,Hz
CTR,P44,REL,FM,M3,79.26153253015235,Hz
CTR,P46,INI,FM,M1,115.74507664525224,Hz
CTR,P46,INI,FM,M2,103.7629959342264,Hz
CTR,P46,INI,FM,M3,103.36283024891904,Hz
CTR,P46,REL,FM,M1,93.36591537843228,Hz
CTR,P46,REL,FM,M2,104.34381204439016,Hz
CTR,P46,REL,FM,M3,100.58283997473582,Hz
CTR,P48,INI,FM,M1,107.06086499187532,Hz
CTR,P48,INI,FM,M2,103.0810881943391,Hz
CTR,P48,INI,FM,M3,104.6697086919491,Hz
CTR,P48,REL,FM,M1,92.434347176555,Hz
CTR,P48,REL,FM,M2,88.86743239102609,Hz
CTR,P48,REL,FM,M3,92.39862703409024,Hz
CTR,P49,INI,FM,M1,72.36455056581633,Hz
CTR,P49,INI,FM,M2,75.83031526597237,Hz
CTR,P49,INI,FM,M3,78.08763319805614,Hz
CTR,P49,REL,FM,M1,87.39709081338377,Hz
CTR,P49,REL,FM,M2,83.49050613392913,Hz
CTR,P49,REL,FM,M3,93.5539477632506,Hz
CTR,P52,INI,FM,M1,87.18333961115599,Hz
CTR,P52,INI,FM,M2,90.12846963388854,Hz
CTR,P52,INI,FM,M3,89.90219872782698,Hz
CTR,P52,REL,FM,M1,87.72454655042692,Hz
CTR,P52,REL,FM,M2,87.77765234115799,Hz
CTR,P52,REL,FM,M3,88.36226960816434,Hz
CTR,P55,INI,FM,M1,52.79145961034533,Hz
CTR,P55,INI,FM,M2,61.47553205667506,Hz
CTR,P55,INI,FM,M3,57.63746024654594,Hz
CTR,P55,REL,FM,M1,67.8305349751189,Hz
CTR,P55,REL,FM,M2,65.96912345798124,Hz
CTR,P55,REL,FM,M3,66.34791646362503,Hz
CTR,P56,INI,FM,M1,83.20212363449652,Hz
CTR,P56,INI,FM,M2,97.58794010732186,Hz
CTR,P56,INI,FM,M3,97.42749443990044,Hz
CTR,P56,REL,FM,M1,91.78216711097969,Hz
CTR,P56,REL,FM,M2,92.42367075638133,Hz
CTR,P56,REL,FM,M3,91.7983009992738,Hz
CTR,P57,INI,FM,M1,40.24613512109537,Hz
CTR,P57,INI,FM,M2,41.91575197390284,Hz
CTR,P57,INI,FM,M3,46.948612597349474,Hz
CTR,P57,REL,FM,M1,100.02402120103996,Hz
CTR,P57,REL,FM,M2,93.10137949399164,Hz
CTR,P57,REL,FM,M3,94.90557496503142,Hz
CTR,P60,INI,FM,M1,76.14263784621997,Hz
CTR,P60,INI,FM,M2,72.43750172938205,Hz
CTR,P60,INI,FM,M3,78.77622054614396,Hz
CTR,P60,REL,FM,M1,73.78202213877823,Hz
CTR,P60,REL,FM,M2,71.04594321064606,Hz
CTR,P60,REL,FM,M3,73.64714434310238,Hz
CTR,P64,INI,FM,M1,75.21073652331219,Hz
CTR,P64,INI,FM,M2,70.67763676642426,Hz
CTR,P64,INI,FM,M3,74.17318980684227,Hz
CTR,P64,REL,FM,M1,63.04441001162359,Hz
CTR,P64,REL,FM,M2,66.59291759758102,Hz
CTR,P64,REL,FM,M3,69.84380998484592,Hz
CTR,P66,INI,FM,M1,117.74166943514102,Hz
CTR,P66,INI,FM,M2,107.74408018898336,Hz
CTR,P66,INI,FM,M3,123.2369085795788,Hz
CTR,P66,REL,FM,M1,68.73011253417666,Hz
CTR,P66,REL,FM,M2,60.00810360962626,Hz
CTR,P66,REL,FM,M3,59.74004372820286,Hz
CTR,P67,INI,FM,M1,52.85567512161109,Hz
CTR,P67,INI,FM,M2,65.3797418563363,Hz
CTR,P67,INI,FM,M3,66.65176440950584,Hz
CTR,P67,REL,FM,M1,48.1477483140305,Hz
CTR,P67,REL,FM,M2,78.732414409328,Hz
CTR,P67,REL,FM,M3,79.66384063496328,Hz
CTR,P68,INI,FM,M1,51.64381652499453,Hz
CTR,P68,INI,FM,M2,45.70576804671342,Hz
CTR,P68,INI,FM,M3,54.46651589949609,Hz
CTR,P68,REL,FM,M1,57.61257607549769,Hz
CTR,P68,REL,FM,M2,54.95726934981473,Hz
CTR,P68,REL,FM,M3,54.13334251700813,Hz
