Group,Participant,Session,Operator,Measure,Value,Unit
CTR,P01,INI,FM,M1,2.654876307000785,%MAX
CTR,P01,INI,FM,M2,2.9557994969779817,%MAX
CTR,P01,INI,FM,M3,2.690581542363364,%MAX
CTR,P01,REL,FM,M1,2.8113640833773035,%MAX
CTR,P01,REL,FM,M2,3.780195295227908,%MAX
CTR,P01,REL,FM,M3,3.275167153354171,%MAX
CTR,P02,INI,FM,M1,8.556306651568901,%MAX
CTR,P02,INI,FM,M2,7.992139792664715,%MAX
CTR,P02,INI,FM,M3,7.338780048377895,%MAX
CTR,P03,INI,FM,M1,9.18863732458838,%MAX
CTR,P03,INI,FM,M2,10.661707751259428,%MAX
CTR,P03,INI,FM,M3,9.984415958741096,%MAX
CTR,P03,REL,FM,M1,10.85778790636433,%MAX
CTR,P03,REL,FM,M2,12.364033492613142,%MAX
CTR,P03,REL,FM,M3,12.393819635885317,%MAX
CTR,P05,INI,FM,M1,4.966574506259297,%MAX
CTR,P05,INI,FM,M2,4.2502329401133405,%MAX
CTR,P05,INI,FM,M3,4.477039454690691,%MAX
CTR,P05,REL,FM,M1,4.585940433884911,%MAX
CTR,P05,REL,FM,M2,4.456444888004752,%MAX
CTR,P05,REL,FM,M3,4.4563384311267065,%MAX
CTR,P06,INI,FM,M1,17.362694257922136,%MAX
CTR,P06,INI,FM,M2,18.07969271903581,%MAX
CTR,P06,INI,FM,M3,17.667647788568907,%MAX
CTR,P06,REL,FM,M1,12.5350414585108,%MAX
CTR,P06,REL,FM,M2,11.692990365043766,%MAX
CTR,P06,REL,FM,M3,11.788177103594943,%MAX
CTR,P07,INI,FM,M1,7.22005510191112,%MAX
CTR,P07,INI,FM,M2,7.755549116849533,%MAX
CTR,P07,INI,FM,M3,9.062626537250342,%MAX
CTR,P07,REL,FM,M1,6.118273210328582,%MAX
CTR,P07,REL,FM,M2,7.770773064706535,%MAX
CTR,P07,REL,FM,M3,8.595385976485758,%MAX
CTR,P08,INI,FM,M1,1.555955942162591,%MAX
CTR,P08,INI,FM,M2,1.3898399402119996,%MAX
CTR,P08,INI,FM,M3,0.9671580191061504,%MAX
CTR,P08,REL,FM,M1,5.554146785784534,%MAX
CTR,P08,REL,FM,M2,5.558678741545036,%MAX
CTR,P08,REL,FM,M3,4.903225298770071,%MAX
CTR,P13,INI,FM,M1,6.090477814371868,%MAX
CTR,P13,INI,FM,M2,6.398869682272436,%MAX
CTR,P13,INI,FM,M3,6.456766657490316,%MAX
CTR,P13,REL,FM,M1,8.586348362507117,%MAX
CTR,P13,REL,FM,M2,8.704671617357572,%MAX
CTR,P13,REL,FM,M3,8.421323768591161,%MAX
CTR,P16,INI,FM,M1,3.6637860736017496,%MAX
CTR,P16,INI,FM,M2,2.9809654692830745,%MAX
CTR,P16,INI,FM,M3,3.1112509176526872,%MAX
CTR,P16,REL,FM,M1,8.35619337376509,%MAX
CTR,P16,REL,FM,M2,8.560889010008799,%MAX
CTR,P16,REL,FM,M3,9.210116291897329,%MAX
CTR,P21,INI,FM,M1,7.678672419079952,%MAX
CTR,P21,INI,FM,M2,8.110231312583814,%MAX
CTR,P21,INI,FM,M3,9.032351967947784,%MAX
CTR,P21,REL,FM,M1,1.7374795878306517,%MAX
CTR,P21,REL,FM,M2,2.456353044038604,%MAX
CTR,P21,REL,FM,M3,2.2002361269918818,%MAX
CTR,P22,INI,FM,M1,7.399720457670475,%MAX
CTR,P22,INI,FM,M2,8.66551924989933,%MAX
CTR,P22,INI,FM,M3,7.597544466287805,%MAX
CTR,P22,REL,FM,M1,8.05294101252728,%MAX
CTR,P22,REL,FM,M2,7.637938420203413,%MAX
CTR,P22,REL,FM,M3,7.735891532733072,%MAX
CTR,P23,INI,FM,M1,5.668802195756717,%MAX
CTR,P23,INI,FM,M2,7.750201638583232,%MAX
CTR,P23,INI,FM,M3,6.8472179840449074,%MAX
CTR,P23,REL,FM,M1,10.804505981724231,%MAX
CTR,P23,REL,FM,M2,13.059912997459945,%MAX
CTR,P23,REL,FM,M3,12.146313810858498,%MAX
CTR,P25,INI,FM,M1,3.114413229972919,%MAX
CTR,P25,INI,FM,M2,2.81870359320908,%MAX
CTR,P25,INI,FM,M3,2.6954283175659284,%MAX
CTR,P25,REL,FM,M1,3.780075025113853,%MAX
CTR,P25,REL,FM,M2,3.8093397403024394,%MAX
CTR,P25,REL,FM,M3,4.311293207618958,%MAX
CTR,P35,INI,FM,M1,2.0259651901605453,%MAX
CTR,P35,INI,FM,M2,3.22470843280598,%MAX
CTR,P35,INI,FM,M3,2.4726524738468507,%MAX
CTR,P35,REL,FM,M1,6.914524996878392,%MAX
CTR,P35,REL,FM,M2,7.2174279906193055,%MAX
CTR,P35,REL,FM,M3,6.38868226141615,%MAX
CTR,P38,INI,FM,M1,6.450779963693459,%MAX
CTR,P38,INI,FM,M2,7.121669319679231,%MAX
CTR,P38,INI,FM,M3,6.907164975059181,%MAX
CTR,P38,REL,FM,M1,7.496904159029489,%MAX
CTR,P38,REL,FM,M2,7.118837572571216,%MAX
CTR,P38,REL,FM,M3,6.74410388994775,%MAX
CTR,P39,INI,FM,M1,5.848436770559422,%MAX
CTR,P39,INI,FM,M2,5.553350806348054,%MAX
CTR,P39,INI,FM,M3,4.553445794979985,%MAX
CTR,P39,REL,FM,M1,6.091408274619331,%MAX
CTR,P39,REL,FM,M2,6.449725551343024,%MAX
CTR,P39,REL,FM,M3,6.306098032262383,%MAX
CTR,P40,INI,FM,M1,1.9948926035829293,%MAX
CTR,P40,INI,FM,M2,1.861871926322701,%MAX
CTR,P40,INI,FM,M3,2.0333640156025825,%MAX
CTR,P40,REL,FM,M1,5.466685634239566,%MAX
CTR,P40,REL,FM,M2,3.847481542549903,%MAX
CTR,P40,REL,FM,M3,4.12112810811962,%MAX
CTR,P44,INI,FM,M1,1.0765980725521198,%MAX
CTR,P44,INI,FM,M2,0.8311533955408639,%MAX
CTR,P44,INI,FM,M3,2.191643615063645,%MAX
CTR,P44,REL,FM,M1,6.211428715870701,%MAX
CTR,P44,REL,FM,M2,6.146171554243698,%MAX
CTR,P44,REL,FM,M3,5.594154842821449,%MAX
CTR,P46,INI,FM,M1,3.40919098504773,%MAX
CTR,P46,INI,FM,M2,3.5613048677324057,%MAX
CTR,P46,INI,FM,M3,3.466847459129369,%MAX
CTR,P46,REL,FM,M1,3.759283835940025,%MAX
CTR,P46,REL,FM,M2,3.935073029454788,%MAX
CTR,P46,REL,FM,M3,3.766643236604049,%MAX
CTR,P48,INI,FM,M1,8.819653104499235,%MAX
CTR,P48,INI,FM,M2,8.362015096244324,%MAX
CTR,P48,INI,FM,M3,8.388897703163632,%MAX
CTR,P48,REL,FM,M1,7.463790384028941,%MAX
CTR,P48,REL,FM,M2,7.70771780550813,%MAX
CTR,P48,REL,FM,M3,7.209736863610823,%MAX
CTR,P49,INI,FM,M1,2.917457473006567,%MAX
CTR,P49,INI,FM,M2,2.991503555095448,%MAX
CTR,P49,INI,FM,M3,2.6406135368967707,%MAX
CTR,P49,REL,FM,M1,1.6466282422806806,%MAX
CTR,P49,REL,FM,M2,1.80888556083754,%MAX
CTR,P49,REL,FM,M3,1.6161773976106777,%MAX
CTR,P52,INI,FM,M1,6.90125240557132,%MAX
CTR,P52,INI,FM,M2,7.650926488672543,%MAX
CTR,P52,INI,FM,M3,5.885549368821974,%MAX
CTR,P52,REL,FM,M1,5.461715563976656,%MAX
CTR,P52,REL,FM,M2,5.941177558602833,%MAX
CTR,P52,REL,FM,M3,4.653635976319382,%MAX
CTR,P55,INI,FM,M1,0.4812981742361987,%MAX
CTR,P55,INI,FM,M2,0.5463172234438205,%MAX
CTR,P55,INI,FM,M3,0.6156249334192964,%MAX
CTR,P55,REL,FM,M1,6.354626407939929,%MAX
CTR,P55,REL,FM,M2,6.849073707164321,%MAX
CTR,P55,REL,FM,M3,6.038637810808289,%MAX
CTR,P56,INI,FM,M1,9.6410483783046,%MAX
CTR,P56,INI,FM,M2,9.006943963910661,%MAX
CTR,P56,INI,FM,M3,9.762236976022836,%MAX
CTR,P56,REL,FM,M1,10.43448918522133,%MAX
CTR,P56,REL,FM,M2,9.403939983295135,%MAX
CTR,P56,REL,FM,M3,9.129342142979487,%MAX
CTR,P57,INI,FM,M1,0.4509261785359124,%MAX
CTR,P57,INI,FM,M2,0.4655857384578893,%MAX
CTR,P57,INI,FM,M3,0.7973823604649485,%MAX
CTR,P57,REL,FM,M1,2.554534546057692,%MAX
CTR,P57,REL,FM,M2,2.014065582030015,%MAX
CTR,P57,REL,FM,M3,2.250376857174568,%MAX
CTR,P60,INI,FM,M1,7.0093637190159575,%MAX
CTR,P60,INI,FM,M2,5.908839882589987,%MAX
CTR,P60,INI,FM,M3,5.249571325564056,%MAX
CTR,P60,REL,FM,M1,7.089205704119585,%MAX
CTR,P60,REL,FM,M2,6.780665731020732,%MAX
CTR,P60,REL,FM,M3,5.951331000908241,%MAX
CTR,P64,INI,FM,M1,5.221860267670847,%MAX
CTR,P64,INI,FM,M2,4.274057430652098,%MAX
CTR,P64,INI,FM,M3,4.173827753862705,%MAX
CTR,P64,REL,FM,M1,17.287703131500866,%MAX
CTR,P64,REL,FM,M2,17.70582695175038,%MAX
CTR,P64,REL,FM,M3,17.387672077550214,%MAX
CTR,P66,INI,FM,M1,1.475280935262463,%MAX
CTR,P66,INI,FM,M2,1.7479575513758985,%MAX
CTR,P66,INI,FM,M3,1.5515815940846065,%MAX
CTR,P66,REL,FM,M1,3.435634885950126,%MAX
CTR,P66,REL,FM,M2,4.085230033921149,%MAX
CTR,P66,REL,FM,M3,3.8880739388211145,%MAX
CTR,P67,INI,FM,M1,4.7057058718360905,%MAX
CTR,P67,INI,FM,M2,5.131072250614487,%MAX
CTR,P67,INI,FM,M3,5.673275785735994,%MAX
CTR,P67,REL,FM,M1,1.3682412250206222,%MAX
CTR,P67,REL,FM,M2,1.967259206501513,%MAX
CTR,P67,REL,FM,M3,1.652630045683341,%MAX
CTR,P68,INI,FM,M1,5.058394796755386,%MAX
CTR,P68,INI,FM,M2,2.863268425099145,%MAX
CTR,P68,INI,FM,M3,2.5552903128044484,%MAX
CTR,P68,REL,FM,M1,7.364908806024384,%MAX
CTR,P68,REL,FM,M2,6.5560803830301015,%MAX
CTR,P68,REL,FM,M3,3.269866621753494,%MAX
