Group,Participant,Session,Operator,Measure,Value,Unit
CTR,P01,INI,FM,M1,0.02554133407220135,V
CTR,P01,INI,FM,M2,0.02848161439975393,V
CTR,P01,INI,FM,M3,0.025985015552572165,V
CTR,P01,REL,FM,M1,0.03146259958319677,V
CTR,P01,REL,FM,M2,0.04553924924564462,V
CTR,P01,REL,FM,M3,0.043513585574901065,V
CTR,P02,INI,FM,M1,0.08863276659560058,V
CTR,P02,INI,FM,M2,0.0032328911868215334,V
CTR,P02,INI,FM,M3,0.00150523779709585,V
CTR,P02,REL,FM,M1,0.04015425078533974,V
CTR,P02,REL,FM,M2,0.0450508176589233,V
CTR,P02,REL,FM,M3,0.04131824473418724,V
CTR,P03,INI,FM,M1,0.024142174939610784,V
CTR,P03,INI,FM,M2,0.0252405996974341,V
CTR,P03,INI,FM,M3,0.023292786090725482,V
CTR,P03,REL,FM,M1,0.02252709537229727,V
CTR,P03,REL,FM,M2,0.02113174790256837,V
CTR,P03,REL,FM,M3,0.026059841882500965,V
CTR,P05,INI,FM,M1,0.013855831768679118,V
CTR,P05,INI,FM,M2,0.017498780350960686,V
CTR,P05,INI,FM,M3,0.014867229153971083,V
CTR,P05,REL,FM,M1,0.02085085275190858,V
CTR,P05,REL,FM,M2,0.017505559573605202,V
CTR,P05,REL,FM,M3,0.0173574679303559,V
CTR,P06,INI,FM,M1,0.012976893063693528,V
CTR,P06,INI,FM,M2,0.00967865381234483,V
CTR,P06,INI,FM,M3,0.011213983049819002,V
CTR,P06,REL,FM,M1,0.006672867159069457,V
CTR,P06,REL,FM,M2,0.007034753996247258,V
CTR,P06,REL,FM,M3,0.006986884174087186,V
CTR,P07,INI,FM,M1,0.05626551411298388,V
CTR,P07,INI,FM,M2,0.06694458309278994,V
CTR,P07,INI,FM,M3,0.07511174129693664,V
CTR,P07,REL,FM,M1,0.07282163243144596,V
CTR,P07,REL,FM,M2,0.08678858534409066,V
CTR,P07,REL,FM,M3,0.0851409865981654,V
CTR,P08,INI,FM,M1,0.016839591856550346,V
CTR,P08,INI,FM,M2,0.01666419134862313,V
CTR,P08,INI,FM,M3,0.018853117978431956,V
CTR,P08,REL,FM,M1,0.015624406288480181,V
CTR,P08,REL,FM,M2,0.0143169333370465,V
CTR,P08,REL,FM,M3,0.01421409299070806,V
CTR,P13,INI,FM,M1,0.015820029482019934,V
CTR,P13,INI,FM,M2,0.016524662623276676,V
CTR,P13,INI,FM,M3,0.01728664781839327,V
CTR,P13,REL,FM,M1,0.018799012338979702,V
CTR,P13,REL,FM,M2,0.02157246225140152,V
CTR,P13,REL,FM,M3,0.020879383491453088,V
CTR,P16,INI,FM,M1,0.0049526950670062,V
CTR,P16,INI,FM,M2,0.004453202913066033,V
CTR,P16,INI,FM,M3,0.005383611926472733,V
CTR,P16,REL,FM,M1,0.0036794409554198,V
CTR,P16,REL,FM,M2,0.003585204055936783,V
CTR,P16,REL,FM,M3,0.003728833603532466,V
CTR,P21,INI,FM,M1,0.007948528479774734,V
CTR,P21,INI,FM,M2,0.009298815938429517,V
CTR,P21,INI,FM,M3,0.00887195413425665,V
CTR,P21,REL,FM,M1,0.019453417796770928,V
CTR,P21,REL,FM,M2,0.014765481908872027,V
CTR,P21,REL,FM,M3,0.009212590647577089,V
CTR,P22,INI,FM,M1,0.004716661240113145,V
CTR,P22,INI,FM,M2,0.006846330328233634,V
CTR,P22,INI,FM,M3,0.004866312163115366,V
CTR,P22,REL,FM,M1,0.005935130720994775,V
CTR,P22,REL,FM,M2,0.004269131190162313,V
CTR,P22,REL,FM,M3,0.004664351392832775,V
CTR,P23,INI,FM,M1,0.009861343271003785,V
CTR,P23,INI,FM,M2,0.0119352380200291,V
CTR,P23,INI,FM,M3,0.010927735231855614,V
CTR,P23,REL,FM,M1,0.0078099886867695496,V
CTR,P23,REL,FM,M2,0.003638799436515975,V
CTR,P23,REL,FM,M3,0.0026183824685287248,V
CTR,P25,INI,FM,M1,0.031210312485378783,V
CTR,P25,INI,FM,M2,0.02219501146580092,V
CTR,P25,INI,FM,M3,0.01939547740642271,V
CTR,P25,REL,FM,M1,0.038072737647972754,V
CTR,P25,REL,FM,M2,0.017957988674189438,V
CTR,P25,REL,FM,M3,0.01560534398135155,V
CTR,P35,INI,FM,M1,0.027373828021591797,V
CTR,P35,INI,FM,M2,0.016611418324180435,V
CTR,P35,INI,FM,M3,0.007347011386698899,V
CTR,P35,REL,FM,M1,0.017363429320011763,V
CTR,P35,REL,FM,M2,0.018289519475890765,V
CTR,P35,REL,FM,M3,0.011991187223202951,V
CTR,P38,INI,FM,M1,1.9428815378502133,V
CTR,P38,INI,FM,M2,2.4315604102391766,V
CTR,P38,INI,FM,M3,2.3370917679395613,V
CTR,P38,REL,FM,M1,0.01585741420306157,V
CTR,P38,REL,FM,M2,0.014462680857407787,V
CTR,P38,REL,FM,M3,0.011219635568259058,V
CTR,P39,INI,FM,M1,0.0525285023675077,V
CTR,P39,INI,FM,M2,0.10567472109954094,V
CTR,P39,INI,FM,M3,0.03863549590238068,V
CTR,P39,REL,FM,M1,0.0170508928509732,V
CTR,P39,REL,FM,M2,0.017870677057369,V
CTR,P39,REL,FM,M3,0.015860751703008626,V
CTR,P40,INI,FM,M1,0.026475792061290516,V
CTR,P40,INI,FM,M2,0.017774398530417717,V
CTR,P40,INI,FM,M3,0.01102258862285205,V
CTR,P40,REL,FM,M1,0.0134631122822966,V
CTR,P40,REL,FM,M2,0.01346081871649775,V
CTR,P40,REL,FM,M3,0.006479754078545549,V
CTR,P44,INI,FM,M1,0.03402290924117974,V
CTR,P44,INI,FM,M2,0.022590854961016354,V
CTR,P44,INI,FM,M3,0.019107979785019942,V
CTR,P44,REL,FM,M1,0.033097863140662646,V
CTR,P44,REL,FM,M2,0.036067520125215025,V
CTR,P44,REL,FM,M3,0.018579614335069158,V
CTR,P46,INI,FM,M1,0.01349795065795972,V
CTR,P46,INI,FM,M2,0.01455178514278804,V
CTR,P46,INI,FM,M3,0.013143591381931321,V
CTR,P46,REL,FM,M1,0.011225504248304083,V
CTR,P46,REL,FM,M2,0.011054514739694316,V
CTR,P46,REL,FM,M3,0.0067453120574512,V
CTR,P48,INI,FM,M1,0.05052802428996364,V
CTR,P48,INI,FM,M2,0.04896301661083451,V
CTR,P48,INI,FM,M3,0.020667610106887196,V
CTR,P48,REL,FM,M1,0.03235447047854577,V
CTR,P48,REL,FM,M2,0.04218154406562498,V
CTR,P48,REL,FM,M3,0.02583981562913237,V
CTR,P49,INI,FM,M1,0.03320570662490064,V
CTR,P49,INI,FM,M2,0.029497370797728382,V
CTR,P49,INI,FM,M3,0.018443722549158242,V
CTR,P49,REL,FM,M1,0.027612005854351224,V
CTR,P49,REL,FM,M2,0.023989666791269036,V
CTR,P49,REL,FM,M3,0.015364110719304137,V
CTR,P52,INI,FM,M1,0.012844000969353982,V
CTR,P52,INI,FM,M2,0.010899220425809465,V
CTR,P52,INI,FM,M3,0.009307985712066634,V
CTR,P52,REL,FM,M1,0.009926308509867575,V
CTR,P52,REL,FM,M2,0.0086641402758305,V
CTR,P52,REL,FM,M3,0.007496879075763649,V
CTR,P55,INI,FM,M1,0.022933805727022225,V
CTR,P55,INI,FM,M2,0.017439932870842657,V
CTR,P55,INI,FM,M3,0.027248653376430815,V
CTR,P55,REL,FM,M1,0.0198728292590734,V
CTR,P55,REL,FM,M2,0.023562725649684067,V
CTR,P55,REL,FM,M3,0.006528651330755857,V
CTR,P56,INI,FM,M1,0.011715090377526478,V
CTR,P56,INI,FM,M2,0.010572462452850682,V
CTR,P56,INI,FM,M3,0.015042131114669361,V
CTR,P56,REL,FM,M1,0.011788872731214964,V
CTR,P56,REL,FM,M2,0.014963041875004017,V
CTR,P56,REL,FM,M3,0.012966093989800783,V
CTR,P57,INI,FM,M1,0.047965957021614186,V
CTR,P57,INI,FM,M2,0.02578490028497294,V
CTR,P57,INI,FM,M3,0.02970907628188395,V
CTR,P57,REL,FM,M1,0.050423434464862235,V
CTR,P57,REL,FM,M2,0.06425661985015561,V
CTR,P57,REL,FM,M3,0.053760383203601624,V
CTR,P60,INI,FM,M1,0.010132349163488234,V
CTR,P60,INI,FM,M2,0.006817548329513166,V
CTR,P60,INI,FM,M3,0.006619119562809501,V
CTR,P60,REL,FM,M1,0.008645921133177734,V
CTR,P60,REL,FM,M2,0.006503947021818915,V
CTR,P60,REL,FM,M3,0.00615866668204445,V
CTR,P64,INI,FM,M1,0.007740923812170425,V
CTR,P64,INI,FM,M2,0.007209994504304451,V
CTR,P64,INI,FM,M3,0.0052635793393185125,V
CTR,P64,REL,FM,M1,0.00772128304001998,V
CTR,P64,REL,FM,M2,0.01002319462603814,V
CTR,P64,REL,FM,M3,0.00925293337793078,V
CTR,P66,INI,FM,M1,0.008203296670514462,V
CTR,P66,INI,FM,M2,0.005591729879933013,V
CTR,P66,INI,FM,M3,0.004873726700861275,V
CTR,P66,REL,FM,M1,0.009138822556365266,V
CTR,P66,REL,FM,M2,0.010872033226324867,V
CTR,P66,REL,FM,M3,0.009844863434298967,V
CTR,P67,INI,FM,M1,0.028905530735644235,V
CTR,P67,INI,FM,M2,0.007413445110159666,V
CTR,P67,INI,FM,M3,0.02393546576323057,V
CTR,P67,REL,FM,M1,0.0483430653057206,V
CTR,P67,REL,FM,M2,0.05718268846492975,V
CTR,P67,REL,FM,M3,0.07816605710855701,V
CTR,P68,INI,FM,M1,0.05870973025910577,V
CTR,P68,INI,FM,M2,0.03352226556714235,V
CTR,P68,INI,FM,M3,0.02602139383637338,V
CTR,P68,REL,FM,M1,0.044395856055795234,V
CTR,P68,REL,FM,M2,0.052354656766495034,V
CTR,P68,REL,FM,M3,0.04741657528526196,V
