Group,Participant,Session,Operator,Measure,Value,Unit
CTR,P01,INI,FM,M1,0.0023886319827848,V
CTR,P01,INI,FM,M2,0.0024500288838912,V
CTR,P01,INI,FM,M3,0.0024984572405516,V
CTR,P01,REL,FM,M1,0.0029413297356447,V
CTR,P01,REL,FM,M2,0.0023420873147982,V
CTR,P01,REL,FM,M3,0.0052529189648501,V
CTR,P02,INI,FM,M1,0.0084424131761781,V
CTR,P02,INI,FM,M2,0.0089572444817379,V
CTR,P02,INI,FM,M3,0.0077296195202812,V
CTR,P02,REL,FM,M1,0.0038237010388318,V
CTR,P02,REL,FM,M2,0.0035861716733785,V
CTR,P02,REL,FM,M3,0.0040854310201842,V
CTR,P03,INI,FM,M1,0.0058518717129527,V
CTR,P03,INI,FM,M2,0.003053001742218,V
CTR,P03,INI,FM,M3,0.0029902153231404,V
CTR,P03,REL,FM,M1,0.0042382227899494,V
CTR,P03,REL,FM,M2,0.0067592053119114,V
CTR,P03,REL,FM,M3,0.0042366230620746,V
CTR,P05,INI,FM,M1,0.0719812923803891,V
CTR,P05,INI,FM,M2,0.0109101517220012,V
CTR,P05,INI,FM,M3,0.0589578342588252,V
CTR,P05,REL,FM,M1,0.0030491376601038,V
CTR,P05,REL,FM,M2,0.0030292612953161,V
CTR,P05,REL,FM,M3,0.0030768006715797,V
CTR,P06,INI,FM,M1,0.0017328164392453,V
CTR,P06,INI,FM,M2,0.0015214706013709,V
CTR,P06,INI,FM,M3,0.0016353550662653,V
CTR,P06,REL,FM,M1,0.0019888932198589,V
CTR,P06,REL,FM,M2,0.0018740907984433,V
CTR,P06,REL,FM,M3,0.0018618825936424,V
CTR,P07,INI,FM,M1,0.006397641783893,V
CTR,P07,INI,FM,M2,0.0069432268463924,V
CTR,P07,INI,FM,M3,0.0068673980690113,V
CTR,P07,REL,FM,M1,0.0064341262028621,V
CTR,P07,REL,FM,M2,0.0076609752539127,V
CTR,P07,REL,FM,M3,0.0071260844256378,V
CTR,P08,INI,FM,M1,0.0059350821797044,V
CTR,P08,INI,FM,M2,0.0034456845778918,V
CTR,P08,INI,FM,M3,0.0037523199086243,V
CTR,P08,REL,FM,M1,0.004795638454904,V
CTR,P08,REL,FM,M2,0.0034601778560585,V
CTR,P08,REL,FM,M3,0.0034520103282386,V
CTR,P13,INI,FM,M1,0.0053386444316151,V
CTR,P13,INI,FM,M2,0.0049295797417084,V
CTR,P13,INI,FM,M3,0.0051398269473357,V
CTR,P13,REL,FM,M1,0.0026168431388212,V
CTR,P13,REL,FM,M2,0.0026648284702442,V
CTR,P13,REL,FM,M3,0.0029118125485465,V
CTR,P16,INI,FM,M1,0.0023444151923835,V
CTR,P16,INI,FM,M2,,V
CTR,P16,INI,FM,M3,0.0022346575408739,V
CTR,P16,REL,FM,M1,,V
CTR,P16,REL,FM,M2,,V
CTR,P16,REL,FM,M3,,V
CTR,P21,INI,FM,M1,0.0031599465337131,V
CTR,P21,INI,FM,M2,0.0026734219753121,V
CTR,P21,INI,FM,M3,0.0026766595899166,V
CTR,P21,REL,FM,M1,,V
CTR,P21,REL,FM,M2,,V
CTR,P21,REL,FM,M3,,V
CTR,P22,INI,FM,M1,,V
CTR,P22,INI,FM,M2,0.0035135771683522,V
CTR,P22,INI,FM,M3,0.0033766363889719,V
CTR,P22,REL,FM,M1,0.0041388755261565,V
CTR,P22,REL,FM,M2,0.0039412710064172,V
CTR,P22,REL,FM,M3,0.0063704462552682,V
CTR,P23,INI,FM,M1,0.0029736496232497,V
CTR,P23,INI,FM,M2,0.0030415546192896,V
CTR,P23,INI,FM,M3,0.0034658377146509,V
CTR,P23,REL,FM,M1,0.0039713047144133,V
CTR,P23,REL,FM,M2,0.0036722247436819,V
CTR,P23,REL,FM,M3,0.0038696172094809,V
CTR,P25,INI,FM,M1,0.0077832739685135,V
CTR,P25,INI,FM,M2,0.0115456439796387,V
CTR,P25,INI,FM,M3,0.011458420565043,V
CTR,P25,REL,FM,M1,0.0070256556184309,V
CTR,P25,REL,FM,M2,0.0115042005186298,V
CTR,P25,REL,FM,M3,0.0072653977354719,V
CTR,P35,INI,FM,M1,,V
CTR,P35,INI,FM,M2,,V
CTR,P35,INI,FM,M3,,V
CTR,P35,REL,FM,M1,0.0044507519268502,V
CTR,P35,REL,FM,M2,0.003663954350289,V
CTR,P35,REL,FM,M3,0.0030107988745982,V
CTR,P38,INI,FM,M1,0.0033402734760813,V
CTR,P38,INI,FM,M2,0.003290968216544,V
CTR,P38,INI,FM,M3,0.0034265106996885,V
CTR,P38,REL,FM,M1,0.0029342159150325,V
CTR,P38,REL,FM,M2,0.002595646741962,V
CTR,P38,REL,FM,M3,0.0028188243460137,V
CTR,P39,INI,FM,M1,0.0049579817271418,V
CTR,P39,INI,FM,M2,0.0037973457893215,V
CTR,P39,INI,FM,M3,0.0046773872303526,V
CTR,P39,REL,FM,M1,0.0049703040021733,V
CTR,P39,REL,FM,M2,0.0043256008294995,V
CTR,P39,REL,FM,M3,0.0042860231349671,V
CTR,P40,INI,FM,M1,0.0155484622245987,V
CTR,P40,INI,FM,M2,,V
CTR,P40,INI,FM,M3,,V
CTR,P40,REL,FM,M1,0.0122955344518148,V
CTR,P40,REL,FM,M2,0.014465205095501,V
CTR,P40,REL,FM,M3,0.0127432156042859,V
CTR,P44,INI,FM,M1,0.0076321159225437,V
CTR,P44,INI,FM,M2,0.0085389688629375,V
CTR,P44,INI,FM,M3,0.0084232712326153,V
CTR,P44,REL,FM,M1,0.003376508744108,V
CTR,P44,REL,FM,M2,0.0035575939779527,V
CTR,P44,REL,FM,M3,0.0028652480104605,V
CTR,P46,INI,FM,M1,0.0059620215960414,V
CTR,P46,INI,FM,M2,0.0054829143285304,V
CTR,P46,INI,FM,M3,0.0051261399367189,V
CTR,P46,REL,FM,M1,0.0040073364006318,V
CTR,P46,REL,FM,M2,,V
CTR,P46,REL,FM,M3,,V
CTR,P48,INI,FM,M1,0.0076727027396654,V
CTR,P48,INI,FM,M2,0.0076161617573785,V
CTR,P48,INI,FM,M3,0.0070202778812399,V
CTR,P48,REL,FM,M1,0.0081821494591791,V
CTR,P48,REL,FM,M2,0.0078299227750134,V
CTR,P48,REL,FM,M3,0.0093356505923697,V
CTR,P49,INI,FM,M1,0.0042263482253886,V
CTR,P49,INI,FM,M2,0.0040229585025755,V
CTR,P49,INI,FM,M3,0.0042732864660355,V
CTR,P49,REL,FM,M1,0.0049107771452245,V
CTR,P49,REL,FM,M2,0.0051569690607286,V
CTR,P49,REL,FM,M3,0.0047683086491985,V
CTR,P52,INI,FM,M1,0.0049286748430038,V
CTR,P52,INI,FM,M2,0.003846170485556,V
CTR,P52,INI,FM,M3,0.0035935162835114,V
CTR,P52,REL,FM,M1,0.0039611369443521,V
CTR,P52,REL,FM,M2,0.0033364337245045,V
CTR,P52,REL,FM,M3,0.0036681787470401,V
CTR,P55,INI,FM,M1,0.0025847238673614,V
CTR,P55,INI,FM,M2,0.0022647201291565,V
CTR,P55,INI,FM,M3,0.0025892523606023,V
CTR,P55,REL,FM,M1,0.0049375210024055,V
CTR,P55,REL,FM,M2,0.0053097541520338,V
CTR,P55,REL,FM,M3,0.00478065316255,V
CTR,P56,INI,FM,M1,0.0032677887463534,V
CTR,P56,INI,FM,M2,0.0026183792922445,V
CTR,P56,INI,FM,M3,0.0028172122521972,V
CTR,P56,REL,FM,M1,0.0027250825098848,V
CTR,P56,REL,FM,M2,0.0024800553382593,V
CTR,P56,REL,FM,M3,0.0032722672504821,V
CTR,P57,INI,FM,M1,0.0025126061624419,V
CTR,P57,INI,FM,M2,0.0021634632750839,V
CTR,P57,INI,FM,M3,0.002345309748789,V
CTR,P57,REL,FM,M1,0.0020974764996277,V
CTR,P57,REL,FM,M2,0.002559330394057,V
CTR,P57,REL,FM,M3,0.0020141732954856,V
CTR,P60,INI,FM,M1,0.0037851814819799,V
CTR,P60,INI,FM,M2,0.0059317121656177,V
CTR,P60,INI,FM,M3,0.0045038728192247,V
CTR,P60,REL,FM,M1,,V
CTR,P60,REL,FM,M2,,V
CTR,P60,REL,FM,M3,0.0047810557872955,V
CTR,P64,INI,FM,M1,0.0060473124859428,V
CTR,P64,INI,FM,M2,0.0049444088745361,V
CTR,P64,INI,FM,M3,0.006038084226896,V
CTR,P64,REL,FM,M1,0.0071387460792473,V
CTR,P64,REL,FM,M2,,V
CTR,P64,REL,FM,M3,0.0073619433944963,V
CTR,P66,INI,FM,M1,0.0070189590737975,V
CTR,P66,INI,FM,M2,0.0049723739241402,V
CTR,P66,INI,FM,M3,0.0050526614804277,V
CTR,P66,REL,FM,M1,0.0033869780644885,V
CTR,P66,REL,FM,M2,0.0037929482540505,V
CTR,P66,REL,FM,M3,0.0034128288045516,V
CTR,P67,INI,FM,M1,,V
CTR,P67,INI,FM,M2,,V
CTR,P67,INI,FM,M3,0.0063106893053735,V
CTR,P67,REL,FM,M1,0.0030554872968715,V
CTR,P67,REL,FM,M2,0.0050629764562531,V
CTR,P67,REL,FM,M3,0.0040706576761164,V
CTR,P68,INI,FM,M1,,V
CTR,P68,INI,FM,M2,,V
CTR,P68,INI,FM,M3,,V
CTR,P68,REL,FM,M1,0.0075312068575481,V
CTR,P68,REL,FM,M2,,V
CTR,P68,REL,FM,M3,0.0061757435805827,V
