Group,Participant,Session,Operator,Measure,Value,Unit
CTR,P01,INI,FM,M1,0.0154001435632995,V
CTR,P01,INI,FM,M2,0.0172639743433371,V
CTR,P01,INI,FM,M3,0.0248765116589176,V
CTR,P01,REL,FM,M1,0.018995067147967,V
CTR,P01,REL,FM,M2,0.0183988360464778,V
CTR,P01,REL,FM,M3,0.019528697790392,V
CTR,P02,INI,FM,M1,0.0231433004356465,V
CTR,P02,INI,FM,M2,0.0244374519672458,V
CTR,P02,INI,FM,M3,0.0507114823413748,V
CTR,P02,REL,FM,M1,0.0185293751009709,V
CTR,P02,REL,FM,M2,0.0198614711920338,V
CTR,P02,REL,FM,M3,0.0204949896004722,V
CTR,P03,INI,FM,M1,0.0193065695353843,V
CTR,P03,INI,FM,M2,0.0216261020189485,V
CTR,P03,INI,FM,M3,0.0143169445119837,V
CTR,P03,REL,FM,M1,0.0195230253257593,V
CTR,P03,REL,FM,M2,0.0177136472179215,V
CTR,P03,REL,FM,M3,0.018948578413886,V
CTR,P05,INI,FM,M1,0.0072796390907677,V
CTR,P05,INI,FM,M2,0.0075784191964504,V
CTR,P05,INI,FM,M3,0.009366666249917,V
CTR,P05,REL,FM,M1,0.0092031833711858,V
CTR,P05,REL,FM,M2,0.0072641280364713,V
CTR,P05,REL,FM,M3,0.0072545899766171,V
CTR,P06,INI,FM,M1,0.0040722463739966,V
CTR,P06,INI,FM,M2,0.0044840203785558,V
CTR,P06,INI,FM,M3,0.0044205683732403,V
CTR,P06,REL,FM,M1,0.0045561507979346,V
CTR,P06,REL,FM,M2,0.0045434455570218,V
CTR,P06,REL,FM,M3,0.0051417735345013,V
CTR,P07,INI,FM,M1,0.0338960633789876,V
CTR,P07,INI,FM,M2,0.0346683938419187,V
CTR,P07,INI,FM,M3,0.0350350774266218,V
CTR,P07,REL,FM,M1,0.0419638802813846,V
CTR,P07,REL,FM,M2,0.0438267016755755,V
CTR,P07,REL,FM,M3,0.0435325307058611,V
CTR,P08,INI,FM,M1,0.0233933274257017,V
CTR,P08,INI,FM,M2,0.0153492098285001,V
CTR,P08,INI,FM,M3,0.0174951529044085,V
CTR,P08,REL,FM,M1,0.0172688876590395,V
CTR,P08,REL,FM,M2,0.0111350523954384,V
CTR,P08,REL,FM,M3,0.0114458990853995,V
CTR,P13,INI,FM,M1,0.0125264530409809,V
CTR,P13,INI,FM,M2,0.0140978174897636,V
CTR,P13,INI,FM,M3,0.0104278618397168,V
CTR,P13,REL,FM,M1,0.0156850166729368,V
CTR,P13,REL,FM,M2,0.0124655992631852,V
CTR,P13,REL,FM,M3,0.014571529379326,V
CTR,P16,INI,FM,M1,0.0080515918551672,V
CTR,P16,INI,FM,M2,0.0073817985696073,V
CTR,P16,INI,FM,M3,0.0067173416495066,V
CTR,P16,REL,FM,M1,,V
CTR,P16,REL,FM,M2,,V
CTR,P16,REL,FM,M3,,V
CTR,P21,INI,FM,M1,0.0244772421910628,V
CTR,P21,INI,FM,M2,0.0185970599339161,V
CTR,P21,INI,FM,M3,0.0174244618094463,V
CTR,P21,REL,FM,M1,0.0188748973583895,V
CTR,P21,REL,FM,M2,0.0213657087416444,V
CTR,P21,REL,FM,M3,0.0184465446093898,V
CTR,P22,INI,FM,M1,0.0150675915303817,V
CTR,P22,INI,FM,M2,0.0182665484656995,V
CTR,P22,INI,FM,M3,0.015297213352445,V
CTR,P22,REL,FM,M1,0.0141861027266683,V
CTR,P22,REL,FM,M2,0.0147945031405417,V
CTR,P22,REL,FM,M3,0.014458664663291,V
CTR,P23,INI,FM,M1,0.0093088553166645,V
CTR,P23,INI,FM,M2,0.0105999672487746,V
CTR,P23,INI,FM,M3,0.0120454716925827,V
CTR,P23,REL,FM,M1,0.0093561629786341,V
CTR,P23,REL,FM,M2,0.0080612866437301,V
CTR,P23,REL,FM,M3,0.0072771697301328,V
CTR,P25,INI,FM,M1,0.0388899365686912,V
CTR,P25,INI,FM,M2,0.0386642532771198,V
CTR,P25,INI,FM,M3,0.0312609736454127,V
CTR,P25,REL,FM,M1,0.0369362110220907,V
CTR,P25,REL,FM,M2,0.0312791856667971,V
CTR,P25,REL,FM,M3,0.034880211727579,V
CTR,P35,INI,FM,M1,,V
CTR,P35,INI,FM,M2,,V
CTR,P35,INI,FM,M3,,V
CTR,P35,REL,FM,M1,0.0197578297825694,V
CTR,P35,REL,FM,M2,0.0140033392593124,V
CTR,P35,REL,FM,M3,0.0123434125113614,V
CTR,P38,INI,FM,M1,0.0350418028657996,V
CTR,P38,INI,FM,M2,0.0325244401908338,V
CTR,P38,INI,FM,M3,0.0325887916418749,V
CTR,P38,REL,FM,M1,0.0154722728292903,V
CTR,P38,REL,FM,M2,0.0159896620323208,V
CTR,P38,REL,FM,M3,,V
CTR,P39,INI,FM,M1,0.00957229554721,V
CTR,P39,INI,FM,M2,0.0096927115347267,V
CTR,P39,INI,FM,M3,0.0088793586978001,V
CTR,P39,REL,FM,M1,0.0115046845451485,V
CTR,P39,REL,FM,M2,0.0083887796225986,V
CTR,P39,REL,FM,M3,0.0106132466223091,V
CTR,P40,INI,FM,M1,0.0373554757535846,V
CTR,P40,INI,FM,M2,0.0279886050484378,V
CTR,P40,INI,FM,M3,0.0288669578401731,V
CTR,P40,REL,FM,M1,0.0255672847924652,V
CTR,P40,REL,FM,M2,0.0240836113830944,V
CTR,P40,REL,FM,M3,0.0241868367335176,V
CTR,P44,INI,FM,M1,0.0156843165067183,V
CTR,P44,INI,FM,M2,0.0166121371793707,V
CTR,P44,INI,FM,M3,0.0196188680307101,V
CTR,P44,REL,FM,M1,0.0197360223157797,V
CTR,P44,REL,FM,M2,0.0204469310635899,V
CTR,P44,REL,FM,M3,0.0167216019037254,V
CTR,P46,INI,FM,M1,0.0194513975780968,V
CTR,P46,INI,FM,M2,0.0185343220488205,V
CTR,P46,INI,FM,M3,0.0202033394695647,V
CTR,P46,REL,FM,M1,0.016266797570008,V
CTR,P46,REL,FM,M2,0.0137474336367889,V
CTR,P46,REL,FM,M3,0.0126348370828225,V
CTR,P48,INI,FM,M1,0.0269270680406409,V
CTR,P48,INI,FM,M2,0.0251755094837172,V
CTR,P48,INI,FM,M3,0.0278900682494653,V
CTR,P48,REL,FM,M1,0.0247053747260056,V
CTR,P48,REL,FM,M2,0.0236053232917235,V
CTR,P48,REL,FM,M3,0.0277722163678527,V
CTR,P49,INI,FM,M1,0.0263332861455215,V
CTR,P49,INI,FM,M2,0.0264603298301466,V
CTR,P49,INI,FM,M3,0.0303607265749348,V
CTR,P49,REL,FM,M1,0.0152457250155379,V
CTR,P49,REL,FM,M2,0.01452590375531,V
CTR,P49,REL,FM,M3,0.0156453391932589,V
CTR,P52,INI,FM,M1,0.0203675065099548,V
CTR,P52,INI,FM,M2,0.0230231286075089,V
CTR,P52,INI,FM,M3,0.0215836744846939,V
CTR,P52,REL,FM,M1,0.0215208602754719,V
CTR,P52,REL,FM,M2,0.020408674533404,V
CTR,P52,REL,FM,M3,0.0210647078195904,V
CTR,P55,INI,FM,M1,0.0140074049650737,V
CTR,P55,INI,FM,M2,0.0094643254810715,V
CTR,P55,INI,FM,M3,0.0091516453660315,V
CTR,P55,REL,FM,M1,0.0164625454289974,V
CTR,P55,REL,FM,M2,0.0171618797091826,V
CTR,P55,REL,FM,M3,0.0151412051366807,V
CTR,P56,INI,FM,M1,0.0245889872510565,V
CTR,P56,INI,FM,M2,0.0162916783050247,V
CTR,P56,INI,FM,M3,0.017137166541402,V
CTR,P56,REL,FM,M1,0.0139028483999113,V
CTR,P56,REL,FM,M2,0.0161197588839905,V
CTR,P56,REL,FM,M3,0.0158721616496624,V
CTR,P57,INI,FM,M1,0.0348700554847424,V
CTR,P57,INI,FM,M2,0.0243273014109163,V
CTR,P57,INI,FM,M3,0.0220312827093272,V
CTR,P57,REL,FM,M1,0.0112778470388714,V
CTR,P57,REL,FM,M2,0.0109327727156525,V
CTR,P57,REL,FM,M3,0.0111214138766878,V
CTR,P60,INI,FM,M1,0.0110853323350195,V
CTR,P60,INI,FM,M2,0.0088482012724965,V
CTR,P60,INI,FM,M3,0.0099985823532127,V
CTR,P60,REL,FM,M1,0.014251581178535,V
CTR,P60,REL,FM,M2,,V
CTR,P60,REL,FM,M3,0.012643520764134,V
CTR,P64,INI,FM,M1,0.0133504771694349,V
CTR,P64,INI,FM,M2,0.0123329717177607,V
CTR,P64,INI,FM,M3,0.0139746779063857,V
CTR,P64,REL,FM,M1,0.01458689552105,V
CTR,P64,REL,FM,M2,0.0145701358305235,V
CTR,P64,REL,FM,M3,0.0150436131415135,V
CTR,P66,INI,FM,M1,0.0138106183534014,V
CTR,P66,INI,FM,M2,0.0178702458453491,V
CTR,P66,INI,FM,M3,0.0150922966909888,V
CTR,P66,REL,FM,M1,0.0211484541854078,V
CTR,P66,REL,FM,M2,0.0168297978033076,V
CTR,P66,REL,FM,M3,0.0148728004530769,V
CTR,P67,INI,FM,M1,0.0400204382967629,V
CTR,P67,INI,FM,M2,0.0512850716087229,V
CTR,P67,INI,FM,M3,0.0343346870401641,V
CTR,P67,REL,FM,M1,0.0135206501118773,V
CTR,P67,REL,FM,M2,0.0186868955537033,V
CTR,P67,REL,FM,M3,0.0163344833190522,V
CTR,P68,INI,FM,M1,,V
CTR,P68,INI,FM,M2,,V
CTR,P68,INI,FM,M3,,V
CTR,P68,REL,FM,M1,0.0217644720663384,V
CTR,P68,REL,FM,M2,0.0185643644350617,V
CTR,P68,REL,FM,M3,0.0182673179965318,V
