Group,Participant,Session,Operator,Measure,Value,Unit
CTR,P01,INI,FM,M1,0.0020033878106538,V
CTR,P01,INI,FM,M2,0.0019056323381588,V
CTR,P01,INI,FM,M3,0.0029173276575156,V
CTR,P01,REL,FM,M1,0.0020101794405754,V
CTR,P01,REL,FM,M2,0.0029596735807607,V
CTR,P01,REL,FM,M3,0.0021526708142243,V
CTR,P02,INI,FM,M1,0.0020664760570372,V
CTR,P02,INI,FM,M2,0.0020835792737488,V
CTR,P02,INI,FM,M3,0.0021102820783581,V
CTR,P02,REL,FM,M1,0.0025617628147012,V
CTR,P02,REL,FM,M2,0.0022266363696197,V
CTR,P02,REL,FM,M3,0.0027236739427479,V
CTR,P03,INI,FM,M1,0.0025417151525087,V
CTR,P03,INI,FM,M2,0.002692057372118,V
CTR,P03,INI,FM,M3,0.0026405544454115,V
CTR,P03,REL,FM,M1,0.0031840048598468,V
CTR,P03,REL,FM,M2,0.0031339027689191,V
CTR,P03,REL,FM,M3,0.0030729840884416,V
CTR,P05,INI,FM,M1,0.0028733938828567,V
CTR,P05,INI,FM,M2,0.002730030194677,V
CTR,P05,INI,FM,M3,0.0025971811436368,V
CTR,P05,REL,FM,M1,0.0127999660697162,V
CTR,P05,REL,FM,M2,0.0029913216689029,V
CTR,P05,REL,FM,M3,0.0029564392053551,V
CTR,P06,INI,FM,M1,0.003232658317103,V
CTR,P06,INI,FM,M2,0.0029350423448226,V
CTR,P06,INI,FM,M3,0.0022199374166377,V
CTR,P06,REL,FM,M1,0.0037400429139197,V
CTR,P06,REL,FM,M2,0.0041394988923867,V
CTR,P06,REL,FM,M3,0.0037092556769667,V
CTR,P07,INI,FM,M1,0.0149293235420878,V
CTR,P07,INI,FM,M2,0.0111157765387977,V
CTR,P07,INI,FM,M3,0.009030974512607,V
CTR,P07,REL,FM,M1,0.0107994325093034,V
CTR,P07,REL,FM,M2,0.0049751162113953,V
CTR,P07,REL,FM,M3,0.0042155786516213,V
CTR,P08,INI,FM,M1,0.0020918773767055,V
CTR,P08,INI,FM,M2,0.0025212578091886,V
CTR,P08,INI,FM,M3,0.0026903147733123,V
CTR,P08,REL,FM,M1,0.0021774272316468,V
CTR,P08,REL,FM,M2,0.0022446017421224,V
CTR,P08,REL,FM,M3,0.0023296146520739,V
CTR,P13,INI,FM,M1,0.0137700054010788,V
CTR,P13,INI,FM,M2,0.007033845929165,V
CTR,P13,INI,FM,M3,0.0073543434825019,V
CTR,P13,REL,FM,M1,0.0137834179018767,V
CTR,P13,REL,FM,M2,0.0147636928783555,V
CTR,P13,REL,FM,M3,0.0098209585945898,V
CTR,P16,INI,FM,M1,0.0023201585239614,V
CTR,P16,INI,FM,M2,0.0022224731760394,V
CTR,P16,INI,FM,M3,0.0022802467210244,V
CTR,P16,REL,FM,M1,0.0022242669704754,V
CTR,P16,REL,FM,M2,0.002181023066828,V
CTR,P16,REL,FM,M3,0.0021383554843573,V
CTR,P21,INI,FM,M1,0.0042044764656742,V
CTR,P21,INI,FM,M2,0.003600716289151,V
CTR,P21,INI,FM,M3,0.0042838541148293,V
CTR,P21,REL,FM,M1,0.009144087675068,V
CTR,P21,REL,FM,M2,0.0040474621079885,V
CTR,P21,REL,FM,M3,0.0047198229056342,V
CTR,P22,INI,FM,M1,0.0024276667637379,V
CTR,P22,INI,FM,M2,0.0023094571757237,V
CTR,P22,INI,FM,M3,0.0022680176217558,V
CTR,P22,REL,FM,M1,0.0031509884859394,V
CTR,P22,REL,FM,M2,0.0028380536893472,V
CTR,P22,REL,FM,M3,0.0028727651164613,V
CTR,P23,INI,FM,M1,0.0024081833023345,V
CTR,P23,INI,FM,M2,0.0024284572221984,V
CTR,P23,INI,FM,M3,0.002694671406562,V
CTR,P23,REL,FM,M1,0.0026734078117045,V
CTR,P23,REL,FM,M2,0.0025319813229186,V
CTR,P23,REL,FM,M3,0.002348324260098,V
CTR,P25,INI,FM,M1,0.0130367724582253,V
CTR,P25,INI,FM,M2,0.0037824878956964,V
CTR,P25,INI,FM,M3,0.0027616871948997,V
CTR,P25,REL,FM,M1,0.0169527556988374,V
CTR,P25,REL,FM,M2,0.0119662016580469,V
CTR,P25,REL,FM,M3,0.00369603693628,V
CTR,P35,INI,FM,M1,0.0039775080847723,V
CTR,P35,INI,FM,M2,0.002408357035187,V
CTR,P35,INI,FM,M3,0.0026258129926146,V
CTR,P35,REL,FM,M1,0.0026834276546507,V
CTR,P35,REL,FM,M2,0.0025719687132221,V
CTR,P35,REL,FM,M3,0.002529862879328,V
CTR,P38,INI,FM,M1,0.0412875170014057,V
CTR,P38,INI,FM,M2,0.0389569962502683,V
CTR,P38,INI,FM,M3,0.0425318173619677,V
CTR,P38,REL,FM,M1,0.0027759702409566,V
CTR,P38,REL,FM,M2,0.0029971147911138,V
CTR,P38,REL,FM,M3,0.0030012710654983,V
CTR,P39,INI,FM,M1,0.0021002303700728,V
CTR,P39,INI,FM,M2,0.0026541229447546,V
CTR,P39,INI,FM,M3,0.0027218508305132,V
CTR,P39,REL,FM,M1,0.0088966935007483,V
CTR,P39,REL,FM,M2,0.0044399910009335,V
CTR,P39,REL,FM,M3,0.0036787764223196,V
CTR,P40,INI,FM,M1,0.0031436294477008,V
CTR,P40,INI,FM,M2,0.0032872435996699,V
CTR,P40,INI,FM,M3,0.003672644400326,V
CTR,P40,REL,FM,M1,0.0054588481582128,V
CTR,P40,REL,FM,M2,0.0031929199846344,V
CTR,P40,REL,FM,M3,0.0034769127066438,V
CTR,P44,INI,FM,M1,0.0028040487213315,V
CTR,P44,INI,FM,M2,0.0026326049210991,V
CTR,P44,INI,FM,M3,0.0025712391437322,V
CTR,P44,REL,FM,M1,0.0026816849242237,V
CTR,P44,REL,FM,M2,0.0027055345085006,V
CTR,P44,REL,FM,M3,0.0029137314380425,V
CTR,P46,INI,FM,M1,0.0091215529622748,V
CTR,P46,INI,FM,M2,0.0051998074926782,V
CTR,P46,INI,FM,M3,0.0081047912511219,V
CTR,P46,REL,FM,M1,0.022339886615658,V
CTR,P46,REL,FM,M2,0.0141944614816804,V
CTR,P46,REL,FM,M3,0.0117082028797776,V
CTR,P48,INI,FM,M1,0.0028530988291776,V
CTR,P48,INI,FM,M2,0.0028593654133411,V
CTR,P48,INI,FM,M3,0.004592131927088,V
CTR,P48,REL,FM,M1,0.003448810457251,V
CTR,P48,REL,FM,M2,0.0026636943146169,V
CTR,P48,REL,FM,M3,0.0024932991869571,V
CTR,P49,INI,FM,M1,0.0029411886573047,V
CTR,P49,INI,FM,M2,0.0025933875965349,V
CTR,P49,INI,FM,M3,0.0026867419527649,V
CTR,P49,REL,FM,M1,0.0026617239982827,V
CTR,P49,REL,FM,M2,0.0024459670374422,V
CTR,P49,REL,FM,M3,0.0024145672412083,V
CTR,P52,INI,FM,M1,0.0034683743483677,V
CTR,P52,INI,FM,M2,0.0044475648795616,V
CTR,P52,INI,FM,M3,0.0032427097157175,V
CTR,P52,REL,FM,M1,0.0051797515129652,V
CTR,P52,REL,FM,M2,0.0024976030208154,V
CTR,P52,REL,FM,M3,0.0024934025319186,V
CTR,P55,INI,FM,M1,0.0055636848594251,V
CTR,P55,INI,FM,M2,0.0023945531498297,V
CTR,P55,INI,FM,M3,0.0024418759604554,V
CTR,P55,REL,FM,M1,0.0038809000386035,V
CTR,P55,REL,FM,M2,0.0033826602978598,V
CTR,P55,REL,FM,M3,0.0035771493989576,V
CTR,P56,INI,FM,M1,0.0045119061550963,V
CTR,P56,INI,FM,M2,0.0030969208681183,V
CTR,P56,INI,FM,M3,0.0027768317147049,V
CTR,P56,REL,FM,M1,0.0093850262625805,V
CTR,P56,REL,FM,M2,0.0039638671334002,V
CTR,P56,REL,FM,M3,0.003964160234667,V
CTR,P57,INI,FM,M1,0.0324003355288566,V
CTR,P57,INI,FM,M2,0.0183520503313444,V
CTR,P57,INI,FM,M3,0.0211779021105595,V
CTR,P57,REL,FM,M1,0.0067082540379094,V
CTR,P57,REL,FM,M2,0.0060340117949707,V
CTR,P57,REL,FM,M3,0.0035838237503446,V
CTR,P60,INI,FM,M1,0.0064080892690214,V
CTR,P60,INI,FM,M2,0.0028690197562451,V
CTR,P60,INI,FM,M3,0.0029325061856057,V
CTR,P60,REL,FM,M1,0.0079882699652572,V
CTR,P60,REL,FM,M2,0.0050969619482035,V
CTR,P60,REL,FM,M3,0.0035422719251345,V
CTR,P64,INI,FM,M1,0.0032432864649326,V
CTR,P64,INI,FM,M2,0.002735980377653,V
CTR,P64,INI,FM,M3,0.0022113812064868,V
CTR,P64,REL,FM,M1,0.0021155443391479,V
CTR,P64,REL,FM,M2,0.0020651481348555,V
CTR,P64,REL,FM,M3,0.0020949165307644,V
CTR,P66,INI,FM,M1,0.0042290856630622,V
CTR,P66,INI,FM,M2,0.0028604774791288,V
CTR,P66,INI,FM,M3,0.0036362203682371,V
CTR,P66,REL,FM,M1,0.0099459182262224,V
CTR,P66,REL,FM,M2,0.0031579163842667,V
CTR,P66,REL,FM,M3,0.0061949308424005,V
CTR,P67,INI,FM,M1,0.0062405164241756,V
CTR,P67,INI,FM,M2,0.0035742275388433,V
CTR,P67,INI,FM,M3,0.009713217760566,V
CTR,P67,REL,FM,M1,0.0052911011046502,V
CTR,P67,REL,FM,M2,0.0057890336118904,V
CTR,P67,REL,FM,M3,0.004948542529084,V
CTR,P68,INI,FM,M1,0.0149046682922129,V
CTR,P68,INI,FM,M2,0.0090736721732811,V
CTR,P68,INI,FM,M3,0.0082094302232566,V
CTR,P68,REL,FM,M1,0.0108569462520035,V
CTR,P68,REL,FM,M2,0.0106003210981205,V
CTR,P68,REL,FM,M3,0.0046873347504267,V
