Group,Participant,Session,Operator,Measure,Value,Unit
CTR,P01,INI,FM,M1,100.39954024564568,Hz
CTR,P01,INI,FM,M2,101.42987695624976,Hz
CTR,P01,INI,FM,M3,97.12871064616644,Hz
CTR,P01,REL,FM,M1,77.53396396040657,Hz
CTR,P01,REL,FM,M2,80.61994410339747,Hz
CTR,P01,REL,FM,M3,80.57519129037665,Hz
CTR,P02,INI,FM,M1,104.78244075472006,Hz
CTR,P02,INI,FM,M2,102.65057350241663,Hz
CTR,P02,INI,FM,M3,105.79661551581016,Hz
CTR,P02,REL,FM,M1,100.3063327659298,Hz
CTR,P02,REL,FM,M2,105.359696749868,Hz
CTR,P02,REL,FM,M3,107.41014855942228,Hz
CTR,P03,INI,FM,M1,88.71291683078782,Hz
CTR,P03,INI,FM,M2,89.50149887815347,Hz
CTR,P03,INI,FM,M3,95.2416260529086,Hz
CTR,P03,REL,FM,M1,84.90961751192395,Hz
CTR,P03,REL,FM,M2,68.35841573767856,Hz
CTR,P03,REL,FM,M3,85.75392392978078,Hz
CTR,P05,INI,FM,M1,124.11290985476266,Hz
CTR,P05,INI,FM,M2,123.6232507461457,Hz
CTR,P05,INI,FM,M3,120.17015967269178,Hz
CTR,P05,REL,FM,M1,121.21208928464608,Hz
CTR,P05,REL,FM,M2,137.25796767429094,Hz
CTR,P05,REL,FM,M3,128.2046772892144,Hz
CTR,P06,INI,FM,M1,104.98915281989724,Hz
CTR,P06,INI,FM,M2,106.8393121703031,Hz
CTR,P06,INI,FM,M3,109.73144559774371,Hz
CTR,P06,REL,FM,M1,90.9472793023966,Hz
CTR,P06,REL,FM,M2,110.8155212617199,Hz
CTR,P06,REL,FM,M3,114.56142727384598,Hz
CTR,P07,INI,FM,M1,89.61392145802297,Hz
CTR,P07,INI,FM,M2,100.27865783948472,Hz
CTR,P07,INI,FM,M3,99.26096920085948,Hz
CTR,P07,REL,FM,M1,126.49750625469666,Hz
CTR,P07,REL,FM,M2,130.12686384164346,Hz
CTR,P07,REL,FM,M3,134.03387964510284,Hz
CTR,P08,INI,FM,M1,39.563338184412615,Hz
CTR,P08,INI,FM,M2,42.490923963036,Hz
CTR,P08,INI,FM,M3,43.34224151970649,Hz
CTR,P08,REL,FM,M1,97.71931023118697,Hz
CTR,P08,REL,FM,M2,99.5255395651876,Hz
CTR,P08,REL,FM,M3,96.76509091271858,Hz
CTR,P13,INI,FM,M1,100.07028319519353,Hz
CTR,P13,INI,FM,M2,96.71042348637845,Hz
CTR,P13,INI,FM,M3,93.0640537316468,Hz
CTR,P13,REL,FM,M1,99.57816822017983,Hz
CTR,P13,REL,FM,M2,98.76018151025164,Hz
CTR,P13,REL,FM,M3,95.75194985008062,Hz
CTR,P16,INI,FM,M1,48.05241654716736,Hz
CTR,P16,INI,FM,M2,51.701173288768594,Hz
CTR,P16,INI,FM,M3,39.695548801787616,Hz
CTR,P16,REL,FM,M1,99.83348672027049,Hz
CTR,P16,REL,FM,M2,105.54931016294694,Hz
CTR,P16,REL,FM,M3,103.86810971357772,Hz
CTR,P21,INI,FM,M1,87.5622208965908,Hz
CTR,P21,INI,FM,M2,79.82768129966375,Hz
CTR,P21,INI,FM,M3,81.4982365505793,Hz
CTR,P21,REL,FM,M1,87.23519591551809,Hz
CTR,P21,REL,FM,M2,80.9982136454061,Hz
CTR,P21,REL,FM,M3,81.46410714533843,Hz
CTR,P22,INI,FM,M1,95.07142278417038,Hz
CTR,P22,INI,FM,M2,91.06800891790068,Hz
CTR,P22,INI,FM,M3,96.83989532803687,Hz
CTR,P22,REL,FM,M1,89.44012193374404,Hz
CTR,P22,REL,FM,M2,83.823886241682,Hz
CTR,P22,REL,FM,M3,61.39500550032619,Hz
CTR,P23,INI,FM,M1,64.9386086675952,Hz
CTR,P23,INI,FM,M2,60.45131959402975,Hz
CTR,P23,INI,FM,M3,55.5785957358682,Hz
CTR,P23,REL,FM,M1,94.20675987122344,Hz
CTR,P23,REL,FM,M2,96.52852976626286,Hz
CTR,P23,REL,FM,M3,100.3718912194561,Hz
CTR,P25,INI,FM,M1,47.31738569243737,Hz
CTR,P25,INI,FM,M2,33.89202265907473,Hz
CTR,P25,INI,FM,M3,38.32459922252461,Hz
CTR,P25,REL,FM,M1,131.05153380421842,Hz
CTR,P25,REL,FM,M2,131.21540437661037,Hz
CTR,P25,REL,FM,M3,124.7369824272365,Hz
CTR,P35,INI,FM,M1,110.45004828692284,Hz
CTR,P35,INI,FM,M2,112.7997680937856,Hz
CTR,P35,INI,FM,M3,110.00558143823172,Hz
CTR,P35,REL,FM,M1,108.30843891572545,Hz
CTR,P35,REL,FM,M2,112.27212450863952,Hz
CTR,P35,REL,FM,M3,110.77729217977532,Hz
CTR,P38,INI,FM,M1,95.07839728559652,Hz
CTR,P38,INI,FM,M2,88.58357900485872,Hz
CTR,P38,INI,FM,M3,91.69452459862552,Hz
CTR,P38,REL,FM,M1,96.26488041185988,Hz
CTR,P38,REL,FM,M2,86.23214988267787,Hz
CTR,P38,REL,FM,M3,87.30298656872891,Hz
CTR,P39,INI,FM,M1,102.68512243591388,Hz
CTR,P39,INI,FM,M2,98.944838669831,Hz
CTR,P39,INI,FM,M3,101.4041881272782,Hz
CTR,P39,REL,FM,M1,99.75653030851248,Hz
CTR,P39,REL,FM,M2,95.52902794960583,Hz
CTR,P39,REL,FM,M3,97.66152403037708,Hz
CTR,P40,INI,FM,M1,68.1645486840497,Hz
CTR,P40,INI,FM,M2,62.217243937209325,Hz
CTR,P40,INI,FM,M3,72.76288619359198,Hz
CTR,P40,REL,FM,M1,115.63813147352562,Hz
CTR,P40,REL,FM,M2,115.29643262387904,Hz
CTR,P40,REL,FM,M3,121.62771376926796,Hz
CTR,P44,INI,FM,M1,42.82217411026345,Hz
CTR,P44,INI,FM,M2,47.01295383072231,Hz
CTR,P44,INI,FM,M3,44.2282617916832,Hz
CTR,P44,REL,FM,M1,112.97896325287394,Hz
CTR,P44,REL,FM,M2,115.0750616727342,Hz
CTR,P44,REL,FM,M3,113.07012197781371,Hz
CTR,P46,INI,FM,M1,37.32142471746617,Hz
CTR,P46,INI,FM,M2,64.186375188234,Hz
CTR,P46,INI,FM,M3,63.506463679523726,Hz
CTR,P46,REL,FM,M1,59.71100016383214,Hz
CTR,P46,REL,FM,M2,65.48626905438594,Hz
CTR,P46,REL,FM,M3,66.12260432924934,Hz
CTR,P48,INI,FM,M1,116.82559062590026,Hz
CTR,P48,INI,FM,M2,119.1580866109005,Hz
CTR,P48,INI,FM,M3,118.92606664720296,Hz
CTR,P48,REL,FM,M1,128.90371410104777,Hz
CTR,P48,REL,FM,M2,123.36021579065668,Hz
CTR,P48,REL,FM,M3,130.0933658350749,Hz
CTR,P49,INI,FM,M1,110.96783195041826,Hz
CTR,P49,INI,FM,M2,111.83955822021248,Hz
CTR,P49,INI,FM,M3,115.82930028238157,Hz
CTR,P49,REL,FM,M1,105.25497264387512,Hz
CTR,P49,REL,FM,M2,112.41169422470377,Hz
CTR,P49,REL,FM,M3,111.84428197809144,Hz
CTR,P52,INI,FM,M1,112.95208078450013,Hz
CTR,P52,INI,FM,M2,115.62381925663566,Hz
CTR,P52,INI,FM,M3,117.40176957619164,Hz
CTR,P52,REL,FM,M1,116.5844669677633,Hz
CTR,P52,REL,FM,M2,125.75234160382855,Hz
CTR,P52,REL,FM,M3,132.3677714543549,Hz
CTR,P55,INI,FM,M1,71.25729075200285,Hz
CTR,P55,INI,FM,M2,62.3725026033402,Hz
CTR,P55,INI,FM,M3,46.88678564255332,Hz
CTR,P55,REL,FM,M1,91.44542468226682,Hz
CTR,P55,REL,FM,M2,87.17687529086524,Hz
CTR,P55,REL,FM,M3,91.71787380731162,Hz
CTR,P56,INI,FM,M1,63.34981819176144,Hz
CTR,P56,INI,FM,M2,69.21313229823392,Hz
CTR,P56,INI,FM,M3,67.08419852700672,Hz
CTR,P56,REL,FM,M1,48.54091572500618,Hz
CTR,P56,REL,FM,M2,54.53781041207015,Hz
CTR,P56,REL,FM,M3,62.68365434711292,Hz
CTR,P57,INI,FM,M1,69.43943477140309,Hz
CTR,P57,INI,FM,M2,72.86192547717859,Hz
CTR,P57,INI,FM,M3,60.38894343692458,Hz
CTR,P57,REL,FM,M1,87.40397718750967,Hz
CTR,P57,REL,FM,M2,76.36297867475538,Hz
CTR,P57,REL,FM,M3,84.76340586259487,Hz
CTR,P60,INI,FM,M1,113.90282307599696,Hz
CTR,P60,INI,FM,M2,110.36125073913708,Hz
CTR,P60,INI,FM,M3,104.24103914473396,Hz
CTR,P60,REL,FM,M1,113.07476363126156,Hz
CTR,P60,REL,FM,M2,105.7287179916026,Hz
CTR,P60,REL,FM,M3,109.0854036326868,Hz
CTR,P64,INI,FM,M1,86.39697837688527,Hz
CTR,P64,INI,FM,M2,89.14646763220748,Hz
CTR,P64,INI,FM,M3,92.17842331099844,Hz
CTR,P64,REL,FM,M1,88.23992850144276,Hz
CTR,P64,REL,FM,M2,89.08048420063837,Hz
CTR,P64,REL,FM,M3,87.7234598485398,Hz
CTR,P66,INI,FM,M1,67.84587309701419,Hz
CTR,P66,INI,FM,M2,45.63049573065795,Hz
CTR,P66,INI,FM,M3,53.580445042909886,Hz
CTR,P66,REL,FM,M1,67.45904818480408,Hz
CTR,P66,REL,FM,M2,82.24712507157129,Hz
CTR,P66,REL,FM,M3,79.76030673425716,Hz
CTR,P67,INI,FM,M1,89.86790922964065,Hz
CTR,P67,INI,FM,M2,86.91266449447774,Hz
CTR,P67,INI,FM,M3,96.35070637915148,Hz
CTR,P67,REL,FM,M1,88.61074474596097,Hz
CTR,P67,REL,FM,M2,91.11214039913858,Hz
CTR,P67,REL,FM,M3,84.75591535577342,Hz
CTR,P68,INI,FM,M1,116.15267071933958,Hz
CTR,P68,INI,FM,M2,113.92852545128736,Hz
CTR,P68,INI,FM,M3,113.15819960673907,Hz
CTR,P68,REL,FM,M1,124.2313778788075,Hz
CTR,P68,REL,FM,M2,118.4007018184193,Hz
CTR,P68,REL,FM,M3,121.3967228088542,Hz
