Group,Participant,Session,Operator,Measure,Value,Unit
CTR,P01,INI,FM,M1,117.06578897750887,Hz
CTR,P01,INI,FM,M2,108.25305140427892,Hz
CTR,P01,INI,FM,M3,105.32663804552412,Hz
CTR,P01,REL,FM,M1,116.56631705620262,Hz
CTR,P01,REL,FM,M2,111.77928618755942,Hz
CTR,P01,REL,FM,M3,107.51821696763498,Hz
CTR,P02,INI,FM,M1,102.00548152469058,Hz
CTR,P02,INI,FM,M2,100.40274159001252,Hz
CTR,P02,INI,FM,M3,92.12116871566634,Hz
CTR,P02,REL,FM,M1,99.42413093791453,Hz
CTR,P02,REL,FM,M2,97.25024163540289,Hz
CTR,P02,REL,FM,M3,99.32193543841836,Hz
CTR,P03,INI,FM,M1,93.21193586983732,Hz
CTR,P03,INI,FM,M2,88.22181783717687,Hz
CTR,P03,INI,FM,M3,87.31054296672987,Hz
CTR,P03,REL,FM,M1,94.46055849397776,Hz
CTR,P03,REL,FM,M2,92.11434167479814,Hz
CTR,P03,REL,FM,M3,91.13705724273233,Hz
CTR,P05,INI,FM,M1,117.69481685981332,Hz
CTR,P05,INI,FM,M2,115.5186171206523,Hz
CTR,P05,INI,FM,M3,112.19549532238706,Hz
CTR,P05,REL,FM,M1,114.91143843815372,Hz
CTR,P05,REL,FM,M2,114.29120916449592,Hz
CTR,P05,REL,FM,M3,111.33557918881544,Hz
CTR,P06,INI,FM,M1,114.37425294562344,Hz
CTR,P06,INI,FM,M2,112.09836264753726,Hz
CTR,P06,INI,FM,M3,110.25466820806008,Hz
CTR,P06,REL,FM,M1,106.69154298410614,Hz
CTR,P06,REL,FM,M2,107.42951579715836,Hz
CTR,P06,REL,FM,M3,100.22445461943316,Hz
CTR,P07,INI,FM,M1,143.10726486237016,Hz
CTR,P07,INI,FM,M2,142.68462541483126,Hz
CTR,P07,INI,FM,M3,136.74507610722588,Hz
CTR,P07,REL,FM,M1,150.1106199785518,Hz
CTR,P07,REL,FM,M2,143.53699452746216,Hz
CTR,P07,REL,FM,M3,140.07793830830462,Hz
CTR,P08,INI,FM,M1,118.48249800854072,Hz
CTR,P08,INI,FM,M2,115.7749012724798,Hz
CTR,P08,INI,FM,M3,112.28082895419502,Hz
CTR,P08,REL,FM,M1,98.72765627870602,Hz
CTR,P08,REL,FM,M2,99.91053411989122,Hz
CTR,P08,REL,FM,M3,97.23241223386432,Hz
CTR,P13,INI,FM,M1,106.5651992727702,Hz
CTR,P13,INI,FM,M2,101.39840783737309,Hz
CTR,P13,INI,FM,M3,98.38724476317157,Hz
CTR,P13,REL,FM,M1,100.60229889099033,Hz
CTR,P13,REL,FM,M2,98.83207912666744,Hz
CTR,P13,REL,FM,M3,96.41339531748469,Hz
CTR,P16,INI,FM,M1,102.28186907386664,Hz
CTR,P16,INI,FM,M2,95.52830212279214,Hz
CTR,P16,INI,FM,M3,102.0197923652502,Hz
CTR,P16,REL,FM,M1,88.93365000675716,Hz
CTR,P16,REL,FM,M2,92.15934757916982,Hz
CTR,P16,REL,FM,M3,89.06866920678985,Hz
CTR,P21,INI,FM,M1,89.66637271578051,Hz
CTR,P21,INI,FM,M2,86.29784941972603,Hz
CTR,P21,INI,FM,M3,90.40619059292004,Hz
CTR,P21,REL,FM,M1,101.75583705083795,Hz
CTR,P21,REL,FM,M2,103.7481374194572,Hz
CTR,P21,REL,FM,M3,101.36745266720436,Hz
CTR,P22,INI,FM,M1,85.80740482335874,Hz
CTR,P22,INI,FM,M2,88.88347997963547,Hz
CTR,P22,INI,FM,M3,86.2399781975731,Hz
CTR,P22,REL,FM,M1,90.3639603982128,Hz
CTR,P22,REL,FM,M2,88.4409066777947,Hz
CTR,P22,REL,FM,M3,86.06012957808906,Hz
CTR,P23,INI,FM,M1,106.284849448458,Hz
CTR,P23,INI,FM,M2,103.42248124112317,Hz
CTR,P23,INI,FM,M3,96.8649774988518,Hz
CTR,P23,REL,FM,M1,74.93934406023877,Hz
CTR,P23,REL,FM,M2,66.73019519993647,Hz
CTR,P23,REL,FM,M3,72.0476508728712,Hz
CTR,P25,INI,FM,M1,119.73593309233704,Hz
CTR,P25,INI,FM,M2,125.18710121512794,Hz
CTR,P25,INI,FM,M3,119.16980966213856,Hz
CTR,P25,REL,FM,M1,125.82163845526124,Hz
CTR,P25,REL,FM,M2,123.00797032132895,Hz
CTR,P25,REL,FM,M3,120.0716074094134,Hz
CTR,P35,INI,FM,M1,111.4665576244663,Hz
CTR,P35,INI,FM,M2,106.8476471649377,Hz
CTR,P35,INI,FM,M3,103.59246604648624,Hz
CTR,P35,REL,FM,M1,121.42042695020729,Hz
CTR,P35,REL,FM,M2,116.3153779604781,Hz
CTR,P35,REL,FM,M3,114.01832808017316,Hz
CTR,P38,INI,FM,M1,68.26844670609324,Hz
CTR,P38,INI,FM,M2,67.1546834592842,Hz
CTR,P38,INI,FM,M3,66.69132313279204,Hz
CTR,P38,REL,FM,M1,110.33303120010568,Hz
CTR,P38,REL,FM,M2,101.35743055262542,Hz
CTR,P38,REL,FM,M3,101.57882134996254,Hz
CTR,P39,INI,FM,M1,126.69214321085632,Hz
CTR,P39,INI,FM,M2,127.63297233444412,Hz
CTR,P39,INI,FM,M3,124.98271242455208,Hz
CTR,P39,REL,FM,M1,93.88029240597128,Hz
CTR,P39,REL,FM,M2,86.66717575907211,Hz
CTR,P39,REL,FM,M3,109.22862083363836,Hz
CTR,P40,INI,FM,M1,134.13683713900937,Hz
CTR,P40,INI,FM,M2,130.13745524709358,Hz
CTR,P40,INI,FM,M3,124.42607536814552,Hz
CTR,P40,REL,FM,M1,138.09599979085397,Hz
CTR,P40,REL,FM,M2,128.5342886766894,Hz
CTR,P40,REL,FM,M3,127.24508246823116,Hz
CTR,P44,INI,FM,M1,148.07230043519365,Hz
CTR,P44,INI,FM,M2,140.8110450198243,Hz
CTR,P44,INI,FM,M3,140.1541645586072,Hz
CTR,P44,REL,FM,M1,144.50379531029282,Hz
CTR,P44,REL,FM,M2,144.87750913266942,Hz
CTR,P44,REL,FM,M3,138.56912696429592,Hz
CTR,P46,INI,FM,M1,122.04569985771444,Hz
CTR,P46,INI,FM,M2,120.3559394537741,Hz
CTR,P46,INI,FM,M3,116.79224817882856,Hz
CTR,P46,REL,FM,M1,118.3402652334325,Hz
CTR,P46,REL,FM,M2,114.0393620127321,Hz
CTR,P46,REL,FM,M3,110.79541435489716,Hz
CTR,P48,INI,FM,M1,139.21351460471774,Hz
CTR,P48,INI,FM,M2,135.95639838285774,Hz
CTR,P48,INI,FM,M3,130.3563845453287,Hz
CTR,P48,REL,FM,M1,136.34330299277858,Hz
CTR,P48,REL,FM,M2,130.3742599844485,Hz
CTR,P48,REL,FM,M3,130.46780406738813,Hz
CTR,P49,INI,FM,M1,112.6384901521314,Hz
CTR,P49,INI,FM,M2,103.72024688438414,Hz
CTR,P49,INI,FM,M3,102.14651866206384,Hz
CTR,P49,REL,FM,M1,109.3162069160456,Hz
CTR,P49,REL,FM,M2,107.54427621882633,Hz
CTR,P49,REL,FM,M3,104.95148163152238,Hz
CTR,P52,INI,FM,M1,115.77634684283753,Hz
CTR,P52,INI,FM,M2,109.10898733590687,Hz
CTR,P52,INI,FM,M3,104.46672578748613,Hz
CTR,P52,REL,FM,M1,114.303881184217,Hz
CTR,P52,REL,FM,M2,111.51651681469215,Hz
CTR,P52,REL,FM,M3,107.05223585271808,Hz
CTR,P55,INI,FM,M1,115.26790902178028,Hz
CTR,P55,INI,FM,M2,112.50951054727943,Hz
CTR,P55,INI,FM,M3,109.85069730509876,Hz
CTR,P55,REL,FM,M1,105.35990758855964,Hz
CTR,P55,REL,FM,M2,103.64519750722567,Hz
CTR,P55,REL,FM,M3,101.19438556390088,Hz
CTR,P56,INI,FM,M1,83.76929975611397,Hz
CTR,P56,INI,FM,M2,82.58696170529187,Hz
CTR,P56,INI,FM,M3,79.76199022101036,Hz
CTR,P56,REL,FM,M1,87.64544746853707,Hz
CTR,P56,REL,FM,M2,83.04970072243927,Hz
CTR,P56,REL,FM,M3,83.06065371885575,Hz
CTR,P57,INI,FM,M1,101.28164920159998,Hz
CTR,P57,INI,FM,M2,102.31858404988516,Hz
CTR,P57,INI,FM,M3,99.36138835152722,Hz
CTR,P57,REL,FM,M1,111.23688811181084,Hz
CTR,P57,REL,FM,M2,94.55530639623618,Hz
CTR,P57,REL,FM,M3,109.51376806581789,Hz
CTR,P60,INI,FM,M1,103.69243924858648,Hz
CTR,P60,INI,FM,M2,89.513820732853,Hz
CTR,P60,INI,FM,M3,97.61377864892717,Hz
CTR,P60,REL,FM,M1,94.6136123427992,Hz
CTR,P60,REL,FM,M2,100.31474515862556,Hz
CTR,P60,REL,FM,M3,97.43820178267492,Hz
CTR,P64,INI,FM,M1,118.18958106326266,Hz
CTR,P64,INI,FM,M2,115.89355436108818,Hz
CTR,P64,INI,FM,M3,114.47426063345527,Hz
CTR,P64,REL,FM,M1,107.45053218377726,Hz
CTR,P64,REL,FM,M2,107.56815477477416,Hz
CTR,P64,REL,FM,M3,102.01438309973224,Hz
CTR,P66,INI,FM,M1,106.83120005359264,Hz
CTR,P66,INI,FM,M2,100.63594655203516,Hz
CTR,P66,INI,FM,M3,84.83505965934793,Hz
CTR,P66,REL,FM,M1,99.57104980720342,Hz
CTR,P66,REL,FM,M2,95.94733383138292,Hz
CTR,P66,REL,FM,M3,91.85027381355636,Hz
CTR,P67,INI,FM,M1,120.18807243627629,Hz
CTR,P67,INI,FM,M2,117.00254871645537,Hz
CTR,P67,INI,FM,M3,118.45016414709136,Hz
CTR,P67,REL,FM,M1,103.21519337174814,Hz
CTR,P67,REL,FM,M2,94.97705770322108,Hz
CTR,P67,REL,FM,M3,94.4124978135802,Hz
CTR,P68,INI,FM,M1,126.98966848175488,Hz
CTR,P68,INI,FM,M2,124.29835546333008,Hz
CTR,P68,INI,FM,M3,123.88164483268928,Hz
CTR,P68,REL,FM,M1,137.6163658647148,Hz
CTR,P68,REL,FM,M2,133.73458598525798,Hz
CTR,P68,REL,FM,M3,131.51355979034577,Hz
