Group,Participant,Session,Operator,Measure,Value,Unit
PAT,P09,INI,FM,M1,31.254809114828717,%subMVIC
PAT,P09,INI,FM,M2,31.534835750428154,%subMVIC
PAT,P09,INI,FM,M3,30.249715928785747,%subMVIC
PAT,P09,REL,FM,M1,26.18930224365224,%subMVIC
PAT,P09,REL,FM,M2,30.272149397138755,%subMVIC
PAT,P09,REL,FM,M3,27.11766948011181,%subMVIC
PAT,P10,INI,FM,M1,99.17890491436727,%subMVIC
PAT,P10,INI,FM,M2,113.9273302325496,%subMVIC
PAT,P10,INI,FM,M3,127.10853401189235,%subMVIC
PAT,P10,REL,FM,M1,47.795978671654396,%subMVIC
PAT,P10,REL,FM,M2,48.86151184966855,%subMVIC
PAT,P10,REL,FM,M3,49.330491564219685,%subMVIC
PAT,P11,INI,FM,M1,25.885964516232406,%subMVIC
PAT,P11,INI,FM,M2,26.197074078256193,%subMVIC
PAT,P11,INI,FM,M3,27.315082058252717,%subMVIC
PAT,P11,REL,FM,M1,42.8813253142575,%subMVIC
PAT,P11,REL,FM,M2,50.764751947453,%subMVIC
PAT,P11,REL,FM,M3,39.74865501003058,%subMVIC
PAT,P12,INI,FM,M1,51.74342871598823,%subMVIC
PAT,P12,INI,FM,M2,54.27772093080696,%subMVIC
PAT,P12,INI,FM,M3,56.62894181123569,%subMVIC
PAT,P12,REL,FM,M1,28.567340624937557,%subMVIC
PAT,P12,REL,FM,M2,27.997494183922075,%subMVIC
PAT,P12,REL,FM,M3,27.23053351145481,%subMVIC
PAT,P14,INI,FM,M1,70.0546775740204,%subMVIC
PAT,P14,INI,FM,M2,92.16201981534165,%subMVIC
PAT,P14,INI,FM,M3,87.20740448525723,%subMVIC
PAT,P14,REL,FM,M1,148.96285527325597,%subMVIC
PAT,P14,REL,FM,M2,179.48753259666682,%subMVIC
PAT,P14,REL,FM,M3,190.17909754286933,%subMVIC
PAT,P17,INI,FM,M1,36.48067800216866,%subMVIC
PAT,P17,INI,FM,M2,44.377444400708285,%subMVIC
PAT,P17,INI,FM,M3,50.48713835126896,%subMVIC
PAT,P17,REL,FM,M1,16.931610446959844,%subMVIC
PAT,P17,REL,FM,M2,16.874671130344495,%subMVIC
PAT,P17,REL,FM,M3,17.368174404562257,%subMVIC
PAT,P24,INI,FM,M1,96.10491972140082,%subMVIC
PAT,P24,INI,FM,M2,100.7915731483466,%subMVIC
PAT,P24,INI,FM,M3,83.37593206010763,%subMVIC
PAT,P24,REL,FM,M1,37.79622064524738,%subMVIC
PAT,P24,REL,FM,M2,37.670778219077576,%subMVIC
PAT,P24,REL,FM,M3,42.39181845862039,%subMVIC
PAT,P26,INI,FM,M1,20.0094832468792,%subMVIC
PAT,P26,INI,FM,M2,20.962020254847904,%subMVIC
PAT,P26,INI,FM,M3,16.952523815782506,%subMVIC
PAT,P26,REL,FM,M1,41.90053979420034,%subMVIC
PAT,P26,REL,FM,M2,43.71836353893029,%subMVIC
PAT,P26,REL,FM,M3,45.87885121684988,%subMVIC
PAT,P27,INI,FM,M1,36.09736631039524,%subMVIC
PAT,P27,INI,FM,M2,35.42649654898478,%subMVIC
PAT,P27,INI,FM,M3,29.812393384195193,%subMVIC
PAT,P27,REL,FM,M1,43.953743613947104,%subMVIC
PAT,P27,REL,FM,M2,47.556647085501524,%subMVIC
PAT,P27,REL,FM,M3,40.97400282476262,%subMVIC
PAT,P28,INI,FM,M1,83.81254760807273,%subMVIC
PAT,P28,INI,FM,M2,87.48424915228017,%subMVIC
PAT,P28,INI,FM,M3,88.76232922734026,%subMVIC
PAT,P28,REL,FM,M1,38.25568200898869,%subMVIC
PAT,P28,REL,FM,M2,44.31776521316885,%subMVIC
PAT,P28,REL,FM,M3,37.73872192307272,%subMVIC
PAT,P29,INI,FM,M1,19.540244476646183,%subMVIC
PAT,P29,INI,FM,M2,26.35064887742275,%subMVIC
PAT,P29,INI,FM,M3,21.86420094566397,%subMVIC
PAT,P29,REL,FM,M1,23.91883252107625,%subMVIC
PAT,P29,REL,FM,M2,21.822007080017414,%subMVIC
PAT,P29,REL,FM,M3,22.462583556858565,%subMVIC
PAT,P32,INI,FM,M1,11.674288374946752,%subMVIC
PAT,P32,INI,FM,M2,11.624709460048724,%subMVIC
PAT,P32,INI,FM,M3,11.169305856683291,%subMVIC
PAT,P32,REL,FM,M1,20.910642985686152,%subMVIC
PAT,P32,REL,FM,M2,18.798501652605058,%subMVIC
PAT,P32,REL,FM,M3,18.928325370656296,%subMVIC
PAT,P33,INI,FM,M1,14.957607208925772,%subMVIC
PAT,P33,INI,FM,M2,13.824674592532501,%subMVIC
PAT,P33,INI,FM,M3,12.51795610180651,%subMVIC
PAT,P33,REL,FM,M1,2160.489221510582,%subMVIC
PAT,P33,REL,FM,M2,1839.6382811013027,%subMVIC
PAT,P33,REL,FM,M3,748.759005545506,%subMVIC
PAT,P34,INI,FM,M1,33.19675444231687,%subMVIC
PAT,P34,INI,FM,M2,34.406000563936246,%subMVIC
PAT,P34,INI,FM,M3,26.92673440236744,%subMVIC
PAT,P34,REL,FM,M1,43.39210076737106,%subMVIC
PAT,P34,REL,FM,M2,40.25740693162964,%subMVIC
PAT,P34,REL,FM,M3,40.875249359061556,%subMVIC
PAT,P36,INI,FM,M1,32.96428128985386,%subMVIC
PAT,P36,INI,FM,M2,28.070670104172663,%subMVIC
PAT,P36,INI,FM,M3,19.576684476321432,%subMVIC
PAT,P36,REL,FM,M1,16.905010145945926,%subMVIC
PAT,P36,REL,FM,M2,15.429870360695901,%subMVIC
PAT,P36,REL,FM,M3,13.89936987609854,%subMVIC
PAT,P41,INI,FM,M1,28.039108960334882,%subMVIC
PAT,P41,INI,FM,M2,29.2967563844042,%subMVIC
PAT,P41,INI,FM,M3,23.59992336699914,%subMVIC
PAT,P41,REL,FM,M1,19.246557608717545,%subMVIC
PAT,P41,REL,FM,M2,17.61434498153907,%subMVIC
PAT,P41,REL,FM,M3,17.320570125294996,%subMVIC
PAT,P42,INI,FM,M1,47.50799988895423,%subMVIC
PAT,P42,INI,FM,M2,49.58262888688358,%subMVIC
PAT,P42,INI,FM,M3,50.606520996561436,%subMVIC
PAT,P42,REL,FM,M1,35.90843525812285,%subMVIC
PAT,P42,REL,FM,M2,34.640885795764305,%subMVIC
PAT,P42,REL,FM,M3,36.036442580404575,%subMVIC
PAT,P43,INI,FM,M1,19.456156755728173,%subMVIC
PAT,P43,INI,FM,M2,28.226594562840305,%subMVIC
PAT,P43,INI,FM,M3,31.012062852871885,%subMVIC
PAT,P43,REL,FM,M1,34.15116704729037,%subMVIC
PAT,P43,REL,FM,M2,25.952731561719496,%subMVIC
PAT,P43,REL,FM,M3,29.147205937466822,%subMVIC
PAT,P45,INI,FM,M1,36.76995287934196,%subMVIC
PAT,P45,INI,FM,M2,26.324315108285838,%subMVIC
PAT,P45,INI,FM,M3,33.50122900673628,%subMVIC
PAT,P45,REL,FM,M1,25.151701361101512,%subMVIC
PAT,P45,REL,FM,M2,26.497056182227983,%subMVIC
PAT,P45,REL,FM,M3,27.34757265810332,%subMVIC
PAT,P47,INI,FM,M1,28.157442710707507,%subMVIC
PAT,P47,INI,FM,M2,29.517066220336392,%subMVIC
PAT,P47,INI,FM,M3,33.27369982152362,%subMVIC
PAT,P47,REL,FM,M1,22.191818129405725,%subMVIC
PAT,P47,REL,FM,M2,23.224617369072156,%subMVIC
PAT,P47,REL,FM,M3,22.641707219689046,%subMVIC
PAT,P50,INI,FM,M1,38.90695599937988,%subMVIC
PAT,P50,INI,FM,M2,44.808206594041856,%subMVIC
PAT,P50,INI,FM,M3,37.730298259384874,%subMVIC
PAT,P50,REL,FM,M1,33.487376792480816,%subMVIC
PAT,P50,REL,FM,M2,33.445811825371486,%subMVIC
PAT,P50,REL,FM,M3,34.0466395570781,%subMVIC
PAT,P51,INI,FM,M1,15.15395247784223,%subMVIC
PAT,P51,INI,FM,M2,14.168781764439915,%subMVIC
PAT,P51,INI,FM,M3,14.349540284758028,%subMVIC
PAT,P51,REL,FM,M1,8.554270235776688,%subMVIC
PAT,P51,REL,FM,M2,9.860311154945794,%subMVIC
PAT,P51,REL,FM,M3,8.125310820302817,%subMVIC
PAT,P53,INI,FM,M1,14.631000955295715,%subMVIC
PAT,P53,INI,FM,M2,18.49885682464426,%subMVIC
PAT,P53,INI,FM,M3,18.05176807827143,%subMVIC
PAT,P53,REL,FM,M1,20.404846572375952,%subMVIC
PAT,P53,REL,FM,M2,22.428383206514834,%subMVIC
PAT,P53,REL,FM,M3,19.68864549238852,%subMVIC
PAT,P54,INI,FM,M1,42.50448758976359,%subMVIC
PAT,P54,INI,FM,M2,49.366401083541795,%subMVIC
PAT,P54,INI,FM,M3,49.23424916860172,%subMVIC
PAT,P54,REL,FM,M1,58.819003935770375,%subMVIC
PAT,P54,REL,FM,M2,48.810323075425586,%subMVIC
PAT,P54,REL,FM,M3,52.827422157218976,%subMVIC
PAT,P58,INI,FM,M1,28.173277413887234,%subMVIC
PAT,P58,INI,FM,M2,27.365140978236635,%subMVIC
PAT,P58,INI,FM,M3,27.440222129732977,%subMVIC
PAT,P58,REL,FM,M1,33.3502765005545,%subMVIC
PAT,P58,REL,FM,M2,31.420836282112045,%subMVIC
PAT,P58,REL,FM,M3,23.860344302648446,%subMVIC
PAT,P61,REL,FM,M1,10.359604001815015,%subMVIC
PAT,P61,REL,FM,M2,9.526113452983479,%subMVIC
PAT,P61,REL,FM,M3,8.85291462558061,%subMVIC
PAT,P62,INI,FM,M1,20.804083377858284,%subMVIC
PAT,P62,INI,FM,M2,20.96839317043756,%subMVIC
PAT,P62,INI,FM,M3,21.09316694695699,%subMVIC
PAT,P62,REL,FM,M1,12.56891497311569,%subMVIC
PAT,P62,REL,FM,M2,11.295047101092207,%subMVIC
PAT,P62,REL,FM,M3,15.075845798007801,%subMVIC
PAT,P63,INI,FM,M1,45.15179615635158,%subMVIC
PAT,P63,INI,FM,M2,40.783970935003104,%subMVIC
PAT,P63,INI,FM,M3,44.29947104264791,%subMVIC
PAT,P63,REL,FM,M1,23.42681020187137,%subMVIC
PAT,P63,REL,FM,M2,31.896735467603452,%subMVIC
PAT,P63,REL,FM,M3,33.64087431128873,%subMVIC
PAT,P65,INI,FM,M1,24.73048230823782,%subMVIC
PAT,P65,INI,FM,M2,28.169143929647767,%subMVIC
PAT,P65,INI,FM,M3,19.54578475734084,%subMVIC
PAT,P65,REL,FM,M1,26.591661161428636,%subMVIC
PAT,P65,REL,FM,M2,29.713936413601562,%subMVIC
PAT,P65,REL,FM,M3,26.76230922669389,%subMVIC
