Group,Participant,Session,Operator,Measure,Value,Unit
PAT,P09,INI,FM,M1,19.76383543904751,%MAX
PAT,P09,INI,FM,M2,27.315508008277376,%MAX
PAT,P09,INI,FM,M3,25.45625188370045,%MAX
PAT,P09,REL,FM,M1,15.801966475150227,%MAX
PAT,P09,REL,FM,M2,18.92758218168514,%MAX
PAT,P09,REL,FM,M3,17.86791246705817,%MAX
PAT,P10,INI,FM,M1,6.7213863497582516,%MAX
PAT,P10,INI,FM,M2,6.643699445582268,%MAX
PAT,P10,INI,FM,M3,6.78128152814843,%MAX
PAT,P10,REL,FM,M1,9.029912180170536,%MAX
PAT,P10,REL,FM,M2,10.070607934648653,%MAX
PAT,P10,REL,FM,M3,8.7642787334244,%MAX
PAT,P11,INI,FM,M1,11.530311843195962,%MAX
PAT,P11,INI,FM,M2,9.182497943390564,%MAX
PAT,P11,INI,FM,M3,7.490343016743753,%MAX
PAT,P11,REL,FM,M1,5.208082349388612,%MAX
PAT,P11,REL,FM,M2,5.51757340134903,%MAX
PAT,P11,REL,FM,M3,4.643494547288059,%MAX
PAT,P12,INI,FM,M1,15.76657381964408,%MAX
PAT,P12,INI,FM,M2,11.579369060329304,%MAX
PAT,P12,INI,FM,M3,12.935193212306649,%MAX
PAT,P12,REL,FM,M1,14.24089888755607,%MAX
PAT,P12,REL,FM,M2,14.397390240360401,%MAX
PAT,P12,REL,FM,M3,12.090292358430027,%MAX
PAT,P14,INI,FM,M1,18.849506962576843,%MAX
PAT,P14,INI,FM,M2,20.772671276186912,%MAX
PAT,P14,INI,FM,M3,20.264321111304863,%MAX
PAT,P14,REL,FM,M1,11.138136598916445,%MAX
PAT,P14,REL,FM,M2,12.363311612893671,%MAX
PAT,P14,REL,FM,M3,11.499400941236274,%MAX
PAT,P17,INI,FM,M1,30.4510573729659,%MAX
PAT,P17,INI,FM,M2,27.88174292917181,%MAX
PAT,P17,INI,FM,M3,27.207175161112094,%MAX
PAT,P17,REL,FM,M1,21.232592969013805,%MAX
PAT,P17,REL,FM,M2,24.883776408176992,%MAX
PAT,P17,REL,FM,M3,26.96505624103596,%MAX
PAT,P24,INI,FM,M1,11.944226869785648,%MAX
PAT,P24,INI,FM,M2,11.443836484679274,%MAX
PAT,P24,INI,FM,M3,37.95271668572976,%MAX
PAT,P24,REL,FM,M1,12.443673008399468,%MAX
PAT,P24,REL,FM,M2,10.390270594831673,%MAX
PAT,P24,REL,FM,M3,10.862295126423962,%MAX
PAT,P26,INI,FM,M1,20.594041946853757,%MAX
PAT,P26,INI,FM,M2,24.41972844788116,%MAX
PAT,P26,INI,FM,M3,85.29604438385888,%MAX
PAT,P26,REL,FM,M1,33.12812078999068,%MAX
PAT,P26,REL,FM,M2,28.081865816543548,%MAX
PAT,P26,REL,FM,M3,32.540713073018956,%MAX
PAT,P27,INI,FM,M1,11.038865382430664,%MAX
PAT,P27,INI,FM,M2,10.572375548781112,%MAX
PAT,P27,INI,FM,M3,34.2486896518881,%MAX
PAT,P27,REL,FM,M1,15.548744618693348,%MAX
PAT,P27,REL,FM,M2,14.61638076047102,%MAX
PAT,P27,REL,FM,M3,43.697955114605456,%MAX
PAT,P28,INI,FM,M1,7.967769551882442,%MAX
PAT,P28,INI,FM,M2,18.036517044340346,%MAX
PAT,P28,INI,FM,M3,70.34199914587484,%MAX
PAT,P28,REL,FM,M1,7.821229768238132,%MAX
PAT,P28,REL,FM,M2,8.129256856856374,%MAX
PAT,P28,REL,FM,M3,64.05823749750424,%MAX
PAT,P29,INI,FM,M1,17.66994415965359,%MAX
PAT,P29,INI,FM,M2,20.94217963997865,%MAX
PAT,P29,INI,FM,M3,40.40474051903624,%MAX
PAT,P29,REL,FM,M1,18.7512169580948,%MAX
PAT,P29,REL,FM,M2,14.046598447689739,%MAX
PAT,P29,REL,FM,M3,33.288174459597684,%MAX
PAT,P32,INI,FM,M1,9.644837191273652,%MAX
PAT,P32,INI,FM,M2,11.408979643386175,%MAX
PAT,P32,INI,FM,M3,27.637846945482902,%MAX
PAT,P32,REL,FM,M1,8.200219278945168,%MAX
PAT,P32,REL,FM,M2,17.57904287299136,%MAX
PAT,P32,REL,FM,M3,46.731255234939994,%MAX
PAT,P33,INI,FM,M1,13.142632827983547,%MAX
PAT,P33,INI,FM,M2,11.899964409496105,%MAX
PAT,P33,INI,FM,M3,24.7083147789363,%MAX
PAT,P33,REL,FM,M1,58.17747183483351,%MAX
PAT,P33,REL,FM,M2,20.20793372105657,%MAX
PAT,P33,REL,FM,M3,53.591840348228914,%MAX
PAT,P34,INI,FM,M1,24.4600901664304,%MAX
PAT,P34,INI,FM,M2,28.086434514996522,%MAX
PAT,P34,INI,FM,M3,46.43498606484654,%MAX
PAT,P34,REL,FM,M1,15.089031188480025,%MAX
PAT,P34,REL,FM,M2,18.87442047550902,%MAX
PAT,P34,REL,FM,M3,38.54225625190994,%MAX
PAT,P36,INI,FM,M1,11.043363235713795,%MAX
PAT,P36,INI,FM,M2,13.462451006242942,%MAX
PAT,P36,INI,FM,M3,39.023742495978176,%MAX
PAT,P36,REL,FM,M1,9.140146397622038,%MAX
PAT,P36,REL,FM,M2,8.582433278871326,%MAX
PAT,P36,REL,FM,M3,30.945680634155693,%MAX
PAT,P41,INI,FM,M1,10.926227069329919,%MAX
PAT,P41,INI,FM,M2,9.378432584864179,%MAX
PAT,P41,INI,FM,M3,25.540123678058393,%MAX
PAT,P41,REL,FM,M1,10.205399270028026,%MAX
PAT,P41,REL,FM,M2,9.699201790708884,%MAX
PAT,P41,REL,FM,M3,22.13330586004209,%MAX
PAT,P42,INI,FM,M1,3.381979337626822,%MAX
PAT,P42,INI,FM,M2,4.118472145661175,%MAX
PAT,P42,INI,FM,M3,4.492374692237205,%MAX
PAT,P42,REL,FM,M1,4.791453050366479,%MAX
PAT,P42,REL,FM,M2,4.027005920589337,%MAX
PAT,P42,REL,FM,M3,21.897009248279108,%MAX
PAT,P43,INI,FM,M1,7.059771519248501,%MAX
PAT,P43,INI,FM,M2,13.99792447456673,%MAX
PAT,P43,INI,FM,M3,33.53039752270905,%MAX
PAT,P43,REL,FM,M1,12.000168883638429,%MAX
PAT,P43,REL,FM,M2,10.522592211725867,%MAX
PAT,P43,REL,FM,M3,20.987785575890744,%MAX
PAT,P45,INI,FM,M1,19.175441598179095,%MAX
PAT,P45,INI,FM,M2,25.068597083608957,%MAX
PAT,P45,INI,FM,M3,50.712142386423366,%MAX
PAT,P45,REL,FM,M1,7.7022544757958045,%MAX
PAT,P45,REL,FM,M2,6.487833038131356,%MAX
PAT,P45,REL,FM,M3,5.53858437473323,%MAX
PAT,P47,INI,FM,M1,13.958899140325363,%MAX
PAT,P47,INI,FM,M2,10.684591118919995,%MAX
PAT,P47,INI,FM,M3,16.05082845731817,%MAX
PAT,P47,REL,FM,M1,10.336372338385852,%MAX
PAT,P47,REL,FM,M2,14.084520568007772,%MAX
PAT,P47,REL,FM,M3,30.237155843488715,%MAX
PAT,P50,INI,FM,M1,19.17474739575785,%MAX
PAT,P50,INI,FM,M2,17.328539286015825,%MAX
PAT,P50,INI,FM,M3,30.196853377661924,%MAX
PAT,P50,REL,FM,M1,13.711013884281499,%MAX
PAT,P50,REL,FM,M2,14.549365379015246,%MAX
PAT,P50,REL,FM,M3,12.543754415977899,%MAX
PAT,P51,INI,FM,M1,20.346847477719205,%MAX
PAT,P51,INI,FM,M2,18.411370910904587,%MAX
PAT,P51,INI,FM,M3,18.81042692674097,%MAX
PAT,P51,REL,FM,M1,24.558737745195575,%MAX
PAT,P51,REL,FM,M2,37.14481750170838,%MAX
PAT,P51,REL,FM,M3,34.42132714526478,%MAX
PAT,P53,INI,FM,M1,32.4875082322068,%MAX
PAT,P53,INI,FM,M2,21.819551159474333,%MAX
PAT,P53,INI,FM,M3,18.47042448688095,%MAX
PAT,P53,REL,FM,M1,12.71909731400664,%MAX
PAT,P53,REL,FM,M2,11.06786585279456,%MAX
PAT,P53,REL,FM,M3,68.27117437751605,%MAX
PAT,P54,INI,FM,M1,42.61783681084687,%MAX
PAT,P54,INI,FM,M2,29.62385442622865,%MAX
PAT,P54,INI,FM,M3,110.7171484286275,%MAX
PAT,P54,REL,FM,M1,54.02047689178252,%MAX
PAT,P54,REL,FM,M2,58.92438803214747,%MAX
PAT,P54,REL,FM,M3,72.79728681654228,%MAX
PAT,P58,INI,FM,M1,34.6754942465378,%MAX
PAT,P58,INI,FM,M2,32.20118769585401,%MAX
PAT,P58,INI,FM,M3,40.21276592638692,%MAX
PAT,P58,REL,FM,M1,23.2276477388496,%MAX
PAT,P58,REL,FM,M2,11.651011497103246,%MAX
PAT,P58,REL,FM,M3,9.262250957117837,%MAX
PAT,P61,INI,FM,M1,29.349180665753188,%MAX
PAT,P61,INI,FM,M2,21.716974845062047,%MAX
PAT,P61,INI,FM,M3,33.34348381635704,%MAX
PAT,P61,REL,FM,M1,24.912946045299687,%MAX
PAT,P61,REL,FM,M2,31.56034356870576,%MAX
PAT,P61,REL,FM,M3,30.738073148114754,%MAX
PAT,P62,INI,FM,M1,23.849301023558123,%MAX
PAT,P62,INI,FM,M2,33.54136121854287,%MAX
PAT,P62,INI,FM,M3,23.69885089615746,%MAX
PAT,P62,REL,FM,M1,25.238197826833634,%MAX
PAT,P62,REL,FM,M2,35.21882621886676,%MAX
PAT,P62,REL,FM,M3,34.30026957052876,%MAX
PAT,P63,INI,FM,M1,24.493375058321938,%MAX
PAT,P63,INI,FM,M2,27.57364412905488,%MAX
PAT,P63,INI,FM,M3,41.43470128504358,%MAX
PAT,P63,REL,FM,M1,16.90817184036883,%MAX
PAT,P63,REL,FM,M2,20.912012825549947,%MAX
PAT,P63,REL,FM,M3,24.890388310720652,%MAX
PAT,P65,INI,FM,M1,30.639075028597517,%MAX
PAT,P65,INI,FM,M2,29.659288166767695,%MAX
PAT,P65,INI,FM,M3,38.75201906117205,%MAX
PAT,P65,REL,FM,M1,38.14440327541022,%MAX
PAT,P65,REL,FM,M2,17.647768290766006,%MAX
PAT,P65,REL,FM,M3,51.51787897925312,%MAX
