Group,Participant,Session,Operator,Measure,Value,Unit
PAT,P09,INI,FM,M1,0.0119573693745833,V
PAT,P09,INI,FM,M2,0.0096734528903446,V
PAT,P09,INI,FM,M3,0.0104659125585237,V
PAT,P09,REL,FM,M1,0.0133676849635172,V
PAT,P09,REL,FM,M2,0.0123961207259027,V
PAT,P09,REL,FM,M3,0.0127147313315638,V
PAT,P10,INI,FM,M1,0.0150645523678498,V
PAT,P10,INI,FM,M2,0.0165092679443865,V
PAT,P10,INI,FM,M3,0.0152756322681496,V
PAT,P10,REL,FM,M1,0.0187939374038474,V
PAT,P10,REL,FM,M2,0.0189956949255521,V
PAT,P10,REL,FM,M3,0.0182314972731212,V
PAT,P11,INI,FM,M1,0.0100172881264207,V
PAT,P11,INI,FM,M2,0.0104022549529924,V
PAT,P11,INI,FM,M3,0.0124913778343324,V
PAT,P11,REL,FM,M1,0.0110825585154466,V
PAT,P11,REL,FM,M2,0.0113289019907449,V
PAT,P11,REL,FM,M3,0.0102145441574921,V
PAT,P12,INI,FM,M1,,V
PAT,P12,INI,FM,M2,0.0118693233974713,V
PAT,P12,INI,FM,M3,,V
PAT,P12,REL,FM,M1,0.0316222137781909,V
PAT,P12,REL,FM,M2,0.0258219459058473,V
PAT,P12,REL,FM,M3,0.0280901847919987,V
PAT,P14,INI,FM,M1,0.0122095605390737,V
PAT,P14,INI,FM,M2,0.0119641072485353,V
PAT,P14,INI,FM,M3,0.0134912362655339,V
PAT,P14,REL,FM,M1,0.0157637955079313,V
PAT,P14,REL,FM,M2,0.0142207077572467,V
PAT,P14,REL,FM,M3,,V
PAT,P17,INI,FM,M1,0.019283562717084,V
PAT,P17,INI,FM,M2,0.0170374666720472,V
PAT,P17,INI,FM,M3,0.016255587088451,V
PAT,P17,REL,FM,M1,0.0154438780471928,V
PAT,P17,REL,FM,M2,0.0164794772783155,V
PAT,P17,REL,FM,M3,0.0152224897213405,V
PAT,P24,INI,FM,M1,0.0158449263451558,V
PAT,P24,INI,FM,M2,0.0179614136824952,V
PAT,P24,INI,FM,M3,0.0172186088832372,V
PAT,P24,REL,FM,M1,0.0168465869190778,V
PAT,P24,REL,FM,M2,0.0177677303443653,V
PAT,P24,REL,FM,M3,0.0187168305643007,V
PAT,P26,INI,FM,M1,0.0126331380799569,V
PAT,P26,INI,FM,M2,0.0163185478316921,V
PAT,P26,INI,FM,M3,0.0118661752770519,V
PAT,P26,REL,FM,M1,0.0147490725091406,V
PAT,P26,REL,FM,M2,0.0111594552533059,V
PAT,P26,REL,FM,M3,0.0107379773483709,V
PAT,P27,INI,FM,M1,0.0182781754990655,V
PAT,P27,INI,FM,M2,0.0127401529789153,V
PAT,P27,INI,FM,M3,0.0168182421385973,V
PAT,P27,REL,FM,M1,0.0165840461050263,V
PAT,P27,REL,FM,M2,0.0131696333534167,V
PAT,P27,REL,FM,M3,0.0165482325846382,V
PAT,P28,INI,FM,M1,0.0096642757915777,V
PAT,P28,INI,FM,M2,,V
PAT,P28,INI,FM,M3,0.0093131409376476,V
PAT,P28,REL,FM,M1,0.0140481827085592,V
PAT,P28,REL,FM,M2,0.0117112607889203,V
PAT,P28,REL,FM,M3,0.0102402032911278,V
PAT,P29,INI,FM,M1,0.0251809450385111,V
PAT,P29,INI,FM,M2,0.0244144573145668,V
PAT,P29,INI,FM,M3,0.0228158316127419,V
PAT,P29,REL,FM,M1,0.0234455002470463,V
PAT,P29,REL,FM,M2,0.0265966454905494,V
PAT,P29,REL,FM,M3,0.0379699085253383,V
PAT,P32,INI,FM,M1,0.0096751469472098,V
PAT,P32,INI,FM,M2,0.016004151177986,V
PAT,P32,INI,FM,M3,0.0139714940581588,V
PAT,P32,REL,FM,M1,0.0190248661284558,V
PAT,P32,REL,FM,M2,0.0159908432166827,V
PAT,P32,REL,FM,M3,0.0157751872240283,V
PAT,P33,INI,FM,M1,0.0052105712834956,V
PAT,P33,INI,FM,M2,0.0054059223323814,V
PAT,P33,INI,FM,M3,0.0066238169018592,V
PAT,P33,REL,FM,M1,0.0049664652779632,V
PAT,P33,REL,FM,M2,0.0046238273384671,V
PAT,P33,REL,FM,M3,0.0074109369106134,V
PAT,P34,INI,FM,M1,,V
PAT,P34,INI,FM,M2,,V
PAT,P34,INI,FM,M3,,V
PAT,P34,REL,FM,M1,,V
PAT,P34,REL,FM,M2,,V
PAT,P34,REL,FM,M3,,V
PAT,P36,INI,FM,M1,0.0182572834840784,V
PAT,P36,INI,FM,M2,0.0202296488552991,V
PAT,P36,INI,FM,M3,0.0150103330802069,V
PAT,P36,REL,FM,M1,0.0222483188049924,V
PAT,P36,REL,FM,M2,0.0210130323788416,V
PAT,P36,REL,FM,M3,0.0184107780127547,V
PAT,P41,INI,FM,M1,0.0228937685879964,V
PAT,P41,INI,FM,M2,0.0250621590210834,V
PAT,P41,INI,FM,M3,0.0263813318247198,V
PAT,P41,REL,FM,M1,0.0177256175289785,V
PAT,P41,REL,FM,M2,0.0150680293700751,V
PAT,P41,REL,FM,M3,0.0144315076417616,V
PAT,P42,INI,FM,M1,0.0304562354006373,V
PAT,P42,INI,FM,M2,0.0248703869023024,V
PAT,P42,INI,FM,M3,0.0285807575734422,V
PAT,P42,REL,FM,M1,0.032327112529137,V
PAT,P42,REL,FM,M2,0.0312982421579136,V
PAT,P42,REL,FM,M3,0.0329765244588197,V
PAT,P43,INI,FM,M1,0.0180078926991509,V
PAT,P43,INI,FM,M2,0.0178986306206165,V
PAT,P43,INI,FM,M3,0.0183844218882688,V
PAT,P43,REL,FM,M1,0.0209951562612969,V
PAT,P43,REL,FM,M2,0.024379183035981,V
PAT,P43,REL,FM,M3,0.0207652631246232,V
PAT,P45,INI,FM,M1,,V
PAT,P45,INI,FM,M2,,V
PAT,P45,INI,FM,M3,,V
PAT,P45,REL,FM,M1,,V
PAT,P45,REL,FM,M2,,V
PAT,P45,REL,FM,M3,,V
PAT,P47,INI,FM,M1,0.0112325964374256,V
PAT,P47,INI,FM,M2,0.010862543370753,V
PAT,P47,INI,FM,M3,0.0118214714029591,V
PAT,P47,REL,FM,M1,0.0116787360582978,V
PAT,P47,REL,FM,M2,0.0108113731556435,V
PAT,P47,REL,FM,M3,0.0086549519091668,V
PAT,P50,INI,FM,M1,0.0164135098666995,V
PAT,P50,INI,FM,M2,0.0212841696924743,V
PAT,P50,INI,FM,M3,0.0181498180161821,V
PAT,P50,REL,FM,M1,0.0201923754974604,V
PAT,P50,REL,FM,M2,0.0226969405371487,V
PAT,P50,REL,FM,M3,0.0220161544717057,V
PAT,P51,INI,FM,M1,0.0074487431095937,V
PAT,P51,INI,FM,M2,0.0099066992288784,V
PAT,P51,INI,FM,M3,0.009101608857701,V
PAT,P51,REL,FM,M1,0.0114517229940394,V
PAT,P51,REL,FM,M2,0.0074044608675883,V
PAT,P51,REL,FM,M3,0.0108191825306805,V
PAT,P53,INI,FM,M1,0.016194433603011,V
PAT,P53,INI,FM,M2,0.0132432684125612,V
PAT,P53,INI,FM,M3,0.0163035832824191,V
PAT,P53,REL,FM,M1,0.0161419909891243,V
PAT,P53,REL,FM,M2,0.0128496837739416,V
PAT,P53,REL,FM,M3,0.0172575071207795,V
PAT,P54,INI,FM,M1,0.0225807153289203,V
PAT,P54,INI,FM,M2,0.0260363740424902,V
PAT,P54,INI,FM,M3,0.0262428666278643,V
PAT,P54,REL,FM,M1,0.0185329290347879,V
PAT,P54,REL,FM,M2,0.0156033181103183,V
PAT,P54,REL,FM,M3,0.0123293001744848,V
PAT,P58,INI,FM,M1,0.0066026741444694,V
PAT,P58,INI,FM,M2,0.0057971412340861,V
PAT,P58,INI,FM,M3,0.0058815831252942,V
PAT,P58,REL,FM,M1,0.0854214298330969,V
PAT,P58,REL,FM,M2,0.1433856239006353,V
PAT,P58,REL,FM,M3,0.1331344884584822,V
PAT,P61,INI,FM,M1,0.0149220489458057,V
PAT,P61,INI,FM,M2,0.0170624194561727,V
PAT,P61,INI,FM,M3,0.0195921388743414,V
PAT,P61,REL,FM,M1,0.0136100552656406,V
PAT,P61,REL,FM,M2,0.0139318649504123,V
PAT,P61,REL,FM,M3,0.0141186052725869,V
PAT,P62,INI,FM,M1,0.0115671016947431,V
PAT,P62,INI,FM,M2,0.0087139932496122,V
PAT,P62,INI,FM,M3,0.0112445016472932,V
PAT,P62,REL,FM,M1,0.0155387483834686,V
PAT,P62,REL,FM,M2,0.0138275806677052,V
PAT,P62,REL,FM,M3,0.0124848460333171,V
PAT,P63,INI,FM,M1,,V
PAT,P63,INI,FM,M2,,V
PAT,P63,INI,FM,M3,,V
PAT,P63,REL,FM,M1,,V
PAT,P63,REL,FM,M2,0.0128075464038048,V
PAT,P63,REL,FM,M3,0.0077041561726086,V
PAT,P65,INI,FM,M1,0.018858173038466,V
PAT,P65,INI,FM,M2,0.0203830516016394,V
PAT,P65,INI,FM,M3,0.0197140067125873,V
PAT,P65,REL,FM,M1,0.0209827954965487,V
PAT,P65,REL,FM,M2,0.0215147243392311,V
PAT,P65,REL,FM,M3,0.0195922084659681,V
