Group,Participant,Session,Operator,Measure,Value,Unit
PAT,P09,INI,FM,M1,26.56637412164815,%subMVIC
PAT,P09,INI,FM,M2,24.086780738971683,%subMVIC
PAT,P09,INI,FM,M3,25.294735797645387,%subMVIC
PAT,P09,REL,FM,M1,29.335930716157215,%subMVIC
PAT,P09,REL,FM,M2,31.03330175635537,%subMVIC
PAT,P09,REL,FM,M3,31.066203072188035,%subMVIC
PAT,P10,INI,FM,M1,51.46601820606988,%subMVIC
PAT,P10,INI,FM,M2,51.075218562136726,%subMVIC
PAT,P10,INI,FM,M3,49.8565841020159,%subMVIC
PAT,P10,REL,FM,M1,35.59748978897129,%subMVIC
PAT,P10,REL,FM,M2,37.66423039998618,%subMVIC
PAT,P10,REL,FM,M3,40.104704640809906,%subMVIC
PAT,P11,INI,FM,M1,85.41386044522638,%subMVIC
PAT,P11,INI,FM,M2,85.23169275700569,%subMVIC
PAT,P11,INI,FM,M3,79.99537693412675,%subMVIC
PAT,P11,REL,FM,M1,94.16880484597964,%subMVIC
PAT,P11,REL,FM,M2,97.71531418197196,%subMVIC
PAT,P11,REL,FM,M3,91.17669987493741,%subMVIC
PAT,P12,INI,FM,M1,19.175604419396088,%subMVIC
PAT,P12,INI,FM,M2,20.553515063439786,%subMVIC
PAT,P12,INI,FM,M3,24.494768082544336,%subMVIC
PAT,P12,REL,FM,M1,14.39700655268676,%subMVIC
PAT,P12,REL,FM,M2,14.154013042535633,%subMVIC
PAT,P12,REL,FM,M3,13.664788678869407,%subMVIC
PAT,P14,INI,FM,M1,60.581986252712646,%subMVIC
PAT,P14,INI,FM,M2,68.19777309917691,%subMVIC
PAT,P14,INI,FM,M3,75.88216252787588,%subMVIC
PAT,P14,REL,FM,M1,128.94248577164564,%subMVIC
PAT,P14,REL,FM,M2,149.9715624924173,%subMVIC
PAT,P14,REL,FM,M3,127.12793391479003,%subMVIC
PAT,P17,INI,FM,M1,22.72915336595066,%subMVIC
PAT,P17,INI,FM,M2,25.3957728900316,%subMVIC
PAT,P17,INI,FM,M3,25.866896611142586,%subMVIC
PAT,P17,REL,FM,M1,18.605292815829642,%subMVIC
PAT,P17,REL,FM,M2,17.748748881585545,%subMVIC
PAT,P17,REL,FM,M3,21.162641420980115,%subMVIC
PAT,P24,INI,FM,M1,18.74405086939373,%subMVIC
PAT,P24,INI,FM,M2,18.34880171508204,%subMVIC
PAT,P24,INI,FM,M3,15.667336626729078,%subMVIC
PAT,P24,REL,FM,M1,29.732608498835692,%subMVIC
PAT,P24,REL,FM,M2,27.846917650122048,%subMVIC
PAT,P24,REL,FM,M3,27.31320071918578,%subMVIC
PAT,P26,INI,FM,M1,69.61874209818801,%subMVIC
PAT,P26,INI,FM,M2,77.77359699200521,%subMVIC
PAT,P26,INI,FM,M3,64.09578905194508,%subMVIC
PAT,P26,REL,FM,M1,42.07748567932837,%subMVIC
PAT,P26,REL,FM,M2,38.043996636487165,%subMVIC
PAT,P26,REL,FM,M3,41.32910789790411,%subMVIC
PAT,P27,INI,FM,M1,41.837865801586254,%subMVIC
PAT,P27,INI,FM,M2,41.52431896355791,%subMVIC
PAT,P27,INI,FM,M3,43.80275137496243,%subMVIC
PAT,P27,REL,FM,M1,113.5167733399289,%subMVIC
PAT,P27,REL,FM,M2,89.82160576112604,%subMVIC
PAT,P27,REL,FM,M3,107.0355051875271,%subMVIC
PAT,P28,INI,FM,M1,59.24763331846361,%subMVIC
PAT,P28,INI,FM,M2,62.7490518243503,%subMVIC
PAT,P28,INI,FM,M3,55.71644445080912,%subMVIC
PAT,P28,REL,FM,M1,80.09438422383461,%subMVIC
PAT,P28,REL,FM,M2,80.92233572318611,%subMVIC
PAT,P28,REL,FM,M3,68.17404463011552,%subMVIC
PAT,P29,INI,FM,M1,34.18659931280825,%subMVIC
PAT,P29,INI,FM,M2,41.98277116344409,%subMVIC
PAT,P29,INI,FM,M3,47.28622337391268,%subMVIC
PAT,P29,REL,FM,M1,28.343512436162012,%subMVIC
PAT,P29,REL,FM,M2,26.852792971583668,%subMVIC
PAT,P29,REL,FM,M3,26.76229308622926,%subMVIC
PAT,P32,INI,FM,M1,33.64368717698583,%subMVIC
PAT,P32,INI,FM,M2,34.42758896228231,%subMVIC
PAT,P32,INI,FM,M3,32.133831726807955,%subMVIC
PAT,P32,REL,FM,M1,42.47340354283588,%subMVIC
PAT,P32,REL,FM,M2,57.108668580887,%subMVIC
PAT,P32,REL,FM,M3,49.04901128384978,%subMVIC
PAT,P33,INI,FM,M1,50.777533836917364,%subMVIC
PAT,P33,INI,FM,M2,51.10963666759063,%subMVIC
PAT,P33,INI,FM,M3,47.51952180641339,%subMVIC
PAT,P33,REL,FM,M1,53.87947234211832,%subMVIC
PAT,P33,REL,FM,M2,51.28405680640431,%subMVIC
PAT,P33,REL,FM,M3,53.03424116918902,%subMVIC
PAT,P34,INI,FM,M1,45.827180520775514,%subMVIC
PAT,P34,INI,FM,M2,42.157226812064366,%subMVIC
PAT,P34,INI,FM,M3,47.570411585859574,%subMVIC
PAT,P34,REL,FM,M1,40.424658786377485,%subMVIC
PAT,P34,REL,FM,M2,32.602436247912756,%subMVIC
PAT,P34,REL,FM,M3,39.22890009794607,%subMVIC
PAT,P36,INI,FM,M1,19.867365933908403,%subMVIC
PAT,P36,INI,FM,M2,19.848159612065267,%subMVIC
PAT,P36,INI,FM,M3,13.958096399986374,%subMVIC
PAT,P36,REL,FM,M1,23.263317737466977,%subMVIC
PAT,P36,REL,FM,M2,18.39084507189458,%subMVIC
PAT,P36,REL,FM,M3,18.349226917508044,%subMVIC
PAT,P41,INI,FM,M1,86.10056934772689,%subMVIC
PAT,P41,INI,FM,M2,75.54309583553214,%subMVIC
PAT,P41,INI,FM,M3,79.1651627976026,%subMVIC
PAT,P41,REL,FM,M1,61.30337821217203,%subMVIC
PAT,P41,REL,FM,M2,75.72350735704403,%subMVIC
PAT,P41,REL,FM,M3,61.27655861001808,%subMVIC
PAT,P42,INI,FM,M1,80.22337118270377,%subMVIC
PAT,P42,INI,FM,M2,130.9627208996981,%subMVIC
PAT,P42,INI,FM,M3,112.87458326060046,%subMVIC
PAT,P42,REL,FM,M1,69.5051627050906,%subMVIC
PAT,P42,REL,FM,M2,62.45578294260749,%subMVIC
PAT,P42,REL,FM,M3,44.89234100411543,%subMVIC
PAT,P43,INI,FM,M1,95.18957180118396,%subMVIC
PAT,P43,INI,FM,M2,94.45246111123835,%subMVIC
PAT,P43,INI,FM,M3,105.06614648791468,%subMVIC
PAT,P43,REL,FM,M1,41.9651101224777,%subMVIC
PAT,P43,REL,FM,M2,45.143116498846304,%subMVIC
PAT,P43,REL,FM,M3,38.529056679947985,%subMVIC
PAT,P45,INI,FM,M1,18.55076816760207,%subMVIC
PAT,P45,INI,FM,M2,18.06309064242013,%subMVIC
PAT,P45,INI,FM,M3,15.837855788967062,%subMVIC
PAT,P45,REL,FM,M1,17.957082235229944,%subMVIC
PAT,P45,REL,FM,M2,18.596241789688357,%subMVIC
PAT,P45,REL,FM,M3,20.161666819658993,%subMVIC
PAT,P47,REL,FM,M1,52.82434088806289,%subMVIC
PAT,P47,REL,FM,M2,48.96285140209602,%subMVIC
PAT,P47,REL,FM,M3,49.10425738087573,%subMVIC
PAT,P50,INI,FM,M1,62.95040893041207,%subMVIC
PAT,P50,INI,FM,M2,74.51127121767551,%subMVIC
PAT,P50,INI,FM,M3,59.149455690757414,%subMVIC
PAT,P50,REL,FM,M1,31.151335998623807,%subMVIC
PAT,P50,REL,FM,M2,32.0930574780492,%subMVIC
PAT,P50,REL,FM,M3,31.04362050956639,%subMVIC
PAT,P51,INI,FM,M1,63.63847298806837,%subMVIC
PAT,P51,INI,FM,M2,61.16009442674411,%subMVIC
PAT,P51,INI,FM,M3,64.2923710685052,%subMVIC
PAT,P51,REL,FM,M1,44.16397977495118,%subMVIC
PAT,P51,REL,FM,M2,47.55736952268551,%subMVIC
PAT,P51,REL,FM,M3,36.84444944065899,%subMVIC
PAT,P53,INI,FM,M1,50.92543790184949,%subMVIC
PAT,P53,INI,FM,M2,51.75538710412726,%subMVIC
PAT,P53,INI,FM,M3,51.88647275515166,%subMVIC
PAT,P53,REL,FM,M1,68.8737591558072,%subMVIC
PAT,P53,REL,FM,M2,72.5561458191064,%subMVIC
PAT,P53,REL,FM,M3,61.613623000794064,%subMVIC
PAT,P54,INI,FM,M1,60.08008551478797,%subMVIC
PAT,P54,INI,FM,M2,87.54869759179059,%subMVIC
PAT,P54,INI,FM,M3,97.71935166582384,%subMVIC
PAT,P54,REL,FM,M1,95.71267262775294,%subMVIC
PAT,P54,REL,FM,M2,84.02580161543042,%subMVIC
PAT,P54,REL,FM,M3,100.09477459605974,%subMVIC
PAT,P58,INI,FM,M1,56.95148267389829,%subMVIC
PAT,P58,INI,FM,M2,63.91333557819541,%subMVIC
PAT,P58,INI,FM,M3,79.41488281100725,%subMVIC
PAT,P58,REL,FM,M1,70.82939959062014,%subMVIC
PAT,P58,REL,FM,M2,79.30943062503407,%subMVIC
PAT,P58,REL,FM,M3,71.29477816070202,%subMVIC
PAT,P61,INI,FM,M1,34.502738461757204,%subMVIC
PAT,P61,INI,FM,M2,33.98680374239447,%subMVIC
PAT,P61,INI,FM,M3,32.347143353409415,%subMVIC
PAT,P61,REL,FM,M1,22.008103058812697,%subMVIC
PAT,P61,REL,FM,M2,22.290309925279416,%subMVIC
PAT,P61,REL,FM,M3,21.03493621375184,%subMVIC
PAT,P62,INI,FM,M1,5.2054306436343065,%subMVIC
PAT,P62,INI,FM,M2,5.247862370260995,%subMVIC
PAT,P62,INI,FM,M3,5.1729811834115935,%subMVIC
PAT,P62,REL,FM,M1,14.258554045970973,%subMVIC
PAT,P62,REL,FM,M2,13.091650217422664,%subMVIC
PAT,P62,REL,FM,M3,16.2871748836936,%subMVIC
PAT,P63,INI,FM,M1,76.99147031547771,%subMVIC
PAT,P63,INI,FM,M2,74.7237513923967,%subMVIC
PAT,P63,INI,FM,M3,73.01278292380545,%subMVIC
PAT,P63,REL,FM,M1,29.35920593299925,%subMVIC
PAT,P63,REL,FM,M2,31.707654883951484,%subMVIC
PAT,P63,REL,FM,M3,34.29701249728457,%subMVIC
PAT,P65,INI,FM,M1,19.857286547232526,%subMVIC
PAT,P65,INI,FM,M2,15.35210509803867,%subMVIC
PAT,P65,INI,FM,M3,17.541333177360222,%subMVIC
PAT,P65,REL,FM,M1,13.300811747465369,%subMVIC
PAT,P65,REL,FM,M2,16.752704115735487,%subMVIC
PAT,P65,REL,FM,M3,21.167759422232308,%subMVIC
