Group,Participant,Session,Operator,Measure,Value,Unit
PAT,P09,INI,FM,M1,7.750704664143788,%subMVIC
PAT,P09,INI,FM,M2,7.937418642054732,%subMVIC
PAT,P09,INI,FM,M3,7.936593411202619,%subMVIC
PAT,P09,REL,FM,M1,6.397545160679295,%subMVIC
PAT,P09,REL,FM,M2,6.293454212967708,%subMVIC
PAT,P09,REL,FM,M3,6.320737750259857,%subMVIC
PAT,P10,INI,FM,M1,39.3667249880473,%subMVIC
PAT,P10,INI,FM,M2,38.472246640408144,%subMVIC
PAT,P10,INI,FM,M3,38.67812087412198,%subMVIC
PAT,P10,REL,FM,M1,7.709994500259078,%subMVIC
PAT,P10,REL,FM,M2,7.672785768152322,%subMVIC
PAT,P10,REL,FM,M3,7.862906322354681,%subMVIC
PAT,P11,INI,FM,M1,46.41786196795806,%subMVIC
PAT,P11,INI,FM,M2,32.0028623234228,%subMVIC
PAT,P11,INI,FM,M3,25.73493933016037,%subMVIC
PAT,P11,REL,FM,M1,11.355591329247444,%subMVIC
PAT,P11,REL,FM,M2,10.16705278441852,%subMVIC
PAT,P11,REL,FM,M3,10.238018020149369,%subMVIC
PAT,P12,INI,FM,M1,25.42099171427824,%subMVIC
PAT,P12,INI,FM,M2,24.415946254000357,%subMVIC
PAT,P12,INI,FM,M3,25.44722313307357,%subMVIC
PAT,P12,REL,FM,M1,14.29854263760696,%subMVIC
PAT,P12,REL,FM,M2,14.160705710455533,%subMVIC
PAT,P12,REL,FM,M3,15.238041784810726,%subMVIC
PAT,P14,INI,FM,M1,13.2104151405157,%subMVIC
PAT,P14,INI,FM,M2,12.61907889206563,%subMVIC
PAT,P14,INI,FM,M3,12.620835144551462,%subMVIC
PAT,P14,REL,FM,M1,10.920098463672764,%subMVIC
PAT,P14,REL,FM,M2,10.89273722676095,%subMVIC
PAT,P14,REL,FM,M3,11.070094440470063,%subMVIC
PAT,P17,INI,FM,M1,12.832217416304935,%subMVIC
PAT,P17,INI,FM,M2,13.21831046559316,%subMVIC
PAT,P17,INI,FM,M3,13.688696682454912,%subMVIC
PAT,P17,REL,FM,M1,9.813405469315908,%subMVIC
PAT,P17,REL,FM,M2,11.094585317299032,%subMVIC
PAT,P17,REL,FM,M3,11.272671097606333,%subMVIC
PAT,P24,INI,FM,M1,8.536933766886253,%subMVIC
PAT,P24,INI,FM,M2,8.598007448385399,%subMVIC
PAT,P24,INI,FM,M3,8.54599311845165,%subMVIC
PAT,P24,REL,FM,M1,6.000931712217506,%subMVIC
PAT,P24,REL,FM,M2,6.11389150542753,%subMVIC
PAT,P24,REL,FM,M3,6.080964454746083,%subMVIC
PAT,P26,INI,FM,M1,16.296556445414897,%subMVIC
PAT,P26,INI,FM,M2,18.176344813680828,%subMVIC
PAT,P26,INI,FM,M3,16.73536166909947,%subMVIC
PAT,P26,REL,FM,M1,16.29240407353943,%subMVIC
PAT,P26,REL,FM,M2,15.647915002814672,%subMVIC
PAT,P26,REL,FM,M3,15.875623679011614,%subMVIC
PAT,P27,INI,FM,M1,9.638223668500038,%subMVIC
PAT,P27,INI,FM,M2,9.668137645598296,%subMVIC
PAT,P27,INI,FM,M3,10.6750690408707,%subMVIC
PAT,P27,REL,FM,M1,8.051773290684844,%subMVIC
PAT,P27,REL,FM,M2,7.973364996357694,%subMVIC
PAT,P27,REL,FM,M3,7.556304526198676,%subMVIC
PAT,P28,INI,FM,M1,18.21043994181724,%subMVIC
PAT,P28,INI,FM,M2,17.148366562308503,%subMVIC
PAT,P28,INI,FM,M3,15.656993222387712,%subMVIC
PAT,P28,REL,FM,M1,8.956884014684768,%subMVIC
PAT,P28,REL,FM,M2,8.708440322672912,%subMVIC
PAT,P28,REL,FM,M3,8.119021378553883,%subMVIC
PAT,P29,INI,FM,M1,1.8483418506429807,%subMVIC
PAT,P29,INI,FM,M2,2.0370461924361445,%subMVIC
PAT,P29,INI,FM,M3,2.1490161390385003,%subMVIC
PAT,P29,REL,FM,M1,3.131249759844975,%subMVIC
PAT,P29,REL,FM,M2,2.9794276159862227,%subMVIC
PAT,P29,REL,FM,M3,1.7633574862345671,%subMVIC
PAT,P32,INI,FM,M1,6.718113883475627,%subMVIC
PAT,P32,INI,FM,M2,6.8915534311388855,%subMVIC
PAT,P32,INI,FM,M3,7.137954805771935,%subMVIC
PAT,P32,REL,FM,M1,14.981850192651436,%subMVIC
PAT,P32,REL,FM,M2,15.21175557447488,%subMVIC
PAT,P32,REL,FM,M3,15.202775393028428,%subMVIC
PAT,P33,INI,FM,M1,25.462899140295647,%subMVIC
PAT,P33,INI,FM,M2,23.99064155934796,%subMVIC
PAT,P33,INI,FM,M3,21.816204292447107,%subMVIC
PAT,P33,REL,FM,M1,24.922558875997897,%subMVIC
PAT,P33,REL,FM,M2,21.402586121820526,%subMVIC
PAT,P33,REL,FM,M3,19.11555487013891,%subMVIC
PAT,P34,INI,FM,M1,13.122453037881463,%subMVIC
PAT,P34,INI,FM,M2,12.900739370799936,%subMVIC
PAT,P34,INI,FM,M3,12.60060917698613,%subMVIC
PAT,P34,REL,FM,M1,13.505598383147811,%subMVIC
PAT,P34,REL,FM,M2,13.118945048531096,%subMVIC
PAT,P34,REL,FM,M3,12.541519501971427,%subMVIC
PAT,P36,INI,FM,M1,2.787101978795719,%subMVIC
PAT,P36,INI,FM,M2,2.7597148553105977,%subMVIC
PAT,P36,INI,FM,M3,2.799392148301449,%subMVIC
PAT,P36,REL,FM,M1,2.7738959156933296,%subMVIC
PAT,P36,REL,FM,M2,2.774858435340012,%subMVIC
PAT,P36,REL,FM,M3,2.796953872728243,%subMVIC
PAT,P41,INI,FM,M1,3.045902724748586,%subMVIC
PAT,P41,INI,FM,M2,3.1191974440884374,%subMVIC
PAT,P41,INI,FM,M3,3.1156803759052414,%subMVIC
PAT,P41,REL,FM,M1,3.759166416231011,%subMVIC
PAT,P41,REL,FM,M2,3.894441771425548,%subMVIC
PAT,P41,REL,FM,M3,4.022141064037556,%subMVIC
PAT,P42,INI,FM,M1,5.080964600286364,%subMVIC
PAT,P42,INI,FM,M2,4.795628216580661,%subMVIC
PAT,P42,INI,FM,M3,4.695658595746902,%subMVIC
PAT,P42,REL,FM,M1,3.515295814583908,%subMVIC
PAT,P42,REL,FM,M2,3.536341170178731,%subMVIC
PAT,P42,REL,FM,M3,3.547613372369915,%subMVIC
PAT,P43,INI,FM,M1,2.7822170147069456,%subMVIC
PAT,P43,INI,FM,M2,2.721244352684247,%subMVIC
PAT,P43,INI,FM,M3,2.7439144738879877,%subMVIC
PAT,P43,REL,FM,M1,4.50548520662022,%subMVIC
PAT,P43,REL,FM,M2,4.416699578219278,%subMVIC
PAT,P43,REL,FM,M3,4.380003971063158,%subMVIC
PAT,P45,INI,FM,M1,10.546832755259018,%subMVIC
PAT,P45,INI,FM,M2,10.511386921841977,%subMVIC
PAT,P45,INI,FM,M3,10.585551590796596,%subMVIC
PAT,P45,REL,FM,M1,9.709170145565317,%subMVIC
PAT,P45,REL,FM,M2,9.503381681831607,%subMVIC
PAT,P45,REL,FM,M3,9.334657991321045,%subMVIC
PAT,P47,INI,FM,M1,2.463306265685941,%subMVIC
PAT,P47,INI,FM,M2,2.300214858152331,%subMVIC
PAT,P47,INI,FM,M3,2.4617772836772778,%subMVIC
PAT,P47,REL,FM,M1,2.918309183926443,%subMVIC
PAT,P47,REL,FM,M2,2.5721678360072997,%subMVIC
PAT,P47,REL,FM,M3,2.5252771521719835,%subMVIC
PAT,P50,INI,FM,M1,10.55176359551602,%subMVIC
PAT,P50,INI,FM,M2,10.778180985845635,%subMVIC
PAT,P50,INI,FM,M3,11.42561868704318,%subMVIC
PAT,P50,REL,FM,M1,7.602530550154626,%subMVIC
PAT,P50,REL,FM,M2,8.813639882730534,%subMVIC
PAT,P50,REL,FM,M3,8.532042235832305,%subMVIC
PAT,P51,INI,FM,M1,9.20653056562354,%subMVIC
PAT,P51,INI,FM,M2,9.275141057555384,%subMVIC
PAT,P51,INI,FM,M3,9.702178748074145,%subMVIC
PAT,P51,REL,FM,M1,10.10761788156198,%subMVIC
PAT,P51,REL,FM,M2,10.331492143748896,%subMVIC
PAT,P51,REL,FM,M3,10.278843323787283,%subMVIC
PAT,P53,INI,FM,M1,5.998133998640262,%subMVIC
PAT,P53,INI,FM,M2,6.039266055272739,%subMVIC
PAT,P53,INI,FM,M3,5.9801777525518505,%subMVIC
PAT,P53,REL,FM,M1,12.598624046944536,%subMVIC
PAT,P53,REL,FM,M2,12.598175693070973,%subMVIC
PAT,P53,REL,FM,M3,12.550131362639863,%subMVIC
PAT,P54,INI,FM,M1,5.715913916142595,%subMVIC
PAT,P54,INI,FM,M2,5.760547046629134,%subMVIC
PAT,P54,INI,FM,M3,5.716522210974149,%subMVIC
PAT,P54,REL,FM,M1,3.7424311758815887,%subMVIC
PAT,P54,REL,FM,M2,3.8232021029761176,%subMVIC
PAT,P54,REL,FM,M3,3.981166747667226,%subMVIC
PAT,P58,INI,FM,M1,8.653384813936299,%subMVIC
PAT,P58,INI,FM,M2,8.525404186463634,%subMVIC
PAT,P58,INI,FM,M3,8.600398296898607,%subMVIC
PAT,P58,REL,FM,M1,35.80906420685273,%subMVIC
PAT,P58,REL,FM,M2,22.104080773905373,%subMVIC
PAT,P58,REL,FM,M3,18.77376431048861,%subMVIC
PAT,P61,REL,FM,M1,12.426527458426062,%subMVIC
PAT,P61,REL,FM,M2,8.96303355577508,%subMVIC
PAT,P61,REL,FM,M3,12.701941274145256,%subMVIC
PAT,P62,INI,FM,M1,8.150312377004612,%subMVIC
PAT,P62,INI,FM,M2,8.523017403927415,%subMVIC
PAT,P62,INI,FM,M3,8.584561959909038,%subMVIC
PAT,P62,REL,FM,M1,6.543464449806287,%subMVIC
PAT,P62,REL,FM,M2,6.3369130193746965,%subMVIC
PAT,P62,REL,FM,M3,6.564100053818907,%subMVIC
PAT,P63,INI,FM,M1,6.032673607666419,%subMVIC
PAT,P63,INI,FM,M2,6.283391133271653,%subMVIC
PAT,P63,INI,FM,M3,7.020201481927539,%subMVIC
PAT,P63,REL,FM,M1,10.419788431587,%subMVIC
PAT,P63,REL,FM,M2,11.49086120177741,%subMVIC
PAT,P63,REL,FM,M3,11.10361195406186,%subMVIC
PAT,P65,INI,FM,M1,13.028299729133746,%subMVIC
PAT,P65,INI,FM,M2,13.99444927411636,%subMVIC
PAT,P65,INI,FM,M3,13.959285386514711,%subMVIC
PAT,P65,REL,FM,M1,18.170739873652927,%subMVIC
PAT,P65,REL,FM,M2,17.753920067723527,%subMVIC
PAT,P65,REL,FM,M3,17.91055518589317,%subMVIC
