Group,Participant,Session,Operator,Measure,Value,Unit
PAT,P09,INI,FM,M1,37.043682545522564,%MAX
PAT,P09,INI,FM,M2,40.61461929215161,%MAX
PAT,P09,INI,FM,M3,34.86356185140912,%MAX
PAT,P09,REL,FM,M1,20.767578764857394,%MAX
PAT,P09,REL,FM,M2,21.281048791870496,%MAX
PAT,P09,REL,FM,M3,20.266132354606448,%MAX
PAT,P10,INI,FM,M1,9.889888980217783,%MAX
PAT,P10,INI,FM,M2,11.365859420098747,%MAX
PAT,P10,INI,FM,M3,12.355566031787538,%MAX
PAT,P10,REL,FM,M1,12.503396084862093,%MAX
PAT,P10,REL,FM,M2,14.483346586998454,%MAX
PAT,P10,REL,FM,M3,10.293492920450051,%MAX
PAT,P11,INI,FM,M1,7.558344274932395,%MAX
PAT,P11,INI,FM,M2,13.196181319228224,%MAX
PAT,P11,INI,FM,M3,5.450731570258081,%MAX
PAT,P11,REL,FM,M1,12.348643503250457,%MAX
PAT,P11,REL,FM,M2,9.260665770342404,%MAX
PAT,P11,REL,FM,M3,6.513979881720111,%MAX
PAT,P12,INI,FM,M1,10.155943534874755,%MAX
PAT,P12,INI,FM,M2,10.62606988611165,%MAX
PAT,P12,INI,FM,M3,15.050112872385322,%MAX
PAT,P12,REL,FM,M1,12.166324892004495,%MAX
PAT,P12,REL,FM,M2,11.5636758516842,%MAX
PAT,P12,REL,FM,M3,19.012938422424853,%MAX
PAT,P14,INI,FM,M1,37.7659874077839,%MAX
PAT,P14,INI,FM,M2,30.927213839007035,%MAX
PAT,P14,INI,FM,M3,35.43268979882074,%MAX
PAT,P14,REL,FM,M1,25.447328919700585,%MAX
PAT,P14,REL,FM,M2,22.65981477142009,%MAX
PAT,P14,REL,FM,M3,25.287974682545364,%MAX
PAT,P17,INI,FM,M1,60.89351519716081,%MAX
PAT,P17,INI,FM,M2,30.30627124298916,%MAX
PAT,P17,INI,FM,M3,30.59906502330163,%MAX
PAT,P17,REL,FM,M1,29.676253606678316,%MAX
PAT,P17,REL,FM,M2,22.45125337140536,%MAX
PAT,P17,REL,FM,M3,39.455106546080124,%MAX
PAT,P24,INI,FM,M1,27.70078131606953,%MAX
PAT,P24,INI,FM,M2,35.22447378969717,%MAX
PAT,P24,INI,FM,M3,32.75890817722352,%MAX
PAT,P24,REL,FM,M1,20.534532767744857,%MAX
PAT,P24,REL,FM,M2,18.600453323361883,%MAX
PAT,P24,REL,FM,M3,22.37297483262167,%MAX
PAT,P26,INI,FM,M1,30.505154114829338,%MAX
PAT,P26,INI,FM,M2,35.00113567087518,%MAX
PAT,P26,INI,FM,M3,46.69869067283323,%MAX
PAT,P26,REL,FM,M1,24.655543985323057,%MAX
PAT,P26,REL,FM,M2,15.870952375273523,%MAX
PAT,P26,REL,FM,M3,37.502713993317585,%MAX
PAT,P27,INI,FM,M1,20.91288734260399,%MAX
PAT,P27,INI,FM,M2,16.892103747100936,%MAX
PAT,P27,INI,FM,M3,54.336198980579724,%MAX
PAT,P27,REL,FM,M1,16.02520849266825,%MAX
PAT,P27,REL,FM,M2,16.416334146128577,%MAX
PAT,P27,REL,FM,M3,57.12133893931497,%MAX
PAT,P28,INI,FM,M1,10.30512545726615,%MAX
PAT,P28,INI,FM,M2,14.637765700586538,%MAX
PAT,P28,INI,FM,M3,43.05053512885722,%MAX
PAT,P28,REL,FM,M1,19.176918183937726,%MAX
PAT,P28,REL,FM,M2,19.592951342548393,%MAX
PAT,P28,REL,FM,M3,60.18183685284456,%MAX
PAT,P29,INI,FM,M1,23.182985715609465,%MAX
PAT,P29,INI,FM,M2,28.92461614157552,%MAX
PAT,P29,INI,FM,M3,50.3447582819681,%MAX
PAT,P29,REL,FM,M1,23.006278802830177,%MAX
PAT,P29,REL,FM,M2,14.31811988979573,%MAX
PAT,P29,REL,FM,M3,55.28208353248732,%MAX
PAT,P32,INI,FM,M1,6.832694787784965,%MAX
PAT,P32,INI,FM,M2,7.987884722879244,%MAX
PAT,P32,INI,FM,M3,71.10303511556599,%MAX
PAT,P32,REL,FM,M1,15.237014288734148,%MAX
PAT,P32,REL,FM,M2,26.15988834271549,%MAX
PAT,P32,REL,FM,M3,96.86750541464679,%MAX
PAT,P33,INI,FM,M1,8.431986986642663,%MAX
PAT,P33,INI,FM,M2,19.878988510923595,%MAX
PAT,P33,INI,FM,M3,55.79886652831659,%MAX
PAT,P33,REL,FM,M1,8.908373213112709,%MAX
PAT,P33,REL,FM,M2,15.689263962182434,%MAX
PAT,P33,REL,FM,M3,37.56775134789854,%MAX
PAT,P34,INI,FM,M1,26.350424769310198,%MAX
PAT,P34,INI,FM,M2,20.417147145516452,%MAX
PAT,P34,INI,FM,M3,56.046526824704294,%MAX
PAT,P34,REL,FM,M1,7.514928851979215,%MAX
PAT,P34,REL,FM,M2,10.784267014008458,%MAX
PAT,P34,REL,FM,M3,54.095567451032004,%MAX
PAT,P36,INI,FM,M1,5.533573047467481,%MAX
PAT,P36,INI,FM,M2,24.89994056962298,%MAX
PAT,P36,INI,FM,M3,102.06083842814235,%MAX
PAT,P36,REL,FM,M1,5.237072351226392,%MAX
PAT,P36,REL,FM,M2,4.728033897516041,%MAX
PAT,P36,REL,FM,M3,78.46335017493014,%MAX
PAT,P41,INI,FM,M1,9.660630819662913,%MAX
PAT,P41,INI,FM,M2,10.88486119319615,%MAX
PAT,P41,INI,FM,M3,58.88404385431884,%MAX
PAT,P41,REL,FM,M1,7.369930505427832,%MAX
PAT,P41,REL,FM,M2,8.429944396200947,%MAX
PAT,P41,REL,FM,M3,41.65623756346715,%MAX
PAT,P42,INI,FM,M1,28.122166809935468,%MAX
PAT,P42,INI,FM,M2,13.728694961312156,%MAX
PAT,P42,INI,FM,M3,12.920929811506142,%MAX
PAT,P42,REL,FM,M1,12.274120527080944,%MAX
PAT,P42,REL,FM,M2,11.47751330490725,%MAX
PAT,P42,REL,FM,M3,48.57791200019158,%MAX
PAT,P43,INI,FM,M1,11.997052803063713,%MAX
PAT,P43,INI,FM,M2,16.10011783211101,%MAX
PAT,P43,INI,FM,M3,55.8396960206456,%MAX
PAT,P43,REL,FM,M1,7.518883647265706,%MAX
PAT,P43,REL,FM,M2,6.650289669407161,%MAX
PAT,P43,REL,FM,M3,33.33900049761861,%MAX
PAT,P45,INI,FM,M1,22.58798142123519,%MAX
PAT,P45,INI,FM,M2,30.347871573580797,%MAX
PAT,P45,INI,FM,M3,59.3889646643547,%MAX
PAT,P45,REL,FM,M1,13.934258995811373,%MAX
PAT,P45,REL,FM,M2,13.774241723558935,%MAX
PAT,P45,REL,FM,M3,16.34604759527669,%MAX
PAT,P47,INI,FM,M1,7.455164202326381,%MAX
PAT,P47,INI,FM,M2,9.930813012643942,%MAX
PAT,P47,INI,FM,M3,10.348261263193294,%MAX
PAT,P47,REL,FM,M1,6.892689126969473,%MAX
PAT,P47,REL,FM,M2,22.1760224001479,%MAX
PAT,P47,REL,FM,M3,45.64700897985627,%MAX
PAT,P50,INI,FM,M1,22.6109285220414,%MAX
PAT,P50,INI,FM,M2,24.11553523152079,%MAX
PAT,P50,INI,FM,M3,50.59943227051551,%MAX
PAT,P50,REL,FM,M1,21.10184777838193,%MAX
PAT,P50,REL,FM,M2,22.57807859444769,%MAX
PAT,P50,REL,FM,M3,22.218482692177588,%MAX
PAT,P51,INI,FM,M1,22.74996396265482,%MAX
PAT,P51,INI,FM,M2,18.458442154934087,%MAX
PAT,P51,INI,FM,M3,21.41019740229673,%MAX
PAT,P51,REL,FM,M1,42.5627238673653,%MAX
PAT,P51,REL,FM,M2,36.839722783138754,%MAX
PAT,P51,REL,FM,M3,41.35461988001055,%MAX
PAT,P53,INI,FM,M1,24.714202704866548,%MAX
PAT,P53,INI,FM,M2,19.963334650496225,%MAX
PAT,P53,INI,FM,M3,11.61126581759018,%MAX
PAT,P53,REL,FM,M1,11.986333679585243,%MAX
PAT,P53,REL,FM,M2,10.912402756675078,%MAX
PAT,P53,REL,FM,M3,45.884325436282296,%MAX
PAT,P54,INI,FM,M1,42.258588427163694,%MAX
PAT,P54,INI,FM,M2,86.41554872973465,%MAX
PAT,P54,INI,FM,M3,239.41356232267216,%MAX
PAT,P54,REL,FM,M1,109.24742955580527,%MAX
PAT,P54,REL,FM,M2,156.48269299429978,%MAX
PAT,P54,REL,FM,M3,207.11527539547757,%MAX
PAT,P58,INI,FM,M1,31.947110117634136,%MAX
PAT,P58,INI,FM,M2,25.171414482755797,%MAX
PAT,P58,INI,FM,M3,23.477002614545274,%MAX
PAT,P58,REL,FM,M1,13.777197161492014,%MAX
PAT,P58,REL,FM,M2,28.15701465345089,%MAX
PAT,P58,REL,FM,M3,28.906847210801754,%MAX
PAT,P61,INI,FM,M1,42.46740605563083,%MAX
PAT,P61,INI,FM,M2,34.977877389213035,%MAX
PAT,P61,INI,FM,M3,39.59523913179238,%MAX
PAT,P61,REL,FM,M1,24.765452252417248,%MAX
PAT,P61,REL,FM,M2,30.406848005985182,%MAX
PAT,P61,REL,FM,M3,28.842193970289642,%MAX
PAT,P62,INI,FM,M1,57.32447004524982,%MAX
PAT,P62,INI,FM,M2,42.04779933171532,%MAX
PAT,P62,INI,FM,M3,35.99478378800337,%MAX
PAT,P62,REL,FM,M1,47.196868958901796,%MAX
PAT,P62,REL,FM,M2,65.99172061347255,%MAX
PAT,P62,REL,FM,M3,48.109672151503695,%MAX
PAT,P63,INI,FM,M1,30.19251474516925,%MAX
PAT,P63,INI,FM,M2,24.74759896544243,%MAX
PAT,P63,INI,FM,M3,51.550458347637914,%MAX
PAT,P63,REL,FM,M1,37.838576038862485,%MAX
PAT,P63,REL,FM,M2,53.818010328275705,%MAX
PAT,P63,REL,FM,M3,52.25176983278409,%MAX
PAT,P65,INI,FM,M1,54.86701126549125,%MAX
PAT,P65,INI,FM,M2,54.17532884051974,%MAX
PAT,P65,INI,FM,M3,46.90007032422073,%MAX
PAT,P65,REL,FM,M1,122.22028342649499,%MAX
PAT,P65,REL,FM,M2,130.51035646257256,%MAX
PAT,P65,REL,FM,M3,146.92389540122684,%MAX
