Group,Participant,Session,Operator,Measure,Value,Unit
PAT,P09,INI,FM,M1,22.57620343355265,%subMVIC
PAT,P09,INI,FM,M2,22.9221048977198,%subMVIC
PAT,P09,INI,FM,M3,22.65780541992549,%subMVIC
PAT,P09,REL,FM,M1,23.431272803750964,%subMVIC
PAT,P09,REL,FM,M2,23.351544613344974,%subMVIC
PAT,P09,REL,FM,M3,23.7695779364245,%subMVIC
PAT,P10,INI,FM,M1,42.40578700045938,%subMVIC
PAT,P10,INI,FM,M2,41.800071352593854,%subMVIC
PAT,P10,INI,FM,M3,41.27551837031776,%subMVIC
PAT,P10,REL,FM,M1,19.630732624193467,%subMVIC
PAT,P10,REL,FM,M2,19.360812670885466,%subMVIC
PAT,P10,REL,FM,M3,19.25675153631958,%subMVIC
PAT,P11,INI,FM,M1,20.199243274488158,%subMVIC
PAT,P11,INI,FM,M2,20.070626429004847,%subMVIC
PAT,P11,INI,FM,M3,19.90445452900646,%subMVIC
PAT,P11,REL,FM,M1,18.45423458476376,%subMVIC
PAT,P11,REL,FM,M2,18.84302129098385,%subMVIC
PAT,P11,REL,FM,M3,18.678539896556963,%subMVIC
PAT,P12,INI,FM,M1,40.2462669384454,%subMVIC
PAT,P12,INI,FM,M2,40.70586333172345,%subMVIC
PAT,P12,INI,FM,M3,39.17170172932097,%subMVIC
PAT,P12,REL,FM,M1,20.56875959787816,%subMVIC
PAT,P12,REL,FM,M2,20.28442485762431,%subMVIC
PAT,P12,REL,FM,M3,21.20462842377366,%subMVIC
PAT,P14,INI,FM,M1,47.76459288616276,%subMVIC
PAT,P14,INI,FM,M2,45.75855498011992,%subMVIC
PAT,P14,INI,FM,M3,49.14065282881503,%subMVIC
PAT,P14,REL,FM,M1,42.36917431718448,%subMVIC
PAT,P14,REL,FM,M2,42.050275251050046,%subMVIC
PAT,P14,REL,FM,M3,41.82277790170604,%subMVIC
PAT,P17,INI,FM,M1,14.318238077095184,%subMVIC
PAT,P17,INI,FM,M2,14.364469218304002,%subMVIC
PAT,P17,INI,FM,M3,14.203752180204726,%subMVIC
PAT,P17,REL,FM,M1,12.365062796227903,%subMVIC
PAT,P17,REL,FM,M2,12.547151499714,%subMVIC
PAT,P17,REL,FM,M3,12.87727820859453,%subMVIC
PAT,P24,INI,FM,M1,46.489483332493535,%subMVIC
PAT,P24,INI,FM,M2,45.696505794502464,%subMVIC
PAT,P24,INI,FM,M3,45.86191020301333,%subMVIC
PAT,P24,REL,FM,M1,26.84646184112569,%subMVIC
PAT,P24,REL,FM,M2,25.852109487935767,%subMVIC
PAT,P24,REL,FM,M3,26.103532781853367,%subMVIC
PAT,P26,INI,FM,M1,18.37599585421938,%subMVIC
PAT,P26,INI,FM,M2,18.53093197409011,%subMVIC
PAT,P26,INI,FM,M3,16.555855305624377,%subMVIC
PAT,P26,REL,FM,M1,22.180794897826463,%subMVIC
PAT,P26,REL,FM,M2,22.912289538898545,%subMVIC
PAT,P26,REL,FM,M3,22.42834463851097,%subMVIC
PAT,P27,INI,FM,M1,19.92484703297097,%subMVIC
PAT,P27,INI,FM,M2,21.04551085510406,%subMVIC
PAT,P27,INI,FM,M3,19.65198241415597,%subMVIC
PAT,P27,REL,FM,M1,25.363046027946304,%subMVIC
PAT,P27,REL,FM,M2,25.029512315210003,%subMVIC
PAT,P27,REL,FM,M3,25.31551094906051,%subMVIC
PAT,P28,INI,FM,M1,20.03357899657715,%subMVIC
PAT,P28,INI,FM,M2,19.83357838461911,%subMVIC
PAT,P28,INI,FM,M3,19.48578698734336,%subMVIC
PAT,P28,REL,FM,M1,18.132909528619184,%subMVIC
PAT,P28,REL,FM,M2,18.13007703061665,%subMVIC
PAT,P28,REL,FM,M3,17.814622249891443,%subMVIC
PAT,P29,INI,FM,M1,9.577579716404928,%subMVIC
PAT,P29,INI,FM,M2,9.077744184315543,%subMVIC
PAT,P29,INI,FM,M3,8.855018994893353,%subMVIC
PAT,P29,REL,FM,M1,10.150167143343277,%subMVIC
PAT,P29,REL,FM,M2,11.459576907531046,%subMVIC
PAT,P29,REL,FM,M3,7.760348375302208,%subMVIC
PAT,P32,INI,FM,M1,8.597483631262106,%subMVIC
PAT,P32,INI,FM,M2,8.642138226910372,%subMVIC
PAT,P32,INI,FM,M3,8.713401156611614,%subMVIC
PAT,P32,REL,FM,M1,13.0546619920618,%subMVIC
PAT,P32,REL,FM,M2,12.99924077625926,%subMVIC
PAT,P32,REL,FM,M3,12.908274257114751,%subMVIC
PAT,P33,INI,FM,M1,6.938261253498158,%subMVIC
PAT,P33,INI,FM,M2,6.615352911036197,%subMVIC
PAT,P33,INI,FM,M3,6.625678811471695,%subMVIC
PAT,P33,REL,FM,M1,56.37076371995984,%subMVIC
PAT,P33,REL,FM,M2,53.2048888766762,%subMVIC
PAT,P33,REL,FM,M3,53.25934929359647,%subMVIC
PAT,P34,INI,FM,M1,25.7719133770748,%subMVIC
PAT,P34,INI,FM,M2,25.90684751512961,%subMVIC
PAT,P34,INI,FM,M3,25.633830062309485,%subMVIC
PAT,P34,REL,FM,M1,116.65902332556604,%subMVIC
PAT,P34,REL,FM,M2,105.5986833249121,%subMVIC
PAT,P34,REL,FM,M3,99.30551251450116,%subMVIC
PAT,P36,INI,FM,M1,9.661990538828103,%subMVIC
PAT,P36,INI,FM,M2,9.565768624811502,%subMVIC
PAT,P36,INI,FM,M3,9.458619202975552,%subMVIC
PAT,P36,REL,FM,M1,7.936654555040925,%subMVIC
PAT,P36,REL,FM,M2,8.13370491678409,%subMVIC
PAT,P36,REL,FM,M3,8.00278980974712,%subMVIC
PAT,P41,INI,FM,M1,18.05567653795828,%subMVIC
PAT,P41,INI,FM,M2,18.499945744827272,%subMVIC
PAT,P41,INI,FM,M3,18.32152422439263,%subMVIC
PAT,P41,REL,FM,M1,12.144929924947917,%subMVIC
PAT,P41,REL,FM,M2,12.33442034589858,%subMVIC
PAT,P41,REL,FM,M3,12.060814488322992,%subMVIC
PAT,P42,INI,FM,M1,24.22980761246868,%subMVIC
PAT,P42,INI,FM,M2,23.9594093056056,%subMVIC
PAT,P42,INI,FM,M3,23.469838858857447,%subMVIC
PAT,P42,REL,FM,M1,25.0718039557109,%subMVIC
PAT,P42,REL,FM,M2,25.483966022424926,%subMVIC
PAT,P42,REL,FM,M3,25.505041779257525,%subMVIC
PAT,P43,INI,FM,M1,9.882221185376254,%subMVIC
PAT,P43,INI,FM,M2,10.315794728112442,%subMVIC
PAT,P43,INI,FM,M3,9.872013113498957,%subMVIC
PAT,P43,REL,FM,M1,8.816421487061188,%subMVIC
PAT,P43,REL,FM,M2,8.479833836478534,%subMVIC
PAT,P43,REL,FM,M3,8.326486195838427,%subMVIC
PAT,P45,INI,FM,M1,13.66104607043913,%subMVIC
PAT,P45,INI,FM,M2,13.603378529489488,%subMVIC
PAT,P45,INI,FM,M3,14.055279417785703,%subMVIC
PAT,P45,REL,FM,M1,16.648012469791276,%subMVIC
PAT,P45,REL,FM,M2,19.224150522180977,%subMVIC
PAT,P45,REL,FM,M3,18.686198746610888,%subMVIC
PAT,P47,INI,FM,M1,21.01786372116456,%subMVIC
PAT,P47,INI,FM,M2,21.29082717546512,%subMVIC
PAT,P47,INI,FM,M3,22.31890519403992,%subMVIC
PAT,P47,REL,FM,M1,16.38686807270688,%subMVIC
PAT,P47,REL,FM,M2,16.193562519522573,%subMVIC
PAT,P47,REL,FM,M3,16.654788255425952,%subMVIC
PAT,P50,INI,FM,M1,28.50125006789532,%subMVIC
PAT,P50,INI,FM,M2,28.60712792201338,%subMVIC
PAT,P50,INI,FM,M3,28.841052398831643,%subMVIC
PAT,P50,REL,FM,M1,24.45155415193625,%subMVIC
PAT,P50,REL,FM,M2,24.950189118116636,%subMVIC
PAT,P50,REL,FM,M3,24.299202156301824,%subMVIC
PAT,P51,INI,FM,M1,9.34281820697752,%subMVIC
PAT,P51,INI,FM,M2,9.41124717299099,%subMVIC
PAT,P51,INI,FM,M3,9.307931417239717,%subMVIC
PAT,P51,REL,FM,M1,6.644060505688368,%subMVIC
PAT,P51,REL,FM,M2,6.544553415718727,%subMVIC
PAT,P51,REL,FM,M3,6.432318945426686,%subMVIC
PAT,P53,INI,FM,M1,10.244971152805563,%subMVIC
PAT,P53,INI,FM,M2,10.116906140608611,%subMVIC
PAT,P53,INI,FM,M3,9.900661053235998,%subMVIC
PAT,P53,REL,FM,M1,12.007942353518724,%subMVIC
PAT,P53,REL,FM,M2,11.90646933824387,%subMVIC
PAT,P53,REL,FM,M3,11.772802491542178,%subMVIC
PAT,P54,INI,FM,M1,35.301612424818614,%subMVIC
PAT,P54,INI,FM,M2,34.941606965191994,%subMVIC
PAT,P54,INI,FM,M3,34.72526750687331,%subMVIC
PAT,P54,REL,FM,M1,37.08213928908091,%subMVIC
PAT,P54,REL,FM,M2,37.171314501341975,%subMVIC
PAT,P54,REL,FM,M3,37.851921055815446,%subMVIC
PAT,P58,INI,FM,M1,24.573752731458256,%subMVIC
PAT,P58,INI,FM,M2,24.223107435565296,%subMVIC
PAT,P58,INI,FM,M3,24.04433779778145,%subMVIC
PAT,P58,REL,FM,M1,16.585852007708752,%subMVIC
PAT,P58,REL,FM,M2,14.687097294042363,%subMVIC
PAT,P58,REL,FM,M3,14.3103303979975,%subMVIC
PAT,P61,REL,FM,M1,4.60779869373009,%subMVIC
PAT,P61,REL,FM,M2,4.5854464378491935,%subMVIC
PAT,P61,REL,FM,M3,4.658999454942228,%subMVIC
PAT,P62,INI,FM,M1,12.061795782818368,%subMVIC
PAT,P62,INI,FM,M2,12.227123025671204,%subMVIC
PAT,P62,INI,FM,M3,12.450309405308149,%subMVIC
PAT,P62,REL,FM,M1,8.82035273473932,%subMVIC
PAT,P62,REL,FM,M2,8.665446318659034,%subMVIC
PAT,P62,REL,FM,M3,8.568111959570512,%subMVIC
PAT,P63,INI,FM,M1,21.03604682483967,%subMVIC
PAT,P63,INI,FM,M2,19.25722688944617,%subMVIC
PAT,P63,INI,FM,M3,15.75111500465261,%subMVIC
PAT,P63,REL,FM,M1,16.538598387300656,%subMVIC
PAT,P63,REL,FM,M2,15.274337398076051,%subMVIC
PAT,P63,REL,FM,M3,14.197352711111115,%subMVIC
PAT,P65,INI,FM,M1,18.866526658104167,%subMVIC
PAT,P65,INI,FM,M2,19.726790492107604,%subMVIC
PAT,P65,INI,FM,M3,19.680376839778432,%subMVIC
PAT,P65,REL,FM,M1,23.007372635843797,%subMVIC
PAT,P65,REL,FM,M2,22.405051360097737,%subMVIC
PAT,P65,REL,FM,M3,22.75274079882388,%subMVIC
