Group,Participant,Session,Operator,Measure,Value,Unit
PAT,P09,INI,FM,M1,99.3813999826024,Hz
PAT,P09,INI,FM,M2,95.1860951860952,Hz
PAT,P09,INI,FM,M3,97.0970970970971,Hz
PAT,P09,REL,FM,M1,101.29240189360428,Hz
PAT,P09,REL,FM,M2,97.82509782509784,Hz
PAT,P09,REL,FM,M3,95.1860951860952,Hz
PAT,P10,INI,FM,M1,91.28075059938789,Hz
PAT,P10,INI,FM,M2,88.2700882700883,Hz
PAT,P10,INI,FM,M3,90.54509054509056,Hz
PAT,P10,REL,FM,M1,92.19202806377156,Hz
PAT,P10,REL,FM,M2,87.45108745108746,Hz
PAT,P10,REL,FM,M3,90.36309036309036,Hz
PAT,P11,INI,FM,M1,77.81255476646258,Hz
PAT,P11,INI,FM,M2,80.26208026208029,Hz
PAT,P11,INI,FM,M3,64.70106470106471,Hz
PAT,P11,REL,FM,M1,79.63219185664076,Hz
PAT,P11,REL,FM,M2,81.90008190008191,Hz
PAT,P11,REL,FM,M3,82.90108290108292,Hz
PAT,P12,INI,FM,M1,76.81155376546158,Hz
PAT,P12,INI,FM,M2,78.71507871507872,Hz
PAT,P12,INI,FM,M3,74.62007462007462,Hz
PAT,P12,REL,FM,M1,74.5365514904593,Hz
PAT,P12,REL,FM,M2,80.62608062608064,Hz
PAT,P12,REL,FM,M3,79.53407953407954,Hz
PAT,P14,INI,FM,M1,74.44482193981192,Hz
PAT,P14,INI,FM,M2,77.80507780507781,Hz
PAT,P14,INI,FM,M3,71.98107198107199,Hz
PAT,P14,REL,FM,M1,74.44482193981193,Hz
PAT,P14,REL,FM,M2,82.53708253708254,Hz
PAT,P14,REL,FM,M3,81.44508144508144,Hz
PAT,P17,INI,FM,M1,112.94132536617506,Hz
PAT,P17,INI,FM,M2,118.30011830011831,Hz
PAT,P17,INI,FM,M3,93.91209391209392,Hz
PAT,P17,REL,FM,M1,98.28958125551316,Hz
PAT,P17,REL,FM,M2,120.84812084812089,Hz
PAT,P17,REL,FM,M3,107.92610792610796,Hz
PAT,P24,INI,FM,M1,108.209685363994,Hz
PAT,P24,INI,FM,M2,103.55810355810355,Hz
PAT,P24,INI,FM,M3,98.91709891709893,Hz
PAT,P24,REL,FM,M1,50.05460917284564,Hz
PAT,P24,REL,FM,M2,52.05205205205205,Hz
PAT,P24,REL,FM,M3,50.323050323050325,Hz
PAT,P26,INI,FM,M1,80.26864539890593,Hz
PAT,P26,INI,FM,M2,74.52907452907453,Hz
PAT,P26,INI,FM,M3,71.34407134407134,Hz
PAT,P26,REL,FM,M1,77.99455494846276,Hz
PAT,P26,REL,FM,M2,77.07707707707709,Hz
PAT,P26,REL,FM,M3,70.43407043407042,Hz
PAT,P27,INI,FM,M1,77.35682485181482,Hz
PAT,P27,INI,FM,M2,81.35408135408134,Hz
PAT,P27,INI,FM,M3,79.17007917007919,Hz
PAT,P27,REL,FM,M1,83.36374268237996,Hz
PAT,P27,REL,FM,M2,68.70506870506871,Hz
PAT,P27,REL,FM,M3,70.07007007007009,Hz
PAT,P28,INI,FM,M1,82.18147095902609,Hz
PAT,P28,INI,FM,M2,81.17208117208118,Hz
PAT,P28,INI,FM,M3,79.07907907907908,Hz
PAT,P28,REL,FM,M1,84.36565550794009,Hz
PAT,P28,REL,FM,M2,81.53608153608154,Hz
PAT,P28,REL,FM,M3,84.0840840840841,Hz
PAT,P29,INI,FM,M1,83.90937849855686,Hz
PAT,P29,INI,FM,M2,80.80808080808082,Hz
PAT,P29,INI,FM,M3,76.07607607607609,Hz
PAT,P29,REL,FM,M1,88.73165386191438,Hz
PAT,P29,REL,FM,M2,80.8990808990809,Hz
PAT,P29,REL,FM,M3,78.8060788060788,Hz
PAT,P32,INI,FM,M1,94.28503015677366,Hz
PAT,P32,INI,FM,M2,86.26808626808628,Hz
PAT,P32,INI,FM,M3,80.990080990081,Hz
PAT,P32,REL,FM,M1,121.13133355618324,Hz
PAT,P32,REL,FM,M2,113.47711347711348,Hz
PAT,P32,REL,FM,M3,106.83410683410683,Hz
PAT,P33,INI,FM,M1,49.96269725728644,Hz
PAT,P33,INI,FM,M2,54.23605423605424,Hz
PAT,P33,INI,FM,M3,53.781053781053785,Hz
PAT,P33,REL,FM,M1,62.33998618768158,Hz
PAT,P33,REL,FM,M2,63.42706342706344,Hz
PAT,P33,REL,FM,M3,65.06506506506507,Hz
PAT,P34,INI,FM,M1,81.72574104437831,Hz
PAT,P34,INI,FM,M2,77.53207753207754,Hz
PAT,P34,INI,FM,M3,78.7150787150787,Hz
PAT,P34,REL,FM,M1,79.45055640446424,Hz
PAT,P34,REL,FM,M2,81.35408135408137,Hz
PAT,P34,REL,FM,M3,76.98607698607701,Hz
PAT,P36,INI,FM,M1,83.18083067582067,Hz
PAT,P36,INI,FM,M2,85.26708526708529,Hz
PAT,P36,INI,FM,M3,79.98907998908,Hz
PAT,P36,REL,FM,M1,98.47066961295418,Hz
PAT,P36,REL,FM,M2,97.64309764309768,Hz
PAT,P36,REL,FM,M3,101.3741013741014,Hz
PAT,P41,INI,FM,M1,81.81765295993752,Hz
PAT,P41,INI,FM,M2,79.35207935207936,Hz
PAT,P41,INI,FM,M3,82.35508235508236,Hz
PAT,P41,REL,FM,M1,84.00037858955695,Hz
PAT,P41,REL,FM,M2,79.53407953407954,Hz
PAT,P41,REL,FM,M3,83.993083993084,Hz
PAT,P42,INI,FM,M1,107.75304362478713,Hz
PAT,P42,INI,FM,M2,101.82910182910184,Hz
PAT,P42,INI,FM,M3,102.46610246610248,Hz
PAT,P42,REL,FM,M1,102.38549717507634,Hz
PAT,P42,REL,FM,M2,105.1961051961052,Hz
PAT,P42,REL,FM,M3,104.2861042861043,Hz
PAT,P43,INI,FM,M1,104.6588581658722,Hz
PAT,P43,INI,FM,M2,103.64910364910368,Hz
PAT,P43,INI,FM,M3,99.91809991809993,Hz
PAT,P43,REL,FM,M1,116.6737880164734,Hz
PAT,P43,REL,FM,M2,109.29110929110932,Hz
PAT,P43,REL,FM,M3,110.01911001911004,Hz
PAT,P45,INI,FM,M1,64.8892652900669,Hz
PAT,P45,INI,FM,M2,65.61106561106561,Hz
PAT,P45,INI,FM,M3,65.70206570206571,Hz
PAT,P45,REL,FM,M1,68.80172210833533,Hz
PAT,P45,REL,FM,M2,72.07207207207206,Hz
PAT,P45,REL,FM,M3,72.16307216307217,Hz
PAT,P47,INI,FM,M1,126.77425102274802,Hz
PAT,P47,INI,FM,M2,119.93811993811995,Hz
PAT,P47,INI,FM,M3,115.47911547911548,Hz
PAT,P47,REL,FM,M1,93.19321142968438,Hz
PAT,P47,REL,FM,M2,89.54408954408956,Hz
PAT,P47,REL,FM,M3,89.27108927108928,Hz
PAT,P50,INI,FM,M1,89.18902506076856,Hz
PAT,P50,INI,FM,M2,84.53908453908456,Hz
PAT,P50,INI,FM,M3,83.0830830830831,Hz
PAT,P50,REL,FM,M1,92.64739324859566,Hz
PAT,P50,REL,FM,M2,88.45208845208846,Hz
PAT,P50,REL,FM,M3,87.54208754208756,Hz
PAT,P51,INI,FM,M1,67.97980345074534,Hz
PAT,P51,INI,FM,M2,57.23905723905723,Hz
PAT,P51,INI,FM,M3,66.79406679406681,Hz
PAT,P51,REL,FM,M1,57.69934627650059,Hz
PAT,P51,REL,FM,M2,44.68104468104468,Hz
PAT,P51,REL,FM,M3,59.05905905905907,Hz
PAT,P53,INI,FM,M1,110.12086963990772,Hz
PAT,P53,INI,FM,M2,109.10910910910911,Hz
PAT,P53,INI,FM,M3,109.74610974610977,Hz
PAT,P53,REL,FM,M1,108.2082264446994,Hz
PAT,P53,REL,FM,M2,104.46810446810449,Hz
PAT,P53,REL,FM,M3,106.47010647010649,Hz
PAT,P54,INI,FM,M1,94.37675970742104,Hz
PAT,P54,INI,FM,M2,92.45609245609248,Hz
PAT,P54,INI,FM,M3,89.18008918008918,Hz
PAT,P54,REL,FM,M1,94.28503015677366,Hz
PAT,P54,REL,FM,M2,91.63709163709164,Hz
PAT,P54,REL,FM,M3,84.72108472108472,Hz
PAT,P58,INI,FM,M1,99.29131171616142,Hz
PAT,P58,INI,FM,M2,71.07107107107107,Hz
PAT,P58,INI,FM,M3,65.88406588406589,Hz
PAT,P58,REL,FM,M1,97.6518511588652,Hz
PAT,P58,REL,FM,M2,99.8270998270998,Hz
PAT,P58,REL,FM,M3,93.54809354809356,Hz
PAT,P61,REL,FM,M1,60.33871364532688,Hz
PAT,P61,REL,FM,M2,58.05805805805806,Hz
PAT,P61,REL,FM,M3,66.06606606606607,Hz
PAT,P62,INI,FM,M1,73.53500339472284,Hz
PAT,P62,INI,FM,M2,75.62107562107563,Hz
PAT,P62,INI,FM,M3,77.53207753207754,Hz
PAT,P62,REL,FM,M1,78.99555594946378,Hz
PAT,P62,REL,FM,M2,80.71708071708073,Hz
PAT,P62,REL,FM,M3,79.07907907907908,Hz
PAT,P63,INI,FM,M1,103.56649234404745,Hz
PAT,P63,INI,FM,M2,108.47210847210847,Hz
PAT,P63,INI,FM,M3,111.93011193011192,Hz
PAT,P63,REL,FM,M1,105.0232232596962,Hz
PAT,P63,REL,FM,M2,102.83010283010282,Hz
PAT,P63,REL,FM,M3,105.10510510510512,Hz
PAT,P65,INI,FM,M1,78.54092022428696,Hz
PAT,P65,INI,FM,M2,71.25307125307125,Hz
PAT,P65,INI,FM,M3,71.52607152607153,Hz
PAT,P65,REL,FM,M1,89.1893897905922,Hz
PAT,P65,REL,FM,M2,89.72608972608974,Hz
PAT,P65,REL,FM,M3,87.81508781508784,Hz
