Group,Participant,Session,Operator,Measure,Value,Unit
PAT,P09,INI,FM,M1,48.95311798841592,%MAX
PAT,P09,INI,FM,M2,52.45039902073253,%MAX
PAT,P09,INI,FM,M3,63.75543761820408,%MAX
PAT,P09,REL,FM,M1,29.582546524672768,%MAX
PAT,P09,REL,FM,M2,23.860921064407258,%MAX
PAT,P09,REL,FM,M3,26.82023482069019,%MAX
PAT,P10,INI,FM,M1,8.499277280812375,%MAX
PAT,P10,INI,FM,M2,7.534779010713955,%MAX
PAT,P10,INI,FM,M3,7.440986665693408,%MAX
PAT,P10,REL,FM,M1,20.83100163554886,%MAX
PAT,P10,REL,FM,M2,19.338664889330694,%MAX
PAT,P10,REL,FM,M3,19.44247376978399,%MAX
PAT,P11,INI,FM,M1,56.282628963706095,%MAX
PAT,P11,INI,FM,M2,46.059455022448255,%MAX
PAT,P11,INI,FM,M3,41.921527060667366,%MAX
PAT,P11,REL,FM,M1,21.452110008900352,%MAX
PAT,P11,REL,FM,M2,26.298985815595984,%MAX
PAT,P11,REL,FM,M3,21.42412885759627,%MAX
PAT,P12,INI,FM,M1,39.719203767500666,%MAX
PAT,P12,INI,FM,M2,39.15760348669234,%MAX
PAT,P12,INI,FM,M3,36.70583589631212,%MAX
PAT,P12,REL,FM,M1,39.08387468629022,%MAX
PAT,P12,REL,FM,M2,36.51583461741132,%MAX
PAT,P12,REL,FM,M3,42.03176360247778,%MAX
PAT,P14,INI,FM,M1,34.675363870712516,%MAX
PAT,P14,INI,FM,M2,34.609629015936285,%MAX
PAT,P14,INI,FM,M3,33.71792273683024,%MAX
PAT,P14,REL,FM,M1,51.29677357614239,%MAX
PAT,P14,REL,FM,M2,42.9559373086504,%MAX
PAT,P14,REL,FM,M3,29.95645396479417,%MAX
PAT,P17,INI,FM,M1,37.378386347134,%MAX
PAT,P17,INI,FM,M2,27.614692259855882,%MAX
PAT,P17,INI,FM,M3,36.7869553828711,%MAX
PAT,P17,REL,FM,M1,27.97945080722376,%MAX
PAT,P17,REL,FM,M2,31.460408312347386,%MAX
PAT,P17,REL,FM,M3,35.869447081248104,%MAX
PAT,P24,INI,FM,M1,17.5715154049386,%MAX
PAT,P24,INI,FM,M2,17.949423576429176,%MAX
PAT,P24,INI,FM,M3,34.47326328500152,%MAX
PAT,P24,REL,FM,M1,17.482475119772094,%MAX
PAT,P24,REL,FM,M2,21.89087201169456,%MAX
PAT,P24,REL,FM,M3,23.390611528066977,%MAX
PAT,P26,INI,FM,M1,19.671533308924836,%MAX
PAT,P26,INI,FM,M2,19.435625153260897,%MAX
PAT,P26,INI,FM,M3,41.15566320657779,%MAX
PAT,P26,REL,FM,M1,18.614080127124616,%MAX
PAT,P26,REL,FM,M2,15.899458582025144,%MAX
PAT,P26,REL,FM,M3,28.98941607671525,%MAX
PAT,P27,INI,FM,M1,20.397507576434773,%MAX
PAT,P27,INI,FM,M2,16.858779889900134,%MAX
PAT,P27,INI,FM,M3,34.95366347696333,%MAX
PAT,P27,REL,FM,M1,20.226301829322164,%MAX
PAT,P27,REL,FM,M2,16.566564963522247,%MAX
PAT,P27,REL,FM,M3,33.0922222381469,%MAX
PAT,P28,INI,FM,M1,12.710100853601851,%MAX
PAT,P28,INI,FM,M2,23.081080004284722,%MAX
PAT,P28,INI,FM,M3,17.86762608451343,%MAX
PAT,P28,REL,FM,M1,22.5109325113187,%MAX
PAT,P28,REL,FM,M2,21.572034396418424,%MAX
PAT,P28,REL,FM,M3,38.814262320657946,%MAX
PAT,P29,INI,FM,M1,27.319953892281013,%MAX
PAT,P29,INI,FM,M2,29.245493308313346,%MAX
PAT,P29,INI,FM,M3,34.44292254343834,%MAX
PAT,P29,REL,FM,M1,21.759052152150975,%MAX
PAT,P29,REL,FM,M2,18.60456809399949,%MAX
PAT,P29,REL,FM,M3,30.151424470397767,%MAX
PAT,P32,INI,FM,M1,18.018594466010292,%MAX
PAT,P32,INI,FM,M2,22.0514505544245,%MAX
PAT,P32,INI,FM,M3,39.89377079023676,%MAX
PAT,P32,REL,FM,M1,20.99948574874477,%MAX
PAT,P32,REL,FM,M2,28.17655036831403,%MAX
PAT,P32,REL,FM,M3,40.79930862027975,%MAX
PAT,P33,INI,FM,M1,18.328247605702995,%MAX
PAT,P33,INI,FM,M2,25.199672676155874,%MAX
PAT,P33,INI,FM,M3,52.894395122270765,%MAX
PAT,P33,REL,FM,M1,16.445118344699733,%MAX
PAT,P33,REL,FM,M2,19.759480704804023,%MAX
PAT,P33,REL,FM,M3,17.469036028497744,%MAX
PAT,P34,INI,FM,M1,40.26741521264567,%MAX
PAT,P34,INI,FM,M2,30.211242676888784,%MAX
PAT,P34,INI,FM,M3,39.50753354527721,%MAX
PAT,P34,REL,FM,M1,39.41881813478436,%MAX
PAT,P34,REL,FM,M2,45.03721224381083,%MAX
PAT,P34,REL,FM,M3,44.177781578742085,%MAX
PAT,P36,INI,FM,M1,12.005988247290968,%MAX
PAT,P36,INI,FM,M2,20.152687289461326,%MAX
PAT,P36,INI,FM,M3,30.488227422857207,%MAX
PAT,P36,REL,FM,M1,10.131350373871308,%MAX
PAT,P36,REL,FM,M2,10.10132600774443,%MAX
PAT,P36,REL,FM,M3,21.370083683066028,%MAX
PAT,P41,INI,FM,M1,16.568550204701236,%MAX
PAT,P41,INI,FM,M2,15.826439432455295,%MAX
PAT,P41,INI,FM,M3,33.996453257484646,%MAX
PAT,P41,REL,FM,M1,17.85556411411854,%MAX
PAT,P41,REL,FM,M2,25.22605006170946,%MAX
PAT,P41,REL,FM,M3,37.055193637594094,%MAX
PAT,P42,INI,FM,M1,24.17702552482902,%MAX
PAT,P42,INI,FM,M2,18.18075098047591,%MAX
PAT,P42,INI,FM,M3,20.31787626355779,%MAX
PAT,P42,REL,FM,M1,12.05071777269926,%MAX
PAT,P42,REL,FM,M2,16.110517104581586,%MAX
PAT,P42,REL,FM,M3,31.297427121614003,%MAX
PAT,P43,INI,FM,M1,12.852347479446259,%MAX
PAT,P43,INI,FM,M2,18.287872247152357,%MAX
PAT,P43,INI,FM,M3,29.145523679645684,%MAX
PAT,P43,REL,FM,M1,14.7723394925372,%MAX
PAT,P43,REL,FM,M2,10.761485223311892,%MAX
PAT,P43,REL,FM,M3,19.58574685103309,%MAX
PAT,P45,INI,FM,M1,31.423799914701245,%MAX
PAT,P45,INI,FM,M2,39.87779522052389,%MAX
PAT,P45,INI,FM,M3,26.669065799274943,%MAX
PAT,P45,REL,FM,M1,25.655853590799303,%MAX
PAT,P45,REL,FM,M2,27.62993204749815,%MAX
PAT,P45,REL,FM,M3,27.59225750966275,%MAX
PAT,P47,INI,FM,M1,19.12385703889546,%MAX
PAT,P47,INI,FM,M2,13.908881672594827,%MAX
PAT,P47,INI,FM,M3,16.37835956012263,%MAX
PAT,P47,REL,FM,M1,16.563407756497483,%MAX
PAT,P47,REL,FM,M2,18.251522935130403,%MAX
PAT,P47,REL,FM,M3,23.096180584619,%MAX
PAT,P50,INI,FM,M1,33.16497798851848,%MAX
PAT,P50,INI,FM,M2,33.020811667166136,%MAX
PAT,P50,INI,FM,M3,40.188510362734014,%MAX
PAT,P50,REL,FM,M1,29.29142599527619,%MAX
PAT,P50,REL,FM,M2,27.421170579393344,%MAX
PAT,P50,REL,FM,M3,31.644150465739983,%MAX
PAT,P51,INI,FM,M1,21.664951288694308,%MAX
PAT,P51,INI,FM,M2,19.98834841903033,%MAX
PAT,P51,INI,FM,M3,28.226608830294296,%MAX
PAT,P51,REL,FM,M1,41.60421328474319,%MAX
PAT,P51,REL,FM,M2,42.99899988216506,%MAX
PAT,P51,REL,FM,M3,45.01411657170464,%MAX
PAT,P53,INI,FM,M1,41.537584908981295,%MAX
PAT,P53,INI,FM,M2,35.57209782213236,%MAX
PAT,P53,INI,FM,M3,36.42830197311844,%MAX
PAT,P53,REL,FM,M1,27.94494756340988,%MAX
PAT,P53,REL,FM,M2,25.98196190462581,%MAX
PAT,P53,REL,FM,M3,40.06106724777852,%MAX
PAT,P54,INI,FM,M1,37.59942120090986,%MAX
PAT,P54,INI,FM,M2,31.61363503686845,%MAX
PAT,P54,INI,FM,M3,46.032472788305775,%MAX
PAT,P54,REL,FM,M1,16.28475769150353,%MAX
PAT,P54,REL,FM,M2,28.06039815965204,%MAX
PAT,P54,REL,FM,M3,34.249459437495815,%MAX
PAT,P58,INI,FM,M1,56.63616999674682,%MAX
PAT,P58,INI,FM,M2,57.06508959505933,%MAX
PAT,P58,INI,FM,M3,52.720356295188225,%MAX
PAT,P58,REL,FM,M1,30.794532953580216,%MAX
PAT,P58,REL,FM,M2,31.933704246891686,%MAX
PAT,P58,REL,FM,M3,33.39358024571369,%MAX
PAT,P61,INI,FM,M1,31.1196984293643,%MAX
PAT,P61,INI,FM,M2,26.29990194858502,%MAX
PAT,P61,INI,FM,M3,31.734457707524754,%MAX
PAT,P61,REL,FM,M1,42.7680177790245,%MAX
PAT,P61,REL,FM,M2,41.490791893246985,%MAX
PAT,P61,REL,FM,M3,42.26206369490213,%MAX
PAT,P62,INI,FM,M1,39.58438501018772,%MAX
PAT,P62,INI,FM,M2,34.17024636589556,%MAX
PAT,P62,INI,FM,M3,30.05203105579502,%MAX
PAT,P62,REL,FM,M1,35.82064418049213,%MAX
PAT,P62,REL,FM,M2,41.322158750535046,%MAX
PAT,P62,REL,FM,M3,29.84131025193773,%MAX
PAT,P63,INI,FM,M1,21.44454275691146,%MAX
PAT,P63,INI,FM,M2,26.81447187315978,%MAX
PAT,P63,INI,FM,M3,22.14242891158182,%MAX
PAT,P63,REL,FM,M1,25.989760412500182,%MAX
PAT,P63,REL,FM,M2,20.32545727483362,%MAX
PAT,P63,REL,FM,M3,29.06753330672497,%MAX
PAT,P65,INI,FM,M1,28.539617830714548,%MAX
PAT,P65,INI,FM,M2,33.84106073032478,%MAX
PAT,P65,INI,FM,M3,35.825028856876656,%MAX
PAT,P65,REL,FM,M1,36.128488027624535,%MAX
PAT,P65,REL,FM,M2,34.48086492935398,%MAX
PAT,P65,REL,FM,M3,48.46594404584959,%MAX
