Group,Participant,Session,Operator,Measure,Value,Unit
PAT,P09,INI,FM,M1,40.50874076283345,%MAX
PAT,P09,INI,FM,M2,42.48045117477423,%MAX
PAT,P09,INI,FM,M3,50.103384963605386,%MAX
PAT,P09,REL,FM,M1,24.28095716491616,%MAX
PAT,P09,REL,FM,M2,21.96281877240001,%MAX
PAT,P09,REL,FM,M3,24.688389343277166,%MAX
PAT,P10,INI,FM,M1,2.734894805588479,%MAX
PAT,P10,INI,FM,M2,4.654445359144211,%MAX
PAT,P10,INI,FM,M3,4.205437146237369,%MAX
PAT,P10,REL,FM,M1,17.60090317797385,%MAX
PAT,P10,REL,FM,M2,17.683517250870775,%MAX
PAT,P10,REL,FM,M3,18.311554632320405,%MAX
PAT,P11,INI,FM,M1,45.154577360306554,%MAX
PAT,P11,INI,FM,M2,39.82413701828418,%MAX
PAT,P11,INI,FM,M3,35.413994579260766,%MAX
PAT,P11,REL,FM,M1,28.02858067590903,%MAX
PAT,P11,REL,FM,M2,43.051684873724554,%MAX
PAT,P11,REL,FM,M3,23.468596854547695,%MAX
PAT,P12,INI,FM,M1,38.19735606196151,%MAX
PAT,P12,INI,FM,M2,38.397249836948475,%MAX
PAT,P12,INI,FM,M3,37.44855618444061,%MAX
PAT,P12,REL,FM,M1,40.939196670572635,%MAX
PAT,P12,REL,FM,M2,28.929675409125696,%MAX
PAT,P12,REL,FM,M3,35.14947480854135,%MAX
PAT,P14,INI,FM,M1,25.861602904561117,%MAX
PAT,P14,INI,FM,M2,36.526108237750684,%MAX
PAT,P14,INI,FM,M3,44.6781392177024,%MAX
PAT,P14,REL,FM,M1,35.50085733264582,%MAX
PAT,P14,REL,FM,M2,29.640908690069978,%MAX
PAT,P14,REL,FM,M3,25.478456491856495,%MAX
PAT,P17,INI,FM,M1,33.246455524129,%MAX
PAT,P17,INI,FM,M2,35.151749820695095,%MAX
PAT,P17,INI,FM,M3,40.30646523242375,%MAX
PAT,P17,REL,FM,M1,41.98455749928511,%MAX
PAT,P17,REL,FM,M2,41.962314830806704,%MAX
PAT,P17,REL,FM,M3,61.85742182555727,%MAX
PAT,P24,INI,FM,M1,21.16511299092226,%MAX
PAT,P24,INI,FM,M2,25.073022286899327,%MAX
PAT,P24,INI,FM,M3,35.26220932777974,%MAX
PAT,P24,REL,FM,M1,16.89911583264513,%MAX
PAT,P24,REL,FM,M2,17.993569762953406,%MAX
PAT,P24,REL,FM,M3,20.764321608737554,%MAX
PAT,P26,INI,FM,M1,16.952887941253273,%MAX
PAT,P26,INI,FM,M2,16.38189675393641,%MAX
PAT,P26,INI,FM,M3,75.32945951810255,%MAX
PAT,P26,REL,FM,M1,18.012804274356927,%MAX
PAT,P26,REL,FM,M2,23.157457243894388,%MAX
PAT,P26,REL,FM,M3,36.41343973788399,%MAX
PAT,P27,INI,FM,M1,18.666638263271903,%MAX
PAT,P27,INI,FM,M2,14.836252041582018,%MAX
PAT,P27,INI,FM,M3,32.49698560168691,%MAX
PAT,P27,REL,FM,M1,16.761432128548673,%MAX
PAT,P27,REL,FM,M2,15.388602832208033,%MAX
PAT,P27,REL,FM,M3,25.570804177166934,%MAX
PAT,P28,INI,FM,M1,12.727204646743623,%MAX
PAT,P28,INI,FM,M2,19.658133321715077,%MAX
PAT,P28,INI,FM,M3,25.683787518478727,%MAX
PAT,P28,REL,FM,M1,13.238323151189313,%MAX
PAT,P28,REL,FM,M2,12.589230258885776,%MAX
PAT,P28,REL,FM,M3,36.587003525207734,%MAX
PAT,P29,INI,FM,M1,15.413981153014516,%MAX
PAT,P29,INI,FM,M2,22.40279068107072,%MAX
PAT,P29,INI,FM,M3,52.92958953559839,%MAX
PAT,P29,REL,FM,M1,17.154394420492267,%MAX
PAT,P29,REL,FM,M2,17.836330060700657,%MAX
PAT,P29,REL,FM,M3,52.04422925024852,%MAX
PAT,P32,INI,FM,M1,18.41839475940077,%MAX
PAT,P32,INI,FM,M2,22.632196161536235,%MAX
PAT,P32,INI,FM,M3,65.00637630216833,%MAX
PAT,P32,REL,FM,M1,26.033159250609412,%MAX
PAT,P32,REL,FM,M2,34.91894155048475,%MAX
PAT,P32,REL,FM,M3,55.277260598627315,%MAX
PAT,P33,INI,FM,M1,30.500322962724486,%MAX
PAT,P33,INI,FM,M2,36.203199153875055,%MAX
PAT,P33,INI,FM,M3,38.51431583111491,%MAX
PAT,P33,REL,FM,M1,1.5749173008363484,%MAX
PAT,P33,REL,FM,M2,2.9819472641789746,%MAX
PAT,P33,REL,FM,M3,3.6171018038447063,%MAX
PAT,P34,INI,FM,M1,38.25671584530886,%MAX
PAT,P34,INI,FM,M2,31.221379173266115,%MAX
PAT,P34,INI,FM,M3,34.12632247362037,%MAX
PAT,P34,REL,FM,M1,29.29688349131435,%MAX
PAT,P34,REL,FM,M2,36.01737681302257,%MAX
PAT,P34,REL,FM,M3,42.93097021613441,%MAX
PAT,P36,INI,FM,M1,21.394626706744603,%MAX
PAT,P36,INI,FM,M2,33.58467702772597,%MAX
PAT,P36,INI,FM,M3,66.4406649222144,%MAX
PAT,P36,REL,FM,M1,13.15871871585629,%MAX
PAT,P36,REL,FM,M2,13.51859046383188,%MAX
PAT,P36,REL,FM,M3,76.26710663334586,%MAX
PAT,P41,INI,FM,M1,16.23682538209051,%MAX
PAT,P41,INI,FM,M2,15.920923430586248,%MAX
PAT,P41,INI,FM,M3,46.53441574364022,%MAX
PAT,P41,REL,FM,M1,19.348398864907317,%MAX
PAT,P41,REL,FM,M2,22.48422988193922,%MAX
PAT,P41,REL,FM,M3,51.628269084991416,%MAX
PAT,P42,INI,FM,M1,22.796563642135556,%MAX
PAT,P42,INI,FM,M2,16.75874625599679,%MAX
PAT,P42,INI,FM,M3,19.938723084975468,%MAX
PAT,P42,REL,FM,M1,13.998824847094435,%MAX
PAT,P42,REL,FM,M2,19.010128733853737,%MAX
PAT,P42,REL,FM,M3,76.46096521822172,%MAX
PAT,P43,INI,FM,M1,18.527614271803515,%MAX
PAT,P43,INI,FM,M2,36.14687806934165,%MAX
PAT,P43,INI,FM,M3,59.458797264272484,%MAX
PAT,P43,REL,FM,M1,40.68499304181453,%MAX
PAT,P43,REL,FM,M2,31.76530521193906,%MAX
PAT,P43,REL,FM,M3,51.935416823981754,%MAX
PAT,P45,INI,FM,M1,26.028112137875077,%MAX
PAT,P45,INI,FM,M2,31.134026222618086,%MAX
PAT,P45,INI,FM,M3,30.49617369977843,%MAX
PAT,P45,REL,FM,M1,21.770506118357968,%MAX
PAT,P45,REL,FM,M2,22.543713837152172,%MAX
PAT,P45,REL,FM,M3,20.881540713080597,%MAX
PAT,P47,INI,FM,M1,18.38533148489305,%MAX
PAT,P47,INI,FM,M2,17.444756609458683,%MAX
PAT,P47,INI,FM,M3,15.51116566785503,%MAX
PAT,P47,REL,FM,M1,26.88406460298513,%MAX
PAT,P47,REL,FM,M2,32.046012243705675,%MAX
PAT,P47,REL,FM,M3,51.04404973189264,%MAX
PAT,P50,INI,FM,M1,24.25469069065724,%MAX
PAT,P50,INI,FM,M2,27.2475629785571,%MAX
PAT,P50,INI,FM,M3,66.7221010049692,%MAX
PAT,P50,REL,FM,M1,16.752801438298025,%MAX
PAT,P50,REL,FM,M2,17.26722449231022,%MAX
PAT,P50,REL,FM,M3,17.965807542311293,%MAX
PAT,P51,INI,FM,M1,21.76880704625675,%MAX
PAT,P51,INI,FM,M2,16.535073750836094,%MAX
PAT,P51,INI,FM,M3,20.010363565459237,%MAX
PAT,P51,REL,FM,M1,63.321749079774385,%MAX
PAT,P51,REL,FM,M2,58.79748286435093,%MAX
PAT,P51,REL,FM,M3,75.45311369290772,%MAX
PAT,P53,INI,FM,M1,28.900021217314514,%MAX
PAT,P53,INI,FM,M2,24.545308623117307,%MAX
PAT,P53,INI,FM,M3,28.420902232448224,%MAX
PAT,P53,REL,FM,M1,33.973674423146285,%MAX
PAT,P53,REL,FM,M2,27.325656085750555,%MAX
PAT,P53,REL,FM,M3,69.09887863026498,%MAX
PAT,P54,INI,FM,M1,58.504746474270156,%MAX
PAT,P54,INI,FM,M2,46.866607544968886,%MAX
PAT,P54,INI,FM,M3,97.76881783829158,%MAX
PAT,P54,REL,FM,M1,29.93792879518086,%MAX
PAT,P54,REL,FM,M2,46.285076161687805,%MAX
PAT,P54,REL,FM,M3,51.80839752562157,%MAX
PAT,P58,INI,FM,M1,62.88027284920859,%MAX
PAT,P58,INI,FM,M2,78.60553854576,%MAX
PAT,P58,INI,FM,M3,64.51356191865295,%MAX
PAT,P58,REL,FM,M1,29.749308106198832,%MAX
PAT,P58,REL,FM,M2,36.44095515191656,%MAX
PAT,P58,REL,FM,M3,40.31227026220808,%MAX
PAT,P61,INI,FM,M1,44.31679792453869,%MAX
PAT,P61,INI,FM,M2,48.452071994419285,%MAX
PAT,P61,INI,FM,M3,47.75684237568793,%MAX
PAT,P61,REL,FM,M1,33.918973257034516,%MAX
PAT,P61,REL,FM,M2,57.3156946105712,%MAX
PAT,P61,REL,FM,M3,53.263802508977484,%MAX
PAT,P62,INI,FM,M1,49.654037842056766,%MAX
PAT,P62,INI,FM,M2,54.06365820275791,%MAX
PAT,P62,INI,FM,M3,46.77999082926869,%MAX
PAT,P62,REL,FM,M1,50.00533497562081,%MAX
PAT,P62,REL,FM,M2,77.25761958103742,%MAX
PAT,P62,REL,FM,M3,68.71264076815416,%MAX
PAT,P63,INI,FM,M1,24.589007132496594,%MAX
PAT,P63,INI,FM,M2,39.34064576716919,%MAX
PAT,P63,INI,FM,M3,40.06508500460279,%MAX
PAT,P63,REL,FM,M1,44.915340713124465,%MAX
PAT,P63,REL,FM,M2,41.400314756318814,%MAX
PAT,P63,REL,FM,M3,67.55524563974875,%MAX
PAT,P65,INI,FM,M1,52.005438815361714,%MAX
PAT,P65,INI,FM,M2,35.1264035661907,%MAX
PAT,P65,INI,FM,M3,37.22517619616434,%MAX
PAT,P65,REL,FM,M1,28.981885726053807,%MAX
PAT,P65,REL,FM,M2,34.9483978723301,%MAX
PAT,P65,REL,FM,M3,54.333182962240244,%MAX
