Group,Participant,Session,Operator,Measure,Value,Unit
PAT,P09,INI,FM,M1,117.27211083281436,Hz
PAT,P09,INI,FM,M2,112.820679433086,Hz
PAT,P09,INI,FM,M3,112.37250885836605,Hz
PAT,P09,REL,FM,M1,122.22501009078734,Hz
PAT,P09,REL,FM,M2,119.14393709600036,Hz
PAT,P09,REL,FM,M3,116.63512976982852,Hz
PAT,P10,INI,FM,M1,114.70314520976828,Hz
PAT,P10,INI,FM,M2,112.40775407053997,Hz
PAT,P10,INI,FM,M3,112.44217234406716,Hz
PAT,P10,REL,FM,M1,118.71698527455835,Hz
PAT,P10,REL,FM,M2,114.45613915315089,Hz
PAT,P10,REL,FM,M3,114.94699636887871,Hz
PAT,P11,INI,FM,M1,96.71720048968947,Hz
PAT,P11,INI,FM,M2,97.96258680053285,Hz
PAT,P11,INI,FM,M3,83.85057951335999,Hz
PAT,P11,REL,FM,M1,99.51832643350916,Hz
PAT,P11,REL,FM,M2,103.16137030597608,Hz
PAT,P11,REL,FM,M3,103.81292652594934,Hz
PAT,P12,INI,FM,M1,94.42690765556505,Hz
PAT,P12,INI,FM,M2,94.64889078996389,Hz
PAT,P12,INI,FM,M3,91.23688307002902,Hz
PAT,P12,REL,FM,M1,91.08590434517886,Hz
PAT,P12,REL,FM,M2,95.2535601419117,Hz
PAT,P12,REL,FM,M3,93.57272928140829,Hz
PAT,P14,INI,FM,M1,88.39632210218424,Hz
PAT,P14,INI,FM,M2,89.4976178404621,Hz
PAT,P14,INI,FM,M3,86.77299656251613,Hz
PAT,P14,REL,FM,M1,91.8611659462939,Hz
PAT,P14,REL,FM,M2,95.48131660620128,Hz
PAT,P14,REL,FM,M3,94.25962301142128,Hz
PAT,P17,INI,FM,M1,132.99710245231051,Hz
PAT,P17,INI,FM,M2,136.22363771711346,Hz
PAT,P17,INI,FM,M3,111.50852402754394,Hz
PAT,P17,REL,FM,M1,118.57430457654536,Hz
PAT,P17,REL,FM,M2,133.2586764593452,Hz
PAT,P17,REL,FM,M3,126.276980290325,Hz
PAT,P24,INI,FM,M1,125.15165977677962,Hz
PAT,P24,INI,FM,M2,122.1854667648247,Hz
PAT,P24,INI,FM,M3,118.28064111748908,Hz
PAT,P24,REL,FM,M1,86.64026188637355,Hz
PAT,P24,REL,FM,M2,89.0989924675737,Hz
PAT,P24,REL,FM,M3,86.60082592789234,Hz
PAT,P26,INI,FM,M1,104.08523639560008,Hz
PAT,P26,INI,FM,M2,95.87211569027176,Hz
PAT,P26,INI,FM,M3,89.95126893623677,Hz
PAT,P26,REL,FM,M1,98.43597760137192,Hz
PAT,P26,REL,FM,M2,95.73340731558396,Hz
PAT,P26,REL,FM,M3,90.52297847841008,Hz
PAT,P27,INI,FM,M1,96.69429701881222,Hz
PAT,P27,INI,FM,M2,98.53740025494083,Hz
PAT,P27,INI,FM,M3,95.5860082476013,Hz
PAT,P27,REL,FM,M1,98.56055154814376,Hz
PAT,P27,REL,FM,M2,87.37096721688208,Hz
PAT,P27,REL,FM,M3,87.63450587263927,Hz
PAT,P28,INI,FM,M1,105.07649660523548,Hz
PAT,P28,INI,FM,M2,101.1266863831904,Hz
PAT,P28,INI,FM,M3,99.62250962790075,Hz
PAT,P28,REL,FM,M1,105.2484852885462,Hz
PAT,P28,REL,FM,M2,101.38716076754326,Hz
PAT,P28,REL,FM,M3,103.38339566106308,Hz
PAT,P29,INI,FM,M1,103.9286543905965,Hz
PAT,P29,INI,FM,M2,100.6142734751655,Hz
PAT,P29,INI,FM,M3,94.52499146459546,Hz
PAT,P29,REL,FM,M1,111.92672268805326,Hz
PAT,P29,REL,FM,M2,105.31423304918222,Hz
PAT,P29,REL,FM,M3,100.73071221680048,Hz
PAT,P32,INI,FM,M1,111.15667132174372,Hz
PAT,P32,INI,FM,M2,103.65191355765052,Hz
PAT,P32,INI,FM,M3,98.06468186815414,Hz
PAT,P32,REL,FM,M1,141.42215231839307,Hz
PAT,P32,REL,FM,M2,135.50888808977123,Hz
PAT,P32,REL,FM,M3,128.72714390671982,Hz
PAT,P33,INI,FM,M1,65.83972713895524,Hz
PAT,P33,INI,FM,M2,68.89481422481514,Hz
PAT,P33,INI,FM,M3,71.13731467996726,Hz
PAT,P33,REL,FM,M1,80.85424708291292,Hz
PAT,P33,REL,FM,M2,79.57265357498154,Hz
PAT,P33,REL,FM,M3,82.42498475605831,Hz
PAT,P34,INI,FM,M1,102.37428375448356,Hz
PAT,P34,INI,FM,M2,96.62157415632376,Hz
PAT,P34,INI,FM,M3,96.48531515436186,Hz
PAT,P34,REL,FM,M1,100.39655934307272,Hz
PAT,P34,REL,FM,M2,99.71558418673104,Hz
PAT,P34,REL,FM,M3,95.5101747733112,Hz
PAT,P36,INI,FM,M1,100.2073655570594,Hz
PAT,P36,INI,FM,M2,98.69444645448556,Hz
PAT,P36,INI,FM,M3,96.40576845523252,Hz
PAT,P36,REL,FM,M1,119.27975891564628,Hz
PAT,P36,REL,FM,M2,121.33711418484933,Hz
PAT,P36,REL,FM,M3,119.33523984081134,Hz
PAT,P41,INI,FM,M1,96.60168558173564,Hz
PAT,P41,INI,FM,M2,94.85791369653408,Hz
PAT,P41,INI,FM,M3,94.34507800525994,Hz
PAT,P41,REL,FM,M1,100.3960057175827,Hz
PAT,P41,REL,FM,M2,96.99576156938517,Hz
PAT,P41,REL,FM,M3,97.38230241302604,Hz
PAT,P42,INI,FM,M1,127.02103335544872,Hz
PAT,P42,INI,FM,M2,123.04145698787087,Hz
PAT,P42,INI,FM,M3,121.57040857696478,Hz
PAT,P42,REL,FM,M1,121.34075907442644,Hz
PAT,P42,REL,FM,M2,122.67848107480997,Hz
PAT,P42,REL,FM,M3,121.58711783709587,Hz
PAT,P43,INI,FM,M1,128.79759994471485,Hz
PAT,P43,INI,FM,M2,126.2295194462895,Hz
PAT,P43,INI,FM,M3,122.96262679231508,Hz
PAT,P43,REL,FM,M1,135.11130313397487,Hz
PAT,P43,REL,FM,M2,129.95889861822647,Hz
PAT,P43,REL,FM,M3,128.81819241238676,Hz
PAT,P45,INI,FM,M1,78.92052267616825,Hz
PAT,P45,INI,FM,M2,82.07802808119324,Hz
PAT,P45,INI,FM,M3,80.67788908774251,Hz
PAT,P45,REL,FM,M1,87.14627976241712,Hz
PAT,P45,REL,FM,M2,90.76860592469252,Hz
PAT,P45,REL,FM,M3,89.73164502829708,Hz
PAT,P47,INI,FM,M1,144.28886246907695,Hz
PAT,P47,INI,FM,M2,139.1404702244293,Hz
PAT,P47,INI,FM,M3,137.90502750278552,Hz
PAT,P47,REL,FM,M1,111.71909966751356,Hz
PAT,P47,REL,FM,M2,108.17617226169932,Hz
PAT,P47,REL,FM,M3,106.86581008048616,Hz
PAT,P50,INI,FM,M1,110.8680617415795,Hz
PAT,P50,INI,FM,M2,105.14298175737662,Hz
PAT,P50,INI,FM,M3,104.3251604618395,Hz
PAT,P50,REL,FM,M1,115.63739356708692,Hz
PAT,P50,REL,FM,M2,110.83556740459362,Hz
PAT,P50,REL,FM,M3,108.44697518425264,Hz
PAT,P51,INI,FM,M1,84.43583279217249,Hz
PAT,P51,INI,FM,M2,76.24031731052743,Hz
PAT,P51,INI,FM,M3,85.21246054340833,Hz
PAT,P51,REL,FM,M1,74.39320138714328,Hz
PAT,P51,REL,FM,M2,62.3601353297064,Hz
PAT,P51,REL,FM,M3,76.67273798270216,Hz
PAT,P53,INI,FM,M1,121.05034106777434,Hz
PAT,P53,INI,FM,M2,121.06523628542354,Hz
PAT,P53,INI,FM,M3,122.17838281761732,Hz
PAT,P53,REL,FM,M1,121.6881085504844,Hz
PAT,P53,REL,FM,M2,119.34101328090756,Hz
PAT,P53,REL,FM,M3,118.7023625396508,Hz
PAT,P54,INI,FM,M1,117.38758049599728,Hz
PAT,P54,INI,FM,M2,115.6818880050821,Hz
PAT,P54,INI,FM,M3,113.59369918813036,Hz
PAT,P54,REL,FM,M1,122.0158988009999,Hz
PAT,P54,REL,FM,M2,116.20367984743044,Hz
PAT,P54,REL,FM,M3,110.38108838157515,Hz
PAT,P58,INI,FM,M1,110.6721985455085,Hz
PAT,P58,INI,FM,M2,83.50534180054623,Hz
PAT,P58,INI,FM,M3,78.3162796753059,Hz
PAT,P58,REL,FM,M1,110.5386581698544,Hz
PAT,P58,REL,FM,M2,109.36588710758038,Hz
PAT,P58,REL,FM,M3,104.6656568205643,Hz
PAT,P61,REL,FM,M1,74.94036336864035,Hz
PAT,P61,REL,FM,M2,70.5469605778036,Hz
PAT,P61,REL,FM,M3,79.47183723233303,Hz
PAT,P62,INI,FM,M1,86.76642206493932,Hz
PAT,P62,INI,FM,M2,90.33365264176386,Hz
PAT,P62,INI,FM,M3,89.54362384417442,Hz
PAT,P62,REL,FM,M1,95.3236720524838,Hz
PAT,P62,REL,FM,M2,98.0608415301533,Hz
PAT,P62,REL,FM,M3,97.11658851826742,Hz
PAT,P63,INI,FM,M1,118.44094151334926,Hz
PAT,P63,INI,FM,M2,122.49822911552684,Hz
PAT,P63,INI,FM,M3,124.14939136672244,Hz
PAT,P63,REL,FM,M1,119.34086113067502,Hz
PAT,P63,REL,FM,M2,116.0604403558414,Hz
PAT,P63,REL,FM,M3,118.90417394815354,Hz
PAT,P65,INI,FM,M1,97.62975651096777,Hz
PAT,P65,INI,FM,M2,89.55319278667382,Hz
PAT,P65,INI,FM,M3,89.43143435372073,Hz
PAT,P65,REL,FM,M1,108.12808889940672,Hz
PAT,P65,REL,FM,M2,107.16601560579215,Hz
PAT,P65,REL,FM,M3,107.10476277036938,Hz
