Group,Participant,Session,Operator,Measure,Value,Unit
PAT,P09,INI,FM,M1,0.0089907864504012,V
PAT,P09,INI,FM,M2,0.0093622936116734,V
PAT,P09,INI,FM,M3,0.0090194322771404,V
PAT,P09,REL,FM,M1,0.0098721188496878,V
PAT,P09,REL,FM,M2,0.0140067141431095,V
PAT,P09,REL,FM,M3,0.0117439786037066,V
PAT,P10,INI,FM,M1,0.0118139038863065,V
PAT,P10,INI,FM,M2,0.0094950646121405,V
PAT,P10,INI,FM,M3,0.0076393969078912,V
PAT,P10,REL,FM,M1,0.0067058231155878,V
PAT,P10,REL,FM,M2,0.0044834126652712,V
PAT,P10,REL,FM,M3,,V
PAT,P11,INI,FM,M1,0.0074599359283344,V
PAT,P11,INI,FM,M2,0.0057951675593774,V
PAT,P11,INI,FM,M3,0.0044110134401503,V
PAT,P11,REL,FM,M1,0.0074198462910489,V
PAT,P11,REL,FM,M2,0.0082302153146634,V
PAT,P11,REL,FM,M3,0.0047460003333008,V
PAT,P12,INI,FM,M1,,V
PAT,P12,INI,FM,M2,,V
PAT,P12,INI,FM,M3,,V
PAT,P12,REL,FM,M1,0.0370211745278351,V
PAT,P12,REL,FM,M2,0.0446891530702017,V
PAT,P12,REL,FM,M3,0.0417588865951311,V
PAT,P14,INI,FM,M1,0.0121988216238215,V
PAT,P14,INI,FM,M2,0.0105542029962402,V
PAT,P14,INI,FM,M3,0.0126768222961787,V
PAT,P14,REL,FM,M1,0.0095115124743841,V
PAT,P14,REL,FM,M2,,V
PAT,P14,REL,FM,M3,0.0115944115992313,V
PAT,P17,INI,FM,M1,0.0103919800478953,V
PAT,P17,INI,FM,M2,0.0132804038348475,V
PAT,P17,INI,FM,M3,0.0123179982587237,V
PAT,P17,REL,FM,M1,0.0093594959307718,V
PAT,P17,REL,FM,M2,0.0124802525178218,V
PAT,P17,REL,FM,M3,0.0111379186007411,V
PAT,P24,INI,FM,M1,0.0103984954365452,V
PAT,P24,INI,FM,M2,0.0117456287084275,V
PAT,P24,INI,FM,M3,0.0110210255905272,V
PAT,P24,REL,FM,M1,0.0105121336638684,V
PAT,P24,REL,FM,M2,0.0092310887675059,V
PAT,P24,REL,FM,M3,0.0113363302165287,V
PAT,P26,INI,FM,M1,0.019657236776005,V
PAT,P26,INI,FM,M2,0.012512792702885,V
PAT,P26,INI,FM,M3,0.0114481650466647,V
PAT,P26,REL,FM,M1,0.009488338459789,V
PAT,P26,REL,FM,M2,0.010544534257052,V
PAT,P26,REL,FM,M3,0.0083415542569877,V
PAT,P27,INI,FM,M1,0.012459351572339,V
PAT,P27,INI,FM,M2,0.0111420065852141,V
PAT,P27,INI,FM,M3,0.0153598319971981,V
PAT,P27,REL,FM,M1,0.0126465118267359,V
PAT,P27,REL,FM,M2,0.0124981458556569,V
PAT,P27,REL,FM,M3,0.010654116218939,V
PAT,P28,INI,FM,M1,,V
PAT,P28,INI,FM,M2,,V
PAT,P28,INI,FM,M3,0.0061643177605192,V
PAT,P28,REL,FM,M1,0.0067525817416164,V
PAT,P28,REL,FM,M2,0.0086849747836214,V
PAT,P28,REL,FM,M3,0.0056519567000637,V
PAT,P29,INI,FM,M1,0.0206064263073981,V
PAT,P29,INI,FM,M2,0.0208677262216831,V
PAT,P29,INI,FM,M3,0.019514575436554,V
PAT,P29,REL,FM,M1,0.0214860555796464,V
PAT,P29,REL,FM,M2,0.0184435272228539,V
PAT,P29,REL,FM,M3,0.0143922435449341,V
PAT,P32,INI,FM,M1,0.008485107619972,V
PAT,P32,INI,FM,M2,0.0092419904241231,V
PAT,P32,INI,FM,M3,0.0089888720969353,V
PAT,P32,REL,FM,M1,0.0098313797928877,V
PAT,P32,REL,FM,M2,0.0088273683445553,V
PAT,P32,REL,FM,M3,0.0091037632013917,V
PAT,P33,INI,FM,M1,0.0057356003552418,V
PAT,P33,INI,FM,M2,0.0053007457326821,V
PAT,P33,INI,FM,M3,0.0056427070765864,V
PAT,P33,REL,FM,M1,0.0061609341489796,V
PAT,P33,REL,FM,M2,0.0083689534662373,V
PAT,P33,REL,FM,M3,0.0074126810433855,V
PAT,P34,INI,FM,M1,0.0121981045515605,V
PAT,P34,INI,FM,M2,0.0127009525123771,V
PAT,P34,INI,FM,M3,,V
PAT,P34,REL,FM,M1,0.0121958932181201,V
PAT,P34,REL,FM,M2,0.01291296331806,V
PAT,P34,REL,FM,M3,0.010989914117308,V
PAT,P36,INI,FM,M1,0.014484410561026,V
PAT,P36,INI,FM,M2,0.0167581836157178,V
PAT,P36,INI,FM,M3,0.0136546386856739,V
PAT,P36,REL,FM,M1,0.0163265973688169,V
PAT,P36,REL,FM,M2,0.0170932157730056,V
PAT,P36,REL,FM,M3,0.0128025392615789,V
PAT,P41,INI,FM,M1,0.0234010866264052,V
PAT,P41,INI,FM,M2,0.0220516388156166,V
PAT,P41,INI,FM,M3,0.0177839306647199,V
PAT,P41,REL,FM,M1,0.022898671628741,V
PAT,P41,REL,FM,M2,0.0224915249475183,V
PAT,P41,REL,FM,M3,0.012901225169836,V
PAT,P42,INI,FM,M1,0.0176877100881057,V
PAT,P42,INI,FM,M2,0.0146379744756056,V
PAT,P42,INI,FM,M3,0.0141164760553681,V
PAT,P42,REL,FM,M1,0.0207132083038591,V
PAT,P42,REL,FM,M2,0.0176767207519756,V
PAT,P42,REL,FM,M3,,V
PAT,P43,INI,FM,M1,0.0110316664022474,V
PAT,P43,INI,FM,M2,0.0111562208649367,V
PAT,P43,INI,FM,M3,0.0084180261317582,V
PAT,P43,REL,FM,M1,0.0123994028179849,V
PAT,P43,REL,FM,M2,0.0156418968348945,V
PAT,P43,REL,FM,M3,0.0103884094282993,V
PAT,P45,INI,FM,M1,,V
PAT,P45,INI,FM,M2,,V
PAT,P45,INI,FM,M3,,V
PAT,P45,REL,FM,M1,,V
PAT,P45,REL,FM,M2,,V
PAT,P45,REL,FM,M3,,V
PAT,P47,INI,FM,M1,0.010074739602886,V
PAT,P47,INI,FM,M2,0.0112161289414719,V
PAT,P47,INI,FM,M3,0.0074000172977151,V
PAT,P47,REL,FM,M1,0.0116363270774205,V
PAT,P47,REL,FM,M2,0.0099332245341085,V
PAT,P47,REL,FM,M3,0.0085056561422891,V
PAT,P50,INI,FM,M1,0.0164399126800704,V
PAT,P50,INI,FM,M2,0.0165667338941521,V
PAT,P50,INI,FM,M3,0.0136422485027671,V
PAT,P50,REL,FM,M1,0.017367025958552,V
PAT,P50,REL,FM,M2,0.017133704425073,V
PAT,P50,REL,FM,M3,0.0219464401917006,V
PAT,P51,INI,FM,M1,0.0076636652269894,V
PAT,P51,INI,FM,M2,0.0088275167367302,V
PAT,P51,INI,FM,M3,0.0081648476548215,V
PAT,P51,REL,FM,M1,0.0082539922512454,V
PAT,P51,REL,FM,M2,0.0095293376829277,V
PAT,P51,REL,FM,M3,0.0100917072858178,V
PAT,P53,INI,FM,M1,0.0108588510087158,V
PAT,P53,INI,FM,M2,0.0094308381913486,V
PAT,P53,INI,FM,M3,0.009118375647654,V
PAT,P53,REL,FM,M1,0.0125488055529417,V
PAT,P53,REL,FM,M2,0.0123529642113281,V
PAT,P53,REL,FM,M3,0.0115485117598152,V
PAT,P54,INI,FM,M1,0.0182302442075434,V
PAT,P54,INI,FM,M2,0.0202927540617532,V
PAT,P54,INI,FM,M3,0.017529300272275,V
PAT,P54,REL,FM,M1,0.0131255960058338,V
PAT,P54,REL,FM,M2,0.0134558090660971,V
PAT,P54,REL,FM,M3,0.0119737141322189,V
PAT,P58,INI,FM,M1,0.0046276292869487,V
PAT,P58,INI,FM,M2,0.0044945867399674,V
PAT,P58,INI,FM,M3,0.0043527749587241,V
PAT,P58,REL,FM,M1,0.0349529510424956,V
PAT,P58,REL,FM,M2,0.0685594296336863,V
PAT,P58,REL,FM,M3,0.0598919648618413,V
PAT,P61,INI,FM,M1,0.0122495223325201,V
PAT,P61,INI,FM,M2,0.0132743006926274,V
PAT,P61,INI,FM,M3,0.0121881246753152,V
PAT,P61,REL,FM,M1,0.0112130402282799,V
PAT,P61,REL,FM,M2,0.0151705092467535,V
PAT,P61,REL,FM,M3,0.0152129111485912,V
PAT,P62,INI,FM,M1,0.0049615341277659,V
PAT,P62,INI,FM,M2,0.0044602169592971,V
PAT,P62,INI,FM,M3,0.0041957399222167,V
PAT,P62,REL,FM,M1,0.0076795214106218,V
PAT,P62,REL,FM,M2,0.0062191891467523,V
PAT,P62,REL,FM,M3,0.0064067575310199,V
PAT,P63,INI,FM,M1,,V
PAT,P63,INI,FM,M2,,V
PAT,P63,INI,FM,M3,,V
PAT,P63,REL,FM,M1,0.0100283990843268,V
PAT,P63,REL,FM,M2,0.0089516106970381,V
PAT,P63,REL,FM,M3,0.0096394144461794,V
PAT,P65,INI,FM,M1,0.0166967619277447,V
PAT,P65,INI,FM,M2,0.016868233437508,V
PAT,P65,INI,FM,M3,0.0138747589189548,V
PAT,P65,REL,FM,M1,0.0165511673225386,V
PAT,P65,REL,FM,M2,0.0159253905709282,V
PAT,P65,REL,FM,M3,0.0167866400866864,V
