Group,Participant,Session,Operator,Measure,Value,Unit
CTR,P01,INI,FM,M1,29.465469409743026,%MAX
CTR,P01,INI,FM,M2,28.417651496710196,%MAX
CTR,P01,INI,FM,M3,29.023024194014482,%MAX
CTR,P01,REL,FM,M1,19.936108038375952,%MAX
CTR,P01,REL,FM,M2,28.576738745802984,%MAX
CTR,P01,REL,FM,M3,25.810237779507577,%MAX
CTR,P02,INI,FM,M1,,%MAX
CTR,P02,INI,FM,M2,,%MAX
CTR,P02,INI,FM,M3,,%MAX
CTR,P02,REL,FM,M1,28.495909482722123,%MAX
CTR,P02,REL,FM,M2,31.00976265361437,%MAX
CTR,P02,REL,FM,M3,34.37221567801916,%MAX
CTR,P03,INI,FM,M1,32.218882149839274,%MAX
CTR,P03,INI,FM,M2,29.216815195430687,%MAX
CTR,P03,INI,FM,M3,32.33531580789865,%MAX
CTR,P03,REL,FM,M1,32.59889043268358,%MAX
CTR,P03,REL,FM,M2,31.231305905904346,%MAX
CTR,P03,REL,FM,M3,31.858195831767006,%MAX
CTR,P05,INI,FM,M1,18.38030254465716,%MAX
CTR,P05,INI,FM,M2,21.87394821128939,%MAX
CTR,P05,INI,FM,M3,18.66931217003175,%MAX
CTR,P05,REL,FM,M1,21.87473478603526,%MAX
CTR,P05,REL,FM,M2,20.94160823156754,%MAX
CTR,P05,REL,FM,M3,20.84336808326503,%MAX
CTR,P06,INI,FM,M1,16.56343915752864,%MAX
CTR,P06,INI,FM,M2,14.79824744757965,%MAX
CTR,P06,INI,FM,M3,17.928059578733382,%MAX
CTR,P06,REL,FM,M1,27.474925796139168,%MAX
CTR,P06,REL,FM,M2,27.465278460978684,%MAX
CTR,P06,REL,FM,M3,28.426645612642442,%MAX
CTR,P07,INI,FM,M1,25.249452176598876,%MAX
CTR,P07,INI,FM,M2,30.876721335534473,%MAX
CTR,P07,INI,FM,M3,33.04599213264526,%MAX
CTR,P07,REL,FM,M1,31.800500123633785,%MAX
CTR,P07,REL,FM,M2,31.15989074096491,%MAX
CTR,P07,REL,FM,M3,34.34574984271509,%MAX
CTR,P08,INI,FM,M1,19.364956633929204,%MAX
CTR,P08,INI,FM,M2,24.11252166374297,%MAX
CTR,P08,INI,FM,M3,23.518510160355692,%MAX
CTR,P08,REL,FM,M1,19.94327428820221,%MAX
CTR,P08,REL,FM,M2,20.160239758754834,%MAX
CTR,P08,REL,FM,M3,18.559960147912214,%MAX
CTR,P13,INI,FM,M1,32.273794621903406,%MAX
CTR,P13,INI,FM,M2,34.471254938047515,%MAX
CTR,P13,INI,FM,M3,33.64149563431991,%MAX
CTR,P13,REL,FM,M1,26.14315712364403,%MAX
CTR,P13,REL,FM,M2,24.424551389235496,%MAX
CTR,P13,REL,FM,M3,22.960718845597704,%MAX
CTR,P16,REL,FM,M1,32.74175556262555,%MAX
CTR,P16,REL,FM,M2,32.38956378548671,%MAX
CTR,P16,REL,FM,M3,35.597208749828,%MAX
CTR,P21,REL,FM,M1,25.698782100148833,%MAX
CTR,P21,REL,FM,M2,25.56599933249963,%MAX
CTR,P21,REL,FM,M3,26.328032654527348,%MAX
CTR,P22,INI,FM,M1,27.924015411882387,%MAX
CTR,P22,INI,FM,M2,31.46490823150954,%MAX
CTR,P22,INI,FM,M3,33.063787602572056,%MAX
CTR,P23,INI,FM,M1,17.633018553235164,%MAX
CTR,P23,INI,FM,M2,21.47708835333535,%MAX
CTR,P23,INI,FM,M3,27.734927600325427,%MAX
CTR,P23,REL,FM,M1,,%MAX
CTR,P23,REL,FM,M2,,%MAX
CTR,P23,REL,FM,M3,,%MAX
CTR,P25,INI,FM,M1,,%MAX
CTR,P25,INI,FM,M2,,%MAX
CTR,P25,INI,FM,M3,,%MAX
CTR,P25,REL,FM,M1,,%MAX
CTR,P25,REL,FM,M2,,%MAX
CTR,P25,REL,FM,M3,,%MAX
CTR,P38,REL,FM,M1,17.96016617045304,%MAX
CTR,P38,REL,FM,M2,22.54751589229776,%MAX
CTR,P38,REL,FM,M3,23.41876750343394,%MAX
CTR,P39,INI,FM,M1,18.19807439568794,%MAX
CTR,P39,INI,FM,M2,15.573713116912685,%MAX
CTR,P39,INI,FM,M3,25.88108357211537,%MAX
CTR,P39,REL,FM,M1,34.159476876006565,%MAX
CTR,P39,REL,FM,M2,22.39896602012348,%MAX
CTR,P39,REL,FM,M3,29.48319127568257,%MAX
CTR,P40,REL,FM,M1,23.791111172838054,%MAX
CTR,P40,REL,FM,M2,22.63603142443812,%MAX
CTR,P40,REL,FM,M3,33.00846923078529,%MAX
CTR,P44,REL,FM,M1,,%MAX
CTR,P44,REL,FM,M2,,%MAX
CTR,P44,REL,FM,M3,,%MAX
CTR,P46,INI,FM,M1,,%MAX
CTR,P46,INI,FM,M2,,%MAX
CTR,P46,INI,FM,M3,,%MAX
CTR,P46,REL,FM,M1,,%MAX
CTR,P46,REL,FM,M2,,%MAX
CTR,P46,REL,FM,M3,,%MAX
CTR,P48,INI,FM,M1,26.770695167313285,%MAX
CTR,P48,INI,FM,M2,23.32169703585793,%MAX
CTR,P48,INI,FM,M3,37.36268763270918,%MAX
CTR,P49,REL,FM,M1,20.77447996407448,%MAX
CTR,P49,REL,FM,M2,24.81396872633417,%MAX
CTR,P49,REL,FM,M3,34.380885010917055,%MAX
CTR,P52,INI,FM,M1,31.304426933846646,%MAX
CTR,P52,INI,FM,M2,29.278517763285336,%MAX
CTR,P52,INI,FM,M3,28.391812272206902,%MAX
CTR,P52,REL,FM,M1,,%MAX
CTR,P52,REL,FM,M2,,%MAX
CTR,P52,REL,FM,M3,,%MAX
CTR,P55,INI,FM,M1,32.41687775392011,%MAX
CTR,P55,INI,FM,M2,36.383219867222074,%MAX
CTR,P55,INI,FM,M3,23.021880004283698,%MAX
CTR,P56,INI,FM,M1,28.564536616805555,%MAX
CTR,P56,INI,FM,M2,38.92211112895855,%MAX
CTR,P56,INI,FM,M3,35.80650153292568,%MAX
CTR,P56,REL,FM,M1,32.740037708754805,%MAX
CTR,P56,REL,FM,M2,39.21061024789048,%MAX
CTR,P56,REL,FM,M3,37.65303332528493,%MAX
CTR,P57,REL,FM,M1,30.312504599133465,%MAX
CTR,P57,REL,FM,M2,27.3997227994364,%MAX
CTR,P57,REL,FM,M3,23.379358892449353,%MAX
CTR,P60,INI,FM,M1,35.156151605056834,%MAX
CTR,P60,INI,FM,M2,31.921467381106496,%MAX
CTR,P60,INI,FM,M3,31.207836733583886,%MAX
CTR,P60,REL,FM,M1,28.528495692449408,%MAX
CTR,P60,REL,FM,M2,25.975021687133392,%MAX
CTR,P60,REL,FM,M3,35.58310022334144,%MAX
CTR,P64,INI,FM,M1,,%MAX
CTR,P64,INI,FM,M2,,%MAX
CTR,P64,INI,FM,M3,,%MAX
CTR,P66,REL,FM,M1,,%MAX
CTR,P66,REL,FM,M2,,%MAX
CTR,P66,REL,FM,M3,,%MAX
CTR,P67,REL,FM,M1,19.722410941605943,%MAX
CTR,P67,REL,FM,M2,23.98325878670692,%MAX
CTR,P67,REL,FM,M3,28.560757960170644,%MAX
CTR,P68,REL,FM,M1,,%MAX
CTR,P68,REL,FM,M2,,%MAX
CTR,P68,REL,FM,M3,,%MAX
