Group,Participant,Session,Operator,Measure,Value,Unit
CTR,P01,INI,FM,M1,1.2153333333333334,s
CTR,P01,INI,FM,M2,0.9356666666666666,s
CTR,P01,INI,FM,M3,1.1576666666666666,s
CTR,P01,REL,FM,M1,0.6980000000000001,s
CTR,P01,REL,FM,M2,0.9083333333333333,s
CTR,P01,REL,FM,M3,0.8540000000000001,s
CTR,P02,INI,FM,M1,0.5389999999999999,s
CTR,P02,INI,FM,M2,0.316,s
CTR,P02,INI,FM,M3,0.7010000000000001,s
CTR,P02,REL,FM,M1,0.9800000000000001,s
CTR,P02,REL,FM,M2,0.7266666666666667,s
CTR,P02,REL,FM,M3,1.6706666666666667,s
CTR,P03,INI,FM,M1,1.6666666666666667,s
CTR,P03,INI,FM,M2,0.9393333333333332,s
CTR,P03,INI,FM,M3,1.9353333333333331,s
CTR,P03,REL,FM,M1,0.8413333333333334,s
CTR,P03,REL,FM,M2,1.063,s
CTR,P03,REL,FM,M3,1.1626666666666667,s
CTR,P05,INI,FM,M1,1.3584999999999998,s
CTR,P05,INI,FM,M2,3.8765,s
CTR,P05,INI,FM,M3,1.4075,s
CTR,P06,INI,FM,M1,,s
CTR,P06,INI,FM,M2,,s
CTR,P06,INI,FM,M3,,s
CTR,P06,REL,FM,M1,0.477,s
CTR,P06,REL,FM,M2,,s
CTR,P06,REL,FM,M3,,s
CTR,P07,INI,FM,M1,1.2006666666666668,s
CTR,P07,INI,FM,M2,1.2376666666666667,s
CTR,P07,INI,FM,M3,1.1416666666666666,s
CTR,P07,REL,FM,M1,0.9966666666666667,s
CTR,P07,REL,FM,M2,0.9216666666666665,s
CTR,P07,REL,FM,M3,0.8313333333333333,s
CTR,P08,INI,FM,M1,1.248,s
CTR,P08,INI,FM,M2,1.0296666666666667,s
CTR,P08,INI,FM,M3,1.6723333333333332,s
CTR,P08,REL,FM,M1,1.1563333333333334,s
CTR,P08,REL,FM,M2,1.7666666666666666,s
CTR,P08,REL,FM,M3,1.4933333333333332,s
CTR,P13,INI,FM,M1,0.302,s
CTR,P13,INI,FM,M2,0.2405,s
CTR,P13,INI,FM,M3,0.2595,s
CTR,P13,REL,FM,M1,0.484,s
CTR,P13,REL,FM,M2,0.343,s
CTR,P13,REL,FM,M3,0.236,s
CTR,P16,INI,FM,M1,2.346,s
CTR,P16,INI,FM,M2,1.0863333333333332,s
CTR,P16,INI,FM,M3,0.9563333333333334,s
CTR,P16,REL,FM,M1,0.6263333333333333,s
CTR,P16,REL,FM,M2,0.7986666666666666,s
CTR,P16,REL,FM,M3,0.7033333333333333,s
CTR,P21,INI,FM,M1,0.267,s
CTR,P21,INI,FM,M2,0.359,s
CTR,P21,INI,FM,M3,0.27849999999999997,s
CTR,P21,REL,FM,M1,0.5985,s
CTR,P21,REL,FM,M2,0.8787499999999999,s
CTR,P21,REL,FM,M3,0.542,s
CTR,P22,INI,FM,M1,0.25,s
CTR,P22,INI,FM,M2,0.8575,s
CTR,P22,INI,FM,M3,0.202,s
CTR,P22,REL,FM,M1,0.20850000000000002,s
CTR,P22,REL,FM,M2,0.23099999999999998,s
CTR,P22,REL,FM,M3,0.2465,s
CTR,P23,INI,FM,M1,0.476,s
CTR,P23,INI,FM,M2,0.6015,s
CTR,P23,INI,FM,M3,0.7415,s
CTR,P23,REL,FM,M1,1.2123333333333333,s
CTR,P23,REL,FM,M2,0.9703333333333334,s
CTR,P23,REL,FM,M3,1.5729999999999997,s
CTR,P25,INI,FM,M1,2.125,s
CTR,P25,INI,FM,M2,1.2053333333333331,s
CTR,P25,INI,FM,M3,1.5090000000000001,s
CTR,P25,REL,FM,M1,0.9496666666666665,s
CTR,P25,REL,FM,M2,0.9369999999999999,s
CTR,P25,REL,FM,M3,0.856,s
CTR,P35,INI,FM,M1,1.0716666666666665,s
CTR,P35,INI,FM,M2,1.1980000000000002,s
CTR,P35,INI,FM,M3,1.3550000000000002,s
CTR,P35,REL,FM,M1,0.8807499999999999,s
CTR,P35,REL,FM,M2,0.595,s
CTR,P35,REL,FM,M3,0.70175,s
CTR,P38,INI,FM,M1,1.195,s
CTR,P38,INI,FM,M2,1.2593333333333334,s
CTR,P38,INI,FM,M3,2.158,s
CTR,P38,REL,FM,M1,0.8653333333333334,s
CTR,P38,REL,FM,M2,0.7450000000000001,s
CTR,P38,REL,FM,M3,0.8109999999999999,s
CTR,P40,INI,FM,M1,,s
CTR,P40,INI,FM,M2,,s
CTR,P40,INI,FM,M3,,s
CTR,P40,REL,FM,M1,0.4885,s
CTR,P40,REL,FM,M2,0.255,s
CTR,P40,REL,FM,M3,0.42500000000000004,s
CTR,P44,INI,FM,M1,0.402,s
CTR,P44,INI,FM,M2,0.386,s
CTR,P44,INI,FM,M3,0.443,s
CTR,P44,REL,FM,M1,0.648,s
CTR,P44,REL,FM,M2,0.29,s
CTR,P44,REL,FM,M3,0.405,s
CTR,P46,INI,FM,M1,,s
CTR,P46,INI,FM,M2,,s
CTR,P46,INI,FM,M3,,s
CTR,P46,REL,FM,M1,0.7760000000000001,s
CTR,P46,REL,FM,M2,0.7760000000000001,s
CTR,P46,REL,FM,M3,0.6206666666666667,s
CTR,P48,REL,FM,M1,0.4873333333333334,s
CTR,P48,REL,FM,M2,0.9726666666666667,s
CTR,P48,REL,FM,M3,0.7656666666666666,s
CTR,P49,INI,FM,M1,0.7233333333333333,s
CTR,P49,INI,FM,M2,1.0263333333333333,s
CTR,P49,INI,FM,M3,0.8563333333333333,s
CTR,P49,REL,FM,M1,,s
CTR,P49,REL,FM,M2,,s
CTR,P49,REL,FM,M3,,s
CTR,P52,INI,FM,M1,,s
CTR,P52,INI,FM,M2,,s
CTR,P52,INI,FM,M3,,s
CTR,P52,REL,FM,M1,1.1644999999999999,s
CTR,P52,REL,FM,M2,1.4655,s
CTR,P52,REL,FM,M3,1.75425,s
CTR,P55,INI,FM,M1,0.5053333333333333,s
CTR,P55,INI,FM,M2,0.9253333333333332,s
CTR,P55,INI,FM,M3,0.9939999999999999,s
CTR,P55,REL,FM,M1,0.7903333333333333,s
CTR,P55,REL,FM,M2,0.828,s
CTR,P55,REL,FM,M3,0.8610000000000001,s
CTR,P56,INI,FM,M1,0.8574999999999999,s
CTR,P56,INI,FM,M2,1.6625,s
CTR,P56,INI,FM,M3,1.186,s
CTR,P56,REL,FM,M1,0.9010000000000001,s
CTR,P56,REL,FM,M2,0.831,s
CTR,P56,REL,FM,M3,1.1036666666666666,s
CTR,P57,INI,FM,M1,1.7085000000000001,s
CTR,P57,INI,FM,M2,0.7905,s
CTR,P57,INI,FM,M3,1.1372499999999999,s
CTR,P57,REL,FM,M1,1.035,s
CTR,P57,REL,FM,M2,1.1263333333333334,s
CTR,P57,REL,FM,M3,1.3373333333333335,s
CTR,P60,INI,FM,M1,0.57,s
CTR,P60,INI,FM,M2,0.524,s
CTR,P60,INI,FM,M3,0.488,s
CTR,P60,REL,FM,M1,1.144,s
CTR,P60,REL,FM,M2,0.892,s
CTR,P60,REL,FM,M3,0.5476666666666666,s
CTR,P64,INI,FM,M1,0.6326666666666666,s
CTR,P64,INI,FM,M2,0.781,s
CTR,P64,INI,FM,M3,0.6706666666666666,s
CTR,P64,REL,FM,M1,0.6373333333333333,s
CTR,P64,REL,FM,M2,0.8649999999999999,s
CTR,P64,REL,FM,M3,1.017,s
CTR,P66,INI,FM,M1,0.40449999999999997,s
CTR,P66,INI,FM,M2,0.344,s
CTR,P66,INI,FM,M3,0.249,s
CTR,P66,REL,FM,M1,0.38349999999999995,s
CTR,P66,REL,FM,M2,0.418,s
CTR,P66,REL,FM,M3,0.49650000000000005,s
CTR,P67,INI,FM,M1,0.584,s
CTR,P67,INI,FM,M2,0.6596666666666667,s
CTR,P67,INI,FM,M3,0.7643333333333334,s
CTR,P67,REL,FM,M1,0.7793333333333333,s
CTR,P67,REL,FM,M2,1.1349999999999998,s
CTR,P67,REL,FM,M3,0.721,s
CTR,P68,INI,FM,M1,0.5303333333333332,s
CTR,P68,INI,FM,M2,0.9480000000000001,s
CTR,P68,INI,FM,M3,1.1969999999999998,s
CTR,P68,REL,FM,M1,0.5855,s
CTR,P68,REL,FM,M2,1.1975,s
CTR,P68,REL,FM,M3,0.97125,s
