Group,Participant,Session,Operator,Measure,Value,Unit
CTR,P01,INI,FM,M1,10.341348020623846,%MAX
CTR,P01,INI,FM,M2,14.255945541908915,%MAX
CTR,P01,INI,FM,M3,12.438117960529866,%MAX
CTR,P01,REL,FM,M1,10.255339176283147,%MAX
CTR,P01,REL,FM,M2,15.202701011821373,%MAX
CTR,P01,REL,FM,M3,18.494102298934774,%MAX
CTR,P02,INI,FM,M1,17.316811601922897,%MAX
CTR,P02,INI,FM,M2,25.587675183110715,%MAX
CTR,P02,INI,FM,M3,37.86468195394128,%MAX
CTR,P02,REL,FM,M1,6.693089696124746,%MAX
CTR,P02,REL,FM,M2,6.388014293736788,%MAX
CTR,P02,REL,FM,M3,7.470894314261367,%MAX
CTR,P03,INI,FM,M1,12.98508814632416,%MAX
CTR,P03,INI,FM,M2,10.927143513402134,%MAX
CTR,P03,INI,FM,M3,13.588311117441025,%MAX
CTR,P03,REL,FM,M1,8.593380806883268,%MAX
CTR,P03,REL,FM,M2,8.989077762983818,%MAX
CTR,P03,REL,FM,M3,9.54031244594024,%MAX
CTR,P05,INI,FM,M1,5.612818366111036,%MAX
CTR,P05,INI,FM,M2,8.45232189615443,%MAX
CTR,P05,INI,FM,M3,7.036965769456216,%MAX
CTR,P05,REL,FM,M1,8.695612676610212,%MAX
CTR,P05,REL,FM,M2,7.230185970130012,%MAX
CTR,P05,REL,FM,M3,6.9137912524250185,%MAX
CTR,P06,INI,FM,M1,6.7936077834389215,%MAX
CTR,P06,INI,FM,M2,5.1812845932041585,%MAX
CTR,P06,INI,FM,M3,5.737736318460025,%MAX
CTR,P06,REL,FM,M1,9.874594295835468,%MAX
CTR,P06,REL,FM,M2,10.116551636736734,%MAX
CTR,P06,REL,FM,M3,10.76706604951582,%MAX
CTR,P07,INI,FM,M1,15.948471491908434,%MAX
CTR,P07,INI,FM,M2,19.08091355145899,%MAX
CTR,P07,INI,FM,M3,19.482854266780627,%MAX
CTR,P07,REL,FM,M1,18.981807482299423,%MAX
CTR,P07,REL,FM,M2,14.166506711452904,%MAX
CTR,P07,REL,FM,M3,18.36379623757297,%MAX
CTR,P08,INI,FM,M1,7.997577418009582,%MAX
CTR,P08,INI,FM,M2,13.13846585138561,%MAX
CTR,P08,INI,FM,M3,11.110158902889607,%MAX
CTR,P08,REL,FM,M1,8.823998909356503,%MAX
CTR,P08,REL,FM,M2,8.7469747851786,%MAX
CTR,P08,REL,FM,M3,7.648002117040248,%MAX
CTR,P13,INI,FM,M1,20.036495696645247,%MAX
CTR,P13,INI,FM,M2,20.448496684881565,%MAX
CTR,P13,INI,FM,M3,17.158134521629172,%MAX
CTR,P13,REL,FM,M1,13.222868168679627,%MAX
CTR,P13,REL,FM,M2,11.20060709005572,%MAX
CTR,P13,REL,FM,M3,9.2781287583474,%MAX
CTR,P16,REL,FM,M1,19.546599098772962,%MAX
CTR,P16,REL,FM,M2,27.421401926182757,%MAX
CTR,P16,REL,FM,M3,26.785823132681653,%MAX
CTR,P22,INI,FM,M1,21.782607052160277,%MAX
CTR,P22,INI,FM,M2,22.93640124897448,%MAX
CTR,P22,INI,FM,M3,29.35466683599341,%MAX
CTR,P22,REL,FM,M1,,%MAX
CTR,P22,REL,FM,M2,,%MAX
CTR,P22,REL,FM,M3,,%MAX
CTR,P23,INI,FM,M1,11.023178379392338,%MAX
CTR,P23,INI,FM,M2,12.989913193279767,%MAX
CTR,P23,INI,FM,M3,21.335524876939107,%MAX
CTR,P25,REL,FM,M1,,%MAX
CTR,P25,REL,FM,M2,,%MAX
CTR,P25,REL,FM,M3,,%MAX
CTR,P38,INI,FM,M1,21.587667974405495,%MAX
CTR,P38,INI,FM,M2,24.05461856737477,%MAX
CTR,P38,INI,FM,M3,16.980840114487737,%MAX
CTR,P38,REL,FM,M1,6.648298766953213,%MAX
CTR,P38,REL,FM,M2,7.463906669669124,%MAX
CTR,P38,REL,FM,M3,15.464772823955277,%MAX
CTR,P39,INI,FM,M1,9.645685823729353,%MAX
CTR,P39,INI,FM,M2,14.93094364313434,%MAX
CTR,P39,INI,FM,M3,23.77753567008146,%MAX
CTR,P39,REL,FM,M1,32.82455744098028,%MAX
CTR,P39,REL,FM,M2,26.56686736324744,%MAX
CTR,P39,REL,FM,M3,37.40255349614441,%MAX
CTR,P44,INI,FM,M1,6.218143742389914,%MAX
CTR,P44,INI,FM,M2,5.636928002441329,%MAX
CTR,P44,INI,FM,M3,11.196199394752904,%MAX
CTR,P44,REL,FM,M1,,%MAX
CTR,P44,REL,FM,M2,,%MAX
CTR,P44,REL,FM,M3,,%MAX
CTR,P46,REL,FM,M1,,%MAX
CTR,P46,REL,FM,M2,,%MAX
CTR,P46,REL,FM,M3,,%MAX
CTR,P48,INI,FM,M1,14.46883856194428,%MAX
CTR,P48,INI,FM,M2,12.848709363338132,%MAX
CTR,P48,INI,FM,M3,33.24856267613446,%MAX
CTR,P48,REL,FM,M1,12.372214064695642,%MAX
CTR,P48,REL,FM,M2,11.811746435725402,%MAX
CTR,P48,REL,FM,M3,16.52115002351707,%MAX
CTR,P49,REL,FM,M1,10.385616730395027,%MAX
CTR,P49,REL,FM,M2,13.21159453599517,%MAX
CTR,P49,REL,FM,M3,31.979879399933388,%MAX
CTR,P52,INI,FM,M1,25.03391249485712,%MAX
CTR,P52,INI,FM,M2,22.968263017448834,%MAX
CTR,P52,INI,FM,M3,22.043987427811317,%MAX
CTR,P56,INI,FM,M1,,%MAX
CTR,P56,INI,FM,M2,,%MAX
CTR,P56,INI,FM,M3,,%MAX
CTR,P56,REL,FM,M1,19.415562677306237,%MAX
CTR,P56,REL,FM,M2,21.496338340072374,%MAX
CTR,P56,REL,FM,M3,19.908643478879767,%MAX
CTR,P60,INI,FM,M1,19.082197814771067,%MAX
CTR,P60,INI,FM,M2,14.569267787210393,%MAX
CTR,P60,INI,FM,M3,15.149297423076431,%MAX
CTR,P60,REL,FM,M1,23.029580698624205,%MAX
CTR,P60,REL,FM,M2,13.83403179579689,%MAX
CTR,P60,REL,FM,M3,23.202456122319465,%MAX
CTR,P67,REL,FM,M1,,%MAX
CTR,P67,REL,FM,M2,,%MAX
CTR,P67,REL,FM,M3,,%MAX
