Group,Participant,Session,Operator,Measure,Value,Unit
CTR,P01,INI,FM,M1,97.92667508098371,Hz
CTR,P01,INI,FM,M2,92.2740922740923,Hz
CTR,P01,INI,FM,M3,86.8140868140868,Hz
CTR,P01,REL,FM,M1,96.46903234077584,Hz
CTR,P01,REL,FM,M2,93.63909363909364,Hz
CTR,P01,REL,FM,M3,90.45409045409048,Hz
CTR,P02,INI,FM,M1,84.3627376693509,Hz
CTR,P02,INI,FM,M2,81.0810810810811,Hz
CTR,P02,INI,FM,M3,74.8930748930749,Hz
CTR,P02,REL,FM,M1,80.17892186228859,Hz
CTR,P02,REL,FM,M2,77.80507780507781,Hz
CTR,P02,REL,FM,M3,80.99008099008098,Hz
CTR,P03,INI,FM,M1,74.90055185445968,Hz
CTR,P03,INI,FM,M2,71.8900718900719,Hz
CTR,P03,INI,FM,M3,70.79807079807081,Hz
CTR,P03,REL,FM,M1,,Hz
CTR,P03,REL,FM,M2,,Hz
CTR,P03,REL,FM,M3,,Hz
CTR,P05,INI,FM,M1,101.11040171160413,Hz
CTR,P05,INI,FM,M2,100.55510055510057,Hz
CTR,P05,INI,FM,M3,98.46209846209848,Hz
CTR,P05,REL,FM,M1,104.66013472025496,Hz
CTR,P05,REL,FM,M2,97.91609791609793,Hz
CTR,P05,REL,FM,M3,95.27709527709528,Hz
CTR,P06,INI,FM,M1,104.570046453814,Hz
CTR,P06,INI,FM,M2,99.64509964509963,Hz
CTR,P06,INI,FM,M3,97.55209755209756,Hz
CTR,P06,REL,FM,M1,94.46630087912654,Hz
CTR,P06,REL,FM,M2,90.09009009009011,Hz
CTR,P06,REL,FM,M3,85.72208572208574,Hz
CTR,P07,INI,FM,M1,118.94897265638748,Hz
CTR,P07,INI,FM,M2,119.7561197561198,Hz
CTR,P07,INI,FM,M3,111.1111111111111,Hz
CTR,P07,REL,FM,M1,,Hz
CTR,P07,REL,FM,M2,,Hz
CTR,P07,REL,FM,M3,,Hz
CTR,P08,INI,FM,M1,99.01758198351386,Hz
CTR,P08,INI,FM,M2,97.1880971880972,Hz
CTR,P08,INI,FM,M3,94.45809445809446,Hz
CTR,P08,REL,FM,M1,80.99719322164214,Hz
CTR,P08,REL,FM,M2,82.1730821730822,Hz
CTR,P08,REL,FM,M3,80.26208026208027,Hz
CTR,P13,INI,FM,M1,91.281662423947,Hz
CTR,P13,INI,FM,M2,91.72809172809174,Hz
CTR,P13,INI,FM,M3,93.00209300209302,Hz
CTR,P13,REL,FM,M1,93.37502924677274,Hz
CTR,P13,REL,FM,M2,95.64109564109566,Hz
CTR,P13,REL,FM,M3,88.90708890708892,Hz
CTR,P16,INI,FM,M1,83.5453781345565,Hz
CTR,P16,INI,FM,M2,87.997087997088,Hz
CTR,P16,INI,FM,M3,83.26508326508326,Hz
CTR,P16,REL,FM,M1,85.8205627744706,Hz
CTR,P16,REL,FM,M2,87.36008736008738,Hz
CTR,P16,REL,FM,M3,84.90308490308492,Hz
CTR,P21,INI,FM,M1,79.72392140728815,Hz
CTR,P21,INI,FM,M2,81.0810810810811,Hz
CTR,P21,INI,FM,M3,76.62207662207662,Hz
CTR,P21,REL,FM,M1,82.36365350593807,Hz
CTR,P21,REL,FM,M2,78.16907816907818,Hz
CTR,P21,REL,FM,M3,72.25407225407226,Hz
CTR,P22,INI,FM,M1,63.79671710333034,Hz
CTR,P22,INI,FM,M2,68.34106834106834,Hz
CTR,P22,INI,FM,M3,65.97506597506599,Hz
CTR,P22,REL,FM,M1,69.07545184098291,Hz
CTR,P22,REL,FM,M2,69.25106925106924,Hz
CTR,P22,REL,FM,M3,67.61306761306761,Hz
CTR,P23,INI,FM,M1,51.78196961764096,Hz
CTR,P23,INI,FM,M2,74.8930748930749,Hz
CTR,P23,INI,FM,M3,59.24105924105925,Hz
CTR,P23,REL,FM,M1,72.9868144697804,Hz
CTR,P23,REL,FM,M2,74.25607425607426,Hz
CTR,P23,REL,FM,M3,66.70306670306671,Hz
CTR,P25,INI,FM,M1,99.65421789069086,Hz
CTR,P25,INI,FM,M2,110.65611065611068,Hz
CTR,P25,INI,FM,M3,102.73910273910272,Hz
CTR,P25,REL,FM,M1,106.57077190143322,Hz
CTR,P25,REL,FM,M2,101.82910182910184,Hz
CTR,P25,REL,FM,M3,100.46410046410048,Hz
CTR,P35,INI,FM,M1,101.112590090546,Hz
CTR,P35,INI,FM,M2,102.3751023751024,Hz
CTR,P35,INI,FM,M3,95.73209573209574,Hz
CTR,P35,REL,FM,M1,97.92521616168912,Hz
CTR,P35,REL,FM,M2,93.1840931840932,Hz
CTR,P35,REL,FM,M3,86.17708617708618,Hz
CTR,P38,INI,FM,M1,98.47139907260149,Hz
CTR,P38,INI,FM,M2,92.91109291109292,Hz
CTR,P38,INI,FM,M3,91.18209118209118,Hz
CTR,P38,REL,FM,M1,97.105485883041,Hz
CTR,P38,REL,FM,M2,93.73009373009371,Hz
CTR,P38,REL,FM,M3,91.000091000091,Hz
CTR,P39,INI,FM,M1,108.48250327208244,Hz
CTR,P39,INI,FM,M2,109.10910910910911,Hz
CTR,P39,INI,FM,M3,106.19710619710622,Hz
CTR,P39,REL,FM,M1,71.17064231292687,Hz
CTR,P39,REL,FM,M2,67.7950677950678,Hz
CTR,P39,REL,FM,M3,92.63809263809264,Hz
CTR,P40,INI,FM,M1,108.75568590999454,Hz
CTR,P40,INI,FM,M2,109.2911092911093,Hz
CTR,P40,INI,FM,M3,103.83110383110385,Hz
CTR,P40,REL,FM,M1,115.2181512902956,Hz
CTR,P40,REL,FM,M2,105.56010556010555,Hz
CTR,P40,REL,FM,M3,106.10610610610614,Hz
CTR,P44,INI,FM,M1,,Hz
CTR,P44,INI,FM,M2,,Hz
CTR,P44,INI,FM,M3,,Hz
CTR,P44,REL,FM,M1,,Hz
CTR,P44,REL,FM,M2,,Hz
CTR,P44,REL,FM,M3,,Hz
CTR,P46,INI,FM,M1,102.56530897813464,Hz
CTR,P46,INI,FM,M2,99.1900991900992,Hz
CTR,P46,INI,FM,M3,99.008099008099,Hz
CTR,P46,REL,FM,M1,100.92840152960396,Hz
CTR,P46,REL,FM,M2,96.1870961870962,Hz
CTR,P46,REL,FM,M3,92.72909272909274,Hz
CTR,P48,REL,FM,M1,115.30732773217746,Hz
CTR,P48,REL,FM,M2,108.74510874510877,Hz
CTR,P48,REL,FM,M3,105.65110565110564,Hz
CTR,P49,INI,FM,M1,103.02176835242967,Hz
CTR,P49,INI,FM,M2,97.0970970970971,Hz
CTR,P49,INI,FM,M3,89.54408954408956,Hz
CTR,P49,REL,FM,M1,92.36782783876974,Hz
CTR,P49,REL,FM,M2,101.82910182910186,Hz
CTR,P49,REL,FM,M3,101.82910182910184,Hz
CTR,P52,INI,FM,M1,107.66350245308162,Hz
CTR,P52,INI,FM,M2,102.73910273910272,Hz
CTR,P52,INI,FM,M3,99.73609973609972,Hz
CTR,P52,REL,FM,M1,110.66759964555555,Hz
CTR,P52,REL,FM,M2,108.29010829010832,Hz
CTR,P52,REL,FM,M3,107.1981071981072,Hz
CTR,P55,INI,FM,M1,97.92558089151277,Hz
CTR,P55,INI,FM,M2,94.73109473109474,Hz
CTR,P55,INI,FM,M3,92.36509236509238,Hz
CTR,P55,REL,FM,M1,87.45947623703135,Hz
CTR,P55,REL,FM,M2,83.62908362908364,Hz
CTR,P55,REL,FM,M3,81.9000819000819,Hz
CTR,P56,INI,FM,M1,67.52808556415772,Hz
CTR,P56,INI,FM,M2,63.33606333606335,Hz
CTR,P56,INI,FM,M3,63.15406315406315,Hz
CTR,P56,REL,FM,M1,68.52872183533508,Hz
CTR,P56,REL,FM,M2,66.33906633906633,Hz
CTR,P56,REL,FM,M3,62.790062790062784,Hz
CTR,P57,INI,FM,M1,85.00192668529343,Hz
CTR,P57,INI,FM,M2,85.90408590408592,Hz
CTR,P57,INI,FM,M3,83.26508326508328,Hz
CTR,P57,REL,FM,M1,93.82984733686136,Hz
CTR,P57,REL,FM,M2,74.52907452907452,Hz
CTR,P57,REL,FM,M3,89.36208936208938,Hz
CTR,P60,INI,FM,M1,100.0167593353966,Hz
CTR,P60,INI,FM,M2,100.28210028210027,Hz
CTR,P60,INI,FM,M3,99.1900991900992,Hz
CTR,P60,REL,FM,M1,93.01084651786056,Hz
CTR,P60,REL,FM,M2,95.45909545909544,Hz
CTR,P60,REL,FM,M3,96.27809627809629,Hz
CTR,P64,INI,FM,M1,102.47522071169368,Hz
CTR,P64,INI,FM,M2,98.28009828009829,Hz
CTR,P64,INI,FM,M3,101.1921011921012,Hz
CTR,P64,REL,FM,M1,93.00993469330145,Hz
CTR,P64,REL,FM,M2,93.45709345709346,Hz
CTR,P64,REL,FM,M3,86.996086996087,Hz
CTR,P66,INI,FM,M1,90.462843969858,Hz
CTR,P66,INI,FM,M2,85.54008554008556,Hz
CTR,P66,INI,FM,M3,71.25307125307125,Hz
CTR,P66,REL,FM,M1,83.72810777620397,Hz
CTR,P66,REL,FM,M2,80.80808080808082,Hz
CTR,P66,REL,FM,M3,79.07907907907908,Hz
CTR,P67,INI,FM,M1,70.62573595639729,Hz
CTR,P67,INI,FM,M2,87.1780871780872,Hz
CTR,P67,INI,FM,M3,87.63308763308764,Hz
CTR,P67,REL,FM,M1,73.53463866489918,Hz
CTR,P67,REL,FM,M2,74.34707434707435,Hz
CTR,P67,REL,FM,M3,82.08208208208208,Hz
CTR,P68,INI,FM,M1,116.21714627726656,Hz
CTR,P68,INI,FM,M2,107.65310765310764,Hz
CTR,P68,INI,FM,M3,107.74410774410777,Hz
CTR,P68,REL,FM,M1,121.31515738730168,Hz
CTR,P68,REL,FM,M2,116.66211666211667,Hz
CTR,P68,REL,FM,M3,115.66111566111567,Hz
