Group,Participant,Session,Operator,Measure,Value,Unit
CTR,P01,INI,FM,M1,56.873293571219676,%MAX
CTR,P01,INI,FM,M2,60.874577300513636,%MAX
CTR,P01,INI,FM,M3,63.15796190875011,%MAX
CTR,P01,REL,FM,M1,62.44559852368612,%MAX
CTR,P01,REL,FM,M2,71.71137761491131,%MAX
CTR,P01,REL,FM,M3,68.77958979695764,%MAX
CTR,P02,INI,FM,M1,78.20649809143525,%MAX
CTR,P02,INI,FM,M2,83.66752717148913,%MAX
CTR,P02,INI,FM,M3,90.7511190244283,%MAX
CTR,P02,REL,FM,M1,48.69579629466738,%MAX
CTR,P02,REL,FM,M2,43.68073894427721,%MAX
CTR,P02,REL,FM,M3,50.183543208110265,%MAX
CTR,P03,INI,FM,M1,72.49941364993168,%MAX
CTR,P03,INI,FM,M2,68.26723245868625,%MAX
CTR,P03,INI,FM,M3,71.57884707847586,%MAX
CTR,P03,REL,FM,M1,55.81547987747707,%MAX
CTR,P03,REL,FM,M2,59.92755354030882,%MAX
CTR,P03,REL,FM,M3,60.991014621127896,%MAX
CTR,P05,INI,FM,M1,58.47570229029885,%MAX
CTR,P05,INI,FM,M2,64.17746290068773,%MAX
CTR,P05,INI,FM,M3,61.012151386151636,%MAX
CTR,P05,REL,FM,M1,52.924975078711114,%MAX
CTR,P05,REL,FM,M2,51.33425264556143,%MAX
CTR,P05,REL,FM,M3,52.135837863996485,%MAX
CTR,P06,INI,FM,M1,47.872879895792366,%MAX
CTR,P06,INI,FM,M2,44.09575520332293,%MAX
CTR,P06,INI,FM,M3,45.239270804273524,%MAX
CTR,P06,REL,FM,M1,51.9163491448738,%MAX
CTR,P06,REL,FM,M2,52.91295715681274,%MAX
CTR,P06,REL,FM,M3,55.062344438783384,%MAX
CTR,P07,INI,FM,M1,77.33721179057453,%MAX
CTR,P07,INI,FM,M2,77.53777901216547,%MAX
CTR,P07,INI,FM,M3,73.9504187100511,%MAX
CTR,P07,REL,FM,M1,76.6500243192035,%MAX
CTR,P07,REL,FM,M2,72.28557817543219,%MAX
CTR,P07,REL,FM,M3,76.28157746202606,%MAX
CTR,P08,INI,FM,M1,52.28155473043306,%MAX
CTR,P08,INI,FM,M2,64.81658144867191,%MAX
CTR,P08,INI,FM,M3,58.21926346726559,%MAX
CTR,P08,REL,FM,M1,54.98044357193554,%MAX
CTR,P08,REL,FM,M2,61.05287312635191,%MAX
CTR,P08,REL,FM,M3,55.283225695126205,%MAX
CTR,P13,INI,FM,M1,74.87338977399338,%MAX
CTR,P13,INI,FM,M2,74.85065307182677,%MAX
CTR,P13,INI,FM,M3,69.50001990606351,%MAX
CTR,P13,REL,FM,M1,61.688600059788506,%MAX
CTR,P13,REL,FM,M2,66.83202924197545,%MAX
CTR,P13,REL,FM,M3,63.270108837065294,%MAX
CTR,P16,INI,FM,M1,,%MAX
CTR,P16,INI,FM,M2,,%MAX
CTR,P16,INI,FM,M3,,%MAX
CTR,P16,REL,FM,M1,129.72145144465225,%MAX
CTR,P16,REL,FM,M2,124.86293855656471,%MAX
CTR,P16,REL,FM,M3,132.0648211527297,%MAX
CTR,P21,INI,FM,M1,,%MAX
CTR,P21,INI,FM,M2,,%MAX
CTR,P21,INI,FM,M3,,%MAX
CTR,P22,INI,FM,M1,132.64254019703094,%MAX
CTR,P22,INI,FM,M2,98.28404015766108,%MAX
CTR,P22,INI,FM,M3,132.29748207304402,%MAX
CTR,P22,REL,FM,M1,107.54732737091,%MAX
CTR,P22,REL,FM,M2,145.4687561786793,%MAX
CTR,P22,REL,FM,M3,156.62106914705492,%MAX
CTR,P23,INI,FM,M1,93.50647111264672,%MAX
CTR,P23,INI,FM,M2,89.86068266219331,%MAX
CTR,P23,INI,FM,M3,113.2013922773982,%MAX
CTR,P23,REL,FM,M1,100.92972870814481,%MAX
CTR,P23,REL,FM,M2,191.18274698901504,%MAX
CTR,P23,REL,FM,M3,185.9769551455716,%MAX
CTR,P25,REL,FM,M1,,%MAX
CTR,P25,REL,FM,M2,,%MAX
CTR,P25,REL,FM,M3,,%MAX
CTR,P38,INI,FM,M1,68.99221552551721,%MAX
CTR,P38,INI,FM,M2,66.20462128207915,%MAX
CTR,P38,INI,FM,M3,65.21789009090907,%MAX
CTR,P38,REL,FM,M1,,%MAX
CTR,P38,REL,FM,M2,,%MAX
CTR,P38,REL,FM,M3,,%MAX
CTR,P39,REL,FM,M1,102.16937734733789,%MAX
CTR,P39,REL,FM,M2,95.38225853208614,%MAX
CTR,P39,REL,FM,M3,101.36867912747962,%MAX
CTR,P46,INI,FM,M1,,%MAX
CTR,P46,INI,FM,M2,,%MAX
CTR,P46,INI,FM,M3,,%MAX
CTR,P46,REL,FM,M1,,%MAX
CTR,P46,REL,FM,M2,,%MAX
CTR,P46,REL,FM,M3,,%MAX
CTR,P52,INI,FM,M1,,%MAX
CTR,P52,INI,FM,M2,,%MAX
CTR,P52,INI,FM,M3,,%MAX
CTR,P56,INI,FM,M1,111.85949455932555,%MAX
CTR,P56,INI,FM,M2,146.9724731973568,%MAX
CTR,P56,INI,FM,M3,141.2774972093545,%MAX
CTR,P56,REL,FM,M1,127.54213607892778,%MAX
CTR,P56,REL,FM,M2,115.1612211953577,%MAX
CTR,P56,REL,FM,M3,112.47491652707559,%MAX
CTR,P60,INI,FM,M1,140.38395650454663,%MAX
CTR,P60,INI,FM,M2,133.51921647985822,%MAX
CTR,P60,INI,FM,M3,123.47810018053742,%MAX
CTR,P60,REL,FM,M1,81.53098755251757,%MAX
CTR,P60,REL,FM,M2,119.02579502391238,%MAX
CTR,P60,REL,FM,M3,131.98179384135616,%MAX
CTR,P67,REL,FM,M1,,%MAX
CTR,P67,REL,FM,M2,,%MAX
CTR,P67,REL,FM,M3,,%MAX
