Group,Participant,Session,Operator,Measure,Value,Unit
PAT,P09,INI,FM,M1,0.4691573705067831,NAN
PAT,P09,INI,FM,M2,0.3235374118308829,NAN
PAT,P09,INI,FM,M3,0.4374916252586227,NAN
PAT,P09,REL,FM,M1,0.4192228913022969,NAN
PAT,P09,REL,FM,M2,0.4112431843695984,NAN
PAT,P09,REL,FM,M3,0.4277002673655217,NAN
PAT,P10,INI,FM,M1,0.3564842369846475,NAN
PAT,P10,INI,FM,M2,0.4047178645717358,NAN
PAT,P10,INI,FM,M3,0.4079610681273991,NAN
PAT,P10,REL,FM,M1,0.3766087411819396,NAN
PAT,P10,REL,FM,M2,0.3642221673931226,NAN
PAT,P10,REL,FM,M3,0.3378741601573345,NAN
PAT,P11,INI,FM,M1,0.4831755393618827,NAN
PAT,P11,INI,FM,M2,0.5560266380651679,NAN
PAT,P11,INI,FM,M3,0.5147205537447201,NAN
PAT,P11,REL,FM,M1,0.5505230024506697,NAN
PAT,P11,REL,FM,M2,0.3552167361113257,NAN
PAT,P11,REL,FM,M3,0.4164476682253018,NAN
PAT,P12,INI,FM,M1,0.4700643351039026,NAN
PAT,P12,INI,FM,M2,0.4511696289957213,NAN
PAT,P12,INI,FM,M3,0.3828187714417749,NAN
PAT,P12,REL,FM,M1,0.5289596069815045,NAN
PAT,P12,REL,FM,M2,0.3334092988636435,NAN
PAT,P12,REL,FM,M3,0.3706144750596392,NAN
PAT,P14,INI,FM,M1,0.3855019285943413,NAN
PAT,P14,INI,FM,M2,0.3097899483879761,NAN
PAT,P14,INI,FM,M3,0.2299413736424779,NAN
PAT,P14,REL,FM,M1,0.6764147034324164,NAN
PAT,P14,REL,FM,M2,0.4092158735301784,NAN
PAT,P14,REL,FM,M3,0.4554879329695083,NAN
PAT,P17,INI,FM,M1,0.4488799424303212,NAN
PAT,P17,INI,FM,M2,0.4177052274194551,NAN
PAT,P17,INI,FM,M3,0.395276163101194,NAN
PAT,P17,REL,FM,M1,0.615883466073013,NAN
PAT,P17,REL,FM,M2,0.5374455440239988,NAN
PAT,P17,REL,FM,M3,0.4066060120879216,NAN
PAT,P24,INI,FM,M1,0.5559020157973512,NAN
PAT,P24,INI,FM,M2,0.3112709174015236,NAN
PAT,P24,INI,FM,M3,0.2875334061053964,NAN
PAT,P24,REL,FM,M1,0.7085948544764413,NAN
PAT,P24,REL,FM,M2,0.4356643043965034,NAN
PAT,P24,REL,FM,M3,0.3918637597029055,NAN
PAT,P26,INI,FM,M1,,NAN
PAT,P26,INI,FM,M2,,NAN
PAT,P26,INI,FM,M3,,NAN
PAT,P26,REL,FM,M1,,NAN
PAT,P26,REL,FM,M2,,NAN
PAT,P26,REL,FM,M3,,NAN
PAT,P27,INI,FM,M1,0.2477894766517237,NAN
PAT,P27,INI,FM,M2,0.2606820478631665,NAN
PAT,P27,INI,FM,M3,0.5996101603301938,NAN
PAT,P27,REL,FM,M1,0.5744724116619988,NAN
PAT,P27,REL,FM,M2,0.5436406523850622,NAN
PAT,P27,REL,FM,M3,0.6719286461733286,NAN
PAT,P28,INI,FM,M1,0.607199181016269,NAN
PAT,P28,INI,FM,M2,0.5130896580879176,NAN
PAT,P28,INI,FM,M3,0.3979785957824857,NAN
PAT,P28,REL,FM,M1,0.8564783966770096,NAN
PAT,P28,REL,FM,M2,0.51286099095207,NAN
PAT,P28,REL,FM,M3,0.6061497553814893,NAN
PAT,P29,INI,FM,M1,0.4065080414036369,NAN
PAT,P29,INI,FM,M2,0.4205133684633516,NAN
PAT,P29,INI,FM,M3,0.4652098171966266,NAN
PAT,P29,REL,FM,M1,0.4247430646266784,NAN
PAT,P29,REL,FM,M2,0.4364674828136244,NAN
PAT,P29,REL,FM,M3,0.4042181148825233,NAN
PAT,P30,INI,FM,M1,0.5151388284818063,NAN
PAT,P30,INI,FM,M2,0.446219228945833,NAN
PAT,P30,INI,FM,M3,0.4520356431997788,NAN
PAT,P30,REL,FM,M1,,NAN
PAT,P30,REL,FM,M2,,NAN
PAT,P30,REL,FM,M3,,NAN
PAT,P32,INI,FM,M1,0.3878995272719548,NAN
PAT,P32,INI,FM,M2,0.4554364585960349,NAN
PAT,P32,INI,FM,M3,0.3941308758835384,NAN
PAT,P32,REL,FM,M1,0.6847064105649852,NAN
PAT,P32,REL,FM,M2,0.339072592425374,NAN
PAT,P32,REL,FM,M3,0.4332986832005224,NAN
PAT,P33,INI,FM,M1,,NAN
PAT,P33,INI,FM,M2,,NAN
PAT,P33,INI,FM,M3,,NAN
PAT,P33,REL,FM,M1,0.9590471791853812,NAN
PAT,P33,REL,FM,M2,0.5594880526852151,NAN
PAT,P33,REL,FM,M3,0.5744828971339156,NAN
PAT,P34,INI,FM,M1,0.4088007209809374,NAN
PAT,P34,INI,FM,M2,0.6547889755025339,NAN
PAT,P34,INI,FM,M3,0.4143999577679004,NAN
PAT,P34,REL,FM,M1,0.2555631383224143,NAN
PAT,P34,REL,FM,M2,0.3028863362880318,NAN
PAT,P34,REL,FM,M3,0.4133908684626416,NAN
PAT,P36,INI,FM,M1,0.899148235950047,NAN
PAT,P36,INI,FM,M2,0.7567488629125271,NAN
PAT,P36,INI,FM,M3,0.8017651781552584,NAN
PAT,P36,REL,FM,M1,0.874448334503439,NAN
PAT,P36,REL,FM,M2,0.7495861057729531,NAN
PAT,P36,REL,FM,M3,0.8003542174857002,NAN
PAT,P41,INI,FM,M1,0.4541350239100693,NAN
PAT,P41,INI,FM,M2,0.2679651879738012,NAN
PAT,P41,INI,FM,M3,0.2530326825543642,NAN
PAT,P41,REL,FM,M1,0.6843270312664596,NAN
PAT,P41,REL,FM,M2,0.4275219254750208,NAN
PAT,P41,REL,FM,M3,0.4846897183084323,NAN
PAT,P42,INI,FM,M1,0.5801048888598536,NAN
PAT,P42,INI,FM,M2,0.1910366933078749,NAN
PAT,P42,INI,FM,M3,0.4709259549524668,NAN
PAT,P42,REL,FM,M1,0.1813862412256872,NAN
PAT,P42,REL,FM,M2,0.186363824989281,NAN
PAT,P42,REL,FM,M3,0.1821997000846874,NAN
PAT,P43,INI,FM,M1,0.3715038192737275,NAN
PAT,P43,INI,FM,M2,0.1521364414861288,NAN
PAT,P43,INI,FM,M3,0.0815297721766196,NAN
PAT,P43,REL,FM,M1,0.2904243811909371,NAN
PAT,P43,REL,FM,M2,0.4216909029929285,NAN
PAT,P43,REL,FM,M3,0.4323886791267942,NAN
PAT,P45,INI,FM,M1,,NAN
PAT,P45,INI,FM,M2,,NAN
PAT,P45,INI,FM,M3,,NAN
PAT,P45,REL,FM,M1,1.1167981919009171,NAN
PAT,P45,REL,FM,M2,0.6378945612198086,NAN
PAT,P45,REL,FM,M3,0.3898880103873807,NAN
PAT,P47,INI,FM,M1,0.8105886374966103,NAN
PAT,P47,INI,FM,M2,1.0720140313821966,NAN
PAT,P47,INI,FM,M3,0.7057077237850965,NAN
PAT,P47,REL,FM,M1,0.8638109282664498,NAN
PAT,P47,REL,FM,M2,0.6139188784752972,NAN
PAT,P47,REL,FM,M3,0.5866045531479376,NAN
PAT,P50,INI,FM,M1,0.4103470274550851,NAN
PAT,P50,INI,FM,M2,0.5222541812874127,NAN
PAT,P50,INI,FM,M3,0.6579514656881322,NAN
PAT,P50,REL,FM,M1,0.5713941726983276,NAN
PAT,P50,REL,FM,M2,0.6368586812705975,NAN
PAT,P50,REL,FM,M3,0.6569815285142506,NAN
PAT,P51,INI,FM,M1,0.7155674518715195,NAN
PAT,P51,INI,FM,M2,0.6320877686610229,NAN
PAT,P51,INI,FM,M3,0.685973391533678,NAN
PAT,P51,REL,FM,M1,0.7510621500823988,NAN
PAT,P51,REL,FM,M2,0.7022821556898328,NAN
PAT,P51,REL,FM,M3,0.2056663055628763,NAN
PAT,P53,INI,FM,M1,0.6991771220061329,NAN
PAT,P53,INI,FM,M2,0.6767901109595744,NAN
PAT,P53,INI,FM,M3,0.5278180621219853,NAN
PAT,P53,REL,FM,M1,0.5902644349346708,NAN
PAT,P53,REL,FM,M2,0.4725136161365612,NAN
PAT,P53,REL,FM,M3,0.5842044791197044,NAN
PAT,P54,INI,FM,M1,0.3335672867715157,NAN
PAT,P54,INI,FM,M2,0.3142243814445899,NAN
PAT,P54,INI,FM,M3,0.2491073854089021,NAN
PAT,P54,REL,FM,M1,0.4528415692347761,NAN
PAT,P54,REL,FM,M2,0.5966680828991613,NAN
PAT,P54,REL,FM,M3,0.5590644448811617,NAN
PAT,P58,INI,FM,M1,0.6170721879140645,NAN
PAT,P58,INI,FM,M2,0.3857564743456905,NAN
PAT,P58,INI,FM,M3,0.4515440073331574,NAN
PAT,P58,REL,FM,M1,,NAN
PAT,P58,REL,FM,M2,,NAN
PAT,P58,REL,FM,M3,,NAN
PAT,P61,INI,FM,M1,0.4355258442270495,NAN
PAT,P61,INI,FM,M2,0.4965503536495617,NAN
PAT,P61,INI,FM,M3,0.458552298703914,NAN
PAT,P61,REL,FM,M1,0.5167636224957463,NAN
PAT,P61,REL,FM,M2,0.5340096879004507,NAN
PAT,P61,REL,FM,M3,0.4752014597894743,NAN
PAT,P62,INI,FM,M1,0.4787655330192508,NAN
PAT,P62,INI,FM,M2,0.8936290027048195,NAN
PAT,P62,INI,FM,M3,0.307773040565169,NAN
PAT,P63,INI,FM,M1,,NAN
PAT,P63,INI,FM,M2,,NAN
PAT,P63,INI,FM,M3,,NAN
PAT,P63,REL,FM,M1,0.7545213365464996,NAN
PAT,P63,REL,FM,M2,0.3322588116232056,NAN
PAT,P63,REL,FM,M3,0.13673842077144,NAN
PAT,P65,INI,FM,M1,0.4223693118795684,NAN
PAT,P65,INI,FM,M2,0.3840805345386285,NAN
PAT,P65,INI,FM,M3,0.491103429019555,NAN
PAT,P65,REL,FM,M1,0.5224222328583444,NAN
PAT,P65,REL,FM,M2,0.4642189925581757,NAN
PAT,P65,REL,FM,M3,0.3616052706966918,NAN
