Group,Participant,Session,Operator,Measure,Value,Unit
PAT,P09,INI,FM,M1,11.069913171425991,%subMVIC
PAT,P09,INI,FM,M2,10.876881733449263,%subMVIC
PAT,P09,INI,FM,M3,10.87682421641724,%subMVIC
PAT,P09,REL,FM,M1,13.865799329726812,%subMVIC
PAT,P09,REL,FM,M2,13.72041316868576,%subMVIC
PAT,P09,REL,FM,M3,13.58894249399701,%subMVIC
PAT,P10,REL,FM,M1,19.630732624193467,%subMVIC
PAT,P10,REL,FM,M2,19.360812670885466,%subMVIC
PAT,P10,REL,FM,M3,19.25675153631958,%subMVIC
PAT,P11,INI,FM,M1,10.086225995078168,%subMVIC
PAT,P11,INI,FM,M2,10.578681136211168,%subMVIC
PAT,P11,INI,FM,M3,10.47064509954594,%subMVIC
PAT,P11,REL,FM,M1,19.769961320894765,%subMVIC
PAT,P11,REL,FM,M2,19.51891556845311,%subMVIC
PAT,P11,REL,FM,M3,19.457050939328767,%subMVIC
PAT,P12,INI,FM,M1,,%subMVIC
PAT,P12,INI,FM,M2,,%subMVIC
PAT,P12,INI,FM,M3,,%subMVIC
PAT,P12,REL,FM,M1,20.56875959787816,%subMVIC
PAT,P12,REL,FM,M2,20.28442485762431,%subMVIC
PAT,P12,REL,FM,M3,21.20462842377366,%subMVIC
PAT,P14,INI,FM,M1,17.284454101893957,%subMVIC
PAT,P14,INI,FM,M2,16.171138206654902,%subMVIC
PAT,P14,INI,FM,M3,15.78543925112496,%subMVIC
PAT,P14,REL,FM,M1,26.257814966696134,%subMVIC
PAT,P14,REL,FM,M2,26.79845844226537,%subMVIC
PAT,P14,REL,FM,M3,26.629528484254077,%subMVIC
PAT,P17,INI,FM,M1,14.318238077095184,%subMVIC
PAT,P17,INI,FM,M2,14.364469218304002,%subMVIC
PAT,P17,INI,FM,M3,14.203752180204726,%subMVIC
PAT,P17,REL,FM,M1,12.365062796227903,%subMVIC
PAT,P17,REL,FM,M2,12.547151499714,%subMVIC
PAT,P17,REL,FM,M3,12.87727820859453,%subMVIC
PAT,P24,REL,FM,M1,26.84646184112569,%subMVIC
PAT,P24,REL,FM,M2,25.852109487935767,%subMVIC
PAT,P24,REL,FM,M3,26.103532781853367,%subMVIC
PAT,P26,INI,FM,M1,18.37599585421938,%subMVIC
PAT,P26,INI,FM,M2,18.53093197409011,%subMVIC
PAT,P26,INI,FM,M3,16.555855305624377,%subMVIC
PAT,P26,REL,FM,M1,22.180794897826463,%subMVIC
PAT,P26,REL,FM,M2,22.912289538898545,%subMVIC
PAT,P26,REL,FM,M3,22.42834463851097,%subMVIC
PAT,P27,INI,FM,M1,15.269362947028318,%subMVIC
PAT,P27,INI,FM,M2,16.379173752242316,%subMVIC
PAT,P27,INI,FM,M3,16.80926738915646,%subMVIC
PAT,P27,REL,FM,M1,14.792565940979822,%subMVIC
PAT,P27,REL,FM,M2,14.873281321150486,%subMVIC
PAT,P27,REL,FM,M3,14.643348462219688,%subMVIC
PAT,P28,INI,FM,M1,15.09346374049499,%subMVIC
PAT,P28,INI,FM,M2,15.63404204871598,%subMVIC
PAT,P28,INI,FM,M3,15.753978516903572,%subMVIC
PAT,P28,REL,FM,M1,17.59732665353021,%subMVIC
PAT,P28,REL,FM,M2,17.4249808082379,%subMVIC
PAT,P28,REL,FM,M3,17.572022269025993,%subMVIC
PAT,P29,INI,FM,M1,9.577579716404928,%subMVIC
PAT,P29,INI,FM,M2,9.077744184315543,%subMVIC
PAT,P29,INI,FM,M3,8.855018994893353,%subMVIC
PAT,P29,REL,FM,M1,10.150167143343277,%subMVIC
PAT,P29,REL,FM,M2,11.459576907531046,%subMVIC
PAT,P29,REL,FM,M3,7.760348375302208,%subMVIC
PAT,P30,INI,FM,M1,12.92006003308017,%subMVIC
PAT,P30,INI,FM,M2,14.814982935024716,%subMVIC
PAT,P30,INI,FM,M3,13.18208679863217,%subMVIC
PAT,P30,REL,FM,M1,14.987629498762566,%subMVIC
PAT,P30,REL,FM,M2,14.748286585045948,%subMVIC
PAT,P30,REL,FM,M3,14.609529773088056,%subMVIC
PAT,P32,INI,FM,M1,8.597483631262106,%subMVIC
PAT,P32,INI,FM,M2,8.642138226910372,%subMVIC
PAT,P32,INI,FM,M3,8.713401156611614,%subMVIC
PAT,P32,REL,FM,M1,13.0546619920618,%subMVIC
PAT,P32,REL,FM,M2,12.99924077625926,%subMVIC
PAT,P32,REL,FM,M3,12.908274257114751,%subMVIC
PAT,P33,INI,FM,M1,6.488015641085663,%subMVIC
PAT,P33,INI,FM,M2,6.586576549966044,%subMVIC
PAT,P33,INI,FM,M3,7.077550257416818,%subMVIC
PAT,P33,REL,FM,M1,13.11317388187798,%subMVIC
PAT,P33,REL,FM,M2,12.207114060399435,%subMVIC
PAT,P33,REL,FM,M3,12.504278004799408,%subMVIC
PAT,P34,INI,FM,M1,20.053723087536305,%subMVIC
PAT,P34,INI,FM,M2,20.77040379765934,%subMVIC
PAT,P34,INI,FM,M3,20.56543884397941,%subMVIC
PAT,P34,REL,FM,M1,21.17805395361022,%subMVIC
PAT,P34,REL,FM,M2,21.803464493403,%subMVIC
PAT,P34,REL,FM,M3,21.17267121034695,%subMVIC
PAT,P36,INI,FM,M1,9.661990538828103,%subMVIC
PAT,P36,INI,FM,M2,9.565768624811502,%subMVIC
PAT,P36,INI,FM,M3,9.458619202975552,%subMVIC
PAT,P36,REL,FM,M1,7.936654555040925,%subMVIC
PAT,P36,REL,FM,M2,8.13370491678409,%subMVIC
PAT,P36,REL,FM,M3,8.00278980974712,%subMVIC
PAT,P41,INI,FM,M1,18.05567653795828,%subMVIC
PAT,P41,INI,FM,M2,18.499945744827272,%subMVIC
PAT,P41,INI,FM,M3,18.32152422439263,%subMVIC
PAT,P41,REL,FM,M1,12.144929924947917,%subMVIC
PAT,P41,REL,FM,M2,12.33442034589858,%subMVIC
PAT,P41,REL,FM,M3,12.060814488322992,%subMVIC
PAT,P42,INI,FM,M1,24.22980761246868,%subMVIC
PAT,P42,INI,FM,M2,23.9594093056056,%subMVIC
PAT,P42,INI,FM,M3,23.469838858857447,%subMVIC
PAT,P42,REL,FM,M1,25.0718039557109,%subMVIC
PAT,P42,REL,FM,M2,25.483966022424926,%subMVIC
PAT,P42,REL,FM,M3,25.505041779257525,%subMVIC
PAT,P43,INI,FM,M1,9.882221185376254,%subMVIC
PAT,P43,INI,FM,M2,10.315794728112442,%subMVIC
PAT,P43,INI,FM,M3,9.872013113498957,%subMVIC
PAT,P43,REL,FM,M1,8.816421487061188,%subMVIC
PAT,P43,REL,FM,M2,8.479833836478534,%subMVIC
PAT,P43,REL,FM,M3,8.326486195838427,%subMVIC
PAT,P45,INI,FM,M1,13.702264887655392,%subMVIC
PAT,P45,INI,FM,M2,13.898370426247933,%subMVIC
PAT,P45,INI,FM,M3,14.20580773462314,%subMVIC
PAT,P45,REL,FM,M1,13.330782256769083,%subMVIC
PAT,P45,REL,FM,M2,13.382192417585966,%subMVIC
PAT,P45,REL,FM,M3,13.23187939175734,%subMVIC
PAT,P47,INI,FM,M1,21.01786372116456,%subMVIC
PAT,P47,INI,FM,M2,21.29082717546512,%subMVIC
PAT,P47,INI,FM,M3,22.31890519403992,%subMVIC
PAT,P47,REL,FM,M1,16.38686807270688,%subMVIC
PAT,P47,REL,FM,M2,16.193562519522573,%subMVIC
PAT,P47,REL,FM,M3,16.654788255425952,%subMVIC
PAT,P50,INI,FM,M1,18.580932698839977,%subMVIC
PAT,P50,INI,FM,M2,18.17083668696583,%subMVIC
PAT,P50,INI,FM,M3,18.40823116428955,%subMVIC
PAT,P50,REL,FM,M1,21.682285962759423,%subMVIC
PAT,P50,REL,FM,M2,22.769549538286476,%subMVIC
PAT,P50,REL,FM,M3,22.304334526525512,%subMVIC
PAT,P51,INI,FM,M1,9.34281820697752,%subMVIC
PAT,P51,INI,FM,M2,9.41124717299099,%subMVIC
PAT,P51,INI,FM,M3,9.307931417239717,%subMVIC
PAT,P51,REL,FM,M1,6.644060505688368,%subMVIC
PAT,P51,REL,FM,M2,6.544553415718727,%subMVIC
PAT,P51,REL,FM,M3,6.432318945426686,%subMVIC
PAT,P53,INI,FM,M1,10.244971152805563,%subMVIC
PAT,P53,INI,FM,M2,10.116906140608611,%subMVIC
PAT,P53,INI,FM,M3,9.900661053235998,%subMVIC
PAT,P53,REL,FM,M1,12.007942353518724,%subMVIC
PAT,P53,REL,FM,M2,11.90646933824387,%subMVIC
PAT,P53,REL,FM,M3,11.772802491542178,%subMVIC
PAT,P58,INI,FM,M1,24.573752731458256,%subMVIC
PAT,P58,INI,FM,M2,24.223107435565296,%subMVIC
PAT,P58,INI,FM,M3,24.04433779778145,%subMVIC
PAT,P58,REL,FM,M1,16.585852007708752,%subMVIC
PAT,P58,REL,FM,M2,14.687097294042363,%subMVIC
PAT,P58,REL,FM,M3,14.3103303979975,%subMVIC
PAT,P61,REL,FM,M1,10.163407087435775,%subMVIC
PAT,P61,REL,FM,M2,9.436050004393165,%subMVIC
PAT,P61,REL,FM,M3,10.31646568032512,%subMVIC
PAT,P62,INI,FM,M1,6.287960313206156,%subMVIC
PAT,P62,INI,FM,M2,6.421796727656133,%subMVIC
PAT,P62,INI,FM,M3,6.663095172046629,%subMVIC
PAT,P62,REL,FM,M1,12.550284946521408,%subMVIC
PAT,P62,REL,FM,M2,12.69431065069697,%subMVIC
PAT,P62,REL,FM,M3,12.575760417646665,%subMVIC
PAT,P63,INI,FM,M1,11.17396643653225,%subMVIC
PAT,P63,INI,FM,M2,10.705843444311451,%subMVIC
PAT,P63,INI,FM,M3,9.607447015589688,%subMVIC
PAT,P63,REL,FM,M1,15.78553965445498,%subMVIC
PAT,P63,REL,FM,M2,14.161290618732863,%subMVIC
PAT,P63,REL,FM,M3,12.46079963407523,%subMVIC
PAT,P65,INI,FM,M1,19.869731417328005,%subMVIC
PAT,P65,INI,FM,M2,21.260766111419244,%subMVIC
PAT,P65,INI,FM,M3,21.578708814028992,%subMVIC
PAT,P65,REL,FM,M1,23.664091431912425,%subMVIC
PAT,P65,REL,FM,M2,23.13496862297244,%subMVIC
PAT,P65,REL,FM,M3,23.450945176736877,%subMVIC
