Group,Participant,Session,Operator,Measure,Value,Unit
PAT,P09,INI,FM,M1,92.25365445794144,Hz
PAT,P09,INI,FM,M2,94.81959214782498,Hz
PAT,P09,INI,FM,M3,86.57398916501502,Hz
PAT,P09,REL,FM,M1,86.52714571651175,Hz
PAT,P09,REL,FM,M2,89.08286844163827,Hz
PAT,P09,REL,FM,M3,89.57484955419886,Hz
PAT,P10,INI,FM,M1,91.2153773948586,Hz
PAT,P10,INI,FM,M2,90.8021163666406,Hz
PAT,P10,INI,FM,M3,91.88276952937936,Hz
PAT,P10,REL,FM,M1,102.38100504814142,Hz
PAT,P10,REL,FM,M2,95.9757757846124,Hz
PAT,P10,REL,FM,M3,96.5328349549314,Hz
PAT,P11,INI,FM,M1,76.17836275664241,Hz
PAT,P11,INI,FM,M2,81.22843155923918,Hz
PAT,P11,INI,FM,M3,78.26105128670987,Hz
PAT,P11,REL,FM,M1,91.31235588807871,Hz
PAT,P11,REL,FM,M2,97.0333329357192,Hz
PAT,P11,REL,FM,M3,93.09988223780022,Hz
PAT,P12,INI,FM,M1,100.72028770584922,Hz
PAT,P12,INI,FM,M2,101.5033806186992,Hz
PAT,P12,INI,FM,M3,103.40019826674046,Hz
PAT,P12,REL,FM,M1,120.51552248921207,Hz
PAT,P12,REL,FM,M2,121.78838836596158,Hz
PAT,P12,REL,FM,M3,119.59419871880162,Hz
PAT,P14,INI,FM,M1,74.74309972364689,Hz
PAT,P14,INI,FM,M2,54.17188057601684,Hz
PAT,P14,INI,FM,M3,68.99068775036811,Hz
PAT,P14,REL,FM,M1,113.55127936458072,Hz
PAT,P14,REL,FM,M2,63.60184962007669,Hz
PAT,P14,REL,FM,M3,52.17507201200789,Hz
PAT,P17,INI,FM,M1,90.824983387045,Hz
PAT,P17,INI,FM,M2,87.00476668273487,Hz
PAT,P17,INI,FM,M3,85.47767379944366,Hz
PAT,P17,REL,FM,M1,103.57123516186844,Hz
PAT,P17,REL,FM,M2,101.19903225787482,Hz
PAT,P17,REL,FM,M3,84.35944473293253,Hz
PAT,P24,INI,FM,M1,107.09527752986284,Hz
PAT,P24,INI,FM,M2,110.31283331508187,Hz
PAT,P24,INI,FM,M3,111.67543476260168,Hz
PAT,P24,REL,FM,M1,109.06954885717153,Hz
PAT,P24,REL,FM,M2,113.54463883349328,Hz
PAT,P24,REL,FM,M3,110.8545530496484,Hz
PAT,P26,INI,FM,M1,51.94159911170101,Hz
PAT,P26,INI,FM,M2,57.57998797979706,Hz
PAT,P26,INI,FM,M3,56.21209751222031,Hz
PAT,P26,REL,FM,M1,47.62993596580175,Hz
PAT,P26,REL,FM,M2,62.65537996931065,Hz
PAT,P26,REL,FM,M3,64.4595269513405,Hz
PAT,P27,INI,FM,M1,96.81865264851407,Hz
PAT,P27,INI,FM,M2,103.08621371986705,Hz
PAT,P27,INI,FM,M3,101.93805796872044,Hz
PAT,P27,REL,FM,M1,101.79803631665618,Hz
PAT,P27,REL,FM,M2,105.8906218314994,Hz
PAT,P27,REL,FM,M3,99.78838580415632,Hz
PAT,P28,INI,FM,M1,100.11292567320876,Hz
PAT,P28,INI,FM,M2,99.56286704696716,Hz
PAT,P28,INI,FM,M3,100.74757572152838,Hz
PAT,P28,REL,FM,M1,101.74640193253244,Hz
PAT,P28,REL,FM,M2,104.1530252508594,Hz
PAT,P28,REL,FM,M3,102.02672213855712,Hz
PAT,P29,INI,FM,M1,96.67297266332169,Hz
PAT,P29,INI,FM,M2,94.62237121378097,Hz
PAT,P29,INI,FM,M3,93.24332553732096,Hz
PAT,P29,REL,FM,M1,92.06702402341271,Hz
PAT,P29,REL,FM,M2,94.17144168865389,Hz
PAT,P29,REL,FM,M3,94.05126193414486,Hz
PAT,P30,INI,FM,M1,139.75399358906532,Hz
PAT,P30,INI,FM,M2,142.01735176036652,Hz
PAT,P30,INI,FM,M3,139.97246617234234,Hz
PAT,P30,REL,FM,M1,124.0789848607225,Hz
PAT,P30,REL,FM,M2,136.6259239001346,Hz
PAT,P30,REL,FM,M3,146.1158227342136,Hz
PAT,P32,INI,FM,M1,128.74037015488955,Hz
PAT,P32,INI,FM,M2,131.90959064673365,Hz
PAT,P32,INI,FM,M3,130.2183589235711,Hz
PAT,P32,REL,FM,M1,50.557952678230166,Hz
PAT,P32,REL,FM,M2,114.89435268467538,Hz
PAT,P32,REL,FM,M3,97.66786288035928,Hz
PAT,P33,INI,FM,M1,66.11000067838316,Hz
PAT,P33,INI,FM,M2,58.62812576105454,Hz
PAT,P33,INI,FM,M3,55.44144970680351,Hz
PAT,P33,REL,FM,M1,,Hz
PAT,P33,REL,FM,M2,,Hz
PAT,P33,REL,FM,M3,,Hz
PAT,P34,INI,FM,M1,75.41481436282432,Hz
PAT,P34,INI,FM,M2,97.2233450948637,Hz
PAT,P34,INI,FM,M3,88.58866546313689,Hz
PAT,P34,REL,FM,M1,107.06187109221348,Hz
PAT,P34,REL,FM,M2,108.39680485591428,Hz
PAT,P34,REL,FM,M3,105.50760040675682,Hz
PAT,P36,INI,FM,M1,89.86984491105494,Hz
PAT,P36,INI,FM,M2,95.34687782977493,Hz
PAT,P36,INI,FM,M3,93.93538554803794,Hz
PAT,P36,REL,FM,M1,93.02886948574891,Hz
PAT,P36,REL,FM,M2,89.61274753544227,Hz
PAT,P36,REL,FM,M3,88.17418051389144,Hz
PAT,P41,INI,FM,M1,80.94089342648742,Hz
PAT,P41,INI,FM,M2,98.78584012122946,Hz
PAT,P41,INI,FM,M3,101.05124289441808,Hz
PAT,P41,REL,FM,M1,105.10831687693614,Hz
PAT,P41,REL,FM,M2,103.88629432671472,Hz
PAT,P41,REL,FM,M3,104.15118714253828,Hz
PAT,P42,INI,FM,M1,96.18330302979491,Hz
PAT,P42,INI,FM,M2,98.31057750522277,Hz
PAT,P42,INI,FM,M3,101.92305566586624,Hz
PAT,P42,REL,FM,M1,87.87529540066306,Hz
PAT,P42,REL,FM,M2,75.12486289653022,Hz
PAT,P42,REL,FM,M3,78.89350727854807,Hz
PAT,P43,INI,FM,M1,41.40014267391218,Hz
PAT,P43,INI,FM,M2,44.0054474371933,Hz
PAT,P43,INI,FM,M3,87.60512705763891,Hz
PAT,P43,REL,FM,M1,74.39598472563343,Hz
PAT,P43,REL,FM,M2,85.332244779018,Hz
PAT,P43,REL,FM,M3,81.74742674626701,Hz
PAT,P45,INI,FM,M1,124.24987874784416,Hz
PAT,P45,INI,FM,M2,127.85668804052204,Hz
PAT,P45,INI,FM,M3,127.28810252281563,Hz
PAT,P45,REL,FM,M1,144.35681185654445,Hz
PAT,P45,REL,FM,M2,145.34043605252566,Hz
PAT,P45,REL,FM,M3,137.01104697684858,Hz
PAT,P47,INI,FM,M1,,Hz
PAT,P47,INI,FM,M2,,Hz
PAT,P47,INI,FM,M3,,Hz
PAT,P47,REL,FM,M1,87.6710113413925,Hz
PAT,P47,REL,FM,M2,78.6766908401862,Hz
PAT,P47,REL,FM,M3,76.21982499302766,Hz
PAT,P50,INI,FM,M1,58.076161896007726,Hz
PAT,P50,INI,FM,M2,70.3010559061343,Hz
PAT,P50,INI,FM,M3,73.44921517177798,Hz
PAT,P50,REL,FM,M1,64.86058035859058,Hz
PAT,P50,REL,FM,M2,80.14548478457543,Hz
PAT,P50,REL,FM,M3,63.7102986445563,Hz
PAT,P51,INI,FM,M1,122.79830152809654,Hz
PAT,P51,INI,FM,M2,120.88822853760882,Hz
PAT,P51,INI,FM,M3,122.5514343412988,Hz
PAT,P51,REL,FM,M1,130.12109254558612,Hz
PAT,P51,REL,FM,M2,121.22018924173926,Hz
PAT,P51,REL,FM,M3,123.92119034069984,Hz
PAT,P53,INI,FM,M1,114.87816766307454,Hz
PAT,P53,INI,FM,M2,119.93974492569986,Hz
PAT,P53,INI,FM,M3,124.91288183405254,Hz
PAT,P53,REL,FM,M1,135.66675797187128,Hz
PAT,P53,REL,FM,M2,149.08939675931424,Hz
PAT,P53,REL,FM,M3,135.41650091138135,Hz
PAT,P54,INI,FM,M1,104.19601657889744,Hz
PAT,P54,INI,FM,M2,120.8502675695182,Hz
PAT,P54,INI,FM,M3,124.08412182763944,Hz
PAT,P54,REL,FM,M1,87.61835593791152,Hz
PAT,P54,REL,FM,M2,75.67063376842489,Hz
PAT,P54,REL,FM,M3,52.962358537708,Hz
PAT,P58,INI,FM,M1,129.6261862611429,Hz
PAT,P58,INI,FM,M2,134.874748204508,Hz
PAT,P58,INI,FM,M3,129.0200166838926,Hz
PAT,P58,REL,FM,M1,123.83058329034284,Hz
PAT,P58,REL,FM,M2,124.85882594880422,Hz
PAT,P58,REL,FM,M3,130.2871365482313,Hz
PAT,P61,INI,FM,M1,78.4382389330374,Hz
PAT,P61,INI,FM,M2,96.46892746382176,Hz
PAT,P61,INI,FM,M3,102.06528313012775,Hz
PAT,P61,REL,FM,M1,143.63629859821748,Hz
PAT,P61,REL,FM,M2,146.63571958016766,Hz
PAT,P61,REL,FM,M3,148.021860183414,Hz
PAT,P62,INI,FM,M1,101.95438573760268,Hz
PAT,P62,INI,FM,M2,83.96490551821627,Hz
PAT,P62,INI,FM,M3,56.92819222288708,Hz
PAT,P62,REL,FM,M1,90.06805824317397,Hz
PAT,P62,REL,FM,M2,61.550943273343066,Hz
PAT,P62,REL,FM,M3,103.11375401790008,Hz
PAT,P63,INI,FM,M1,47.99528405173897,Hz
PAT,P63,INI,FM,M2,96.44073847149,Hz
PAT,P63,INI,FM,M3,56.525719239931526,Hz
PAT,P63,REL,FM,M1,123.19198357748203,Hz
PAT,P63,REL,FM,M2,115.95887670207296,Hz
PAT,P63,REL,FM,M3,122.10499375512866,Hz
PAT,P65,INI,FM,M1,100.00049381556566,Hz
PAT,P65,INI,FM,M2,95.47272276118248,Hz
PAT,P65,INI,FM,M3,104.37214522884354,Hz
PAT,P65,REL,FM,M1,98.87175932945806,Hz
PAT,P65,REL,FM,M2,100.66988804354514,Hz
PAT,P65,REL,FM,M3,101.5277592865867,Hz
