Group,Participant,Session,Operator,Measure,Value,Unit
PAT,P10,INI,FM,M1,2.48,s
PAT,P10,INI,FM,M2,21.422,s
PAT,P10,INI,FM,M3,1.315,s
PAT,P10,REL,FM,M1,,s
PAT,P10,REL,FM,M2,,s
PAT,P10,REL,FM,M3,,s
PAT,P11,INI,FM,M1,1.262,s
PAT,P11,INI,FM,M2,2.074,s
PAT,P11,INI,FM,M3,4.975499999999999,s
PAT,P11,REL,FM,M1,0.293,s
PAT,P11,REL,FM,M2,0.449,s
PAT,P11,REL,FM,M3,,s
PAT,P12,INI,FM,M1,0.59375,s
PAT,P12,INI,FM,M2,0.39625,s
PAT,P12,INI,FM,M3,0.80625,s
PAT,P12,REL,FM,M1,0.208,s
PAT,P12,REL,FM,M2,0.24,s
PAT,P12,REL,FM,M3,,s
PAT,P14,INI,FM,M1,0.8409999999999999,s
PAT,P14,INI,FM,M2,0.8146666666666667,s
PAT,P14,INI,FM,M3,0.5446666666666666,s
PAT,P14,REL,FM,M1,0.5615,s
PAT,P14,REL,FM,M2,1.3232499999999998,s
PAT,P14,REL,FM,M3,1.3835000000000002,s
PAT,P17,INI,FM,M1,,s
PAT,P17,INI,FM,M2,,s
PAT,P17,INI,FM,M3,,s
PAT,P17,REL,FM,M1,0.63,s
PAT,P17,REL,FM,M2,18.771,s
PAT,P17,REL,FM,M3,,s
PAT,P24,INI,FM,M1,2.6,s
PAT,P24,INI,FM,M2,7.6,s
PAT,P24,INI,FM,M3,12.506,s
PAT,P24,REL,FM,M1,,s
PAT,P24,REL,FM,M2,,s
PAT,P24,REL,FM,M3,,s
PAT,P26,INI,FM,M1,1.7803333333333333,s
PAT,P26,INI,FM,M2,1.8150000000000002,s
PAT,P26,INI,FM,M3,2.0396666666666667,s
PAT,P26,REL,FM,M1,,s
PAT,P26,REL,FM,M2,,s
PAT,P26,REL,FM,M3,,s
PAT,P27,INI,FM,M1,1.04,s
PAT,P27,INI,FM,M2,1.376,s
PAT,P27,INI,FM,M3,0.923,s
PAT,P27,REL,FM,M1,,s
PAT,P27,REL,FM,M2,,s
PAT,P27,REL,FM,M3,,s
PAT,P28,INI,FM,M1,0.764,s
PAT,P28,INI,FM,M2,4.679,s
PAT,P28,INI,FM,M3,3.505,s
PAT,P28,REL,FM,M1,1.081,s
PAT,P28,REL,FM,M2,13.526,s
PAT,P28,REL,FM,M3,,s
PAT,P29,INI,FM,M1,1.127,s
PAT,P29,INI,FM,M2,1.77525,s
PAT,P29,INI,FM,M3,1.4215,s
PAT,P29,REL,FM,M1,2.053,s
PAT,P29,REL,FM,M2,1.3276666666666666,s
PAT,P29,REL,FM,M3,1.2990000000000002,s
PAT,P30,INI,FM,M1,,s
PAT,P30,INI,FM,M2,,s
PAT,P30,INI,FM,M3,,s
PAT,P30,REL,FM,M1,6.337,s
PAT,P30,REL,FM,M2,8.628,s
PAT,P30,REL,FM,M3,,s
PAT,P32,INI,FM,M1,1.186,s
PAT,P32,INI,FM,M2,0.723,s
PAT,P32,INI,FM,M3,1.4754,s
PAT,P32,REL,FM,M1,0.778,s
PAT,P32,REL,FM,M2,5.053,s
PAT,P32,REL,FM,M3,14.286,s
PAT,P33,INI,FM,M1,1.831,s
PAT,P33,INI,FM,M2,2.05,s
PAT,P33,INI,FM,M3,21.091,s
PAT,P33,REL,FM,M1,,s
PAT,P33,REL,FM,M2,,s
PAT,P33,REL,FM,M3,,s
PAT,P34,INI,FM,M1,0.38400000000000006,s
PAT,P34,INI,FM,M2,0.36566666666666664,s
PAT,P34,INI,FM,M3,0.46466666666666673,s
PAT,P34,REL,FM,M1,0.366,s
PAT,P34,REL,FM,M2,0.34075000000000005,s
PAT,P34,REL,FM,M3,0.41825,s
PAT,P36,INI,FM,M1,2.7359999999999998,s
PAT,P36,INI,FM,M2,1.383,s
PAT,P36,INI,FM,M3,10.418000000000001,s
PAT,P36,REL,FM,M1,,s
PAT,P36,REL,FM,M2,,s
PAT,P36,REL,FM,M3,,s
PAT,P41,INI,FM,M1,,s
PAT,P41,INI,FM,M2,,s
PAT,P41,INI,FM,M3,,s
PAT,P41,REL,FM,M1,7.492,s
PAT,P41,REL,FM,M2,1.162,s
PAT,P41,REL,FM,M3,13.27,s
PAT,P42,INI,FM,M1,0.4675,s
PAT,P42,INI,FM,M2,0.4495,s
PAT,P42,INI,FM,M3,0.259,s
PAT,P42,REL,FM,M1,1.3179999999999998,s
PAT,P42,REL,FM,M2,3.1765,s
PAT,P42,REL,FM,M3,0.6849999999999999,s
PAT,P43,REL,FM,M1,0.689,s
PAT,P43,REL,FM,M2,0.382,s
PAT,P43,REL,FM,M3,0.5498,s
PAT,P45,INI,FM,M1,2.3016666666666663,s
PAT,P45,INI,FM,M2,2.8523333333333336,s
PAT,P45,INI,FM,M3,1.9286666666666665,s
PAT,P45,REL,FM,M1,1.3226666666666667,s
PAT,P45,REL,FM,M2,1.1316666666666666,s
PAT,P45,REL,FM,M3,1.4056666666666666,s
PAT,P47,INI,FM,M1,0.7605714285714287,s
PAT,P47,INI,FM,M2,1.1465714285714286,s
PAT,P47,INI,FM,M3,1.6584285714285716,s
PAT,P47,REL,FM,M1,2.95,s
PAT,P47,REL,FM,M2,2.752,s
PAT,P47,REL,FM,M3,2.9189999999999996,s
PAT,P50,INI,FM,M1,2.8113333333333337,s
PAT,P50,INI,FM,M2,2.0813333333333333,s
PAT,P50,INI,FM,M3,1.9043333333333334,s
PAT,P50,REL,FM,M1,1.48275,s
PAT,P50,REL,FM,M2,1.8610000000000002,s
PAT,P50,REL,FM,M3,1.08475,s
PAT,P51,INI,FM,M1,0.8446666666666666,s
PAT,P51,INI,FM,M2,1.31,s
PAT,P51,INI,FM,M3,0.9536666666666666,s
PAT,P51,REL,FM,M1,0.769,s
PAT,P51,REL,FM,M2,0.9575,s
PAT,P51,REL,FM,M3,5.455,s
PAT,P53,INI,FM,M1,0.5966666666666667,s
PAT,P53,INI,FM,M2,0.48000000000000004,s
PAT,P53,INI,FM,M3,0.454,s
PAT,P53,REL,FM,M1,0.9373333333333332,s
PAT,P53,REL,FM,M2,1.002,s
PAT,P53,REL,FM,M3,1.1583333333333334,s
PAT,P54,INI,FM,M1,1.213,s
PAT,P54,INI,FM,M2,2.1203333333333334,s
PAT,P54,INI,FM,M3,5.623333333333334,s
PAT,P58,REL,FM,M1,,s
PAT,P58,REL,FM,M2,,s
PAT,P58,REL,FM,M3,,s
PAT,P61,INI,FM,M1,1.82475,s
PAT,P61,INI,FM,M2,1.94175,s
PAT,P61,INI,FM,M3,2.4130000000000003,s
PAT,P61,REL,FM,M1,0.4635,s
PAT,P61,REL,FM,M2,3.2565,s
PAT,P61,REL,FM,M3,3.0709999999999997,s
PAT,P62,INI,FM,M1,2.62275,s
PAT,P62,INI,FM,M2,2.24775,s
PAT,P62,INI,FM,M3,2.25225,s
PAT,P62,REL,FM,M1,,s
PAT,P62,REL,FM,M2,,s
PAT,P62,REL,FM,M3,,s
PAT,P63,INI,FM,M1,,s
PAT,P63,INI,FM,M2,,s
PAT,P63,INI,FM,M3,,s
PAT,P63,REL,FM,M1,4.116666666666666,s
PAT,P63,REL,FM,M2,1.3386666666666667,s
PAT,P63,REL,FM,M3,1.8516666666666666,s
PAT,P65,INI,FM,M1,1.5353333333333332,s
PAT,P65,INI,FM,M2,2.004,s
PAT,P65,INI,FM,M3,2.7053333333333334,s
