Group,Participant,Session,Operator,Measure,Value,Unit
CTR,P01,INI,FM,MEAN,89.93107240336481,Hz
CTR,P02,INI,FM,MEAN,84.75417720878174,Hz
CTR,P03,INI,FM,MEAN,132.52579187865754,Hz
CTR,P05,INI,FM,MEAN,85.8360135921008,Hz
CTR,P06,INI,FM,MEAN,147.10328322467768,Hz
CTR,P08,INI,FM,MEAN,85.18667837586817,Hz
PAT,P09,INI,FM,MEAN,92.0919779730074,Hz
PAT,P11,INI,FM,MEAN,78.55594853419716,Hz
CTR,P13,INI,FM,MEAN,45.132265255438256,Hz
CTR,P16,INI,FM,MEAN,139.9514564935038,Hz
PAT,P17,INI,FM,MEAN,87.76914128974119,Hz
CTR,P21,INI,FM,MEAN,96.60627759661712,Hz
CTR,P22,INI,FM,MEAN,102.85146513639472,Hz
CTR,P23,INI,FM,MEAN,128.28344142491062,Hz
PAT,P24,INI,FM,MEAN,109.69451520251546,Hz
CTR,P25,INI,FM,MEAN,83.58006420893275,Hz
PAT,P27,INI,FM,MEAN,100.6143081123672,Hz
PAT,P33,INI,FM,MEAN,58.82978294385333,Hz
PAT,P34,INI,FM,MEAN,87.07560830694165,Hz
CTR,P35,INI,FM,MEAN,93.1270694826843,Hz
PAT,P36,INI,FM,MEAN,93.05070276295594,Hz
CTR,P38,INI,FM,MEAN,75.87888407456585,Hz
CTR,P39,INI,FM,MEAN,39.49650778378307,Hz
CTR,P40,INI,FM,MEAN,61.44794290890221,Hz
PAT,P43,INI,FM,MEAN,57.670239056248136,Hz
CTR,P44,INI,FM,MEAN,73.03673073841816,Hz
CTR,P46,INI,FM,MEAN,105.81371484164488,Hz
PAT,P47,INI,FM,MEAN,41.98602085175498,Hz
CTR,P48,INI,FM,MEAN,107.07095187759391,Hz
CTR,P49,INI,FM,MEAN,95.38066480886592,Hz
PAT,P51,INI,FM,MEAN,122.0793214690014,Hz
CTR,P52,INI,FM,MEAN,90.2991275673134,Hz
CTR,P55,INI,FM,MEAN,108.19119981716352,Hz
CTR,P56,INI,FM,MEAN,107.86043393847706,Hz
CTR,P57,INI,FM,MEAN,43.138391195934766,Hz
PAT,P58,INI,FM,MEAN,131.17365038318115,Hz
CTR,P60,INI,FM,MEAN,98.25782455696668,Hz
PAT,P61,INI,FM,MEAN,92.32414984232896,Hz
PAT,P62,INI,FM,MEAN,80.94916115956867,Hz
PAT,P63,INI,FM,MEAN,66.98724725438683,Hz
CTR,P64,INI,FM,MEAN,77.08456878263668,Hz
PAT,P65,INI,FM,MEAN,99.94845393519722,Hz
CTR,P67,INI,FM,MEAN,81.97579111841044,Hz
CTR,P68,INI,FM,MEAN,63.40863225591149,Hz
