Group,Participant,Session,Operator,Measure,Value,Unit
CTR,P01,INI,FM,MEAN,2.767085782114044,%MAX
CTR,P02,INI,FM,MEAN,7.962408830870502,%MAX
CTR,P03,INI,FM,MEAN,10.204214745292193,%MAX
CTR,P05,INI,FM,MEAN,3.704507114218704,%MAX
CTR,P06,INI,FM,MEAN,18.49046569804849,%MAX
CTR,P07,INI,FM,MEAN,8.012743585336997,%MAX
CTR,P08,INI,FM,MEAN,1.304317967160247,%MAX
PAT,P09,INI,FM,MEAN,9.588368955241716,%MAX
PAT,P11,INI,FM,MEAN,6.396734958681717,%MAX
CTR,P13,INI,FM,MEAN,9.2634736264289,%MAX
CTR,P16,INI,FM,MEAN,6.992454170626286,%MAX
PAT,P17,INI,FM,MEAN,8.585952968538985,%MAX
CTR,P21,INI,FM,MEAN,4.83941888057445,%MAX
CTR,P22,INI,FM,MEAN,7.887594724619203,%MAX
CTR,P23,INI,FM,MEAN,9.86522024134418,%MAX
PAT,P24,INI,FM,MEAN,10.171738285845572,%MAX
CTR,P25,INI,FM,MEAN,2.876181713582642,%MAX
PAT,P27,INI,FM,MEAN,4.158563718292502,%MAX
PAT,P33,INI,FM,MEAN,11.18866995232157,%MAX
PAT,P34,INI,FM,MEAN,9.961428315331633,%MAX
CTR,P35,INI,FM,MEAN,2.6099044167240746,%MAX
PAT,P36,INI,FM,MEAN,3.402877343052672,%MAX
CTR,P38,INI,FM,MEAN,1.3445270855625968,%MAX
CTR,P39,INI,FM,MEAN,5.318411123962487,%MAX
CTR,P40,INI,FM,MEAN,1.9633761818360709,%MAX
PAT,P43,INI,FM,MEAN,5.073802639940465,%MAX
CTR,P44,INI,FM,MEAN,1.366465027718876,%MAX
CTR,P46,INI,FM,MEAN,3.4791144373031684,%MAX
PAT,P47,INI,FM,MEAN,4.753576312583159,%MAX
CTR,P48,INI,FM,MEAN,6.276020571208945,%MAX
CTR,P49,INI,FM,MEAN,3.249633360666557,%MAX
PAT,P51,INI,FM,MEAN,13.19192931913947,%MAX
CTR,P52,INI,FM,MEAN,5.3664705387547125,%MAX
CTR,P55,INI,FM,MEAN,0.5477467770331053,%MAX
CTR,P56,INI,FM,MEAN,4.251842284048691,%MAX
CTR,P57,INI,FM,MEAN,0.5712980924862502,%MAX
PAT,P58,INI,FM,MEAN,0.4746108037695367,%MAX
CTR,P60,INI,FM,MEAN,6.614110702341324,%MAX
PAT,P61,INI,FM,MEAN,7.116213396001794,%MAX
PAT,P62,INI,FM,MEAN,7.922950837692049,%MAX
PAT,P63,INI,FM,MEAN,7.269165583677618,%MAX
CTR,P64,INI,FM,MEAN,4.556581817395217,%MAX
PAT,P65,INI,FM,MEAN,4.746199361143465,%MAX
CTR,P66,INI,FM,MEAN,1.5916066935743225,%MAX
CTR,P67,INI,FM,MEAN,2.171242812981166,%MAX
CTR,P68,INI,FM,MEAN,3.492317844886326,%MAX
