Group,Participant,Session,Operator,Measure,Value,Unit
CTR,P01,INI,FM,RMS,0.0175775224367436,V
CTR,P02,INI,FM,RMS,0.0316422423946338,V
CTR,P03,INI,FM,RMS,0.0125937966750601,V
CTR,P05,INI,FM,RMS,0.0381121417760287,V
CTR,P06,INI,FM,RMS,0.0070384018941409,V
CTR,P07,INI,FM,RMS,0.0765923811641203,V
CTR,P08,INI,FM,RMS,0.0510774495299134,V
PAT,P09,INI,FM,RMS,0.0194453938408928,V
PAT,P11,INI,FM,RMS,0.0243194143026661,V
CTR,P13,INI,FM,RMS,0.0143086862740551,V
CTR,P16,INI,FM,RMS,0.0135935812682663,V
PAT,P17,INI,FM,RMS,0.0157185642684135,V
CTR,P22,INI,FM,RMS,0.0117506069344338,V
CTR,P23,INI,FM,RMS,0.0242566889914541,V
PAT,P24,INI,FM,RMS,0.0141293259203888,V
CTR,P25,INI,FM,RMS,0.0917608599547502,V
PAT,P27,INI,FM,RMS,0.0197767753762743,V
PAT,P33,INI,FM,RMS,0.0132396141006245,V
PAT,P34,INI,FM,RMS,0.0097248713442393,V
CTR,P35,INI,FM,RMS,0.0284137229791086,V
PAT,P36,INI,FM,RMS,0.0416303633957432,V
CTR,P38,INI,FM,RMS,0.0430769789731567,V
CTR,P39,INI,FM,RMS,0.013258178087562,V
CTR,P40,INI,FM,RMS,0.0353401381397665,V
PAT,P43,INI,FM,RMS,0.0354811743516417,V
CTR,P44,INI,FM,RMS,0.116661901534189,V
PAT,P47,INI,FM,RMS,0.031048216847373,V
CTR,P48,INI,FM,RMS,0.0291647726365547,V
CTR,P49,INI,FM,RMS,0.0252400472695483,V
PAT,P51,INI,FM,RMS,0.0127456436351114,V
CTR,P52,INI,FM,RMS,0.0371554352345074,V
CTR,P55,INI,FM,RMS,0.0255779354516743,V
CTR,P56,INI,FM,RMS,0.0303051442778279,V
CTR,P57,INI,FM,RMS,,V
PAT,P58,INI,FM,RMS,0.021646479975505,V
CTR,P60,INI,FM,RMS,0.0177313096579342,V
PAT,P61,INI,FM,RMS,0.0349984442047308,V
PAT,P62,INI,FM,RMS,0.0125538723430889,V
PAT,P63,INI,FM,RMS,0.032626064503453,V
CTR,P64,INI,FM,RMS,0.0278716782849333,V
PAT,P65,INI,FM,RMS,0.0288245593669668,V
CTR,P66,INI,FM,RMS,0.046936740230891,V
CTR,P67,INI,FM,RMS,0.0367264540801249,V
CTR,P68,INI,FM,RMS,0.0360623876956976,V
