Group,Participant,Session,Operator,Measure,Value,Unit
CTR,P01,INI,FM,RMS,0.0033213492288822,V
CTR,P02,INI,FM,RMS,0.0044276583365265,V
CTR,P03,INI,FM,RMS,0.0030240006547815,V
CTR,P05,INI,FM,RMS,0.0042788160897253,V
CTR,P06,INI,FM,RMS,0.0017443998215208,V
CTR,P07,INI,FM,RMS,0.004090676294623,V
CTR,P08,INI,FM,RMS,0.0038806476108122,V
PAT,P09,INI,FM,RMS,0.0031588882536659,V
PAT,P10,INI,FM,RMS,0.0061099999067552,V
PAT,P11,INI,FM,RMS,0.0023322490595232,V
PAT,P12,INI,FM,RMS,,V
CTR,P13,INI,FM,RMS,0.0034662249673783,V
PAT,P14,INI,FM,RMS,0.0036496268464727,V
CTR,P16,INI,FM,RMS,0.0021390808676031,V
PAT,P17,INI,FM,RMS,0.0056031040117397,V
CTR,P21,INI,FM,RMS,0.0024354753029755,V
CTR,P22,INI,FM,RMS,0.0033856993122627,V
CTR,P23,INI,FM,RMS,0.0022231797787971,V
PAT,P24,INI,FM,RMS,0.0042466410289376,V
CTR,P25,INI,FM,RMS,0.0081760037041106,V
PAT,P26,INI,FM,RMS,0.0098986659191333,V
PAT,P27,INI,FM,RMS,0.0036956570612422,V
PAT,P28,INI,FM,RMS,0.0026098913917558,V
PAT,P29,INI,FM,RMS,0.015541396607844,V
PAT,P30,INI,FM,RMS,0.0022205082374518,V
PAT,P32,INI,FM,RMS,0.0031898681805336,V
PAT,P33,INI,FM,RMS,0.0053431491530019,V
PAT,P34,INI,FM,RMS,0.0035348355560826,V
CTR,P35,INI,FM,RMS,,V
PAT,P36,INI,FM,RMS,0.0069466331922604,V
CTR,P38,INI,FM,RMS,0.0039817397670317,V
CTR,P39,INI,FM,RMS,0.0036233840872489,V
CTR,P40,INI,FM,RMS,0.010349681918598,V
PAT,P41,INI,FM,RMS,0.0054022615145684,V
PAT,P42,INI,FM,RMS,0.0037796538346713,V
PAT,P43,INI,FM,RMS,0.002712811297454,V
CTR,P44,INI,FM,RMS,0.0078740576881915,V
PAT,P45,INI,FM,RMS,,V
CTR,P46,INI,FM,RMS,0.0033918027631008,V
PAT,P47,INI,FM,RMS,0.0030752618617215,V
CTR,P48,INI,FM,RMS,0.0049506385945685,V
CTR,P49,INI,FM,RMS,0.0110599564217103,V
PAT,P50,INI,FM,RMS,0.0077047056724618,V
PAT,P51,INI,FM,RMS,0.0023929020208464,V
CTR,P52,INI,FM,RMS,0.0050657657924204,V
PAT,P53,INI,FM,RMS,0.0062288313451981,V
PAT,P54,INI,FM,RMS,0.0035572147845661,V
CTR,P55,INI,FM,RMS,0.0018040912631783,V
CTR,P56,INI,FM,RMS,0.0039276380444586,V
CTR,P57,INI,FM,RMS,0.0018496342686092,V
PAT,P58,INI,FM,RMS,0.0022428344290633,V
CTR,P60,INI,FM,RMS,0.0038054958216015,V
PAT,P61,INI,FM,RMS,0.0061647379156305,V
PAT,P62,INI,FM,RMS,0.0038378996139402,V
PAT,P63,INI,FM,RMS,0.0073203220187344,V
CTR,P64,INI,FM,RMS,0.0067327893720539,V
PAT,P65,INI,FM,RMS,,V
CTR,P66,INI,FM,RMS,0.0037366360350352,V
CTR,P67,INI,FM,RMS,0.0035557220274834,V
CTR,P68,INI,FM,RMS,,V
