Group,Participant,Session,Operator,Measure,Value,Unit
CTR,P01,INI,FM,MEAN,0.0043690186536758,V
CTR,P02,INI,FM,MEAN,0.00432796258147,V
CTR,P03,INI,FM,MEAN,0.0025657050608462,V
CTR,P05,INI,FM,MEAN,0.0051678716240226,V
CTR,P06,INI,FM,MEAN,0.0016033961267237,V
CTR,P07,INI,FM,MEAN,0.0205945405345358,V
CTR,P08,INI,FM,MEAN,0.0026727511865253,V
PAT,P09,INI,FM,MEAN,0.0080170746902778,V
PAT,P10,INI,FM,MEAN,0.002797422423768,V
PAT,P11,INI,FM,MEAN,0.0065588825577773,V
PAT,P12,INI,FM,MEAN,0.006632939002906,V
CTR,P13,INI,FM,MEAN,0.0066991890750111,V
PAT,P14,INI,FM,MEAN,0.0038141531384625,V
CTR,P16,INI,FM,MEAN,0.0024943850435737,V
PAT,P17,INI,FM,MEAN,0.004325683431563,V
CTR,P21,INI,FM,MEAN,0.0027569539196287,V
CTR,P22,INI,FM,MEAN,0.0023744446289425,V
CTR,P23,INI,FM,MEAN,0.0035427583660307,V
PAT,P24,INI,FM,MEAN,0.010675673155442,V
CTR,P25,INI,FM,MEAN,0.0035382028280138,V
PAT,P26,INI,FM,MEAN,0.0025877201843742,V
PAT,P27,INI,FM,MEAN,0.0028169800231508,V
PAT,P28,INI,FM,MEAN,0.002834496920518,V
PAT,P29,INI,FM,MEAN,0.0063353865322507,V
PAT,P30,INI,FM,MEAN,0.0042822532152304,V
PAT,P32,INI,FM,MEAN,0.0036874438778,V
PAT,P33,INI,FM,MEAN,0.0065164106538165,V
PAT,P34,INI,FM,MEAN,0.0033370327685782,V
CTR,P35,INI,FM,MEAN,0.0025699350820351,V
PAT,P36,INI,FM,MEAN,0.0025579334881309,V
CTR,P38,INI,FM,MEAN,0.0165099852384911,V
CTR,P39,INI,FM,MEAN,0.0029322891506346,V
CTR,P40,INI,FM,MEAN,0.0029125367042104,V
PAT,P41,INI,FM,MEAN,0.0030833286039041,V
PAT,P42,INI,FM,MEAN,0.0038646674740104,V
PAT,P43,INI,FM,MEAN,0.0027793998183714,V
CTR,P44,INI,FM,MEAN,0.0027155347482266,V
PAT,P45,INI,FM,MEAN,0.0014804284779417,V
CTR,P46,INI,FM,MEAN,0.0029558651389482,V
PAT,P47,INI,FM,MEAN,0.0026495611756111,V
CTR,P48,INI,FM,MEAN,0.0071381217882271,V
CTR,P49,INI,FM,MEAN,0.0038482941244329,V
PAT,P50,INI,FM,MEAN,0.0112158593723736,V
PAT,P51,INI,FM,MEAN,0.0021903380078304,V
CTR,P52,INI,FM,MEAN,0.0039377171529143,V
PAT,P53,INI,FM,MEAN,0.0037194225647417,V
PAT,P54,INI,FM,MEAN,0.0031490906136734,V
CTR,P55,INI,FM,MEAN,0.0024720963208613,V
CTR,P56,INI,FM,MEAN,0.0030686172275799,V
CTR,P57,INI,FM,MEAN,0.0054488489432701,V
PAT,P58,INI,FM,MEAN,0.0032451277884289,V
CTR,P60,INI,FM,MEAN,0.0064947205447056,V
PAT,P61,INI,FM,MEAN,0.0051859059092545,V
PAT,P62,INI,FM,MEAN,0.003970606119466,V
PAT,P63,INI,FM,MEAN,0.0043257840550269,V
CTR,P64,INI,FM,MEAN,0.0020188339685001,V
PAT,P65,INI,FM,MEAN,0.0036773277094892,V
CTR,P66,INI,FM,MEAN,0.0022820404522509,V
CTR,P67,INI,FM,MEAN,0.0045686594087466,V
CTR,P68,INI,FM,MEAN,0.0036263827595326,V
