Group,Participant,Session,Operator,Measure,Value,Unit
CTR,P01,INI,FM,MEAN,0.0022754492687761,V
CTR,P02,INI,FM,MEAN,0.0020867791363813,V
CTR,P03,INI,FM,MEAN,0.0022669698105599,V
CTR,P05,INI,FM,MEAN,0.0027983836019778,V
CTR,P06,INI,FM,MEAN,0.0024494943998754,V
CTR,P07,INI,FM,MEAN,0.0116920248644975,V
CTR,P08,INI,FM,MEAN,0.0024344833197354,V
PAT,P09,INI,FM,MEAN,0.0036207192386297,V
PAT,P10,INI,FM,MEAN,0.0041427056431197,V
PAT,P11,INI,FM,MEAN,0.0026972322662347,V
PAT,P12,INI,FM,MEAN,0.0060195075014896,V
CTR,P13,INI,FM,MEAN,0.0098284018336202,V
PAT,P14,INI,FM,MEAN,0.0059972290843477,V
CTR,P16,INI,FM,MEAN,0.00205510208542,V
PAT,P17,INI,FM,MEAN,0.0034232190845667,V
CTR,P21,INI,FM,MEAN,0.0060797086951358,V
CTR,P22,INI,FM,MEAN,0.0023350471870725,V
CTR,P23,INI,FM,MEAN,0.0032297513020987,V
PAT,P24,INI,FM,MEAN,0.0083823534722398,V
CTR,P25,INI,FM,MEAN,0.0065269825162738,V
PAT,P26,INI,FM,MEAN,0.0031703139814176,V
PAT,P27,INI,FM,MEAN,0.0108662556668908,V
PAT,P28,INI,FM,MEAN,0.0074929202829201,V
PAT,P29,INI,FM,MEAN,0.0092449574404401,V
PAT,P30,INI,FM,MEAN,0.005794591448701,V
PAT,P32,INI,FM,MEAN,0.0045175097849271,V
PAT,P33,INI,FM,MEAN,0.0078418999387498,V
PAT,P34,INI,FM,MEAN,0.0031375082255375,V
CTR,P35,INI,FM,MEAN,0.0030058533011733,V
PAT,P36,INI,FM,MEAN,0.0231177201440231,V
CTR,P39,INI,FM,MEAN,0.0024920680484469,V
CTR,P40,INI,FM,MEAN,0.0033678391492322,V
PAT,P41,INI,FM,MEAN,0.0043999099903421,V
PAT,P42,INI,FM,MEAN,0.0069381968863185,V
PAT,P43,INI,FM,MEAN,0.0030342284709265,V
CTR,P44,INI,FM,MEAN,0.0026692975953876,V
PAT,P45,INI,FM,MEAN,0.0035451488951361,V
CTR,P46,INI,FM,MEAN,0.0074753839020249,V
PAT,P47,INI,FM,MEAN,0.0165799638158454,V
CTR,P48,INI,FM,MEAN,0.0039402540881712,V
CTR,P49,INI,FM,MEAN,0.003385844118825,V
PAT,P50,INI,FM,MEAN,0.0081380116874862,V
PAT,P51,INI,FM,MEAN,0.0084475755746781,V
CTR,P52,INI,FM,MEAN,0.0027502792244478,V
PAT,P53,INI,FM,MEAN,0.0177638588144558,V
PAT,P54,INI,FM,MEAN,0.0026255805940169,V
CTR,P55,INI,FM,MEAN,0.0034667046565701,V
CTR,P56,INI,FM,MEAN,0.0033085912761702,V
CTR,P57,INI,FM,MEAN,0.0239767626569202,V
PAT,P58,INI,FM,MEAN,0.0058145764472186,V
CTR,P60,INI,FM,MEAN,0.0045580718966149,V
PAT,P61,INI,FM,MEAN,0.0032064438504587,V
PAT,P62,INI,FM,MEAN,0.0281192451504105,V
PAT,P63,INI,FM,MEAN,0.0105002793766783,V
CTR,P64,INI,FM,MEAN,0.0027302160163575,V
PAT,P65,INI,FM,MEAN,0.0047507112398182,V
CTR,P66,INI,FM,MEAN,0.0035752611701427,V
CTR,P67,INI,FM,MEAN,0.0033894596340223,V
CTR,P68,INI,FM,MEAN,0.0107292568962502,V
