"","Biomarkers","Unit","Normality","P","AUC","Youden"
"1","BMo1.csv","V","1.14114421546153e-14","0.0357671253006907","65.7777777777778","40"
"2","BMo100.csv","%MAX","0.578843818608898","0.871504310915898","52.5555555555556","13.3333333333333"
"3","BMo101.csv","%MAX","0.000574307532821091","0.449212452880926","55.7777777777778","20"
"4","BMo102.csv","%MAX","0.000887689210391697","0.513348066589203","45","13.3333333333333"
"5","BMo103.csv","%MAX","0.00166215629261325","0.335395609907317","57.3333333333333","30"
"6","BMo104.csv","%MAX","1.53031583264866e-06","0.134203654793634","61.3333333333333","26.6666666666667"
"7","BMo105.csv","%MAX","0.0625318766041336","0.293343275148892","58.8888888888889","23.3333333333333"
"8","BMo106.csv","%MAX","4.60088513304573e-06","0.970738765826502","50.3333333333333","20"
"9","BMo107.csv","%MAX","0.0804461477247296","0.444259372323512","53.3333333333333","13.3333333333333"
"10","BMo108.csv","%MAX","0.000839409732342288","0.241797756737836","58.8888888888889","26.6666666666667"
"11","BMo109.csv","%MAX","0.358131987513996","0.148899725384611","58.7777777777778","30"
"12","BMo110.csv","%subMVIC","2.08797092863039e-10","0.207158220610842","59.6551724137931","25.9770114942529"
"13","BMo111.csv","%subMVIC","1.76752812182858e-07","0.934049731034808","50.6896551724138","20"
"14","BMo112.csv","%subMVIC","3.23451297584534e-07","0.464965934556067","55.632183908046","22.6436781609195"
"15","BMo113.csv","%subMVIC","2.12587964457561e-14","0.315816055744121","57.7011494252874","36.551724137931"
"16","BMo114.csv","V","2.36447352322362e-16","0.0906025723531084","62.7777777777778","30"
"17","BMo115.csv","V","2.58131641581952e-16","0.0934970816706142","62.6666666666667","36.6666666666667"
"18","BMo117.csv","Hz","0.995351650304768","0.120524959736422","60.8045977011494","25.0574712643678"
"19","BMo118.csv","Hz","0.773014049383374","0.121724669073401","61.7241379310345","29.1954022988506"
"20","BMo119.csv","Hz","0.0426577365737857","0.815578973475373","51.8390804597701","11.7241379310345"
"21","BMo15.csv","V","6.05346437941945e-11","0.00475732732313411","71","40"
"22","BMo22.csv","V","4.06850674743737e-13","0.231878147762273","59.6866096866097","31.4814814814815"
"23","BMo23.csv","V","1.14702539964217e-06","0.564232102907261","54.6296296296296","22.8835978835979"
"24","BMo24.csv","V","5.90324574202759e-15","0.43933887306239","56.1224489795918","17.8571428571429"
"25","BMo29.csv","Hz","0.0969176065326192","0.0426331660275419","60.6666666666667","30"
"26","BMo34.csv","%MAX","0.00616366335692494","0.00106272059639714","74.367816091954","42.8735632183908"
"27","BMo35.csv","NAN","1.10699946574741e-08","0.912371150147939","49.1111111111111","10"
"28","BMo36.csv","%SubMVIC","0.502403868921982","0.000164554779884358","77.2222222222222","50"
"29","BMo37.csv","Hz","0.466415626740478","0.746828153184565","53.1111111111111","16.6666666666667"
"30","BMo38.csv","Hz","0.187057526326553","0.0460581693340463","59.4444444444444","33.3333333333333"
"31","BMo40.csv","Hz","0.105031239771538","0.997493465916444","51.6666666666667","16.6666666666667"
"32","BMo41.csv","NAN","0.000277314879708107","0.708193052904424","52.8888888888889","16.6666666666667"
"33","BMo42.csv","NAN","5.02420343418512e-05","0.000174809136030128","77.4444444444444","53.3333333333333"
"34","BMo43.csv","NAN","1.26483397814626e-06","0.0357671253006907","65.7777777777778","40"
"35","BMo44.csv","NAN","0.0915611922856193","0.000305645230690432","76.4444444444444","46.6666666666667"
"36","BMo51.csv","Hz","0.000630828937478281","0.24195728981996","58.9655172413793","19.0804597701149"
"37","BMo52.csv","Hz","0.392431415742772","0.622090308818829","54.0229885057471","16.6666666666667"
"38","BMo53.csv","Hz","0.340654379681093","0.0735749755838864","62.4137931034483","26.0919540229885"
"39","BMo67.csv","%subMVIC","1.25705987205876e-05","0.701126633974583","52.9885057471264","15.4022988505747"
"40","BMo68.csv","%subMVIC","4.23793891117108e-11","0.59299651504642","54.1379310344828","15.9770114942529"
"41","BMo69.csv","V","2.66088154333662e-06","0.137093182142001","61.7724867724868","23.5449735449735"
"42","BMo81.csv","V","4.03272026212894e-06","0.776021529903408","47.7040816326531","17.8571428571428"
"43","BMo82.csv","V","2.66017639683461e-14","0.236364303655014","59.2364532019704","22.1674876847291"
"44","BMo86.csv","s","0.000472844413258031","0.382472490501736","57.1851851851852","18.6666666666667"
"45","BMo87.csv","s","1.26747352575802e-11","0.94937189515134","50.5917159763314","15.3846153846154"
"46","BMo88.csv","s","5.35641453535773e-10","0.307855572936427","58.3703703703704","23.2592592592593"
"47","BMo91.csv","V","1.74181768410858e-10","0.381735897674403","56.6666666666667","20"
"48","BMo96.csv","V","1.64642661859006e-11","0.0772400999832831","63.448275862069","25.1724137931034"
"49","BMo97.csv","V","7.13028738984006e-05","0.92401746135487","49.2222222222222","10"
"50","BMo98.csv","V","1.33767920353682e-12","0.0940235823111682","62.7586206896552","25.7471264367816"
