Group,Participant,Session,Operator,Measure,Value,Unit
CTR,P01,INI,FM,MEAN,22.663131534378856,%MAX
CTR,P02,INI,FM,MEAN,10.660682419659137,%MAX
CTR,P03,INI,FM,MEAN,15.337742502652336,%MAX
CTR,P05,INI,FM,MEAN,16.920499499624146,%MAX
CTR,P06,INI,FM,MEAN,28.087586113825022,%MAX
CTR,P07,INI,FM,MEAN,7.7943213133273845,%MAX
CTR,P08,INI,FM,MEAN,9.794753096209563,%MAX
PAT,P09,INI,FM,MEAN,11.970950304681272,%MAX
PAT,P10,INI,FM,MEAN,11.147654366508329,%MAX
PAT,P11,INI,FM,MEAN,14.76505210807822,%MAX
PAT,P12,INI,FM,MEAN,11.944042097790575,%MAX
CTR,P13,INI,FM,MEAN,24.718699974715054,%MAX
PAT,P14,INI,FM,MEAN,20.758047857504117,%MAX
CTR,P16,INI,FM,MEAN,79.60168189366176,%MAX
PAT,P17,INI,FM,MEAN,40.59961715448386,%MAX
CTR,P21,INI,FM,MEAN,36.308323670873854,%MAX
CTR,P22,INI,FM,MEAN,26.4000004275455,%MAX
CTR,P23,INI,FM,MEAN,50.67806279255259,%MAX
PAT,P24,INI,FM,MEAN,31.577792198880815,%MAX
CTR,P25,INI,FM,MEAN,40.24861131425812,%MAX
PAT,P26,INI,FM,MEAN,37.40166015284592,%MAX
PAT,P27,INI,FM,MEAN,31.458446769175833,%MAX
PAT,P28,INI,FM,MEAN,27.94745204278533,%MAX
PAT,P29,INI,FM,MEAN,34.15078671305103,%MAX
PAT,P30,INI,FM,MEAN,38.27917308915419,%MAX
PAT,P32,INI,FM,MEAN,28.641204875410065,%MAX
PAT,P33,INI,FM,MEAN,27.7251864698485,%MAX
PAT,P34,INI,FM,MEAN,34.78770751393045,%MAX
CTR,P35,INI,FM,MEAN,56.38099745515543,%MAX
PAT,P36,INI,FM,MEAN,44.16478401507759,%MAX
CTR,P38,INI,FM,MEAN,33.89766714722342,%MAX
CTR,P39,INI,FM,MEAN,30.63221717359748,%MAX
CTR,P40,INI,FM,MEAN,12.581076457294047,%MAX
PAT,P41,INI,FM,MEAN,26.476511955725968,%MAX
PAT,P42,INI,FM,MEAN,18.25726386091792,%MAX
PAT,P43,INI,FM,MEAN,27.978955551940103,%MAX
CTR,P44,INI,FM,MEAN,22.57083058059474,%MAX
PAT,P45,INI,FM,MEAN,26.862356473710378,%MAX
CTR,P46,INI,FM,MEAN,32.03686715468185,%MAX
PAT,P47,INI,FM,MEAN,18.199851815045438,%MAX
CTR,P48,INI,FM,MEAN,31.338012694423547,%MAX
CTR,P49,INI,FM,MEAN,24.4971883691486,%MAX
PAT,P50,INI,FM,MEAN,38.38532316311889,%MAX
PAT,P51,INI,FM,MEAN,20.87286783996188,%MAX
CTR,P52,INI,FM,MEAN,57.01489829586592,%MAX
PAT,P53,INI,FM,MEAN,35.01295013864942,%MAX
CTR,P55,INI,FM,MEAN,46.53585879848955,%MAX
CTR,P56,INI,FM,MEAN,25.267926084590886,%MAX
CTR,P57,INI,FM,MEAN,17.109707492872985,%MAX
PAT,P58,INI,FM,MEAN,26.865175738311734,%MAX
CTR,P60,INI,FM,MEAN,58.199173868138665,%MAX
PAT,P61,INI,FM,MEAN,39.136440486896085,%MAX
PAT,P63,INI,FM,MEAN,30.98138792233073,%MAX
CTR,P64,INI,FM,MEAN,54.83961485681856,%MAX
CTR,P66,INI,FM,MEAN,31.54581671051902,%MAX
CTR,P67,INI,FM,MEAN,87.2447024480474,%MAX
CTR,P68,INI,FM,MEAN,93.03291191120846,%MAX
