Group,Participant,Session,Operator,Measure,Value,Unit
CTR,P01,INI,FM,MEAN,0.01117659880357718,V
CTR,P02,INI,FM,MEAN,0.0158204181088624,V
CTR,P03,INI,FM,MEAN,0.01545949618371813,V
CTR,P05,INI,FM,MEAN,0.009836122415287375,V
CTR,P06,INI,FM,MEAN,0.005975792399236615,V
CTR,P07,INI,FM,MEAN,0.03594566264935443,V
CTR,P08,INI,FM,MEAN,0.009553465765591117,V
PAT,P09,INI,FM,MEAN,0.0075549758834246505,V
PAT,P10,INI,FM,MEAN,0.015702280916350016,V
PAT,P11,INI,FM,MEAN,0.005525108888143618,V
PAT,P12,INI,FM,MEAN,0.0073446447505277805,V
CTR,P13,INI,FM,MEAN,0.009743824252443689,V
PAT,P14,INI,FM,MEAN,0.012510968893286857,V
CTR,P16,INI,FM,MEAN,0.00473405529949045,V
PAT,P17,INI,FM,MEAN,0.00894706418372115,V
CTR,P21,INI,FM,MEAN,0.0069663168952912,V
CTR,P22,INI,FM,MEAN,0.004811193103679477,V
CTR,P23,INI,FM,MEAN,0.020463398185790942,V
PAT,P24,INI,FM,MEAN,0.0186101050898578,V
CTR,P25,INI,FM,MEAN,0.019573923729785732,V
PAT,P26,INI,FM,MEAN,0.007462276247455586,V
PAT,P27,INI,FM,MEAN,0.007535211263561544,V
PAT,P28,INI,FM,MEAN,0.0093571847837144,V
PAT,P29,INI,FM,MEAN,0.017639630252667356,V
PAT,P30,INI,FM,MEAN,0.009228454453548078,V
PAT,P32,INI,FM,MEAN,0.007358589447961514,V
PAT,P33,INI,FM,MEAN,0.006129638304676967,V
PAT,P34,INI,FM,MEAN,0.00464399827575605,V
CTR,P35,INI,FM,MEAN,0.01132937409806755,V
PAT,P36,INI,FM,MEAN,0.011786282160824437,V
CTR,P40,INI,FM,MEAN,0.012106171002584133,V
PAT,P41,INI,FM,MEAN,0.008838327037139984,V
PAT,P43,INI,FM,MEAN,0.010289933507081787,V
CTR,P44,INI,FM,MEAN,0.009581943255224743,V
PAT,P45,INI,FM,MEAN,0.0048399841274443375,V
CTR,P46,INI,FM,MEAN,0.0059917999198578495,V
PAT,P47,INI,FM,MEAN,0.0043762219797299,V
CTR,P48,INI,FM,MEAN,0.02169609916959236,V
CTR,P49,INI,FM,MEAN,0.013616305189812971,V
PAT,P50,INI,FM,MEAN,0.022622030850223313,V
PAT,P51,INI,FM,MEAN,0.003349271740343867,V
CTR,P52,INI,FM,MEAN,0.011283579342977017,V
PAT,P53,INI,FM,MEAN,0.007648884581136433,V
PAT,P54,INI,FM,MEAN,0.007640963457370959,V
CTR,P55,INI,FM,MEAN,0.022654272676616412,V
CTR,P56,INI,FM,MEAN,0.011680416840131857,V
PAT,P58,INI,FM,MEAN,0.006421699878664216,V
CTR,P60,INI,FM,MEAN,0.010429291100785268,V
PAT,P61,INI,FM,MEAN,0.012155229978274467,V
CTR,P64,INI,FM,MEAN,0.007075133999402938,V
PAT,P65,INI,FM,MEAN,0.018526703686714035,V
CTR,P66,INI,FM,MEAN,0.005940456755284613,V
CTR,P67,INI,FM,MEAN,0.0187447112887448,V
CTR,P68,INI,FM,MEAN,0.034397002185796124,V
