Group,Participant,Session,Operator,Measure,Value,Unit
CTR,P01,INI,FM,MEAN,23.21196003672825,%subMVIC
CTR,P02,INI,FM,MEAN,9.913250967212075,%subMVIC
CTR,P03,INI,FM,MEAN,7.097739677246342,%subMVIC
CTR,P05,INI,FM,MEAN,7.501295544401549,%subMVIC
CTR,P06,INI,FM,MEAN,15.688015456522196,%subMVIC
CTR,P07,INI,FM,MEAN,3.2575222166101545,%subMVIC
CTR,P08,INI,FM,MEAN,15.402241852700874,%subMVIC
PAT,P09,INI,FM,MEAN,9.426065111277472,%subMVIC
PAT,P10,INI,FM,MEAN,5.889462349031752,%subMVIC
PAT,P11,INI,FM,MEAN,13.905894181601207,%subMVIC
PAT,P12,INI,FM,MEAN,12.055565501398775,%subMVIC
PAT,P14,INI,FM,MEAN,15.666494294749963,%subMVIC
CTR,P16,INI,FM,MEAN,5.728729828367016,%subMVIC
PAT,P17,INI,FM,MEAN,23.85467354712603,%subMVIC
CTR,P21,INI,FM,MEAN,8.35484780850352,%subMVIC
CTR,P22,INI,FM,MEAN,24.980556109823638,%subMVIC
CTR,P23,INI,FM,MEAN,18.989279972376302,%subMVIC
PAT,P24,INI,FM,MEAN,15.19701350501505,%subMVIC
PAT,P26,INI,FM,MEAN,24.459805445083663,%subMVIC
PAT,P27,INI,FM,MEAN,22.410549359377676,%subMVIC
PAT,P28,INI,FM,MEAN,9.090501100036155,%subMVIC
PAT,P29,INI,FM,MEAN,3.0359755086334537,%subMVIC
PAT,P32,INI,FM,MEAN,18.066085018557363,%subMVIC
PAT,P33,INI,FM,MEAN,9.72890930741549,%subMVIC
PAT,P34,INI,FM,MEAN,13.896841673094373,%subMVIC
CTR,P35,INI,FM,MEAN,19.253512742596744,%subMVIC
PAT,P36,INI,FM,MEAN,35.65290794449194,%subMVIC
CTR,P38,INI,FM,MEAN,4.442332050402893,%subMVIC
CTR,P39,INI,FM,MEAN,29.203414131954858,%subMVIC
CTR,P40,INI,FM,MEAN,12.90411612571775,%subMVIC
PAT,P41,INI,FM,MEAN,3.4933566769764077,%subMVIC
PAT,P43,INI,FM,MEAN,12.726291709775527,%subMVIC
CTR,P44,INI,FM,MEAN,8.325731292476119,%subMVIC
PAT,P45,INI,FM,MEAN,17.23221945728376,%subMVIC
CTR,P46,INI,FM,MEAN,2.7088515954502626,%subMVIC
CTR,P48,INI,FM,MEAN,21.82054186873448,%subMVIC
CTR,P49,INI,FM,MEAN,6.198244997140661,%subMVIC
PAT,P50,INI,FM,MEAN,9.83780267969592,%subMVIC
PAT,P51,INI,FM,MEAN,15.500494374785985,%subMVIC
CTR,P52,INI,FM,MEAN,3.241034553890632,%subMVIC
PAT,P53,INI,FM,MEAN,16.93251356014324,%subMVIC
PAT,P54,INI,FM,MEAN,7.015552771647597,%subMVIC
CTR,P55,INI,FM,MEAN,32.34689962093613,%subMVIC
CTR,P56,INI,FM,MEAN,2.846036613499716,%subMVIC
CTR,P57,INI,FM,MEAN,15.523391373668138,%subMVIC
PAT,P58,INI,FM,MEAN,22.33229324156042,%subMVIC
CTR,P60,INI,FM,MEAN,14.50318489804148,%subMVIC
PAT,P61,INI,FM,MEAN,33.94224853322107,%subMVIC
PAT,P62,INI,FM,MEAN,3.13907854439029,%subMVIC
CTR,P64,INI,FM,MEAN,10.616128359020212,%subMVIC
PAT,P65,INI,FM,MEAN,6.420263539716671,%subMVIC
CTR,P66,INI,FM,MEAN,3.7302582686095604,%subMVIC
CTR,P67,INI,FM,MEAN,7.057241638485408,%subMVIC
CTR,P68,INI,FM,MEAN,4.952436218860325,%subMVIC
