Group,Participant,Session,Operator,Measure,Value,Unit
CTR,P01,INI,FM,DIFFERENCE,0.0028869219523631,V
CTR,P02,INI,FM,DIFFERENCE,0.0005805890808329,V
CTR,P03,INI,FM,DIFFERENCE,0.0003657170461001,V
CTR,P05,INI,FM,DIFFERENCE,0.0046124123570492,V
CTR,P06,INI,FM,DIFFERENCE,0.0004240477264314,V
CTR,P07,INI,FM,DIFFERENCE,0.0095998161587419,V
CTR,P08,INI,FM,DIFFERENCE,0.0009254229376364,V
PAT,P09,INI,FM,DIFFERENCE,0.0009102884283314,V
PAT,P10,INI,FM,DIFFERENCE,0.0009236488749194,V
PAT,P11,INI,FM,DIFFERENCE,0.0004225810913728,V
PAT,P12,INI,FM,DIFFERENCE,0.0011384867365086,V
CTR,P13,INI,FM,DIFFERENCE,0.0067655089100268,V
PAT,P14,INI,FM,DIFFERENCE,0.0011653269733081,V
CTR,P16,INI,FM,DIFFERENCE,0.0007518259864542,V
CTR,P21,INI,FM,DIFFERENCE,0.0086323250128065,V
CTR,P22,INI,FM,DIFFERENCE,0.001726784719711,V
CTR,P23,INI,FM,DIFFERENCE,0.0008026679242697,V
PAT,P24,INI,FM,DIFFERENCE,0.0033143738631757,V
CTR,P25,INI,FM,DIFFERENCE,0.0086086497250309,V
PAT,P26,INI,FM,DIFFERENCE,0.002704176279101,V
PAT,P27,INI,FM,DIFFERENCE,0.0027214225547989,V
PAT,P28,INI,FM,DIFFERENCE,0.0019274154877979,V
PAT,P30,INI,FM,DIFFERENCE,0.0010340010188008,V
PAT,P32,INI,FM,DIFFERENCE,0.0012921829529091,V
PAT,P33,INI,FM,DIFFERENCE,0.0017081312883008,V
PAT,P34,INI,FM,DIFFERENCE,0.000860354131649,V
CTR,P35,INI,FM,DIFFERENCE,0.0061007345543352,V
PAT,P36,INI,FM,DIFFERENCE,0.0034845879081708,V
CTR,P39,INI,FM,DIFFERENCE,0.0040723088018284,V
CTR,P40,INI,FM,DIFFERENCE,0.0088712601996496,V
PAT,P41,INI,FM,DIFFERENCE,0.001738188880993,V
PAT,P42,INI,FM,DIFFERENCE,0.0052192396532137,V
PAT,P43,INI,FM,DIFFERENCE,0.0027876226721064,V
CTR,P44,INI,FM,DIFFERENCE,0.0012912992233736,V
PAT,P45,INI,FM,DIFFERENCE,0.0023986559026612,V
CTR,P46,INI,FM,DIFFERENCE,0.0114688194733936,V
PAT,P47,INI,FM,DIFFERENCE,0.0016611351795152,V
CTR,P48,INI,FM,DIFFERENCE,0.0113582771957829,V
CTR,P49,INI,FM,DIFFERENCE,0.0016326485077155,V
PAT,P50,INI,FM,DIFFERENCE,0.0007033842468033,V
PAT,P51,INI,FM,DIFFERENCE,0.0008716923016354,V
CTR,P52,INI,FM,DIFFERENCE,0.0031860787915889,V
PAT,P53,INI,FM,DIFFERENCE,0.0007214925529924,V
PAT,P54,INI,FM,DIFFERENCE,0.0007940759518585,V
CTR,P55,INI,FM,DIFFERENCE,0.0044471029768938,V
CTR,P56,INI,FM,DIFFERENCE,0.0016486523469784,V
CTR,P57,INI,FM,DIFFERENCE,0.0098602472370153,V
PAT,P58,INI,FM,DIFFERENCE,0.0007947486248638,V
CTR,P60,INI,FM,DIFFERENCE,0.0046641882010038,V
PAT,P61,INI,FM,DIFFERENCE,0.0017799961294553,V
PAT,P63,INI,FM,DIFFERENCE,0.0060053608511929,V
CTR,P64,INI,FM,DIFFERENCE,0.0051292358765039,V
PAT,P65,INI,FM,DIFFERENCE,0.0032487110131232,V
CTR,P66,INI,FM,DIFFERENCE,0.0009075086651019,V
CTR,P67,INI,FM,DIFFERENCE,0.007979102417388,V
CTR,P68,INI,FM,DIFFERENCE,0.0104207745801416,V
