Group,Participant,Session,Operator,Measure,Value,Unit
CTR,P01,INI,FM,MEAN,6.808902751687529,%SubMVIC
CTR,P02,INI,FM,MEAN,5.990677262685267,%SubMVIC
CTR,P03,INI,FM,MEAN,6.591208146911566,%SubMVIC
CTR,P05,INI,FM,MEAN,4.798777983035493,%SubMVIC
CTR,P06,INI,FM,MEAN,10.832121102190833,%SubMVIC
CTR,P07,INI,FM,MEAN,3.498363233222153,%SubMVIC
CTR,P08,INI,FM,MEAN,0.4968804874020354,%SubMVIC
PAT,P09,INI,FM,MEAN,9.736594349101752,%SubMVIC
PAT,P10,INI,FM,MEAN,1.323817015611535,%SubMVIC
PAT,P11,INI,FM,MEAN,7.721528882905152,%SubMVIC
PAT,P12,INI,FM,MEAN,10.775452315313578,%SubMVIC
CTR,P13,INI,FM,MEAN,8.59324904612527,%SubMVIC
PAT,P14,INI,FM,MEAN,8.91795035957688,%SubMVIC
CTR,P16,INI,FM,MEAN,9.126671117498374,%SubMVIC
PAT,P17,INI,FM,MEAN,8.02827399137218,%SubMVIC
CTR,P21,INI,FM,MEAN,2.1654580572409743,%SubMVIC
CTR,P22,INI,FM,MEAN,6.90067279590581,%SubMVIC
CTR,P23,INI,FM,MEAN,1.0135336137433058,%SubMVIC
PAT,P24,INI,FM,MEAN,10.71160294042067,%SubMVIC
CTR,P25,INI,FM,MEAN,1.2620224261758104,%SubMVIC
PAT,P26,INI,FM,MEAN,2.930237359755325,%SubMVIC
PAT,P27,INI,FM,MEAN,11.492412042165038,%SubMVIC
PAT,P28,INI,FM,MEAN,11.550082653223456,%SubMVIC
PAT,P29,INI,FM,MEAN,9.357333226277367,%SubMVIC
PAT,P30,INI,FM,MEAN,6.136897628924175,%SubMVIC
PAT,P32,INI,FM,MEAN,9.448272874158258,%SubMVIC
PAT,P33,INI,FM,MEAN,9.371829625517934,%SubMVIC
PAT,P34,INI,FM,MEAN,8.785478356995077,%SubMVIC
CTR,P35,INI,FM,MEAN,4.500731462536269,%SubMVIC
PAT,P36,INI,FM,MEAN,11.066811916769256,%SubMVIC
CTR,P38,INI,FM,MEAN,1.476396678057711,%SubMVIC
CTR,P39,INI,FM,MEAN,7.91282709510881,%SubMVIC
CTR,P40,INI,FM,MEAN,1.519216427361777,%SubMVIC
PAT,P41,INI,FM,MEAN,6.23437775347577,%SubMVIC
PAT,P42,INI,FM,MEAN,8.076659805020368,%SubMVIC
PAT,P43,INI,FM,MEAN,3.7478025214525146,%SubMVIC
CTR,P44,INI,FM,MEAN,1.636058894008446,%SubMVIC
PAT,P45,INI,FM,MEAN,6.420903060119062,%SubMVIC
CTR,P46,INI,FM,MEAN,2.246745053906873,%SubMVIC
PAT,P47,INI,FM,MEAN,1.862476040776816,%SubMVIC
CTR,P48,INI,FM,MEAN,6.717727834095615,%SubMVIC
CTR,P49,INI,FM,MEAN,5.251271295073888,%SubMVIC
PAT,P50,INI,FM,MEAN,12.427862593109516,%SubMVIC
PAT,P51,INI,FM,MEAN,9.76687302597384,%SubMVIC
CTR,P52,INI,FM,MEAN,5.515902288961679,%SubMVIC
PAT,P53,INI,FM,MEAN,12.281726262499248,%SubMVIC
PAT,P54,INI,FM,MEAN,4.183424595169746,%SubMVIC
CTR,P55,INI,FM,MEAN,2.529502777731224,%SubMVIC
CTR,P56,INI,FM,MEAN,3.7119015450691015,%SubMVIC
CTR,P57,INI,FM,MEAN,5.1435950262917975,%SubMVIC
PAT,P58,INI,FM,MEAN,1.0901324663267324,%SubMVIC
CTR,P60,INI,FM,MEAN,4.794435270781039,%SubMVIC
PAT,P61,INI,FM,MEAN,9.531818999502931,%SubMVIC
PAT,P62,INI,FM,MEAN,7.981708188440467,%SubMVIC
PAT,P63,INI,FM,MEAN,6.372147747101921,%SubMVIC
CTR,P64,INI,FM,MEAN,4.207001052101278,%SubMVIC
PAT,P65,INI,FM,MEAN,5.753307761109672,%SubMVIC
CTR,P66,INI,FM,MEAN,1.6898089773969125,%SubMVIC
CTR,P67,INI,FM,MEAN,4.97153981982005,%SubMVIC
CTR,P68,INI,FM,MEAN,7.5756990584296,%SubMVIC
