Group,Participant,Session,Operator,Measure,Value,Unit
CTR,P01,INI,FM,RMS,0.0034814572068787,V
CTR,P02,INI,FM,RMS,0.0116605696371565,V
CTR,P03,INI,FM,RMS,0.0064670731020544,V
CTR,P05,INI,FM,RMS,0.0088022075581181,V
CTR,P06,INI,FM,RMS,0.0023380780013829,V
CTR,P07,INI,FM,RMS,0.0098502494168072,V
CTR,P08,INI,FM,RMS,0.0050649146810005,V
PAT,P09,INI,FM,RMS,0.0068679833079239,V
PAT,P10,INI,FM,RMS,0.0051458996915772,V
PAT,P11,INI,FM,RMS,0.0054063625379662,V
PAT,P12,INI,FM,RMS,0.0036492709893806,V
CTR,P13,INI,FM,RMS,0.0062070821280689,V
PAT,P14,INI,FM,RMS,0.0067640553228108,V
CTR,P16,INI,FM,RMS,0.0041045783934654,V
PAT,P17,INI,FM,RMS,0.0091748080415983,V
CTR,P21,INI,FM,RMS,0.0078443756099852,V
CTR,P22,INI,FM,RMS,0.005101650611758,V
CTR,P23,INI,FM,RMS,0.0065406197366286,V
PAT,P24,INI,FM,RMS,0.0067939615873671,V
CTR,P25,INI,FM,RMS,0.0117247775918937,V
PAT,P26,INI,FM,RMS,0.0133716610635183,V
PAT,P27,INI,FM,RMS,0.0073008895158391,V
PAT,P28,INI,FM,RMS,0.0048835251438258,V
PAT,P29,INI,FM,RMS,0.0262678735448653,V
PAT,P30,INI,FM,RMS,0.0043394560908218,V
PAT,P32,INI,FM,RMS,0.0065793905229553,V
PAT,P33,INI,FM,RMS,0.021053166374032,V
PAT,P34,INI,FM,RMS,0.0057811834942505,V
CTR,P35,INI,FM,RMS,0.0184925068888122,V
PAT,P36,INI,FM,RMS,0.0117881836645473,V
CTR,P38,INI,FM,RMS,0.0079231989936669,V
CTR,P39,INI,FM,RMS,0.0052117477373507,V
CTR,P40,INI,FM,RMS,0.0196376323172421,V
PAT,P41,INI,FM,RMS,0.0078664305807232,V
PAT,P42,INI,FM,RMS,0.0093066266529893,V
PAT,P43,INI,FM,RMS,0.0056130403688606,V
CTR,P44,INI,FM,RMS,0.0102284373016161,V
PAT,P45,INI,FM,RMS,0.0045039126072321,V
CTR,P46,INI,FM,RMS,0.0083275496761137,V
PAT,P47,INI,FM,RMS,0.011620423690872,V
CTR,P48,INI,FM,RMS,0.0124964269540777,V
CTR,P49,INI,FM,RMS,0.0170195015613899,V
PAT,P50,INI,FM,RMS,0.0147642951979217,V
PAT,P51,INI,FM,RMS,0.0114353039455187,V
CTR,P52,INI,FM,RMS,0.0108540871046838,V
PAT,P53,INI,FM,RMS,0.0068680544112764,V
PAT,P54,INI,FM,RMS,0.0056349855947418,V
CTR,P55,INI,FM,RMS,0.0050819643875525,V
CTR,P56,INI,FM,RMS,0.0077358649953322,V
CTR,P57,INI,FM,RMS,0.004286085790499,V
PAT,P58,INI,FM,RMS,0.0041793499427376,V
CTR,P60,INI,FM,RMS,0.0068199743143692,V
PAT,P61,INI,FM,RMS,0.010059309749367,V
PAT,P62,INI,FM,RMS,0.0199006436272674,V
PAT,P63,INI,FM,RMS,0.0140020820682475,V
CTR,P64,INI,FM,RMS,0.0140077134621403,V
PAT,P65,INI,FM,RMS,0.0132220160523167,V
CTR,P66,INI,FM,RMS,0.0070292925196865,V
CTR,P67,INI,FM,RMS,0.0136634700556114,V
CTR,P68,INI,FM,RMS,0.0103840355205554,V
