Group,Participant,Session,Operator,Measure,Value,Unit
CTR,P01,INI,FM,RMS,0.009013147875703,V
CTR,P03,INI,FM,RMS,0.0100364238508781,V
CTR,P05,INI,FM,RMS,0.0160159340548602,V
CTR,P06,INI,FM,RMS,0.0035404532383729,V
PAT,P09,INI,FM,RMS,0.0104287660132341,V
PAT,P11,INI,FM,RMS,0.0100183667727427,V
PAT,P12,INI,FM,RMS,0.013490681013574,V
CTR,P13,INI,FM,RMS,0.0051395482206288,V
PAT,P14,INI,FM,RMS,0.0062618542903729,V
CTR,P16,INI,FM,RMS,0.0055523729764684,V
PAT,P17,INI,FM,RMS,0.0067899694378658,V
CTR,P22,INI,FM,RMS,0.007780812977155,V
CTR,P23,INI,FM,RMS,0.0087129185799225,V
PAT,P24,INI,FM,RMS,0.0062069124352109,V
PAT,P26,INI,FM,RMS,0.0062002481902659,V
PAT,P27,INI,FM,RMS,0.0145150496436547,V
PAT,P28,INI,FM,RMS,0.0075296676762976,V
PAT,P29,INI,FM,RMS,0.0198990136249824,V
PAT,P32,INI,FM,RMS,0.0066984972265188,V
PAT,P33,INI,FM,RMS,0.0077191954555052,V
PAT,P34,INI,FM,RMS,0.0056772451213105,V
CTR,P35,INI,FM,RMS,,V
PAT,P36,INI,FM,RMS,0.0112947370232245,V
CTR,P39,INI,FM,RMS,0.0048342702709951,V
CTR,P40,INI,FM,RMS,0.0123989634651806,V
PAT,P41,INI,FM,RMS,0.0108116485628526,V
PAT,P42,INI,FM,RMS,0.0150807133036829,V
PAT,P43,INI,FM,RMS,0.0106982134395859,V
PAT,P45,INI,FM,RMS,,V
CTR,P46,INI,FM,RMS,0.0169518269474316,V
PAT,P47,INI,FM,RMS,0.0165356745803671,V
CTR,P48,INI,FM,RMS,0.0086767538650705,V
CTR,P49,INI,FM,RMS,0.0108874413306453,V
PAT,P50,INI,FM,RMS,0.0221496193379152,V
PAT,P51,INI,FM,RMS,0.0053744096364814,V
CTR,P52,INI,FM,RMS,0.0114169063883412,V
PAT,P53,INI,FM,RMS,0.0043900018999912,V
PAT,P54,INI,FM,RMS,0.0125731690341086,V
CTR,P55,INI,FM,RMS,0.0075778232465584,V
CTR,P56,INI,FM,RMS,0.0111663868286502,V
CTR,P60,INI,FM,RMS,0.0073418434443358,V
PAT,P61,INI,FM,RMS,0.0206379310265852,V
PAT,P62,INI,FM,RMS,0.0044895398126179,V
PAT,P63,INI,FM,RMS,,V
CTR,P64,INI,FM,RMS,0.0089472754347941,V
CTR,P66,INI,FM,RMS,0.0152003729925709,V
CTR,P67,INI,FM,RMS,0.0132189713069153,V
CTR,P68,INI,FM,RMS,,V
