event,time_sec,time_min
RHS,0.6299999952316284,0.0
RHS,1.7400000095367432,0.0
RHS,2.8499999046325684,0.0
RTO,0.1899999976158142,0.0
RTO,1.2799999713897705,0.0
RTO,2.390000104904175,0.0
LHS,0.09000000357627869,0.0
LHS,1.1699999570846558,0.0
LHS,2.2799999713897705,0.0
LTO,0.7300000190734863,0.0
LTO,1.840000033378601,0.0
LTO,2.950000047683716,0.0
