event,time_sec,time_min
RHS,0.46000000834465027,0.0
RHS,1.3300000429153442,0.0
RTO,0.09000000357627869,0.0
RTO,0.949999988079071,0.0
RTO,1.840000033378601,0.0
LHS,0.03999999910593033,0.0
LHS,0.8999999761581421,0.0
LHS,1.7799999713897705,0.0
LTO,0.5199999809265137,0.0
LTO,1.399999976158142,0.0
