event,time_sec,time_min
RHS,0.07999999821186066,0.0
RHS,1.2000000476837158,0.0
RHS,2.299999952316284,0.0
RTO,0.7300000190734863,0.0
RTO,1.8600000143051147,0.0
RTO,2.950000047683716,0.0
LHS,0.6299999952316284,0.0
LHS,1.7400000095367432,0.0
LHS,2.8399999141693115,0.0
LTO,0.17000000178813934,0.0
LTO,1.2899999618530273,0.0
LTO,2.4000000953674316,0.0
