event,time_sec,time_min
startMotion,0.10000000149011612,0.0
startMotion,9.59000015258789,0.0
startMotion,17.6299991607666,0.0
startMotion,25.520000457763672,0.0
startMotion,33.52000045776367,0.0
startMotion,41.40999984741211,0.0
startMotion,50.70000076293945,0.0
stopMotion,5.46999979019165,0.0
stopMotion,13.520000457763672,0.0
stopMotion,21.59000015258789,0.0
stopMotion,29.530000686645508,0.0
stopMotion,37.54999923706055,0.0
stopMotion,45.029998779296875,0.0
