event,time_sec,time_min
startMotion,0.10000000149011612,0.0
startMotion,10.130000114440918,0.0
startMotion,18.100000381469727,0.0
startMotion,25.950000762939453,0.0
startMotion,33.849998474121094,0.0
startMotion,42.04999923706055,0.0
startMotion,49.209999084472656,0.0
stopMotion,6.269999980926514,0.0
stopMotion,14.0,0.0
stopMotion,22.0,0.0
stopMotion,29.93000030517578,0.0
stopMotion,37.86000061035156,0.0
stopMotion,46.2599983215332,0.0
