Group,Participant,Session,Operator,Measure,Value,Unit
CTR,P01,INI,FM,M1,0.0137206789245061,V
CTR,P01,INI,FM,M2,0.0151722335305934,V
CTR,P01,INI,FM,M3,0.0210320159756987,V
CTR,P01,REL,FM,M1,0.0124147658464863,V
CTR,P01,REL,FM,M2,0.0098101366374492,V
CTR,P01,REL,FM,M3,0.0101438590031221,V
CTR,P02,INI,FM,M1,0.0121000467113541,V
CTR,P02,INI,FM,M2,0.0162518154800606,V
CTR,P02,INI,FM,M3,0.0237795012164589,V
CTR,P02,REL,FM,M1,0.0107674749872294,V
CTR,P02,REL,FM,M2,0.0092350656164565,V
CTR,P02,REL,FM,M3,0.0076948105728451,V
CTR,P03,INI,FM,M1,0.0131733349898332,V
CTR,P03,INI,FM,M2,0.0102915132819425,V
CTR,P03,INI,FM,M3,0.0097533441013879,V
CTR,P03,REL,FM,M1,0.0449778501885651,V
CTR,P03,REL,FM,M2,0.0367185407352017,V
CTR,P03,REL,FM,M3,0.0297479579070834,V
CTR,P05,INI,FM,M1,0.0115388366966173,V
CTR,P05,INI,FM,M2,0.0120558053298807,V
CTR,P05,INI,FM,M3,0.0161783520238204,V
CTR,P05,REL,FM,M1,0.0172248789436184,V
CTR,P05,REL,FM,M2,0.0188482590110104,V
CTR,P05,REL,FM,M3,0.0166843928852947,V
CTR,P06,INI,FM,M1,0.0090279949385736,V
CTR,P06,INI,FM,M2,0.0491213733484665,V
CTR,P06,INI,FM,M3,0.0421696737141544,V
CTR,P06,REL,FM,M1,0.0030533403728766,V
CTR,P06,REL,FM,M2,0.0028937228249211,V
CTR,P06,REL,FM,M3,0.0029843195378734,V
CTR,P07,INI,FM,M1,0.0142632711389502,V
CTR,P07,INI,FM,M2,0.0167257676809899,V
CTR,P07,INI,FM,M3,0.0145711187836124,V
CTR,P07,REL,FM,M1,0.0172308028805319,V
CTR,P07,REL,FM,M2,0.0183439542247932,V
CTR,P07,REL,FM,M3,0.0152078590300226,V
CTR,P08,INI,FM,M1,0.0150931263900607,V
CTR,P08,INI,FM,M2,0.0121355063821121,V
CTR,P08,INI,FM,M3,0.0138539633647628,V
CTR,P08,REL,FM,M1,,V
CTR,P08,REL,FM,M2,0.0186486147112196,V
CTR,P08,REL,FM,M3,0.0162885516723303,V
CTR,P13,INI,FM,M1,0.0112601478429646,V
CTR,P13,INI,FM,M2,0.0143426299860374,V
CTR,P13,INI,FM,M3,0.0130254879350369,V
CTR,P13,REL,FM,M1,0.009531466253809,V
CTR,P13,REL,FM,M2,0.0112144863420367,V
CTR,P13,REL,FM,M3,0.0155405204911677,V
CTR,P16,INI,FM,M1,0.0077427238537385,V
CTR,P16,INI,FM,M2,0.0067396093872434,V
CTR,P16,INI,FM,M3,0.0081575169385432,V
CTR,P16,REL,FM,M1,,V
CTR,P16,REL,FM,M2,,V
CTR,P16,REL,FM,M3,0.0066153264383768,V
CTR,P21,INI,FM,M1,0.0105401803494482,V
CTR,P21,INI,FM,M2,0.0144551423555249,V
CTR,P21,INI,FM,M3,0.0099935871201841,V
CTR,P21,REL,FM,M1,0.0283972466306536,V
CTR,P21,REL,FM,M2,0.0166816932755091,V
CTR,P21,REL,FM,M3,0.0383723937918284,V
CTR,P22,INI,FM,M1,0.0164724141454026,V
CTR,P22,INI,FM,M2,0.013898647178825,V
CTR,P22,INI,FM,M3,0.0127225754131842,V
CTR,P22,REL,FM,M1,0.0092632175668375,V
CTR,P22,REL,FM,M2,0.0088930453438975,V
CTR,P22,REL,FM,M3,0.0081193718811416,V
CTR,P23,INI,FM,M1,0.0073617179070827,V
CTR,P23,INI,FM,M2,0.008928895676417,V
CTR,P23,INI,FM,M3,0.0079355801869361,V
CTR,P23,REL,FM,M1,0.0060334175221356,V
CTR,P23,REL,FM,M2,0.0061558604103713,V
CTR,P23,REL,FM,M3,0.0047552388258666,V
CTR,P25,INI,FM,M1,0.0201532262715582,V
CTR,P25,INI,FM,M2,,V
CTR,P25,INI,FM,M3,0.0222925356830284,V
CTR,P25,REL,FM,M1,,V
CTR,P25,REL,FM,M2,,V
CTR,P25,REL,FM,M3,,V
CTR,P35,INI,FM,M1,,V
CTR,P35,INI,FM,M2,,V
CTR,P35,INI,FM,M3,,V
CTR,P35,REL,FM,M1,0.0152748162240165,V
CTR,P35,REL,FM,M2,0.0139192249060031,V
CTR,P35,REL,FM,M3,0.0106781019566289,V
CTR,P38,REL,FM,M1,0.0219505897369364,V
CTR,P38,REL,FM,M2,0.0189800844438309,V
CTR,P38,REL,FM,M3,0.0174775277886476,V
CTR,P39,INI,FM,M1,0.0071677290054208,V
CTR,P39,INI,FM,M2,0.0074418443100898,V
CTR,P39,INI,FM,M3,0.0062153258442326,V
CTR,P39,REL,FM,M1,0.006737566000812,V
CTR,P39,REL,FM,M2,0.0065280093523313,V
CTR,P39,REL,FM,M3,0.005214894839069,V
CTR,P40,INI,FM,M1,,V
CTR,P40,INI,FM,M2,0.0144861263466996,V
CTR,P40,INI,FM,M3,,V
CTR,P40,REL,FM,M1,0.0123829653679182,V
CTR,P40,REL,FM,M2,,V
CTR,P40,REL,FM,M3,0.0137572397665814,V
CTR,P44,INI,FM,M1,,V
CTR,P44,INI,FM,M2,,V
CTR,P44,INI,FM,M3,,V
CTR,P44,REL,FM,M1,0.008911836815972,V
CTR,P44,REL,FM,M2,0.0133385949191404,V
CTR,P44,REL,FM,M3,0.0115811933648135,V
CTR,P46,INI,FM,M1,0.0158218746418822,V
CTR,P46,INI,FM,M2,0.0179224665708249,V
CTR,P46,INI,FM,M3,0.0127075763678082,V
CTR,P46,REL,FM,M1,0.0160083191383715,V
CTR,P46,REL,FM,M2,0.0132040668358749,V
CTR,P46,REL,FM,M3,0.0099859349843495,V
CTR,P48,INI,FM,M1,0.0207323179173768,V
CTR,P48,INI,FM,M2,0.0263013909112481,V
CTR,P48,INI,FM,M3,,V
CTR,P48,REL,FM,M1,0.021101871268826,V
CTR,P48,REL,FM,M2,0.0218430496651801,V
CTR,P48,REL,FM,M3,0.0227894387544402,V
CTR,P49,INI,FM,M1,0.0261204167534562,V
CTR,P49,INI,FM,M2,0.0276282641140856,V
CTR,P49,INI,FM,M3,0.0242060671483978,V
CTR,P49,REL,FM,M1,0.0170859389366458,V
CTR,P49,REL,FM,M2,0.0172231946919321,V
CTR,P49,REL,FM,M3,0.0119075048706399,V
CTR,P52,INI,FM,M1,0.0119285763581491,V
CTR,P52,INI,FM,M2,0.0119085250505059,V
CTR,P52,INI,FM,M3,0.0110754826855811,V
CTR,P52,REL,FM,M1,0.010840270455556,V
CTR,P52,REL,FM,M2,0.0120497825204501,V
CTR,P52,REL,FM,M3,0.0092858407634118,V
CTR,P55,INI,FM,M1,0.0118205453491425,V
CTR,P55,INI,FM,M2,0.0089201885288443,V
CTR,P55,INI,FM,M3,0.0074710520250329,V
CTR,P55,REL,FM,M1,0.0089698666932408,V
CTR,P55,REL,FM,M2,0.013567895164809,V
CTR,P55,REL,FM,M3,0.008758073214437,V
CTR,P56,INI,FM,M1,0.010378105787405,V
CTR,P56,INI,FM,M2,0.0125475639173862,V
CTR,P56,INI,FM,M3,0.0102339768198883,V
CTR,P56,REL,FM,M1,0.0103252345642785,V
CTR,P56,REL,FM,M2,0.0109978821695204,V
CTR,P56,REL,FM,M3,0.0099814131000752,V
CTR,P57,INI,FM,M1,0.0272552789281556,V
CTR,P57,INI,FM,M2,0.0129675724148477,V
CTR,P57,INI,FM,M3,0.0509472377166299,V
CTR,P57,REL,FM,M1,0.0063426010410372,V
CTR,P57,REL,FM,M2,0.0182525893133931,V
CTR,P57,REL,FM,M3,0.0146549734671931,V
CTR,P60,INI,FM,M1,0.0052475312749554,V
CTR,P60,INI,FM,M2,0.0089007022022344,V
CTR,P60,INI,FM,M3,0.0083898345174457,V
CTR,P60,REL,FM,M1,0.015655929469981,V
CTR,P60,REL,FM,M2,,V
CTR,P60,REL,FM,M3,,V
CTR,P64,INI,FM,M1,0.0112481378204222,V
CTR,P64,INI,FM,M2,0.0102502538076008,V
CTR,P64,INI,FM,M3,0.0103845121492818,V
CTR,P64,REL,FM,M1,0.0119220075768902,V
CTR,P64,REL,FM,M2,0.0106465196719769,V
CTR,P64,REL,FM,M3,0.0087376571593577,V
CTR,P66,INI,FM,M1,0.0173930130180265,V
CTR,P66,INI,FM,M2,0.0194051461665471,V
CTR,P66,INI,FM,M3,0.0154701779820123,V
CTR,P66,REL,FM,M1,0.0137312508245679,V
CTR,P66,REL,FM,M2,0.0142108170701376,V
CTR,P66,REL,FM,M3,0.0121944585307187,V
CTR,P67,INI,FM,M1,0.015088283443661,V
CTR,P67,INI,FM,M2,0.0151075370015074,V
CTR,P67,INI,FM,M3,0.0135601347266418,V
CTR,P67,REL,FM,M1,0.0125081335671944,V
CTR,P67,REL,FM,M2,0.0143293706298254,V
CTR,P67,REL,FM,M3,0.010807864109565,V
CTR,P68,INI,FM,M1,,V
CTR,P68,INI,FM,M2,,V
CTR,P68,INI,FM,M3,,V
CTR,P68,REL,FM,M1,0.0139332485488364,V
CTR,P68,REL,FM,M2,0.0155678901593537,V
CTR,P68,REL,FM,M3,0.0126573924521747,V
