Group,Participant,Session,Operator,Measure,Value,Unit
CTR,P01,INI,FM,M1,25.1280863073862,%subMVIC
CTR,P01,INI,FM,M2,24.418795910274905,%subMVIC
CTR,P01,INI,FM,M3,24.303597172062933,%subMVIC
CTR,P01,REL,FM,M1,19.85384833146516,%subMVIC
CTR,P01,REL,FM,M2,18.811622056222863,%subMVIC
CTR,P01,REL,FM,M3,18.23641944397661,%subMVIC
CTR,P02,INI,FM,M1,9.266906639964535,%subMVIC
CTR,P02,INI,FM,M2,9.385459516572643,%subMVIC
CTR,P02,INI,FM,M3,9.357771956011412,%subMVIC
CTR,P02,REL,FM,M1,25.23646509867633,%subMVIC
CTR,P02,REL,FM,M2,25.145563308944816,%subMVIC
CTR,P02,REL,FM,M3,24.10997051841798,%subMVIC
CTR,P03,INI,FM,M1,23.533605571460686,%subMVIC
CTR,P03,INI,FM,M2,23.39846894029144,%subMVIC
CTR,P03,INI,FM,M3,23.2853399644787,%subMVIC
CTR,P03,REL,FM,M1,12.064102556175447,%subMVIC
CTR,P03,REL,FM,M2,12.081805020110988,%subMVIC
CTR,P03,REL,FM,M3,12.196049906982866,%subMVIC
CTR,P05,INI,FM,M1,11.844995421642608,%subMVIC
CTR,P05,INI,FM,M2,11.421171908290155,%subMVIC
CTR,P05,INI,FM,M3,11.561499819571845,%subMVIC
CTR,P05,REL,FM,M1,13.492750905014375,%subMVIC
CTR,P05,REL,FM,M2,14.514449675358732,%subMVIC
CTR,P05,REL,FM,M3,14.890325415779136,%subMVIC
CTR,P06,INI,FM,M1,37.84881590159384,%subMVIC
CTR,P06,INI,FM,M2,40.63685226799495,%subMVIC
CTR,P06,INI,FM,M3,42.41257803701696,%subMVIC
CTR,P06,REL,FM,M1,37.91942727958146,%subMVIC
CTR,P06,REL,FM,M2,36.62265935719328,%subMVIC
CTR,P06,REL,FM,M3,36.95359841647132,%subMVIC
CTR,P07,INI,FM,M1,8.095587366178162,%subMVIC
CTR,P07,INI,FM,M2,8.108136876374424,%subMVIC
CTR,P07,INI,FM,M3,7.941061816341151,%subMVIC
CTR,P07,REL,FM,M1,4.8507328231929145,%subMVIC
CTR,P07,REL,FM,M2,4.751164343975639,%subMVIC
CTR,P07,REL,FM,M3,4.808409627792401,%subMVIC
CTR,P08,INI,FM,M1,34.24448278881187,%subMVIC
CTR,P08,INI,FM,M2,32.40158638705337,%subMVIC
CTR,P08,INI,FM,M3,31.20646412924476,%subMVIC
CTR,P08,REL,FM,M1,30.76394724268064,%subMVIC
CTR,P08,REL,FM,M2,29.70892757908071,%subMVIC
CTR,P08,REL,FM,M3,29.792557045887477,%subMVIC
CTR,P13,INI,FM,M1,26.80172105183937,%subMVIC
CTR,P13,INI,FM,M2,27.080684297651903,%subMVIC
CTR,P13,INI,FM,M3,26.575717874347173,%subMVIC
CTR,P13,REL,FM,M1,22.507899499248246,%subMVIC
CTR,P13,REL,FM,M2,22.59371554727023,%subMVIC
CTR,P13,REL,FM,M3,22.2586417000146,%subMVIC
CTR,P16,INI,FM,M1,36.54635189554093,%subMVIC
CTR,P16,INI,FM,M2,36.315731813698186,%subMVIC
CTR,P16,INI,FM,M3,36.45949180443474,%subMVIC
CTR,P16,REL,FM,M1,45.95416947320006,%subMVIC
CTR,P16,REL,FM,M2,44.49405776400907,%subMVIC
CTR,P16,REL,FM,M3,45.14858531388992,%subMVIC
CTR,P21,INI,FM,M1,12.854893293687905,%subMVIC
CTR,P21,INI,FM,M2,12.345017066681052,%subMVIC
CTR,P21,INI,FM,M3,12.415290607586329,%subMVIC
CTR,P21,REL,FM,M1,11.06906281523282,%subMVIC
CTR,P21,REL,FM,M2,10.90976493432198,%subMVIC
CTR,P21,REL,FM,M3,11.163365687805737,%subMVIC
CTR,P22,INI,FM,M1,27.12116604023426,%subMVIC
CTR,P22,INI,FM,M2,24.798184775995512,%subMVIC
CTR,P22,INI,FM,M3,24.64043214405537,%subMVIC
CTR,P22,REL,FM,M1,29.55131144868382,%subMVIC
CTR,P22,REL,FM,M2,25.446507905344184,%subMVIC
CTR,P22,REL,FM,M3,25.1617573953955,%subMVIC
CTR,P23,INI,FM,M1,16.359131654889236,%subMVIC
CTR,P23,INI,FM,M2,15.834832980964372,%subMVIC
CTR,P23,INI,FM,M3,16.029981240976294,%subMVIC
CTR,P23,REL,FM,M1,11.111187366521747,%subMVIC
CTR,P23,REL,FM,M2,11.41638429349437,%subMVIC
CTR,P23,REL,FM,M3,11.267056215866203,%subMVIC
CTR,P25,INI,FM,M1,20.34163366736752,%subMVIC
CTR,P25,INI,FM,M2,18.87926971226307,%subMVIC
CTR,P25,INI,FM,M3,18.412229020370443,%subMVIC
CTR,P25,REL,FM,M1,9.57701803786895,%subMVIC
CTR,P25,REL,FM,M2,13.668013715189106,%subMVIC
CTR,P25,REL,FM,M3,9.36451747618225,%subMVIC
CTR,P35,INI,FM,M1,13.72145244522468,%subMVIC
CTR,P35,INI,FM,M2,13.291117848028325,%subMVIC
CTR,P35,INI,FM,M3,13.0980066971362,%subMVIC
CTR,P35,REL,FM,M1,13.106785134797288,%subMVIC
CTR,P35,REL,FM,M2,13.00949167261254,%subMVIC
CTR,P35,REL,FM,M3,12.861957464356102,%subMVIC
CTR,P38,INI,FM,M1,20.40754045943328,%subMVIC
CTR,P38,INI,FM,M2,20.11529965847471,%subMVIC
CTR,P38,INI,FM,M3,20.78911809495094,%subMVIC
CTR,P38,REL,FM,M1,20.50721044527645,%subMVIC
CTR,P38,REL,FM,M2,20.79245255740028,%subMVIC
CTR,P38,REL,FM,M3,20.49756311255109,%subMVIC
CTR,P39,INI,FM,M1,12.884082873903813,%subMVIC
CTR,P39,INI,FM,M2,12.22899344196195,%subMVIC
CTR,P39,INI,FM,M3,12.183362363886795,%subMVIC
CTR,P39,REL,FM,M1,12.23236755385487,%subMVIC
CTR,P39,REL,FM,M2,12.393280317815432,%subMVIC
CTR,P39,REL,FM,M3,12.77999114580942,%subMVIC
CTR,P40,INI,FM,M1,18.039742659337502,%subMVIC
CTR,P40,INI,FM,M2,17.84269991680096,%subMVIC
CTR,P40,INI,FM,M3,18.48367860196117,%subMVIC
CTR,P40,REL,FM,M1,10.428746261730709,%subMVIC
CTR,P40,REL,FM,M2,8.900989230263955,%subMVIC
CTR,P40,REL,FM,M3,8.046461655646388,%subMVIC
CTR,P44,INI,FM,M1,21.782620249058784,%subMVIC
CTR,P44,INI,FM,M2,25.659940053645123,%subMVIC
CTR,P44,INI,FM,M3,32.60513001982286,%subMVIC
CTR,P44,REL,FM,M1,9.349064769712877,%subMVIC
CTR,P44,REL,FM,M2,9.388513316263186,%subMVIC
CTR,P44,REL,FM,M3,9.427335806353543,%subMVIC
CTR,P46,INI,FM,M1,11.75000392280688,%subMVIC
CTR,P46,INI,FM,M2,11.789988207605605,%subMVIC
CTR,P46,INI,FM,M3,11.7276482501355,%subMVIC
CTR,P46,REL,FM,M1,8.317384929400738,%subMVIC
CTR,P46,REL,FM,M2,7.938188569187464,%subMVIC
CTR,P46,REL,FM,M3,8.122990050563926,%subMVIC
CTR,P48,INI,FM,M1,8.74512617052324,%subMVIC
CTR,P48,INI,FM,M2,8.733441279323136,%subMVIC
CTR,P48,INI,FM,M3,8.829806066733541,%subMVIC
CTR,P48,REL,FM,M1,11.91103458231009,%subMVIC
CTR,P48,REL,FM,M2,11.890874645730609,%subMVIC
CTR,P48,REL,FM,M3,11.6685708421329,%subMVIC
CTR,P49,INI,FM,M1,18.51544569922706,%subMVIC
CTR,P49,INI,FM,M2,18.593438354429946,%subMVIC
CTR,P49,INI,FM,M3,18.37455177715342,%subMVIC
CTR,P49,REL,FM,M1,3.826477740744002,%subMVIC
CTR,P49,REL,FM,M2,3.789259539374799,%subMVIC
CTR,P49,REL,FM,M3,3.8107184754822128,%subMVIC
CTR,P52,INI,FM,M1,3.894228869588962,%subMVIC
CTR,P52,INI,FM,M2,3.8702054582827934,%subMVIC
CTR,P52,INI,FM,M3,3.9450281988424343,%subMVIC
CTR,P52,REL,FM,M1,5.998978747476846,%subMVIC
CTR,P52,REL,FM,M2,5.88937864037336,%subMVIC
CTR,P52,REL,FM,M3,6.042332537657586,%subMVIC
CTR,P55,INI,FM,M1,11.669634266454716,%subMVIC
CTR,P55,INI,FM,M2,11.455410279683193,%subMVIC
CTR,P55,INI,FM,M3,11.48943273108717,%subMVIC
CTR,P55,REL,FM,M1,7.752014590932637,%subMVIC
CTR,P55,REL,FM,M2,7.52699580529611,%subMVIC
CTR,P55,REL,FM,M3,7.576553105918616,%subMVIC
CTR,P56,INI,FM,M1,13.107286852300478,%subMVIC
CTR,P56,INI,FM,M2,13.398699238875198,%subMVIC
CTR,P56,INI,FM,M3,13.386680187880872,%subMVIC
CTR,P56,REL,FM,M1,15.932692039701855,%subMVIC
CTR,P56,REL,FM,M2,15.747437985446886,%subMVIC
CTR,P56,REL,FM,M3,15.534557603847873,%subMVIC
CTR,P57,INI,FM,M1,7.19829687611239,%subMVIC
CTR,P57,INI,FM,M2,7.359251797036863,%subMVIC
CTR,P57,INI,FM,M3,7.276553515167015,%subMVIC
CTR,P57,REL,FM,M1,13.98123562161207,%subMVIC
CTR,P57,REL,FM,M2,13.97004392624128,%subMVIC
CTR,P57,REL,FM,M3,14.055122202694749,%subMVIC
CTR,P60,INI,FM,M1,6.171141051934231,%subMVIC
CTR,P60,INI,FM,M2,6.210021972031692,%subMVIC
CTR,P60,INI,FM,M3,6.2170116251247824,%subMVIC
CTR,P60,REL,FM,M1,13.26931418098456,%subMVIC
CTR,P60,REL,FM,M2,13.651723686313558,%subMVIC
CTR,P60,REL,FM,M3,13.889184447270614,%subMVIC
CTR,P64,INI,FM,M1,7.179733634199528,%subMVIC
CTR,P64,INI,FM,M2,7.190719869347128,%subMVIC
CTR,P64,INI,FM,M3,7.410259083922741,%subMVIC
CTR,P64,REL,FM,M1,6.07800830152963,%subMVIC
CTR,P64,REL,FM,M2,6.25479677316341,%subMVIC
CTR,P64,REL,FM,M3,6.067863753662406,%subMVIC
CTR,P66,INI,FM,M1,13.842152904367808,%subMVIC
CTR,P66,INI,FM,M2,13.530421387210088,%subMVIC
CTR,P66,INI,FM,M3,13.501940002383156,%subMVIC
CTR,P66,REL,FM,M1,22.959972792294487,%subMVIC
CTR,P66,REL,FM,M2,21.279436651863698,%subMVIC
CTR,P66,REL,FM,M3,21.371210894359034,%subMVIC
CTR,P67,INI,FM,M1,6.994832676283492,%subMVIC
CTR,P67,INI,FM,M2,7.031596408700072,%subMVIC
CTR,P67,INI,FM,M3,6.820055488175535,%subMVIC
CTR,P67,REL,FM,M1,4.213798103289644,%subMVIC
CTR,P67,REL,FM,M2,3.6687041870618415,%subMVIC
CTR,P67,REL,FM,M3,3.745881535722381,%subMVIC
CTR,P68,INI,FM,M1,14.545359499717073,%subMVIC
CTR,P68,INI,FM,M2,14.404167261605464,%subMVIC
CTR,P68,INI,FM,M3,14.450065864507526,%subMVIC
CTR,P68,REL,FM,M1,16.840466864451667,%subMVIC
CTR,P68,REL,FM,M2,17.583838467103135,%subMVIC
CTR,P68,REL,FM,M3,16.882799338108306,%subMVIC
