Group,Participant,Session,Operator,Measure,Value,Unit
PAT,P09,INI,FM,M1,85.559065114267,Hz
PAT,P09,INI,FM,M2,84.08107217287196,Hz
PAT,P09,INI,FM,M3,88.5688019886295,Hz
PAT,P09,REL,FM,M1,74.09258922479265,Hz
PAT,P09,REL,FM,M2,77.31271411887717,Hz
PAT,P09,REL,FM,M3,78.40659710588109,Hz
PAT,P10,INI,FM,M1,92.85629463809904,Hz
PAT,P10,INI,FM,M2,97.05763106182026,Hz
PAT,P10,INI,FM,M3,93.61135651921296,Hz
PAT,P10,REL,FM,M1,52.25866217317441,Hz
PAT,P10,REL,FM,M2,97.1148857438218,Hz
PAT,P10,REL,FM,M3,102.1004999922318,Hz
PAT,P11,INI,FM,M1,74.28648637154595,Hz
PAT,P11,INI,FM,M2,73.86808939667316,Hz
PAT,P11,INI,FM,M3,71.48099954458645,Hz
PAT,P11,REL,FM,M1,82.32379067013144,Hz
PAT,P11,REL,FM,M2,79.83191169415298,Hz
PAT,P11,REL,FM,M3,76.18989266816915,Hz
PAT,P12,INI,FM,M1,80.54603512800011,Hz
PAT,P12,INI,FM,M2,74.19527425624054,Hz
PAT,P12,INI,FM,M3,76.57436733379838,Hz
PAT,P12,REL,FM,M1,83.45709627227062,Hz
PAT,P12,REL,FM,M2,87.91923299963676,Hz
PAT,P12,REL,FM,M3,79.9170879540387,Hz
PAT,P14,INI,FM,M1,111.4491097566981,Hz
PAT,P14,INI,FM,M2,111.19193586347444,Hz
PAT,P14,INI,FM,M3,56.71566632986541,Hz
PAT,P14,REL,FM,M1,114.2522741201146,Hz
PAT,P14,REL,FM,M2,112.28551217841212,Hz
PAT,P14,REL,FM,M3,112.66503696850364,Hz
PAT,P17,INI,FM,M1,111.42084578703452,Hz
PAT,P17,INI,FM,M2,108.76389024364104,Hz
PAT,P17,INI,FM,M3,96.2456016091985,Hz
PAT,P17,REL,FM,M1,103.14191562198982,Hz
PAT,P17,REL,FM,M2,70.5306122469457,Hz
PAT,P17,REL,FM,M3,90.9173013571293,Hz
PAT,P24,INI,FM,M1,117.70933016259043,Hz
PAT,P24,INI,FM,M2,117.91798972296188,Hz
PAT,P24,INI,FM,M3,121.61129506841095,Hz
PAT,P24,REL,FM,M1,116.49291911306368,Hz
PAT,P24,REL,FM,M2,120.5956289362981,Hz
PAT,P24,REL,FM,M3,116.40582870095696,Hz
PAT,P26,INI,FM,M1,68.5898471568301,Hz
PAT,P26,INI,FM,M2,55.56619765307144,Hz
PAT,P26,INI,FM,M3,66.20400782379672,Hz
PAT,P26,REL,FM,M1,73.65578564350497,Hz
PAT,P26,REL,FM,M2,61.14812160035727,Hz
PAT,P26,REL,FM,M3,72.93957630256077,Hz
PAT,P27,INI,FM,M1,77.18576948551829,Hz
PAT,P27,INI,FM,M2,78.15416893259261,Hz
PAT,P27,INI,FM,M3,78.19730354339082,Hz
PAT,P27,REL,FM,M1,77.75829405723893,Hz
PAT,P27,REL,FM,M2,77.80232353665347,Hz
PAT,P27,REL,FM,M3,79.69110369603125,Hz
PAT,P28,INI,FM,M1,95.48242502235136,Hz
PAT,P28,INI,FM,M2,92.87366393335928,Hz
PAT,P28,INI,FM,M3,92.36343798571308,Hz
PAT,P28,REL,FM,M1,99.47948836376771,Hz
PAT,P28,REL,FM,M2,97.1402206581228,Hz
PAT,P28,REL,FM,M3,99.2179759510756,Hz
PAT,P29,INI,FM,M1,72.92686188734322,Hz
PAT,P29,INI,FM,M2,90.72713676417044,Hz
PAT,P29,INI,FM,M3,,Hz
PAT,P29,REL,FM,M1,61.64408501615448,Hz
PAT,P29,REL,FM,M2,79.49965098486602,Hz
PAT,P29,REL,FM,M3,90.61310153295769,Hz
PAT,P30,REL,FM,M1,139.31688463416586,Hz
PAT,P30,REL,FM,M2,141.68118354806938,Hz
PAT,P30,REL,FM,M3,143.07476409175487,Hz
PAT,P32,INI,FM,M1,82.29736230591081,Hz
PAT,P32,INI,FM,M2,86.85453840565808,Hz
PAT,P32,INI,FM,M3,77.22155036142051,Hz
PAT,P32,REL,FM,M1,114.94699085041644,Hz
PAT,P32,REL,FM,M2,81.13943759425327,Hz
PAT,P32,REL,FM,M3,71.05818323305026,Hz
PAT,P33,INI,FM,M1,59.43202544982709,Hz
PAT,P33,INI,FM,M2,51.89899275701616,Hz
PAT,P33,INI,FM,M3,72.44500279708298,Hz
PAT,P33,REL,FM,M1,69.61967887887879,Hz
PAT,P33,REL,FM,M2,49.17776427599688,Hz
PAT,P33,REL,FM,M3,48.97757606967448,Hz
PAT,P34,INI,FM,M1,46.1581126011596,Hz
PAT,P34,INI,FM,M2,73.983502882802,Hz
PAT,P34,INI,FM,M3,79.56298090507988,Hz
PAT,P34,REL,FM,M1,82.76759865075296,Hz
PAT,P34,REL,FM,M2,74.8164396511283,Hz
PAT,P34,REL,FM,M3,77.68040538790629,Hz
PAT,P36,INI,FM,M1,88.89516113178324,Hz
PAT,P36,INI,FM,M2,88.40061230434544,Hz
PAT,P36,INI,FM,M3,89.31701392515606,Hz
PAT,P36,REL,FM,M1,97.6017964932822,Hz
PAT,P36,REL,FM,M2,91.63902784705029,Hz
PAT,P36,REL,FM,M3,102.02560071616006,Hz
PAT,P41,INI,FM,M1,86.29168946596135,Hz
PAT,P41,INI,FM,M2,86.05140391396729,Hz
PAT,P41,INI,FM,M3,88.77000386219925,Hz
PAT,P41,REL,FM,M1,93.98003747233328,Hz
PAT,P41,REL,FM,M2,91.2213206138172,Hz
PAT,P41,REL,FM,M3,99.44163757012386,Hz
PAT,P42,INI,FM,M1,95.17117260001513,Hz
PAT,P42,INI,FM,M2,89.12470883737565,Hz
PAT,P42,INI,FM,M3,91.50610247757854,Hz
PAT,P42,REL,FM,M1,101.79089238196828,Hz
PAT,P42,REL,FM,M2,90.46185673816478,Hz
PAT,P42,REL,FM,M3,91.33147143986766,Hz
PAT,P43,INI,FM,M1,71.78041868240567,Hz
PAT,P43,INI,FM,M2,78.47883028868132,Hz
PAT,P43,INI,FM,M3,70.53226512853897,Hz
PAT,P43,REL,FM,M1,79.16421301033866,Hz
PAT,P43,REL,FM,M2,76.21243210994747,Hz
PAT,P43,REL,FM,M3,81.04839545426198,Hz
PAT,P45,INI,FM,M1,97.0378285779207,Hz
PAT,P45,INI,FM,M2,95.72592479156287,Hz
PAT,P45,INI,FM,M3,101.85218798437424,Hz
PAT,P45,REL,FM,M1,107.00868685866908,Hz
PAT,P45,REL,FM,M2,106.00141768348476,Hz
PAT,P45,REL,FM,M3,110.06442280339076,Hz
PAT,P47,INI,FM,M1,75.72332785762015,Hz
PAT,P47,INI,FM,M2,78.12751962043842,Hz
PAT,P47,INI,FM,M3,66.21815926872799,Hz
PAT,P47,REL,FM,M1,79.17923823353749,Hz
PAT,P47,REL,FM,M2,87.16975697437327,Hz
PAT,P47,REL,FM,M3,80.22567021277892,Hz
PAT,P50,INI,FM,M1,52.20139193698832,Hz
PAT,P50,INI,FM,M2,67.61087195505517,Hz
PAT,P50,INI,FM,M3,88.01150820079785,Hz
PAT,P50,REL,FM,M1,92.81433490692328,Hz
PAT,P50,REL,FM,M2,87.03323140826272,Hz
PAT,P50,REL,FM,M3,94.84907837334524,Hz
PAT,P51,INI,FM,M1,118.04634849567074,Hz
PAT,P51,INI,FM,M2,114.30611698693248,Hz
PAT,P51,INI,FM,M3,113.90039880198694,Hz
PAT,P51,REL,FM,M1,122.66098263145744,Hz
PAT,P51,REL,FM,M2,123.85835552757965,Hz
PAT,P51,REL,FM,M3,121.9258868795119,Hz
PAT,P53,INI,FM,M1,113.26719392682048,Hz
PAT,P53,INI,FM,M2,115.28101139776344,Hz
PAT,P53,INI,FM,M3,,Hz
PAT,P53,REL,FM,M1,130.75873111677262,Hz
PAT,P53,REL,FM,M2,127.93932951018265,Hz
PAT,P53,REL,FM,M3,133.35923166113764,Hz
PAT,P54,INI,FM,M1,87.2074734127654,Hz
PAT,P54,INI,FM,M2,85.35003481191437,Hz
PAT,P54,INI,FM,M3,82.32318250685908,Hz
PAT,P54,REL,FM,M1,79.1212025456381,Hz
PAT,P54,REL,FM,M2,81.9863510362514,Hz
PAT,P54,REL,FM,M3,83.26731673058902,Hz
PAT,P58,INI,FM,M1,96.015291734814,Hz
PAT,P58,INI,FM,M2,108.6094238954154,Hz
PAT,P58,INI,FM,M3,88.80777454442052,Hz
PAT,P58,REL,FM,M1,115.92371311500578,Hz
PAT,P58,REL,FM,M2,122.1637867435173,Hz
PAT,P58,REL,FM,M3,122.4857018708498,Hz
PAT,P61,INI,FM,M1,83.01023946859831,Hz
PAT,P61,INI,FM,M2,91.6865712542795,Hz
PAT,P61,INI,FM,M3,87.98501069161874,Hz
PAT,P61,REL,FM,M1,114.54963982497212,Hz
PAT,P61,REL,FM,M2,113.66343585392758,Hz
PAT,P61,REL,FM,M3,115.69698861038104,Hz
PAT,P62,INI,FM,M1,47.52191553567396,Hz
PAT,P62,INI,FM,M2,85.39784752703099,Hz
PAT,P62,INI,FM,M3,69.13867668872113,Hz
PAT,P62,REL,FM,M1,92.085772024444,Hz
PAT,P62,REL,FM,M2,69.06387148565865,Hz
PAT,P62,REL,FM,M3,77.82102114630962,Hz
PAT,P63,INI,FM,M1,73.08169507374187,Hz
PAT,P63,INI,FM,M2,72.48036116674474,Hz
PAT,P63,INI,FM,M3,73.34675809656311,Hz
PAT,P63,REL,FM,M1,80.45987018571552,Hz
PAT,P63,REL,FM,M2,83.43605873396332,Hz
PAT,P63,REL,FM,M3,76.88997109052703,Hz
PAT,P65,INI,FM,M1,102.5452162179537,Hz
PAT,P65,INI,FM,M2,108.84777919201557,Hz
PAT,P65,INI,FM,M3,108.87426439700376,Hz
PAT,P65,REL,FM,M1,106.14188074042109,Hz
PAT,P65,REL,FM,M2,101.80194843181292,Hz
PAT,P65,REL,FM,M3,99.20185973627048,Hz
