Group,Participant,Session,Operator,Measure,Value,Unit
PAT,P09,INI,FM,M1,27.088551340242958,%MAX
PAT,P09,INI,FM,M2,32.33318236037224,%MAX
PAT,P09,INI,FM,M3,30.39888641207769,%MAX
PAT,P09,REL,FM,M1,35.67736562678784,%MAX
PAT,P09,REL,FM,M2,37.39382316158274,%MAX
PAT,P09,REL,FM,M3,30.317736695712348,%MAX
PAT,P10,INI,FM,M1,16.875958390937,%MAX
PAT,P10,INI,FM,M2,17.37690839553818,%MAX
PAT,P10,INI,FM,M3,16.271758562808188,%MAX
PAT,P10,REL,FM,M1,32.053972152286946,%MAX
PAT,P10,REL,FM,M2,33.753602620164756,%MAX
PAT,P10,REL,FM,M3,32.94829510131946,%MAX
PAT,P11,INI,FM,M1,36.305711499259836,%MAX
PAT,P11,INI,FM,M2,37.68081291648023,%MAX
PAT,P11,INI,FM,M3,34.20480580952793,%MAX
PAT,P11,REL,FM,M1,30.306442815076462,%MAX
PAT,P11,REL,FM,M2,31.22323078958262,%MAX
PAT,P11,REL,FM,M3,29.29095560774074,%MAX
PAT,P12,INI,FM,M1,44.375863435829,%MAX
PAT,P12,INI,FM,M2,45.70664345679878,%MAX
PAT,P12,INI,FM,M3,42.21110948034449,%MAX
PAT,P12,REL,FM,M1,45.42493621665418,%MAX
PAT,P12,REL,FM,M2,40.59504400953285,%MAX
PAT,P12,REL,FM,M3,46.36820934208486,%MAX
PAT,P14,INI,FM,M1,44.75036826442898,%MAX
PAT,P14,INI,FM,M2,42.343005442780495,%MAX
PAT,P14,INI,FM,M3,45.79385729426199,%MAX
PAT,P14,REL,FM,M1,17.492666208480465,%MAX
PAT,P14,REL,FM,M2,16.929245811814962,%MAX
PAT,P14,REL,FM,M3,15.936714111678281,%MAX
PAT,P17,INI,FM,M1,30.981084381470577,%MAX
PAT,P17,INI,FM,M2,30.33879936204904,%MAX
PAT,P17,INI,FM,M3,35.370673771909686,%MAX
PAT,P17,REL,FM,M1,33.74281934540933,%MAX
PAT,P17,REL,FM,M2,33.97526193588293,%MAX
PAT,P17,REL,FM,M3,40.66550697273537,%MAX
PAT,P24,INI,FM,M1,34.591080607842535,%MAX
PAT,P24,INI,FM,M2,33.5475233616048,%MAX
PAT,P24,INI,FM,M3,34.516799417615914,%MAX
PAT,P24,REL,FM,M1,30.153040350165206,%MAX
PAT,P24,REL,FM,M2,33.981286060050266,%MAX
PAT,P24,REL,FM,M3,35.06573946346556,%MAX
PAT,P26,INI,FM,M1,31.710085310727546,%MAX
PAT,P26,INI,FM,M2,29.598715250537047,%MAX
PAT,P26,INI,FM,M3,44.11260597224566,%MAX
PAT,P26,REL,FM,M1,31.423841386058562,%MAX
PAT,P26,REL,FM,M2,29.869138938662115,%MAX
PAT,P26,REL,FM,M3,29.487802263726117,%MAX
PAT,P27,INI,FM,M1,40.102093186526744,%MAX
PAT,P27,INI,FM,M2,41.15679173764035,%MAX
PAT,P27,INI,FM,M3,36.12734449599829,%MAX
PAT,P27,REL,FM,M1,38.5425474016514,%MAX
PAT,P27,REL,FM,M2,42.10072457284463,%MAX
PAT,P27,REL,FM,M3,44.6291461472778,%MAX
PAT,P28,INI,FM,M1,28.21114162844045,%MAX
PAT,P28,INI,FM,M2,30.79066626229715,%MAX
PAT,P28,INI,FM,M3,28.12608710913381,%MAX
PAT,P28,REL,FM,M1,22.489306077303056,%MAX
PAT,P28,REL,FM,M2,21.692970772641544,%MAX
PAT,P28,REL,FM,M3,25.08445767835637,%MAX
PAT,P29,INI,FM,M1,30.262976973547207,%MAX
PAT,P29,INI,FM,M2,36.026069870475276,%MAX
PAT,P29,INI,FM,M3,41.50328269555978,%MAX
PAT,P29,REL,FM,M1,32.19258054611938,%MAX
PAT,P29,REL,FM,M2,29.116830132616304,%MAX
PAT,P29,REL,FM,M3,37.82767856391802,%MAX
PAT,P30,INI,FM,M1,38.41305488548133,%MAX
PAT,P30,INI,FM,M2,30.230284462945253,%MAX
PAT,P30,INI,FM,M3,31.446047035561175,%MAX
PAT,P30,REL,FM,M1,36.53896808596581,%MAX
PAT,P30,REL,FM,M2,39.257464173559555,%MAX
PAT,P30,REL,FM,M3,39.62675172154041,%MAX
PAT,P32,INI,FM,M1,26.622613360751036,%MAX
PAT,P32,INI,FM,M2,32.057656014415805,%MAX
PAT,P32,INI,FM,M3,47.30395299277773,%MAX
PAT,P32,REL,FM,M1,35.75603429963979,%MAX
PAT,P32,REL,FM,M2,41.07117066675644,%MAX
PAT,P32,REL,FM,M3,41.70302838196298,%MAX
PAT,P33,INI,FM,M1,18.425734596485384,%MAX
PAT,P33,INI,FM,M2,12.552856964455275,%MAX
PAT,P33,INI,FM,M3,18.841134669160954,%MAX
PAT,P33,REL,FM,M1,30.772989265463632,%MAX
PAT,P33,REL,FM,M2,34.91992278947314,%MAX
PAT,P33,REL,FM,M3,22.32322168861817,%MAX
PAT,P34,INI,FM,M1,34.45454262022953,%MAX
PAT,P34,INI,FM,M2,39.04772929741711,%MAX
PAT,P34,INI,FM,M3,47.129679011357155,%MAX
PAT,P34,REL,FM,M1,38.374503874110864,%MAX
PAT,P34,REL,FM,M2,42.804924179169966,%MAX
PAT,P34,REL,FM,M3,43.29911803270415,%MAX
PAT,P36,INI,FM,M1,29.512969210716744,%MAX
PAT,P36,INI,FM,M2,35.540096838646875,%MAX
PAT,P36,INI,FM,M3,40.22751825566827,%MAX
PAT,P36,REL,FM,M1,22.971503172031845,%MAX
PAT,P36,REL,FM,M2,25.261735737313103,%MAX
PAT,P36,REL,FM,M3,40.988227429548566,%MAX
PAT,P41,INI,FM,M1,28.229537349182905,%MAX
PAT,P41,INI,FM,M2,28.638810214547906,%MAX
PAT,P41,INI,FM,M3,37.82864054878542,%MAX
PAT,P41,REL,FM,M1,30.205768917148927,%MAX
PAT,P41,REL,FM,M2,34.85502290282301,%MAX
PAT,P41,REL,FM,M3,42.61907217355044,%MAX
PAT,P42,INI,FM,M1,34.417973115218274,%MAX
PAT,P42,INI,FM,M2,27.80955102694422,%MAX
PAT,P42,INI,FM,M3,31.155203596567343,%MAX
PAT,P42,REL,FM,M1,20.4982931346212,%MAX
PAT,P42,REL,FM,M2,26.81242727216007,%MAX
PAT,P42,REL,FM,M3,43.586612582791254,%MAX
PAT,P43,INI,FM,M1,25.23917438907958,%MAX
PAT,P43,INI,FM,M2,33.133086003480855,%MAX
PAT,P43,INI,FM,M3,38.71009135401883,%MAX
PAT,P43,REL,FM,M1,37.17307290238802,%MAX
PAT,P43,REL,FM,M2,31.719440242341246,%MAX
PAT,P43,REL,FM,M3,37.9699341681237,%MAX
PAT,P45,INI,FM,M1,22.29215056558765,%MAX
PAT,P45,INI,FM,M2,23.85052364342899,%MAX
PAT,P45,INI,FM,M3,30.95045897746791,%MAX
PAT,P45,REL,FM,M1,31.576132942177914,%MAX
PAT,P45,REL,FM,M2,34.13635083252979,%MAX
PAT,P45,REL,FM,M3,35.57082599006363,%MAX
PAT,P47,INI,FM,M1,27.901289440061174,%MAX
PAT,P47,INI,FM,M2,26.51776271253741,%MAX
PAT,P47,INI,FM,M3,25.164562819847955,%MAX
PAT,P47,REL,FM,M1,32.28673809046093,%MAX
PAT,P47,REL,FM,M2,30.81762841661401,%MAX
PAT,P47,REL,FM,M3,33.95930301621813,%MAX
PAT,P50,INI,FM,M1,25.602150397068044,%MAX
PAT,P50,INI,FM,M2,31.461182591863054,%MAX
PAT,P50,INI,FM,M3,50.889870464483835,%MAX
PAT,P50,REL,FM,M1,25.381148025535417,%MAX
PAT,P50,REL,FM,M2,28.004432953316922,%MAX
PAT,P50,REL,FM,M3,27.8357546673004,%MAX
PAT,P51,INI,FM,M1,30.0311536764232,%MAX
PAT,P51,INI,FM,M2,24.104972110165193,%MAX
PAT,P51,INI,FM,M3,28.898819090969976,%MAX
PAT,P51,REL,FM,M1,44.418041684303,%MAX
PAT,P51,REL,FM,M2,45.94608967622236,%MAX
PAT,P51,REL,FM,M3,49.61787283718004,%MAX
PAT,P53,INI,FM,M1,36.38871059174686,%MAX
PAT,P53,INI,FM,M2,32.534525785109885,%MAX
PAT,P53,INI,FM,M3,38.25988591813278,%MAX
PAT,P53,REL,FM,M1,37.84279802403007,%MAX
PAT,P53,REL,FM,M2,35.77119235245513,%MAX
PAT,P53,REL,FM,M3,49.01860967409581,%MAX
PAT,P54,INI,FM,M1,27.074287151189004,%MAX
PAT,P54,INI,FM,M2,23.661167597001644,%MAX
PAT,P54,INI,FM,M3,20.50498473819414,%MAX
PAT,P54,REL,FM,M1,26.21681135146083,%MAX
PAT,P54,REL,FM,M2,37.591807588825084,%MAX
PAT,P54,REL,FM,M3,42.580609444986756,%MAX
PAT,P58,INI,FM,M1,,%MAX
PAT,P58,INI,FM,M2,,%MAX
PAT,P58,INI,FM,M3,,%MAX
PAT,P58,REL,FM,M1,32.673697184936564,%MAX
PAT,P58,REL,FM,M2,34.306027538323676,%MAX
PAT,P58,REL,FM,M3,36.96182446079995,%MAX
PAT,P61,INI,FM,M1,38.02182396355338,%MAX
PAT,P61,INI,FM,M2,28.024987829402257,%MAX
PAT,P61,INI,FM,M3,47.6066610695325,%MAX
PAT,P61,REL,FM,M1,30.842133858744905,%MAX
PAT,P61,REL,FM,M2,55.322084875354754,%MAX
PAT,P61,REL,FM,M3,49.91289231152347,%MAX
PAT,P62,INI,FM,M1,33.729436620503364,%MAX
PAT,P62,INI,FM,M2,40.9721799755611,%MAX
PAT,P62,INI,FM,M3,34.165158182615,%MAX
PAT,P62,REL,FM,M1,,%MAX
PAT,P62,REL,FM,M2,,%MAX
PAT,P62,REL,FM,M3,,%MAX
PAT,P63,INI,FM,M1,36.429058548717585,%MAX
PAT,P63,INI,FM,M2,32.31096817455493,%MAX
PAT,P63,INI,FM,M3,29.06495659742045,%MAX
PAT,P63,REL,FM,M1,31.701388525363626,%MAX
PAT,P63,REL,FM,M2,23.87372079226825,%MAX
PAT,P63,REL,FM,M3,26.38825324528271,%MAX
PAT,P65,INI,FM,M1,,%MAX
PAT,P65,INI,FM,M2,,%MAX
PAT,P65,INI,FM,M3,,%MAX
PAT,P65,REL,FM,M1,,%MAX
PAT,P65,REL,FM,M2,,%MAX
PAT,P65,REL,FM,M3,,%MAX
