Group,Participant,Session,Operator,Measure,Value,Unit
PAT,P09,INI,FM,M1,140.5297973052443,Hz
PAT,P09,INI,FM,M2,140.40303169985913,Hz
PAT,P09,INI,FM,M3,140.30781692551088,Hz
PAT,P09,REL,FM,M1,149.81573481655732,Hz
PAT,P09,REL,FM,M2,156.51762106210646,Hz
PAT,P09,REL,FM,M3,156.3604919998418,Hz
PAT,P10,INI,FM,M1,171.8784004563029,Hz
PAT,P10,INI,FM,M2,155.4255337693764,Hz
PAT,P10,INI,FM,M3,178.9529018395799,Hz
PAT,P10,REL,FM,M1,166.7211141732676,Hz
PAT,P10,REL,FM,M2,165.63363597236855,Hz
PAT,P10,REL,FM,M3,155.42736251750648,Hz
PAT,P11,INI,FM,M1,136.79518932857246,Hz
PAT,P11,INI,FM,M2,145.46275871353598,Hz
PAT,P11,INI,FM,M3,143.43463585028155,Hz
PAT,P11,REL,FM,M1,139.7238359800932,Hz
PAT,P11,REL,FM,M2,135.97095976581247,Hz
PAT,P11,REL,FM,M3,133.06493624859527,Hz
PAT,P12,INI,FM,M1,109.70994873532852,Hz
PAT,P12,INI,FM,M2,115.42346879013394,Hz
PAT,P12,INI,FM,M3,120.61472979175252,Hz
PAT,P12,REL,FM,M1,69.99459009309336,Hz
PAT,P12,REL,FM,M2,58.68877032187224,Hz
PAT,P12,REL,FM,M3,58.390152492483416,Hz
PAT,P14,INI,FM,M1,114.31641985719811,Hz
PAT,P14,INI,FM,M2,102.98951489454755,Hz
PAT,P14,INI,FM,M3,104.06458847036984,Hz
PAT,P14,REL,FM,M1,118.3997832309424,Hz
PAT,P14,REL,FM,M2,115.87299890715624,Hz
PAT,P14,REL,FM,M3,120.97646417928868,Hz
PAT,P17,INI,FM,M1,150.4311387093952,Hz
PAT,P17,INI,FM,M2,144.23193514346758,Hz
PAT,P17,INI,FM,M3,149.4287564681802,Hz
PAT,P17,REL,FM,M1,109.55239813987184,Hz
PAT,P17,REL,FM,M2,121.51836686690734,Hz
PAT,P17,REL,FM,M3,102.08141438787412,Hz
PAT,P24,INI,FM,M1,142.1675903476661,Hz
PAT,P24,INI,FM,M2,148.1064735362913,Hz
PAT,P24,INI,FM,M3,145.14804823341493,Hz
PAT,P24,REL,FM,M1,121.0443335549446,Hz
PAT,P24,REL,FM,M2,126.68416554638414,Hz
PAT,P24,REL,FM,M3,122.86243413517688,Hz
PAT,P26,INI,FM,M1,48.63696298140024,Hz
PAT,P26,INI,FM,M2,96.61527366631368,Hz
PAT,P26,INI,FM,M3,109.3923704724148,Hz
PAT,P26,REL,FM,M1,58.447373604022175,Hz
PAT,P26,REL,FM,M2,44.285534975472814,Hz
PAT,P26,REL,FM,M3,70.06705025003554,Hz
PAT,P27,INI,FM,M1,106.20503502253098,Hz
PAT,P27,INI,FM,M2,106.57570289672316,Hz
PAT,P27,INI,FM,M3,108.30822432600316,Hz
PAT,P27,REL,FM,M1,118.24725503801268,Hz
PAT,P27,REL,FM,M2,120.6351755116635,Hz
PAT,P27,REL,FM,M3,120.143525536405,Hz
PAT,P28,INI,FM,M1,121.91531233577663,Hz
PAT,P28,INI,FM,M2,128.46990289060906,Hz
PAT,P28,INI,FM,M3,127.5277204114299,Hz
PAT,P28,REL,FM,M1,148.28947700165108,Hz
PAT,P28,REL,FM,M2,137.44963395999002,Hz
PAT,P28,REL,FM,M3,135.35866839428377,Hz
PAT,P29,INI,FM,M1,134.45212155584588,Hz
PAT,P29,INI,FM,M2,130.8281139365569,Hz
PAT,P29,INI,FM,M3,,Hz
PAT,P29,REL,FM,M1,139.54679650974546,Hz
PAT,P29,REL,FM,M2,120.40196704715136,Hz
PAT,P29,REL,FM,M3,122.62259898398725,Hz
PAT,P30,REL,FM,M1,170.49005421893733,Hz
PAT,P30,REL,FM,M2,165.11987567993572,Hz
PAT,P30,REL,FM,M3,165.0594564363986,Hz
PAT,P32,INI,FM,M1,148.53335204269155,Hz
PAT,P32,INI,FM,M2,143.87306364631905,Hz
PAT,P32,INI,FM,M3,141.87069689030935,Hz
PAT,P32,REL,FM,M1,144.93408361575464,Hz
PAT,P32,REL,FM,M2,145.61795225820998,Hz
PAT,P32,REL,FM,M3,147.59643287700382,Hz
PAT,P33,INI,FM,M1,118.21640418194264,Hz
PAT,P33,INI,FM,M2,116.59273561437122,Hz
PAT,P33,INI,FM,M3,115.8964270718934,Hz
PAT,P33,REL,FM,M1,117.7952538958763,Hz
PAT,P33,REL,FM,M2,108.0321950478737,Hz
PAT,P33,REL,FM,M3,126.98431409081364,Hz
PAT,P34,INI,FM,M1,109.85302424095563,Hz
PAT,P34,INI,FM,M2,104.27426280520272,Hz
PAT,P34,INI,FM,M3,105.5882932910222,Hz
PAT,P34,REL,FM,M1,150.1268712656045,Hz
PAT,P34,REL,FM,M2,136.25218426218365,Hz
PAT,P34,REL,FM,M3,134.2217942139889,Hz
PAT,P36,INI,FM,M1,154.031067005199,Hz
PAT,P36,INI,FM,M2,147.821353607798,Hz
PAT,P36,INI,FM,M3,143.78184821559844,Hz
PAT,P36,REL,FM,M1,152.1518575866289,Hz
PAT,P36,REL,FM,M2,155.2757427056674,Hz
PAT,P36,REL,FM,M3,143.08242420779263,Hz
PAT,P41,INI,FM,M1,107.382115195417,Hz
PAT,P41,INI,FM,M2,116.8977432747333,Hz
PAT,P41,INI,FM,M3,135.87565465966566,Hz
PAT,P41,REL,FM,M1,148.21796780110537,Hz
PAT,P41,REL,FM,M2,134.12384147275162,Hz
PAT,P41,REL,FM,M3,129.7603631832598,Hz
PAT,P42,INI,FM,M1,133.33716250505915,Hz
PAT,P42,INI,FM,M2,127.04229681904457,Hz
PAT,P42,INI,FM,M3,129.74472160586586,Hz
PAT,P42,REL,FM,M1,142.4350205110671,Hz
PAT,P42,REL,FM,M2,142.92460346446504,Hz
PAT,P42,REL,FM,M3,134.74668371200642,Hz
PAT,P43,INI,FM,M1,112.17192531603432,Hz
PAT,P43,INI,FM,M2,128.91422808864013,Hz
PAT,P43,INI,FM,M3,127.08140764104782,Hz
PAT,P43,REL,FM,M1,118.57145316817711,Hz
PAT,P43,REL,FM,M2,114.27669352533871,Hz
PAT,P43,REL,FM,M3,113.32278122443677,Hz
PAT,P45,INI,FM,M1,138.0886542037652,Hz
PAT,P45,INI,FM,M2,138.52740035130216,Hz
PAT,P45,INI,FM,M3,167.40285032696264,Hz
PAT,P45,REL,FM,M1,163.28480091545435,Hz
PAT,P45,REL,FM,M2,163.93693854036567,Hz
PAT,P45,REL,FM,M3,164.38630970494512,Hz
PAT,P47,INI,FM,M1,112.29457703474436,Hz
PAT,P47,INI,FM,M2,113.9350248145881,Hz
PAT,P47,INI,FM,M3,109.19497887163594,Hz
PAT,P47,REL,FM,M1,131.67847584029977,Hz
PAT,P47,REL,FM,M2,125.07010953875356,Hz
PAT,P47,REL,FM,M3,121.50787887567894,Hz
PAT,P50,INI,FM,M1,159.56620393443634,Hz
PAT,P50,INI,FM,M2,159.52995982112773,Hz
PAT,P50,INI,FM,M3,158.43484700357246,Hz
PAT,P50,REL,FM,M1,142.50040532600937,Hz
PAT,P50,REL,FM,M2,127.6505075092548,Hz
PAT,P50,REL,FM,M3,135.2598304375518,Hz
PAT,P51,INI,FM,M1,133.18211990219004,Hz
PAT,P51,INI,FM,M2,138.08065450652813,Hz
PAT,P51,INI,FM,M3,130.95546421075883,Hz
PAT,P51,REL,FM,M1,121.89081744781024,Hz
PAT,P51,REL,FM,M2,119.94772375967952,Hz
PAT,P51,REL,FM,M3,121.91124433813305,Hz
PAT,P53,INI,FM,M1,127.38172914198708,Hz
PAT,P53,INI,FM,M2,129.55983328353233,Hz
PAT,P53,INI,FM,M3,,Hz
PAT,P53,REL,FM,M1,120.8101050662592,Hz
PAT,P53,REL,FM,M2,117.55117368361437,Hz
PAT,P53,REL,FM,M3,105.39878383497349,Hz
PAT,P54,INI,FM,M1,122.82440702349209,Hz
PAT,P54,INI,FM,M2,119.21568737297,Hz
PAT,P54,INI,FM,M3,105.04419173614428,Hz
PAT,P54,REL,FM,M1,106.80286851168265,Hz
PAT,P54,REL,FM,M2,107.86458941858076,Hz
PAT,P54,REL,FM,M3,99.05287940883538,Hz
PAT,P58,REL,FM,M1,38.03430997429958,Hz
PAT,P58,REL,FM,M2,48.73737185898438,Hz
PAT,P58,REL,FM,M3,49.93810772531369,Hz
PAT,P61,INI,FM,M1,87.06002190041418,Hz
PAT,P61,INI,FM,M2,93.74244642914589,Hz
PAT,P61,INI,FM,M3,87.8759335373365,Hz
PAT,P61,REL,FM,M1,105.51180058023115,Hz
PAT,P61,REL,FM,M2,101.08784516307752,Hz
PAT,P61,REL,FM,M3,114.99514650206788,Hz
PAT,P62,INI,FM,M1,145.71707900649133,Hz
PAT,P62,INI,FM,M2,146.87732104303723,Hz
PAT,P62,INI,FM,M3,145.94468395534318,Hz
PAT,P62,REL,FM,M1,140.2596404977903,Hz
PAT,P62,REL,FM,M2,140.12232770399234,Hz
PAT,P62,REL,FM,M3,137.28180512003814,Hz
PAT,P63,INI,FM,M1,115.61656012647792,Hz
PAT,P63,INI,FM,M2,97.80580767345973,Hz
PAT,P63,INI,FM,M3,91.45346509858967,Hz
PAT,P63,REL,FM,M1,129.02699953555287,Hz
PAT,P63,REL,FM,M2,126.17394144445493,Hz
PAT,P63,REL,FM,M3,129.89570887056698,Hz
PAT,P65,INI,FM,M1,110.86329090153365,Hz
PAT,P65,INI,FM,M2,126.91235196435257,Hz
PAT,P65,INI,FM,M3,118.80894053437504,Hz
PAT,P65,REL,FM,M1,138.26413889206367,Hz
PAT,P65,REL,FM,M2,126.56499388352697,Hz
PAT,P65,REL,FM,M3,120.38673608768458,Hz
