Group,Participant,Session,Operator,Measure,Value,Unit
CTR,P01,INI,FM,MPF,41.34985546860649,Hz
CTR,P02,INI,FM,MPF,69.5154561695622,Hz
CTR,P03,INI,FM,MPF,65.46643232429368,Hz
CTR,P05,INI,FM,MPF,82.36645663578179,Hz
CTR,P06,INI,FM,MPF,142.8556373500768,Hz
CTR,P07,INI,FM,MPF,136.8492099247994,Hz
CTR,P08,INI,FM,MPF,77.0077345933558,Hz
PAT,P09,INI,FM,MPF,86.06964642525615,Hz
PAT,P10,INI,FM,MPF,94.0356526349942,Hz
PAT,P11,INI,FM,MPF,73.21185843760185,Hz
PAT,P12,INI,FM,MPF,77.10522557267967,Hz
CTR,P13,INI,FM,MPF,93.128370791056,Hz
PAT,P14,INI,FM,MPF,93.118903983346,Hz
CTR,P16,INI,FM,MPF,89.00141497348436,Hz
PAT,P17,INI,FM,MPF,105.47677921329137,Hz
CTR,P21,INI,FM,MPF,81.65732155714592,Hz
CTR,P22,INI,FM,MPF,99.11644120360698,Hz
CTR,P23,INI,FM,MPF,69.19734040332456,Hz
PAT,P24,INI,FM,MPF,119.07953831798775,Hz
CTR,P25,INI,FM,MPF,89.76939011984759,Hz
PAT,P26,INI,FM,MPF,63.45335087789943,Hz
PAT,P27,INI,FM,MPF,77.84574732050056,Hz
PAT,P28,INI,FM,MPF,93.57317564714124,Hz
PAT,P29,INI,FM,MPF,81.82699932575684,Hz
PAT,P32,INI,FM,MPF,82.12448369099646,Hz
PAT,P33,INI,FM,MPF,61.258673667975415,Hz
PAT,P34,INI,FM,MPF,66.56819879634716,Hz
CTR,P35,INI,FM,MPF,84.96486465619098,Hz
PAT,P36,INI,FM,MPF,88.87092912042824,Hz
CTR,P38,INI,FM,MPF,67.03005860502397,Hz
CTR,P39,INI,FM,MPF,49.09421510278917,Hz
CTR,P40,INI,FM,MPF,95.96486961476866,Hz
PAT,P41,INI,FM,MPF,87.03769908070929,Hz
PAT,P42,INI,FM,MPF,91.93399463832311,Hz
PAT,P43,INI,FM,MPF,73.59717136654199,Hz
CTR,P44,INI,FM,MPF,95.69765925400976,Hz
PAT,P45,INI,FM,MPF,98.20531378461928,Hz
CTR,P46,INI,FM,MPF,107.62363427613258,Hz
PAT,P47,INI,FM,MPF,73.35633558226219,Hz
CTR,P48,INI,FM,MPF,111.37074866188073,Hz
CTR,P49,INI,FM,MPF,72.49149864127969,Hz
PAT,P50,INI,FM,MPF,69.27459069761379,Hz
PAT,P51,INI,FM,MPF,115.41762142819672,Hz
CTR,P52,INI,FM,MPF,89.1374852474894,Hz
PAT,P53,INI,FM,MPF,114.27410266229197,Hz
PAT,P54,INI,FM,MPF,84.96023024384628,Hz
CTR,P55,INI,FM,MPF,57.30148397118878,Hz
CTR,P56,INI,FM,MPF,79.83885228652159,Hz
CTR,P57,INI,FM,MPF,43.03683323078256,Hz
PAT,P58,INI,FM,MPF,97.81083005821664,Hz
CTR,P60,INI,FM,MPF,85.39769253637452,Hz
PAT,P61,INI,FM,MPF,87.56060713816551,Hz
PAT,P62,INI,FM,MPF,67.35281325047536,Hz
PAT,P63,INI,FM,MPF,73.15692607562988,Hz
CTR,P64,INI,FM,MPF,73.35385436552623,Hz
PAT,P65,INI,FM,MPF,106.755753268991,Hz
CTR,P67,INI,FM,MPF,94.7299900388923,Hz
CTR,P68,INI,FM,MPF,50.60536682373468,Hz
