Group,Participant,Session,Operator,Measure,Value,Unit
CTR,P01,INI,FM,RMS,0.0117787725223075,V
CTR,P02,INI,FM,RMS,0.0236775608257907,V
CTR,P03,INI,FM,RMS,0.0122704095967539,V
CTR,P05,INI,FM,RMS,0.0303008492792434,V
CTR,P06,INI,FM,RMS,0.00559964059581,V
CTR,P07,INI,FM,RMS,0.0396288067597962,V
CTR,P08,INI,FM,RMS,0.0385621142073339,V
PAT,P09,INI,FM,RMS,0.016448374095175,V
PAT,P11,INI,FM,RMS,0.0169201563584311,V
PAT,P12,INI,FM,RMS,0.0219914224709969,V
CTR,P13,INI,FM,RMS,0.0074163285509601,V
PAT,P14,INI,FM,RMS,0.0098275744362974,V
CTR,P16,INI,FM,RMS,0.0078107918069632,V
PAT,P17,INI,FM,RMS,0.0099653585827637,V
CTR,P22,INI,FM,RMS,0.0083595241302373,V
CTR,P23,INI,FM,RMS,0.0124574682905336,V
PAT,P24,INI,FM,RMS,0.0091582339652639,V
PAT,P26,INI,FM,RMS,0.0066914663388546,V
PAT,P27,INI,FM,RMS,0.0119428636372864,V
PAT,P28,INI,FM,RMS,0.0098373446800994,V
PAT,P29,INI,FM,RMS,0.0218960602170864,V
PAT,P30,INI,FM,RMS,0.0354512667117996,V
PAT,P32,INI,FM,RMS,0.0104444053746041,V
PAT,P33,INI,FM,RMS,0.010527535424026,V
PAT,P34,INI,FM,RMS,0.0071628500360916,V
CTR,P35,INI,FM,RMS,,V
PAT,P36,INI,FM,RMS,0.0172819139008081,V
CTR,P39,INI,FM,RMS,0.0090501773134697,V
CTR,P40,INI,FM,RMS,0.0215884965227899,V
PAT,P41,INI,FM,RMS,0.0218793164389818,V
PAT,P42,INI,FM,RMS,0.0155536717613221,V
PAT,P43,INI,FM,RMS,0.0196282204517388,V
PAT,P45,INI,FM,RMS,,V
CTR,P46,INI,FM,RMS,0.0267588693804994,V
PAT,P47,INI,FM,RMS,0.0263625134523088,V
CTR,P48,INI,FM,RMS,0.0151023407520733,V
CTR,P49,INI,FM,RMS,0.0121486030096897,V
PAT,P50,INI,FM,RMS,0.0212650930176474,V
PAT,P51,INI,FM,RMS,0.0069463803825241,V
CTR,P52,INI,FM,RMS,0.0227668378054377,V
PAT,P53,INI,FM,RMS,0.0087837299645458,V
PAT,P54,INI,FM,RMS,0.0152887118848608,V
CTR,P55,INI,FM,RMS,0.0107947994333513,V
CTR,P56,INI,FM,RMS,0.019528376152869,V
CTR,P60,INI,FM,RMS,0.0120503236245719,V
PAT,P61,INI,FM,RMS,0.0217084738959904,V
PAT,P62,INI,FM,RMS,0.0062610179269558,V
PAT,P63,INI,FM,RMS,0.0354750133384812,V
CTR,P64,INI,FM,RMS,0.0113181935936032,V
PAT,P65,INI,FM,RMS,0.0251725476796164,V
CTR,P66,INI,FM,RMS,0.0459612638683075,V
CTR,P67,INI,FM,RMS,0.0212915099057355,V
CTR,P68,INI,FM,RMS,,V
