Group,Participant,Session,Operator,Measure,Value,Unit
CTR,P01,INI,FM,RMS,0.0227122894667714,V
CTR,P02,INI,FM,RMS,0.030909543298039,V
CTR,P03,INI,FM,RMS,0.0231132337034035,V
CTR,P05,INI,FM,RMS,0.0282984571574592,V
CTR,P06,INI,FM,RMS,0.0133739077168139,V
CTR,P07,INI,FM,RMS,0.0774865913457837,V
CTR,P08,INI,FM,RMS,0.0243726829118206,V
PAT,P09,INI,FM,RMS,0.0218703932854399,V
PAT,P10,INI,FM,RMS,0.021980676109063,V
PAT,P11,INI,FM,RMS,0.03058216648883,V
PAT,P12,INI,FM,RMS,0.0156600887766847,V
CTR,P13,INI,FM,RMS,0.0259265307103845,V
PAT,P14,INI,FM,RMS,0.0238949778486916,V
CTR,P16,INI,FM,RMS,0.0151741961973641,V
PAT,P17,INI,FM,RMS,0.0227830294046728,V
CTR,P21,INI,FM,RMS,0.03660124859629,V
CTR,P22,INI,FM,RMS,0.0198065839878157,V
CTR,P23,INI,FM,RMS,0.0330547298426883,V
PAT,P24,INI,FM,RMS,0.0280179432576597,V
CTR,P25,INI,FM,RMS,0.0462715404791578,V
PAT,P26,INI,FM,RMS,0.0166576985864678,V
PAT,P27,INI,FM,RMS,0.0233467863188776,V
PAT,P28,INI,FM,RMS,0.016973704069012,V
PAT,P29,INI,FM,RMS,0.0367980695273133,V
PAT,P30,INI,FM,RMS,0.0215879438090746,V
PAT,P32,INI,FM,RMS,0.0181116450808354,V
PAT,P33,INI,FM,RMS,0.0137028772297328,V
PAT,P34,INI,FM,RMS,0.0171567388578994,V
CTR,P35,INI,FM,RMS,0.0393026686383303,V
PAT,P36,INI,FM,RMS,0.0361046684456382,V
CTR,P39,INI,FM,RMS,0.0115113204859121,V
CTR,P40,INI,FM,RMS,0.0331830186294291,V
PAT,P41,INI,FM,RMS,0.0339120802999065,V
PAT,P42,INI,FM,RMS,0.033988455039729,V
PAT,P43,INI,FM,RMS,0.0375494694778685,V
CTR,P44,INI,FM,RMS,0.0445581287073722,V
PAT,P45,INI,FM,RMS,0.0289120365425149,V
CTR,P46,INI,FM,RMS,0.0328488285042899,V
PAT,P47,INI,FM,RMS,0.0214110872414244,V
CTR,P48,INI,FM,RMS,0.0423595642132733,V
CTR,P49,INI,FM,RMS,0.0370773176239892,V
PAT,P50,INI,FM,RMS,0.0611642164217304,V
PAT,P51,INI,FM,RMS,0.0134061252839503,V
CTR,P52,INI,FM,RMS,0.0321225254046798,V
PAT,P53,INI,FM,RMS,0.026817268891462,V
PAT,P54,INI,FM,RMS,0.0363583110643176,V
CTR,P55,INI,FM,RMS,0.0264751350440245,V
CTR,P56,INI,FM,RMS,0.0242480225687895,V
CTR,P57,INI,FM,RMS,0.0197228789334607,V
PAT,P58,INI,FM,RMS,0.0102310778760805,V
CTR,P60,INI,FM,RMS,0.0218663284216229,V
PAT,P61,INI,FM,RMS,0.0318732752076724,V
PAT,P62,INI,FM,RMS,0.0227340533212647,V
PAT,P63,INI,FM,RMS,,V
CTR,P64,INI,FM,RMS,0.0259056069236418,V
PAT,P65,INI,FM,RMS,0.0351540425221032,V
CTR,P66,INI,FM,RMS,0.0231104932083157,V
CTR,P67,INI,FM,RMS,0.0436440230572429,V
CTR,P68,INI,FM,RMS,0.041934615309749,V
