Group,Participant,Session,Operator,Measure,Value,Unit
CTR,P01,INI,FM,M1,0.010642054668798534,V
CTR,P01,INI,FM,M2,0.011764332288227397,V
CTR,P01,INI,FM,M3,0.010832574256197283,V
CTR,P01,REL,FM,M1,0.013085969080220167,V
CTR,P01,REL,FM,M2,0.025177298154272113,V
CTR,P01,REL,FM,M3,0.021351833455788033,V
CTR,P02,REL,FM,M1,0.02068844716933974,V
CTR,P02,REL,FM,M2,0.0216884824436189,V
CTR,P02,REL,FM,M3,0.02151977962419386,V
CTR,P03,INI,FM,M1,,V
CTR,P03,INI,FM,M2,,V
CTR,P03,INI,FM,M3,,V
CTR,P03,REL,FM,M1,,V
CTR,P03,REL,FM,M2,,V
CTR,P03,REL,FM,M3,,V
CTR,P05,INI,FM,M1,0.010206616271455717,V
CTR,P05,INI,FM,M2,0.010015854421542267,V
CTR,P05,INI,FM,M3,0.009393588632756,V
CTR,P05,REL,FM,M1,0.01736636629997841,V
CTR,P05,REL,FM,M2,0.017595169759646832,V
CTR,P05,REL,FM,M3,0.017667217465787047,V
CTR,P06,INI,FM,M1,0.005197601797134214,V
CTR,P06,INI,FM,M2,0.0066099157937908,V
CTR,P06,INI,FM,M3,0.006119859606784858,V
CTR,P06,REL,FM,M1,0.007557972960704171,V
CTR,P06,REL,FM,M2,0.007596301268881972,V
CTR,P06,REL,FM,M3,0.007738369511347342,V
CTR,P07,INI,FM,M1,0.029114452472009285,V
CTR,P07,INI,FM,M2,0.037230290110522764,V
CTR,P07,INI,FM,M3,0.04149224536553121,V
CTR,P07,REL,FM,M1,0.041278198984544316,V
CTR,P07,REL,FM,M2,0.042923961913819086,V
CTR,P07,REL,FM,M3,0.04324637463475796,V
CTR,P08,INI,FM,M1,0.009423134431259758,V
CTR,P08,INI,FM,M2,0.00919372251880177,V
CTR,P08,INI,FM,M3,0.009891195068140572,V
CTR,P08,REL,FM,M1,0.007584932744675199,V
CTR,P08,REL,FM,M2,0.007532072132488479,V
CTR,P08,REL,FM,M3,0.00696192835756074,V
CTR,P13,INI,FM,M1,0.0090507588416617,V
CTR,P13,INI,FM,M2,0.009792483381407976,V
CTR,P13,INI,FM,M3,0.0103882305342614,V
CTR,P13,REL,FM,M1,0.009894454673840524,V
CTR,P13,REL,FM,M2,0.012159166601248956,V
CTR,P13,REL,FM,M3,0.012651023643951854,V
CTR,P16,INI,FM,M1,0.004802823348484866,V
CTR,P16,INI,FM,M2,0.0045978000095706,V
CTR,P16,INI,FM,M3,0.004801542540415866,V
CTR,P16,REL,FM,M1,0.004941015524706067,V
CTR,P16,REL,FM,M2,0.003785426424436834,V
CTR,P16,REL,FM,M3,0.004516952543534017,V
CTR,P21,INI,FM,M1,,V
CTR,P21,INI,FM,M2,,V
CTR,P21,INI,FM,M3,,V
CTR,P21,REL,FM,M1,,V
CTR,P21,REL,FM,M2,,V
CTR,P21,REL,FM,M3,,V
CTR,P22,INI,FM,M1,0.004661922817930267,V
CTR,P22,INI,FM,M2,0.004852666867988078,V
CTR,P22,INI,FM,M3,0.004918989625120123,V
CTR,P22,REL,FM,M1,0.0041798522887088,V
CTR,P22,REL,FM,M2,0.004313568422763363,V
CTR,P22,REL,FM,M3,0.0044942527959908,V
CTR,P23,INI,FM,M1,0.020373183237857556,V
CTR,P23,INI,FM,M2,0.02181570830570486,V
CTR,P23,INI,FM,M3,0.01920130301381046,V
CTR,P23,REL,FM,M1,0.008775568555960976,V
CTR,P23,REL,FM,M2,0.008801583273701851,V
CTR,P23,REL,FM,M3,0.009834476202225474,V
CTR,P25,INI,FM,M1,0.019335116161419218,V
CTR,P25,INI,FM,M2,0.02030591416382145,V
CTR,P25,INI,FM,M3,0.01908074086411648,V
CTR,P25,REL,FM,M1,0.016917733338247636,V
CTR,P25,REL,FM,M2,0.014696354042503837,V
CTR,P25,REL,FM,M3,0.017095191009535226,V
CTR,P35,INI,FM,M1,0.012108300727580566,V
CTR,P35,INI,FM,M2,0.011645653942566534,V
CTR,P35,INI,FM,M3,0.011035550544179243,V
CTR,P35,REL,FM,M1,0.010426149935587067,V
CTR,P35,REL,FM,M2,0.01113530226119955,V
CTR,P35,REL,FM,M3,0.012913722506136668,V
CTR,P38,REL,FM,M1,,V
CTR,P38,REL,FM,M2,,V
CTR,P38,REL,FM,M3,,V
CTR,P39,INI,FM,M1,,V
CTR,P39,INI,FM,M2,,V
CTR,P39,INI,FM,M3,,V
CTR,P39,REL,FM,M1,0.01345446419076325,V
CTR,P39,REL,FM,M2,0.011800476635391051,V
CTR,P39,REL,FM,M3,0.010686564921341925,V
CTR,P40,INI,FM,M1,0.013757495704681549,V
CTR,P40,INI,FM,M2,0.010894656523773569,V
CTR,P40,INI,FM,M3,0.01166636077929725,V
CTR,P40,REL,FM,M1,0.006006138077399934,V
CTR,P40,REL,FM,M2,0.006462639142907116,V
CTR,P40,REL,FM,M3,0.007403299419958584,V
CTR,P44,INI,FM,M1,0.011316097310664585,V
CTR,P44,INI,FM,M2,0.007745185499981699,V
CTR,P44,INI,FM,M3,0.009684546955027915,V
CTR,P44,REL,FM,M1,0.01111270772901743,V
CTR,P44,REL,FM,M2,0.01201719993374934,V
CTR,P44,REL,FM,M3,0.011743687470826497,V
CTR,P46,INI,FM,M1,0.005804221684034459,V
CTR,P46,INI,FM,M2,0.00619126311642476,V
CTR,P46,INI,FM,M3,0.0058992465736016405,V
CTR,P46,REL,FM,M1,0.004802233796488633,V
CTR,P46,REL,FM,M2,0.004666809713118483,V
CTR,P46,REL,FM,M3,0.005147116113879834,V
CTR,P48,INI,FM,M1,0.023024347403600737,V
CTR,P48,INI,FM,M2,0.02027762583473715,V
CTR,P48,INI,FM,M3,0.021786324270439188,V
CTR,P48,REL,FM,M1,0.01753810516595897,V
CTR,P48,REL,FM,M2,0.017622440970693157,V
CTR,P48,REL,FM,M3,0.018094984677689902,V
CTR,P49,INI,FM,M1,0.014007232151333112,V
CTR,P49,INI,FM,M2,0.013561899021766516,V
CTR,P49,INI,FM,M3,0.0132797843963393,V
CTR,P49,REL,FM,M1,0.010839280241874038,V
CTR,P49,REL,FM,M2,0.012956140445400912,V
CTR,P49,REL,FM,M3,0.012998458156708276,V
CTR,P52,INI,FM,M1,0.012221417395918416,V
CTR,P52,INI,FM,M2,0.010523857118169534,V
CTR,P52,INI,FM,M3,0.011105463514843166,V
CTR,P52,REL,FM,M1,0.010667521212140076,V
CTR,P52,REL,FM,M2,0.009989740399416726,V
CTR,P52,REL,FM,M3,0.010267136014810526,V
CTR,P55,INI,FM,M1,0.0175328363218499,V
CTR,P55,INI,FM,M2,0.025639989305067886,V
CTR,P55,INI,FM,M3,0.02478999240293151,V
CTR,P55,REL,FM,M1,0.015508566239766245,V
CTR,P55,REL,FM,M2,0.014361507776685328,V
CTR,P55,REL,FM,M3,0.030164351204322516,V
CTR,P56,INI,FM,M1,0.009115978855733401,V
CTR,P56,INI,FM,M2,0.010636247013221,V
CTR,P56,INI,FM,M3,0.01488187743412154,V
CTR,P56,REL,FM,M1,0.015987846732432868,V
CTR,P56,REL,FM,M2,0.014789035643379486,V
CTR,P56,REL,FM,M3,0.014767766988009731,V
CTR,P57,INI,FM,M1,,V
CTR,P57,INI,FM,M2,,V
CTR,P57,INI,FM,M3,,V
CTR,P57,REL,FM,M1,,V
CTR,P57,REL,FM,M2,,V
CTR,P57,REL,FM,M3,,V
CTR,P60,INI,FM,M1,0.00944361789017655,V
CTR,P60,INI,FM,M2,0.010848031482114448,V
CTR,P60,INI,FM,M3,0.010996223930064835,V
CTR,P60,REL,FM,M1,0.008765356923819198,V
CTR,P60,REL,FM,M2,0.009833027029970333,V
CTR,P60,REL,FM,M3,0.008304384035524316,V
CTR,P64,INI,FM,M1,0.006418398919566226,V
CTR,P64,INI,FM,M2,0.007894935367980338,V
CTR,P64,INI,FM,M3,0.006912067710662237,V
CTR,P64,REL,FM,M1,0.0065156380422417195,V
CTR,P64,REL,FM,M2,0.008092275227978821,V
CTR,P64,REL,FM,M3,0.00824794176390926,V
CTR,P66,INI,FM,M1,0.005707181962404224,V
CTR,P66,INI,FM,M2,0.005970868803860238,V
CTR,P66,INI,FM,M3,0.006143319499589401,V
CTR,P66,REL,FM,M1,0.004708457607333767,V
CTR,P66,REL,FM,M2,0.006376833296018534,V
CTR,P66,REL,FM,M3,0.005891486125835299,V
CTR,P67,INI,FM,M1,0.014092190396190848,V
CTR,P67,INI,FM,M2,0.0152982191429352,V
CTR,P67,INI,FM,M3,0.02044180908688065,V
CTR,P68,INI,FM,M1,0.029655430360051718,V
CTR,P68,INI,FM,M2,0.03467222045849445,V
CTR,P68,INI,FM,M3,0.03737457122116023,V
CTR,P68,REL,FM,M1,0.03322907157180136,V
CTR,P68,REL,FM,M2,0.03592957488946977,V
CTR,P68,REL,FM,M3,0.033540059674676936,V
