Group,Participant,Session,Operator,Measure,Value,Unit
PAT,P09,INI,FM,M1,9.659114783761982,%MAX
PAT,P09,INI,FM,M2,9.700297880379113,%MAX
PAT,P09,INI,FM,M3,9.405694201584051,%MAX
PAT,P09,REL,FM,M1,8.944340929491723,%MAX
PAT,P09,REL,FM,M2,11.3381725143684,%MAX
PAT,P09,REL,FM,M3,10.818627527631694,%MAX
PAT,P10,INI,FM,M1,8.389839321064017,%MAX
PAT,P10,INI,FM,M2,7.329127513025866,%MAX
PAT,P10,INI,FM,M3,7.970434981888484,%MAX
PAT,P10,REL,FM,M1,8.376182542812991,%MAX
PAT,P10,REL,FM,M2,8.485665352661131,%MAX
PAT,P10,REL,FM,M3,6.844467365878914,%MAX
PAT,P11,INI,FM,M1,5.683370037516985,%MAX
PAT,P11,INI,FM,M2,7.258875407653647,%MAX
PAT,P11,INI,FM,M3,6.247959430874518,%MAX
PAT,P11,REL,FM,M1,5.725641556128377,%MAX
PAT,P11,REL,FM,M2,4.562478784953045,%MAX
PAT,P11,REL,FM,M3,3.6403723199595976,%MAX
PAT,P12,INI,FM,M1,7.194106264625082,%MAX
PAT,P12,INI,FM,M2,8.035932257429556,%MAX
PAT,P12,INI,FM,M3,9.545289731362914,%MAX
PAT,P12,REL,FM,M1,4.482266733882163,%MAX
PAT,P12,REL,FM,M2,5.135652263557406,%MAX
PAT,P12,REL,FM,M3,5.147306933007199,%MAX
PAT,P14,INI,FM,M1,6.570405168207752,%MAX
PAT,P14,INI,FM,M2,6.700621236573099,%MAX
PAT,P14,INI,FM,M3,6.040354030826297,%MAX
PAT,P14,REL,FM,M1,6.05053212242517,%MAX
PAT,P14,REL,FM,M2,6.863504812930601,%MAX
PAT,P14,REL,FM,M3,5.9375025904671705,%MAX
PAT,P17,INI,FM,M1,8.923234829192637,%MAX
PAT,P17,INI,FM,M2,8.722532905916253,%MAX
PAT,P17,INI,FM,M3,8.112091170508064,%MAX
PAT,P17,REL,FM,M1,8.951675928877133,%MAX
PAT,P17,REL,FM,M2,10.327291166958886,%MAX
PAT,P17,REL,FM,M3,8.817238205974373,%MAX
PAT,P24,INI,FM,M1,10.470387552824668,%MAX
PAT,P24,INI,FM,M2,10.070947827687275,%MAX
PAT,P24,INI,FM,M3,9.97387947702477,%MAX
PAT,P24,REL,FM,M1,9.059676283545118,%MAX
PAT,P24,REL,FM,M2,9.845507681914528,%MAX
PAT,P24,REL,FM,M3,9.5939202045096,%MAX
PAT,P26,INI,FM,M1,3.4598028796514604,%MAX
PAT,P26,INI,FM,M2,3.475234308764222,%MAX
PAT,P26,INI,FM,M3,2.38924004589456,%MAX
PAT,P26,REL,FM,M1,0.5821636422016305,%MAX
PAT,P26,REL,FM,M2,0.735975071170747,%MAX
PAT,P26,REL,FM,M3,0.5618890426059278,%MAX
PAT,P27,INI,FM,M1,4.397550476725633,%MAX
PAT,P27,INI,FM,M2,4.269560105789098,%MAX
PAT,P27,INI,FM,M3,3.808580572362775,%MAX
PAT,P27,REL,FM,M1,5.452749437030835,%MAX
PAT,P27,REL,FM,M2,4.475514722384502,%MAX
PAT,P27,REL,FM,M3,4.318863553891611,%MAX
PAT,P28,INI,FM,M1,10.801855186847028,%MAX
PAT,P28,INI,FM,M2,11.2838293824754,%MAX
PAT,P28,INI,FM,M3,10.904106423203771,%MAX
PAT,P28,REL,FM,M1,5.39956973111019,%MAX
PAT,P28,REL,FM,M2,5.364439374845924,%MAX
PAT,P28,REL,FM,M3,4.68305778200074,%MAX
PAT,P29,INI,FM,M1,9.69908945179905,%MAX
PAT,P29,INI,FM,M2,10.401224809637853,%MAX
PAT,P29,INI,FM,M3,,%MAX
PAT,P29,REL,FM,M1,7.263020751680663,%MAX
PAT,P29,REL,FM,M2,9.675108618544956,%MAX
PAT,P29,REL,FM,M3,10.28576874219349,%MAX
PAT,P30,REL,FM,M1,8.640259035256623,%MAX
PAT,P30,REL,FM,M2,9.351996711247926,%MAX
PAT,P30,REL,FM,M3,8.360757495180243,%MAX
PAT,P32,INI,FM,M1,6.598133914143132,%MAX
PAT,P32,INI,FM,M2,8.669541333564839,%MAX
PAT,P32,INI,FM,M3,9.09006686140828,%MAX
PAT,P32,REL,FM,M1,9.470902382511545,%MAX
PAT,P32,REL,FM,M2,10.032497051727136,%MAX
PAT,P32,REL,FM,M3,9.384054533333831,%MAX
PAT,P33,INI,FM,M1,10.664785371368929,%MAX
PAT,P33,INI,FM,M2,12.197836136975742,%MAX
PAT,P33,INI,FM,M3,10.703388348620042,%MAX
PAT,P33,REL,FM,M1,7.455028425814483,%MAX
PAT,P33,REL,FM,M2,7.226949060001212,%MAX
PAT,P33,REL,FM,M3,7.084994759751865,%MAX
PAT,P34,INI,FM,M1,10.378196014520396,%MAX
PAT,P34,INI,FM,M2,10.018742105644677,%MAX
PAT,P34,INI,FM,M3,9.487346825829825,%MAX
PAT,P34,REL,FM,M1,9.38911968567118,%MAX
PAT,P34,REL,FM,M2,10.040470551799617,%MAX
PAT,P34,REL,FM,M3,8.123945717291019,%MAX
PAT,P36,INI,FM,M1,5.011300480722229,%MAX
PAT,P36,INI,FM,M2,2.8013885387011883,%MAX
PAT,P36,INI,FM,M3,2.3959430097345984,%MAX
PAT,P36,REL,FM,M1,4.191456494529671,%MAX
PAT,P36,REL,FM,M2,4.571244021945482,%MAX
PAT,P36,REL,FM,M3,4.047391724973959,%MAX
PAT,P41,INI,FM,M1,6.097322488166707,%MAX
PAT,P41,INI,FM,M2,7.295693067932543,%MAX
PAT,P41,INI,FM,M3,5.316326902380588,%MAX
PAT,P41,REL,FM,M1,4.321558471845458,%MAX
PAT,P41,REL,FM,M2,4.651100820025721,%MAX
PAT,P41,REL,FM,M3,4.714900667573559,%MAX
PAT,P42,INI,FM,M1,7.964072458407296,%MAX
PAT,P42,INI,FM,M2,7.163620388449012,%MAX
PAT,P42,INI,FM,M3,8.549356579238456,%MAX
PAT,P42,REL,FM,M1,8.290046069916354,%MAX
PAT,P42,REL,FM,M2,6.135972313163328,%MAX
PAT,P42,REL,FM,M3,6.656639161697739,%MAX
PAT,P43,INI,FM,M1,5.966310490722782,%MAX
PAT,P43,INI,FM,M2,4.485649809183372,%MAX
PAT,P43,INI,FM,M3,4.7694476199152405,%MAX
PAT,P43,REL,FM,M1,3.112680080331514,%MAX
PAT,P43,REL,FM,M2,4.293907912147143,%MAX
PAT,P43,REL,FM,M3,3.0447808944058803,%MAX
PAT,P45,INI,FM,M1,6.196878267640424,%MAX
PAT,P45,INI,FM,M2,5.810642750021732,%MAX
PAT,P45,INI,FM,M3,5.124626226036469,%MAX
PAT,P45,REL,FM,M1,8.11891590743532,%MAX
PAT,P45,REL,FM,M2,8.118019596246494,%MAX
PAT,P45,REL,FM,M3,7.827382287628698,%MAX
PAT,P47,INI,FM,M1,3.567199758847166,%MAX
PAT,P47,INI,FM,M2,4.579664482417851,%MAX
PAT,P47,INI,FM,M3,6.113864696484462,%MAX
PAT,P47,REL,FM,M1,4.637619517191542,%MAX
PAT,P47,REL,FM,M2,5.598112073838234,%MAX
PAT,P47,REL,FM,M3,6.389589631115187,%MAX
PAT,P50,INI,FM,M1,10.39332435442498,%MAX
PAT,P50,INI,FM,M2,12.19744588148312,%MAX
PAT,P50,INI,FM,M3,11.583179193946156,%MAX
PAT,P50,REL,FM,M1,6.194369450723566,%MAX
PAT,P50,REL,FM,M2,7.330922291721115,%MAX
PAT,P50,REL,FM,M3,8.194101701409163,%MAX
PAT,P51,INI,FM,M1,13.059071898714157,%MAX
PAT,P51,INI,FM,M2,13.4284007864987,%MAX
PAT,P51,INI,FM,M3,13.088315272205548,%MAX
PAT,P51,REL,FM,M1,11.87125081141369,%MAX
PAT,P51,REL,FM,M2,11.986858503579388,%MAX
PAT,P51,REL,FM,M3,11.97086298663762,%MAX
PAT,P53,INI,FM,M1,12.41885017660578,%MAX
PAT,P53,INI,FM,M2,,%MAX
PAT,P53,INI,FM,M3,,%MAX
PAT,P53,REL,FM,M1,3.562192029810155,%MAX
PAT,P53,REL,FM,M2,3.826741688357267,%MAX
PAT,P53,REL,FM,M3,3.384992889487412,%MAX
PAT,P54,INI,FM,M1,7.632084136413164,%MAX
PAT,P54,INI,FM,M2,9.412628020812916,%MAX
PAT,P54,INI,FM,M3,7.58781784212467,%MAX
PAT,P54,REL,FM,M1,7.827874484371007,%MAX
PAT,P54,REL,FM,M2,6.922431787407659,%MAX
PAT,P54,REL,FM,M3,8.253161289248279,%MAX
PAT,P58,INI,FM,M1,0.4935295952434911,%MAX
PAT,P58,INI,FM,M2,0.440244268888299,%MAX
PAT,P58,INI,FM,M3,0.4900585471768198,%MAX
PAT,P58,REL,FM,M1,0.5193486770400305,%MAX
PAT,P58,REL,FM,M2,0.564175280616253,%MAX
PAT,P58,REL,FM,M3,0.4938661268664517,%MAX
PAT,P61,INI,FM,M1,7.341240101572142,%MAX
PAT,P61,INI,FM,M2,7.403053612529588,%MAX
PAT,P61,INI,FM,M3,6.604346473903652,%MAX
PAT,P61,REL,FM,M1,8.785795001335007,%MAX
PAT,P61,REL,FM,M2,10.60672501225903,%MAX
PAT,P61,REL,FM,M3,9.01017851892346,%MAX
PAT,P62,INI,FM,M1,8.244304154394914,%MAX
PAT,P62,INI,FM,M2,7.753519359149707,%MAX
PAT,P62,INI,FM,M3,7.771028999531531,%MAX
PAT,P62,REL,FM,M1,9.717788633003156,%MAX
PAT,P62,REL,FM,M2,10.207229986401066,%MAX
PAT,P62,REL,FM,M3,9.577223090299672,%MAX
PAT,P63,INI,FM,M1,6.214644791759323,%MAX
PAT,P63,INI,FM,M2,8.693869764177515,%MAX
PAT,P63,INI,FM,M3,8.082160571001502,%MAX
PAT,P63,REL,FM,M1,6.857866893310904,%MAX
PAT,P63,REL,FM,M2,7.254574775288918,%MAX
PAT,P63,REL,FM,M3,4.119707939895698,%MAX
PAT,P65,INI,FM,M1,4.170670315072931,%MAX
PAT,P65,INI,FM,M2,5.045708843970706,%MAX
PAT,P65,INI,FM,M3,5.02221892438676,%MAX
PAT,P65,REL,FM,M1,4.547081412046321,%MAX
PAT,P65,REL,FM,M2,3.961784875870655,%MAX
PAT,P65,REL,FM,M3,3.4877753132397573,%MAX
