Group,Participant,Session,Operator,Measure,Value,Unit
PAT,P09,INI,FM,M1,25.242279072313735,%subMVIC
PAT,P09,INI,FM,M2,24.166744305953213,%subMVIC
PAT,P09,INI,FM,M3,23.651309408122714,%subMVIC
PAT,P09,REL,FM,M1,18.671800215396168,%subMVIC
PAT,P09,REL,FM,M2,15.236613804246423,%subMVIC
PAT,P09,REL,FM,M3,18.961613957408556,%subMVIC
PAT,P10,INI,FM,M1,12.907441906331444,%subMVIC
PAT,P10,INI,FM,M2,10.10502505780069,%subMVIC
PAT,P10,INI,FM,M3,9.172236822529715,%subMVIC
PAT,P10,REL,FM,M1,23.87503178850153,%subMVIC
PAT,P10,REL,FM,M2,26.016457081224587,%subMVIC
PAT,P10,REL,FM,M3,22.085448507531197,%subMVIC
PAT,P11,INI,FM,M1,8.782750376599338,%subMVIC
PAT,P11,INI,FM,M2,8.50676468656403,%subMVIC
PAT,P11,INI,FM,M3,9.075251747354903,%subMVIC
PAT,P11,REL,FM,M1,10.969422783433457,%subMVIC
PAT,P11,REL,FM,M2,10.552837874419422,%subMVIC
PAT,P11,REL,FM,M3,11.059470839774969,%subMVIC
PAT,P12,INI,FM,M1,21.342730373597714,%subMVIC
PAT,P12,INI,FM,M2,26.90892321128222,%subMVIC
PAT,P12,INI,FM,M3,28.17898597686072,%subMVIC
PAT,P12,REL,FM,M1,19.000219506243226,%subMVIC
PAT,P12,REL,FM,M2,23.10565578627964,%subMVIC
PAT,P12,REL,FM,M3,22.40197587349787,%subMVIC
PAT,P14,INI,FM,M1,16.034737327206624,%subMVIC
PAT,P14,INI,FM,M2,16.92826586262633,%subMVIC
PAT,P14,INI,FM,M3,18.181797633761196,%subMVIC
PAT,P14,REL,FM,M1,41.91033717395229,%subMVIC
PAT,P14,REL,FM,M2,49.477085103711296,%subMVIC
PAT,P14,REL,FM,M3,49.034935919440066,%subMVIC
PAT,P17,INI,FM,M1,,%subMVIC
PAT,P17,INI,FM,M2,,%subMVIC
PAT,P17,INI,FM,M3,,%subMVIC
PAT,P17,REL,FM,M1,20.873349465257483,%subMVIC
PAT,P17,REL,FM,M2,21.111756864847905,%subMVIC
PAT,P17,REL,FM,M3,19.868336273946706,%subMVIC
PAT,P24,INI,FM,M1,25.885551680719544,%subMVIC
PAT,P24,INI,FM,M2,25.09821103575745,%subMVIC
PAT,P24,INI,FM,M3,22.61394050388153,%subMVIC
PAT,P24,REL,FM,M1,12.794561862851914,%subMVIC
PAT,P24,REL,FM,M2,14.51850115875502,%subMVIC
PAT,P24,REL,FM,M3,15.60393579684847,%subMVIC
PAT,P26,INI,FM,M1,26.041527784917484,%subMVIC
PAT,P26,INI,FM,M2,24.6223107181065,%subMVIC
PAT,P26,INI,FM,M3,26.400582155421024,%subMVIC
PAT,P26,REL,FM,M1,20.981093281775095,%subMVIC
PAT,P26,REL,FM,M2,24.56364160348564,%subMVIC
PAT,P26,REL,FM,M3,40.66846044137392,%subMVIC
PAT,P27,INI,FM,M1,19.92482016581814,%subMVIC
PAT,P27,INI,FM,M2,19.523357115139284,%subMVIC
PAT,P27,INI,FM,M3,18.447849606938277,%subMVIC
PAT,P27,REL,FM,M1,20.272225171733655,%subMVIC
PAT,P27,REL,FM,M2,19.368568513250974,%subMVIC
PAT,P27,REL,FM,M3,16.362677429117788,%subMVIC
PAT,P28,INI,FM,M1,25.56484595295287,%subMVIC
PAT,P28,INI,FM,M2,27.682150156648788,%subMVIC
PAT,P28,INI,FM,M3,23.637239578142577,%subMVIC
PAT,P28,REL,FM,M1,21.81825701990928,%subMVIC
PAT,P28,REL,FM,M2,25.410776449252943,%subMVIC
PAT,P28,REL,FM,M3,23.859072916022132,%subMVIC
PAT,P29,INI,FM,M1,18.13174503058571,%subMVIC
PAT,P29,INI,FM,M2,20.437842741566225,%subMVIC
PAT,P29,INI,FM,M3,18.9476153258483,%subMVIC
PAT,P29,REL,FM,M1,17.35087826405473,%subMVIC
PAT,P29,REL,FM,M2,14.036858867694677,%subMVIC
PAT,P29,REL,FM,M3,15.424456610062556,%subMVIC
PAT,P30,INI,FM,M1,22.393716395648553,%subMVIC
PAT,P30,INI,FM,M2,18.3096296622187,%subMVIC
PAT,P30,INI,FM,M3,18.556189389928495,%subMVIC
PAT,P30,REL,FM,M1,41.15680304325603,%subMVIC
PAT,P30,REL,FM,M2,39.08132978841761,%subMVIC
PAT,P30,REL,FM,M3,40.80879849846943,%subMVIC
PAT,P32,INI,FM,M1,14.520715674334346,%subMVIC
PAT,P32,INI,FM,M2,14.058397787343347,%subMVIC
PAT,P32,INI,FM,M3,12.949819449011747,%subMVIC
PAT,P32,REL,FM,M1,12.32525146104849,%subMVIC
PAT,P32,REL,FM,M2,13.11998229080497,%subMVIC
PAT,P32,REL,FM,M3,12.755266128618548,%subMVIC
PAT,P33,INI,FM,M1,24.779494084527542,%subMVIC
PAT,P33,INI,FM,M2,23.789500631288643,%subMVIC
PAT,P33,INI,FM,M3,23.242462006909232,%subMVIC
PAT,P33,REL,FM,M1,30.839805051413038,%subMVIC
PAT,P33,REL,FM,M2,29.394241134650265,%subMVIC
PAT,P33,REL,FM,M3,27.226237908406738,%subMVIC
PAT,P34,INI,FM,M1,15.704380672037448,%subMVIC
PAT,P34,INI,FM,M2,14.599820348045888,%subMVIC
PAT,P34,INI,FM,M3,13.827906601658231,%subMVIC
PAT,P34,REL,FM,M1,12.935701302823514,%subMVIC
PAT,P34,REL,FM,M2,13.033846421858742,%subMVIC
PAT,P34,REL,FM,M3,11.980558028875835,%subMVIC
PAT,P36,INI,FM,M1,13.5534807812355,%subMVIC
PAT,P36,INI,FM,M2,12.136678783531309,%subMVIC
PAT,P36,INI,FM,M3,10.406400965051985,%subMVIC
PAT,P36,REL,FM,M1,10.229631026292305,%subMVIC
PAT,P36,REL,FM,M2,11.696554040079652,%subMVIC
PAT,P36,REL,FM,M3,9.823145564221342,%subMVIC
PAT,P41,INI,FM,M1,17.55883930040476,%subMVIC
PAT,P41,INI,FM,M2,22.560840739464293,%subMVIC
PAT,P41,INI,FM,M3,18.481148074185473,%subMVIC
PAT,P41,REL,FM,M1,12.560600503500792,%subMVIC
PAT,P41,REL,FM,M2,11.228614466398751,%subMVIC
PAT,P41,REL,FM,M3,11.908625243167696,%subMVIC
PAT,P42,INI,FM,M1,16.393404057126126,%subMVIC
PAT,P42,INI,FM,M2,11.943508404157049,%subMVIC
PAT,P42,INI,FM,M3,12.167018120797488,%subMVIC
PAT,P42,REL,FM,M1,11.60649997457242,%subMVIC
PAT,P42,REL,FM,M2,11.198052652267762,%subMVIC
PAT,P42,REL,FM,M3,11.486980974713227,%subMVIC
PAT,P43,INI,FM,M1,14.84812286609709,%subMVIC
PAT,P43,INI,FM,M2,22.758597453944216,%subMVIC
PAT,P43,INI,FM,M3,17.629624360571917,%subMVIC
PAT,P43,REL,FM,M1,18.21773746069264,%subMVIC
PAT,P43,REL,FM,M2,21.868202288384133,%subMVIC
PAT,P43,REL,FM,M3,24.95991198396482,%subMVIC
PAT,P45,INI,FM,M1,18.569102661605186,%subMVIC
PAT,P45,INI,FM,M2,16.995721718166077,%subMVIC
PAT,P45,INI,FM,M3,16.40967839061643,%subMVIC
PAT,P45,REL,FM,M1,16.774679589361433,%subMVIC
PAT,P45,REL,FM,M2,17.412809897903323,%subMVIC
PAT,P45,REL,FM,M3,18.664347360892098,%subMVIC
PAT,P47,INI,FM,M1,4.5606913766740975,%subMVIC
PAT,P47,INI,FM,M2,4.785876487828917,%subMVIC
PAT,P47,INI,FM,M3,5.2334146946407385,%subMVIC
PAT,P47,REL,FM,M1,5.4025898704326565,%subMVIC
PAT,P47,REL,FM,M2,5.435525931639478,%subMVIC
PAT,P47,REL,FM,M3,5.848420433657086,%subMVIC
PAT,P50,INI,FM,M1,14.780657152479796,%subMVIC
PAT,P50,INI,FM,M2,17.764381857291184,%subMVIC
PAT,P50,INI,FM,M3,11.572918302841394,%subMVIC
PAT,P50,REL,FM,M1,12.72892273920502,%subMVIC
PAT,P50,REL,FM,M2,12.450775713028174,%subMVIC
PAT,P50,REL,FM,M3,9.89306021155878,%subMVIC
PAT,P51,INI,FM,M1,15.403005811359796,%subMVIC
PAT,P51,INI,FM,M2,16.681677549147985,%subMVIC
PAT,P51,INI,FM,M3,14.633416495667214,%subMVIC
PAT,P51,REL,FM,M1,16.16015335676716,%subMVIC
PAT,P51,REL,FM,M2,16.11166123139706,%subMVIC
PAT,P51,REL,FM,M3,14.570574043377057,%subMVIC
PAT,P53,INI,FM,M1,12.129870476057885,%subMVIC
PAT,P53,INI,FM,M2,11.647428342049087,%subMVIC
PAT,P53,INI,FM,M3,11.86298347234678,%subMVIC
PAT,P53,REL,FM,M1,34.2759577325535,%subMVIC
PAT,P53,REL,FM,M2,30.523879512095675,%subMVIC
PAT,P53,REL,FM,M3,31.24070544946626,%subMVIC
PAT,P54,INI,FM,M1,12.77213451784705,%subMVIC
PAT,P54,INI,FM,M2,12.70347049054268,%subMVIC
PAT,P54,INI,FM,M3,13.646160116793908,%subMVIC
PAT,P54,REL,FM,M1,9.842679967721931,%subMVIC
PAT,P54,REL,FM,M2,9.761627209526463,%subMVIC
PAT,P54,REL,FM,M3,9.29998075880007,%subMVIC
PAT,P58,INI,FM,M1,14.603946633544252,%subMVIC
PAT,P58,INI,FM,M2,16.265388278105984,%subMVIC
PAT,P58,INI,FM,M3,17.038037678849694,%subMVIC
PAT,P58,REL,FM,M1,40.260512157914285,%subMVIC
PAT,P58,REL,FM,M2,36.18454514273471,%subMVIC
PAT,P58,REL,FM,M3,38.61818422555582,%subMVIC
PAT,P61,REL,FM,M1,24.4503505521354,%subMVIC
PAT,P61,REL,FM,M2,25.801347947745317,%subMVIC
PAT,P61,REL,FM,M3,26.647676472264905,%subMVIC
PAT,P62,INI,FM,M1,12.827483079977272,%subMVIC
PAT,P62,INI,FM,M2,13.063633342294093,%subMVIC
PAT,P62,INI,FM,M3,12.27134368492561,%subMVIC
PAT,P62,REL,FM,M1,16.166200229054624,%subMVIC
PAT,P62,REL,FM,M2,15.453377396426475,%subMVIC
PAT,P62,REL,FM,M3,16.700539824842252,%subMVIC
PAT,P63,INI,FM,M1,24.000984783900346,%subMVIC
PAT,P63,INI,FM,M2,20.764119001185783,%subMVIC
PAT,P63,INI,FM,M3,19.803778743994553,%subMVIC
PAT,P63,REL,FM,M1,15.964271113373702,%subMVIC
PAT,P63,REL,FM,M2,15.32698244263799,%subMVIC
PAT,P63,REL,FM,M3,15.136825949284693,%subMVIC
PAT,P65,INI,FM,M1,11.176582063534777,%subMVIC
PAT,P65,INI,FM,M2,12.013699456280467,%subMVIC
PAT,P65,INI,FM,M3,10.228973981515235,%subMVIC
PAT,P65,REL,FM,M1,10.21999527504738,%subMVIC
PAT,P65,REL,FM,M2,10.793235807274442,%subMVIC
PAT,P65,REL,FM,M3,11.221688098462375,%subMVIC
