Biomarkers,Participant,Session,Task,Error
15,P30,INI,Trunk_Forward,pass
15,P30,INI,Trunk_Forward,object of type 'float' has no len()
15,P30,REL,Trunk_Forward,pass
15,P30,REL,Trunk_Forward,object of type 'float' has no len()
