Biomarkers,Participant,Session,Task,Error
103,P30,INI,Gait_Normal,pass
103,P30,INI,Gait_Normal,object of type 'float' has no len()
103,P30,REL,Gait_Normal,pass
103,P30,REL,Gait_Normal,object of type 'float' has no len()
