Biomarkers,Participant,Session,Task,Error
106,P30,INI,Gait_Normal,pass
106,P30,INI,Gait_Normal,object of type 'float' has no len()
106,P30,REL,Gait_Normal,pass
106,P30,REL,Gait_Normal,object of type 'float' has no len()
