Biomarkers,Participant,Session,Task,Error
40,P30,INI,Trunk_Forward,pass
40,P30,INI,Trunk_Forward,object of type 'float' has no len()
40,P30,REL,Trunk_Forward,pass
40,P30,REL,Trunk_Forward,object of type 'float' has no len()
