Biomarkers,Participant,Session,Task,Error
23,P30,INI,S2S_Unconstrained,pass
23,P30,INI,S2S_Unconstrained,object of type 'float' has no len()
23,P30,REL,S2S_Unconstrained,pass
23,P30,REL,S2S_Unconstrained,object of type 'float' has no len()
