Biomarkers,Participant,Session,Task,Error
34,P02,REL,Trunk_Lateral,no values
34,P30,INI,Trunk_Lateral,pass
34,P30,INI,Trunk_Lateral,no values
34,P30,REL,Trunk_Lateral,pass
34,P30,REL,Trunk_Lateral,object of type 'float' has no len()
