Biomarkers,Participant,Session,Task,Error
104,P30,INI,Gait_Normal,pass
104,P30,INI,Gait_Normal,object of type 'float' has no len()
104,P30,REL,Gait_Normal,pass
104,P30,REL,Gait_Normal,object of type 'float' has no len()
