Biomarkers,Participant,Session,Task,Error
1,P30,INI,Trunk_Forward,pass
1,P30,INI,Trunk_Forward,object of type 'float' has no len()
1,P30,REL,Trunk_Forward,pass
1,P30,REL,Trunk_Forward,object of type 'float' has no len()
