Biomarkers,Participant,Session,Task,Error
112,P30,INI,Gait_Normal,pass
112,P30,INI,Gait_Normal,object of type 'float' has no len()
112,P30,REL,Gait_Normal,pass
112,P30,REL,Gait_Normal,object of type 'float' has no len()
112,P61,INI,Gait_Normal,no values
