Biomarkers,Participant,Session,Task,Error
37,P30,INI,Trunk_Forward,pass
37,P30,INI,Trunk_Forward,object of type 'float' has no len()
37,P30,REL,Trunk_Forward,pass
37,P30,REL,Trunk_Forward,object of type 'float' has no len()
