Biomarkers,Participant,Session,Task,Error
108,P30,INI,Gait_Normal,pass
108,P30,INI,Gait_Normal,object of type 'float' has no len()
108,P30,REL,Gait_Normal,pass
108,P30,REL,Gait_Normal,object of type 'float' has no len()
