Group,Participant,Session,Operator,Measure,Value,Unit
CTR,P01,INI,FM,MEAN,69.35149085536978,%MAX
CTR,P02,INI,FM,MEAN,62.79111630099101,%MAX
CTR,P03,INI,FM,MEAN,71.72741248761484,%MAX
CTR,P05,INI,FM,MEAN,74.233913846854,%MAX
CTR,P06,INI,FM,MEAN,89.38797573855372,%MAX
CTR,P07,INI,FM,MEAN,72.89063402062706,%MAX
CTR,P08,INI,FM,MEAN,61.17991361801924,%MAX
PAT,P09,INI,FM,MEAN,80.06143526786097,%MAX
PAT,P10,INI,FM,MEAN,38.13760519925426,%MAX
PAT,P11,INI,FM,MEAN,64.64096990705075,%MAX
PAT,P12,INI,FM,MEAN,72.73895691858606,%MAX
CTR,P13,INI,FM,MEAN,61.29512212689844,%MAX
PAT,P14,INI,FM,MEAN,83.0332892079726,%MAX
CTR,P16,INI,FM,MEAN,128.38662161700486,%MAX
PAT,P17,INI,FM,MEAN,125.73477580246731,%MAX
CTR,P21,INI,FM,MEAN,129.8868944863075,%MAX
CTR,P22,INI,FM,MEAN,86.23348750028907,%MAX
CTR,P23,INI,FM,MEAN,108.66967542326348,%MAX
PAT,P24,INI,FM,MEAN,100.76598810871086,%MAX
CTR,P25,INI,FM,MEAN,140.76345760206104,%MAX
PAT,P26,INI,FM,MEAN,95.66784658586387,%MAX
PAT,P27,INI,FM,MEAN,100.40427400955372,%MAX
PAT,P28,INI,FM,MEAN,114.72348195844897,%MAX
PAT,P29,INI,FM,MEAN,89.21882982497998,%MAX
PAT,P30,INI,FM,MEAN,111.66107385947441,%MAX
PAT,P32,INI,FM,MEAN,92.8373103351247,%MAX
PAT,P33,INI,FM,MEAN,88.24221164447668,%MAX
PAT,P34,INI,FM,MEAN,92.86168500587489,%MAX
CTR,P35,INI,FM,MEAN,120.64497463351722,%MAX
PAT,P36,INI,FM,MEAN,113.98799832993262,%MAX
CTR,P38,INI,FM,MEAN,76.74280796240612,%MAX
CTR,P39,INI,FM,MEAN,85.09783732231999,%MAX
CTR,P40,INI,FM,MEAN,98.3155990609775,%MAX
PAT,P41,INI,FM,MEAN,96.78175619468925,%MAX
PAT,P42,INI,FM,MEAN,57.74630983836956,%MAX
PAT,P43,INI,FM,MEAN,106.88049988859576,%MAX
CTR,P44,INI,FM,MEAN,78.22219522195701,%MAX
PAT,P45,INI,FM,MEAN,97.21567409396548,%MAX
CTR,P46,INI,FM,MEAN,82.33254653161245,%MAX
PAT,P47,INI,FM,MEAN,82.79364452295668,%MAX
CTR,P48,INI,FM,MEAN,124.08498513875107,%MAX
CTR,P49,INI,FM,MEAN,97.24314433003558,%MAX
PAT,P50,INI,FM,MEAN,114.39640816942223,%MAX
PAT,P51,INI,FM,MEAN,83.00686489603696,%MAX
CTR,P52,INI,FM,MEAN,128.10459646769618,%MAX
PAT,P53,INI,FM,MEAN,100.65832323834633,%MAX
PAT,P54,INI,FM,MEAN,168.9406141050696,%MAX
CTR,P55,INI,FM,MEAN,196.53304274026303,%MAX
CTR,P56,INI,FM,MEAN,132.28333125951863,%MAX
CTR,P57,INI,FM,MEAN,143.52506678919198,%MAX
PAT,P58,INI,FM,MEAN,136.99416517587386,%MAX
CTR,P60,INI,FM,MEAN,138.8010494422861,%MAX
PAT,P61,INI,FM,MEAN,112.55244540694179,%MAX
PAT,P62,INI,FM,MEAN,131.1524397906954,%MAX
PAT,P63,INI,FM,MEAN,108.8696828318037,%MAX
CTR,P64,INI,FM,MEAN,172.30956296568777,%MAX
PAT,P65,INI,FM,MEAN,180.21987523208236,%MAX
CTR,P66,INI,FM,MEAN,175.33035629057747,%MAX
CTR,P67,INI,FM,MEAN,194.29216449906298,%MAX
CTR,P68,INI,FM,MEAN,160.51426232454637,%MAX
