Group,Participant,Session,Operator,Measure,Value,Unit
CTR,P01,INI,FM,MEAN,0.0026741082131986,V
CTR,P02,INI,FM,MEAN,0.0019810981756451,V
CTR,P03,INI,FM,MEAN,0.0026247756566794,V
CTR,P05,INI,FM,MEAN,0.0027335350737235,V
CTR,P06,INI,FM,MEAN,0.0027958793595211,V
CTR,P07,INI,FM,MEAN,0.0071737108986856,V
CTR,P08,INI,FM,MEAN,0.0024040305433555,V
PAT,P09,INI,FM,MEAN,0.0048425499444581,V
PAT,P10,INI,FM,MEAN,0.0040714383393728,V
PAT,P11,INI,FM,MEAN,0.004026873481258,V
PAT,P12,INI,FM,MEAN,0.004844767378365,V
CTR,P13,INI,FM,MEAN,0.0093860649375819,V
PAT,P14,INI,FM,MEAN,0.0079195287294609,V
CTR,P16,INI,FM,MEAN,0.0022742928070084,V
PAT,P17,INI,FM,MEAN,0.0029874444940463,V
CTR,P21,INI,FM,MEAN,0.0040296822898848,V
CTR,P22,INI,FM,MEAN,0.0042384096605802,V
CTR,P23,INI,FM,MEAN,0.0025104373103649,V
PAT,P24,INI,FM,MEAN,0.0066340075421908,V
CTR,P25,INI,FM,MEAN,0.004217119704227,V
PAT,P26,INI,FM,MEAN,0.003285799693022,V
PAT,P27,INI,FM,MEAN,0.0086074534905695,V
PAT,P28,INI,FM,MEAN,0.0087898134667936,V
PAT,P29,INI,FM,MEAN,0.0083758327433284,V
PAT,P30,INI,FM,MEAN,0.0047021628442722,V
PAT,P32,INI,FM,MEAN,0.0043089907218998,V
PAT,P33,INI,FM,MEAN,0.0072283405903213,V
PAT,P34,INI,FM,MEAN,0.0030722610967443,V
CTR,P35,INI,FM,MEAN,0.0030038927041913,V
PAT,P36,INI,FM,MEAN,0.0154495379440659,V
CTR,P38,INI,FM,MEAN,0.0409254435378806,V
CTR,P39,INI,FM,MEAN,0.0018772270740326,V
CTR,P40,INI,FM,MEAN,0.005698407140998,V
PAT,P41,INI,FM,MEAN,0.0025532633831652,V
PAT,P42,INI,FM,MEAN,0.0054934956720396,V
PAT,P43,INI,FM,MEAN,0.0030162986662576,V
CTR,P44,INI,FM,MEAN,0.0030207757528195,V
PAT,P45,INI,FM,MEAN,0.0058110076147893,V
CTR,P46,INI,FM,MEAN,0.0157048236797237,V
PAT,P47,INI,FM,MEAN,0.0111649203182057,V
CTR,P48,INI,FM,MEAN,0.0034348653898689,V
CTR,P49,INI,FM,MEAN,0.0027404394022015,V
PAT,P50,INI,FM,MEAN,0.0063280174274576,V
PAT,P51,INI,FM,MEAN,0.0062253456265049,V
CTR,P52,INI,FM,MEAN,0.0037195496478823,V
PAT,P53,INI,FM,MEAN,0.0163482212942683,V
PAT,P54,INI,FM,MEAN,0.0024466005092501,V
CTR,P55,INI,FM,MEAN,0.0034557819113758,V
CTR,P56,INI,FM,MEAN,0.0034618862459732,V
CTR,P57,INI,FM,MEAN,0.0014918111025758,V
PAT,P58,INI,FM,MEAN,0.0049787583318212,V
CTR,P60,INI,FM,MEAN,0.0040698717369574,V
PAT,P61,INI,FM,MEAN,0.0024553371586376,V
PAT,P62,INI,FM,MEAN,0.0133826854001596,V
PAT,P63,INI,FM,MEAN,0.0074153542527313,V
CTR,P64,INI,FM,MEAN,0.0028022618580789,V
PAT,P65,INI,FM,MEAN,0.0028061463817596,V
CTR,P66,INI,FM,MEAN,0.0035767381747555,V
CTR,P67,INI,FM,MEAN,0.0065093205745283,V
CTR,P68,INI,FM,MEAN,0.0290411421289082,V
