Group,Participant,Session,Operator,Measure,Value,Unit
CTR,P01,INI,FM,MEAN,42.147522140741216,%subMVIC
CTR,P02,INI,FM,MEAN,51.77118018283662,%subMVIC
CTR,P03,INI,FM,MEAN,64.55456810400258,%subMVIC
CTR,P05,INI,FM,MEAN,32.094475009832834,%subMVIC
CTR,P06,INI,FM,MEAN,64.04293832750221,%subMVIC
CTR,P07,INI,FM,MEAN,45.103991654422025,%subMVIC
CTR,P08,INI,FM,MEAN,95.90293970644062,%subMVIC
PAT,P09,INI,FM,MEAN,31.013120264680868,%subMVIC
PAT,P10,INI,FM,MEAN,73.86219596899359,%subMVIC
PAT,P11,INI,FM,MEAN,26.46604021758044,%subMVIC
PAT,P12,INI,FM,MEAN,58.60575313161153,%subMVIC
CTR,P13,INI,FM,MEAN,26.269375002541537,%subMVIC
PAT,P14,INI,FM,MEAN,83.14136729153975,%subMVIC
CTR,P16,INI,FM,MEAN,77.15727046344843,%subMVIC
PAT,P17,INI,FM,MEAN,1576.6035787019332,%subMVIC
CTR,P21,INI,FM,MEAN,20.579710297988328,%subMVIC
CTR,P22,INI,FM,MEAN,25.6580179121758,%subMVIC
CTR,P23,INI,FM,MEAN,701.95602363254,%subMVIC
PAT,P24,INI,FM,MEAN,47.07742404596989,%subMVIC
CTR,P25,INI,FM,MEAN,80.8503685369076,%subMVIC
PAT,P26,INI,FM,MEAN,71.9408352190873,%subMVIC
PAT,P27,INI,FM,MEAN,33.77875208119173,%subMVIC
PAT,P28,INI,FM,MEAN,86.68637532923104,%subMVIC
PAT,P29,INI,FM,MEAN,30.604217144296626,%subMVIC
PAT,P30,INI,FM,MEAN,26.20725188798788,%subMVIC
PAT,P32,INI,FM,MEAN,29.1661374717339,%subMVIC
PAT,P33,INI,FM,MEAN,13.766745967754927,%subMVIC
PAT,P34,INI,FM,MEAN,31.50982980287352,%subMVIC
CTR,P35,INI,FM,MEAN,20.577062293328215,%subMVIC
PAT,P36,INI,FM,MEAN,10.450677029225997,%subMVIC
CTR,P38,INI,FM,MEAN,46.50167498096774,%subMVIC
CTR,P39,INI,FM,MEAN,16.22734334811177,%subMVIC
CTR,P40,INI,FM,MEAN,19.490216331332636,%subMVIC
PAT,P41,INI,FM,MEAN,8.989392874599924,%subMVIC
PAT,P42,INI,FM,MEAN,43.857492019533076,%subMVIC
PAT,P43,INI,FM,MEAN,41.31070095250941,%subMVIC
CTR,P44,INI,FM,MEAN,18.413011711026208,%subMVIC
PAT,P45,INI,FM,MEAN,32.19849899812136,%subMVIC
CTR,P46,INI,FM,MEAN,19.63375715072475,%subMVIC
PAT,P47,INI,FM,MEAN,262.6944304668138,%subMVIC
CTR,P48,INI,FM,MEAN,29.83114506139149,%subMVIC
CTR,P49,INI,FM,MEAN,36.248723411667605,%subMVIC
PAT,P50,INI,FM,MEAN,40.48182028426887,%subMVIC
PAT,P51,INI,FM,MEAN,28.164340858137255,%subMVIC
CTR,P52,INI,FM,MEAN,18.713008592050038,%subMVIC
PAT,P53,INI,FM,MEAN,17.3823797802897,%subMVIC
PAT,P54,INI,FM,MEAN,47.03504594730237,%subMVIC
CTR,P55,INI,FM,MEAN,35.31620585022694,%subMVIC
CTR,P56,INI,FM,MEAN,24.516389604454453,%subMVIC
CTR,P57,INI,FM,MEAN,12.55581156941933,%subMVIC
PAT,P58,INI,FM,MEAN,17.258556990236347,%subMVIC
CTR,P60,INI,FM,MEAN,12.922418378397177,%subMVIC
PAT,P62,INI,FM,MEAN,20.955214498417607,%subMVIC
PAT,P63,INI,FM,MEAN,44.42010540594075,%subMVIC
CTR,P64,INI,FM,MEAN,21.178959750258247,%subMVIC
PAT,P65,INI,FM,MEAN,24.148470331742143,%subMVIC
CTR,P66,INI,FM,MEAN,24.675081327553485,%subMVIC
CTR,P67,INI,FM,MEAN,23.688427348775804,%subMVIC
CTR,P68,INI,FM,MEAN,38.94377877097977,%subMVIC
