Group,Participant,Session,Operator,Measure,Value,Unit
CTR,P01,INI,FM,DIFFERENCE,0.0021665276743739,V
CTR,P02,INI,FM,DIFFERENCE,0.0005930209460152,V
CTR,P03,INI,FM,DIFFERENCE,0.0003659869693576,V
CTR,P05,INI,FM,DIFFERENCE,0.0019001743471461,V
CTR,P06,INI,FM,DIFFERENCE,0.0003944176268586,V
CTR,P07,INI,FM,DIFFERENCE,0.0030996839265779,V
CTR,P08,INI,FM,DIFFERENCE,0.0004537834799211,V
PAT,P09,INI,FM,DIFFERENCE,0.0013602290065904,V
PAT,P10,INI,FM,DIFFERENCE,0.0006773374784027,V
PAT,P11,INI,FM,DIFFERENCE,0.0009512896329206,V
PAT,P12,INI,FM,DIFFERENCE,0.0010636061266479,V
CTR,P13,INI,FM,DIFFERENCE,0.0076601583084259,V
PAT,P14,INI,FM,DIFFERENCE,0.0016884905479057,V
CTR,P16,INI,FM,DIFFERENCE,0.0006083789088382,V
PAT,P17,INI,FM,DIFFERENCE,0.0073264727563063,V
CTR,P21,INI,FM,DIFFERENCE,0.0039596128901889,V
CTR,P22,INI,FM,DIFFERENCE,0.0023924993004606,V
CTR,P23,INI,FM,DIFFERENCE,0.0007489616302071,V
PAT,P24,INI,FM,DIFFERENCE,0.0013032799923114,V
CTR,P25,INI,FM,DIFFERENCE,0.0038788559372909,V
PAT,P26,INI,FM,DIFFERENCE,0.0014512824686631,V
PAT,P27,INI,FM,DIFFERENCE,0.0018110931552645,V
PAT,P28,INI,FM,DIFFERENCE,0.0023326810597944,V
PAT,P29,INI,FM,DIFFERENCE,0.011040672359411,V
PAT,P30,INI,FM,DIFFERENCE,0.0011450118428219,V
PAT,P32,INI,FM,DIFFERENCE,0.0008286714438929,V
PAT,P33,INI,FM,DIFFERENCE,0.0015754531677254,V
PAT,P34,INI,FM,DIFFERENCE,0.0007467828595553,V
CTR,P35,INI,FM,DIFFERENCE,0.00415226827446,V
PAT,P36,INI,FM,DIFFERENCE,0.0050071340103722,V
CTR,P38,INI,FM,DIFFERENCE,0.0199836864745883,V
CTR,P39,INI,FM,DIFFERENCE,0.003532482762942,V
CTR,P40,INI,FM,DIFFERENCE,0.0086552916276793,V
PAT,P41,INI,FM,DIFFERENCE,0.0007425448887375,V
PAT,P42,INI,FM,DIFFERENCE,0.0077481774079676,V
PAT,P43,INI,FM,DIFFERENCE,0.001752860862198,V
CTR,P44,INI,FM,DIFFERENCE,0.0019315393065715,V
PAT,P45,INI,FM,DIFFERENCE,0.0026436821063659,V
CTR,P46,INI,FM,DIFFERENCE,0.0111047421809208,V
PAT,P47,INI,FM,DIFFERENCE,0.001738557685169,V
CTR,P48,INI,FM,DIFFERENCE,0.0100921304226543,V
CTR,P49,INI,FM,DIFFERENCE,0.0019052441424816,V
PAT,P50,INI,FM,DIFFERENCE,0.002550179183536,V
PAT,P51,INI,FM,DIFFERENCE,0.0011559046044088,V
CTR,P52,INI,FM,DIFFERENCE,0.0024088376003642,V
PAT,P53,INI,FM,DIFFERENCE,0.0016703036339054,V
PAT,P54,INI,FM,DIFFERENCE,0.0005692012910168,V
CTR,P55,INI,FM,DIFFERENCE,0.0045236141668619,V
CTR,P56,INI,FM,DIFFERENCE,0.0025984148887186,V
CTR,P57,INI,FM,DIFFERENCE,0.0002626936779721,V
PAT,P58,INI,FM,DIFFERENCE,0.0005083053158512,V
CTR,P60,INI,FM,DIFFERENCE,0.0032589385060254,V
PAT,P61,INI,FM,DIFFERENCE,0.0014600383045336,V
PAT,P62,INI,FM,DIFFERENCE,0.0036322359057224,V
PAT,P63,INI,FM,DIFFERENCE,0.0042880066783321,V
CTR,P64,INI,FM,DIFFERENCE,0.0070961010062314,V
PAT,P65,INI,FM,DIFFERENCE,0.0016969096055632,V
CTR,P66,INI,FM,DIFFERENCE,0.0007807171586354,V
CTR,P67,INI,FM,DIFFERENCE,0.0119254210865124,V
CTR,P68,INI,FM,DIFFERENCE,0.0134477116014089,V
