Group,Participant,Session,Operator,Measure,Value,Unit
CTR,P01,INI,FM,MEAN,13.04043976964284,%MAX
CTR,P02,INI,FM,MEAN,12.155911349811657,%MAX
CTR,P03,INI,FM,MEAN,11.800524957471556,%MAX
CTR,P05,INI,FM,MEAN,10.325112081953032,%MAX
CTR,P06,INI,FM,MEAN,26.286517080308254,%MAX
CTR,P07,INI,FM,MEAN,11.035437386970013,%MAX
CTR,P08,INI,FM,MEAN,8.225601988221877,%MAX
PAT,P09,INI,FM,MEAN,24.178531777008445,%MAX
PAT,P10,INI,FM,MEAN,6.808010388934809,%MAX
PAT,P11,INI,FM,MEAN,9.401050934443427,%MAX
PAT,P12,INI,FM,MEAN,13.16627103295121,%MAX
CTR,P13,INI,FM,MEAN,9.306491357150897,%MAX
PAT,P14,INI,FM,MEAN,19.962166450022874,%MAX
CTR,P16,INI,FM,MEAN,33.977389387825475,%MAX
PAT,P17,INI,FM,MEAN,20.545090688952865,%MAX
CTR,P21,INI,FM,MEAN,31.509988919543236,%MAX
CTR,P22,INI,FM,MEAN,16.49282048837202,%MAX
CTR,P23,INI,FM,MEAN,26.269491631214773,%MAX
PAT,P24,INI,FM,MEAN,19.144517998226174,%MAX
CTR,P25,INI,FM,MEAN,31.060721798200387,%MAX
PAT,P26,INI,FM,MEAN,21.10820313826736,%MAX
PAT,P27,INI,FM,MEAN,18.61997686103329,%MAX
PAT,P28,INI,FM,MEAN,32.11542858069921,%MAX
PAT,P29,INI,FM,MEAN,23.782110395436856,%MAX
PAT,P30,INI,FM,MEAN,26.66478306163186,%MAX
PAT,P32,INI,FM,MEAN,16.631189380138267,%MAX
PAT,P33,INI,FM,MEAN,16.583637338805318,%MAX
PAT,P34,INI,FM,MEAN,32.99383691542449,%MAX
CTR,P35,INI,FM,MEAN,31.329405164523557,%MAX
PAT,P36,INI,FM,MEAN,14.7703023167815,%MAX
CTR,P38,INI,FM,MEAN,35.59299469621241,%MAX
CTR,P39,INI,FM,MEAN,20.521855969227776,%MAX
CTR,P40,INI,FM,MEAN,20.213612151954823,%MAX
PAT,P41,INI,FM,MEAN,11.571133859569278,%MAX
PAT,P42,INI,FM,MEAN,9.879028350621951,%MAX
PAT,P43,INI,FM,MEAN,13.067868265017879,%MAX
CTR,P44,INI,FM,MEAN,9.564451148661602,%MAX
PAT,P45,INI,FM,MEAN,31.65206035607047,%MAX
CTR,P46,INI,FM,MEAN,14.777204403034313,%MAX
PAT,P47,INI,FM,MEAN,8.5119794353834,%MAX
CTR,P48,INI,FM,MEAN,24.315779701829058,%MAX
CTR,P49,INI,FM,MEAN,17.454681809534886,%MAX
PAT,P50,INI,FM,MEAN,22.233380019811865,%MAX
PAT,P51,INI,FM,MEAN,20.099962720727643,%MAX
CTR,P52,INI,FM,MEAN,33.106258839236766,%MAX
PAT,P53,INI,FM,MEAN,33.03105088082682,%MAX
PAT,P54,INI,FM,MEAN,60.98627988856767,%MAX
CTR,P55,INI,FM,MEAN,40.11203590759108,%MAX
CTR,P56,INI,FM,MEAN,24.513059532324807,%MAX
CTR,P57,INI,FM,MEAN,36.39665580350899,%MAX
PAT,P58,INI,FM,MEAN,53.488438390353814,%MAX
CTR,P60,INI,FM,MEAN,20.967257866267474,%MAX
PAT,P61,INI,FM,MEAN,29.519498573547196,%MAX
PAT,P62,INI,FM,MEAN,27.02983771275282,%MAX
PAT,P63,INI,FM,MEAN,31.0022099721992,%MAX
CTR,P64,INI,FM,MEAN,44.44990899804726,%MAX
PAT,P65,INI,FM,MEAN,33.01679408551242,%MAX
CTR,P66,INI,FM,MEAN,25.92248315771703,%MAX
CTR,P67,INI,FM,MEAN,53.81724979422098,%MAX
CTR,P68,INI,FM,MEAN,45.10345901855409,%MAX
