Group,Participant,Session,Operator,Measure,Value,Unit
CTR,P01,INI,FM,MEAN,59.8122865906346,%MAX
CTR,P02,INI,FM,MEAN,9.717399510307787,%MAX
CTR,P03,INI,FM,MEAN,26.029028471863178,%MAX
CTR,P05,INI,FM,MEAN,16.59122366710978,%MAX
CTR,P06,INI,FM,MEAN,31.651848407753523,%MAX
CTR,P07,INI,FM,MEAN,22.798301249918513,%MAX
CTR,P08,INI,FM,MEAN,11.687344842401862,%MAX
PAT,P09,INI,FM,MEAN,37.5072878963611,%MAX
PAT,P10,INI,FM,MEAN,11.35189449320428,%MAX
PAT,P11,INI,FM,MEAN,8.7350857214729,%MAX
PAT,P12,INI,FM,MEAN,20.380724071756653,%MAX
CTR,P13,INI,FM,MEAN,24.361740519870622,%MAX
PAT,P14,INI,FM,MEAN,34.70863034853723,%MAX
CTR,P16,INI,FM,MEAN,23.355657219790018,%MAX
PAT,P17,INI,FM,MEAN,45.204573880792395,%MAX
CTR,P21,INI,FM,MEAN,60.68321272950917,%MAX
CTR,P22,INI,FM,MEAN,50.637420193970975,%MAX
CTR,P23,INI,FM,MEAN,47.382732380578226,%MAX
PAT,P24,INI,FM,MEAN,32.15436119958264,%MAX
CTR,P25,INI,FM,MEAN,49.238495347428355,%MAX
PAT,P26,INI,FM,MEAN,32.69083152136191,%MAX
PAT,P27,INI,FM,MEAN,30.713730023428216,%MAX
PAT,P28,INI,FM,MEAN,22.6644754289033,%MAX
PAT,P29,INI,FM,MEAN,28.48171841530108,%MAX
PAT,P30,INI,FM,MEAN,25.986257870911068,%MAX
PAT,P32,INI,FM,MEAN,40.43825158156254,%MAX
PAT,P33,INI,FM,MEAN,28.036614008627613,%MAX
PAT,P34,INI,FM,MEAN,34.27136624651032,%MAX
CTR,P35,INI,FM,MEAN,29.62934847650525,%MAX
PAT,P36,INI,FM,MEAN,58.110085482203075,%MAX
CTR,P38,INI,FM,MEAN,16.483933620049154,%MAX
CTR,P39,INI,FM,MEAN,32.01425164978264,%MAX
CTR,P40,INI,FM,MEAN,30.130692783528776,%MAX
PAT,P41,INI,FM,MEAN,21.8787030584034,%MAX
PAT,P42,INI,FM,MEAN,12.8793205790222,%MAX
PAT,P43,INI,FM,MEAN,24.335719125270565,%MAX
CTR,P44,INI,FM,MEAN,36.94256350849458,%MAX
PAT,P45,INI,FM,MEAN,37.441605886390235,%MAX
CTR,P46,INI,FM,MEAN,33.310873785561576,%MAX
PAT,P47,INI,FM,MEAN,22.293014903214146,%MAX
CTR,P48,INI,FM,MEAN,31.554608819294092,%MAX
CTR,P49,INI,FM,MEAN,29.476557559326373,%MAX
PAT,P50,INI,FM,MEAN,32.441965341359236,%MAX
PAT,P51,INI,FM,MEAN,16.63416343505337,%MAX
CTR,P52,INI,FM,MEAN,54.64952185780053,%MAX
PAT,P53,INI,FM,MEAN,35.679817243328905,%MAX
PAT,P54,INI,FM,MEAN,122.69589982652352,%MAX
CTR,P55,INI,FM,MEAN,76.13764021394857,%MAX
CTR,P56,INI,FM,MEAN,51.307668189765984,%MAX
CTR,P57,INI,FM,MEAN,13.42469743626344,%MAX
PAT,P58,INI,FM,MEAN,56.52439785094082,%MAX
CTR,P60,INI,FM,MEAN,46.62751423069967,%MAX
PAT,P61,INI,FM,MEAN,41.028475709378235,%MAX
PAT,P62,INI,FM,MEAN,45.1223510549895,%MAX
PAT,P63,INI,FM,MEAN,34.51437676687134,%MAX
CTR,P64,INI,FM,MEAN,72.29432824704867,%MAX
PAT,P65,INI,FM,MEAN,51.98080347674391,%MAX
CTR,P66,INI,FM,MEAN,44.47213316165646,%MAX
CTR,P67,INI,FM,MEAN,50.442802297300034,%MAX
CTR,P68,INI,FM,MEAN,73.02287803711476,%MAX
