Group,Participant,Session,Operator,Measure,Value,Unit
CTR,P01,INI,FM,MEAN,0.00818094785314863,V
CTR,P02,INI,FM,MEAN,1.0986286491825614,V
CTR,P03,INI,FM,MEAN,0.01291608240637015,V
CTR,P05,INI,FM,MEAN,0.006351446774899025,V
CTR,P06,INI,FM,MEAN,0.00803021041357047,V
CTR,P07,INI,FM,MEAN,0.025941770421195342,V
CTR,P08,INI,FM,MEAN,0.005533114787732301,V
PAT,P09,INI,FM,MEAN,0.0047520675160872,V
PAT,P10,INI,FM,MEAN,0.0146830933272449,V
PAT,P11,INI,FM,MEAN,0.007283196684187966,V
PAT,P12,INI,FM,MEAN,0.0068764209161433195,V
CTR,P13,INI,FM,MEAN,0.008752717960743455,V
PAT,P14,INI,FM,MEAN,0.007704944879897356,V
CTR,P16,INI,FM,MEAN,0.004449785260780617,V
PAT,P17,INI,FM,MEAN,0.00873866936213007,V
CTR,P21,INI,FM,MEAN,0.005634750043779249,V
CTR,P22,INI,FM,MEAN,0.010924637677589433,V
CTR,P23,INI,FM,MEAN,0.008478627592698714,V
PAT,P24,INI,FM,MEAN,0.009576212894972425,V
CTR,P25,INI,FM,MEAN,0.027224829324102872,V
PAT,P26,INI,FM,MEAN,0.006248264374715115,V
PAT,P27,INI,FM,MEAN,0.008395499966140233,V
PAT,P28,INI,FM,MEAN,0.008661623049915,V
PAT,P29,INI,FM,MEAN,0.02163874981905073,V
PAT,P30,INI,FM,MEAN,0.006045839147152711,V
PAT,P32,INI,FM,MEAN,0.0055062122485039855,V
PAT,P33,INI,FM,MEAN,0.006297939987924683,V
PAT,P34,INI,FM,MEAN,0.004244867417979787,V
CTR,P35,INI,FM,MEAN,0.0120120332567664,V
PAT,P36,INI,FM,MEAN,0.0127835643129028,V
CTR,P38,INI,FM,MEAN,1.550938966402886,V
CTR,P39,INI,FM,MEAN,0.007692407910754634,V
CTR,P40,INI,FM,MEAN,0.011637486968826482,V
PAT,P41,INI,FM,MEAN,0.0075183372144947,V
PAT,P42,INI,FM,MEAN,0.0172324811034228,V
PAT,P43,INI,FM,MEAN,0.0073911555128445255,V
CTR,P44,INI,FM,MEAN,0.010272985405328386,V
PAT,P45,INI,FM,MEAN,0.00959138390041625,V
CTR,P46,INI,FM,MEAN,0.006643156436982216,V
PAT,P47,INI,FM,MEAN,0.0056454566745014,V
CTR,P48,INI,FM,MEAN,0.027243622560778877,V
CTR,P49,INI,FM,MEAN,0.0147848451591429,V
PAT,P50,INI,FM,MEAN,0.01899179543998165,V
PAT,P51,INI,FM,MEAN,0.002802691810874933,V
CTR,P52,INI,FM,MEAN,0.009897223196181,V
PAT,P53,INI,FM,MEAN,0.007238620661239599,V
PAT,P54,INI,FM,MEAN,0.00723349767623596,V
CTR,P55,INI,FM,MEAN,0.007836330683477815,V
CTR,P56,INI,FM,MEAN,0.010003989698205614,V
CTR,P57,INI,FM,MEAN,0.0030132166421791627,V
PAT,P58,INI,FM,MEAN,0.0035289761355388333,V
CTR,P60,INI,FM,MEAN,0.005933194848682217,V
PAT,P61,INI,FM,MEAN,0.0137734581290577,V
PAT,P62,INI,FM,MEAN,0.006474433576797614,V
PAT,P63,INI,FM,MEAN,0.0221341770678781,V
CTR,P64,INI,FM,MEAN,0.0106772447146331,V
PAT,P65,INI,FM,MEAN,0.012769890930388333,V
CTR,P66,INI,FM,MEAN,0.0083326074102448,V
CTR,P67,INI,FM,MEAN,0.0324357907072137,V
CTR,P68,INI,FM,MEAN,0.029691704889609417,V
