Group,Participant,Session,Operator,Measure,Value,Unit
CTR,P01,INI,FM,MF,30.851111013570986,Hz
CTR,P02,INI,FM,MF,77.15450030958624,Hz
CTR,P03,INI,FM,MF,67.17144347668939,Hz
CTR,P05,INI,FM,MF,101.58763591030105,Hz
CTR,P06,INI,FM,MF,84.26891050096172,Hz
CTR,P07,INI,FM,MF,95.74114787701797,Hz
CTR,P08,INI,FM,MF,74.58805654549572,Hz
PAT,P09,INI,FM,MF,98.401706737795,Hz
PAT,P10,INI,FM,MF,27.3156200050836,Hz
PAT,P11,INI,FM,MF,38.1751922904235,Hz
PAT,P12,INI,FM,MF,78.04021733762006,Hz
CTR,P13,INI,FM,MF,74.63495603938793,Hz
PAT,P14,INI,FM,MF,67.46309257140322,Hz
CTR,P16,INI,FM,MF,28.080696659162147,Hz
PAT,P17,INI,FM,MF,76.45221593998,Hz
CTR,P21,INI,FM,MF,62.09235309474837,Hz
CTR,P22,INI,FM,MF,30.814142330356912,Hz
CTR,P23,INI,FM,MF,42.602708809490565,Hz
PAT,P24,INI,FM,MF,71.33712577036944,Hz
CTR,P25,INI,FM,MF,98.1361001296407,Hz
PAT,P26,INI,FM,MF,29.10473262855614,Hz
PAT,P27,INI,FM,MF,59.98178389158962,Hz
PAT,P28,INI,FM,MF,90.3503734113438,Hz
PAT,P29,INI,FM,MF,78.22472142328245,Hz
PAT,P30,INI,FM,MF,36.668994390746,Hz
PAT,P32,INI,FM,MF,94.83992530556364,Hz
PAT,P33,INI,FM,MF,69.22781231375332,Hz
PAT,P34,INI,FM,MF,25.37479664073709,Hz
CTR,P35,INI,FM,MF,91.46965159539542,Hz
PAT,P36,INI,FM,MF,79.37589477564683,Hz
CTR,P38,INI,FM,MF,70.38045081632602,Hz
CTR,P39,INI,FM,MF,74.18693427098113,Hz
CTR,P40,INI,FM,MF,110.76592220605598,Hz
PAT,P41,INI,FM,MF,70.23109936722794,Hz
PAT,P42,INI,FM,MF,75.35806315030152,Hz
PAT,P43,INI,FM,MF,61.9729295165269,Hz
CTR,P44,INI,FM,MF,77.34832366995319,Hz
PAT,P45,INI,FM,MF,51.173111437234354,Hz
CTR,P46,INI,FM,MF,51.39599436310243,Hz
PAT,P47,INI,FM,MF,61.19951589074693,Hz
CTR,P48,INI,FM,MF,95.79751329277468,Hz
CTR,P49,INI,FM,MF,92.22358302035218,Hz
PAT,P50,INI,FM,MF,39.79807960534542,Hz
PAT,P51,INI,FM,MF,60.77270737298892,Hz
CTR,P52,INI,FM,MF,90.37775437897037,Hz
PAT,P53,INI,FM,MF,85.00946901177056,Hz
PAT,P54,INI,FM,MF,74.26947897773518,Hz
CTR,P55,INI,FM,MF,57.75345134562942,Hz
CTR,P56,INI,FM,MF,47.641291253498046,Hz
CTR,P57,INI,FM,MF,45.38736816298075,Hz
PAT,P58,INI,FM,MF,29.703220841232447,Hz
CTR,P60,INI,FM,MF,88.0723126928694,Hz
PAT,P61,INI,FM,MF,62.99889880060143,Hz
PAT,P62,INI,FM,MF,67.21329776315243,Hz
PAT,P63,INI,FM,MF,84.81857076173367,Hz
CTR,P64,INI,FM,MF,73.25023623502175,Hz
PAT,P65,INI,FM,MF,81.84296025685428,Hz
CTR,P66,INI,FM,MF,37.96094731244389,Hz
CTR,P67,INI,FM,MF,69.70276675045726,Hz
CTR,P68,INI,FM,MF,80.17103568605468,Hz
