Group,Participant,Session,Operator,Measure,Value,Unit
CTR,P01,INI,FM,RMS,0.0209537599609513,V
CTR,P02,INI,FM,RMS,0.0342759517489405,V
CTR,P03,INI,FM,RMS,0.0184165386887722,V
CTR,P05,INI,FM,RMS,0.008074908179045,V
CTR,P06,INI,FM,RMS,0.0043256117085976,V
CTR,P07,INI,FM,RMS,0.0178662518497361,V
CTR,P08,INI,FM,RMS,0.0106706554891893,V
PAT,P09,INI,FM,RMS,0.0106989116078172,V
PAT,P10,INI,FM,RMS,0.0150756087196714,V
PAT,P11,INI,FM,RMS,0.0109703069712485,V
PAT,P12,INI,FM,RMS,0.009662886500849,V
CTR,P13,INI,FM,RMS,0.0129370682434619,V
PAT,P14,INI,FM,RMS,0.0125549680177143,V
CTR,P16,INI,FM,RMS,0.0073835773580937,V
PAT,P17,INI,FM,RMS,0.0152931938302553,V
CTR,P21,INI,FM,RMS,0.0201662546448084,V
CTR,P22,INI,FM,RMS,0.0117016787142157,V
CTR,P23,INI,FM,RMS,0.0106514314193406,V
PAT,P24,INI,FM,RMS,0.0114994421690168,V
CTR,P25,INI,FM,RMS,0.02073663962125,V
PAT,P26,INI,FM,RMS,0.0099482704370203,V
PAT,P27,INI,FM,RMS,0.0159455235388594,V
PAT,P28,INI,FM,RMS,0.0094887083646126,V
PAT,P29,INI,FM,RMS,0.0397521155773451,V
PAT,P30,INI,FM,RMS,0.0078071642543914,V
PAT,P32,INI,FM,RMS,0.0088937208081453,V
PAT,P33,INI,FM,RMS,0.0057467701725787,V
PAT,P34,INI,FM,RMS,,V
CTR,P35,INI,FM,RMS,,V
PAT,P36,INI,FM,RMS,0.0283516441597974,V
CTR,P38,INI,FM,RMS,0.0333850115661694,V
CTR,P39,INI,FM,RMS,0.0076802616132009,V
CTR,P40,INI,FM,RMS,0.0320719235121553,V
PAT,P41,INI,FM,RMS,0.0330239301839799,V
PAT,P42,INI,FM,RMS,0.0312730202379356,V
PAT,P43,INI,FM,RMS,0.0135120143435548,V
CTR,P44,INI,FM,RMS,0.0370233149946249,V
PAT,P45,INI,FM,RMS,,V
CTR,P46,INI,FM,RMS,0.0204157600358625,V
PAT,P47,INI,FM,RMS,0.0092593954463618,V
CTR,P48,INI,FM,RMS,0.0266642152579411,V
CTR,P49,INI,FM,RMS,0.0277181141835343,V
PAT,P50,INI,FM,RMS,0.0186158325251186,V
PAT,P51,INI,FM,RMS,0.0071562797637887,V
CTR,P52,INI,FM,RMS,0.0216581032007192,V
PAT,P53,INI,FM,RMS,0.0099147354737623,V
PAT,P54,INI,FM,RMS,0.0249533186664249,V
CTR,P55,INI,FM,RMS,0.0067507419917574,V
CTR,P56,INI,FM,RMS,0.0193392773658277,V
CTR,P57,INI,FM,RMS,0.006012509438539,V
PAT,P58,INI,FM,RMS,0.006897959430721,V
CTR,P60,INI,FM,RMS,0.0099773719869096,V
PAT,P61,INI,FM,RMS,0.0171922024254399,V
PAT,P62,INI,FM,RMS,0.0105085321972162,V
PAT,P63,INI,FM,RMS,,V
CTR,P64,INI,FM,RMS,0.0232464065444033,V
PAT,P65,INI,FM,RMS,0.0196517437842309,V
CTR,P66,INI,FM,RMS,0.0118605301680215,V
CTR,P67,INI,FM,RMS,0.04188006564855,V
CTR,P68,INI,FM,RMS,,V
