Group,Participant,Session,Operator,Measure,Value,Unit
CTR,P01,INI,FM,RMS,0.0023927625688749,V
CTR,P02,INI,FM,RMS,0.0305079350473633,V
CTR,P03,INI,FM,RMS,0.0038257056767763,V
CTR,P05,INI,FM,RMS,0.0061469287836402,V
CTR,P06,INI,FM,RMS,0.0020363459723914,V
CTR,P07,INI,FM,RMS,0.0065973628790819,V
CTR,P08,INI,FM,RMS,0.0038723709420152,V
PAT,P09,INI,FM,RMS,0.0036700203042899,V
PAT,P10,INI,FM,RMS,0.0038325261262552,V
PAT,P11,INI,FM,RMS,0.0029033585590763,V
PAT,P12,INI,FM,RMS,0.0206435333312478,V
CTR,P13,INI,FM,RMS,0.0085002803845717,V
PAT,P14,INI,FM,RMS,0.004170472398878,V
CTR,P16,INI,FM,RMS,0.0035450448267741,V
PAT,P17,INI,FM,RMS,0.0145235398081419,V
CTR,P21,INI,FM,RMS,0.0056531792842753,V
CTR,P22,INI,FM,RMS,0.0306529411796634,V
CTR,P23,INI,FM,RMS,0.0065217378532146,V
PAT,P24,INI,FM,RMS,0.0048320430848501,V
CTR,P25,INI,FM,RMS,0.0053571469453865,V
PAT,P26,INI,FM,RMS,0.0072113161783588,V
PAT,P27,INI,FM,RMS,0.0050173234198486,V
PAT,P28,INI,FM,RMS,0.0048075911216457,V
PAT,P29,INI,FM,RMS,0.0122019129369656,V
PAT,P30,INI,FM,RMS,0.0034534865089762,V
PAT,P32,INI,FM,RMS,0.0040932081644227,V
PAT,P33,INI,FM,RMS,0.0104913811998797,V
PAT,P34,INI,FM,RMS,0.0049290622554201,V
CTR,P35,INI,FM,RMS,0.0069391169985004,V
PAT,P36,INI,FM,RMS,0.00857058231958,V
CTR,P38,INI,FM,RMS,0.0055664326874024,V
CTR,P39,INI,FM,RMS,0.0038210211305167,V
CTR,P40,INI,FM,RMS,0.0066660021919497,V
PAT,P41,INI,FM,RMS,0.0059443786248983,V
PAT,P42,INI,FM,RMS,0.0101407372003262,V
PAT,P43,INI,FM,RMS,0.004096016149324,V
CTR,P44,INI,FM,RMS,0.0108530969503275,V
PAT,P45,INI,FM,RMS,0.0030743202606227,V
CTR,P46,INI,FM,RMS,0.0050469218196796,V
PAT,P47,INI,FM,RMS,0.0165944860507549,V
CTR,P48,INI,FM,RMS,0.0119290142665259,V
CTR,P49,INI,FM,RMS,0.0092203460684785,V
PAT,P50,INI,FM,RMS,0.0058537891132302,V
PAT,P51,INI,FM,RMS,0.0113884254905512,V
CTR,P52,INI,FM,RMS,0.0058683393420999,V
PAT,P53,INI,FM,RMS,0.0041708704683884,V
PAT,P54,INI,FM,RMS,0.0055337427763909,V
CTR,P55,INI,FM,RMS,0.0044049603864234,V
CTR,P56,INI,FM,RMS,0.0039845098884945,V
CTR,P57,INI,FM,RMS,0.0029211887938011,V
PAT,P58,INI,FM,RMS,0.0063127321936456,V
CTR,P60,INI,FM,RMS,0.0072926793289903,V
PAT,P61,INI,FM,RMS,0.0044572745709116,V
PAT,P62,INI,FM,RMS,0.0108932908066104,V
PAT,P63,INI,FM,RMS,0.0077218132012388,V
CTR,P64,INI,FM,RMS,0.0136222768695908,V
PAT,P65,INI,FM,RMS,0.010235654072031,V
CTR,P66,INI,FM,RMS,0.0071898589285847,V
CTR,P67,INI,FM,RMS,0.0086862554107355,V
CTR,P68,INI,FM,RMS,0.0085892465792426,V
