Group,Participant,Session,Operator,Measure,Value,Unit
CTR,P01,INI,FM,MEAN,0.0030359281826109,V
CTR,P02,INI,FM,MEAN,0.112317553584251,V
CTR,P03,INI,FM,MEAN,0.0027133425157853,V
CTR,P05,INI,FM,MEAN,0.0030958965044507,V
CTR,P06,INI,FM,MEAN,0.0021938863710164,V
CTR,P07,INI,FM,MEAN,0.0096817981428187,V
CTR,P08,INI,FM,MEAN,0.0024505616559088,V
PAT,P09,INI,FM,MEAN,0.0056806411886477,V
PAT,P10,INI,FM,MEAN,0.0033899896984621,V
PAT,P11,INI,FM,MEAN,0.003931061848859,V
PAT,P12,INI,FM,MEAN,0.0044968384274439,V
CTR,P13,INI,FM,MEAN,0.0038108908628907,V
PAT,P14,INI,FM,MEAN,0.0042327762689131,V
CTR,P16,INI,FM,MEAN,0.0024811549385208,V
PAT,P17,INI,FM,MEAN,0.0059220613092389,V
CTR,P21,INI,FM,MEAN,0.0028929930254189,V
CTR,P22,INI,FM,MEAN,0.0023862500474157,V
CTR,P23,INI,FM,MEAN,0.0022000621645321,V
PAT,P24,INI,FM,MEAN,0.0074388121382423,V
CTR,P25,INI,FM,MEAN,0.0028926195082528,V
PAT,P26,INI,FM,MEAN,0.002575621455456,V
PAT,P27,INI,FM,MEAN,0.0030613917492784,V
PAT,P28,INI,FM,MEAN,0.0038293096726345,V
PAT,P29,INI,FM,MEAN,0.0117653200696391,V
PAT,P30,INI,FM,MEAN,0.0049727676365257,V
PAT,P32,INI,FM,MEAN,0.0039157823249043,V
PAT,P33,INI,FM,MEAN,0.0028752135316475,V
PAT,P34,INI,FM,MEAN,0.0033623258515755,V
CTR,P35,INI,FM,MEAN,0.002717675755385,V
PAT,P36,INI,FM,MEAN,0.0032082072889592,V
CTR,P38,INI,FM,MEAN,0.0542656033432282,V
CTR,P39,INI,FM,MEAN,0.0044388042071295,V
CTR,P40,INI,FM,MEAN,0.0088979438996692,V
PAT,P41,INI,FM,MEAN,0.0026188869074709,V
PAT,P42,INI,FM,MEAN,0.0032400736528526,V
PAT,P43,INI,FM,MEAN,0.0024686204203453,V
CTR,P44,INI,FM,MEAN,0.0034881412946042,V
PAT,P45,INI,FM,MEAN,0.001504475075964,V
CTR,P46,INI,FM,MEAN,0.0029316268328477,V
PAT,P47,INI,FM,MEAN,0.0026521425501859,V
CTR,P48,INI,FM,MEAN,0.0205156070339575,V
CTR,P49,INI,FM,MEAN,0.0031129570104192,V
PAT,P50,INI,FM,MEAN,0.0076874712151484,V
PAT,P51,INI,FM,MEAN,0.001965048851425,V
CTR,P52,INI,FM,MEAN,0.0089483828402732,V
PAT,P53,INI,FM,MEAN,0.0042485414552252,V
PAT,P54,INI,FM,MEAN,0.0032041186454506,V
CTR,P55,INI,FM,MEAN,0.0012919665411572,V
CTR,P56,INI,FM,MEAN,0.002623088902719,V
CTR,P57,INI,FM,MEAN,0.0019697074815182,V
PAT,P58,INI,FM,MEAN,0.0028531559356721,V
CTR,P60,INI,FM,MEAN,0.0057810575583447,V
PAT,P61,INI,FM,MEAN,0.0042695484953538,V
PAT,P62,INI,FM,MEAN,0.0032614287797555,V
PAT,P63,INI,FM,MEAN,0.0035472290059344,V
CTR,P64,INI,FM,MEAN,0.0021590622747986,V
PAT,P65,INI,FM,MEAN,0.0028755294523474,V
CTR,P66,INI,FM,MEAN,0.0026609647544422,V
CTR,P67,INI,FM,MEAN,0.0094989037723712,V
CTR,P68,INI,FM,MEAN,0.0074279599741792,V
