Group,Participant,Session,Operator,Measure,Value,Unit
CTR,P01,INI,FM,RMS,0.1265395700181471,V
CTR,P02,INI,FM,RMS,0.0263561243660975,V
CTR,P03,INI,FM,RMS,0.0189163743082607,V
CTR,P05,INI,FM,RMS,0.0269161459467402,V
CTR,P06,INI,FM,RMS,0.0092088933155061,V
CTR,P07,INI,FM,RMS,0.0464270545740584,V
CTR,P08,INI,FM,RMS,0.0109954329034719,V
PAT,P09,INI,FM,RMS,0.0206205269177852,V
PAT,P10,INI,FM,RMS,0.2940759112981774,V
PAT,P11,INI,FM,RMS,0.0358680378578627,V
PAT,P12,INI,FM,RMS,0.0183322238358575,V
CTR,P13,INI,FM,RMS,0.0116502219495843,V
PAT,P14,INI,FM,RMS,0.0130082055141079,V
CTR,P16,INI,FM,RMS,0.0660455310400283,V
PAT,P17,INI,FM,RMS,0.013144750076575,V
CTR,P21,INI,FM,RMS,0.0371841242475737,V
CTR,P22,INI,FM,RMS,0.0541120216392931,V
CTR,P23,INI,FM,RMS,0.0193986029916357,V
PAT,P24,INI,FM,RMS,0.0106791184518543,V
CTR,P25,INI,FM,RMS,0.0240040279619588,V
PAT,P26,INI,FM,RMS,0.0916663464516673,V
PAT,P27,INI,FM,RMS,0.0159646201004685,V
PAT,P28,INI,FM,RMS,0.0120480287607416,V
PAT,P29,INI,FM,RMS,0.0291622271547296,V
PAT,P30,INI,FM,RMS,0.1131797115998359,V
PAT,P32,INI,FM,RMS,0.0117036964171735,V
PAT,P33,INI,FM,RMS,0.0138912333274451,V
PAT,P34,INI,FM,RMS,0.2972083999315393,V
CTR,P35,INI,FM,RMS,0.026868978044061,V
PAT,P36,INI,FM,RMS,0.0410839491823443,V
CTR,P38,INI,FM,RMS,0.0159616106385478,V
CTR,P39,INI,FM,RMS,0.007580347301784,V
CTR,P40,INI,FM,RMS,0.0189550678626398,V
PAT,P41,INI,FM,RMS,0.0257850392032445,V
PAT,P42,INI,FM,RMS,0.0304429508603134,V
PAT,P43,INI,FM,RMS,0.02071028359388,V
CTR,P44,INI,FM,RMS,0.0236960780332363,V
PAT,P45,INI,FM,RMS,0.0081360520393893,V
CTR,P46,INI,FM,RMS,0.0202957274656396,V
PAT,P47,INI,FM,RMS,0.0217303340753426,V
CTR,P48,INI,FM,RMS,0.0342484608732754,V
CTR,P49,INI,FM,RMS,0.0361323201685172,V
PAT,P50,INI,FM,RMS,0.0687621251011977,V
PAT,P51,INI,FM,RMS,0.0091165724035651,V
CTR,P52,INI,FM,RMS,0.0318672586335571,V
PAT,P53,INI,FM,RMS,0.0125227472038766,V
PAT,P54,INI,FM,RMS,0.033994816772706,V
CTR,P55,INI,FM,RMS,0.0100013857891333,V
CTR,P56,INI,FM,RMS,0.0199108747224141,V
CTR,P57,INI,FM,RMS,0.0403838601798322,V
PAT,P58,INI,FM,RMS,0.0087875165242896,V
CTR,P60,INI,FM,RMS,0.0150594688015274,V
PAT,P61,INI,FM,RMS,0.0123771978487125,V
PAT,P62,INI,FM,RMS,0.0100575905588755,V
PAT,P63,INI,FM,RMS,0.0158955606702937,V
CTR,P64,INI,FM,RMS,0.0288718129280192,V
PAT,P65,INI,FM,RMS,0.0322404473108932,V
CTR,P66,INI,FM,RMS,0.0577424163122018,V
CTR,P67,INI,FM,RMS,0.0406790021790351,V
CTR,P68,INI,FM,RMS,0.0395372162095863,V
