Group,Participant,Session,Operator,Measure,Value,Unit
CTR,P01,INI,FM,M1,0.02554133407220135,V
CTR,P01,INI,FM,M2,0.02848161439975393,V
CTR,P01,INI,FM,M3,0.025985015552572165,V
CTR,P01,REL,FM,M1,0.03146259958319677,V
CTR,P01,REL,FM,M2,0.04553924924564462,V
CTR,P01,REL,FM,M3,0.043513585574901065,V
CTR,P02,INI,FM,M1,0.08863276659560058,V
CTR,P02,INI,FM,M2,0.0032328911868215334,V
CTR,P02,INI,FM,M3,0.00150523779709585,V
CTR,P02,REL,FM,M1,0.04015425078533974,V
CTR,P02,REL,FM,M2,0.0450508176589233,V
CTR,P02,REL,FM,M3,0.04131824473418724,V
CTR,P03,INI,FM,M1,0.0258011651468792,V
CTR,P03,INI,FM,M2,0.032688594230125816,V
CTR,P03,INI,FM,M3,0.0282032165586794,V
CTR,P03,REL,FM,M1,1.1231224159059354,V
CTR,P03,REL,FM,M2,0.9480670011226221,V
CTR,P03,REL,FM,M3,1.008600197108505,V
CTR,P05,INI,FM,M1,0.02938651728597445,V
CTR,P05,INI,FM,M2,0.02723240951872007,V
CTR,P05,INI,FM,M3,0.026032495065437616,V
CTR,P05,REL,FM,M1,0.051325815858852736,V
CTR,P05,REL,FM,M2,0.05278122548321041,V
CTR,P05,REL,FM,M3,0.052422114116054915,V
CTR,P06,INI,FM,M1,0.013280197099103972,V
CTR,P06,INI,FM,M2,0.017518409599127514,V
CTR,P06,INI,FM,M3,0.01702084751671353,V
CTR,P06,REL,FM,M1,0.015146400614055987,V
CTR,P06,REL,FM,M2,0.015769446186577555,V
CTR,P06,REL,FM,M3,0.01477235428238106,V
CTR,P07,INI,FM,M1,0.05626551411298388,V
CTR,P07,INI,FM,M2,0.06694458309278994,V
CTR,P07,INI,FM,M3,0.07511174129693664,V
CTR,P07,REL,FM,M1,0.07282163243144596,V
CTR,P07,REL,FM,M2,0.08678858534409066,V
CTR,P07,REL,FM,M3,0.0851409865981654,V
CTR,P08,INI,FM,M1,0.016839591856550346,V
CTR,P08,INI,FM,M2,0.01666419134862313,V
CTR,P08,INI,FM,M3,0.018853117978431956,V
CTR,P08,REL,FM,M1,0.015624406288480181,V
CTR,P08,REL,FM,M2,0.0143169333370465,V
CTR,P08,REL,FM,M3,0.01421409299070806,V
CTR,P13,INI,FM,M1,0.015139233956231722,V
CTR,P13,INI,FM,M2,0.016834348928294787,V
CTR,P13,INI,FM,M3,0.01838577634394661,V
CTR,P13,REL,FM,M1,0.018712191402916148,V
CTR,P13,REL,FM,M2,0.02119965526848161,V
CTR,P13,REL,FM,M3,0.02111874026779179,V
CTR,P16,INI,FM,M1,0.0057274249792434,V
CTR,P16,INI,FM,M2,0.004525126146279801,V
CTR,P16,INI,FM,M3,0.0058937069839081835,V
CTR,P16,REL,FM,M1,0.0064754827008808484,V
CTR,P16,REL,FM,M2,0.005041680257660551,V
CTR,P16,REL,FM,M3,0.0063237691674863,V
CTR,P21,INI,FM,M1,0.008576718528603899,V
CTR,P21,INI,FM,M2,0.008809331499274233,V
CTR,P21,INI,FM,M3,0.010790388124691066,V
CTR,P21,REL,FM,M1,0.6227240560694591,V
CTR,P21,REL,FM,M2,0.4232624545465278,V
CTR,P21,REL,FM,M3,0.3497134756125938,V
CTR,P22,INI,FM,M1,0.004716661240113145,V
CTR,P22,INI,FM,M2,0.006846330328233634,V
CTR,P22,INI,FM,M3,0.004866312163115366,V
CTR,P22,REL,FM,M1,0.005935130720994775,V
CTR,P22,REL,FM,M2,0.004269131190162313,V
CTR,P22,REL,FM,M3,0.004664351392832775,V
CTR,P23,INI,FM,M1,0.03071865574844934,V
CTR,P23,INI,FM,M2,0.030012249203939544,V
CTR,P23,INI,FM,M3,0.026213385544750518,V
CTR,P23,REL,FM,M1,0.013147383392696426,V
CTR,P23,REL,FM,M2,0.00515217919989905,V
CTR,P23,REL,FM,M3,0.00637292552824315,V
CTR,P25,INI,FM,M1,0.031210312485378783,V
CTR,P25,INI,FM,M2,0.02219501146580092,V
CTR,P25,INI,FM,M3,0.01939547740642271,V
CTR,P25,REL,FM,M1,0.038072737647972754,V
CTR,P25,REL,FM,M2,0.017957988674189438,V
CTR,P25,REL,FM,M3,0.01560534398135155,V
CTR,P35,INI,FM,M1,0.016847101977604848,V
CTR,P35,INI,FM,M2,0.025102740302904214,V
CTR,P35,INI,FM,M3,0.008747591243983742,V
CTR,P35,REL,FM,M1,0.017161776429007996,V
CTR,P35,REL,FM,M2,0.02188560637949542,V
CTR,P35,REL,FM,M3,0.013333425595228585,V
CTR,P38,INI,FM,M1,1.7362546149354834,V
CTR,P38,INI,FM,M2,2.300749072022169,V
CTR,P38,INI,FM,M3,2.2211132917269594,V
CTR,P38,REL,FM,M1,0.6244670704565456,V
CTR,P38,REL,FM,M2,0.44642001523560276,V
CTR,P38,REL,FM,M3,0.3198156470123118,V
CTR,P39,INI,FM,M1,0.0525285023675077,V
CTR,P39,INI,FM,M2,0.10567472109954094,V
CTR,P39,INI,FM,M3,0.03863549590238068,V
CTR,P39,REL,FM,M1,0.0170508928509732,V
CTR,P39,REL,FM,M2,0.017870677057369,V
CTR,P39,REL,FM,M3,0.015860751703008626,V
CTR,P40,INI,FM,M1,0.026475792061290516,V
CTR,P40,INI,FM,M2,0.017774398530417717,V
CTR,P40,INI,FM,M3,0.01102258862285205,V
CTR,P40,REL,FM,M1,0.0134631122822966,V
CTR,P40,REL,FM,M2,0.01346081871649775,V
CTR,P40,REL,FM,M3,0.006479754078545549,V
CTR,P44,INI,FM,M1,0.03402290924117974,V
CTR,P44,INI,FM,M2,0.022590854961016354,V
CTR,P44,INI,FM,M3,0.019107979785019942,V
CTR,P44,REL,FM,M1,0.033097863140662646,V
CTR,P44,REL,FM,M2,0.036067520125215025,V
CTR,P44,REL,FM,M3,0.018579614335069158,V
CTR,P46,INI,FM,M1,0.01349795065795972,V
CTR,P46,INI,FM,M2,0.01455178514278804,V
CTR,P46,INI,FM,M3,0.013143591381931321,V
CTR,P46,REL,FM,M1,0.011225504248304083,V
CTR,P46,REL,FM,M2,0.011054514739694316,V
CTR,P46,REL,FM,M3,0.0067453120574512,V
CTR,P48,INI,FM,M1,0.05202642547364901,V
CTR,P48,INI,FM,M2,0.05017537340621262,V
CTR,P48,INI,FM,M3,0.014838907667352075,V
CTR,P48,REL,FM,M1,0.040468113334187816,V
CTR,P48,REL,FM,M2,0.044866764192848026,V
CTR,P48,REL,FM,M3,0.02936705133933967,V
CTR,P49,INI,FM,M1,0.03436886213060193,V
CTR,P49,INI,FM,M2,0.032785474521754156,V
CTR,P49,INI,FM,M3,0.019067445830633672,V
CTR,P49,REL,FM,M1,0.023174086120793875,V
CTR,P49,REL,FM,M2,0.02717846321908745,V
CTR,P49,REL,FM,M3,0.013440095131923423,V
CTR,P52,INI,FM,M1,0.015244277533389116,V
CTR,P52,INI,FM,M2,0.011226555994760017,V
CTR,P52,INI,FM,M3,0.013125137901128467,V
CTR,P52,REL,FM,M1,0.012743139850123373,V
CTR,P52,REL,FM,M2,0.00975164781728365,V
CTR,P52,REL,FM,M3,0.010889503735596025,V
CTR,P55,INI,FM,M1,0.022933805727022225,V
CTR,P55,INI,FM,M2,0.017439932870842657,V
CTR,P55,INI,FM,M3,0.027248653376430815,V
CTR,P55,REL,FM,M1,0.0198728292590734,V
CTR,P55,REL,FM,M2,0.023562725649684067,V
CTR,P55,REL,FM,M3,0.006528651330755857,V
CTR,P56,INI,FM,M1,0.014936741006553522,V
CTR,P56,INI,FM,M2,0.01147866567283638,V
CTR,P56,INI,FM,M3,0.01469774807560024,V
CTR,P56,REL,FM,M1,0.019216051520476066,V
CTR,P56,REL,FM,M2,0.01928780817566635,V
CTR,P56,REL,FM,M3,0.018062718410649898,V
CTR,P57,INI,FM,M1,0.047965957021614186,V
CTR,P57,INI,FM,M2,0.02578490028497294,V
CTR,P57,INI,FM,M3,0.02970907628188395,V
CTR,P57,REL,FM,M1,0.050423434464862235,V
CTR,P57,REL,FM,M2,0.06425661985015561,V
CTR,P57,REL,FM,M3,0.053760383203601624,V
CTR,P60,INI,FM,M1,0.01260542312881,V
CTR,P60,INI,FM,M2,0.016537373400673717,V
CTR,P60,INI,FM,M3,0.015568664220213017,V
CTR,P60,REL,FM,M1,0.019864858807665416,V
CTR,P60,REL,FM,M2,0.015756021701741316,V
CTR,P60,REL,FM,M3,0.0119078150998374,V
CTR,P64,INI,FM,M1,0.007740923812170425,V
CTR,P64,INI,FM,M2,0.007209994504304451,V
CTR,P64,INI,FM,M3,0.0052635793393185125,V
CTR,P64,REL,FM,M1,0.00772128304001998,V
CTR,P64,REL,FM,M2,0.01002319462603814,V
CTR,P64,REL,FM,M3,0.00925293337793078,V
CTR,P66,INI,FM,M1,0.008203296670514462,V
CTR,P66,INI,FM,M2,0.005591729879933013,V
CTR,P66,INI,FM,M3,0.004873726700861275,V
CTR,P66,REL,FM,M1,0.009138822556365266,V
CTR,P66,REL,FM,M2,0.010872033226324867,V
CTR,P66,REL,FM,M3,0.009844863434298967,V
CTR,P67,INI,FM,M1,0.024819696712789868,V
CTR,P67,INI,FM,M2,0.004877538564990033,V
CTR,P67,INI,FM,M3,0.0242739565972827,V
CTR,P67,REL,FM,M1,0.0996122455914025,V
CTR,P67,REL,FM,M2,0.14449563575512078,V
CTR,P67,REL,FM,M3,0.2899463707444613,V
CTR,P68,INI,FM,M1,0.05870973025910577,V
CTR,P68,INI,FM,M2,0.03352226556714235,V
CTR,P68,INI,FM,M3,0.02602139383637338,V
CTR,P68,REL,FM,M1,0.044395856055795234,V
CTR,P68,REL,FM,M2,0.052354656766495034,V
CTR,P68,REL,FM,M3,0.04741657528526196,V
