Group,Participant,Session,Operator,Measure,Value,Unit
CTR,P01,INI,FM,M1,35.91785099152253,Hz
CTR,P01,INI,FM,M2,47.66235195933342,Hz
CTR,P01,INI,FM,M3,40.46936345496353,Hz
CTR,P01,REL,FM,M1,84.46705248239621,Hz
CTR,P01,REL,FM,M2,78.83378747609251,Hz
CTR,P01,REL,FM,M3,73.51137728376519,Hz
CTR,P02,INI,FM,M1,76.90940465734911,Hz
CTR,P02,INI,FM,M2,61.622370304543495,Hz
CTR,P02,INI,FM,M3,70.01459354679399,Hz
CTR,P03,INI,FM,M1,59.42741296926973,Hz
CTR,P03,INI,FM,M2,69.1137955984543,Hz
CTR,P03,INI,FM,M3,67.85808840515698,Hz
CTR,P03,REL,FM,M1,73.00270106540252,Hz
CTR,P03,REL,FM,M2,68.5661609748908,Hz
CTR,P03,REL,FM,M3,69.426855997743,Hz
CTR,P05,INI,FM,M1,81.22773642523848,Hz
CTR,P05,INI,FM,M2,82.04182550899444,Hz
CTR,P05,INI,FM,M3,83.82980797311245,Hz
CTR,P05,REL,FM,M1,74.6643295222924,Hz
CTR,P05,REL,FM,M2,81.96494309715382,Hz
CTR,P05,REL,FM,M3,84.88503531391301,Hz
CTR,P06,INI,FM,M1,147.2417330956671,Hz
CTR,P06,INI,FM,M2,144.14345930570795,Hz
CTR,P06,INI,FM,M3,137.1817196488553,Hz
CTR,P06,REL,FM,M1,114.40107409972218,Hz
CTR,P06,REL,FM,M2,116.3055408532218,Hz
CTR,P06,REL,FM,M3,106.6000059886319,Hz
CTR,P07,INI,FM,M1,144.59983523159875,Hz
CTR,P07,INI,FM,M2,128.17577597523663,Hz
CTR,P07,INI,FM,M3,137.77201856756275,Hz
CTR,P07,REL,FM,M1,89.87257225690493,Hz
CTR,P07,REL,FM,M2,32.533635187991,Hz
CTR,P07,REL,FM,M3,87.9811676920762,Hz
CTR,P08,INI,FM,M1,74.60126872275853,Hz
CTR,P08,INI,FM,M2,76.89047172403701,Hz
CTR,P08,INI,FM,M3,79.5314633332719,Hz
CTR,P08,REL,FM,M1,80.34012642079178,Hz
CTR,P08,REL,FM,M2,81.45817753389717,Hz
CTR,P08,REL,FM,M3,77.35671049003629,Hz
CTR,P13,INI,FM,M1,93.82145432737477,Hz
CTR,P13,INI,FM,M2,92.57933089038194,Hz
CTR,P13,INI,FM,M3,92.98432715541126,Hz
CTR,P13,REL,FM,M1,76.15002520266566,Hz
CTR,P13,REL,FM,M2,71.73279021140786,Hz
CTR,P13,REL,FM,M3,70.67768406838357,Hz
CTR,P16,INI,FM,M1,101.27576050091594,Hz
CTR,P16,INI,FM,M2,75.04745015238045,Hz
CTR,P16,INI,FM,M3,90.6810342671567,Hz
CTR,P16,REL,FM,M1,105.51627073340735,Hz
CTR,P16,REL,FM,M2,106.55212405526773,Hz
CTR,P16,REL,FM,M3,97.8988041989512,Hz
CTR,P21,INI,FM,M1,82.08239081721788,Hz
CTR,P21,INI,FM,M2,80.0416209244101,Hz
CTR,P21,INI,FM,M3,82.84795292980976,Hz
CTR,P21,REL,FM,M1,73.19037071084705,Hz
CTR,P21,REL,FM,M2,77.43456466521992,Hz
CTR,P21,REL,FM,M3,85.93486598883733,Hz
CTR,P22,INI,FM,M1,98.56173756829835,Hz
CTR,P22,INI,FM,M2,98.84630614754153,Hz
CTR,P22,INI,FM,M3,99.94127989498104,Hz
CTR,P22,REL,FM,M1,94.26448782647655,Hz
CTR,P22,REL,FM,M2,80.99885452442419,Hz
CTR,P22,REL,FM,M3,85.82211928440252,Hz
CTR,P23,INI,FM,M1,54.82079997906609,Hz
CTR,P23,INI,FM,M2,78.12134961165569,Hz
CTR,P23,INI,FM,M3,48.54403932737291,Hz
CTR,P23,REL,FM,M1,56.017982698192775,Hz
CTR,P23,REL,FM,M2,98.39368717789748,Hz
CTR,P23,REL,FM,M3,114.73225316452606,Hz
CTR,P25,INI,FM,M1,92.0190588888236,Hz
CTR,P25,INI,FM,M2,90.93974821973625,Hz
CTR,P25,INI,FM,M3,86.34936325098296,Hz
CTR,P25,REL,FM,M1,91.40280363804813,Hz
CTR,P25,REL,FM,M2,89.29901946883632,Hz
CTR,P25,REL,FM,M3,92.99024001483023,Hz
CTR,P35,INI,FM,M1,89.10925367756822,Hz
CTR,P35,INI,FM,M2,66.35660598006496,Hz
CTR,P35,INI,FM,M3,99.42873431093976,Hz
CTR,P35,REL,FM,M1,84.98898762386555,Hz
CTR,P35,REL,FM,M2,83.55537196991666,Hz
CTR,P35,REL,FM,M3,71.89125536237401,Hz
CTR,P38,INI,FM,M1,66.2119233448577,Hz
CTR,P38,INI,FM,M2,68.59924281992075,Hz
CTR,P38,INI,FM,M3,66.27900965029345,Hz
CTR,P38,REL,FM,M1,70.09034759356994,Hz
CTR,P38,REL,FM,M2,69.40475241830897,Hz
CTR,P38,REL,FM,M3,65.58668157343243,Hz
CTR,P39,INI,FM,M1,46.89050666588432,Hz
CTR,P39,INI,FM,M2,48.74039181620042,Hz
CTR,P39,INI,FM,M3,51.65174682628275,Hz
CTR,P39,REL,FM,M1,59.178395750200345,Hz
CTR,P39,REL,FM,M2,80.58335422450426,Hz
CTR,P39,REL,FM,M3,73.94224683253462,Hz
CTR,P40,INI,FM,M1,86.33634469991088,Hz
CTR,P40,INI,FM,M2,102.296027543122,Hz
CTR,P40,INI,FM,M3,99.26223660127312,Hz
CTR,P40,REL,FM,M1,90.59892235539796,Hz
CTR,P40,REL,FM,M2,93.01641806069652,Hz
CTR,P40,REL,FM,M3,100.42171647741418,Hz
CTR,P44,INI,FM,M1,85.6927553236023,Hz
CTR,P44,INI,FM,M2,102.54705042002156,Hz
CTR,P44,INI,FM,M3,98.85317201840536,Hz
CTR,P44,REL,FM,M1,92.31753615839123,Hz
CTR,P44,REL,FM,M2,91.16496206789914,Hz
CTR,P44,REL,FM,M3,79.26153253015235,Hz
CTR,P46,INI,FM,M1,115.74507664525224,Hz
CTR,P46,INI,FM,M2,103.7629959342264,Hz
CTR,P46,INI,FM,M3,103.36283024891904,Hz
CTR,P46,REL,FM,M1,93.36591537843228,Hz
CTR,P46,REL,FM,M2,104.34381204439016,Hz
CTR,P46,REL,FM,M3,100.58283997473582,Hz
CTR,P48,INI,FM,M1,111.51321582268764,Hz
CTR,P48,INI,FM,M2,118.55126928314276,Hz
CTR,P48,INI,FM,M3,104.04776087981172,Hz
CTR,P48,REL,FM,M1,103.72529206608608,Hz
CTR,P48,REL,FM,M2,112.74537875731951,Hz
CTR,P48,REL,FM,M3,102.96698544049048,Hz
CTR,P49,INI,FM,M1,68.9045854183932,Hz
CTR,P49,INI,FM,M2,72.44583005529853,Hz
CTR,P49,INI,FM,M3,76.12408045014735,Hz
CTR,P49,REL,FM,M1,51.33185086190973,Hz
CTR,P49,REL,FM,M2,73.63773167455861,Hz
CTR,P49,REL,FM,M3,73.60469465017287,Hz
CTR,P52,INI,FM,M1,91.44790839943732,Hz
CTR,P52,INI,FM,M2,92.88450706151868,Hz
CTR,P52,INI,FM,M3,83.0800402815122,Hz
CTR,P52,REL,FM,M1,80.81463056441955,Hz
CTR,P52,REL,FM,M2,87.77015267163226,Hz
CTR,P52,REL,FM,M3,86.57354683392633,Hz
CTR,P55,INI,FM,M1,52.79145961034533,Hz
CTR,P55,INI,FM,M2,61.47553205667506,Hz
CTR,P55,INI,FM,M3,57.63746024654594,Hz
CTR,P55,REL,FM,M1,67.8305349751189,Hz
CTR,P55,REL,FM,M2,65.96912345798124,Hz
CTR,P55,REL,FM,M3,66.34791646362503,Hz
CTR,P56,INI,FM,M1,82.87312714148013,Hz
CTR,P56,INI,FM,M2,71.99113404313404,Hz
CTR,P56,INI,FM,M3,84.65229567495058,Hz
CTR,P56,REL,FM,M1,59.86432558956887,Hz
CTR,P56,REL,FM,M2,80.33287482586356,Hz
CTR,P56,REL,FM,M3,78.49461131195763,Hz
CTR,P57,INI,FM,M1,40.24613512109537,Hz
CTR,P57,INI,FM,M2,41.91575197390284,Hz
CTR,P57,INI,FM,M3,46.948612597349474,Hz
CTR,P57,REL,FM,M1,100.02402120103996,Hz
CTR,P57,REL,FM,M2,93.10137949399164,Hz
CTR,P57,REL,FM,M3,94.90557496503142,Hz
CTR,P60,INI,FM,M1,84.42665695038157,Hz
CTR,P60,INI,FM,M2,87.47232185254417,Hz
CTR,P60,INI,FM,M3,84.29409880619785,Hz
CTR,P60,REL,FM,M1,82.31025535628044,Hz
CTR,P60,REL,FM,M2,85.14445092673884,Hz
CTR,P60,REL,FM,M3,83.05380624413637,Hz
CTR,P64,INI,FM,M1,75.21073652331219,Hz
CTR,P64,INI,FM,M2,70.67763676642426,Hz
CTR,P64,INI,FM,M3,74.17318980684227,Hz
CTR,P64,REL,FM,M1,63.04441001162359,Hz
CTR,P64,REL,FM,M2,66.59291759758102,Hz
CTR,P64,REL,FM,M3,69.84380998484592,Hz
CTR,P66,INI,FM,M1,117.74166943514102,Hz
CTR,P66,INI,FM,M2,107.74408018898336,Hz
CTR,P66,INI,FM,M3,123.2369085795788,Hz
CTR,P66,REL,FM,M1,68.73011253417666,Hz
CTR,P66,REL,FM,M2,60.00810360962626,Hz
CTR,P66,REL,FM,M3,59.74004372820286,Hz
CTR,P67,INI,FM,M1,95.77203512537946,Hz
CTR,P67,INI,FM,M2,102.43674385454604,Hz
CTR,P67,INI,FM,M3,85.98119113675136,Hz
CTR,P67,REL,FM,M1,60.535389117204666,Hz
CTR,P67,REL,FM,M2,61.65588273750994,Hz
CTR,P67,REL,FM,M3,65.12971096398353,Hz
CTR,P68,INI,FM,M1,51.64381652499453,Hz
CTR,P68,INI,FM,M2,45.70576804671342,Hz
CTR,P68,INI,FM,M3,54.46651589949609,Hz
CTR,P68,REL,FM,M1,57.61257607549769,Hz
CTR,P68,REL,FM,M2,54.95726934981473,Hz
CTR,P68,REL,FM,M3,54.13334251700813,Hz
