Group,Participant,Session,Operator,Measure,Value,Unit
CTR,P01,INI,FM,M1,6.05936881299974,%SubMVIC
CTR,P01,INI,FM,M2,7.016864125943798,%SubMVIC
CTR,P01,INI,FM,M3,7.350475316119049,%SubMVIC
CTR,P01,REL,FM,M1,2.992457271024461,%SubMVIC
CTR,P01,REL,FM,M2,2.996677862921684,%SubMVIC
CTR,P01,REL,FM,M3,2.73704168697837,%SubMVIC
CTR,P02,INI,FM,M1,5.813531268966984,%SubMVIC
CTR,P02,INI,FM,M2,6.741227939069679,%SubMVIC
CTR,P02,INI,FM,M3,5.417272580019136,%SubMVIC
CTR,P02,REL,FM,M1,5.750982418681697,%SubMVIC
CTR,P02,REL,FM,M2,5.415756965312662,%SubMVIC
CTR,P02,REL,FM,M3,5.840650643476329,%SubMVIC
CTR,P03,INI,FM,M1,6.432024748883878,%SubMVIC
CTR,P03,INI,FM,M2,6.926486538683014,%SubMVIC
CTR,P03,INI,FM,M3,6.415113153167811,%SubMVIC
CTR,P03,REL,FM,M1,6.954842359883379,%SubMVIC
CTR,P03,REL,FM,M2,7.637815898438651,%SubMVIC
CTR,P03,REL,FM,M3,6.632828449468137,%SubMVIC
CTR,P05,INI,FM,M1,4.966822515131475,%SubMVIC
CTR,P05,INI,FM,M2,5.053637705960955,%SubMVIC
CTR,P05,INI,FM,M3,4.375873728014049,%SubMVIC
CTR,P05,REL,FM,M1,5.615786319571637,%SubMVIC
CTR,P05,REL,FM,M2,4.972759912716922,%SubMVIC
CTR,P05,REL,FM,M3,5.064690379035392,%SubMVIC
CTR,P06,INI,FM,M1,11.32408457446083,%SubMVIC
CTR,P06,INI,FM,M2,11.279138999152355,%SubMVIC
CTR,P06,INI,FM,M3,10.611176481403682,%SubMVIC
CTR,P06,REL,FM,M1,8.81352421681016,%SubMVIC
CTR,P06,REL,FM,M2,9.596712090112163,%SubMVIC
CTR,P06,REL,FM,M3,8.448846515777593,%SubMVIC
CTR,P07,INI,FM,M1,1.6834712212243617,%SubMVIC
CTR,P07,INI,FM,M2,2.71565462978535,%SubMVIC
CTR,P07,INI,FM,M3,6.095963848656749,%SubMVIC
CTR,P07,REL,FM,M1,8.574262380219176,%SubMVIC
CTR,P07,REL,FM,M2,9.290056107657014,%SubMVIC
CTR,P07,REL,FM,M3,9.367741149591762,%SubMVIC
CTR,P08,INI,FM,M1,0.5301344218547416,%SubMVIC
CTR,P08,INI,FM,M2,0.5240632642296846,%SubMVIC
CTR,P08,INI,FM,M3,0.4364437761216799,%SubMVIC
CTR,P08,REL,FM,M1,4.719200180767288,%SubMVIC
CTR,P08,REL,FM,M2,5.415738691142267,%SubMVIC
CTR,P08,REL,FM,M3,4.50396516042189,%SubMVIC
CTR,P13,INI,FM,M1,9.234304323229418,%SubMVIC
CTR,P13,INI,FM,M2,8.815298607693736,%SubMVIC
CTR,P13,INI,FM,M3,7.73014420745266,%SubMVIC
CTR,P13,REL,FM,M1,7.100200727205466,%SubMVIC
CTR,P13,REL,FM,M2,7.188600260643436,%SubMVIC
CTR,P13,REL,FM,M3,6.012874993924202,%SubMVIC
CTR,P16,INI,FM,M1,9.470124402929647,%SubMVIC
CTR,P16,INI,FM,M2,9.563724932223426,%SubMVIC
CTR,P16,INI,FM,M3,8.346164017342048,%SubMVIC
CTR,P16,REL,FM,M1,5.777771239195157,%SubMVIC
CTR,P16,REL,FM,M2,6.311279390832053,%SubMVIC
CTR,P16,REL,FM,M3,5.504493157550827,%SubMVIC
CTR,P21,INI,FM,M1,1.842493559517555,%SubMVIC
CTR,P21,INI,FM,M2,1.953250111321178,%SubMVIC
CTR,P21,INI,FM,M3,2.70063050088419,%SubMVIC
CTR,P21,REL,FM,M1,4.324855858741633,%SubMVIC
CTR,P21,REL,FM,M2,4.608750133690637,%SubMVIC
CTR,P21,REL,FM,M3,3.6794206780993526,%SubMVIC
CTR,P22,INI,FM,M1,6.981740463487353,%SubMVIC
CTR,P22,INI,FM,M2,7.246512442473739,%SubMVIC
CTR,P22,INI,FM,M3,6.473765481756339,%SubMVIC
CTR,P22,REL,FM,M1,1.2195961291334614,%SubMVIC
CTR,P22,REL,FM,M2,1.3162889122574646,%SubMVIC
CTR,P22,REL,FM,M3,1.4662021746655272,%SubMVIC
CTR,P23,INI,FM,M1,1.1973182653744388,%SubMVIC
CTR,P23,INI,FM,M2,0.9592620487812472,%SubMVIC
CTR,P23,INI,FM,M3,0.8840205270742311,%SubMVIC
CTR,P23,REL,FM,M1,6.77386440110489,%SubMVIC
CTR,P23,REL,FM,M2,6.014145131001541,%SubMVIC
CTR,P23,REL,FM,M3,5.65478937320741,%SubMVIC
CTR,P25,INI,FM,M1,1.0777929097959236,%SubMVIC
CTR,P25,INI,FM,M2,1.4046035119698663,%SubMVIC
CTR,P25,INI,FM,M3,1.303670856761641,%SubMVIC
CTR,P25,REL,FM,M1,8.086598813187871,%SubMVIC
CTR,P25,REL,FM,M2,8.647692927826936,%SubMVIC
CTR,P25,REL,FM,M3,6.14463810543288,%SubMVIC
CTR,P35,INI,FM,M1,4.445047188917876,%SubMVIC
CTR,P35,INI,FM,M2,4.913576558022901,%SubMVIC
CTR,P35,INI,FM,M3,4.14357064066803,%SubMVIC
CTR,P35,REL,FM,M1,4.700979083756538,%SubMVIC
CTR,P35,REL,FM,M2,4.843008759661472,%SubMVIC
CTR,P35,REL,FM,M3,4.701250400523963,%SubMVIC
CTR,P38,INI,FM,M1,1.766942378169441,%SubMVIC
CTR,P38,INI,FM,M2,1.3447745880870243,%SubMVIC
CTR,P38,INI,FM,M3,1.3174730679166675,%SubMVIC
CTR,P38,REL,FM,M1,6.488743577401031,%SubMVIC
CTR,P38,REL,FM,M2,5.867463005110655,%SubMVIC
CTR,P38,REL,FM,M3,5.598526537752502,%SubMVIC
CTR,P39,INI,FM,M1,8.989519869571879,%SubMVIC
CTR,P39,INI,FM,M2,8.125894792298423,%SubMVIC
CTR,P39,INI,FM,M3,6.623066623456127,%SubMVIC
CTR,P39,REL,FM,M1,8.768530355780872,%SubMVIC
CTR,P39,REL,FM,M2,8.123759441609867,%SubMVIC
CTR,P39,REL,FM,M3,6.448335861972673,%SubMVIC
CTR,P40,INI,FM,M1,1.4788286805449284,%SubMVIC
CTR,P40,INI,FM,M2,1.6218971361185663,%SubMVIC
CTR,P40,INI,FM,M3,1.4569234654218362,%SubMVIC
CTR,P40,REL,FM,M1,5.750001035635355,%SubMVIC
CTR,P40,REL,FM,M2,5.846977647870937,%SubMVIC
CTR,P40,REL,FM,M3,4.659369879926484,%SubMVIC
CTR,P44,INI,FM,M1,2.0068337975208284,%SubMVIC
CTR,P44,INI,FM,M2,1.4525157274102276,%SubMVIC
CTR,P44,INI,FM,M3,1.4488271570942814,%SubMVIC
CTR,P44,REL,FM,M1,4.956719511425701,%SubMVIC
CTR,P44,REL,FM,M2,4.711346023430396,%SubMVIC
CTR,P44,REL,FM,M3,4.461892012028709,%SubMVIC
CTR,P46,INI,FM,M1,1.2727002909885028,%SubMVIC
CTR,P46,INI,FM,M2,2.438117430345211,%SubMVIC
CTR,P46,INI,FM,M3,3.029417440386905,%SubMVIC
CTR,P46,REL,FM,M1,4.370022332481504,%SubMVIC
CTR,P46,REL,FM,M2,3.496793551807856,%SubMVIC
CTR,P46,REL,FM,M3,3.1296780250605893,%SubMVIC
CTR,P48,INI,FM,M1,6.470927771502453,%SubMVIC
CTR,P48,INI,FM,M2,6.786554722787113,%SubMVIC
CTR,P48,INI,FM,M3,6.8957010079972765,%SubMVIC
CTR,P48,REL,FM,M1,8.07054316495839,%SubMVIC
CTR,P48,REL,FM,M2,8.25727634369871,%SubMVIC
CTR,P48,REL,FM,M3,6.568717045899507,%SubMVIC
CTR,P49,INI,FM,M1,5.007184245216353,%SubMVIC
CTR,P49,INI,FM,M2,5.368088809849194,%SubMVIC
CTR,P49,INI,FM,M3,5.378540830156118,%SubMVIC
CTR,P49,REL,FM,M1,3.197352027551969,%SubMVIC
CTR,P49,REL,FM,M2,3.383190793604104,%SubMVIC
CTR,P49,REL,FM,M3,2.692809622959586,%SubMVIC
CTR,P52,INI,FM,M1,6.180979809099153,%SubMVIC
CTR,P52,INI,FM,M2,4.474930018848259,%SubMVIC
CTR,P52,INI,FM,M3,5.891797038937626,%SubMVIC
CTR,P52,REL,FM,M1,6.2300881021710985,%SubMVIC
CTR,P52,REL,FM,M2,6.469272729128735,%SubMVIC
CTR,P52,REL,FM,M3,4.912958214805506,%SubMVIC
CTR,P55,INI,FM,M1,2.525361088210852,%SubMVIC
CTR,P55,INI,FM,M2,2.481440013905466,%SubMVIC
CTR,P55,INI,FM,M3,2.581707231077353,%SubMVIC
CTR,P55,REL,FM,M1,6.253998398796278,%SubMVIC
CTR,P55,REL,FM,M2,6.837857762595716,%SubMVIC
CTR,P55,REL,FM,M3,5.270389587746245,%SubMVIC
CTR,P56,INI,FM,M1,4.0461395760958965,%SubMVIC
CTR,P56,INI,FM,M2,4.292399963019484,%SubMVIC
CTR,P56,INI,FM,M3,2.797165096091924,%SubMVIC
CTR,P56,REL,FM,M1,6.929461559645628,%SubMVIC
CTR,P56,REL,FM,M2,5.96653941176825,%SubMVIC
CTR,P56,REL,FM,M3,4.089020158383631,%SubMVIC
CTR,P57,INI,FM,M1,4.944388716680683,%SubMVIC
CTR,P57,INI,FM,M2,4.72589513536143,%SubMVIC
CTR,P57,INI,FM,M3,5.760501226833278,%SubMVIC
CTR,P57,REL,FM,M1,5.442800430105607,%SubMVIC
CTR,P57,REL,FM,M2,5.973937542646753,%SubMVIC
CTR,P57,REL,FM,M3,5.323436898159983,%SubMVIC
CTR,P60,INI,FM,M1,6.228968680782555,%SubMVIC
CTR,P60,INI,FM,M2,4.4347399342031455,%SubMVIC
CTR,P60,INI,FM,M3,3.719597197357418,%SubMVIC
CTR,P60,REL,FM,M1,5.816166336221346,%SubMVIC
CTR,P60,REL,FM,M2,5.7779319976156645,%SubMVIC
CTR,P60,REL,FM,M3,4.72154537433606,%SubMVIC
CTR,P64,INI,FM,M1,4.683963400646748,%SubMVIC
CTR,P64,INI,FM,M2,4.333318799932702,%SubMVIC
CTR,P64,INI,FM,M3,3.603720955724384,%SubMVIC
CTR,P64,REL,FM,M1,3.298176746114635,%SubMVIC
CTR,P64,REL,FM,M2,3.854504639074294,%SubMVIC
CTR,P64,REL,FM,M3,3.2557230487651903,%SubMVIC
CTR,P66,INI,FM,M1,1.799203318596311,%SubMVIC
CTR,P66,INI,FM,M2,1.7298345860447424,%SubMVIC
CTR,P66,INI,FM,M3,1.5403890275496834,%SubMVIC
CTR,P66,REL,FM,M1,1.1636373257456216,%SubMVIC
CTR,P66,REL,FM,M2,0.8540595224534069,%SubMVIC
CTR,P66,REL,FM,M3,0.8485071904580953,%SubMVIC
CTR,P67,INI,FM,M1,5.4809464700456525,%SubMVIC
CTR,P67,INI,FM,M2,4.920076706029882,%SubMVIC
CTR,P67,INI,FM,M3,4.513596283384617,%SubMVIC
CTR,P67,REL,FM,M1,6.09134917053806,%SubMVIC
CTR,P67,REL,FM,M2,8.231859869630876,%SubMVIC
CTR,P67,REL,FM,M3,7.064838721358927,%SubMVIC
CTR,P68,INI,FM,M1,8.640629613963956,%SubMVIC
CTR,P68,INI,FM,M2,7.395247899378916,%SubMVIC
CTR,P68,INI,FM,M3,6.6912196619459285,%SubMVIC
CTR,P68,REL,FM,M1,8.496489027886124,%SubMVIC
CTR,P68,REL,FM,M2,8.135467805283948,%SubMVIC
CTR,P68,REL,FM,M3,6.941856075167116,%SubMVIC
