Group,Participant,Session,Operator,Measure,Value,Unit
CTR,P01,INI,FM,M1,14.313679813254593,%MAX
CTR,P01,INI,FM,M2,16.306565263179735,%MAX
CTR,P01,INI,FM,M3,20.72555603776283,%MAX
CTR,P01,REL,FM,M1,9.690897370790106,%MAX
CTR,P01,REL,FM,M2,7.003918449786518,%MAX
CTR,P01,REL,FM,M3,8.913506616972398,%MAX
CTR,P02,INI,FM,M1,8.400839531236896,%MAX
CTR,P02,INI,FM,M2,8.291851387359989,%MAX
CTR,P02,INI,FM,M3,8.486142521612708,%MAX
CTR,P02,REL,FM,M1,7.6315648818694255,%MAX
CTR,P02,REL,FM,M2,6.992221897552527,%MAX
CTR,P02,REL,FM,M3,5.639832273190097,%MAX
CTR,P03,INI,FM,M1,11.894694500500202,%MAX
CTR,P03,INI,FM,M2,8.10091474893135,%MAX
CTR,P03,INI,FM,M3,8.389351613103106,%MAX
CTR,P03,REL,FM,M1,25.82742607759772,%MAX
CTR,P03,REL,FM,M2,28.13158321808092,%MAX
CTR,P03,REL,FM,M3,37.79058201232653,%MAX
CTR,P05,INI,FM,M1,11.223759629278325,%MAX
CTR,P05,INI,FM,M2,12.990788934524508,%MAX
CTR,P05,INI,FM,M3,12.502035067267641,%MAX
CTR,P05,REL,FM,M1,10.569608557340057,%MAX
CTR,P05,REL,FM,M2,13.141815839668402,%MAX
CTR,P05,REL,FM,M3,14.540247201538307,%MAX
CTR,P06,INI,FM,M1,25.89424509718365,%MAX
CTR,P06,INI,FM,M2,28.479038301273825,%MAX
CTR,P06,INI,FM,M3,27.906040507993225,%MAX
CTR,P06,REL,FM,M1,18.121380555707145,%MAX
CTR,P06,REL,FM,M2,16.23846951263034,%MAX
CTR,P06,REL,FM,M3,17.223259169763743,%MAX
CTR,P07,INI,FM,M1,5.21888352099941,%MAX
CTR,P07,INI,FM,M2,5.7600710630471115,%MAX
CTR,P07,INI,FM,M3,7.416282579929024,%MAX
CTR,P07,REL,FM,M1,19.51713087487933,%MAX
CTR,P07,REL,FM,M2,15.268645727893547,%MAX
CTR,P07,REL,FM,M3,18.237307871569296,%MAX
CTR,P08,INI,FM,M1,5.775024741844843,%MAX
CTR,P08,INI,FM,M2,12.46145776692217,%MAX
CTR,P08,INI,FM,M3,10.778794936996109,%MAX
CTR,P08,REL,FM,M1,9.765599742471366,%MAX
CTR,P08,REL,FM,M2,8.833980573130122,%MAX
CTR,P08,REL,FM,M3,9.041663207493702,%MAX
CTR,P13,INI,FM,M1,24.14447488904934,%MAX
CTR,P13,INI,FM,M2,23.396162495764784,%MAX
CTR,P13,INI,FM,M3,23.078359919765155,%MAX
CTR,P13,REL,FM,M1,19.65890887081742,%MAX
CTR,P13,REL,FM,M2,16.94777043845805,%MAX
CTR,P13,REL,FM,M3,15.954474824048523,%MAX
CTR,P16,INI,FM,M1,66.04850343758775,%MAX
CTR,P16,INI,FM,M2,61.30558802381184,%MAX
CTR,P16,INI,FM,M3,62.709762808821836,%MAX
CTR,P16,REL,FM,M1,19.07757326363378,%MAX
CTR,P16,REL,FM,M2,25.36658680597294,%MAX
CTR,P16,REL,FM,M3,18.55954707336431,%MAX
CTR,P21,INI,FM,M1,78.14145572432152,%MAX
CTR,P21,INI,FM,M2,109.65914477039114,%MAX
CTR,P21,INI,FM,M3,99.7889722887545,%MAX
CTR,P21,REL,FM,M1,62.09387915302963,%MAX
CTR,P21,REL,FM,M2,51.48827158213264,%MAX
CTR,P21,REL,FM,M3,95.61644423497151,%MAX
CTR,P22,INI,FM,M1,48.58450169634749,%MAX
CTR,P22,INI,FM,M2,31.72909944797017,%MAX
CTR,P22,INI,FM,M3,67.75898198057664,%MAX
CTR,P22,REL,FM,M1,29.787196578390414,%MAX
CTR,P22,REL,FM,M2,44.57814941524687,%MAX
CTR,P22,REL,FM,M3,44.857310793026286,%MAX
CTR,P23,INI,FM,M1,62.65955276202438,%MAX
CTR,P23,INI,FM,M2,45.40993990241028,%MAX
CTR,P23,INI,FM,M3,45.455891740855186,%MAX
CTR,P23,REL,FM,M1,23.56556031489974,%MAX
CTR,P23,REL,FM,M2,84.6341705544223,%MAX
CTR,P23,REL,FM,M3,111.65805065774029,%MAX
CTR,P25,INI,FM,M1,26.620535071610128,%MAX
CTR,P25,INI,FM,M2,56.20656046581338,%MAX
CTR,P25,INI,FM,M3,66.99810742738886,%MAX
CTR,P25,REL,FM,M1,4.952716891558854,%MAX
CTR,P25,REL,FM,M2,51.00411276440634,%MAX
CTR,P25,REL,FM,M3,59.01904228247496,%MAX
CTR,P35,INI,FM,M1,38.552014464170234,%MAX
CTR,P35,INI,FM,M2,7.823931799413639,%MAX
CTR,P35,INI,FM,M3,86.57179669205202,%MAX
CTR,P35,REL,FM,M1,6.673794890037057,%MAX
CTR,P35,REL,FM,M2,8.900429665140422,%MAX
CTR,P35,REL,FM,M3,87.4076811869278,%MAX
CTR,P38,INI,FM,M1,13.158781780535373,%MAX
CTR,P38,INI,FM,M2,14.19390190929534,%MAX
CTR,P38,INI,FM,M3,18.605936416811364,%MAX
CTR,P38,REL,FM,M1,17.411816444745504,%MAX
CTR,P38,REL,FM,M2,14.902483628432794,%MAX
CTR,P38,REL,FM,M3,36.99581621596745,%MAX
CTR,P39,INI,FM,M1,8.249204624846858,%MAX
CTR,P39,INI,FM,M2,8.48978901234961,%MAX
CTR,P39,INI,FM,M3,55.28984225142184,%MAX
CTR,P39,REL,FM,M1,12.463182180319011,%MAX
CTR,P39,REL,FM,M2,13.427775917689964,%MAX
CTR,P39,REL,FM,M3,11.679374365586641,%MAX
CTR,P40,INI,FM,M1,6.841552799013514,%MAX
CTR,P40,INI,FM,M2,6.903388508552045,%MAX
CTR,P40,INI,FM,M3,16.310685323046528,%MAX
CTR,P40,REL,FM,M1,9.092968301181672,%MAX
CTR,P40,REL,FM,M2,7.300752709372161,%MAX
CTR,P40,REL,FM,M3,51.68926297502818,%MAX
CTR,P44,INI,FM,M1,13.74839781239321,%MAX
CTR,P44,INI,FM,M2,20.006772511158097,%MAX
CTR,P44,INI,FM,M3,32.49196425525303,%MAX
CTR,P44,REL,FM,M1,16.198650554901594,%MAX
CTR,P44,REL,FM,M2,19.012220714844513,%MAX
CTR,P44,REL,FM,M3,37.46518691347807,%MAX
CTR,P46,INI,FM,M1,33.26283600423584,%MAX
CTR,P46,INI,FM,M2,22.37295651018091,%MAX
CTR,P46,INI,FM,M3,28.904173871936443,%MAX
CTR,P46,REL,FM,M1,5.414853509658932,%MAX
CTR,P46,REL,FM,M2,3.2287965445602786,%MAX
CTR,P46,REL,FM,M3,57.86133470282342,%MAX
CTR,P48,INI,FM,M1,11.522051946759374,%MAX
CTR,P48,INI,FM,M2,11.398000783632124,%MAX
CTR,P48,INI,FM,M3,65.49115076790243,%MAX
CTR,P48,REL,FM,M1,22.106046983315146,%MAX
CTR,P48,REL,FM,M2,11.802126688901254,%MAX
CTR,P48,REL,FM,M3,59.737947707461565,%MAX
CTR,P49,INI,FM,M1,9.66819813913369,%MAX
CTR,P49,INI,FM,M2,10.739035861637493,%MAX
CTR,P49,INI,FM,M3,64.14520076879761,%MAX
CTR,P49,REL,FM,M1,11.266680432864437,%MAX
CTR,P49,REL,FM,M2,16.958373946043913,%MAX
CTR,P49,REL,FM,M3,38.438587643506054,%MAX
CTR,P52,INI,FM,M1,35.485192062597115,%MAX
CTR,P52,INI,FM,M2,58.28379933069746,%MAX
CTR,P52,INI,FM,M3,47.40046189567153,%MAX
CTR,P52,REL,FM,M1,32.97702381014959,%MAX
CTR,P52,REL,FM,M2,71.67189147677627,%MAX
CTR,P52,REL,FM,M3,45.81483856190273,%MAX
CTR,P55,INI,FM,M1,24.24859032885763,%MAX
CTR,P55,INI,FM,M2,50.68964268433607,%MAX
CTR,P55,INI,FM,M3,50.16374447746081,%MAX
CTR,P55,REL,FM,M1,31.279881869366278,%MAX
CTR,P55,REL,FM,M2,38.73411648341888,%MAX
CTR,P55,REL,FM,M3,58.736370275664434,%MAX
CTR,P56,INI,FM,M1,25.73238302355917,%MAX
CTR,P56,INI,FM,M2,14.185241367951189,%MAX
CTR,P56,INI,FM,M3,30.465762974650488,%MAX
CTR,P56,REL,FM,M1,40.70804852134791,%MAX
CTR,P56,REL,FM,M2,24.93850188452265,%MAX
CTR,P56,REL,FM,M3,30.323979713099785,%MAX
CTR,P57,INI,FM,M1,26.008602938352084,%MAX
CTR,P57,INI,FM,M2,63.352347489854516,%MAX
CTR,P57,INI,FM,M3,61.55358604642251,%MAX
CTR,P57,REL,FM,M1,24.826099067640662,%MAX
CTR,P57,REL,FM,M2,27.985506172011597,%MAX
CTR,P57,REL,FM,M3,38.757557078398385,%MAX
CTR,P60,INI,FM,M1,59.17309935691975,%MAX
CTR,P60,INI,FM,M2,72.11983547773069,%MAX
CTR,P60,INI,FM,M3,67.7727086392291,%MAX
CTR,P60,REL,FM,M1,18.53937277886067,%MAX
CTR,P60,REL,FM,M2,69.23825743555047,%MAX
CTR,P60,REL,FM,M3,87.22384500241849,%MAX
CTR,P64,INI,FM,M1,18.342747094022904,%MAX
CTR,P64,INI,FM,M2,24.398140507230554,%MAX
CTR,P64,INI,FM,M3,36.714210419020574,%MAX
CTR,P64,REL,FM,M1,19.13525176966713,%MAX
CTR,P64,REL,FM,M2,62.42279933712079,%MAX
CTR,P64,REL,FM,M3,16.215942888918228,%MAX
CTR,P66,INI,FM,M1,28.787014733537575,%MAX
CTR,P66,INI,FM,M2,55.41875332867473,%MAX
CTR,P66,INI,FM,M3,50.370106917573764,%MAX
CTR,P66,REL,FM,M1,6.324758118704722,%MAX
CTR,P66,REL,FM,M2,6.397378517933614,%MAX
CTR,P66,REL,FM,M3,8.015769261656857,%MAX
CTR,P67,INI,FM,M1,49.99050143205207,%MAX
CTR,P67,INI,FM,M2,172.32142635431953,%MAX
CTR,P67,INI,FM,M3,64.45510560831777,%MAX
CTR,P67,REL,FM,M1,70.81034912434617,%MAX
CTR,P67,REL,FM,M2,31.77652776771385,%MAX
CTR,P67,REL,FM,M3,28.35314713527773,%MAX
CTR,P68,INI,FM,M1,4.04995670363139,%MAX
CTR,P68,INI,FM,M2,52.80788070121856,%MAX
CTR,P68,INI,FM,M3,155.7824640399552,%MAX
CTR,P68,REL,FM,M1,86.90899315745808,%MAX
CTR,P68,REL,FM,M2,81.30480402066827,%MAX
CTR,P68,REL,FM,M3,39.37705221734885,%MAX
