Group,Participant,Session,Operator,Measure,Value,Unit
CTR,P01,INI,FM,M1,29.465469409743026,%MAX
CTR,P01,INI,FM,M2,28.417651496710196,%MAX
CTR,P01,INI,FM,M3,29.023024194014482,%MAX
CTR,P01,REL,FM,M1,19.936108038375952,%MAX
CTR,P01,REL,FM,M2,28.576738745802984,%MAX
CTR,P01,REL,FM,M3,25.810237779507577,%MAX
CTR,P02,INI,FM,M1,26.620958377220536,%MAX
CTR,P02,INI,FM,M2,39.252915414039954,%MAX
CTR,P02,INI,FM,M3,49.815556610797806,%MAX
CTR,P02,REL,FM,M1,28.495909482722123,%MAX
CTR,P02,REL,FM,M2,31.00976265361437,%MAX
CTR,P02,REL,FM,M3,34.37221567801916,%MAX
CTR,P03,INI,FM,M1,32.218882149839274,%MAX
CTR,P03,INI,FM,M2,29.216815195430687,%MAX
CTR,P03,INI,FM,M3,32.33531580789865,%MAX
CTR,P03,REL,FM,M1,32.59889043268358,%MAX
CTR,P03,REL,FM,M2,31.231305905904346,%MAX
CTR,P03,REL,FM,M3,31.858195831767006,%MAX
CTR,P05,INI,FM,M1,18.38030254465716,%MAX
CTR,P05,INI,FM,M2,21.87394821128939,%MAX
CTR,P05,INI,FM,M3,18.66931217003175,%MAX
CTR,P05,REL,FM,M1,21.87473478603526,%MAX
CTR,P05,REL,FM,M2,20.94160823156754,%MAX
CTR,P05,REL,FM,M3,20.84336808326503,%MAX
CTR,P06,INI,FM,M1,16.56343915752864,%MAX
CTR,P06,INI,FM,M2,14.79824744757965,%MAX
CTR,P06,INI,FM,M3,17.928059578733382,%MAX
CTR,P06,REL,FM,M1,27.474925796139168,%MAX
CTR,P06,REL,FM,M2,27.465278460978684,%MAX
CTR,P06,REL,FM,M3,28.426645612642442,%MAX
CTR,P07,INI,FM,M1,25.249452176598876,%MAX
CTR,P07,INI,FM,M2,30.876721335534473,%MAX
CTR,P07,INI,FM,M3,33.04599213264526,%MAX
CTR,P07,REL,FM,M1,31.800500123633785,%MAX
CTR,P07,REL,FM,M2,31.15989074096491,%MAX
CTR,P07,REL,FM,M3,34.34574984271509,%MAX
CTR,P08,INI,FM,M1,19.364956633929204,%MAX
CTR,P08,INI,FM,M2,24.11252166374297,%MAX
CTR,P08,INI,FM,M3,23.518510160355692,%MAX
CTR,P08,REL,FM,M1,19.94327428820221,%MAX
CTR,P08,REL,FM,M2,20.160239758754834,%MAX
CTR,P08,REL,FM,M3,18.559960147912214,%MAX
CTR,P13,INI,FM,M1,32.273794621903406,%MAX
CTR,P13,INI,FM,M2,34.471254938047515,%MAX
CTR,P13,INI,FM,M3,33.64149563431991,%MAX
CTR,P13,REL,FM,M1,26.14315712364403,%MAX
CTR,P13,REL,FM,M2,24.424551389235496,%MAX
CTR,P13,REL,FM,M3,22.960718845597704,%MAX
CTR,P16,INI,FM,M1,41.975469097757625,%MAX
CTR,P16,INI,FM,M2,43.77600218784289,%MAX
CTR,P16,INI,FM,M3,36.65398316097413,%MAX
CTR,P16,REL,FM,M1,32.74175556262555,%MAX
CTR,P16,REL,FM,M2,32.38956378548671,%MAX
CTR,P16,REL,FM,M3,35.597208749828,%MAX
CTR,P21,INI,FM,M1,45.08993009370798,%MAX
CTR,P21,INI,FM,M2,45.91621311817517,%MAX
CTR,P21,INI,FM,M3,49.71284324508793,%MAX
CTR,P21,REL,FM,M1,25.698782100148833,%MAX
CTR,P21,REL,FM,M2,25.56599933249963,%MAX
CTR,P21,REL,FM,M3,26.328032654527348,%MAX
CTR,P22,INI,FM,M1,27.924015411882387,%MAX
CTR,P22,INI,FM,M2,31.46490823150954,%MAX
CTR,P22,INI,FM,M3,33.063787602572056,%MAX
CTR,P22,REL,FM,M1,41.36309378782319,%MAX
CTR,P22,REL,FM,M2,59.207114110184776,%MAX
CTR,P22,REL,FM,M3,51.97069210661752,%MAX
CTR,P23,INI,FM,M1,17.633018553235164,%MAX
CTR,P23,INI,FM,M2,21.47708835333535,%MAX
CTR,P23,INI,FM,M3,27.734927600325427,%MAX
CTR,P23,REL,FM,M1,37.445369910009205,%MAX
CTR,P23,REL,FM,M2,47.33068094182046,%MAX
CTR,P23,REL,FM,M3,52.21566230310264,%MAX
CTR,P25,INI,FM,M1,31.583367539202367,%MAX
CTR,P25,INI,FM,M2,40.219578455979345,%MAX
CTR,P25,INI,FM,M3,41.491682145642834,%MAX
CTR,P25,REL,FM,M1,20.900832310144363,%MAX
CTR,P25,REL,FM,M2,37.32331943191262,%MAX
CTR,P25,REL,FM,M3,48.673207513855616,%MAX
CTR,P35,INI,FM,M1,51.305930382928196,%MAX
CTR,P35,INI,FM,M2,19.360566714565852,%MAX
CTR,P35,INI,FM,M3,57.19875035601777,%MAX
CTR,P35,REL,FM,M1,25.716175002504517,%MAX
CTR,P35,REL,FM,M2,24.18574778386323,%MAX
CTR,P35,REL,FM,M3,45.945801298572555,%MAX
CTR,P38,INI,FM,M1,39.726410078859544,%MAX
CTR,P38,INI,FM,M2,46.81595810984307,%MAX
CTR,P38,INI,FM,M3,43.30192335870745,%MAX
CTR,P38,REL,FM,M1,17.96016617045304,%MAX
CTR,P38,REL,FM,M2,22.54751589229776,%MAX
CTR,P38,REL,FM,M3,23.41876750343394,%MAX
CTR,P39,INI,FM,M1,18.19807439568794,%MAX
CTR,P39,INI,FM,M2,15.573713116912685,%MAX
CTR,P39,INI,FM,M3,25.88108357211537,%MAX
CTR,P39,REL,FM,M1,34.159476876006565,%MAX
CTR,P39,REL,FM,M2,22.39896602012348,%MAX
CTR,P39,REL,FM,M3,29.48319127568257,%MAX
CTR,P40,INI,FM,M1,20.069107662349627,%MAX
CTR,P40,INI,FM,M2,24.854376462358875,%MAX
CTR,P40,INI,FM,M3,51.565729801527674,%MAX
CTR,P40,REL,FM,M1,23.791111172838054,%MAX
CTR,P40,REL,FM,M2,22.63603142443812,%MAX
CTR,P40,REL,FM,M3,33.00846923078529,%MAX
CTR,P44,INI,FM,M1,15.393105992596416,%MAX
CTR,P44,INI,FM,M2,15.140236157416718,%MAX
CTR,P44,INI,FM,M3,39.49585287579906,%MAX
CTR,P44,REL,FM,M1,15.653894107995129,%MAX
CTR,P44,REL,FM,M2,14.187600277602849,%MAX
CTR,P44,REL,FM,M3,60.86998086602123,%MAX
CTR,P46,INI,FM,M1,15.315794118160957,%MAX
CTR,P46,INI,FM,M2,15.344935913176588,%MAX
CTR,P46,INI,FM,M3,14.413742184159025,%MAX
CTR,P46,REL,FM,M1,18.924826457166702,%MAX
CTR,P46,REL,FM,M2,21.292406133248605,%MAX
CTR,P46,REL,FM,M3,47.843836277722424,%MAX
CTR,P48,INI,FM,M1,26.770695167313285,%MAX
CTR,P48,INI,FM,M2,23.32169703585793,%MAX
CTR,P48,INI,FM,M3,37.36268763270918,%MAX
CTR,P48,REL,FM,M1,26.05999001435443,%MAX
CTR,P48,REL,FM,M2,25.242552298110223,%MAX
CTR,P48,REL,FM,M3,32.990729788272866,%MAX
CTR,P49,INI,FM,M1,19.902756001974634,%MAX
CTR,P49,INI,FM,M2,19.798580673075996,%MAX
CTR,P49,INI,FM,M3,53.49496028729071,%MAX
CTR,P49,REL,FM,M1,20.77447996407448,%MAX
CTR,P49,REL,FM,M2,24.81396872633417,%MAX
CTR,P49,REL,FM,M3,34.380885010917055,%MAX
CTR,P52,INI,FM,M1,31.304426933846646,%MAX
CTR,P52,INI,FM,M2,29.278517763285336,%MAX
CTR,P52,INI,FM,M3,28.391812272206902,%MAX
CTR,P52,REL,FM,M1,45.9265041180396,%MAX
CTR,P52,REL,FM,M2,51.354001206557186,%MAX
CTR,P52,REL,FM,M3,38.04389356308597,%MAX
CTR,P55,INI,FM,M1,32.41687775392011,%MAX
CTR,P55,INI,FM,M2,36.383219867222074,%MAX
CTR,P55,INI,FM,M3,23.021880004283698,%MAX
CTR,P55,REL,FM,M1,26.18604134432019,%MAX
CTR,P55,REL,FM,M2,46.05067393156117,%MAX
CTR,P55,REL,FM,M3,33.82892012558887,%MAX
CTR,P56,INI,FM,M1,28.564536616805555,%MAX
CTR,P56,INI,FM,M2,38.92211112895855,%MAX
CTR,P56,INI,FM,M3,35.80650153292568,%MAX
CTR,P56,REL,FM,M1,32.740037708754805,%MAX
CTR,P56,REL,FM,M2,39.21061024789048,%MAX
CTR,P56,REL,FM,M3,37.65303332528493,%MAX
CTR,P57,INI,FM,M1,26.738352265780463,%MAX
CTR,P57,INI,FM,M2,30.888228565012867,%MAX
CTR,P57,INI,FM,M3,46.63529759761833,%MAX
CTR,P57,REL,FM,M1,30.312504599133465,%MAX
CTR,P57,REL,FM,M2,27.3997227994364,%MAX
CTR,P57,REL,FM,M3,23.379358892449353,%MAX
CTR,P60,INI,FM,M1,35.156151605056834,%MAX
CTR,P60,INI,FM,M2,31.921467381106496,%MAX
CTR,P60,INI,FM,M3,31.207836733583886,%MAX
CTR,P60,REL,FM,M1,28.528495692449408,%MAX
CTR,P60,REL,FM,M2,25.975021687133392,%MAX
CTR,P60,REL,FM,M3,35.58310022334144,%MAX
CTR,P64,INI,FM,M1,46.98006192191593,%MAX
CTR,P64,INI,FM,M2,44.728859325041135,%MAX
CTR,P64,INI,FM,M3,48.647410506142485,%MAX
CTR,P64,REL,FM,M1,32.079975980191094,%MAX
CTR,P64,REL,FM,M2,41.066527629640134,%MAX
CTR,P64,REL,FM,M3,37.314052271082765,%MAX
CTR,P66,INI,FM,M1,36.72877771547017,%MAX
CTR,P66,INI,FM,M2,54.117670965734035,%MAX
CTR,P66,INI,FM,M3,61.2296596799206,%MAX
CTR,P66,REL,FM,M1,21.015376260405564,%MAX
CTR,P66,REL,FM,M2,22.64614538836004,%MAX
CTR,P66,REL,FM,M3,27.676830690748414,%MAX
CTR,P67,INI,FM,M1,31.08529175713369,%MAX
CTR,P67,INI,FM,M2,51.79132923516306,%MAX
CTR,P67,INI,FM,M3,43.21190118879119,%MAX
CTR,P67,REL,FM,M1,19.722410941605943,%MAX
CTR,P67,REL,FM,M2,23.98325878670692,%MAX
CTR,P67,REL,FM,M3,28.560757960170644,%MAX
CTR,P68,INI,FM,M1,23.571237115203573,%MAX
CTR,P68,INI,FM,M2,39.82638059025208,%MAX
CTR,P68,INI,FM,M3,66.79041358118614,%MAX
CTR,P68,REL,FM,M1,35.18848201525878,%MAX
CTR,P68,REL,FM,M2,39.052121330840066,%MAX
CTR,P68,REL,FM,M3,29.62448250487277,%MAX
