Group,Participant,Session,Operator,Measure,Value,Unit
PAT,P09,INI,FM,M1,14.362632938531135,%subMVIC
PAT,P09,INI,FM,M2,12.833675381445971,%subMVIC
PAT,P09,INI,FM,M3,12.242385394015983,%subMVIC
PAT,P09,REL,FM,M1,19.319437785598964,%subMVIC
PAT,P09,REL,FM,M2,21.268043066978755,%subMVIC
PAT,P09,REL,FM,M3,19.311143876548577,%subMVIC
PAT,P10,INI,FM,M1,99.17890491436727,%subMVIC
PAT,P10,INI,FM,M2,113.9273302325496,%subMVIC
PAT,P10,INI,FM,M3,127.10853401189235,%subMVIC
PAT,P10,REL,FM,M1,47.795978671654396,%subMVIC
PAT,P10,REL,FM,M2,48.86151184966855,%subMVIC
PAT,P10,REL,FM,M3,49.330491564219685,%subMVIC
PAT,P11,INI,FM,M1,12.6448727375315,%subMVIC
PAT,P11,INI,FM,M2,12.201884898945236,%subMVIC
PAT,P11,INI,FM,M3,12.738034394117653,%subMVIC
PAT,P11,REL,FM,M1,35.3611343689799,%subMVIC
PAT,P11,REL,FM,M2,36.2909236824536,%subMVIC
PAT,P11,REL,FM,M3,38.39375168620766,%subMVIC
PAT,P12,INI,FM,M1,51.74342871598823,%subMVIC
PAT,P12,INI,FM,M2,54.27772093080696,%subMVIC
PAT,P12,INI,FM,M3,56.62894181123569,%subMVIC
PAT,P12,REL,FM,M1,28.567340624937557,%subMVIC
PAT,P12,REL,FM,M2,27.997494183922075,%subMVIC
PAT,P12,REL,FM,M3,27.23053351145481,%subMVIC
PAT,P14,INI,FM,M1,41.137908853860885,%subMVIC
PAT,P14,INI,FM,M2,37.98572954122564,%subMVIC
PAT,P14,INI,FM,M3,43.098973273193124,%subMVIC
PAT,P14,REL,FM,M1,156.32798845007014,%subMVIC
PAT,P14,REL,FM,M2,203.33198154649466,%subMVIC
PAT,P14,REL,FM,M3,189.8680505729511,%subMVIC
PAT,P17,INI,FM,M1,36.48067800216866,%subMVIC
PAT,P17,INI,FM,M2,44.377444400708285,%subMVIC
PAT,P17,INI,FM,M3,50.48713835126896,%subMVIC
PAT,P17,REL,FM,M1,16.931610446959844,%subMVIC
PAT,P17,REL,FM,M2,16.874671130344495,%subMVIC
PAT,P17,REL,FM,M3,17.368174404562257,%subMVIC
PAT,P24,INI,FM,M1,96.10491972140082,%subMVIC
PAT,P24,INI,FM,M2,100.7915731483466,%subMVIC
PAT,P24,INI,FM,M3,83.37593206010763,%subMVIC
PAT,P24,REL,FM,M1,37.79622064524738,%subMVIC
PAT,P24,REL,FM,M2,37.670778219077576,%subMVIC
PAT,P24,REL,FM,M3,42.39181845862039,%subMVIC
PAT,P26,INI,FM,M1,20.0094832468792,%subMVIC
PAT,P26,INI,FM,M2,20.962020254847904,%subMVIC
PAT,P26,INI,FM,M3,16.952523815782506,%subMVIC
PAT,P26,REL,FM,M1,41.90053979420034,%subMVIC
PAT,P26,REL,FM,M2,43.71836353893029,%subMVIC
PAT,P26,REL,FM,M3,45.87885121684988,%subMVIC
PAT,P27,INI,FM,M1,25.32977774339804,%subMVIC
PAT,P27,INI,FM,M2,25.07905737363746,%subMVIC
PAT,P27,INI,FM,M3,25.16692866874867,%subMVIC
PAT,P27,REL,FM,M1,608.9095869621937,%subMVIC
PAT,P27,REL,FM,M2,26.497980919037158,%subMVIC
PAT,P27,REL,FM,M3,26.736178701892957,%subMVIC
PAT,P28,INI,FM,M1,40.74716589623982,%subMVIC
PAT,P28,INI,FM,M2,44.20347379281482,%subMVIC
PAT,P28,INI,FM,M3,37.22982506462927,%subMVIC
PAT,P28,REL,FM,M1,94.80040191053874,%subMVIC
PAT,P28,REL,FM,M2,96.23343876737732,%subMVIC
PAT,P28,REL,FM,M3,78.27418543431104,%subMVIC
PAT,P29,INI,FM,M1,19.540244476646183,%subMVIC
PAT,P29,INI,FM,M2,26.35064887742275,%subMVIC
PAT,P29,INI,FM,M3,21.86420094566397,%subMVIC
PAT,P29,REL,FM,M1,23.91883252107625,%subMVIC
PAT,P29,REL,FM,M2,21.822007080017414,%subMVIC
PAT,P29,REL,FM,M3,22.462583556858565,%subMVIC
PAT,P30,INI,FM,M1,21.9210540510006,%subMVIC
PAT,P30,INI,FM,M2,25.68861326845317,%subMVIC
PAT,P30,INI,FM,M3,17.59555346845175,%subMVIC
PAT,P30,REL,FM,M1,25.789018083466175,%subMVIC
PAT,P30,REL,FM,M2,26.987169605012152,%subMVIC
PAT,P30,REL,FM,M3,27.48055129532894,%subMVIC
PAT,P32,INI,FM,M1,11.674288374946752,%subMVIC
PAT,P32,INI,FM,M2,11.624709460048724,%subMVIC
PAT,P32,INI,FM,M3,11.169305856683291,%subMVIC
PAT,P32,REL,FM,M1,20.910642985686152,%subMVIC
PAT,P32,REL,FM,M2,18.798501652605058,%subMVIC
PAT,P32,REL,FM,M3,18.928325370656296,%subMVIC
PAT,P33,INI,FM,M1,22.545303159184787,%subMVIC
PAT,P33,INI,FM,M2,30.86997147410055,%subMVIC
PAT,P33,INI,FM,M3,20.694207446061544,%subMVIC
PAT,P33,REL,FM,M1,60.238280120212536,%subMVIC
PAT,P33,REL,FM,M2,79.67335437646517,%subMVIC
PAT,P33,REL,FM,M3,56.82683141886332,%subMVIC
PAT,P34,INI,FM,M1,22.43962419247179,%subMVIC
PAT,P34,INI,FM,M2,25.056457618920625,%subMVIC
PAT,P34,INI,FM,M3,22.40469713085076,%subMVIC
PAT,P34,REL,FM,M1,21.665976639435062,%subMVIC
PAT,P34,REL,FM,M2,22.12484144618299,%subMVIC
PAT,P34,REL,FM,M3,20.428968478175012,%subMVIC
PAT,P36,INI,FM,M1,32.96428128985386,%subMVIC
PAT,P36,INI,FM,M2,28.070670104172663,%subMVIC
PAT,P36,INI,FM,M3,19.576684476321432,%subMVIC
PAT,P36,REL,FM,M1,16.905010145945926,%subMVIC
PAT,P36,REL,FM,M2,15.429870360695901,%subMVIC
PAT,P36,REL,FM,M3,13.89936987609854,%subMVIC
PAT,P41,INI,FM,M1,28.039108960334882,%subMVIC
PAT,P41,INI,FM,M2,29.2967563844042,%subMVIC
PAT,P41,INI,FM,M3,23.59992336699914,%subMVIC
PAT,P41,REL,FM,M1,19.246557608717545,%subMVIC
PAT,P41,REL,FM,M2,17.61434498153907,%subMVIC
PAT,P41,REL,FM,M3,17.320570125294996,%subMVIC
PAT,P42,INI,FM,M1,47.50799988895423,%subMVIC
PAT,P42,INI,FM,M2,49.58262888688358,%subMVIC
PAT,P42,INI,FM,M3,50.606520996561436,%subMVIC
PAT,P42,REL,FM,M1,35.90843525812285,%subMVIC
PAT,P42,REL,FM,M2,34.640885795764305,%subMVIC
PAT,P42,REL,FM,M3,36.036442580404575,%subMVIC
PAT,P43,INI,FM,M1,19.456156755728173,%subMVIC
PAT,P43,INI,FM,M2,28.226594562840305,%subMVIC
PAT,P43,INI,FM,M3,31.012062852871885,%subMVIC
PAT,P43,REL,FM,M1,34.15116704729037,%subMVIC
PAT,P43,REL,FM,M2,25.952731561719496,%subMVIC
PAT,P43,REL,FM,M3,29.147205937466822,%subMVIC
PAT,P45,INI,FM,M1,47.95672637982256,%subMVIC
PAT,P45,INI,FM,M2,35.00697397669529,%subMVIC
PAT,P45,INI,FM,M3,25.692142938040654,%subMVIC
PAT,P45,REL,FM,M1,19.086114959016918,%subMVIC
PAT,P45,REL,FM,M2,19.498244663798584,%subMVIC
PAT,P45,REL,FM,M3,17.791697722338903,%subMVIC
PAT,P47,INI,FM,M1,28.157442710707507,%subMVIC
PAT,P47,INI,FM,M2,29.517066220336392,%subMVIC
PAT,P47,INI,FM,M3,33.27369982152362,%subMVIC
PAT,P47,REL,FM,M1,22.191818129405725,%subMVIC
PAT,P47,REL,FM,M2,23.224617369072156,%subMVIC
PAT,P47,REL,FM,M3,22.641707219689046,%subMVIC
PAT,P50,INI,FM,M1,24.042949719898562,%subMVIC
PAT,P50,INI,FM,M2,31.638992913863202,%subMVIC
PAT,P50,INI,FM,M3,23.858667727449305,%subMVIC
PAT,P50,REL,FM,M1,27.46356569286752,%subMVIC
PAT,P50,REL,FM,M2,24.411210986513318,%subMVIC
PAT,P50,REL,FM,M3,25.296758835962873,%subMVIC
PAT,P51,INI,FM,M1,15.15395247784223,%subMVIC
PAT,P51,INI,FM,M2,14.168781764439915,%subMVIC
PAT,P51,INI,FM,M3,14.349540284758028,%subMVIC
PAT,P51,REL,FM,M1,8.554270235776688,%subMVIC
PAT,P51,REL,FM,M2,9.860311154945794,%subMVIC
PAT,P51,REL,FM,M3,8.125310820302817,%subMVIC
PAT,P53,INI,FM,M1,14.631000955295715,%subMVIC
PAT,P53,INI,FM,M2,18.49885682464426,%subMVIC
PAT,P53,INI,FM,M3,18.05176807827143,%subMVIC
PAT,P53,REL,FM,M1,20.404846572375952,%subMVIC
PAT,P53,REL,FM,M2,22.428383206514834,%subMVIC
PAT,P53,REL,FM,M3,19.68864549238852,%subMVIC
PAT,P54,INI,FM,M1,41.087861267155546,%subMVIC
PAT,P54,INI,FM,M2,45.45959944126319,%subMVIC
PAT,P54,INI,FM,M3,46.96164000851816,%subMVIC
PAT,P54,REL,FM,M1,71.64907937377981,%subMVIC
PAT,P54,REL,FM,M2,57.362357613153065,%subMVIC
PAT,P54,REL,FM,M3,52.927606499033345,%subMVIC
PAT,P58,INI,FM,M1,28.173277413887234,%subMVIC
PAT,P58,INI,FM,M2,27.365140978236635,%subMVIC
PAT,P58,INI,FM,M3,27.440222129732977,%subMVIC
PAT,P58,REL,FM,M1,33.3502765005545,%subMVIC
PAT,P58,REL,FM,M2,31.420836282112045,%subMVIC
PAT,P58,REL,FM,M3,23.860344302648446,%subMVIC
PAT,P61,REL,FM,M1,14.038314938013864,%subMVIC
PAT,P61,REL,FM,M2,12.361499719962689,%subMVIC
PAT,P61,REL,FM,M3,13.155287784437048,%subMVIC
PAT,P62,INI,FM,M1,10.823701102391864,%subMVIC
PAT,P62,INI,FM,M2,11.01238679416129,%subMVIC
PAT,P62,INI,FM,M3,12.559439561487602,%subMVIC
PAT,P62,REL,FM,M1,20.79787407488044,%subMVIC
PAT,P62,REL,FM,M2,19.18689808050042,%subMVIC
PAT,P62,REL,FM,M3,18.556985319984722,%subMVIC
PAT,P63,INI,FM,M1,29.191338611345696,%subMVIC
PAT,P63,INI,FM,M2,45.48087369949487,%subMVIC
PAT,P63,INI,FM,M3,60.28434290932426,%subMVIC
PAT,P63,REL,FM,M1,26.81442112645966,%subMVIC
PAT,P63,REL,FM,M2,32.83025732606244,%subMVIC
PAT,P63,REL,FM,M3,33.09908428439211,%subMVIC
PAT,P65,INI,FM,M1,22.811649282869134,%subMVIC
PAT,P65,INI,FM,M2,25.40981747033688,%subMVIC
PAT,P65,INI,FM,M3,22.152311530478016,%subMVIC
PAT,P65,REL,FM,M1,21.333847433286852,%subMVIC
PAT,P65,REL,FM,M2,20.495448926383474,%subMVIC
PAT,P65,REL,FM,M3,17.81855925655951,%subMVIC
