Group,Participant,Session,Operator,Measure,Value,Unit
PAT,P09,INI,FM,M1,10.666080803774904,%MAX
PAT,P09,INI,FM,M2,13.787450438297318,%MAX
PAT,P09,INI,FM,M3,16.22096792266785,%MAX
PAT,P09,REL,FM,M1,13.918859490451137,%MAX
PAT,P09,REL,FM,M2,15.336741491158062,%MAX
PAT,P09,REL,FM,M3,17.00344393951578,%MAX
PAT,P10,INI,FM,M1,6.7213863497582516,%MAX
PAT,P10,INI,FM,M2,6.643699445582268,%MAX
PAT,P10,INI,FM,M3,6.78128152814843,%MAX
PAT,P10,REL,FM,M1,9.029912180170536,%MAX
PAT,P10,REL,FM,M2,10.070607934648653,%MAX
PAT,P10,REL,FM,M3,8.7642787334244,%MAX
PAT,P11,INI,FM,M1,7.230144594740558,%MAX
PAT,P11,INI,FM,M2,7.668544656801582,%MAX
PAT,P11,INI,FM,M3,8.37686972453966,%MAX
PAT,P11,REL,FM,M1,8.870484524039066,%MAX
PAT,P11,REL,FM,M2,5.420074638912198,%MAX
PAT,P11,REL,FM,M3,5.966854163781939,%MAX
PAT,P12,INI,FM,M1,15.76657381964408,%MAX
PAT,P12,INI,FM,M2,11.579369060329304,%MAX
PAT,P12,INI,FM,M3,12.935193212306649,%MAX
PAT,P12,REL,FM,M1,14.24089888755607,%MAX
PAT,P12,REL,FM,M2,14.397390240360401,%MAX
PAT,P12,REL,FM,M3,12.090292358430027,%MAX
PAT,P14,INI,FM,M1,10.023352874650262,%MAX
PAT,P14,INI,FM,M2,10.61874968628973,%MAX
PAT,P14,INI,FM,M3,11.466306336000029,%MAX
PAT,P14,REL,FM,M1,9.365901474950032,%MAX
PAT,P14,REL,FM,M2,9.412418142519629,%MAX
PAT,P14,REL,FM,M3,8.898280011860205,%MAX
PAT,P17,INI,FM,M1,30.4510573729659,%MAX
PAT,P17,INI,FM,M2,27.88174292917181,%MAX
PAT,P17,INI,FM,M3,27.207175161112094,%MAX
PAT,P17,REL,FM,M1,21.232592969013805,%MAX
PAT,P17,REL,FM,M2,24.883776408176992,%MAX
PAT,P17,REL,FM,M3,26.96505624103596,%MAX
PAT,P24,INI,FM,M1,11.944226869785648,%MAX
PAT,P24,INI,FM,M2,11.443836484679274,%MAX
PAT,P24,INI,FM,M3,37.95271668572976,%MAX
PAT,P24,REL,FM,M1,12.443673008399468,%MAX
PAT,P24,REL,FM,M2,10.390270594831673,%MAX
PAT,P24,REL,FM,M3,10.862295126423962,%MAX
PAT,P26,INI,FM,M1,20.594041946853757,%MAX
PAT,P26,INI,FM,M2,24.41972844788116,%MAX
PAT,P26,INI,FM,M3,85.29604438385888,%MAX
PAT,P26,REL,FM,M1,33.12812078999068,%MAX
PAT,P26,REL,FM,M2,28.081865816543548,%MAX
PAT,P26,REL,FM,M3,32.540713073018956,%MAX
PAT,P27,INI,FM,M1,11.533992260470903,%MAX
PAT,P27,INI,FM,M2,14.05575058259314,%MAX
PAT,P27,INI,FM,M3,74.95152722751247,%MAX
PAT,P27,REL,FM,M1,16.03637850998642,%MAX
PAT,P27,REL,FM,M2,14.376821726527169,%MAX
PAT,P27,REL,FM,M3,59.0441849384202,%MAX
PAT,P28,INI,FM,M1,13.025481877664562,%MAX
PAT,P28,INI,FM,M2,11.8642227760535,%MAX
PAT,P28,INI,FM,M3,32.432917834269524,%MAX
PAT,P28,REL,FM,M1,15.242705359932781,%MAX
PAT,P28,REL,FM,M2,16.698005346414114,%MAX
PAT,P28,REL,FM,M3,22.142483419245284,%MAX
PAT,P29,INI,FM,M1,17.66994415965359,%MAX
PAT,P29,INI,FM,M2,20.94217963997865,%MAX
PAT,P29,INI,FM,M3,40.40474051903624,%MAX
PAT,P29,REL,FM,M1,18.7512169580948,%MAX
PAT,P29,REL,FM,M2,14.046598447689739,%MAX
PAT,P29,REL,FM,M3,33.288174459597684,%MAX
PAT,P30,INI,FM,M1,28.953686518445952,%MAX
PAT,P30,INI,FM,M2,25.99246818045818,%MAX
PAT,P30,INI,FM,M3,45.16734113721118,%MAX
PAT,P30,REL,FM,M1,34.563443987461,%MAX
PAT,P30,REL,FM,M2,27.442100721014445,%MAX
PAT,P30,REL,FM,M3,25.497650412153977,%MAX
PAT,P32,INI,FM,M1,9.644837191273652,%MAX
PAT,P32,INI,FM,M2,11.408979643386175,%MAX
PAT,P32,INI,FM,M3,27.637846945482902,%MAX
PAT,P32,REL,FM,M1,8.200219278945168,%MAX
PAT,P32,REL,FM,M2,17.57904287299136,%MAX
PAT,P32,REL,FM,M3,46.731255234939994,%MAX
PAT,P33,INI,FM,M1,12.572100192369403,%MAX
PAT,P33,INI,FM,M2,11.563958090468503,%MAX
PAT,P33,INI,FM,M3,25.44980124855216,%MAX
PAT,P33,REL,FM,M1,19.109067640220466,%MAX
PAT,P33,REL,FM,M2,27.431798416731947,%MAX
PAT,P33,REL,FM,M3,30.60781628151087,%MAX
PAT,P34,INI,FM,M1,22.98361603675983,%MAX
PAT,P34,INI,FM,M2,28.72147214984983,%MAX
PAT,P34,INI,FM,M3,35.37113132642213,%MAX
PAT,P34,REL,FM,M1,15.264734301928465,%MAX
PAT,P34,REL,FM,M2,16.120213406996935,%MAX
PAT,P34,REL,FM,M3,37.6163718041218,%MAX
PAT,P36,INI,FM,M1,11.043363235713795,%MAX
PAT,P36,INI,FM,M2,13.462451006242942,%MAX
PAT,P36,INI,FM,M3,39.023742495978176,%MAX
PAT,P36,REL,FM,M1,9.140146397622038,%MAX
PAT,P36,REL,FM,M2,8.582433278871326,%MAX
PAT,P36,REL,FM,M3,30.945680634155693,%MAX
PAT,P41,INI,FM,M1,10.926227069329919,%MAX
PAT,P41,INI,FM,M2,9.378432584864179,%MAX
PAT,P41,INI,FM,M3,25.540123678058393,%MAX
PAT,P41,REL,FM,M1,10.205399270028026,%MAX
PAT,P41,REL,FM,M2,9.699201790708884,%MAX
PAT,P41,REL,FM,M3,22.13330586004209,%MAX
PAT,P42,INI,FM,M1,3.381979337626822,%MAX
PAT,P42,INI,FM,M2,4.118472145661175,%MAX
PAT,P42,INI,FM,M3,4.492374692237205,%MAX
PAT,P42,REL,FM,M1,4.791453050366479,%MAX
PAT,P42,REL,FM,M2,4.027005920589337,%MAX
PAT,P42,REL,FM,M3,21.897009248279108,%MAX
PAT,P43,INI,FM,M1,7.059771519248501,%MAX
PAT,P43,INI,FM,M2,13.99792447456673,%MAX
PAT,P43,INI,FM,M3,33.53039752270905,%MAX
PAT,P43,REL,FM,M1,12.000168883638429,%MAX
PAT,P43,REL,FM,M2,10.522592211725867,%MAX
PAT,P43,REL,FM,M3,20.987785575890744,%MAX
PAT,P45,INI,FM,M1,16.227603336828864,%MAX
PAT,P45,INI,FM,M2,15.895090356274597,%MAX
PAT,P45,INI,FM,M3,31.9506745620986,%MAX
PAT,P45,REL,FM,M1,9.095102283995576,%MAX
PAT,P45,REL,FM,M2,8.71930563221631,%MAX
PAT,P45,REL,FM,M3,8.897548195497457,%MAX
PAT,P47,INI,FM,M1,13.958899140325363,%MAX
PAT,P47,INI,FM,M2,10.684591118919995,%MAX
PAT,P47,INI,FM,M3,16.05082845731817,%MAX
PAT,P47,REL,FM,M1,10.336372338385852,%MAX
PAT,P47,REL,FM,M2,14.084520568007772,%MAX
PAT,P47,REL,FM,M3,30.237155843488715,%MAX
PAT,P50,INI,FM,M1,9.16471813681623,%MAX
PAT,P50,INI,FM,M2,10.302648786031357,%MAX
PAT,P50,INI,FM,M3,58.9152872356616,%MAX
PAT,P50,REL,FM,M1,12.832271128528555,%MAX
PAT,P50,REL,FM,M2,9.520052903168878,%MAX
PAT,P50,REL,FM,M3,5.878207368828299,%MAX
PAT,P51,INI,FM,M1,20.346847477719205,%MAX
PAT,P51,INI,FM,M2,18.411370910904587,%MAX
PAT,P51,INI,FM,M3,18.81042692674097,%MAX
PAT,P51,REL,FM,M1,24.558737745195575,%MAX
PAT,P51,REL,FM,M2,37.14481750170838,%MAX
PAT,P51,REL,FM,M3,34.42132714526478,%MAX
PAT,P53,INI,FM,M1,32.4875082322068,%MAX
PAT,P53,INI,FM,M2,21.819551159474333,%MAX
PAT,P53,INI,FM,M3,18.47042448688095,%MAX
PAT,P53,REL,FM,M1,12.71909731400664,%MAX
PAT,P53,REL,FM,M2,11.06786585279456,%MAX
PAT,P53,REL,FM,M3,68.27117437751605,%MAX
PAT,P54,INI,FM,M1,27.26809092808485,%MAX
PAT,P54,INI,FM,M2,58.88533076681789,%MAX
PAT,P54,INI,FM,M3,57.45817717224436,%MAX
PAT,P54,REL,FM,M1,38.00754028911604,%MAX
PAT,P54,REL,FM,M2,39.76864665139858,%MAX
PAT,P54,REL,FM,M3,54.09823676777131,%MAX
PAT,P58,INI,FM,M1,34.6754942465378,%MAX
PAT,P58,INI,FM,M2,32.20118769585401,%MAX
PAT,P58,INI,FM,M3,40.21276592638692,%MAX
PAT,P58,REL,FM,M1,23.2276477388496,%MAX
PAT,P58,REL,FM,M2,11.651011497103246,%MAX
PAT,P58,REL,FM,M3,9.262250957117837,%MAX
PAT,P61,INI,FM,M1,38.208996999062194,%MAX
PAT,P61,INI,FM,M2,20.20521597960626,%MAX
PAT,P61,INI,FM,M3,37.59801790533089,%MAX
PAT,P61,REL,FM,M1,16.773788104407462,%MAX
PAT,P61,REL,FM,M2,43.91048223734145,%MAX
PAT,P61,REL,FM,M3,38.023140694041636,%MAX
PAT,P62,INI,FM,M1,22.075406685832615,%MAX
PAT,P62,INI,FM,M2,21.107000074404045,%MAX
PAT,P62,INI,FM,M3,36.31938064944149,%MAX
PAT,P62,REL,FM,M1,22.94828595096979,%MAX
PAT,P62,REL,FM,M2,27.02136901457988,%MAX
PAT,P62,REL,FM,M3,44.67541685830504,%MAX
PAT,P63,INI,FM,M1,16.185615101453728,%MAX
PAT,P63,INI,FM,M2,20.618299666567953,%MAX
PAT,P63,INI,FM,M3,24.30086209314977,%MAX
PAT,P63,REL,FM,M1,26.499966961495506,%MAX
PAT,P63,REL,FM,M2,23.988384915884318,%MAX
PAT,P63,REL,FM,M3,19.665902683197384,%MAX
PAT,P65,INI,FM,M1,38.472195928025116,%MAX
PAT,P65,INI,FM,M2,29.013269762183945,%MAX
PAT,P65,INI,FM,M3,28.544487098025705,%MAX
PAT,P65,REL,FM,M1,36.842125181864496,%MAX
PAT,P65,REL,FM,M2,52.68843245315103,%MAX
PAT,P65,REL,FM,M3,93.82745389336996,%MAX
