Group,Participant,Session,Operator,Measure,Value,Unit
PAT,P09,INI,FM,M1,0.0196766235654416,V
PAT,P09,INI,FM,M2,0.021890522981849,V
PAT,P09,INI,FM,M3,0.0240440333090291,V
PAT,P09,REL,FM,M1,,V
PAT,P09,REL,FM,M2,,V
PAT,P09,REL,FM,M3,,V
PAT,P10,INI,FM,M1,0.020559530609071,V
PAT,P10,INI,FM,M2,0.0214100885065437,V
PAT,P10,INI,FM,M3,0.0239724092115743,V
PAT,P10,REL,FM,M1,0.0234302513022103,V
PAT,P10,REL,FM,M2,0.0238203453251389,V
PAT,P10,REL,FM,M3,0.0225983407821565,V
PAT,P11,INI,FM,M1,0.0299310742643725,V
PAT,P11,INI,FM,M2,0.030528237279179,V
PAT,P11,INI,FM,M3,0.0312871879229386,V
PAT,P11,REL,FM,M1,0.0382302490268826,V
PAT,P11,REL,FM,M2,0.0351713247446769,V
PAT,P11,REL,FM,M3,0.0347004311251548,V
PAT,P12,INI,FM,M1,0.0159793265084416,V
PAT,P12,INI,FM,M2,0.0150408857327188,V
PAT,P12,INI,FM,M3,0.0159600540888936,V
PAT,P12,REL,FM,M1,0.0178432380367413,V
PAT,P12,REL,FM,M2,0.0176229528063532,V
PAT,P12,REL,FM,M3,0.016283181617124,V
PAT,P14,INI,FM,M1,0.0230804683391616,V
PAT,P14,INI,FM,M2,0.0244403325295815,V
PAT,P14,INI,FM,M3,0.0241641326773317,V
PAT,P14,REL,FM,M1,0.0951895924503438,V
PAT,P14,REL,FM,M2,0.1578828698749347,V
PAT,P14,REL,FM,M3,0.0461434784344463,V
PAT,P17,INI,FM,M1,0.0212663792038419,V
PAT,P17,INI,FM,M2,0.0233825619481681,V
PAT,P17,INI,FM,M3,0.0237001470620086,V
PAT,P17,REL,FM,M1,0.021978909536644,V
PAT,P17,REL,FM,M2,0.0235729475132039,V
PAT,P17,REL,FM,M3,0.0251704864850238,V
PAT,P24,INI,FM,M1,0.0287461474279159,V
PAT,P24,INI,FM,M2,0.028499320809066,V
PAT,P24,INI,FM,M3,0.0268083615359971,V
PAT,P24,REL,FM,M1,0.0291630953442007,V
PAT,P24,REL,FM,M2,0.0302980178407617,V
PAT,P24,REL,FM,M3,0.1085396238194824,V
PAT,P26,INI,FM,M1,0.0157131837793117,V
PAT,P26,INI,FM,M2,0.0162615382009081,V
PAT,P26,INI,FM,M3,0.0179983737791837,V
PAT,P26,REL,FM,M1,0.021235151633059,V
PAT,P26,REL,FM,M2,0.0267123894045524,V
PAT,P26,REL,FM,M3,0.026465960127071,V
PAT,P27,INI,FM,M1,0.0234287145198517,V
PAT,P27,INI,FM,M2,0.0225036373234272,V
PAT,P27,INI,FM,M3,0.024108007113354,V
PAT,P27,REL,FM,M1,0.0249959081568137,V
PAT,P27,REL,FM,M2,0.0250111527420338,V
PAT,P27,REL,FM,M3,0.0247366075268017,V
PAT,P28,INI,FM,M1,0.015103093781743,V
PAT,P28,INI,FM,M2,0.0183772494695415,V
PAT,P28,INI,FM,M3,0.0174407689557514,V
PAT,P28,REL,FM,M1,0.0168882228302859,V
PAT,P28,REL,FM,M2,0.0183265290918953,V
PAT,P28,REL,FM,M3,0.0180144865037819,V
PAT,P29,INI,FM,M1,0.0420959342619961,V
PAT,P29,INI,FM,M2,,V
PAT,P29,INI,FM,M3,,V
PAT,P29,REL,FM,M1,,V
PAT,P29,REL,FM,M2,0.0389165795295712,V
PAT,P29,REL,FM,M3,0.0364467346494013,V
PAT,P30,INI,FM,M1,0.0107334824496222,V
PAT,P30,INI,FM,M2,0.0240721191782317,V
PAT,P30,INI,FM,M3,0.0299582297993697,V
PAT,P30,REL,FM,M1,0.0264165250788084,V
PAT,P30,REL,FM,M2,0.0235863095111258,V
PAT,P30,REL,FM,M3,0.0220465510713948,V
PAT,P32,INI,FM,M1,0.0177235323952498,V
PAT,P32,INI,FM,M2,0.0179717874919368,V
PAT,P32,INI,FM,M3,0.0186396153553197,V
PAT,P32,REL,FM,M1,0.0184831716910274,V
PAT,P32,REL,FM,M2,0.0190268022555936,V
PAT,P32,REL,FM,M3,0.0182485614104792,V
PAT,P33,INI,FM,M1,0.0137489763071988,V
PAT,P33,INI,FM,M2,0.0137094610926518,V
PAT,P33,INI,FM,M3,0.0136501942893478,V
PAT,P33,REL,FM,M1,0.0058427599669944,V
PAT,P33,REL,FM,M2,,V
PAT,P33,REL,FM,M3,,V
PAT,P34,INI,FM,M1,0.0171962893978318,V
PAT,P34,INI,FM,M2,0.0166265588381447,V
PAT,P34,INI,FM,M3,0.0176473683377216,V
PAT,P34,REL,FM,M1,0.0276070747598916,V
PAT,P34,REL,FM,M2,0.0299756553635572,V
PAT,P34,REL,FM,M3,0.0280011494028543,V
PAT,P36,INI,FM,M1,0.0350512508652456,V
PAT,P36,INI,FM,M2,0.0360063985703764,V
PAT,P36,INI,FM,M3,0.0372563559012925,V
PAT,P36,REL,FM,M1,0.0252577775625647,V
PAT,P36,REL,FM,M2,0.0262180571061406,V
PAT,P36,REL,FM,M3,0.0261832635774,V
PAT,P41,INI,FM,M1,0.0332145287951994,V
PAT,P41,INI,FM,M2,0.0322287702865367,V
PAT,P41,INI,FM,M3,0.0354710924213548,V
PAT,P41,REL,FM,M1,0.0350062027253722,V
PAT,P41,REL,FM,M2,0.0340374674954749,V
PAT,P41,REL,FM,M3,0.0327122277768561,V
PAT,P42,INI,FM,M1,0.0320529905896621,V
PAT,P42,INI,FM,M2,0.0342007696550173,V
PAT,P42,INI,FM,M3,0.0357116048745077,V
PAT,P42,REL,FM,M1,0.0396142730143517,V
PAT,P42,REL,FM,M2,0.0407926791887317,V
PAT,P42,REL,FM,M3,0.0430527092048096,V
PAT,P43,INI,FM,M1,0.0336215853151751,V
PAT,P43,INI,FM,M2,0.0436073644531372,V
PAT,P43,INI,FM,M3,0.0354194586652933,V
PAT,P43,REL,FM,M1,0.0292545334115252,V
PAT,P43,REL,FM,M2,0.0358612828625312,V
PAT,P43,REL,FM,M3,0.041019497720458,V
PAT,P45,INI,FM,M1,0.0272392078800539,V
PAT,P45,INI,FM,M2,0.033617955771265,V
PAT,P45,INI,FM,M3,0.0258789459762259,V
PAT,P45,REL,FM,M1,0.0135469641502903,V
PAT,P45,REL,FM,M2,0.0148330449038258,V
PAT,P45,REL,FM,M3,0.0141668712907434,V
PAT,P47,INI,FM,M1,0.0216715282094402,V
PAT,P47,INI,FM,M2,0.0216636761832975,V
PAT,P47,INI,FM,M3,0.0208980573315354,V
PAT,P47,REL,FM,M1,0.0210722457120228,V
PAT,P47,REL,FM,M2,0.0194562343592567,V
PAT,P47,REL,FM,M3,0.0201194811770822,V
PAT,P50,INI,FM,M1,0.0618530755969423,V
PAT,P50,INI,FM,M2,0.0600125978796359,V
PAT,P50,INI,FM,M3,0.0616269757886129,V
PAT,P50,REL,FM,M1,0.0535495932596322,V
PAT,P50,REL,FM,M2,0.0501783723297632,V
PAT,P50,REL,FM,M3,0.0496606891999685,V
PAT,P51,INI,FM,M1,0.013946759145496,V
PAT,P51,INI,FM,M2,,V
PAT,P51,INI,FM,M3,,V
PAT,P51,REL,FM,M1,0.0141696930646749,V
PAT,P51,REL,FM,M2,0.010858938354573,V
PAT,P51,REL,FM,M3,0.0115666024692327,V
PAT,P53,INI,FM,M1,0.0261062371526618,V
PAT,P53,INI,FM,M2,0.0272323028194639,V
PAT,P53,INI,FM,M3,0.0271132667022603,V
PAT,P53,REL,FM,M1,0.0277282135223509,V
PAT,P53,REL,FM,M2,0.0275236554582455,V
PAT,P53,REL,FM,M3,0.0267350107627977,V
PAT,P54,INI,FM,M1,0.0350453108941565,V
PAT,P54,INI,FM,M2,0.0352111609997569,V
PAT,P54,INI,FM,M3,0.0388184612990395,V
PAT,P54,REL,FM,M1,0.0362446218676612,V
PAT,P54,REL,FM,M2,0.0344058597373591,V
PAT,P54,REL,FM,M3,0.0373488343805897,V
PAT,P58,INI,FM,M1,0.0087230849183755,V
PAT,P58,INI,FM,M2,0.0107776803484794,V
PAT,P58,INI,FM,M3,0.0111924683613866,V
PAT,P58,REL,FM,M1,0.1229586737336372,V
PAT,P58,REL,FM,M2,0.1513396329352445,V
PAT,P58,REL,FM,M3,0.1523270770721728,V
PAT,P61,INI,FM,M1,0.032082096788251,V
PAT,P61,INI,FM,M2,0.0313180301285027,V
PAT,P61,INI,FM,M3,0.0322196987062634,V
PAT,P61,REL,FM,M1,0.0386317912754916,V
PAT,P61,REL,FM,M2,0.0356763147937487,V
PAT,P61,REL,FM,M3,0.0366523905819189,V
PAT,P62,INI,FM,M1,0.022830514280163,V
PAT,P62,INI,FM,M2,0.0255698339590824,V
PAT,P62,INI,FM,M3,0.0221224459180288,V
PAT,P62,REL,FM,M1,0.0208531274178821,V
PAT,P62,REL,FM,M2,0.0214183177341052,V
PAT,P62,REL,FM,M3,0.0222033460380413,V
PAT,P63,INI,FM,M1,,V
PAT,P63,INI,FM,M2,,V
PAT,P63,INI,FM,M3,,V
PAT,P63,REL,FM,M1,0.029790213850482,V
PAT,P63,REL,FM,M2,0.0290486184565095,V
PAT,P63,REL,FM,M3,0.0290032824049524,V
PAT,P65,INI,FM,M1,,V
PAT,P65,INI,FM,M2,0.030748640613518,V
PAT,P65,INI,FM,M3,0.0359134642413301,V
PAT,P65,REL,FM,M1,0.0343836711972503,V
PAT,P65,REL,FM,M2,0.0363556269546999,V
PAT,P65,REL,FM,M3,0.0367111643920001,V
