Group,Participant,Session,Operator,Measure,Value,Unit
PAT,P09,INI,FM,M1,0.018592754284387,V
PAT,P09,INI,FM,M2,0.0192439956110741,V
PAT,P09,INI,FM,M3,0.0204994316272174,V
PAT,P09,REL,FM,M1,,V
PAT,P09,REL,FM,M2,,V
PAT,P09,REL,FM,M3,,V
PAT,P10,INI,FM,M1,0.1679259703605224,V
PAT,P10,INI,FM,M2,0.2795465384447891,V
PAT,P10,INI,FM,M3,0.3068602607467339,V
PAT,P10,REL,FM,M1,0.0193709532105088,V
PAT,P10,REL,FM,M2,0.0190273801936395,V
PAT,P10,REL,FM,M3,0.0187321803645596,V
PAT,P11,INI,FM,M1,0.0240562925559623,V
PAT,P11,INI,FM,M2,0.0240761531750712,V
PAT,P11,INI,FM,M3,0.0248257971769649,V
PAT,P11,REL,FM,M1,0.0254562243929147,V
PAT,P11,REL,FM,M2,0.0266658572595209,V
PAT,P11,REL,FM,M3,0.023888637029559,V
PAT,P12,INI,FM,M1,0.0422103284350853,V
PAT,P12,INI,FM,M2,0.0382729446686753,V
PAT,P12,INI,FM,M3,0.0398808154934779,V
PAT,P12,REL,FM,M1,0.0403712173400828,V
PAT,P12,REL,FM,M2,0.038788016693205,V
PAT,P12,REL,FM,M3,0.0875159604921989,V
PAT,P14,INI,FM,M1,0.0160090112195546,V
PAT,P14,INI,FM,M2,0.0175048901298827,V
PAT,P14,INI,FM,M3,0.0179478810133437,V
PAT,P14,REL,FM,M1,0.0155336868443621,V
PAT,P14,REL,FM,M2,0.0150260686231673,V
PAT,P14,REL,FM,M3,0.0152683352745002,V
PAT,P17,INI,FM,M1,0.0153714305296494,V
PAT,P17,INI,FM,M2,0.015717927395773,V
PAT,P17,INI,FM,M3,0.0160663348798183,V
PAT,P17,REL,FM,M1,0.0185121184692945,V
PAT,P17,REL,FM,M2,0.0189943171975368,V
PAT,P17,REL,FM,M3,0.0192456920158574,V
PAT,P24,INI,FM,M1,0.0142193025635931,V
PAT,P24,INI,FM,M2,0.0138400151934385,V
PAT,P24,INI,FM,M3,0.0143286600041348,V
PAT,P24,REL,FM,M1,0.0130459698239356,V
PAT,P24,REL,FM,M2,0.0126402795694883,V
PAT,P24,REL,FM,M3,0.012394450513507,V
PAT,P26,INI,FM,M1,0.0084935939418422,V
PAT,P26,INI,FM,M2,0.0102123153887687,V
PAT,P26,INI,FM,M3,0.0105568126248675,V
PAT,P26,REL,FM,M1,0.0084211417341705,V
PAT,P26,REL,FM,M2,0.0102096145211934,V
PAT,P26,REL,FM,M3,0.0102439733018396,V
PAT,P27,INI,FM,M1,0.0203758195759921,V
PAT,P27,INI,FM,M2,0.0192249906980076,V
PAT,P27,INI,FM,M3,0.0197295158548233,V
PAT,P27,REL,FM,M1,0.0201482163991069,V
PAT,P27,REL,FM,M2,0.0200881142779675,V
PAT,P27,REL,FM,M3,0.018744167251878,V
PAT,P28,INI,FM,M1,0.014965482983782,V
PAT,P28,INI,FM,M2,0.0172533284810518,V
PAT,P28,INI,FM,M3,0.0181314070356007,V
PAT,P28,REL,FM,M1,0.0158852723081565,V
PAT,P28,REL,FM,M2,0.0164467289764055,V
PAT,P28,REL,FM,M3,0.0167710798419236,V
PAT,P29,INI,FM,M1,0.0419666303902063,V
PAT,P29,INI,FM,M2,,V
PAT,P29,INI,FM,M3,,V
PAT,P29,REL,FM,M1,,V
PAT,P29,REL,FM,M2,0.0308675327880438,V
PAT,P29,REL,FM,M3,0.0354723523795662,V
PAT,P30,INI,FM,M1,0.0319791651075463,V
PAT,P30,INI,FM,M2,0.0561428977459746,V
PAT,P30,INI,FM,M3,0.0697302050046701,V
PAT,P30,REL,FM,M1,0.0052181628180381,V
PAT,P30,REL,FM,M2,0.0053030120264603,V
PAT,P30,REL,FM,M3,0.0053960311999955,V
PAT,P32,INI,FM,M1,0.0150629422795727,V
PAT,P32,INI,FM,M2,0.0154546432089373,V
PAT,P32,INI,FM,M3,0.0156032494199511,V
PAT,P32,REL,FM,M1,0.0180457793844102,V
PAT,P32,REL,FM,M2,0.0191781179167833,V
PAT,P32,REL,FM,M3,0.0184739410671755,V
PAT,P33,INI,FM,M1,0.0128419533926064,V
PAT,P33,INI,FM,M2,0.0134383396948154,V
PAT,P33,INI,FM,M3,0.0134385492144517,V
PAT,P33,REL,FM,M1,0.0106172320765308,V
PAT,P33,REL,FM,M2,,V
PAT,P33,REL,FM,M3,,V
PAT,P34,INI,FM,M1,0.0100843784004345,V
PAT,P34,INI,FM,M2,0.0093500932212467,V
PAT,P34,INI,FM,M3,0.0097401424110367,V
PAT,P34,REL,FM,M1,0.0113065950180559,V
PAT,P34,REL,FM,M2,0.0117762613817952,V
PAT,P34,REL,FM,M3,0.0115240912642209,V
PAT,P36,INI,FM,M1,0.0416728171847942,V
PAT,P36,INI,FM,M2,0.0415494196683936,V
PAT,P36,INI,FM,M3,0.0416688533340419,V
PAT,P36,REL,FM,M1,0.0361392306900355,V
PAT,P36,REL,FM,M2,0.0354203670368857,V
PAT,P36,REL,FM,M3,0.0359093107086618,V
PAT,P41,INI,FM,M1,0.0276440431588899,V
PAT,P41,INI,FM,M2,0.0280309057813321,V
PAT,P41,INI,FM,M3,0.0292173531506302,V
PAT,P41,REL,FM,M1,0.0262756526486327,V
PAT,P41,REL,FM,M2,0.0268577787305125,V
PAT,P41,REL,FM,M3,0.0264905607366815,V
PAT,P42,INI,FM,M1,0.0283934022044654,V
PAT,P42,INI,FM,M2,0.0301747805639552,V
PAT,P42,INI,FM,M3,0.0316468588434473,V
PAT,P42,REL,FM,M1,0.0292271317422723,V
PAT,P42,REL,FM,M2,0.026756742710559,V
PAT,P42,REL,FM,M3,0.0299647388712192,V
PAT,P43,INI,FM,M1,0.0321836422854202,V
PAT,P43,INI,FM,M2,0.0393062022382639,V
PAT,P43,INI,FM,M3,0.0349536785312411,V
PAT,P43,REL,FM,M1,0.0288562715900893,V
PAT,P43,REL,FM,M2,0.0352677503730671,V
PAT,P43,REL,FM,M3,0.0369485426423167,V
PAT,P45,INI,FM,M1,0.0100297897296432,V
PAT,P45,INI,FM,M2,0.010981040211261,V
PAT,P45,INI,FM,M3,0.0116286155528827,V
PAT,P45,REL,FM,M1,0.01085473691522,V
PAT,P45,REL,FM,M2,0.0120635276484076,V
PAT,P45,REL,FM,M3,0.010797305622802,V
PAT,P47,INI,FM,M1,0.0322782685354397,V
PAT,P47,INI,FM,M2,0.0308031407602754,V
PAT,P47,INI,FM,M3,0.0300632412464038,V
PAT,P47,REL,FM,M1,0.0230257780817768,V
PAT,P47,REL,FM,M2,0.0216719073518938,V
PAT,P47,REL,FM,M3,0.0218655030854532,V
PAT,P50,INI,FM,M1,0.0421750556384574,V
PAT,P50,INI,FM,M2,0.0440298984612492,V
PAT,P50,INI,FM,M3,0.0473993128262459,V
PAT,P50,REL,FM,M1,0.0487860145700988,V
PAT,P50,REL,FM,M2,0.0477318699496218,V
PAT,P50,REL,FM,M3,0.0472946407700572,V
PAT,P51,INI,FM,M1,0.0133244543829927,V
PAT,P51,INI,FM,M2,,V
PAT,P51,INI,FM,M3,0.0121354209767822,V
PAT,P51,REL,FM,M1,0.0081854861762697,V
PAT,P51,REL,FM,M2,0.0079200623989635,V
PAT,P51,REL,FM,M3,0.0084137504125961,V
PAT,P53,INI,FM,M1,0.0129094741556818,V
PAT,P53,INI,FM,M2,0.0127554271346592,V
PAT,P53,INI,FM,M3,0.0122800320833978,V
PAT,P53,REL,FM,M1,0.0138395531987274,V
PAT,P53,REL,FM,M2,0.0131024370730188,V
PAT,P53,REL,FM,M3,0.013299890236317,V
PAT,P54,INI,FM,M1,0.0207943946284559,V
PAT,P54,INI,FM,M2,0.0214525064325641,V
PAT,P54,INI,FM,M3,0.0237914322689051,V
PAT,P54,REL,FM,M1,0.0202648001207726,V
PAT,P54,REL,FM,M2,0.0204661240049767,V
PAT,P54,REL,FM,M3,0.0191919895903998,V
PAT,P58,INI,FM,M1,0.0267262291965343,V
PAT,P58,INI,FM,M2,0.0192982695753129,V
PAT,P58,INI,FM,M3,0.0189149411546678,V
PAT,P58,REL,FM,M1,0.0111509272294312,V
PAT,P58,REL,FM,M2,0.0100970169636027,V
PAT,P58,REL,FM,M3,0.0162091881602402,V
PAT,P61,INI,FM,M1,0.0214546192749477,V
PAT,P61,INI,FM,M2,0.0407074451487596,V
PAT,P61,INI,FM,M3,0.0428332681904852,V
PAT,P61,REL,FM,M1,0.0200426380451988,V
PAT,P61,REL,FM,M2,0.0193771648109025,V
PAT,P61,REL,FM,M3,0.0183433170495313,V
PAT,P62,INI,FM,M1,0.0129921766489523,V
PAT,P62,INI,FM,M2,0.0129040805695198,V
PAT,P62,INI,FM,M3,0.0122936927905187,V
PAT,P62,REL,FM,M1,0.015539911952774,V
PAT,P62,REL,FM,M2,0.0139216870614362,V
PAT,P62,REL,FM,M3,0.0147974179879755,V
PAT,P63,INI,FM,M1,0.0340774725153941,V
PAT,P63,INI,FM,M2,0.0332972661458329,V
PAT,P63,INI,FM,M3,0.0305034548491319,V
PAT,P63,REL,FM,M1,0.0194669272113054,V
PAT,P63,REL,FM,M2,0.0204338903771417,V
PAT,P63,REL,FM,M3,0.0204449980255072,V
PAT,P65,INI,FM,M1,,V
PAT,P65,INI,FM,M2,0.0240291856755574,V
PAT,P65,INI,FM,M3,0.0303732262773657,V
PAT,P65,REL,FM,M1,0.0338344662312566,V
PAT,P65,REL,FM,M2,0.0343463296547736,V
PAT,P65,REL,FM,M3,0.0329422790616479,V
