Group,Participant,Session,Operator,Measure,Value,Unit
PAT,P09,INI,FM,M1,0.0119901012082284,V
PAT,P09,INI,FM,M2,0.0092199982306317,V
PAT,P09,INI,FM,M3,0.0100761986008421,V
PAT,P09,REL,FM,M1,0.0070053181869462,V
PAT,P09,REL,FM,M2,0.0099618196117547,V
PAT,P09,REL,FM,M3,0.0065497757236074,V
PAT,P10,INI,FM,M1,0.1626791149474926,V
PAT,P10,INI,FM,M2,0.1388051840718052,V
PAT,P10,INI,FM,M3,0.1534176859897169,V
PAT,P10,REL,FM,M1,0.0062143444087101,V
PAT,P10,REL,FM,M2,0.0070885927957849,V
PAT,P10,REL,FM,M3,0.0060071558664652,V
PAT,P11,INI,FM,M1,0.0114415214549031,V
PAT,P11,INI,FM,M2,0.0083413918274582,V
PAT,P11,INI,FM,M3,0.0102721870358669,V
PAT,P11,REL,FM,M1,0.0105056944427255,V
PAT,P11,REL,FM,M2,0.0088012759384726,V
PAT,P11,REL,FM,M3,0.0080848231638383,V
PAT,P12,INI,FM,M1,0.017672836284636,V
PAT,P12,INI,FM,M2,0.0147292877554656,V
PAT,P12,INI,FM,M3,0.0080699190006203,V
PAT,P12,REL,FM,M1,0.0280090762169708,V
PAT,P12,REL,FM,M2,0.0270361575998969,V
PAT,P12,REL,FM,M3,0.0259008506273162,V
PAT,P14,INI,FM,M1,0.0056505191627539,V
PAT,P14,INI,FM,M2,0.006997645488266,V
PAT,P14,INI,FM,M3,0.0061373982200989,V
PAT,P14,REL,FM,M1,0.0064316357265292,V
PAT,P14,REL,FM,M2,0.0074433928358056,V
PAT,P14,REL,FM,M3,0.0078344314818034,V
PAT,P17,INI,FM,M1,0.0065420946609712,V
PAT,P17,INI,FM,M2,0.0070224517134678,V
PAT,P17,INI,FM,M3,0.0068053619391585,V
PAT,P17,REL,FM,M1,0.0308576287180277,V
PAT,P17,REL,FM,M2,0.0220745545687795,V
PAT,P17,REL,FM,M3,0.0204413473498984,V
PAT,P24,INI,FM,M1,0.0065903524287359,V
PAT,P24,INI,FM,M2,0.0066623851713073,V
PAT,P24,INI,FM,M3,0.0053679997055895,V
PAT,P24,REL,FM,M1,0.0056013769089552,V
PAT,P24,REL,FM,M2,0.0058187523308013,V
PAT,P24,REL,FM,M3,0.0066726008374987,V
PAT,P26,INI,FM,M1,0.0062134370507368,V
PAT,P26,INI,FM,M2,0.0060299093393321,V
PAT,P26,INI,FM,M3,0.0063573981807289,V
PAT,P26,REL,FM,M1,0.0052167555911113,V
PAT,P26,REL,FM,M2,0.0094729682722439,V
PAT,P26,REL,FM,M3,0.0077620482508959,V
PAT,P27,INI,FM,M1,0.0161210864285158,V
PAT,P27,INI,FM,M2,0.0169110769988795,V
PAT,P27,INI,FM,M3,0.0105129855035688,V
PAT,P27,REL,FM,M1,0.0151966556613793,V
PAT,P27,REL,FM,M2,0.0138662628502062,V
PAT,P27,REL,FM,M3,0.0147545514910157,V
PAT,P28,INI,FM,M1,,V
PAT,P28,INI,FM,M2,0.0079820160958926,V
PAT,P28,INI,FM,M3,0.0070773192567025,V
PAT,P28,REL,FM,M1,0.007775366406137,V
PAT,P28,REL,FM,M2,0.0052054712997419,V
PAT,P28,REL,FM,M3,0.0069176600913677,V
PAT,P29,INI,FM,M1,0.0171191126828228,V
PAT,P29,INI,FM,M2,0.0189094381153773,V
PAT,P29,INI,FM,M3,0.0236684900767471,V
PAT,P29,REL,FM,M1,0.0147480573674411,V
PAT,P29,REL,FM,M2,0.015124960692528,V
PAT,P29,REL,FM,M3,0.0120927355051665,V
PAT,P30,INI,FM,M1,0.0277131585175286,V
PAT,P30,INI,FM,M2,0.0461352526459686,V
PAT,P30,INI,FM,M3,0.131717779842264,V
PAT,P30,REL,FM,M1,0.002245658842249,V
PAT,P30,REL,FM,M2,0.0021180062685693,V
PAT,P30,REL,FM,M3,0.0021851588942189,V
PAT,P32,INI,FM,M1,0.0066537006919832,V
PAT,P32,INI,FM,M2,0.0071563759799336,V
PAT,P32,INI,FM,M3,0.0055933708189623,V
PAT,P32,REL,FM,M1,0.0113756839017003,V
PAT,P32,REL,FM,M2,0.010511196294466,V
PAT,P32,REL,FM,M3,0.01052113400455,V
PAT,P33,INI,FM,M1,0.0082095656583945,V
PAT,P33,INI,FM,M2,0.0069755951684654,V
PAT,P33,INI,FM,M3,0.0079724255396557,V
PAT,P33,REL,FM,M1,0.007938163371081,V
PAT,P33,REL,FM,M2,0.0073204633599339,V
PAT,P33,REL,FM,M3,0.0074793060399037,V
PAT,P34,INI,FM,M1,0.0054154200189202,V
PAT,P34,INI,FM,M2,0.0065515502738012,V
PAT,P34,INI,FM,M3,0.0050647650712102,V
PAT,P34,REL,FM,M1,0.0036694060707457,V
PAT,P34,REL,FM,M2,0.0044189008447862,V
PAT,P34,REL,FM,M3,0.0040241360520409,V
PAT,P36,INI,FM,M1,0.0107340419072417,V
PAT,P36,INI,FM,M2,0.0111151472191715,V
PAT,P36,INI,FM,M3,0.0120350219432604,V
PAT,P36,REL,FM,M1,0.0149517441648384,V
PAT,P36,REL,FM,M2,0.0148484767003129,V
PAT,P36,REL,FM,M3,0.0137000327453579,V
PAT,P41,INI,FM,M1,0.0109972298137642,V
PAT,P41,INI,FM,M2,0.013010306746838,V
PAT,P41,INI,FM,M3,0.0084274091279555,V
PAT,P41,REL,FM,M1,0.006406264273692,V
PAT,P41,REL,FM,M2,0.0084374983407548,V
PAT,P41,REL,FM,M3,0.0042854785383461,V
PAT,P42,INI,FM,M1,0.0128336488435439,V
PAT,P42,INI,FM,M2,0.0205540861582881,V
PAT,P42,INI,FM,M3,0.0118544049092167,V
PAT,P42,REL,FM,M1,0.016189005932251,V
PAT,P42,REL,FM,M2,0.0162427174933152,V
PAT,P42,REL,FM,M3,0.01181659224628,V
PAT,P43,INI,FM,M1,0.0109812099356016,V
PAT,P43,INI,FM,M2,0.0107145647510316,V
PAT,P43,INI,FM,M3,0.0103988656321244,V
PAT,P43,REL,FM,M1,0.0108872940212125,V
PAT,P43,REL,FM,M2,0.0112894469331162,V
PAT,P43,REL,FM,M3,0.0096473535050043,V
PAT,P45,INI,FM,M1,,V
PAT,P45,INI,FM,M2,,V
PAT,P45,INI,FM,M3,,V
PAT,P45,REL,FM,M1,0.006917760296981,V
PAT,P45,REL,FM,M2,0.0063241532806855,V
PAT,P45,REL,FM,M3,0.0062092876807491,V
PAT,P47,INI,FM,M1,0.0183917181715678,V
PAT,P47,INI,FM,M2,0.0174868773370987,V
PAT,P47,INI,FM,M3,0.0137284282324348,V
PAT,P47,REL,FM,M1,0.0103810669458793,V
PAT,P47,REL,FM,M2,0.010670737002763,V
PAT,P47,REL,FM,M3,0.0093435699914271,V
PAT,P50,INI,FM,M1,0.0209739239552209,V
PAT,P50,INI,FM,M2,0.0236283087554678,V
PAT,P50,INI,FM,M3,0.021846625303057,V
PAT,P50,REL,FM,M1,0.0237435424660427,V
PAT,P50,REL,FM,M2,0.0218186516025137,V
PAT,P50,REL,FM,M3,0.023332467049708,V
PAT,P51,INI,FM,M1,0.0061274329283326,V
PAT,P51,INI,FM,M2,0.0050770953344916,V
PAT,P51,INI,FM,M3,0.0049187006466198,V
PAT,P51,REL,FM,M1,0.0058128115270524,V
PAT,P51,REL,FM,M2,0.0068196473935848,V
PAT,P51,REL,FM,M3,0.0048236940128974,V
PAT,P53,INI,FM,M1,0.0046299581811049,V
PAT,P53,INI,FM,M2,0.0043990498225473,V
PAT,P53,INI,FM,M3,0.0041409976963213,V
PAT,P53,REL,FM,M1,0.007415940016917,V
PAT,P53,REL,FM,M2,0.0075983308959002,V
PAT,P53,REL,FM,M3,0.0071539675356893,V
PAT,P54,INI,FM,M1,0.0117315177839796,V
PAT,P54,INI,FM,M2,0.0143295008602745,V
PAT,P54,INI,FM,M3,0.0116584884580717,V
PAT,P54,REL,FM,M1,0.0075094334486665,V
PAT,P54,REL,FM,M2,0.0099795603961165,V
PAT,P54,REL,FM,M3,0.0062745705025917,V
PAT,P58,INI,FM,M1,0.0602912555502509,V
PAT,P58,INI,FM,M2,0.1163101900007532,V
PAT,P58,INI,FM,M3,0.0443219331834086,V
PAT,P58,REL,FM,M1,0.0074121401785611,V
PAT,P58,REL,FM,M2,0.0082435642037869,V
PAT,P58,REL,FM,M3,0.0107978476793913,V
PAT,P61,INI,FM,M1,0.0101518097215548,V
PAT,P61,INI,FM,M2,0.010620387809117,V
PAT,P61,INI,FM,M3,0.0411415955490839,V
PAT,P61,REL,FM,M1,0.013314828345597,V
PAT,P61,REL,FM,M2,0.0108514994160544,V
PAT,P61,REL,FM,M3,0.0140282196731328,V
PAT,P62,INI,FM,M1,0.0048318323258605,V
PAT,P62,INI,FM,M2,0.0044953335270799,V
PAT,P62,INI,FM,M3,0.0041414535849132,V
PAT,P62,REL,FM,M1,0.0055164576172617,V
PAT,P62,REL,FM,M2,0.0045284766174626,V
PAT,P62,REL,FM,M3,0.0046983234199207,V
PAT,P63,INI,FM,M1,,V
PAT,P63,INI,FM,M2,,V
PAT,P63,INI,FM,M3,,V
PAT,P63,REL,FM,M1,0.0079987594926022,V
PAT,P63,REL,FM,M2,0.0108835939776107,V
PAT,P63,REL,FM,M3,0.0111072576891492,V
PAT,P65,INI,FM,M1,0.0198634471603713,V
PAT,P65,INI,FM,M2,0.0277085108892684,V
PAT,P65,INI,FM,M3,0.0206143275670602,V
PAT,P65,REL,FM,M1,,V
PAT,P65,REL,FM,M2,,V
PAT,P65,REL,FM,M3,,V
