Group,Participant,Session,Operator,Measure,Value,Unit
PAT,P09,INI,FM,M1,99.9474575281686,Hz
PAT,P09,INI,FM,M2,98.83292383292384,Hz
PAT,P09,INI,FM,M3,82.78190411883861,Hz
PAT,P09,REL,FM,M1,102.27827502034174,Hz
PAT,P09,REL,FM,M2,105.19930675909876,Hz
PAT,P09,REL,FM,M3,105.9377262853005,Hz
PAT,P10,INI,FM,M1,77.40434332988625,Hz
PAT,P10,INI,FM,M2,94.3851768669287,Hz
PAT,P10,INI,FM,M3,83.38399189463019,Hz
PAT,P10,REL,FM,M1,94.84752891692956,Hz
PAT,P10,REL,FM,M2,100.89635854341736,Hz
PAT,P10,REL,FM,M3,102.36578707916289,Hz
PAT,P11,INI,FM,M1,104.29384376616656,Hz
PAT,P11,INI,FM,M2,106.05714285714284,Hz
PAT,P11,INI,FM,M3,107.8125,Hz
PAT,P11,REL,FM,M1,107.33287069164932,Hz
PAT,P11,REL,FM,M2,95.49763033175356,Hz
PAT,P11,REL,FM,M3,96.32786885245902,Hz
PAT,P12,INI,FM,M1,91.27589967284624,Hz
PAT,P12,INI,FM,M2,87.53875585460781,Hz
PAT,P12,INI,FM,M3,87.46158574062692,Hz
PAT,P12,REL,FM,M1,81.2407680945347,Hz
PAT,P12,REL,FM,M2,66.75153154586681,Hz
PAT,P12,REL,FM,M3,61.86495176848874,Hz
PAT,P14,INI,FM,M1,58.35526315789473,Hz
PAT,P14,INI,FM,M2,57.56725306318023,Hz
PAT,P14,INI,FM,M3,59.97631734754293,Hz
PAT,P14,REL,FM,M1,68.83227454319209,Hz
PAT,P14,REL,FM,M2,66.03905160390516,Hz
PAT,P14,REL,FM,M3,65.91255166412878,Hz
PAT,P17,INI,FM,M1,92.55978742249778,Hz
PAT,P17,INI,FM,M2,98.83891111327937,Hz
PAT,P17,INI,FM,M3,86.74894153679848,Hz
PAT,P17,REL,FM,M1,82.18104062722736,Hz
PAT,P17,REL,FM,M2,41.56729131175468,Hz
PAT,P17,REL,FM,M3,40.417000801924615,Hz
PAT,P24,INI,FM,M1,91.06901217861976,Hz
PAT,P24,INI,FM,M2,88.51095993953138,Hz
PAT,P24,INI,FM,M3,81.68995253693429,Hz
PAT,P24,REL,FM,M1,102.8975265017668,Hz
PAT,P24,REL,FM,M2,97.12547041396428,Hz
PAT,P24,REL,FM,M3,90.30654515327257,Hz
PAT,P26,INI,FM,M1,48.96265560165975,Hz
PAT,P26,INI,FM,M2,64.32350718065004,Hz
PAT,P26,INI,FM,M3,56.890012642225024,Hz
PAT,P26,REL,FM,M1,47.24014336917563,Hz
PAT,P26,REL,FM,M2,46.81374433084788,Hz
PAT,P26,REL,FM,M3,43.99970568758737,Hz
PAT,P27,INI,FM,M1,69.63892912709909,Hz
PAT,P27,INI,FM,M2,64.8599269183922,Hz
PAT,P27,INI,FM,M3,63.94444444444444,Hz
PAT,P27,REL,FM,M1,77.76810235112868,Hz
PAT,P27,REL,FM,M2,78.62342819324951,Hz
PAT,P27,REL,FM,M3,78.22597102237943,Hz
PAT,P28,INI,FM,M1,116.24072547403134,Hz
PAT,P28,INI,FM,M2,111.91155492154066,Hz
PAT,P28,INI,FM,M3,97.24564362001124,Hz
PAT,P28,REL,FM,M1,132.9070705816624,Hz
PAT,P28,REL,FM,M2,123.94816043240588,Hz
PAT,P28,REL,FM,M3,114.81944196561363,Hz
PAT,P29,INI,FM,M1,83.33333333333333,Hz
PAT,P29,INI,FM,M2,77.90255548678044,Hz
PAT,P29,INI,FM,M3,90.3004140604352,Hz
PAT,P29,REL,FM,M1,83.003300330033,Hz
PAT,P29,REL,FM,M2,85.1307333392024,Hz
PAT,P29,REL,FM,M3,76.30584059871923,Hz
PAT,P30,INI,FM,M1,40.98786828422877,Hz
PAT,P30,INI,FM,M2,43.96402943046598,Hz
PAT,P30,INI,FM,M3,32.395732298739084,Hz
PAT,P30,REL,FM,M1,95.6595744680851,Hz
PAT,P30,REL,FM,M2,97.8030367291543,Hz
PAT,P30,REL,FM,M3,99.60845732184808,Hz
PAT,P32,INI,FM,M1,91.31165919282512,Hz
PAT,P32,INI,FM,M2,88.03956285487514,Hz
PAT,P32,INI,FM,M3,94.65808247781452,Hz
PAT,P32,REL,FM,M1,81.53846153846153,Hz
PAT,P32,REL,FM,M2,84.2433697347894,Hz
PAT,P32,REL,FM,M3,84.43025157722565,Hz
PAT,P33,INI,FM,M1,85.29033049236617,Hz
PAT,P33,INI,FM,M2,80.19652305366591,Hz
PAT,P33,INI,FM,M3,75.73582196697774,Hz
PAT,P33,REL,FM,M1,73.30292815123273,Hz
PAT,P33,REL,FM,M2,79.49605181439091,Hz
PAT,P33,REL,FM,M3,79.18569548726681,Hz
PAT,P34,INI,FM,M1,84.23829682802626,Hz
PAT,P34,INI,FM,M2,77.99862919808088,Hz
PAT,P34,INI,FM,M3,77.8122967993642,Hz
PAT,P34,REL,FM,M1,74.11957411957411,Hz
PAT,P34,REL,FM,M2,76.08095676172952,Hz
PAT,P34,REL,FM,M3,78.11980033277871,Hz
PAT,P36,INI,FM,M1,86.74867741729875,Hz
PAT,P36,INI,FM,M2,88.80335899230231,Hz
PAT,P36,INI,FM,M3,86.73438355331184,Hz
PAT,P36,REL,FM,M1,96.83086695046964,Hz
PAT,P36,REL,FM,M2,96.5790086106586,Hz
PAT,P36,REL,FM,M3,97.53989361702128,Hz
PAT,P41,INI,FM,M1,69.42800788954635,Hz
PAT,P41,INI,FM,M2,70.8354035062815,Hz
PAT,P41,INI,FM,M3,81.64316528233854,Hz
PAT,P41,REL,FM,M1,66.57420249653259,Hz
PAT,P41,REL,FM,M2,71.11459968602826,Hz
PAT,P41,REL,FM,M3,71.10503990222158,Hz
PAT,P42,INI,FM,M1,75.9392486011191,Hz
PAT,P42,INI,FM,M2,80.05033394637499,Hz
PAT,P42,INI,FM,M3,79.03357903357903,Hz
PAT,P42,REL,FM,M1,75.70259093594396,Hz
PAT,P42,REL,FM,M2,76.4591439688716,Hz
PAT,P42,REL,FM,M3,77.67728847941848,Hz
PAT,P43,INI,FM,M1,95.86894586894589,Hz
PAT,P43,INI,FM,M2,85.64547206165702,Hz
PAT,P43,INI,FM,M3,87.20508166969147,Hz
PAT,P43,REL,FM,M1,89.44680851063829,Hz
PAT,P43,REL,FM,M2,93.6269915651359,Hz
PAT,P43,REL,FM,M3,87.59248235394166,Hz
PAT,P45,INI,FM,M1,60.69017254313578,Hz
PAT,P45,INI,FM,M2,62.46241086003952,Hz
PAT,P45,INI,FM,M3,66.66051149478349,Hz
PAT,P45,REL,FM,M1,59.82520947833138,Hz
PAT,P45,REL,FM,M2,68.11819595645412,Hz
PAT,P45,REL,FM,M3,59.96499505364888,Hz
PAT,P47,INI,FM,M1,62.9491730885791,Hz
PAT,P47,INI,FM,M2,70.89582821080239,Hz
PAT,P47,INI,FM,M3,67.41888008970496,Hz
PAT,P47,REL,FM,M1,79.38741721854305,Hz
PAT,P47,REL,FM,M2,78.69611341498698,Hz
PAT,P47,REL,FM,M3,82.95142071494043,Hz
PAT,P50,INI,FM,M1,110.25283544971548,Hz
PAT,P50,INI,FM,M2,110.83916083916084,Hz
PAT,P50,INI,FM,M3,108.1901523890474,Hz
PAT,P50,REL,FM,M1,118.57062464828364,Hz
PAT,P50,REL,FM,M2,120.05868448936344,Hz
PAT,P50,REL,FM,M3,118.12099848931732,Hz
PAT,P51,INI,FM,M1,59.06077348066298,Hz
PAT,P51,INI,FM,M2,60.67528017702905,Hz
PAT,P51,INI,FM,M3,62.156528330490815,Hz
PAT,P51,REL,FM,M1,62.09893048128341,Hz
PAT,P51,REL,FM,M2,62.92616403662576,Hz
PAT,P51,REL,FM,M3,64.42687747035573,Hz
PAT,P53,INI,FM,M1,78.0535144877305,Hz
PAT,P53,INI,FM,M2,79.06402558778967,Hz
PAT,P53,INI,FM,M3,72.68381836074792,Hz
PAT,P53,REL,FM,M1,68.57811585722645,Hz
PAT,P53,REL,FM,M2,68.40101522842639,Hz
PAT,P53,REL,FM,M3,64.61370923830843,Hz
PAT,P54,INI,FM,M1,72.40880283447277,Hz
PAT,P54,INI,FM,M2,50.98730606488012,Hz
PAT,P54,INI,FM,M3,57.10384209546272,Hz
PAT,P54,REL,FM,M1,86.41546851760039,Hz
PAT,P54,REL,FM,M2,87.82089552238806,Hz
PAT,P54,REL,FM,M3,82.88973384030419,Hz
PAT,P58,INI,FM,M1,27.72277227722772,Hz
PAT,P58,INI,FM,M2,30.33779477374124,Hz
PAT,P58,INI,FM,M3,26.5149022962037,Hz
PAT,P58,REL,FM,M1,52.10902011680727,Hz
PAT,P58,REL,FM,M2,41.56825696740671,Hz
PAT,P58,REL,FM,M3,36.65749656121045,Hz
PAT,P61,INI,FM,M1,67.11974110032362,Hz
PAT,P61,INI,FM,M2,66.77920324105334,Hz
PAT,P61,INI,FM,M3,66.44978613169468,Hz
PAT,P61,REL,FM,M1,61.50583244962885,Hz
PAT,P61,REL,FM,M2,59.4103968194434,Hz
PAT,P61,REL,FM,M3,67.02484889187375,Hz
PAT,P62,INI,FM,M1,83.42307416182067,Hz
PAT,P62,INI,FM,M2,82.64462809917356,Hz
PAT,P62,INI,FM,M3,80.2404207362885,Hz
PAT,P62,REL,FM,M1,82.66218249402601,Hz
PAT,P62,REL,FM,M2,81.63081630816308,Hz
PAT,P62,REL,FM,M3,81.2792511700468,Hz
PAT,P63,INI,FM,M1,77.62242578689992,Hz
PAT,P63,INI,FM,M2,77.63878029710712,Hz
PAT,P63,INI,FM,M3,72.50936329588015,Hz
PAT,P63,REL,FM,M1,87.40359897172236,Hz
PAT,P63,REL,FM,M2,83.28197904745136,Hz
PAT,P63,REL,FM,M3,91.83392906241409,Hz
PAT,P65,INI,FM,M1,76.13882863340564,Hz
PAT,P65,INI,FM,M2,80.43154761904762,Hz
PAT,P65,INI,FM,M3,83.5164835164835,Hz
PAT,P65,REL,FM,M1,76.19986850756081,Hz
PAT,P65,REL,FM,M2,75.23533671252714,Hz
PAT,P65,REL,FM,M3,78.59902463740579,Hz
