"","Biomarkers","Unit","Normality","P","AUC","Youden"
"1","BMo1.csv","V","1.98614084313121e-07","0.0746958182472035","63.4444444444444","43.3333333333333"
"2","BMo100.csv","%MAX","0.560507300143127","0.449861673775047","55.2222222222222","16.6666666666667"
"3","BMo101.csv","%MAX","5.07295069340629e-05","0.34286056723646","57.2222222222222","26.6666666666667"
"4","BMo102.csv","%MAX","0.428024914442328","0.286002695162119","57.7777777777778","23.3333333333333"
"5","BMo103.csv","%MAX","6.01163808825941e-09","0.485300285610299","55.3333333333333","20"
"6","BMo104.csv","%MAX","8.59527875400784e-07","0.797322520094853","52","16.6666666666667"
"7","BMo105.csv","%MAX","0.950260061506027","0.734806181664679","47.5555555555556","10"
"8","BMo106.csv","%MAX","5.06395812615525e-05","0.381735897674403","56.6666666666667","26.6666666666667"
"9","BMo107.csv","%MAX","0.00288760036775231","0.592001614289798","54.1111111111111","20"
"10","BMo108.csv","%MAX","0.000641998867437044","0.78601099891834","52.1111111111111","20"
"11","BMo109.csv","%MAX","0.0527816199333088","0.248597000720147","54.7777777777778","30"
"12","BMo110.csv","%subMVIC","2.00536205867534e-15","0.493101538841742","55.2873563218391","22.4137931034483"
"13","BMo111.csv","%subMVIC","2.9355962649266e-15","0.981994852541971","49.7701149425287","13.2183908045977"
"14","BMo112.csv","%subMVIC","2.62697878591894e-15","0.428860008201116","56.0919540229885","22.5287356321839"
"15","BMo113.csv","%subMVIC","8.05342034994908e-15","1","50","13.1034482758621"
"16","BMo114.csv","V","3.36620370467981e-15","0.21324733034668","59.4444444444444","20"
"17","BMo115.csv","V","3.12232383023393e-15","0.0653991147132801","63.8888888888889","30"
"18","BMo117.csv","Hz","0.960629213246537","0.335780911737863","57.3563218390805","18.6206896551724"
"19","BMo118.csv","Hz","0.969761778862712","0.47489861136536","54.9425287356322","14.4827586206897"
"20","BMo119.csv","Hz","0.00158802006964831","0.420091111872281","56.2068965517241","24.7126436781609"
"21","BMo15.csv","V","9.52833102767796e-12","0.0109773272288058","69","43.3333333333333"
"22","BMo22.csv","V","0.000247429384992035","0.319165632410204","57.9365079365079","20.3703703703704"
"23","BMo23.csv","V","1.21651844982118e-13","0.757457754233891","47.2663139329806","17.4603174603174"
"24","BMo24.csv","V","6.75781764893785e-15","0.864474836634896","51.4030612244898","14.2857142857143"
"25","BMo29.csv","Hz","0.015240283573774","0.224365647481606","59.2222222222222","20"
"26","BMo34.csv","%MAX","0.0567195901000619","0.836542467652787","51.8390804597701","18.1609195402299"
"27","BMo35.csv","NAN","1.45697800520556e-06","0.592001614289798","54.1111111111111","16.6666666666667"
"28","BMo36.csv","%SubMVIC","0.048362235465463","0.398003343761647","56.4444444444444","26.6666666666667"
"29","BMo37.csv","Hz","0.45517617290459","0.363623911305779","57.1111111111111","20"
"30","BMo38.csv","Hz","0.00434971762504902","0.28605471392887","58.1111111111111","23.3333333333333"
"31","BMo40.csv","Hz","0.0129553154940966","0.622838083752489","53.7777777777778","20"
"32","BMo41.csv","NAN","0.000799388816867887","0.266468503462297","58.4444444444444","23.3333333333333"
"33","BMo42.csv","NAN","0.000782003774843872","4.06259034786925e-05","79.7777777777778","53.3333333333333"
"34","BMo43.csv","NAN","9.54101189189731e-07","0.335395609907317","57.3333333333333","26.6666666666667"
"35","BMo44.csv","NAN","9.54526550517743e-05","0.00048089389384392","75.6666666666667","50"
"36","BMo51.csv","Hz","6.10630441628339e-05","0.934049731034808","50.6896551724138","13.9080459770115"
"37","BMo52.csv","Hz","0.000939240048552005","0.0226204088450325","67.2413793103448","36.0919540229885"
"38","BMo53.csv","Hz","2.85306161404775e-06","0.603466938321783","54.0229885057471","13.7931034482759"
"39","BMo67.csv","%subMVIC","3.24797045230718e-05","0.235892559267799","59.0804597701149","32.6436781609195"
"40","BMo68.csv","%subMVIC","9.96141114105546e-15","0.00141601476257981","73.7931034482759","41.8390804597701"
"41","BMo69.csv","V","0.0018207659442746","0.193587490630196","60.3174603174603","31.2169312169312"
"42","BMo81.csv","V","2.57097493473389e-14","0.441038139391331","56.48","20"
"43","BMo82.csv","V","2.90965073210575e-14","0.285557682443612","58.4183673469388","28.5714285714286"
"44","BMo86.csv","s","2.55542802401653e-07","0.887134322382374","48.8095238095238","9.25925925925926"
"45","BMo87.csv","s","2.51790386762057e-09","0.685310830923041","53.4621578099839","16.9082125603865"
"46","BMo88.csv","s","6.78568851467724e-12","0.234695026132961","59.5336076817558","22.2222222222222"
"47","BMo91.csv","V","1.65492464686833e-14","0.551997259177048","54.5555555555556","26.6666666666667"
"48","BMo96.csv","V","2.54303747811353e-11","0.224365647481606","59.2222222222222","20"
"49","BMo97.csv","V","3.79678114758231e-09","0.99414651217626","50.1111111111111","16.6666666666667"
"50","BMo98.csv","V","3.31472694859579e-12","0.306575963975949","57.7777777777778","26.6666666666667"
