error,subject,session,task,trial,channel
excluded,1,INI,Gait_Normal,2,L_LES
excluded,1,INI,Gait_Normal,2,R_LES
excluded,1,INI,Gait_Normal,3,L_LES
excluded,1,INI,Gait_Normal,4,L_LES
excluded,1,INI,Gait_Normal,5,L_LES
excluded,1,INI,Gait_Normal,6,L_LES
excluded,1,INI,Gait_Normal,7,L_LES
excluded,1,INI,Gait_Normal,8,L_LES
excluded,1,REL,Gait_Normal,1,R_LES
excluded,1,REL,Gait_Normal,2,L_LES
excluded,1,REL,Gait_Normal,2,R_LES
excluded,1,REL,Gait_Normal,3,R_LES
excluded,1,REL,Gait_Normal,4,L_LES
excluded,1,REL,Gait_Normal,4,R_LES
excluded,1,REL,Gait_Normal,5,L_LES
excluded,1,REL,Gait_Normal,5,R_LES
excluded,1,REL,Gait_Normal,6,L_LES
excluded,1,REL,Gait_Normal,6,R_LES
excluded,1,REL,Gait_Normal,7,L_LES
excluded,1,REL,Gait_Normal,7,R_LES
excluded,1,REL,Gait_Normal,8,L_LES
excluded,1,REL,Gait_Normal,8,R_LES
excluded,1,REL,Gait_Normal,9,L_LES
excluded,1,REL,Gait_Normal,9,R_LES
excluded,2,INI,Gait_Normal,1,L_LES
excluded,2,INI,Gait_Normal,1,R_LES
excluded,2,INI,Gait_Normal,2,L_LES
excluded,2,INI,Gait_Normal,2,R_LES
excluded,2,INI,Gait_Normal,3,L_LES
excluded,2,INI,Gait_Normal,3,R_LES
excluded,2,INI,Gait_Normal,4,R_LES
excluded,2,INI,Gait_Normal,5,R_LES
excluded,2,INI,Gait_Normal,6,R_LES
excluded,2,INI,Gait_Normal,7,R_LES
excluded,2,INI,Gait_Normal,8,R_LES
excluded,2,INI,Gait_Normal,9,R_LES
1,2,INI,Gait_Normal,10,L_LES
1,2,INI,Gait_Normal,10,R_LES
excluded,2,REL,Gait_Normal,1,L_LES
excluded,3,INI,Gait_Normal,1,L_LES
excluded,3,INI,Gait_Normal,2,L_LES
excluded,3,INI,Gait_Normal,3,L_LES
excluded,3,REL,Gait_Normal,1,L_LES
excluded,3,REL,Gait_Normal,2,L_LES
excluded,3,REL,Gait_Normal,3,L_LES
excluded,3,REL,Gait_Normal,4,L_LES
excluded,3,REL,Gait_Normal,5,L_LES
excluded,3,REL,Gait_Normal,6,L_LES
excluded,3,REL,Gait_Normal,7,L_LES
excluded,3,REL,Gait_Normal,8,L_LES
excluded,3,REL,Gait_Normal,9,L_LES
excluded,6,INI,Gait_Normal,1,R_LES
excluded,6,INI,Gait_Normal,2,R_LES
excluded,6,INI,Gait_Normal,3,R_LES
excluded,6,INI,Gait_Normal,4,R_LES
excluded,6,INI,Gait_Normal,5,R_LES
excluded,6,INI,Gait_Normal,6,R_LES
excluded,6,INI,Gait_Normal,7,R_LES
excluded,14,REL,Gait_Normal,1,L_LES
excluded,14,REL,Gait_Normal,2,L_LES
excluded,14,REL,Gait_Normal,3,L_LES
excluded,14,REL,Gait_Normal,4,L_LES
excluded,14,REL,Gait_Normal,5,L_LES
excluded,14,REL,Gait_Normal,6,L_LES
excluded,14,REL,Gait_Normal,7,L_LES
excluded,14,REL,Gait_Normal,8,L_LES
excluded,14,REL,Gait_Normal,9,L_LES
excluded,17,REL,Gait_Normal,2,R_LES
excluded,17,REL,Gait_Normal,3,R_LES
excluded,17,REL,Gait_Normal,4,R_LES
excluded,17,REL,Gait_Normal,5,R_LES
excluded,17,REL,Gait_Normal,6,R_LES
excluded,17,REL,Gait_Normal,7,R_LES
excluded,17,REL,Gait_Normal,8,R_LES
excluded,21,REL,Gait_Normal,1,L_LES
excluded,21,REL,Gait_Normal,1,R_LES
excluded,21,REL,Gait_Normal,2,L_LES
excluded,21,REL,Gait_Normal,2,R_LES
excluded,21,REL,Gait_Normal,3,L_LES
excluded,21,REL,Gait_Normal,3,R_LES
excluded,21,REL,Gait_Normal,4,L_LES
excluded,21,REL,Gait_Normal,4,R_LES
excluded,21,REL,Gait_Normal,5,L_LES
excluded,21,REL,Gait_Normal,5,R_LES
excluded,21,REL,Gait_Normal,6,L_LES
excluded,21,REL,Gait_Normal,6,R_LES
excluded,21,REL,Gait_Normal,7,L_LES
excluded,21,REL,Gait_Normal,7,R_LES
excluded,21,REL,Gait_Normal,8,L_LES
excluded,21,REL,Gait_Normal,8,R_LES
excluded,22,INI,Gait_Normal,1,R_LES
excluded,22,INI,Gait_Normal,2,R_LES
excluded,22,INI,Gait_Normal,3,R_LES
excluded,22,INI,Gait_Normal,4,R_LES
excluded,22,INI,Gait_Normal,5,R_LES
excluded,22,INI,Gait_Normal,6,R_LES
excluded,22,INI,Gait_Normal,7,R_LES
excluded,22,INI,Gait_Normal,8,R_LES
excluded,26,INI,Gait_Normal,6,L_LES
excluded,26,INI,Gait_Normal,7,L_LES
excluded,26,REL,Gait_Normal,1,L_LES
excluded,26,REL,Gait_Normal,2,L_LES
excluded,26,REL,Gait_Normal,3,L_LES
excluded,26,REL,Gait_Normal,4,L_LES
excluded,26,REL,Gait_Normal,5,L_LES
excluded,26,REL,Gait_Normal,6,L_LES
excluded,26,REL,Gait_Normal,7,L_LES
excluded,26,REL,Gait_Normal,8,L_LES
excluded,32,REL,Gait_Normal,2,R_LES
excluded,32,REL,Gait_Normal,3,R_LES
excluded,32,REL,Gait_Normal,4,R_LES
excluded,32,REL,Gait_Normal,5,R_LES
excluded,32,REL,Gait_Normal,6,R_LES
excluded,33,INI,Gait_Normal,4,R_LES
excluded,33,INI,Gait_Normal,5,R_LES
excluded,33,INI,Gait_Normal,6,R_LES
excluded,33,REL,Gait_Normal,1,R_LES
excluded,33,REL,Gait_Normal,2,R_LES
excluded,35,INI,Gait_Normal,1,L_LES
excluded,35,INI,Gait_Normal,1,R_LES
excluded,35,INI,Gait_Normal,2,R_LES
excluded,35,INI,Gait_Normal,3,R_LES
excluded,35,INI,Gait_Normal,4,R_LES
excluded,38,INI,Gait_Normal,1,L_LES
excluded,38,INI,Gait_Normal,1,R_LES
excluded,38,INI,Gait_Normal,2,L_LES
excluded,38,INI,Gait_Normal,2,R_LES
excluded,38,INI,Gait_Normal,3,L_LES
excluded,38,INI,Gait_Normal,3,R_LES
excluded,38,INI,Gait_Normal,4,L_LES
excluded,38,INI,Gait_Normal,4,R_LES
excluded,38,INI,Gait_Normal,5,L_LES
excluded,38,INI,Gait_Normal,5,R_LES
excluded,38,INI,Gait_Normal,6,L_LES
excluded,38,INI,Gait_Normal,6,R_LES
excluded,38,REL,Gait_Normal,1,L_LES
excluded,38,REL,Gait_Normal,2,L_LES
excluded,38,REL,Gait_Normal,3,L_LES
excluded,38,REL,Gait_Normal,4,L_LES
excluded,38,REL,Gait_Normal,5,L_LES
excluded,38,REL,Gait_Normal,6,L_LES
excluded,38,REL,Gait_Normal,7,L_LES
excluded,39,INI,Gait_Normal,1,L_LES
excluded,39,INI,Gait_Normal,2,L_LES
excluded,39,INI,Gait_Normal,3,L_LES
excluded,39,INI,Gait_Normal,4,L_LES
excluded,39,INI,Gait_Normal,5,L_LES
excluded,39,INI,Gait_Normal,6,L_LES
excluded,39,REL,Gait_Normal,1,L_LES
excluded,39,REL,Gait_Normal,1,R_LES
excluded,39,REL,Gait_Normal,2,L_LES
excluded,39,REL,Gait_Normal,2,R_LES
excluded,39,REL,Gait_Normal,3,L_LES
excluded,39,REL,Gait_Normal,3,R_LES
excluded,39,REL,Gait_Normal,4,L_LES
excluded,39,REL,Gait_Normal,4,R_LES
excluded,40,INI,Gait_Normal,1,L_LES
excluded,40,INI,Gait_Normal,1,R_LES
excluded,40,INI,Gait_Normal,2,L_LES
excluded,40,INI,Gait_Normal,3,L_LES
excluded,40,INI,Gait_Normal,4,L_LES
excluded,42,INI,Gait_Normal,1,L_LES
excluded,42,INI,Gait_Normal,2,L_LES
excluded,42,INI,Gait_Normal,3,L_LES
excluded,42,INI,Gait_Normal,4,L_LES
excluded,42,INI,Gait_Normal,5,L_LES
excluded,42,INI,Gait_Normal,6,L_LES
excluded,44,INI,Gait_Normal,1,L_LES
excluded,45,INI,Gait_Normal,1,R_LES
excluded,45,INI,Gait_Normal,2,R_LES
excluded,45,INI,Gait_Normal,3,R_LES
excluded,45,INI,Gait_Normal,4,R_LES
excluded,45,INI,Gait_Normal,5,R_LES
excluded,45,INI,Gait_Normal,6,R_LES
excluded,45,INI,Gait_Normal,7,R_LES
excluded,45,INI,Gait_Normal,8,R_LES
excluded,45,REL,Gait_Normal,1,R_LES
excluded,45,REL,Gait_Normal,2,R_LES
excluded,45,REL,Gait_Normal,3,R_LES
excluded,45,REL,Gait_Normal,4,R_LES
excluded,45,REL,Gait_Normal,5,R_LES
excluded,45,REL,Gait_Normal,6,R_LES
excluded,47,REL,Gait_Normal,2,L_LES
excluded,47,REL,Gait_Normal,4,L_LES
excluded,47,REL,Gait_Normal,5,L_LES
excluded,48,REL,Gait_Normal,2,L_LES
excluded,55,INI,Gait_Normal,6,L_LES
excluded,55,INI,Gait_Normal,7,L_LES
excluded,55,REL,Gait_Normal,1,L_LES
excluded,55,REL,Gait_Normal,2,L_LES
excluded,55,REL,Gait_Normal,3,L_LES
excluded,55,REL,Gait_Normal,4,L_LES
excluded,55,REL,Gait_Normal,6,L_LES
excluded,55,REL,Gait_Normal,7,L_LES
excluded,56,INI,Gait_Normal,1,L_LES
excluded,56,REL,Gait_Normal,5,L_LES
excluded,56,REL,Gait_Normal,7,L_LES
excluded,56,REL,Gait_Normal,8,L_LES
excluded,57,INI,Gait_Normal,2,L_LES
excluded,57,INI,Gait_Normal,8,L_LES
excluded,57,REL,Gait_Normal,2,L_LES
excluded,57,REL,Gait_Normal,3,L_LES
excluded,57,REL,Gait_Normal,4,L_LES
excluded,57,REL,Gait_Normal,5,L_LES
excluded,57,REL,Gait_Normal,6,L_LES
excluded,57,REL,Gait_Normal,7,L_LES
excluded,57,REL,Gait_Normal,8,L_LES
excluded,57,REL,Gait_Normal,9,L_LES
excluded,58,REL,Gait_Normal,1,R_LES
excluded,58,REL,Gait_Normal,2,L_LES
excluded,58,REL,Gait_Normal,4,L_LES
excluded,58,REL,Gait_Normal,5,L_LES
excluded,58,REL,Gait_Normal,6,L_LES
excluded,58,REL,Gait_Normal,7,L_LES
excluded,58,REL,Gait_Normal,8,L_LES
excluded,58,REL,Gait_Normal,9,L_LES
Unable to load emg file 61 Endurance_Sorensen INI 1,61,INI,Gait_Normal,all,all
excluded,61,REL,Gait_Normal,3,R_LES
excluded,62,INI,Gait_Normal,3,L_LES
excluded,62,INI,Gait_Normal,4,L_LES
excluded,62,INI,Gait_Normal,5,L_LES
excluded,62,INI,Gait_Normal,6,L_LES
excluded,62,INI,Gait_Normal,7,L_LES
excluded,62,REL,Gait_Normal,1,L_LES
excluded,62,REL,Gait_Normal,1,R_LES
excluded,63,INI,Gait_Normal,1,R_LES
excluded,63,INI,Gait_Normal,2,L_LES
excluded,63,INI,Gait_Normal,2,R_LES
excluded,63,INI,Gait_Normal,3,L_LES
excluded,63,INI,Gait_Normal,3,R_LES
excluded,63,INI,Gait_Normal,4,L_LES
excluded,63,INI,Gait_Normal,4,R_LES
excluded,63,INI,Gait_Normal,5,L_LES
excluded,63,INI,Gait_Normal,5,R_LES
excluded,63,INI,Gait_Normal,6,L_LES
excluded,63,INI,Gait_Normal,6,R_LES
excluded,63,INI,Gait_Normal,7,L_LES
excluded,63,INI,Gait_Normal,7,R_LES
excluded,63,INI,Gait_Normal,8,L_LES
excluded,63,INI,Gait_Normal,8,R_LES
excluded,63,REL,Gait_Normal,1,L_LES
excluded,63,REL,Gait_Normal,4,L_LES
excluded,63,REL,Gait_Normal,4,R_LES
excluded,63,REL,Gait_Normal,5,R_LES
excluded,63,REL,Gait_Normal,6,R_LES
excluded,66,REL,Gait_Normal,4,R_LES
excluded,67,INI,Gait_Normal,2,R_LES
excluded,67,INI,Gait_Normal,3,R_LES
excluded,67,INI,Gait_Normal,4,R_LES
excluded,67,INI,Gait_Normal,5,R_LES
excluded,67,INI,Gait_Normal,6,R_LES
excluded,67,INI,Gait_Normal,7,R_LES
excluded,67,REL,Gait_Normal,1,L_LES
excluded,67,REL,Gait_Normal,1,R_LES
excluded,67,REL,Gait_Normal,2,L_LES
excluded,67,REL,Gait_Normal,2,R_LES
excluded,67,REL,Gait_Normal,3,L_LES
excluded,67,REL,Gait_Normal,3,R_LES
excluded,67,REL,Gait_Normal,4,L_LES
excluded,67,REL,Gait_Normal,4,R_LES
excluded,67,REL,Gait_Normal,5,L_LES
excluded,67,REL,Gait_Normal,5,R_LES
excluded,67,REL,Gait_Normal,6,L_LES
excluded,67,REL,Gait_Normal,6,R_LES
excluded,67,REL,Gait_Normal,7,L_LES
excluded,67,REL,Gait_Normal,7,R_LES
excluded,68,REL,Gait_Normal,1,R_LES
excluded,68,REL,Gait_Normal,2,R_LES
excluded,68,REL,Gait_Normal,3,R_LES
excluded,68,REL,Gait_Normal,4,R_LES
excluded,68,REL,Gait_Normal,5,R_LES
excluded,68,REL,Gait_Normal,6,R_LES
