error,subject,session,task,trial,channel
"cannot reshape array of size 0 into shape (0,newaxis)",2,INI,Gait_Normal,10,L_EO
"cannot reshape array of size 0 into shape (0,newaxis)",2,INI,Gait_Normal,10,R_EO
Unable to load emg file 47 Endurance_Ito INI 1,47,INI,Gait_Normal,all,all
