error,subject,session,task,trial,channel
"cannot reshape array of size 0 into shape (0,newaxis)",2,INI,Gait_Normal,10,L_MTF
"cannot reshape array of size 0 into shape (0,newaxis)",2,INI,Gait_Normal,10,R_MTF
Unable to load emg file 61 Endurance_Sorensen INI 1,61,INI,Gait_Normal,all,all
