error,subject,session,task,trial,channel
excluded,1,REL,Weight_Unconstrained,1,R_ESI
excluded,2,INI,Weight_Unconstrained,1,R_ESI
excluded,2,REL,Weight_Unconstrained,1,L_ESI
excluded,5,INI,Weight_Unconstrained,1,R_ESI
excluded,8,INI,Weight_Unconstrained,1,L_ESI
excluded,8,REL,Weight_Unconstrained,1,L_ESI
excluded,10,INI,Weight_Unconstrained,1,L_ESI
excluded,10,REL,Weight_Unconstrained,1,R_ESI
excluded,11,INI,Weight_Unconstrained,1,L_ESI
excluded,11,REL,Weight_Unconstrained,1,L_ESI
excluded,12,INI,Weight_Unconstrained,1,R_ESI
excluded,12,REL,Weight_Unconstrained,1,L_ESI
excluded,12,REL,Weight_Unconstrained,1,R_ESI
excluded,13,REL,Weight_Unconstrained,1,L_ESI
excluded,16,INI,Weight_Unconstrained,1,L_ESI
excluded,16,REL,Weight_Unconstrained,1,L_ESI
excluded,17,INI,Weight_Unconstrained,1,L_ESI
excluded,17,INI,Weight_Unconstrained,1,R_ESI
excluded,17,REL,Weight_Unconstrained,1,R_ESI
excluded,21,REL,Weight_Unconstrained,1,L_ESI
excluded,21,REL,Weight_Unconstrained,1,R_ESI
excluded,22,INI,Weight_Unconstrained,1,L_ESI
excluded,22,INI,Weight_Unconstrained,1,R_ESI
excluded,23,INI,Weight_Unconstrained,1,R_ESI
excluded,23,REL,Weight_Unconstrained,1,L_ESI
excluded,25,INI,Weight_Unconstrained,1,L_ESI
excluded,25,REL,Weight_Unconstrained,1,L_ESI
excluded,25,REL,Weight_Unconstrained,1,R_ESI
excluded,26,INI,Weight_Unconstrained,1,L_ESI
excluded,26,INI,Weight_Unconstrained,1,R_ESI
excluded,26,REL,Weight_Unconstrained,1,L_ESI
excluded,26,REL,Weight_Unconstrained,1,R_ESI
excluded,27,INI,Weight_Unconstrained,1,L_ESI
excluded,27,REL,Weight_Unconstrained,1,L_ESI
excluded,29,INI,Weight_Unconstrained,1,R_ESI
excluded,32,INI,Weight_Unconstrained,1,L_ESI
excluded,32,INI,Weight_Unconstrained,1,R_ESI
excluded,32,REL,Weight_Unconstrained,1,R_ESI
excluded,33,INI,Weight_Unconstrained,1,L_ESI
excluded,33,INI,Weight_Unconstrained,1,R_ESI
excluded,33,REL,Weight_Unconstrained,1,L_ESI
excluded,33,REL,Weight_Unconstrained,1,R_ESI
excluded,34,INI,Weight_Unconstrained,1,R_ESI
excluded,34,REL,Weight_Unconstrained,1,R_ESI
excluded,35,INI,Weight_Unconstrained,1,L_ESI
excluded,35,INI,Weight_Unconstrained,1,R_ESI
excluded,35,REL,Weight_Unconstrained,1,L_ESI
excluded,38,INI,Weight_Unconstrained,1,R_ESI
excluded,38,REL,Weight_Unconstrained,1,R_ESI
excluded,39,INI,Weight_Unconstrained,1,R_ESI
excluded,39,REL,Weight_Unconstrained,1,R_ESI
excluded,42,INI,Weight_Unconstrained,1,L_ESI
excluded,42,REL,Weight_Unconstrained,1,L_ESI
excluded,45,REL,Weight_Unconstrained,1,L_ESI
excluded,45,REL,Weight_Unconstrained,1,R_ESI
excluded,47,INI,Weight_Unconstrained,1,L_ESI
excluded,47,INI,Weight_Unconstrained,1,R_ESI
excluded,47,REL,Weight_Unconstrained,1,L_ESI
excluded,48,REL,Weight_Unconstrained,1,L_ESI
excluded,49,INI,Weight_Unconstrained,1,L_ESI
excluded,49,REL,Weight_Unconstrained,1,R_ESI
excluded,51,REL,Weight_Unconstrained,1,R_ESI
excluded,57,REL,Weight_Unconstrained,1,R_ESI
excluded,60,INI,Weight_Unconstrained,1,R_ESI
excluded,60,REL,Weight_Unconstrained,1,R_ESI
excluded,61,INI,Weight_Unconstrained,1,L_ESI
excluded,61,REL,Weight_Unconstrained,1,R_ESI
excluded,62,INI,Weight_Unconstrained,1,L_ESI
excluded,62,INI,Weight_Unconstrained,1,R_ESI
excluded,63,INI,Weight_Unconstrained,1,L_ESI
excluded,63,INI,Weight_Unconstrained,1,R_ESI
excluded,63,REL,Weight_Unconstrained,1,L_ESI
excluded,64,INI,Weight_Unconstrained,1,L_ESI
excluded,64,REL,Weight_Unconstrained,1,L_ESI
excluded,66,INI,Weight_Unconstrained,1,L_ESI
excluded,66,REL,Weight_Unconstrained,1,L_ESI
excluded,66,REL,Weight_Unconstrained,1,R_ESI
excluded,67,INI,Weight_Unconstrained,1,L_ESI
excluded,67,INI,Weight_Unconstrained,1,R_ESI
excluded,67,REL,Weight_Unconstrained,1,L_ESI
excluded,67,REL,Weight_Unconstrained,1,R_ESI
excluded,68,INI,Weight_Unconstrained,1,R_ESI
excluded,68,REL,Weight_Unconstrained,1,R_ESI
