error,subject,session,task,trial,channel
excluded,1,INI,Weight_Unconstrained,1,L_LES
excluded,1,INI,Weight_Unconstrained,1,R_LES
excluded,1,REL,Weight_Unconstrained,1,R_LES
excluded,2,REL,Weight_Unconstrained,1,L_LES
excluded,3,REL,Weight_Unconstrained,1,L_LES
excluded,6,INI,Weight_Unconstrained,1,L_LES
excluded,7,INI,Weight_Unconstrained,1,L_LES
excluded,14,REL,Weight_Unconstrained,1,L_LES
excluded,21,REL,Weight_Unconstrained,1,L_LES
excluded,23,INI,Weight_Unconstrained,1,L_LES
excluded,23,INI,Weight_Unconstrained,1,R_LES
excluded,23,REL,Weight_Unconstrained,1,R_LES
excluded,24,REL,Weight_Unconstrained,1,L_LES
excluded,26,INI,Weight_Unconstrained,1,L_LES
excluded,26,REL,Weight_Unconstrained,1,L_LES
excluded,30,INI,Weight_Unconstrained,1,L_LES
excluded,30,REL,Weight_Unconstrained,1,L_LES
excluded,35,INI,Weight_Unconstrained,1,L_LES
excluded,38,INI,Weight_Unconstrained,1,L_LES
excluded,38,INI,Weight_Unconstrained,1,R_LES
excluded,45,INI,Weight_Unconstrained,1,L_LES
excluded,49,INI,Weight_Unconstrained,1,L_LES
excluded,50,INI,Weight_Unconstrained,1,L_LES
excluded,55,REL,Weight_Unconstrained,1,L_LES
excluded,57,INI,Weight_Unconstrained,1,L_LES
excluded,57,REL,Weight_Unconstrained,1,L_LES
excluded,58,REL,Weight_Unconstrained,1,L_LES
excluded,60,REL,Weight_Unconstrained,1,R_LES
Unable to load emg file 61 Endurance_Sorensen INI 1,61,INI,Weight_Unconstrained,all,all
excluded,62,INI,Weight_Unconstrained,1,L_LES
excluded,63,INI,Weight_Unconstrained,1,L_LES
excluded,67,INI,Weight_Unconstrained,1,L_LES
excluded,67,REL,Weight_Unconstrained,1,L_LES
excluded,67,REL,Weight_Unconstrained,1,R_LES
excluded,68,INI,Weight_Unconstrained,1,L_LES
