Group,Participant,Session,Operator,Measure,Value,Unit
CTR,P01,INI,FM,MEAN,12.54718236141554,%MAX
CTR,P02,INI,FM,MEAN,26.92305624632496,%MAX
CTR,P03,INI,FM,MEAN,12.371377084032076,%MAX
CTR,P05,INI,FM,MEAN,7.041843104135897,%MAX
CTR,P06,INI,FM,MEAN,5.9042095650343684,%MAX
CTR,P07,INI,FM,MEAN,18.17074643671602,%MAX
CTR,P08,INI,FM,MEAN,10.7586528648937,%MAX
PAT,P09,INI,FM,MEAN,13.55816638824669,%MAX
PAT,P10,INI,FM,MEAN,6.885925021815743,%MAX
PAT,P11,INI,FM,MEAN,7.758519658693934,%MAX
PAT,P12,INI,FM,MEAN,13.427045364093342,%MAX
CTR,P13,INI,FM,MEAN,19.214375634385327,%MAX
PAT,P14,INI,FM,MEAN,10.702802965646674,%MAX
CTR,P16,INI,FM,MEAN,32.20624848859939,%MAX
PAT,P17,INI,FM,MEAN,28.5133251544166,%MAX
CTR,P21,INI,FM,MEAN,34.14101495917078,%MAX
CTR,P22,INI,FM,MEAN,24.691225045709388,%MAX
CTR,P23,INI,FM,MEAN,15.116205483203737,%MAX
PAT,P24,INI,FM,MEAN,22.861149006581485,%MAX
CTR,P25,INI,FM,MEAN,38.10092104397047,%MAX
PAT,P26,INI,FM,MEAN,30.32705932278222,%MAX
PAT,P27,INI,FM,MEAN,13.26032967969231,%MAX
PAT,P28,INI,FM,MEAN,19.107540829329196,%MAX
PAT,P29,INI,FM,MEAN,26.33895477288949,%MAX
PAT,P30,INI,FM,MEAN,33.37116527870511,%MAX
PAT,P32,INI,FM,MEAN,16.23055459338091,%MAX
PAT,P33,INI,FM,MEAN,16.52861984379669,%MAX
PAT,P34,INI,FM,MEAN,29.02540650434393,%MAX
CTR,P35,INI,FM,MEAN,6.883228986553876,%MAX
PAT,P36,INI,FM,MEAN,21.176518912644973,%MAX
CTR,P38,INI,FM,MEAN,20.874375552089337,%MAX
CTR,P39,INI,FM,MEAN,16.118055045648383,%MAX
CTR,P40,INI,FM,MEAN,20.91543261013929,%MAX
PAT,P41,INI,FM,MEAN,15.281594444084163,%MAX
PAT,P42,INI,FM,MEAN,3.997608725175068,%MAX
PAT,P43,INI,FM,MEAN,10.228610427045387,%MAX
CTR,P44,INI,FM,MEAN,7.683757046528048,%MAX
PAT,P45,INI,FM,MEAN,21.357789418400685,%MAX
CTR,P46,INI,FM,MEAN,17.802118464231768,%MAX
PAT,P47,INI,FM,MEAN,18.08674185762222,%MAX
CTR,P48,INI,FM,MEAN,20.188703533805626,%MAX
CTR,P49,INI,FM,MEAN,6.394898487125087,%MAX
PAT,P50,INI,FM,MEAN,9.221912943646206,%MAX
PAT,P51,INI,FM,MEAN,19.18954843845492,%MAX
CTR,P52,INI,FM,MEAN,23.34872098003909,%MAX
PAT,P53,INI,FM,MEAN,24.259161292854024,%MAX
PAT,P54,INI,FM,MEAN,19.71524969216522,%MAX
CTR,P55,INI,FM,MEAN,29.88920860338417,%MAX
CTR,P56,INI,FM,MEAN,27.526995217948866,%MAX
CTR,P57,INI,FM,MEAN,34.068097602392776,%MAX
PAT,P58,INI,FM,MEAN,35.69648262292625,%MAX
CTR,P60,INI,FM,MEAN,16.26692100835263,%MAX
PAT,P61,INI,FM,MEAN,28.071083537900044,%MAX
PAT,P62,INI,FM,MEAN,26.50059580322605,%MAX
PAT,P63,INI,FM,MEAN,19.417574946271923,%MAX
CTR,P64,INI,FM,MEAN,19.18180723161272,%MAX
PAT,P65,INI,FM,MEAN,32.00998426274492,%MAX
CTR,P66,INI,FM,MEAN,10.647081765303128,%MAX
CTR,P67,INI,FM,MEAN,31.212923654872238,%MAX
CTR,P68,INI,FM,MEAN,19.70297609221346,%MAX
