Group,Participant,Session,Operator,Measure,Value,Unit
CTR,P01,INI,FM,MEAN,39.20198908073793,%MAX
CTR,P02,INI,FM,MEAN,28.90570097909639,%MAX
CTR,P03,INI,FM,MEAN,32.81329004203525,%MAX
CTR,P05,INI,FM,MEAN,31.966382331613833,%MAX
CTR,P06,INI,FM,MEAN,21.904423996485043,%MAX
CTR,P07,INI,FM,MEAN,33.023594669461495,%MAX
CTR,P08,INI,FM,MEAN,42.88011776870817,%MAX
PAT,P09,INI,FM,MEAN,29.94020670423096,%MAX
PAT,P10,INI,FM,MEAN,16.830758256292,%MAX
PAT,P11,INI,FM,MEAN,36.063776741756,%MAX
PAT,P12,INI,FM,MEAN,44.09787212432409,%MAX
CTR,P13,INI,FM,MEAN,25.858308803341263,%MAX
PAT,P14,INI,FM,MEAN,44.29574366715715,%MAX
CTR,P16,INI,FM,MEAN,41.07645271274394,%MAX
PAT,P17,INI,FM,MEAN,32.23018583847644,%MAX
CTR,P21,INI,FM,MEAN,39.48106583933188,%MAX
CTR,P22,INI,FM,MEAN,23.070999551744247,%MAX
CTR,P23,INI,FM,MEAN,31.81890210160565,%MAX
PAT,P24,INI,FM,MEAN,34.610049512639016,%MAX
CTR,P25,INI,FM,MEAN,24.843592891414495,%MAX
PAT,P26,INI,FM,MEAN,35.14046884450342,%MAX
PAT,P27,INI,FM,MEAN,40.44724495258522,%MAX
PAT,P28,INI,FM,MEAN,29.042631666623805,%MAX
PAT,P29,INI,FM,MEAN,35.93077651319409,%MAX
PAT,P30,INI,FM,MEAN,33.36312879466258,%MAX
PAT,P32,INI,FM,MEAN,35.32807412264819,%MAX
PAT,P33,INI,FM,MEAN,16.60657541003387,%MAX
PAT,P34,INI,FM,MEAN,40.21065030966793,%MAX
CTR,P35,INI,FM,MEAN,33.59630473673319,%MAX
PAT,P36,INI,FM,MEAN,35.09352810167729,%MAX
CTR,P38,INI,FM,MEAN,25.972462989087983,%MAX
CTR,P39,INI,FM,MEAN,36.73592459041394,%MAX
CTR,P40,INI,FM,MEAN,35.063603198883094,%MAX
PAT,P41,INI,FM,MEAN,31.56566270417208,%MAX
PAT,P42,INI,FM,MEAN,31.127575912909947,%MAX
PAT,P43,INI,FM,MEAN,32.36078391552642,%MAX
CTR,P44,INI,FM,MEAN,30.467240268104256,%MAX
PAT,P45,INI,FM,MEAN,25.697711062161517,%MAX
CTR,P46,INI,FM,MEAN,28.398712613957787,%MAX
PAT,P47,INI,FM,MEAN,30.53454272885807,%MAX
CTR,P48,INI,FM,MEAN,37.27244556110076,%MAX
CTR,P49,INI,FM,MEAN,38.82215926236736,%MAX
PAT,P50,INI,FM,MEAN,35.98440115113831,%MAX
PAT,P51,INI,FM,MEAN,27.67831495918612,%MAX
CTR,P52,INI,FM,MEAN,30.909128057675872,%MAX
PAT,P53,INI,FM,MEAN,40.69744514222273,%MAX
PAT,P54,INI,FM,MEAN,23.746813162128262,%MAX
CTR,P55,INI,FM,MEAN,50.6166223995168,%MAX
CTR,P56,INI,FM,MEAN,32.97518758809718,%MAX
CTR,P57,INI,FM,MEAN,40.93223445357602,%MAX
PAT,P58,INI,FM,MEAN,49.800075708939424,%MAX
CTR,P60,INI,FM,MEAN,30.652542145061958,%MAX
PAT,P61,INI,FM,MEAN,40.326848808318395,%MAX
PAT,P62,INI,FM,MEAN,36.288924926226485,%MAX
PAT,P63,INI,FM,MEAN,32.56885839877788,%MAX
CTR,P64,INI,FM,MEAN,33.24935048026133,%MAX
PAT,P65,INI,FM,MEAN,37.00590110265945,%MAX
CTR,P66,INI,FM,MEAN,40.520529751602474,%MAX
CTR,P67,INI,FM,MEAN,43.80039208611303,%MAX
CTR,P68,INI,FM,MEAN,31.768853455574646,%MAX
