Group,Participant,Session,Operator,Measure,Value,Unit
CTR,P01,INI,FM,MEAN,16.99238560857199,%MAX
CTR,P02,INI,FM,MEAN,8.392944480069865,%MAX
CTR,P03,INI,FM,MEAN,9.509981167769734,%MAX
CTR,P05,INI,FM,MEAN,12.287156083424684,%MAX
CTR,P06,INI,FM,MEAN,27.42644130215023,%MAX
CTR,P07,INI,FM,MEAN,6.131745721325182,%MAX
CTR,P08,INI,FM,MEAN,9.534942725639931,%MAX
PAT,P09,INI,FM,MEAN,18.838569152409978,%MAX
PAT,P10,INI,FM,MEAN,7.3323331637460205,%MAX
PAT,P11,INI,FM,MEAN,12.307614324760786,%MAX
PAT,P12,INI,FM,MEAN,11.955520544419652,%MAX
CTR,P13,INI,FM,MEAN,23.539665768193096,%MAX
PAT,P14,INI,FM,MEAN,18.70098365096134,%MAX
CTR,P16,INI,FM,MEAN,52.13853005835999,%MAX
PAT,P17,INI,FM,MEAN,32.28566386728364,%MAX
CTR,P21,INI,FM,MEAN,3.197425730005134,%MAX
CTR,P22,INI,FM,MEAN,49.35752770829809,%MAX
CTR,P23,INI,FM,MEAN,36.848613981604,%MAX
PAT,P24,INI,FM,MEAN,15.373208661513146,%MAX
CTR,P25,INI,FM,MEAN,49.94173432160412,%MAX
PAT,P26,INI,FM,MEAN,34.45679959024294,%MAX
PAT,P27,INI,FM,MEAN,15.790301652280391,%MAX
PAT,P28,INI,FM,MEAN,22.24366596159626,%MAX
PAT,P29,INI,FM,MEAN,28.1215408893999,%MAX
PAT,P30,INI,FM,MEAN,35.32126807457656,%MAX
PAT,P32,INI,FM,MEAN,8.422463929295487,%MAX
PAT,P33,INI,FM,MEAN,26.581244666779487,%MAX
PAT,P34,INI,FM,MEAN,23.055092926750998,%MAX
CTR,P35,INI,FM,MEAN,29.66677489106298,%MAX
PAT,P36,INI,FM,MEAN,15.139422082524762,%MAX
CTR,P38,INI,FM,MEAN,15.319540035547357,%MAX
CTR,P39,INI,FM,MEAN,24.009611962872768,%MAX
CTR,P40,INI,FM,MEAN,10.018542210204028,%MAX
PAT,P41,INI,FM,MEAN,8.548307725757025,%MAX
PAT,P42,INI,FM,MEAN,10.986042838130315,%MAX
PAT,P43,INI,FM,MEAN,17.776548774289687,%MAX
CTR,P44,INI,FM,MEAN,22.08237819293478,%MAX
PAT,P45,INI,FM,MEAN,30.542095794145773,%MAX
CTR,P46,INI,FM,MEAN,33.53165438120512,%MAX
PAT,P47,INI,FM,MEAN,14.305258312221246,%MAX
CTR,P48,INI,FM,MEAN,29.47040116609797,%MAX
CTR,P49,INI,FM,MEAN,10.23533837581635,%MAX
PAT,P50,INI,FM,MEAN,14.307800779061122,%MAX
PAT,P51,INI,FM,MEAN,19.34516239543071,%MAX
CTR,P52,INI,FM,MEAN,47.05648442965538,%MAX
PAT,P53,INI,FM,MEAN,22.896596241725543,%MAX
PAT,P54,INI,FM,MEAN,42.828670596813055,%MAX
CTR,P55,INI,FM,MEAN,41.70065916355151,%MAX
CTR,P56,INI,FM,MEAN,25.02748638615345,%MAX
CTR,P57,INI,FM,MEAN,38.85440928951091,%MAX
PAT,P58,INI,FM,MEAN,26.93758084142895,%MAX
CTR,P60,INI,FM,MEAN,37.67742846576503,%MAX
PAT,P61,INI,FM,MEAN,38.34509192754247,%MAX
PAT,P62,INI,FM,MEAN,10.48830389218395,%MAX
PAT,P63,INI,FM,MEAN,37.29520604280855,%MAX
CTR,P64,INI,FM,MEAN,26.48503267342468,%MAX
PAT,P65,INI,FM,MEAN,3.4174861278355393,%MAX
CTR,P66,INI,FM,MEAN,44.858624993262026,%MAX
CTR,P67,INI,FM,MEAN,31.642519915310437,%MAX
CTR,P68,INI,FM,MEAN,23.391655438919305,%MAX
