Group,Participant,Session,Operator,Measure,Value,Unit
CTR,P01,INI,FM,MEAN,29.409926405127862,%MAX
CTR,P02,INI,FM,MEAN,38.563143467352766,%MAX
CTR,P03,INI,FM,MEAN,30.98552286157846,%MAX
CTR,P05,INI,FM,MEAN,19.469993032497527,%MAX
CTR,P06,INI,FM,MEAN,16.42991539461389,%MAX
CTR,P07,INI,FM,MEAN,29.724055214926207,%MAX
CTR,P08,INI,FM,MEAN,22.271385378903542,%MAX
PAT,P09,INI,FM,MEAN,25.502040382948255,%MAX
PAT,P10,INI,FM,MEAN,26.05066165842474,%MAX
PAT,P11,INI,FM,MEAN,18.08758755105929,%MAX
PAT,P12,INI,FM,MEAN,27.88085374606323,%MAX
CTR,P13,INI,FM,MEAN,33.46218173142361,%MAX
PAT,P14,INI,FM,MEAN,25.692575133741766,%MAX
CTR,P16,INI,FM,MEAN,40.80181814885822,%MAX
PAT,P17,INI,FM,MEAN,27.650376436551056,%MAX
CTR,P21,INI,FM,MEAN,40.23448441386563,%MAX
CTR,P22,INI,FM,MEAN,30.817570415321327,%MAX
CTR,P23,INI,FM,MEAN,22.28167816896531,%MAX
PAT,P24,INI,FM,MEAN,36.83525690444394,%MAX
CTR,P25,INI,FM,MEAN,37.76487604694152,%MAX
PAT,P26,INI,FM,MEAN,31.04348199474955,%MAX
PAT,P27,INI,FM,MEAN,32.351145598139034,%MAX
PAT,P28,INI,FM,MEAN,32.64324428077093,%MAX
PAT,P29,INI,FM,MEAN,33.7607290640895,%MAX
PAT,P30,INI,FM,MEAN,39.057701025465946,%MAX
PAT,P32,INI,FM,MEAN,29.584007268006538,%MAX
PAT,P33,INI,FM,MEAN,25.772936091034993,%MAX
PAT,P34,INI,FM,MEAN,31.879633901023855,%MAX
CTR,P35,INI,FM,MEAN,24.194007905292832,%MAX
PAT,P36,INI,FM,MEAN,30.841328756434166,%MAX
CTR,P38,INI,FM,MEAN,43.28143051580336,%MAX
CTR,P39,INI,FM,MEAN,19.884290361571995,%MAX
CTR,P40,INI,FM,MEAN,22.118927577918605,%MAX
PAT,P41,INI,FM,MEAN,26.901907809654627,%MAX
PAT,P42,INI,FM,MEAN,17.972597085590905,%MAX
PAT,P43,INI,FM,MEAN,21.411870456279292,%MAX
CTR,P44,INI,FM,MEAN,23.343065008604064,%MAX
PAT,P45,INI,FM,MEAN,31.01915967310975,%MAX
CTR,P46,INI,FM,MEAN,15.02482407183219,%MAX
PAT,P47,INI,FM,MEAN,23.5127934843422,%MAX
CTR,P48,INI,FM,MEAN,29.151693278626798,%MAX
CTR,P49,INI,FM,MEAN,19.198194705462956,%MAX
PAT,P50,INI,FM,MEAN,23.17749605550704,%MAX
PAT,P51,INI,FM,MEAN,29.677376331256408,%MAX
CTR,P52,INI,FM,MEAN,29.65825232311296,%MAX
PAT,P53,INI,FM,MEAN,24.17852253500609,%MAX
PAT,P54,INI,FM,MEAN,15.621183079055484,%MAX
CTR,P55,INI,FM,MEAN,30.60732587514196,%MAX
CTR,P56,INI,FM,MEAN,35.284598349363826,%MAX
CTR,P57,INI,FM,MEAN,34.75395947613722,%MAX
PAT,P58,INI,FM,MEAN,36.50234763142168,%MAX
CTR,P60,INI,FM,MEAN,32.761818573249066,%MAX
PAT,P61,INI,FM,MEAN,35.40533755151744,%MAX
PAT,P62,INI,FM,MEAN,27.181707446360377,%MAX
PAT,P63,INI,FM,MEAN,27.023362995956667,%MAX
CTR,P64,INI,FM,MEAN,34.55280946981538,%MAX
PAT,P65,INI,FM,MEAN,35.210937162793435,%MAX
CTR,P66,INI,FM,MEAN,38.79091711910118,%MAX
CTR,P67,INI,FM,MEAN,39.19682497843228,%MAX
CTR,P68,INI,FM,MEAN,30.670258377509533,%MAX
