Group,Participant,Session,Operator,Measure,Value,Unit
CTR,P01,INI,FM,MPF,99.6527092826873,Hz
CTR,P02,INI,FM,MPF,104.40987659098228,Hz
CTR,P03,INI,FM,MPF,90.01118657726325,Hz
CTR,P05,INI,FM,MPF,131.27143639397818,Hz
CTR,P06,INI,FM,MPF,108.5319806416158,Hz
CTR,P07,INI,FM,MPF,96.3845161661224,Hz
CTR,P08,INI,FM,MPF,41.798834555718365,Hz
PAT,P09,INI,FM,MPF,111.72013471778185,Hz
PAT,P10,INI,FM,MPF,84.60318414312906,Hz
PAT,P11,INI,FM,MPF,124.1765203045497,Hz
PAT,P12,INI,FM,MPF,99.80882877020406,Hz
CTR,P13,INI,FM,MPF,106.35957397487236,Hz
PAT,P14,INI,FM,MPF,76.45370837424315,Hz
CTR,P16,INI,FM,MPF,97.45348595890682,Hz
PAT,P17,INI,FM,MPF,118.69698364324148,Hz
CTR,P21,INI,FM,MPF,61.429682581577175,Hz
CTR,P22,INI,FM,MPF,94.32644234336932,Hz
CTR,P23,INI,FM,MPF,60.98747937313804,Hz
PAT,P24,INI,FM,MPF,108.16842561325608,Hz
CTR,P25,INI,FM,MPF,39.84466919134557,Hz
PAT,P26,INI,FM,MPF,84.14268761427665,Hz
PAT,P27,INI,FM,MPF,86.15533542041707,Hz
PAT,P28,INI,FM,MPF,126.19933427686074,Hz
PAT,P29,INI,FM,MPF,101.82092489257012,Hz
PAT,P30,INI,FM,MPF,79.14041383090377,Hz
PAT,P32,INI,FM,MPF,112.25029874826198,Hz
PAT,P33,INI,FM,MPF,96.60477703440417,Hz
PAT,P34,INI,FM,MPF,104.90471538928018,Hz
CTR,P35,INI,FM,MPF,110.84551537429007,Hz
PAT,P36,INI,FM,MPF,107.4036679371692,Hz
CTR,P38,INI,FM,MPF,31.908605427393717,Hz
CTR,P39,INI,FM,MPF,101.01138307767437,Hz
CTR,P40,INI,FM,MPF,67.71489293828367,Hz
PAT,P41,INI,FM,MPF,90.05001302588555,Hz
PAT,P42,INI,FM,MPF,98.12270682684208,Hz
PAT,P43,INI,FM,MPF,108.7609097285318,Hz
CTR,P44,INI,FM,MPF,44.68779657755632,Hz
PAT,P45,INI,FM,MPF,84.68870820374963,Hz
CTR,P46,INI,FM,MPF,55.004754528407965,Hz
PAT,P47,INI,FM,MPF,82.03029339644553,Hz
CTR,P48,INI,FM,MPF,112.28798619687444,Hz
CTR,P49,INI,FM,MPF,100.4486315955474,Hz
PAT,P50,INI,FM,MPF,128.00862406528344,Hz
PAT,P51,INI,FM,MPF,79.48589613177445,Hz
CTR,P52,INI,FM,MPF,109.48047806785424,Hz
PAT,P53,INI,FM,MPF,95.81733443899329,Hz
PAT,P54,INI,FM,MPF,87.80857654946054,Hz
CTR,P55,INI,FM,MPF,60.1721929992988,Hz
CTR,P56,INI,FM,MPF,79.93745548119801,Hz
CTR,P57,INI,FM,MPF,67.56343456183542,Hz
PAT,P58,INI,FM,MPF,48.107677277002246,Hz
CTR,P60,INI,FM,MPF,104.65865353061736,Hz
PAT,P61,INI,FM,MPF,83.72484342299646,Hz
PAT,P62,INI,FM,MPF,97.5616806877991,Hz
PAT,P63,INI,FM,MPF,89.89941176952952,Hz
CTR,P64,INI,FM,MPF,89.24062310669706,Hz
PAT,P65,INI,FM,MPF,97.62846985998306,Hz
CTR,P66,INI,FM,MPF,55.68560462352733,Hz
CTR,P67,INI,FM,MPF,100.834863460412,Hz
CTR,P68,INI,FM,MPF,114.41313192578868,Hz
