Group,Participant,Session,Operator,Measure,Value,Unit
CTR,P01,INI,FM,DIFFERENCE,0.0021665276743739,V
CTR,P02,INI,FM,DIFFERENCE,0.0005930209460152,V
CTR,P03,INI,FM,DIFFERENCE,0.0003657170461001,V
CTR,P05,INI,FM,DIFFERENCE,0.0046124123570492,V
CTR,P06,INI,FM,DIFFERENCE,0.0004240477264314,V
CTR,P07,INI,FM,DIFFERENCE,0.0030996839265779,V
CTR,P08,INI,FM,DIFFERENCE,0.0004537834799211,V
PAT,P09,INI,FM,DIFFERENCE,0.0009102884283314,V
PAT,P10,INI,FM,DIFFERENCE,0.0006773374784027,V
PAT,P11,INI,FM,DIFFERENCE,0.0004225810913728,V
PAT,P12,INI,FM,DIFFERENCE,0.0010636061266479,V
CTR,P13,INI,FM,DIFFERENCE,0.0067655089100268,V
PAT,P14,INI,FM,DIFFERENCE,0.0011653269733081,V
CTR,P16,INI,FM,DIFFERENCE,0.0007518259864542,V
PAT,P17,INI,FM,DIFFERENCE,0.0073264727563063,V
CTR,P21,INI,FM,DIFFERENCE,0.0086323250128065,V
CTR,P22,INI,FM,DIFFERENCE,0.0023924993004606,V
CTR,P23,INI,FM,DIFFERENCE,0.0008026679242697,V
PAT,P24,INI,FM,DIFFERENCE,0.0013032799923114,V
CTR,P25,INI,FM,DIFFERENCE,0.0038788559372909,V
PAT,P26,INI,FM,DIFFERENCE,0.0014512824686631,V
PAT,P27,INI,FM,DIFFERENCE,0.0027214225547989,V
PAT,P28,INI,FM,DIFFERENCE,0.0019274154877979,V
PAT,P29,INI,FM,DIFFERENCE,0.011040672359411,V
PAT,P32,INI,FM,DIFFERENCE,0.0008286714438929,V
PAT,P33,INI,FM,DIFFERENCE,0.0017081312883008,V
PAT,P34,INI,FM,DIFFERENCE,0.000860354131649,V
CTR,P35,INI,FM,DIFFERENCE,0.0061007345543352,V
PAT,P36,INI,FM,DIFFERENCE,0.0050071340103722,V
CTR,P38,INI,FM,DIFFERENCE,0.0878545237289403,V
CTR,P39,INI,FM,DIFFERENCE,0.003532482762942,V
CTR,P40,INI,FM,DIFFERENCE,0.0086552916276793,V
PAT,P41,INI,FM,DIFFERENCE,0.0007425448887375,V
PAT,P42,INI,FM,DIFFERENCE,0.0077481774079676,V
PAT,P43,INI,FM,DIFFERENCE,0.001752860862198,V
CTR,P44,INI,FM,DIFFERENCE,0.0019315393065715,V
PAT,P45,INI,FM,DIFFERENCE,0.0023986559026612,V
CTR,P46,INI,FM,DIFFERENCE,0.0111047421809208,V
PAT,P47,INI,FM,DIFFERENCE,0.001738557685169,V
CTR,P48,INI,FM,DIFFERENCE,0.0113582771957829,V
CTR,P49,INI,FM,DIFFERENCE,0.0016326485077155,V
PAT,P50,INI,FM,DIFFERENCE,0.0007033842468033,V
PAT,P51,INI,FM,DIFFERENCE,0.0011559046044088,V
CTR,P52,INI,FM,DIFFERENCE,0.0031860787915889,V
PAT,P53,INI,FM,DIFFERENCE,0.0016703036339054,V
PAT,P54,INI,FM,DIFFERENCE,0.0007940759518585,V
CTR,P55,INI,FM,DIFFERENCE,0.0045236141668619,V
CTR,P56,INI,FM,DIFFERENCE,0.0016486523469784,V
CTR,P57,INI,FM,DIFFERENCE,0.0002626936779721,V
PAT,P58,INI,FM,DIFFERENCE,0.0005083053158512,V
CTR,P60,INI,FM,DIFFERENCE,0.0046641882010038,V
PAT,P61,INI,FM,DIFFERENCE,0.0017799961294553,V
PAT,P62,INI,FM,DIFFERENCE,0.0077555611240806,V
PAT,P63,INI,FM,DIFFERENCE,0.0060053608511929,V
CTR,P64,INI,FM,DIFFERENCE,0.0070961010062314,V
PAT,P65,INI,FM,DIFFERENCE,0.0032487110131232,V
CTR,P66,INI,FM,DIFFERENCE,0.0007807171586354,V
CTR,P67,INI,FM,DIFFERENCE,0.007979102417388,V
CTR,P68,INI,FM,DIFFERENCE,0.0134477116014089,V
