Group,Participant,Session,Operator,Measure,Value,Unit
CTR,P01,INI,FM,MEAN,11.72085172755089,%MAX
CTR,P02,INI,FM,MEAN,16.068404996749003,%MAX
CTR,P03,INI,FM,MEAN,15.041243103406213,%MAX
CTR,P05,INI,FM,MEAN,8.744038873399008,%MAX
CTR,P06,INI,FM,MEAN,5.4438944317947335,%MAX
CTR,P07,INI,FM,MEAN,18.733834006899233,%MAX
CTR,P08,INI,FM,MEAN,9.268025833900834,%MAX
PAT,P09,INI,FM,MEAN,10.806289077141395,%MAX
PAT,P10,INI,FM,MEAN,5.63239049523944,%MAX
PAT,P11,INI,FM,MEAN,9.183697358353252,%MAX
PAT,P12,INI,FM,MEAN,17.715908250884066,%MAX
CTR,P13,INI,FM,MEAN,19.946410092506216,%MAX
PAT,P14,INI,FM,MEAN,15.228285096152465,%MAX
CTR,P16,INI,FM,MEAN,71.45321299149516,%MAX
PAT,P17,INI,FM,MEAN,36.08842196948139,%MAX
CTR,P21,INI,FM,MEAN,95.25120411294999,%MAX
CTR,P22,INI,FM,MEAN,21.10660861960433,%MAX
CTR,P23,INI,FM,MEAN,21.332730846866863,%MAX
PAT,P24,INI,FM,MEAN,38.04039029117723,%MAX
CTR,P25,INI,FM,MEAN,43.34186116635298,%MAX
PAT,P26,INI,FM,MEAN,32.44764499315847,%MAX
PAT,P27,INI,FM,MEAN,35.86101788259671,%MAX
PAT,P28,INI,FM,MEAN,39.42830641800471,%MAX
PAT,P29,INI,FM,MEAN,28.14713626575806,%MAX
PAT,P32,INI,FM,MEAN,27.434250036287953,%MAX
PAT,P33,INI,FM,MEAN,26.246836869705405,%MAX
PAT,P34,INI,FM,MEAN,26.570433480551884,%MAX
CTR,P35,INI,FM,MEAN,60.13609361340408,%MAX
PAT,P36,INI,FM,MEAN,37.00911046919916,%MAX
CTR,P38,INI,FM,MEAN,20.983778038880274,%MAX
CTR,P39,INI,FM,MEAN,27.355763592133325,%MAX
CTR,P40,INI,FM,MEAN,26.462453891253745,%MAX
PAT,P41,INI,FM,MEAN,30.28927533993753,%MAX
PAT,P42,INI,FM,MEAN,11.295307307900815,%MAX
PAT,P43,INI,FM,MEAN,44.543311523826794,%MAX
CTR,P44,INI,FM,MEAN,30.492112738526206,%MAX
PAT,P45,INI,FM,MEAN,30.48252715960239,%MAX
CTR,P46,INI,FM,MEAN,23.039979012590063,%MAX
PAT,P47,INI,FM,MEAN,26.023083734640295,%MAX
CTR,P48,INI,FM,MEAN,31.062997798752747,%MAX
CTR,P49,INI,FM,MEAN,41.937104122561585,%MAX
PAT,P50,INI,FM,MEAN,39.711790657096316,%MAX
PAT,P51,INI,FM,MEAN,23.918849186344307,%MAX
CTR,P52,INI,FM,MEAN,44.30072907089317,%MAX
PAT,P53,INI,FM,MEAN,28.21345346660895,%MAX
PAT,P54,INI,FM,MEAN,159.09580350213608,%MAX
CTR,P55,INI,FM,MEAN,84.53643570144406,%MAX
CTR,P56,INI,FM,MEAN,51.540232613266255,%MAX
CTR,P57,INI,FM,MEAN,85.39207199491723,%MAX
PAT,P58,INI,FM,MEAN,61.84474280146579,%MAX
CTR,P60,INI,FM,MEAN,53.29797840134673,%MAX
PAT,P61,INI,FM,MEAN,45.68374182566424,%MAX
PAT,P62,INI,FM,MEAN,26.17904816602593,%MAX
PAT,P63,INI,FM,MEAN,35.01485630027515,%MAX
CTR,P64,INI,FM,MEAN,30.265669308840312,%MAX
PAT,P65,INI,FM,MEAN,66.00156394453306,%MAX
CTR,P66,INI,FM,MEAN,50.32694207216969,%MAX
CTR,P67,INI,FM,MEAN,80.84577866507824,%MAX
CTR,P68,INI,FM,MEAN,57.19652954460259,%MAX
