Group,Participant,Session,Operator,Measure,Value,Unit
CTR,P01,INI,FM,MEAN,13.04043976964284,%MAX
CTR,P02,INI,FM,MEAN,12.155911349811657,%MAX
CTR,P03,INI,FM,MEAN,12.371377084032076,%MAX
CTR,P05,INI,FM,MEAN,7.041843104135897,%MAX
CTR,P06,INI,FM,MEAN,5.9042095650343684,%MAX
CTR,P07,INI,FM,MEAN,11.035437386970013,%MAX
CTR,P08,INI,FM,MEAN,8.225601988221877,%MAX
PAT,P09,INI,FM,MEAN,13.55816638824669,%MAX
PAT,P10,INI,FM,MEAN,6.808010388934809,%MAX
PAT,P11,INI,FM,MEAN,7.758519658693934,%MAX
PAT,P12,INI,FM,MEAN,13.16627103295121,%MAX
CTR,P13,INI,FM,MEAN,19.214375634385327,%MAX
PAT,P14,INI,FM,MEAN,10.702802965646674,%MAX
CTR,P16,INI,FM,MEAN,32.20624848859939,%MAX
PAT,P17,INI,FM,MEAN,20.545090688952865,%MAX
CTR,P21,INI,FM,MEAN,34.14101495917078,%MAX
CTR,P22,INI,FM,MEAN,16.49282048837202,%MAX
CTR,P23,INI,FM,MEAN,15.116205483203737,%MAX
PAT,P24,INI,FM,MEAN,19.144517998226174,%MAX
CTR,P25,INI,FM,MEAN,31.060721798200387,%MAX
PAT,P26,INI,FM,MEAN,21.10820313826736,%MAX
PAT,P27,INI,FM,MEAN,33.51375669019217,%MAX
PAT,P28,INI,FM,MEAN,19.107540829329196,%MAX
PAT,P29,INI,FM,MEAN,23.782110395436856,%MAX
PAT,P32,INI,FM,MEAN,16.631189380138267,%MAX
PAT,P33,INI,FM,MEAN,16.52861984379669,%MAX
PAT,P34,INI,FM,MEAN,29.02540650434393,%MAX
CTR,P35,INI,FM,MEAN,41.62107512859514,%MAX
PAT,P36,INI,FM,MEAN,14.7703023167815,%MAX
CTR,P38,INI,FM,MEAN,20.874375552089337,%MAX
CTR,P39,INI,FM,MEAN,20.521855969227776,%MAX
CTR,P40,INI,FM,MEAN,20.213612151954823,%MAX
PAT,P41,INI,FM,MEAN,11.571133859569278,%MAX
PAT,P42,INI,FM,MEAN,9.879028350621951,%MAX
PAT,P43,INI,FM,MEAN,13.067868265017879,%MAX
CTR,P44,INI,FM,MEAN,9.564451148661602,%MAX
PAT,P45,INI,FM,MEAN,21.357789418400685,%MAX
CTR,P46,INI,FM,MEAN,14.777204403034313,%MAX
PAT,P47,INI,FM,MEAN,8.5119794353834,%MAX
CTR,P48,INI,FM,MEAN,20.188703533805626,%MAX
CTR,P49,INI,FM,MEAN,21.605113089659227,%MAX
PAT,P50,INI,FM,MEAN,26.127551386169728,%MAX
PAT,P51,INI,FM,MEAN,20.099962720727643,%MAX
CTR,P52,INI,FM,MEAN,23.34872098003909,%MAX
PAT,P53,INI,FM,MEAN,33.03105088082682,%MAX
PAT,P54,INI,FM,MEAN,47.8705329557157,%MAX
CTR,P55,INI,FM,MEAN,40.11203590759108,%MAX
CTR,P56,INI,FM,MEAN,27.526995217948866,%MAX
CTR,P57,INI,FM,MEAN,36.39665580350899,%MAX
PAT,P58,INI,FM,MEAN,53.488438390353814,%MAX
CTR,P60,INI,FM,MEAN,16.26692100835263,%MAX
PAT,P61,INI,FM,MEAN,34.356626493213156,%MAX
PAT,P62,INI,FM,MEAN,26.50059580322605,%MAX
PAT,P63,INI,FM,MEAN,19.417574946271923,%MAX
CTR,P64,INI,FM,MEAN,44.44990899804726,%MAX
PAT,P65,INI,FM,MEAN,32.00998426274492,%MAX
CTR,P66,INI,FM,MEAN,25.92248315771703,%MAX
CTR,P67,INI,FM,MEAN,31.212923654872238,%MAX
CTR,P68,INI,FM,MEAN,45.10345901855409,%MAX
