Group,Participant,Session,Operator,Measure,Value,Unit
CTR,P01,INI,FM,MEAN,26.922044586307457,%MAX
CTR,P02,INI,FM,MEAN,38.1181715569937,%MAX
CTR,P03,INI,FM,MEAN,30.98552286157846,%MAX
CTR,P05,INI,FM,MEAN,19.469993032497527,%MAX
CTR,P06,INI,FM,MEAN,16.42991539461389,%MAX
CTR,P07,INI,FM,MEAN,26.484516096261952,%MAX
CTR,P08,INI,FM,MEAN,17.274298819183016,%MAX
PAT,P09,INI,FM,MEAN,25.502040382948255,%MAX
PAT,P10,INI,FM,MEAN,25.29517161359755,%MAX
PAT,P11,INI,FM,MEAN,18.08758755105929,%MAX
PAT,P12,INI,FM,MEAN,27.113883478795515,%MAX
CTR,P13,INI,FM,MEAN,33.46218173142361,%MAX
PAT,P14,INI,FM,MEAN,25.692575133741766,%MAX
CTR,P16,INI,FM,MEAN,40.80181814885822,%MAX
PAT,P17,INI,FM,MEAN,25.270321312173213,%MAX
CTR,P21,INI,FM,MEAN,46.90632881899037,%MAX
CTR,P22,INI,FM,MEAN,19.42706247903666,%MAX
CTR,P23,INI,FM,MEAN,22.28167816896531,%MAX
PAT,P24,INI,FM,MEAN,35.9532484054673,%MAX
CTR,P25,INI,FM,MEAN,34.29775753938911,%MAX
PAT,P26,INI,FM,MEAN,31.51519695779143,%MAX
PAT,P27,INI,FM,MEAN,37.2034806600261,%MAX
PAT,P28,INI,FM,MEAN,32.64324428077093,%MAX
PAT,P29,INI,FM,MEAN,32.847427033734434,%MAX
PAT,P32,INI,FM,MEAN,26.700686489658064,%MAX
PAT,P33,INI,FM,MEAN,25.772936091034993,%MAX
PAT,P34,INI,FM,MEAN,31.879633901023855,%MAX
CTR,P35,INI,FM,MEAN,39.842058921283595,%MAX
PAT,P36,INI,FM,MEAN,26.986246032340915,%MAX
CTR,P38,INI,FM,MEAN,43.28143051580336,%MAX
CTR,P39,INI,FM,MEAN,30.004680931763584,%MAX
CTR,P40,INI,FM,MEAN,24.62121957757528,%MAX
PAT,P41,INI,FM,MEAN,23.761292951518744,%MAX
PAT,P42,INI,FM,MEAN,26.699235470249675,%MAX
PAT,P43,INI,FM,MEAN,27.471809134242193,%MAX
CTR,P44,INI,FM,MEAN,23.668163802541525,%MAX
PAT,P45,INI,FM,MEAN,31.01915967310975,%MAX
CTR,P46,INI,FM,MEAN,22.35233007495724,%MAX
PAT,P47,INI,FM,MEAN,22.194496669946858,%MAX
CTR,P48,INI,FM,MEAN,29.151693278626798,%MAX
CTR,P49,INI,FM,MEAN,31.06543232078045,%MAX
PAT,P50,INI,FM,MEAN,33.30285788625486,%MAX
PAT,P51,INI,FM,MEAN,30.572004897542428,%MAX
CTR,P52,INI,FM,MEAN,29.65825232311296,%MAX
PAT,P53,INI,FM,MEAN,32.314826115653794,%MAX
PAT,P54,INI,FM,MEAN,67.32976387089073,%MAX
CTR,P55,INI,FM,MEAN,44.64498686162018,%MAX
CTR,P56,INI,FM,MEAN,35.284598349363826,%MAX
CTR,P57,INI,FM,MEAN,46.85172628267905,%MAX
PAT,P58,INI,FM,MEAN,48.265993460798576,%MAX
CTR,P60,INI,FM,MEAN,32.761818573249066,%MAX
PAT,P61,INI,FM,MEAN,35.40533755151744,%MAX
PAT,P62,INI,FM,MEAN,27.181707446360377,%MAX
PAT,P63,INI,FM,MEAN,27.023362995956667,%MAX
CTR,P64,INI,FM,MEAN,29.67021934242529,%MAX
PAT,P65,INI,FM,MEAN,35.210937162793435,%MAX
CTR,P66,INI,FM,MEAN,30.90802717591015,%MAX
CTR,P67,INI,FM,MEAN,39.19682497843228,%MAX
CTR,P68,INI,FM,MEAN,41.17105190502567,%MAX
