Group,Participant,Session,Operator,Measure,Value,Unit
CTR,P01,INI,FM,MF,30.851111013570986,Hz
CTR,P02,INI,FM,MF,77.15450030958624,Hz
CTR,P03,INI,FM,MF,67.54537696640352,Hz
CTR,P05,INI,FM,MF,110.3421925074877,Hz
CTR,P06,INI,FM,MF,84.10385597880422,Hz
CTR,P07,INI,FM,MF,95.74114787701797,Hz
CTR,P08,INI,FM,MF,74.58805654549572,Hz
PAT,P09,INI,FM,MF,92.06503661062446,Hz
PAT,P10,INI,FM,MF,27.3156200050836,Hz
PAT,P11,INI,FM,MF,106.05449554110317,Hz
PAT,P12,INI,FM,MF,78.04021733762006,Hz
CTR,P13,INI,FM,MF,83.89883565666435,Hz
PAT,P14,INI,FM,MF,58.63294452287264,Hz
CTR,P16,INI,FM,MF,75.64619703933825,Hz
PAT,P17,INI,FM,MF,76.45221593998,Hz
CTR,P21,INI,FM,MF,34.87381464256608,Hz
CTR,P22,INI,FM,MF,30.814142330356912,Hz
CTR,P23,INI,FM,MF,43.16033728033225,Hz
PAT,P24,INI,FM,MF,71.33712577036944,Hz
CTR,P25,INI,FM,MF,98.1361001296407,Hz
PAT,P26,INI,FM,MF,29.10473262855614,Hz
PAT,P27,INI,FM,MF,66.14776682997858,Hz
PAT,P28,INI,FM,MF,108.46597467186108,Hz
PAT,P29,INI,FM,MF,78.22472142328245,Hz
PAT,P32,INI,FM,MF,94.83992530556364,Hz
PAT,P33,INI,FM,MF,80.16290443957627,Hz
PAT,P34,INI,FM,MF,80.01640760849045,Hz
CTR,P35,INI,FM,MF,95.29395459442468,Hz
PAT,P36,INI,FM,MF,79.37589477564683,Hz
CTR,P38,INI,FM,MF,24.31860358797398,Hz
CTR,P39,INI,FM,MF,74.18693427098113,Hz
CTR,P40,INI,FM,MF,110.76592220605598,Hz
PAT,P41,INI,FM,MF,70.23109936722794,Hz
PAT,P42,INI,FM,MF,75.35806315030152,Hz
PAT,P43,INI,FM,MF,61.9729295165269,Hz
CTR,P44,INI,FM,MF,77.34832366995319,Hz
PAT,P45,INI,FM,MF,63.27103163265293,Hz
CTR,P46,INI,FM,MF,51.39599436310243,Hz
PAT,P47,INI,FM,MF,61.19951589074693,Hz
CTR,P48,INI,FM,MF,89.24201678250989,Hz
CTR,P49,INI,FM,MF,82.72643663972923,Hz
PAT,P50,INI,FM,MF,109.76071622597458,Hz
PAT,P51,INI,FM,MF,60.77270737298892,Hz
CTR,P52,INI,FM,MF,89.35183437305837,Hz
PAT,P53,INI,FM,MF,85.00946901177056,Hz
PAT,P54,INI,FM,MF,60.1666503316052,Hz
CTR,P55,INI,FM,MF,57.75345134562942,Hz
CTR,P56,INI,FM,MF,61.66827954334448,Hz
CTR,P57,INI,FM,MF,45.38736816298075,Hz
PAT,P58,INI,FM,MF,29.703220841232447,Hz
CTR,P60,INI,FM,MF,84.00675983488452,Hz
PAT,P61,INI,FM,MF,66.78291015769055,Hz
PAT,P62,INI,FM,MF,82.10270766576092,Hz
PAT,P63,INI,FM,MF,75.92352312662906,Hz
CTR,P64,INI,FM,MF,73.25023623502175,Hz
PAT,P65,INI,FM,MF,80.02895325631225,Hz
CTR,P66,INI,FM,MF,37.96094731244389,Hz
CTR,P67,INI,FM,MF,81.81142283540669,Hz
CTR,P68,INI,FM,MF,80.17103568605468,Hz
