Group,Participant,Session,Operator,Measure,Value,Unit
CTR,P01,INI,FM,RMS,0.0152486768726043,V
CTR,P02,INI,FM,RMS,0.0258683168669177,V
CTR,P03,INI,FM,RMS,0.0110727307910545,V
CTR,P05,INI,FM,RMS,0.0132576646834395,V
CTR,P06,INI,FM,RMS,0.0334396806670648,V
CTR,P07,INI,FM,RMS,0.0135340961620821,V
CTR,P08,INI,FM,RMS,0.0094270370840804,V
PAT,P09,INI,FM,RMS,0.0093990233327039,V
PAT,P10,INI,FM,RMS,0.0053004530321169,V
PAT,P11,INI,FM,RMS,0.0087786987098972,V
PAT,P12,INI,FM,RMS,,V
CTR,P13,INI,FM,RMS,0.0130737094632039,V
PAT,P14,INI,FM,RMS,,V
CTR,P16,INI,FM,RMS,0.0075466167265084,V
PAT,P17,INI,FM,RMS,0.0110665921600893,V
CTR,P21,INI,FM,RMS,0.0116629699417191,V
CTR,P22,INI,FM,RMS,0.0129627676142583,V
CTR,P23,INI,FM,RMS,0.0080753979234786,V
PAT,P24,INI,FM,RMS,0.0079513824454123,V
CTR,P25,INI,FM,RMS,0.0138448959705586,V
PAT,P26,INI,FM,RMS,0.011668345341607,V
PAT,P27,INI,FM,RMS,0.0183027391230221,V
PAT,P28,INI,FM,RMS,0.0069543524232064,V
PAT,P29,INI,FM,RMS,0.0261934622491453,V
PAT,P32,INI,FM,RMS,0.0062366703279312,V
PAT,P33,INI,FM,RMS,0.0066463338887998,V
PAT,P34,INI,FM,RMS,0.0148284492106251,V
CTR,P35,INI,FM,RMS,,V
PAT,P36,INI,FM,RMS,0.0193116518835328,V
CTR,P38,INI,FM,RMS,0.1563257903943953,V
CTR,P39,INI,FM,RMS,0.005258989790252,V
CTR,P40,INI,FM,RMS,0.0195611269538861,V
PAT,P41,INI,FM,RMS,0.0270998964602531,V
PAT,P42,INI,FM,RMS,0.0176975846101214,V
PAT,P43,INI,FM,RMS,0.0089367974690554,V
CTR,P44,INI,FM,RMS,0.0273754252849024,V
PAT,P45,INI,FM,RMS,,V
CTR,P46,INI,FM,RMS,0.0161849536225631,V
PAT,P47,INI,FM,RMS,0.010407482293866,V
CTR,P48,INI,FM,RMS,0.0235168544143125,V
CTR,P49,INI,FM,RMS,0.0259849160053132,V
PAT,P50,INI,FM,RMS,0.0245816819247682,V
PAT,P51,INI,FM,RMS,0.005240648044116,V
CTR,P52,INI,FM,RMS,0.011637528031412,V
PAT,P53,INI,FM,RMS,0.0094896419285426,V
PAT,P54,INI,FM,RMS,0.025164652376487,V
CTR,P55,INI,FM,RMS,0.0054580922137556,V
CTR,P56,INI,FM,RMS,0.0110532155082265,V
CTR,P57,INI,FM,RMS,0.0036198574099989,V
PAT,P58,INI,FM,RMS,0.0047098903945143,V
CTR,P60,INI,FM,RMS,0.0075126893315452,V
PAT,P61,INI,FM,RMS,0.0356097646825696,V
PAT,P62,INI,FM,RMS,0.0100986916139232,V
PAT,P63,INI,FM,RMS,,V
CTR,P64,INI,FM,RMS,0.0163308670273619,V
PAT,P65,INI,FM,RMS,0.0225793050804595,V
CTR,P66,INI,FM,RMS,0.0105470100342739,V
CTR,P67,INI,FM,RMS,0.0145853183906034,V
CTR,P68,INI,FM,RMS,,V
