Group,Participant,Session,Operator,Measure,Value,Unit
CTR,P01,INI,FM,MEAN,91.4789310071032,Hz
CTR,P02,INI,FM,MEAN,117.78158353546924,Hz
CTR,P03,INI,FM,MEAN,132.52579187865754,Hz
CTR,P05,INI,FM,MEAN,85.8360135921008,Hz
CTR,P06,INI,FM,MEAN,147.10328322467768,Hz
CTR,P07,INI,FM,MEAN,54.79839161171001,Hz
CTR,P08,INI,FM,MEAN,93.03225494470752,Hz
PAT,P09,INI,FM,MEAN,92.0919779730074,Hz
PAT,P10,INI,FM,MEAN,92.7238921983765,Hz
PAT,P11,INI,FM,MEAN,78.55594853419716,Hz
PAT,P12,INI,FM,MEAN,104.0624871533815,Hz
CTR,P13,INI,FM,MEAN,45.132265255438256,Hz
PAT,P14,INI,FM,MEAN,65.96855601667728,Hz
CTR,P16,INI,FM,MEAN,139.9514564935038,Hz
PAT,P17,INI,FM,MEAN,111.65993070970046,Hz
CTR,P21,INI,FM,MEAN,96.60627759661712,Hz
CTR,P22,INI,FM,MEAN,123.91323938948598,Hz
CTR,P23,INI,FM,MEAN,128.28344142491062,Hz
PAT,P24,INI,FM,MEAN,132.54845317037993,Hz
CTR,P25,INI,FM,MEAN,33.840490170786246,Hz
PAT,P26,INI,FM,MEAN,69.63887831201133,Hz
PAT,P27,INI,FM,MEAN,100.6143081123672,Hz
PAT,P28,INI,FM,MEAN,100.14112281390145,Hz
PAT,P29,INI,FM,MEAN,96.07881754741716,Hz
PAT,P32,INI,FM,MEAN,124.70191231790685,Hz
PAT,P33,INI,FM,MEAN,58.82978294385333,Hz
PAT,P34,INI,FM,MEAN,87.07560830694165,Hz
CTR,P35,INI,FM,MEAN,93.1270694826843,Hz
PAT,P36,INI,FM,MEAN,113.66361197829546,Hz
CTR,P38,INI,FM,MEAN,75.87888407456585,Hz
CTR,P39,INI,FM,MEAN,37.7589102727022,Hz
CTR,P40,INI,FM,MEAN,63.91918206650018,Hz
PAT,P41,INI,FM,MEAN,125.32303177495623,Hz
PAT,P42,INI,FM,MEAN,98.02481160910231,Hz
PAT,P43,INI,FM,MEAN,111.48199397808496,Hz
CTR,P44,INI,FM,MEAN,132.68263319170993,Hz
PAT,P45,INI,FM,MEAN,126.46488977039394,Hz
CTR,P46,INI,FM,MEAN,143.2599134145175,Hz
PAT,P47,INI,FM,MEAN,60.97964233537655,Hz
CTR,P48,INI,FM,MEAN,107.07095187759391,Hz
CTR,P49,INI,FM,MEAN,95.38066480886592,Hz
PAT,P50,INI,FM,MEAN,67.27547765797333,Hz
PAT,P51,INI,FM,MEAN,87.29909468544373,Hz
CTR,P52,INI,FM,MEAN,90.2991275673134,Hz
PAT,P53,INI,FM,MEAN,115.79055289692371,Hz
PAT,P54,INI,FM,MEAN,116.37680199201834,Hz
CTR,P55,INI,FM,MEAN,107.49778872229416,Hz
CTR,P56,INI,FM,MEAN,107.86043393847706,Hz
CTR,P57,INI,FM,MEAN,71.87987664191967,Hz
PAT,P58,INI,FM,MEAN,123.29969613588752,Hz
CTR,P60,INI,FM,MEAN,98.25782455696668,Hz
PAT,P61,INI,FM,MEAN,92.32414984232896,Hz
PAT,P62,INI,FM,MEAN,80.94916115956867,Hz
PAT,P63,INI,FM,MEAN,66.98724725438683,Hz
CTR,P64,INI,FM,MEAN,76.05442407983963,Hz
PAT,P65,INI,FM,MEAN,99.94845393519722,Hz
CTR,P66,INI,FM,MEAN,121.67901122002964,Hz
CTR,P67,INI,FM,MEAN,81.97579111841044,Hz
CTR,P68,INI,FM,MEAN,31.1025880711953,Hz
