Group,Participant,Session,Operator,Measure,Value,Unit
CTR,P01,INI,FM,MF,45.870501827324034,Hz
CTR,P02,INI,FM,MF,83.6967387861588,Hz
CTR,P03,INI,FM,MF,85.1285513147722,Hz
CTR,P05,INI,FM,MF,63.68299751675634,Hz
CTR,P06,INI,FM,MF,102.1939057027154,Hz
CTR,P07,INI,FM,MF,36.280479482594174,Hz
CTR,P08,INI,FM,MF,67.72280468349359,Hz
PAT,P09,INI,FM,MF,53.44407230765955,Hz
PAT,P10,INI,FM,MF,55.20534154525604,Hz
PAT,P11,INI,FM,MF,53.20031500743414,Hz
PAT,P12,INI,FM,MF,54.48962303364578,Hz
CTR,P13,INI,FM,MF,30.14038956937163,Hz
PAT,P14,INI,FM,MF,38.53582623690155,Hz
CTR,P16,INI,FM,MF,96.4964991032354,Hz
PAT,P17,INI,FM,MF,87.13762184321295,Hz
CTR,P21,INI,FM,MF,64.7658667838045,Hz
CTR,P22,INI,FM,MF,74.6470499004277,Hz
CTR,P23,INI,FM,MF,86.94919817180971,Hz
PAT,P24,INI,FM,MF,85.00170148032596,Hz
CTR,P25,INI,FM,MF,23.71456751724344,Hz
PAT,P26,INI,FM,MF,35.677290781916994,Hz
PAT,P27,INI,FM,MF,67.83502550554691,Hz
PAT,P28,INI,FM,MF,67.35757679771466,Hz
PAT,P29,INI,FM,MF,72.98055465885336,Hz
PAT,P32,INI,FM,MF,73.82585590888077,Hz
PAT,P33,INI,FM,MF,37.74867550170399,Hz
PAT,P34,INI,FM,MF,49.73250822033876,Hz
CTR,P35,INI,FM,MF,60.59664581550678,Hz
PAT,P36,INI,FM,MF,92.77282295811035,Hz
CTR,P38,INI,FM,MF,40.695753863367,Hz
CTR,P39,INI,FM,MF,27.671854479967124,Hz
CTR,P40,INI,FM,MF,36.21704058258047,Hz
PAT,P41,INI,FM,MF,108.11430776401544,Hz
PAT,P42,INI,FM,MF,53.056388891006456,Hz
PAT,P43,INI,FM,MF,84.2975722898022,Hz
CTR,P44,INI,FM,MF,116.57922469094494,Hz
PAT,P45,INI,FM,MF,92.34792593970748,Hz
CTR,P46,INI,FM,MF,136.2986786681657,Hz
PAT,P47,INI,FM,MF,30.69910956475573,Hz
CTR,P48,INI,FM,MF,79.94338869321832,Hz
CTR,P49,INI,FM,MF,68.45768770339812,Hz
PAT,P50,INI,FM,MF,39.54345145976705,Hz
PAT,P51,INI,FM,MF,45.82472907746912,Hz
CTR,P52,INI,FM,MF,67.698279114777,Hz
PAT,P53,INI,FM,MF,82.18583902501744,Hz
PAT,P54,INI,FM,MF,68.78603011645389,Hz
CTR,P55,INI,FM,MF,93.62962160251853,Hz
CTR,P56,INI,FM,MF,59.02359263974171,Hz
CTR,P57,INI,FM,MF,33.52138584550226,Hz
PAT,P58,INI,FM,MF,79.93769666120939,Hz
CTR,P60,INI,FM,MF,64.8746169921045,Hz
PAT,P61,INI,FM,MF,57.56373249806675,Hz
PAT,P62,INI,FM,MF,56.19569259485743,Hz
PAT,P63,INI,FM,MF,44.73021189258213,Hz
CTR,P64,INI,FM,MF,67.95150192854146,Hz
PAT,P65,INI,FM,MF,65.27788781122327,Hz
CTR,P66,INI,FM,MF,99.30530403017993,Hz
CTR,P67,INI,FM,MF,49.359952534254,Hz
CTR,P68,INI,FM,MF,25.226316167524217,Hz
