Group,Participant,Session,Operator,Measure,Value,Unit
CTR,P01,INI,FM,DURATION,0.5909090909090909,s
CTR,P02,INI,FM,DURATION,2.0956666666666663,s
CTR,P03,INI,FM,DURATION,13.9245,s
CTR,P05,INI,FM,DURATION,0.8532857142857143,s
CTR,P06,INI,FM,DURATION,0.47275,s
CTR,P07,INI,FM,DURATION,2.778636363636364,s
CTR,P08,INI,FM,DURATION,1.0779999999999998,s
PAT,P10,INI,FM,DURATION,1.5058333333333334,s
PAT,P11,INI,FM,DURATION,2.959142857142857,s
PAT,P12,INI,FM,DURATION,1.1866666666666663,s
CTR,P13,INI,FM,DURATION,1.1755384615384616,s
PAT,P14,INI,FM,DURATION,0.7334444444444443,s
CTR,P16,INI,FM,DURATION,0.3545555555555555,s
PAT,P17,INI,FM,DURATION,0.6462222222222221,s
CTR,P21,INI,FM,DURATION,,s
CTR,P22,INI,FM,DURATION,0.6980000000000002,s
CTR,P23,INI,FM,DURATION,2.3147777777777776,s
PAT,P24,INI,FM,DURATION,0.665,s
CTR,P25,INI,FM,DURATION,0.5461333333333334,s
PAT,P26,INI,FM,DURATION,8.252666666666666,s
PAT,P27,INI,FM,DURATION,6.1782,s
PAT,P28,INI,FM,DURATION,4.5895,s
PAT,P29,INI,FM,DURATION,4.418,s
PAT,P32,INI,FM,DURATION,1.9216666666666664,s
PAT,P33,INI,FM,DURATION,8.324,s
PAT,P34,INI,FM,DURATION,0.4211999999999999,s
CTR,P35,INI,FM,DURATION,3.0529999999999995,s
PAT,P36,INI,FM,DURATION,3.495428571428572,s
CTR,P38,INI,FM,DURATION,1.1411818181818183,s
CTR,P40,INI,FM,DURATION,0.9628666666666668,s
PAT,P41,INI,FM,DURATION,0.3915,s
PAT,P42,INI,FM,DURATION,0.7294,s
CTR,P44,INI,FM,DURATION,0.6083000000000001,s
PAT,P45,INI,FM,DURATION,2.360888888888889,s
CTR,P46,INI,FM,DURATION,,s
PAT,P47,INI,FM,DURATION,0.8356250000000001,s
CTR,P49,INI,FM,DURATION,0.9440625,s
PAT,P50,INI,FM,DURATION,2.1956,s
PAT,P51,INI,FM,DURATION,1.816571428571429,s
CTR,P52,INI,FM,DURATION,0.6140000000000001,s
PAT,P53,INI,FM,DURATION,2.636333333333333,s
PAT,P54,INI,FM,DURATION,2.9855555555555555,s
CTR,P55,INI,FM,DURATION,0.9028,s
CTR,P56,INI,FM,DURATION,1.6782727272727271,s
CTR,P57,INI,FM,DURATION,2.077454545454545,s
CTR,P60,INI,FM,DURATION,0.3077,s
PAT,P61,INI,FM,DURATION,2.059833333333333,s
PAT,P62,INI,FM,DURATION,3.273357142857143,s
PAT,P63,INI,FM,DURATION,31.282,s
CTR,P64,INI,FM,DURATION,1.381181818181818,s
PAT,P65,INI,FM,DURATION,2.0369,s
CTR,P66,INI,FM,DURATION,25.164,s
CTR,P67,INI,FM,DURATION,3.310142857142857,s
CTR,P68,INI,FM,DURATION,1.8519090909090907,s
