"","Biomarkers","Unit","Normality","P","AUC","Youden"
"1","BMo1.csv","V","0","0.0546752891707583","64.5977011494253","38.5057471264368"
"2","BMo100.csv","%MAX","0","0.74123006889875","52.5555555555556","13.3333333333333"
"3","BMo101.csv","%MAX","0","0.336275691354855","57.5308641975309","21.4814814814815"
"4","BMo102.csv","%MAX","0","0.513348066589203","45","13.3333333333333"
"5","BMo103.csv","%MAX","0","0.344362900766389","57.4074074074074","27.4074074074074"
"6","BMo104.csv","%MAX","0","0.106726658963916","62.2988505747126","28.735632183908"
"7","BMo105.csv","%MAX","0","0.241797756737836","58.8888888888889","23.3333333333333"
"8","BMo106.csv","%MAX","0","0.867776507124372","51.358024691358","23.3333333333333"
"9","BMo107.csv","%MAX","0","0.656998804007819","53.448275862069","14.1379310344828"
"10","BMo108.csv","%MAX","0","0.323185831829999","57.5862068965517","24.367816091954"
"11","BMo109.csv","%MAX","0","0.181015484481374","60.2298850574713","31.8390804597701"
"12","BMo110.csv","%subMVIC","0","0.196394996024105","59.8850574712644","25.9770114942529"
"13","BMo111.csv","%subMVIC","0","0.934049731034808","50.6896551724138","20"
"14","BMo112.csv","%subMVIC","0","0.464965934556067","55.632183908046","22.6436781609195"
"15","BMo113.csv","%subMVIC","0","1","50.0638569604087","20.051085568327"
"16","BMo114.csv","V","0","0.148585697011622","61.0344827586207","29.080459770115"
"17","BMo115.csv","V","0","0.140175489219203","61.2643678160919","35.8620689655172"
"18","BMo117.csv","Hz","0","0.157369629333117","60.8045977011494","25.0574712643678"
"19","BMo118.csv","Hz","0","0.124442964712813","61.7241379310345","29.1954022988506"
"20","BMo119.csv","Hz","0","0.815578973475373","51.8390804597701","11.7241379310345"
"21","BMo15.csv","V","0","0.00167599731669631","73.448275862069","42.4137931034483"
"22","BMo22.csv","V","0","0.231878147762273","59.6866096866097","31.4814814814815"
"23","BMo23.csv","V","0","0.564232102907261","54.6296296296296","22.8835978835979"
"24","BMo24.csv","V","0","0.429243664146763","56.3786008230453","18.5185185185185"
"25","BMo29.csv","Hz","0","0.336865503322605","57.512315270936","25.2463054187192"
"26","BMo34.csv","%MAX","0","0.00106272059639714","74.367816091954","42.8735632183908"
"27","BMo35.csv","NAN","0","0.946020653929916","50.5747126436782","10.8045977011494"
"28","BMo36.csv","%SubMVIC","0","0.000145253508669525","78.448275862069","51.3546798029557"
"29","BMo37.csv","Hz","0","0.637533694314397","53.6904761904762","16.9047619047619"
"30","BMo38.csv","Hz","0","0.344951581501022","57.3891625615764","28.6945812807882"
"31","BMo40.csv","Hz","0","0.511259093078278","55.1190476190476","21.4285714285714"
"32","BMo41.csv","NAN","0","0.637533694314397","53.6904761904762","17.8571428571429"
"33","BMo42.csv","NAN","0","0.000311490026234138","76.6666666666667","52.6436781609195"
"34","BMo43.csv","NAN","0","0.0350433113952337","65.9770114942529","42.6436781609195"
"35","BMo44.csv","NAN","0","0.000402329115699144","76.2068965517241","45.632183908046"
"36","BMo51.csv","Hz","0","0.24195728981996","58.9655172413793","19.0804597701149"
"37","BMo52.csv","Hz","0","0.458280179251336","55.7669441141498","17.2413793103448"
"38","BMo53.csv","Hz","0","0.103431918987683","62.4137931034483","26.0919540229885"
"39","BMo67.csv","%subMVIC","0","0.701126633974583","52.9885057471264","15.4022988505747"
"40","BMo68.csv","%subMVIC","0","0.59299651504642","54.1379310344828","15.9770114942529"
"41","BMo69.csv","V","0","0.137093182142001","61.7724867724868","23.5449735449735"
"42","BMo81.csv","V","0","0.776021529903408","47.7040816326531","17.8571428571428"
"43","BMo82.csv","V","0","0.217816051015905","59.7883597883598","22.8835978835979"
"44","BMo86.csv","s","0","0.50617274975637","55.5555555555556","16.6666666666667"
"45","BMo87.csv","s","0","0.94937189515134","50.5917159763314","15.3846153846154"
"46","BMo88.csv","s","0","0.383410290013775","57.2530864197531","21.7592592592593"
"47","BMo91.csv","V","0","0.381735897674403","56.6666666666667","20"
"48","BMo96.csv","V","0","0.113152475095854","62.1878715814507","24.1379310344828"
"49","BMo97.csv","V","0","0.92401746135487","49.2222222222222","10"
"50","BMo98.csv","V","0","0.119882609168966","62.1966794380587","25.5427841634738"
