event,time_sec,time_min
RHS,0.28999999165534973,0.0
RHS,1.8600000143051147,0.0
RHS,3.259999990463257,0.0
RHS,4.690000057220459,0.0
RHS,6.190000057220459,0.0
RHS,7.610000133514404,0.0
RTO,1.4199999570846558,0.0
RTO,2.759999990463257,0.0
RTO,4.179999828338623,0.0
RTO,5.610000133514404,0.0
RTO,7.130000114440918,0.0
RTO,8.569999694824219,0.0
LHS,1.1699999570846558,0.0
LHS,2.5299999713897705,0.0
LHS,3.9800000190734863,0.0
LHS,5.349999904632568,0.0
LHS,6.880000114440918,0.0
LHS,8.350000381469727,0.0
LTO,0.5400000214576721,0.0
LTO,2.059999942779541,0.0
LTO,3.490000009536743,0.0
LTO,4.909999847412109,0.0
LTO,6.400000095367432,0.0
LTO,7.829999923706055,0.0
