event,time_sec,time_min
RHS,0.05999999865889549,0.0
RHS,1.1399999856948853,0.0
RHS,2.25,0.0
RHS,3.3499999046325684,0.0
RHS,4.460000038146973,0.0
RTO,0.7300000190734863,0.0
RTO,1.8200000524520874,0.0
RTO,2.950000047683716,0.0
RTO,4.019999980926514,0.0
RTO,5.150000095367432,0.0
LHS,0.5899999737739563,0.0
LHS,1.6799999475479126,0.0
LHS,2.799999952316284,0.0
LHS,3.880000114440918,0.0
LHS,5.0,0.0
LTO,0.1899999976158142,0.0
LTO,1.2799999713897705,0.0
LTO,2.380000114440918,0.0
LTO,3.490000009536743,0.0
LTO,4.590000152587891,0.0
