event,time_sec,time_min
RHS,0.17000000178813934,0.0
RHS,1.2599999904632568,0.0
RHS,2.4000000953674316,0.0
RHS,3.490000009536743,0.0
RHS,4.579999923706055,0.0
RTO,0.8500000238418579,0.0
RTO,1.9700000286102295,0.0
RTO,3.0899999141693115,0.0
RTO,4.179999828338623,0.0
RTO,5.25,0.0
LHS,0.699999988079071,0.0
LHS,1.8300000429153442,0.0
LHS,2.930000066757202,0.0
LHS,4.050000190734863,0.0
LHS,5.119999885559082,0.0
LTO,0.30000001192092896,0.0
LTO,1.399999976158142,0.0
LTO,2.5399999618530273,0.0
LTO,3.640000104904175,0.0
LTO,4.71999979019165,0.0
