event,time_sec,time_min
RHS,0.3100000023841858,0.0
RHS,1.9700000286102295,0.0
RHS,3.509999990463257,0.0
RHS,5.170000076293945,0.0
RHS,6.769999980926514,0.0
RHS,8.489999771118164,0.0
RTO,1.4199999570846558,0.0
RTO,3.0299999713897705,0.0
RTO,4.610000133514404,0.0
RTO,6.230000019073486,0.0
RTO,7.960000038146973,0.0
RTO,9.539999961853027,0.0
LHS,1.1299999952316284,0.0
LHS,2.740000009536743,0.0
LHS,4.309999942779541,0.0
LHS,5.920000076293945,0.0
LHS,7.670000076293945,0.0
LHS,9.300000190734863,0.0
LTO,0.6100000143051147,0.0
LTO,2.25,0.0
LTO,3.7799999713897705,0.0
LTO,5.460000038146973,0.0
LTO,7.079999923706055,0.0
LTO,8.779999732971191,0.0
