event,time_sec,time_min
startMotion,0.10000000149011612,0.0
startMotion,11.260000228881836,0.0
startMotion,20.899999618530273,0.0
startMotion,33.380001068115234,0.0
stopMotion,6.260000228881836,0.0
stopMotion,15.970000267028809,0.0
stopMotion,25.469999313354492,0.0
