event,time_sec,time_min
startMotion,0.10000000149011612,0.0
startMotion,9.569999694824219,0.0
startMotion,17.329999923706055,0.0
startMotion,24.56999969482422,0.0
startMotion,31.709999084472656,0.0
startMotion,38.4900016784668,0.0
startMotion,44.52000045776367,0.0
startMotion,50.09000015258789,0.0
stopMotion,5.599999904632568,0.0
stopMotion,13.529999732971191,0.0
stopMotion,21.0,0.0
stopMotion,28.170000076293945,0.0
stopMotion,35.0099983215332,0.0
stopMotion,42.13999938964844,0.0
stopMotion,45.619998931884766,0.0
