event,time_sec,time_min
startMotion,0.10000000149011612,0.0
startMotion,7.420000076293945,0.0
startMotion,13.529999732971191,0.0
startMotion,18.940000534057617,0.0
startMotion,24.6299991607666,0.0
startMotion,29.899999618530273,0.0
startMotion,37.709999084472656,0.0
stopMotion,4.429999828338623,0.0
stopMotion,10.59000015258789,0.0
stopMotion,16.15999984741211,0.0
stopMotion,21.920000076293945,0.0
stopMotion,27.1200008392334,0.0
stopMotion,32.91999816894531,0.0
