Biomarkers,Participant,Session,Task,Error
108,P21,INI,Gait_Normal,no values
108,P27,REL,Gait_Normal,no values
108,P38,INI,Gait_Normal,no values
108,P65,REL,Gait_Normal,no values
108,P68,INI,Gait_Normal,no values
