Biomarkers,Participant,Session,Task,Error
104,P22,REL,Gait_Normal,no values
104,P27,REL,Gait_Normal,no values
104,P33,REL,Gait_Normal,no values
104,P36,INI,Gait_Normal,no values
104,P38,INI,Gait_Normal,no values
104,P42,REL,Gait_Normal,no values
104,P43,INI,Gait_Normal,no values
104,P44,INI,Gait_Normal,no values
104,P47,REL,Gait_Normal,no values
104,P49,INI,Gait_Normal,no values
104,P50,INI,Gait_Normal,no values
104,P53,REL,Gait_Normal,no values
104,P55,REL,Gait_Normal,no values
104,P62,REL,Gait_Normal,no values
104,P63,REL,Gait_Normal,no values
104,P67,INI,Gait_Normal,no values
104,P68,INI,Gait_Normal,no values
