Biomarkers,Participant,Session,Task,Error
101,P17,INI,Gait_Normal,no values
101,P21,INI,Gait_Normal,no values
101,P23,INI,Gait_Normal,no values
101,P25,REL,Gait_Normal,no values
101,P36,INI,Gait_Normal,no values
101,P39,INI,Gait_Normal,no values
101,P41,INI,Gait_Normal,no values
101,P49,INI,Gait_Normal,no values
101,P50,INI,Gait_Normal,no values
101,P52,REL,Gait_Normal,no values
101,P53,INI,Gait_Normal,no values
101,P60,REL,Gait_Normal,no values
101,P63,REL,Gait_Normal,no values
101,P65,REL,Gait_Normal,no values
