Biomarkers,Participant,Session,Task,Error
109,P24,INI,Gait_Normal,no values
109,P34,REL,Gait_Normal,no values
109,P42,REL,Gait_Normal,no values
109,P49,INI,Gait_Normal,no values
109,P50,INI,Gait_Normal,no values
109,P51,REL,Gait_Normal,no values
109,P58,INI,Gait_Normal,no values
109,P63,REL,Gait_Normal,no values
109,P67,INI,Gait_Normal,no values
109,P68,INI,Gait_Normal,no values
