event,time_sec,time_min
RHS,0.14000000059604645,0.0
RHS,1.1399999856948853,0.0
RHS,2.1600000858306885,0.0
RTO,0.7099999785423279,0.0
RTO,1.7400000095367432,0.0
RTO,2.7300000190734863,0.0
LHS,0.6299999952316284,0.0
LHS,1.649999976158142,0.0
LHS,2.6600000858306885,0.0
LTO,0.2199999988079071,0.0
LTO,1.2200000286102295,0.0
LTO,2.2200000286102295,0.0
