event,time_sec,time_min
RHS,0.8999999761581421,0.0
RHS,2.1600000858306885,0.0
RHS,3.430000066757202,0.0
RTO,0.4000000059604645,0.0
RTO,1.6799999475479126,0.0
RTO,2.940000057220459,0.0
RTO,4.199999809265137,0.0
LHS,0.23999999463558197,0.0
LHS,1.5199999809265137,0.0
LHS,2.799999952316284,0.0
LHS,4.039999961853027,0.0
LTO,1.0399999618530273,0.0
LTO,2.319999933242798,0.0
LTO,3.559999942779541,0.0
