event,time_sec,time_min
RHS,0.5799999833106995,0.0
RHS,1.4600000381469727,0.0
RTO,0.18000000715255737,0.0
RTO,1.0399999618530273,0.0
RTO,1.940000057220459,0.0
LHS,0.14000000059604645,0.0
LHS,1.0099999904632568,0.0
LHS,1.8899999856948853,0.0
LTO,0.6100000143051147,0.0
LTO,1.4900000095367432,0.0
