event,time_sec,time_min
RHS,0.5099999904632568,0.0
RHS,1.399999976158142,0.0
RTO,0.12999999523162842,0.0
RTO,1.0099999904632568,0.0
RTO,1.8899999856948853,0.0
LHS,0.07999999821186066,0.0
LHS,0.9700000286102295,0.0
LHS,1.850000023841858,0.0
LTO,0.5600000023841858,0.0
LTO,1.4500000476837158,0.0
