event,time_sec,time_min
RHS,0.6100000143051147,0.0
RHS,1.649999976158142,0.0
RHS,2.6700000762939453,0.0
RTO,0.1899999976158142,0.0
RTO,1.2100000381469727,0.0
RTO,2.240000009536743,0.0
LHS,0.10000000149011612,0.0
LHS,1.1200000047683716,0.0
LHS,2.1700000762939453,0.0
LTO,0.6899999976158142,0.0
LTO,1.7400000095367432,0.0
LTO,2.7699999809265137,0.0
