event,time_sec,time_min
RHS,0.09000000357627869,0.0
RHS,1.100000023841858,0.0
RHS,2.130000114440918,0.0
RTO,0.6600000262260437,0.0
RTO,1.7100000381469727,0.0
RTO,2.7300000190734863,0.0
LHS,0.5899999737739563,0.0
LHS,1.6200000047683716,0.0
LHS,2.640000104904175,0.0
LTO,0.18000000715255737,0.0
LTO,1.2000000476837158,0.0
LTO,2.2100000381469727,0.0
