event,time_sec,time_min
startMotion,0.10000000149011612,0.0
startMotion,12.960000038146973,0.0
startMotion,23.780000686645508,0.0
startMotion,35.849998474121094,0.0
stopMotion,7.389999866485596,0.0
stopMotion,18.200000762939453,0.0
stopMotion,28.780000686645508,0.0
