event,time_sec,time_min
startMotion,0.10000000149011612,0.0
startMotion,12.630000114440918,0.0
startMotion,23.649999618530273,0.0
startMotion,37.060001373291016,0.0
stopMotion,7.329999923706055,0.0
stopMotion,17.950000762939453,0.0
stopMotion,29.200000762939453,0.0
