event,time_sec,time_min
startMotion,0.10000000149011612,0.0
startMotion,17.790000915527344,0.0
startMotion,34.34000015258789,0.0
startMotion,54.58000183105469,0.0
stopMotion,9.720000267028809,0.0
stopMotion,25.899999618530273,0.0
stopMotion,43.0,0.0
