event,time_sec,time_min
startMotion,0.10000000149011612,0.0
startMotion,11.399999618530273,0.0
startMotion,20.68000030517578,0.0
startMotion,29.1299991607666,0.0
startMotion,37.54999923706055,0.0
startMotion,46.279998779296875,0.0
startMotion,56.900001525878906,0.0
stopMotion,6.320000171661377,0.0
stopMotion,16.459999084472656,0.0
stopMotion,24.579999923706055,0.0
stopMotion,33.77000045776367,0.0
stopMotion,41.33000183105469,0.0
stopMotion,51.29999923706055,0.0
