Group,Participant,Session,Operator,Measure,Value,Unit
PAT,P09,INI,FM,M1,0.0158360610127642,V
PAT,P09,INI,FM,M2,0.0123342541663546,V
PAT,P09,INI,FM,M3,0.0127140521686568,V
PAT,P09,REL,FM,M1,0.0157569142897248,V
PAT,P09,REL,FM,M2,0.015350360685444,V
PAT,P09,REL,FM,M3,0.0155838951010876,V
PAT,P10,INI,FM,M1,0.0150645523678498,V
PAT,P10,INI,FM,M2,0.0165092679443865,V
PAT,P10,INI,FM,M3,0.0152756322681496,V
PAT,P10,REL,FM,M1,0.0187939374038474,V
PAT,P10,REL,FM,M2,0.0189956949255521,V
PAT,P10,REL,FM,M3,0.0182314972731212,V
PAT,P11,INI,FM,M1,0.0176306895939592,V
PAT,P11,INI,FM,M2,0.0180125782449377,V
PAT,P11,INI,FM,M3,0.0223982054350316,V
PAT,P11,REL,FM,M1,0.018674361286503,V
PAT,P11,REL,FM,M2,0.0249493463581159,V
PAT,P11,REL,FM,M3,0.0182956453981432,V
PAT,P12,INI,FM,M1,,V
PAT,P12,INI,FM,M2,0.0118693233974713,V
PAT,P12,INI,FM,M3,,V
PAT,P12,REL,FM,M1,0.0316222137781909,V
PAT,P12,REL,FM,M2,0.0258219459058473,V
PAT,P12,REL,FM,M3,0.0280901847919987,V
PAT,P14,INI,FM,M1,0.018219217535913,V
PAT,P14,INI,FM,M2,,V
PAT,P14,INI,FM,M3,,V
PAT,P14,REL,FM,M1,,V
PAT,P14,REL,FM,M2,,V
PAT,P14,REL,FM,M3,,V
PAT,P17,INI,FM,M1,0.019283562717084,V
PAT,P17,INI,FM,M2,0.0170374666720472,V
PAT,P17,INI,FM,M3,0.016255587088451,V
PAT,P17,REL,FM,M1,0.0154438780471928,V
PAT,P17,REL,FM,M2,0.0164794772783155,V
PAT,P17,REL,FM,M3,0.0152224897213405,V
PAT,P24,INI,FM,M1,0.0158449263451558,V
PAT,P24,INI,FM,M2,0.0179614136824952,V
PAT,P24,INI,FM,M3,0.0172186088832372,V
PAT,P24,REL,FM,M1,0.0168465869190778,V
PAT,P24,REL,FM,M2,0.0177677303443653,V
PAT,P24,REL,FM,M3,0.0187168305643007,V
PAT,P26,INI,FM,M1,0.0126331380799569,V
PAT,P26,INI,FM,M2,0.0163185478316921,V
PAT,P26,INI,FM,M3,0.0118661752770519,V
PAT,P26,REL,FM,M1,0.0147490725091406,V
PAT,P26,REL,FM,M2,0.0111594552533059,V
PAT,P26,REL,FM,M3,0.0107379773483709,V
PAT,P27,INI,FM,M1,0.0246880964588635,V
PAT,P27,INI,FM,M2,0.0171690149349788,V
PAT,P27,INI,FM,M3,0.0207719396370698,V
PAT,P27,REL,FM,M1,0.0266581865193475,V
PAT,P27,REL,FM,M2,0.0232710786570531,V
PAT,P27,REL,FM,M3,0.024221240986411,V
PAT,P28,INI,FM,M1,0.0092838064085227,V
PAT,P28,INI,FM,M2,0.0077518208412803,V
PAT,P28,INI,FM,M3,0.0090878197173203,V
PAT,P28,REL,FM,M1,0.0131674617924798,V
PAT,P28,REL,FM,M2,0.0115747193156348,V
PAT,P28,REL,FM,M3,0.0094543767862183,V
PAT,P29,INI,FM,M1,0.0251809450385111,V
PAT,P29,INI,FM,M2,0.0244144573145668,V
PAT,P29,INI,FM,M3,0.0228158316127419,V
PAT,P29,REL,FM,M1,0.0234455002470463,V
PAT,P29,REL,FM,M2,0.0265966454905494,V
PAT,P29,REL,FM,M3,0.0379699085253383,V
PAT,P30,INI,FM,M1,0.0319365914742811,V
PAT,P30,INI,FM,M2,0.0143336320552631,V
PAT,P30,INI,FM,M3,0.0105012681785382,V
PAT,P30,REL,FM,M1,0.0111508552679792,V
PAT,P30,REL,FM,M2,0.0092916060962379,V
PAT,P30,REL,FM,M3,0.0080559043574761,V
PAT,P32,INI,FM,M1,0.0096751469472098,V
PAT,P32,INI,FM,M2,0.016004151177986,V
PAT,P32,INI,FM,M3,0.0139714940581588,V
PAT,P32,REL,FM,M1,0.0190248661284558,V
PAT,P32,REL,FM,M2,0.0159908432166827,V
PAT,P32,REL,FM,M3,0.0157751872240283,V
PAT,P33,INI,FM,M1,0.0078945549258059,V
PAT,P33,INI,FM,M2,0.0080039677182412,V
PAT,P33,INI,FM,M3,0.0086049653859554,V
PAT,P33,REL,FM,M1,0.007984755500504,V
PAT,P33,REL,FM,M2,0.0058809576842648,V
PAT,P33,REL,FM,M3,0.0085231663633194,V
PAT,P34,INI,FM,M1,,V
PAT,P34,INI,FM,M2,,V
PAT,P34,INI,FM,M3,,V
PAT,P34,REL,FM,M1,0.0221397341562851,V
PAT,P34,REL,FM,M2,0.0141617160380269,V
PAT,P34,REL,FM,M3,0.014099946770592,V
PAT,P36,INI,FM,M1,0.0182572834840784,V
PAT,P36,INI,FM,M2,0.0202296488552991,V
PAT,P36,INI,FM,M3,0.0150103330802069,V
PAT,P36,REL,FM,M1,0.0222483188049924,V
PAT,P36,REL,FM,M2,0.0210130323788416,V
PAT,P36,REL,FM,M3,0.0184107780127547,V
PAT,P41,INI,FM,M1,0.0228937685879964,V
PAT,P41,INI,FM,M2,0.0250621590210834,V
PAT,P41,INI,FM,M3,0.0263813318247198,V
PAT,P41,REL,FM,M1,0.0177256175289785,V
PAT,P41,REL,FM,M2,0.0150680293700751,V
PAT,P41,REL,FM,M3,0.0144315076417616,V
PAT,P42,INI,FM,M1,0.0304562354006373,V
PAT,P42,INI,FM,M2,0.0248703869023024,V
PAT,P42,INI,FM,M3,0.0285807575734422,V
PAT,P42,REL,FM,M1,0.032327112529137,V
PAT,P42,REL,FM,M2,0.0312982421579136,V
PAT,P42,REL,FM,M3,0.0329765244588197,V
PAT,P43,INI,FM,M1,0.0180078926991509,V
PAT,P43,INI,FM,M2,0.0178986306206165,V
PAT,P43,INI,FM,M3,0.0183844218882688,V
PAT,P43,REL,FM,M1,0.0209951562612969,V
PAT,P43,REL,FM,M2,0.024379183035981,V
PAT,P43,REL,FM,M3,0.0207652631246232,V
PAT,P45,INI,FM,M1,,V
PAT,P45,INI,FM,M2,,V
PAT,P45,INI,FM,M3,,V
PAT,P45,REL,FM,M1,,V
PAT,P45,REL,FM,M2,,V
PAT,P45,REL,FM,M3,0.008831496133589,V
PAT,P47,INI,FM,M1,0.0112325964374256,V
PAT,P47,INI,FM,M2,0.010862543370753,V
PAT,P47,INI,FM,M3,0.0118214714029591,V
PAT,P47,REL,FM,M1,0.0116787360582978,V
PAT,P47,REL,FM,M2,0.0108113731556435,V
PAT,P47,REL,FM,M3,0.0086549519091668,V
PAT,P50,INI,FM,M1,0.0277692464351455,V
PAT,P50,INI,FM,M2,0.0285533134902304,V
PAT,P50,INI,FM,M3,0.0280528942589986,V
PAT,P50,REL,FM,M1,0.0309042069060839,V
PAT,P50,REL,FM,M2,0.0303452839013517,V
PAT,P50,REL,FM,M3,0.0391682813163229,V
PAT,P51,INI,FM,M1,0.0074487431095937,V
PAT,P51,INI,FM,M2,0.0099066992288784,V
PAT,P51,INI,FM,M3,0.009101608857701,V
PAT,P51,REL,FM,M1,0.0114517229940394,V
PAT,P51,REL,FM,M2,0.0074044608675883,V
PAT,P51,REL,FM,M3,0.0108191825306805,V
PAT,P53,INI,FM,M1,0.016194433603011,V
PAT,P53,INI,FM,M2,0.0132432684125612,V
PAT,P53,INI,FM,M3,0.0163035832824191,V
PAT,P53,REL,FM,M1,0.0161419909891243,V
PAT,P53,REL,FM,M2,0.0128496837739416,V
PAT,P53,REL,FM,M3,0.0172575071207795,V
PAT,P54,INI,FM,M1,0.0294243284441865,V
PAT,P54,INI,FM,M2,0.0297299771410434,V
PAT,P54,INI,FM,M3,0.0324567202241942,V
PAT,P54,REL,FM,M1,0.0213748747895237,V
PAT,P54,REL,FM,M2,0.0157019922982238,V
PAT,P54,REL,FM,M3,0.0147901132009618,V
PAT,P58,INI,FM,M1,0.0066026741444694,V
PAT,P58,INI,FM,M2,0.0057971412340861,V
PAT,P58,INI,FM,M3,0.0058815831252942,V
PAT,P58,REL,FM,M1,,V
PAT,P58,REL,FM,M2,,V
PAT,P58,REL,FM,M3,,V
PAT,P61,INI,FM,M1,0.033953400323771,V
PAT,P61,INI,FM,M2,0.0312221796794928,V
PAT,P61,INI,FM,M3,0.0285345724290757,V
PAT,P61,REL,FM,M1,0.0300344145227231,V
PAT,P61,REL,FM,M2,0.0306566755363512,V
PAT,P61,REL,FM,M3,0.034082130663325,V
PAT,P62,INI,FM,M1,0.0286604414913237,V
PAT,P62,INI,FM,M2,0.0175885009998525,V
PAT,P62,INI,FM,M3,0.0161485500162782,V
PAT,P62,REL,FM,M1,0.0196419957991747,V
PAT,P62,REL,FM,M2,0.0174959613533362,V
PAT,P62,REL,FM,M3,0.0164742880114884,V
PAT,P63,INI,FM,M1,,V
PAT,P63,INI,FM,M2,,V
PAT,P63,INI,FM,M3,,V
PAT,P63,REL,FM,M1,,V
PAT,P63,REL,FM,M2,0.0193581392382167,V
PAT,P63,REL,FM,M3,,V
PAT,P65,INI,FM,M1,0.0369606804013715,V
PAT,P65,INI,FM,M2,0.0378686457029431,V
PAT,P65,INI,FM,M3,0.0350894292757936,V
PAT,P65,REL,FM,M1,0.0318806485832533,V
PAT,P65,REL,FM,M2,0.0358654763287624,V
PAT,P65,REL,FM,M3,0.0292946235160426,V
