Biomarkers,Participant,Session,Task,Error
86,P05,REL,Perturbation_R_Shoulder,no values
86,P43,INI,Perturbation_R_Shoulder,no values
86,P48,INI,Perturbation_R_Shoulder,no values
86,P54,REL,Perturbation_R_Shoulder,no values
86,P58,INI,Perturbation_R_Shoulder,no values
