Biomarkers,Participant,Session,Task,Error
100,P30,INI,Gait_Normal,pass
100,P30,INI,Gait_Normal,object of type 'float' has no len()
100,P30,REL,Gait_Normal,pass
100,P30,REL,Gait_Normal,object of type 'float' has no len()
