Biomarkers,Participant,Session,Task,Error
67,P30,INI,Posture_Sitting,pass
67,P30,INI,Posture_Sitting,object of type 'float' has no len()
67,P30,REL,Posture_Sitting,pass
67,P30,REL,Posture_Sitting,object of type 'float' has no len()
67,P61,INI,Posture_Sitting,no values
