Biomarkers,Participant,Session,Task,Error
110,P30,INI,Gait_Normal,pass
110,P30,INI,Gait_Normal,object of type 'float' has no len()
110,P30,REL,Gait_Normal,pass
110,P30,REL,Gait_Normal,object of type 'float' has no len()
110,P47,INI,Gait_Normal,no values
