Biomarkers,Participant,Session,Task,Error
115,P30,INI,Gait_Normal,pass
115,P30,INI,Gait_Normal,object of type 'float' has no len()
115,P30,REL,Gait_Normal,pass
115,P30,REL,Gait_Normal,object of type 'float' has no len()
