Biomarkers,Participant,Session,Task,Error
96,P30,INI,Weight_Unconstrained,pass
96,P30,INI,Weight_Unconstrained,object of type 'float' has no len()
96,P30,REL,Weight_Unconstrained,pass
96,P30,REL,Weight_Unconstrained,object of type 'float' has no len()
