Biomarkers,Participant,Session,Task,Error
109,P30,INI,Gait_Normal,pass
109,P30,INI,Gait_Normal,object of type 'float' has no len()
109,P30,REL,Gait_Normal,pass
109,P30,REL,Gait_Normal,object of type 'float' has no len()
