Biomarkers,Participant,Session,Task,Error
24,P30,INI,S2S_Unconstrained,pass
24,P30,INI,S2S_Unconstrained,object of type 'float' has no len()
24,P30,REL,S2S_Unconstrained,pass
24,P30,REL,S2S_Unconstrained,object of type 'float' has no len()
