Biomarkers,Participant,Session,Task,Error
114,P30,INI,Gait_Normal,pass
114,P30,INI,Gait_Normal,object of type 'float' has no len()
114,P30,REL,Gait_Normal,pass
114,P30,REL,Gait_Normal,object of type 'float' has no len()
