Biomarkers,Participant,Session,Task,Error
113,P30,INI,Gait_Normal,pass
113,P30,INI,Gait_Normal,object of type 'float' has no len()
113,P30,REL,Gait_Normal,pass
113,P30,REL,Gait_Normal,object of type 'float' has no len()
113,P61,INI,Gait_Normal,no values
