Biomarkers,Participant,Session,Task,Error
107,P30,INI,Gait_Normal,pass
107,P30,INI,Gait_Normal,object of type 'float' has no len()
107,P30,REL,Gait_Normal,pass
107,P30,REL,Gait_Normal,object of type 'float' has no len()
