Biomarkers,Participant,Session,Task,Error
103,P16,INI,Gait_Normal,no values
103,P17,INI,Gait_Normal,no values
103,P21,INI,Gait_Normal,no values
103,P28,REL,Gait_Normal,no values
103,P30,REL,Gait_Normal,no values
103,P33,INI,Gait_Normal,no values
103,P36,INI,Gait_Normal,no values
103,P39,INI,Gait_Normal,no values
103,P42,REL,Gait_Normal,no values
103,P43,INI,Gait_Normal,no values
103,P45,INI,Gait_Normal,no values
103,P46,REL,Gait_Normal,no values
103,P47,REL,Gait_Normal,no values
103,P49,INI,Gait_Normal,no values
103,P50,INI,Gait_Normal,no values
103,P51,REL,Gait_Normal,no values
103,P52,REL,Gait_Normal,no values
103,P53,INI,Gait_Normal,no values
103,P61,INI,Gait_Normal,no values
103,P66,INI,Gait_Normal,no values
