Biomarkers,Participant,Session,Task,Error
112,P06,REL,Gait_Normal,no values
112,P14,REL,Gait_Normal,no values
112,P21,REL,Gait_Normal,no values
112,P33,REL,Gait_Normal,no values
112,P61,INI,Gait_Normal,no values
