Biomarkers,Participant,Session,Task,Error
115,P02,INI,Gait_Normal,no values
115,P38,INI,Gait_Normal,no values
115,P63,INI,Gait_Normal,no values
115,P67,REL,Gait_Normal,no values
115,P68,REL,Gait_Normal,no values
