Biomarkers,Participant,Session,Task,Error
102,P17,REL,Gait_Normal,no values
102,P23,REL,Gait_Normal,no values
102,P40,REL,Gait_Normal,no values
102,P46,REL,Gait_Normal,no values
102,P47,REL,Gait_Normal,no values
102,P50,INI,Gait_Normal,no values
102,P52,REL,Gait_Normal,no values
102,P54,REL,Gait_Normal,no values
102,P55,REL,Gait_Normal,no values
102,P58,INI,Gait_Normal,no values
102,P66,INI,Gait_Normal,no values
102,P68,REL,Gait_Normal,no values
