event,time_sec,time_min
RHS,0.11999999731779099,0.0
RHS,1.0199999809265137,0.0
RHS,1.9199999570846558,0.0
RHS,2.8299999237060547,0.0
RTO,0.6399999856948853,0.0
RTO,1.5299999713897705,0.0
RTO,2.450000047683716,0.0
LHS,0.5799999833106995,0.0
LHS,1.4600000381469727,0.0
LHS,2.390000104904175,0.0
LTO,0.1899999976158142,0.0
LTO,1.0800000429153442,0.0
LTO,1.9800000190734863,0.0
LTO,2.9100000858306885,0.0
