event,time_sec,time_min
startMotion,0.10000000149011612,0.0
startMotion,11.40999984741211,0.0
startMotion,20.1299991607666,0.0
startMotion,29.600000381469727,0.0
startMotion,38.91999816894531,0.0
startMotion,48.33000183105469,0.0
startMotion,58.58000183105469,0.0
stopMotion,6.75,0.0
stopMotion,15.770000457763672,0.0
stopMotion,24.940000534057617,0.0
stopMotion,34.220001220703125,0.0
stopMotion,43.630001068115234,0.0
stopMotion,52.52000045776367,0.0
