Group,Participant,Session,Operator,Measure,Value,Unit
CTR,P01,INI,FM,M1,19.012953795157735,%MAX
CTR,P01,INI,FM,M2,22.550262259194923,%MAX
CTR,P01,INI,FM,M3,26.32527588099975,%MAX
CTR,P01,REL,FM,M1,15.015577263753322,%MAX
CTR,P01,REL,FM,M2,8.581270905892975,%MAX
CTR,P01,REL,FM,M3,11.760774165900585,%MAX
CTR,P02,INI,FM,M1,11.970090361003935,%MAX
CTR,P02,INI,FM,M2,10.791465377144611,%MAX
CTR,P02,INI,FM,M3,9.22049152082886,%MAX
CTR,P02,REL,FM,M1,9.511385827248922,%MAX
CTR,P02,REL,FM,M2,6.006771668344841,%MAX
CTR,P02,REL,FM,M3,5.587751295258469,%MAX
CTR,P03,INI,FM,M1,17.03152271681872,%MAX
CTR,P03,INI,FM,M2,15.32905072011358,%MAX
CTR,P03,INI,FM,M3,14.111677665557636,%MAX
CTR,P03,REL,FM,M1,22.844929791609076,%MAX
CTR,P03,REL,FM,M2,27.264449515345788,%MAX
CTR,P03,REL,FM,M3,35.002779747727324,%MAX
CTR,P05,INI,FM,M1,15.13926763466761,%MAX
CTR,P05,INI,FM,M2,19.403754016148905,%MAX
CTR,P05,INI,FM,M3,17.19771865763148,%MAX
CTR,P05,REL,FM,M1,16.6349785965075,%MAX
CTR,P05,REL,FM,M2,16.794263137223012,%MAX
CTR,P05,REL,FM,M3,18.517311603373145,%MAX
CTR,P06,INI,FM,M1,27.85396139202001,%MAX
CTR,P06,INI,FM,M2,27.04396990445549,%MAX
CTR,P06,INI,FM,M3,29.364827044999572,%MAX
CTR,P06,REL,FM,M1,18.921173077664776,%MAX
CTR,P06,REL,FM,M2,17.38623391542176,%MAX
CTR,P06,REL,FM,M3,17.155905748658036,%MAX
CTR,P07,INI,FM,M1,6.46174999577003,%MAX
CTR,P07,INI,FM,M2,5.905062610386358,%MAX
CTR,P07,INI,FM,M3,11.016151333825764,%MAX
CTR,P07,REL,FM,M1,17.235889342395875,%MAX
CTR,P07,REL,FM,M2,15.102806348814125,%MAX
CTR,P07,REL,FM,M3,14.261535847923945,%MAX
CTR,P08,INI,FM,M1,9.382901206919955,%MAX
CTR,P08,INI,FM,M2,11.467351049255983,%MAX
CTR,P08,INI,FM,M3,8.818304876183635,%MAX
CTR,P08,REL,FM,M1,7.764511125978122,%MAX
CTR,P08,REL,FM,M2,6.906222229531645,%MAX
CTR,P08,REL,FM,M3,7.531460726842856,%MAX
CTR,P13,INI,FM,M1,25.066116331336396,%MAX
CTR,P13,INI,FM,M2,25.323231031894498,%MAX
CTR,P13,INI,FM,M3,23.76675256091427,%MAX
CTR,P13,REL,FM,M1,20.873207148590154,%MAX
CTR,P13,REL,FM,M2,16.877330656106075,%MAX
CTR,P13,REL,FM,M3,17.59545749618862,%MAX
CTR,P16,INI,FM,M1,,%MAX
CTR,P16,INI,FM,M2,,%MAX
CTR,P16,INI,FM,M3,,%MAX
CTR,P21,REL,FM,M1,,%MAX
CTR,P21,REL,FM,M2,,%MAX
CTR,P21,REL,FM,M3,,%MAX
CTR,P22,INI,FM,M1,26.533519702304964,%MAX
CTR,P22,INI,FM,M2,22.708116230340025,%MAX
CTR,P22,INI,FM,M3,29.958365349991514,%MAX
CTR,P22,REL,FM,M1,32.39405965587082,%MAX
CTR,P22,REL,FM,M2,48.13928875739849,%MAX
CTR,P22,REL,FM,M3,43.50819298392136,%MAX
CTR,P35,INI,FM,M1,,%MAX
CTR,P35,INI,FM,M2,,%MAX
CTR,P35,INI,FM,M3,,%MAX
CTR,P35,REL,FM,M1,,%MAX
CTR,P35,REL,FM,M2,,%MAX
CTR,P35,REL,FM,M3,,%MAX
CTR,P38,INI,FM,M1,37.51588449474152,%MAX
CTR,P38,INI,FM,M2,30.898299387003117,%MAX
CTR,P38,INI,FM,M3,33.278817559925635,%MAX
CTR,P38,REL,FM,M1,,%MAX
CTR,P38,REL,FM,M2,,%MAX
CTR,P38,REL,FM,M3,,%MAX
CTR,P39,REL,FM,M1,16.67895647148265,%MAX
CTR,P39,REL,FM,M2,18.28011905280217,%MAX
CTR,P39,REL,FM,M3,15.218981517466961,%MAX
CTR,P40,INI,FM,M1,9.01369199205696,%MAX
CTR,P40,INI,FM,M2,14.136890209140198,%MAX
CTR,P40,INI,FM,M3,14.59264717068499,%MAX
CTR,P40,REL,FM,M1,,%MAX
CTR,P40,REL,FM,M2,,%MAX
CTR,P40,REL,FM,M3,,%MAX
CTR,P44,INI,FM,M1,12.325304086386742,%MAX
CTR,P44,INI,FM,M2,20.15326626200542,%MAX
CTR,P44,INI,FM,M3,35.233921393392066,%MAX
CTR,P44,REL,FM,M1,12.340061483679742,%MAX
CTR,P44,REL,FM,M2,14.510831599316687,%MAX
CTR,P44,REL,FM,M3,24.387749398791836,%MAX
CTR,P46,INI,FM,M1,30.513536795899636,%MAX
CTR,P46,INI,FM,M2,25.518180097236744,%MAX
CTR,P46,INI,FM,M3,28.992281645661286,%MAX
CTR,P46,REL,FM,M1,4.342358035044774,%MAX
CTR,P46,REL,FM,M2,3.046051749507058,%MAX
CTR,P46,REL,FM,M3,39.51846667008483,%MAX
CTR,P48,INI,FM,M1,20.756099647371364,%MAX
CTR,P48,INI,FM,M2,22.078261117726115,%MAX
CTR,P48,INI,FM,M3,51.17967731817316,%MAX
CTR,P48,REL,FM,M1,,%MAX
CTR,P48,REL,FM,M2,,%MAX
CTR,P48,REL,FM,M3,,%MAX
CTR,P55,REL,FM,M1,38.029428124976356,%MAX
CTR,P55,REL,FM,M2,39.346325988409085,%MAX
CTR,P55,REL,FM,M3,56.632405747046846,%MAX
CTR,P56,INI,FM,M1,11.23400459436225,%MAX
CTR,P56,INI,FM,M2,15.716313841274076,%MAX
CTR,P56,INI,FM,M3,37.52088601697876,%MAX
CTR,P56,REL,FM,M1,,%MAX
CTR,P56,REL,FM,M2,,%MAX
CTR,P56,REL,FM,M3,,%MAX
CTR,P57,INI,FM,M1,,%MAX
CTR,P57,INI,FM,M2,,%MAX
CTR,P57,INI,FM,M3,,%MAX
CTR,P57,REL,FM,M1,20.618295774814946,%MAX
CTR,P57,REL,FM,M2,20.39811998504009,%MAX
CTR,P57,REL,FM,M3,23.160751293211064,%MAX
CTR,P66,INI,FM,M1,24.99337189798235,%MAX
CTR,P66,INI,FM,M2,36.78926075279364,%MAX
CTR,P66,INI,FM,M3,32.854817480781065,%MAX
CTR,P66,REL,FM,M1,,%MAX
CTR,P66,REL,FM,M2,,%MAX
CTR,P66,REL,FM,M3,,%MAX
