Group,Participant,Session,Operator,Measure,Value,Unit
CTR,P01,INI,FM,M1,0.0120751909893008,V
CTR,P01,INI,FM,M2,0.0119143555333706,V
CTR,P01,INI,FM,M3,0.0113467710442509,V
CTR,P01,REL,FM,M1,0.0149588815804546,V
CTR,P01,REL,FM,M2,0.0155030072114308,V
CTR,P01,REL,FM,M3,0.0159648626314182,V
CTR,P02,INI,FM,M1,0.0219329862977465,V
CTR,P02,INI,FM,M2,0.0219160594732679,V
CTR,P02,INI,FM,M3,0.0271836367063575,V
CTR,P02,REL,FM,M1,0.0212813883099696,V
CTR,P02,REL,FM,M2,0.0196669428488653,V
CTR,P02,REL,FM,M3,0.0218638097765951,V
CTR,P03,INI,FM,M1,0.0120022944551199,V
CTR,P03,INI,FM,M2,0.0126485764133754,V
CTR,P03,INI,FM,M3,0.0121603579217664,V
CTR,P03,REL,FM,M1,0.0084372122509627,V
CTR,P03,REL,FM,M2,0.0071524418677285,V
CTR,P03,REL,FM,M3,0.0075773128630243,V
CTR,P05,INI,FM,M1,0.0315310024599725,V
CTR,P05,INI,FM,M2,0.0301836929965864,V
CTR,P05,INI,FM,M3,0.0291878523811713,V
CTR,P05,REL,FM,M1,0.0283818674196048,V
CTR,P05,REL,FM,M2,0.02841996869598,V
CTR,P05,REL,FM,M3,0.0263652586496822,V
CTR,P06,INI,FM,M1,0.0051899767731139,V
CTR,P06,INI,FM,M2,0.0059773422192938,V
CTR,P06,INI,FM,M3,0.0056316027950224,V
CTR,P06,REL,FM,M1,0.0052207827908131,V
CTR,P06,REL,FM,M2,0.0063995880421859,V
CTR,P06,REL,FM,M3,0.0058418593608125,V
CTR,P07,INI,FM,M1,,V
CTR,P07,INI,FM,M2,,V
CTR,P07,INI,FM,M3,,V
CTR,P07,REL,FM,M1,0.029373942582771,V
CTR,P07,REL,FM,M2,0.0333761945047191,V
CTR,P07,REL,FM,M3,0.0328999585717426,V
CTR,P08,INI,FM,M1,0.0412361353807713,V
CTR,P08,INI,FM,M2,0.0430531810550633,V
CTR,P08,INI,FM,M3,0.0377287609328276,V
CTR,P08,REL,FM,M1,0.0137491834833958,V
CTR,P08,REL,FM,M2,0.0129127626177493,V
CTR,P08,REL,FM,M3,0.011570863591946,V
CTR,P13,INI,FM,M1,0.0066489575527186,V
CTR,P13,INI,FM,M2,0.0083659641315821,V
CTR,P13,INI,FM,M3,0.0075455983572689,V
CTR,P13,REL,FM,M1,0.0062341553995405,V
CTR,P13,REL,FM,M2,0.0059479658935071,V
CTR,P13,REL,FM,M3,0.0069858728091679,V
CTR,P16,INI,FM,M1,0.0078545160696492,V
CTR,P16,INI,FM,M2,0.0080580851329386,V
CTR,P16,INI,FM,M3,0.0075197742183018,V
CTR,P16,REL,FM,M1,0.0067802256291199,V
CTR,P16,REL,FM,M2,0.0071238152066663,V
CTR,P16,REL,FM,M3,0.008075068644251,V
CTR,P21,INI,FM,M1,,V
CTR,P21,INI,FM,M2,,V
CTR,P21,INI,FM,M3,,V
CTR,P21,REL,FM,M1,0.0371667562484233,V
CTR,P21,REL,FM,M2,0.0295653462227075,V
CTR,P21,REL,FM,M3,0.0280254269039084,V
CTR,P22,INI,FM,M1,0.0077875521576636,V
CTR,P22,INI,FM,M2,0.0081125822366727,V
CTR,P22,INI,FM,M3,0.0098075901818699,V
CTR,P22,REL,FM,M1,0.0078097697892723,V
CTR,P22,REL,FM,M2,0.0063164911312149,V
CTR,P22,REL,FM,M3,0.0062287741041248,V
CTR,P23,INI,FM,M1,0.0089500938592692,V
CTR,P23,INI,FM,M2,0.0093650336035945,V
CTR,P23,INI,FM,M3,0.019057277408737,V
CTR,P23,REL,FM,M1,0.0108124448710168,V
CTR,P23,REL,FM,M2,0.0111133442415247,V
CTR,P23,REL,FM,M3,0.0099802750895709,V
CTR,P25,INI,FM,M1,,V
CTR,P25,INI,FM,M2,,V
CTR,P25,INI,FM,M3,,V
CTR,P25,REL,FM,M1,0.0293604037034308,V
CTR,P25,REL,FM,M2,0.0281699155499553,V
CTR,P25,REL,FM,M3,0.0284516595444851,V
CTR,P35,INI,FM,M1,,V
CTR,P35,INI,FM,M2,,V
CTR,P35,INI,FM,M3,,V
CTR,P35,REL,FM,M1,0.0142151189768106,V
CTR,P35,REL,FM,M2,0.0162582874884155,V
CTR,P35,REL,FM,M3,0.0126901614793108,V
CTR,P38,INI,FM,M1,,V
CTR,P38,INI,FM,M2,,V
CTR,P38,INI,FM,M3,,V
CTR,P38,REL,FM,M1,0.0122258225322412,V
CTR,P38,REL,FM,M2,0.0097903340096037,V
CTR,P38,REL,FM,M3,0.0123800979946887,V
CTR,P39,INI,FM,M1,0.009379797242819,V
CTR,P39,INI,FM,M2,0.0086012637765766,V
CTR,P39,INI,FM,M3,0.0091694709210136,V
CTR,P39,REL,FM,M1,0.0073890952688578,V
CTR,P39,REL,FM,M2,0.0079415568661019,V
CTR,P39,REL,FM,M3,0.0087493727752585,V
CTR,P40,INI,FM,M1,0.023594519264258,V
CTR,P40,INI,FM,M2,0.0195735244322938,V
CTR,P40,INI,FM,M3,0.0215974458718178,V
CTR,P40,REL,FM,M1,0.0193323651110751,V
CTR,P40,REL,FM,M2,0.0194357965751525,V
CTR,P40,REL,FM,M3,0.0228443180478786,V
CTR,P44,INI,FM,M1,,V
CTR,P44,INI,FM,M2,,V
CTR,P44,INI,FM,M3,,V
CTR,P44,REL,FM,M1,0.0090565810865168,V
CTR,P44,REL,FM,M2,0.009091137666188,V
CTR,P44,REL,FM,M3,0.0072781861567911,V
CTR,P46,INI,FM,M1,0.0288757125061609,V
CTR,P46,INI,FM,M2,0.0287687658826,V
CTR,P46,INI,FM,M3,0.0226321297527372,V
CTR,P46,REL,FM,M1,0.0133183105797583,V
CTR,P46,REL,FM,M2,0.0113738939644638,V
CTR,P46,REL,FM,M3,0.0155004164289262,V
CTR,P48,INI,FM,M1,0.018042279486756,V
CTR,P48,INI,FM,M2,0.0131307225171377,V
CTR,P48,INI,FM,M3,0.0141340202523262,V
CTR,P48,REL,FM,M1,0.0170173348592619,V
CTR,P48,REL,FM,M2,0.0150435652804102,V
CTR,P48,REL,FM,M3,0.0154727173822991,V
CTR,P49,INI,FM,M1,0.0113224386755899,V
CTR,P49,INI,FM,M2,0.0120050310223084,V
CTR,P49,INI,FM,M3,0.0131183393311707,V
CTR,P49,REL,FM,M1,0.0241087274229938,V
CTR,P49,REL,FM,M2,0.0153476556031647,V
CTR,P49,REL,FM,M3,0.015893446168084,V
CTR,P52,INI,FM,M1,0.0221702901143936,V
CTR,P52,INI,FM,M2,0.0225580971242785,V
CTR,P52,INI,FM,M3,0.0235721261776411,V
CTR,P52,REL,FM,M1,0.0282380436139859,V
CTR,P52,REL,FM,M2,0.0257568037403328,V
CTR,P52,REL,FM,M3,0.0284547060565985,V
CTR,P55,INI,FM,M1,0.0110987608647295,V
CTR,P55,INI,FM,M2,0.0097339294748994,V
CTR,P55,INI,FM,M3,0.0115517079604248,V
CTR,P55,REL,FM,M1,0.0131355533400707,V
CTR,P55,REL,FM,M2,0.0128567048425569,V
CTR,P55,REL,FM,M3,0.0106925124153642,V
CTR,P56,INI,FM,M1,0.0253216022908577,V
CTR,P56,INI,FM,M2,0.0172623632722066,V
CTR,P56,INI,FM,M3,0.0160011628955427,V
CTR,P56,REL,FM,M1,0.0188710122658751,V
CTR,P56,REL,FM,M2,0.0177112510111078,V
CTR,P56,REL,FM,M3,0.0162473063364261,V
CTR,P57,REL,FM,M1,0.0066370319152727,V
CTR,P57,REL,FM,M2,0.0064903868525138,V
CTR,P57,REL,FM,M3,0.0068202220147055,V
CTR,P60,INI,FM,M1,0.0129803764923681,V
CTR,P60,INI,FM,M2,0.0106099327390195,V
CTR,P60,INI,FM,M3,0.012560661642328,V
CTR,P60,REL,FM,M1,0.0128298861539351,V
CTR,P60,REL,FM,M2,0.0141426897792929,V
CTR,P60,REL,FM,M3,0.0107332047950478,V
CTR,P64,INI,FM,M1,0.0120311047582975,V
CTR,P64,INI,FM,M2,0.0109141711487521,V
CTR,P64,INI,FM,M3,0.0110093048737599,V
CTR,P64,REL,FM,M1,0.011545601568814,V
CTR,P64,REL,FM,M2,0.011863077679843,V
CTR,P64,REL,FM,M3,0.0122944554816456,V
CTR,P66,INI,FM,M1,,V
CTR,P66,INI,FM,M2,,V
CTR,P66,INI,FM,M3,,V
CTR,P66,REL,FM,M1,0.0358844577491876,V
CTR,P66,REL,FM,M2,0.0347748905217438,V
CTR,P66,REL,FM,M3,0.0338485784269664,V
CTR,P67,INI,FM,M1,0.0217983814513173,V
CTR,P67,INI,FM,M2,0.0194705969849031,V
CTR,P67,INI,FM,M3,0.0226055512809862,V
CTR,P67,REL,FM,M1,0.0152739300832773,V
CTR,P67,REL,FM,M2,0.0177226132363673,V
CTR,P67,REL,FM,M3,0.0227502226079485,V
CTR,P68,INI,FM,M1,,V
CTR,P68,INI,FM,M2,,V
CTR,P68,INI,FM,M3,,V
CTR,P68,REL,FM,M1,0.0197618016964707,V
CTR,P68,REL,FM,M2,0.0171014591455369,V
CTR,P68,REL,FM,M3,0.017510329569123,V
