Group,Participant,Session,Operator,Measure,Value,Unit
CTR,P01,INI,FM,M1,14.313679813254593,%MAX
CTR,P01,INI,FM,M2,16.306565263179735,%MAX
CTR,P01,INI,FM,M3,20.72555603776283,%MAX
CTR,P01,REL,FM,M1,9.690897370790106,%MAX
CTR,P01,REL,FM,M2,7.003918449786518,%MAX
CTR,P01,REL,FM,M3,8.913506616972398,%MAX
CTR,P02,INI,FM,M1,8.400839531236896,%MAX
CTR,P02,INI,FM,M2,8.291851387359989,%MAX
CTR,P02,INI,FM,M3,8.486142521612708,%MAX
CTR,P02,REL,FM,M1,7.6315648818694255,%MAX
CTR,P02,REL,FM,M2,6.992221897552527,%MAX
CTR,P02,REL,FM,M3,5.639832273190097,%MAX
CTR,P03,INI,FM,M1,11.894694500500202,%MAX
CTR,P03,INI,FM,M2,8.10091474893135,%MAX
CTR,P03,INI,FM,M3,8.389351613103106,%MAX
CTR,P03,REL,FM,M1,25.82742607759772,%MAX
CTR,P03,REL,FM,M2,28.13158321808092,%MAX
CTR,P03,REL,FM,M3,37.79058201232653,%MAX
CTR,P05,INI,FM,M1,11.223759629278325,%MAX
CTR,P05,INI,FM,M2,12.990788934524508,%MAX
CTR,P05,INI,FM,M3,12.502035067267641,%MAX
CTR,P05,REL,FM,M1,10.569608557340057,%MAX
CTR,P05,REL,FM,M2,13.141815839668402,%MAX
CTR,P05,REL,FM,M3,14.540247201538307,%MAX
CTR,P06,INI,FM,M1,25.89424509718365,%MAX
CTR,P06,INI,FM,M2,28.479038301273825,%MAX
CTR,P06,INI,FM,M3,27.906040507993225,%MAX
CTR,P06,REL,FM,M1,18.121380555707145,%MAX
CTR,P06,REL,FM,M2,16.23846951263034,%MAX
CTR,P06,REL,FM,M3,17.223259169763743,%MAX
CTR,P07,INI,FM,M1,5.21888352099941,%MAX
CTR,P07,INI,FM,M2,5.7600710630471115,%MAX
CTR,P07,INI,FM,M3,7.416282579929024,%MAX
CTR,P07,REL,FM,M1,19.51713087487933,%MAX
CTR,P07,REL,FM,M2,15.268645727893547,%MAX
CTR,P07,REL,FM,M3,18.237307871569296,%MAX
CTR,P08,INI,FM,M1,5.775024741844843,%MAX
CTR,P08,INI,FM,M2,12.46145776692217,%MAX
CTR,P08,INI,FM,M3,10.778794936996109,%MAX
CTR,P08,REL,FM,M1,9.765599742471366,%MAX
CTR,P08,REL,FM,M2,8.833980573130122,%MAX
CTR,P08,REL,FM,M3,9.041663207493702,%MAX
CTR,P13,INI,FM,M1,24.14447488904934,%MAX
CTR,P13,INI,FM,M2,23.396162495764784,%MAX
CTR,P13,INI,FM,M3,23.078359919765155,%MAX
CTR,P13,REL,FM,M1,19.65890887081742,%MAX
CTR,P13,REL,FM,M2,16.94777043845805,%MAX
CTR,P13,REL,FM,M3,15.954474824048523,%MAX
CTR,P16,REL,FM,M1,19.07757326363378,%MAX
CTR,P16,REL,FM,M2,25.36658680597294,%MAX
CTR,P16,REL,FM,M3,18.55954707336431,%MAX
CTR,P21,REL,FM,M1,,%MAX
CTR,P21,REL,FM,M2,,%MAX
CTR,P21,REL,FM,M3,,%MAX
CTR,P22,INI,FM,M1,,%MAX
CTR,P22,INI,FM,M2,,%MAX
CTR,P22,INI,FM,M3,,%MAX
CTR,P22,REL,FM,M1,29.787196578390414,%MAX
CTR,P22,REL,FM,M2,44.57814941524687,%MAX
CTR,P22,REL,FM,M3,44.857310793026286,%MAX
CTR,P35,INI,FM,M1,,%MAX
CTR,P35,INI,FM,M2,,%MAX
CTR,P35,INI,FM,M3,,%MAX
CTR,P35,REL,FM,M1,,%MAX
CTR,P35,REL,FM,M2,,%MAX
CTR,P35,REL,FM,M3,,%MAX
CTR,P38,INI,FM,M1,13.158781780535373,%MAX
CTR,P38,INI,FM,M2,14.19390190929534,%MAX
CTR,P38,INI,FM,M3,18.605936416811364,%MAX
CTR,P38,REL,FM,M1,17.411816444745504,%MAX
CTR,P38,REL,FM,M2,14.902483628432794,%MAX
CTR,P38,REL,FM,M3,36.99581621596745,%MAX
CTR,P39,REL,FM,M1,12.463182180319011,%MAX
CTR,P39,REL,FM,M2,13.427775917689964,%MAX
CTR,P39,REL,FM,M3,11.679374365586641,%MAX
CTR,P40,INI,FM,M1,6.841552799013514,%MAX
CTR,P40,INI,FM,M2,6.903388508552045,%MAX
CTR,P40,INI,FM,M3,16.310685323046528,%MAX
CTR,P40,REL,FM,M1,,%MAX
CTR,P40,REL,FM,M2,,%MAX
CTR,P40,REL,FM,M3,,%MAX
CTR,P44,INI,FM,M1,13.74839781239321,%MAX
CTR,P44,INI,FM,M2,20.006772511158097,%MAX
CTR,P44,INI,FM,M3,32.49196425525303,%MAX
CTR,P44,REL,FM,M1,16.198650554901594,%MAX
CTR,P44,REL,FM,M2,19.012220714844513,%MAX
CTR,P44,REL,FM,M3,37.46518691347807,%MAX
CTR,P46,INI,FM,M1,33.26283600423584,%MAX
CTR,P46,INI,FM,M2,22.37295651018091,%MAX
CTR,P46,INI,FM,M3,28.904173871936443,%MAX
CTR,P49,REL,FM,M1,11.266680432864437,%MAX
CTR,P49,REL,FM,M2,16.958373946043913,%MAX
CTR,P49,REL,FM,M3,38.438587643506054,%MAX
CTR,P52,INI,FM,M1,,%MAX
CTR,P52,INI,FM,M2,,%MAX
CTR,P52,INI,FM,M3,,%MAX
CTR,P56,INI,FM,M1,25.73238302355917,%MAX
CTR,P56,INI,FM,M2,14.185241367951189,%MAX
CTR,P56,INI,FM,M3,30.465762974650488,%MAX
CTR,P56,REL,FM,M1,,%MAX
CTR,P56,REL,FM,M2,,%MAX
CTR,P56,REL,FM,M3,,%MAX
CTR,P57,INI,FM,M1,,%MAX
CTR,P57,INI,FM,M2,,%MAX
CTR,P57,INI,FM,M3,,%MAX
CTR,P57,REL,FM,M1,24.826099067640662,%MAX
CTR,P57,REL,FM,M2,27.985506172011597,%MAX
CTR,P57,REL,FM,M3,38.757557078398385,%MAX
CTR,P64,INI,FM,M1,18.342747094022904,%MAX
CTR,P64,INI,FM,M2,24.398140507230554,%MAX
CTR,P64,INI,FM,M3,36.714210419020574,%MAX
CTR,P64,REL,FM,M1,,%MAX
CTR,P64,REL,FM,M2,,%MAX
CTR,P64,REL,FM,M3,,%MAX
CTR,P66,REL,FM,M1,,%MAX
CTR,P66,REL,FM,M2,,%MAX
CTR,P66,REL,FM,M3,,%MAX
