Group,Participant,Session,Operator,Measure,Value,Unit
CTR,P01,INI,FM,M1,24.67291797224843,%MAX
CTR,P01,INI,FM,M2,29.069979052388263,%MAX
CTR,P01,INI,FM,M3,34.80183060866919,%MAX
CTR,P01,REL,FM,M1,33.618848673267486,%MAX
CTR,P01,REL,FM,M2,27.637775583657042,%MAX
CTR,P01,REL,FM,M3,26.467088421588286,%MAX
CTR,P02,INI,FM,M1,12.16048357810425,%MAX
CTR,P02,INI,FM,M2,9.730443024599365,%MAX
CTR,P02,INI,FM,M3,12.088537591186729,%MAX
CTR,P02,REL,FM,M1,31.948403820479463,%MAX
CTR,P02,REL,FM,M2,32.084221179387434,%MAX
CTR,P02,REL,FM,M3,23.210197899950987,%MAX
CTR,P03,INI,FM,M1,20.20452621623662,%MAX
CTR,P03,INI,FM,M2,16.141530575580493,%MAX
CTR,P03,INI,FM,M3,19.039624905848697,%MAX
CTR,P03,REL,FM,M1,17.83172974027573,%MAX
CTR,P03,REL,FM,M2,14.29961202361246,%MAX
CTR,P03,REL,FM,M3,13.294327878210572,%MAX
CTR,P05,INI,FM,M1,16.529347905146466,%MAX
CTR,P05,INI,FM,M2,18.954499974416397,%MAX
CTR,P05,INI,FM,M3,16.830877022205275,%MAX
CTR,P05,REL,FM,M1,21.332971303118892,%MAX
CTR,P05,REL,FM,M2,20.66950328590122,%MAX
CTR,P05,REL,FM,M3,21.58352866674038,%MAX
CTR,P06,INI,FM,M1,15.44398148282781,%MAX
CTR,P06,INI,FM,M2,12.58901333431781,%MAX
CTR,P06,INI,FM,M3,11.494062490105465,%MAX
CTR,P06,REL,FM,M1,10.218307602316063,%MAX
CTR,P06,REL,FM,M2,10.784374518944,%MAX
CTR,P06,REL,FM,M3,11.448998771566213,%MAX
CTR,P07,INI,FM,M1,21.01695489340742,%MAX
CTR,P07,INI,FM,M2,19.13836571622829,%MAX
CTR,P07,INI,FM,M3,21.133245375786384,%MAX
CTR,P07,REL,FM,M1,18.863780664417813,%MAX
CTR,P07,REL,FM,M2,16.946168262685273,%MAX
CTR,P07,REL,FM,M3,21.76074053421329,%MAX
CTR,P08,INI,FM,M1,49.205324006979815,%MAX
CTR,P08,INI,FM,M2,42.69866036628706,%MAX
CTR,P08,INI,FM,M3,44.58408841208652,%MAX
CTR,P08,REL,FM,M1,27.051848487954793,%MAX
CTR,P08,REL,FM,M2,15.576938407373962,%MAX
CTR,P08,REL,FM,M3,16.411762286614277,%MAX
CTR,P13,INI,FM,M1,15.405941383892221,%MAX
CTR,P13,INI,FM,M2,14.384324740210424,%MAX
CTR,P13,INI,FM,M3,12.626995433585751,%MAX
CTR,P13,REL,FM,M1,26.22590888077322,%MAX
CTR,P13,REL,FM,M2,23.307743786743515,%MAX
CTR,P13,REL,FM,M3,23.24867867666223,%MAX
CTR,P16,INI,FM,M1,38.51797729783477,%MAX
CTR,P16,INI,FM,M2,40.81815783128274,%MAX
CTR,P16,INI,FM,M3,41.171005126664234,%MAX
CTR,P16,REL,FM,M1,32.580691635822106,%MAX
CTR,P16,REL,FM,M2,28.409705716505496,%MAX
CTR,P16,REL,FM,M3,30.732928792743092,%MAX
CTR,P21,INI,FM,M1,29.567552956015604,%MAX
CTR,P21,INI,FM,M2,27.410140813309358,%MAX
CTR,P21,INI,FM,M3,34.39831163277073,%MAX
CTR,P21,REL,FM,M1,14.731413560668054,%MAX
CTR,P21,REL,FM,M2,10.290642982725434,%MAX
CTR,P21,REL,FM,M3,17.50570961429846,%MAX
CTR,P22,INI,FM,M1,23.755596212248697,%MAX
CTR,P22,INI,FM,M2,16.81233046025105,%MAX
CTR,P22,INI,FM,M3,16.01773779917427,%MAX
CTR,P22,REL,FM,M1,26.662392763972782,%MAX
CTR,P22,REL,FM,M2,36.03728469409947,%MAX
CTR,P22,REL,FM,M3,30.353257910062858,%MAX
CTR,P23,INI,FM,M1,35.25051412708043,%MAX
CTR,P23,INI,FM,M2,26.713878967561886,%MAX
CTR,P23,INI,FM,M3,25.343188302186327,%MAX
CTR,P23,REL,FM,M1,26.55001935374059,%MAX
CTR,P23,REL,FM,M2,59.75524604671427,%MAX
CTR,P23,REL,FM,M3,53.694424926341135,%MAX
CTR,P25,INI,FM,M1,19.637068932894003,%MAX
CTR,P25,INI,FM,M2,31.574013670060832,%MAX
CTR,P25,INI,FM,M3,20.688533354478146,%MAX
CTR,P25,REL,FM,M1,6.11259542605442,%MAX
CTR,P25,REL,FM,M2,10.853833908070955,%MAX
CTR,P25,REL,FM,M3,15.52033029946974,%MAX
CTR,P35,INI,FM,M1,20.154870008724984,%MAX
CTR,P35,INI,FM,M2,11.052873111977364,%MAX
CTR,P35,INI,FM,M3,31.626912178937136,%MAX
CTR,P35,REL,FM,M1,14.590598787953374,%MAX
CTR,P35,REL,FM,M2,13.97074711606301,%MAX
CTR,P35,REL,FM,M3,41.22559142845874,%MAX
CTR,P38,INI,FM,M1,18.093506475442975,%MAX
CTR,P38,INI,FM,M2,15.023821284552428,%MAX
CTR,P38,INI,FM,M3,17.841737381386228,%MAX
CTR,P38,REL,FM,M1,20.292653423475908,%MAX
CTR,P38,REL,FM,M2,22.909105319328834,%MAX
CTR,P38,REL,FM,M3,31.1671359461585,%MAX
CTR,P39,INI,FM,M1,19.44614185712153,%MAX
CTR,P39,INI,FM,M2,21.848339735822616,%MAX
CTR,P39,INI,FM,M3,41.16383882697714,%MAX
CTR,P39,REL,FM,M1,35.546128146369874,%MAX
CTR,P39,REL,FM,M2,33.89659149985043,%MAX
CTR,P39,REL,FM,M3,29.028755410719146,%MAX
CTR,P40,INI,FM,M1,,%MAX
CTR,P40,INI,FM,M2,,%MAX
CTR,P40,INI,FM,M3,,%MAX
CTR,P40,REL,FM,M1,7.934049909624588,%MAX
CTR,P40,REL,FM,M2,8.973778736240499,%MAX
CTR,P40,REL,FM,M3,25.452833849891572,%MAX
CTR,P44,INI,FM,M1,25.594324700509684,%MAX
CTR,P44,INI,FM,M2,14.596700592990873,%MAX
CTR,P44,INI,FM,M3,23.684853893863874,%MAX
CTR,P44,REL,FM,M1,13.74917249069914,%MAX
CTR,P44,REL,FM,M2,9.846327418927961,%MAX
CTR,P44,REL,FM,M3,26.533841850405075,%MAX
CTR,P46,INI,FM,M1,,%MAX
CTR,P46,INI,FM,M2,,%MAX
CTR,P46,INI,FM,M3,,%MAX
CTR,P46,REL,FM,M1,13.840502208823606,%MAX
CTR,P46,REL,FM,M2,18.022737407633475,%MAX
CTR,P46,REL,FM,M3,34.66869710253746,%MAX
CTR,P48,INI,FM,M1,22.77066620058193,%MAX
CTR,P48,INI,FM,M2,22.325233188119675,%MAX
CTR,P48,INI,FM,M3,31.725321014798766,%MAX
CTR,P48,REL,FM,M1,17.81458487653098,%MAX
CTR,P48,REL,FM,M2,15.840151298500237,%MAX
CTR,P48,REL,FM,M3,19.04102364941615,%MAX
CTR,P49,INI,FM,M1,18.49110303827609,%MAX
CTR,P49,INI,FM,M2,25.054783811642245,%MAX
CTR,P49,INI,FM,M3,32.6980482923369,%MAX
CTR,P49,REL,FM,M1,21.5109514234907,%MAX
CTR,P49,REL,FM,M2,28.41024517189099,%MAX
CTR,P49,REL,FM,M3,40.36034846772176,%MAX
CTR,P52,INI,FM,M1,26.182531033474366,%MAX
CTR,P52,INI,FM,M2,29.01966549613608,%MAX
CTR,P52,INI,FM,M3,24.56551074024644,%MAX
CTR,P52,REL,FM,M1,18.80516546140763,%MAX
CTR,P52,REL,FM,M2,27.756163700727182,%MAX
CTR,P52,REL,FM,M3,35.91917618168492,%MAX
CTR,P55,INI,FM,M1,,%MAX
CTR,P55,INI,FM,M2,,%MAX
CTR,P55,INI,FM,M3,,%MAX
CTR,P55,REL,FM,M1,,%MAX
CTR,P55,REL,FM,M2,,%MAX
CTR,P55,REL,FM,M3,,%MAX
CTR,P56,INI,FM,M1,15.849146392539376,%MAX
CTR,P56,INI,FM,M2,16.75605002369948,%MAX
CTR,P56,INI,FM,M3,19.672641871183725,%MAX
CTR,P56,REL,FM,M1,22.05126284968753,%MAX
CTR,P56,REL,FM,M2,17.32398506277392,%MAX
CTR,P56,REL,FM,M3,18.23365673344646,%MAX
CTR,P60,INI,FM,M1,11.192102736607728,%MAX
CTR,P60,INI,FM,M2,16.047127527165348,%MAX
CTR,P60,INI,FM,M3,10.84824360994388,%MAX
CTR,P60,REL,FM,M1,14.13608618712012,%MAX
CTR,P60,REL,FM,M2,18.750139256684015,%MAX
CTR,P60,REL,FM,M3,23.895657838925104,%MAX
CTR,P64,INI,FM,M1,17.95162219936514,%MAX
CTR,P64,INI,FM,M2,21.94153102262868,%MAX
CTR,P64,INI,FM,M3,24.03081204882365,%MAX
CTR,P64,REL,FM,M1,18.36764336040681,%MAX
CTR,P64,REL,FM,M2,13.763239547019097,%MAX
CTR,P64,REL,FM,M3,18.290720206628965,%MAX
CTR,P66,INI,FM,M1,32.29709622667249,%MAX
CTR,P66,INI,FM,M2,40.09564955260336,%MAX
CTR,P66,INI,FM,M3,32.12079059808724,%MAX
CTR,P66,REL,FM,M1,24.976245573948194,%MAX
CTR,P66,REL,FM,M2,24.174579914348385,%MAX
CTR,P66,REL,FM,M3,12.192954372362342,%MAX
CTR,P67,INI,FM,M1,24.589804243735912,%MAX
CTR,P67,INI,FM,M2,40.14972272202374,%MAX
CTR,P67,INI,FM,M3,37.418408957466866,%MAX
CTR,P67,REL,FM,M1,27.193210771871104,%MAX
CTR,P67,REL,FM,M2,23.012414398304262,%MAX
CTR,P67,REL,FM,M3,15.957803528708247,%MAX
CTR,P68,INI,FM,M1,13.012062400768043,%MAX
CTR,P68,INI,FM,M2,27.447203208497346,%MAX
CTR,P68,INI,FM,M3,27.980356256656524,%MAX
CTR,P68,REL,FM,M1,33.158139503211096,%MAX
CTR,P68,REL,FM,M2,23.551633861719797,%MAX
CTR,P68,REL,FM,M3,17.178748628341562,%MAX
