Group,Participant,Session,Operator,Measure,Value,Unit
PAT,P09,INI,FM,M1,0.0036879237977828,V
PAT,P09,INI,FM,M2,0.0029904200226996,V
PAT,P09,INI,FM,M3,0.0029186408159812,V
PAT,P09,REL,FM,M1,0.0034562087844968,V
PAT,P09,REL,FM,M2,0.0031054714257072,V
PAT,P09,REL,FM,M3,0.0032319593283745,V
PAT,P10,INI,FM,M1,0.0047134765909088,V
PAT,P10,INI,FM,M2,0.0050288803447996,V
PAT,P10,INI,FM,M3,0.0050484980523552,V
PAT,P10,REL,FM,M1,0.0040420485100806,V
PAT,P10,REL,FM,M2,0.0042654809643416,V
PAT,P10,REL,FM,M3,0.0043014450148796,V
PAT,P11,INI,FM,M1,0.0044681560326212,V
PAT,P11,INI,FM,M2,0.0077490057189641,V
PAT,P11,INI,FM,M3,0.0045614062854645,V
PAT,P11,REL,FM,M1,0.0066080465763395,V
PAT,P11,REL,FM,M2,0.0053668784442084,V
PAT,P11,REL,FM,M3,0.0070461775203467,V
PAT,P12,INI,FM,M1,,V
PAT,P12,INI,FM,M2,0.0030716436071446,V
PAT,P12,INI,FM,M3,,V
PAT,P12,REL,FM,M1,,V
PAT,P12,REL,FM,M2,0.002221970671463,V
PAT,P12,REL,FM,M3,0.0020275185507863,V
PAT,P14,INI,FM,M1,0.0044228507658555,V
PAT,P14,INI,FM,M2,0.0041401473079013,V
PAT,P14,INI,FM,M3,0.0045830489669747,V
PAT,P14,REL,FM,M1,0.0040124271817314,V
PAT,P14,REL,FM,M2,0.0036810080816863,V
PAT,P14,REL,FM,M3,0.0038843562365719,V
PAT,P17,INI,FM,M1,0.0036270639194965,V
PAT,P17,INI,FM,M2,0.0048332813096364,V
PAT,P17,INI,FM,M3,0.0046463297496213,V
PAT,P17,REL,FM,M1,0.0046302458307054,V
PAT,P17,REL,FM,M2,0.0030558191092238,V
PAT,P17,REL,FM,M3,0.0034989652279767,V
PAT,P24,INI,FM,M1,0.0047336487708164,V
PAT,P24,INI,FM,M2,0.0048314499891328,V
PAT,P24,INI,FM,M3,0.0054310162174516,V
PAT,P24,REL,FM,M1,0.0034938738019773,V
PAT,P24,REL,FM,M2,0.0036801615026004,V
PAT,P24,REL,FM,M3,0.0038716795346432,V
PAT,P26,INI,FM,M1,0.0145528882504359,V
PAT,P26,INI,FM,M2,0.0061807766380053,V
PAT,P26,INI,FM,M3,0.0069560799970802,V
PAT,P26,REL,FM,M1,0.0136160977715012,V
PAT,P26,REL,FM,M2,0.005927648379002,V
PAT,P26,REL,FM,M3,0.007429905882758,V
PAT,P27,INI,FM,M1,0.0039995693331081,V
PAT,P27,INI,FM,M2,0.004539038649067,V
PAT,P27,INI,FM,M3,0.0037334817166047,V
PAT,P27,REL,FM,M1,0.0041391170394016,V
PAT,P27,REL,FM,M2,0.0038403795907667,V
PAT,P27,REL,FM,M3,0.0049386082411223,V
PAT,P28,INI,FM,M1,0.0026895217820714,V
PAT,P28,INI,FM,M2,0.0027441006016454,V
PAT,P28,INI,FM,M3,,V
PAT,P28,REL,FM,M1,0.0033571335456276,V
PAT,P28,REL,FM,M2,0.0044554077367065,V
PAT,P28,REL,FM,M3,0.0032111436582404,V
PAT,P29,INI,FM,M1,,V
PAT,P29,INI,FM,M2,,V
PAT,P29,INI,FM,M3,,V
PAT,P29,REL,FM,M1,,V
PAT,P29,REL,FM,M2,,V
PAT,P29,REL,FM,M3,,V
PAT,P30,INI,FM,M1,0.0041270263023607,V
PAT,P30,INI,FM,M2,0.002868570735166,V
PAT,P30,INI,FM,M3,0.003375890486146,V
PAT,P30,REL,FM,M1,0.0054348259229487,V
PAT,P30,REL,FM,M2,0.0036029602421318,V
PAT,P30,REL,FM,M3,0.0036982177963973,V
PAT,P32,INI,FM,M1,0.0037789925920956,V
PAT,P32,INI,FM,M2,0.0046747922511022,V
PAT,P32,INI,FM,M3,0.0040629912315425,V
PAT,P32,REL,FM,M1,0.0028710072165124,V
PAT,P32,REL,FM,M2,0.0035192781883279,V
PAT,P32,REL,FM,M3,0.0041564685934253,V
PAT,P33,INI,FM,M1,0.0089497679484939,V
PAT,P33,INI,FM,M2,0.0080137752189851,V
PAT,P33,INI,FM,M3,0.0082857884832902,V
PAT,P33,REL,FM,M1,0.0056049219477254,V
PAT,P33,REL,FM,M2,0.0051936174100142,V
PAT,P33,REL,FM,M3,0.0040806828462835,V
PAT,P34,INI,FM,M1,0.0062704741222242,V
PAT,P34,INI,FM,M2,0.0047192829896399,V
PAT,P34,INI,FM,M3,0.0056588798120695,V
PAT,P34,REL,FM,M1,0.0037090026806414,V
PAT,P34,REL,FM,M2,0.0033414876258345,V
PAT,P34,REL,FM,M3,0.0039916959761952,V
PAT,P36,INI,FM,M1,0.0099526170028047,V
PAT,P36,INI,FM,M2,0.0082245030423402,V
PAT,P36,INI,FM,M3,0.0061762071244607,V
PAT,P36,REL,FM,M1,0.0100210176584779,V
PAT,P36,REL,FM,M2,0.0064655546517775,V
PAT,P36,REL,FM,M3,0.0072948810280002,V
PAT,P41,INI,FM,M1,0.0053399529991754,V
PAT,P41,INI,FM,M2,0.0049320698608071,V
PAT,P41,INI,FM,M3,0.0045816918542335,V
PAT,P41,REL,FM,M1,0.0036263794887511,V
PAT,P41,REL,FM,M2,0.0036052527676121,V
PAT,P41,REL,FM,M3,0.0038316257859572,V
PAT,P42,INI,FM,M1,0.0036728353438202,V
PAT,P42,INI,FM,M2,0.0037963108722218,V
PAT,P42,INI,FM,M3,0.0038889885924692,V
PAT,P42,REL,FM,M1,0.0049525360816633,V
PAT,P42,REL,FM,M2,0.0041810395920523,V
PAT,P42,REL,FM,M3,0.0047164023617861,V
PAT,P43,INI,FM,M1,0.0038951442471609,V
PAT,P43,INI,FM,M2,0.0051780221023414,V
PAT,P43,INI,FM,M3,0.0043206164106086,V
PAT,P43,REL,FM,M1,0.0069167991590449,V
PAT,P43,REL,FM,M2,0.0067518462547072,V
PAT,P43,REL,FM,M3,0.0054659410538391,V
PAT,P45,INI,FM,M1,,V
PAT,P45,INI,FM,M2,,V
PAT,P45,INI,FM,M3,,V
PAT,P45,REL,FM,M1,,V
PAT,P45,REL,FM,M2,,V
PAT,P45,REL,FM,M3,,V
PAT,P47,INI,FM,M1,0.0078627474406518,V
PAT,P47,INI,FM,M2,0.0030456809031037,V
PAT,P47,INI,FM,M3,0.0034524211522791,V
PAT,P47,REL,FM,M1,0.0045009925195712,V
PAT,P47,REL,FM,M2,0.0039583785472075,V
PAT,P47,REL,FM,M3,0.0041447957771756,V
PAT,P50,INI,FM,M1,0.0084040308682377,V
PAT,P50,INI,FM,M2,0.0089964814915134,V
PAT,P50,INI,FM,M3,0.0087333622563855,V
PAT,P50,REL,FM,M1,0.006535078995799,V
PAT,P50,REL,FM,M2,0.0066409771638492,V
PAT,P50,REL,FM,M3,0.0071187740669218,V
PAT,P51,INI,FM,M1,0.0028411978274051,V
PAT,P51,INI,FM,M2,0.0036920983547711,V
PAT,P51,INI,FM,M3,0.0024073849168796,V
PAT,P51,REL,FM,M1,0.0030810151069986,V
PAT,P51,REL,FM,M2,0.0027751389612505,V
PAT,P51,REL,FM,M3,0.00301989149781,V
PAT,P53,INI,FM,M1,,V
PAT,P53,INI,FM,M2,,V
PAT,P53,INI,FM,M3,,V
PAT,P53,REL,FM,M1,0.0027005134888067,V
PAT,P53,REL,FM,M2,0.0030440079133086,V
PAT,P53,REL,FM,M3,0.0033504399492714,V
PAT,P54,INI,FM,M1,0.0039679994065142,V
PAT,P54,INI,FM,M2,0.0036190193883409,V
PAT,P54,INI,FM,M3,0.0042318064626693,V
PAT,P54,REL,FM,M1,0.0038236149325634,V
PAT,P54,REL,FM,M2,0.0037376282212486,V
PAT,P54,REL,FM,M3,,V
PAT,P58,INI,FM,M1,0.0027792871642693,V
PAT,P58,INI,FM,M2,0.0027582851754348,V
PAT,P58,INI,FM,M3,0.0027437901302703,V
PAT,P58,REL,FM,M1,0.0030156308762041,V
PAT,P58,REL,FM,M2,0.0030714364569691,V
PAT,P58,REL,FM,M3,0.0032850931121414,V
PAT,P61,INI,FM,M1,0.0058344882751499,V
PAT,P61,INI,FM,M2,0.0054577040297429,V
PAT,P61,INI,FM,M3,0.0069669583336916,V
PAT,P61,REL,FM,M1,0.0085958423386247,V
PAT,P61,REL,FM,M2,0.0107707003518078,V
PAT,P61,REL,FM,M3,0.0090431663824876,V
PAT,P62,INI,FM,M1,0.0079693142324303,V
PAT,P62,INI,FM,M2,0.0052557627067023,V
PAT,P62,INI,FM,M3,0.0110867955710742,V
PAT,P62,REL,FM,M1,0.002827417013363,V
PAT,P62,REL,FM,M2,0.0022451417143979,V
PAT,P62,REL,FM,M3,0.0025124635688373,V
PAT,P63,INI,FM,M1,,V
PAT,P63,INI,FM,M2,,V
PAT,P63,INI,FM,M3,,V
PAT,P63,REL,FM,M1,,V
PAT,P63,REL,FM,M2,0.0020574611365336,V
PAT,P63,REL,FM,M3,0.0023592315947433,V
PAT,P65,INI,FM,M1,,V
PAT,P65,INI,FM,M2,,V
PAT,P65,INI,FM,M3,0.0097950687096537,V
PAT,P65,REL,FM,M1,0.0063461791813142,V
PAT,P65,REL,FM,M2,0.0066925867987781,V
PAT,P65,REL,FM,M3,0.0063714620557414,V
