Group,Participant,Session,Operator,Measure,Value,Unit
PAT,P09,INI,FM,M1,0.0184403166797748,V
PAT,P09,INI,FM,M2,0.0151547864517662,V
PAT,P09,INI,FM,M3,0.0157500191539839,V
PAT,P09,REL,FM,M1,0.0112221912069574,V
PAT,P09,REL,FM,M2,0.0087085246748603,V
PAT,P09,REL,FM,M3,0.0106829855965251,V
PAT,P10,REL,FM,M1,0.015973962608778,V
PAT,P10,REL,FM,M2,0.0166547374236831,V
PAT,P10,REL,FM,M3,0.0174617746013132,V
PAT,P11,INI,FM,M1,0.0176182078995181,V
PAT,P11,INI,FM,M2,0.0149497796177484,V
PAT,P11,INI,FM,M3,0.0181924815580269,V
PAT,P11,REL,FM,M1,0.0137867003363989,V
PAT,P11,REL,FM,M2,0.0123173419121959,V
PAT,P11,REL,FM,M3,0.0117062165749144,V
PAT,P12,INI,FM,M1,0.0214663016404157,V
PAT,P12,INI,FM,M2,0.0229901443694825,V
PAT,P12,INI,FM,M3,0.0215178214030924,V
PAT,P12,REL,FM,M1,0.0255769315339081,V
PAT,P12,REL,FM,M2,0.0244013185951608,V
PAT,P12,REL,FM,M3,0.023669756499575,V
PAT,P14,INI,FM,M1,0.0088646996788393,V
PAT,P14,INI,FM,M2,0.0093955401012115,V
PAT,P14,INI,FM,M3,0.0112224835288414,V
PAT,P14,REL,FM,M1,0.0087178494590284,V
PAT,P14,REL,FM,M2,0.0084278137835847,V
PAT,P14,REL,FM,M3,0.0088909654383335,V
PAT,P17,INI,FM,M1,0.0090329541300328,V
PAT,P17,INI,FM,M2,0.0105176844607416,V
PAT,P17,INI,FM,M3,0.0103454371575169,V
PAT,P17,REL,FM,M1,0.0252886644281192,V
PAT,P17,REL,FM,M2,0.0175543271504471,V
PAT,P17,REL,FM,M3,0.0181932724420735,V
PAT,P24,INI,FM,M1,0.0085719517431128,V
PAT,P24,INI,FM,M2,0.0091736623660209,V
PAT,P24,INI,FM,M3,0.0097290877866581,V
PAT,P24,REL,FM,M1,0.0074740337952034,V
PAT,P24,REL,FM,M2,0.0087210667414386,V
PAT,P24,REL,FM,M3,0.008561271623176,V
PAT,P26,INI,FM,M1,0.0072147722996707,V
PAT,P26,INI,FM,M2,0.0066942158904675,V
PAT,P26,INI,FM,M3,0.0061654108264256,V
PAT,P26,REL,FM,M1,0.0063887172460682,V
PAT,P26,REL,FM,M2,0.006701430427958,V
PAT,P26,REL,FM,M3,0.0063654678258944,V
PAT,P27,INI,FM,M1,0.0112393464304397,V
PAT,P27,INI,FM,M2,0.0124132378031157,V
PAT,P27,INI,FM,M3,0.0121760066783037,V
PAT,P27,REL,FM,M1,0.0122053171636501,V
PAT,P27,REL,FM,M2,0.014156800422229,V
PAT,P27,REL,FM,M3,0.0146702557480051,V
PAT,P28,INI,FM,M1,0.0092092845682129,V
PAT,P28,INI,FM,M2,0.0094833496953161,V
PAT,P28,INI,FM,M3,0.0108193997767691,V
PAT,P28,REL,FM,M1,0.0096230578769701,V
PAT,P28,REL,FM,M2,0.0099029028546267,V
PAT,P28,REL,FM,M3,0.0094160107943711,V
PAT,P29,INI,FM,M1,0.0221383730512734,V
PAT,P29,INI,FM,M2,0.0231124617531723,V
PAT,P29,INI,FM,M3,0.0204373458468134,V
PAT,P29,REL,FM,M1,0.0213763160271146,V
PAT,P29,REL,FM,M2,0.0174959042267747,V
PAT,P29,REL,FM,M3,0.0203309302366109,V
PAT,P30,INI,FM,M1,0.0236832928961537,V
PAT,P30,INI,FM,M2,0.0314023205093451,V
PAT,P30,INI,FM,M3,0.0512681867299001,V
PAT,P30,REL,FM,M1,0.0040536661462651,V
PAT,P30,REL,FM,M2,0.0038066908346687,V
PAT,P30,REL,FM,M3,0.0041040145851326,V
PAT,P32,INI,FM,M1,0.0095081095854819,V
PAT,P32,INI,FM,M2,0.0105985789006967,V
PAT,P32,INI,FM,M3,0.0108685861009301,V
PAT,P32,REL,FM,M1,0.0107937266746238,V
PAT,P32,REL,FM,M2,0.0111717888090325,V
PAT,P32,REL,FM,M3,0.0150501924250907,V
PAT,P33,INI,FM,M1,0.0096351479471644,V
PAT,P33,INI,FM,M2,0.0112089701966438,V
PAT,P33,INI,FM,M3,0.0107384881282697,V
PAT,P33,REL,FM,M1,0.0129462966802745,V
PAT,P33,REL,FM,M2,0.0107099096967357,V
PAT,P33,REL,FM,M3,0.0103218517081287,V
PAT,P34,INI,FM,M1,0.0070702212914802,V
PAT,P34,INI,FM,M2,0.0073392796246169,V
PAT,P34,INI,FM,M3,0.0070790491921777,V
PAT,P34,REL,FM,M1,0.0062455510484328,V
PAT,P34,REL,FM,M2,0.0054148338532811,V
PAT,P34,REL,FM,M3,0.0051465248021972,V
PAT,P36,INI,FM,M1,0.0186451700721624,V
PAT,P36,INI,FM,M2,0.0155451281110986,V
PAT,P36,INI,FM,M3,0.0176554435191633,V
PAT,P36,REL,FM,M1,0.0197977212228891,V
PAT,P36,REL,FM,M2,0.0180846033252551,V
PAT,P36,REL,FM,M3,0.0213139333010061,V
PAT,P41,INI,FM,M1,0.0209486435967999,V
PAT,P41,INI,FM,M2,0.021506046797041,V
PAT,P41,INI,FM,M3,0.0231832589231044,V
PAT,P41,REL,FM,M1,0.0166637913132972,V
PAT,P41,REL,FM,M2,0.0150268893312033,V
PAT,P41,REL,FM,M3,0.0151715831132836,V
PAT,P42,INI,FM,M1,0.0162868450069018,V
PAT,P42,INI,FM,M2,0.0149308922192559,V
PAT,P42,INI,FM,M3,0.0154432780578085,V
PAT,P42,REL,FM,M1,0.0192143202674835,V
PAT,P42,REL,FM,M2,0.0181504900654982,V
PAT,P42,REL,FM,M3,0.0175530079121073,V
PAT,P43,INI,FM,M1,0.0202100174144625,V
PAT,P43,INI,FM,M2,0.0191929909735109,V
PAT,P43,INI,FM,M3,0.019481652967243,V
PAT,P43,REL,FM,M1,0.0200082168401803,V
PAT,P43,REL,FM,M2,0.0215547171347981,V
PAT,P43,REL,FM,M3,0.0214937413493613,V
PAT,P45,INI,FM,M1,,V
PAT,P45,INI,FM,M2,,V
PAT,P45,INI,FM,M3,,V
PAT,P45,REL,FM,M1,0.0084424227780358,V
PAT,P45,REL,FM,M2,0.007095930957464,V
PAT,P45,REL,FM,M3,0.009839033346406,V
PAT,P47,INI,FM,M1,0.0286388469578162,V
PAT,P47,INI,FM,M2,0.0243605321991327,V
PAT,P47,INI,FM,M3,0.0260881611999776,V
PAT,P47,REL,FM,M1,0.0120097851843484,V
PAT,P47,REL,FM,M2,0.010641801977636,V
PAT,P47,REL,FM,M3,0.0083970267471482,V
PAT,P50,INI,FM,M1,0.0205206045555634,V
PAT,P50,INI,FM,M2,0.0211462905967456,V
PAT,P50,INI,FM,M3,0.0221283839006334,V
PAT,P50,REL,FM,M1,0.025728715992352,V
PAT,P50,REL,FM,M2,0.0242423322812191,V
PAT,P50,REL,FM,M3,0.0278528150802036,V
PAT,P51,INI,FM,M1,0.0069412573151143,V
PAT,P51,INI,FM,M2,0.0073746010534196,V
PAT,P51,INI,FM,M3,0.0065232827790385,V
PAT,P51,REL,FM,M1,0.0078274946222642,V
PAT,P51,REL,FM,M2,0.0056923549170898,V
PAT,P51,REL,FM,M3,0.0067812747153704,V
PAT,P53,INI,FM,M1,0.0084578811434872,V
PAT,P53,INI,FM,M2,0.0080282376649546,V
PAT,P53,INI,FM,M3,0.0098650710851956,V
PAT,P53,REL,FM,M1,0.0085027245362211,V
PAT,P53,REL,FM,M2,0.0100854217895728,V
PAT,P53,REL,FM,M3,0.0097787928509708,V
PAT,P54,INI,FM,M1,0.0114083774498348,V
PAT,P54,INI,FM,M2,0.015498665989078,V
PAT,P54,INI,FM,M3,0.0189590922156697,V
PAT,P54,REL,FM,M1,0.0110363156871247,V
PAT,P54,REL,FM,M2,0.0104746133448357,V
PAT,P54,REL,FM,M3,0.0090731881849996,V
PAT,P58,INI,FM,M1,,V
PAT,P58,INI,FM,M2,,V
PAT,P58,INI,FM,M3,,V
PAT,P58,REL,FM,M1,0.0468715771471285,V
PAT,P58,REL,FM,M2,0.0189803513004367,V
PAT,P58,REL,FM,M3,0.0382143436891276,V
PAT,P61,INI,FM,M1,0.0137136753973315,V
PAT,P61,INI,FM,M2,0.0126302348246714,V
PAT,P61,INI,FM,M3,0.0387815114659682,V
PAT,P61,REL,FM,M1,0.0126636051080061,V
PAT,P61,REL,FM,M2,0.0139495535293763,V
PAT,P61,REL,FM,M3,0.0142169281337344,V
PAT,P62,INI,FM,M1,0.0071271805918234,V
PAT,P62,INI,FM,M2,0.0064576463997567,V
PAT,P62,INI,FM,M3,0.0051982267892873,V
PAT,P62,REL,FM,M1,0.0078553123816091,V
PAT,P62,REL,FM,M2,0.0066861382707026,V
PAT,P62,REL,FM,M3,0.0088135997886799,V
PAT,P63,INI,FM,M1,0.0528190878736033,V
PAT,P63,INI,FM,M2,0.0295232447762966,V
PAT,P63,INI,FM,M3,0.0240827073655437,V
PAT,P63,REL,FM,M1,0.0098903418817634,V
PAT,P63,REL,FM,M2,0.012869361788403,V
PAT,P63,REL,FM,M3,0.0137729957051408,V
PAT,P65,INI,FM,M1,0.0222675444324538,V
PAT,P65,INI,FM,M2,0.0270313768784124,V
PAT,P65,INI,FM,M3,0.0262187217279832,V
PAT,P65,REL,FM,M1,0.0281239281241645,V
PAT,P65,REL,FM,M2,,V
PAT,P65,REL,FM,M3,,V
