Group,Participant,Session,Operator,Measure,Value,Unit
PAT,P09,INI,FM,M1,116.97813303961568,Hz
PAT,P09,INI,FM,M2,87.7418364747752,Hz
PAT,P09,INI,FM,M3,106.72741732419682,Hz
PAT,P09,REL,FM,M1,121.72931851810004,Hz
PAT,P09,REL,FM,M2,119.53062478997884,Hz
PAT,P09,REL,FM,M3,118.16732354145172,Hz
PAT,P10,INI,FM,M1,114.70314520976828,Hz
PAT,P10,INI,FM,M2,112.40775407053997,Hz
PAT,P10,INI,FM,M3,112.44217234406716,Hz
PAT,P10,REL,FM,M1,118.71698527455835,Hz
PAT,P10,REL,FM,M2,114.45613915315089,Hz
PAT,P10,REL,FM,M3,114.94699636887871,Hz
PAT,P11,INI,FM,M1,104.8201252625606,Hz
PAT,P11,INI,FM,M2,103.85258668327609,Hz
PAT,P11,INI,FM,M3,100.00722879448875,Hz
PAT,P11,REL,FM,M1,106.59480711589032,Hz
PAT,P11,REL,FM,M2,109.3852602962118,Hz
PAT,P11,REL,FM,M3,110.25595569038428,Hz
PAT,P12,INI,FM,M1,94.42690765556505,Hz
PAT,P12,INI,FM,M2,94.64889078996389,Hz
PAT,P12,INI,FM,M3,91.23688307002902,Hz
PAT,P12,REL,FM,M1,91.08590434517886,Hz
PAT,P12,REL,FM,M2,95.2535601419117,Hz
PAT,P12,REL,FM,M3,93.57272928140829,Hz
PAT,P14,INI,FM,M1,108.3948409298698,Hz
PAT,P14,INI,FM,M2,107.87820032046253,Hz
PAT,P14,INI,FM,M3,104.99931147342564,Hz
PAT,P14,REL,FM,M1,101.8284367581356,Hz
PAT,P14,REL,FM,M2,103.20450713538244,Hz
PAT,P14,REL,FM,M3,100.24722157377016,Hz
PAT,P17,INI,FM,M1,132.99710245231051,Hz
PAT,P17,INI,FM,M2,136.22363771711346,Hz
PAT,P17,INI,FM,M3,111.50852402754394,Hz
PAT,P17,REL,FM,M1,118.57430457654536,Hz
PAT,P17,REL,FM,M2,133.2586764593452,Hz
PAT,P17,REL,FM,M3,126.276980290325,Hz
PAT,P24,INI,FM,M1,125.15165977677962,Hz
PAT,P24,INI,FM,M2,122.1854667648247,Hz
PAT,P24,INI,FM,M3,118.28064111748908,Hz
PAT,P24,REL,FM,M1,86.64026188637355,Hz
PAT,P24,REL,FM,M2,89.0989924675737,Hz
PAT,P24,REL,FM,M3,86.60082592789234,Hz
PAT,P26,INI,FM,M1,104.08523639560008,Hz
PAT,P26,INI,FM,M2,95.87211569027176,Hz
PAT,P26,INI,FM,M3,89.95126893623677,Hz
PAT,P26,REL,FM,M1,98.43597760137192,Hz
PAT,P26,REL,FM,M2,95.73340731558396,Hz
PAT,P26,REL,FM,M3,90.52297847841008,Hz
PAT,P27,INI,FM,M1,106.21796329708737,Hz
PAT,P27,INI,FM,M2,102.7598758726582,Hz
PAT,P27,INI,FM,M3,97.73191513317153,Hz
PAT,P27,REL,FM,M1,104.11444003208258,Hz
PAT,P27,REL,FM,M2,92.08946955524212,Hz
PAT,P27,REL,FM,M3,60.43538898634718,Hz
PAT,P28,INI,FM,M1,125.20627694777862,Hz
PAT,P28,INI,FM,M2,120.94552675393528,Hz
PAT,P28,INI,FM,M3,119.55801828300872,Hz
PAT,P28,REL,FM,M1,132.4101586131778,Hz
PAT,P28,REL,FM,M2,125.36612241810307,Hz
PAT,P28,REL,FM,M3,123.9311792130488,Hz
PAT,P29,INI,FM,M1,103.9286543905965,Hz
PAT,P29,INI,FM,M2,100.6142734751655,Hz
PAT,P29,INI,FM,M3,94.52499146459546,Hz
PAT,P29,REL,FM,M1,111.92672268805326,Hz
PAT,P29,REL,FM,M2,105.31423304918222,Hz
PAT,P29,REL,FM,M3,100.73071221680048,Hz
PAT,P30,INI,FM,M1,110.3184431128568,Hz
PAT,P30,INI,FM,M2,112.42843004423756,Hz
PAT,P30,INI,FM,M3,110.60038611697397,Hz
PAT,P30,REL,FM,M1,117.05259959018464,Hz
PAT,P30,REL,FM,M2,114.31786781468148,Hz
PAT,P30,REL,FM,M3,99.97985012480972,Hz
PAT,P32,INI,FM,M1,111.15667132174372,Hz
PAT,P32,INI,FM,M2,103.65191355765052,Hz
PAT,P32,INI,FM,M3,98.06468186815414,Hz
PAT,P32,REL,FM,M1,141.42215231839307,Hz
PAT,P32,REL,FM,M2,135.50888808977123,Hz
PAT,P32,REL,FM,M3,128.72714390671982,Hz
PAT,P33,INI,FM,M1,61.72733826485199,Hz
PAT,P33,INI,FM,M2,68.25529674069261,Hz
PAT,P33,INI,FM,M3,68.86045702805025,Hz
PAT,P33,REL,FM,M1,86.71397750484047,Hz
PAT,P33,REL,FM,M2,85.98611799348909,Hz
PAT,P33,REL,FM,M3,75.15450617546985,Hz
PAT,P34,INI,FM,M1,108.65956503928534,Hz
PAT,P34,INI,FM,M2,104.54298186496396,Hz
PAT,P34,INI,FM,M3,99.43148106376069,Hz
PAT,P34,REL,FM,M1,104.49027064880612,Hz
PAT,P34,REL,FM,M2,103.15403524080548,Hz
PAT,P34,REL,FM,M3,103.15571755185866,Hz
PAT,P36,INI,FM,M1,100.2073655570594,Hz
PAT,P36,INI,FM,M2,98.69444645448556,Hz
PAT,P36,INI,FM,M3,96.40576845523252,Hz
PAT,P36,REL,FM,M1,119.27975891564628,Hz
PAT,P36,REL,FM,M2,121.33711418484933,Hz
PAT,P36,REL,FM,M3,119.33523984081134,Hz
PAT,P41,INI,FM,M1,96.60168558173564,Hz
PAT,P41,INI,FM,M2,94.85791369653408,Hz
PAT,P41,INI,FM,M3,94.34507800525994,Hz
PAT,P41,REL,FM,M1,100.3960057175827,Hz
PAT,P41,REL,FM,M2,96.99576156938517,Hz
PAT,P41,REL,FM,M3,97.38230241302604,Hz
PAT,P42,INI,FM,M1,127.02103335544872,Hz
PAT,P42,INI,FM,M2,123.04145698787087,Hz
PAT,P42,INI,FM,M3,121.57040857696478,Hz
PAT,P42,REL,FM,M1,121.34075907442644,Hz
PAT,P42,REL,FM,M2,122.67848107480997,Hz
PAT,P42,REL,FM,M3,121.58711783709587,Hz
PAT,P43,INI,FM,M1,128.79759994471485,Hz
PAT,P43,INI,FM,M2,126.2295194462895,Hz
PAT,P43,INI,FM,M3,122.96262679231508,Hz
PAT,P43,REL,FM,M1,135.11130313397487,Hz
PAT,P43,REL,FM,M2,129.95889861822647,Hz
PAT,P43,REL,FM,M3,128.81819241238676,Hz
PAT,P45,INI,FM,M1,85.87174335632425,Hz
PAT,P45,INI,FM,M2,84.01420554477744,Hz
PAT,P45,INI,FM,M3,85.15669040184326,Hz
PAT,P45,REL,FM,M1,102.74611064591296,Hz
PAT,P45,REL,FM,M2,106.146604353775,Hz
PAT,P45,REL,FM,M3,107.77867005689453,Hz
PAT,P47,INI,FM,M1,144.28886246907695,Hz
PAT,P47,INI,FM,M2,139.1404702244293,Hz
PAT,P47,INI,FM,M3,137.90502750278552,Hz
PAT,P47,REL,FM,M1,111.71909966751356,Hz
PAT,P47,REL,FM,M2,108.17617226169932,Hz
PAT,P47,REL,FM,M3,106.86581008048616,Hz
PAT,P50,INI,FM,M1,123.348085405899,Hz
PAT,P50,INI,FM,M2,114.83072889529817,Hz
PAT,P50,INI,FM,M3,102.17459070734772,Hz
PAT,P50,REL,FM,M1,118.917056296141,Hz
PAT,P50,REL,FM,M2,115.07316820874716,Hz
PAT,P50,REL,FM,M3,115.27813920249288,Hz
PAT,P51,INI,FM,M1,84.43583279217249,Hz
PAT,P51,INI,FM,M2,76.24031731052743,Hz
PAT,P51,INI,FM,M3,85.21246054340833,Hz
PAT,P51,REL,FM,M1,74.39320138714328,Hz
PAT,P51,REL,FM,M2,62.3601353297064,Hz
PAT,P51,REL,FM,M3,76.67273798270216,Hz
PAT,P53,INI,FM,M1,121.05034106777434,Hz
PAT,P53,INI,FM,M2,121.06523628542354,Hz
PAT,P53,INI,FM,M3,122.17838281761732,Hz
PAT,P53,REL,FM,M1,121.6881085504844,Hz
PAT,P53,REL,FM,M2,119.34101328090756,Hz
PAT,P53,REL,FM,M3,118.7023625396508,Hz
PAT,P54,INI,FM,M1,120.35569882174354,Hz
PAT,P54,INI,FM,M2,117.16985106736796,Hz
PAT,P54,INI,FM,M3,112.39065906716132,Hz
PAT,P54,REL,FM,M1,111.4840306793139,Hz
PAT,P54,REL,FM,M2,112.473415985538,Hz
PAT,P54,REL,FM,M3,108.88075292909777,Hz
PAT,P58,INI,FM,M1,110.6721985455085,Hz
PAT,P58,INI,FM,M2,83.50534180054623,Hz
PAT,P58,INI,FM,M3,78.3162796753059,Hz
PAT,P58,REL,FM,M1,110.5386581698544,Hz
PAT,P58,REL,FM,M2,109.36588710758038,Hz
PAT,P58,REL,FM,M3,104.6656568205643,Hz
PAT,P61,REL,FM,M1,89.3778847949085,Hz
PAT,P61,REL,FM,M2,89.07904898102588,Hz
PAT,P61,REL,FM,M3,93.94851463118512,Hz
PAT,P62,INI,FM,M1,87.29089877473353,Hz
PAT,P62,INI,FM,M2,90.2446084654138,Hz
PAT,P62,INI,FM,M3,87.99072540370074,Hz
PAT,P62,REL,FM,M1,99.34904304839138,Hz
PAT,P62,REL,FM,M2,90.068673030538,Hz
PAT,P62,REL,FM,M3,101.64585916819836,Hz
PAT,P63,INI,FM,M1,100.83802165359388,Hz
PAT,P63,INI,FM,M2,109.21159742819104,Hz
PAT,P63,INI,FM,M3,125.75304738511554,Hz
PAT,P63,REL,FM,M1,130.5418863025502,Hz
PAT,P63,REL,FM,M2,130.82032111500214,Hz
PAT,P63,REL,FM,M3,130.3732091096241,Hz
PAT,P65,INI,FM,M1,110.35376459277852,Hz
PAT,P65,INI,FM,M2,113.79422478343272,Hz
PAT,P65,INI,FM,M3,112.53210147625238,Hz
PAT,P65,REL,FM,M1,133.67221493906524,Hz
PAT,P65,REL,FM,M2,134.98162852210558,Hz
PAT,P65,REL,FM,M3,131.86311816561005,Hz
