Group,Participant,Session,Operator,Measure,Value,Unit
CTR,P01,INI,FM,M1,7.80425770648574,%MAX
CTR,P01,INI,FM,M2,17.70258087525183,%MAX
CTR,P01,INI,FM,M3,17.912445861116634,%MAX
CTR,P01,REL,FM,M1,13.809144140693357,%MAX
CTR,P01,REL,FM,M2,16.237574044679352,%MAX
CTR,P01,REL,FM,M3,18.91907628369442,%MAX
CTR,P02,INI,FM,M1,7.025786398236304,%MAX
CTR,P02,INI,FM,M2,7.370098679117436,%MAX
CTR,P02,INI,FM,M3,6.372281907694295,%MAX
CTR,P02,REL,FM,M1,7.555107804199414,%MAX
CTR,P02,REL,FM,M2,6.359614915318516,%MAX
CTR,P02,REL,FM,M3,8.57669834105965,%MAX
CTR,P03,INI,FM,M1,16.758825076797898,%MAX
CTR,P03,INI,FM,M2,18.742531454767903,%MAX
CTR,P03,INI,FM,M3,19.74159526824042,%MAX
CTR,P03,REL,FM,M1,11.578661705040695,%MAX
CTR,P03,REL,FM,M2,9.223140516510318,%MAX
CTR,P03,REL,FM,M3,12.317932960397519,%MAX
CTR,P05,INI,FM,M1,11.081508447566799,%MAX
CTR,P05,INI,FM,M2,11.614403743611446,%MAX
CTR,P05,INI,FM,M3,13.18181727408583,%MAX
CTR,P05,REL,FM,M1,14.339529279540654,%MAX
CTR,P05,REL,FM,M2,15.191932074101427,%MAX
CTR,P05,REL,FM,M3,18.81089765675112,%MAX
CTR,P06,INI,FM,M1,39.84189386280986,%MAX
CTR,P06,INI,FM,M2,33.142942846996625,%MAX
CTR,P06,INI,FM,M3,36.891354061179776,%MAX
CTR,P06,REL,FM,M1,25.076428930683324,%MAX
CTR,P06,REL,FM,M2,26.24956034988831,%MAX
CTR,P06,REL,FM,M3,25.130907931534473,%MAX
CTR,P07,INI,FM,M1,28.285419805880174,%MAX
CTR,P07,INI,FM,M2,24.37406991705859,%MAX
CTR,P07,INI,FM,M3,22.993679268789545,%MAX
CTR,P07,REL,FM,M1,25.74480094811469,%MAX
CTR,P07,REL,FM,M2,21.407482901180224,%MAX
CTR,P07,REL,FM,M3,22.35324363074203,%MAX
CTR,P08,INI,FM,M1,10.321892270041193,%MAX
CTR,P08,INI,FM,M2,9.562902739014785,%MAX
CTR,P08,INI,FM,M3,9.71121114747675,%MAX
CTR,P08,REL,FM,M1,7.058538645948334,%MAX
CTR,P08,REL,FM,M2,19.615053672163565,%MAX
CTR,P08,REL,FM,M3,6.635742200825229,%MAX
CTR,P13,INI,FM,M1,17.927720789310865,%MAX
CTR,P13,INI,FM,M2,19.193580924389394,%MAX
CTR,P13,INI,FM,M3,16.596944441136994,%MAX
CTR,P13,REL,FM,M1,20.907837815857203,%MAX
CTR,P13,REL,FM,M2,17.1370462761795,%MAX
CTR,P13,REL,FM,M3,18.486560759352148,%MAX
CTR,P16,INI,FM,M1,46.423615955578605,%MAX
CTR,P16,INI,FM,M2,34.16290232329343,%MAX
CTR,P16,INI,FM,M3,60.21972845331573,%MAX
CTR,P16,REL,FM,M1,61.54560590917408,%MAX
CTR,P16,REL,FM,M2,56.458151572344015,%MAX
CTR,P16,REL,FM,M3,51.510921098036455,%MAX
CTR,P21,INI,FM,M1,180.99625567800186,%MAX
CTR,P21,INI,FM,M2,142.74079445097763,%MAX
CTR,P21,INI,FM,M3,202.61206244292805,%MAX
CTR,P21,REL,FM,M1,28.947114004550002,%MAX
CTR,P21,REL,FM,M2,29.26229231654297,%MAX
CTR,P21,REL,FM,M3,21.323679503308355,%MAX
CTR,P22,INI,FM,M1,31.48705934149385,%MAX
CTR,P22,INI,FM,M2,28.13941954973735,%MAX
CTR,P22,INI,FM,M3,32.81333675774539,%MAX
CTR,P22,REL,FM,M1,10.13445559635781,%MAX
CTR,P22,REL,FM,M2,10.123023535079875,%MAX
CTR,P22,REL,FM,M3,10.194357823221498,%MAX
CTR,P23,INI,FM,M1,54.08973646751847,%MAX
CTR,P23,INI,FM,M2,45.01737873169122,%MAX
CTR,P23,INI,FM,M3,42.023826453870576,%MAX
CTR,P23,REL,FM,M1,37.93461897432759,%MAX
CTR,P23,REL,FM,M2,85.84018207149637,%MAX
CTR,P23,REL,FM,M3,91.72892758119949,%MAX
CTR,P25,INI,FM,M1,28.41920335751783,%MAX
CTR,P25,INI,FM,M2,65.81839697165259,%MAX
CTR,P25,INI,FM,M3,67.4251041848564,%MAX
CTR,P25,REL,FM,M1,6.849874767504025,%MAX
CTR,P25,REL,FM,M2,49.08827870640291,%MAX
CTR,P25,REL,FM,M3,62.83876046646477,%MAX
CTR,P35,INI,FM,M1,23.613876323241286,%MAX
CTR,P35,INI,FM,M2,15.697874370433851,%MAX
CTR,P35,INI,FM,M3,35.32356019539892,%MAX
CTR,P35,REL,FM,M1,8.23298118564186,%MAX
CTR,P35,REL,FM,M2,13.553681637036822,%MAX
CTR,P35,REL,FM,M3,39.41162928074882,%MAX
CTR,P38,INI,FM,M1,17.009408206473207,%MAX
CTR,P38,INI,FM,M2,14.278387490095502,%MAX
CTR,P38,INI,FM,M3,16.42934158264201,%MAX
CTR,P38,REL,FM,M1,22.24167849849844,%MAX
CTR,P38,REL,FM,M2,20.69439564831973,%MAX
CTR,P38,REL,FM,M3,29.13305340093917,%MAX
CTR,P39,INI,FM,M1,16.64551788751938,%MAX
CTR,P39,INI,FM,M2,31.83454573199708,%MAX
CTR,P39,INI,FM,M3,55.426404683010674,%MAX
CTR,P39,REL,FM,M1,15.67888112880997,%MAX
CTR,P39,REL,FM,M2,18.54628740071198,%MAX
CTR,P39,REL,FM,M3,26.15701395162838,%MAX
CTR,P40,INI,FM,M1,6.202525298552126,%MAX
CTR,P40,INI,FM,M2,5.018504242622577,%MAX
CTR,P40,INI,FM,M3,30.47627471179855,%MAX
CTR,P40,REL,FM,M1,8.329522224776666,%MAX
CTR,P40,REL,FM,M2,9.472400480742609,%MAX
CTR,P40,REL,FM,M3,16.62636123712128,%MAX
CTR,P44,INI,FM,M1,14.449752355884929,%MAX
CTR,P44,INI,FM,M2,19.550460858272338,%MAX
CTR,P44,INI,FM,M3,51.30621957634958,%MAX
CTR,P44,REL,FM,M1,10.754968935831272,%MAX
CTR,P44,REL,FM,M2,11.96412582163184,%MAX
CTR,P44,REL,FM,M3,38.11868312701715,%MAX
CTR,P46,INI,FM,M1,15.78974976120565,%MAX
CTR,P46,INI,FM,M2,17.01210499554945,%MAX
CTR,P46,INI,FM,M3,18.241922004265582,%MAX
CTR,P46,REL,FM,M1,9.563113148612166,%MAX
CTR,P46,REL,FM,M2,14.597465524304141,%MAX
CTR,P46,REL,FM,M3,55.43227513828945,%MAX
CTR,P48,INI,FM,M1,16.069626650295618,%MAX
CTR,P48,INI,FM,M2,17.983229314707344,%MAX
CTR,P48,INI,FM,M3,72.30620141872208,%MAX
CTR,P48,REL,FM,M1,25.361514801734376,%MAX
CTR,P48,REL,FM,M2,17.55916349532757,%MAX
CTR,P48,REL,FM,M3,37.46759711894087,%MAX
CTR,P49,INI,FM,M1,12.709269606553997,%MAX
CTR,P49,INI,FM,M2,11.15579948438272,%MAX
CTR,P49,INI,FM,M3,54.060340281637366,%MAX
CTR,P49,REL,FM,M1,11.42545002602061,%MAX
CTR,P49,REL,FM,M2,18.2912356850993,%MAX
CTR,P49,REL,FM,M3,53.65592902985821,%MAX
CTR,P52,INI,FM,M1,35.99485586637405,%MAX
CTR,P52,INI,FM,M2,29.07358879259984,%MAX
CTR,P52,INI,FM,M3,21.054352677503314,%MAX
CTR,P52,REL,FM,M1,48.844816966912916,%MAX
CTR,P52,REL,FM,M2,34.19754817853246,%MAX
CTR,P52,REL,FM,M3,39.0681654732859,%MAX
CTR,P55,INI,FM,M1,62.13244191570641,%MAX
CTR,P55,INI,FM,M2,84.97514099875966,%MAX
CTR,P55,INI,FM,M3,66.39039943187825,%MAX
CTR,P55,REL,FM,M1,45.27980707396136,%MAX
CTR,P55,REL,FM,M2,53.19522303859439,%MAX
CTR,P55,REL,FM,M3,69.62849553308511,%MAX
CTR,P56,INI,FM,M1,35.18273084551282,%MAX
CTR,P56,INI,FM,M2,45.37172368100123,%MAX
CTR,P56,INI,FM,M3,38.58976312086825,%MAX
CTR,P56,REL,FM,M1,27.853371638329747,%MAX
CTR,P56,REL,FM,M2,15.924966263922103,%MAX
CTR,P56,REL,FM,M3,21.740509251334277,%MAX
CTR,P57,INI,FM,M1,28.261885559579646,%MAX
CTR,P57,INI,FM,M2,15.049691342657749,%MAX
CTR,P57,INI,FM,M3,19.011289614898324,%MAX
CTR,P57,REL,FM,M1,14.264593563113086,%MAX
CTR,P57,REL,FM,M2,42.70739408152054,%MAX
CTR,P57,REL,FM,M3,62.59639596798442,%MAX
CTR,P60,INI,FM,M1,50.23086179122945,%MAX
CTR,P60,INI,FM,M2,57.69976366128145,%MAX
CTR,P60,INI,FM,M3,37.00504760411391,%MAX
CTR,P60,REL,FM,M1,15.427174918534883,%MAX
CTR,P60,REL,FM,M2,48.32684063966355,%MAX
CTR,P60,REL,FM,M3,50.08039396832041,%MAX
CTR,P64,INI,FM,M1,38.81854052351343,%MAX
CTR,P64,INI,FM,M2,34.766353602099656,%MAX
CTR,P64,INI,FM,M3,40.095910473562554,%MAX
CTR,P64,REL,FM,M1,25.60999407255788,%MAX
CTR,P64,REL,FM,M2,21.527204828635497,%MAX
CTR,P64,REL,FM,M3,20.429997380571553,%MAX
CTR,P66,INI,FM,M1,25.802306434961032,%MAX
CTR,P66,INI,FM,M2,44.22798982495454,%MAX
CTR,P66,INI,FM,M3,51.02793115702845,%MAX
CTR,P66,REL,FM,M1,22.395910335147487,%MAX
CTR,P66,REL,FM,M2,8.924528112851924,%MAX
CTR,P66,REL,FM,M3,3.1994387635036916,%MAX
CTR,P67,INI,FM,M1,63.001554979617794,%MAX
CTR,P67,INI,FM,M2,92.00786058240021,%MAX
CTR,P67,INI,FM,M3,69.18326469061562,%MAX
CTR,P67,REL,FM,M1,42.435146329284464,%MAX
CTR,P67,REL,FM,M2,48.28247282614957,%MAX
CTR,P67,REL,FM,M3,56.06333070860106,%MAX
CTR,P68,INI,FM,M1,3.3765230032140767,%MAX
CTR,P68,INI,FM,M2,74.91367600473654,%MAX
CTR,P68,INI,FM,M3,96.12392321426624,%MAX
CTR,P68,REL,FM,M1,41.21262541279588,%MAX
CTR,P68,REL,FM,M2,34.31675244796649,%MAX
CTR,P68,REL,FM,M3,45.30515261180753,%MAX
