Group,Participant,Session,Operator,Measure,Value,Unit
CTR,P01,INI,FM,M1,40.28852328511187,%MAX
CTR,P01,INI,FM,M2,65.50706383755197,%MAX
CTR,P01,INI,FM,M3,68.77167902339109,%MAX
CTR,P01,REL,FM,M1,15.121641195664417,%MAX
CTR,P01,REL,FM,M2,7.913099741122925,%MAX
CTR,P01,REL,FM,M3,3.0633203081391365,%MAX
CTR,P02,INI,FM,M1,8.984684826994782,%MAX
CTR,P02,INI,FM,M2,10.994064233285185,%MAX
CTR,P02,INI,FM,M3,9.173449470643396,%MAX
CTR,P02,REL,FM,M1,11.02834367453752,%MAX
CTR,P02,REL,FM,M2,11.003337309985033,%MAX
CTR,P02,REL,FM,M3,11.09072029560133,%MAX
CTR,P03,INI,FM,M1,24.735988006057358,%MAX
CTR,P03,INI,FM,M2,25.394197143887492,%MAX
CTR,P03,INI,FM,M3,28.167486402188658,%MAX
CTR,P03,REL,FM,M1,26.609794474679898,%MAX
CTR,P03,REL,FM,M2,23.166972430243877,%MAX
CTR,P03,REL,FM,M3,32.73207445991691,%MAX
CTR,P05,INI,FM,M1,17.099509624460612,%MAX
CTR,P05,INI,FM,M2,15.972448586026024,%MAX
CTR,P05,INI,FM,M3,18.049067166858936,%MAX
CTR,P05,REL,FM,M1,13.512935006778584,%MAX
CTR,P05,REL,FM,M2,12.365645105604496,%MAX
CTR,P05,REL,FM,M3,14.382023048201644,%MAX
CTR,P06,INI,FM,M1,35.81735720491524,%MAX
CTR,P06,INI,FM,M2,28.485372237543743,%MAX
CTR,P06,INI,FM,M3,30.652815780801582,%MAX
CTR,P06,REL,FM,M1,25.274513662388763,%MAX
CTR,P06,REL,FM,M2,27.39642050384662,%MAX
CTR,P06,REL,FM,M3,25.497411316030654,%MAX
CTR,P07,INI,FM,M1,21.4646525710132,%MAX
CTR,P07,INI,FM,M2,24.231783965132042,%MAX
CTR,P07,INI,FM,M3,22.698467213610293,%MAX
CTR,P07,REL,FM,M1,21.800469960525763,%MAX
CTR,P07,REL,FM,M2,24.039029504360563,%MAX
CTR,P07,REL,FM,M3,23.162718282021192,%MAX
CTR,P08,INI,FM,M1,11.087456174945016,%MAX
CTR,P08,INI,FM,M2,11.628527971219295,%MAX
CTR,P08,INI,FM,M3,10.889294218713689,%MAX
CTR,P08,REL,FM,M1,12.104019435458188,%MAX
CTR,P08,REL,FM,M2,20.627549149858634,%MAX
CTR,P08,REL,FM,M3,11.231096374151388,%MAX
CTR,P13,INI,FM,M1,22.874898573162742,%MAX
CTR,P13,INI,FM,M2,23.416269117069174,%MAX
CTR,P13,INI,FM,M3,26.794053869379955,%MAX
CTR,P13,REL,FM,M1,24.823542781319194,%MAX
CTR,P13,REL,FM,M2,23.52920413179441,%MAX
CTR,P13,REL,FM,M3,27.88682124988175,%MAX
CTR,P16,INI,FM,M1,25.798469640865477,%MAX
CTR,P16,INI,FM,M2,23.430244912551558,%MAX
CTR,P16,INI,FM,M3,20.838257105953016,%MAX
CTR,P16,REL,FM,M1,62.53452566627945,%MAX
CTR,P16,REL,FM,M2,63.15073906313945,%MAX
CTR,P16,REL,FM,M3,55.81678258253152,%MAX
CTR,P21,INI,FM,M1,69.0194352398425,%MAX
CTR,P21,INI,FM,M2,57.62712514720203,%MAX
CTR,P21,INI,FM,M3,55.403077801483,%MAX
CTR,P21,REL,FM,M1,6.594175251619976,%MAX
CTR,P21,REL,FM,M2,11.60387742802589,%MAX
CTR,P21,REL,FM,M3,12.996030469671155,%MAX
CTR,P22,INI,FM,M1,54.99151430424784,%MAX
CTR,P22,INI,FM,M2,44.70924687344697,%MAX
CTR,P22,INI,FM,M3,52.21149940421808,%MAX
CTR,P22,REL,FM,M1,22.417066050627934,%MAX
CTR,P22,REL,FM,M2,15.629452860985232,%MAX
CTR,P22,REL,FM,M3,25.837751180479962,%MAX
CTR,P23,INI,FM,M1,54.240112734412506,%MAX
CTR,P23,INI,FM,M2,46.800710581127156,%MAX
CTR,P23,INI,FM,M3,41.107373826195,%MAX
CTR,P23,REL,FM,M1,40.54995104819284,%MAX
CTR,P23,REL,FM,M2,92.37484205599497,%MAX
CTR,P23,REL,FM,M3,103.5133050345449,%MAX
CTR,P25,INI,FM,M1,29.844708811864507,%MAX
CTR,P25,INI,FM,M2,60.6196718831913,%MAX
CTR,P25,INI,FM,M3,57.251105347229256,%MAX
CTR,P25,REL,FM,M1,12.15798917717046,%MAX
CTR,P25,REL,FM,M2,39.28255319076105,%MAX
CTR,P25,REL,FM,M3,48.13952733741517,%MAX
CTR,P35,INI,FM,M1,32.940218090906484,%MAX
CTR,P35,INI,FM,M2,17.61718008141709,%MAX
CTR,P35,INI,FM,M3,42.72715435475371,%MAX
CTR,P35,REL,FM,M1,11.97326406429348,%MAX
CTR,P35,REL,FM,M2,15.442448206336627,%MAX
CTR,P35,REL,FM,M3,41.47692568278549,%MAX
CTR,P38,INI,FM,M1,17.48222434905529,%MAX
CTR,P38,INI,FM,M2,14.463796095159353,%MAX
CTR,P38,INI,FM,M3,17.505780415932815,%MAX
CTR,P38,REL,FM,M1,25.182657369967774,%MAX
CTR,P38,REL,FM,M2,22.418698399870447,%MAX
CTR,P38,REL,FM,M3,31.420791917611496,%MAX
CTR,P39,INI,FM,M1,14.091467303505581,%MAX
CTR,P39,INI,FM,M2,21.145224797266604,%MAX
CTR,P39,INI,FM,M3,60.80606284857575,%MAX
CTR,P39,REL,FM,M1,18.25930746277895,%MAX
CTR,P39,REL,FM,M2,21.041455093750603,%MAX
CTR,P39,REL,FM,M3,24.885786127460605,%MAX
CTR,P40,INI,FM,M1,14.099524549415312,%MAX
CTR,P40,INI,FM,M2,14.46594519463906,%MAX
CTR,P40,INI,FM,M3,61.826608606531956,%MAX
CTR,P40,REL,FM,M1,14.320228255545105,%MAX
CTR,P40,REL,FM,M2,15.564770007240947,%MAX
CTR,P40,REL,FM,M3,34.336432458047256,%MAX
CTR,P44,INI,FM,M1,14.758548628195815,%MAX
CTR,P44,INI,FM,M2,18.26230756576171,%MAX
CTR,P44,INI,FM,M3,77.80683433152622,%MAX
CTR,P44,REL,FM,M1,13.045357473359962,%MAX
CTR,P44,REL,FM,M2,15.443729745249316,%MAX
CTR,P44,REL,FM,M3,34.19185060721535,%MAX
CTR,P46,INI,FM,M1,14.610122802068355,%MAX
CTR,P46,INI,FM,M2,13.459430723138102,%MAX
CTR,P46,INI,FM,M3,14.734764250692033,%MAX
CTR,P46,REL,FM,M1,11.90124506353723,%MAX
CTR,P46,REL,FM,M2,12.820599907641515,%MAX
CTR,P46,REL,FM,M3,45.8011880799834,%MAX
CTR,P48,INI,FM,M1,20.118390471617587,%MAX
CTR,P48,INI,FM,M2,20.22557199388628,%MAX
CTR,P48,INI,FM,M3,54.319863992378416,%MAX
CTR,P48,REL,FM,M1,27.472443907525136,%MAX
CTR,P48,REL,FM,M2,23.419211486264775,%MAX
CTR,P48,REL,FM,M3,40.17761049681525,%MAX
CTR,P49,INI,FM,M1,12.71844694398547,%MAX
CTR,P49,INI,FM,M2,9.739413132808389,%MAX
CTR,P49,INI,FM,M3,65.97181260118528,%MAX
CTR,P49,REL,FM,M1,11.466564264386559,%MAX
CTR,P49,REL,FM,M2,21.7255518715045,%MAX
CTR,P49,REL,FM,M3,76.97408749535451,%MAX
CTR,P52,INI,FM,M1,63.97196248423365,%MAX
CTR,P52,INI,FM,M2,53.183840105648265,%MAX
CTR,P52,INI,FM,M3,46.7927629835197,%MAX
CTR,P52,REL,FM,M1,65.3353800250458,%MAX
CTR,P52,REL,FM,M2,47.52574810790676,%MAX
CTR,P52,REL,FM,M3,52.91856766901718,%MAX
CTR,P55,INI,FM,M1,54.76268955317091,%MAX
CTR,P55,INI,FM,M2,88.92900671183335,%MAX
CTR,P55,INI,FM,M3,84.72122437684145,%MAX
CTR,P55,REL,FM,M1,50.40509195543415,%MAX
CTR,P55,REL,FM,M2,57.60137992086685,%MAX
CTR,P55,REL,FM,M3,95.0336465532134,%MAX
CTR,P56,INI,FM,M1,51.03801732648587,%MAX
CTR,P56,INI,FM,M2,52.02198352112123,%MAX
CTR,P56,INI,FM,M3,46.04419321196715,%MAX
CTR,P56,REL,FM,M1,36.817597166771414,%MAX
CTR,P56,REL,FM,M2,26.671665317371975,%MAX
CTR,P56,REL,FM,M3,31.429335652050398,%MAX
CTR,P57,INI,FM,M1,14.465971001645308,%MAX
CTR,P57,INI,FM,M2,9.271753157736615,%MAX
CTR,P57,INI,FM,M3,16.536368149408396,%MAX
CTR,P57,REL,FM,M1,18.068703176807183,%MAX
CTR,P57,REL,FM,M2,42.885315200523344,%MAX
CTR,P57,REL,FM,M3,35.20721304810793,%MAX
CTR,P60,INI,FM,M1,44.151809387380446,%MAX
CTR,P60,INI,FM,M2,52.01560933179494,%MAX
CTR,P60,INI,FM,M3,43.71512397292361,%MAX
CTR,P60,REL,FM,M1,21.849920544574093,%MAX
CTR,P60,REL,FM,M2,37.11588711406185,%MAX
CTR,P60,REL,FM,M3,65.79874066743922,%MAX
CTR,P64,INI,FM,M1,53.040380367296464,%MAX
CTR,P64,INI,FM,M2,64.78365552258367,%MAX
CTR,P64,INI,FM,M3,99.05894885126585,%MAX
CTR,P64,REL,FM,M1,44.42947728862858,%MAX
CTR,P64,REL,FM,M2,78.42809321027586,%MAX
CTR,P64,REL,FM,M3,35.77231119873047,%MAX
CTR,P66,INI,FM,M1,30.680329984401233,%MAX
CTR,P66,INI,FM,M2,47.58836095990564,%MAX
CTR,P66,INI,FM,M3,55.147708540662485,%MAX
CTR,P66,REL,FM,M1,28.151033632689447,%MAX
CTR,P66,REL,FM,M2,23.88740211262322,%MAX
CTR,P66,REL,FM,M3,31.839157821315847,%MAX
CTR,P67,INI,FM,M1,46.93074566516719,%MAX
CTR,P67,INI,FM,M2,68.14121248726771,%MAX
CTR,P67,INI,FM,M3,74.39894410728864,%MAX
CTR,P67,REL,FM,M1,57.59127735855863,%MAX
CTR,P67,REL,FM,M2,51.030942887239306,%MAX
CTR,P67,REL,FM,M3,61.41279552158022,%MAX
CTR,P68,INI,FM,M1,6.893686723042722,%MAX
CTR,P68,INI,FM,M2,77.52856346839589,%MAX
CTR,P68,INI,FM,M3,114.10521529230873,%MAX
CTR,P68,REL,FM,M1,75.84655897047323,%MAX
CTR,P68,REL,FM,M2,54.533433773276755,%MAX
CTR,P68,REL,FM,M3,40.90440972079327,%MAX
