Group,Participant,Session,Operator,Measure,Value,Unit
CTR,P01,INI,FM,M1,1.6684999999999999,s
CTR,P01,INI,FM,M2,1.1555,s
CTR,P01,INI,FM,M3,5.939,s
CTR,P01,REL,FM,M1,1.1263333333333334,s
CTR,P01,REL,FM,M2,1.1746666666666667,s
CTR,P01,REL,FM,M3,1.2096666666666667,s
CTR,P02,INI,FM,M1,1.0536666666666668,s
CTR,P02,INI,FM,M2,0.9193333333333333,s
CTR,P02,INI,FM,M3,1.6079999999999999,s
CTR,P02,REL,FM,M1,0.7966666666666667,s
CTR,P02,REL,FM,M2,0.8630000000000001,s
CTR,P02,REL,FM,M3,2.409333333333333,s
CTR,P03,INI,FM,M1,0.6603333333333333,s
CTR,P03,INI,FM,M2,0.5103333333333333,s
CTR,P03,INI,FM,M3,0.743,s
CTR,P03,REL,FM,M1,0.6796666666666665,s
CTR,P03,REL,FM,M2,0.6836666666666668,s
CTR,P03,REL,FM,M3,0.8523333333333333,s
CTR,P05,INI,FM,M1,2.7115,s
CTR,P05,INI,FM,M2,3.043,s
CTR,P05,INI,FM,M3,1.4365,s
CTR,P05,REL,FM,M1,5.664,s
CTR,P05,REL,FM,M2,9.282,s
CTR,P05,REL,FM,M3,,s
CTR,P06,INI,FM,M1,0.278,s
CTR,P06,INI,FM,M2,0.293,s
CTR,P06,INI,FM,M3,0.5345,s
CTR,P06,REL,FM,M1,0.248,s
CTR,P06,REL,FM,M2,0.376,s
CTR,P06,REL,FM,M3,0.497,s
CTR,P07,INI,FM,M1,2.732666666666667,s
CTR,P07,INI,FM,M2,2.7976666666666663,s
CTR,P07,INI,FM,M3,1.643,s
CTR,P07,REL,FM,M1,1.178,s
CTR,P07,REL,FM,M2,12.248,s
CTR,P07,REL,FM,M3,0.573,s
CTR,P08,INI,FM,M1,0.457,s
CTR,P08,INI,FM,M2,0.6636666666666666,s
CTR,P08,INI,FM,M3,0.5343333333333334,s
CTR,P08,REL,FM,M1,0.7493333333333333,s
CTR,P08,REL,FM,M2,0.6796666666666668,s
CTR,P08,REL,FM,M3,0.5476666666666666,s
CTR,P13,INI,FM,M1,0.36166666666666664,s
CTR,P13,INI,FM,M2,0.329,s
CTR,P13,INI,FM,M3,0.2786666666666667,s
CTR,P13,REL,FM,M1,0.38199999999999995,s
CTR,P13,REL,FM,M2,0.4936666666666667,s
CTR,P13,REL,FM,M3,0.4196666666666667,s
CTR,P16,INI,FM,M1,1.186,s
CTR,P16,INI,FM,M2,0.8529999999999999,s
CTR,P16,INI,FM,M3,0.7563333333333334,s
CTR,P16,REL,FM,M1,1.1293333333333333,s
CTR,P16,REL,FM,M2,0.8413333333333334,s
CTR,P16,REL,FM,M3,0.6043333333333333,s
CTR,P21,INI,FM,M1,0.36733333333333335,s
CTR,P21,INI,FM,M2,0.45599999999999996,s
CTR,P21,INI,FM,M3,0.4263333333333333,s
CTR,P21,REL,FM,M1,1.0146666666666666,s
CTR,P21,REL,FM,M2,0.871,s
CTR,P21,REL,FM,M3,0.5796666666666667,s
CTR,P22,INI,FM,M1,0.514,s
CTR,P22,INI,FM,M2,0.505,s
CTR,P22,INI,FM,M3,2.6636666666666664,s
CTR,P22,REL,FM,M1,0.162,s
CTR,P22,REL,FM,M2,0.158,s
CTR,P22,REL,FM,M3,0.2205,s
CTR,P23,INI,FM,M1,0.2945,s
CTR,P23,INI,FM,M2,0.239,s
CTR,P23,INI,FM,M3,0.299,s
CTR,P23,REL,FM,M1,0.316,s
CTR,P23,REL,FM,M2,0.167,s
CTR,P23,REL,FM,M3,0.391,s
CTR,P25,INI,FM,M1,1.0753333333333333,s
CTR,P25,INI,FM,M2,1.064,s
CTR,P25,INI,FM,M3,0.8826666666666667,s
CTR,P25,REL,FM,M1,0.5523333333333333,s
CTR,P25,REL,FM,M2,0.5793333333333334,s
CTR,P25,REL,FM,M3,0.6066666666666667,s
CTR,P35,INI,FM,M1,1.05,s
CTR,P35,INI,FM,M2,0.8213333333333334,s
CTR,P35,INI,FM,M3,0.9546666666666667,s
CTR,P35,REL,FM,M1,0.7399999999999999,s
CTR,P35,REL,FM,M2,0.6873333333333335,s
CTR,P35,REL,FM,M3,0.664,s
CTR,P38,INI,FM,M1,0.6843333333333333,s
CTR,P38,INI,FM,M2,0.6859999999999999,s
CTR,P38,INI,FM,M3,0.6796666666666665,s
CTR,P38,REL,FM,M1,0.5153333333333333,s
CTR,P38,REL,FM,M2,0.5660000000000001,s
CTR,P38,REL,FM,M3,0.5650000000000001,s
CTR,P40,INI,FM,M1,0.25,s
CTR,P40,INI,FM,M2,0.24666666666666667,s
CTR,P40,INI,FM,M3,0.3356666666666667,s
CTR,P40,REL,FM,M1,0.4293333333333333,s
CTR,P40,REL,FM,M2,0.26766666666666666,s
CTR,P40,REL,FM,M3,0.5066666666666667,s
CTR,P44,INI,FM,M1,0.35566666666666674,s
CTR,P44,INI,FM,M2,0.4643333333333333,s
CTR,P44,INI,FM,M3,0.737,s
CTR,P44,REL,FM,M1,0.49300000000000005,s
CTR,P44,REL,FM,M2,0.381,s
CTR,P44,REL,FM,M3,0.3173333333333333,s
CTR,P46,INI,FM,M1,0.644,s
CTR,P46,INI,FM,M2,0.5453333333333333,s
CTR,P46,INI,FM,M3,0.8263333333333334,s
CTR,P46,REL,FM,M1,0.442,s
CTR,P46,REL,FM,M2,0.52,s
CTR,P46,REL,FM,M3,0.215,s
CTR,P48,REL,FM,M1,0.9816666666666666,s
CTR,P48,REL,FM,M2,1.3950000000000002,s
CTR,P48,REL,FM,M3,1.1163333333333334,s
CTR,P49,INI,FM,M1,0.5675,s
CTR,P49,INI,FM,M2,1.213,s
CTR,P49,INI,FM,M3,1.9315,s
CTR,P49,REL,FM,M1,0.7370000000000001,s
CTR,P49,REL,FM,M2,1.3367499999999999,s
CTR,P49,REL,FM,M3,3.17575,s
CTR,P52,INI,FM,M1,1.5397500000000002,s
CTR,P52,INI,FM,M2,0.98125,s
CTR,P52,INI,FM,M3,1.069,s
CTR,P52,REL,FM,M1,0.8870000000000001,s
CTR,P52,REL,FM,M2,0.8326,s
CTR,P52,REL,FM,M3,1.046,s
CTR,P55,INI,FM,M1,0.6483333333333333,s
CTR,P55,INI,FM,M2,0.7370000000000001,s
CTR,P55,INI,FM,M3,0.7936666666666667,s
CTR,P55,REL,FM,M1,0.8454999999999999,s
CTR,P55,REL,FM,M2,0.5830000000000001,s
CTR,P55,REL,FM,M3,1.639,s
CTR,P56,INI,FM,M1,0.9483333333333334,s
CTR,P56,INI,FM,M2,0.9010000000000001,s
CTR,P56,INI,FM,M3,0.8036666666666666,s
CTR,P56,REL,FM,M1,1.3425,s
CTR,P56,REL,FM,M2,1.60575,s
CTR,P56,REL,FM,M3,0.6515000000000001,s
CTR,P57,INI,FM,M1,0.226,s
CTR,P57,INI,FM,M2,0.174,s
CTR,P57,INI,FM,M3,0.156,s
CTR,P57,REL,FM,M1,1.4316666666666666,s
CTR,P57,REL,FM,M2,1.5030000000000001,s
CTR,P57,REL,FM,M3,1.9456666666666667,s
CTR,P60,INI,FM,M1,0.638,s
CTR,P60,INI,FM,M2,0.305,s
CTR,P60,INI,FM,M3,,s
CTR,P60,REL,FM,M1,0.8249999999999998,s
CTR,P60,REL,FM,M2,0.7373333333333334,s
CTR,P60,REL,FM,M3,0.8366666666666666,s
CTR,P64,INI,FM,M1,0.657,s
CTR,P64,INI,FM,M2,0.5115,s
CTR,P64,INI,FM,M3,0.5640000000000001,s
CTR,P64,REL,FM,M1,,s
CTR,P64,REL,FM,M2,,s
CTR,P64,REL,FM,M3,,s
CTR,P66,INI,FM,M1,0.46025000000000005,s
CTR,P66,INI,FM,M2,0.85975,s
CTR,P66,INI,FM,M3,0.5489999999999999,s
CTR,P66,REL,FM,M1,0.6333333333333333,s
CTR,P66,REL,FM,M2,0.6676666666666667,s
CTR,P66,REL,FM,M3,0.6856666666666666,s
CTR,P67,INI,FM,M1,0.752,s
CTR,P67,INI,FM,M2,1.4655,s
CTR,P67,INI,FM,M3,6.9355,s
CTR,P67,REL,FM,M1,0.455,s
CTR,P67,REL,FM,M2,0.5686666666666667,s
CTR,P67,REL,FM,M3,5.813,s
CTR,P68,INI,FM,M1,0.5775714285714286,s
CTR,P68,INI,FM,M2,0.7508571428571429,s
CTR,P68,INI,FM,M3,0.519,s
CTR,P68,REL,FM,M1,0.5043333333333334,s
CTR,P68,REL,FM,M2,0.5565,s
CTR,P68,REL,FM,M3,0.7196666666666666,s
