Group,Participant,Session,Operator,Measure,Value,Unit
CTR,P01,INI,FM,M1,96.07670119837572,Hz
CTR,P01,INI,FM,M2,94.82868525084702,Hz
CTR,P01,INI,FM,M3,83.53140657208692,Hz
CTR,P01,REL,FM,M1,92.00466934992218,Hz
CTR,P01,REL,FM,M2,77.01949361331552,Hz
CTR,P01,REL,FM,M3,72.71432429609145,Hz
CTR,P02,INI,FM,M1,112.6971333119817,Hz
CTR,P02,INI,FM,M2,120.63009577918992,Hz
CTR,P02,INI,FM,M3,120.01752151523614,Hz
CTR,P02,REL,FM,M1,78.3714624946339,Hz
CTR,P02,REL,FM,M2,103.7486622924458,Hz
CTR,P02,REL,FM,M3,118.13291353283836,Hz
CTR,P03,INI,FM,M1,120.83388564164436,Hz
CTR,P03,INI,FM,M2,125.27488183173064,Hz
CTR,P03,INI,FM,M3,127.07047581316134,Hz
CTR,P03,REL,FM,M1,100.66875664136076,Hz
CTR,P03,REL,FM,M2,119.9306366846744,Hz
CTR,P03,REL,FM,M3,107.84306988927015,Hz
CTR,P05,INI,FM,M1,102.12920132465948,Hz
CTR,P05,INI,FM,M2,99.0552790008902,Hz
CTR,P05,INI,FM,M3,105.8166201532631,Hz
CTR,P05,REL,FM,M1,29.39778541114775,Hz
CTR,P05,REL,FM,M2,99.98538295892897,Hz
CTR,P05,REL,FM,M3,98.93625639940794,Hz
CTR,P06,INI,FM,M1,171.29965277012747,Hz
CTR,P06,INI,FM,M2,178.6448394378174,Hz
CTR,P06,INI,FM,M3,177.84625275390215,Hz
CTR,P06,REL,FM,M1,78.4282591570834,Hz
CTR,P06,REL,FM,M2,64.08273278114834,Hz
CTR,P06,REL,FM,M3,76.57284039395377,Hz
CTR,P07,INI,FM,M1,51.75787341732817,Hz
CTR,P07,INI,FM,M2,54.81976533629427,Hz
CTR,P07,INI,FM,M3,57.81753608150761,Hz
CTR,P07,REL,FM,M1,44.79404629574687,Hz
CTR,P07,REL,FM,M2,90.68333690813454,Hz
CTR,P07,REL,FM,M3,101.28927354691167,Hz
CTR,P08,INI,FM,M1,89.63146799041448,Hz
CTR,P08,INI,FM,M2,87.3443260769179,Hz
CTR,P08,INI,FM,M3,102.12097076679024,Hz
CTR,P08,REL,FM,M1,106.86087705080264,Hz
CTR,P08,REL,FM,M2,107.11198412081498,Hz
CTR,P08,REL,FM,M3,106.78642128881636,Hz
CTR,P13,INI,FM,M1,80.59281684786858,Hz
CTR,P13,INI,FM,M2,83.56297176074348,Hz
CTR,P13,INI,FM,M3,89.71071374958979,Hz
CTR,P13,REL,FM,M1,118.48268265098544,Hz
CTR,P13,REL,FM,M2,118.23070433929576,Hz
CTR,P13,REL,FM,M3,119.39139489590532,Hz
CTR,P16,INI,FM,M1,35.11650787987497,Hz
CTR,P16,INI,FM,M2,114.93886170387935,Hz
CTR,P16,INI,FM,M3,100.65433804196796,Hz
CTR,P16,REL,FM,M1,68.16024662013915,Hz
CTR,P16,REL,FM,M2,59.33503688098612,Hz
CTR,P16,REL,FM,M3,63.20901217765902,Hz
CTR,P21,INI,FM,M1,83.23641222352893,Hz
CTR,P21,INI,FM,M2,87.12177202646265,Hz
CTR,P21,INI,FM,M3,87.03025172925076,Hz
CTR,P21,REL,FM,M1,75.71436272595648,Hz
CTR,P21,REL,FM,M2,72.82189674890942,Hz
CTR,P21,REL,FM,M3,71.64803801102745,Hz
CTR,P22,INI,FM,M1,125.58653593701878,Hz
CTR,P22,INI,FM,M2,123.64468137294068,Hz
CTR,P22,INI,FM,M3,122.5085008584985,Hz
CTR,P22,REL,FM,M1,146.62643470878683,Hz
CTR,P22,REL,FM,M2,146.17327003659605,Hz
CTR,P22,REL,FM,M3,141.41917663401094,Hz
CTR,P23,INI,FM,M1,92.9300992283925,Hz
CTR,P23,INI,FM,M2,95.29737894889492,Hz
CTR,P23,INI,FM,M3,90.40754115871312,Hz
CTR,P23,REL,FM,M1,86.18821687479856,Hz
CTR,P23,REL,FM,M2,89.48476334797454,Hz
CTR,P23,REL,FM,M3,79.68756658437688,Hz
CTR,P25,INI,FM,M1,38.825587162175616,Hz
CTR,P25,INI,FM,M2,28.303488291992338,Hz
CTR,P25,INI,FM,M3,34.39239505819079,Hz
CTR,P25,REL,FM,M1,46.22545030887933,Hz
CTR,P25,REL,FM,M2,48.46933650667764,Hz
CTR,P25,REL,FM,M3,51.42552172319078,Hz
CTR,P35,INI,FM,M1,88.37028600561834,Hz
CTR,P35,INI,FM,M2,82.55246588582416,Hz
CTR,P35,INI,FM,M3,111.80599736669326,Hz
CTR,P35,REL,FM,M1,81.49151242137417,Hz
CTR,P35,REL,FM,M2,85.18328661409127,Hz
CTR,P35,REL,FM,M3,107.45347210397568,Hz
CTR,P38,INI,FM,M1,80.7762817217692,Hz
CTR,P38,INI,FM,M2,57.3036539911224,Hz
CTR,P38,INI,FM,M3,51.54445081348487,Hz
CTR,P38,REL,FM,M1,103.81007149816276,Hz
CTR,P38,REL,FM,M2,105.47758119847344,Hz
CTR,P38,REL,FM,M3,107.55729539880824,Hz
CTR,P39,INI,FM,M1,32.89891158865265,Hz
CTR,P39,INI,FM,M2,41.93398142671068,Hz
CTR,P39,INI,FM,M3,38.44383780274328,Hz
CTR,P39,REL,FM,M1,66.4460504266828,Hz
CTR,P39,REL,FM,M2,38.83438157411501,Hz
CTR,P39,REL,FM,M3,57.2428058563206,Hz
CTR,P40,INI,FM,M1,59.840237755797126,Hz
CTR,P40,INI,FM,M2,53.94102035010043,Hz
CTR,P40,INI,FM,M3,77.97628809360299,Hz
CTR,P40,REL,FM,M1,80.19026928480592,Hz
CTR,P40,REL,FM,M2,96.0241821807288,Hz
CTR,P40,REL,FM,M3,99.68072198173972,Hz
CTR,P44,INI,FM,M1,144.0134580738668,Hz
CTR,P44,INI,FM,M2,139.32815487005823,Hz
CTR,P44,INI,FM,M3,114.70628663120476,Hz
CTR,P44,REL,FM,M1,105.04254967834407,Hz
CTR,P44,REL,FM,M2,103.1537401604381,Hz
CTR,P44,REL,FM,M3,146.1578295686944,Hz
CTR,P46,INI,FM,M1,153.2626936210329,Hz
CTR,P46,INI,FM,M2,136.54201673999563,Hz
CTR,P46,INI,FM,M3,139.97502988252396,Hz
CTR,P46,REL,FM,M1,43.774405165468266,Hz
CTR,P46,REL,FM,M2,48.63199044101573,Hz
CTR,P46,REL,FM,M3,35.27059477784828,Hz
CTR,P48,INI,FM,M1,114.10001173621812,Hz
CTR,P48,INI,FM,M2,112.43532787449416,Hz
CTR,P48,INI,FM,M3,109.89922137458748,Hz
CTR,P48,REL,FM,M1,111.7263642901454,Hz
CTR,P48,REL,FM,M2,113.2720895459554,Hz
CTR,P48,REL,FM,M3,110.53972272237527,Hz
CTR,P49,INI,FM,M1,34.24747821416903,Hz
CTR,P49,INI,FM,M2,38.765154260597015,Hz
CTR,P49,INI,FM,M3,44.54915235198455,Hz
CTR,P49,REL,FM,M1,37.93188234453601,Hz
CTR,P49,REL,FM,M2,37.80594485410451,Hz
CTR,P49,REL,FM,M3,52.70679730736802,Hz
CTR,P52,INI,FM,M1,131.81307027385648,Hz
CTR,P52,INI,FM,M2,130.45723013025133,Hz
CTR,P52,INI,FM,M3,126.54939631060934,Hz
CTR,P52,REL,FM,M1,108.6242561170916,Hz
CTR,P52,REL,FM,M2,118.30802141521916,Hz
CTR,P52,REL,FM,M3,110.4932690392072,Hz
CTR,P55,INI,FM,M1,120.856271546211,Hz
CTR,P55,INI,FM,M2,98.15398178056302,Hz
CTR,P55,INI,FM,M3,103.48311284010838,Hz
CTR,P55,REL,FM,M1,48.97645594286131,Hz
CTR,P55,REL,FM,M2,54.37227703364241,Hz
CTR,P55,REL,FM,M3,45.1688123265566,Hz
CTR,P56,INI,FM,M1,76.20433201430001,Hz
CTR,P56,INI,FM,M2,92.33911455162112,Hz
CTR,P56,INI,FM,M3,95.58612709286204,Hz
CTR,P56,REL,FM,M1,96.38553970833986,Hz
CTR,P56,REL,FM,M2,95.88596511872996,Hz
CTR,P56,REL,FM,M3,98.63277335855064,Hz
CTR,P57,INI,FM,M1,51.323244268211525,Hz
CTR,P57,INI,FM,M2,77.57503751751956,Hz
CTR,P57,INI,FM,M3,86.74134814002791,Hz
CTR,P57,REL,FM,M1,121.18082148165088,Hz
CTR,P57,REL,FM,M2,124.36252023906228,Hz
CTR,P57,REL,FM,M3,127.30646782518494,Hz
CTR,P60,INI,FM,M1,71.59769297393198,Hz
CTR,P60,INI,FM,M2,56.79775426736025,Hz
CTR,P60,INI,FM,M3,44.60598147814461,Hz
CTR,P60,REL,FM,M1,70.00059803361411,Hz
CTR,P60,REL,FM,M2,75.05626881293458,Hz
CTR,P60,REL,FM,M3,76.4421504464096,Hz
CTR,P64,INI,FM,M1,73.48549896492219,Hz
CTR,P64,INI,FM,M2,76.52915484546556,Hz
CTR,P64,INI,FM,M3,78.14861842913115,Hz
CTR,P64,REL,FM,M1,69.00116891672324,Hz
CTR,P64,REL,FM,M2,70.35543334144481,Hz
CTR,P64,REL,FM,M3,75.33757098389025,Hz
CTR,P66,INI,FM,M1,78.08887688421272,Hz
CTR,P66,INI,FM,M2,98.90641301686486,Hz
CTR,P66,INI,FM,M3,188.04174375901133,Hz
CTR,P66,REL,FM,M1,60.11794355269971,Hz
CTR,P66,REL,FM,M2,41.89444075262163,Hz
CTR,P66,REL,FM,M3,68.29636639148333,Hz
CTR,P67,INI,FM,M1,45.657929656471005,Hz
CTR,P67,INI,FM,M2,46.88422354408331,Hz
CTR,P67,INI,FM,M3,44.385527979157374,Hz
CTR,P67,REL,FM,M1,33.77528007811418,Hz
CTR,P67,REL,FM,M2,50.82900557510556,Hz
CTR,P67,REL,FM,M3,34.25804515009186,Hz
CTR,P68,INI,FM,M1,31.845381635799026,Hz
CTR,P68,INI,FM,M2,29.866232052085238,Hz
CTR,P68,INI,FM,M3,31.596150525701635,Hz
CTR,P68,REL,FM,M1,36.31379880747589,Hz
CTR,P68,REL,FM,M2,39.562549942618354,Hz
CTR,P68,REL,FM,M3,38.653755173442605,Hz
