Group,Participant,Session,Operator,Measure,Value,Unit
CTR,P01,INI,FM,M1,0.0030001544314355,V
CTR,P01,INI,FM,M2,0.0030405347213551,V
CTR,P01,INI,FM,M3,0.0030670953950421,V
CTR,P01,REL,FM,M1,0.0043801471463278,V
CTR,P01,REL,FM,M2,0.004489779092719,V
CTR,P01,REL,FM,M3,0.004383717712726,V
CTR,P02,INI,FM,M1,0.1370950262968529,V
CTR,P02,INI,FM,M2,0.1053275606130992,V
CTR,P02,INI,FM,M3,0.094530073842801,V
CTR,P02,REL,FM,M1,0.0024035631010853,V
CTR,P02,REL,FM,M2,0.0024376747533414,V
CTR,P02,REL,FM,M3,0.0024431458711042,V
CTR,P03,INI,FM,M1,0.0026772467263076,V
CTR,P03,INI,FM,M2,0.0027847282241768,V
CTR,P03,INI,FM,M3,0.0026780525968716,V
CTR,P03,REL,FM,M1,0.0032763891691358,V
CTR,P03,REL,FM,M2,0.0034657357637251,V
CTR,P03,REL,FM,M3,0.0034162424203667,V
CTR,P05,INI,FM,M1,0.0031007907723237,V
CTR,P05,INI,FM,M2,0.0031313849452302,V
CTR,P05,INI,FM,M3,0.0030555137957981,V
CTR,P05,REL,FM,M1,0.0027504366332917,V
CTR,P05,REL,FM,M2,0.0027491465441757,V
CTR,P05,REL,FM,M3,0.0027736372810418,V
CTR,P06,INI,FM,M1,0.0019934940803989,V
CTR,P06,INI,FM,M2,0.0021457527594075,V
CTR,P06,INI,FM,M3,0.0024424122732428,V
CTR,P06,REL,FM,M1,0.0026992716005056,V
CTR,P06,REL,FM,M2,0.0027487924289695,V
CTR,P06,REL,FM,M3,0.0028659718656315,V
CTR,P07,INI,FM,M1,0.0086051101338193,V
CTR,P07,INI,FM,M2,0.0103211751601086,V
CTR,P07,INI,FM,M3,0.0101191091345283,V
CTR,P07,REL,FM,M1,0.0104038313042146,V
CTR,P07,REL,FM,M2,0.0110130285966996,V
CTR,P07,REL,FM,M3,0.0118309944841896,V
CTR,P08,INI,FM,M1,0.0024218961207801,V
CTR,P08,INI,FM,M2,0.0024688108400483,V
CTR,P08,INI,FM,M3,0.0024609780068979,V
CTR,P08,REL,FM,M1,0.0024238953228329,V
CTR,P08,REL,FM,M2,0.0024791982268036,V
CTR,P08,REL,FM,M3,0.0025807107330281,V
CTR,P13,INI,FM,M1,0.0036492561265089,V
CTR,P13,INI,FM,M2,0.0040327491517606,V
CTR,P13,INI,FM,M3,0.0037506673104027,V
CTR,P13,REL,FM,M1,0.0029923619542221,V
CTR,P13,REL,FM,M2,0.0032834292944728,V
CTR,P13,REL,FM,M3,0.0030375513105718,V
CTR,P16,INI,FM,M1,0.0024350153167477,V
CTR,P16,INI,FM,M2,0.0024997627609057,V
CTR,P16,INI,FM,M3,0.0025086867379091,V
CTR,P16,REL,FM,M1,0.0022588850057568,V
CTR,P16,REL,FM,M2,0.0023141232268914,V
CTR,P16,REL,FM,M3,0.0022792885879475,V
CTR,P21,INI,FM,M1,0.0029077669303991,V
CTR,P21,INI,FM,M2,0.0029047089775279,V
CTR,P21,INI,FM,M3,0.0028665031683298,V
CTR,P21,REL,FM,M1,0.002112411832318,V
CTR,P21,REL,FM,M2,0.002108020842543,V
CTR,P21,REL,FM,M3,0.0018603867846574,V
CTR,P22,INI,FM,M1,0.0024401502754788,V
CTR,P22,INI,FM,M2,0.0022381621487897,V
CTR,P22,INI,FM,M3,0.0024804377179785,V
CTR,P22,REL,FM,M1,0.0025027313189257,V
CTR,P22,REL,FM,M2,0.0024358916848755,V
CTR,P22,REL,FM,M3,0.0024504255392988,V
CTR,P23,INI,FM,M1,0.0023412691240016,V
CTR,P23,INI,FM,M2,0.0021469813612864,V
CTR,P23,INI,FM,M3,0.0021119360083083,V
CTR,P23,REL,FM,M1,0.0021765127366349,V
CTR,P23,REL,FM,M2,0.0021119211661878,V
CTR,P23,REL,FM,M3,0.0021743840390089,V
CTR,P25,INI,FM,M1,0.0028271963948206,V
CTR,P25,INI,FM,M2,0.0027398068419272,V
CTR,P25,INI,FM,M3,0.0031108552880106,V
CTR,P25,REL,FM,M1,0.0034312603191975,V
CTR,P25,REL,FM,M2,0.0033581115373421,V
CTR,P25,REL,FM,M3,0.0028364813550921,V
CTR,P35,INI,FM,M1,0.0028906101014931,V
CTR,P35,INI,FM,M2,0.0026378778627008,V
CTR,P35,INI,FM,M3,0.0026245393019611,V
CTR,P35,REL,FM,M1,0.0032242866835392,V
CTR,P35,REL,FM,M2,0.0033276185349036,V
CTR,P35,REL,FM,M3,0.0029046303912118,V
CTR,P38,INI,FM,M1,0.062979850917841,V
CTR,P38,INI,FM,M2,0.0525128286368797,V
CTR,P38,INI,FM,M3,0.047304130474964,V
CTR,P38,REL,FM,M1,0.0034250274770997,V
CTR,P38,REL,FM,M2,0.003653257448176,V
CTR,P38,REL,FM,M3,0.0037025409181091,V
CTR,P39,INI,FM,M1,0.0036082344844567,V
CTR,P39,INI,FM,M2,0.0046868050301893,V
CTR,P39,INI,FM,M3,0.0050213731067425,V
CTR,P39,REL,FM,M1,0.0102603312381545,V
CTR,P39,REL,FM,M2,0.004860620764336,V
CTR,P39,REL,FM,M3,0.0073971990994509,V
CTR,P40,INI,FM,M1,0.0082030322297014,V
CTR,P40,INI,FM,M2,0.0087234995897875,V
CTR,P40,INI,FM,M3,0.0097672998795187,V
CTR,P40,REL,FM,M1,0.0039988995812552,V
CTR,P40,REL,FM,M2,0.0053032903362766,V
CTR,P40,REL,FM,M3,0.005012307961066,V
CTR,P44,INI,FM,M1,0.0033136760574908,V
CTR,P44,INI,FM,M2,0.003426430980497,V
CTR,P44,INI,FM,M3,0.0037243168458248,V
CTR,P44,REL,FM,M1,0.002619837936086,V
CTR,P44,REL,FM,M2,0.0026092701949762,V
CTR,P44,REL,FM,M3,0.0027436223935583,V
CTR,P46,INI,FM,M1,0.0029132780738553,V
CTR,P46,INI,FM,M2,0.0029129280331847,V
CTR,P46,INI,FM,M3,0.002968674391503,V
CTR,P46,REL,FM,M1,0.0022499986047687,V
CTR,P46,REL,FM,M2,0.0022864010570805,V
CTR,P46,REL,FM,M3,0.002319203656785,V
CTR,P48,INI,FM,M1,0.0207671375025761,V
CTR,P48,INI,FM,M2,0.0200505468519924,V
CTR,P48,INI,FM,M3,0.0207291367473041,V
CTR,P48,REL,FM,M1,0.0145915196575627,V
CTR,P48,REL,FM,M2,0.0147196787224473,V
CTR,P48,REL,FM,M3,0.0147068161746339,V
CTR,P49,INI,FM,M1,0.003154547240256,V
CTR,P49,INI,FM,M2,0.0029687021309003,V
CTR,P49,INI,FM,M3,0.0032156216601015,V
CTR,P49,REL,FM,M1,0.0027022439097317,V
CTR,P49,REL,FM,M2,0.0029317077034384,V
CTR,P49,REL,FM,M3,0.0029461227072096,V
CTR,P52,INI,FM,M1,0.0104119667113289,V
CTR,P52,INI,FM,M2,0.0089603242966162,V
CTR,P52,INI,FM,M3,0.0074728575128746,V
CTR,P52,REL,FM,M1,0.0039882847801229,V
CTR,P52,REL,FM,M2,0.0041517911760337,V
CTR,P52,REL,FM,M3,0.0026881811133601,V
CTR,P55,INI,FM,M1,0.0012708010342199,V
CTR,P55,INI,FM,M2,0.0012893021189967,V
CTR,P55,INI,FM,M3,0.0013157964702549,V
CTR,P55,REL,FM,M1,0.0018181382377822,V
CTR,P55,REL,FM,M2,0.0018464378959521,V
CTR,P55,REL,FM,M3,0.001835695163398,V
CTR,P56,INI,FM,M1,0.0026008263094568,V
CTR,P56,INI,FM,M2,0.0026429022094842,V
CTR,P56,INI,FM,M3,0.002625538189216,V
CTR,P56,REL,FM,M1,0.0033909417776215,V
CTR,P56,REL,FM,M2,0.0034188194765933,V
CTR,P56,REL,FM,M3,0.0034100487326293,V
CTR,P57,INI,FM,M1,0.0019058574605861,V
CTR,P57,INI,FM,M2,0.0019872455001822,V
CTR,P57,INI,FM,M3,0.0020160194837862,V
CTR,P57,REL,FM,M1,0.0014682006286052,V
CTR,P57,REL,FM,M2,0.0016749156949747,V
CTR,P57,REL,FM,M3,0.0020009050437908,V
CTR,P60,INI,FM,M1,0.005981619364516,V
CTR,P60,INI,FM,M2,0.0055202643949268,V
CTR,P60,INI,FM,M3,0.0058412889155911,V
CTR,P60,REL,FM,M1,0.0026389707347587,V
CTR,P60,REL,FM,M2,0.0027296110303199,V
CTR,P60,REL,FM,M3,0.0027099535508867,V
CTR,P64,INI,FM,M1,0.0021384560553756,V
CTR,P64,INI,FM,M2,0.0021704571409489,V
CTR,P64,INI,FM,M3,0.0021682736280713,V
CTR,P64,REL,FM,M1,0.00243092530577,V
CTR,P64,REL,FM,M2,0.0024108343509686,V
CTR,P64,REL,FM,M3,0.0024397354673185,V
CTR,P66,INI,FM,M1,0.0026353326758678,V
CTR,P66,INI,FM,M2,0.0026554846055358,V
CTR,P66,INI,FM,M3,0.0026920769819229,V
CTR,P66,REL,FM,M1,0.0030821715204683,V
CTR,P66,REL,FM,M2,0.0032417265373603,V
CTR,P66,REL,FM,M3,0.0031596558716701,V
CTR,P67,INI,FM,M1,0.0119687024648042,V
CTR,P67,INI,FM,M2,0.0065202754500438,V
CTR,P67,INI,FM,M3,0.0100077334022655,V
CTR,P67,REL,FM,M1,0.0062060970018769,V
CTR,P67,REL,FM,M2,0.0096901165950602,V
CTR,P67,REL,FM,M3,0.0092084543458957,V
CTR,P68,INI,FM,M1,0.0049388759127672,V
CTR,P68,INI,FM,M2,0.0075298892883729,V
CTR,P68,INI,FM,M3,0.0098151147213974,V
CTR,P68,REL,FM,M1,0.0046213092577107,V
CTR,P68,REL,FM,M2,0.0052714057941899,V
CTR,P68,REL,FM,M3,0.005049024113724,V
