Group,Participant,Session,Operator,Measure,Value,Unit
CTR,P01,INI,FM,M1,44.75685072395519,%MAX
CTR,P01,INI,FM,M2,47.00989787069824,%MAX
CTR,P01,INI,FM,M3,49.88104947885654,%MAX
CTR,P01,REL,FM,M1,16.69279901714484,%MAX
CTR,P01,REL,FM,M2,24.897775525547264,%MAX
CTR,P01,REL,FM,M3,22.900516625999035,%MAX
CTR,P02,INI,FM,M1,20.133108304003567,%MAX
CTR,P02,INI,FM,M2,25.52595645907437,%MAX
CTR,P02,INI,FM,M3,29.9464084100136,%MAX
CTR,P02,REL,FM,M1,39.25601006259491,%MAX
CTR,P02,REL,FM,M2,26.848915082002225,%MAX
CTR,P02,REL,FM,M3,37.68958875122009,%MAX
CTR,P03,INI,FM,M1,7.613980285588273,%MAX
CTR,P03,INI,FM,M2,7.730057804657622,%MAX
CTR,P03,INI,FM,M3,7.451135515520341,%MAX
CTR,P03,REL,FM,M1,27.914686205672584,%MAX
CTR,P03,REL,FM,M2,33.39648624645642,%MAX
CTR,P03,REL,FM,M3,34.10873870546646,%MAX
CTR,P05,INI,FM,M1,33.875066281671074,%MAX
CTR,P05,INI,FM,M2,22.01178615785331,%MAX
CTR,P05,INI,FM,M3,19.250962523405782,%MAX
CTR,P05,REL,FM,M1,24.568702561781397,%MAX
CTR,P05,REL,FM,M2,26.563605097921112,%MAX
CTR,P05,REL,FM,M3,28.36623543391636,%MAX
CTR,P06,INI,FM,M1,42.206010756090905,%MAX
CTR,P06,INI,FM,M2,38.81562105979956,%MAX
CTR,P06,INI,FM,M3,42.52857083063792,%MAX
CTR,P06,REL,FM,M1,41.62529447912214,%MAX
CTR,P06,REL,FM,M2,40.39510462480387,%MAX
CTR,P06,REL,FM,M3,43.66407021575582,%MAX
CTR,P07,INI,FM,M1,23.761267214301018,%MAX
CTR,P07,INI,FM,M2,25.88860086824925,%MAX
CTR,P07,INI,FM,M3,17.853100240932868,%MAX
CTR,P07,REL,FM,M1,16.581122905672046,%MAX
CTR,P07,REL,FM,M2,14.330195849071231,%MAX
CTR,P07,REL,FM,M3,13.534291561838238,%MAX
CTR,P08,INI,FM,M1,46.93851253306616,%MAX
CTR,P08,INI,FM,M2,40.86208994286597,%MAX
CTR,P08,INI,FM,M3,35.974847366894664,%MAX
CTR,P08,REL,FM,M1,53.31784318087682,%MAX
CTR,P08,REL,FM,M2,53.82990872210813,%MAX
CTR,P08,REL,FM,M3,63.29350935001868,%MAX
CTR,P13,INI,FM,M1,59.152522271147014,%MAX
CTR,P13,INI,FM,M2,50.45795594003408,%MAX
CTR,P13,INI,FM,M3,52.25114336418302,%MAX
CTR,P13,REL,FM,M1,49.27249734708195,%MAX
CTR,P13,REL,FM,M2,45.46042710130002,%MAX
CTR,P13,REL,FM,M3,44.028370952652395,%MAX
CTR,P16,INI,FM,M1,9.20000200645891,%MAX
CTR,P16,INI,FM,M2,33.6593031207107,%MAX
CTR,P16,INI,FM,M3,41.5132149344276,%MAX
CTR,P16,REL,FM,M1,56.6100157563313,%MAX
CTR,P16,REL,FM,M2,29.25767603287436,%MAX
CTR,P16,REL,FM,M3,38.554261232192594,%MAX
CTR,P21,INI,FM,M1,38.373281170467784,%MAX
CTR,P21,INI,FM,M2,43.150541435392576,%MAX
CTR,P21,INI,FM,M3,42.92191482038342,%MAX
CTR,P21,REL,FM,M1,30.450481906845514,%MAX
CTR,P21,REL,FM,M2,30.105831116469034,%MAX
CTR,P21,REL,FM,M3,86.88637868220542,%MAX
CTR,P22,INI,FM,M1,48.21300738960147,%MAX
CTR,P22,INI,FM,M2,38.68519336398667,%MAX
CTR,P22,INI,FM,M3,50.06141223061071,%MAX
CTR,P22,REL,FM,M1,26.38410981762513,%MAX
CTR,P22,REL,FM,M2,26.380942009667407,%MAX
CTR,P22,REL,FM,M3,27.741840374943095,%MAX
CTR,P23,INI,FM,M1,20.806236282310675,%MAX
CTR,P23,INI,FM,M2,24.950180476080487,%MAX
CTR,P23,INI,FM,M3,35.50300717938344,%MAX
CTR,P23,REL,FM,M1,37.55941052956693,%MAX
CTR,P23,REL,FM,M2,36.18758964717854,%MAX
CTR,P23,REL,FM,M3,44.08163057517893,%MAX
CTR,P25,INI,FM,M1,10.138137210865114,%MAX
CTR,P25,INI,FM,M2,10.991277887847044,%MAX
CTR,P25,INI,FM,M3,13.324184525825313,%MAX
CTR,P25,REL,FM,M1,9.885698621664478,%MAX
CTR,P25,REL,FM,M2,12.78885473382228,%MAX
CTR,P25,REL,FM,M3,11.479760582182216,%MAX
CTR,P35,INI,FM,M1,28.326502380836505,%MAX
CTR,P35,INI,FM,M2,27.3218396549631,%MAX
CTR,P35,INI,FM,M3,35.97565428626461,%MAX
CTR,P35,REL,FM,M1,18.106965705570154,%MAX
CTR,P35,REL,FM,M2,16.429366822926095,%MAX
CTR,P35,REL,FM,M3,38.37084954059977,%MAX
CTR,P38,INI,FM,M1,27.535818374744593,%MAX
CTR,P38,INI,FM,M2,40.48031742732977,%MAX
CTR,P38,INI,FM,M3,33.386296808735125,%MAX
CTR,P38,REL,FM,M1,43.34692562761023,%MAX
CTR,P38,REL,FM,M2,39.06006648354986,%MAX
CTR,P38,REL,FM,M3,42.65993685159844,%MAX
CTR,P39,INI,FM,M1,22.66480458902176,%MAX
CTR,P39,INI,FM,M2,31.436342929797704,%MAX
CTR,P39,INI,FM,M3,29.789657788589803,%MAX
CTR,P39,REL,FM,M1,33.600666303709744,%MAX
CTR,P39,REL,FM,M2,38.91079845695369,%MAX
CTR,P39,REL,FM,M3,36.42449943912015,%MAX
CTR,P40,INI,FM,M1,42.97671709013483,%MAX
CTR,P40,INI,FM,M2,34.95194903475334,%MAX
CTR,P40,INI,FM,M3,40.483557172146206,%MAX
CTR,P40,REL,FM,M1,35.765405445395,%MAX
CTR,P40,REL,FM,M2,31.61782841692222,%MAX
CTR,P40,REL,FM,M3,44.01828411736464,%MAX
CTR,P44,INI,FM,M1,16.400519469367772,%MAX
CTR,P44,INI,FM,M2,18.315167673728777,%MAX
CTR,P44,INI,FM,M3,24.89176132164318,%MAX
CTR,P44,REL,FM,M1,11.96188397363127,%MAX
CTR,P44,REL,FM,M2,21.450342616505658,%MAX
CTR,P44,REL,FM,M3,57.39013456104508,%MAX
CTR,P46,INI,FM,M1,27.486934415656055,%MAX
CTR,P46,INI,FM,M2,31.628232264582998,%MAX
CTR,P46,INI,FM,M3,22.605879229910418,%MAX
CTR,P46,REL,FM,M1,18.332235759724785,%MAX
CTR,P46,REL,FM,M2,20.464399756272957,%MAX
CTR,P46,REL,FM,M3,20.367351116664054,%MAX
CTR,P48,INI,FM,M1,32.333013707978864,%MAX
CTR,P48,INI,FM,M2,42.15623033111927,%MAX
CTR,P48,INI,FM,M3,43.17525720901658,%MAX
CTR,P48,REL,FM,M1,35.66837660422766,%MAX
CTR,P48,REL,FM,M2,35.56825453522837,%MAX
CTR,P48,REL,FM,M3,42.34416212736203,%MAX
CTR,P49,INI,FM,M1,34.56314311632644,%MAX
CTR,P49,INI,FM,M2,32.419460954624036,%MAX
CTR,P49,INI,FM,M3,28.277665162008407,%MAX
CTR,P49,REL,FM,M1,42.0674145824136,%MAX
CTR,P49,REL,FM,M2,44.30887425127801,%MAX
CTR,P49,REL,FM,M3,42.06709900111492,%MAX
CTR,P52,INI,FM,M1,34.55804790899533,%MAX
CTR,P52,INI,FM,M2,34.93951376066193,%MAX
CTR,P52,INI,FM,M3,37.39011093223318,%MAX
CTR,P52,REL,FM,M1,28.659204227966057,%MAX
CTR,P52,REL,FM,M2,51.165255877621476,%MAX
CTR,P52,REL,FM,M3,42.71285270394907,%MAX
CTR,P55,INI,FM,M1,33.728002962382995,%MAX
CTR,P55,INI,FM,M2,34.661980010551716,%MAX
CTR,P55,INI,FM,M3,30.33581110541035,%MAX
CTR,P55,REL,FM,M1,34.696816393716226,%MAX
CTR,P55,REL,FM,M2,31.780072589207418,%MAX
CTR,P55,REL,FM,M3,49.916972765051995,%MAX
CTR,P56,INI,FM,M1,24.205683567447775,%MAX
CTR,P56,INI,FM,M2,20.550973200638772,%MAX
CTR,P56,INI,FM,M3,19.753611312723763,%MAX
CTR,P56,REL,FM,M1,15.059593108665007,%MAX
CTR,P56,REL,FM,M2,13.048798579697698,%MAX
CTR,P56,REL,FM,M3,10.679512526357968,%MAX
CTR,P57,INI,FM,M1,38.66060997323048,%MAX
CTR,P57,INI,FM,M2,41.32927833591075,%MAX
CTR,P57,INI,FM,M3,42.18697705272286,%MAX
CTR,P57,REL,FM,M1,26.978644284210628,%MAX
CTR,P57,REL,FM,M2,49.49951030490727,%MAX
CTR,P57,REL,FM,M3,40.585833696979826,%MAX
CTR,P60,INI,FM,M1,13.70969269340285,%MAX
CTR,P60,INI,FM,M2,17.439467420333575,%MAX
CTR,P60,INI,FM,M3,13.578021237807052,%MAX
CTR,P60,REL,FM,M1,19.035253279348325,%MAX
CTR,P60,REL,FM,M2,15.34811600230172,%MAX
CTR,P60,REL,FM,M3,15.647741746553946,%MAX
CTR,P64,INI,FM,M1,19.60844231225134,%MAX
CTR,P64,INI,FM,M2,28.205026544782285,%MAX
CTR,P64,INI,FM,M3,30.08694198982856,%MAX
CTR,P64,REL,FM,M1,34.96160401606131,%MAX
CTR,P64,REL,FM,M2,37.43249567877602,%MAX
CTR,P64,REL,FM,M3,27.0513038900658,%MAX
CTR,P66,INI,FM,M1,21.606646752546396,%MAX
CTR,P66,INI,FM,M2,31.79851082414061,%MAX
CTR,P66,INI,FM,M3,34.4866959441306,%MAX
CTR,P66,REL,FM,M1,32.65495937028078,%MAX
CTR,P66,REL,FM,M2,33.62839390433449,%MAX
CTR,P66,REL,FM,M3,30.21812517428918,%MAX
CTR,P67,INI,FM,M1,53.7193591814796,%MAX
CTR,P67,INI,FM,M2,37.04238435328337,%MAX
CTR,P67,INI,FM,M3,46.63763544551907,%MAX
CTR,P67,REL,FM,M1,35.30757636395717,%MAX
CTR,P67,REL,FM,M2,40.37126743928372,%MAX
CTR,P67,REL,FM,M3,38.98353013772643,%MAX
CTR,P68,INI,FM,M1,27.603328180088763,%MAX
CTR,P68,INI,FM,M2,21.392973272472673,%MAX
CTR,P68,INI,FM,M3,36.92214866242494,%MAX
CTR,P68,REL,FM,M1,29.6216893044936,%MAX
CTR,P68,REL,FM,M2,26.106220377930782,%MAX
CTR,P68,REL,FM,M3,38.111567224797916,%MAX
