Group,Participant,Session,Operator,Measure,Value,Unit
CTR,P01,INI,FM,M1,0.0528804201644089,V
CTR,P01,INI,FM,M2,0.0865330888983722,V
CTR,P01,INI,FM,M3,0.1153154229052559,V
CTR,P01,REL,FM,M1,0.0070685387519806,V
CTR,P01,REL,FM,M2,0.007438935615888,V
CTR,P01,REL,FM,M3,0.0065034651255734,V
CTR,P02,INI,FM,M1,0.0136496658210311,V
CTR,P02,INI,FM,M2,0.0232454668599011,V
CTR,P02,INI,FM,M3,0.029362775155908,V
CTR,P02,REL,FM,M1,0.012308763721779,V
CTR,P02,REL,FM,M2,0.0104471455651576,V
CTR,P02,REL,FM,M3,0.0117860756253543,V
CTR,P03,INI,FM,M1,0.0050385586887599,V
CTR,P03,INI,FM,M2,0.0047073852941794,V
CTR,P03,INI,FM,M3,0.0054488071825921,V
CTR,P03,REL,FM,M1,0.0051495045886265,V
CTR,P03,REL,FM,M2,0.0048027699602741,V
CTR,P03,REL,FM,M3,0.0043287318993264,V
CTR,P05,INI,FM,M1,0.0114372992333895,V
CTR,P05,INI,FM,M2,0.0114057019550389,V
CTR,P05,INI,FM,M3,0.009617128680474,V
CTR,P05,REL,FM,M1,0.0141410595219434,V
CTR,P05,REL,FM,M2,0.0130501441162755,V
CTR,P05,REL,FM,M3,0.016100971024866,V
CTR,P06,INI,FM,M1,0.0052453374765289,V
CTR,P06,INI,FM,M2,0.0054396622752255,V
CTR,P06,INI,FM,M3,0.0050112906588015,V
CTR,P06,REL,FM,M1,0.0042212565529172,V
CTR,P06,REL,FM,M2,0.0043480880564801,V
CTR,P06,REL,FM,M3,0.004577229367401,V
CTR,P07,INI,FM,M1,0.0183094932099836,V
CTR,P07,INI,FM,M2,0.0229792620738318,V
CTR,P07,INI,FM,M3,0.0154519866049295,V
CTR,P07,REL,FM,M1,0.0222122570662457,V
CTR,P07,REL,FM,M2,0.0224802332009789,V
CTR,P07,REL,FM,M3,0.0187471182440607,V
CTR,P08,INI,FM,M1,0.0061469772350109,V
CTR,P08,INI,FM,M2,0.0050477020321064,V
CTR,P08,INI,FM,M3,0.005533737506504,V
CTR,P08,REL,FM,M1,0.0052836167302355,V
CTR,P08,REL,FM,M2,0.0085402654929727,V
CTR,P08,REL,FM,M3,0.0097562410123983,V
CTR,P13,INI,FM,M1,0.0042645916276293,V
CTR,P13,INI,FM,M2,0.0047558577531799,V
CTR,P13,INI,FM,M3,0.0047372732960147,V
CTR,P13,REL,FM,M1,0.0046297559954673,V
CTR,P13,REL,FM,M2,0.0045346276227721,V
CTR,P13,REL,FM,M3,0.004851218863037,V
CTR,P16,INI,FM,M1,0.1146509387608521,V
CTR,P16,INI,FM,M2,0.0979614628196447,V
CTR,P16,INI,FM,M3,0.2322461094418574,V
CTR,P16,REL,FM,M1,,V
CTR,P16,REL,FM,M2,0.0031883158843031,V
CTR,P16,REL,FM,M3,0.0032864419352348,V
CTR,P21,INI,FM,M1,0.0114218942839208,V
CTR,P21,INI,FM,M2,0.0145393080792104,V
CTR,P21,INI,FM,M3,0.0135605322749849,V
CTR,P21,REL,FM,M1,0.0110801920859568,V
CTR,P21,REL,FM,M2,0.0124058647451477,V
CTR,P21,REL,FM,M3,0.0126117331279535,V
CTR,P22,INI,FM,M1,0.0064881748068972,V
CTR,P22,INI,FM,M2,0.0076858590903183,V
CTR,P22,INI,FM,M3,0.0072786125835654,V
CTR,P22,REL,FM,M1,0.0057818108497305,V
CTR,P22,REL,FM,M2,0.0059642685505693,V
CTR,P22,REL,FM,M3,0.0053368822261697,V
CTR,P23,INI,FM,M1,0.0112587789272596,V
CTR,P23,INI,FM,M2,0.0071264595945573,V
CTR,P23,INI,FM,M3,0.0064719531955808,V
CTR,P23,REL,FM,M1,0.0058977656659174,V
CTR,P23,REL,FM,M2,0.0064286360797181,V
CTR,P23,REL,FM,M3,0.0067325713240033,V
CTR,P25,INI,FM,M1,0.0079183840694609,V
CTR,P25,INI,FM,M2,0.0056826848389309,V
CTR,P25,INI,FM,M3,0.0076260841710888,V
CTR,P25,REL,FM,M1,0.008871314312462,V
CTR,P25,REL,FM,M2,0.0094060555309915,V
CTR,P25,REL,FM,M3,0.0082983913685214,V
CTR,P35,INI,FM,M1,,V
CTR,P35,INI,FM,M2,,V
CTR,P35,INI,FM,M3,,V
CTR,P35,REL,FM,M1,0.0103836769019372,V
CTR,P35,REL,FM,M2,0.0090585564809434,V
CTR,P35,REL,FM,M3,0.0102743408978761,V
CTR,P38,INI,FM,M1,0.0067689030037796,V
CTR,P38,INI,FM,M2,0.0075537555782957,V
CTR,P38,INI,FM,M3,0.007019721415202,V
CTR,P38,REL,FM,M1,0.0109992796294434,V
CTR,P38,REL,FM,M2,0.0104058176414016,V
CTR,P38,REL,FM,M3,0.0084461453779838,V
CTR,P39,INI,FM,M1,0.0025597055349482,V
CTR,P39,INI,FM,M2,0.0026229630859197,V
CTR,P39,INI,FM,M3,0.0024760249183698,V
CTR,P39,REL,FM,M1,0.0061453596262141,V
CTR,P39,REL,FM,M2,0.0054632642641191,V
CTR,P39,REL,FM,M3,0.0027550604537599,V
CTR,P40,INI,FM,M1,0.0042679575991169,V
CTR,P40,INI,FM,M2,0.0051945329394574,V
CTR,P40,INI,FM,M3,0.0040464486562033,V
CTR,P40,REL,FM,M1,0.0083098139901539,V
CTR,P40,REL,FM,M2,0.0072976406224795,V
CTR,P40,REL,FM,M3,0.0059519927307877,V
CTR,P44,INI,FM,M1,0.0082652476342008,V
CTR,P44,INI,FM,M2,0.0125609188661235,V
CTR,P44,INI,FM,M3,0.0110156430385002,V
CTR,P44,REL,FM,M1,0.0101785925328709,V
CTR,P44,REL,FM,M2,0.0106027730303837,V
CTR,P44,REL,FM,M3,0.0055126655981558,V
CTR,P46,INI,FM,M1,0.0070928451369716,V
CTR,P46,INI,FM,M2,0.0083442695890632,V
CTR,P46,INI,FM,M3,0.0068849037155767,V
CTR,P46,REL,FM,M1,0.0071423008029492,V
CTR,P46,REL,FM,M2,0.0088242181737266,V
CTR,P46,REL,FM,M3,0.0075202217235876,V
CTR,P48,INI,FM,M1,0.0125088112672567,V
CTR,P48,INI,FM,M2,0.0118696706002014,V
CTR,P48,INI,FM,M3,0.0095644025530009,V
CTR,P48,REL,FM,M1,0.0102176019161474,V
CTR,P48,REL,FM,M2,0.0103298472168322,V
CTR,P48,REL,FM,M3,0.0086410289464004,V
CTR,P49,INI,FM,M1,0.0136807790297316,V
CTR,P49,INI,FM,M2,0.0141829515920211,V
CTR,P49,INI,FM,M3,0.0095182949830373,V
CTR,P49,REL,FM,M1,0.0212015744736277,V
CTR,P49,REL,FM,M2,0.0176263866349579,V
CTR,P49,REL,FM,M3,0.0159406047776006,V
CTR,P52,INI,FM,M1,0.0116611481836994,V
CTR,P52,INI,FM,M2,0.0126956250814634,V
CTR,P52,INI,FM,M3,0.0114423854191378,V
CTR,P52,REL,FM,M1,0.0115426771304386,V
CTR,P52,REL,FM,M2,0.0107286464117495,V
CTR,P52,REL,FM,M3,0.0090856411608527,V
CTR,P55,INI,FM,M1,0.003234539775114,V
CTR,P55,INI,FM,M2,0.0027366065830395,V
CTR,P55,INI,FM,M3,0.0023966566660417,V
CTR,P55,REL,FM,M1,0.0042660625295485,V
CTR,P55,REL,FM,M2,0.0038837745984824,V
CTR,P55,REL,FM,M3,0.003454931872506,V
CTR,P56,INI,FM,M1,0.0088591517017383,V
CTR,P56,INI,FM,M2,0.0053909519621119,V
CTR,P56,INI,FM,M3,0.0052474658798579,V
CTR,P56,REL,FM,M1,0.0069834990747901,V
CTR,P56,REL,FM,M2,0.0079428809341666,V
CTR,P56,REL,FM,M3,0.007157181068532,V
CTR,P57,INI,FM,M1,0.0302506080488504,V
CTR,P57,INI,FM,M2,0.0329035688939352,V
CTR,P57,INI,FM,M3,0.0228697719884389,V
CTR,P57,REL,FM,M1,0.0049791597093645,V
CTR,P57,REL,FM,M2,0.004837036838073,V
CTR,P57,REL,FM,M3,0.0043042476554733,V
CTR,P60,INI,FM,M1,0.0056357397711113,V
CTR,P60,INI,FM,M2,0.0084283965121225,V
CTR,P60,INI,FM,M3,0.0047825132775594,V
CTR,P60,REL,FM,M1,0.0048763561546668,V
CTR,P60,REL,FM,M2,0.0068533754846674,V
CTR,P60,REL,FM,M3,0.0045671713801962,V
CTR,P64,INI,FM,M1,0.0085009303556713,V
CTR,P64,INI,FM,M2,0.0095439389166994,V
CTR,P64,INI,FM,M3,0.0123284878775914,V
CTR,P64,REL,FM,M1,0.0074362497538664,V
CTR,P64,REL,FM,M2,0.0089378794706234,V
CTR,P64,REL,FM,M3,0.0086797667230825,V
CTR,P66,INI,FM,M1,0.0126991011780419,V
CTR,P66,INI,FM,M2,0.0111135457976553,V
CTR,P66,INI,FM,M3,0.0073956182601821,V
CTR,P66,REL,FM,M1,0.0095748218352192,V
CTR,P66,REL,FM,M2,0.009261005309709,V
CTR,P66,REL,FM,M3,0.0076107308128988,V
CTR,P67,INI,FM,M1,0.0182627557387319,V
CTR,P67,INI,FM,M2,0.0287953449489777,V
CTR,P67,INI,FM,M3,0.0223393168616396,V
CTR,P67,REL,FM,M1,0.0111248177155237,V
CTR,P67,REL,FM,M2,0.0129121620589147,V
CTR,P67,REL,FM,M3,0.0113060845662416,V
CTR,P68,INI,FM,M1,,V
CTR,P68,INI,FM,M2,,V
CTR,P68,INI,FM,M3,,V
CTR,P68,REL,FM,M1,0.0119683800304444,V
CTR,P68,REL,FM,M2,0.0120452850566301,V
CTR,P68,REL,FM,M3,0.01194838309707,V
