Group,Participant,Session,Operator,Measure,Value,Unit
CTR,P01,INI,FM,M1,122.31810901314525,Hz
CTR,P01,INI,FM,M2,37.83766786694265,Hz
CTR,P01,INI,FM,M3,125.7497745761267,Hz
CTR,P01,REL,FM,M1,56.37391218010089,Hz
CTR,P01,REL,FM,M2,71.34175306822127,Hz
CTR,P01,REL,FM,M3,124.06667535611444,Hz
CTR,P02,INI,FM,M1,134.8566513083587,Hz
CTR,P02,INI,FM,M2,137.6447874088063,Hz
CTR,P02,INI,FM,M3,129.35840600344412,Hz
CTR,P03,INI,FM,M1,106.84103546039988,Hz
CTR,P03,INI,FM,M2,104.85449752644658,Hz
CTR,P03,INI,FM,M3,108.91085634795186,Hz
CTR,P03,REL,FM,M1,91.1526627399231,Hz
CTR,P03,REL,FM,M2,87.76968434162872,Hz
CTR,P03,REL,FM,M3,86.13765531174177,Hz
CTR,P05,INI,FM,M1,145.05101278166603,Hz
CTR,P05,INI,FM,M2,145.9281833436559,Hz
CTR,P05,INI,FM,M3,139.37624859636645,Hz
CTR,P05,REL,FM,M1,106.99277995332912,Hz
CTR,P05,REL,FM,M2,142.2774101352899,Hz
CTR,P05,REL,FM,M3,140.87518356819868,Hz
CTR,P06,INI,FM,M1,94.96533328031146,Hz
CTR,P06,INI,FM,M2,94.9331613400348,Hz
CTR,P06,INI,FM,M3,93.56997532454842,Hz
CTR,P06,REL,FM,M1,128.9491297179634,Hz
CTR,P06,REL,FM,M2,128.2938683690101,Hz
CTR,P06,REL,FM,M3,128.2676581154965,Hz
CTR,P07,INI,FM,M1,116.23915291701454,Hz
CTR,P07,INI,FM,M2,119.36562588752136,Hz
CTR,P07,INI,FM,M3,123.24068378137724,Hz
CTR,P07,REL,FM,M1,129.5564086160141,Hz
CTR,P07,REL,FM,M2,125.7292235180583,Hz
CTR,P07,REL,FM,M3,133.62604792216055,Hz
CTR,P08,INI,FM,M1,158.99568734412844,Hz
CTR,P08,INI,FM,M2,152.1323814352569,Hz
CTR,P08,INI,FM,M3,153.5527773608539,Hz
CTR,P08,REL,FM,M1,173.3165207355476,Hz
CTR,P08,REL,FM,M2,181.3467243818032,Hz
CTR,P08,REL,FM,M3,183.9984299624249,Hz
CTR,P13,INI,FM,M1,109.5827172490554,Hz
CTR,P13,INI,FM,M2,114.46736602746137,Hz
CTR,P13,INI,FM,M3,115.9773003942016,Hz
CTR,P13,REL,FM,M1,132.33627011743914,Hz
CTR,P13,REL,FM,M2,132.00923537812912,Hz
CTR,P13,REL,FM,M3,136.34210802781732,Hz
CTR,P16,INI,FM,M1,169.45565895659837,Hz
CTR,P16,INI,FM,M2,171.93318563131257,Hz
CTR,P16,INI,FM,M3,167.38616764343425,Hz
CTR,P16,REL,FM,M1,160.4995807417484,Hz
CTR,P16,REL,FM,M2,154.49110101655216,Hz
CTR,P16,REL,FM,M3,158.8306508435117,Hz
CTR,P21,INI,FM,M1,123.17970936940812,Hz
CTR,P21,INI,FM,M2,109.19066803317244,Hz
CTR,P21,INI,FM,M3,126.02011161917852,Hz
CTR,P21,REL,FM,M1,108.26055148366176,Hz
CTR,P21,REL,FM,M2,85.44420135679054,Hz
CTR,P21,REL,FM,M3,80.7993824173264,Hz
CTR,P22,INI,FM,M1,298.05530761640745,Hz
CTR,P22,INI,FM,M2,291.1164556242341,Hz
CTR,P22,INI,FM,M3,300.4070306020751,Hz
CTR,P22,REL,FM,M1,126.61389666778555,Hz
CTR,P22,REL,FM,M2,130.56205937885255,Hz
CTR,P22,REL,FM,M3,118.09862762382416,Hz
CTR,P23,INI,FM,M1,131.72110183899986,Hz
CTR,P23,INI,FM,M2,102.05420723522433,Hz
CTR,P23,INI,FM,M3,100.50179026025911,Hz
CTR,P23,REL,FM,M1,142.643837148766,Hz
CTR,P23,REL,FM,M2,140.56548120496106,Hz
CTR,P23,REL,FM,M3,139.12394983722746,Hz
CTR,P25,INI,FM,M1,142.9224908959304,Hz
CTR,P25,INI,FM,M2,140.6592174336181,Hz
CTR,P25,INI,FM,M3,139.50057615942816,Hz
CTR,P25,REL,FM,M1,146.50730914014423,Hz
CTR,P25,REL,FM,M2,149.7378842351093,Hz
CTR,P25,REL,FM,M3,145.28353551654126,Hz
CTR,P35,INI,FM,M1,138.6524760367,Hz
CTR,P35,INI,FM,M2,137.92574208364633,Hz
CTR,P35,INI,FM,M3,138.64961065568636,Hz
CTR,P35,REL,FM,M1,121.99095821300789,Hz
CTR,P35,REL,FM,M2,143.01553925243775,Hz
CTR,P35,REL,FM,M3,128.21715517809844,Hz
CTR,P38,INI,FM,M1,120.31858578471248,Hz
CTR,P38,INI,FM,M2,120.63475279924712,Hz
CTR,P38,INI,FM,M3,115.51290011964292,Hz
CTR,P38,REL,FM,M1,122.18469774723268,Hz
CTR,P38,REL,FM,M2,126.1775308429063,Hz
CTR,P38,REL,FM,M3,121.7862535292294,Hz
CTR,P39,INI,FM,M1,116.64214357711356,Hz
CTR,P39,INI,FM,M2,103.10747750807494,Hz
CTR,P39,INI,FM,M3,113.76111543345417,Hz
CTR,P39,REL,FM,M1,47.40710081678536,Hz
CTR,P39,REL,FM,M2,76.29401493428577,Hz
CTR,P39,REL,FM,M3,81.65280621928746,Hz
CTR,P40,INI,FM,M1,153.28057169800124,Hz
CTR,P40,INI,FM,M2,151.51674666255235,Hz
CTR,P40,INI,FM,M3,144.29339687050472,Hz
CTR,P40,REL,FM,M1,147.36359969237077,Hz
CTR,P40,REL,FM,M2,155.38657102720012,Hz
CTR,P40,REL,FM,M3,112.03666313612511,Hz
CTR,P44,INI,FM,M1,174.4065854832005,Hz
CTR,P44,INI,FM,M2,171.4895933405112,Hz
CTR,P44,INI,FM,M3,160.82011102098414,Hz
CTR,P44,REL,FM,M1,143.55586374163934,Hz
CTR,P44,REL,FM,M2,141.26871473178926,Hz
CTR,P44,REL,FM,M3,141.66770760755,Hz
CTR,P46,INI,FM,M1,134.97828369148135,Hz
CTR,P46,INI,FM,M2,132.43987360464573,Hz
CTR,P46,INI,FM,M3,119.66603230503192,Hz
CTR,P46,REL,FM,M1,117.84014421730588,Hz
CTR,P46,REL,FM,M2,113.2343300274282,Hz
CTR,P46,REL,FM,M3,109.26729925909244,Hz
CTR,P48,INI,FM,M1,130.86461518403365,Hz
CTR,P48,INI,FM,M2,129.30261314516477,Hz
CTR,P48,INI,FM,M3,130.7764989671496,Hz
CTR,P48,REL,FM,M1,145.5856529550632,Hz
CTR,P48,REL,FM,M2,148.9203830678018,Hz
CTR,P48,REL,FM,M3,142.90670830997612,Hz
CTR,P49,INI,FM,M1,150.3145702617704,Hz
CTR,P49,INI,FM,M2,138.24558915955186,Hz
CTR,P49,INI,FM,M3,141.2113689081879,Hz
CTR,P49,REL,FM,M1,143.98511188310508,Hz
CTR,P49,REL,FM,M2,146.60101223166254,Hz
CTR,P49,REL,FM,M3,135.66616505016373,Hz
CTR,P52,INI,FM,M1,132.17453519145974,Hz
CTR,P52,INI,FM,M2,136.45904190170845,Hz
CTR,P52,INI,FM,M3,119.3789460199162,Hz
CTR,P52,REL,FM,M1,124.23496163056596,Hz
CTR,P52,REL,FM,M2,130.67594891500443,Hz
CTR,P52,REL,FM,M3,135.78384585422998,Hz
CTR,P55,INI,FM,M1,116.26017812628884,Hz
CTR,P55,INI,FM,M2,114.6300171422978,Hz
CTR,P55,INI,FM,M3,120.7772744315076,Hz
CTR,P55,REL,FM,M1,113.2574165686492,Hz
CTR,P55,REL,FM,M2,107.54556869513884,Hz
CTR,P55,REL,FM,M3,98.24339142188288,Hz
CTR,P56,INI,FM,M1,101.7220401276252,Hz
CTR,P56,INI,FM,M2,108.758593836191,Hz
CTR,P56,INI,FM,M3,102.39805350314172,Hz
CTR,P56,REL,FM,M1,89.16675183112439,Hz
CTR,P56,REL,FM,M2,91.65136229333253,Hz
CTR,P56,REL,FM,M3,98.58518701846168,Hz
CTR,P57,INI,FM,M1,76.14750014903781,Hz
CTR,P57,INI,FM,M2,82.5522134562536,Hz
CTR,P57,INI,FM,M3,70.48766156515502,Hz
CTR,P57,REL,FM,M1,98.72153444619772,Hz
CTR,P57,REL,FM,M2,88.22330063731181,Hz
CTR,P57,REL,FM,M3,111.2780066254173,Hz
CTR,P60,INI,FM,M1,141.9019945248475,Hz
CTR,P60,INI,FM,M2,142.7388773800901,Hz
CTR,P60,INI,FM,M3,145.07461172129118,Hz
CTR,P60,REL,FM,M1,142.8064127067504,Hz
CTR,P60,REL,FM,M2,126.9278493126455,Hz
CTR,P60,REL,FM,M3,136.0982260081976,Hz
CTR,P64,INI,FM,M1,135.28758471020726,Hz
CTR,P64,INI,FM,M2,127.2628267233337,Hz
CTR,P64,INI,FM,M3,142.62854333627754,Hz
CTR,P64,REL,FM,M1,109.53503125258553,Hz
CTR,P64,REL,FM,M2,135.80532673246393,Hz
CTR,P64,REL,FM,M3,137.05382055928345,Hz
CTR,P66,INI,FM,M1,167.15711184538137,Hz
CTR,P66,INI,FM,M2,156.97704462305308,Hz
CTR,P66,INI,FM,M3,164.77366636992687,Hz
CTR,P66,REL,FM,M1,98.93894510618485,Hz
CTR,P66,REL,FM,M2,128.74233367472075,Hz
CTR,P66,REL,FM,M3,124.74525385501634,Hz
CTR,P67,INI,FM,M1,105.68752462688585,Hz
CTR,P67,INI,FM,M2,108.90033377782952,Hz
CTR,P67,INI,FM,M3,105.87897905126448,Hz
CTR,P67,REL,FM,M1,132.5187271049982,Hz
CTR,P67,REL,FM,M2,122.75294282233963,Hz
CTR,P67,REL,FM,M3,121.3936051649486,Hz
CTR,P68,INI,FM,M1,106.53543194669598,Hz
CTR,P68,INI,FM,M2,90.28505261825356,Hz
CTR,P68,INI,FM,M3,80.89926819310114,Hz
CTR,P68,REL,FM,M1,122.5186591304798,Hz
CTR,P68,REL,FM,M2,89.00327826222244,Hz
CTR,P68,REL,FM,M3,93.90762893341832,Hz
