Group,Participant,Session,Operator,Measure,Value,Unit
CTR,P01,INI,FM,M1,0.0777499124339735,%MAX
CTR,P01,INI,FM,M2,0.3103428076602343,%MAX
CTR,P01,INI,FM,M3,0.0782808110017,%MAX
CTR,P01,REL,FM,M1,3.197882173623724,%MAX
CTR,P01,REL,FM,M2,2.61675460708566,%MAX
CTR,P01,REL,FM,M3,2.4629469812373324,%MAX
CTR,P02,INI,FM,M1,7.653264157833667,%MAX
CTR,P02,INI,FM,M2,7.401067041901243,%MAX
CTR,P02,INI,FM,M3,7.806327188588403,%MAX
CTR,P03,INI,FM,M1,9.18863732458838,%MAX
CTR,P03,INI,FM,M2,10.661707751259428,%MAX
CTR,P03,INI,FM,M3,9.984415958741096,%MAX
CTR,P03,REL,FM,M1,10.85778790636433,%MAX
CTR,P03,REL,FM,M2,12.364033492613142,%MAX
CTR,P03,REL,FM,M3,12.393819635885317,%MAX
CTR,P05,INI,FM,M1,4.966574506259297,%MAX
CTR,P05,INI,FM,M2,4.2502329401133405,%MAX
CTR,P05,INI,FM,M3,4.477039454690691,%MAX
CTR,P05,REL,FM,M1,4.585940433884911,%MAX
CTR,P05,REL,FM,M2,4.456444888004752,%MAX
CTR,P05,REL,FM,M3,4.4563384311267065,%MAX
CTR,P06,INI,FM,M1,17.362694257922136,%MAX
CTR,P06,INI,FM,M2,18.07969271903581,%MAX
CTR,P06,INI,FM,M3,17.667647788568907,%MAX
CTR,P06,REL,FM,M1,12.5350414585108,%MAX
CTR,P06,REL,FM,M2,11.692990365043766,%MAX
CTR,P06,REL,FM,M3,11.788177103594943,%MAX
CTR,P07,INI,FM,M1,6.947138396317538,%MAX
CTR,P07,INI,FM,M2,6.542040229311166,%MAX
CTR,P07,INI,FM,M3,6.657176613009763,%MAX
CTR,P07,REL,FM,M1,8.265823559042802,%MAX
CTR,P07,REL,FM,M2,9.63406846531322,%MAX
CTR,P07,REL,FM,M3,12.235288166856156,%MAX
CTR,P08,INI,FM,M1,3.9318329418783904,%MAX
CTR,P08,INI,FM,M2,3.9538379027714776,%MAX
CTR,P08,INI,FM,M3,3.463855343389283,%MAX
CTR,P08,REL,FM,M1,2.3346874161144258,%MAX
CTR,P08,REL,FM,M2,2.174611056793659,%MAX
CTR,P08,REL,FM,M3,2.154484312067693,%MAX
CTR,P13,INI,FM,M1,6.090477814371868,%MAX
CTR,P13,INI,FM,M2,6.398869682272436,%MAX
CTR,P13,INI,FM,M3,6.456766657490316,%MAX
CTR,P13,REL,FM,M1,8.586348362507117,%MAX
CTR,P13,REL,FM,M2,8.704671617357572,%MAX
CTR,P13,REL,FM,M3,8.421323768591161,%MAX
CTR,P16,INI,FM,M1,3.6637860736017496,%MAX
CTR,P16,INI,FM,M2,2.9809654692830745,%MAX
CTR,P16,INI,FM,M3,3.1112509176526872,%MAX
CTR,P16,REL,FM,M1,8.35619337376509,%MAX
CTR,P16,REL,FM,M2,8.560889010008799,%MAX
CTR,P16,REL,FM,M3,9.210116291897329,%MAX
CTR,P21,INI,FM,M1,7.678672419079952,%MAX
CTR,P21,INI,FM,M2,8.110231312583814,%MAX
CTR,P21,INI,FM,M3,9.032351967947784,%MAX
CTR,P21,REL,FM,M1,1.7374795878306517,%MAX
CTR,P21,REL,FM,M2,2.456353044038604,%MAX
CTR,P21,REL,FM,M3,2.2002361269918818,%MAX
CTR,P22,INI,FM,M1,5.082281727799785,%MAX
CTR,P22,INI,FM,M2,5.116204148663973,%MAX
CTR,P22,INI,FM,M3,5.044721510133815,%MAX
CTR,P22,REL,FM,M1,6.52960615565646,%MAX
CTR,P22,REL,FM,M2,6.589168140494969,%MAX
CTR,P22,REL,FM,M3,6.84571347005404,%MAX
CTR,P23,INI,FM,M1,5.668802195756717,%MAX
CTR,P23,INI,FM,M2,7.750201638583232,%MAX
CTR,P23,INI,FM,M3,6.8472179840449074,%MAX
CTR,P23,REL,FM,M1,10.804505981724231,%MAX
CTR,P23,REL,FM,M2,13.059912997459945,%MAX
CTR,P23,REL,FM,M3,12.146313810858498,%MAX
CTR,P25,INI,FM,M1,5.895111650249097,%MAX
CTR,P25,INI,FM,M2,6.03250466856024,%MAX
CTR,P25,INI,FM,M3,7.053796739795608,%MAX
CTR,P25,REL,FM,M1,6.237636752947587,%MAX
CTR,P25,REL,FM,M2,6.661178117784701,%MAX
CTR,P25,REL,FM,M3,5.684585217941101,%MAX
CTR,P35,INI,FM,M1,2.0259651901605453,%MAX
CTR,P35,INI,FM,M2,3.22470843280598,%MAX
CTR,P35,INI,FM,M3,2.4726524738468507,%MAX
CTR,P35,REL,FM,M1,6.914524996878392,%MAX
CTR,P35,REL,FM,M2,7.2174279906193055,%MAX
CTR,P35,REL,FM,M3,6.38868226141615,%MAX
CTR,P38,INI,FM,M1,6.450779963693459,%MAX
CTR,P38,INI,FM,M2,7.121669319679231,%MAX
CTR,P38,INI,FM,M3,6.907164975059181,%MAX
CTR,P38,REL,FM,M1,7.496904159029489,%MAX
CTR,P38,REL,FM,M2,7.118837572571216,%MAX
CTR,P38,REL,FM,M3,6.74410388994775,%MAX
CTR,P39,INI,FM,M1,1.670426456769328,%MAX
CTR,P39,INI,FM,M2,1.5289987776483582,%MAX
CTR,P39,INI,FM,M3,1.4730269657398205,%MAX
CTR,P39,REL,FM,M1,2.4464546996254226,%MAX
CTR,P39,REL,FM,M2,2.713127634860718,%MAX
CTR,P39,REL,FM,M3,2.5606275186885075,%MAX
CTR,P40,INI,FM,M1,6.013507895799627,%MAX
CTR,P40,INI,FM,M2,5.945803795761563,%MAX
CTR,P40,INI,FM,M3,5.558476888754305,%MAX
CTR,P40,REL,FM,M1,3.726247462099339,%MAX
CTR,P40,REL,FM,M2,3.688237801626826,%MAX
CTR,P40,REL,FM,M3,3.4970571312046435,%MAX
CTR,P44,INI,FM,M1,13.359782534451412,%MAX
CTR,P44,INI,FM,M2,13.578637876354186,%MAX
CTR,P44,INI,FM,M3,13.65631871250456,%MAX
CTR,P44,REL,FM,M1,7.562390852510664,%MAX
CTR,P44,REL,FM,M2,7.660477117512588,%MAX
CTR,P44,REL,FM,M3,7.7908871439855485,%MAX
CTR,P46,INI,FM,M1,9.072193231326263,%MAX
CTR,P46,INI,FM,M2,9.21256942923812,%MAX
CTR,P46,INI,FM,M3,9.04064606214319,%MAX
CTR,P46,REL,FM,M1,12.62841824928805,%MAX
CTR,P46,REL,FM,M2,13.477567772824958,%MAX
CTR,P46,REL,FM,M3,13.73112651380287,%MAX
CTR,P48,INI,FM,M1,8.819653104499235,%MAX
CTR,P48,INI,FM,M2,8.362015096244324,%MAX
CTR,P48,INI,FM,M3,8.388897703163632,%MAX
CTR,P48,REL,FM,M1,7.463790384028941,%MAX
CTR,P48,REL,FM,M2,7.70771780550813,%MAX
CTR,P48,REL,FM,M3,7.209736863610823,%MAX
CTR,P49,INI,FM,M1,2.917457473006567,%MAX
CTR,P49,INI,FM,M2,2.991503555095448,%MAX
CTR,P49,INI,FM,M3,2.6406135368967707,%MAX
CTR,P49,REL,FM,M1,1.6466282422806806,%MAX
CTR,P49,REL,FM,M2,1.80888556083754,%MAX
CTR,P49,REL,FM,M3,1.6161773976106777,%MAX
CTR,P52,INI,FM,M1,6.90125240557132,%MAX
CTR,P52,INI,FM,M2,7.650926488672543,%MAX
CTR,P52,INI,FM,M3,5.885549368821974,%MAX
CTR,P52,REL,FM,M1,5.461715563976656,%MAX
CTR,P52,REL,FM,M2,5.941177558602833,%MAX
CTR,P52,REL,FM,M3,4.653635976319382,%MAX
CTR,P55,INI,FM,M1,5.917472127915847,%MAX
CTR,P55,INI,FM,M2,6.990264937650856,%MAX
CTR,P55,INI,FM,M3,6.334997600562914,%MAX
CTR,P55,REL,FM,M1,3.1642106726431507,%MAX
CTR,P55,REL,FM,M2,3.859862586072115,%MAX
CTR,P55,REL,FM,M3,2.9291773182838696,%MAX
CTR,P56,INI,FM,M1,9.6410483783046,%MAX
CTR,P56,INI,FM,M2,9.006943963910661,%MAX
CTR,P56,INI,FM,M3,9.762236976022836,%MAX
CTR,P56,REL,FM,M1,10.43448918522133,%MAX
CTR,P56,REL,FM,M2,9.403939983295135,%MAX
CTR,P56,REL,FM,M3,9.129342142979487,%MAX
CTR,P57,INI,FM,M1,0.2260218786886388,%MAX
CTR,P57,INI,FM,M2,0.3859960181335358,%MAX
CTR,P57,INI,FM,M3,0.4210671117529536,%MAX
CTR,P57,REL,FM,M1,6.533993212778607,%MAX
CTR,P57,REL,FM,M2,6.6533631843563406,%MAX
CTR,P57,REL,FM,M3,5.66664337713002,%MAX
CTR,P60,INI,FM,M1,7.0093637190159575,%MAX
CTR,P60,INI,FM,M2,5.908839882589987,%MAX
CTR,P60,INI,FM,M3,5.249571325564056,%MAX
CTR,P60,REL,FM,M1,7.089205704119585,%MAX
CTR,P60,REL,FM,M2,6.780665731020732,%MAX
CTR,P60,REL,FM,M3,5.951331000908241,%MAX
CTR,P64,INI,FM,M1,3.464286890208329,%MAX
CTR,P64,INI,FM,M2,3.947310287566234,%MAX
CTR,P64,INI,FM,M3,3.631415208191674,%MAX
CTR,P64,REL,FM,M1,2.228139295078475,%MAX
CTR,P64,REL,FM,M2,2.225848312902646,%MAX
CTR,P64,REL,FM,M3,2.2141200754105608,%MAX
CTR,P66,INI,FM,M1,4.265106200966997,%MAX
CTR,P66,INI,FM,M2,4.863085567916982,%MAX
CTR,P66,INI,FM,M3,4.372132669079282,%MAX
CTR,P66,REL,FM,M1,4.347378238339342,%MAX
CTR,P66,REL,FM,M2,4.019898098096809,%MAX
CTR,P66,REL,FM,M3,4.565087369853174,%MAX
CTR,P67,INI,FM,M1,4.7057058718360905,%MAX
CTR,P67,INI,FM,M2,5.131072250614487,%MAX
CTR,P67,INI,FM,M3,5.673275785735994,%MAX
CTR,P67,REL,FM,M1,1.3682412250206222,%MAX
CTR,P67,REL,FM,M2,1.967259206501513,%MAX
CTR,P67,REL,FM,M3,1.652630045683341,%MAX
CTR,P68,INI,FM,M1,4.9486482751443255,%MAX
CTR,P68,INI,FM,M2,3.0311688772588097,%MAX
CTR,P68,INI,FM,M3,2.8563486510014897,%MAX
CTR,P68,REL,FM,M1,4.732634440544932,%MAX
CTR,P68,REL,FM,M2,4.595215568598893,%MAX
CTR,P68,REL,FM,M3,2.6549249300017053,%MAX
