Group,Participant,Session,Operator,Measure,Value,Unit
CTR,P01,INI,FM,M1,28.84666560221406,Hz
CTR,P01,INI,FM,M2,32.29916897506925,Hz
CTR,P01,INI,FM,M3,31.407498463429626,Hz
CTR,P01,REL,FM,M1,32.64436639990788,Hz
CTR,P01,REL,FM,M2,28.450324320852868,Hz
CTR,P01,REL,FM,M3,36.87106472289977,Hz
CTR,P02,INI,FM,M1,74.52667814113597,Hz
CTR,P02,INI,FM,M2,78.28791981104902,Hz
CTR,P02,INI,FM,M3,78.64890297657372,Hz
CTR,P02,REL,FM,M1,80.9402569719936,Hz
CTR,P02,REL,FM,M2,88.26296970077158,Hz
CTR,P02,REL,FM,M3,83.3008519405312,Hz
CTR,P03,INI,FM,M1,63.99095534200113,Hz
CTR,P03,INI,FM,M2,65.98187311178248,Hz
CTR,P03,INI,FM,M3,71.54150197628458,Hz
CTR,P03,REL,FM,M1,65.56137289121581,Hz
CTR,P03,REL,FM,M2,47.76699029126213,Hz
CTR,P03,REL,FM,M3,62.82051282051281,Hz
CTR,P05,INI,FM,M1,103.72253732316318,Hz
CTR,P05,INI,FM,M2,103.77358490566036,Hz
CTR,P05,INI,FM,M3,97.2667855020796,Hz
CTR,P05,REL,FM,M1,101.17302052785922,Hz
CTR,P05,REL,FM,M2,114.74264962637056,Hz
CTR,P05,REL,FM,M3,103.61687876758208,Hz
CTR,P06,INI,FM,M1,81.69683416031867,Hz
CTR,P06,INI,FM,M2,83.45296797952686,Hz
CTR,P06,INI,FM,M3,86.07673267326733,Hz
CTR,P06,REL,FM,M1,67.23809523809524,Hz
CTR,P06,REL,FM,M2,85.75438596491227,Hz
CTR,P06,REL,FM,M3,92.12679556336748,Hz
CTR,P07,INI,FM,M1,103.35932813437311,Hz
CTR,P07,INI,FM,M2,105.09617291294866,Hz
CTR,P07,INI,FM,M3,78.76794258373207,Hz
CTR,P07,REL,FM,M1,109.495117390401,Hz
CTR,P07,REL,FM,M2,107.80407780642138,Hz
CTR,P07,REL,FM,M3,108.36902576653748,Hz
CTR,P08,INI,FM,M1,74.19410845535043,Hz
CTR,P08,INI,FM,M2,72.54125412541254,Hz
CTR,P08,INI,FM,M3,77.02880705572417,Hz
CTR,P08,REL,FM,M1,79.40033314825097,Hz
CTR,P08,REL,FM,M2,70.64322865231416,Hz
CTR,P08,REL,FM,M3,75.00982538880467,Hz
CTR,P13,INI,FM,M1,77.51623376623377,Hz
CTR,P13,INI,FM,M2,74.62019660411082,Hz
CTR,P13,INI,FM,M3,71.7684377478192,Hz
CTR,P13,REL,FM,M1,77.31160347498148,Hz
CTR,P13,REL,FM,M2,77.4089068825911,Hz
CTR,P13,REL,FM,M3,71.97047365183515,Hz
CTR,P16,INI,FM,M1,28.615257537317834,Hz
CTR,P16,INI,FM,M2,33.50207610488596,Hz
CTR,P16,INI,FM,M3,22.12475633528265,Hz
CTR,P16,REL,FM,M1,71.840413546292,Hz
CTR,P16,REL,FM,M2,77.85111063799587,Hz
CTR,P16,REL,FM,M3,78.76154263986965,Hz
CTR,P21,INI,FM,M1,67.66802053797227,Hz
CTR,P21,INI,FM,M2,58.313817330210775,Hz
CTR,P21,INI,FM,M3,60.29522141606205,Hz
CTR,P21,REL,FM,M1,67.72291820191599,Hz
CTR,P21,REL,FM,M2,61.84926184926184,Hz
CTR,P21,REL,FM,M3,62.68758526603001,Hz
CTR,P22,INI,FM,M1,30.215384615384615,Hz
CTR,P22,INI,FM,M2,33.21278323123478,Hz
CTR,P22,INI,FM,M3,29.014259144451337,Hz
CTR,P22,REL,FM,M1,32.540851392103235,Hz
CTR,P22,REL,FM,M2,28.789161727349704,Hz
CTR,P22,REL,FM,M3,37.877770315648085,Hz
CTR,P23,INI,FM,M1,46.84247050659265,Hz
CTR,P23,INI,FM,M2,42.03754955494053,Hz
CTR,P23,INI,FM,M3,38.92810636693852,Hz
CTR,P23,REL,FM,M1,72.67605633802816,Hz
CTR,P23,REL,FM,M2,71.90480209300364,Hz
CTR,P23,REL,FM,M3,79.1416178373031,Hz
CTR,P25,INI,FM,M1,94.05102457820072,Hz
CTR,P25,INI,FM,M2,102.76988636363636,Hz
CTR,P25,INI,FM,M3,97.58738944708502,Hz
CTR,P25,REL,FM,M1,103.91214824982842,Hz
CTR,P25,REL,FM,M2,99.29411764705884,Hz
CTR,P25,REL,FM,M3,107.53512132822478,Hz
CTR,P35,INI,FM,M1,88.85375494071147,Hz
CTR,P35,INI,FM,M2,94.67174119885824,Hz
CTR,P35,INI,FM,M3,90.88345864661652,Hz
CTR,P35,REL,FM,M1,85.11194354908963,Hz
CTR,P35,REL,FM,M2,90.34907597535934,Hz
CTR,P35,REL,FM,M3,89.84783833829805,Hz
CTR,P38,INI,FM,M1,71.18668491966281,Hz
CTR,P38,INI,FM,M2,67.80982073265783,Hz
CTR,P38,INI,FM,M3,72.14484679665739,Hz
CTR,P38,REL,FM,M1,74.48471926083866,Hz
CTR,P38,REL,FM,M2,64.93927125506073,Hz
CTR,P38,REL,FM,M3,64.18685121107266,Hz
CTR,P39,INI,FM,M1,79.5824192450261,Hz
CTR,P39,INI,FM,M2,75.52897062762253,Hz
CTR,P39,INI,FM,M3,67.44941294029478,Hz
CTR,P39,REL,FM,M1,63.358778625954194,Hz
CTR,P39,REL,FM,M2,56.99276439686788,Hz
CTR,P39,REL,FM,M3,60.42047531992687,Hz
CTR,P40,INI,FM,M1,108.29848117983713,Hz
CTR,P40,INI,FM,M2,111.92825112107624,Hz
CTR,P40,INI,FM,M3,112.0710343172546,Hz
CTR,P40,REL,FM,M1,96.16413916146296,Hz
CTR,P40,REL,FM,M2,97.63285483410972,Hz
CTR,P40,REL,FM,M3,93.79332843976836,Hz
CTR,P44,INI,FM,M1,79.6629139508855,Hz
CTR,P44,INI,FM,M2,71.98723064644851,Hz
CTR,P44,INI,FM,M3,80.39482641252553,Hz
CTR,P44,REL,FM,M1,90.94427244582045,Hz
CTR,P44,REL,FM,M2,92.83373195145718,Hz
CTR,P44,REL,FM,M3,97.89227166276348,Hz
CTR,P46,INI,FM,M1,45.116174148432215,Hz
CTR,P46,INI,FM,M2,52.29761539248797,Hz
CTR,P46,INI,FM,M3,56.774193548387096,Hz
CTR,P46,REL,FM,M1,64.56140350877193,Hz
CTR,P46,REL,FM,M2,61.29338537820445,Hz
CTR,P46,REL,FM,M3,59.549206938131896,Hz
CTR,P48,INI,FM,M1,93.5686274509804,Hz
CTR,P48,INI,FM,M2,98.34920080356362,Hz
CTR,P48,INI,FM,M3,95.47471162377994,Hz
CTR,P48,REL,FM,M1,104.94466119914006,Hz
CTR,P48,REL,FM,M2,100.33559934601152,Hz
CTR,P48,REL,FM,M3,106.33864893020272,Hz
CTR,P49,INI,FM,M1,90.00478748869621,Hz
CTR,P49,INI,FM,M2,92.04301075268816,Hz
CTR,P49,INI,FM,M3,94.62295081967214,Hz
CTR,P49,REL,FM,M1,86.92887637387591,Hz
CTR,P49,REL,FM,M2,93.33683565362053,Hz
CTR,P49,REL,FM,M3,92.2717382544927,Hz
CTR,P52,INI,FM,M1,86.61774718208639,Hz
CTR,P52,INI,FM,M2,92.24011713030744,Hz
CTR,P52,INI,FM,M3,92.2753988245172,Hz
CTR,P52,REL,FM,M1,89.66352875384472,Hz
CTR,P52,REL,FM,M2,101.85185185185183,Hz
CTR,P52,REL,FM,M3,110.4199066874028,Hz
CTR,P55,INI,FM,M1,60.89494163424125,Hz
CTR,P55,INI,FM,M2,56.48574057037718,Hz
CTR,P55,INI,FM,M3,55.87967183226982,Hz
CTR,P55,REL,FM,M1,59.64912280701754,Hz
CTR,P55,REL,FM,M2,55.386289445048966,Hz
CTR,P55,REL,FM,M3,59.4847775175644,Hz
CTR,P56,INI,FM,M1,42.34461161413302,Hz
CTR,P56,INI,FM,M2,52.31839258114374,Hz
CTR,P56,INI,FM,M3,48.26086956521739,Hz
CTR,P56,REL,FM,M1,33.7942955920484,Hz
CTR,P56,REL,FM,M2,36.66666666666666,Hz
CTR,P56,REL,FM,M3,46.44740145618881,Hz
CTR,P57,INI,FM,M1,45.676392572944295,Hz
CTR,P57,INI,FM,M2,46.53506431916533,Hz
CTR,P57,INI,FM,M3,43.95064759683261,Hz
CTR,P57,REL,FM,M1,48.11800610376399,Hz
CTR,P57,REL,FM,M2,45.29801324503312,Hz
CTR,P57,REL,FM,M3,62.73255813953488,Hz
CTR,P60,INI,FM,M1,92.10194297249558,Hz
CTR,P60,INI,FM,M2,88.87908208296558,Hz
CTR,P60,INI,FM,M3,83.23591302314706,Hz
CTR,P60,REL,FM,M1,91.58790170132325,Hz
CTR,P60,REL,FM,M2,80.5942215463797,Hz
CTR,P60,REL,FM,M3,84.40875633304655,Hz
CTR,P64,INI,FM,M1,70.40348636261176,Hz
CTR,P64,INI,FM,M2,73.28477654887149,Hz
CTR,P64,INI,FM,M3,76.06244579358196,Hz
CTR,P64,REL,FM,M1,71.43884892086331,Hz
CTR,P64,REL,FM,M2,81.46118721461187,Hz
CTR,P64,REL,FM,M3,77.35849056603773,Hz
CTR,P66,INI,FM,M1,37.80254308017085,Hz
CTR,P66,INI,FM,M2,34.89883051791349,Hz
CTR,P66,INI,FM,M3,41.18146833924734,Hz
CTR,P66,REL,FM,M1,47.94956330614841,Hz
CTR,P66,REL,FM,M2,58.03809862916148,Hz
CTR,P66,REL,FM,M3,56.31719665509984,Hz
CTR,P67,INI,FM,M1,70.52238805970148,Hz
CTR,P67,INI,FM,M2,66.02739726027397,Hz
CTR,P67,INI,FM,M3,72.55851493139629,Hz
CTR,P67,REL,FM,M1,68.95820072140886,Hz
CTR,P67,REL,FM,M2,67.73333333333333,Hz
CTR,P67,REL,FM,M3,59.77501654290125,Hz
CTR,P68,INI,FM,M1,87.56579397087975,Hz
CTR,P68,INI,FM,M2,81.15985352365294,Hz
CTR,P68,INI,FM,M3,71.78745956363136,Hz
CTR,P68,REL,FM,M1,97.00822737471952,Hz
CTR,P68,REL,FM,M2,97.99675148890093,Hz
CTR,P68,REL,FM,M3,89.4238358326756,Hz
