Group,Participant,Session,Operator,Measure,Value,Unit
CTR,P01,INI,FM,M1,,V
CTR,P01,INI,FM,M2,,V
CTR,P01,INI,FM,M3,,V
CTR,P01,REL,FM,M1,0.0137964875944321,V
CTR,P01,REL,FM,M2,0.1264237289348372,V
CTR,P01,REL,FM,M3,0.0537903065044184,V
CTR,P02,INI,FM,M1,0.0027802962361321,V
CTR,P02,INI,FM,M2,0.0025297366035339,V
CTR,P02,INI,FM,M3,0.0062019896977049,V
CTR,P02,REL,FM,M1,,V
CTR,P02,REL,FM,M2,,V
CTR,P02,REL,FM,M3,,V
CTR,P03,INI,FM,M1,0.0024300632257189,V
CTR,P03,INI,FM,M2,0.0024947210325685,V
CTR,P03,INI,FM,M3,0.0022826794611395,V
CTR,P03,REL,FM,M1,0.0027854208903786,V
CTR,P03,REL,FM,M2,0.0028935964703792,V
CTR,P03,REL,FM,M3,0.0031324453805535,V
CTR,P05,INI,FM,M1,0.1332250512183304,V
CTR,P05,INI,FM,M2,0.1613080847777673,V
CTR,P05,INI,FM,M3,0.0769164561869437,V
CTR,P05,REL,FM,M1,0.0027181116587251,V
CTR,P05,REL,FM,M2,0.0027864368912679,V
CTR,P05,REL,FM,M3,0.004668123893069,V
CTR,P06,INI,FM,M1,,V
CTR,P06,INI,FM,M2,,V
CTR,P06,INI,FM,M3,,V
CTR,P06,REL,FM,M1,,V
CTR,P06,REL,FM,M2,,V
CTR,P06,REL,FM,M3,,V
CTR,P07,INI,FM,M1,0.0031912162139001,V
CTR,P07,INI,FM,M2,0.0032567913720633,V
CTR,P07,INI,FM,M3,0.0028724624319203,V
CTR,P07,REL,FM,M1,0.002894195042921,V
CTR,P07,REL,FM,M2,0.0026058722412543,V
CTR,P07,REL,FM,M3,0.0032943517189945,V
CTR,P08,INI,FM,M1,,V
CTR,P08,INI,FM,M2,0.0033809796545746,V
CTR,P08,INI,FM,M3,,V
CTR,P08,REL,FM,M1,,V
CTR,P08,REL,FM,M2,,V
CTR,P08,REL,FM,M3,0.0029800278719003,V
CTR,P13,INI,FM,M1,0.0040768393456833,V
CTR,P13,INI,FM,M2,0.005506630100307,V
CTR,P13,INI,FM,M3,0.0034101675649712,V
CTR,P13,REL,FM,M1,0.0028467482898202,V
CTR,P13,REL,FM,M2,,V
CTR,P13,REL,FM,M3,0.002311182461886,V
CTR,P16,INI,FM,M1,,V
CTR,P16,INI,FM,M2,,V
CTR,P16,INI,FM,M3,0.0030727719480671,V
CTR,P16,REL,FM,M1,,V
CTR,P16,REL,FM,M2,0.0022155711068205,V
CTR,P16,REL,FM,M3,0.0036568746652033,V
CTR,P21,INI,FM,M1,,V
CTR,P21,INI,FM,M2,,V
CTR,P21,INI,FM,M3,,V
CTR,P21,REL,FM,M1,,V
CTR,P21,REL,FM,M2,,V
CTR,P21,REL,FM,M3,,V
CTR,P22,INI,FM,M1,0.0029260953866594,V
CTR,P22,INI,FM,M2,0.0023076058840742,V
CTR,P22,INI,FM,M3,0.0024117308559987,V
CTR,P22,REL,FM,M1,,V
CTR,P22,REL,FM,M2,,V
CTR,P22,REL,FM,M3,,V
CTR,P23,INI,FM,M1,0.0027813765349527,V
CTR,P23,INI,FM,M2,0.0027042222847682,V
CTR,P23,INI,FM,M3,0.0023076945849125,V
CTR,P23,REL,FM,M1,0.0026100868783944,V
CTR,P23,REL,FM,M2,0.0029037991706435,V
CTR,P23,REL,FM,M3,0.0022392113170579,V
CTR,P25,INI,FM,M1,0.0049441140696708,V
CTR,P25,INI,FM,M2,,V
CTR,P25,INI,FM,M3,,V
CTR,P25,REL,FM,M1,0.0027311271264273,V
CTR,P25,REL,FM,M2,0.0019310480158046,V
CTR,P25,REL,FM,M3,0.0023093727954597,V
CTR,P35,INI,FM,M1,,V
CTR,P35,INI,FM,M2,,V
CTR,P35,INI,FM,M3,,V
CTR,P35,REL,FM,M1,0.0031335969731164,V
CTR,P35,REL,FM,M2,0.0030251206656683,V
CTR,P35,REL,FM,M3,0.0024213299694857,V
CTR,P38,INI,FM,M1,0.0030560955277096,V
CTR,P38,INI,FM,M2,0.0031778796444303,V
CTR,P38,INI,FM,M3,0.00300199968614,V
CTR,P38,REL,FM,M1,0.0029212225929727,V
CTR,P38,REL,FM,M2,0.0026528618992697,V
CTR,P38,REL,FM,M3,,V
CTR,P39,INI,FM,M1,,V
CTR,P39,INI,FM,M2,0.0026611832128609,V
CTR,P39,INI,FM,M3,0.0024605629970255,V
CTR,P39,REL,FM,M1,0.0019153820963739,V
CTR,P39,REL,FM,M2,0.0018438102639981,V
CTR,P39,REL,FM,M3,0.0018454557757334,V
CTR,P40,INI,FM,M1,,V
CTR,P40,INI,FM,M2,,V
CTR,P40,INI,FM,M3,,V
CTR,P40,REL,FM,M1,,V
CTR,P40,REL,FM,M2,,V
CTR,P40,REL,FM,M3,0.00264697509906,V
CTR,P44,INI,FM,M1,0.0050685721203025,V
CTR,P44,INI,FM,M2,0.0047669967111088,V
CTR,P44,INI,FM,M3,0.0047903952746246,V
CTR,P44,REL,FM,M1,0.0051850412476116,V
CTR,P44,REL,FM,M2,0.0050073466198795,V
CTR,P44,REL,FM,M3,0.0036524512129376,V
CTR,P46,INI,FM,M1,,V
CTR,P46,INI,FM,M2,,V
CTR,P46,INI,FM,M3,,V
CTR,P46,REL,FM,M1,,V
CTR,P46,REL,FM,M2,,V
CTR,P46,REL,FM,M3,,V
CTR,P48,INI,FM,M1,0.0051819572989196,V
CTR,P48,INI,FM,M2,0.0055458318747733,V
CTR,P48,INI,FM,M3,0.0041839637866182,V
CTR,P48,REL,FM,M1,0.0039135002975282,V
CTR,P48,REL,FM,M2,0.0044286058686458,V
CTR,P48,REL,FM,M3,0.0049878233108366,V
CTR,P49,INI,FM,M1,0.0051835479521693,V
CTR,P49,INI,FM,M2,0.0043206197656717,V
CTR,P49,INI,FM,M3,0.0043730308925557,V
CTR,P49,REL,FM,M1,0.0043229544790187,V
CTR,P49,REL,FM,M2,0.0043719416136553,V
CTR,P49,REL,FM,M3,0.0044030856067042,V
CTR,P52,INI,FM,M1,0.0033805205600956,V
CTR,P52,INI,FM,M2,0.0028989170247854,V
CTR,P52,INI,FM,M3,0.0024015468978827,V
CTR,P52,REL,FM,M1,0.0027300916200474,V
CTR,P52,REL,FM,M2,0.0026945882806041,V
CTR,P52,REL,FM,M3,0.0024863063605771,V
CTR,P55,INI,FM,M1,,V
CTR,P55,INI,FM,M2,,V
CTR,P55,INI,FM,M3,,V
CTR,P55,REL,FM,M1,0.0023879484049125,V
CTR,P55,REL,FM,M2,0.0022938175607582,V
CTR,P55,REL,FM,M3,0.0022228704958783,V
CTR,P56,INI,FM,M1,0.0027310206123789,V
CTR,P56,INI,FM,M2,0.0026807738123089,V
CTR,P56,INI,FM,M3,,V
CTR,P56,REL,FM,M1,0.0028503707749151,V
CTR,P56,REL,FM,M2,0.0026967730095746,V
CTR,P56,REL,FM,M3,0.0029881824656043,V
CTR,P57,INI,FM,M1,0.0014494765834129,V
CTR,P57,INI,FM,M2,0.0013784951938802,V
CTR,P57,INI,FM,M3,0.0015513337898331,V
CTR,P57,REL,FM,M1,0.0019074811033721,V
CTR,P57,REL,FM,M2,0.0016682142779505,V
CTR,P57,REL,FM,M3,0.0018176723267928,V
CTR,P60,INI,FM,M1,0.0043150314432155,V
CTR,P60,INI,FM,M2,,V
CTR,P60,INI,FM,M3,,V
CTR,P60,REL,FM,M1,0.0026247137622433,V
CTR,P60,REL,FM,M2,0.002356342554652,V
CTR,P60,REL,FM,M3,0.0023981748970242,V
CTR,P64,INI,FM,M1,0.0060293964214225,V
CTR,P64,INI,FM,M2,0.0062877990522518,V
CTR,P64,INI,FM,M3,0.0060607180118425,V
CTR,P64,REL,FM,M1,,V
CTR,P64,REL,FM,M2,0.0046649095751909,V
CTR,P64,REL,FM,M3,,V
CTR,P66,INI,FM,M1,0.0032587043059495,V
CTR,P66,INI,FM,M2,0.0034993202842587,V
CTR,P66,INI,FM,M3,0.0031842662413345,V
CTR,P66,REL,FM,M1,0.0029937952562302,V
CTR,P66,REL,FM,M2,0.0028641976523785,V
CTR,P66,REL,FM,M3,0.002713586199131,V
CTR,P67,INI,FM,M1,,V
CTR,P67,INI,FM,M2,,V
CTR,P67,INI,FM,M3,,V
CTR,P67,REL,FM,M1,0.0028516398478679,V
CTR,P67,REL,FM,M2,0.0037702353234371,V
CTR,P67,REL,FM,M3,0.0029030867046349,V
CTR,P68,INI,FM,M1,,V
CTR,P68,INI,FM,M2,,V
CTR,P68,INI,FM,M3,,V
CTR,P68,REL,FM,M1,,V
CTR,P68,REL,FM,M2,,V
CTR,P68,REL,FM,M3,,V
