Group,Participant,Session,Operator,Measure,Value,Unit
CTR,P01,INI,FM,M1,0.1115441640550475,V
CTR,P01,INI,FM,M2,0.1268160629381191,V
CTR,P01,INI,FM,M3,0.1412584830612747,V
CTR,P01,REL,FM,M1,0.0115750397699791,V
CTR,P01,REL,FM,M2,0.0117268415558163,V
CTR,P01,REL,FM,M3,0.0114169920052456,V
CTR,P02,INI,FM,M1,0.0260934204434897,V
CTR,P02,INI,FM,M2,0.0268901375091472,V
CTR,P02,INI,FM,M3,0.0260848151456556,V
CTR,P02,REL,FM,M1,0.0273514836563881,V
CTR,P02,REL,FM,M2,0.0323788626656732,V
CTR,P02,REL,FM,M3,0.0326541871343441,V
CTR,P03,INI,FM,M1,0.0247127325321983,V
CTR,P03,INI,FM,M2,0.0167857417456176,V
CTR,P03,INI,FM,M3,0.0152506486469663,V
CTR,P03,REL,FM,M1,0.0128487492227386,V
CTR,P03,REL,FM,M2,0.0124194820386631,V
CTR,P03,REL,FM,M3,0.0128838131206468,V
CTR,P05,INI,FM,M1,0.0271901014580274,V
CTR,P05,INI,FM,M2,0.0261397383559594,V
CTR,P05,INI,FM,M3,0.0274185980262339,V
CTR,P05,REL,FM,M1,0.0253998750893599,V
CTR,P05,REL,FM,M2,0.0245772673700556,V
CTR,P05,REL,FM,M3,0.0259639710327757,V
CTR,P06,INI,FM,M1,0.0091421561340755,V
CTR,P06,INI,FM,M2,0.0091159361919924,V
CTR,P06,INI,FM,M3,0.0093685876204504,V
CTR,P06,REL,FM,M1,0.008045812610819,V
CTR,P06,REL,FM,M2,0.0085324415809456,V
CTR,P06,REL,FM,M3,0.0087095119444216,V
CTR,P07,INI,FM,M1,0.0464488934489649,V
CTR,P07,INI,FM,M2,0.0462444572315141,V
CTR,P07,INI,FM,M3,0.0465878130416961,V
CTR,P07,REL,FM,M1,0.0522372183347817,V
CTR,P07,REL,FM,M2,0.0542420594727728,V
CTR,P07,REL,FM,M3,0.0539047756098832,V
CTR,P08,INI,FM,M1,0.0122467196423823,V
CTR,P08,INI,FM,M2,0.008650343879863,V
CTR,P08,INI,FM,M3,0.0109166906763659,V
CTR,P08,REL,FM,M1,0.0093678898268435,V
CTR,P08,REL,FM,M2,0.0111446073184864,V
CTR,P08,REL,FM,M3,0.0097596456002257,V
CTR,P13,INI,FM,M1,0.0110212970283502,V
CTR,P13,INI,FM,M2,0.0120578671537887,V
CTR,P13,INI,FM,M3,0.0118715016666139,V
CTR,P13,REL,FM,M1,0.009754967673382,V
CTR,P13,REL,FM,M2,0.0097447156734143,V
CTR,P13,REL,FM,M3,0.0106224396158737,V
CTR,P16,INI,FM,M1,0.0470333880541723,V
CTR,P16,INI,FM,M2,0.053581607755407,V
CTR,P16,INI,FM,M3,0.0975215973105055,V
CTR,P16,REL,FM,M1,0.0102674858068414,V
CTR,P16,REL,FM,M2,0.0107574807501819,V
CTR,P16,REL,FM,M3,0.0103955177435374,V
CTR,P21,INI,FM,M1,0.0314729108368375,V
CTR,P21,INI,FM,M2,0.0368245172121041,V
CTR,P21,INI,FM,M3,0.0432549446937794,V
CTR,P21,REL,FM,M1,0.0303736776513368,V
CTR,P21,REL,FM,M2,0.0356569918136329,V
CTR,P21,REL,FM,M3,0.0422683798508911,V
CTR,P22,INI,FM,M1,0.0334884160887007,V
CTR,P22,INI,FM,M2,0.0968297026006881,V
CTR,P22,INI,FM,M3,0.0320179462284907,V
CTR,P22,REL,FM,M1,,V
CTR,P22,REL,FM,M2,,V
CTR,P22,REL,FM,M3,,V
CTR,P23,INI,FM,M1,0.0169566461692056,V
CTR,P23,INI,FM,M2,0.0175428804225587,V
CTR,P23,INI,FM,M3,0.0236962823831428,V
CTR,P23,REL,FM,M1,0.0131101499300457,V
CTR,P23,REL,FM,M2,0.0146492830501255,V
CTR,P23,REL,FM,M3,0.0138760197515156,V
CTR,P25,INI,FM,M1,0.022107549907782,V
CTR,P25,INI,FM,M2,0.0241665214602401,V
CTR,P25,INI,FM,M3,0.0257380125178543,V
CTR,P25,REL,FM,M1,0.022277303523913,V
CTR,P25,REL,FM,M2,0.0226520427983065,V
CTR,P25,REL,FM,M3,0.0229334657327569,V
CTR,P35,INI,FM,M1,0.0260657522859415,V
CTR,P35,INI,FM,M2,0.0262057323798805,V
CTR,P35,INI,FM,M3,0.0283354494663609,V
CTR,P35,REL,FM,M1,0.0232998265207176,V
CTR,P35,REL,FM,M2,0.0204267307220591,V
CTR,P35,REL,FM,M3,0.0219931673776844,V
CTR,P38,INI,FM,M1,0.0155962660326111,V
CTR,P38,INI,FM,M2,0.0170693182707846,V
CTR,P38,INI,FM,M3,0.0155077956905768,V
CTR,P38,REL,FM,M1,0.0168249732409265,V
CTR,P38,REL,FM,M2,0.0162296901880984,V
CTR,P38,REL,FM,M3,0.01691181946667,V
CTR,P39,INI,FM,M1,0.0075761369942301,V
CTR,P39,INI,FM,M2,0.0069468864308194,V
CTR,P39,INI,FM,M3,0.0082180184803025,V
CTR,P39,REL,FM,M1,0.0077668099800884,V
CTR,P39,REL,FM,M2,0.0092336055714776,V
CTR,P39,REL,FM,M3,0.0075867911033878,V
CTR,P40,INI,FM,M1,0.0184414179202083,V
CTR,P40,INI,FM,M2,0.0182557280671187,V
CTR,P40,INI,FM,M3,0.0201680576005924,V
CTR,P40,REL,FM,M1,0.0206784711801781,V
CTR,P40,REL,FM,M2,0.0219353050806805,V
CTR,P40,REL,FM,M3,0.0240364568685778,V
CTR,P44,INI,FM,M1,0.022566306624773,V
CTR,P44,INI,FM,M2,0.0238720154433558,V
CTR,P44,INI,FM,M3,0.0246499120315801,V
CTR,P44,REL,FM,M1,0.021632638621083,V
CTR,P44,REL,FM,M2,0.0219442285755978,V
CTR,P44,REL,FM,M3,0.0231559985729473,V
CTR,P46,INI,FM,M1,0.0195548002971995,V
CTR,P46,INI,FM,M2,0.020400241848615,V
CTR,P46,INI,FM,M3,0.0209321402511043,V
CTR,P46,REL,FM,M1,0.0249745752738631,V
CTR,P46,REL,FM,M2,0.0262298990929166,V
CTR,P46,REL,FM,M3,0.0267148373041888,V
CTR,P48,INI,FM,M1,0.0345019859958761,V
CTR,P48,INI,FM,M2,0.0347805161423744,V
CTR,P48,INI,FM,M3,0.0334628804815757,V
CTR,P48,REL,FM,M1,0.0299162054958211,V
CTR,P48,REL,FM,M2,0.0289791157748609,V
CTR,P48,REL,FM,M3,0.037512189249164,V
CTR,P49,INI,FM,M1,0.0354880466647731,V
CTR,P49,INI,FM,M2,0.0381980793367281,V
CTR,P49,INI,FM,M3,0.0347108345040504,V
CTR,P49,REL,FM,M1,0.0246359463104896,V
CTR,P49,REL,FM,M2,0.0235089757976172,V
CTR,P49,REL,FM,M3,0.0265645591426318,V
CTR,P52,INI,FM,M1,0.0294256605275964,V
CTR,P52,INI,FM,M2,0.0342969752522758,V
CTR,P52,INI,FM,M3,0.0318791401207991,V
CTR,P52,REL,FM,M1,0.0252671503191972,V
CTR,P52,REL,FM,M2,0.0303799226599507,V
CTR,P52,REL,FM,M3,0.0282375636710572,V
CTR,P55,INI,FM,M1,0.0085780465428214,V
CTR,P55,INI,FM,M2,0.0105265300618991,V
CTR,P55,INI,FM,M3,0.0108995807626795,V
CTR,P55,REL,FM,M1,0.0126515382457076,V
CTR,P55,REL,FM,M2,0.0138195752285585,V
CTR,P55,REL,FM,M3,0.0148514253199714,V
CTR,P56,INI,FM,M1,0.0190829066746391,V
CTR,P56,INI,FM,M2,0.0200681317065128,V
CTR,P56,INI,FM,M3,0.0205815857860904,V
CTR,P56,REL,FM,M1,0.0246322095024403,V
CTR,P56,REL,FM,M2,0.0240962821110941,V
CTR,P56,REL,FM,M3,0.0231943324061356,V
CTR,P57,INI,FM,M1,0.0440393034464122,V
CTR,P57,INI,FM,M2,0.0409312976732887,V
CTR,P57,INI,FM,M3,0.0361809794197957,V
CTR,P57,REL,FM,M1,0.0133851940560025,V
CTR,P57,REL,FM,M2,0.0147720522729763,V
CTR,P57,REL,FM,M3,0.0138781237061735,V
CTR,P60,INI,FM,M1,0.0150499376393562,V
CTR,P60,INI,FM,M2,,V
CTR,P60,INI,FM,M3,,V
CTR,P60,REL,FM,M1,0.0183788521139025,V
CTR,P60,REL,FM,M2,0.0180989902168399,V
CTR,P60,REL,FM,M3,0.0185016251216529,V
CTR,P64,INI,FM,M1,0.027594620282774,V
CTR,P64,INI,FM,M2,0.0295695008291733,V
CTR,P64,INI,FM,M3,0.0294513176721101,V
CTR,P64,REL,FM,M1,0.024175374829528,V
CTR,P64,REL,FM,M2,0.0260143424259815,V
CTR,P64,REL,FM,M3,0.0299652938329136,V
CTR,P66,INI,FM,M1,0.0389906420913292,V
CTR,P66,INI,FM,M2,0.0658208055234047,V
CTR,P66,INI,FM,M3,0.0684158013218715,V
CTR,P66,REL,FM,M1,0.0245867738813346,V
CTR,P66,REL,FM,M2,0.0234803990997657,V
CTR,P66,REL,FM,M3,0.0230135623794098,V
CTR,P67,INI,FM,M1,0.0403185762417307,V
CTR,P67,INI,FM,M2,0.0437736052445384,V
CTR,P67,INI,FM,M3,0.0379448250508362,V
CTR,P67,REL,FM,M1,0.0371357308032395,V
CTR,P67,REL,FM,M2,0.0382057820303632,V
CTR,P67,REL,FM,M3,0.0389795207118746,V
CTR,P68,INI,FM,M1,0.0295304038986502,V
CTR,P68,INI,FM,M2,0.0293093300722542,V
CTR,P68,INI,FM,M3,0.0597719146578545,V
CTR,P68,REL,FM,M1,0.0269921917040097,V
CTR,P68,REL,FM,M2,0.0282800626001202,V
CTR,P68,REL,FM,M3,0.0309567254507507,V
