Group,Participant,Session,Operator,Measure,Value,Unit
CTR,P01,INI,FM,M1,0.40666666666666673,s
CTR,P01,INI,FM,M2,0.5903333333333333,s
CTR,P01,INI,FM,M3,0.8543333333333334,s
CTR,P01,REL,FM,M1,3.7225,s
CTR,P01,REL,FM,M2,1.3255000000000001,s
CTR,P01,REL,FM,M3,3.232,s
CTR,P02,INI,FM,M1,0.9330000000000002,s
CTR,P02,INI,FM,M2,0.8973333333333332,s
CTR,P02,INI,FM,M3,4.456666666666666,s
CTR,P02,REL,FM,M1,0.722,s
CTR,P02,REL,FM,M2,0.512,s
CTR,P02,REL,FM,M3,24.233,s
CTR,P03,INI,FM,M1,1.359,s
CTR,P03,INI,FM,M2,25.97,s
CTR,P03,INI,FM,M3,,s
CTR,P03,REL,FM,M1,2.669,s
CTR,P03,REL,FM,M2,0.418,s
CTR,P03,REL,FM,M3,2.964,s
CTR,P05,INI,FM,M1,0.6795,s
CTR,P05,INI,FM,M2,1.06025,s
CTR,P05,INI,FM,M3,0.43000000000000005,s
CTR,P05,REL,FM,M1,6.277,s
CTR,P05,REL,FM,M2,10.19,s
CTR,P05,REL,FM,M3,,s
CTR,P06,INI,FM,M1,0.3353333333333333,s
CTR,P06,INI,FM,M2,0.6343333333333333,s
CTR,P06,INI,FM,M3,0.5133333333333333,s
CTR,P06,REL,FM,M1,1.0005000000000002,s
CTR,P06,REL,FM,M2,0.83925,s
CTR,P06,REL,FM,M3,0.7484999999999999,s
CTR,P07,INI,FM,M1,1.5370000000000001,s
CTR,P07,INI,FM,M2,3.260666666666667,s
CTR,P07,INI,FM,M3,3.2906666666666666,s
CTR,P07,REL,FM,M1,2.639,s
CTR,P07,REL,FM,M2,1.028,s
CTR,P07,REL,FM,M3,1.95475,s
CTR,P08,INI,FM,M1,1.078,s
CTR,P08,INI,FM,M2,0.963,s
CTR,P08,INI,FM,M3,0.6845,s
CTR,P08,REL,FM,M1,0.465,s
CTR,P08,REL,FM,M2,0.589,s
CTR,P08,REL,FM,M3,,s
CTR,P13,INI,FM,M1,0.9796666666666667,s
CTR,P13,INI,FM,M2,1.2036666666666667,s
CTR,P13,INI,FM,M3,1.091,s
CTR,P13,REL,FM,M1,1.1603333333333332,s
CTR,P13,REL,FM,M2,0.9473333333333332,s
CTR,P13,REL,FM,M3,1.0906666666666667,s
CTR,P16,INI,FM,M1,1.34,s
CTR,P16,INI,FM,M2,0.8746666666666666,s
CTR,P16,INI,FM,M3,2.1649999999999996,s
CTR,P16,REL,FM,M1,0.297,s
CTR,P16,REL,FM,M2,0.245,s
CTR,P16,REL,FM,M3,0.755,s
CTR,P21,INI,FM,M1,0.74075,s
CTR,P21,INI,FM,M2,0.5915,s
CTR,P21,INI,FM,M3,0.34475000000000006,s
CTR,P21,REL,FM,M1,6.244,s
CTR,P21,REL,FM,M2,5.189,s
CTR,P21,REL,FM,M3,3.481,s
CTR,P22,INI,FM,M1,0.57075,s
CTR,P22,INI,FM,M2,0.9595,s
CTR,P22,INI,FM,M3,0.40575000000000006,s
CTR,P22,REL,FM,M1,1.2329999999999999,s
CTR,P22,REL,FM,M2,3.171,s
CTR,P22,REL,FM,M3,2.7984999999999998,s
CTR,P23,INI,FM,M1,3.311,s
CTR,P23,INI,FM,M2,2.1005000000000003,s
CTR,P23,INI,FM,M3,2.2145,s
CTR,P23,REL,FM,M1,1.1713333333333333,s
CTR,P23,REL,FM,M2,0.6446666666666668,s
CTR,P23,REL,FM,M3,0.5805,s
CTR,P25,INI,FM,M1,0.7577999999999999,s
CTR,P25,INI,FM,M2,0.38380000000000003,s
CTR,P25,INI,FM,M3,0.4968,s
CTR,P25,REL,FM,M1,0.8966666666666666,s
CTR,P25,REL,FM,M2,0.981,s
CTR,P25,REL,FM,M3,1.003,s
CTR,P35,INI,FM,M1,0.6556666666666667,s
CTR,P35,INI,FM,M2,2.433333333333333,s
CTR,P35,INI,FM,M3,4.16,s
CTR,P35,REL,FM,M1,19.699,s
CTR,P35,REL,FM,M2,,s
CTR,P35,REL,FM,M3,,s
CTR,P38,INI,FM,M1,0.7726666666666667,s
CTR,P38,INI,FM,M2,0.7146666666666667,s
CTR,P38,INI,FM,M3,0.9729999999999999,s
CTR,P38,REL,FM,M1,1.2510000000000001,s
CTR,P38,REL,FM,M2,1.181,s
CTR,P38,REL,FM,M3,1.8385,s
CTR,P40,INI,FM,M1,0.9082000000000001,s
CTR,P40,INI,FM,M2,1.2032,s
CTR,P40,INI,FM,M3,0.7772,s
CTR,P40,REL,FM,M1,0.212,s
CTR,P40,REL,FM,M2,,s
CTR,P40,REL,FM,M3,,s
CTR,P44,INI,FM,M1,0.6091666666666667,s
CTR,P44,INI,FM,M2,0.5493333333333333,s
CTR,P44,INI,FM,M3,0.6925,s
CTR,P44,REL,FM,M1,2.07475,s
CTR,P44,REL,FM,M2,1.5455,s
CTR,P44,REL,FM,M3,1.279,s
CTR,P46,INI,FM,M1,,s
CTR,P46,INI,FM,M2,,s
CTR,P46,INI,FM,M3,,s
CTR,P46,REL,FM,M1,0.372,s
CTR,P46,REL,FM,M2,0.651,s
CTR,P46,REL,FM,M3,0.322,s
CTR,P48,REL,FM,M1,0.306,s
CTR,P48,REL,FM,M2,,s
CTR,P48,REL,FM,M3,,s
CTR,P49,INI,FM,M1,0.835,s
CTR,P49,INI,FM,M2,0.481,s
CTR,P49,INI,FM,M3,0.50125,s
CTR,P49,REL,FM,M1,0.738,s
CTR,P49,REL,FM,M2,0.811,s
CTR,P49,REL,FM,M3,0.74,s
CTR,P52,INI,FM,M1,0.7086,s
CTR,P52,INI,FM,M2,0.45519999999999994,s
CTR,P52,INI,FM,M3,0.23879999999999998,s
CTR,P52,REL,FM,M1,0.27,s
CTR,P52,REL,FM,M2,0.204,s
CTR,P52,REL,FM,M3,,s
CTR,P55,INI,FM,M1,0.883,s
CTR,P55,INI,FM,M2,0.6756666666666667,s
CTR,P55,INI,FM,M3,1.043,s
CTR,P55,REL,FM,M1,,s
CTR,P55,REL,FM,M2,,s
CTR,P55,REL,FM,M3,,s
CTR,P56,INI,FM,M1,1.155,s
CTR,P56,INI,FM,M2,2.0375,s
CTR,P56,INI,FM,M3,0.6315,s
CTR,P56,REL,FM,M1,0.4036666666666666,s
CTR,P56,REL,FM,M2,0.5913333333333334,s
CTR,P56,REL,FM,M3,0.413,s
CTR,P57,INI,FM,M1,2.2726666666666664,s
CTR,P57,INI,FM,M2,1.6123333333333332,s
CTR,P57,INI,FM,M3,2.5833333333333335,s
CTR,P57,REL,FM,M1,0.9772500000000001,s
CTR,P57,REL,FM,M2,0.56925,s
CTR,P57,REL,FM,M3,0.296,s
CTR,P60,INI,FM,M1,0.97875,s
CTR,P60,INI,FM,M2,1.04825,s
CTR,P60,INI,FM,M3,0.9335,s
CTR,P60,REL,FM,M1,3.338,s
CTR,P60,REL,FM,M2,1.2825000000000002,s
CTR,P60,REL,FM,M3,1.3715000000000002,s
CTR,P64,INI,FM,M1,0.5593333333333333,s
CTR,P64,INI,FM,M2,0.9196666666666666,s
CTR,P64,INI,FM,M3,1.6486666666666665,s
CTR,P64,REL,FM,M1,0.3581666666666667,s
CTR,P64,REL,FM,M2,0.7915000000000001,s
CTR,P64,REL,FM,M3,0.7728333333333333,s
CTR,P66,INI,FM,M1,25.164,s
CTR,P66,INI,FM,M2,,s
CTR,P66,INI,FM,M3,,s
CTR,P66,REL,FM,M1,3.937,s
CTR,P66,REL,FM,M2,17.561,s
CTR,P66,REL,FM,M3,,s
CTR,P67,INI,FM,M1,1.761,s
CTR,P67,INI,FM,M2,2.417,s
CTR,P67,INI,FM,M3,3.0440000000000005,s
CTR,P67,REL,FM,M1,1.4140000000000001,s
CTR,P67,REL,FM,M2,4.0485,s
CTR,P67,REL,FM,M3,5.128,s
CTR,P68,INI,FM,M1,2.1056666666666666,s
CTR,P68,INI,FM,M2,0.8413333333333334,s
CTR,P68,INI,FM,M3,1.8243333333333336,s
CTR,P68,REL,FM,M1,18.864,s
CTR,P68,REL,FM,M2,,s
CTR,P68,REL,FM,M3,,s
