Group,Participant,Session,Operator,Measure,Value,Unit
PAT,P10,INI,FM,M1,1.1824999999999999,s
PAT,P10,INI,FM,M2,1.5382500000000001,s
PAT,P10,INI,FM,M3,1.7967500000000003,s
PAT,P10,REL,FM,M1,10.432,s
PAT,P10,REL,FM,M2,2.272,s
PAT,P10,REL,FM,M3,5.579,s
PAT,P11,INI,FM,M1,1.392,s
PAT,P11,INI,FM,M2,1.3765,s
PAT,P11,INI,FM,M3,5.541,s
PAT,P11,REL,FM,M1,16.166,s
PAT,P11,REL,FM,M2,,s
PAT,P11,REL,FM,M3,,s
PAT,P12,INI,FM,M1,0.9233333333333333,s
PAT,P12,INI,FM,M2,1.1713333333333333,s
PAT,P12,INI,FM,M3,1.4653333333333334,s
PAT,P12,REL,FM,M1,1.314,s
PAT,P12,REL,FM,M2,15.638,s
PAT,P12,REL,FM,M3,,s
PAT,P14,INI,FM,M1,0.5,s
PAT,P14,INI,FM,M2,0.934,s
PAT,P14,INI,FM,M3,1.08,s
PAT,P14,REL,FM,M1,0.959,s
PAT,P14,REL,FM,M2,2.3383333333333334,s
PAT,P14,REL,FM,M3,0.8373333333333334,s
PAT,P17,INI,FM,M1,0.7666666666666666,s
PAT,P17,INI,FM,M2,0.6243333333333333,s
PAT,P17,INI,FM,M3,0.5476666666666666,s
PAT,P17,REL,FM,M1,1.326,s
PAT,P17,REL,FM,M2,17.619,s
PAT,P17,REL,FM,M3,,s
PAT,P24,INI,FM,M1,0.6375,s
PAT,P24,INI,FM,M2,0.663,s
PAT,P24,INI,FM,M3,0.5325,s
PAT,P24,REL,FM,M1,3.0469999999999997,s
PAT,P24,REL,FM,M2,1.284,s
PAT,P24,REL,FM,M3,1.7634999999999998,s
PAT,P26,INI,FM,M1,4.386,s
PAT,P26,INI,FM,M2,20.132,s
PAT,P26,INI,FM,M3,0.24,s
PAT,P26,REL,FM,M1,1.611,s
PAT,P26,REL,FM,M1,8.101,s
PAT,P26,REL,FM,M2,8.858,s
PAT,P27,INI,FM,M1,0.449,s
PAT,P27,INI,FM,M2,0.527,s
PAT,P27,INI,FM,M3,0.635,s
PAT,P27,REL,FM,M1,1.694,s
PAT,P27,REL,FM,M2,1.759,s
PAT,P27,REL,FM,M3,12.304,s
PAT,P28,INI,FM,M1,1.555,s
PAT,P28,INI,FM,M2,17.717,s
PAT,P28,INI,FM,M3,,s
PAT,P28,REL,FM,M1,0.4563333333333333,s
PAT,P28,REL,FM,M2,1.086,s
PAT,P28,REL,FM,M3,0.6526666666666666,s
PAT,P29,INI,FM,M1,2.131,s
PAT,P29,INI,FM,M2,4.713,s
PAT,P29,INI,FM,M3,7.698,s
PAT,P29,REL,FM,M1,2.328333333333333,s
PAT,P29,REL,FM,M2,1.3626666666666667,s
PAT,P29,REL,FM,M3,1.506,s
PAT,P30,INI,FM,M1,0.474,s
PAT,P30,INI,FM,M2,,s
PAT,P30,INI,FM,M3,,s
PAT,P30,REL,FM,M1,1.171,s
PAT,P30,REL,FM,M2,0.967,s
PAT,P30,REL,FM,M1,10.83,s
PAT,P32,INI,FM,M1,2.021333333333333,s
PAT,P32,INI,FM,M2,1.6076666666666666,s
PAT,P32,INI,FM,M3,2.1359999999999997,s
PAT,P32,REL,FM,M1,0.907,s
PAT,P32,REL,FM,M2,1.5766666666666669,s
PAT,P32,REL,FM,M3,2.146333333333333,s
PAT,P33,INI,FM,M1,5.38,s
PAT,P33,INI,FM,M2,5.427,s
PAT,P33,INI,FM,M3,2.293,s
PAT,P33,REL,FM,M1,0.767,s
PAT,P33,REL,FM,M2,0.319,s
PAT,P33,REL,FM,M3,0.435,s
PAT,P34,INI,FM,M1,19.521,s
PAT,P34,INI,FM,M2,,s
PAT,P34,INI,FM,M3,,s
PAT,P34,REL,FM,M1,6.563,s
PAT,P34,REL,FM,M2,10.571,s
PAT,P34,REL,FM,M3,,s
PAT,P36,INI,FM,M1,5.5655,s
PAT,P36,INI,FM,M2,3.1225,s
PAT,P36,INI,FM,M3,1.9055,s
PAT,P36,REL,FM,M1,1.6563333333333332,s
PAT,P36,REL,FM,M2,1.3483333333333334,s
PAT,P36,REL,FM,M3,1.4753333333333334,s
PAT,P41,INI,FM,M1,0.321,s
PAT,P41,INI,FM,M2,0.462,s
PAT,P41,INI,FM,M3,,s
PAT,P41,REL,FM,M1,0.7363333333333334,s
PAT,P41,REL,FM,M2,0.5815,s
PAT,P41,REL,FM,M3,0.5241666666666667,s
PAT,P42,INI,FM,M1,0.9113333333333333,s
PAT,P42,INI,FM,M2,0.638,s
PAT,P42,INI,FM,M3,0.4166666666666667,s
PAT,P42,REL,FM,M1,0.5725,s
PAT,P42,REL,FM,M2,0.28500000000000003,s
PAT,P42,REL,FM,M3,1.7605,s
PAT,P43,REL,FM,M1,1.1876666666666666,s
PAT,P43,REL,FM,M2,0.5796666666666667,s
PAT,P43,REL,FM,M3,0.6456666666666667,s
PAT,P45,INI,FM,M1,0.9403333333333334,s
PAT,P45,INI,FM,M2,1.0113333333333332,s
PAT,P45,INI,FM,M3,0.9786666666666667,s
PAT,P45,REL,FM,M1,0.8413333333333334,s
PAT,P45,REL,FM,M2,1.0826666666666667,s
PAT,P45,REL,FM,M3,0.888,s
PAT,P47,INI,FM,M1,0.8614999999999999,s
PAT,P47,INI,FM,M2,0.499,s
PAT,P47,INI,FM,M3,0.9770000000000001,s
PAT,P47,REL,FM,M1,3.2526666666666664,s
PAT,P47,REL,FM,M2,1.1206666666666667,s
PAT,P47,REL,FM,M3,5.123,s
PAT,P50,INI,FM,M1,1.076,s
PAT,P50,INI,FM,M2,1.043,s
PAT,P50,INI,FM,M3,0.7424999999999999,s
PAT,P50,REL,FM,M1,1.19,s
PAT,P50,REL,FM,M2,1.6743333333333332,s
PAT,P50,REL,FM,M3,1.5250000000000001,s
PAT,P51,INI,FM,M1,2.299,s
PAT,P51,INI,FM,M2,1.5895,s
PAT,P51,INI,FM,M3,1.82575,s
PAT,P51,REL,FM,M1,1.121,s
PAT,P51,REL,FM,M2,0.966,s
PAT,P51,REL,FM,M3,1.213,s
PAT,P53,INI,FM,M1,1.3319999999999999,s
PAT,P53,INI,FM,M2,0.7252500000000001,s
PAT,P53,INI,FM,M3,5.85175,s
PAT,P53,REL,FM,M1,0.9352500000000001,s
PAT,P53,REL,FM,M2,1.4515,s
PAT,P53,REL,FM,M3,1.27275,s
PAT,P54,INI,FM,M1,1.881,s
PAT,P54,INI,FM,M2,1.5585,s
PAT,P54,INI,FM,M3,2.4115,s
PAT,P58,REL,FM,M1,0.626,s
PAT,P58,REL,FM,M2,1.127,s
PAT,P58,REL,FM,M3,2.741,s
PAT,P61,INI,FM,M1,1.315,s
PAT,P61,INI,FM,M2,,s
PAT,P61,INI,FM,M3,,s
PAT,P61,REL,FM,M1,1.0534999999999999,s
PAT,P61,REL,FM,M2,0.5973333333333334,s
PAT,P61,REL,FM,M3,0.6628333333333334,s
PAT,P62,INI,FM,M1,0.764,s
PAT,P62,INI,FM,M2,0.747,s
PAT,P62,INI,FM,M3,0.254,s
PAT,P62,REL,FM,M1,0.301,s
PAT,P62,REL,FM,M2,0.247,s
PAT,P62,REL,FM,M1,0.585,s
PAT,P63,INI,FM,M1,0.6573333333333333,s
PAT,P63,INI,FM,M2,3.622666666666666,s
PAT,P63,INI,FM,M3,1.7353333333333334,s
PAT,P63,REL,FM,M1,1.4263333333333332,s
PAT,P63,REL,FM,M2,3.411,s
PAT,P63,REL,FM,M3,2.0643333333333334,s
PAT,P65,INI,FM,M1,2.675,s
PAT,P65,INI,FM,M2,1.198,s
PAT,P65,INI,FM,M3,0.93175,s
PAT,P65,REL,FM,M1,26.003,s
PAT,P65,REL,FM,M2,,s
PAT,P65,REL,FM,M3,,s
