Group,Participant,Session,Operator,Measure,Value,Unit
PAT,P09,INI,FM,M1,0.008574899347115984,V
PAT,P09,INI,FM,M2,0.008497643705795534,V
PAT,P09,INI,FM,M3,0.008172651500916417,V
PAT,P09,REL,FM,M1,0.013369215771895612,V
PAT,P09,REL,FM,M2,0.013434461195841785,V
PAT,P09,REL,FM,M3,0.014208764578409512,V
PAT,P10,INI,FM,M1,0.031599661310578245,V
PAT,P10,INI,FM,M2,0.034963286369032995,V
PAT,P10,INI,FM,M3,0.031858301681233735,V
PAT,P10,REL,FM,M1,0.03154210492599842,V
PAT,P10,REL,FM,M2,0.03534478983884384,V
PAT,P10,REL,FM,M3,0.036688203966950224,V
PAT,P11,INI,FM,M1,0.017560682315361315,V
PAT,P11,INI,FM,M2,0.019318453555196968,V
PAT,P11,INI,FM,M3,0.02176363591002266,V
PAT,P11,REL,FM,M1,0.02385851708846917,V
PAT,P11,REL,FM,M2,0.026330746516178685,V
PAT,P11,REL,FM,M3,0.02585777111710012,V
PAT,P12,INI,FM,M1,0.01284647910320667,V
PAT,P12,INI,FM,M2,0.017660403859913278,V
PAT,P12,INI,FM,M3,0.01701730208654998,V
PAT,P12,REL,FM,M1,0.013475131175038834,V
PAT,P12,REL,FM,M2,0.020487756400635816,V
PAT,P12,REL,FM,M3,0.018574512895695717,V
PAT,P14,INI,FM,M1,0.015165742286172243,V
PAT,P14,INI,FM,M2,0.014844987256035457,V
PAT,P14,INI,FM,M3,0.013947757780022416,V
PAT,P14,REL,FM,M1,0.02440113823791101,V
PAT,P14,REL,FM,M2,0.02312479613255106,V
PAT,P14,REL,FM,M3,0.026613229550778623,V
PAT,P17,INI,FM,M1,0.00855824076812349,V
PAT,P17,INI,FM,M2,0.00956189354755681,V
PAT,P17,INI,FM,M3,0.00946385156804536,V
PAT,P17,REL,FM,M1,0.012995949476938499,V
PAT,P17,REL,FM,M2,0.012949844359288788,V
PAT,P17,REL,FM,M3,0.01743833007775635,V
PAT,P24,INI,FM,M1,0.017518371355048773,V
PAT,P24,INI,FM,M2,0.0188663676609787,V
PAT,P24,INI,FM,M3,0.010340529928705362,V
PAT,P24,REL,FM,M1,0.02068097890007124,V
PAT,P24,REL,FM,M2,0.02275404291944156,V
PAT,P24,REL,FM,M3,0.022153958255845457,V
PAT,P26,INI,FM,M1,0.009256053890250927,V
PAT,P26,INI,FM,M2,0.010616547224200629,V
PAT,P26,INI,FM,M3,0.0064311094066124,V
PAT,P26,REL,FM,M1,0.01146218262370935,V
PAT,P26,REL,FM,M2,0.015222696796463013,V
PAT,P26,REL,FM,M3,0.01101939662852524,V
PAT,P27,INI,FM,M1,0.016676983859273433,V
PAT,P27,INI,FM,M2,0.017321042625162212,V
PAT,P27,INI,FM,M3,0.007243847468435756,V
PAT,P27,REL,FM,M1,0.009200576466950671,V
PAT,P27,REL,FM,M2,0.008507478583341428,V
PAT,P27,REL,FM,M3,0.00614992199547353,V
PAT,P28,INI,FM,M1,0.01899908031554879,V
PAT,P28,INI,FM,M2,0.017677733525874463,V
PAT,P28,INI,FM,M3,0.008703942469808375,V
PAT,P28,REL,FM,M1,0.018379433808244798,V
PAT,P28,REL,FM,M2,0.01823626304838831,V
PAT,P28,REL,FM,M3,0.007493925712649256,V
PAT,P29,INI,FM,M1,0.0325676019351616,V
PAT,P29,INI,FM,M2,0.04243455021735004,V
PAT,P29,INI,FM,M3,0.027285294814430473,V
PAT,P29,REL,FM,M1,0.0403207061022595,V
PAT,P29,REL,FM,M2,0.03566943984427436,V
PAT,P29,REL,FM,M3,0.023576756418037918,V
PAT,P30,INI,FM,M1,0.009378703140719234,V
PAT,P30,INI,FM,M2,0.010112663507674077,V
PAT,P30,INI,FM,M3,0.004553538671950023,V
PAT,P30,REL,FM,M1,0.008210559864552889,V
PAT,P30,REL,FM,M2,0.006885025644763578,V
PAT,P30,REL,FM,M3,0.008636853058574234,V
PAT,P32,INI,FM,M1,0.010780938712818258,V
PAT,P32,INI,FM,M2,0.011031991696633001,V
PAT,P32,INI,FM,M3,0.0074946480342892715,V
PAT,P32,REL,FM,M1,0.0180637820860475,V
PAT,P32,REL,FM,M2,0.015023161984871075,V
PAT,P32,REL,FM,M3,0.007554051746451262,V
PAT,P33,INI,FM,M1,0.009471064985205516,V
PAT,P33,INI,FM,M2,0.012283947999072916,V
PAT,P33,INI,FM,M3,0.008632542572659399,V
PAT,P33,REL,FM,M1,0.006453149497130262,V
PAT,P33,REL,FM,M2,0.008566465284619688,V
PAT,P33,REL,FM,M3,0.004528164484689587,V
PAT,P34,INI,FM,M1,0.0069630919673081375,V
PAT,P34,INI,FM,M2,0.005891604752103912,V
PAT,P34,INI,FM,M3,0.0044942275672974746,V
PAT,P34,REL,FM,M1,0.008323724602852928,V
PAT,P34,REL,FM,M2,0.006345212241978442,V
PAT,P34,REL,FM,M3,0.0049886465023677145,V
PAT,P36,INI,FM,M1,0.03200015247524695,V
PAT,P36,INI,FM,M2,0.028387513997108385,V
PAT,P36,INI,FM,M3,0.015206732256305363,V
PAT,P36,REL,FM,M1,0.05386914873219295,V
PAT,P36,REL,FM,M2,0.050338582127154946,V
PAT,P36,REL,FM,M3,0.024287444751087666,V
PAT,P41,INI,FM,M1,0.0172758684561897,V
PAT,P41,INI,FM,M2,0.018285802836331883,V
PAT,P41,INI,FM,M3,0.012046628328404384,V
PAT,P41,REL,FM,M1,0.02311344510449159,V
PAT,P41,REL,FM,M2,0.023816916074393672,V
PAT,P41,REL,FM,M3,0.01396671396047813,V
PAT,P42,INI,FM,M1,0.04041982322817777,V
PAT,P42,INI,FM,M2,0.036223531705003954,V
PAT,P42,INI,FM,M3,0.039102879731581185,V
PAT,P42,REL,FM,M1,0.03751557423094603,V
PAT,P42,REL,FM,M2,0.03537648453785362,V
PAT,P42,REL,FM,M3,0.020675020684192434,V
PAT,P43,INI,FM,M1,0.017664709759639387,V
PAT,P43,INI,FM,M2,0.017016469876256976,V
PAT,P43,INI,FM,M3,0.008377907556111251,V
PAT,P43,REL,FM,M1,0.022652505950944184,V
PAT,P43,REL,FM,M2,0.019477151457985415,V
PAT,P43,REL,FM,M3,0.01606977262569483,V
PAT,P45,INI,FM,M1,0.012880007599757989,V
PAT,P45,INI,FM,M2,0.012509042572538886,V
PAT,P45,INI,FM,M3,0.0090141959915094,V
PAT,P45,REL,FM,M1,0.012988607343765418,V
PAT,P45,REL,FM,M2,0.0130283927190012,V
PAT,P45,REL,FM,M3,0.013025308839485623,V
PAT,P47,INI,FM,M1,0.01668684420870316,V
PAT,P47,INI,FM,M2,0.013626146644328698,V
PAT,P47,INI,FM,M3,0.013609106624155782,V
PAT,P47,REL,FM,M1,0.021922239952680264,V
PAT,P47,REL,FM,M2,0.019298794282952274,V
PAT,P47,REL,FM,M3,0.008997515507776775,V
PAT,P50,INI,FM,M1,0.04248118568280985,V
PAT,P50,INI,FM,M2,0.04344030133573587,V
PAT,P50,INI,FM,M3,0.025289006945192285,V
PAT,P50,REL,FM,M1,0.0407927894287881,V
PAT,P50,REL,FM,M2,0.04608110860229364,V
PAT,P50,REL,FM,M3,0.040421728182765695,V
PAT,P51,INI,FM,M1,0.00519329133677395,V
PAT,P51,INI,FM,M2,0.00459372403173925,V
PAT,P51,INI,FM,M3,0.005060807202964433,V
PAT,P51,REL,FM,M1,0.005022966810704667,V
PAT,P51,REL,FM,M2,0.00449080353691195,V
PAT,P51,REL,FM,M3,0.004086370955320083,V
PAT,P53,INI,FM,M1,0.00740708963578364,V
PAT,P53,INI,FM,M2,0.0103208111566902,V
PAT,P53,INI,FM,M3,0.0122472742714378,V
PAT,P53,REL,FM,M1,0.013054837085187567,V
PAT,P53,REL,FM,M2,0.01607734370632125,V
PAT,P53,REL,FM,M3,0.009553125268743983,V
PAT,P54,INI,FM,M1,0.006819807645582101,V
PAT,P54,INI,FM,M2,0.010890194634345521,V
PAT,P54,INI,FM,M3,0.0033099031098094596,V
PAT,P54,REL,FM,M1,0.012757731519728564,V
PAT,P54,REL,FM,M2,0.010864967851977624,V
PAT,P54,REL,FM,M3,0.007458986478379413,V
PAT,P58,INI,FM,M1,0.003048607514270283,V
PAT,P58,INI,FM,M2,0.0033493592962064,V
PAT,P58,INI,FM,M3,0.0028064375109926334,V
PAT,P58,REL,FM,M1,0.010923970481514628,V
PAT,P58,REL,FM,M2,0.009242754210254627,V
PAT,P58,REL,FM,M3,0.007937494128716886,V
PAT,P61,INI,FM,M1,0.016624295618167587,V
PAT,P61,INI,FM,M2,0.021178240661275688,V
PAT,P61,INI,FM,M3,0.014265857863020912,V
PAT,P61,REL,FM,M1,0.014190281876753334,V
PAT,P61,REL,FM,M2,0.011604667026018783,V
PAT,P61,REL,FM,M3,0.010525553949556565,V
PAT,P62,INI,FM,M1,0.007556397237846157,V
PAT,P62,INI,FM,M2,0.006911726235925958,V
PAT,P62,INI,FM,M3,0.008206525414399443,V
PAT,P62,REL,FM,M1,0.006284071236171328,V
PAT,P62,REL,FM,M2,0.005317762596278229,V
PAT,P62,REL,FM,M3,0.006296959044134342,V
PAT,P63,INI,FM,M1,0.02077709717936599,V
PAT,P63,INI,FM,M2,0.023246288555714614,V
PAT,P63,INI,FM,M3,0.025239801872681468,V
PAT,P63,REL,FM,M1,0.01147453524514786,V
PAT,P63,REL,FM,M2,0.015082620992380499,V
PAT,P63,REL,FM,M3,0.0113580256632685,V
PAT,P65,INI,FM,M1,0.015767704934050927,V
PAT,P65,INI,FM,M2,0.0169160848719845,V
PAT,P65,INI,FM,M3,0.019044837752344626,V
PAT,P65,REL,FM,M1,0.014554712561687567,V
PAT,P65,REL,FM,M2,0.017406905089176833,V
PAT,P65,REL,FM,M3,0.008333642849856,V
