Group,Participant,Session,Operator,Measure,Value,Unit
PAT,P09,INI,FM,M1,0.0020655582428817,V
PAT,P09,INI,FM,M2,0.0010158373879023,V
PAT,P09,INI,FM,M3,0.0009992913889873,V
PAT,P09,REL,FM,M1,0.0016386267445997,V
PAT,P09,REL,FM,M2,0.0025715378332482,V
PAT,P09,REL,FM,M3,0.0025778660851902,V
PAT,P10,INI,FM,M1,0.0007595551720701,V
PAT,P10,INI,FM,M2,0.0009688236277967,V
PAT,P10,INI,FM,M3,0.0003036336353414,V
PAT,P10,REL,FM,M1,0.0032442789483964,V
PAT,P10,REL,FM,M2,0.000360514698076,V
PAT,P10,REL,FM,M3,0.0007476978911198,V
PAT,P11,INI,FM,M1,0.0008388316610532,V
PAT,P11,INI,FM,M2,0.0010485127329449,V
PAT,P11,INI,FM,M3,0.0009665245047636,V
PAT,P11,REL,FM,M1,0.0004319734311043,V
PAT,P11,REL,FM,M2,0.0016161568218223,V
PAT,P11,REL,FM,M3,0.0009411664811289,V
PAT,P12,INI,FM,M1,0.0005317726633982,V
PAT,P12,INI,FM,M2,0.0013113217982182,V
PAT,P12,INI,FM,M3,0.0013477239183272,V
PAT,P12,REL,FM,M1,0.0028984014381341,V
PAT,P12,REL,FM,M2,0.0018134706253664,V
PAT,P12,REL,FM,M3,0.0018493420811988,V
PAT,P14,INI,FM,M1,0.0024659184220592,V
PAT,P14,INI,FM,M2,0.0013192288182646,V
PAT,P14,INI,FM,M3,0.0012803244033934,V
PAT,P14,REL,FM,M1,0.0028512787000285,V
PAT,P14,REL,FM,M2,0.0012099149394444,V
PAT,P14,REL,FM,M3,0.0020571575662214,V
PAT,P17,INI,FM,M1,0.0049392012578235,V
PAT,P17,INI,FM,M2,0.0048264474031662,V
PAT,P17,INI,FM,M3,0.0122137696079294,V
PAT,P17,REL,FM,M1,0.0023301790477695,V
PAT,P17,REL,FM,M2,0.0020468378869081,V
PAT,P17,REL,FM,M3,0.0076746327398027,V
PAT,P24,INI,FM,M1,0.0006056472597455,V
PAT,P24,INI,FM,M2,0.0015286243406229,V
PAT,P24,INI,FM,M3,0.0017755683765658,V
PAT,P24,REL,FM,M1,0.0017063344143593,V
PAT,P24,REL,FM,M2,0.0012626956825324,V
PAT,P24,REL,FM,M3,0.0016179675905502,V
PAT,P26,INI,FM,M1,0.0016892519103846,V
PAT,P26,INI,FM,M2,0.0015183276994486,V
PAT,P26,INI,FM,M3,0.0011462677961562,V
PAT,P26,REL,FM,M1,0.0007211293141418,V
PAT,P26,REL,FM,M2,0.0005627271874654,V
PAT,P26,REL,FM,M3,0.0014252676932448,V
PAT,P27,INI,FM,M1,0.0009952082716763,V
PAT,P27,INI,FM,M2,0.0014236773621264,V
PAT,P27,INI,FM,M3,0.0030143938319909,V
PAT,P27,REL,FM,M1,0.0021453725289503,V
PAT,P27,REL,FM,M2,0.0031637656424185,V
PAT,P27,REL,FM,M3,0.0033526782282385,V
PAT,P28,INI,FM,M1,0.0013602454437638,V
PAT,P28,INI,FM,M2,0.0012965224531186,V
PAT,P28,INI,FM,M3,0.0043412752825007,V
PAT,P28,REL,FM,M1,0.002531294838572,V
PAT,P28,REL,FM,M2,0.0024394787036415,V
PAT,P28,REL,FM,M3,0.0027639935278164,V
PAT,P29,INI,FM,M1,0.005182567812154,V
PAT,P29,INI,FM,M2,0.0054214016117355,V
PAT,P29,INI,FM,M3,0.0225180476543437,V
PAT,P29,REL,FM,M1,0.0071208522391019,V
PAT,P29,REL,FM,M2,0.0045268351967389,V
PAT,P29,REL,FM,M3,0.0061281529566805,V
PAT,P30,INI,FM,M1,0.0013804518566046,V
PAT,P30,INI,FM,M2,0.0008423084289051,V
PAT,P30,INI,FM,M3,0.001212275242956,V
PAT,P30,REL,FM,M1,0.0015417009054078,V
PAT,P30,REL,FM,M2,0.0007896751732361,V
PAT,P30,REL,FM,M3,0.0011605687516653,V
PAT,P32,INI,FM,M1,0.0008867115388075,V
PAT,P32,INI,FM,M2,0.000762739191225,V
PAT,P32,INI,FM,M3,0.000836563601646,V
PAT,P32,REL,FM,M1,0.0021136214951353,V
PAT,P32,REL,FM,M2,0.0034745227797881,V
PAT,P32,REL,FM,M3,0.0032424237648495,V
PAT,P33,INI,FM,M1,0.0006493368418158,V
PAT,P33,INI,FM,M2,0.001939006752091,V
PAT,P33,INI,FM,M3,0.0019497121789201,V
PAT,P33,REL,FM,M1,0.0016258227790194,V
PAT,P33,REL,FM,M2,0.0046741806268593,V
PAT,P33,REL,FM,M3,0.0067348094757656,V
PAT,P34,INI,FM,M1,0.0008368126905371,V
PAT,P34,INI,FM,M2,0.0009022428987117,V
PAT,P34,INI,FM,M3,0.0005012929894171,V
PAT,P34,REL,FM,M1,0.0022805327464854,V
PAT,P34,REL,FM,M2,0.0020789520285054,V
PAT,P34,REL,FM,M3,0.0023869645996628,V
PAT,P36,INI,FM,M1,0.0028665151991233,V
PAT,P36,INI,FM,M2,0.0038401271908701,V
PAT,P36,INI,FM,M3,0.0083147596411231,V
PAT,P36,REL,FM,M1,0.0032953941619651,V
PAT,P36,REL,FM,M2,0.003080604466516,V
PAT,P36,REL,FM,M3,0.0061070059651956,V
PAT,P41,INI,FM,M1,0.000604810617084,V
PAT,P41,INI,FM,M2,0.0006733547112494,V
PAT,P41,INI,FM,M3,0.0009494693378792,V
PAT,P41,REL,FM,M1,0.0019603749849249,V
PAT,P41,REL,FM,M2,0.0032023912230952,V
PAT,P41,REL,FM,M3,0.0043308338292356,V
PAT,P42,INI,FM,M1,0.0059190337157187,V
PAT,P42,INI,FM,M2,0.0077375713896259,V
PAT,P42,INI,FM,M3,0.0095879271185582,V
PAT,P42,REL,FM,M1,0.0071784799118095,V
PAT,P42,REL,FM,M2,0.0058249746043013,V
PAT,P42,REL,FM,M3,0.0067794983359466,V
PAT,P43,INI,FM,M1,0.0003062947448676,V
PAT,P43,INI,FM,M2,0.0018451143903212,V
PAT,P43,INI,FM,M3,0.0031071734514053,V
PAT,P43,REL,FM,M1,0.0027538570593212,V
PAT,P43,REL,FM,M2,0.0015685884024768,V
PAT,P43,REL,FM,M3,0.0040573415923822,V
PAT,P45,INI,FM,M1,0.0030243495674439,V
PAT,P45,INI,FM,M2,0.002374810124341,V
PAT,P45,INI,FM,M3,0.0025318866273128,V
PAT,P45,REL,FM,M1,0.0005141819458428,V
PAT,P45,REL,FM,M2,0.000574812603154,V
PAT,P45,REL,FM,M3,0.0005318907226683,V
PAT,P47,INI,FM,M1,0.0011878729152833,V
PAT,P47,INI,FM,M2,0.0028091836030604,V
PAT,P47,INI,FM,M3,0.0012186165371631,V
PAT,P47,REL,FM,M1,0.0014981753229987,V
PAT,P47,REL,FM,M2,0.0026305629101145,V
PAT,P47,REL,FM,M3,0.0022450712957884,V
PAT,P50,INI,FM,M1,0.0004079237713457,V
PAT,P50,INI,FM,M2,0.0046924345957264,V
PAT,P50,INI,FM,M3,,V
PAT,P50,REL,FM,M1,0.0044729793863748,V
PAT,P50,REL,FM,M2,0.0083640352378843,V
PAT,P50,REL,FM,M3,0.0070285948382431,V
PAT,P51,INI,FM,M1,0.0003337723474146,V
PAT,P51,INI,FM,M2,0.0010482666764892,V
PAT,P51,INI,FM,M3,0.0020856747893226,V
PAT,P51,REL,FM,M1,0.0008092426802782,V
PAT,P51,REL,FM,M2,0.0013356229836588,V
PAT,P51,REL,FM,M3,0.0013250513587606,V
PAT,P53,INI,FM,M1,0.0019231743740356,V
PAT,P53,INI,FM,M2,0.0014174328937752,V
PAT,P53,INI,FM,M3,,V
PAT,P53,REL,FM,M1,0.0020283410638959,V
PAT,P53,REL,FM,M2,0.0012129559382906,V
PAT,P53,REL,FM,M3,0.0029313571826799,V
PAT,P54,INI,FM,M1,0.0001671529456423,V
PAT,P54,INI,FM,M2,0.0008342017414812,V
PAT,P54,INI,FM,M3,0.000706249185927,V
PAT,P54,REL,FM,M1,0.0002164119151484,V
PAT,P54,REL,FM,M2,0.0006017323746441,V
PAT,P54,REL,FM,M3,0.0003551781386786,V
PAT,P58,INI,FM,M1,0.0002506996136204,V
PAT,P58,INI,FM,M2,0.0004620815055718,V
PAT,P58,INI,FM,M3,0.0008121348283614,V
PAT,P58,REL,FM,M1,0.0047399135478517,V
PAT,P58,REL,FM,M2,0.001847467814312,V
PAT,P58,REL,FM,M3,0.0014718980485377,V
PAT,P61,INI,FM,M1,0.0017636439506372,V
PAT,P61,INI,FM,M2,0.0015551579410467,V
PAT,P61,INI,FM,M3,0.001061313021917,V
PAT,P61,REL,FM,M1,0.0027818070659624,V
PAT,P61,REL,FM,M2,0.0025698727632096,V
PAT,P61,REL,FM,M3,0.0046218604584681,V
PAT,P62,INI,FM,M1,0.001367474850932,V
PAT,P62,INI,FM,M2,0.0045333450918691,V
PAT,P62,INI,FM,M3,0.004995887774366,V
PAT,P62,REL,FM,M1,0.0034934105725516,V
PAT,P62,REL,FM,M2,0.0023077498547662,V
PAT,P62,REL,FM,M3,0.0020114612699809,V
PAT,P63,INI,FM,M1,0.0044872127937966,V
PAT,P63,INI,FM,M2,0.0033694598792013,V
PAT,P63,INI,FM,M3,0.0050073473619984,V
PAT,P63,REL,FM,M1,0.0006881798436169,V
PAT,P63,REL,FM,M2,0.002997818382763,V
PAT,P63,REL,FM,M3,0.0032461183281155,V
PAT,P65,INI,FM,M1,0.0018464018792668,V
PAT,P65,INI,FM,M2,0.0014120142876789,V
PAT,P65,INI,FM,M3,0.0018323126497439,V
PAT,P65,REL,FM,M1,0.0013378254153877,V
PAT,P65,REL,FM,M2,0.0018851641883188,V
PAT,P65,REL,FM,M3,0.0016823751280987,V
