Group,Participant,Session,Operator,Measure,Value,Unit
PAT,P09,INI,FM,M1,48.95311798841592,%MAX
PAT,P09,INI,FM,M2,52.45039902073253,%MAX
PAT,P09,INI,FM,M3,63.75543761820408,%MAX
PAT,P09,REL,FM,M1,29.582546524672768,%MAX
PAT,P09,REL,FM,M2,23.860921064407258,%MAX
PAT,P09,REL,FM,M3,26.82023482069019,%MAX
PAT,P10,INI,FM,M1,8.674687942506987,%MAX
PAT,P10,INI,FM,M2,8.771814529158561,%MAX
PAT,P10,INI,FM,M3,9.29502954919125,%MAX
PAT,P10,REL,FM,M1,9.68076514963262,%MAX
PAT,P10,REL,FM,M2,8.304820264923386,%MAX
PAT,P10,REL,FM,M3,10.639470901786362,%MAX
PAT,P11,INI,FM,M1,56.282628963706095,%MAX
PAT,P11,INI,FM,M2,46.059455022448255,%MAX
PAT,P11,INI,FM,M3,41.921527060667366,%MAX
PAT,P11,REL,FM,M1,21.452110008900352,%MAX
PAT,P11,REL,FM,M2,26.298985815595984,%MAX
PAT,P11,REL,FM,M3,21.42412885759627,%MAX
PAT,P12,INI,FM,M1,25.480167410045034,%MAX
PAT,P12,INI,FM,M2,29.963600770860275,%MAX
PAT,P12,INI,FM,M3,24.493793225785996,%MAX
PAT,P12,REL,FM,M1,50.49859159444055,%MAX
PAT,P12,REL,FM,M2,49.15107683335356,%MAX
PAT,P12,REL,FM,M3,49.583673865559994,%MAX
PAT,P14,INI,FM,M1,34.675363870712516,%MAX
PAT,P14,INI,FM,M2,34.609629015936285,%MAX
PAT,P14,INI,FM,M3,33.71792273683024,%MAX
PAT,P14,REL,FM,M1,51.29677357614239,%MAX
PAT,P14,REL,FM,M2,42.9559373086504,%MAX
PAT,P14,REL,FM,M3,29.95645396479417,%MAX
PAT,P17,INI,FM,M1,11.399557456792826,%MAX
PAT,P17,INI,FM,M2,33.634843220723475,%MAX
PAT,P17,INI,FM,M3,23.181119105461658,%MAX
PAT,P17,REL,FM,M1,42.22824091991769,%MAX
PAT,P17,REL,FM,M2,54.51100083839022,%MAX
PAT,P17,REL,FM,M3,53.38476685745077,%MAX
PAT,P24,INI,FM,M1,20.34678283571625,%MAX
PAT,P24,INI,FM,M2,20.425110257834856,%MAX
PAT,P24,INI,FM,M3,33.95236914838455,%MAX
PAT,P24,REL,FM,M1,27.780312026794086,%MAX
PAT,P24,REL,FM,M2,16.830471440768296,%MAX
PAT,P24,REL,FM,M3,29.36371998745314,%MAX
PAT,P26,INI,FM,M1,30.25165091553895,%MAX
PAT,P26,INI,FM,M2,29.413763666482094,%MAX
PAT,P26,INI,FM,M3,8.173862317802238,%MAX
PAT,P26,REL,FM,M1,25.851942200245418,%MAX
PAT,P26,REL,FM,M2,13.408148907999518,%MAX
PAT,P26,REL,FM,M3,8.173530162907458,%MAX
PAT,P27,INI,FM,M1,20.397507576434773,%MAX
PAT,P27,INI,FM,M2,16.858779889900134,%MAX
PAT,P27,INI,FM,M3,34.95366347696333,%MAX
PAT,P27,REL,FM,M1,20.226301829322164,%MAX
PAT,P27,REL,FM,M2,16.566564963522247,%MAX
PAT,P27,REL,FM,M3,33.0922222381469,%MAX
PAT,P28,INI,FM,M1,12.710100853601851,%MAX
PAT,P28,INI,FM,M2,23.081080004284722,%MAX
PAT,P28,INI,FM,M3,17.86762608451343,%MAX
PAT,P28,REL,FM,M1,22.5109325113187,%MAX
PAT,P28,REL,FM,M2,21.572034396418424,%MAX
PAT,P28,REL,FM,M3,38.814262320657946,%MAX
PAT,P29,INI,FM,M1,24.952371654894595,%MAX
PAT,P29,INI,FM,M2,28.41234161258749,%MAX
PAT,P29,INI,FM,M3,33.59484130963057,%MAX
PAT,P29,REL,FM,M1,23.670410805242824,%MAX
PAT,P29,REL,FM,M2,21.053064940953366,%MAX
PAT,P29,REL,FM,M3,35.172187691055534,%MAX
PAT,P30,INI,FM,M1,36.831953121569434,%MAX
PAT,P30,INI,FM,M2,27.42915907659769,%MAX
PAT,P30,INI,FM,M3,43.28026589779685,%MAX
PAT,P30,REL,FM,M1,37.015860726850526,%MAX
PAT,P30,REL,FM,M2,39.470259569381106,%MAX
PAT,P30,REL,FM,M3,38.06008071221873,%MAX
PAT,P32,INI,FM,M1,35.036458854190336,%MAX
PAT,P32,INI,FM,M2,25.266112917749506,%MAX
PAT,P32,INI,FM,M3,31.651118109386005,%MAX
PAT,P32,REL,FM,M1,26.107964793566403,%MAX
PAT,P32,REL,FM,M2,27.129547574346653,%MAX
PAT,P32,REL,FM,M3,37.956066238816874,%MAX
PAT,P33,INI,FM,M1,18.328247605702995,%MAX
PAT,P33,INI,FM,M2,25.199672676155874,%MAX
PAT,P33,INI,FM,M3,52.894395122270765,%MAX
PAT,P33,REL,FM,M1,16.445118344699733,%MAX
PAT,P33,REL,FM,M2,19.759480704804023,%MAX
PAT,P33,REL,FM,M3,17.469036028497744,%MAX
PAT,P34,INI,FM,M1,40.26741521264567,%MAX
PAT,P34,INI,FM,M2,30.211242676888784,%MAX
PAT,P34,INI,FM,M3,39.50753354527721,%MAX
PAT,P34,REL,FM,M1,39.41881813478436,%MAX
PAT,P34,REL,FM,M2,45.03721224381083,%MAX
PAT,P34,REL,FM,M3,44.177781578742085,%MAX
PAT,P36,INI,FM,M1,27.131493447422006,%MAX
PAT,P36,INI,FM,M2,24.445467285481293,%MAX
PAT,P36,INI,FM,M3,32.64890229571569,%MAX
PAT,P36,REL,FM,M1,34.50280723961523,%MAX
PAT,P36,REL,FM,M2,35.7587657696106,%MAX
PAT,P36,REL,FM,M3,31.16837377524156,%MAX
PAT,P41,INI,FM,M1,35.12729459887985,%MAX
PAT,P41,INI,FM,M2,27.889154029348404,%MAX
PAT,P41,INI,FM,M3,45.79435416794478,%MAX
PAT,P41,REL,FM,M1,30.442257766305083,%MAX
PAT,P41,REL,FM,M2,35.89723450441586,%MAX
PAT,P41,REL,FM,M3,46.59394989466676,%MAX
PAT,P42,INI,FM,M1,15.287966233178494,%MAX
PAT,P42,INI,FM,M2,13.512442984788054,%MAX
PAT,P42,INI,FM,M3,14.914142083409644,%MAX
PAT,P42,REL,FM,M1,10.46632186195543,%MAX
PAT,P42,REL,FM,M2,10.338336978275287,%MAX
PAT,P42,REL,FM,M3,32.518698810051426,%MAX
PAT,P43,INI,FM,M1,18.479966979246484,%MAX
PAT,P43,INI,FM,M2,18.837158845398122,%MAX
PAT,P43,INI,FM,M3,21.060720129537508,%MAX
PAT,P43,REL,FM,M1,7.378895395491148,%MAX
PAT,P43,REL,FM,M2,8.57729759073106,%MAX
PAT,P43,REL,FM,M3,7.112879294643041,%MAX
PAT,P45,INI,FM,M1,31.423799914701245,%MAX
PAT,P45,INI,FM,M2,39.87779522052389,%MAX
PAT,P45,INI,FM,M3,26.669065799274943,%MAX
PAT,P45,REL,FM,M1,25.655853590799303,%MAX
PAT,P45,REL,FM,M2,27.62993204749815,%MAX
PAT,P45,REL,FM,M3,27.59225750966275,%MAX
PAT,P47,INI,FM,M1,8.722041584168926,%MAX
PAT,P47,INI,FM,M2,15.45868492383338,%MAX
PAT,P47,INI,FM,M3,19.31840061595063,%MAX
PAT,P47,REL,FM,M1,12.801578941128877,%MAX
PAT,P47,REL,FM,M2,17.620400447946963,%MAX
PAT,P47,REL,FM,M3,20.602562740020666,%MAX
PAT,P50,INI,FM,M1,33.16497798851848,%MAX
PAT,P50,INI,FM,M2,33.020811667166136,%MAX
PAT,P50,INI,FM,M3,40.188510362734014,%MAX
PAT,P50,REL,FM,M1,29.29142599527619,%MAX
PAT,P50,REL,FM,M2,27.421170579393344,%MAX
PAT,P50,REL,FM,M3,31.644150465739983,%MAX
PAT,P51,INI,FM,M1,28.08700167117267,%MAX
PAT,P51,INI,FM,M2,30.24320356682402,%MAX
PAT,P51,INI,FM,M3,40.22847006757872,%MAX
PAT,P51,REL,FM,M1,22.516626556318418,%MAX
PAT,P51,REL,FM,M2,23.2916264027434,%MAX
PAT,P51,REL,FM,M3,28.18689722811546,%MAX
PAT,P53,INI,FM,M1,44.34753898334156,%MAX
PAT,P53,INI,FM,M2,39.277920250834775,%MAX
PAT,P53,INI,FM,M3,36.22328077355009,%MAX
PAT,P53,REL,FM,M1,35.32063314352953,%MAX
PAT,P53,REL,FM,M2,24.628534722646226,%MAX
PAT,P53,REL,FM,M3,46.09771194874171,%MAX
PAT,P54,INI,FM,M1,37.59942120090986,%MAX
PAT,P54,INI,FM,M2,31.61363503686845,%MAX
PAT,P54,INI,FM,M3,46.032472788305775,%MAX
PAT,P54,REL,FM,M1,16.28475769150353,%MAX
PAT,P54,REL,FM,M2,28.06039815965204,%MAX
PAT,P54,REL,FM,M3,34.249459437495815,%MAX
PAT,P58,INI,FM,M1,57.64336655996078,%MAX
PAT,P58,INI,FM,M2,41.734999685194005,%MAX
PAT,P58,INI,FM,M3,51.80363355345514,%MAX
PAT,P58,REL,FM,M1,24.8232805807502,%MAX
PAT,P58,REL,FM,M2,39.98577783034911,%MAX
PAT,P58,REL,FM,M3,50.530736850790255,%MAX
PAT,P61,INI,FM,M1,31.1196984293643,%MAX
PAT,P61,INI,FM,M2,26.29990194858502,%MAX
PAT,P61,INI,FM,M3,31.734457707524754,%MAX
PAT,P61,REL,FM,M1,42.7680177790245,%MAX
PAT,P61,REL,FM,M2,41.490791893246985,%MAX
PAT,P61,REL,FM,M3,42.26206369490213,%MAX
PAT,P62,INI,FM,M1,39.58438501018772,%MAX
PAT,P62,INI,FM,M2,34.17024636589556,%MAX
PAT,P62,INI,FM,M3,30.05203105579502,%MAX
PAT,P62,REL,FM,M1,35.82064418049213,%MAX
PAT,P62,REL,FM,M2,41.322158750535046,%MAX
PAT,P62,REL,FM,M3,29.84131025193773,%MAX
PAT,P63,INI,FM,M1,21.44454275691146,%MAX
PAT,P63,INI,FM,M2,26.81447187315978,%MAX
PAT,P63,INI,FM,M3,22.14242891158182,%MAX
PAT,P63,REL,FM,M1,25.989760412500182,%MAX
PAT,P63,REL,FM,M2,20.32545727483362,%MAX
PAT,P63,REL,FM,M3,29.06753330672497,%MAX
PAT,P65,INI,FM,M1,28.539617830714548,%MAX
PAT,P65,INI,FM,M2,33.84106073032478,%MAX
PAT,P65,INI,FM,M3,35.825028856876656,%MAX
PAT,P65,REL,FM,M1,36.128488027624535,%MAX
PAT,P65,REL,FM,M2,34.48086492935398,%MAX
PAT,P65,REL,FM,M3,48.46594404584959,%MAX
