Group,Participant,Session,Operator,Measure,Value,Unit
PAT,P09,INI,FM,M1,5.49687865528783,%MAX
PAT,P09,INI,FM,M2,5.802271037386319,%MAX
PAT,P09,INI,FM,M3,5.319460186601186,%MAX
PAT,P09,REL,FM,M1,9.046013954296292,%MAX
PAT,P09,REL,FM,M2,11.400431282090691,%MAX
PAT,P09,REL,FM,M3,9.137401830450212,%MAX
PAT,P10,INI,FM,M1,6.3661146165697104,%MAX
PAT,P10,INI,FM,M2,6.671839682295035,%MAX
PAT,P10,INI,FM,M3,5.688246340741284,%MAX
PAT,P10,REL,FM,M1,7.723718999675014,%MAX
PAT,P10,REL,FM,M2,7.463122768320087,%MAX
PAT,P10,REL,FM,M3,7.47271459697405,%MAX
PAT,P11,INI,FM,M1,0.944120394439904,%MAX
PAT,P11,INI,FM,M2,0.9186581350331412,%MAX
PAT,P11,INI,FM,M3,1.158954164769871,%MAX
PAT,P11,REL,FM,M1,1.8578258332129465,%MAX
PAT,P11,REL,FM,M2,1.97885257016698,%MAX
PAT,P11,REL,FM,M3,1.7704709302166917,%MAX
PAT,P12,INI,FM,M1,7.519501907543217,%MAX
PAT,P12,INI,FM,M2,8.902785248560425,%MAX
PAT,P12,INI,FM,M3,8.821970137782538,%MAX
PAT,P12,REL,FM,M1,0.1337461208288889,%MAX
PAT,P12,REL,FM,M2,0.9236116826767958,%MAX
PAT,P12,REL,FM,M3,0.7469401750680437,%MAX
PAT,P14,INI,FM,M1,1.804302109327221,%MAX
PAT,P14,INI,FM,M2,2.0476311033488703,%MAX
PAT,P14,INI,FM,M3,1.8857254629080733,%MAX
PAT,P14,REL,FM,M1,12.670034617795874,%MAX
PAT,P14,REL,FM,M2,11.822100784911257,%MAX
PAT,P14,REL,FM,M3,10.52805683700686,%MAX
PAT,P17,INI,FM,M1,2.2765913894347043,%MAX
PAT,P17,INI,FM,M2,2.061429047891282,%MAX
PAT,P17,INI,FM,M3,1.9290755535415824,%MAX
PAT,P17,REL,FM,M1,6.587113620224589,%MAX
PAT,P17,REL,FM,M2,7.065186142052879,%MAX
PAT,P17,REL,FM,M3,6.584134696548425,%MAX
PAT,P24,INI,FM,M1,9.58457597538534,%MAX
PAT,P24,INI,FM,M2,10.033603727549975,%MAX
PAT,P24,INI,FM,M3,9.876366929192589,%MAX
PAT,P24,REL,FM,M1,10.60081289369282,%MAX
PAT,P24,REL,FM,M2,11.593189272713824,%MAX
PAT,P24,REL,FM,M3,11.139834375947864,%MAX
PAT,P26,INI,FM,M1,1.1709904366808896,%MAX
PAT,P26,INI,FM,M2,1.7119771296531785,%MAX
PAT,P26,INI,FM,M3,1.4140818009392484,%MAX
PAT,P26,REL,FM,M1,0.4687194387182773,%MAX
PAT,P26,REL,FM,M2,0.8377179011964873,%MAX
PAT,P26,REL,FM,M3,0.4108831357043458,%MAX
PAT,P27,INI,FM,M1,11.190153661239334,%MAX
PAT,P27,INI,FM,M2,11.555347761308404,%MAX
PAT,P27,INI,FM,M3,11.205321532334304,%MAX
PAT,P27,REL,FM,M1,9.183312442401515,%MAX
PAT,P27,REL,FM,M2,8.71553383840414,%MAX
PAT,P27,REL,FM,M3,7.511747599627847,%MAX
PAT,P28,INI,FM,M1,5.609326414544748,%MAX
PAT,P28,INI,FM,M2,6.394395377593068,%MAX
PAT,P28,INI,FM,M3,6.933446314172091,%MAX
PAT,P28,REL,FM,M1,3.3666862771499857,%MAX
PAT,P28,REL,FM,M2,4.595054288195097,%MAX
PAT,P28,REL,FM,M3,4.393930511114384,%MAX
PAT,P29,INI,FM,M1,8.847870316990303,%MAX
PAT,P29,INI,FM,M2,8.057832536491192,%MAX
PAT,P29,INI,FM,M3,,%MAX
PAT,P29,REL,FM,M1,7.680870253820977,%MAX
PAT,P29,REL,FM,M2,7.61454260034562,%MAX
PAT,P29,REL,FM,M3,7.643837600928414,%MAX
PAT,P30,REL,FM,M1,13.994125521867147,%MAX
PAT,P30,REL,FM,M2,15.063028062209847,%MAX
PAT,P30,REL,FM,M3,14.82367283326048,%MAX
PAT,P32,INI,FM,M1,8.317496422187226,%MAX
PAT,P32,INI,FM,M2,9.95779257479499,%MAX
PAT,P32,INI,FM,M3,8.314873361622242,%MAX
PAT,P32,REL,FM,M1,2.214202084742351,%MAX
PAT,P32,REL,FM,M2,2.5869822403532803,%MAX
PAT,P32,REL,FM,M3,2.428682606305065,%MAX
PAT,P33,INI,FM,M1,1.6312123327318844,%MAX
PAT,P33,INI,FM,M2,1.865924727435424,%MAX
PAT,P33,INI,FM,M3,1.6380842833232654,%MAX
PAT,P33,REL,FM,M1,0.9665389061299362,%MAX
PAT,P33,REL,FM,M2,0.8971233816356277,%MAX
PAT,P33,REL,FM,M3,0.909163689291538,%MAX
PAT,P34,INI,FM,M1,3.6964352579278064,%MAX
PAT,P34,INI,FM,M2,3.784573293574127,%MAX
PAT,P34,INI,FM,M3,3.393363137086141,%MAX
PAT,P34,REL,FM,M1,5.234803805042417,%MAX
PAT,P34,REL,FM,M2,5.101288648201811,%MAX
PAT,P34,REL,FM,M3,5.5532535109305154,%MAX
PAT,P36,INI,FM,M1,5.109799017742695,%MAX
PAT,P36,INI,FM,M2,4.67747909656916,%MAX
PAT,P36,INI,FM,M3,4.764557643430583,%MAX
PAT,P36,REL,FM,M1,3.953943932878067,%MAX
PAT,P36,REL,FM,M2,4.33845782030071,%MAX
PAT,P36,REL,FM,M3,3.950588726751928,%MAX
PAT,P41,INI,FM,M1,8.577783007914867,%MAX
PAT,P41,INI,FM,M2,9.050368045296244,%MAX
PAT,P41,INI,FM,M3,7.98209448420601,%MAX
PAT,P41,REL,FM,M1,6.201410784343552,%MAX
PAT,P41,REL,FM,M2,6.768857346405877,%MAX
PAT,P41,REL,FM,M3,6.908899967467708,%MAX
PAT,P42,INI,FM,M1,7.809504385505599,%MAX
PAT,P42,INI,FM,M2,6.368277666456397,%MAX
PAT,P42,INI,FM,M3,6.136207195416649,%MAX
PAT,P42,REL,FM,M1,8.382416288651424,%MAX
PAT,P42,REL,FM,M2,7.417416430292896,%MAX
PAT,P42,REL,FM,M3,5.387028945942898,%MAX
PAT,P43,INI,FM,M1,2.9845812580469264,%MAX
PAT,P43,INI,FM,M2,2.9185510868947864,%MAX
PAT,P43,INI,FM,M3,3.0445672857942863,%MAX
PAT,P43,REL,FM,M1,5.558203728009621,%MAX
PAT,P43,REL,FM,M2,5.133525143371704,%MAX
PAT,P43,REL,FM,M3,4.932353840010314,%MAX
PAT,P45,INI,FM,M1,8.16288119480856,%MAX
PAT,P45,INI,FM,M2,7.683428944307032,%MAX
PAT,P45,INI,FM,M3,8.206213939021906,%MAX
PAT,P45,REL,FM,M1,2.2170509782447536,%MAX
PAT,P45,REL,FM,M2,2.2377252668537557,%MAX
PAT,P45,REL,FM,M3,2.233779597312937,%MAX
PAT,P47,INI,FM,M1,0.860563202453141,%MAX
PAT,P47,INI,FM,M2,0.7075144974389475,%MAX
PAT,P47,INI,FM,M3,0.8791525776696562,%MAX
PAT,P47,REL,FM,M1,2.5208892771332896,%MAX
PAT,P47,REL,FM,M2,3.5851538779517664,%MAX
PAT,P47,REL,FM,M3,3.7341323766278456,%MAX
PAT,P50,INI,FM,M1,8.165714101489433,%MAX
PAT,P50,INI,FM,M2,8.185794509691739,%MAX
PAT,P50,INI,FM,M3,8.983302801323777,%MAX
PAT,P50,REL,FM,M1,8.19657673762093,%MAX
PAT,P50,REL,FM,M2,9.774857418614763,%MAX
PAT,P50,REL,FM,M3,10.01641892916875,%MAX
PAT,P51,INI,FM,M1,7.504779641848029,%MAX
PAT,P51,INI,FM,M2,7.687303144905651,%MAX
PAT,P51,INI,FM,M3,8.273409906236598,%MAX
PAT,P51,REL,FM,M1,13.391435220634028,%MAX
PAT,P51,REL,FM,M2,13.629135206641337,%MAX
PAT,P51,REL,FM,M3,13.355608090876997,%MAX
PAT,P53,INI,FM,M1,7.317702641629779,%MAX
PAT,P53,INI,FM,M2,,%MAX
PAT,P53,INI,FM,M3,,%MAX
PAT,P53,REL,FM,M1,7.739052104143807,%MAX
PAT,P53,REL,FM,M2,7.831570949843109,%MAX
PAT,P53,REL,FM,M3,7.665254544225704,%MAX
PAT,P54,INI,FM,M1,5.160386102061837,%MAX
PAT,P54,INI,FM,M2,6.828253283654192,%MAX
PAT,P54,INI,FM,M3,5.589997876207561,%MAX
PAT,P54,REL,FM,M1,4.8134171685714,%MAX
PAT,P54,REL,FM,M2,5.4749740919721015,%MAX
PAT,P54,REL,FM,M3,5.011592508247993,%MAX
PAT,P58,INI,FM,M1,0.9788931773896642,%MAX
PAT,P58,INI,FM,M2,1.420445660403462,%MAX
PAT,P58,INI,FM,M3,1.5211400959768329,%MAX
PAT,P58,REL,FM,M1,3.77428872774345,%MAX
PAT,P58,REL,FM,M2,2.9615322177626267,%MAX
PAT,P58,REL,FM,M3,3.018666094438923,%MAX
PAT,P61,INI,FM,M1,9.097546190523843,%MAX
PAT,P61,INI,FM,M2,9.465130993020653,%MAX
PAT,P61,INI,FM,M3,8.782958390698006,%MAX
PAT,P61,REL,FM,M1,8.270234891557898,%MAX
PAT,P61,REL,FM,M2,8.480583465853172,%MAX
PAT,P61,REL,FM,M3,7.661569867094712,%MAX
PAT,P62,INI,FM,M1,9.245677915978824,%MAX
PAT,P62,INI,FM,M2,9.382990170031404,%MAX
PAT,P62,INI,FM,M3,9.099332781177036,%MAX
PAT,P62,REL,FM,M1,10.130894012073036,%MAX
PAT,P62,REL,FM,M2,10.3890691015192,%MAX
PAT,P62,REL,FM,M3,9.438794721519145,%MAX
PAT,P63,INI,FM,M1,7.364420116242893,%MAX
PAT,P63,INI,FM,M2,8.00617112006109,%MAX
PAT,P63,INI,FM,M3,7.342468526199386,%MAX
PAT,P63,REL,FM,M1,7.15522886093175,%MAX
PAT,P63,REL,FM,M2,8.425950381395552,%MAX
PAT,P63,REL,FM,M3,6.398579936529091,%MAX
PAT,P65,INI,FM,M1,5.984638908270989,%MAX
PAT,P65,INI,FM,M2,6.17839890907252,%MAX
PAT,P65,INI,FM,M3,5.376526744061977,%MAX
PAT,P65,REL,FM,M1,7.787595669205966,%MAX
PAT,P65,REL,FM,M2,7.773887619473983,%MAX
PAT,P65,REL,FM,M3,6.901893769061233,%MAX
