Group,Participant,Session,Operator,Measure,Value,Unit
PAT,P09,INI,FM,M1,40.50874076283345,%MAX
PAT,P09,INI,FM,M2,42.48045117477423,%MAX
PAT,P09,INI,FM,M3,50.103384963605386,%MAX
PAT,P09,REL,FM,M1,24.28095716491616,%MAX
PAT,P09,REL,FM,M2,21.96281877240001,%MAX
PAT,P09,REL,FM,M3,24.688389343277166,%MAX
PAT,P10,INI,FM,M1,7.3672845050162135,%MAX
PAT,P10,INI,FM,M2,6.695367719687356,%MAX
PAT,P10,INI,FM,M3,5.610785671489311,%MAX
PAT,P10,REL,FM,M1,9.38675188918388,%MAX
PAT,P10,REL,FM,M2,6.60088041898413,%MAX
PAT,P10,REL,FM,M3,7.423457618746814,%MAX
PAT,P11,INI,FM,M1,45.154577360306554,%MAX
PAT,P11,INI,FM,M2,39.82413701828418,%MAX
PAT,P11,INI,FM,M3,35.413994579260766,%MAX
PAT,P11,REL,FM,M1,28.02858067590903,%MAX
PAT,P11,REL,FM,M2,43.051684873724554,%MAX
PAT,P11,REL,FM,M3,23.468596854547695,%MAX
PAT,P12,INI,FM,M1,26.817951763474042,%MAX
PAT,P12,INI,FM,M2,28.02215974991242,%MAX
PAT,P12,INI,FM,M3,21.9972718411506,%MAX
PAT,P12,REL,FM,M1,42.95429723710192,%MAX
PAT,P12,REL,FM,M2,42.658746796745895,%MAX
PAT,P12,REL,FM,M3,43.14400112183568,%MAX
PAT,P14,INI,FM,M1,25.861602904561117,%MAX
PAT,P14,INI,FM,M2,36.526108237750684,%MAX
PAT,P14,INI,FM,M3,44.6781392177024,%MAX
PAT,P14,REL,FM,M1,35.50085733264582,%MAX
PAT,P14,REL,FM,M2,29.640908690069978,%MAX
PAT,P14,REL,FM,M3,25.478456491856495,%MAX
PAT,P17,INI,FM,M1,20.336425320669655,%MAX
PAT,P17,INI,FM,M2,47.11031817890918,%MAX
PAT,P17,INI,FM,M3,29.056692642823627,%MAX
PAT,P17,REL,FM,M1,41.09933180260229,%MAX
PAT,P17,REL,FM,M2,54.780118778735876,%MAX
PAT,P17,REL,FM,M3,48.794419403498004,%MAX
PAT,P24,INI,FM,M1,21.299041362149588,%MAX
PAT,P24,INI,FM,M2,24.24970996021156,%MAX
PAT,P24,INI,FM,M3,26.22476730018287,%MAX
PAT,P24,REL,FM,M1,22.047854451307472,%MAX
PAT,P24,REL,FM,M2,15.063622822957736,%MAX
PAT,P24,REL,FM,M3,23.208318189348354,%MAX
PAT,P26,INI,FM,M1,20.754083480465756,%MAX
PAT,P26,INI,FM,M2,8.743287369834759,%MAX
PAT,P26,INI,FM,M3,42.48181785443022,%MAX
PAT,P26,REL,FM,M1,27.17795594336544,%MAX
PAT,P26,REL,FM,M2,13.350156317927105,%MAX
PAT,P26,REL,FM,M3,19.73386194173706,%MAX
PAT,P27,INI,FM,M1,18.666638263271903,%MAX
PAT,P27,INI,FM,M2,14.836252041582018,%MAX
PAT,P27,INI,FM,M3,32.49698560168691,%MAX
PAT,P27,REL,FM,M1,16.761432128548673,%MAX
PAT,P27,REL,FM,M2,15.388602832208033,%MAX
PAT,P27,REL,FM,M3,25.570804177166934,%MAX
PAT,P28,INI,FM,M1,12.727204646743623,%MAX
PAT,P28,INI,FM,M2,19.658133321715077,%MAX
PAT,P28,INI,FM,M3,25.683787518478727,%MAX
PAT,P28,REL,FM,M1,13.238323151189313,%MAX
PAT,P28,REL,FM,M2,12.589230258885776,%MAX
PAT,P28,REL,FM,M3,36.587003525207734,%MAX
PAT,P29,INI,FM,M1,14.894614125145708,%MAX
PAT,P29,INI,FM,M2,24.515846359559625,%MAX
PAT,P29,INI,FM,M3,50.59052355995412,%MAX
PAT,P29,REL,FM,M1,16.21960218934877,%MAX
PAT,P29,REL,FM,M2,13.32540790648669,%MAX
PAT,P29,REL,FM,M3,64.03416634505459,%MAX
PAT,P30,INI,FM,M1,36.41721500505233,%MAX
PAT,P30,INI,FM,M2,31.98967671788515,%MAX
PAT,P30,INI,FM,M3,70.87122736066613,%MAX
PAT,P30,REL,FM,M1,37.50994852497,%MAX
PAT,P30,REL,FM,M2,40.39019400935809,%MAX
PAT,P30,REL,FM,M3,32.6627050571732,%MAX
PAT,P32,INI,FM,M1,33.15926421834401,%MAX
PAT,P32,INI,FM,M2,26.791509168228767,%MAX
PAT,P32,INI,FM,M3,56.83269254980788,%MAX
PAT,P32,REL,FM,M1,29.75068443714028,%MAX
PAT,P32,REL,FM,M2,38.61698205954574,%MAX
PAT,P32,REL,FM,M3,65.12167995420131,%MAX
PAT,P33,INI,FM,M1,30.500322962724486,%MAX
PAT,P33,INI,FM,M2,36.203199153875055,%MAX
PAT,P33,INI,FM,M3,38.51431583111491,%MAX
PAT,P33,REL,FM,M1,1.5749173008363484,%MAX
PAT,P33,REL,FM,M2,2.9819472641789746,%MAX
PAT,P33,REL,FM,M3,3.6171018038447063,%MAX
PAT,P34,INI,FM,M1,38.25671584530886,%MAX
PAT,P34,INI,FM,M2,31.221379173266115,%MAX
PAT,P34,INI,FM,M3,34.12632247362037,%MAX
PAT,P34,REL,FM,M1,29.29688349131435,%MAX
PAT,P34,REL,FM,M2,36.01737681302257,%MAX
PAT,P34,REL,FM,M3,42.93097021613441,%MAX
PAT,P36,INI,FM,M1,25.43034098599079,%MAX
PAT,P36,INI,FM,M2,27.81273085212386,%MAX
PAT,P36,INI,FM,M3,62.576016870359275,%MAX
PAT,P36,REL,FM,M1,24.566784331651224,%MAX
PAT,P36,REL,FM,M2,28.32100136517006,%MAX
PAT,P36,REL,FM,M3,58.281248848679475,%MAX
PAT,P41,INI,FM,M1,24.78127314446645,%MAX
PAT,P41,INI,FM,M2,25.538359260080114,%MAX
PAT,P41,INI,FM,M3,69.73721156816028,%MAX
PAT,P41,REL,FM,M1,24.929885447231356,%MAX
PAT,P41,REL,FM,M2,28.068264445566392,%MAX
PAT,P41,REL,FM,M3,76.15303369470072,%MAX
PAT,P42,INI,FM,M1,14.353224315233627,%MAX
PAT,P42,INI,FM,M2,18.6658567956757,%MAX
PAT,P42,INI,FM,M3,17.767742663716835,%MAX
PAT,P42,REL,FM,M1,9.19885051854374,%MAX
PAT,P42,REL,FM,M2,8.984404702310071,%MAX
PAT,P42,REL,FM,M3,28.917573478871393,%MAX
PAT,P43,INI,FM,M1,17.727622043199954,%MAX
PAT,P43,INI,FM,M2,22.391431219029528,%MAX
PAT,P43,INI,FM,M3,61.74914311085462,%MAX
PAT,P43,REL,FM,M1,21.12514876160488,%MAX
PAT,P43,REL,FM,M2,24.630001604130147,%MAX
PAT,P43,REL,FM,M3,43.09955020288968,%MAX
PAT,P45,INI,FM,M1,26.028112137875077,%MAX
PAT,P45,INI,FM,M2,31.134026222618086,%MAX
PAT,P45,INI,FM,M3,30.49617369977843,%MAX
PAT,P45,REL,FM,M1,21.770506118357968,%MAX
PAT,P45,REL,FM,M2,22.543713837152172,%MAX
PAT,P45,REL,FM,M3,20.881540713080597,%MAX
PAT,P47,INI,FM,M1,12.588038681426253,%MAX
PAT,P47,INI,FM,M2,17.04940991709077,%MAX
PAT,P47,INI,FM,M3,14.389953503536978,%MAX
PAT,P47,REL,FM,M1,26.049624407351356,%MAX
PAT,P47,REL,FM,M2,39.17439815027573,%MAX
PAT,P47,REL,FM,M3,74.01043245531373,%MAX
PAT,P50,INI,FM,M1,24.25469069065724,%MAX
PAT,P50,INI,FM,M2,27.2475629785571,%MAX
PAT,P50,INI,FM,M3,66.7221010049692,%MAX
PAT,P50,REL,FM,M1,16.752801438298025,%MAX
PAT,P50,REL,FM,M2,17.26722449231022,%MAX
PAT,P50,REL,FM,M3,17.965807542311293,%MAX
PAT,P51,INI,FM,M1,26.079294892465274,%MAX
PAT,P51,INI,FM,M2,26.65851286238474,%MAX
PAT,P51,INI,FM,M3,32.033466017481906,%MAX
PAT,P51,REL,FM,M1,24.06346134829467,%MAX
PAT,P51,REL,FM,M2,29.80791815325725,%MAX
PAT,P51,REL,FM,M3,14.42650772168921,%MAX
PAT,P53,INI,FM,M1,28.139604831226343,%MAX
PAT,P53,INI,FM,M2,25.698044710395514,%MAX
PAT,P53,INI,FM,M3,21.92570916367358,%MAX
PAT,P53,REL,FM,M1,23.218666123178878,%MAX
PAT,P53,REL,FM,M2,17.62848019470852,%MAX
PAT,P53,REL,FM,M3,49.60721077376559,%MAX
PAT,P54,INI,FM,M1,58.504746474270156,%MAX
PAT,P54,INI,FM,M2,46.866607544968886,%MAX
PAT,P54,INI,FM,M3,97.76881783829158,%MAX
PAT,P54,REL,FM,M1,29.93792879518086,%MAX
PAT,P54,REL,FM,M2,46.285076161687805,%MAX
PAT,P54,REL,FM,M3,51.80839752562157,%MAX
PAT,P58,INI,FM,M1,57.471422331425806,%MAX
PAT,P58,INI,FM,M2,56.23527177038735,%MAX
PAT,P58,INI,FM,M3,52.97693406402948,%MAX
PAT,P58,REL,FM,M1,39.37391701942293,%MAX
PAT,P58,REL,FM,M2,47.773912208411005,%MAX
PAT,P58,REL,FM,M3,77.59215940771412,%MAX
PAT,P61,INI,FM,M1,44.31679792453869,%MAX
PAT,P61,INI,FM,M2,48.452071994419285,%MAX
PAT,P61,INI,FM,M3,47.75684237568793,%MAX
PAT,P61,REL,FM,M1,33.918973257034516,%MAX
PAT,P61,REL,FM,M2,57.3156946105712,%MAX
PAT,P61,REL,FM,M3,53.263802508977484,%MAX
PAT,P62,INI,FM,M1,49.654037842056766,%MAX
PAT,P62,INI,FM,M2,54.06365820275791,%MAX
PAT,P62,INI,FM,M3,46.77999082926869,%MAX
PAT,P62,REL,FM,M1,50.00533497562081,%MAX
PAT,P62,REL,FM,M2,77.25761958103742,%MAX
PAT,P62,REL,FM,M3,68.71264076815416,%MAX
PAT,P63,INI,FM,M1,24.589007132496594,%MAX
PAT,P63,INI,FM,M2,39.34064576716919,%MAX
PAT,P63,INI,FM,M3,40.06508500460279,%MAX
PAT,P63,REL,FM,M1,44.915340713124465,%MAX
PAT,P63,REL,FM,M2,41.400314756318814,%MAX
PAT,P63,REL,FM,M3,67.55524563974875,%MAX
PAT,P65,INI,FM,M1,52.005438815361714,%MAX
PAT,P65,INI,FM,M2,35.1264035661907,%MAX
PAT,P65,INI,FM,M3,37.22517619616434,%MAX
PAT,P65,REL,FM,M1,28.981885726053807,%MAX
PAT,P65,REL,FM,M2,34.9483978723301,%MAX
PAT,P65,REL,FM,M3,54.333182962240244,%MAX
