Group,Participant,Session,Operator,Measure,Value,Unit
PAT,P09,INI,FM,M1,0.0119573693745833,V
PAT,P09,INI,FM,M2,0.0096734528903446,V
PAT,P09,INI,FM,M3,0.0104659125585237,V
PAT,P09,REL,FM,M1,0.0133676849635172,V
PAT,P09,REL,FM,M2,0.0123961207259027,V
PAT,P09,REL,FM,M3,0.0127147313315638,V
PAT,P10,INI,FM,M1,0.0153438086584963,V
PAT,P10,INI,FM,M2,0.0153228100236891,V
PAT,P10,INI,FM,M3,0.0145602074768288,V
PAT,P10,REL,FM,M1,0.0194787433875144,V
PAT,P10,REL,FM,M2,0.020529289517749,V
PAT,P10,REL,FM,M3,0.0175219511630654,V
PAT,P11,INI,FM,M1,0.0100172881264207,V
PAT,P11,INI,FM,M2,0.0104022549529924,V
PAT,P11,INI,FM,M3,0.0124913778343324,V
PAT,P11,REL,FM,M1,0.0110825585154466,V
PAT,P11,REL,FM,M2,0.0113289019907449,V
PAT,P11,REL,FM,M3,0.0102145441574921,V
PAT,P12,INI,FM,M1,0.0096231530346929,V
PAT,P12,INI,FM,M2,0.009702619967005,V
PAT,P12,INI,FM,M3,,V
PAT,P12,REL,FM,M1,0.0147868133185882,V
PAT,P12,REL,FM,M2,0.0125641523340242,V
PAT,P12,REL,FM,M3,0.0107835518001591,V
PAT,P14,INI,FM,M1,0.0122095605390737,V
PAT,P14,INI,FM,M2,0.0119641072485353,V
PAT,P14,INI,FM,M3,0.0134912362655339,V
PAT,P14,REL,FM,M1,0.0157637955079313,V
PAT,P14,REL,FM,M2,0.0142207077572467,V
PAT,P14,REL,FM,M3,,V
PAT,P17,INI,FM,M1,0.0138552200683018,V
PAT,P17,INI,FM,M2,0.0149172772191916,V
PAT,P17,INI,FM,M3,0.0171070842032724,V
PAT,P17,REL,FM,M1,0.0141987461041161,V
PAT,P17,REL,FM,M2,0.0217456260386185,V
PAT,P17,REL,FM,M3,0.0192212752038187,V
PAT,P24,INI,FM,M1,0.0118857997833103,V
PAT,P24,INI,FM,M2,0.0115208786190304,V
PAT,P24,INI,FM,M3,0.0110916481047096,V
PAT,P24,REL,FM,M1,0.0110449870526478,V
PAT,P24,REL,FM,M2,0.0113597697171623,V
PAT,P24,REL,FM,M3,0.0115979800018826,V
PAT,P26,INI,FM,M1,0.0101206762951715,V
PAT,P26,INI,FM,M2,0.0098043494511158,V
PAT,P26,INI,FM,M3,0.0099197855647735,V
PAT,P26,REL,FM,M1,0.0168788751230752,V
PAT,P26,REL,FM,M2,0.0121276929854079,V
PAT,P26,REL,FM,M3,0.0112594714775272,V
PAT,P27,INI,FM,M1,0.0182781754990655,V
PAT,P27,INI,FM,M2,0.0127401529789153,V
PAT,P27,INI,FM,M3,0.0168182421385973,V
PAT,P27,REL,FM,M1,0.0165840461050263,V
PAT,P27,REL,FM,M2,0.0131696333534167,V
PAT,P27,REL,FM,M3,0.0165482325846382,V
PAT,P28,INI,FM,M1,0.0096642757915777,V
PAT,P28,INI,FM,M2,,V
PAT,P28,INI,FM,M3,0.0093131409376476,V
PAT,P28,REL,FM,M1,0.0140481827085592,V
PAT,P28,REL,FM,M2,0.0117112607889203,V
PAT,P28,REL,FM,M3,0.0102402032911278,V
PAT,P29,INI,FM,M1,0.0452311819842136,V
PAT,P29,INI,FM,M2,,V
PAT,P29,INI,FM,M3,0.0342730491704766,V
PAT,P29,REL,FM,M1,0.0241470169168341,V
PAT,P29,REL,FM,M2,0.02407620999465,V
PAT,P29,REL,FM,M3,0.0478079627522803,V
PAT,P30,INI,FM,M1,0.0082577120758612,V
PAT,P30,INI,FM,M2,0.007757290770899,V
PAT,P30,INI,FM,M3,0.007406489916414,V
PAT,P30,REL,FM,M1,0.0070376474075686,V
PAT,P30,REL,FM,M2,0.0076443397786054,V
PAT,P30,REL,FM,M3,0.0071030726484417,V
PAT,P32,INI,FM,M1,0.0081456208829612,V
PAT,P32,INI,FM,M2,0.0074781644299866,V
PAT,P32,INI,FM,M3,0.0097973973843819,V
PAT,P32,REL,FM,M1,0.013598682439166,V
PAT,P32,REL,FM,M2,0.0120368449395419,V
PAT,P32,REL,FM,M3,0.0122212777747825,V
PAT,P33,INI,FM,M1,0.0052105712834956,V
PAT,P33,INI,FM,M2,0.0054059223323814,V
PAT,P33,INI,FM,M3,0.0066238169018592,V
PAT,P33,REL,FM,M1,0.0049664652779632,V
PAT,P33,REL,FM,M2,0.0046238273384671,V
PAT,P33,REL,FM,M3,0.0074109369106134,V
PAT,P34,INI,FM,M1,,V
PAT,P34,INI,FM,M2,,V
PAT,P34,INI,FM,M3,,V
PAT,P34,REL,FM,M1,,V
PAT,P34,REL,FM,M2,,V
PAT,P34,REL,FM,M3,,V
PAT,P36,INI,FM,M1,0.0341058533438051,V
PAT,P36,INI,FM,M2,0.0270818072604671,V
PAT,P36,INI,FM,M3,0.0238672718751199,V
PAT,P36,REL,FM,M1,0.0372995242758336,V
PAT,P36,REL,FM,M2,0.0459859289310053,V
PAT,P36,REL,FM,M3,0.0411867684028333,V
PAT,P41,INI,FM,M1,0.0297529418326659,V
PAT,P41,INI,FM,M2,0.0321871237948328,V
PAT,P41,INI,FM,M3,0.037131724924441,V
PAT,P41,REL,FM,M1,0.0266894394111212,V
PAT,P41,REL,FM,M2,0.0183640295066655,V
PAT,P41,REL,FM,M3,0.0183920786123613,V
PAT,P42,INI,FM,M1,0.0325493813600179,V
PAT,P42,INI,FM,M2,0.0280713195487986,V
PAT,P42,INI,FM,M3,0.0331983598049902,V
PAT,P42,REL,FM,M1,0.0394651488129348,V
PAT,P42,REL,FM,M2,0.0327240819879579,V
PAT,P42,REL,FM,M3,0.0358067856559938,V
PAT,P43,INI,FM,M1,0.0120191354042076,V
PAT,P43,INI,FM,M2,0.0134226114975021,V
PAT,P43,INI,FM,M3,0.0150942961289547,V
PAT,P43,REL,FM,M1,0.0185280913301713,V
PAT,P43,REL,FM,M2,0.0191123708528463,V
PAT,P43,REL,FM,M3,0.0180039904607307,V
PAT,P45,INI,FM,M1,,V
PAT,P45,INI,FM,M2,,V
PAT,P45,INI,FM,M3,,V
PAT,P45,REL,FM,M1,,V
PAT,P45,REL,FM,M2,,V
PAT,P45,REL,FM,M3,,V
PAT,P47,INI,FM,M1,0.01104032158044,V
PAT,P47,INI,FM,M2,0.007733100376769,V
PAT,P47,INI,FM,M3,0.0090047643818765,V
PAT,P47,REL,FM,M1,0.0106064884073609,V
PAT,P47,REL,FM,M2,0.0104976275991462,V
PAT,P47,REL,FM,M3,0.0103189697622883,V
PAT,P50,INI,FM,M1,0.0164135098666995,V
PAT,P50,INI,FM,M2,0.0212841696924743,V
PAT,P50,INI,FM,M3,0.0181498180161821,V
PAT,P50,REL,FM,M1,0.0201923754974604,V
PAT,P50,REL,FM,M2,0.0226969405371487,V
PAT,P50,REL,FM,M3,0.0220161544717057,V
PAT,P51,INI,FM,M1,0.0068401348903085,V
PAT,P51,INI,FM,M2,0.0078969135960187,V
PAT,P51,INI,FM,M3,0.0067317908050388,V
PAT,P51,REL,FM,M1,0.0075530910249629,V
PAT,P51,REL,FM,M2,0.0078058899361118,V
PAT,P51,REL,FM,M3,0.0062720278091524,V
PAT,P53,INI,FM,M1,0.0098101657211251,V
PAT,P53,INI,FM,M2,0.0091788984799333,V
PAT,P53,INI,FM,M3,0.0107551422202285,V
PAT,P53,REL,FM,M1,0.0131464613099321,V
PAT,P53,REL,FM,M2,0.0091514717108856,V
PAT,P53,REL,FM,M3,0.011593195126418,V
PAT,P54,INI,FM,M1,0.0225807153289203,V
PAT,P54,INI,FM,M2,0.0260363740424902,V
PAT,P54,INI,FM,M3,0.0262428666278643,V
PAT,P54,REL,FM,M1,0.0185329290347879,V
PAT,P54,REL,FM,M2,0.0156033181103183,V
PAT,P54,REL,FM,M3,0.0123293001744848,V
PAT,P58,INI,FM,M1,0.0069923254731087,V
PAT,P58,INI,FM,M2,0.0063059827087448,V
PAT,P58,INI,FM,M3,0.0074269148341815,V
PAT,P58,REL,FM,M1,0.0093007211914038,V
PAT,P58,REL,FM,M2,0.0098744873847929,V
PAT,P58,REL,FM,M3,0.0087757378356944,V
PAT,P61,INI,FM,M1,0.0149220489458057,V
PAT,P61,INI,FM,M2,0.0170624194561727,V
PAT,P61,INI,FM,M3,0.0195921388743414,V
PAT,P61,REL,FM,M1,0.0136100552656406,V
PAT,P61,REL,FM,M2,0.0139318649504123,V
PAT,P61,REL,FM,M3,0.0141186052725869,V
PAT,P62,INI,FM,M1,0.0115671016947431,V
PAT,P62,INI,FM,M2,0.0087139932496122,V
PAT,P62,INI,FM,M3,0.0112445016472932,V
PAT,P62,REL,FM,M1,0.0155387483834686,V
PAT,P62,REL,FM,M2,0.0138275806677052,V
PAT,P62,REL,FM,M3,0.0124848460333171,V
PAT,P63,INI,FM,M1,,V
PAT,P63,INI,FM,M2,,V
PAT,P63,INI,FM,M3,,V
PAT,P63,REL,FM,M1,,V
PAT,P63,REL,FM,M2,0.0128075464038048,V
PAT,P63,REL,FM,M3,0.0077041561726086,V
PAT,P65,INI,FM,M1,0.018858173038466,V
PAT,P65,INI,FM,M2,0.0203830516016394,V
PAT,P65,INI,FM,M3,0.0197140067125873,V
PAT,P65,REL,FM,M1,0.0209827954965487,V
PAT,P65,REL,FM,M2,0.0215147243392311,V
PAT,P65,REL,FM,M3,0.0195922084659681,V
