Group,Participant,Session,Operator,Measure,Value,Unit
PAT,P09,INI,FM,M1,0.0074924054255617,V
PAT,P09,INI,FM,M2,0.0044781514100246,V
PAT,P09,INI,FM,M3,0.0025570929977879,V
PAT,P09,REL,FM,M1,0.0097380006938721,V
PAT,P09,REL,FM,M2,0.0056075073000307,V
PAT,P09,REL,FM,M3,0.0042925228508215,V
PAT,P10,INI,FM,M1,0.0060559266018305,V
PAT,P10,INI,FM,M2,0.0036529423087513,V
PAT,P10,INI,FM,M3,0.0025054461075366,V
PAT,P10,REL,FM,M1,0.0100886427644646,V
PAT,P10,REL,FM,M2,0.003709027554565,V
PAT,P10,REL,FM,M3,0.0028586947786254,V
PAT,P11,INI,FM,M1,0.0040788434551844,V
PAT,P11,INI,FM,M2,0.0041948264397613,V
PAT,P11,INI,FM,M3,0.0038069505488283,V
PAT,P11,REL,FM,M1,0.0026339479317889,V
PAT,P11,REL,FM,M2,0.0024843753582084,V
PAT,P11,REL,FM,M3,0.0025058882340699,V
PAT,P12,INI,FM,M1,0.0046486598371783,V
PAT,P12,INI,FM,M2,0.0050752441848261,V
PAT,P12,INI,FM,M3,0.0048103981130906,V
PAT,P12,REL,FM,M1,0.004938475898856,V
PAT,P12,REL,FM,M2,0.0050643510770667,V
PAT,P12,REL,FM,M3,0.004818886520212,V
PAT,P14,INI,FM,M1,0.0085681754966904,V
PAT,P14,INI,FM,M2,0.0078893320014943,V
PAT,P14,INI,FM,M3,0.007301078690198,V
PAT,P14,REL,FM,M1,0.0098868901956718,V
PAT,P14,REL,FM,M2,0.0079801360939738,V
PAT,P14,REL,FM,M3,0.006942716524206,V
PAT,P17,INI,FM,M1,0.0024040827719535,V
PAT,P17,INI,FM,M2,0.0024450730107895,V
PAT,P17,INI,FM,M3,0.0041131776993957,V
PAT,P17,REL,FM,M1,0.015116298910441,V
PAT,P17,REL,FM,M2,0.0148623260709165,V
PAT,P17,REL,FM,M3,0.0140734388822442,V
PAT,P24,INI,FM,M1,0.0096610022790472,V
PAT,P24,INI,FM,M2,0.0062985729030625,V
PAT,P24,INI,FM,M3,0.0039424474444627,V
PAT,P24,REL,FM,M1,0.0105622016074954,V
PAT,P24,REL,FM,M2,0.0087296610146469,V
PAT,P24,REL,FM,M3,0.007582857380961,V
PAT,P26,INI,FM,M1,0.0041333612855255,V
PAT,P26,INI,FM,M2,0.0029276761005456,V
PAT,P26,INI,FM,M3,0.0027963616929949,V
PAT,P26,REL,FM,M1,0.0024567679754775,V
PAT,P26,REL,FM,M2,0.0025351594379662,V
PAT,P26,REL,FM,M3,0.0033278015355444,V
PAT,P27,INI,FM,M1,0.010566615120534,V
PAT,P27,INI,FM,M2,0.009695937070925,V
PAT,P27,INI,FM,M3,0.0055598082802496,V
PAT,P27,REL,FM,M1,0.0102355472317563,V
PAT,P27,REL,FM,M2,0.0085062761222201,V
PAT,P27,REL,FM,M3,0.0093762008636211,V
PAT,P28,INI,FM,M1,0.0127639824976329,V
PAT,P28,INI,FM,M2,0.0072241594648382,V
PAT,P28,INI,FM,M3,0.0063812984379095,V
PAT,P28,REL,FM,M1,0.0168853200194851,V
PAT,P28,REL,FM,M2,0.0154873361574091,V
PAT,P28,REL,FM,M3,0.0122833438095201,V
PAT,P29,INI,FM,M1,0.0104505478963646,V
PAT,P29,INI,FM,M2,0.0076865349699997,V
PAT,P29,INI,FM,M3,0.0069904153636209,V
PAT,P29,REL,FM,M1,0.0043760722324013,V
PAT,P29,REL,FM,M2,0.0040630972865672,V
PAT,P29,REL,FM,M3,0.0035530259939905,V
PAT,P30,INI,FM,M1,0.0044150257363498,V
PAT,P30,INI,FM,M2,0.0046250934239058,V
PAT,P30,INI,FM,M3,0.005066369372561,V
PAT,P30,REL,FM,M1,0.0048731790471156,V
PAT,P30,REL,FM,M2,0.004136477216871,V
PAT,P30,REL,FM,M3,0.0039284916663151,V
PAT,P32,INI,FM,M1,0.0037996708733392,V
PAT,P32,INI,FM,M2,0.0053954279203901,V
PAT,P32,INI,FM,M3,0.0037318733719701,V
PAT,P32,REL,FM,M1,0.0052695956526006,V
PAT,P32,REL,FM,M2,0.0057580253026587,V
PAT,P32,REL,FM,M3,0.0034621637755571,V
PAT,P33,INI,FM,M1,0.0077583625577285,V
PAT,P33,INI,FM,M2,0.0075006441284676,V
PAT,P33,INI,FM,M3,0.0068471985719964,V
PAT,P33,REL,FM,M1,0.0059058533141484,V
PAT,P33,REL,FM,M2,0.007089861132965,V
PAT,P33,REL,FM,M3,0.0089627923040686,V
PAT,P34,INI,FM,M1,0.0029162341350082,V
PAT,P34,INI,FM,M2,0.0034172785000087,V
PAT,P34,INI,FM,M3,0.0028832706552162,V
PAT,P34,REL,FM,M1,0.0024251851441919,V
PAT,P34,REL,FM,M2,0.0027772238998275,V
PAT,P34,REL,FM,M3,0.0022317013164881,V
PAT,P36,INI,FM,M1,0.0158107475473489,V
PAT,P36,INI,FM,M2,0.0147732437577668,V
PAT,P36,INI,FM,M3,0.015764622527082,V
PAT,P36,REL,FM,M1,0.0320921054422799,V
PAT,P36,REL,FM,M2,0.0313951839211135,V
PAT,P36,REL,FM,M3,0.0308840485958076,V
PAT,P41,INI,FM,M1,0.0026641682802332,V
PAT,P41,INI,FM,M2,0.002537968522917,V
PAT,P41,INI,FM,M3,0.0024576533463455,V
PAT,P41,REL,FM,M1,0.003236778574209,V
PAT,P41,REL,FM,M2,0.0026367197841162,V
PAT,P41,REL,FM,M3,0.0024152875248114,V
PAT,P42,INI,FM,M1,0.0066589060600887,V
PAT,P42,INI,FM,M2,0.0056691144471455,V
PAT,P42,INI,FM,M3,0.0041524665088847,V
PAT,P42,REL,FM,M1,0.0051837294665087,V
PAT,P42,REL,FM,M2,0.0031567513651243,V
PAT,P42,REL,FM,M3,0.0030318299642856,V
PAT,P43,INI,FM,M1,0.0028124159513486,V
PAT,P43,INI,FM,M2,0.003492160359355,V
PAT,P43,INI,FM,M3,0.0027443196880691,V
PAT,P43,REL,FM,M1,0.0024100558461338,V
PAT,P43,REL,FM,M2,0.0025972120195749,V
PAT,P43,REL,FM,M3,0.0046151966556343,V
PAT,P45,INI,FM,M1,0.006588964815029,V
PAT,P45,INI,FM,M2,0.0065492670316945,V
PAT,P45,INI,FM,M3,0.0042947909976445,V
PAT,P45,REL,FM,M1,0.0018669751420431,V
PAT,P45,REL,FM,M2,0.0016650852207332,V
PAT,P45,REL,FM,M3,0.0014214294121198,V
PAT,P47,INI,FM,M1,0.0092855744182068,V
PAT,P47,INI,FM,M2,0.0129353871993783,V
PAT,P47,INI,FM,M3,0.0112737993370322,V
PAT,P47,REL,FM,M1,0.0070926875621251,V
PAT,P47,REL,FM,M2,0.0063199293041748,V
PAT,P47,REL,FM,M3,0.0073589744525215,V
PAT,P50,INI,FM,M1,0.0060511914630204,V
PAT,P50,INI,FM,M2,0.0066048433918947,V
PAT,P50,INI,FM,M3,,V
PAT,P50,REL,FM,M1,0.0197739750410906,V
PAT,P50,REL,FM,M2,0.0201304814605642,V
PAT,P50,REL,FM,M3,0.0166027387412122,V
PAT,P51,INI,FM,M1,0.0065725624994103,V
PAT,P51,INI,FM,M2,0.0058953787453738,V
PAT,P51,INI,FM,M3,0.0062080956347305,V
PAT,P51,REL,FM,M1,0.0054167293700876,V
PAT,P51,REL,FM,M2,0.0056601730520575,V
PAT,P51,REL,FM,M3,0.0026929712608508,V
PAT,P53,INI,FM,M1,0.0167093726151258,V
PAT,P53,INI,FM,M2,0.0159870699734107,V
PAT,P53,INI,FM,M3,,V
PAT,P53,REL,FM,M1,0.0148776316021282,V
PAT,P53,REL,FM,M2,0.0133773018358181,V
PAT,P53,REL,FM,M3,0.0141079522126555,V
PAT,P54,INI,FM,M1,0.0025363084160542,V
PAT,P54,INI,FM,M2,0.0024095787715653,V
PAT,P54,INI,FM,M3,0.0023939143401308,V
PAT,P54,REL,FM,M1,0.0031445772246907,V
PAT,P54,REL,FM,M2,0.0029999771291873,V
PAT,P54,REL,FM,M3,0.0032079198107095,V
PAT,P58,INI,FM,M1,0.0053273926665021,V
PAT,P58,INI,FM,M2,0.0048074527141918,V
PAT,P58,INI,FM,M3,0.0048014296147696,V
PAT,P58,REL,FM,M1,0.0137112363104915,V
PAT,P58,REL,FM,M2,0.0093596241228178,V
PAT,P58,REL,FM,M3,0.0062538112394062,V
PAT,P61,INI,FM,M1,0.0023723228650968,V
PAT,P61,INI,FM,M2,0.0023005082753094,V
PAT,P61,INI,FM,M3,0.0026931803355067,V
PAT,P61,REL,FM,M1,0.003133826533203,V
PAT,P61,REL,FM,M2,0.0023854417401463,V
PAT,P61,REL,FM,M3,0.0023111890497245,V
PAT,P62,INI,FM,M1,0.013725761444851,V
PAT,P62,INI,FM,M2,0.0113330532713938,V
PAT,P62,INI,FM,M3,0.0150892414842341,V
PAT,P62,REL,FM,M1,0.0125750009964168,V
PAT,P62,REL,FM,M2,0.0093256653962939,V
PAT,P62,REL,FM,M3,0.010791355199422,V
PAT,P63,INI,FM,M1,0.008138182197695,V
PAT,P63,INI,FM,M2,0.0042632109101372,V
PAT,P63,INI,FM,M3,0.0098446696503617,V
PAT,P63,REL,FM,M1,0.0022470906557706,V
PAT,P63,REL,FM,M2,0.0020138488693427,V
PAT,P63,REL,FM,M3,0.0031739185028822,V
PAT,P65,INI,FM,M1,0.0033738294367673,V
PAT,P65,INI,FM,M2,0.0025493683569577,V
PAT,P65,INI,FM,M3,0.0024952413515539,V
PAT,P65,REL,FM,M1,0.0041001834855385,V
PAT,P65,REL,FM,M2,0.0033735003694712,V
PAT,P65,REL,FM,M3,0.0032428957474365,V
