Group,Participant,Session,Operator,Measure,Value,Unit
PAT,P09,INI,FM,M1,31.254809114828717,%subMVIC
PAT,P09,INI,FM,M2,31.534835750428154,%subMVIC
PAT,P09,INI,FM,M3,30.249715928785747,%subMVIC
PAT,P09,REL,FM,M1,26.18930224365224,%subMVIC
PAT,P09,REL,FM,M2,30.272149397138755,%subMVIC
PAT,P09,REL,FM,M3,27.11766948011181,%subMVIC
PAT,P10,INI,FM,M1,67.09177415078693,%subMVIC
PAT,P10,INI,FM,M2,76.66713483428337,%subMVIC
PAT,P10,INI,FM,M3,77.64816414086201,%subMVIC
PAT,P10,REL,FM,M1,320.16084648247244,%subMVIC
PAT,P10,REL,FM,M2,504.1129181911563,%subMVIC
PAT,P10,REL,FM,M3,468.8095165450064,%subMVIC
PAT,P11,INI,FM,M1,25.885964516232406,%subMVIC
PAT,P11,INI,FM,M2,26.197074078256193,%subMVIC
PAT,P11,INI,FM,M3,27.315082058252717,%subMVIC
PAT,P11,REL,FM,M1,42.8813253142575,%subMVIC
PAT,P11,REL,FM,M2,50.764751947453,%subMVIC
PAT,P11,REL,FM,M3,39.74865501003058,%subMVIC
PAT,P12,INI,FM,M1,57.45505461446119,%subMVIC
PAT,P12,INI,FM,M2,60.34420471711095,%subMVIC
PAT,P12,INI,FM,M3,58.018000063262456,%subMVIC
PAT,P12,REL,FM,M1,22.20513401289223,%subMVIC
PAT,P12,REL,FM,M2,22.040687645048738,%subMVIC
PAT,P12,REL,FM,M3,22.71772229765612,%subMVIC
PAT,P14,INI,FM,M1,70.0546775740204,%subMVIC
PAT,P14,INI,FM,M2,92.16201981534165,%subMVIC
PAT,P14,INI,FM,M3,87.20740448525723,%subMVIC
PAT,P14,REL,FM,M1,148.96285527325597,%subMVIC
PAT,P14,REL,FM,M2,179.48753259666682,%subMVIC
PAT,P14,REL,FM,M3,190.17909754286933,%subMVIC
PAT,P17,INI,FM,M1,1731.7007656016478,%subMVIC
PAT,P17,INI,FM,M2,1501.3687923268822,%subMVIC
PAT,P17,INI,FM,M3,1496.7411781772703,%subMVIC
PAT,P17,REL,FM,M1,16.58263680240502,%subMVIC
PAT,P17,REL,FM,M2,16.14624890812521,%subMVIC
PAT,P17,REL,FM,M3,16.158211941983787,%subMVIC
PAT,P24,INI,FM,M1,44.79539800719668,%subMVIC
PAT,P24,INI,FM,M2,46.88838928143361,%subMVIC
PAT,P24,INI,FM,M3,46.27234525192267,%subMVIC
PAT,P24,REL,FM,M1,71.10576743668413,%subMVIC
PAT,P24,REL,FM,M2,74.26559491969398,%subMVIC
PAT,P24,REL,FM,M3,63.51505039555559,%subMVIC
PAT,P26,INI,FM,M1,68.16352005571254,%subMVIC
PAT,P26,INI,FM,M2,69.75069444588003,%subMVIC
PAT,P26,INI,FM,M3,77.90829115566939,%subMVIC
PAT,P26,REL,FM,M1,434.9697201284612,%subMVIC
PAT,P26,REL,FM,M2,370.08052802399897,%subMVIC
PAT,P26,REL,FM,M3,466.89603090327074,%subMVIC
PAT,P27,INI,FM,M1,36.09736631039524,%subMVIC
PAT,P27,INI,FM,M2,35.42649654898478,%subMVIC
PAT,P27,INI,FM,M3,29.812393384195193,%subMVIC
PAT,P27,REL,FM,M1,43.953743613947104,%subMVIC
PAT,P27,REL,FM,M2,47.556647085501524,%subMVIC
PAT,P27,REL,FM,M3,40.97400282476262,%subMVIC
PAT,P28,INI,FM,M1,83.81254760807273,%subMVIC
PAT,P28,INI,FM,M2,87.48424915228017,%subMVIC
PAT,P28,INI,FM,M3,88.76232922734026,%subMVIC
PAT,P28,REL,FM,M1,38.25568200898869,%subMVIC
PAT,P28,REL,FM,M2,44.31776521316885,%subMVIC
PAT,P28,REL,FM,M3,37.73872192307272,%subMVIC
PAT,P29,INI,FM,M1,27.21779075302023,%subMVIC
PAT,P29,INI,FM,M2,37.474135267791254,%subMVIC
PAT,P29,INI,FM,M3,27.120725412078407,%subMVIC
PAT,P29,REL,FM,M1,2.802309473176027,%subMVIC
PAT,P29,REL,FM,M2,2.5881298159105928,%subMVIC
PAT,P29,REL,FM,M3,3.247917171598044,%subMVIC
PAT,P30,INI,FM,M1,24.932296257802374,%subMVIC
PAT,P30,INI,FM,M2,27.470512129027078,%subMVIC
PAT,P30,INI,FM,M3,26.218947277134184,%subMVIC
PAT,P30,REL,FM,M1,38.18411919832292,%subMVIC
PAT,P30,REL,FM,M2,37.70646609136923,%subMVIC
PAT,P30,REL,FM,M3,38.30512130976687,%subMVIC
PAT,P32,INI,FM,M1,29.61998816689038,%subMVIC
PAT,P32,INI,FM,M2,30.155240868226944,%subMVIC
PAT,P32,INI,FM,M3,27.723183380084386,%subMVIC
PAT,P32,REL,FM,M1,37.93324351374555,%subMVIC
PAT,P32,REL,FM,M2,39.59982694200815,%subMVIC
PAT,P32,REL,FM,M3,40.192649026117934,%subMVIC
PAT,P33,INI,FM,M1,14.957607208925772,%subMVIC
PAT,P33,INI,FM,M2,13.824674592532501,%subMVIC
PAT,P33,INI,FM,M3,12.51795610180651,%subMVIC
PAT,P33,REL,FM,M1,2160.489221510582,%subMVIC
PAT,P33,REL,FM,M2,1839.6382811013027,%subMVIC
PAT,P33,REL,FM,M3,748.759005545506,%subMVIC
PAT,P34,INI,FM,M1,33.19675444231687,%subMVIC
PAT,P34,INI,FM,M2,34.406000563936246,%subMVIC
PAT,P34,INI,FM,M3,26.92673440236744,%subMVIC
PAT,P34,REL,FM,M1,43.39210076737106,%subMVIC
PAT,P34,REL,FM,M2,40.25740693162964,%subMVIC
PAT,P34,REL,FM,M3,40.875249359061556,%subMVIC
PAT,P36,INI,FM,M1,11.341832882588566,%subMVIC
PAT,P36,INI,FM,M2,11.304901983085596,%subMVIC
PAT,P36,INI,FM,M3,8.705296222003824,%subMVIC
PAT,P36,REL,FM,M1,10.067577158346909,%subMVIC
PAT,P36,REL,FM,M2,8.370855049365847,%subMVIC
PAT,P36,REL,FM,M3,7.579739629670022,%subMVIC
PAT,P41,INI,FM,M1,7.816476511019938,%subMVIC
PAT,P41,INI,FM,M2,11.134778742980432,%subMVIC
PAT,P41,INI,FM,M3,8.016923369799402,%subMVIC
PAT,P41,REL,FM,M1,8.081173249258972,%subMVIC
PAT,P41,REL,FM,M2,8.920831720982557,%subMVIC
PAT,P41,REL,FM,M3,6.467664098462673,%subMVIC
PAT,P42,INI,FM,M1,41.143850291131834,%subMVIC
PAT,P42,INI,FM,M2,48.06751914237643,%subMVIC
PAT,P42,INI,FM,M3,42.36110662509096,%subMVIC
PAT,P42,REL,FM,M1,27.632644215257724,%subMVIC
PAT,P42,REL,FM,M2,29.91590741320127,%subMVIC
PAT,P42,REL,FM,M3,22.56867142033715,%subMVIC
PAT,P43,INI,FM,M1,40.99737837899672,%subMVIC
PAT,P43,INI,FM,M2,39.84887235452015,%subMVIC
PAT,P43,INI,FM,M3,43.08585212401136,%subMVIC
PAT,P43,REL,FM,M1,34.25182426976039,%subMVIC
PAT,P43,REL,FM,M2,37.97234975161479,%subMVIC
PAT,P43,REL,FM,M3,48.41804483231196,%subMVIC
PAT,P45,INI,FM,M1,36.76995287934196,%subMVIC
PAT,P45,INI,FM,M2,26.324315108285838,%subMVIC
PAT,P45,INI,FM,M3,33.50122900673628,%subMVIC
PAT,P45,REL,FM,M1,25.151701361101512,%subMVIC
PAT,P45,REL,FM,M2,26.497056182227983,%subMVIC
PAT,P45,REL,FM,M3,27.34757265810332,%subMVIC
PAT,P47,INI,FM,M1,253.66746973507034,%subMVIC
PAT,P47,INI,FM,M2,315.59785432962985,%subMVIC
PAT,P47,INI,FM,M3,312.1507368871778,%subMVIC
PAT,P47,REL,FM,M1,34.25172245011201,%subMVIC
PAT,P47,REL,FM,M2,40.15142350038258,%subMVIC
PAT,P47,REL,FM,M3,34.328174828213676,%subMVIC
PAT,P50,INI,FM,M1,38.90695599937988,%subMVIC
PAT,P50,INI,FM,M2,44.808206594041856,%subMVIC
PAT,P50,INI,FM,M3,37.730298259384874,%subMVIC
PAT,P50,REL,FM,M1,33.487376792480816,%subMVIC
PAT,P50,REL,FM,M2,33.445811825371486,%subMVIC
PAT,P50,REL,FM,M3,34.0466395570781,%subMVIC
PAT,P51,INI,FM,M1,28.433388747788925,%subMVIC
PAT,P51,INI,FM,M2,29.673384360943306,%subMVIC
PAT,P51,INI,FM,M3,26.38624946567954,%subMVIC
PAT,P51,REL,FM,M1,18.729068806457388,%subMVIC
PAT,P51,REL,FM,M2,34.83740457798101,%subMVIC
PAT,P51,REL,FM,M3,58.29310819446581,%subMVIC
PAT,P53,INI,FM,M1,15.182403284841381,%subMVIC
PAT,P53,INI,FM,M2,19.29653487318863,%subMVIC
PAT,P53,INI,FM,M3,20.352513167338707,%subMVIC
PAT,P53,REL,FM,M1,20.5233771040248,%subMVIC
PAT,P53,REL,FM,M2,25.09487343441037,%subMVIC
PAT,P53,REL,FM,M3,18.485874059866138,%subMVIC
PAT,P54,INI,FM,M1,42.50448758976359,%subMVIC
PAT,P54,INI,FM,M2,49.366401083541795,%subMVIC
PAT,P54,INI,FM,M3,49.23424916860172,%subMVIC
PAT,P54,REL,FM,M1,58.819003935770375,%subMVIC
PAT,P54,REL,FM,M2,48.810323075425586,%subMVIC
PAT,P54,REL,FM,M3,52.827422157218976,%subMVIC
PAT,P58,INI,FM,M1,16.985682713752933,%subMVIC
PAT,P58,INI,FM,M2,17.79820871307906,%subMVIC
PAT,P58,INI,FM,M3,16.991779543877055,%subMVIC
PAT,P58,REL,FM,M1,20.1120469872873,%subMVIC
PAT,P58,REL,FM,M2,15.674697428000181,%subMVIC
PAT,P58,REL,FM,M3,17.030388899005434,%subMVIC
PAT,P61,REL,FM,M1,10.359604001815015,%subMVIC
PAT,P61,REL,FM,M2,9.526113452983479,%subMVIC
PAT,P61,REL,FM,M3,8.85291462558061,%subMVIC
PAT,P62,INI,FM,M1,20.804083377858284,%subMVIC
PAT,P62,INI,FM,M2,20.96839317043756,%subMVIC
PAT,P62,INI,FM,M3,21.09316694695699,%subMVIC
PAT,P62,REL,FM,M1,12.56891497311569,%subMVIC
PAT,P62,REL,FM,M2,11.295047101092207,%subMVIC
PAT,P62,REL,FM,M3,15.075845798007801,%subMVIC
PAT,P63,INI,FM,M1,45.15179615635158,%subMVIC
PAT,P63,INI,FM,M2,40.783970935003104,%subMVIC
PAT,P63,INI,FM,M3,44.29947104264791,%subMVIC
PAT,P63,REL,FM,M1,23.42681020187137,%subMVIC
PAT,P63,REL,FM,M2,31.896735467603452,%subMVIC
PAT,P63,REL,FM,M3,33.64087431128873,%subMVIC
PAT,P65,INI,FM,M1,24.73048230823782,%subMVIC
PAT,P65,INI,FM,M2,28.169143929647767,%subMVIC
PAT,P65,INI,FM,M3,19.54578475734084,%subMVIC
PAT,P65,REL,FM,M1,26.591661161428636,%subMVIC
PAT,P65,REL,FM,M2,29.713936413601562,%subMVIC
PAT,P65,REL,FM,M3,26.76230922669389,%subMVIC
