Group,Participant,Session,Operator,Measure,Value,Unit
PAT,P09,INI,FM,M1,36.491986123279354,%MAX
PAT,P09,INI,FM,M2,37.59978305762954,%MAX
PAT,P09,INI,FM,M3,33.32787070067426,%MAX
PAT,P09,REL,FM,M1,30.16707995484454,%MAX
PAT,P09,REL,FM,M2,28.778882802267603,%MAX
PAT,P09,REL,FM,M3,28.455896742493497,%MAX
PAT,P10,INI,FM,M1,33.24595815894193,%MAX
PAT,P10,INI,FM,M2,31.38690247428911,%MAX
PAT,P10,INI,FM,M3,34.788786333939626,%MAX
PAT,P10,REL,FM,M1,18.926703593827913,%MAX
PAT,P10,REL,FM,M2,26.986138680903988,%MAX
PAT,P10,REL,FM,M3,22.803260293326673,%MAX
PAT,P11,INI,FM,M1,16.587434093534878,%MAX
PAT,P11,INI,FM,M2,20.507653575171137,%MAX
PAT,P11,INI,FM,M3,16.16888404220173,%MAX
PAT,P11,REL,FM,M1,24.66012124656616,%MAX
PAT,P11,REL,FM,M2,24.406031436072357,%MAX
PAT,P11,REL,FM,M3,20.992944482424218,%MAX
PAT,P12,INI,FM,M1,32.94413747825994,%MAX
PAT,P12,INI,FM,M2,32.711382423801766,%MAX
PAT,P12,INI,FM,M3,34.10306475707492,%MAX
PAT,P12,REL,FM,M1,28.62014353771907,%MAX
PAT,P12,REL,FM,M2,22.743499600087674,%MAX
PAT,P12,REL,FM,M3,28.323120561447908,%MAX
PAT,P14,INI,FM,M1,38.911627023785385,%MAX
PAT,P14,INI,FM,M2,36.45610139036098,%MAX
PAT,P14,INI,FM,M3,35.81482430965753,%MAX
PAT,P14,REL,FM,M1,36.26140725808527,%MAX
PAT,P14,REL,FM,M2,35.20130990099381,%MAX
PAT,P14,REL,FM,M3,36.1793987077368,%MAX
PAT,P17,INI,FM,M1,48.59645030215616,%MAX
PAT,P17,INI,FM,M2,42.09246065662701,%MAX
PAT,P17,INI,FM,M3,33.125039221156435,%MAX
PAT,P17,REL,FM,M1,54.456917899281365,%MAX
PAT,P17,REL,FM,M2,54.00239514221638,%MAX
PAT,P17,REL,FM,M3,64.54043651386165,%MAX
PAT,P24,INI,FM,M1,34.16908817003086,%MAX
PAT,P24,INI,FM,M2,31.82211670845142,%MAX
PAT,P24,INI,FM,M3,52.57946134428087,%MAX
PAT,P24,REL,FM,M1,40.82320655180058,%MAX
PAT,P24,REL,FM,M2,37.650242189642356,%MAX
PAT,P24,REL,FM,M3,38.440593880510505,%MAX
PAT,P26,INI,FM,M1,15.853351504194757,%MAX
PAT,P26,INI,FM,M2,16.965535679105905,%MAX
PAT,P26,INI,FM,M3,30.21641492836869,%MAX
PAT,P26,REL,FM,M1,37.40223213429587,%MAX
PAT,P26,REL,FM,M2,43.16166165709793,%MAX
PAT,P26,REL,FM,M3,56.09761009202022,%MAX
PAT,P27,INI,FM,M1,34.33286739541572,%MAX
PAT,P27,INI,FM,M2,30.779847034074553,%MAX
PAT,P27,INI,FM,M3,42.714619862193295,%MAX
PAT,P27,REL,FM,M1,30.737492126688316,%MAX
PAT,P27,REL,FM,M2,30.430397820230514,%MAX
PAT,P27,REL,FM,M3,42.94082128170536,%MAX
PAT,P28,INI,FM,M1,26.015853024860256,%MAX
PAT,P28,INI,FM,M2,24.236449762450523,%MAX
PAT,P28,INI,FM,M3,40.157086434956526,%MAX
PAT,P28,REL,FM,M1,29.719339762159805,%MAX
PAT,P28,REL,FM,M2,31.844859141450723,%MAX
PAT,P28,REL,FM,M3,45.47043293252454,%MAX
PAT,P29,INI,FM,M1,27.706751731536976,%MAX
PAT,P29,INI,FM,M2,27.576004853355837,%MAX
PAT,P29,INI,FM,M3,43.895569710531554,%MAX
PAT,P29,REL,FM,M1,27.144367108864838,%MAX
PAT,P29,REL,FM,M2,27.383727810053824,%MAX
PAT,P29,REL,FM,M3,40.147212600228045,%MAX
PAT,P30,INI,FM,M1,24.91448176970632,%MAX
PAT,P30,INI,FM,M2,28.849929245218554,%MAX
PAT,P30,INI,FM,M3,40.8697741321172,%MAX
PAT,P30,REL,FM,M1,50.2880370380768,%MAX
PAT,P30,REL,FM,M2,52.63930146129988,%MAX
PAT,P30,REL,FM,M3,44.49877618059095,%MAX
PAT,P32,INI,FM,M1,26.311060683216287,%MAX
PAT,P32,INI,FM,M2,25.22636738737518,%MAX
PAT,P32,INI,FM,M3,63.59383193914608,%MAX
PAT,P32,REL,FM,M1,29.400293627838785,%MAX
PAT,P32,REL,FM,M2,34.79637843366928,%MAX
PAT,P32,REL,FM,M3,52.7301025945719,%MAX
PAT,P33,INI,FM,M1,18.573557598135057,%MAX
PAT,P33,INI,FM,M2,29.856518249669136,%MAX
PAT,P33,INI,FM,M3,46.55461809778643,%MAX
PAT,P33,REL,FM,M1,14.301860184150131,%MAX
PAT,P33,REL,FM,M2,18.551327234703617,%MAX
PAT,P33,REL,FM,M3,19.89548023037577,%MAX
PAT,P34,INI,FM,M1,38.64031094625612,%MAX
PAT,P34,INI,FM,M2,33.86574152298924,%MAX
PAT,P34,INI,FM,M3,46.21433843588758,%MAX
PAT,P34,REL,FM,M1,21.89499846059767,%MAX
PAT,P34,REL,FM,M2,25.064140846673638,%MAX
PAT,P34,REL,FM,M3,40.65208090621392,%MAX
PAT,P36,INI,FM,M1,23.805016330826156,%MAX
PAT,P36,INI,FM,M2,27.760430850740555,%MAX
PAT,P36,INI,FM,M3,67.59213218435933,%MAX
PAT,P36,REL,FM,M1,29.229590867737183,%MAX
PAT,P36,REL,FM,M2,25.41583990599789,%MAX
PAT,P36,REL,FM,M3,42.183952552941776,%MAX
PAT,P41,INI,FM,M1,17.544688127147005,%MAX
PAT,P41,INI,FM,M2,20.22379863860885,%MAX
PAT,P41,INI,FM,M3,40.985950077041,%MAX
PAT,P41,REL,FM,M1,21.224073588126974,%MAX
PAT,P41,REL,FM,M2,23.144192208594227,%MAX
PAT,P41,REL,FM,M3,33.23544480816766,%MAX
PAT,P42,INI,FM,M1,30.48933337067081,%MAX
PAT,P42,INI,FM,M2,32.83060712076437,%MAX
PAT,P42,INI,FM,M3,33.229916206462406,%MAX
PAT,P42,REL,FM,M1,24.57035742710769,%MAX
PAT,P42,REL,FM,M2,22.829579995842625,%MAX
PAT,P42,REL,FM,M3,34.37873113812163,%MAX
PAT,P43,INI,FM,M1,22.735217440933667,%MAX
PAT,P43,INI,FM,M2,28.089462773400527,%MAX
PAT,P43,INI,FM,M3,48.90548782879401,%MAX
PAT,P43,REL,FM,M1,27.25343701216533,%MAX
PAT,P43,REL,FM,M2,23.18581687691562,%MAX
PAT,P43,REL,FM,M3,35.68505954333737,%MAX
PAT,P45,INI,FM,M1,34.66897327449745,%MAX
PAT,P45,INI,FM,M2,38.90860418694852,%MAX
PAT,P45,INI,FM,M3,54.93688583650692,%MAX
PAT,P45,REL,FM,M1,27.73995156837716,%MAX
PAT,P45,REL,FM,M2,25.797171666537025,%MAX
PAT,P45,REL,FM,M3,33.264581049638814,%MAX
PAT,P47,INI,FM,M1,25.383991207737747,%MAX
PAT,P47,INI,FM,M2,24.602102257092945,%MAX
PAT,P47,INI,FM,M3,29.63334913611264,%MAX
PAT,P47,REL,FM,M1,26.190647024485514,%MAX
PAT,P47,REL,FM,M2,24.582171275050793,%MAX
PAT,P47,REL,FM,M3,42.7688052383677,%MAX
PAT,P50,INI,FM,M1,28.359444737432607,%MAX
PAT,P50,INI,FM,M2,29.91156413702517,%MAX
PAT,P50,INI,FM,M3,44.33261465039592,%MAX
PAT,P50,REL,FM,M1,27.476104306793864,%MAX
PAT,P50,REL,FM,M2,29.070722299744528,%MAX
PAT,P50,REL,FM,M3,29.598327143047822,%MAX
PAT,P51,INI,FM,M1,27.349440359221887,%MAX
PAT,P51,INI,FM,M2,30.377856889143146,%MAX
PAT,P51,INI,FM,M3,26.207105403988095,%MAX
PAT,P51,REL,FM,M1,52.396137423566614,%MAX
PAT,P51,REL,FM,M2,44.19540340552708,%MAX
PAT,P51,REL,FM,M3,49.633561355723664,%MAX
PAT,P53,INI,FM,M1,23.22467620105046,%MAX
PAT,P53,INI,FM,M2,19.087433606760975,%MAX
PAT,P53,INI,FM,M3,21.017779909276673,%MAX
PAT,P53,REL,FM,M1,22.708671110831418,%MAX
PAT,P53,REL,FM,M2,20.786004720886115,%MAX
PAT,P53,REL,FM,M3,45.00195856778268,%MAX
PAT,P54,INI,FM,M1,28.61435413632605,%MAX
PAT,P54,INI,FM,M2,61.24465473149396,%MAX
PAT,P54,INI,FM,M3,107.45949057138561,%MAX
PAT,P54,REL,FM,M1,59.645627687003994,%MAX
PAT,P54,REL,FM,M2,85.0921694905871,%MAX
PAT,P54,REL,FM,M3,113.71659020236189,%MAX
PAT,P58,INI,FM,M1,46.98523200693635,%MAX
PAT,P58,INI,FM,M2,41.33849986650191,%MAX
PAT,P58,INI,FM,M3,38.71822865839727,%MAX
PAT,P58,REL,FM,M1,20.257161415339,%MAX
PAT,P58,REL,FM,M2,20.682951702450904,%MAX
PAT,P58,REL,FM,M3,24.55903856701692,%MAX
PAT,P61,INI,FM,M1,37.227273715090135,%MAX
PAT,P61,INI,FM,M2,35.34880161404921,%MAX
PAT,P61,INI,FM,M3,36.32082325009743,%MAX
PAT,P61,REL,FM,M1,30.167889584683834,%MAX
PAT,P61,REL,FM,M2,27.076134866520533,%MAX
PAT,P61,REL,FM,M3,24.873803154678523,%MAX
PAT,P62,INI,FM,M1,46.74895100636837,%MAX
PAT,P62,INI,FM,M2,39.05351827779913,%MAX
PAT,P62,INI,FM,M3,37.47503032939313,%MAX
PAT,P62,REL,FM,M1,44.662477982534185,%MAX
PAT,P62,REL,FM,M2,54.467500676868326,%MAX
PAT,P62,REL,FM,M3,44.02328751004692,%MAX
PAT,P63,INI,FM,M1,33.356908025755004,%MAX
PAT,P63,INI,FM,M2,29.91770055334288,%MAX
PAT,P63,INI,FM,M3,46.16670570694753,%MAX
PAT,P63,REL,FM,M1,37.71961333832967,%MAX
PAT,P63,REL,FM,M2,46.4799713349562,%MAX
PAT,P63,REL,FM,M3,46.71318101453651,%MAX
PAT,P65,INI,FM,M1,35.2980667168863,%MAX
PAT,P65,INI,FM,M2,35.77681230522886,%MAX
PAT,P65,INI,FM,M3,32.26986157037521,%MAX
PAT,P65,REL,FM,M1,79.24115062075724,%MAX
PAT,P65,REL,FM,M2,78.68699325377156,%MAX
PAT,P65,REL,FM,M3,86.07769068887796,%MAX
