Group,Participant,Session,Operator,Measure,Value,Unit
PAT,P09,INI,FM,M1,49.767740496899954,%MAX
PAT,P09,INI,FM,M2,52.1675315465309,%MAX
PAT,P09,INI,FM,M3,59.224300932479025,%MAX
PAT,P09,REL,FM,M1,35.68934861314055,%MAX
PAT,P09,REL,FM,M2,31.705891522426015,%MAX
PAT,P09,REL,FM,M3,34.53333319827931,%MAX
PAT,P10,INI,FM,M1,22.62602989230923,%MAX
PAT,P10,INI,FM,M2,22.313348864935172,%MAX
PAT,P10,INI,FM,M3,21.878280993289714,%MAX
PAT,P10,REL,FM,M1,22.47595573694429,%MAX
PAT,P10,REL,FM,M2,18.419948529913377,%MAX
PAT,P10,REL,FM,M3,20.59334125699961,%MAX
PAT,P11,INI,FM,M1,54.05981075480789,%MAX
PAT,P11,INI,FM,M2,50.44346589245283,%MAX
PAT,P11,INI,FM,M3,46.89133202808559,%MAX
PAT,P11,REL,FM,M1,33.30653282429255,%MAX
PAT,P11,REL,FM,M2,40.999795641585216,%MAX
PAT,P11,REL,FM,M3,37.23997355847245,%MAX
PAT,P12,INI,FM,M1,31.817721806365643,%MAX
PAT,P12,INI,FM,M2,37.54830781242051,%MAX
PAT,P12,INI,FM,M3,33.614892757365865,%MAX
PAT,P12,REL,FM,M1,50.12311352380596,%MAX
PAT,P12,REL,FM,M2,49.79654923726349,%MAX
PAT,P12,REL,FM,M3,51.575674043457774,%MAX
PAT,P14,INI,FM,M1,35.40615775286742,%MAX
PAT,P14,INI,FM,M2,36.63149568012416,%MAX
PAT,P14,INI,FM,M3,42.980602268330465,%MAX
PAT,P14,REL,FM,M1,42.50291915435505,%MAX
PAT,P14,REL,FM,M2,37.298730899251076,%MAX
PAT,P14,REL,FM,M3,33.702478648868,%MAX
PAT,P17,INI,FM,M1,16.868926843163855,%MAX
PAT,P17,INI,FM,M2,30.691262805667726,%MAX
PAT,P17,INI,FM,M3,24.136860801424202,%MAX
PAT,P17,REL,FM,M1,42.63345478668593,%MAX
PAT,P17,REL,FM,M2,53.327566980429964,%MAX
PAT,P17,REL,FM,M3,48.57355687492847,%MAX
PAT,P24,INI,FM,M1,31.09805302717065,%MAX
PAT,P24,INI,FM,M2,33.33004772183028,%MAX
PAT,P24,INI,FM,M3,28.509825258293787,%MAX
PAT,P24,REL,FM,M1,32.24533061610148,%MAX
PAT,P24,REL,FM,M2,23.976377252969574,%MAX
PAT,P24,REL,FM,M3,35.624333218963564,%MAX
PAT,P26,INI,FM,M1,28.577762997339015,%MAX
PAT,P26,INI,FM,M2,21.48255203405213,%MAX
PAT,P26,INI,FM,M3,21.376998431988618,%MAX
PAT,P26,REL,FM,M1,27.170489001969443,%MAX
PAT,P26,REL,FM,M2,19.670905864321398,%MAX
PAT,P26,REL,FM,M3,14.672658942215246,%MAX
PAT,P27,INI,FM,M1,36.0140047915193,%MAX
PAT,P27,INI,FM,M2,29.73188460118338,%MAX
PAT,P27,INI,FM,M3,32.49976253086299,%MAX
PAT,P27,REL,FM,M1,25.337693812186863,%MAX
PAT,P27,REL,FM,M2,25.597604385125116,%MAX
PAT,P27,REL,FM,M3,31.693204125493086,%MAX
PAT,P28,INI,FM,M1,23.788239665059436,%MAX
PAT,P28,INI,FM,M2,29.023385782123096,%MAX
PAT,P28,INI,FM,M3,18.97011304753378,%MAX
PAT,P28,REL,FM,M1,29.022377804198683,%MAX
PAT,P28,REL,FM,M2,27.945174037987652,%MAX
PAT,P28,REL,FM,M3,32.95942205833559,%MAX
PAT,P29,INI,FM,M1,28.381093378420395,%MAX
PAT,P29,INI,FM,M2,34.13133087535947,%MAX
PAT,P29,INI,FM,M3,39.3298187928916,%MAX
PAT,P29,REL,FM,M1,31.027329524618576,%MAX
PAT,P29,REL,FM,M2,25.49257992206798,%MAX
PAT,P29,REL,FM,M3,42.9605116499717,%MAX
PAT,P30,INI,FM,M1,42.30754547017245,%MAX
PAT,P30,INI,FM,M2,34.58806889788906,%MAX
PAT,P30,INI,FM,M3,48.92268421468133,%MAX
PAT,P30,REL,FM,M1,43.862295750654326,%MAX
PAT,P30,REL,FM,M2,40.102481455489865,%MAX
PAT,P30,REL,FM,M3,36.71089530458208,%MAX
PAT,P32,INI,FM,M1,41.55797202551464,%MAX
PAT,P32,INI,FM,M2,32.26290235201368,%MAX
PAT,P32,INI,FM,M3,42.05292125004739,%MAX
PAT,P32,REL,FM,M1,37.88608578787885,%MAX
PAT,P32,REL,FM,M2,39.540742930732094,%MAX
PAT,P32,REL,FM,M3,46.36752652450416,%MAX
PAT,P33,INI,FM,M1,30.474051526183175,%MAX
PAT,P33,INI,FM,M2,36.73196065339207,%MAX
PAT,P33,INI,FM,M3,41.83864656846973,%MAX
PAT,P33,REL,FM,M1,17.96499315265951,%MAX
PAT,P33,REL,FM,M2,16.672743967064626,%MAX
PAT,P33,REL,FM,M3,13.971539737404436,%MAX
PAT,P34,INI,FM,M1,45.45332222007183,%MAX
PAT,P34,INI,FM,M2,36.538961801632496,%MAX
PAT,P34,INI,FM,M3,37.97674027215547,%MAX
PAT,P34,REL,FM,M1,41.737214503402434,%MAX
PAT,P34,REL,FM,M2,45.63780017656187,%MAX
PAT,P34,REL,FM,M3,45.860080290346026,%MAX
PAT,P36,INI,FM,M1,34.62995137058304,%MAX
PAT,P36,INI,FM,M2,32.296406143766966,%MAX
PAT,P36,INI,FM,M3,40.544026164249075,%MAX
PAT,P36,REL,FM,M1,34.97514747994276,%MAX
PAT,P36,REL,FM,M2,36.77283775251734,%MAX
PAT,P36,REL,FM,M3,42.08767371778472,%MAX
PAT,P41,INI,FM,M1,36.18541099999262,%MAX
PAT,P41,INI,FM,M2,32.76619896783948,%MAX
PAT,P41,INI,FM,M3,52.50969003633457,%MAX
PAT,P41,REL,FM,M1,36.07274623135695,%MAX
PAT,P41,REL,FM,M2,40.24811745000016,%MAX
PAT,P41,REL,FM,M3,56.63253602867316,%MAX
PAT,P42,INI,FM,M1,31.248033665823726,%MAX
PAT,P42,INI,FM,M2,30.50039078704796,%MAX
PAT,P42,INI,FM,M3,31.3378592916561,%MAX
PAT,P42,REL,FM,M1,25.03102468805659,%MAX
PAT,P42,REL,FM,M2,23.34189008086307,%MAX
PAT,P42,REL,FM,M3,29.994960205869074,%MAX
PAT,P43,INI,FM,M1,29.692628837594462,%MAX
PAT,P43,INI,FM,M2,28.411475961522832,%MAX
PAT,P43,INI,FM,M3,35.625588696462856,%MAX
PAT,P43,REL,FM,M1,23.726875761821677,%MAX
PAT,P43,REL,FM,M2,25.295582918184124,%MAX
PAT,P43,REL,FM,M3,25.823317998173557,%MAX
PAT,P45,INI,FM,M1,36.48035409549527,%MAX
PAT,P45,INI,FM,M2,42.18067783480589,%MAX
PAT,P45,INI,FM,M3,28.592094569009394,%MAX
PAT,P45,REL,FM,M1,31.654257338775835,%MAX
PAT,P45,REL,FM,M2,33.587156957468586,%MAX
PAT,P45,REL,FM,M3,32.87824572169612,%MAX
PAT,P47,INI,FM,M1,17.805068408311172,%MAX
PAT,P47,INI,FM,M2,23.327044864558268,%MAX
PAT,P47,INI,FM,M3,23.52710192159381,%MAX
PAT,P47,REL,FM,M1,26.585926432313016,%MAX
PAT,P47,REL,FM,M2,33.51892736881396,%MAX
PAT,P47,REL,FM,M3,40.845668774334854,%MAX
PAT,P50,INI,FM,M1,35.68826606429811,%MAX
PAT,P50,INI,FM,M2,38.81468436640785,%MAX
PAT,P50,INI,FM,M3,46.34272986593376,%MAX
PAT,P50,REL,FM,M1,30.570780194055516,%MAX
PAT,P50,REL,FM,M2,29.887184206892357,%MAX
PAT,P50,REL,FM,M3,35.30022723536878,%MAX
PAT,P51,INI,FM,M1,35.94080556308268,%MAX
PAT,P51,INI,FM,M2,35.277770303771575,%MAX
PAT,P51,INI,FM,M3,40.211129769648785,%MAX
PAT,P51,REL,FM,M1,25.568428546450935,%MAX
PAT,P51,REL,FM,M2,25.05552762001818,%MAX
PAT,P51,REL,FM,M3,24.121636408014567,%MAX
PAT,P53,INI,FM,M1,38.2513802213352,%MAX
PAT,P53,INI,FM,M2,34.49576389406028,%MAX
PAT,P53,INI,FM,M3,33.37657506358012,%MAX
PAT,P53,REL,FM,M1,35.06027230081553,%MAX
PAT,P53,REL,FM,M2,29.714612530534595,%MAX
PAT,P53,REL,FM,M3,45.082340278546575,%MAX
PAT,P54,INI,FM,M1,47.038826411073956,%MAX
PAT,P54,INI,FM,M2,39.60007727335766,%MAX
PAT,P54,INI,FM,M3,51.40554621621909,%MAX
PAT,P54,REL,FM,M1,24.359856790310857,%MAX
PAT,P54,REL,FM,M2,32.44498581431097,%MAX
PAT,P54,REL,FM,M3,38.6245345997894,%MAX
PAT,P58,INI,FM,M1,52.006942502621136,%MAX
PAT,P58,INI,FM,M2,46.119169911108685,%MAX
PAT,P58,INI,FM,M3,48.581668198703916,%MAX
PAT,P58,REL,FM,M1,34.724015743085154,%MAX
PAT,P58,REL,FM,M2,43.99419164263444,%MAX
PAT,P58,REL,FM,M3,53.79392145062525,%MAX
PAT,P61,INI,FM,M1,35.72452030326981,%MAX
PAT,P61,INI,FM,M2,37.27863797585702,%MAX
PAT,P61,INI,FM,M3,36.92691061183197,%MAX
PAT,P61,REL,FM,M1,42.18699003614292,%MAX
PAT,P61,REL,FM,M2,46.71167446779572,%MAX
PAT,P61,REL,FM,M3,45.27408904564428,%MAX
PAT,P62,INI,FM,M1,40.6621207232032,%MAX
PAT,P62,INI,FM,M2,40.97940153986482,%MAX
PAT,P62,INI,FM,M3,35.46347466563785,%MAX
PAT,P62,REL,FM,M1,41.28765018191984,%MAX
PAT,P62,REL,FM,M2,50.37990482918642,%MAX
PAT,P62,REL,FM,M3,43.94152813128695,%MAX
PAT,P63,INI,FM,M1,24.872967268278728,%MAX
PAT,P63,INI,FM,M2,34.707127755711284,%MAX
PAT,P63,INI,FM,M3,32.484832499871075,%MAX
PAT,P63,REL,FM,M1,36.02135003394394,%MAX
PAT,P63,REL,FM,M2,31.835244920948973,%MAX
PAT,P63,REL,FM,M3,43.85483358751749,%MAX
PAT,P65,INI,FM,M1,39.766776929056896,%MAX
PAT,P65,INI,FM,M2,35.183608490052066,%MAX
PAT,P65,INI,FM,M3,35.64431569094727,%MAX
PAT,P65,REL,FM,M1,32.74161618565072,%MAX
PAT,P65,REL,FM,M2,35.303825917858866,%MAX
PAT,P65,REL,FM,M3,43.87692423062551,%MAX
