Group,Participant,Session,Operator,Measure,Value,Unit
PAT,P09,INI,FM,M1,107.77044777862103,Hz
PAT,P09,INI,FM,M2,99.07862407862407,Hz
PAT,P09,INI,FM,M3,92.6401080351114,Hz
PAT,P09,REL,FM,M1,107.24165988608624,Hz
PAT,P09,REL,FM,M2,107.2790294627383,Hz
PAT,P09,REL,FM,M3,106.2273714699493,Hz
PAT,P10,INI,FM,M1,27.094105480868667,Hz
PAT,P10,INI,FM,M2,31.499157776530044,Hz
PAT,P10,INI,FM,M3,23.35359675785208,Hz
PAT,P10,REL,FM,M1,28.128286014721347,Hz
PAT,P10,REL,FM,M2,25.434173669467786,Hz
PAT,P10,REL,FM,M3,22.020018198362145,Hz
PAT,P11,INI,FM,M1,40.97258147956544,Hz
PAT,P11,INI,FM,M2,43.71428571428572,Hz
PAT,P11,INI,FM,M3,29.83870967741936,Hz
PAT,P11,REL,FM,M1,66.54329555092913,Hz
PAT,P11,REL,FM,M2,24.96050552922591,Hz
PAT,P11,REL,FM,M3,27.803278688524596,Hz
PAT,P12,INI,FM,M1,78.46237731733915,Hz
PAT,P12,INI,FM,M2,80.61217758427335,Hz
PAT,P12,INI,FM,M3,75.04609711124769,Hz
PAT,P12,REL,FM,M1,16.54357459379616,Hz
PAT,P12,REL,FM,M2,17.50338133503063,Hz
PAT,P12,REL,FM,M3,245.5305466237942,Hz
PAT,P14,INI,FM,M1,66.38157894736841,Hz
PAT,P14,INI,FM,M2,67.15038674789514,Hz
PAT,P14,INI,FM,M3,68.85731201894612,Hz
PAT,P14,REL,FM,M1,70.60056323269369,Hz
PAT,P14,REL,FM,M2,60.66945606694561,Hz
PAT,P14,REL,FM,M3,61.77942136175767,Hz
PAT,P17,INI,FM,M1,87.8653675819309,Hz
PAT,P17,INI,FM,M2,66.54307737340228,Hz
PAT,P17,INI,FM,M3,74.9482028646068,Hz
PAT,P17,REL,FM,M1,86.52886671418388,Hz
PAT,P17,REL,FM,M2,83.8160136286201,Hz
PAT,P17,REL,FM,M3,70.56936647955092,Hz
PAT,P24,INI,FM,M1,74.96617050067658,Hz
PAT,P24,INI,FM,M2,71.12622826908542,Hz
PAT,P24,INI,FM,M3,67.91897854134635,Hz
PAT,P24,REL,FM,M1,86.5017667844523,Hz
PAT,P24,REL,FM,M2,82.23236448074304,Hz
PAT,P24,REL,FM,M3,72.5256516474412,Hz
PAT,P26,INI,FM,M1,31.88105117565698,Hz
PAT,P26,INI,FM,M2,25.850340136054424,Hz
PAT,P26,INI,FM,M3,29.58280657395701,Hz
PAT,P26,REL,FM,M1,27.885304659498207,Hz
PAT,P26,REL,FM,M2,35.97509416557768,Hz
PAT,P26,REL,FM,M3,30.093444191008757,Hz
PAT,P27,INI,FM,M1,62.55700413112292,Hz
PAT,P27,INI,FM,M2,58.22168087697929,Hz
PAT,P27,INI,FM,M3,59.16666666666666,Hz
PAT,P27,REL,FM,M1,71.7395672851497,Hz
PAT,P27,REL,FM,M2,65.32097948378558,Hz
PAT,P27,REL,FM,M3,63.66913815386708,Hz
PAT,P28,INI,FM,M1,104.50884647092396,Hz
PAT,P28,INI,FM,M2,89.65763195435093,Hz
PAT,P28,INI,FM,M3,76.88464180875648,Hz
PAT,P28,REL,FM,M1,106.8346886833447,Hz
PAT,P28,REL,FM,M2,98.82685338738408,Hz
PAT,P28,REL,FM,M3,95.5440537807127,Hz
PAT,P29,INI,FM,M1,77.58037225042301,Hz
PAT,P29,INI,FM,M2,75.51507648775312,Hz
PAT,P29,INI,FM,M3,81.57871553167121,Hz
PAT,P29,REL,FM,M1,78.63036303630363,Hz
PAT,P29,REL,FM,M2,75.35874636851835,Hz
PAT,P29,REL,FM,M3,79.08340405832882,Hz
PAT,P30,INI,FM,M1,37.95493934142114,Hz
PAT,P30,INI,FM,M2,35.97056953401762,Hz
PAT,P30,INI,FM,M3,36.08147429679922,Hz
PAT,P30,REL,FM,M1,91.57446808510636,Hz
PAT,P30,REL,FM,M2,87.96335567054034,Hz
PAT,P30,REL,FM,M3,87.31401722787784,Hz
PAT,P32,INI,FM,M1,93.94618834080718,Hz
PAT,P32,INI,FM,M2,94.75547957750778,Hz
PAT,P32,INI,FM,M3,95.81810799837596,Hz
PAT,P32,REL,FM,M1,82.876254180602,Hz
PAT,P32,REL,FM,M2,88.29953198127926,Hz
PAT,P32,REL,FM,M3,80.92530570916738,Hz
PAT,P33,INI,FM,M1,75.35716475565638,Hz
PAT,P33,INI,FM,M2,65.2305366591081,Hz
PAT,P33,INI,FM,M3,66.04450825556353,Hz
PAT,P33,REL,FM,M1,47.78901447551061,Hz
PAT,P33,REL,FM,M2,66.89734717416378,Hz
PAT,P33,REL,FM,M3,78.17942565214025,Hz
PAT,P34,INI,FM,M1,26.750107368550218,Hz
PAT,P34,INI,FM,M2,26.18231665524332,Hz
PAT,P34,INI,FM,M3,23.191965898417745,Hz
PAT,P34,REL,FM,M1,68.71416871416871,Hz
PAT,P34,REL,FM,M2,76.08095676172952,Hz
PAT,P34,REL,FM,M3,76.955074875208,Hz
PAT,P36,INI,FM,M1,83.37051437312768,Hz
PAT,P36,INI,FM,M2,75.01749475157452,Hz
PAT,P36,INI,FM,M3,79.7396752022383,Hz
PAT,P36,REL,FM,M1,93.58740455436178,Hz
PAT,P36,REL,FM,M2,89.44224652858584,Hz
PAT,P36,REL,FM,M3,92.8191489361702,Hz
PAT,P41,INI,FM,M1,71.99211045364892,Hz
PAT,P41,INI,FM,M2,71.54517708850877,Hz
PAT,P41,INI,FM,M3,67.15601055952611,Hz
PAT,P41,REL,FM,M1,64.35506241331484,Hz
PAT,P41,REL,FM,M2,68.21036106750392,Hz
PAT,P41,REL,FM,M3,64.70630526996908,Hz
PAT,P42,INI,FM,M1,73.36353139710454,Hz
PAT,P42,INI,FM,M2,81.21188655502856,Hz
PAT,P42,INI,FM,M3,71.49877149877149,Hz
PAT,P42,REL,FM,M1,87.43353869524854,Hz
PAT,P42,REL,FM,M2,71.49805447470817,Hz
PAT,P42,REL,FM,M3,77.84633589721918,Hz
PAT,P43,INI,FM,M1,63.17663817663818,Hz
PAT,P43,INI,FM,M2,65.02890173410404,Hz
PAT,P43,INI,FM,M3,57.71324863883848,Hz
PAT,P43,REL,FM,M1,79.23404255319149,Hz
PAT,P43,REL,FM,M2,80.78725398313027,Hz
PAT,P43,REL,FM,M3,79.34348158857046,Hz
PAT,P45,INI,FM,M1,48.76219054763691,Hz
PAT,P45,INI,FM,M2,51.207148380445055,Hz
PAT,P45,INI,FM,M3,53.54999538362109,Hz
PAT,P45,REL,FM,M1,46.40057662852509,Hz
PAT,P45,REL,FM,M2,42.14618973561431,Hz
PAT,P45,REL,FM,M3,51.28985617532912,Hz
PAT,P47,INI,FM,M1,61.21742142176812,Hz
PAT,P47,INI,FM,M2,60.56880583558725,Hz
PAT,P47,INI,FM,M3,61.81232041488542,Hz
PAT,P47,REL,FM,M1,55.87748344370861,Hz
PAT,P47,REL,FM,M2,56.03240428199441,Hz
PAT,P47,REL,FM,M3,45.7378551787351,Hz
PAT,P50,INI,FM,M1,47.47729756207844,Hz
PAT,P50,INI,FM,M2,36.946386946386944,Hz
PAT,P50,INI,FM,M3,34.97055430757088,Hz
PAT,P50,REL,FM,M1,74.6764209341587,Hz
PAT,P50,REL,FM,M2,21.517646099926644,Hz
PAT,P50,REL,FM,M3,34.24214085317603,Hz
PAT,P51,INI,FM,M1,60.5524861878453,Hz
PAT,P51,INI,FM,M2,62.38846455849811,Hz
PAT,P51,INI,FM,M3,59.37717137262334,Hz
PAT,P51,REL,FM,M1,43.382352941176464,Hz
PAT,P51,REL,FM,M2,68.51094226897851,Hz
PAT,P51,REL,FM,M3,68.97233201581028,Hz
PAT,P53,INI,FM,M1,85.86348722214521,Hz
PAT,P53,INI,FM,M2,86.35879019134728,Hz
PAT,P53,INI,FM,M3,82.8061296218192,Hz
PAT,P53,REL,FM,M1,75.6582796957285,Hz
PAT,P53,REL,FM,M2,77.98223350253807,Hz
PAT,P53,REL,FM,M3,76.04815778328998,Hz
PAT,P54,INI,FM,M1,81.79050850840859,Hz
PAT,P54,INI,FM,M2,74.54160789844852,Hz
PAT,P54,INI,FM,M3,66.47632052634846,Hz
PAT,P54,REL,FM,M1,83.19286068418442,Hz
PAT,P54,REL,FM,M2,84.8955223880597,Hz
PAT,P54,REL,FM,M3,85.82292232482347,Hz
PAT,P58,INI,FM,M1,27.326732673267323,Hz
PAT,P58,INI,FM,M2,34.54429572976418,Hz
PAT,P58,INI,FM,M3,27.23863412066584,Hz
PAT,P58,REL,FM,M1,65.21739130434783,Hz
PAT,P58,REL,FM,M2,68.4256697482961,Hz
PAT,P58,REL,FM,M3,70.2200825309491,Hz
PAT,P61,INI,FM,M1,56.37540453074433,Hz
PAT,P61,INI,FM,M2,66.17150573936529,Hz
PAT,P61,INI,FM,M3,66.44978613169468,Hz
PAT,P61,REL,FM,M1,61.99526878211926,Hz
PAT,P61,REL,FM,M2,58.21018678268697,Hz
PAT,P61,REL,FM,M3,57.48824714573539,Hz
PAT,P62,INI,FM,M1,71.3619068131237,Hz
PAT,P62,INI,FM,M2,62.8099173553719,Hz
PAT,P62,INI,FM,M3,67.46806912096167,Hz
PAT,P62,REL,FM,M1,74.3428622001947,Hz
PAT,P62,REL,FM,M2,72.18072180721806,Hz
PAT,P62,REL,FM,M3,69.96879875195008,Hz
PAT,P63,INI,FM,M1,82.44369446931607,Hz
PAT,P63,INI,FM,M2,81.00078186082877,Hz
PAT,P63,INI,FM,M3,91.01123595505618,Hz
PAT,P63,REL,FM,M1,65.55269922879177,Hz
PAT,P63,REL,FM,M2,66.203010828418,Hz
PAT,P63,REL,FM,M3,71.85409220053158,Hz
PAT,P65,INI,FM,M1,78.59725234996385,Hz
PAT,P65,INI,FM,M2,84.44940476190476,Hz
PAT,P65,INI,FM,M3,82.48222365869424,Hz
PAT,P65,REL,FM,M1,71.72912557527943,Hz
PAT,P65,REL,FM,M2,75.66980448950035,Hz
PAT,P65,REL,FM,M3,70.1121033631009,Hz
