Group,Participant,Session,Operator,Measure,Value,Unit
PAT,P09,INI,FM,M1,,V
PAT,P09,INI,FM,M2,0.0025188063855013,V
PAT,P09,INI,FM,M3,0.0019349137252011,V
PAT,P09,REL,FM,M1,0.0022079630023388,V
PAT,P09,REL,FM,M2,0.0021292297502182,V
PAT,P09,REL,FM,M3,0.0020627456408105,V
PAT,P10,INI,FM,M1,0.0039964104676317,V
PAT,P10,INI,FM,M2,0.003287472750303,V
PAT,P10,INI,FM,M3,0.0033355393116588,V
PAT,P10,REL,FM,M1,0.1075132545470003,V
PAT,P10,REL,FM,M2,0.0511458806786446,V
PAT,P10,REL,FM,M3,0.0488463786549682,V
PAT,P11,INI,FM,M1,0.0022579454600757,V
PAT,P11,INI,FM,M2,0.002564925896503,V
PAT,P11,INI,FM,M3,0.0019293402934003,V
PAT,P11,REL,FM,M1,0.0028148032764651,V
PAT,P11,REL,FM,M2,0.0019027105228204,V
PAT,P11,REL,FM,M3,0.0026714756589946,V
PAT,P12,INI,FM,M1,,V
PAT,P12,INI,FM,M2,,V
PAT,P12,INI,FM,M3,,V
PAT,P12,REL,FM,M1,0.0022567171830944,V
PAT,P12,REL,FM,M2,0.0019268401725485,V
PAT,P12,REL,FM,M3,0.0023694609470381,V
PAT,P14,INI,FM,M1,0.0153749781078954,V
PAT,P14,INI,FM,M2,0.0068014950194347,V
PAT,P14,INI,FM,M3,,V
PAT,P14,REL,FM,M1,0.0025406869159028,V
PAT,P14,REL,FM,M2,0.0021461142200042,V
PAT,P14,REL,FM,M3,,V
PAT,P17,INI,FM,M1,0.0375299647314698,V
PAT,P17,INI,FM,M2,0.0975303151810905,V
PAT,P17,INI,FM,M3,0.0637188204945247,V
PAT,P17,REL,FM,M1,0.0025386545440762,V
PAT,P17,REL,FM,M2,0.0028130821125927,V
PAT,P17,REL,FM,M3,0.0029500730682571,V
PAT,P24,INI,FM,M1,,V
PAT,P24,INI,FM,M2,,V
PAT,P24,INI,FM,M3,,V
PAT,P24,REL,FM,M1,,V
PAT,P24,REL,FM,M2,,V
PAT,P24,REL,FM,M3,,V
PAT,P26,INI,FM,M1,0.0049944415770634,V
PAT,P26,INI,FM,M2,0.0051531143691066,V
PAT,P26,INI,FM,M3,0.0038507331086608,V
PAT,P26,REL,FM,M1,0.0558630716260131,V
PAT,P26,REL,FM,M2,0.0818796933750424,V
PAT,P26,REL,FM,M3,0.0138984122769989,V
PAT,P27,INI,FM,M1,0.0033133956965358,V
PAT,P27,INI,FM,M2,0.0029973859898322,V
PAT,P27,INI,FM,M3,0.0024628519225037,V
PAT,P27,REL,FM,M1,0.0029953839059284,V
PAT,P27,REL,FM,M2,0.0032092189116881,V
PAT,P27,REL,FM,M3,0.0025792620139911,V
PAT,P28,INI,FM,M1,,V
PAT,P28,INI,FM,M2,0.0036193470603993,V
PAT,P28,INI,FM,M3,0.0029911690518253,V
PAT,P28,REL,FM,M1,0.0026571500232688,V
PAT,P28,REL,FM,M2,0.003263143813864,V
PAT,P28,REL,FM,M3,0.0030081976617491,V
PAT,P29,INI,FM,M1,0.0082025381466822,V
PAT,P29,INI,FM,M2,0.0081839667574305,V
PAT,P29,INI,FM,M3,0.0081219751017949,V
PAT,P29,REL,FM,M1,0.0072533060164734,V
PAT,P29,REL,FM,M2,0.0082038676713933,V
PAT,P29,REL,FM,M3,0.009116941797342,V
PAT,P30,INI,FM,M1,0.0016076106972524,V
PAT,P30,INI,FM,M2,0.0016869115771648,V
PAT,P30,INI,FM,M3,0.0015994174064844,V
PAT,P30,REL,FM,M1,0.0019757279135827,V
PAT,P30,REL,FM,M2,0.0026644708144867,V
PAT,P30,REL,FM,M3,0.0018442708340824,V
PAT,P32,INI,FM,M1,0.0021165930718833,V
PAT,P32,INI,FM,M2,,V
PAT,P32,INI,FM,M3,0.0022535548932053,V
PAT,P32,REL,FM,M1,0.0020395118221869,V
PAT,P32,REL,FM,M2,0.0018746895484078,V
PAT,P32,REL,FM,M3,0.0016896384208827,V
PAT,P33,INI,FM,M1,0.0019613673767972,V
PAT,P33,INI,FM,M2,0.0019209920434561,V
PAT,P33,INI,FM,M3,0.0018168222930297,V
PAT,P33,REL,FM,M1,0.0072973438507758,V
PAT,P33,REL,FM,M2,0.1323749544317673,V
PAT,P33,REL,FM,M3,0.0082683426587205,V
PAT,P34,INI,FM,M1,,V
PAT,P34,INI,FM,M2,,V
PAT,P34,INI,FM,M3,0.0045045462229604,V
PAT,P34,REL,FM,M1,0.1491054840708679,V
PAT,P34,REL,FM,M2,0.1731140050557324,V
PAT,P34,REL,FM,M3,0.0984352790807814,V
PAT,P36,INI,FM,M1,0.0031234790035705,V
PAT,P36,INI,FM,M2,0.0035207021005458,V
PAT,P36,INI,FM,M3,0.002951296060907,V
PAT,P36,REL,FM,M1,0.0022600482072408,V
PAT,P36,REL,FM,M2,0.0022706339758314,V
PAT,P36,REL,FM,M3,0.0023701455670536,V
PAT,P41,INI,FM,M1,0.007341648504415,V
PAT,P41,INI,FM,M2,0.0043333166136456,V
PAT,P41,INI,FM,M3,0.0049067555720611,V
PAT,P41,REL,FM,M1,0.0027705072705994,V
PAT,P41,REL,FM,M2,0.0038111543647846,V
PAT,P41,REL,FM,M3,0.0022324689161962,V
PAT,P42,INI,FM,M1,0.0062959411557902,V
PAT,P42,INI,FM,M2,0.0046455393777902,V
PAT,P42,INI,FM,M3,0.0059541494075976,V
PAT,P42,REL,FM,M1,0.0085176384405627,V
PAT,P42,REL,FM,M2,0.0059633805115733,V
PAT,P42,REL,FM,M3,0.0065241669121922,V
PAT,P43,INI,FM,M1,0.0026476772849252,V
PAT,P43,INI,FM,M2,0.0031644653477109,V
PAT,P43,INI,FM,M3,0.0023928985538326,V
PAT,P43,REL,FM,M1,0.0024299288645539,V
PAT,P43,REL,FM,M2,,V
PAT,P43,REL,FM,M3,0.003305341481255,V
PAT,P45,INI,FM,M1,,V
PAT,P45,INI,FM,M2,,V
PAT,P45,INI,FM,M3,,V
PAT,P45,REL,FM,M1,0.0025110082103142,V
PAT,P45,REL,FM,M2,,V
PAT,P45,REL,FM,M3,,V
PAT,P47,INI,FM,M1,0.0076428713017047,V
PAT,P47,INI,FM,M2,0.0060405531697586,V
PAT,P47,INI,FM,M3,0.0086649370590059,V
PAT,P47,REL,FM,M1,0.0040329698314734,V
PAT,P47,REL,FM,M2,,V
PAT,P47,REL,FM,M3,0.0046408786059492,V
PAT,P50,INI,FM,M1,0.0025719226798052,V
PAT,P50,INI,FM,M2,0.0027425135126064,V
PAT,P50,INI,FM,M3,0.0024094887559954,V
PAT,P50,REL,FM,M1,0.0027994785374822,V
PAT,P50,REL,FM,M2,0.0028206568760688,V
PAT,P50,REL,FM,M3,0.0025569905662595,V
PAT,P51,INI,FM,M1,0.0034698365180241,V
PAT,P51,INI,FM,M2,0.0033954048748778,V
PAT,P51,INI,FM,M3,0.002887341340681,V
PAT,P51,REL,FM,M1,0.0137390741135277,V
PAT,P51,REL,FM,M2,0.0141413397534874,V
PAT,P51,REL,FM,M3,0.0112330786902981,V
PAT,P53,INI,FM,M1,0.0147595109930775,V
PAT,P53,INI,FM,M2,0.0168285602167694,V
PAT,P53,INI,FM,M3,0.0174734679691001,V
PAT,P53,REL,FM,M1,0.0109048348627702,V
PAT,P53,REL,FM,M2,0.0088355861876971,V
PAT,P53,REL,FM,M3,0.0082877446226139,V
PAT,P54,INI,FM,M1,0.0034471919074958,V
PAT,P54,INI,FM,M2,0.0039342831016015,V
PAT,P54,INI,FM,M3,0.0041846497326781,V
PAT,P54,REL,FM,M1,0.0037492193694576,V
PAT,P54,REL,FM,M2,0.0036276784830953,V
PAT,P54,REL,FM,M3,,V
PAT,P58,INI,FM,M1,0.0026767427832194,V
PAT,P58,INI,FM,M2,0.0034422431936615,V
PAT,P58,INI,FM,M3,0.0027382296774819,V
PAT,P58,REL,FM,M1,0.0028304198850622,V
PAT,P58,REL,FM,M2,0.0027439685513228,V
PAT,P58,REL,FM,M3,0.0024707715238252,V
PAT,P61,INI,FM,M1,0.0028168583126302,V
PAT,P61,INI,FM,M2,0.0031574110704092,V
PAT,P61,INI,FM,M3,0.0026773091921734,V
PAT,P61,REL,FM,M1,0.0020182974970288,V
PAT,P61,REL,FM,M2,0.002047074454887,V
PAT,P61,REL,FM,M3,0.001986259531197,V
PAT,P62,INI,FM,M1,0.0020793421014868,V
PAT,P62,INI,FM,M2,0.0022821369798665,V
PAT,P62,INI,FM,M3,0.002354121913599,V
PAT,P62,REL,FM,M1,0.0016227561657255,V
PAT,P62,REL,FM,M2,0.0031280294845848,V
PAT,P62,REL,FM,M3,0.001955282418702,V
PAT,P63,INI,FM,M1,,V
PAT,P63,INI,FM,M2,0.0045143129346904,V
PAT,P63,INI,FM,M3,0.0053118257560751,V
PAT,P63,REL,FM,M1,0.0019730144708852,V
PAT,P63,REL,FM,M2,0.0018634664920366,V
PAT,P63,REL,FM,M3,0.0018987199264384,V
PAT,P65,INI,FM,M1,0.0064777410445844,V
PAT,P65,INI,FM,M2,0.0052480569997204,V
PAT,P65,INI,FM,M3,0.0055895078124628,V
PAT,P65,REL,FM,M1,0.0051247788234898,V
PAT,P65,REL,FM,M2,0.0049974471826732,V
PAT,P65,REL,FM,M3,0.0045143419169687,V
