Group,Participant,Session,Operator,Measure,Value,Unit
PAT,P09,INI,FM,M1,0.0130488646148438,V
PAT,P09,INI,FM,M2,0.0116463932108845,V
PAT,P09,INI,FM,M3,0.011368560641058,V
PAT,P09,REL,FM,M1,0.0111935650946935,V
PAT,P09,REL,FM,M2,0.0109182338695803,V
PAT,P09,REL,FM,M3,0.0106575026270685,V
PAT,P10,INI,FM,M1,0.402387523895391,V
PAT,P10,INI,FM,M2,0.4116920422194458,V
PAT,P10,INI,FM,M3,0.3976195743748346,V
PAT,P10,REL,FM,M1,0.3037826414282991,V
PAT,P10,REL,FM,M2,0.2059643209544146,V
PAT,P10,REL,FM,M3,0.1922914542889358,V
PAT,P11,INI,FM,M1,0.0194392656243447,V
PAT,P11,INI,FM,M2,0.0238592255416107,V
PAT,P11,INI,FM,M3,0.0283213640577011,V
PAT,P11,REL,FM,M1,0.0082718640109421,V
PAT,P11,REL,FM,M2,0.0079621016106786,V
PAT,P11,REL,FM,M3,0.0094257375287166,V
PAT,P12,INI,FM,M1,0.0101030462314709,V
PAT,P12,INI,FM,M2,0.0103472869192127,V
PAT,P12,INI,FM,M3,0.008433012757704,V
PAT,P12,REL,FM,M1,0.0258117278418814,V
PAT,P12,REL,FM,M2,0.0258710440132415,V
PAT,P12,REL,FM,M3,0.0280530087260477,V
PAT,P14,INI,FM,M1,0.0098442646826213,V
PAT,P14,INI,FM,M2,0.0089773783107923,V
PAT,P14,INI,FM,M3,0.0095585803518726,V
PAT,P14,REL,FM,M1,0.0083140568951527,V
PAT,P14,REL,FM,M2,0.0087405971319562,V
PAT,P14,REL,FM,M3,0.0071617234590482,V
PAT,P17,INI,FM,M1,0.0092725979087864,V
PAT,P17,INI,FM,M2,0.0082202731930114,V
PAT,P17,INI,FM,M3,0.0080326478749939,V
PAT,P17,REL,FM,M1,0.0127046357868596,V
PAT,P17,REL,FM,M2,0.0134580793742359,V
PAT,P17,REL,FM,M3,0.0133958244193915,V
PAT,P24,INI,FM,M1,0.0050744617815744,V
PAT,P24,INI,FM,M2,0.0051724060286076,V
PAT,P24,INI,FM,M3,0.0052124998371532,V
PAT,P24,REL,FM,M1,0.0043805427605468,V
PAT,P24,REL,FM,M2,0.0049117741233352,V
PAT,P24,REL,FM,M3,0.0046783003915433,V
PAT,P26,INI,FM,M1,0.0098293838818539,V
PAT,P26,INI,FM,M2,0.0088589253204792,V
PAT,P26,INI,FM,M3,0.0084775248991123,V
PAT,P26,REL,FM,M1,0.0065288772342883,V
PAT,P26,REL,FM,M2,0.0054167930727868,V
PAT,P26,REL,FM,M3,0.00582222013439,V
PAT,P27,INI,FM,M1,0.0120831932369314,V
PAT,P27,INI,FM,M2,0.0099659926769361,V
PAT,P27,INI,FM,M3,0.0106928400122539,V
PAT,P27,REL,FM,M1,0.0083765724367713,V
PAT,P27,REL,FM,M2,0.0077771516583029,V
PAT,P27,REL,FM,M3,0.0090047684364508,V
PAT,P28,INI,FM,M1,0.0074101014288414,V
PAT,P28,INI,FM,M2,0.0063554383388803,V
PAT,P28,INI,FM,M3,0.0072386235858289,V
PAT,P28,REL,FM,M1,0.0073877503490811,V
PAT,P28,REL,FM,M2,0.0072855441845252,V
PAT,P28,REL,FM,M3,0.0080935323975986,V
PAT,P29,INI,FM,M1,0.016941535841682,V
PAT,P29,INI,FM,M2,0.018043930192898,V
PAT,P29,INI,FM,M3,0.0178509875527379,V
PAT,P29,REL,FM,M1,0.0144574570813498,V
PAT,P29,REL,FM,M2,0.0168513990326403,V
PAT,P29,REL,FM,M3,0.0202843565002214,V
PAT,P30,INI,FM,M1,0.1255062490725499,V
PAT,P30,INI,FM,M2,0.1245759607144162,V
PAT,P30,INI,FM,M3,0.1733710934060131,V
PAT,P30,REL,FM,M1,0.0040997872118505,V
PAT,P30,REL,FM,M2,0.0042497710490822,V
PAT,P30,REL,FM,M3,0.0042533443381634,V
PAT,P32,INI,FM,M1,0.0080017656793959,V
PAT,P32,INI,FM,M2,0.0089531016411912,V
PAT,P32,INI,FM,M3,0.0089664099991904,V
PAT,P32,REL,FM,M1,0.0081608189381662,V
PAT,P32,REL,FM,M2,0.0086093342235202,V
PAT,P32,REL,FM,M3,0.010578849255042,V
PAT,P33,INI,FM,M1,0.0085351005217966,V
PAT,P33,INI,FM,M2,0.0091360269602158,V
PAT,P33,INI,FM,M3,0.0089476998294935,V
PAT,P33,REL,FM,M1,0.0092134169841578,V
PAT,P33,REL,FM,M2,0.0101654841627037,V
PAT,P33,REL,FM,M3,0.0080116543178871,V
PAT,P34,INI,FM,M1,0.0096442318668797,V
PAT,P34,INI,FM,M2,0.0080788125437069,V
PAT,P34,INI,FM,M3,0.0091977561697972,V
PAT,P34,REL,FM,M1,0.0068247906916662,V
PAT,P34,REL,FM,M2,0.0070154356565396,V
PAT,P34,REL,FM,M3,0.006761531830072,V
PAT,P36,INI,FM,M1,0.0224227260396166,V
PAT,P36,INI,FM,M2,0.0195827136452417,V
PAT,P36,INI,FM,M3,0.0208786586167098,V
PAT,P36,REL,FM,M1,0.0141272574969163,V
PAT,P36,REL,FM,M2,0.0170826272940219,V
PAT,P36,REL,FM,M3,0.0142256657438412,V
PAT,P41,INI,FM,M1,0.0181317787103938,V
PAT,P41,INI,FM,M2,0.0210516544522605,V
PAT,P41,INI,FM,M3,0.019190394104051,V
PAT,P41,REL,FM,M1,0.0165669010090276,V
PAT,P41,REL,FM,M2,0.013232170728104,V
PAT,P41,REL,FM,M3,0.0170020461979414,V
PAT,P42,INI,FM,M1,0.0168860050934875,V
PAT,P42,INI,FM,M2,0.0146545320199193,V
PAT,P42,INI,FM,M3,0.0151726808330881,V
PAT,P42,REL,FM,M1,0.01643380102121,V
PAT,P42,REL,FM,M2,0.0164266370887802,V
PAT,P42,REL,FM,M3,0.0163695918253446,V
PAT,P43,INI,FM,M1,0.0107101497437887,V
PAT,P43,INI,FM,M2,0.0100788789635223,V
PAT,P43,INI,FM,M3,0.0109971595257289,V
PAT,P43,REL,FM,M1,0.0137106737207074,V
PAT,P43,REL,FM,M2,0.0153475086345345,V
PAT,P43,REL,FM,M3,0.0125161315002937,V
PAT,P45,INI,FM,M1,,V
PAT,P45,INI,FM,M2,,V
PAT,P45,INI,FM,M3,,V
PAT,P45,REL,FM,M1,0.0060230406015086,V
PAT,P45,REL,FM,M2,0.0061865212157466,V
PAT,P45,REL,FM,M3,0.0072058157271092,V
PAT,P47,INI,FM,M1,0.0104185212862936,V
PAT,P47,INI,FM,M2,0.0090503981805339,V
PAT,P47,INI,FM,M3,0.0082034397019177,V
PAT,P47,REL,FM,M1,0.0084224581356349,V
PAT,P47,REL,FM,M2,0.0077393917274682,V
PAT,P47,REL,FM,M3,0.0100592370367907,V
PAT,P50,INI,FM,M1,0.0368987609484898,V
PAT,P50,INI,FM,M2,0.0337587308972861,V
PAT,P50,INI,FM,M3,0.0299463037106124,V
PAT,P50,REL,FM,M1,0.0375728204586023,V
PAT,P50,REL,FM,M2,0.0362458211731315,V
PAT,P50,REL,FM,M3,0.0430940205737535,V
PAT,P51,INI,FM,M1,0.005436623616366,V
PAT,P51,INI,FM,M2,0.0055118690214988,V
PAT,P51,INI,FM,M3,0.0052817814929295,V
PAT,P51,REL,FM,M1,0.005090967684853,V
PAT,P51,REL,FM,M2,0.004208505858615,V
PAT,P51,REL,FM,M3,0.0043316992209166,V
PAT,P53,INI,FM,M1,0.0060599961151983,V
PAT,P53,INI,FM,M2,0.0056440177454662,V
PAT,P53,INI,FM,M3,0.0066033504616762,V
PAT,P53,REL,FM,M1,0.0069966591372324,V
PAT,P53,REL,FM,M2,0.0062740660307196,V
PAT,P53,REL,FM,M3,0.0050076794601758,V
PAT,P54,INI,FM,M1,0.0185083399807599,V
PAT,P54,INI,FM,M2,0.0235654853628133,V
PAT,P54,INI,FM,M3,0.0178199357034205,V
PAT,P54,REL,FM,M1,0.0166417707385887,V
PAT,P54,REL,FM,M2,0.0129862034193403,V
PAT,P54,REL,FM,M3,0.0143038628554897,V
PAT,P58,INI,FM,M1,0.0051039194876096,V
PAT,P58,INI,FM,M2,0.0049966463786185,V
PAT,P58,INI,FM,M3,0.0053604359647482,V
PAT,P58,REL,FM,M1,0.003990383595583,V
PAT,P58,REL,FM,M2,0.0039759488413155,V
PAT,P58,REL,FM,M3,0.0042517804532557,V
PAT,P61,INI,FM,M1,0.0070521564057867,V
PAT,P61,INI,FM,M2,0.007872196106893,V
PAT,P61,INI,FM,M3,0.008345940568905,V
PAT,P61,REL,FM,M1,0.0084254141190928,V
PAT,P61,REL,FM,M2,0.0070257425491999,V
PAT,P61,REL,FM,M3,0.0084790476626955,V
PAT,P62,INI,FM,M1,0.0062252495439429,V
PAT,P62,INI,FM,M2,0.0063387311131016,V
PAT,P62,INI,FM,M3,0.0051875030212187,V
PAT,P62,REL,FM,M1,0.0067769573482304,V
PAT,P62,REL,FM,M2,0.0068658949989715,V
PAT,P62,REL,FM,M3,0.0069122965995213,V
PAT,P63,INI,FM,M1,,V
PAT,P63,INI,FM,M2,,V
PAT,P63,INI,FM,M3,,V
PAT,P63,REL,FM,M1,0.0077813105062583,V
PAT,P63,REL,FM,M2,0.0088609130244738,V
PAT,P63,REL,FM,M3,0.0093804628088024,V
PAT,P65,INI,FM,M1,0.0250100967398523,V
PAT,P65,INI,FM,M2,0.0290002291993691,V
PAT,P65,INI,FM,M3,0.0265232527986308,V
PAT,P65,REL,FM,M1,0.0246163343310547,V
PAT,P65,REL,FM,M2,0.0219083886542347,V
PAT,P65,REL,FM,M3,0.0259884717441551,V
