event,time_sec,time_min
RHS,0.550000011920929,0.0
RHS,1.5800000429153442,0.0
RHS,2.619999885559082,0.0
RTO,0.11999999731779099,0.0
RTO,1.149999976158142,0.0
RTO,2.190000057220459,0.0
LHS,0.03999999910593033,0.0
LHS,1.059999942779541,0.0
LHS,2.0999999046325684,0.0
LTO,0.6299999952316284,0.0
LTO,1.6699999570846558,0.0
LTO,2.7200000286102295,0.0
