event,time_sec,time_min
RHS,0.07999999821186066,0.0
RHS,1.1100000143051147,0.0
RHS,2.140000104904175,0.0
RTO,0.699999988079071,0.0
RTO,1.7300000190734863,0.0
RTO,2.75,0.0
LHS,1.6299999952316284,0.0
LHS,2.6600000858306885,0.0
LTO,0.1899999976158142,0.0
LTO,0.6000000238418579,0.0
LTO,1.2100000381469727,0.0
LTO,2.240000009536743,0.0
