event,time_sec,time_min
RHS,0.12999999523162842,0.0
RHS,1.059999942779541,0.0
RHS,2.0,0.0
RTO,0.6600000262260437,0.0
RTO,1.6100000143051147,0.0
LHS,0.5899999737739563,0.0
LHS,1.5299999713897705,0.0
LTO,0.20000000298023224,0.0
LTO,1.1299999952316284,0.0
LTO,2.069999933242798,0.0
