event,time_sec,time_min
RHS,0.5400000214576721,0.0
RHS,1.559999942779541,0.0
RHS,2.630000114440918,0.0
RTO,0.12999999523162842,0.0
RTO,1.149999976158142,0.0
RTO,2.180000066757202,0.0
LHS,0.03999999910593033,0.0
LHS,1.0499999523162842,0.0
LHS,2.0899999141693115,0.0
LTO,0.6299999952316284,0.0
LTO,1.659999966621399,0.0
LTO,2.7200000286102295,0.0
