event,time_sec,time_min
startMotion,0.10000000149011612,0.0
startMotion,12.890000343322754,0.0
startMotion,25.1200008392334,0.0
startMotion,37.34000015258789,0.0
startMotion,48.20000076293945,0.0
stopMotion,6.860000133514404,0.0
stopMotion,18.479999542236328,0.0
stopMotion,30.93000030517578,0.0
stopMotion,42.59000015258789,0.0
