event,time_sec,time_min
startMotion,0.10000000149011612,0.0
startMotion,15.279999732971191,0.0
startMotion,26.959999084472656,0.0
startMotion,38.279998779296875,0.0
startMotion,49.220001220703125,0.0
startMotion,1.0099999904632568,1.0
startMotion,11.65999984741211,1.0
stopMotion,8.869999885559082,0.0
stopMotion,21.1299991607666,0.0
stopMotion,32.720001220703125,0.0
stopMotion,43.58000183105469,0.0
stopMotion,55.2400016784668,0.0
stopMotion,6.670000076293945,1.0
