event,time_sec,time_min
startMotion,0.10000000149011612,0.0
startMotion,8.529999732971191,0.0
startMotion,16.170000076293945,0.0
startMotion,23.139999389648438,0.0
startMotion,30.59000015258789,0.0
startMotion,37.130001068115234,0.0
startMotion,44.83000183105469,0.0
stopMotion,4.610000133514404,0.0
stopMotion,12.5600004196167,0.0
stopMotion,19.56999969482422,0.0
stopMotion,26.93000030517578,0.0
stopMotion,33.90999984741211,0.0
stopMotion,40.470001220703125,0.0
