"","Biomarkers","Unit","Normality","P","AUC","Youden"
"1","BMo1.csv","V","0.0185633476138716","0.00759790195915194","70.8222811671088","51.3262599469496"
"2","BMo100.csv","%MAX","0.574578578008323","0.903915779361961","49","10"
"3","BMo101.csv","%MAX","0.53327702154786","0.854051626803327","51","16.6666666666667"
"4","BMo102.csv","%MAX","0.619060778771103","0.888488810091712","52.4444444444444","13.3333333333333"
"5","BMo103.csv","%MAX","0.00159380085282411","0.431746747281956","56","23.3333333333333"
"6","BMo104.csv","%MAX","0.000309560156868956","0.503907391837334","55.1111111111111","30"
"7","BMo105.csv","%MAX","0.445847275628738","0.436400711791779","56.5555555555556","23.3333333333333"
"8","BMo106.csv","%MAX","0.0165828169940718","0.592001614289798","54.1111111111111","16.6666666666667"
"9","BMo107.csv","%MAX","0.191020383416616","0.339175823293634","57","20"
"10","BMo108.csv","%MAX","0.630533167406931","0.585050177196859","53","30"
"11","BMo109.csv","%MAX","0.00356715003789629","0.675688278490209","53.2222222222222","20"
"12","BMo110.csv","%subMVIC","0.0184273195714641","0.352324373009311","57.4270557029178","25.1989389920424"
"13","BMo111.csv","%subMVIC","0.0783484184567708","0.149155352146049","62.0689655172414","24.8010610079576"
"14","BMo112.csv","%subMVIC","0.0041861334711374","0.693696422760247","53.0952380952381","21.9047619047619"
"15","BMo113.csv","%subMVIC","0.00189251458629893","0.438137498160863","56.2758620689655","23.3103448275862"
"16","BMo114.csv","V","0.00490668047555184","0.140175489219203","61.264367816092","32.2988505747126"
"17","BMo115.csv","V","0.00174825775058396","0.0892274890536231","63.1773399014778","36.6995073891626"
"18","BMo117.csv","Hz","0.142465741692096","0.432394659002034","56.9272976680384","22.2222222222222"
"19","BMo118.csv","Hz","0.285214562609525","0.312842737195574","59.6560846560847","27.7777777777778"
"20","BMo119.csv","Hz","0.900469752105552","0.977691269396706","49.9259259259259","10.962962962963"
"21","BMo15.csv","V","0.00710484066205207","0.000111349135261655","80.4615384615385","49.3846153846154"
"22","BMo22.csv","V","0.0901446344945769","0.579842376406903","58.102766798419","33.7944664031621"
"23","BMo23.csv","V","0.137685560965079","0.0312516742808374","61.9130434782609","36"
"24","BMo24.csv","V","0.0287249111803886","0.879488359308062","51.4583333333333","14.1666666666667"
"25","BMo29.csv","Hz","0.0811038122341963","0.0599698689062523","58.7912087912088","32.1428571428571"
"26","BMo34.csv","%MAX","0.489174233184968","0.000177362559517777","76.9322235434007","44.8275862068966"
"27","BMo35.csv","NAN","0.0128541330552768","0.947886523167876","49.3846153846154","12.7692307692308"
"28","BMo36.csv","%SubMVIC","0.153823080138768","4.5804006068447e-05","79.3103448275862","53.1034482758621"
"29","BMo37.csv","Hz","0.509492388422907","0.35490425992388","56.718192627824","20.6896551724138"
"30","BMo38.csv","Hz","0.585010438160513","0.192205090563951","44.9602122015915","8.62068965517242"
"31","BMo40.csv","Hz","0.105031239771538","0.997493465916444","51.6666666666667","16.6666666666667"
"32","BMo41.csv","NAN","0.000277314879708107","0.708193052904424","52.8888888888889","16.6666666666667"
"33","BMo42.csv","NAN","0.655941149052926","1.29491936444625e-07","89.3793103448276","67.3103448275862"
"34","BMo43.csv","NAN","0.000925088433087827","0.00825056884871083","71.3846153846154","45.2307692307692"
"35","BMo44.csv","NAN","0.110367783529322","0.000523940031761573","75.632183908046","45.632183908046"
"36","BMo51.csv","Hz","0.621062874945","0.128859293960807","60.1851851851852","20.6349206349206"
"37","BMo52.csv","Hz","0.641400634221997","0.404846435455512","54.6419098143236","13.527851458886"
"38","BMo53.csv","Hz","0.216903633463066","0.194521982573263","59.2592592592593","22.2222222222222"
"39","BMo67.csv","%subMVIC","0.0322868407587304","0.730749326684694","47.1724137931035","12.6896551724138"
"40","BMo68.csv","%subMVIC","0.0377533460561251","0.281836840523597","59.2013888888889","20.8333333333333"
"41","BMo69.csv","V","0.122315825943887","0.250354804202654","59.6666666666667","22.3333333333333"
"42","BMo81.csv","V","0.016034948736112","0.566671092980367","45.0434782608696","15.8260869565217"
"43","BMo82.csv","V","0.00765970409105137","0.812331521038555","47.8","17"
"44","BMo86.csv","s","0.0668049106922885","0.429642857311675","56.3333333333333","18.1666666666667"
"45","BMo87.csv","s","8.49005218277637e-09","0.596312441752153","54.7619047619048","25"
"46","BMo88.csv","s","5.88648768393212e-05","0.0315096564697968","68.944099378882","37.4741200828157"
"47","BMo91.csv","V","0.000461580615786967","0.29387645871274","58.4362139917695","22.2222222222222"
"48","BMo96.csv","V","0.208842034734033","0.0741734713803322","63.0102040816327","25"
"49","BMo97.csv","V","0.0140092099456595","0.972630593275346","49.6570644718793","11.1111111111111"
"50","BMo98.csv","V","0.0842813191504067","0.236300756581874","59.5238095238095","23.8095238095238"
