Group,Participant,Session,Operator,Measure,Value,Unit
CTR,P01,INI,FM,MEAN,8.96273235284856,%MAX
CTR,P02,INI,FM,MEAN,26.693823975441777,%MAX
CTR,P03,INI,FM,MEAN,15.041243103406213,%MAX
CTR,P05,INI,FM,MEAN,8.744038873399008,%MAX
CTR,P06,INI,FM,MEAN,5.4438944317947335,%MAX
CTR,P07,INI,FM,MEAN,18.010167385399757,%MAX
CTR,P08,INI,FM,MEAN,10.127338344898446,%MAX
PAT,P09,INI,FM,MEAN,10.806289077141395,%MAX
PAT,P10,INI,FM,MEAN,4.325662500341675,%MAX
PAT,P11,INI,FM,MEAN,9.183697358353252,%MAX
PAT,P12,INI,FM,MEAN,17.071558914112078,%MAX
CTR,P13,INI,FM,MEAN,19.946410092506216,%MAX
PAT,P14,INI,FM,MEAN,15.228285096152465,%MAX
CTR,P16,INI,FM,MEAN,71.45321299149516,%MAX
PAT,P17,INI,FM,MEAN,33.3126535561826,%MAX
CTR,P21,INI,FM,MEAN,95.25120411294999,%MAX
CTR,P22,INI,FM,MEAN,37.65880485107058,%MAX
CTR,P23,INI,FM,MEAN,21.332730846866863,%MAX
PAT,P24,INI,FM,MEAN,29.77814937611556,%MAX
CTR,P25,INI,FM,MEAN,60.23359453619882,%MAX
PAT,P26,INI,FM,MEAN,19.942498542684245,%MAX
PAT,P27,INI,FM,MEAN,35.86101788259671,%MAX
PAT,P28,INI,FM,MEAN,39.42830641800471,%MAX
PAT,P29,INI,FM,MEAN,27.618131892100212,%MAX
PAT,P30,INI,FM,MEAN,40.581236001576826,%MAX
PAT,P32,INI,FM,MEAN,23.694430464108116,%MAX
PAT,P33,INI,FM,MEAN,26.246836869705405,%MAX
PAT,P34,INI,FM,MEAN,26.570433480551884,%MAX
CTR,P35,INI,FM,MEAN,60.13609361340408,%MAX
PAT,P36,INI,FM,MEAN,30.497546304842967,%MAX
CTR,P38,INI,FM,MEAN,20.983778038880274,%MAX
CTR,P39,INI,FM,MEAN,14.562364104260162,%MAX
CTR,P40,INI,FM,MEAN,34.32845868079227,%MAX
PAT,P41,INI,FM,MEAN,18.614376082809542,%MAX
PAT,P42,INI,FM,MEAN,4.644306875553748,%MAX
PAT,P43,INI,FM,MEAN,46.1421778105921,%MAX
CTR,P44,INI,FM,MEAN,39.14433605785326,%MAX
PAT,P45,INI,FM,MEAN,30.48252715960239,%MAX
CTR,P46,INI,FM,MEAN,39.256226911258004,%MAX
PAT,P47,INI,FM,MEAN,20.947430179962208,%MAX
CTR,P48,INI,FM,MEAN,31.062997798752747,%MAX
CTR,P49,INI,FM,MEAN,41.937104122561585,%MAX
PAT,P50,INI,FM,MEAN,39.711790657096316,%MAX
PAT,P51,INI,FM,MEAN,19.09454183548233,%MAX
CTR,P52,INI,FM,MEAN,44.30072907089317,%MAX
PAT,P53,INI,FM,MEAN,31.349586440124526,%MAX
CTR,P55,INI,FM,MEAN,46.089296761630195,%MAX
CTR,P56,INI,FM,MEAN,51.540232613266255,%MAX
CTR,P57,INI,FM,MEAN,34.54152194162088,%MAX
PAT,P58,INI,FM,MEAN,46.62494910835434,%MAX
CTR,P60,INI,FM,MEAN,53.29797840134673,%MAX
PAT,P61,INI,FM,MEAN,45.68374182566424,%MAX
PAT,P62,INI,FM,MEAN,26.17904816602593,%MAX
PAT,P63,INI,FM,MEAN,35.01485630027515,%MAX
CTR,P64,INI,FM,MEAN,80.48147772409813,%MAX
PAT,P65,INI,FM,MEAN,66.00156394453306,%MAX
CTR,P66,INI,FM,MEAN,73.72946835982066,%MAX
CTR,P67,INI,FM,MEAN,80.84577866507824,%MAX
CTR,P68,INI,FM,MEAN,68.75157630685612,%MAX
