Group,Participant,Session,Operator,Measure,Value,Unit
CTR,P01,INI,FM,MEAN,60.89285815932904,%MAX
CTR,P02,INI,FM,MEAN,84.20838142911755,%MAX
CTR,P03,INI,FM,MEAN,70.8909577870274,%MAX
CTR,P05,INI,FM,MEAN,61.395415720040106,%MAX
CTR,P06,INI,FM,MEAN,45.73596863446294,%MAX
CTR,P07,INI,FM,MEAN,76.27513650426371,%MAX
CTR,P08,INI,FM,MEAN,58.37269914891828,%MAX
PAT,P09,INI,FM,MEAN,60.45153566802256,%MAX
PAT,P10,INI,FM,MEAN,34.721958792504545,%MAX
PAT,P11,INI,FM,MEAN,59.868621907576454,%MAX
PAT,P12,INI,FM,MEAN,70.18313770027807,%MAX
CTR,P13,INI,FM,MEAN,73.07468758396121,%MAX
PAT,P14,INI,FM,MEAN,69.49106363348983,%MAX
CTR,P16,INI,FM,MEAN,149.17948143494257,%MAX
PAT,P17,INI,FM,MEAN,128.89123398355406,%MAX
CTR,P21,INI,FM,MEAN,152.68353719753733,%MAX
CTR,P22,INI,FM,MEAN,121.07468747591201,%MAX
CTR,P23,INI,FM,MEAN,98.85618201741273,%MAX
PAT,P24,INI,FM,MEAN,96.475035874835,%MAX
CTR,P25,INI,FM,MEAN,178.29786724183458,%MAX
PAT,P26,INI,FM,MEAN,130.71311690201858,%MAX
PAT,P27,INI,FM,MEAN,105.13398962795226,%MAX
PAT,P28,INI,FM,MEAN,108.65576666016989,%MAX
PAT,P29,INI,FM,MEAN,88.79748663683729,%MAX
PAT,P30,INI,FM,MEAN,116.17690959266959,%MAX
PAT,P32,INI,FM,MEAN,83.58293152977129,%MAX
PAT,P33,INI,FM,MEAN,96.68546641958069,%MAX
PAT,P34,INI,FM,MEAN,96.0284755292235,%MAX
CTR,P35,INI,FM,MEAN,140.3264927813838,%MAX
PAT,P36,INI,FM,MEAN,103.25218585488558,%MAX
CTR,P38,INI,FM,MEAN,66.80490896616847,%MAX
CTR,P39,INI,FM,MEAN,87.93051818192127,%MAX
CTR,P40,INI,FM,MEAN,112.26155219708721,%MAX
PAT,P41,INI,FM,MEAN,86.79476401464883,%MAX
PAT,P42,INI,FM,MEAN,41.80058437368344,%MAX
PAT,P43,INI,FM,MEAN,108.812565035842,%MAX
CTR,P44,INI,FM,MEAN,88.46390293176789,%MAX
PAT,P45,INI,FM,MEAN,97.48461694869249,%MAX
CTR,P46,INI,FM,MEAN,85.55105588844317,%MAX
PAT,P47,INI,FM,MEAN,86.85898350315597,%MAX
CTR,P48,INI,FM,MEAN,127.23280121927753,%MAX
CTR,P49,INI,FM,MEAN,93.85666202429124,%MAX
PAT,P50,INI,FM,MEAN,108.99696566495572,%MAX
PAT,P51,INI,FM,MEAN,77.86924716120294,%MAX
CTR,P52,INI,FM,MEAN,138.92502731458544,%MAX
PAT,P53,INI,FM,MEAN,107.44093614469507,%MAX
PAT,P54,INI,FM,MEAN,171.97738851169308,%MAX
CTR,P55,INI,FM,MEAN,186.30054391154357,%MAX
CTR,P56,INI,FM,MEAN,137.3064629860693,%MAX
CTR,P57,INI,FM,MEAN,122.17819777444834,%MAX
PAT,P58,INI,FM,MEAN,128.07601929096518,%MAX
CTR,P60,INI,FM,MEAN,132.4604243883141,%MAX
PAT,P61,INI,FM,MEAN,144.01570721488304,%MAX
PAT,P62,INI,FM,MEAN,107.34043755388208,%MAX
PAT,P63,INI,FM,MEAN,111.85963400207036,%MAX
CTR,P64,INI,FM,MEAN,173.11145209495317,%MAX
PAT,P65,INI,FM,MEAN,189.64899594432532,%MAX
CTR,P66,INI,FM,MEAN,157.85188212204702,%MAX
CTR,P67,INI,FM,MEAN,207.68296078506108,%MAX
CTR,P68,INI,FM,MEAN,172.62617550727302,%MAX
