Group,Participant,Session,Operator,Measure,Value,Unit
CTR,P01,INI,FM,MF,76.76530673173323,Hz
CTR,P02,INI,FM,MF,101.53107219843888,Hz
CTR,P03,INI,FM,MF,87.44633971692133,Hz
CTR,P05,INI,FM,MF,136.2295967793896,Hz
CTR,P06,INI,FM,MF,78.96602150477996,Hz
CTR,P07,INI,FM,MF,120.58188653368056,Hz
CTR,P08,INI,FM,MF,35.20534313181801,Hz
PAT,P09,INI,FM,MF,120.20803545734756,Hz
PAT,P10,INI,FM,MF,154.00248093700597,Hz
PAT,P11,INI,FM,MF,122.90873053764734,Hz
PAT,P12,INI,FM,MF,101.62634265976985,Hz
CTR,P13,INI,FM,MF,52.88732220342964,Hz
PAT,P14,INI,FM,MF,83.72078787201023,Hz
CTR,P16,INI,FM,MF,104.68242939273772,Hz
PAT,P17,INI,FM,MF,125.98810267441728,Hz
CTR,P21,INI,FM,MF,65.16582658015453,Hz
CTR,P22,INI,FM,MF,94.82573701904828,Hz
CTR,P23,INI,FM,MF,84.91402527862222,Hz
PAT,P24,INI,FM,MF,113.26647319400944,Hz
CTR,P25,INI,FM,MF,77.31640055654175,Hz
PAT,P26,INI,FM,MF,49.28910873181456,Hz
PAT,P27,INI,FM,MF,66.5937827483448,Hz
PAT,P28,INI,FM,MF,83.48175108135833,Hz
PAT,P29,INI,FM,MF,112.88286446407152,Hz
PAT,P32,INI,FM,MF,122.42712605515172,Hz
PAT,P33,INI,FM,MF,94.87327601960476,Hz
PAT,P34,INI,FM,MF,58.55577260677168,Hz
CTR,P35,INI,FM,MF,128.8579216086437,Hz
PAT,P36,INI,FM,MF,124.74426458628864,Hz
CTR,P38,INI,FM,MF,38.35725691771838,Hz
CTR,P39,INI,FM,MF,83.7367733636662,Hz
CTR,P40,INI,FM,MF,98.66453361700844,Hz
PAT,P41,INI,FM,MF,87.25551370437243,Hz
PAT,P42,INI,FM,MF,105.01451751970752,Hz
PAT,P43,INI,FM,MF,101.28881333933266,Hz
CTR,P44,INI,FM,MF,92.67141819903084,Hz
PAT,P45,INI,FM,MF,118.43425712110395,Hz
CTR,P46,INI,FM,MF,43.11132129816166,Hz
PAT,P47,INI,FM,MF,86.98603615746306,Hz
CTR,P48,INI,FM,MF,117.5528489460134,Hz
CTR,P49,INI,FM,MF,118.8106763829542,Hz
PAT,P50,INI,FM,MF,139.541581728995,Hz
PAT,P51,INI,FM,MF,88.27986117573634,Hz
CTR,P52,INI,FM,MF,115.50127999495048,Hz
PAT,P53,INI,FM,MF,90.43815523482677,Hz
PAT,P54,INI,FM,MF,87.27890876689166,Hz
CTR,P55,INI,FM,MF,29.3700715376384,Hz
CTR,P56,INI,FM,MF,50.41938149644663,Hz
CTR,P57,INI,FM,MF,30.260132441426617,Hz
PAT,P58,INI,FM,MF,21.381650895535937,Hz
CTR,P60,INI,FM,MF,102.76056096084382,Hz
PAT,P61,INI,FM,MF,63.9040558007106,Hz
PAT,P62,INI,FM,MF,111.5179422019214,Hz
PAT,P63,INI,FM,MF,82.26917040966751,Hz
CTR,P64,INI,FM,MF,109.00314304534534,Hz
PAT,P65,INI,FM,MF,89.13218526243055,Hz
CTR,P66,INI,FM,MF,29.526689043900276,Hz
CTR,P67,INI,FM,MF,91.40659963129856,Hz
CTR,P68,INI,FM,MF,80.4892439589793,Hz
