Group,Participant,Session,Operator,Measure,Value,Unit
CTR,P01,INI,FM,RMS,0.0191802098551847,V
CTR,P02,INI,FM,RMS,0.0327640782480891,V
CTR,P03,INI,FM,RMS,0.019548848418953,V
CTR,P05,INI,FM,RMS,0.0210322379506034,V
CTR,P06,INI,FM,RMS,0.0379760564580053,V
CTR,P07,INI,FM,RMS,0.0345331782158427,V
CTR,P08,INI,FM,RMS,0.0177203758224008,V
PAT,P09,INI,FM,RMS,0.0136281224492585,V
PAT,P10,INI,FM,RMS,0.015616484193462,V
PAT,P11,INI,FM,RMS,0.0193471577579762,V
PAT,P12,INI,FM,RMS,0.0118693233974713,V
CTR,P13,INI,FM,RMS,0.0131713194741147,V
PAT,P14,INI,FM,RMS,0.018219217535913,V
CTR,P16,INI,FM,RMS,0.0099785598170536,V
PAT,P17,INI,FM,RMS,0.0175255388258607,V
CTR,P21,INI,FM,RMS,0.0255223716140391,V
CTR,P22,INI,FM,RMS,0.0161923190351642,V
CTR,P23,INI,FM,RMS,0.0092186329405484,V
PAT,P24,INI,FM,RMS,0.0170083163036294,V
CTR,P25,INI,FM,RMS,0.0362717211637412,V
PAT,P26,INI,FM,RMS,0.013605953729567,V
PAT,P27,INI,FM,RMS,0.0208763503436374,V
PAT,P28,INI,FM,RMS,0.0087078156557078,V
PAT,P29,INI,FM,RMS,0.0241370779886066,V
PAT,P30,INI,FM,RMS,0.0189238305693608,V
PAT,P32,INI,FM,RMS,0.0139545740686152,V
PAT,P33,INI,FM,RMS,0.0081678293433342,V
PAT,P34,INI,FM,RMS,,V
CTR,P35,INI,FM,RMS,,V
PAT,P36,INI,FM,RMS,0.0178324218065282,V
CTR,P39,INI,FM,RMS,0.0093814552599122,V
CTR,P40,INI,FM,RMS,0.0314036795473985,V
PAT,P41,INI,FM,RMS,0.0247790864779332,V
PAT,P42,INI,FM,RMS,0.0279691266254606,V
PAT,P43,INI,FM,RMS,0.0180969817360121,V
CTR,P44,INI,FM,RMS,0.0182266993164554,V
PAT,P45,INI,FM,RMS,,V
CTR,P46,INI,FM,RMS,0.0193963530321607,V
PAT,P47,INI,FM,RMS,0.0113055370703792,V
CTR,P48,INI,FM,RMS,0.0313063077182066,V
CTR,P49,INI,FM,RMS,0.0272781755997526,V
PAT,P50,INI,FM,RMS,0.0281251513947915,V
PAT,P51,INI,FM,RMS,0.008819017065391,V
CTR,P52,INI,FM,RMS,0.0228256674222848,V
PAT,P53,INI,FM,RMS,0.0152470950993304,V
PAT,P54,INI,FM,RMS,0.0305370086031414,V
CTR,P55,INI,FM,RMS,0.0108744586040589,V
CTR,P56,INI,FM,RMS,0.0182201701559235,V
CTR,P57,INI,FM,RMS,0.0277149277353081,V
PAT,P58,INI,FM,RMS,0.0061250178378941,V
CTR,P60,INI,FM,RMS,0.0144774906137169,V
PAT,P61,INI,FM,RMS,0.0312367174774465,V
PAT,P62,INI,FM,RMS,0.0207991641691514,V
PAT,P63,INI,FM,RMS,,V
CTR,P64,INI,FM,RMS,0.0132193755978604,V
PAT,P65,INI,FM,RMS,0.0366395851267027,V
CTR,P66,INI,FM,RMS,0.0155910536299131,V
CTR,P67,INI,FM,RMS,0.0241422838379694,V
CTR,P68,INI,FM,RMS,,V
