Group,Participant,Session,Operator,Measure,Value,Unit
CTR,P01,INI,FM,DURATION,1.0811,s
CTR,P02,INI,FM,DURATION,0.5186666666666666,s
CTR,P03,INI,FM,DURATION,1.5309,s
CTR,P05,INI,FM,DURATION,1.8575,s
CTR,P06,INI,FM,DURATION,,s
CTR,P07,INI,FM,DURATION,1.2022,s
CTR,P08,INI,FM,DURATION,1.3166666666666664,s
PAT,P10,INI,FM,DURATION,0.7032,s
PAT,P11,INI,FM,DURATION,1.2164166666666667,s
PAT,P12,INI,FM,DURATION,1.0518999999999998,s
CTR,P13,INI,FM,DURATION,0.2673333333333333,s
PAT,P14,INI,FM,DURATION,0.5013636363636365,s
CTR,P16,INI,FM,DURATION,1.462888888888889,s
PAT,P17,INI,FM,DURATION,1.4014444444444445,s
CTR,P21,INI,FM,DURATION,0.3015,s
CTR,P22,INI,FM,DURATION,0.4599999999999999,s
CTR,P23,INI,FM,DURATION,0.6063333333333334,s
PAT,P24,INI,FM,DURATION,1.2692,s
CTR,P25,INI,FM,DURATION,1.5642999999999998,s
PAT,P26,INI,FM,DURATION,1.2446000000000002,s
PAT,P27,INI,FM,DURATION,2.2568181818181814,s
PAT,P28,INI,FM,DURATION,1.2796666666666665,s
PAT,P29,INI,FM,DURATION,1.895,s
PAT,P30,INI,FM,DURATION,0.5941818181818183,s
PAT,P32,INI,FM,DURATION,0.7237777777777779,s
PAT,P33,INI,FM,DURATION,1.0238,s
PAT,P34,INI,FM,DURATION,2.2887142857142857,s
CTR,P35,INI,FM,DURATION,1.216181818181818,s
PAT,P36,INI,FM,DURATION,1.4458,s
CTR,P38,INI,FM,DURATION,1.5374444444444444,s
CTR,P40,INI,FM,DURATION,,s
PAT,P41,INI,FM,DURATION,1.0897,s
PAT,P42,INI,FM,DURATION,1.79425,s
CTR,P44,INI,FM,DURATION,0.3945,s
PAT,P45,INI,FM,DURATION,0.6256999999999999,s
CTR,P46,INI,FM,DURATION,,s
PAT,P47,INI,FM,DURATION,1.469473684210526,s
CTR,P49,INI,FM,DURATION,0.89,s
PAT,P50,INI,FM,DURATION,0.3735,s
PAT,P51,INI,FM,DURATION,1.1639230769230768,s
PAT,P53,INI,FM,DURATION,1.4353,s
PAT,P54,INI,FM,DURATION,0.4236,s
CTR,P55,INI,FM,DURATION,0.8319999999999999,s
CTR,P56,INI,FM,DURATION,1.2353333333333334,s
CTR,P57,INI,FM,DURATION,1.140857142857143,s
CTR,P60,INI,FM,DURATION,0.5273333333333333,s
PAT,P61,INI,FM,DURATION,0.323625,s
PAT,P62,INI,FM,DURATION,0.4802727272727272,s
PAT,P63,INI,FM,DURATION,1.084666666666667,s
CTR,P64,INI,FM,DURATION,0.6947777777777778,s
PAT,P65,INI,FM,DURATION,1.4641,s
CTR,P66,INI,FM,DURATION,0.3321428571428571,s
CTR,P67,INI,FM,DURATION,0.6693333333333333,s
CTR,P68,INI,FM,DURATION,0.8917777777777778,s
