BMu,Participant,Group,Session,task,trials,channel,Operator,Measure,Value
BMu29,P01,CTR,INI,Trunk_Forward,1,L_MTF,FM,M1,79.51460961200702
BMu29,P01,CTR,INI,Trunk_Forward,1,L_MTF,FM,M2,81.44044321329639
BMu29,P01,CTR,INI,Trunk_Forward,1,L_MTF,FM,M3,77.87338660110633
BMu29,P01,CTR,INI,Trunk_Forward,1,R_MTF,FM,M1,28.84666560221406
BMu29,P01,CTR,INI,Trunk_Forward,1,R_MTF,FM,M2,32.29916897506925
BMu29,P01,CTR,INI,Trunk_Forward,1,R_MTF,FM,M3,31.407498463429626
BMu29,P01,CTR,REL,Trunk_Forward,1,L_MTF,FM,M1,52.27704531061086
BMu29,P01,CTR,REL,Trunk_Forward,1,L_MTF,FM,M2,58.57041936934044
BMu29,P01,CTR,REL,Trunk_Forward,1,L_MTF,FM,M3,58.71007998184809
BMu29,P01,CTR,REL,Trunk_Forward,1,R_MTF,FM,M1,32.64436639990788
BMu29,P01,CTR,REL,Trunk_Forward,1,R_MTF,FM,M2,28.450324320852868
BMu29,P01,CTR,REL,Trunk_Forward,1,R_MTF,FM,M3,36.87106472289977
BMu29,P02,CTR,INI,Trunk_Forward,1,L_MTF,FM,M1,84.73895582329318
BMu29,P02,CTR,INI,Trunk_Forward,1,L_MTF,FM,M2,81.8595541217812
BMu29,P02,CTR,INI,Trunk_Forward,1,L_MTF,FM,M3,82.01674013174187
BMu29,P02,CTR,INI,Trunk_Forward,1,R_MTF,FM,M1,74.52667814113597
BMu29,P02,CTR,INI,Trunk_Forward,1,R_MTF,FM,M2,78.28791981104902
BMu29,P02,CTR,INI,Trunk_Forward,1,R_MTF,FM,M3,78.64890297657372
BMu29,P02,CTR,REL,Trunk_Forward,1,L_MTF,FM,M1,78.86790218485405
BMu29,P02,CTR,REL,Trunk_Forward,1,L_MTF,FM,M2,85.18913493507307
BMu29,P02,CTR,REL,Trunk_Forward,1,L_MTF,FM,M3,89.25886742023498
BMu29,P02,CTR,REL,Trunk_Forward,1,R_MTF,FM,M1,80.9402569719936
BMu29,P02,CTR,REL,Trunk_Forward,1,R_MTF,FM,M2,88.26296970077158
BMu29,P02,CTR,REL,Trunk_Forward,1,R_MTF,FM,M3,83.3008519405312
BMu29,P03,CTR,INI,Trunk_Forward,1,L_MTF,FM,M1,65.40418315432447
BMu29,P03,CTR,INI,Trunk_Forward,1,L_MTF,FM,M2,65.19637462235649
BMu29,P03,CTR,INI,Trunk_Forward,1,L_MTF,FM,M3,72.03557312252963
BMu29,P03,CTR,INI,Trunk_Forward,1,R_MTF,FM,M1,63.99095534200113
BMu29,P03,CTR,INI,Trunk_Forward,1,R_MTF,FM,M2,65.98187311178248
BMu29,P03,CTR,INI,Trunk_Forward,1,R_MTF,FM,M3,71.54150197628458
BMu29,P03,CTR,REL,Trunk_Forward,1,L_MTF,FM,M1,65.44502617801047
BMu29,P03,CTR,REL,Trunk_Forward,1,L_MTF,FM,M2,71.5210355987055
BMu29,P03,CTR,REL,Trunk_Forward,1,L_MTF,FM,M3,72.07357859531771
BMu29,P03,CTR,REL,Trunk_Forward,1,R_MTF,FM,M1,65.56137289121581
BMu29,P03,CTR,REL,Trunk_Forward,1,R_MTF,FM,M2,47.76699029126213
BMu29,P03,CTR,REL,Trunk_Forward,1,R_MTF,FM,M3,62.82051282051281
BMu29,P05,CTR,INI,Trunk_Forward,1,L_MTF,FM,M1,114.34904491818241
BMu29,P05,CTR,INI,Trunk_Forward,1,L_MTF,FM,M2,107.76487663280116
BMu29,P05,CTR,INI,Trunk_Forward,1,L_MTF,FM,M3,108.91265597147948
BMu29,P05,CTR,INI,Trunk_Forward,1,R_MTF,FM,M1,103.72253732316318
BMu29,P05,CTR,INI,Trunk_Forward,1,R_MTF,FM,M2,103.77358490566037
BMu29,P05,CTR,INI,Trunk_Forward,1,R_MTF,FM,M3,97.2667855020796
BMu29,P05,CTR,REL,Trunk_Forward,1,L_MTF,FM,M1,110.55718475073313
BMu29,P05,CTR,REL,Trunk_Forward,1,L_MTF,FM,M2,116.20923248830225
BMu29,P05,CTR,REL,Trunk_Forward,1,L_MTF,FM,M3,112.926992632284
BMu29,P05,CTR,REL,Trunk_Forward,1,L_MTF,FM,M4,108.34782608695652
BMu29,P05,CTR,REL,Trunk_Forward,1,R_MTF,FM,M1,101.17302052785922
BMu29,P05,CTR,REL,Trunk_Forward,1,R_MTF,FM,M2,114.74264962637055
BMu29,P05,CTR,REL,Trunk_Forward,1,R_MTF,FM,M3,103.61687876758207
BMu29,P05,CTR,REL,Trunk_Forward,1,R_MTF,FM,M4,101.04347826086956
BMu29,P06,CTR,INI,Trunk_Forward,1,L_MTF,FM,M1,80.43888461807254
BMu29,P06,CTR,INI,Trunk_Forward,1,L_MTF,FM,M2,86.26178141189688
BMu29,P06,CTR,INI,Trunk_Forward,1,L_MTF,FM,M3,84.77722772277228
BMu29,P06,CTR,INI,Trunk_Forward,1,L_MTF,FM,M4,84.93753016247518
BMu29,P06,CTR,INI,Trunk_Forward,1,R_MTF,FM,M1,81.69683416031867
BMu29,P06,CTR,INI,Trunk_Forward,1,R_MTF,FM,M2,83.45296797952686
BMu29,P06,CTR,INI,Trunk_Forward,1,R_MTF,FM,M3,86.07673267326733
BMu29,P06,CTR,INI,Trunk_Forward,1,R_MTF,FM,M4,85.84910719073407
BMu29,P06,CTR,REL,Trunk_Forward,1,L_MTF,FM,M1,73.33333333333333
BMu29,P06,CTR,REL,Trunk_Forward,1,L_MTF,FM,M2,80.49122807017544
BMu29,P06,CTR,REL,Trunk_Forward,1,L_MTF,FM,M3,81.58070186071883
BMu29,P06,CTR,REL,Trunk_Forward,1,R_MTF,FM,M1,67.23809523809524
BMu29,P06,CTR,REL,Trunk_Forward,1,R_MTF,FM,M2,85.75438596491227
BMu29,P06,CTR,REL,Trunk_Forward,1,R_MTF,FM,M3,92.12679556336748
BMu29,P07,CTR,INI,Trunk_Forward,1,L_MTF,FM,M1,66.2867426514697
BMu29,P07,CTR,INI,Trunk_Forward,1,L_MTF,FM,M2,95.9746182827682
BMu29,P07,CTR,INI,Trunk_Forward,1,L_MTF,FM,M3,99.94019138755982
BMu29,P07,CTR,INI,Trunk_Forward,1,R_MTF,FM,M1,103.35932813437311
BMu29,P07,CTR,INI,Trunk_Forward,1,R_MTF,FM,M2,105.09617291294866
BMu29,P07,CTR,INI,Trunk_Forward,1,R_MTF,FM,M3,78.76794258373207
BMu29,P07,CTR,REL,Trunk_Forward,1,L_MTF,FM,M1,114.68938292125493
BMu29,P07,CTR,REL,Trunk_Forward,1,L_MTF,FM,M2,116.86586985391767
BMu29,P07,CTR,REL,Trunk_Forward,1,L_MTF,FM,M3,121.35427289414643
BMu29,P07,CTR,REL,Trunk_Forward,1,R_MTF,FM,M1,109.49511739040099
BMu29,P07,CTR,REL,Trunk_Forward,1,R_MTF,FM,M2,107.80407780642138
BMu29,P07,CTR,REL,Trunk_Forward,1,R_MTF,FM,M3,108.36902576653749
BMu29,P08,CTR,INI,Trunk_Forward,1,L_MTF,FM,M1,27.8372591006424
BMu29,P08,CTR,INI,Trunk_Forward,1,L_MTF,FM,M2,29.966996699669963
BMu29,P08,CTR,INI,Trunk_Forward,1,L_MTF,FM,M3,31.498768684496874
BMu29,P08,CTR,INI,Trunk_Forward,1,R_MTF,FM,M1,74.19410845535043
BMu29,P08,CTR,INI,Trunk_Forward,1,R_MTF,FM,M2,72.54125412541254
BMu29,P08,CTR,INI,Trunk_Forward,1,R_MTF,FM,M3,77.02880705572417
BMu29,P08,CTR,REL,Trunk_Forward,1,L_MTF,FM,M1,80.23320377568017
BMu29,P08,CTR,REL,Trunk_Forward,1,L_MTF,FM,M2,81.90137599578642
BMu29,P08,CTR,REL,Trunk_Forward,1,L_MTF,FM,M3,78.99612598955702
BMu29,P08,CTR,REL,Trunk_Forward,1,R_MTF,FM,M1,79.40033314825097
BMu29,P08,CTR,REL,Trunk_Forward,1,R_MTF,FM,M2,70.64322865231416
BMu29,P08,CTR,REL,Trunk_Forward,1,R_MTF,FM,M3,75.00982538880467
BMu29,P09,PAT,INI,Trunk_Forward,1,L_MTF,FM,M1,99.9474575281686
BMu29,P09,PAT,INI,Trunk_Forward,1,L_MTF,FM,M2,98.83292383292383
BMu29,P09,PAT,INI,Trunk_Forward,1,L_MTF,FM,M3,82.78190411883861
BMu29,P09,PAT,INI,Trunk_Forward,1,L_MTF,FM,M4,86.69786096256684
BMu29,P09,PAT,INI,Trunk_Forward,1,R_MTF,FM,M1,107.77044777862105
BMu29,P09,PAT,INI,Trunk_Forward,1,R_MTF,FM,M2,99.07862407862407
BMu29,P09,PAT,INI,Trunk_Forward,1,R_MTF,FM,M3,92.6401080351114
BMu29,P09,PAT,INI,Trunk_Forward,1,R_MTF,FM,M4,94.11764705882351
BMu29,P09,PAT,REL,Trunk_Forward,1,L_MTF,FM,M1,102.27827502034174
BMu29,P09,PAT,REL,Trunk_Forward,1,L_MTF,FM,M2,105.19930675909877
BMu29,P09,PAT,REL,Trunk_Forward,1,L_MTF,FM,M3,105.9377262853005
BMu29,P09,PAT,REL,Trunk_Forward,1,R_MTF,FM,M1,107.24165988608624
BMu29,P09,PAT,REL,Trunk_Forward,1,R_MTF,FM,M2,107.2790294627383
BMu29,P09,PAT,REL,Trunk_Forward,1,R_MTF,FM,M3,106.2273714699493
BMu29,P10,PAT,INI,Trunk_Forward,1,L_MTF,FM,M1,77.40434332988625
BMu29,P10,PAT,INI,Trunk_Forward,1,L_MTF,FM,M2,94.3851768669287
BMu29,P10,PAT,INI,Trunk_Forward,1,L_MTF,FM,M3,83.38399189463019
BMu29,P10,PAT,INI,Trunk_Forward,1,R_MTF,FM,M1,27.094105480868667
BMu29,P10,PAT,INI,Trunk_Forward,1,R_MTF,FM,M2,31.499157776530044
BMu29,P10,PAT,INI,Trunk_Forward,1,R_MTF,FM,M3,23.353596757852078
BMu29,P10,PAT,REL,Trunk_Forward,1,L_MTF,FM,M1,94.84752891692955
BMu29,P10,PAT,REL,Trunk_Forward,1,L_MTF,FM,M2,100.89635854341736
BMu29,P10,PAT,REL,Trunk_Forward,1,L_MTF,FM,M3,102.36578707916287
BMu29,P10,PAT,REL,Trunk_Forward,1,R_MTF,FM,M1,28.128286014721347
BMu29,P10,PAT,REL,Trunk_Forward,1,R_MTF,FM,M2,25.434173669467786
BMu29,P10,PAT,REL,Trunk_Forward,1,R_MTF,FM,M3,22.020018198362145
BMu29,P11,PAT,INI,Trunk_Forward,1,L_MTF,FM,M1,104.29384376616657
BMu29,P11,PAT,INI,Trunk_Forward,1,L_MTF,FM,M2,106.05714285714285
BMu29,P11,PAT,INI,Trunk_Forward,1,L_MTF,FM,M3,107.81250000000001
BMu29,P11,PAT,INI,Trunk_Forward,1,R_MTF,FM,M1,40.97258147956544
BMu29,P11,PAT,INI,Trunk_Forward,1,R_MTF,FM,M2,43.714285714285715
BMu29,P11,PAT,INI,Trunk_Forward,1,R_MTF,FM,M3,29.838709677419356
BMu29,P11,PAT,REL,Trunk_Forward,1,L_MTF,FM,M1,107.33287069164932
BMu29,P11,PAT,REL,Trunk_Forward,1,L_MTF,FM,M2,95.49763033175356
BMu29,P11,PAT,REL,Trunk_Forward,1,L_MTF,FM,M3,96.32786885245902
BMu29,P11,PAT,REL,Trunk_Forward,1,R_MTF,FM,M1,66.54329555092913
BMu29,P11,PAT,REL,Trunk_Forward,1,R_MTF,FM,M2,24.96050552922591
BMu29,P11,PAT,REL,Trunk_Forward,1,R_MTF,FM,M3,27.803278688524593
BMu29,P12,PAT,INI,Trunk_Forward,1,L_MTF,FM,M1,91.27589967284624
BMu29,P12,PAT,INI,Trunk_Forward,1,L_MTF,FM,M2,87.53875585460781
BMu29,P12,PAT,INI,Trunk_Forward,1,L_MTF,FM,M3,87.46158574062692
BMu29,P12,PAT,INI,Trunk_Forward,1,R_MTF,FM,M1,78.46237731733915
BMu29,P12,PAT,INI,Trunk_Forward,1,R_MTF,FM,M2,80.61217758427335
BMu29,P12,PAT,INI,Trunk_Forward,1,R_MTF,FM,M3,75.04609711124769
BMu29,P12,PAT,REL,Trunk_Forward,1,L_MTF,FM,M1,81.2407680945347
BMu29,P12,PAT,REL,Trunk_Forward,1,L_MTF,FM,M2,66.75153154586681
BMu29,P12,PAT,REL,Trunk_Forward,1,L_MTF,FM,M3,61.864951768488744
BMu29,P12,PAT,REL,Trunk_Forward,1,R_MTF,FM,M1,16.54357459379616
BMu29,P12,PAT,REL,Trunk_Forward,1,R_MTF,FM,M2,17.50338133503063
BMu29,P12,PAT,REL,Trunk_Forward,1,R_MTF,FM,M3,245.5305466237942
BMu29,P13,CTR,INI,Trunk_Forward,1,L_MTF,FM,M1,78.57142857142857
BMu29,P13,CTR,INI,Trunk_Forward,1,L_MTF,FM,M2,87.3994638069705
BMu29,P13,CTR,INI,Trunk_Forward,1,L_MTF,FM,M3,85.72561459159398
BMu29,P13,CTR,INI,Trunk_Forward,1,R_MTF,FM,M1,77.51623376623377
BMu29,P13,CTR,INI,Trunk_Forward,1,R_MTF,FM,M2,74.62019660411082
BMu29,P13,CTR,INI,Trunk_Forward,1,R_MTF,FM,M3,71.7684377478192
BMu29,P13,CTR,REL,Trunk_Forward,1,L_MTF,FM,M1,83.23792848003232
BMu29,P13,CTR,REL,Trunk_Forward,1,L_MTF,FM,M2,83.56275303643724
BMu29,P13,CTR,REL,Trunk_Forward,1,L_MTF,FM,M3,86.66529970610348
BMu29,P13,CTR,REL,Trunk_Forward,1,R_MTF,FM,M1,77.31160347498148
BMu29,P13,CTR,REL,Trunk_Forward,1,R_MTF,FM,M2,77.4089068825911
BMu29,P13,CTR,REL,Trunk_Forward,1,R_MTF,FM,M3,71.97047365183515
BMu29,P14,PAT,INI,Trunk_Forward,1,L_MTF,FM,M1,58.35526315789473
BMu29,P14,PAT,INI,Trunk_Forward,1,L_MTF,FM,M2,57.56725306318023
BMu29,P14,PAT,INI,Trunk_Forward,1,L_MTF,FM,M3,59.976317347542924
BMu29,P14,PAT,INI,Trunk_Forward,1,R_MTF,FM,M1,66.38157894736841
BMu29,P14,PAT,INI,Trunk_Forward,1,R_MTF,FM,M2,67.15038674789514
BMu29,P14,PAT,INI,Trunk_Forward,1,R_MTF,FM,M3,68.85731201894612
BMu29,P14,PAT,REL,Trunk_Forward,1,L_MTF,FM,M1,68.83227454319209
BMu29,P14,PAT,REL,Trunk_Forward,1,L_MTF,FM,M2,66.03905160390516
BMu29,P14,PAT,REL,Trunk_Forward,1,L_MTF,FM,M3,65.91255166412878
BMu29,P14,PAT,REL,Trunk_Forward,1,L_MTF,FM,M4,57.13453698311007
BMu29,P14,PAT,REL,Trunk_Forward,1,R_MTF,FM,M1,70.60056323269369
BMu29,P14,PAT,REL,Trunk_Forward,1,R_MTF,FM,M2,60.66945606694561
BMu29,P14,PAT,REL,Trunk_Forward,1,R_MTF,FM,M3,61.77942136175767
BMu29,P14,PAT,REL,Trunk_Forward,1,R_MTF,FM,M4,58.06639487478159
BMu29,P16,CTR,INI,Trunk_Forward,1,L_MTF,FM,M1,73.160658445926
BMu29,P16,CTR,INI,Trunk_Forward,1,L_MTF,FM,M2,78.09567146351175
BMu29,P16,CTR,INI,Trunk_Forward,1,L_MTF,FM,M3,75.682261208577
BMu29,P16,CTR,INI,Trunk_Forward,1,R_MTF,FM,M1,28.615257537317834
BMu29,P16,CTR,INI,Trunk_Forward,1,R_MTF,FM,M2,33.50207610488596
BMu29,P16,CTR,INI,Trunk_Forward,1,R_MTF,FM,M3,22.124756335282655
BMu29,P16,CTR,REL,Trunk_Forward,1,L_MTF,FM,M1,39.43269931738352
BMu29,P16,CTR,REL,Trunk_Forward,1,L_MTF,FM,M2,44.78035625576609
BMu29,P16,CTR,REL,Trunk_Forward,1,L_MTF,FM,M3,43.756412577705355
BMu29,P16,CTR,REL,Trunk_Forward,1,R_MTF,FM,M1,71.840413546292
BMu29,P16,CTR,REL,Trunk_Forward,1,R_MTF,FM,M2,77.85111063799587
BMu29,P16,CTR,REL,Trunk_Forward,1,R_MTF,FM,M3,78.76154263986965
BMu29,P17,PAT,INI,Trunk_Forward,1,L_MTF,FM,M1,92.55978742249778
BMu29,P17,PAT,INI,Trunk_Forward,1,L_MTF,FM,M2,98.83891111327935
BMu29,P17,PAT,INI,Trunk_Forward,1,L_MTF,FM,M3,86.74894153679848
BMu29,P17,PAT,INI,Trunk_Forward,1,R_MTF,FM,M1,87.8653675819309
BMu29,P17,PAT,INI,Trunk_Forward,1,R_MTF,FM,M2,66.54307737340228
BMu29,P17,PAT,INI,Trunk_Forward,1,R_MTF,FM,M3,74.9482028646068
BMu29,P17,PAT,REL,Trunk_Forward,1,L_MTF,FM,M1,82.18104062722736
BMu29,P17,PAT,REL,Trunk_Forward,1,L_MTF,FM,M2,41.56729131175468
BMu29,P17,PAT,REL,Trunk_Forward,1,L_MTF,FM,M3,40.417000801924615
BMu29,P17,PAT,REL,Trunk_Forward,1,R_MTF,FM,M1,86.52886671418388
BMu29,P17,PAT,REL,Trunk_Forward,1,R_MTF,FM,M2,83.8160136286201
BMu29,P17,PAT,REL,Trunk_Forward,1,R_MTF,FM,M3,70.56936647955092
BMu29,P21,CTR,INI,Trunk_Forward,1,L_MTF,FM,M1,31.34339796152962
BMu29,P21,CTR,INI,Trunk_Forward,1,L_MTF,FM,M2,34.58235753317721
BMu29,P21,CTR,INI,Trunk_Forward,1,L_MTF,FM,M3,38.69568843299141
BMu29,P21,CTR,INI,Trunk_Forward,1,R_MTF,FM,M1,67.66802053797227
BMu29,P21,CTR,INI,Trunk_Forward,1,R_MTF,FM,M2,58.313817330210775
BMu29,P21,CTR,INI,Trunk_Forward,1,R_MTF,FM,M3,60.29522141606205
BMu29,P21,CTR,REL,Trunk_Forward,1,L_MTF,FM,M1,61.680176860722185
BMu29,P21,CTR,REL,Trunk_Forward,1,L_MTF,FM,M2,51.35975135975136
BMu29,P21,CTR,REL,Trunk_Forward,1,L_MTF,FM,M3,56.88949522510232
BMu29,P21,CTR,REL,Trunk_Forward,1,R_MTF,FM,M1,67.72291820191599
BMu29,P21,CTR,REL,Trunk_Forward,1,R_MTF,FM,M2,61.84926184926184
BMu29,P21,CTR,REL,Trunk_Forward,1,R_MTF,FM,M3,62.68758526603001
BMu29,P22,CTR,INI,Trunk_Forward,1,L_MTF,FM,M1,66.21538461538462
BMu29,P22,CTR,INI,Trunk_Forward,1,L_MTF,FM,M2,67.45885305188575
BMu29,P22,CTR,INI,Trunk_Forward,1,L_MTF,FM,M3,70.24178549287043
BMu29,P22,CTR,INI,Trunk_Forward,1,R_MTF,FM,M1,30.215384615384618
BMu29,P22,CTR,INI,Trunk_Forward,1,R_MTF,FM,M2,33.21278323123478
BMu29,P22,CTR,INI,Trunk_Forward,1,R_MTF,FM,M3,29.014259144451337
BMu29,P22,CTR,REL,Trunk_Forward,1,L_MTF,FM,M1,63.25829300792482
BMu29,P22,CTR,REL,Trunk_Forward,1,L_MTF,FM,M2,57.50134708644446
BMu29,P22,CTR,REL,Trunk_Forward,1,L_MTF,FM,M3,36.87038280725319
BMu29,P22,CTR,REL,Trunk_Forward,1,R_MTF,FM,M1,32.540851392103235
BMu29,P22,CTR,REL,Trunk_Forward,1,R_MTF,FM,M2,28.789161727349704
BMu29,P22,CTR,REL,Trunk_Forward,1,R_MTF,FM,M3,37.877770315648085
BMu29,P23,CTR,INI,Trunk_Forward,1,L_MTF,FM,M1,35.04510756419153
BMu29,P23,CTR,INI,Trunk_Forward,1,L_MTF,FM,M2,55.57633330840003
BMu29,P23,CTR,INI,Trunk_Forward,1,L_MTF,FM,M3,38.85957096840518
BMu29,P23,CTR,INI,Trunk_Forward,1,R_MTF,FM,M1,46.84247050659265
BMu29,P23,CTR,INI,Trunk_Forward,1,R_MTF,FM,M2,42.03754955494053
BMu29,P23,CTR,INI,Trunk_Forward,1,R_MTF,FM,M3,38.92810636693852
BMu29,P23,CTR,REL,Trunk_Forward,1,L_MTF,FM,M1,69.64788732394365
BMu29,P23,CTR,REL,Trunk_Forward,1,L_MTF,FM,M2,75.70259093594396
BMu29,P23,CTR,REL,Trunk_Forward,1,L_MTF,FM,M3,70.2381858306065
BMu29,P23,CTR,REL,Trunk_Forward,1,R_MTF,FM,M1,72.67605633802816
BMu29,P23,CTR,REL,Trunk_Forward,1,R_MTF,FM,M2,71.90480209300364
BMu29,P23,CTR,REL,Trunk_Forward,1,R_MTF,FM,M3,79.1416178373031
BMu29,P24,PAT,INI,Trunk_Forward,1,L_MTF,FM,M1,91.06901217861976
BMu29,P24,PAT,INI,Trunk_Forward,1,L_MTF,FM,M2,88.51095993953138
BMu29,P24,PAT,INI,Trunk_Forward,1,L_MTF,FM,M3,81.68995253693429
BMu29,P24,PAT,INI,Trunk_Forward,1,R_MTF,FM,M1,74.96617050067658
BMu29,P24,PAT,INI,Trunk_Forward,1,R_MTF,FM,M2,71.12622826908542
BMu29,P24,PAT,INI,Trunk_Forward,1,R_MTF,FM,M3,67.91897854134635
BMu29,P24,PAT,REL,Trunk_Forward,1,L_MTF,FM,M1,102.89752650176679
BMu29,P24,PAT,REL,Trunk_Forward,1,L_MTF,FM,M2,97.12547041396428
BMu29,P24,PAT,REL,Trunk_Forward,1,L_MTF,FM,M3,90.30654515327257
BMu29,P24,PAT,REL,Trunk_Forward,1,R_MTF,FM,M1,86.5017667844523
BMu29,P24,PAT,REL,Trunk_Forward,1,R_MTF,FM,M2,82.23236448074304
BMu29,P24,PAT,REL,Trunk_Forward,1,R_MTF,FM,M3,72.5256516474412
BMu29,P25,CTR,INI,Trunk_Forward,1,L_MTF,FM,M1,25.920952770155875
BMu29,P25,CTR,INI,Trunk_Forward,1,L_MTF,FM,M2,21.519886363636367
BMu29,P25,CTR,INI,Trunk_Forward,1,L_MTF,FM,M3,23.945610974068952
BMu29,P25,CTR,INI,Trunk_Forward,1,R_MTF,FM,M1,94.05102457820071
BMu29,P25,CTR,INI,Trunk_Forward,1,R_MTF,FM,M2,102.76988636363637
BMu29,P25,CTR,INI,Trunk_Forward,1,R_MTF,FM,M3,97.58738944708502
BMu29,P25,CTR,REL,Trunk_Forward,1,L_MTF,FM,M1,111.1187371310913
BMu29,P25,CTR,REL,Trunk_Forward,1,L_MTF,FM,M2,112.15686274509804
BMu29,P25,CTR,REL,Trunk_Forward,1,L_MTF,FM,M3,106.19412515964241
BMu29,P25,CTR,REL,Trunk_Forward,1,R_MTF,FM,M1,103.91214824982842
BMu29,P25,CTR,REL,Trunk_Forward,1,R_MTF,FM,M2,99.29411764705883
BMu29,P25,CTR,REL,Trunk_Forward,1,R_MTF,FM,M3,107.53512132822478
BMu29,P26,PAT,INI,Trunk_Forward,1,L_MTF,FM,M1,48.96265560165975
BMu29,P26,PAT,INI,Trunk_Forward,1,L_MTF,FM,M2,64.32350718065004
BMu29,P26,PAT,INI,Trunk_Forward,1,L_MTF,FM,M3,56.890012642225024
BMu29,P26,PAT,INI,Trunk_Forward,1,R_MTF,FM,M1,31.88105117565698
BMu29,P26,PAT,INI,Trunk_Forward,1,R_MTF,FM,M2,25.850340136054424
BMu29,P26,PAT,INI,Trunk_Forward,1,R_MTF,FM,M3,29.582806573957015
BMu29,P26,PAT,REL,Trunk_Forward,1,L_MTF,FM,M1,47.24014336917563
BMu29,P26,PAT,REL,Trunk_Forward,1,L_MTF,FM,M2,46.813744330847875
BMu29,P26,PAT,REL,Trunk_Forward,1,L_MTF,FM,M3,43.99970568758737
BMu29,P26,PAT,REL,Trunk_Forward,1,R_MTF,FM,M1,27.885304659498207
BMu29,P26,PAT,REL,Trunk_Forward,1,R_MTF,FM,M2,35.97509416557768
BMu29,P26,PAT,REL,Trunk_Forward,1,R_MTF,FM,M3,30.093444191008754
BMu29,P27,PAT,INI,Trunk_Forward,1,L_MTF,FM,M1,69.63892912709909
BMu29,P27,PAT,INI,Trunk_Forward,1,L_MTF,FM,M2,64.8599269183922
BMu29,P27,PAT,INI,Trunk_Forward,1,L_MTF,FM,M3,63.94444444444444
BMu29,P27,PAT,INI,Trunk_Forward,1,R_MTF,FM,M1,62.557004131122916
BMu29,P27,PAT,INI,Trunk_Forward,1,R_MTF,FM,M2,58.22168087697929
BMu29,P27,PAT,INI,Trunk_Forward,1,R_MTF,FM,M3,59.166666666666664
BMu29,P27,PAT,REL,Trunk_Forward,1,L_MTF,FM,M1,77.76810235112868
BMu29,P27,PAT,REL,Trunk_Forward,1,L_MTF,FM,M2,78.62342819324951
BMu29,P27,PAT,REL,Trunk_Forward,1,L_MTF,FM,M3,78.22597102237943
BMu29,P27,PAT,REL,Trunk_Forward,1,L_MTF,FM,M4,73.48165965123272
BMu29,P27,PAT,REL,Trunk_Forward,1,R_MTF,FM,M1,71.7395672851497
BMu29,P27,PAT,REL,Trunk_Forward,1,R_MTF,FM,M2,65.32097948378558
BMu29,P27,PAT,REL,Trunk_Forward,1,R_MTF,FM,M3,63.66913815386708
BMu29,P27,PAT,REL,Trunk_Forward,1,R_MTF,FM,M4,61.03427540589297
BMu29,P28,PAT,INI,Trunk_Forward,1,L_MTF,FM,M1,116.24072547403134
BMu29,P28,PAT,INI,Trunk_Forward,1,L_MTF,FM,M2,111.91155492154066
BMu29,P28,PAT,INI,Trunk_Forward,1,L_MTF,FM,M3,97.24564362001125
BMu29,P28,PAT,INI,Trunk_Forward,1,R_MTF,FM,M1,104.50884647092397
BMu29,P28,PAT,INI,Trunk_Forward,1,R_MTF,FM,M2,89.65763195435093
BMu29,P28,PAT,INI,Trunk_Forward,1,R_MTF,FM,M3,76.88464180875648
BMu29,P28,PAT,REL,Trunk_Forward,1,L_MTF,FM,M1,132.9070705816624
BMu29,P28,PAT,REL,Trunk_Forward,1,L_MTF,FM,M2,123.94816043240588
BMu29,P28,PAT,REL,Trunk_Forward,1,L_MTF,FM,M3,114.81944196561365
BMu29,P28,PAT,REL,Trunk_Forward,1,R_MTF,FM,M1,106.8346886833447
BMu29,P28,PAT,REL,Trunk_Forward,1,R_MTF,FM,M2,98.82685338738408
BMu29,P28,PAT,REL,Trunk_Forward,1,R_MTF,FM,M3,95.5440537807127
BMu29,P29,PAT,INI,Trunk_Forward,1,L_MTF,FM,M1,83.33333333333333
BMu29,P29,PAT,INI,Trunk_Forward,1,L_MTF,FM,M2,77.90255548678044
BMu29,P29,PAT,INI,Trunk_Forward,1,L_MTF,FM,M3,90.30041406043519
BMu29,P29,PAT,INI,Trunk_Forward,1,R_MTF,FM,M1,77.58037225042301
BMu29,P29,PAT,INI,Trunk_Forward,1,R_MTF,FM,M2,75.51507648775312
BMu29,P29,PAT,INI,Trunk_Forward,1,R_MTF,FM,M3,81.57871553167121
BMu29,P29,PAT,REL,Trunk_Forward,1,L_MTF,FM,M1,83.003300330033
BMu29,P29,PAT,REL,Trunk_Forward,1,L_MTF,FM,M2,85.1307333392024
BMu29,P29,PAT,REL,Trunk_Forward,1,L_MTF,FM,M3,76.30584059871923
BMu29,P29,PAT,REL,Trunk_Forward,1,R_MTF,FM,M1,78.63036303630363
BMu29,P29,PAT,REL,Trunk_Forward,1,R_MTF,FM,M2,75.35874636851835
BMu29,P29,PAT,REL,Trunk_Forward,1,R_MTF,FM,M3,79.08340405832882
BMu29,P30,PAT,INI,Trunk_Forward,1,L_MTF,FM,M1,40.98786828422877
BMu29,P30,PAT,INI,Trunk_Forward,1,L_MTF,FM,M2,43.96402943046598
BMu29,P30,PAT,INI,Trunk_Forward,1,L_MTF,FM,M3,32.395732298739084
BMu29,P30,PAT,INI,Trunk_Forward,1,R_MTF,FM,M1,37.95493934142114
BMu29,P30,PAT,INI,Trunk_Forward,1,R_MTF,FM,M2,35.97056953401762
BMu29,P30,PAT,INI,Trunk_Forward,1,R_MTF,FM,M3,36.08147429679922
BMu29,P30,PAT,REL,Trunk_Forward,1,L_MTF,FM,M1,95.6595744680851
BMu29,P30,PAT,REL,Trunk_Forward,1,L_MTF,FM,M2,97.8030367291543
BMu29,P30,PAT,REL,Trunk_Forward,1,L_MTF,FM,M3,99.60845732184809
BMu29,P30,PAT,REL,Trunk_Forward,1,R_MTF,FM,M1,91.57446808510637
BMu29,P30,PAT,REL,Trunk_Forward,1,R_MTF,FM,M2,87.96335567054034
BMu29,P30,PAT,REL,Trunk_Forward,1,R_MTF,FM,M3,87.31401722787784
BMu29,P32,PAT,INI,Trunk_Forward,1,L_MTF,FM,M1,91.31165919282512
BMu29,P32,PAT,INI,Trunk_Forward,1,L_MTF,FM,M2,88.03956285487514
BMu29,P32,PAT,INI,Trunk_Forward,1,L_MTF,FM,M3,94.65808247781452
BMu29,P32,PAT,INI,Trunk_Forward,1,R_MTF,FM,M1,93.94618834080718
BMu29,P32,PAT,INI,Trunk_Forward,1,R_MTF,FM,M2,94.75547957750778
BMu29,P32,PAT,INI,Trunk_Forward,1,R_MTF,FM,M3,95.81810799837596
BMu29,P32,PAT,REL,Trunk_Forward,1,L_MTF,FM,M1,81.53846153846153
BMu29,P32,PAT,REL,Trunk_Forward,1,L_MTF,FM,M2,84.2433697347894
BMu29,P32,PAT,REL,Trunk_Forward,1,L_MTF,FM,M3,84.43025157722565
BMu29,P32,PAT,REL,Trunk_Forward,1,L_MTF,FM,M4,79.7580140463111
BMu29,P32,PAT,REL,Trunk_Forward,1,R_MTF,FM,M1,82.876254180602
BMu29,P32,PAT,REL,Trunk_Forward,1,R_MTF,FM,M2,88.29953198127926
BMu29,P32,PAT,REL,Trunk_Forward,1,R_MTF,FM,M3,80.92530570916738
BMu29,P32,PAT,REL,Trunk_Forward,1,R_MTF,FM,M4,51.94353661080592
BMu29,P33,PAT,INI,Trunk_Forward,1,L_MTF,FM,M1,85.29033049236617
BMu29,P33,PAT,INI,Trunk_Forward,1,L_MTF,FM,M2,80.19652305366591
BMu29,P33,PAT,INI,Trunk_Forward,1,L_MTF,FM,M3,75.73582196697774
BMu29,P33,PAT,INI,Trunk_Forward,1,L_MTF,FM,M4,79.42894224529526
BMu29,P33,PAT,INI,Trunk_Forward,1,R_MTF,FM,M1,75.35716475565638
BMu29,P33,PAT,INI,Trunk_Forward,1,R_MTF,FM,M2,65.2305366591081
BMu29,P33,PAT,INI,Trunk_Forward,1,R_MTF,FM,M3,66.04450825556353
BMu29,P33,PAT,INI,Trunk_Forward,1,R_MTF,FM,M4,70.27903958468526
BMu29,P33,PAT,REL,Trunk_Forward,1,L_MTF,FM,M1,73.30292815123273
BMu29,P33,PAT,REL,Trunk_Forward,1,L_MTF,FM,M2,79.49605181439091
BMu29,P33,PAT,REL,Trunk_Forward,1,L_MTF,FM,M3,79.18569548726681
BMu29,P33,PAT,REL,Trunk_Forward,1,R_MTF,FM,M1,47.78901447551061
BMu29,P33,PAT,REL,Trunk_Forward,1,R_MTF,FM,M2,66.89734717416378
BMu29,P33,PAT,REL,Trunk_Forward,1,R_MTF,FM,M3,78.17942565214025
BMu29,P34,PAT,INI,Trunk_Forward,1,L_MTF,FM,M1,84.23829682802626
BMu29,P34,PAT,INI,Trunk_Forward,1,L_MTF,FM,M2,77.99862919808088
BMu29,P34,PAT,INI,Trunk_Forward,1,L_MTF,FM,M3,77.8122967993642
BMu29,P34,PAT,INI,Trunk_Forward,1,R_MTF,FM,M1,26.750107368550218
BMu29,P34,PAT,INI,Trunk_Forward,1,R_MTF,FM,M2,26.182316655243316
BMu29,P34,PAT,INI,Trunk_Forward,1,R_MTF,FM,M3,23.191965898417745
BMu29,P34,PAT,REL,Trunk_Forward,1,L_MTF,FM,M1,74.11957411957411
BMu29,P34,PAT,REL,Trunk_Forward,1,L_MTF,FM,M2,76.08095676172952
BMu29,P34,PAT,REL,Trunk_Forward,1,L_MTF,FM,M3,78.11980033277871
BMu29,P34,PAT,REL,Trunk_Forward,1,R_MTF,FM,M1,68.71416871416871
BMu29,P34,PAT,REL,Trunk_Forward,1,R_MTF,FM,M2,76.08095676172952
BMu29,P34,PAT,REL,Trunk_Forward,1,R_MTF,FM,M3,76.955074875208
BMu29,P35,CTR,INI,Trunk_Forward,1,L_MTF,FM,M1,99.1304347826087
BMu29,P35,CTR,INI,Trunk_Forward,1,L_MTF,FM,M2,92.57849666983826
BMu29,P35,CTR,INI,Trunk_Forward,1,L_MTF,FM,M3,94.17293233082707
BMu29,P35,CTR,INI,Trunk_Forward,1,R_MTF,FM,M1,88.85375494071147
BMu29,P35,CTR,INI,Trunk_Forward,1,R_MTF,FM,M2,94.67174119885824
BMu29,P35,CTR,INI,Trunk_Forward,1,R_MTF,FM,M3,90.88345864661653
BMu29,P35,CTR,REL,Trunk_Forward,1,L_MTF,FM,M1,86.68002439236867
BMu29,P35,CTR,REL,Trunk_Forward,1,L_MTF,FM,M2,92.29979466119096
BMu29,P35,CTR,REL,Trunk_Forward,1,L_MTF,FM,M3,91.05547057402785
BMu29,P35,CTR,REL,Trunk_Forward,1,R_MTF,FM,M1,85.11194354908963
BMu29,P35,CTR,REL,Trunk_Forward,1,R_MTF,FM,M2,90.34907597535934
BMu29,P35,CTR,REL,Trunk_Forward,1,R_MTF,FM,M3,89.84783833829805
BMu29,P36,PAT,INI,Trunk_Forward,1,L_MTF,FM,M1,86.74867741729875
BMu29,P36,PAT,INI,Trunk_Forward,1,L_MTF,FM,M2,88.80335899230231
BMu29,P36,PAT,INI,Trunk_Forward,1,L_MTF,FM,M3,86.73438355331184
BMu29,P36,PAT,INI,Trunk_Forward,1,R_MTF,FM,M1,83.37051437312768
BMu29,P36,PAT,INI,Trunk_Forward,1,R_MTF,FM,M2,75.01749475157452
BMu29,P36,PAT,INI,Trunk_Forward,1,R_MTF,FM,M3,79.7396752022383
BMu29,P36,PAT,REL,Trunk_Forward,1,L_MTF,FM,M1,96.83086695046963
BMu29,P36,PAT,REL,Trunk_Forward,1,L_MTF,FM,M2,96.5790086106586
BMu29,P36,PAT,REL,Trunk_Forward,1,L_MTF,FM,M3,97.53989361702128
BMu29,P36,PAT,REL,Trunk_Forward,1,R_MTF,FM,M1,93.58740455436178
BMu29,P36,PAT,REL,Trunk_Forward,1,R_MTF,FM,M2,89.44224652858584
BMu29,P36,PAT,REL,Trunk_Forward,1,R_MTF,FM,M3,92.81914893617021
BMu29,P38,CTR,INI,Trunk_Forward,1,L_MTF,FM,M1,21.111031054110526
BMu29,P38,CTR,INI,Trunk_Forward,1,L_MTF,FM,M2,23.850350740452065
BMu29,P38,CTR,INI,Trunk_Forward,1,L_MTF,FM,M3,27.994428969359333
BMu29,P38,CTR,INI,Trunk_Forward,1,R_MTF,FM,M1,71.18668491966281
BMu29,P38,CTR,INI,Trunk_Forward,1,R_MTF,FM,M2,67.80982073265783
BMu29,P38,CTR,INI,Trunk_Forward,1,R_MTF,FM,M3,72.14484679665739
BMu29,P38,CTR,REL,Trunk_Forward,1,L_MTF,FM,M1,85.85643212508883
BMu29,P38,CTR,REL,Trunk_Forward,1,L_MTF,FM,M2,75.22267206477733
BMu29,P38,CTR,REL,Trunk_Forward,1,L_MTF,FM,M3,78.02768166089965
BMu29,P38,CTR,REL,Trunk_Forward,1,R_MTF,FM,M1,74.48471926083866
BMu29,P38,CTR,REL,Trunk_Forward,1,R_MTF,FM,M2,64.93927125506073
BMu29,P38,CTR,REL,Trunk_Forward,1,R_MTF,FM,M3,64.18685121107266
BMu29,P39,CTR,INI,Trunk_Forward,1,L_MTF,FM,M1,82.15447461986534
BMu29,P39,CTR,INI,Trunk_Forward,1,L_MTF,FM,M2,82.40335684313901
BMu29,P39,CTR,INI,Trunk_Forward,1,L_MTF,FM,M3,83.68723457406945
BMu29,P39,CTR,INI,Trunk_Forward,1,R_MTF,FM,M1,79.5824192450261
BMu29,P39,CTR,INI,Trunk_Forward,1,R_MTF,FM,M2,75.52897062762253
BMu29,P39,CTR,INI,Trunk_Forward,1,R_MTF,FM,M3,67.44941294029478
BMu29,P39,CTR,REL,Trunk_Forward,1,L_MTF,FM,M1,79.98303647158609
BMu29,P39,CTR,REL,Trunk_Forward,1,L_MTF,FM,M2,74.14015264149073
BMu29,P39,CTR,REL,Trunk_Forward,1,L_MTF,FM,M3,80.25594149908592
BMu29,P39,CTR,REL,Trunk_Forward,1,R_MTF,FM,M1,63.358778625954194
BMu29,P39,CTR,REL,Trunk_Forward,1,R_MTF,FM,M2,56.99276439686788
BMu29,P39,CTR,REL,Trunk_Forward,1,R_MTF,FM,M3,60.42047531992687
BMu29,P40,CTR,INI,Trunk_Forward,1,L_MTF,FM,M1,42.18944896910999
BMu29,P40,CTR,INI,Trunk_Forward,1,L_MTF,FM,M2,41.345291479820624
BMu29,P40,CTR,INI,Trunk_Forward,1,L_MTF,FM,M3,48.876089912806975
BMu29,P40,CTR,INI,Trunk_Forward,1,R_MTF,FM,M1,108.29848117983713
BMu29,P40,CTR,INI,Trunk_Forward,1,R_MTF,FM,M2,111.92825112107623
BMu29,P40,CTR,INI,Trunk_Forward,1,R_MTF,FM,M3,112.07103431725461
BMu29,P40,CTR,REL,Trunk_Forward,1,L_MTF,FM,M1,94.64763603925066
BMu29,P40,CTR,REL,Trunk_Forward,1,L_MTF,FM,M2,92.40422093354883
BMu29,P40,CTR,REL,Trunk_Forward,1,L_MTF,FM,M3,100.72587880270775
BMu29,P40,CTR,REL,Trunk_Forward,1,R_MTF,FM,M1,96.16413916146297
BMu29,P40,CTR,REL,Trunk_Forward,1,R_MTF,FM,M2,97.63285483410971
BMu29,P40,CTR,REL,Trunk_Forward,1,R_MTF,FM,M3,93.79332843976836
BMu29,P41,PAT,INI,Trunk_Forward,1,L_MTF,FM,M1,69.42800788954635
BMu29,P41,PAT,INI,Trunk_Forward,1,L_MTF,FM,M2,70.8354035062815
BMu29,P41,PAT,INI,Trunk_Forward,1,L_MTF,FM,M3,81.64316528233854
BMu29,P41,PAT,INI,Trunk_Forward,1,R_MTF,FM,M1,71.99211045364892
BMu29,P41,PAT,INI,Trunk_Forward,1,R_MTF,FM,M2,71.54517708850877
BMu29,P41,PAT,INI,Trunk_Forward,1,R_MTF,FM,M3,67.15601055952611
BMu29,P41,PAT,REL,Trunk_Forward,1,L_MTF,FM,M1,66.57420249653259
BMu29,P41,PAT,REL,Trunk_Forward,1,L_MTF,FM,M2,71.11459968602826
BMu29,P41,PAT,REL,Trunk_Forward,1,L_MTF,FM,M3,71.10503990222158
BMu29,P41,PAT,REL,Trunk_Forward,1,R_MTF,FM,M1,64.35506241331484
BMu29,P41,PAT,REL,Trunk_Forward,1,R_MTF,FM,M2,68.21036106750392
BMu29,P41,PAT,REL,Trunk_Forward,1,R_MTF,FM,M3,64.70630526996908
BMu29,P42,PAT,INI,Trunk_Forward,1,L_MTF,FM,M1,75.9392486011191
BMu29,P42,PAT,INI,Trunk_Forward,1,L_MTF,FM,M2,80.05033394637499
BMu29,P42,PAT,INI,Trunk_Forward,1,L_MTF,FM,M3,79.03357903357903
BMu29,P42,PAT,INI,Trunk_Forward,1,R_MTF,FM,M1,73.36353139710454
BMu29,P42,PAT,INI,Trunk_Forward,1,R_MTF,FM,M2,81.21188655502856
BMu29,P42,PAT,INI,Trunk_Forward,1,R_MTF,FM,M3,71.49877149877149
BMu29,P42,PAT,REL,Trunk_Forward,1,L_MTF,FM,M1,75.70259093594396
BMu29,P42,PAT,REL,Trunk_Forward,1,L_MTF,FM,M2,76.4591439688716
BMu29,P42,PAT,REL,Trunk_Forward,1,L_MTF,FM,M3,77.67728847941848
BMu29,P42,PAT,REL,Trunk_Forward,1,R_MTF,FM,M1,87.43353869524854
BMu29,P42,PAT,REL,Trunk_Forward,1,R_MTF,FM,M2,71.49805447470817
BMu29,P42,PAT,REL,Trunk_Forward,1,R_MTF,FM,M3,77.84633589721918
BMu29,P43,PAT,INI,Trunk_Forward,1,L_MTF,FM,M1,95.86894586894587
BMu29,P43,PAT,INI,Trunk_Forward,1,L_MTF,FM,M2,85.64547206165702
BMu29,P43,PAT,INI,Trunk_Forward,1,L_MTF,FM,M3,87.20508166969147
BMu29,P43,PAT,INI,Trunk_Forward,1,R_MTF,FM,M1,63.17663817663818
BMu29,P43,PAT,INI,Trunk_Forward,1,R_MTF,FM,M2,65.02890173410404
BMu29,P43,PAT,INI,Trunk_Forward,1,R_MTF,FM,M3,57.71324863883848
BMu29,P43,PAT,REL,Trunk_Forward,1,L_MTF,FM,M1,89.44680851063829
BMu29,P43,PAT,REL,Trunk_Forward,1,L_MTF,FM,M2,93.6269915651359
BMu29,P43,PAT,REL,Trunk_Forward,1,L_MTF,FM,M3,87.59248235394166
BMu29,P43,PAT,REL,Trunk_Forward,1,R_MTF,FM,M1,79.23404255319149
BMu29,P43,PAT,REL,Trunk_Forward,1,R_MTF,FM,M2,80.78725398313027
BMu29,P43,PAT,REL,Trunk_Forward,1,R_MTF,FM,M3,79.34348158857046
BMu29,P44,CTR,INI,Trunk_Forward,1,L_MTF,FM,M1,28.441635394035153
BMu29,P44,CTR,INI,Trunk_Forward,1,L_MTF,FM,M2,31.76376695929768
BMu29,P44,CTR,INI,Trunk_Forward,1,L_MTF,FM,M3,30.156569094622196
BMu29,P44,CTR,INI,Trunk_Forward,1,R_MTF,FM,M1,79.6629139508855
BMu29,P44,CTR,INI,Trunk_Forward,1,R_MTF,FM,M2,71.98723064644851
BMu29,P44,CTR,INI,Trunk_Forward,1,R_MTF,FM,M3,80.39482641252553
BMu29,P44,CTR,REL,Trunk_Forward,1,L_MTF,FM,M1,89.08668730650156
BMu29,P44,CTR,REL,Trunk_Forward,1,L_MTF,FM,M2,91.5050048719993
BMu29,P44,CTR,REL,Trunk_Forward,1,L_MTF,FM,M3,88.60265417642468
BMu29,P44,CTR,REL,Trunk_Forward,1,R_MTF,FM,M1,90.94427244582045
BMu29,P44,CTR,REL,Trunk_Forward,1,R_MTF,FM,M2,92.83373195145718
BMu29,P44,CTR,REL,Trunk_Forward,1,R_MTF,FM,M3,97.89227166276348
BMu29,P45,PAT,INI,Trunk_Forward,1,L_MTF,FM,M1,60.69017254313578
BMu29,P45,PAT,INI,Trunk_Forward,1,L_MTF,FM,M2,62.46241086003952
BMu29,P45,PAT,INI,Trunk_Forward,1,L_MTF,FM,M3,66.66051149478349
BMu29,P45,PAT,INI,Trunk_Forward,1,R_MTF,FM,M1,48.76219054763691
BMu29,P45,PAT,INI,Trunk_Forward,1,R_MTF,FM,M2,51.207148380445055
BMu29,P45,PAT,INI,Trunk_Forward,1,R_MTF,FM,M3,53.54999538362109
BMu29,P45,PAT,REL,Trunk_Forward,1,L_MTF,FM,M1,59.82520947833138
BMu29,P45,PAT,REL,Trunk_Forward,1,L_MTF,FM,M2,68.11819595645412
BMu29,P45,PAT,REL,Trunk_Forward,1,L_MTF,FM,M3,59.964995053648884
BMu29,P45,PAT,REL,Trunk_Forward,1,R_MTF,FM,M1,46.400576628525094
BMu29,P45,PAT,REL,Trunk_Forward,1,R_MTF,FM,M2,42.14618973561431
BMu29,P45,PAT,REL,Trunk_Forward,1,R_MTF,FM,M3,51.28985617532912
BMu29,P46,CTR,INI,Trunk_Forward,1,L_MTF,FM,M1,24.212346792991955
BMu29,P46,CTR,INI,Trunk_Forward,1,L_MTF,FM,M2,49.53433630129976
BMu29,P46,CTR,INI,Trunk_Forward,1,L_MTF,FM,M3,51.1520737327189
BMu29,P46,CTR,INI,Trunk_Forward,1,R_MTF,FM,M1,45.116174148432215
BMu29,P46,CTR,INI,Trunk_Forward,1,R_MTF,FM,M2,52.29761539248797
BMu29,P46,CTR,INI,Trunk_Forward,1,R_MTF,FM,M3,56.774193548387096
BMu29,P46,CTR,REL,Trunk_Forward,1,L_MTF,FM,M1,40.526315789473685
BMu29,P46,CTR,REL,Trunk_Forward,1,L_MTF,FM,M2,42.30404051060238
BMu29,P46,CTR,REL,Trunk_Forward,1,L_MTF,FM,M3,44.33725999443465
BMu29,P46,CTR,REL,Trunk_Forward,1,R_MTF,FM,M1,64.56140350877193
BMu29,P46,CTR,REL,Trunk_Forward,1,R_MTF,FM,M2,61.29338537820445
BMu29,P46,CTR,REL,Trunk_Forward,1,R_MTF,FM,M3,59.549206938131896
BMu29,P47,PAT,INI,Trunk_Forward,1,L_MTF,FM,M1,62.9491730885791
BMu29,P47,PAT,INI,Trunk_Forward,1,L_MTF,FM,M2,70.89582821080239
BMu29,P47,PAT,INI,Trunk_Forward,1,L_MTF,FM,M3,67.41888008970496
BMu29,P47,PAT,INI,Trunk_Forward,1,R_MTF,FM,M1,61.21742142176812
BMu29,P47,PAT,INI,Trunk_Forward,1,R_MTF,FM,M2,60.56880583558725
BMu29,P47,PAT,INI,Trunk_Forward,1,R_MTF,FM,M3,61.81232041488542
BMu29,P47,PAT,REL,Trunk_Forward,1,L_MTF,FM,M1,79.38741721854305
BMu29,P47,PAT,REL,Trunk_Forward,1,L_MTF,FM,M2,78.69611341498698
BMu29,P47,PAT,REL,Trunk_Forward,1,L_MTF,FM,M3,82.95142071494043
BMu29,P47,PAT,REL,Trunk_Forward,1,R_MTF,FM,M1,55.87748344370861
BMu29,P47,PAT,REL,Trunk_Forward,1,R_MTF,FM,M2,56.03240428199441
BMu29,P47,PAT,REL,Trunk_Forward,1,R_MTF,FM,M3,45.7378551787351
BMu29,P48,CTR,INI,Trunk_Forward,1,L_MTF,FM,M1,90.66666666666667
BMu29,P48,CTR,INI,Trunk_Forward,1,L_MTF,FM,M2,86.81980959035724
BMu29,P48,CTR,INI,Trunk_Forward,1,L_MTF,FM,M3,90.23957409050577
BMu29,P48,CTR,INI,Trunk_Forward,1,R_MTF,FM,M1,93.56862745098039
BMu29,P48,CTR,INI,Trunk_Forward,1,R_MTF,FM,M2,98.34920080356362
BMu29,P48,CTR,INI,Trunk_Forward,1,R_MTF,FM,M3,95.47471162377994
BMu29,P48,CTR,REL,Trunk_Forward,1,L_MTF,FM,M1,92.7621625925631
BMu29,P48,CTR,REL,Trunk_Forward,1,L_MTF,FM,M2,97.15170811462008
BMu29,P48,CTR,REL,Trunk_Forward,1,L_MTF,FM,M3,87.82755028447791
BMu29,P48,CTR,REL,Trunk_Forward,1,R_MTF,FM,M1,104.94466119914006
BMu29,P48,CTR,REL,Trunk_Forward,1,R_MTF,FM,M2,100.33559934601152
BMu29,P48,CTR,REL,Trunk_Forward,1,R_MTF,FM,M3,106.33864893020272
BMu29,P49,CTR,INI,Trunk_Forward,1,L_MTF,FM,M1,82.07883398053089
BMu29,P49,CTR,INI,Trunk_Forward,1,L_MTF,FM,M2,83.87096774193547
BMu29,P49,CTR,INI,Trunk_Forward,1,L_MTF,FM,M3,82.22950819672131
BMu29,P49,CTR,INI,Trunk_Forward,1,R_MTF,FM,M1,90.00478748869621
BMu29,P49,CTR,INI,Trunk_Forward,1,R_MTF,FM,M2,92.04301075268816
BMu29,P49,CTR,INI,Trunk_Forward,1,R_MTF,FM,M3,94.62295081967214
BMu29,P49,CTR,REL,Trunk_Forward,1,L_MTF,FM,M1,85.11218094286492
BMu29,P49,CTR,REL,Trunk_Forward,1,L_MTF,FM,M2,83.44278084230803
BMu29,P49,CTR,REL,Trunk_Forward,1,L_MTF,FM,M3,84.77717785478282
BMu29,P49,CTR,REL,Trunk_Forward,1,R_MTF,FM,M1,86.92887637387591
BMu29,P49,CTR,REL,Trunk_Forward,1,R_MTF,FM,M2,93.33683565362053
BMu29,P49,CTR,REL,Trunk_Forward,1,R_MTF,FM,M3,92.2717382544927
BMu29,P50,PAT,INI,Trunk_Forward,1,L_MTF,FM,M1,110.25283544971549
BMu29,P50,PAT,INI,Trunk_Forward,1,L_MTF,FM,M2,110.83916083916084
BMu29,P50,PAT,INI,Trunk_Forward,1,L_MTF,FM,M3,108.19015238904741
BMu29,P50,PAT,INI,Trunk_Forward,1,R_MTF,FM,M1,47.47729756207844
BMu29,P50,PAT,INI,Trunk_Forward,1,R_MTF,FM,M2,36.946386946386944
BMu29,P50,PAT,INI,Trunk_Forward,1,R_MTF,FM,M3,34.97055430757088
BMu29,P50,PAT,REL,Trunk_Forward,1,L_MTF,FM,M1,118.57062464828363
BMu29,P50,PAT,REL,Trunk_Forward,1,L_MTF,FM,M2,120.05868448936343
BMu29,P50,PAT,REL,Trunk_Forward,1,L_MTF,FM,M3,118.12099848931733
BMu29,P50,PAT,REL,Trunk_Forward,1,R_MTF,FM,M1,74.6764209341587
BMu29,P50,PAT,REL,Trunk_Forward,1,R_MTF,FM,M2,21.517646099926644
BMu29,P50,PAT,REL,Trunk_Forward,1,R_MTF,FM,M3,34.24214085317603
BMu29,P51,PAT,INI,Trunk_Forward,1,L_MTF,FM,M1,59.06077348066298
BMu29,P51,PAT,INI,Trunk_Forward,1,L_MTF,FM,M2,60.67528017702905
BMu29,P51,PAT,INI,Trunk_Forward,1,L_MTF,FM,M3,62.156528330490815
BMu29,P51,PAT,INI,Trunk_Forward,1,R_MTF,FM,M1,60.552486187845304
BMu29,P51,PAT,INI,Trunk_Forward,1,R_MTF,FM,M2,62.38846455849811
BMu29,P51,PAT,INI,Trunk_Forward,1,R_MTF,FM,M3,59.37717137262334
BMu29,P51,PAT,REL,Trunk_Forward,1,L_MTF,FM,M1,62.09893048128341
BMu29,P51,PAT,REL,Trunk_Forward,1,L_MTF,FM,M2,62.92616403662576
BMu29,P51,PAT,REL,Trunk_Forward,1,L_MTF,FM,M3,64.42687747035573
BMu29,P51,PAT,REL,Trunk_Forward,1,R_MTF,FM,M1,43.382352941176464
BMu29,P51,PAT,REL,Trunk_Forward,1,R_MTF,FM,M2,68.51094226897851
BMu29,P51,PAT,REL,Trunk_Forward,1,R_MTF,FM,M3,68.97233201581028
BMu29,P52,CTR,INI,Trunk_Forward,1,L_MTF,FM,M1,87.52553143202965
BMu29,P52,CTR,INI,Trunk_Forward,1,L_MTF,FM,M2,87.33097924382051
BMu29,P52,CTR,INI,Trunk_Forward,1,L_MTF,FM,M3,93.19899244332494
BMu29,P52,CTR,INI,Trunk_Forward,1,R_MTF,FM,M1,86.61774718208639
BMu29,P52,CTR,INI,Trunk_Forward,1,R_MTF,FM,M2,92.24011713030745
BMu29,P52,CTR,INI,Trunk_Forward,1,R_MTF,FM,M3,92.27539882451721
BMu29,P52,CTR,REL,Trunk_Forward,1,L_MTF,FM,M1,98.70444589430515
BMu29,P52,CTR,REL,Trunk_Forward,1,L_MTF,FM,M2,96.3991769547325
BMu29,P52,CTR,REL,Trunk_Forward,1,L_MTF,FM,M3,99.22239502332815
BMu29,P52,CTR,REL,Trunk_Forward,1,R_MTF,FM,M1,89.66352875384472
BMu29,P52,CTR,REL,Trunk_Forward,1,R_MTF,FM,M2,101.85185185185185
BMu29,P52,CTR,REL,Trunk_Forward,1,R_MTF,FM,M3,110.4199066874028
BMu29,P53,PAT,INI,Trunk_Forward,1,L_MTF,FM,M1,78.0535144877305
BMu29,P53,PAT,INI,Trunk_Forward,1,L_MTF,FM,M2,79.06402558778967
BMu29,P53,PAT,INI,Trunk_Forward,1,L_MTF,FM,M3,72.68381836074792
BMu29,P53,PAT,INI,Trunk_Forward,1,R_MTF,FM,M1,85.86348722214521
BMu29,P53,PAT,INI,Trunk_Forward,1,R_MTF,FM,M2,86.35879019134728
BMu29,P53,PAT,INI,Trunk_Forward,1,R_MTF,FM,M3,82.8061296218192
BMu29,P53,PAT,REL,Trunk_Forward,1,L_MTF,FM,M1,68.57811585722645
BMu29,P53,PAT,REL,Trunk_Forward,1,L_MTF,FM,M2,68.40101522842639
BMu29,P53,PAT,REL,Trunk_Forward,1,L_MTF,FM,M3,64.61370923830843
BMu29,P53,PAT,REL,Trunk_Forward,1,R_MTF,FM,M1,75.6582796957285
BMu29,P53,PAT,REL,Trunk_Forward,1,R_MTF,FM,M2,77.98223350253807
BMu29,P53,PAT,REL,Trunk_Forward,1,R_MTF,FM,M3,76.04815778328998
BMu29,P54,PAT,INI,Trunk_Forward,1,L_MTF,FM,M1,72.40880283447277
BMu29,P54,PAT,INI,Trunk_Forward,1,L_MTF,FM,M2,50.987306064880116
BMu29,P54,PAT,INI,Trunk_Forward,1,L_MTF,FM,M3,57.103842095462724
BMu29,P54,PAT,INI,Trunk_Forward,1,R_MTF,FM,M1,81.79050850840859
BMu29,P54,PAT,INI,Trunk_Forward,1,R_MTF,FM,M2,74.54160789844852
BMu29,P54,PAT,INI,Trunk_Forward,1,R_MTF,FM,M3,66.47632052634846
BMu29,P54,PAT,REL,Trunk_Forward,1,L_MTF,FM,M1,86.41546851760039
BMu29,P54,PAT,REL,Trunk_Forward,1,L_MTF,FM,M2,87.82089552238806
BMu29,P54,PAT,REL,Trunk_Forward,1,L_MTF,FM,M3,82.88973384030419
BMu29,P54,PAT,REL,Trunk_Forward,1,R_MTF,FM,M1,83.19286068418442
BMu29,P54,PAT,REL,Trunk_Forward,1,R_MTF,FM,M2,84.8955223880597
BMu29,P54,PAT,REL,Trunk_Forward,1,R_MTF,FM,M3,85.82292232482347
BMu29,P55,CTR,INI,Trunk_Forward,1,L_MTF,FM,M1,46.10894941634241
BMu29,P55,CTR,INI,Trunk_Forward,1,L_MTF,FM,M2,39.926402943882245
BMu29,P55,CTR,INI,Trunk_Forward,1,L_MTF,FM,M3,31.631722880583407
BMu29,P55,CTR,INI,Trunk_Forward,1,R_MTF,FM,M1,60.89494163424125
BMu29,P55,CTR,INI,Trunk_Forward,1,R_MTF,FM,M2,56.48574057037718
BMu29,P55,CTR,INI,Trunk_Forward,1,R_MTF,FM,M3,55.87967183226982
BMu29,P55,CTR,REL,Trunk_Forward,1,L_MTF,FM,M1,68.88273314866112
BMu29,P55,CTR,REL,Trunk_Forward,1,L_MTF,FM,M2,63.54733405875952
BMu29,P55,CTR,REL,Trunk_Forward,1,L_MTF,FM,M3,67.52537080405934
BMu29,P55,CTR,REL,Trunk_Forward,1,R_MTF,FM,M1,59.64912280701754
BMu29,P55,CTR,REL,Trunk_Forward,1,R_MTF,FM,M2,55.386289445048966
BMu29,P55,CTR,REL,Trunk_Forward,1,R_MTF,FM,M3,59.4847775175644
BMu29,P56,CTR,INI,Trunk_Forward,1,L_MTF,FM,M1,49.22050513990061
BMu29,P56,CTR,INI,Trunk_Forward,1,L_MTF,FM,M2,66.0741885625966
BMu29,P56,CTR,INI,Trunk_Forward,1,L_MTF,FM,M3,69.71014492753623
BMu29,P56,CTR,INI,Trunk_Forward,1,R_MTF,FM,M1,42.34461161413302
BMu29,P56,CTR,INI,Trunk_Forward,1,R_MTF,FM,M2,52.31839258114374
BMu29,P56,CTR,INI,Trunk_Forward,1,R_MTF,FM,M3,48.26086956521739
BMu29,P56,CTR,REL,Trunk_Forward,1,L_MTF,FM,M1,58.68625756266206
BMu29,P56,CTR,REL,Trunk_Forward,1,L_MTF,FM,M2,59.60784313725489
BMu29,P56,CTR,REL,Trunk_Forward,1,L_MTF,FM,M3,60.758222445392924
BMu29,P56,CTR,REL,Trunk_Forward,1,R_MTF,FM,M1,33.7942955920484
BMu29,P56,CTR,REL,Trunk_Forward,1,R_MTF,FM,M2,36.666666666666664
BMu29,P56,CTR,REL,Trunk_Forward,1,R_MTF,FM,M3,46.44740145618881
BMu29,P57,CTR,INI,Trunk_Forward,1,L_MTF,FM,M1,45.51724137931034
BMu29,P57,CTR,INI,Trunk_Forward,1,L_MTF,FM,M2,49.143399134507085
BMu29,P57,CTR,INI,Trunk_Forward,1,L_MTF,FM,M3,37.812288993923026
BMu29,P57,CTR,INI,Trunk_Forward,1,R_MTF,FM,M1,45.676392572944295
BMu29,P57,CTR,INI,Trunk_Forward,1,R_MTF,FM,M2,46.53506431916533
BMu29,P57,CTR,INI,Trunk_Forward,1,R_MTF,FM,M3,43.95064759683261
BMu29,P57,CTR,REL,Trunk_Forward,1,L_MTF,FM,M1,66.12410986775178
BMu29,P57,CTR,REL,Trunk_Forward,1,L_MTF,FM,M2,52.516556291390735
BMu29,P57,CTR,REL,Trunk_Forward,1,L_MTF,FM,M3,63.77906976744186
BMu29,P57,CTR,REL,Trunk_Forward,1,R_MTF,FM,M1,48.11800610376399
BMu29,P57,CTR,REL,Trunk_Forward,1,R_MTF,FM,M2,45.29801324503312
BMu29,P57,CTR,REL,Trunk_Forward,1,R_MTF,FM,M3,62.73255813953488
BMu29,P58,PAT,INI,Trunk_Forward,1,L_MTF,FM,M1,27.72277227722772
BMu29,P58,PAT,INI,Trunk_Forward,1,L_MTF,FM,M2,30.337794773741237
BMu29,P58,PAT,INI,Trunk_Forward,1,L_MTF,FM,M3,26.5149022962037
BMu29,P58,PAT,INI,Trunk_Forward,1,R_MTF,FM,M1,27.326732673267323
BMu29,P58,PAT,INI,Trunk_Forward,1,R_MTF,FM,M2,34.54429572976418
BMu29,P58,PAT,INI,Trunk_Forward,1,R_MTF,FM,M3,27.238634120665836
BMu29,P58,PAT,REL,Trunk_Forward,1,L_MTF,FM,M1,52.109020116807265
BMu29,P58,PAT,REL,Trunk_Forward,1,L_MTF,FM,M2,41.56825696740671
BMu29,P58,PAT,REL,Trunk_Forward,1,L_MTF,FM,M3,36.65749656121045
BMu29,P58,PAT,REL,Trunk_Forward,1,R_MTF,FM,M1,65.21739130434783
BMu29,P58,PAT,REL,Trunk_Forward,1,R_MTF,FM,M2,68.4256697482961
BMu29,P58,PAT,REL,Trunk_Forward,1,R_MTF,FM,M3,70.2200825309491
BMu29,P60,CTR,INI,Trunk_Forward,1,L_MTF,FM,M1,84.02725208175625
BMu29,P60,CTR,INI,Trunk_Forward,1,L_MTF,FM,M2,84.28949691085614
BMu29,P60,CTR,INI,Trunk_Forward,1,L_MTF,FM,M3,83.70353051204116
BMu29,P60,CTR,INI,Trunk_Forward,1,R_MTF,FM,M1,92.10194297249558
BMu29,P60,CTR,INI,Trunk_Forward,1,R_MTF,FM,M2,88.87908208296558
BMu29,P60,CTR,INI,Trunk_Forward,1,R_MTF,FM,M3,83.23591302314706
BMu29,P60,CTR,REL,Trunk_Forward,1,L_MTF,FM,M1,81.85255198487712
BMu29,P60,CTR,REL,Trunk_Forward,1,L_MTF,FM,M2,78.37173938472336
BMu29,P60,CTR,REL,Trunk_Forward,1,L_MTF,FM,M3,84.88672211069688
BMu29,P60,CTR,REL,Trunk_Forward,1,R_MTF,FM,M1,91.58790170132325
BMu29,P60,CTR,REL,Trunk_Forward,1,R_MTF,FM,M2,80.5942215463797
BMu29,P60,CTR,REL,Trunk_Forward,1,R_MTF,FM,M3,84.40875633304655
BMu29,P61,PAT,REL,Trunk_Forward,1,L_MTF,FM,M1,61.50583244962885
BMu29,P61,PAT,REL,Trunk_Forward,1,L_MTF,FM,M2,59.4103968194434
BMu29,P61,PAT,REL,Trunk_Forward,1,L_MTF,FM,M3,67.02484889187375
BMu29,P61,PAT,REL,Trunk_Forward,1,R_MTF,FM,M1,61.99526878211926
BMu29,P61,PAT,REL,Trunk_Forward,1,R_MTF,FM,M2,58.21018678268697
BMu29,P61,PAT,REL,Trunk_Forward,1,R_MTF,FM,M3,57.48824714573539
BMu29,P62,PAT,INI,Trunk_Forward,1,L_MTF,FM,M1,83.42307416182067
BMu29,P62,PAT,INI,Trunk_Forward,1,L_MTF,FM,M2,82.64462809917356
BMu29,P62,PAT,INI,Trunk_Forward,1,L_MTF,FM,M3,80.2404207362885
BMu29,P62,PAT,INI,Trunk_Forward,1,R_MTF,FM,M1,71.3619068131237
BMu29,P62,PAT,INI,Trunk_Forward,1,R_MTF,FM,M2,62.8099173553719
BMu29,P62,PAT,INI,Trunk_Forward,1,R_MTF,FM,M3,67.46806912096167
BMu29,P62,PAT,REL,Trunk_Forward,1,L_MTF,FM,M1,82.66218249402601
BMu29,P62,PAT,REL,Trunk_Forward,1,L_MTF,FM,M2,81.63081630816308
BMu29,P62,PAT,REL,Trunk_Forward,1,L_MTF,FM,M3,81.2792511700468
BMu29,P62,PAT,REL,Trunk_Forward,1,R_MTF,FM,M1,74.3428622001947
BMu29,P62,PAT,REL,Trunk_Forward,1,R_MTF,FM,M2,72.18072180721806
BMu29,P62,PAT,REL,Trunk_Forward,1,R_MTF,FM,M3,69.96879875195008
BMu29,P63,PAT,INI,Trunk_Forward,1,L_MTF,FM,M1,77.62242578689992
BMu29,P63,PAT,INI,Trunk_Forward,1,L_MTF,FM,M2,77.63878029710712
BMu29,P63,PAT,INI,Trunk_Forward,1,L_MTF,FM,M3,72.50936329588015
BMu29,P63,PAT,INI,Trunk_Forward,1,R_MTF,FM,M1,82.44369446931607
BMu29,P63,PAT,INI,Trunk_Forward,1,R_MTF,FM,M2,81.00078186082877
BMu29,P63,PAT,INI,Trunk_Forward,1,R_MTF,FM,M3,91.01123595505618
BMu29,P63,PAT,REL,Trunk_Forward,1,L_MTF,FM,M1,87.40359897172236
BMu29,P63,PAT,REL,Trunk_Forward,1,L_MTF,FM,M2,83.28197904745136
BMu29,P63,PAT,REL,Trunk_Forward,1,L_MTF,FM,M3,91.83392906241409
BMu29,P63,PAT,REL,Trunk_Forward,1,R_MTF,FM,M1,65.55269922879177
BMu29,P63,PAT,REL,Trunk_Forward,1,R_MTF,FM,M2,66.203010828418
BMu29,P63,PAT,REL,Trunk_Forward,1,R_MTF,FM,M3,71.85409220053158
BMu29,P64,CTR,INI,Trunk_Forward,1,L_MTF,FM,M1,71.07972048989404
BMu29,P64,CTR,INI,Trunk_Forward,1,L_MTF,FM,M2,73.46461649132272
BMu29,P64,CTR,INI,Trunk_Forward,1,L_MTF,FM,M3,73.46053772766696
BMu29,P64,CTR,INI,Trunk_Forward,1,R_MTF,FM,M1,70.40348636261176
BMu29,P64,CTR,INI,Trunk_Forward,1,R_MTF,FM,M2,73.28477654887149
BMu29,P64,CTR,INI,Trunk_Forward,1,R_MTF,FM,M3,76.06244579358196
BMu29,P64,CTR,REL,Trunk_Forward,1,L_MTF,FM,M1,74.10071942446042
BMu29,P64,CTR,REL,Trunk_Forward,1,L_MTF,FM,M2,73.2420091324201
BMu29,P64,CTR,REL,Trunk_Forward,1,L_MTF,FM,M3,69.9622641509434
BMu29,P64,CTR,REL,Trunk_Forward,1,R_MTF,FM,M1,71.43884892086331
BMu29,P64,CTR,REL,Trunk_Forward,1,R_MTF,FM,M2,81.46118721461187
BMu29,P64,CTR,REL,Trunk_Forward,1,R_MTF,FM,M3,77.35849056603773
BMu29,P65,PAT,INI,Trunk_Forward,1,L_MTF,FM,M1,76.13882863340564
BMu29,P65,PAT,INI,Trunk_Forward,1,L_MTF,FM,M2,80.43154761904762
BMu29,P65,PAT,INI,Trunk_Forward,1,L_MTF,FM,M3,83.5164835164835
BMu29,P65,PAT,INI,Trunk_Forward,1,R_MTF,FM,M1,78.59725234996385
BMu29,P65,PAT,INI,Trunk_Forward,1,R_MTF,FM,M2,84.44940476190476
BMu29,P65,PAT,INI,Trunk_Forward,1,R_MTF,FM,M3,82.48222365869424
BMu29,P65,PAT,REL,Trunk_Forward,1,L_MTF,FM,M1,76.19986850756081
BMu29,P65,PAT,REL,Trunk_Forward,1,L_MTF,FM,M2,75.23533671252714
BMu29,P65,PAT,REL,Trunk_Forward,1,L_MTF,FM,M3,78.59902463740579
BMu29,P65,PAT,REL,Trunk_Forward,1,R_MTF,FM,M1,71.72912557527943
BMu29,P65,PAT,REL,Trunk_Forward,1,R_MTF,FM,M2,75.66980448950035
BMu29,P65,PAT,REL,Trunk_Forward,1,R_MTF,FM,M3,70.1121033631009
BMu29,P66,CTR,INI,Trunk_Forward,1,L_MTF,FM,M1,47.62138543865679
BMu29,P66,CTR,INI,Trunk_Forward,1,L_MTF,FM,M2,23.575273807313902
BMu29,P66,CTR,INI,Trunk_Forward,1,L_MTF,FM,M3,26.78794542455895
BMu29,P66,CTR,INI,Trunk_Forward,1,R_MTF,FM,M1,37.80254308017085
BMu29,P66,CTR,INI,Trunk_Forward,1,R_MTF,FM,M2,34.89883051791349
BMu29,P66,CTR,INI,Trunk_Forward,1,R_MTF,FM,M3,41.18146833924734
BMu29,P66,CTR,REL,Trunk_Forward,1,L_MTF,FM,M1,45.40459251547226
BMu29,P66,CTR,REL,Trunk_Forward,1,L_MTF,FM,M2,65.33736870215418
BMu29,P66,CTR,REL,Trunk_Forward,1,L_MTF,FM,M3,61.94891632060982
BMu29,P66,CTR,REL,Trunk_Forward,1,R_MTF,FM,M1,47.94956330614841
BMu29,P66,CTR,REL,Trunk_Forward,1,R_MTF,FM,M2,58.038098629161475
BMu29,P66,CTR,REL,Trunk_Forward,1,R_MTF,FM,M3,56.317196655099835
BMu29,P67,CTR,INI,Trunk_Forward,1,L_MTF,FM,M1,82.23880597014924
BMu29,P67,CTR,INI,Trunk_Forward,1,L_MTF,FM,M2,77.07762557077625
BMu29,P67,CTR,INI,Trunk_Forward,1,L_MTF,FM,M3,86.11783696529459
BMu29,P67,CTR,INI,Trunk_Forward,1,R_MTF,FM,M1,70.52238805970148
BMu29,P67,CTR,INI,Trunk_Forward,1,R_MTF,FM,M2,66.02739726027397
BMu29,P67,CTR,INI,Trunk_Forward,1,R_MTF,FM,M3,72.55851493139629
BMu29,P67,CTR,REL,Trunk_Forward,1,L_MTF,FM,M1,87.84213876511775
BMu29,P67,CTR,REL,Trunk_Forward,1,L_MTF,FM,M2,78.66666666666667
BMu29,P67,CTR,REL,Trunk_Forward,1,L_MTF,FM,M3,76.1708697889861
BMu29,P67,CTR,REL,Trunk_Forward,1,R_MTF,FM,M1,68.95820072140886
BMu29,P67,CTR,REL,Trunk_Forward,1,R_MTF,FM,M2,67.73333333333333
BMu29,P67,CTR,REL,Trunk_Forward,1,R_MTF,FM,M3,59.77501654290125
BMu29,P68,CTR,INI,Trunk_Forward,1,L_MTF,FM,M1,93.71795748171441
BMu29,P68,CTR,INI,Trunk_Forward,1,L_MTF,FM,M2,93.93916747627232
BMu29,P68,CTR,INI,Trunk_Forward,1,L_MTF,FM,M3,92.16050657306077
BMu29,P68,CTR,INI,Trunk_Forward,1,R_MTF,FM,M1,87.56579397087975
BMu29,P68,CTR,INI,Trunk_Forward,1,R_MTF,FM,M2,81.15985352365294
BMu29,P68,CTR,INI,Trunk_Forward,1,R_MTF,FM,M3,71.78745956363136
BMu29,P68,CTR,REL,Trunk_Forward,1,L_MTF,FM,M1,105.31039640987284
BMu29,P68,CTR,REL,Trunk_Forward,1,L_MTF,FM,M2,98.07409699125996
BMu29,P68,CTR,REL,Trunk_Forward,1,L_MTF,FM,M3,102.68350434096291
BMu29,P68,CTR,REL,Trunk_Forward,1,L_MTF,FM,M4,99.71387696709584
BMu29,P68,CTR,REL,Trunk_Forward,1,R_MTF,FM,M1,97.00822737471951
BMu29,P68,CTR,REL,Trunk_Forward,1,R_MTF,FM,M2,97.99675148890093
BMu29,P68,CTR,REL,Trunk_Forward,1,R_MTF,FM,M3,89.4238358326756
BMu29,P68,CTR,REL,Trunk_Forward,1,R_MTF,FM,M4,79.32761087267524
