BMu,Participant,Group,Session,task,trials,channel,Operator,Measure,Value
BMu22,P01,CTR,INI,S2S_Unconstrained,1,L_LES,FM,M1,0.01372067892450617
BMu22,P01,CTR,INI,S2S_Unconstrained,1,L_LES,FM,M2,0.01517223353059349
BMu22,P01,CTR,INI,S2S_Unconstrained,1,L_LES,FM,M3,0.02103201597569878
BMu22,P01,CTR,INI,S2S_Unconstrained,1,R_LES,FM,M1,0.01332354574483459
BMu22,P01,CTR,INI,S2S_Unconstrained,1,R_LES,FM,M2,0.016866518022298806
BMu22,P01,CTR,INI,S2S_Unconstrained,1,R_LES,FM,M3,0.015555966850679634
BMu22,P01,CTR,REL,S2S_Unconstrained,1,L_LES,FM,M1,0.012414765846486379
BMu22,P01,CTR,REL,S2S_Unconstrained,1,L_LES,FM,M2,0.009810136637449257
BMu22,P01,CTR,REL,S2S_Unconstrained,1,L_LES,FM,M3,0.01014385900312213
BMu22,P01,CTR,REL,S2S_Unconstrained,1,R_LES,FM,M1,0.022804833923674904
BMu22,P01,CTR,REL,S2S_Unconstrained,1,R_LES,FM,M2,0.012920959659679536
BMu22,P01,CTR,REL,S2S_Unconstrained,1,R_LES,FM,M3,0.0161041314233812
BMu22,P02,CTR,INI,S2S_Unconstrained,1,L_LES,FM,M1,0.012100046711354173
BMu22,P02,CTR,INI,S2S_Unconstrained,1,L_LES,FM,M2,0.016251815480060657
BMu22,P02,CTR,INI,S2S_Unconstrained,1,L_LES,FM,M3,0.02377950121645899
BMu22,P02,CTR,INI,S2S_Unconstrained,1,R_LES,FM,M1,0.01447232365667369
BMu22,P02,CTR,INI,S2S_Unconstrained,1,R_LES,FM,M2,0.02463189219461083
BMu22,P02,CTR,INI,S2S_Unconstrained,1,R_LES,FM,M3,0.03850073474946877
BMu22,P02,CTR,REL,S2S_Unconstrained,1,L_LES,FM,M1,0.010767474987229426
BMu22,P02,CTR,REL,S2S_Unconstrained,1,L_LES,FM,M2,0.009235065616456543
BMu22,P02,CTR,REL,S2S_Unconstrained,1,L_LES,FM,M3,0.007694810572845105
BMu22,P02,CTR,REL,S2S_Unconstrained,1,R_LES,FM,M1,0.008247748242187552
BMu22,P02,CTR,REL,S2S_Unconstrained,1,R_LES,FM,M2,0.007511064267942266
BMu22,P02,CTR,REL,S2S_Unconstrained,1,R_LES,FM,M3,0.005473573925341438
BMu22,P03,CTR,INI,S2S_Unconstrained,1,L_LES,FM,M1,0.013173334989833285
BMu22,P03,CTR,INI,S2S_Unconstrained,1,L_LES,FM,M2,0.010291513281942513
BMu22,P03,CTR,INI,S2S_Unconstrained,1,L_LES,FM,M3,0.009753344101387963
BMu22,P03,CTR,INI,S2S_Unconstrained,1,R_LES,FM,M1,0.012974741965187416
BMu22,P03,CTR,INI,S2S_Unconstrained,1,R_LES,FM,M2,0.009817571738869171
BMu22,P03,CTR,INI,S2S_Unconstrained,1,R_LES,FM,M3,0.008208452775889238
BMu22,P03,CTR,REL,S2S_Unconstrained,1,L_LES,FM,M1,0.044977850188565115
BMu22,P03,CTR,REL,S2S_Unconstrained,1,L_LES,FM,M2,0.03671854073520173
BMu22,P03,CTR,REL,S2S_Unconstrained,1,L_LES,FM,M3,0.02974795790708341
BMu22,P03,CTR,REL,S2S_Unconstrained,1,L_LES,FM,M4,0.029469309721910635
BMu22,P03,CTR,REL,S2S_Unconstrained,1,R_LES,FM,M1,0.013593755118915977
BMu22,P03,CTR,REL,S2S_Unconstrained,1,R_LES,FM,M2,0.014632016116555246
BMu22,P03,CTR,REL,S2S_Unconstrained,1,R_LES,FM,M3,0.01285746694072885
BMu22,P03,CTR,REL,S2S_Unconstrained,1,R_LES,FM,M4,0.010153982163779034
BMu22,P05,CTR,INI,S2S_Unconstrained,1,L_LES,FM,M1,0.01153883669661733
BMu22,P05,CTR,INI,S2S_Unconstrained,1,L_LES,FM,M2,0.012055805329880745
BMu22,P05,CTR,INI,S2S_Unconstrained,1,L_LES,FM,M3,0.01617835202382043
BMu22,P05,CTR,INI,S2S_Unconstrained,1,R_LES,FM,M1,0.004379088942662046
BMu22,P05,CTR,INI,S2S_Unconstrained,1,R_LES,FM,M2,0.0040148231257204235
BMu22,P05,CTR,INI,S2S_Unconstrained,1,R_LES,FM,M3,0.003860355674597166
BMu22,P05,CTR,REL,S2S_Unconstrained,1,L_LES,FM,M1,0.017224878943618408
BMu22,P05,CTR,REL,S2S_Unconstrained,1,L_LES,FM,M2,0.01884825901101044
BMu22,P05,CTR,REL,S2S_Unconstrained,1,L_LES,FM,M3,0.016684392885294743
BMu22,P05,CTR,REL,S2S_Unconstrained,1,R_LES,FM,M1,0.006212440171010736
BMu22,P05,CTR,REL,S2S_Unconstrained,1,R_LES,FM,M2,0.005623317567650677
BMu22,P05,CTR,REL,S2S_Unconstrained,1,R_LES,FM,M3,0.004271015708562002
BMu22,P06,CTR,INI,S2S_Unconstrained,1,L_LES,FM,M1,0.009027994938573678
BMu22,P06,CTR,INI,S2S_Unconstrained,1,L_LES,FM,M2,0.04912137334846653
BMu22,P06,CTR,INI,S2S_Unconstrained,1,L_LES,FM,M3,0.04216967371415443
BMu22,P06,CTR,INI,S2S_Unconstrained,1,R_LES,FM,M1,0.002793338390163087
BMu22,P06,CTR,INI,S2S_Unconstrained,1,R_LES,FM,M2,0.0031077046402770703
BMu22,P06,CTR,INI,S2S_Unconstrained,1,R_LES,FM,M3,0.002226962213134283
BMu22,P06,CTR,REL,S2S_Unconstrained,1,L_LES,FM,M1,0.0030533403728766504
BMu22,P06,CTR,REL,S2S_Unconstrained,1,L_LES,FM,M2,0.002893722824921178
BMu22,P06,CTR,REL,S2S_Unconstrained,1,L_LES,FM,M3,0.0029843195378734767
BMu22,P06,CTR,REL,S2S_Unconstrained,1,R_LES,FM,M1,0.0029434231583665847
BMu22,P06,CTR,REL,S2S_Unconstrained,1,R_LES,FM,M2,0.002379933345458595
BMu22,P06,CTR,REL,S2S_Unconstrained,1,R_LES,FM,M3,0.0023816339159220047
BMu22,P07,CTR,INI,S2S_Unconstrained,1,L_LES,FM,M1,0.01426327113895023
BMu22,P07,CTR,INI,S2S_Unconstrained,1,L_LES,FM,M2,0.01672576768098994
BMu22,P07,CTR,INI,S2S_Unconstrained,1,L_LES,FM,M3,0.014571118783612415
BMu22,P07,CTR,INI,S2S_Unconstrained,1,R_LES,FM,M1,0.01230153964957843
BMu22,P07,CTR,INI,S2S_Unconstrained,1,R_LES,FM,M2,0.013105386564075993
BMu22,P07,CTR,INI,S2S_Unconstrained,1,R_LES,FM,M3,0.015195362272591908
BMu22,P07,CTR,REL,S2S_Unconstrained,1,L_LES,FM,M1,0.01723080288053191
BMu22,P07,CTR,REL,S2S_Unconstrained,1,L_LES,FM,M2,0.01834395422479324
BMu22,P07,CTR,REL,S2S_Unconstrained,1,L_LES,FM,M3,0.015207859030022636
BMu22,P07,CTR,REL,S2S_Unconstrained,1,R_LES,FM,M1,0.016121435055457236
BMu22,P07,CTR,REL,S2S_Unconstrained,1,R_LES,FM,M2,0.013782677969812791
BMu22,P07,CTR,REL,S2S_Unconstrained,1,R_LES,FM,M3,0.012588701570997198
BMu22,P08,CTR,INI,S2S_Unconstrained,1,L_LES,FM,M1,0.015093126390060711
BMu22,P08,CTR,INI,S2S_Unconstrained,1,L_LES,FM,M2,0.012135506382112199
BMu22,P08,CTR,INI,S2S_Unconstrained,1,L_LES,FM,M3,0.01385396336476283
BMu22,P08,CTR,INI,S2S_Unconstrained,1,L_LES,FM,M4,0.010679607792962394
BMu22,P08,CTR,INI,S2S_Unconstrained,1,R_LES,FM,M1,0.011000485315967062
BMu22,P08,CTR,INI,S2S_Unconstrained,1,R_LES,FM,M2,0.008934398266841132
BMu22,P08,CTR,INI,S2S_Unconstrained,1,R_LES,FM,M3,0.010317715559588587
BMu22,P08,CTR,INI,S2S_Unconstrained,1,R_LES,FM,M4,0.007455549193925044
BMu22,P08,CTR,REL,S2S_Unconstrained,1,L_LES,FM,M1,
BMu22,P08,CTR,REL,S2S_Unconstrained,1,L_LES,FM,M2,0.01864861471121965
BMu22,P08,CTR,REL,S2S_Unconstrained,1,L_LES,FM,M3,0.016288551672330318
BMu22,P08,CTR,REL,S2S_Unconstrained,1,R_LES,FM,M1,
BMu22,P08,CTR,REL,S2S_Unconstrained,1,R_LES,FM,M2,0.010561578729174665
BMu22,P08,CTR,REL,S2S_Unconstrained,1,R_LES,FM,M3,0.008372572762390281
BMu22,P09,PAT,INI,S2S_Unconstrained,1,L_LES,FM,M1,0.008427881707155192
BMu22,P09,PAT,INI,S2S_Unconstrained,1,L_LES,FM,M2,0.009681793288222227
BMu22,P09,PAT,INI,S2S_Unconstrained,1,L_LES,FM,M3,0.010087395002734381
BMu22,P09,PAT,INI,S2S_Unconstrained,1,R_LES,FM,M1,0.008990786450401293
BMu22,P09,PAT,INI,S2S_Unconstrained,1,R_LES,FM,M2,0.00936229361167344
BMu22,P09,PAT,INI,S2S_Unconstrained,1,R_LES,FM,M3,0.009019432277140475
BMu22,P09,PAT,REL,S2S_Unconstrained,1,L_LES,FM,M1,0.012672539263757188
BMu22,P09,PAT,REL,S2S_Unconstrained,1,L_LES,FM,M2,0.015647503444411796
BMu22,P09,PAT,REL,S2S_Unconstrained,1,L_LES,FM,M3,0.014514938792109133
BMu22,P09,PAT,REL,S2S_Unconstrained,1,R_LES,FM,M1,0.009872118849687885
BMu22,P09,PAT,REL,S2S_Unconstrained,1,R_LES,FM,M2,0.014006714143109533
BMu22,P09,PAT,REL,S2S_Unconstrained,1,R_LES,FM,M3,0.011743978603706675
BMu22,P10,PAT,INI,S2S_Unconstrained,1,L_LES,FM,M1,0.0118139038863065
BMu22,P10,PAT,INI,S2S_Unconstrained,1,L_LES,FM,M2,0.009495064612140586
BMu22,P10,PAT,INI,S2S_Unconstrained,1,L_LES,FM,M3,0.0076393969078912775
BMu22,P10,PAT,INI,S2S_Unconstrained,1,R_LES,FM,M1,0.006530172932055326
BMu22,P10,PAT,INI,S2S_Unconstrained,1,R_LES,FM,M2,0.005042592880370419
BMu22,P10,PAT,INI,S2S_Unconstrained,1,R_LES,FM,M3,0.004328593283925035
BMu22,P10,PAT,REL,S2S_Unconstrained,1,L_LES,FM,M1,0.0067058231155878705
BMu22,P10,PAT,REL,S2S_Unconstrained,1,L_LES,FM,M2,0.004483412665271245
BMu22,P10,PAT,REL,S2S_Unconstrained,1,L_LES,FM,M3,
BMu22,P10,PAT,REL,S2S_Unconstrained,1,R_LES,FM,M1,0.005938296749126848
BMu22,P10,PAT,REL,S2S_Unconstrained,1,R_LES,FM,M2,0.006569616709300275
BMu22,P10,PAT,REL,S2S_Unconstrained,1,R_LES,FM,M3,0.005601344898336223
BMu22,P11,PAT,INI,S2S_Unconstrained,1,L_LES,FM,M1,0.00990547924784658
BMu22,P11,PAT,INI,S2S_Unconstrained,1,L_LES,FM,M2,0.007790218018707332
BMu22,P11,PAT,INI,S2S_Unconstrained,1,L_LES,FM,M3,0.00864039886313773
BMu22,P11,PAT,INI,S2S_Unconstrained,1,R_LES,FM,M1,0.007459935928334456
BMu22,P11,PAT,INI,S2S_Unconstrained,1,R_LES,FM,M2,0.005795167559377408
BMu22,P11,PAT,INI,S2S_Unconstrained,1,R_LES,FM,M3,0.004411013440150301
BMu22,P11,PAT,REL,S2S_Unconstrained,1,L_LES,FM,M1,0.009019266264459357
BMu22,P11,PAT,REL,S2S_Unconstrained,1,L_LES,FM,M2,0.011732283299626755
BMu22,P11,PAT,REL,S2S_Unconstrained,1,L_LES,FM,M3,0.007763770911849842
BMu22,P11,PAT,REL,S2S_Unconstrained,1,L_LES,FM,M4,0.008310950557492232
BMu22,P11,PAT,REL,S2S_Unconstrained,1,R_LES,FM,M1,0.0074198462910489435
BMu22,P11,PAT,REL,S2S_Unconstrained,1,R_LES,FM,M2,0.008230215314663466
BMu22,P11,PAT,REL,S2S_Unconstrained,1,R_LES,FM,M3,0.004746000333300814
BMu22,P11,PAT,REL,S2S_Unconstrained,1,R_LES,FM,M4,0.005608095117634343
BMu22,P12,PAT,INI,S2S_Unconstrained,1,L_LES,FM,M1,
BMu22,P12,PAT,INI,S2S_Unconstrained,1,L_LES,FM,M2,
BMu22,P12,PAT,INI,S2S_Unconstrained,1,L_LES,FM,M3,
BMu22,P12,PAT,INI,S2S_Unconstrained,1,R_LES,FM,M1,
BMu22,P12,PAT,INI,S2S_Unconstrained,1,R_LES,FM,M2,
BMu22,P12,PAT,INI,S2S_Unconstrained,1,R_LES,FM,M3,
BMu22,P12,PAT,REL,S2S_Unconstrained,1,L_LES,FM,M1,0.037021174527835154
BMu22,P12,PAT,REL,S2S_Unconstrained,1,L_LES,FM,M2,0.04468915307020176
BMu22,P12,PAT,REL,S2S_Unconstrained,1,L_LES,FM,M3,0.04175888659513111
BMu22,P12,PAT,REL,S2S_Unconstrained,1,R_LES,FM,M1,0.014976335874123402
BMu22,P12,PAT,REL,S2S_Unconstrained,1,R_LES,FM,M2,0.00934229845142976
BMu22,P12,PAT,REL,S2S_Unconstrained,1,R_LES,FM,M3,0.008642386060326628
BMu22,P13,CTR,INI,S2S_Unconstrained,1,L_LES,FM,M1,0.011260147842964694
BMu22,P13,CTR,INI,S2S_Unconstrained,1,L_LES,FM,M2,0.014342629986037421
BMu22,P13,CTR,INI,S2S_Unconstrained,1,L_LES,FM,M3,0.013025487935036986
BMu22,P13,CTR,INI,S2S_Unconstrained,1,L_LES,FM,M4,0.013666572088776656
BMu22,P13,CTR,INI,S2S_Unconstrained,1,R_LES,FM,M1,0.012738516544156921
BMu22,P13,CTR,INI,S2S_Unconstrained,1,R_LES,FM,M2,0.01470396092374459
BMu22,P13,CTR,INI,S2S_Unconstrained,1,R_LES,FM,M3,0.0131031032924101
BMu22,P13,CTR,INI,S2S_Unconstrained,1,R_LES,FM,M4,0.010049439079668527
BMu22,P13,CTR,REL,S2S_Unconstrained,1,L_LES,FM,M1,0.009531466253809026
BMu22,P13,CTR,REL,S2S_Unconstrained,1,L_LES,FM,M2,0.011214486342036728
BMu22,P13,CTR,REL,S2S_Unconstrained,1,L_LES,FM,M3,0.015540520491167708
BMu22,P13,CTR,REL,S2S_Unconstrained,1,R_LES,FM,M1,0.01130557095440213
BMu22,P13,CTR,REL,S2S_Unconstrained,1,R_LES,FM,M2,0.012207073366802991
BMu22,P13,CTR,REL,S2S_Unconstrained,1,R_LES,FM,M3,0.008947775983577865
BMu22,P14,PAT,INI,S2S_Unconstrained,1,L_LES,FM,M1,
BMu22,P14,PAT,INI,S2S_Unconstrained,1,L_LES,FM,M2,
BMu22,P14,PAT,INI,S2S_Unconstrained,1,L_LES,FM,M3,
BMu22,P14,PAT,INI,S2S_Unconstrained,1,R_LES,FM,M1,0.012198821623821542
BMu22,P14,PAT,INI,S2S_Unconstrained,1,R_LES,FM,M2,0.010554202996240252
BMu22,P14,PAT,INI,S2S_Unconstrained,1,R_LES,FM,M3,0.01267682229617875
BMu22,P14,PAT,REL,S2S_Unconstrained,1,L_LES,FM,M1,0.09152281753349613
BMu22,P14,PAT,REL,S2S_Unconstrained,1,L_LES,FM,M2,0.09357338230937497
BMu22,P14,PAT,REL,S2S_Unconstrained,1,L_LES,FM,M3,0.10980183963235227
BMu22,P14,PAT,REL,S2S_Unconstrained,1,R_LES,FM,M1,0.00951151247438413
BMu22,P14,PAT,REL,S2S_Unconstrained,1,R_LES,FM,M2,
BMu22,P14,PAT,REL,S2S_Unconstrained,1,R_LES,FM,M3,0.011594411599231339
BMu22,P16,CTR,INI,S2S_Unconstrained,1,L_LES,FM,M1,0.007742723853738578
BMu22,P16,CTR,INI,S2S_Unconstrained,1,L_LES,FM,M2,0.0067396093872434375
BMu22,P16,CTR,INI,S2S_Unconstrained,1,L_LES,FM,M3,0.008157516938543231
BMu22,P16,CTR,INI,S2S_Unconstrained,1,R_LES,FM,M1,0.005715034358899826
BMu22,P16,CTR,INI,S2S_Unconstrained,1,R_LES,FM,M2,0.004906079446697048
BMu22,P16,CTR,INI,S2S_Unconstrained,1,R_LES,FM,M3,0.007890567501760072
BMu22,P16,CTR,REL,S2S_Unconstrained,1,L_LES,FM,M1,
BMu22,P16,CTR,REL,S2S_Unconstrained,1,L_LES,FM,M2,
BMu22,P16,CTR,REL,S2S_Unconstrained,1,L_LES,FM,M3,0.006615326438376832
BMu22,P16,CTR,REL,S2S_Unconstrained,1,R_LES,FM,M1,
BMu22,P16,CTR,REL,S2S_Unconstrained,1,R_LES,FM,M2,
BMu22,P16,CTR,REL,S2S_Unconstrained,1,R_LES,FM,M3,0.005375751460592951
BMu22,P17,PAT,INI,S2S_Unconstrained,1,L_LES,FM,M1,0.010391980047895353
BMu22,P17,PAT,INI,S2S_Unconstrained,1,L_LES,FM,M2,0.013280403834847581
BMu22,P17,PAT,INI,S2S_Unconstrained,1,L_LES,FM,M3,0.01231799825872379
BMu22,P17,PAT,INI,S2S_Unconstrained,1,R_LES,FM,M1,0.010945058970284052
BMu22,P17,PAT,INI,S2S_Unconstrained,1,R_LES,FM,M2,0.011001252521801255
BMu22,P17,PAT,INI,S2S_Unconstrained,1,R_LES,FM,M3,0.011253464988182695
BMu22,P17,PAT,REL,S2S_Unconstrained,1,L_LES,FM,M1,0.009359495930771894
BMu22,P17,PAT,REL,S2S_Unconstrained,1,L_LES,FM,M2,0.012480252517821868
BMu22,P17,PAT,REL,S2S_Unconstrained,1,L_LES,FM,M3,0.011137918600741101
BMu22,P17,PAT,REL,S2S_Unconstrained,1,R_LES,FM,M1,
BMu22,P17,PAT,REL,S2S_Unconstrained,1,R_LES,FM,M2,
BMu22,P17,PAT,REL,S2S_Unconstrained,1,R_LES,FM,M3,
BMu22,P21,CTR,INI,S2S_Unconstrained,1,L_LES,FM,M1,0.01054018034944827
BMu22,P21,CTR,INI,S2S_Unconstrained,1,L_LES,FM,M2,0.014455142355524957
BMu22,P21,CTR,INI,S2S_Unconstrained,1,L_LES,FM,M3,0.009993587120184184
BMu22,P21,CTR,INI,S2S_Unconstrained,1,R_LES,FM,M1,0.012506993674117905
BMu22,P21,CTR,INI,S2S_Unconstrained,1,R_LES,FM,M2,0.009104333834289652
BMu22,P21,CTR,INI,S2S_Unconstrained,1,R_LES,FM,M3,0.014115998588218173
BMu22,P21,CTR,REL,S2S_Unconstrained,1,L_LES,FM,M1,0.02839724663065367
BMu22,P21,CTR,REL,S2S_Unconstrained,1,L_LES,FM,M2,0.016681693275509196
BMu22,P21,CTR,REL,S2S_Unconstrained,1,L_LES,FM,M3,0.03837239379182849
BMu22,P21,CTR,REL,S2S_Unconstrained,1,L_LES,FM,M4,0.059256645087228416
BMu22,P21,CTR,REL,S2S_Unconstrained,1,R_LES,FM,M1,0.011862437839457179
BMu22,P21,CTR,REL,S2S_Unconstrained,1,R_LES,FM,M2,0.01360000694018494
BMu22,P21,CTR,REL,S2S_Unconstrained,1,R_LES,FM,M3,0.010954738846790822
BMu22,P21,CTR,REL,S2S_Unconstrained,1,R_LES,FM,M4,0.006946044795891915
BMu22,P22,CTR,INI,S2S_Unconstrained,1,L_LES,FM,M1,0.016472414145402695
BMu22,P22,CTR,INI,S2S_Unconstrained,1,L_LES,FM,M2,0.013898647178825028
BMu22,P22,CTR,INI,S2S_Unconstrained,1,L_LES,FM,M3,0.012722575413184202
BMu22,P22,CTR,INI,S2S_Unconstrained,1,L_LES,FM,M4,0.011103865541570078
BMu22,P22,CTR,INI,S2S_Unconstrained,1,R_LES,FM,M1,0.013365663914917827
BMu22,P22,CTR,INI,S2S_Unconstrained,1,R_LES,FM,M2,0.014503191636739136
BMu22,P22,CTR,INI,S2S_Unconstrained,1,R_LES,FM,M3,0.012817922015359235
BMu22,P22,CTR,INI,S2S_Unconstrained,1,R_LES,FM,M4,0.011164292890017106
BMu22,P22,CTR,REL,S2S_Unconstrained,1,L_LES,FM,M1,0.009263217566837586
BMu22,P22,CTR,REL,S2S_Unconstrained,1,L_LES,FM,M2,0.00889304534389755
BMu22,P22,CTR,REL,S2S_Unconstrained,1,L_LES,FM,M3,0.00811937188114164
BMu22,P22,CTR,REL,S2S_Unconstrained,1,L_LES,FM,M4,0.008289346222589058
BMu22,P22,CTR,REL,S2S_Unconstrained,1,R_LES,FM,M1,0.00927397079675865
BMu22,P22,CTR,REL,S2S_Unconstrained,1,R_LES,FM,M2,0.01030010958843242
BMu22,P22,CTR,REL,S2S_Unconstrained,1,R_LES,FM,M3,0.011375977676927348
BMu22,P22,CTR,REL,S2S_Unconstrained,1,R_LES,FM,M4,0.009606786839923847
BMu22,P23,CTR,INI,S2S_Unconstrained,1,L_LES,FM,M1,0.007361717907082743
BMu22,P23,CTR,INI,S2S_Unconstrained,1,L_LES,FM,M2,0.008928895676417067
BMu22,P23,CTR,INI,S2S_Unconstrained,1,L_LES,FM,M3,0.007935580186936188
BMu22,P23,CTR,INI,S2S_Unconstrained,1,R_LES,FM,M1,0.00912737625121525
BMu22,P23,CTR,INI,S2S_Unconstrained,1,R_LES,FM,M2,0.008139697250881275
BMu22,P23,CTR,INI,S2S_Unconstrained,1,R_LES,FM,M3,0.010048971137542691
BMu22,P23,CTR,REL,S2S_Unconstrained,1,L_LES,FM,M1,0.0060334175221356
BMu22,P23,CTR,REL,S2S_Unconstrained,1,L_LES,FM,M2,0.0061558604103713515
BMu22,P23,CTR,REL,S2S_Unconstrained,1,L_LES,FM,M3,0.004755238825866656
BMu22,P23,CTR,REL,S2S_Unconstrained,1,R_LES,FM,M1,0.004939500609158754
BMu22,P23,CTR,REL,S2S_Unconstrained,1,R_LES,FM,M2,0.005299966015523336
BMu22,P23,CTR,REL,S2S_Unconstrained,1,R_LES,FM,M3,0.003933680113064307
BMu22,P24,PAT,INI,S2S_Unconstrained,1,L_LES,FM,M1,0.010398495436545299
BMu22,P24,PAT,INI,S2S_Unconstrained,1,L_LES,FM,M2,0.011745628708427592
BMu22,P24,PAT,INI,S2S_Unconstrained,1,L_LES,FM,M3,0.011021025590527204
BMu22,P24,PAT,INI,S2S_Unconstrained,1,R_LES,FM,M1,0.008785429486415714
BMu22,P24,PAT,INI,S2S_Unconstrained,1,R_LES,FM,M2,0.007938935147095386
BMu22,P24,PAT,INI,S2S_Unconstrained,1,R_LES,FM,M3,0.007129782702725954
BMu22,P24,PAT,REL,S2S_Unconstrained,1,L_LES,FM,M1,0.010512133663868417
BMu22,P24,PAT,REL,S2S_Unconstrained,1,L_LES,FM,M2,0.009231088767505932
BMu22,P24,PAT,REL,S2S_Unconstrained,1,L_LES,FM,M3,0.011336330216528724
BMu22,P24,PAT,REL,S2S_Unconstrained,1,R_LES,FM,M1,0.007593307110526063
BMu22,P24,PAT,REL,S2S_Unconstrained,1,R_LES,FM,M2,0.007315942767174976
BMu22,P24,PAT,REL,S2S_Unconstrained,1,R_LES,FM,M3,0.0067336735761044176
BMu22,P25,CTR,INI,S2S_Unconstrained,1,L_LES,FM,M1,0.02015322627155822
BMu22,P25,CTR,INI,S2S_Unconstrained,1,L_LES,FM,M2,
BMu22,P25,CTR,INI,S2S_Unconstrained,1,L_LES,FM,M3,0.02229253568302849
BMu22,P25,CTR,INI,S2S_Unconstrained,1,R_LES,FM,M1,0.012844173159396729
BMu22,P25,CTR,INI,S2S_Unconstrained,1,R_LES,FM,M2,
BMu22,P25,CTR,INI,S2S_Unconstrained,1,R_LES,FM,M3,0.014845618781720473
BMu22,P25,CTR,REL,S2S_Unconstrained,1,L_LES,FM,M1,
BMu22,P25,CTR,REL,S2S_Unconstrained,1,L_LES,FM,M2,
BMu22,P25,CTR,REL,S2S_Unconstrained,1,L_LES,FM,M3,
BMu22,P25,CTR,REL,S2S_Unconstrained,1,R_LES,FM,M1,
BMu22,P25,CTR,REL,S2S_Unconstrained,1,R_LES,FM,M2,
BMu22,P25,CTR,REL,S2S_Unconstrained,1,R_LES,FM,M3,
BMu22,P26,PAT,INI,S2S_Unconstrained,1,L_LES,FM,M1,0.019657236776005012
BMu22,P26,PAT,INI,S2S_Unconstrained,1,L_LES,FM,M2,0.012512792702885042
BMu22,P26,PAT,INI,S2S_Unconstrained,1,L_LES,FM,M3,0.01144816504666479
BMu22,P26,PAT,INI,S2S_Unconstrained,1,R_LES,FM,M1,0.010107788241085682
BMu22,P26,PAT,INI,S2S_Unconstrained,1,R_LES,FM,M2,0.012815474417588991
BMu22,P26,PAT,INI,S2S_Unconstrained,1,R_LES,FM,M3,0.012081773366146433
BMu22,P26,PAT,REL,S2S_Unconstrained,1,L_LES,FM,M1,0.009488338459789018
BMu22,P26,PAT,REL,S2S_Unconstrained,1,L_LES,FM,M2,0.01054453425705206
BMu22,P26,PAT,REL,S2S_Unconstrained,1,L_LES,FM,M3,0.008341554256987788
BMu22,P26,PAT,REL,S2S_Unconstrained,1,R_LES,FM,M1,0.010131984100272363
BMu22,P26,PAT,REL,S2S_Unconstrained,1,R_LES,FM,M2,0.010832736223178286
BMu22,P26,PAT,REL,S2S_Unconstrained,1,R_LES,FM,M3,0.010978464921232948
BMu22,P27,PAT,INI,S2S_Unconstrained,1,L_LES,FM,M1,0.01632561754327071
BMu22,P27,PAT,INI,S2S_Unconstrained,1,L_LES,FM,M2,0.018134784767367174
BMu22,P27,PAT,INI,S2S_Unconstrained,1,L_LES,FM,M3,0.020447815058428673
BMu22,P27,PAT,INI,S2S_Unconstrained,1,R_LES,FM,M1,0.012459351572339098
BMu22,P27,PAT,INI,S2S_Unconstrained,1,R_LES,FM,M2,0.011142006585214144
BMu22,P27,PAT,INI,S2S_Unconstrained,1,R_LES,FM,M3,0.015359831997198117
BMu22,P27,PAT,REL,S2S_Unconstrained,1,L_LES,FM,M1,0.016697596628811946
BMu22,P27,PAT,REL,S2S_Unconstrained,1,L_LES,FM,M2,0.019723559808087238
BMu22,P27,PAT,REL,S2S_Unconstrained,1,L_LES,FM,M3,0.017521371971128883
BMu22,P27,PAT,REL,S2S_Unconstrained,1,R_LES,FM,M1,0.012646511826735984
BMu22,P27,PAT,REL,S2S_Unconstrained,1,R_LES,FM,M2,0.012498145855656954
BMu22,P27,PAT,REL,S2S_Unconstrained,1,R_LES,FM,M3,0.010654116218939056
BMu22,P28,PAT,INI,S2S_Unconstrained,1,L_LES,FM,M1,0.007364510432799484
BMu22,P28,PAT,INI,S2S_Unconstrained,1,L_LES,FM,M2,0.007484589800981524
BMu22,P28,PAT,INI,S2S_Unconstrained,1,L_LES,FM,M3,0.006013957035838231
BMu22,P28,PAT,INI,S2S_Unconstrained,1,R_LES,FM,M1,
BMu22,P28,PAT,INI,S2S_Unconstrained,1,R_LES,FM,M2,
BMu22,P28,PAT,INI,S2S_Unconstrained,1,R_LES,FM,M3,0.006164317760519298
BMu22,P28,PAT,REL,S2S_Unconstrained,1,L_LES,FM,M1,0.008927773343514375
BMu22,P28,PAT,REL,S2S_Unconstrained,1,L_LES,FM,M2,0.00874520217851542
BMu22,P28,PAT,REL,S2S_Unconstrained,1,L_LES,FM,M3,0.007292381488361169
BMu22,P28,PAT,REL,S2S_Unconstrained,1,R_LES,FM,M1,0.006752581741616404
BMu22,P28,PAT,REL,S2S_Unconstrained,1,R_LES,FM,M2,0.00868497478362143
BMu22,P28,PAT,REL,S2S_Unconstrained,1,R_LES,FM,M3,0.005651956700063755
BMu22,P29,PAT,INI,S2S_Unconstrained,1,L_LES,FM,M1,0.02060642630739811
BMu22,P29,PAT,INI,S2S_Unconstrained,1,L_LES,FM,M2,0.02086772622168312
BMu22,P29,PAT,INI,S2S_Unconstrained,1,L_LES,FM,M3,0.019514575436554087
BMu22,P29,PAT,INI,S2S_Unconstrained,1,R_LES,FM,M1,0.02840138506404746
BMu22,P29,PAT,INI,S2S_Unconstrained,1,R_LES,FM,M2,0.031100499268793994
BMu22,P29,PAT,INI,S2S_Unconstrained,1,R_LES,FM,M3,0.019078502414594516
BMu22,P29,PAT,REL,S2S_Unconstrained,1,L_LES,FM,M1,0.02148605557964647
BMu22,P29,PAT,REL,S2S_Unconstrained,1,L_LES,FM,M2,0.018443527222853945
BMu22,P29,PAT,REL,S2S_Unconstrained,1,L_LES,FM,M3,0.014392243544934144
BMu22,P29,PAT,REL,S2S_Unconstrained,1,R_LES,FM,M1,0.025596679304668652
BMu22,P29,PAT,REL,S2S_Unconstrained,1,R_LES,FM,M2,0.022601570243633688
BMu22,P29,PAT,REL,S2S_Unconstrained,1,R_LES,FM,M3,0.019245025192791688
BMu22,P30,PAT,INI,S2S_Unconstrained,1,L_LES,FM,M1,0.010916709571658492
BMu22,P30,PAT,INI,S2S_Unconstrained,1,L_LES,FM,M2,0.007899330221874354
BMu22,P30,PAT,INI,S2S_Unconstrained,1,L_LES,FM,M3,0.008273996983287039
BMu22,P30,PAT,INI,S2S_Unconstrained,1,R_LES,FM,M1,0.004619956979737456
BMu22,P30,PAT,INI,S2S_Unconstrained,1,R_LES,FM,M2,0.003842531428948929
BMu22,P30,PAT,INI,S2S_Unconstrained,1,R_LES,FM,M3,0.0045843506712308175
BMu22,P30,PAT,REL,S2S_Unconstrained,1,L_LES,FM,M1,0.004983331759621409
BMu22,P30,PAT,REL,S2S_Unconstrained,1,L_LES,FM,M2,0.00468139337693996
BMu22,P30,PAT,REL,S2S_Unconstrained,1,L_LES,FM,M3,0.00538375872122575
BMu22,P30,PAT,REL,S2S_Unconstrained,1,R_LES,FM,M1,0.003553759477919471
BMu22,P30,PAT,REL,S2S_Unconstrained,1,R_LES,FM,M2,0.003603470931744907
BMu22,P30,PAT,REL,S2S_Unconstrained,1,R_LES,FM,M3,0.003209456817481556
BMu22,P32,PAT,INI,S2S_Unconstrained,1,L_LES,FM,M1,0.008485107619972058
BMu22,P32,PAT,INI,S2S_Unconstrained,1,L_LES,FM,M2,0.009241990424123181
BMu22,P32,PAT,INI,S2S_Unconstrained,1,L_LES,FM,M3,0.0089888720969353
BMu22,P32,PAT,INI,S2S_Unconstrained,1,L_LES,FM,M4,0.009675292387316528
BMu22,P32,PAT,INI,S2S_Unconstrained,1,R_LES,FM,M1,0.005686715335502384
BMu22,P32,PAT,INI,S2S_Unconstrained,1,R_LES,FM,M2,0.006057799184888137
BMu22,P32,PAT,INI,S2S_Unconstrained,1,R_LES,FM,M3,0.006376363498652032
BMu22,P32,PAT,INI,S2S_Unconstrained,1,R_LES,FM,M4,0.0068258032926823
BMu22,P32,PAT,REL,S2S_Unconstrained,1,L_LES,FM,M1,0.009831379792887743
BMu22,P32,PAT,REL,S2S_Unconstrained,1,L_LES,FM,M2,0.008827368344555326
BMu22,P32,PAT,REL,S2S_Unconstrained,1,L_LES,FM,M3,0.009103763201391758
BMu22,P32,PAT,REL,S2S_Unconstrained,1,R_LES,FM,M1,0.01056422102523693
BMu22,P32,PAT,REL,S2S_Unconstrained,1,R_LES,FM,M2,0.008256887690850232
BMu22,P32,PAT,REL,S2S_Unconstrained,1,R_LES,FM,M3,0.00992308591820146
BMu22,P33,PAT,INI,S2S_Unconstrained,1,L_LES,FM,M1,0.006361924121048912
BMu22,P33,PAT,INI,S2S_Unconstrained,1,L_LES,FM,M2,0.00621604587572538
BMu22,P33,PAT,INI,S2S_Unconstrained,1,L_LES,FM,M3,0.007361031669625192
BMu22,P33,PAT,INI,S2S_Unconstrained,1,R_LES,FM,M1,0.005735600355241813
BMu22,P33,PAT,INI,S2S_Unconstrained,1,R_LES,FM,M2,0.005300745732682199
BMu22,P33,PAT,INI,S2S_Unconstrained,1,R_LES,FM,M3,0.005642707076586425
BMu22,P33,PAT,REL,S2S_Unconstrained,1,L_LES,FM,M1,0.006956008885177868
BMu22,P33,PAT,REL,S2S_Unconstrained,1,L_LES,FM,M2,0.0054377819805517605
BMu22,P33,PAT,REL,S2S_Unconstrained,1,L_LES,FM,M3,0.005371056582217561
BMu22,P33,PAT,REL,S2S_Unconstrained,1,L_LES,FM,M4,0.005750591876865636
BMu22,P33,PAT,REL,S2S_Unconstrained,1,R_LES,FM,M1,0.006160934148979697
BMu22,P33,PAT,REL,S2S_Unconstrained,1,R_LES,FM,M2,0.00836895346623733
BMu22,P33,PAT,REL,S2S_Unconstrained,1,R_LES,FM,M3,0.007412681043385552
BMu22,P33,PAT,REL,S2S_Unconstrained,1,R_LES,FM,M4,0.005596840520111924
BMu22,P34,PAT,INI,S2S_Unconstrained,1,L_LES,FM,M1,0.017774985570064527
BMu22,P34,PAT,INI,S2S_Unconstrained,1,L_LES,FM,M2,0.01188191285118574
BMu22,P34,PAT,INI,S2S_Unconstrained,1,L_LES,FM,M3,
BMu22,P34,PAT,INI,S2S_Unconstrained,1,R_LES,FM,M1,0.012198104551560522
BMu22,P34,PAT,INI,S2S_Unconstrained,1,R_LES,FM,M2,0.012700952512377134
BMu22,P34,PAT,INI,S2S_Unconstrained,1,R_LES,FM,M3,
BMu22,P34,PAT,REL,S2S_Unconstrained,1,L_LES,FM,M1,0.01211645470019183
BMu22,P34,PAT,REL,S2S_Unconstrained,1,L_LES,FM,M2,0.014110542427306574
BMu22,P34,PAT,REL,S2S_Unconstrained,1,L_LES,FM,M3,0.009896173720236585
BMu22,P34,PAT,REL,S2S_Unconstrained,1,R_LES,FM,M1,0.012195893218120165
BMu22,P34,PAT,REL,S2S_Unconstrained,1,R_LES,FM,M2,0.012912963318060007
BMu22,P34,PAT,REL,S2S_Unconstrained,1,R_LES,FM,M3,0.010989914117308076
BMu22,P35,CTR,INI,S2S_Unconstrained,1,L_LES,FM,M1,
BMu22,P35,CTR,INI,S2S_Unconstrained,1,L_LES,FM,M2,
BMu22,P35,CTR,INI,S2S_Unconstrained,1,L_LES,FM,M3,
BMu22,P35,CTR,INI,S2S_Unconstrained,1,R_LES,FM,M1,
BMu22,P35,CTR,INI,S2S_Unconstrained,1,R_LES,FM,M2,
BMu22,P35,CTR,INI,S2S_Unconstrained,1,R_LES,FM,M3,
BMu22,P35,CTR,REL,S2S_Unconstrained,1,L_LES,FM,M1,0.015274816224016578
BMu22,P35,CTR,REL,S2S_Unconstrained,1,L_LES,FM,M2,0.013919224906003152
BMu22,P35,CTR,REL,S2S_Unconstrained,1,L_LES,FM,M3,0.010678101956628968
BMu22,P35,CTR,REL,S2S_Unconstrained,1,R_LES,FM,M1,0.015106648729643802
BMu22,P35,CTR,REL,S2S_Unconstrained,1,R_LES,FM,M2,0.013017736210475167
BMu22,P35,CTR,REL,S2S_Unconstrained,1,R_LES,FM,M3,0.010474055468317651
BMu22,P36,PAT,INI,S2S_Unconstrained,1,L_LES,FM,M1,0.01448441056102603
BMu22,P36,PAT,INI,S2S_Unconstrained,1,L_LES,FM,M2,0.016758183615717803
BMu22,P36,PAT,INI,S2S_Unconstrained,1,L_LES,FM,M3,0.013654638685673924
BMu22,P36,PAT,INI,S2S_Unconstrained,1,R_LES,FM,M1,0.021333119878631044
BMu22,P36,PAT,INI,S2S_Unconstrained,1,R_LES,FM,M2,0.018620256677231068
BMu22,P36,PAT,INI,S2S_Unconstrained,1,R_LES,FM,M3,0.017981579094736327
BMu22,P36,PAT,REL,S2S_Unconstrained,1,L_LES,FM,M1,0.016326597368816927
BMu22,P36,PAT,REL,S2S_Unconstrained,1,L_LES,FM,M2,0.017093215773005606
BMu22,P36,PAT,REL,S2S_Unconstrained,1,L_LES,FM,M3,0.01280253926157896
BMu22,P36,PAT,REL,S2S_Unconstrained,1,R_LES,FM,M1,0.034432980330003186
BMu22,P36,PAT,REL,S2S_Unconstrained,1,R_LES,FM,M2,0.03226998518286207
BMu22,P36,PAT,REL,S2S_Unconstrained,1,R_LES,FM,M3,
BMu22,P38,CTR,INI,S2S_Unconstrained,1,L_LES,FM,M1,0.20711405934900987
BMu22,P38,CTR,INI,S2S_Unconstrained,1,L_LES,FM,M2,0.17982040111318037
BMu22,P38,CTR,INI,S2S_Unconstrained,1,L_LES,FM,M3,0.08204291072099558
BMu22,P38,CTR,INI,S2S_Unconstrained,1,R_LES,FM,M1,0.03669153441672313
BMu22,P38,CTR,INI,S2S_Unconstrained,1,R_LES,FM,M2,0.05761824441353106
BMu22,P38,CTR,INI,S2S_Unconstrained,1,R_LES,FM,M3,0.038092117949857014
BMu22,P38,CTR,REL,S2S_Unconstrained,1,L_LES,FM,M1,0.021950589736936456
BMu22,P38,CTR,REL,S2S_Unconstrained,1,L_LES,FM,M2,0.01898008444383097
BMu22,P38,CTR,REL,S2S_Unconstrained,1,L_LES,FM,M3,0.01747752778864766
BMu22,P38,CTR,REL,S2S_Unconstrained,1,R_LES,FM,M1,0.013376049921445358
BMu22,P38,CTR,REL,S2S_Unconstrained,1,R_LES,FM,M2,0.012377813513296802
BMu22,P38,CTR,REL,S2S_Unconstrained,1,R_LES,FM,M3,
BMu22,P39,CTR,INI,S2S_Unconstrained,1,L_LES,FM,M1,0.007167729005420849
BMu22,P39,CTR,INI,S2S_Unconstrained,1,L_LES,FM,M2,0.007441844310089828
BMu22,P39,CTR,INI,S2S_Unconstrained,1,L_LES,FM,M3,0.006215325844232663
BMu22,P39,CTR,INI,S2S_Unconstrained,1,R_LES,FM,M1,0.005315853655381911
BMu22,P39,CTR,INI,S2S_Unconstrained,1,R_LES,FM,M2,0.005269779544651118
BMu22,P39,CTR,INI,S2S_Unconstrained,1,R_LES,FM,M3,0.005191336170723266
BMu22,P39,CTR,REL,S2S_Unconstrained,1,L_LES,FM,M1,0.006737566000812053
BMu22,P39,CTR,REL,S2S_Unconstrained,1,L_LES,FM,M2,0.006528009352331322
BMu22,P39,CTR,REL,S2S_Unconstrained,1,L_LES,FM,M3,0.005214894839069038
BMu22,P39,CTR,REL,S2S_Unconstrained,1,R_LES,FM,M1,0.007868596405926832
BMu22,P39,CTR,REL,S2S_Unconstrained,1,R_LES,FM,M2,0.007925055880624867
BMu22,P39,CTR,REL,S2S_Unconstrained,1,R_LES,FM,M3,0.008048080445686218
BMu22,P40,CTR,INI,S2S_Unconstrained,1,L_LES,FM,M1,
BMu22,P40,CTR,INI,S2S_Unconstrained,1,L_LES,FM,M2,0.014486126346699636
BMu22,P40,CTR,INI,S2S_Unconstrained,1,L_LES,FM,M3,
BMu22,P40,CTR,INI,S2S_Unconstrained,1,R_LES,FM,M1,0.02024775213947742
BMu22,P40,CTR,INI,S2S_Unconstrained,1,R_LES,FM,M2,0.018874501768294923
BMu22,P40,CTR,INI,S2S_Unconstrained,1,R_LES,FM,M3,
BMu22,P40,CTR,REL,S2S_Unconstrained,1,L_LES,FM,M1,0.012382965367918213
BMu22,P40,CTR,REL,S2S_Unconstrained,1,L_LES,FM,M2,
BMu22,P40,CTR,REL,S2S_Unconstrained,1,L_LES,FM,M3,0.013757239766581407
BMu22,P40,CTR,REL,S2S_Unconstrained,1,R_LES,FM,M1,0.022695772398161014
BMu22,P40,CTR,REL,S2S_Unconstrained,1,R_LES,FM,M2,0.02182135652870773
BMu22,P40,CTR,REL,S2S_Unconstrained,1,R_LES,FM,M3,
BMu22,P41,PAT,INI,S2S_Unconstrained,1,L_LES,FM,M1,0.02340108662640521
BMu22,P41,PAT,INI,S2S_Unconstrained,1,L_LES,FM,M2,0.02205163881561665
BMu22,P41,PAT,INI,S2S_Unconstrained,1,L_LES,FM,M3,0.017783930664719904
BMu22,P41,PAT,INI,S2S_Unconstrained,1,R_LES,FM,M1,0.029341836594491848
BMu22,P41,PAT,INI,S2S_Unconstrained,1,R_LES,FM,M2,0.029032139252853542
BMu22,P41,PAT,INI,S2S_Unconstrained,1,R_LES,FM,M3,0.0229257135334141
BMu22,P41,PAT,REL,S2S_Unconstrained,1,L_LES,FM,M1,0.02289867162874106
BMu22,P41,PAT,REL,S2S_Unconstrained,1,L_LES,FM,M2,0.022491524947518313
BMu22,P41,PAT,REL,S2S_Unconstrained,1,L_LES,FM,M3,0.01290122516983601
BMu22,P41,PAT,REL,S2S_Unconstrained,1,R_LES,FM,M1,0.022456622846268776
BMu22,P41,PAT,REL,S2S_Unconstrained,1,R_LES,FM,M2,0.022559192391864064
BMu22,P41,PAT,REL,S2S_Unconstrained,1,R_LES,FM,M3,0.015748188533783167
BMu22,P42,PAT,INI,S2S_Unconstrained,1,L_LES,FM,M1,0.017687710088105775
BMu22,P42,PAT,INI,S2S_Unconstrained,1,L_LES,FM,M2,0.014637974475605615
BMu22,P42,PAT,INI,S2S_Unconstrained,1,L_LES,FM,M3,0.014116476055368149
BMu22,P42,PAT,INI,S2S_Unconstrained,1,R_LES,FM,M1,0.018434253061822187
BMu22,P42,PAT,INI,S2S_Unconstrained,1,R_LES,FM,M2,
BMu22,P42,PAT,INI,S2S_Unconstrained,1,R_LES,FM,M3,0.016960916158420707
BMu22,P42,PAT,REL,S2S_Unconstrained,1,L_LES,FM,M1,0.020713208303859133
BMu22,P42,PAT,REL,S2S_Unconstrained,1,L_LES,FM,M2,0.01767672075197563
BMu22,P42,PAT,REL,S2S_Unconstrained,1,L_LES,FM,M3,
BMu22,P42,PAT,REL,S2S_Unconstrained,1,R_LES,FM,M1,0.028161737099391845
BMu22,P42,PAT,REL,S2S_Unconstrained,1,R_LES,FM,M2,0.026863653759364663
BMu22,P42,PAT,REL,S2S_Unconstrained,1,R_LES,FM,M3,0.023216176868676455
BMu22,P43,PAT,INI,S2S_Unconstrained,1,L_LES,FM,M1,0.011031666402247467
BMu22,P43,PAT,INI,S2S_Unconstrained,1,L_LES,FM,M2,0.011156220864936759
BMu22,P43,PAT,INI,S2S_Unconstrained,1,L_LES,FM,M3,0.008418026131758226
BMu22,P43,PAT,INI,S2S_Unconstrained,1,R_LES,FM,M1,0.009263852187620561
BMu22,P43,PAT,INI,S2S_Unconstrained,1,R_LES,FM,M2,0.010043971090309184
BMu22,P43,PAT,INI,S2S_Unconstrained,1,R_LES,FM,M3,0.007502569129236647
BMu22,P43,PAT,REL,S2S_Unconstrained,1,L_LES,FM,M1,0.012399402817984979
BMu22,P43,PAT,REL,S2S_Unconstrained,1,L_LES,FM,M2,0.015641896834894562
BMu22,P43,PAT,REL,S2S_Unconstrained,1,L_LES,FM,M3,0.01038840942829934
BMu22,P43,PAT,REL,S2S_Unconstrained,1,R_LES,FM,M1,0.015153559024054455
BMu22,P43,PAT,REL,S2S_Unconstrained,1,R_LES,FM,M2,0.01197741676458316
BMu22,P43,PAT,REL,S2S_Unconstrained,1,R_LES,FM,M3,0.008617081937838398
BMu22,P44,CTR,INI,S2S_Unconstrained,1,L_LES,FM,M1,
BMu22,P44,CTR,INI,S2S_Unconstrained,1,L_LES,FM,M2,
BMu22,P44,CTR,INI,S2S_Unconstrained,1,L_LES,FM,M3,
BMu22,P44,CTR,INI,S2S_Unconstrained,1,L_LES,FM,M4,
BMu22,P44,CTR,INI,S2S_Unconstrained,1,R_LES,FM,M1,0.02084472150271897
BMu22,P44,CTR,INI,S2S_Unconstrained,1,R_LES,FM,M2,
BMu22,P44,CTR,INI,S2S_Unconstrained,1,R_LES,FM,M3,0.033906129067085886
BMu22,P44,CTR,INI,S2S_Unconstrained,1,R_LES,FM,M4,
BMu22,P44,CTR,REL,S2S_Unconstrained,1,L_LES,FM,M1,0.008911836815972046
BMu22,P44,CTR,REL,S2S_Unconstrained,1,L_LES,FM,M2,0.013338594919140419
BMu22,P44,CTR,REL,S2S_Unconstrained,1,L_LES,FM,M3,0.011581193364813587
BMu22,P44,CTR,REL,S2S_Unconstrained,1,R_LES,FM,M1,0.02842788875644792
BMu22,P44,CTR,REL,S2S_Unconstrained,1,R_LES,FM,M2,0.027619921114990908
BMu22,P44,CTR,REL,S2S_Unconstrained,1,R_LES,FM,M3,0.022628447891376472
BMu22,P45,PAT,INI,S2S_Unconstrained,1,L_LES,FM,M1,
BMu22,P45,PAT,INI,S2S_Unconstrained,1,L_LES,FM,M2,
BMu22,P45,PAT,INI,S2S_Unconstrained,1,L_LES,FM,M3,
BMu22,P45,PAT,INI,S2S_Unconstrained,1,R_LES,FM,M1,
BMu22,P45,PAT,INI,S2S_Unconstrained,1,R_LES,FM,M2,
BMu22,P45,PAT,INI,S2S_Unconstrained,1,R_LES,FM,M3,
BMu22,P45,PAT,REL,S2S_Unconstrained,1,L_LES,FM,M1,0.008494463681338755
BMu22,P45,PAT,REL,S2S_Unconstrained,1,L_LES,FM,M2,0.008706717083787051
BMu22,P45,PAT,REL,S2S_Unconstrained,1,L_LES,FM,M3,
BMu22,P45,PAT,REL,S2S_Unconstrained,1,R_LES,FM,M1,
BMu22,P45,PAT,REL,S2S_Unconstrained,1,R_LES,FM,M2,
BMu22,P45,PAT,REL,S2S_Unconstrained,1,R_LES,FM,M3,
BMu22,P46,CTR,INI,S2S_Unconstrained,1,L_LES,FM,M1,0.015821874641882287
BMu22,P46,CTR,INI,S2S_Unconstrained,1,L_LES,FM,M2,0.017922466570824934
BMu22,P46,CTR,INI,S2S_Unconstrained,1,L_LES,FM,M3,0.012707576367808265
BMu22,P46,CTR,INI,S2S_Unconstrained,1,R_LES,FM,M1,0.01883797449033809
BMu22,P46,CTR,INI,S2S_Unconstrained,1,R_LES,FM,M2,0.012590649438858107
BMu22,P46,CTR,INI,S2S_Unconstrained,1,R_LES,FM,M3,0.017126236938493262
BMu22,P46,CTR,REL,S2S_Unconstrained,1,L_LES,FM,M1,0.016008319138371502
BMu22,P46,CTR,REL,S2S_Unconstrained,1,L_LES,FM,M2,0.013204066835874991
BMu22,P46,CTR,REL,S2S_Unconstrained,1,L_LES,FM,M3,0.009985934984349581
BMu22,P46,CTR,REL,S2S_Unconstrained,1,R_LES,FM,M1,0.009410789194095544
BMu22,P46,CTR,REL,S2S_Unconstrained,1,R_LES,FM,M2,0.011295990764247865
BMu22,P46,CTR,REL,S2S_Unconstrained,1,R_LES,FM,M3,0.008283274121766973
BMu22,P47,PAT,INI,S2S_Unconstrained,1,L_LES,FM,M1,0.010074739602886037
BMu22,P47,PAT,INI,S2S_Unconstrained,1,L_LES,FM,M2,0.011216128941471927
BMu22,P47,PAT,INI,S2S_Unconstrained,1,L_LES,FM,M3,0.0074000172977151425
BMu22,P47,PAT,INI,S2S_Unconstrained,1,R_LES,FM,M1,0.01144539750760794
BMu22,P47,PAT,INI,S2S_Unconstrained,1,R_LES,FM,M2,0.011937099938675281
BMu22,P47,PAT,INI,S2S_Unconstrained,1,R_LES,FM,M3,0.007839949435315007
BMu22,P47,PAT,REL,S2S_Unconstrained,1,L_LES,FM,M1,0.011636327077420563
BMu22,P47,PAT,REL,S2S_Unconstrained,1,L_LES,FM,M2,0.009933224534108597
BMu22,P47,PAT,REL,S2S_Unconstrained,1,L_LES,FM,M3,0.008505656142289167
BMu22,P47,PAT,REL,S2S_Unconstrained,1,R_LES,FM,M1,0.010741286275106093
BMu22,P47,PAT,REL,S2S_Unconstrained,1,R_LES,FM,M2,0.009554956665365722
BMu22,P47,PAT,REL,S2S_Unconstrained,1,R_LES,FM,M3,0.008700816884670965
BMu22,P48,CTR,INI,S2S_Unconstrained,1,L_LES,FM,M1,0.020732317917376855
BMu22,P48,CTR,INI,S2S_Unconstrained,1,L_LES,FM,M2,0.02630139091124817
BMu22,P48,CTR,INI,S2S_Unconstrained,1,L_LES,FM,M3,
BMu22,P48,CTR,INI,S2S_Unconstrained,1,R_LES,FM,M1,0.016788733965874648
BMu22,P48,CTR,INI,S2S_Unconstrained,1,R_LES,FM,M2,0.016305575479611627
BMu22,P48,CTR,INI,S2S_Unconstrained,1,R_LES,FM,M3,
BMu22,P48,CTR,REL,S2S_Unconstrained,1,L_LES,FM,M1,0.02110187126882602
BMu22,P48,CTR,REL,S2S_Unconstrained,1,L_LES,FM,M2,0.02184304966518019
BMu22,P48,CTR,REL,S2S_Unconstrained,1,L_LES,FM,M3,0.022789438754440235
BMu22,P48,CTR,REL,S2S_Unconstrained,1,R_LES,FM,M1,0.018014321034296676
BMu22,P48,CTR,REL,S2S_Unconstrained,1,R_LES,FM,M2,0.014505101434823024
BMu22,P48,CTR,REL,S2S_Unconstrained,1,R_LES,FM,M3,0.015037657399118167
BMu22,P49,CTR,INI,S2S_Unconstrained,1,L_LES,FM,M1,0.02612041675345624
BMu22,P49,CTR,INI,S2S_Unconstrained,1,L_LES,FM,M2,0.027628264114085675
BMu22,P49,CTR,INI,S2S_Unconstrained,1,L_LES,FM,M3,0.0242060671483978
BMu22,P49,CTR,INI,S2S_Unconstrained,1,R_LES,FM,M1,0.027086918893208776
BMu22,P49,CTR,INI,S2S_Unconstrained,1,R_LES,FM,M2,0.025891865526739555
BMu22,P49,CTR,INI,S2S_Unconstrained,1,R_LES,FM,M3,0.026153418970940596
BMu22,P49,CTR,REL,S2S_Unconstrained,1,L_LES,FM,M1,0.017085938936645832
BMu22,P49,CTR,REL,S2S_Unconstrained,1,L_LES,FM,M2,0.017223194691932155
BMu22,P49,CTR,REL,S2S_Unconstrained,1,L_LES,FM,M3,0.01190750487063997
BMu22,P49,CTR,REL,S2S_Unconstrained,1,R_LES,FM,M1,0.016863187630096855
BMu22,P49,CTR,REL,S2S_Unconstrained,1,R_LES,FM,M2,0.015094793742687934
BMu22,P49,CTR,REL,S2S_Unconstrained,1,R_LES,FM,M3,0.0150830990162996
BMu22,P50,PAT,INI,S2S_Unconstrained,1,L_LES,FM,M1,0.026757331477077376
BMu22,P50,PAT,INI,S2S_Unconstrained,1,L_LES,FM,M2,0.025509282696911224
BMu22,P50,PAT,INI,S2S_Unconstrained,1,L_LES,FM,M3,0.021478431600316192
BMu22,P50,PAT,INI,S2S_Unconstrained,1,R_LES,FM,M1,0.016439912680070435
BMu22,P50,PAT,INI,S2S_Unconstrained,1,R_LES,FM,M2,0.01656673389415214
BMu22,P50,PAT,INI,S2S_Unconstrained,1,R_LES,FM,M3,0.013642248502767197
BMu22,P50,PAT,REL,S2S_Unconstrained,1,L_LES,FM,M1,0.024908016954085305
BMu22,P50,PAT,REL,S2S_Unconstrained,1,L_LES,FM,M2,0.02434605557110888
BMu22,P50,PAT,REL,S2S_Unconstrained,1,L_LES,FM,M3,0.030391529416045244
BMu22,P50,PAT,REL,S2S_Unconstrained,1,R_LES,FM,M1,0.01736702595855201
BMu22,P50,PAT,REL,S2S_Unconstrained,1,R_LES,FM,M2,0.017133704425073035
BMu22,P50,PAT,REL,S2S_Unconstrained,1,R_LES,FM,M3,0.02194644019170062
BMu22,P51,PAT,INI,S2S_Unconstrained,1,L_LES,FM,M1,0.007663665226989427
BMu22,P51,PAT,INI,S2S_Unconstrained,1,L_LES,FM,M2,0.00882751673673029
BMu22,P51,PAT,INI,S2S_Unconstrained,1,L_LES,FM,M3,0.008164847654821542
BMu22,P51,PAT,INI,S2S_Unconstrained,1,R_LES,FM,M1,0.00583435737781742
BMu22,P51,PAT,INI,S2S_Unconstrained,1,R_LES,FM,M2,0.005167544698612328
BMu22,P51,PAT,INI,S2S_Unconstrained,1,R_LES,FM,M3,0.0047200420559184875
BMu22,P51,PAT,REL,S2S_Unconstrained,1,L_LES,FM,M1,0.00825399225124548
BMu22,P51,PAT,REL,S2S_Unconstrained,1,L_LES,FM,M2,0.009529337682927774
BMu22,P51,PAT,REL,S2S_Unconstrained,1,L_LES,FM,M3,0.010091707285817899
BMu22,P51,PAT,REL,S2S_Unconstrained,1,R_LES,FM,M1,0.0067630063282786285
BMu22,P51,PAT,REL,S2S_Unconstrained,1,R_LES,FM,M2,0.0072414978542977
BMu22,P51,PAT,REL,S2S_Unconstrained,1,R_LES,FM,M3,0.0059731212814207665
BMu22,P52,CTR,INI,S2S_Unconstrained,1,L_LES,FM,M1,0.011928576358149113
BMu22,P52,CTR,INI,S2S_Unconstrained,1,L_LES,FM,M2,0.011908525050505938
BMu22,P52,CTR,INI,S2S_Unconstrained,1,L_LES,FM,M3,0.011075482685581175
BMu22,P52,CTR,INI,S2S_Unconstrained,1,R_LES,FM,M1,0.009697689927383906
BMu22,P52,CTR,INI,S2S_Unconstrained,1,R_LES,FM,M2,0.012450432488685846
BMu22,P52,CTR,INI,S2S_Unconstrained,1,R_LES,FM,M3,0.010491070841287762
BMu22,P52,CTR,REL,S2S_Unconstrained,1,L_LES,FM,M1,0.010840270455556052
BMu22,P52,CTR,REL,S2S_Unconstrained,1,L_LES,FM,M2,0.012049782520450185
BMu22,P52,CTR,REL,S2S_Unconstrained,1,L_LES,FM,M3,0.009285840763411898
BMu22,P52,CTR,REL,S2S_Unconstrained,1,R_LES,FM,M1,0.010444411863104722
BMu22,P52,CTR,REL,S2S_Unconstrained,1,R_LES,FM,M2,0.011776847244000686
BMu22,P52,CTR,REL,S2S_Unconstrained,1,R_LES,FM,M3,0.009381193249259852
BMu22,P53,PAT,INI,S2S_Unconstrained,1,L_LES,FM,M1,0.010858851008715828
BMu22,P53,PAT,INI,S2S_Unconstrained,1,L_LES,FM,M2,0.009430838191348668
BMu22,P53,PAT,INI,S2S_Unconstrained,1,L_LES,FM,M3,0.009118375647654095
BMu22,P53,PAT,INI,S2S_Unconstrained,1,R_LES,FM,M1,0.008861851317033443
BMu22,P53,PAT,INI,S2S_Unconstrained,1,R_LES,FM,M2,0.009963874193611449
BMu22,P53,PAT,INI,S2S_Unconstrained,1,R_LES,FM,M3,0.00964320027498293
BMu22,P53,PAT,REL,S2S_Unconstrained,1,L_LES,FM,M1,0.012548805552941762
BMu22,P53,PAT,REL,S2S_Unconstrained,1,L_LES,FM,M2,0.012352964211328173
BMu22,P53,PAT,REL,S2S_Unconstrained,1,L_LES,FM,M3,0.011548511759815286
BMu22,P53,PAT,REL,S2S_Unconstrained,1,R_LES,FM,M1,0.010086680413149024
BMu22,P53,PAT,REL,S2S_Unconstrained,1,R_LES,FM,M2,0.009350402441214364
BMu22,P53,PAT,REL,S2S_Unconstrained,1,R_LES,FM,M3,0.011549015203774488
BMu22,P54,PAT,INI,S2S_Unconstrained,1,L_LES,FM,M1,0.024875029058159207
BMu22,P54,PAT,INI,S2S_Unconstrained,1,L_LES,FM,M2,0.024742884475614027
BMu22,P54,PAT,INI,S2S_Unconstrained,1,L_LES,FM,M3,0.025876043595687806
BMu22,P54,PAT,INI,S2S_Unconstrained,1,R_LES,FM,M1,0.01823024420754344
BMu22,P54,PAT,INI,S2S_Unconstrained,1,R_LES,FM,M2,0.020292754061753224
BMu22,P54,PAT,INI,S2S_Unconstrained,1,R_LES,FM,M3,0.017529300272275047
BMu22,P54,PAT,REL,S2S_Unconstrained,1,L_LES,FM,M1,0.017251622272080772
BMu22,P54,PAT,REL,S2S_Unconstrained,1,L_LES,FM,M2,0.018818212310894384
BMu22,P54,PAT,REL,S2S_Unconstrained,1,L_LES,FM,M3,0.013460071521435668
BMu22,P54,PAT,REL,S2S_Unconstrained,1,R_LES,FM,M1,0.013125596005833814
BMu22,P54,PAT,REL,S2S_Unconstrained,1,R_LES,FM,M2,0.01345580906609719
BMu22,P54,PAT,REL,S2S_Unconstrained,1,R_LES,FM,M3,0.01197371413221893
BMu22,P55,CTR,INI,S2S_Unconstrained,1,L_LES,FM,M1,0.011820545349142592
BMu22,P55,CTR,INI,S2S_Unconstrained,1,L_LES,FM,M2,0.00892018852884433
BMu22,P55,CTR,INI,S2S_Unconstrained,1,L_LES,FM,M3,0.00747105202503294
BMu22,P55,CTR,INI,S2S_Unconstrained,1,R_LES,FM,M1,0.0057988748100166404
BMu22,P55,CTR,INI,S2S_Unconstrained,1,R_LES,FM,M2,0.005493076817813217
BMu22,P55,CTR,INI,S2S_Unconstrained,1,R_LES,FM,M3,0.00508232501343712
BMu22,P55,CTR,REL,S2S_Unconstrained,1,L_LES,FM,M1,0.008969866693240893
BMu22,P55,CTR,REL,S2S_Unconstrained,1,L_LES,FM,M2,0.013567895164809005
BMu22,P55,CTR,REL,S2S_Unconstrained,1,L_LES,FM,M3,0.008758073214437018
BMu22,P55,CTR,REL,S2S_Unconstrained,1,R_LES,FM,M1,0.01184134952447606
BMu22,P55,CTR,REL,S2S_Unconstrained,1,R_LES,FM,M2,0.011635366760571548
BMu22,P55,CTR,REL,S2S_Unconstrained,1,R_LES,FM,M3,0.010301639413220744
BMu22,P56,CTR,INI,S2S_Unconstrained,1,L_LES,FM,M1,0.010378105787405098
BMu22,P56,CTR,INI,S2S_Unconstrained,1,L_LES,FM,M2,0.012547563917386213
BMu22,P56,CTR,INI,S2S_Unconstrained,1,L_LES,FM,M3,0.010233976819888333
BMu22,P56,CTR,INI,S2S_Unconstrained,1,R_LES,FM,M1,0.010284543706529595
BMu22,P56,CTR,INI,S2S_Unconstrained,1,R_LES,FM,M2,0.01007396049199272
BMu22,P56,CTR,INI,S2S_Unconstrained,1,R_LES,FM,M3,0.012625078956585337
BMu22,P56,CTR,REL,S2S_Unconstrained,1,L_LES,FM,M1,0.010325234564278581
BMu22,P56,CTR,REL,S2S_Unconstrained,1,L_LES,FM,M2,0.010997882169520417
BMu22,P56,CTR,REL,S2S_Unconstrained,1,L_LES,FM,M3,0.009981413100075297
BMu22,P56,CTR,REL,S2S_Unconstrained,1,R_LES,FM,M1,0.006855165820737234
BMu22,P56,CTR,REL,S2S_Unconstrained,1,R_LES,FM,M2,0.007382958823664962
BMu22,P56,CTR,REL,S2S_Unconstrained,1,R_LES,FM,M3,0.006592104937521216
BMu22,P57,CTR,INI,S2S_Unconstrained,1,L_LES,FM,M1,0.027255278928155696
BMu22,P57,CTR,INI,S2S_Unconstrained,1,L_LES,FM,M2,0.012967572414847708
BMu22,P57,CTR,INI,S2S_Unconstrained,1,L_LES,FM,M3,0.05094723771662995
BMu22,P57,CTR,INI,S2S_Unconstrained,1,L_LES,FM,M4,0.05501499452579594
BMu22,P57,CTR,INI,S2S_Unconstrained,1,R_LES,FM,M1,0.004720735015079907
BMu22,P57,CTR,INI,S2S_Unconstrained,1,R_LES,FM,M2,0.003228702975719605
BMu22,P57,CTR,INI,S2S_Unconstrained,1,R_LES,FM,M3,0.00357258122685348
BMu22,P57,CTR,INI,S2S_Unconstrained,1,R_LES,FM,M4,0.0029574104223429516
BMu22,P57,CTR,REL,S2S_Unconstrained,1,L_LES,FM,M1,0.006342601041037208
BMu22,P57,CTR,REL,S2S_Unconstrained,1,L_LES,FM,M2,0.018252589313393172
BMu22,P57,CTR,REL,S2S_Unconstrained,1,L_LES,FM,M3,0.014654973467193147
BMu22,P57,CTR,REL,S2S_Unconstrained,1,R_LES,FM,M1,0.0036003360709984766
BMu22,P57,CTR,REL,S2S_Unconstrained,1,R_LES,FM,M2,0.005471357095471564
BMu22,P57,CTR,REL,S2S_Unconstrained,1,R_LES,FM,M3,0.003578634157945183
BMu22,P58,PAT,INI,S2S_Unconstrained,1,L_LES,FM,M1,0.0046276292869487584
BMu22,P58,PAT,INI,S2S_Unconstrained,1,L_LES,FM,M2,0.004494586739967402
BMu22,P58,PAT,INI,S2S_Unconstrained,1,L_LES,FM,M3,0.00435277495872411
BMu22,P58,PAT,INI,S2S_Unconstrained,1,L_LES,FM,M4,0.004282294017667029
BMu22,P58,PAT,INI,S2S_Unconstrained,1,R_LES,FM,M1,0.005092841133039719
BMu22,P58,PAT,INI,S2S_Unconstrained,1,R_LES,FM,M2,0.005144004462915239
BMu22,P58,PAT,INI,S2S_Unconstrained,1,R_LES,FM,M3,0.0042366781811642
BMu22,P58,PAT,INI,S2S_Unconstrained,1,R_LES,FM,M4,0.004366037800938131
BMu22,P58,PAT,REL,S2S_Unconstrained,1,L_LES,FM,M1,0.03495295104249566
BMu22,P58,PAT,REL,S2S_Unconstrained,1,L_LES,FM,M2,0.06855942963368634
BMu22,P58,PAT,REL,S2S_Unconstrained,1,L_LES,FM,M3,0.05989196486184139
BMu22,P58,PAT,REL,S2S_Unconstrained,1,R_LES,FM,M1,0.006816597466509929
BMu22,P58,PAT,REL,S2S_Unconstrained,1,R_LES,FM,M2,0.006661714697317143
BMu22,P58,PAT,REL,S2S_Unconstrained,1,R_LES,FM,M3,0.006397136915285692
BMu22,P60,CTR,INI,S2S_Unconstrained,1,L_LES,FM,M1,0.005247531274955446
BMu22,P60,CTR,INI,S2S_Unconstrained,1,L_LES,FM,M2,0.008900702202234457
BMu22,P60,CTR,INI,S2S_Unconstrained,1,L_LES,FM,M3,0.008389834517445724
BMu22,P60,CTR,INI,S2S_Unconstrained,1,R_LES,FM,M1,0.005935107984236487
BMu22,P60,CTR,INI,S2S_Unconstrained,1,R_LES,FM,M2,0.0051795175120144445
BMu22,P60,CTR,INI,S2S_Unconstrained,1,R_LES,FM,M3,0.005386227924048566
BMu22,P60,CTR,REL,S2S_Unconstrained,1,L_LES,FM,M1,0.015655929469981088
BMu22,P60,CTR,REL,S2S_Unconstrained,1,L_LES,FM,M2,
BMu22,P60,CTR,REL,S2S_Unconstrained,1,L_LES,FM,M3,
BMu22,P60,CTR,REL,S2S_Unconstrained,1,R_LES,FM,M1,0.008428141536151776
BMu22,P60,CTR,REL,S2S_Unconstrained,1,R_LES,FM,M2,0.0065301963497565035
BMu22,P60,CTR,REL,S2S_Unconstrained,1,R_LES,FM,M3,
BMu22,P61,PAT,INI,S2S_Unconstrained,1,L_LES,FM,M1,0.03140722920316997
BMu22,P61,PAT,INI,S2S_Unconstrained,1,L_LES,FM,M2,0.03737810591679472
BMu22,P61,PAT,INI,S2S_Unconstrained,1,L_LES,FM,M3,0.03804395892774416
BMu22,P61,PAT,INI,S2S_Unconstrained,1,R_LES,FM,M1,0.012249522332520142
BMu22,P61,PAT,INI,S2S_Unconstrained,1,R_LES,FM,M2,0.013274300692627456
BMu22,P61,PAT,INI,S2S_Unconstrained,1,R_LES,FM,M3,0.012188124675315253
BMu22,P61,PAT,REL,S2S_Unconstrained,1,L_LES,FM,M1,0.0362820470673694
BMu22,P61,PAT,REL,S2S_Unconstrained,1,L_LES,FM,M2,0.03466805226902436
BMu22,P61,PAT,REL,S2S_Unconstrained,1,L_LES,FM,M3,0.037982235284287
BMu22,P61,PAT,REL,S2S_Unconstrained,1,L_LES,FM,M4,0.04119504774525367
BMu22,P61,PAT,REL,S2S_Unconstrained,1,R_LES,FM,M1,0.011213040228279974
BMu22,P61,PAT,REL,S2S_Unconstrained,1,R_LES,FM,M2,0.015170509246753562
BMu22,P61,PAT,REL,S2S_Unconstrained,1,R_LES,FM,M3,0.015212911148591246
BMu22,P61,PAT,REL,S2S_Unconstrained,1,R_LES,FM,M4,0.01596716591467111
BMu22,P62,PAT,INI,S2S_Unconstrained,1,L_LES,FM,M1,0.010859888079872943
BMu22,P62,PAT,INI,S2S_Unconstrained,1,L_LES,FM,M2,0.011181815255064556
BMu22,P62,PAT,INI,S2S_Unconstrained,1,L_LES,FM,M3,0.008254371506832328
BMu22,P62,PAT,INI,S2S_Unconstrained,1,R_LES,FM,M1,0.004961534127765958
BMu22,P62,PAT,INI,S2S_Unconstrained,1,R_LES,FM,M2,0.0044602169592971265
BMu22,P62,PAT,INI,S2S_Unconstrained,1,R_LES,FM,M3,0.004195739922216745
BMu22,P62,PAT,REL,S2S_Unconstrained,1,L_LES,FM,M1,0.0102927226038102
BMu22,P62,PAT,REL,S2S_Unconstrained,1,L_LES,FM,M2,0.006705388276175995
BMu22,P62,PAT,REL,S2S_Unconstrained,1,L_LES,FM,M3,0.007864740388953932
BMu22,P62,PAT,REL,S2S_Unconstrained,1,R_LES,FM,M1,0.007679521410621897
BMu22,P62,PAT,REL,S2S_Unconstrained,1,R_LES,FM,M2,0.006219189146752394
BMu22,P62,PAT,REL,S2S_Unconstrained,1,R_LES,FM,M3,0.006406757531019991
BMu22,P63,PAT,INI,S2S_Unconstrained,1,L_LES,FM,M1,
BMu22,P63,PAT,INI,S2S_Unconstrained,1,L_LES,FM,M2,
BMu22,P63,PAT,INI,S2S_Unconstrained,1,L_LES,FM,M3,
BMu22,P63,PAT,INI,S2S_Unconstrained,1,R_LES,FM,M1,
BMu22,P63,PAT,INI,S2S_Unconstrained,1,R_LES,FM,M2,
BMu22,P63,PAT,INI,S2S_Unconstrained,1,R_LES,FM,M3,
BMu22,P63,PAT,REL,S2S_Unconstrained,1,L_LES,FM,M1,0.014042877165763983
BMu22,P63,PAT,REL,S2S_Unconstrained,1,L_LES,FM,M2,0.015039479857358413
BMu22,P63,PAT,REL,S2S_Unconstrained,1,L_LES,FM,M3,0.01497710526093901
BMu22,P63,PAT,REL,S2S_Unconstrained,1,R_LES,FM,M1,0.010028399084326869
BMu22,P63,PAT,REL,S2S_Unconstrained,1,R_LES,FM,M2,0.008951610697038153
BMu22,P63,PAT,REL,S2S_Unconstrained,1,R_LES,FM,M3,0.0096394144461794
BMu22,P64,CTR,INI,S2S_Unconstrained,1,L_LES,FM,M1,0.011248137820422282
BMu22,P64,CTR,INI,S2S_Unconstrained,1,L_LES,FM,M2,0.01025025380760089
BMu22,P64,CTR,INI,S2S_Unconstrained,1,L_LES,FM,M3,0.010384512149281827
BMu22,P64,CTR,INI,S2S_Unconstrained,1,R_LES,FM,M1,0.01595223484495411
BMu22,P64,CTR,INI,S2S_Unconstrained,1,R_LES,FM,M2,0.015818661758697044
BMu22,P64,CTR,INI,S2S_Unconstrained,1,R_LES,FM,M3,0.017221704478434553
BMu22,P64,CTR,REL,S2S_Unconstrained,1,L_LES,FM,M1,0.011922007576890253
BMu22,P64,CTR,REL,S2S_Unconstrained,1,L_LES,FM,M2,0.010646519671976943
BMu22,P64,CTR,REL,S2S_Unconstrained,1,L_LES,FM,M3,0.008737657159357726
BMu22,P64,CTR,REL,S2S_Unconstrained,1,R_LES,FM,M1,0.01972132249428623
BMu22,P64,CTR,REL,S2S_Unconstrained,1,R_LES,FM,M2,0.017057268146319363
BMu22,P64,CTR,REL,S2S_Unconstrained,1,R_LES,FM,M3,0.01476015323674385
BMu22,P65,PAT,INI,S2S_Unconstrained,1,L_LES,FM,M1,0.02143874271709191
BMu22,P65,PAT,INI,S2S_Unconstrained,1,L_LES,FM,M2,0.022215424839238974
BMu22,P65,PAT,INI,S2S_Unconstrained,1,L_LES,FM,M3,0.024083747685047882
BMu22,P65,PAT,INI,S2S_Unconstrained,1,R_LES,FM,M1,0.01669676192774475
BMu22,P65,PAT,INI,S2S_Unconstrained,1,R_LES,FM,M2,0.016868233437508047
BMu22,P65,PAT,INI,S2S_Unconstrained,1,R_LES,FM,M3,0.013874758918954885
BMu22,P65,PAT,REL,S2S_Unconstrained,1,L_LES,FM,M1,0.018576589623144773
BMu22,P65,PAT,REL,S2S_Unconstrained,1,L_LES,FM,M2,0.019049330842969243
BMu22,P65,PAT,REL,S2S_Unconstrained,1,L_LES,FM,M3,0.01894805518458021
BMu22,P65,PAT,REL,S2S_Unconstrained,1,R_LES,FM,M1,0.016551167322538664
BMu22,P65,PAT,REL,S2S_Unconstrained,1,R_LES,FM,M2,0.015925390570928212
BMu22,P65,PAT,REL,S2S_Unconstrained,1,R_LES,FM,M3,0.016786640086686455
BMu22,P66,CTR,INI,S2S_Unconstrained,1,L_LES,FM,M1,0.017393013018026503
BMu22,P66,CTR,INI,S2S_Unconstrained,1,L_LES,FM,M2,0.019405146166547135
BMu22,P66,CTR,INI,S2S_Unconstrained,1,L_LES,FM,M3,0.01547017798201238
BMu22,P66,CTR,INI,S2S_Unconstrained,1,R_LES,FM,M1,0.010243217834474506
BMu22,P66,CTR,INI,S2S_Unconstrained,1,R_LES,FM,M2,0.011624268617959095
BMu22,P66,CTR,INI,S2S_Unconstrained,1,R_LES,FM,M3,0.00977354365038837
BMu22,P66,CTR,REL,S2S_Unconstrained,1,L_LES,FM,M1,0.01373125082456797
BMu22,P66,CTR,REL,S2S_Unconstrained,1,L_LES,FM,M2,0.01421081707013766
BMu22,P66,CTR,REL,S2S_Unconstrained,1,L_LES,FM,M3,0.0121944585307187
BMu22,P66,CTR,REL,S2S_Unconstrained,1,R_LES,FM,M1,0.011992904174321303
BMu22,P66,CTR,REL,S2S_Unconstrained,1,R_LES,FM,M2,0.009753418060490649
BMu22,P66,CTR,REL,S2S_Unconstrained,1,R_LES,FM,M3,0.010303859211081935
BMu22,P67,CTR,INI,S2S_Unconstrained,1,L_LES,FM,M1,0.015088283443661041
BMu22,P67,CTR,INI,S2S_Unconstrained,1,L_LES,FM,M2,0.015107537001507484
BMu22,P67,CTR,INI,S2S_Unconstrained,1,L_LES,FM,M3,0.013560134726641849
BMu22,P67,CTR,INI,S2S_Unconstrained,1,R_LES,FM,M1,0.030656200019499546
BMu22,P67,CTR,INI,S2S_Unconstrained,1,R_LES,FM,M2,0.025153413973033452
BMu22,P67,CTR,INI,S2S_Unconstrained,1,R_LES,FM,M3,0.030024733973319104
BMu22,P67,CTR,REL,S2S_Unconstrained,1,L_LES,FM,M1,0.012508133567194414
BMu22,P67,CTR,REL,S2S_Unconstrained,1,L_LES,FM,M2,0.014329370629825445
BMu22,P67,CTR,REL,S2S_Unconstrained,1,L_LES,FM,M3,0.010807864109565005
BMu22,P67,CTR,REL,S2S_Unconstrained,1,R_LES,FM,M1,0.00954470940646191
BMu22,P67,CTR,REL,S2S_Unconstrained,1,R_LES,FM,M2,0.010570203808077334
BMu22,P67,CTR,REL,S2S_Unconstrained,1,R_LES,FM,M3,0.010307652693824589
BMu22,P68,CTR,INI,S2S_Unconstrained,1,L_LES,FM,M1,
BMu22,P68,CTR,INI,S2S_Unconstrained,1,L_LES,FM,M2,
BMu22,P68,CTR,INI,S2S_Unconstrained,1,L_LES,FM,M3,
BMu22,P68,CTR,INI,S2S_Unconstrained,1,R_LES,FM,M1,
BMu22,P68,CTR,INI,S2S_Unconstrained,1,R_LES,FM,M2,
BMu22,P68,CTR,INI,S2S_Unconstrained,1,R_LES,FM,M3,
BMu22,P68,CTR,REL,S2S_Unconstrained,1,L_LES,FM,M1,0.01393324854883647
BMu22,P68,CTR,REL,S2S_Unconstrained,1,L_LES,FM,M2,0.015567890159353715
BMu22,P68,CTR,REL,S2S_Unconstrained,1,L_LES,FM,M3,0.012657392452174777
BMu22,P68,CTR,REL,S2S_Unconstrained,1,R_LES,FM,M1,0.017211902759003007
BMu22,P68,CTR,REL,S2S_Unconstrained,1,R_LES,FM,M2,0.02239098068283962
BMu22,P68,CTR,REL,S2S_Unconstrained,1,R_LES,FM,M3,0.021852319675111493
