BMu,Participant,Group,Session,task,trials,channel,Operator,Measure,Value
BMu23,P01,CTR,INI,S2S_Unconstrained,1,L_ESI,FM,M1,0.0027372530139600426
BMu23,P01,CTR,INI,S2S_Unconstrained,1,L_ESI,FM,M2,0.003123541876598823
BMu23,P01,CTR,INI,S2S_Unconstrained,1,L_ESI,FM,M3,0.004103252796087791
BMu23,P01,CTR,INI,S2S_Unconstrained,1,R_ESI,FM,M1,
BMu23,P01,CTR,INI,S2S_Unconstrained,1,R_ESI,FM,M2,
BMu23,P01,CTR,INI,S2S_Unconstrained,1,R_ESI,FM,M3,
BMu23,P01,CTR,REL,S2S_Unconstrained,1,L_ESI,FM,M1,0.004490148581531593
BMu23,P01,CTR,REL,S2S_Unconstrained,1,L_ESI,FM,M2,0.003060834993085945
BMu23,P01,CTR,REL,S2S_Unconstrained,1,L_ESI,FM,M3,0.006191807257208642
BMu23,P01,CTR,REL,S2S_Unconstrained,1,R_ESI,FM,M1,0.013796487594432133
BMu23,P01,CTR,REL,S2S_Unconstrained,1,R_ESI,FM,M2,0.12642372893483725
BMu23,P01,CTR,REL,S2S_Unconstrained,1,R_ESI,FM,M3,0.05379030650441847
BMu23,P02,CTR,INI,S2S_Unconstrained,1,L_ESI,FM,M1,0.004096128339982848
BMu23,P02,CTR,INI,S2S_Unconstrained,1,L_ESI,FM,M2,0.004723988157013228
BMu23,P02,CTR,INI,S2S_Unconstrained,1,L_ESI,FM,M3,0.004462858512583522
BMu23,P02,CTR,INI,S2S_Unconstrained,1,R_ESI,FM,M1,0.002780296236132158
BMu23,P02,CTR,INI,S2S_Unconstrained,1,R_ESI,FM,M2,0.00252973660353394
BMu23,P02,CTR,INI,S2S_Unconstrained,1,R_ESI,FM,M3,0.006201989697704965
BMu23,P02,CTR,REL,S2S_Unconstrained,1,L_ESI,FM,M1,0.0033007857814551103
BMu23,P02,CTR,REL,S2S_Unconstrained,1,L_ESI,FM,M2,0.0030755468753078208
BMu23,P02,CTR,REL,S2S_Unconstrained,1,L_ESI,FM,M3,0.0027048029946493235
BMu23,P02,CTR,REL,S2S_Unconstrained,1,R_ESI,FM,M1,
BMu23,P02,CTR,REL,S2S_Unconstrained,1,R_ESI,FM,M2,
BMu23,P02,CTR,REL,S2S_Unconstrained,1,R_ESI,FM,M3,
BMu23,P03,CTR,INI,S2S_Unconstrained,1,L_ESI,FM,M1,0.0033294263665767034
BMu23,P03,CTR,INI,S2S_Unconstrained,1,L_ESI,FM,M2,0.002936893502246805
BMu23,P03,CTR,INI,S2S_Unconstrained,1,L_ESI,FM,M3,0.0028056820955212293
BMu23,P03,CTR,INI,S2S_Unconstrained,1,R_ESI,FM,M1,0.0024300632257189024
BMu23,P03,CTR,INI,S2S_Unconstrained,1,R_ESI,FM,M2,0.002494721032568524
BMu23,P03,CTR,INI,S2S_Unconstrained,1,R_ESI,FM,M3,0.0022826794611395225
BMu23,P03,CTR,REL,S2S_Unconstrained,1,L_ESI,FM,M1,0.003365537309654656
BMu23,P03,CTR,REL,S2S_Unconstrained,1,L_ESI,FM,M2,0.003385284847963407
BMu23,P03,CTR,REL,S2S_Unconstrained,1,L_ESI,FM,M3,0.003698831383591608
BMu23,P03,CTR,REL,S2S_Unconstrained,1,L_ESI,FM,M4,0.00335966194422563
BMu23,P03,CTR,REL,S2S_Unconstrained,1,R_ESI,FM,M1,0.0027854208903786513
BMu23,P03,CTR,REL,S2S_Unconstrained,1,R_ESI,FM,M2,0.0028935964703792863
BMu23,P03,CTR,REL,S2S_Unconstrained,1,R_ESI,FM,M3,0.0031324453805535446
BMu23,P03,CTR,REL,S2S_Unconstrained,1,R_ESI,FM,M4,0.0027581598248666347
BMu23,P05,CTR,INI,S2S_Unconstrained,1,L_ESI,FM,M1,
BMu23,P05,CTR,INI,S2S_Unconstrained,1,L_ESI,FM,M2,0.004185138609686984
BMu23,P05,CTR,INI,S2S_Unconstrained,1,L_ESI,FM,M3,0.004372493569763684
BMu23,P05,CTR,INI,S2S_Unconstrained,1,R_ESI,FM,M1,0.1332250512183304
BMu23,P05,CTR,INI,S2S_Unconstrained,1,R_ESI,FM,M2,0.16130808477776734
BMu23,P05,CTR,INI,S2S_Unconstrained,1,R_ESI,FM,M3,0.07691645618694379
BMu23,P05,CTR,REL,S2S_Unconstrained,1,L_ESI,FM,M1,0.002906322542335898
BMu23,P05,CTR,REL,S2S_Unconstrained,1,L_ESI,FM,M2,0.002748824604980203
BMu23,P05,CTR,REL,S2S_Unconstrained,1,L_ESI,FM,M3,0.004315999189723957
BMu23,P05,CTR,REL,S2S_Unconstrained,1,R_ESI,FM,M1,0.00271811165872511
BMu23,P05,CTR,REL,S2S_Unconstrained,1,R_ESI,FM,M2,0.0027864368912679533
BMu23,P05,CTR,REL,S2S_Unconstrained,1,R_ESI,FM,M3,0.004668123893069058
BMu23,P06,CTR,INI,S2S_Unconstrained,1,L_ESI,FM,M1,
BMu23,P06,CTR,INI,S2S_Unconstrained,1,L_ESI,FM,M2,
BMu23,P06,CTR,INI,S2S_Unconstrained,1,L_ESI,FM,M3,0.0017443998215208101
BMu23,P06,CTR,INI,S2S_Unconstrained,1,R_ESI,FM,M1,
BMu23,P06,CTR,INI,S2S_Unconstrained,1,R_ESI,FM,M2,
BMu23,P06,CTR,INI,S2S_Unconstrained,1,R_ESI,FM,M3,
BMu23,P06,CTR,REL,S2S_Unconstrained,1,L_ESI,FM,M1,
BMu23,P06,CTR,REL,S2S_Unconstrained,1,L_ESI,FM,M2,
BMu23,P06,CTR,REL,S2S_Unconstrained,1,L_ESI,FM,M3,
BMu23,P06,CTR,REL,S2S_Unconstrained,1,R_ESI,FM,M1,
BMu23,P06,CTR,REL,S2S_Unconstrained,1,R_ESI,FM,M2,
BMu23,P06,CTR,REL,S2S_Unconstrained,1,R_ESI,FM,M3,
BMu23,P07,CTR,INI,S2S_Unconstrained,1,L_ESI,FM,M1,0.004583073646223305
BMu23,P07,CTR,INI,S2S_Unconstrained,1,L_ESI,FM,M2,0.003665150033854549
BMu23,P07,CTR,INI,S2S_Unconstrained,1,L_ESI,FM,M3,0.004023805203791358
BMu23,P07,CTR,INI,S2S_Unconstrained,1,R_ESI,FM,M1,0.00319121621390018
BMu23,P07,CTR,INI,S2S_Unconstrained,1,R_ESI,FM,M2,0.0032567913720633625
BMu23,P07,CTR,INI,S2S_Unconstrained,1,R_ESI,FM,M3,0.0028724624319203915
BMu23,P07,CTR,REL,S2S_Unconstrained,1,L_ESI,FM,M1,0.0026927576646482224
BMu23,P07,CTR,REL,S2S_Unconstrained,1,L_ESI,FM,M2,0.0028961460248443996
BMu23,P07,CTR,REL,S2S_Unconstrained,1,L_ESI,FM,M3,0.002749724330345546
BMu23,P07,CTR,REL,S2S_Unconstrained,1,R_ESI,FM,M1,0.0028941950429210417
BMu23,P07,CTR,REL,S2S_Unconstrained,1,R_ESI,FM,M2,0.0026058722412543507
BMu23,P07,CTR,REL,S2S_Unconstrained,1,R_ESI,FM,M3,0.003294351718994531
BMu23,P08,CTR,INI,S2S_Unconstrained,1,L_ESI,FM,M1,0.00412760695103819
BMu23,P08,CTR,INI,S2S_Unconstrained,1,L_ESI,FM,M2,0.0037289504848708336
BMu23,P08,CTR,INI,S2S_Unconstrained,1,L_ESI,FM,M3,0.0036727552333807516
BMu23,P08,CTR,INI,S2S_Unconstrained,1,L_ESI,FM,M4,0.003993277773959218
BMu23,P08,CTR,INI,S2S_Unconstrained,1,R_ESI,FM,M1,
BMu23,P08,CTR,INI,S2S_Unconstrained,1,R_ESI,FM,M2,0.0033809796545746103
BMu23,P08,CTR,INI,S2S_Unconstrained,1,R_ESI,FM,M3,
BMu23,P08,CTR,INI,S2S_Unconstrained,1,R_ESI,FM,M4,
BMu23,P08,CTR,REL,S2S_Unconstrained,1,L_ESI,FM,M1,
BMu23,P08,CTR,REL,S2S_Unconstrained,1,L_ESI,FM,M2,0.004213991748161557
BMu23,P08,CTR,REL,S2S_Unconstrained,1,L_ESI,FM,M3,0.0035394002507812164
BMu23,P08,CTR,REL,S2S_Unconstrained,1,R_ESI,FM,M1,
BMu23,P08,CTR,REL,S2S_Unconstrained,1,R_ESI,FM,M2,
BMu23,P08,CTR,REL,S2S_Unconstrained,1,R_ESI,FM,M3,0.0029800278719003272
BMu23,P09,PAT,INI,S2S_Unconstrained,1,L_ESI,FM,M1,0.0033124384694567526
BMu23,P09,PAT,INI,S2S_Unconstrained,1,L_ESI,FM,M2,0.0027310588421865013
BMu23,P09,PAT,INI,S2S_Unconstrained,1,L_ESI,FM,M3,0.0034331674493545414
BMu23,P09,PAT,INI,S2S_Unconstrained,1,R_ESI,FM,M1,
BMu23,P09,PAT,INI,S2S_Unconstrained,1,R_ESI,FM,M2,0.002518806385501385
BMu23,P09,PAT,INI,S2S_Unconstrained,1,R_ESI,FM,M3,0.0019349137252011987
BMu23,P09,PAT,REL,S2S_Unconstrained,1,L_ESI,FM,M1,0.003008995890648101
BMu23,P09,PAT,REL,S2S_Unconstrained,1,L_ESI,FM,M2,0.003165408212389482
BMu23,P09,PAT,REL,S2S_Unconstrained,1,L_ESI,FM,M3,0.002892767743647065
BMu23,P09,PAT,REL,S2S_Unconstrained,1,R_ESI,FM,M1,0.002207963002338857
BMu23,P09,PAT,REL,S2S_Unconstrained,1,R_ESI,FM,M2,0.0021292297502182554
BMu23,P09,PAT,REL,S2S_Unconstrained,1,R_ESI,FM,M3,0.0020627456408105847
BMu23,P10,PAT,INI,S2S_Unconstrained,1,L_ESI,FM,M1,0.006702729373804529
BMu23,P10,PAT,INI,S2S_Unconstrained,1,L_ESI,FM,M2,0.006898052266625468
BMu23,P10,PAT,INI,S2S_Unconstrained,1,L_ESI,FM,M3,0.004729218079835816
BMu23,P10,PAT,INI,S2S_Unconstrained,1,R_ESI,FM,M1,0.003996410467631761
BMu23,P10,PAT,INI,S2S_Unconstrained,1,R_ESI,FM,M2,0.0032874727503030624
BMu23,P10,PAT,INI,S2S_Unconstrained,1,R_ESI,FM,M3,0.0033355393116588114
BMu23,P10,PAT,REL,S2S_Unconstrained,1,L_ESI,FM,M1,0.0030748135600073565
BMu23,P10,PAT,REL,S2S_Unconstrained,1,L_ESI,FM,M2,0.003226084900844935
BMu23,P10,PAT,REL,S2S_Unconstrained,1,L_ESI,FM,M3,0.0027603399063042657
BMu23,P10,PAT,REL,S2S_Unconstrained,1,R_ESI,FM,M1,0.10751325454700036
BMu23,P10,PAT,REL,S2S_Unconstrained,1,R_ESI,FM,M2,0.0511458806786446
BMu23,P10,PAT,REL,S2S_Unconstrained,1,R_ESI,FM,M3,0.04884637865496821
BMu23,P11,PAT,INI,S2S_Unconstrained,1,L_ESI,FM,M1,
BMu23,P11,PAT,INI,S2S_Unconstrained,1,L_ESI,FM,M2,0.0024800120628354653
BMu23,P11,PAT,INI,S2S_Unconstrained,1,L_ESI,FM,M3,0.002184486056211021
BMu23,P11,PAT,INI,S2S_Unconstrained,1,R_ESI,FM,M1,0.00225794546007577
BMu23,P11,PAT,INI,S2S_Unconstrained,1,R_ESI,FM,M2,0.0025649258965030983
BMu23,P11,PAT,INI,S2S_Unconstrained,1,R_ESI,FM,M3,0.001929340293400317
BMu23,P11,PAT,REL,S2S_Unconstrained,1,L_ESI,FM,M1,0.0028534289310011064
BMu23,P11,PAT,REL,S2S_Unconstrained,1,L_ESI,FM,M2,0.00284745343803896
BMu23,P11,PAT,REL,S2S_Unconstrained,1,L_ESI,FM,M3,0.003001780376381101
BMu23,P11,PAT,REL,S2S_Unconstrained,1,L_ESI,FM,M4,0.0035736176578688946
BMu23,P11,PAT,REL,S2S_Unconstrained,1,R_ESI,FM,M1,0.002814803276465162
BMu23,P11,PAT,REL,S2S_Unconstrained,1,R_ESI,FM,M2,0.0019027105228204483
BMu23,P11,PAT,REL,S2S_Unconstrained,1,R_ESI,FM,M3,0.002671475658994678
BMu23,P11,PAT,REL,S2S_Unconstrained,1,R_ESI,FM,M4,0.0022205362796840237
BMu23,P12,PAT,INI,S2S_Unconstrained,1,L_ESI,FM,M1,
BMu23,P12,PAT,INI,S2S_Unconstrained,1,L_ESI,FM,M2,
BMu23,P12,PAT,INI,S2S_Unconstrained,1,L_ESI,FM,M3,
BMu23,P12,PAT,INI,S2S_Unconstrained,1,R_ESI,FM,M1,
BMu23,P12,PAT,INI,S2S_Unconstrained,1,R_ESI,FM,M2,
BMu23,P12,PAT,INI,S2S_Unconstrained,1,R_ESI,FM,M3,
BMu23,P12,PAT,REL,S2S_Unconstrained,1,L_ESI,FM,M1,0.0019419887213765307
BMu23,P12,PAT,REL,S2S_Unconstrained,1,L_ESI,FM,M2,
BMu23,P12,PAT,REL,S2S_Unconstrained,1,L_ESI,FM,M3,0.0017316638283613724
BMu23,P12,PAT,REL,S2S_Unconstrained,1,R_ESI,FM,M1,0.0022567171830944633
BMu23,P12,PAT,REL,S2S_Unconstrained,1,R_ESI,FM,M2,0.0019268401725485126
BMu23,P12,PAT,REL,S2S_Unconstrained,1,R_ESI,FM,M3,0.002369460947038107
BMu23,P13,CTR,INI,S2S_Unconstrained,1,L_ESI,FM,M1,0.003058230026819865
BMu23,P13,CTR,INI,S2S_Unconstrained,1,L_ESI,FM,M2,0.0038268362703478744
BMu23,P13,CTR,INI,S2S_Unconstrained,1,L_ESI,FM,M3,0.003049034380581242
BMu23,P13,CTR,INI,S2S_Unconstrained,1,L_ESI,FM,M4,0.003930799191764327
BMu23,P13,CTR,INI,S2S_Unconstrained,1,R_ESI,FM,M1,0.004076839345683393
BMu23,P13,CTR,INI,S2S_Unconstrained,1,R_ESI,FM,M2,0.005506630100307042
BMu23,P13,CTR,INI,S2S_Unconstrained,1,R_ESI,FM,M3,0.003410167564971272
BMu23,P13,CTR,INI,S2S_Unconstrained,1,R_ESI,FM,M4,0.004571948907757161
BMu23,P13,CTR,REL,S2S_Unconstrained,1,L_ESI,FM,M1,0.00286443282127014
BMu23,P13,CTR,REL,S2S_Unconstrained,1,L_ESI,FM,M2,0.002684718297652915
BMu23,P13,CTR,REL,S2S_Unconstrained,1,L_ESI,FM,M3,0.002260961394378975
BMu23,P13,CTR,REL,S2S_Unconstrained,1,R_ESI,FM,M1,0.0028467482898202226
BMu23,P13,CTR,REL,S2S_Unconstrained,1,R_ESI,FM,M2,
BMu23,P13,CTR,REL,S2S_Unconstrained,1,R_ESI,FM,M3,0.0023111824618860365
BMu23,P14,PAT,INI,S2S_Unconstrained,1,L_ESI,FM,M1,0.0035400485692702894
BMu23,P14,PAT,INI,S2S_Unconstrained,1,L_ESI,FM,M2,0.004002317298523383
BMu23,P14,PAT,INI,S2S_Unconstrained,1,L_ESI,FM,M3,0.003406514671624456
BMu23,P14,PAT,INI,S2S_Unconstrained,1,R_ESI,FM,M1,0.015374978107895497
BMu23,P14,PAT,INI,S2S_Unconstrained,1,R_ESI,FM,M2,0.006801495019434796
BMu23,P14,PAT,INI,S2S_Unconstrained,1,R_ESI,FM,M3,
BMu23,P14,PAT,REL,S2S_Unconstrained,1,L_ESI,FM,M1,0.003973943054478823
BMu23,P14,PAT,REL,S2S_Unconstrained,1,L_ESI,FM,M2,0.002763154836002996
BMu23,P14,PAT,REL,S2S_Unconstrained,1,L_ESI,FM,M3,0.0022730627724732106
BMu23,P14,PAT,REL,S2S_Unconstrained,1,R_ESI,FM,M1,0.002540686915902871
BMu23,P14,PAT,REL,S2S_Unconstrained,1,R_ESI,FM,M2,0.0021461142200042698
BMu23,P14,PAT,REL,S2S_Unconstrained,1,R_ESI,FM,M3,
BMu23,P16,CTR,INI,S2S_Unconstrained,1,L_ESI,FM,M1,0.0022844597935502814
BMu23,P16,CTR,INI,S2S_Unconstrained,1,L_ESI,FM,M2,0.002209345471996591
BMu23,P16,CTR,INI,S2S_Unconstrained,1,L_ESI,FM,M3,0.001923437337262624
BMu23,P16,CTR,INI,S2S_Unconstrained,1,R_ESI,FM,M1,
BMu23,P16,CTR,INI,S2S_Unconstrained,1,R_ESI,FM,M2,
BMu23,P16,CTR,INI,S2S_Unconstrained,1,R_ESI,FM,M3,0.0030727719480671332
BMu23,P16,CTR,REL,S2S_Unconstrained,1,L_ESI,FM,M1,
BMu23,P16,CTR,REL,S2S_Unconstrained,1,L_ESI,FM,M2,
BMu23,P16,CTR,REL,S2S_Unconstrained,1,L_ESI,FM,M3,0.005095256186003789
BMu23,P16,CTR,REL,S2S_Unconstrained,1,R_ESI,FM,M1,
BMu23,P16,CTR,REL,S2S_Unconstrained,1,R_ESI,FM,M2,0.0022155711068205636
BMu23,P16,CTR,REL,S2S_Unconstrained,1,R_ESI,FM,M3,0.003656874665203355
BMu23,P17,PAT,INI,S2S_Unconstrained,1,L_ESI,FM,M1,0.0034056621933491907
BMu23,P17,PAT,INI,S2S_Unconstrained,1,L_ESI,FM,M2,0.006616376738353789
BMu23,P17,PAT,INI,S2S_Unconstrained,1,L_ESI,FM,M3,0.0067872731035162675
BMu23,P17,PAT,INI,S2S_Unconstrained,1,R_ESI,FM,M1,0.03752996473146983
BMu23,P17,PAT,INI,S2S_Unconstrained,1,R_ESI,FM,M2,0.09753031518109054
BMu23,P17,PAT,INI,S2S_Unconstrained,1,R_ESI,FM,M3,0.06371882049452474
BMu23,P17,PAT,REL,S2S_Unconstrained,1,L_ESI,FM,M1,0.0025798866567703404
BMu23,P17,PAT,REL,S2S_Unconstrained,1,L_ESI,FM,M2,0.0024583836163342906
BMu23,P17,PAT,REL,S2S_Unconstrained,1,L_ESI,FM,M3,0.002389571646502741
BMu23,P17,PAT,REL,S2S_Unconstrained,1,R_ESI,FM,M1,0.0025386545440762415
BMu23,P17,PAT,REL,S2S_Unconstrained,1,R_ESI,FM,M2,0.002813082112592758
BMu23,P17,PAT,REL,S2S_Unconstrained,1,R_ESI,FM,M3,0.002950073068257192
BMu23,P21,CTR,INI,S2S_Unconstrained,1,L_ESI,FM,M1,0.0024200499744119197
BMu23,P21,CTR,INI,S2S_Unconstrained,1,L_ESI,FM,M2,0.0025316044040848197
BMu23,P21,CTR,INI,S2S_Unconstrained,1,L_ESI,FM,M3,0.0023547715304298596
BMu23,P21,CTR,INI,S2S_Unconstrained,1,R_ESI,FM,M1,
BMu23,P21,CTR,INI,S2S_Unconstrained,1,R_ESI,FM,M2,
BMu23,P21,CTR,INI,S2S_Unconstrained,1,R_ESI,FM,M3,
BMu23,P21,CTR,REL,S2S_Unconstrained,1,L_ESI,FM,M1,0.00434584123561634
BMu23,P21,CTR,REL,S2S_Unconstrained,1,L_ESI,FM,M2,0.006294607658285924
BMu23,P21,CTR,REL,S2S_Unconstrained,1,L_ESI,FM,M3,0.006550381233589081
BMu23,P21,CTR,REL,S2S_Unconstrained,1,L_ESI,FM,M4,0.0074255193341127195
BMu23,P21,CTR,REL,S2S_Unconstrained,1,R_ESI,FM,M1,
BMu23,P21,CTR,REL,S2S_Unconstrained,1,R_ESI,FM,M2,
BMu23,P21,CTR,REL,S2S_Unconstrained,1,R_ESI,FM,M3,
BMu23,P21,CTR,REL,S2S_Unconstrained,1,R_ESI,FM,M4,
BMu23,P22,CTR,INI,S2S_Unconstrained,1,L_ESI,FM,M1,0.004051585954653374
BMu23,P22,CTR,INI,S2S_Unconstrained,1,L_ESI,FM,M2,0.0028142586344572316
BMu23,P22,CTR,INI,S2S_Unconstrained,1,L_ESI,FM,M3,0.0037371293913864767
BMu23,P22,CTR,INI,S2S_Unconstrained,1,L_ESI,FM,M4,0.0029398232685537195
BMu23,P22,CTR,INI,S2S_Unconstrained,1,R_ESI,FM,M1,0.0029260953866594892
BMu23,P22,CTR,INI,S2S_Unconstrained,1,R_ESI,FM,M2,0.0023076058840742425
BMu23,P22,CTR,INI,S2S_Unconstrained,1,R_ESI,FM,M3,0.0024117308559987983
BMu23,P22,CTR,INI,S2S_Unconstrained,1,R_ESI,FM,M4,0.002213093706766251
BMu23,P22,CTR,REL,S2S_Unconstrained,1,L_ESI,FM,M1,0.0024427225989050645
BMu23,P22,CTR,REL,S2S_Unconstrained,1,L_ESI,FM,M2,0.0024929453668275365
BMu23,P22,CTR,REL,S2S_Unconstrained,1,L_ESI,FM,M3,0.0023099178826079475
BMu23,P22,CTR,REL,S2S_Unconstrained,1,L_ESI,FM,M4,0.002475137292200825
BMu23,P22,CTR,REL,S2S_Unconstrained,1,R_ESI,FM,M1,
BMu23,P22,CTR,REL,S2S_Unconstrained,1,R_ESI,FM,M2,
BMu23,P22,CTR,REL,S2S_Unconstrained,1,R_ESI,FM,M3,
BMu23,P22,CTR,REL,S2S_Unconstrained,1,R_ESI,FM,M4,
BMu23,P23,CTR,INI,S2S_Unconstrained,1,L_ESI,FM,M1,0.0023716808417521976
BMu23,P23,CTR,INI,S2S_Unconstrained,1,L_ESI,FM,M2,0.0022845815795889753
BMu23,P23,CTR,INI,S2S_Unconstrained,1,L_ESI,FM,M3,0.002013276915050275
BMu23,P23,CTR,INI,S2S_Unconstrained,1,R_ESI,FM,M1,0.0027813765349527144
BMu23,P23,CTR,INI,S2S_Unconstrained,1,R_ESI,FM,M2,0.0027042222847682047
BMu23,P23,CTR,INI,S2S_Unconstrained,1,R_ESI,FM,M3,0.002307694584912543
BMu23,P23,CTR,REL,S2S_Unconstrained,1,L_ESI,FM,M1,0.003976373895771539
BMu23,P23,CTR,REL,S2S_Unconstrained,1,L_ESI,FM,M2,0.0037909195292318114
BMu23,P23,CTR,REL,S2S_Unconstrained,1,L_ESI,FM,M3,0.0032726142591041796
BMu23,P23,CTR,REL,S2S_Unconstrained,1,R_ESI,FM,M1,0.0026100868783944346
BMu23,P23,CTR,REL,S2S_Unconstrained,1,R_ESI,FM,M2,0.0029037991706435005
BMu23,P23,CTR,REL,S2S_Unconstrained,1,R_ESI,FM,M3,0.002239211317057976
BMu23,P24,PAT,INI,S2S_Unconstrained,1,L_ESI,FM,M1,0.00416781079118732
BMu23,P24,PAT,INI,S2S_Unconstrained,1,L_ESI,FM,M2,0.004082254879177831
BMu23,P24,PAT,INI,S2S_Unconstrained,1,L_ESI,FM,M3,0.004489857416447702
BMu23,P24,PAT,INI,S2S_Unconstrained,1,R_ESI,FM,M1,
BMu23,P24,PAT,INI,S2S_Unconstrained,1,R_ESI,FM,M2,
BMu23,P24,PAT,INI,S2S_Unconstrained,1,R_ESI,FM,M3,
BMu23,P24,PAT,REL,S2S_Unconstrained,1,L_ESI,FM,M1,0.0028531541142048198
BMu23,P24,PAT,REL,S2S_Unconstrained,1,L_ESI,FM,M2,0.003017291918835096
BMu23,P24,PAT,REL,S2S_Unconstrained,1,L_ESI,FM,M3,0.002662802162088925
BMu23,P24,PAT,REL,S2S_Unconstrained,1,R_ESI,FM,M1,
BMu23,P24,PAT,REL,S2S_Unconstrained,1,R_ESI,FM,M2,
BMu23,P24,PAT,REL,S2S_Unconstrained,1,R_ESI,FM,M3,
BMu23,P25,CTR,INI,S2S_Unconstrained,1,L_ESI,FM,M1,0.008784105729682109
BMu23,P25,CTR,INI,S2S_Unconstrained,1,L_ESI,FM,M2,0.006704202508091972
BMu23,P25,CTR,INI,S2S_Unconstrained,1,L_ESI,FM,M3,0.009039702874557862
BMu23,P25,CTR,INI,S2S_Unconstrained,1,R_ESI,FM,M1,0.00494411406967081
BMu23,P25,CTR,INI,S2S_Unconstrained,1,R_ESI,FM,M2,
BMu23,P25,CTR,INI,S2S_Unconstrained,1,R_ESI,FM,M3,
BMu23,P25,CTR,REL,S2S_Unconstrained,1,L_ESI,FM,M1,0.0033181129867225975
BMu23,P25,CTR,REL,S2S_Unconstrained,1,L_ESI,FM,M2,0.0073418886973940604
BMu23,P25,CTR,REL,S2S_Unconstrained,1,L_ESI,FM,M3,0.00946269615756676
BMu23,P25,CTR,REL,S2S_Unconstrained,1,R_ESI,FM,M1,0.0027311271264273845
BMu23,P25,CTR,REL,S2S_Unconstrained,1,R_ESI,FM,M2,0.0019310480158046526
BMu23,P25,CTR,REL,S2S_Unconstrained,1,R_ESI,FM,M3,0.0023093727954597745
BMu23,P26,PAT,INI,S2S_Unconstrained,1,L_ESI,FM,M1,0.015719445296107307
BMu23,P26,PAT,INI,S2S_Unconstrained,1,L_ESI,FM,M2,0.008159654103629087
BMu23,P26,PAT,INI,S2S_Unconstrained,1,L_ESI,FM,M3,0.005816898357663644
BMu23,P26,PAT,INI,S2S_Unconstrained,1,R_ESI,FM,M1,0.004994441577063477
BMu23,P26,PAT,INI,S2S_Unconstrained,1,R_ESI,FM,M2,0.0051531143691066735
BMu23,P26,PAT,INI,S2S_Unconstrained,1,R_ESI,FM,M3,0.0038507331086608033
BMu23,P26,PAT,REL,S2S_Unconstrained,1,L_ESI,FM,M1,0.005522089898775471
BMu23,P26,PAT,REL,S2S_Unconstrained,1,L_ESI,FM,M2,0.008846632166116222
BMu23,P26,PAT,REL,S2S_Unconstrained,1,L_ESI,FM,M3,0.005911326828443762
BMu23,P26,PAT,REL,S2S_Unconstrained,1,R_ESI,FM,M1,0.055863071626013144
BMu23,P26,PAT,REL,S2S_Unconstrained,1,R_ESI,FM,M2,0.0818796933750424
BMu23,P26,PAT,REL,S2S_Unconstrained,1,R_ESI,FM,M3,0.01389841227699891
BMu23,P27,PAT,INI,S2S_Unconstrained,1,L_ESI,FM,M1,0.003917146693781861
BMu23,P27,PAT,INI,S2S_Unconstrained,1,L_ESI,FM,M2,0.0038841329055588304
BMu23,P27,PAT,INI,S2S_Unconstrained,1,L_ESI,FM,M3,0.0032856915843859314
BMu23,P27,PAT,INI,S2S_Unconstrained,1,R_ESI,FM,M1,0.0033133956965358236
BMu23,P27,PAT,INI,S2S_Unconstrained,1,R_ESI,FM,M2,0.00299738598983224
BMu23,P27,PAT,INI,S2S_Unconstrained,1,R_ESI,FM,M3,0.00246285192250375
BMu23,P27,PAT,REL,S2S_Unconstrained,1,L_ESI,FM,M1,0.0033317302217291834
BMu23,P27,PAT,REL,S2S_Unconstrained,1,L_ESI,FM,M2,0.003432763751108738
BMu23,P27,PAT,REL,S2S_Unconstrained,1,L_ESI,FM,M3,0.002956590716934087
BMu23,P27,PAT,REL,S2S_Unconstrained,1,R_ESI,FM,M1,0.002995383905928406
BMu23,P27,PAT,REL,S2S_Unconstrained,1,R_ESI,FM,M2,0.0032092189116881744
BMu23,P27,PAT,REL,S2S_Unconstrained,1,R_ESI,FM,M3,0.0025792620139911786
BMu23,P28,PAT,INI,S2S_Unconstrained,1,L_ESI,FM,M1,0.002606409332035872
BMu23,P28,PAT,INI,S2S_Unconstrained,1,L_ESI,FM,M2,0.0028307519460817458
BMu23,P28,PAT,INI,S2S_Unconstrained,1,L_ESI,FM,M3,0.002392512897150057
BMu23,P28,PAT,INI,S2S_Unconstrained,1,R_ESI,FM,M1,
BMu23,P28,PAT,INI,S2S_Unconstrained,1,R_ESI,FM,M2,0.003619347060399336
BMu23,P28,PAT,INI,S2S_Unconstrained,1,R_ESI,FM,M3,0.00299116905182532
BMu23,P28,PAT,REL,S2S_Unconstrained,1,L_ESI,FM,M1,0.0035511385946527933
BMu23,P28,PAT,REL,S2S_Unconstrained,1,L_ESI,FM,M2,0.003179325972560792
BMu23,P28,PAT,REL,S2S_Unconstrained,1,L_ESI,FM,M3,0.004513529977792599
BMu23,P28,PAT,REL,S2S_Unconstrained,1,R_ESI,FM,M1,0.002657150023268811
BMu23,P28,PAT,REL,S2S_Unconstrained,1,R_ESI,FM,M2,0.003263143813864014
BMu23,P28,PAT,REL,S2S_Unconstrained,1,R_ESI,FM,M3,0.003008197661749166
BMu23,P29,PAT,INI,S2S_Unconstrained,1,L_ESI,FM,M1,0.01700357231353503
BMu23,P29,PAT,INI,S2S_Unconstrained,1,L_ESI,FM,M2,0.015706658700732037
BMu23,P29,PAT,INI,S2S_Unconstrained,1,L_ESI,FM,M3,0.013913958809265109
BMu23,P29,PAT,INI,S2S_Unconstrained,1,R_ESI,FM,M1,0.008202538146682203
BMu23,P29,PAT,INI,S2S_Unconstrained,1,R_ESI,FM,M2,0.008183966757430518
BMu23,P29,PAT,INI,S2S_Unconstrained,1,R_ESI,FM,M3,0.008121975101794951
BMu23,P29,PAT,REL,S2S_Unconstrained,1,L_ESI,FM,M1,0.023749597416945826
BMu23,P29,PAT,REL,S2S_Unconstrained,1,L_ESI,FM,M2,0.017976968161416813
BMu23,P29,PAT,REL,S2S_Unconstrained,1,L_ESI,FM,M3,0.013631979576289763
BMu23,P29,PAT,REL,S2S_Unconstrained,1,R_ESI,FM,M1,0.007253306016473462
BMu23,P29,PAT,REL,S2S_Unconstrained,1,R_ESI,FM,M2,0.008203867671393309
BMu23,P29,PAT,REL,S2S_Unconstrained,1,R_ESI,FM,M3,0.009116941797342046
BMu23,P30,PAT,INI,S2S_Unconstrained,1,L_ESI,FM,M1,0.002517409025390126
BMu23,P30,PAT,INI,S2S_Unconstrained,1,L_ESI,FM,M2,0.0021990168656437323
BMu23,P30,PAT,INI,S2S_Unconstrained,1,L_ESI,FM,M3,0.0019450988213217655
BMu23,P30,PAT,INI,S2S_Unconstrained,1,R_ESI,FM,M1,0.0016076106972524788
BMu23,P30,PAT,INI,S2S_Unconstrained,1,R_ESI,FM,M2,0.001686911577164885
BMu23,P30,PAT,INI,S2S_Unconstrained,1,R_ESI,FM,M3,0.0015994174064844085
BMu23,P30,PAT,REL,S2S_Unconstrained,1,L_ESI,FM,M1,0.00253545458753234
BMu23,P30,PAT,REL,S2S_Unconstrained,1,L_ESI,FM,M2,0.0029779595798419063
BMu23,P30,PAT,REL,S2S_Unconstrained,1,L_ESI,FM,M3,0.0025539776755547326
BMu23,P30,PAT,REL,S2S_Unconstrained,1,R_ESI,FM,M1,0.001975727913582755
BMu23,P30,PAT,REL,S2S_Unconstrained,1,R_ESI,FM,M2,0.0026644708144867445
BMu23,P30,PAT,REL,S2S_Unconstrained,1,R_ESI,FM,M3,0.001844270834082415
BMu23,P32,PAT,INI,S2S_Unconstrained,1,L_ESI,FM,M1,0.00282536012724671
BMu23,P32,PAT,INI,S2S_Unconstrained,1,L_ESI,FM,M2,0.003213981327546397
BMu23,P32,PAT,INI,S2S_Unconstrained,1,L_ESI,FM,M3,0.003052977036609704
BMu23,P32,PAT,INI,S2S_Unconstrained,1,L_ESI,FM,M4,0.003667154230731598
BMu23,P32,PAT,INI,S2S_Unconstrained,1,R_ESI,FM,M1,0.0021165930718833226
BMu23,P32,PAT,INI,S2S_Unconstrained,1,R_ESI,FM,M2,
BMu23,P32,PAT,INI,S2S_Unconstrained,1,R_ESI,FM,M3,0.00225355489320533
BMu23,P32,PAT,INI,S2S_Unconstrained,1,R_ESI,FM,M4,0.0017950625831456887
BMu23,P32,PAT,REL,S2S_Unconstrained,1,L_ESI,FM,M1,0.002588993798399053
BMu23,P32,PAT,REL,S2S_Unconstrained,1,L_ESI,FM,M2,0.002491016306801457
BMu23,P32,PAT,REL,S2S_Unconstrained,1,L_ESI,FM,M3,0.0020661958934889606
BMu23,P32,PAT,REL,S2S_Unconstrained,1,R_ESI,FM,M1,0.0020395118221869036
BMu23,P32,PAT,REL,S2S_Unconstrained,1,R_ESI,FM,M2,0.0018746895484078323
BMu23,P32,PAT,REL,S2S_Unconstrained,1,R_ESI,FM,M3,0.001689638420882796
BMu23,P33,PAT,INI,S2S_Unconstrained,1,L_ESI,FM,M1,0.006068777837615862
BMu23,P33,PAT,INI,S2S_Unconstrained,1,L_ESI,FM,M2,0.005159516019262971
BMu23,P33,PAT,INI,S2S_Unconstrained,1,L_ESI,FM,M3,0.004801153602127108
BMu23,P33,PAT,INI,S2S_Unconstrained,1,R_ESI,FM,M1,0.001961367376797209
BMu23,P33,PAT,INI,S2S_Unconstrained,1,R_ESI,FM,M2,0.0019209920434561044
BMu23,P33,PAT,INI,S2S_Unconstrained,1,R_ESI,FM,M3,0.0018168222930297626
BMu23,P33,PAT,REL,S2S_Unconstrained,1,L_ESI,FM,M1,0.003587454414360019
BMu23,P33,PAT,REL,S2S_Unconstrained,1,L_ESI,FM,M2,0.004836283370147619
BMu23,P33,PAT,REL,S2S_Unconstrained,1,L_ESI,FM,M3,0.0046475011102299095
BMu23,P33,PAT,REL,S2S_Unconstrained,1,L_ESI,FM,M4,0.005347775284116349
BMu23,P33,PAT,REL,S2S_Unconstrained,1,R_ESI,FM,M1,0.0072973438507758035
BMu23,P33,PAT,REL,S2S_Unconstrained,1,R_ESI,FM,M2,0.1323749544317673
BMu23,P33,PAT,REL,S2S_Unconstrained,1,R_ESI,FM,M3,0.00826834265872052
BMu23,P33,PAT,REL,S2S_Unconstrained,1,R_ESI,FM,M4,0.009171926205932325
BMu23,P34,PAT,INI,S2S_Unconstrained,1,L_ESI,FM,M1,0.0033350913541587697
BMu23,P34,PAT,INI,S2S_Unconstrained,1,L_ESI,FM,M2,0.0035336960902834177
BMu23,P34,PAT,INI,S2S_Unconstrained,1,L_ESI,FM,M3,0.0037357192238056617
BMu23,P34,PAT,INI,S2S_Unconstrained,1,R_ESI,FM,M1,
BMu23,P34,PAT,INI,S2S_Unconstrained,1,R_ESI,FM,M2,
BMu23,P34,PAT,INI,S2S_Unconstrained,1,R_ESI,FM,M3,0.004504546222960472
BMu23,P34,PAT,REL,S2S_Unconstrained,1,L_ESI,FM,M1,0.003170180993695918
BMu23,P34,PAT,REL,S2S_Unconstrained,1,L_ESI,FM,M2,0.003579698558370771
BMu23,P34,PAT,REL,S2S_Unconstrained,1,L_ESI,FM,M3,0.0027983340374506706
BMu23,P34,PAT,REL,S2S_Unconstrained,1,R_ESI,FM,M1,0.1491054840708679
BMu23,P34,PAT,REL,S2S_Unconstrained,1,R_ESI,FM,M2,0.1731140050557324
BMu23,P34,PAT,REL,S2S_Unconstrained,1,R_ESI,FM,M3,0.09843527908078144
BMu23,P35,CTR,INI,S2S_Unconstrained,1,L_ESI,FM,M1,
BMu23,P35,CTR,INI,S2S_Unconstrained,1,L_ESI,FM,M2,
BMu23,P35,CTR,INI,S2S_Unconstrained,1,L_ESI,FM,M3,
BMu23,P35,CTR,INI,S2S_Unconstrained,1,R_ESI,FM,M1,
BMu23,P35,CTR,INI,S2S_Unconstrained,1,R_ESI,FM,M2,
BMu23,P35,CTR,INI,S2S_Unconstrained,1,R_ESI,FM,M3,
BMu23,P35,CTR,REL,S2S_Unconstrained,1,L_ESI,FM,M1,
BMu23,P35,CTR,REL,S2S_Unconstrained,1,L_ESI,FM,M2,
BMu23,P35,CTR,REL,S2S_Unconstrained,1,L_ESI,FM,M3,
BMu23,P35,CTR,REL,S2S_Unconstrained,1,R_ESI,FM,M1,0.0031335969731164284
BMu23,P35,CTR,REL,S2S_Unconstrained,1,R_ESI,FM,M2,0.0030251206656683152
BMu23,P35,CTR,REL,S2S_Unconstrained,1,R_ESI,FM,M3,0.0024213299694857316
BMu23,P36,PAT,INI,S2S_Unconstrained,1,L_ESI,FM,M1,0.005047093570499802
BMu23,P36,PAT,INI,S2S_Unconstrained,1,L_ESI,FM,M2,0.008552850023020529
BMu23,P36,PAT,INI,S2S_Unconstrained,1,L_ESI,FM,M3,0.0072399559832609485
BMu23,P36,PAT,INI,S2S_Unconstrained,1,R_ESI,FM,M1,0.0031234790035705798
BMu23,P36,PAT,INI,S2S_Unconstrained,1,R_ESI,FM,M2,0.0035207021005458183
BMu23,P36,PAT,INI,S2S_Unconstrained,1,R_ESI,FM,M3,0.002951296060907048
BMu23,P36,PAT,REL,S2S_Unconstrained,1,L_ESI,FM,M1,0.0042176252465772395
BMu23,P36,PAT,REL,S2S_Unconstrained,1,L_ESI,FM,M2,0.004524302574657855
BMu23,P36,PAT,REL,S2S_Unconstrained,1,L_ESI,FM,M3,0.005816948678157664
BMu23,P36,PAT,REL,S2S_Unconstrained,1,R_ESI,FM,M1,0.002260048207240823
BMu23,P36,PAT,REL,S2S_Unconstrained,1,R_ESI,FM,M2,0.0022706339758314094
BMu23,P36,PAT,REL,S2S_Unconstrained,1,R_ESI,FM,M3,0.0023701455670536355
BMu23,P38,CTR,INI,S2S_Unconstrained,1,L_ESI,FM,M1,0.0041090744858973014
BMu23,P38,CTR,INI,S2S_Unconstrained,1,L_ESI,FM,M2,0.003953696684209289
BMu23,P38,CTR,INI,S2S_Unconstrained,1,L_ESI,FM,M3,0.0038824481309885908
BMu23,P38,CTR,INI,S2S_Unconstrained,1,R_ESI,FM,M1,0.003056095527709651
BMu23,P38,CTR,INI,S2S_Unconstrained,1,R_ESI,FM,M2,0.0031778796444303556
BMu23,P38,CTR,INI,S2S_Unconstrained,1,R_ESI,FM,M3,0.003001999686140007
BMu23,P38,CTR,REL,S2S_Unconstrained,1,L_ESI,FM,M1,0.004496155122590229
BMu23,P38,CTR,REL,S2S_Unconstrained,1,L_ESI,FM,M2,0.0041314210676298944
BMu23,P38,CTR,REL,S2S_Unconstrained,1,L_ESI,FM,M3,0.0035347358363771353
BMu23,P38,CTR,REL,S2S_Unconstrained,1,R_ESI,FM,M1,0.0029212225929727046
BMu23,P38,CTR,REL,S2S_Unconstrained,1,R_ESI,FM,M2,0.002652861899269777
BMu23,P38,CTR,REL,S2S_Unconstrained,1,R_ESI,FM,M3,
BMu23,P39,CTR,INI,S2S_Unconstrained,1,L_ESI,FM,M1,0.002768001811055066
BMu23,P39,CTR,INI,S2S_Unconstrained,1,L_ESI,FM,M2,0.00469881461366853
BMu23,P39,CTR,INI,S2S_Unconstrained,1,L_ESI,FM,M3,0.0034033358370231977
BMu23,P39,CTR,INI,S2S_Unconstrained,1,R_ESI,FM,M1,
BMu23,P39,CTR,INI,S2S_Unconstrained,1,R_ESI,FM,M2,0.0026611832128609694
BMu23,P39,CTR,INI,S2S_Unconstrained,1,R_ESI,FM,M3,0.0024605629970255107
BMu23,P39,CTR,REL,S2S_Unconstrained,1,L_ESI,FM,M1,0.0033626013745588807
BMu23,P39,CTR,REL,S2S_Unconstrained,1,L_ESI,FM,M2,0.003277947951791383
BMu23,P39,CTR,REL,S2S_Unconstrained,1,L_ESI,FM,M3,0.002572079425078175
BMu23,P39,CTR,REL,S2S_Unconstrained,1,R_ESI,FM,M1,0.0019153820963739587
BMu23,P39,CTR,REL,S2S_Unconstrained,1,R_ESI,FM,M2,0.0018438102639981124
BMu23,P39,CTR,REL,S2S_Unconstrained,1,R_ESI,FM,M3,0.0018454557757334247
BMu23,P40,CTR,INI,S2S_Unconstrained,1,L_ESI,FM,M1,0.010349681918598051
BMu23,P40,CTR,INI,S2S_Unconstrained,1,L_ESI,FM,M2,
BMu23,P40,CTR,INI,S2S_Unconstrained,1,L_ESI,FM,M3,
BMu23,P40,CTR,INI,S2S_Unconstrained,1,R_ESI,FM,M1,
BMu23,P40,CTR,INI,S2S_Unconstrained,1,R_ESI,FM,M2,
BMu23,P40,CTR,INI,S2S_Unconstrained,1,R_ESI,FM,M3,
BMu23,P40,CTR,REL,S2S_Unconstrained,1,L_ESI,FM,M1,0.008236588829781219
BMu23,P40,CTR,REL,S2S_Unconstrained,1,L_ESI,FM,M2,0.007041930194343017
BMu23,P40,CTR,REL,S2S_Unconstrained,1,L_ESI,FM,M3,0.011128527930888359
BMu23,P40,CTR,REL,S2S_Unconstrained,1,R_ESI,FM,M1,
BMu23,P40,CTR,REL,S2S_Unconstrained,1,R_ESI,FM,M2,
BMu23,P40,CTR,REL,S2S_Unconstrained,1,R_ESI,FM,M3,0.0026469750990600633
BMu23,P41,PAT,INI,S2S_Unconstrained,1,L_ESI,FM,M1,0.005271452357974205
BMu23,P41,PAT,INI,S2S_Unconstrained,1,L_ESI,FM,M2,0.006056803884718139
BMu23,P41,PAT,INI,S2S_Unconstrained,1,L_ESI,FM,M3,0.004878528301012861
BMu23,P41,PAT,INI,S2S_Unconstrained,1,R_ESI,FM,M1,0.007341648504415087
BMu23,P41,PAT,INI,S2S_Unconstrained,1,R_ESI,FM,M2,0.004333316613645604
BMu23,P41,PAT,INI,S2S_Unconstrained,1,R_ESI,FM,M3,0.004906755572061182
BMu23,P41,PAT,REL,S2S_Unconstrained,1,L_ESI,FM,M1,0.004290702754617991
BMu23,P41,PAT,REL,S2S_Unconstrained,1,L_ESI,FM,M2,0.004257234532708353
BMu23,P41,PAT,REL,S2S_Unconstrained,1,L_ESI,FM,M3,0.0034070031472870923
BMu23,P41,PAT,REL,S2S_Unconstrained,1,R_ESI,FM,M1,0.002770507270599435
BMu23,P41,PAT,REL,S2S_Unconstrained,1,R_ESI,FM,M2,0.0038111543647846766
BMu23,P41,PAT,REL,S2S_Unconstrained,1,R_ESI,FM,M3,0.002232468916196276
BMu23,P42,PAT,INI,S2S_Unconstrained,1,L_ESI,FM,M1,0.003941518138927358
BMu23,P42,PAT,INI,S2S_Unconstrained,1,L_ESI,FM,M2,0.003945405139065359
BMu23,P42,PAT,INI,S2S_Unconstrained,1,L_ESI,FM,M3,0.0034520382260212023
BMu23,P42,PAT,INI,S2S_Unconstrained,1,R_ESI,FM,M1,0.006295941155790202
BMu23,P42,PAT,INI,S2S_Unconstrained,1,R_ESI,FM,M2,0.004645539377790265
BMu23,P42,PAT,INI,S2S_Unconstrained,1,R_ESI,FM,M3,0.005954149407597644
BMu23,P42,PAT,REL,S2S_Unconstrained,1,L_ESI,FM,M1,0.005194323761012923
BMu23,P42,PAT,REL,S2S_Unconstrained,1,L_ESI,FM,M2,0.005038905244839118
BMu23,P42,PAT,REL,S2S_Unconstrained,1,L_ESI,FM,M3,0.0032340210631149747
BMu23,P42,PAT,REL,S2S_Unconstrained,1,R_ESI,FM,M1,0.008517638440562756
BMu23,P42,PAT,REL,S2S_Unconstrained,1,R_ESI,FM,M2,0.0059633805115733565
BMu23,P42,PAT,REL,S2S_Unconstrained,1,R_ESI,FM,M3,0.00652416691219229
BMu23,P43,PAT,INI,S2S_Unconstrained,1,L_ESI,FM,M1,0.002807663757298743
BMu23,P43,PAT,INI,S2S_Unconstrained,1,L_ESI,FM,M2,0.002883707433944576
BMu23,P43,PAT,INI,S2S_Unconstrained,1,L_ESI,FM,M3,0.0024470627011189696
BMu23,P43,PAT,INI,S2S_Unconstrained,1,R_ESI,FM,M1,0.0026476772849252745
BMu23,P43,PAT,INI,S2S_Unconstrained,1,R_ESI,FM,M2,0.0031644653477109494
BMu23,P43,PAT,INI,S2S_Unconstrained,1,R_ESI,FM,M3,0.00239289855383268
BMu23,P43,PAT,REL,S2S_Unconstrained,1,L_ESI,FM,M1,0.006187707080935198
BMu23,P43,PAT,REL,S2S_Unconstrained,1,L_ESI,FM,M2,0.00509976625787724
BMu23,P43,PAT,REL,S2S_Unconstrained,1,L_ESI,FM,M3,0.004946625456367088
BMu23,P43,PAT,REL,S2S_Unconstrained,1,R_ESI,FM,M1,0.002429928864553968
BMu23,P43,PAT,REL,S2S_Unconstrained,1,R_ESI,FM,M2,
BMu23,P43,PAT,REL,S2S_Unconstrained,1,R_ESI,FM,M3,0.0033053414812550864
BMu23,P44,CTR,INI,S2S_Unconstrained,1,L_ESI,FM,M1,0.008460998864178459
BMu23,P44,CTR,INI,S2S_Unconstrained,1,L_ESI,FM,M2,0.00850427555777582
BMu23,P44,CTR,INI,S2S_Unconstrained,1,L_ESI,FM,M3,0.00812015683228501
BMu23,P44,CTR,INI,S2S_Unconstrained,1,L_ESI,FM,M4,0.006410799498526837
BMu23,P44,CTR,INI,S2S_Unconstrained,1,R_ESI,FM,M1,0.0050685721203025955
BMu23,P44,CTR,INI,S2S_Unconstrained,1,R_ESI,FM,M2,0.004766996711108837
BMu23,P44,CTR,INI,S2S_Unconstrained,1,R_ESI,FM,M3,0.004790395274624638
BMu23,P44,CTR,INI,S2S_Unconstrained,1,R_ESI,FM,M4,0.004565968518060787
BMu23,P44,CTR,REL,S2S_Unconstrained,1,L_ESI,FM,M1,
BMu23,P44,CTR,REL,S2S_Unconstrained,1,L_ESI,FM,M2,
BMu23,P44,CTR,REL,S2S_Unconstrained,1,L_ESI,FM,M3,0.0026163738893307024
BMu23,P44,CTR,REL,S2S_Unconstrained,1,R_ESI,FM,M1,0.005185041247611602
BMu23,P44,CTR,REL,S2S_Unconstrained,1,R_ESI,FM,M2,0.005007346619879508
BMu23,P44,CTR,REL,S2S_Unconstrained,1,R_ESI,FM,M3,0.0036524512129376655
BMu23,P45,PAT,INI,S2S_Unconstrained,1,L_ESI,FM,M1,
BMu23,P45,PAT,INI,S2S_Unconstrained,1,L_ESI,FM,M2,
BMu23,P45,PAT,INI,S2S_Unconstrained,1,L_ESI,FM,M3,
BMu23,P45,PAT,INI,S2S_Unconstrained,1,R_ESI,FM,M1,
BMu23,P45,PAT,INI,S2S_Unconstrained,1,R_ESI,FM,M2,
BMu23,P45,PAT,INI,S2S_Unconstrained,1,R_ESI,FM,M3,
BMu23,P45,PAT,REL,S2S_Unconstrained,1,L_ESI,FM,M1,0.002473007332813449
BMu23,P45,PAT,REL,S2S_Unconstrained,1,L_ESI,FM,M2,
BMu23,P45,PAT,REL,S2S_Unconstrained,1,L_ESI,FM,M3,
BMu23,P45,PAT,REL,S2S_Unconstrained,1,R_ESI,FM,M1,0.0025110082103142035
BMu23,P45,PAT,REL,S2S_Unconstrained,1,R_ESI,FM,M2,
BMu23,P45,PAT,REL,S2S_Unconstrained,1,R_ESI,FM,M3,
BMu23,P46,CTR,INI,S2S_Unconstrained,1,L_ESI,FM,M1,0.003759927046242913
BMu23,P46,CTR,INI,S2S_Unconstrained,1,L_ESI,FM,M2,0.002990654379328017
BMu23,P46,CTR,INI,S2S_Unconstrained,1,L_ESI,FM,M3,0.0034248268637315886
BMu23,P46,CTR,INI,S2S_Unconstrained,1,R_ESI,FM,M1,
BMu23,P46,CTR,INI,S2S_Unconstrained,1,R_ESI,FM,M2,
BMu23,P46,CTR,INI,S2S_Unconstrained,1,R_ESI,FM,M3,
BMu23,P46,CTR,REL,S2S_Unconstrained,1,L_ESI,FM,M1,0.0029038929343817308
BMu23,P46,CTR,REL,S2S_Unconstrained,1,L_ESI,FM,M2,0.002071752034770059
BMu23,P46,CTR,REL,S2S_Unconstrained,1,L_ESI,FM,M3,
BMu23,P46,CTR,REL,S2S_Unconstrained,1,R_ESI,FM,M1,
BMu23,P46,CTR,REL,S2S_Unconstrained,1,R_ESI,FM,M2,
BMu23,P46,CTR,REL,S2S_Unconstrained,1,R_ESI,FM,M3,
BMu23,P47,PAT,INI,S2S_Unconstrained,1,L_ESI,FM,M1,0.0032706383588470772
BMu23,P47,PAT,INI,S2S_Unconstrained,1,L_ESI,FM,M2,0.003185899082035777
BMu23,P47,PAT,INI,S2S_Unconstrained,1,L_ESI,FM,M3,0.0027692481442819082
BMu23,P47,PAT,INI,S2S_Unconstrained,1,R_ESI,FM,M1,0.0076428713017047505
BMu23,P47,PAT,INI,S2S_Unconstrained,1,R_ESI,FM,M2,0.006040553169758652
BMu23,P47,PAT,INI,S2S_Unconstrained,1,R_ESI,FM,M3,0.00866493705900594
BMu23,P47,PAT,REL,S2S_Unconstrained,1,L_ESI,FM,M1,0.004106363758646268
BMu23,P47,PAT,REL,S2S_Unconstrained,1,L_ESI,FM,M2,0.004904886971151406
BMu23,P47,PAT,REL,S2S_Unconstrained,1,L_ESI,FM,M3,0.003352999578538176
BMu23,P47,PAT,REL,S2S_Unconstrained,1,R_ESI,FM,M1,0.004032969831473452
BMu23,P47,PAT,REL,S2S_Unconstrained,1,R_ESI,FM,M2,
BMu23,P47,PAT,REL,S2S_Unconstrained,1,R_ESI,FM,M3,0.004640878605949268
BMu23,P48,CTR,INI,S2S_Unconstrained,1,L_ESI,FM,M1,0.006490761792345332
BMu23,P48,CTR,INI,S2S_Unconstrained,1,L_ESI,FM,M2,0.004118651385978001
BMu23,P48,CTR,INI,S2S_Unconstrained,1,L_ESI,FM,M3,0.004242502605382388
BMu23,P48,CTR,INI,S2S_Unconstrained,1,R_ESI,FM,M1,0.005181957298919697
BMu23,P48,CTR,INI,S2S_Unconstrained,1,R_ESI,FM,M2,0.005545831874773361
BMu23,P48,CTR,INI,S2S_Unconstrained,1,R_ESI,FM,M3,0.004183963786618237
BMu23,P48,CTR,REL,S2S_Unconstrained,1,L_ESI,FM,M1,0.003231695103626259
BMu23,P48,CTR,REL,S2S_Unconstrained,1,L_ESI,FM,M2,0.0032190492667522694
BMu23,P48,CTR,REL,S2S_Unconstrained,1,L_ESI,FM,M3,0.00398317903130898
BMu23,P48,CTR,REL,S2S_Unconstrained,1,R_ESI,FM,M1,0.003913500297528252
BMu23,P48,CTR,REL,S2S_Unconstrained,1,R_ESI,FM,M2,0.004428605868645899
BMu23,P48,CTR,REL,S2S_Unconstrained,1,R_ESI,FM,M3,0.0049878233108366305
BMu23,P49,CTR,INI,S2S_Unconstrained,1,L_ESI,FM,M1,0.011287718072939516
BMu23,P49,CTR,INI,S2S_Unconstrained,1,L_ESI,FM,M2,0.010958809624012312
BMu23,P49,CTR,INI,S2S_Unconstrained,1,L_ESI,FM,M3,0.01093334156817936
BMu23,P49,CTR,INI,S2S_Unconstrained,1,R_ESI,FM,M1,0.005183547952169344
BMu23,P49,CTR,INI,S2S_Unconstrained,1,R_ESI,FM,M2,0.004320619765671725
BMu23,P49,CTR,INI,S2S_Unconstrained,1,R_ESI,FM,M3,0.004373030892555721
BMu23,P49,CTR,REL,S2S_Unconstrained,1,L_ESI,FM,M1,0.004378381513139238
BMu23,P49,CTR,REL,S2S_Unconstrained,1,L_ESI,FM,M2,0.004293152495520841
BMu23,P49,CTR,REL,S2S_Unconstrained,1,L_ESI,FM,M3,0.003853003448200425
BMu23,P49,CTR,REL,S2S_Unconstrained,1,R_ESI,FM,M1,0.004322954479018722
BMu23,P49,CTR,REL,S2S_Unconstrained,1,R_ESI,FM,M2,0.004371941613655353
BMu23,P49,CTR,REL,S2S_Unconstrained,1,R_ESI,FM,M3,0.0044030856067042295
BMu23,P50,PAT,INI,S2S_Unconstrained,1,L_ESI,FM,M1,0.007525994788667318
BMu23,P50,PAT,INI,S2S_Unconstrained,1,L_ESI,FM,M2,0.007955176436983666
BMu23,P50,PAT,INI,S2S_Unconstrained,1,L_ESI,FM,M3,0.0076329457917344605
BMu23,P50,PAT,INI,S2S_Unconstrained,1,R_ESI,FM,M1,0.0025719226798052415
BMu23,P50,PAT,INI,S2S_Unconstrained,1,R_ESI,FM,M2,0.0027425135126064796
BMu23,P50,PAT,INI,S2S_Unconstrained,1,R_ESI,FM,M3,0.002409488755995474
BMu23,P50,PAT,REL,S2S_Unconstrained,1,L_ESI,FM,M1,0.005972562121100919
BMu23,P50,PAT,REL,S2S_Unconstrained,1,L_ESI,FM,M2,0.005983386857543305
BMu23,P50,PAT,REL,S2S_Unconstrained,1,L_ESI,FM,M3,0.005702225850758214
BMu23,P50,PAT,REL,S2S_Unconstrained,1,R_ESI,FM,M1,0.0027994785374822924
BMu23,P50,PAT,REL,S2S_Unconstrained,1,R_ESI,FM,M2,0.002820656876068873
BMu23,P50,PAT,REL,S2S_Unconstrained,1,R_ESI,FM,M3,0.0025569905662595426
BMu23,P51,PAT,INI,S2S_Unconstrained,1,L_ESI,FM,M1,0.002653348158261465
BMu23,P51,PAT,INI,S2S_Unconstrained,1,L_ESI,FM,M2,0.0024188948443238495
BMu23,P51,PAT,INI,S2S_Unconstrained,1,L_ESI,FM,M3,0.0021064630599539236
BMu23,P51,PAT,INI,S2S_Unconstrained,1,R_ESI,FM,M1,0.003469836518024153
BMu23,P51,PAT,INI,S2S_Unconstrained,1,R_ESI,FM,M2,0.0033954048748778038
BMu23,P51,PAT,INI,S2S_Unconstrained,1,R_ESI,FM,M3,0.0028873413406810336
BMu23,P51,PAT,REL,S2S_Unconstrained,1,L_ESI,FM,M1,0.00248510068613464
BMu23,P51,PAT,REL,S2S_Unconstrained,1,L_ESI,FM,M2,0.0025125840533525255
BMu23,P51,PAT,REL,S2S_Unconstrained,1,L_ESI,FM,M3,0.0021137566582807616
BMu23,P51,PAT,REL,S2S_Unconstrained,1,R_ESI,FM,M1,0.013739074113527799
BMu23,P51,PAT,REL,S2S_Unconstrained,1,R_ESI,FM,M2,0.014141339753487402
BMu23,P51,PAT,REL,S2S_Unconstrained,1,R_ESI,FM,M3,0.011233078690298196
BMu23,P52,CTR,INI,S2S_Unconstrained,1,L_ESI,FM,M1,0.005863249976122574
BMu23,P52,CTR,INI,S2S_Unconstrained,1,L_ESI,FM,M2,0.004964026845833894
BMu23,P52,CTR,INI,S2S_Unconstrained,1,L_ESI,FM,M3,0.00437002055530501
BMu23,P52,CTR,INI,S2S_Unconstrained,1,R_ESI,FM,M1,0.0033805205600956506
BMu23,P52,CTR,INI,S2S_Unconstrained,1,R_ESI,FM,M2,0.0028989170247854675
BMu23,P52,CTR,INI,S2S_Unconstrained,1,R_ESI,FM,M3,0.0024015468978827196
BMu23,P52,CTR,REL,S2S_Unconstrained,1,L_ESI,FM,M1,0.003761184962843738
BMu23,P52,CTR,REL,S2S_Unconstrained,1,L_ESI,FM,M2,0.004433450632595734
BMu23,P52,CTR,REL,S2S_Unconstrained,1,L_ESI,FM,M3,0.003240802284157295
BMu23,P52,CTR,REL,S2S_Unconstrained,1,R_ESI,FM,M1,0.0027300916200474925
BMu23,P52,CTR,REL,S2S_Unconstrained,1,R_ESI,FM,M2,0.0026945882806041137
BMu23,P52,CTR,REL,S2S_Unconstrained,1,R_ESI,FM,M3,0.0024863063605771347
BMu23,P53,PAT,INI,S2S_Unconstrained,1,L_ESI,FM,M1,0.007987585158627141
BMu23,P53,PAT,INI,S2S_Unconstrained,1,L_ESI,FM,M2,0.0072298743963101824
BMu23,P53,PAT,INI,S2S_Unconstrained,1,L_ESI,FM,M3,0.003469034480657199
BMu23,P53,PAT,INI,S2S_Unconstrained,1,R_ESI,FM,M1,0.0147595109930775
BMu23,P53,PAT,INI,S2S_Unconstrained,1,R_ESI,FM,M2,0.016828560216769463
BMu23,P53,PAT,INI,S2S_Unconstrained,1,R_ESI,FM,M3,0.017473467969100168
BMu23,P53,PAT,REL,S2S_Unconstrained,1,L_ESI,FM,M1,0.0021569734029268407
BMu23,P53,PAT,REL,S2S_Unconstrained,1,L_ESI,FM,M2,0.0030078158404529486
BMu23,P53,PAT,REL,S2S_Unconstrained,1,L_ESI,FM,M3,0.0024978748091771664
BMu23,P53,PAT,REL,S2S_Unconstrained,1,R_ESI,FM,M1,0.010904834862770227
BMu23,P53,PAT,REL,S2S_Unconstrained,1,R_ESI,FM,M2,0.00883558618769711
BMu23,P53,PAT,REL,S2S_Unconstrained,1,R_ESI,FM,M3,0.008287744622613993
BMu23,P54,PAT,INI,S2S_Unconstrained,1,L_ESI,FM,M1,0.0037401099710301475
BMu23,P54,PAT,INI,S2S_Unconstrained,1,L_ESI,FM,M2,0.0033323828277326355
BMu23,P54,PAT,INI,S2S_Unconstrained,1,L_ESI,FM,M3,0.0035991515549356834
BMu23,P54,PAT,INI,S2S_Unconstrained,1,R_ESI,FM,M1,0.0034471919074958025
BMu23,P54,PAT,INI,S2S_Unconstrained,1,R_ESI,FM,M2,0.003934283101601514
BMu23,P54,PAT,INI,S2S_Unconstrained,1,R_ESI,FM,M3,0.004184649732678146
BMu23,P54,PAT,REL,S2S_Unconstrained,1,L_ESI,FM,M1,0.00370352195027056
BMu23,P54,PAT,REL,S2S_Unconstrained,1,L_ESI,FM,M2,0.004051534654825742
BMu23,P54,PAT,REL,S2S_Unconstrained,1,L_ESI,FM,M3,0.0033459709663405416
BMu23,P54,PAT,REL,S2S_Unconstrained,1,R_ESI,FM,M1,0.003749219369457635
BMu23,P54,PAT,REL,S2S_Unconstrained,1,R_ESI,FM,M2,0.003627678483095326
BMu23,P54,PAT,REL,S2S_Unconstrained,1,R_ESI,FM,M3,
BMu23,P55,CTR,INI,S2S_Unconstrained,1,L_ESI,FM,M1,0.0018525376916930334
BMu23,P55,CTR,INI,S2S_Unconstrained,1,L_ESI,FM,M2,0.001755644834663719
BMu23,P55,CTR,INI,S2S_Unconstrained,1,L_ESI,FM,M3,
BMu23,P55,CTR,INI,S2S_Unconstrained,1,R_ESI,FM,M1,
BMu23,P55,CTR,INI,S2S_Unconstrained,1,R_ESI,FM,M2,
BMu23,P55,CTR,INI,S2S_Unconstrained,1,R_ESI,FM,M3,
BMu23,P55,CTR,REL,S2S_Unconstrained,1,L_ESI,FM,M1,0.0037087390524203154
BMu23,P55,CTR,REL,S2S_Unconstrained,1,L_ESI,FM,M2,0.0030982417153448787
BMu23,P55,CTR,REL,S2S_Unconstrained,1,L_ESI,FM,M3,0.003041299980050649
BMu23,P55,CTR,REL,S2S_Unconstrained,1,R_ESI,FM,M1,0.0023879484049125176
BMu23,P55,CTR,REL,S2S_Unconstrained,1,R_ESI,FM,M2,0.0022938175607582416
BMu23,P55,CTR,REL,S2S_Unconstrained,1,R_ESI,FM,M3,0.0022228704958783753
BMu23,P56,CTR,INI,S2S_Unconstrained,1,L_ESI,FM,M1,0.004416881877279035
BMu23,P56,CTR,INI,S2S_Unconstrained,1,L_ESI,FM,M2,0.004156802262385811
BMu23,P56,CTR,INI,S2S_Unconstrained,1,L_ESI,FM,M3,0.0032092299937109946
BMu23,P56,CTR,INI,S2S_Unconstrained,1,R_ESI,FM,M1,0.002731020612378937
BMu23,P56,CTR,INI,S2S_Unconstrained,1,R_ESI,FM,M2,0.002680773812308979
BMu23,P56,CTR,INI,S2S_Unconstrained,1,R_ESI,FM,M3,
BMu23,P56,CTR,REL,S2S_Unconstrained,1,L_ESI,FM,M1,0.003431627429058234
BMu23,P56,CTR,REL,S2S_Unconstrained,1,L_ESI,FM,M2,0.0035266918376137602
BMu23,P56,CTR,REL,S2S_Unconstrained,1,L_ESI,FM,M3,
BMu23,P56,CTR,REL,S2S_Unconstrained,1,R_ESI,FM,M1,0.0028503707749151113
BMu23,P56,CTR,REL,S2S_Unconstrained,1,R_ESI,FM,M2,0.0026967730095746154
BMu23,P56,CTR,REL,S2S_Unconstrained,1,R_ESI,FM,M3,0.002988182465604388
BMu23,P57,CTR,INI,S2S_Unconstrained,1,L_ESI,FM,M1,0.0018398777478971283
BMu23,P57,CTR,INI,S2S_Unconstrained,1,L_ESI,FM,M2,0.0018927692863236823
BMu23,P57,CTR,INI,S2S_Unconstrained,1,L_ESI,FM,M3,0.002003223691636481
BMu23,P57,CTR,INI,S2S_Unconstrained,1,L_ESI,FM,M4,0.0016626663485797989
BMu23,P57,CTR,INI,S2S_Unconstrained,1,R_ESI,FM,M1,0.0014494765834129463
BMu23,P57,CTR,INI,S2S_Unconstrained,1,R_ESI,FM,M2,0.0013784951938802328
BMu23,P57,CTR,INI,S2S_Unconstrained,1,R_ESI,FM,M3,0.0015513337898331676
BMu23,P57,CTR,INI,S2S_Unconstrained,1,R_ESI,FM,M4,0.0014501329824196936
BMu23,P57,CTR,REL,S2S_Unconstrained,1,L_ESI,FM,M1,0.0019367905114581248
BMu23,P57,CTR,REL,S2S_Unconstrained,1,L_ESI,FM,M2,0.001918653344081197
BMu23,P57,CTR,REL,S2S_Unconstrained,1,L_ESI,FM,M3,0.002172526686966997
BMu23,P57,CTR,REL,S2S_Unconstrained,1,R_ESI,FM,M1,0.0019074811033721545
BMu23,P57,CTR,REL,S2S_Unconstrained,1,R_ESI,FM,M2,0.001668214277950594
BMu23,P57,CTR,REL,S2S_Unconstrained,1,R_ESI,FM,M3,0.001817672326792887
BMu23,P58,PAT,INI,S2S_Unconstrained,1,L_ESI,FM,M1,0.002113203324150355
BMu23,P58,PAT,INI,S2S_Unconstrained,1,L_ESI,FM,M2,0.0022416752239920335
BMu23,P58,PAT,INI,S2S_Unconstrained,1,L_ESI,FM,M3,0.0020753431477557893
BMu23,P58,PAT,INI,S2S_Unconstrained,1,L_ESI,FM,M4,0.0025411160203550756
BMu23,P58,PAT,INI,S2S_Unconstrained,1,R_ESI,FM,M1,0.002676742783219475
BMu23,P58,PAT,INI,S2S_Unconstrained,1,R_ESI,FM,M2,0.0034422431936615232
BMu23,P58,PAT,INI,S2S_Unconstrained,1,R_ESI,FM,M3,0.002738229677481989
BMu23,P58,PAT,INI,S2S_Unconstrained,1,R_ESI,FM,M4,0.003666558420603889
BMu23,P58,PAT,REL,S2S_Unconstrained,1,L_ESI,FM,M1,0.0023250936136719534
BMu23,P58,PAT,REL,S2S_Unconstrained,1,L_ESI,FM,M2,0.002229267609704914
BMu23,P58,PAT,REL,S2S_Unconstrained,1,L_ESI,FM,M3,0.002130555732492561
BMu23,P58,PAT,REL,S2S_Unconstrained,1,R_ESI,FM,M1,0.0028304198850622668
BMu23,P58,PAT,REL,S2S_Unconstrained,1,R_ESI,FM,M2,0.00274396855132281
BMu23,P58,PAT,REL,S2S_Unconstrained,1,R_ESI,FM,M3,0.0024707715238252437
BMu23,P60,CTR,INI,S2S_Unconstrained,1,L_ESI,FM,M1,0.004122869853173136
BMu23,P60,CTR,INI,S2S_Unconstrained,1,L_ESI,FM,M2,0.003488121790030055
BMu23,P60,CTR,INI,S2S_Unconstrained,1,L_ESI,FM,M3,
BMu23,P60,CTR,INI,S2S_Unconstrained,1,R_ESI,FM,M1,0.0043150314432155385
BMu23,P60,CTR,INI,S2S_Unconstrained,1,R_ESI,FM,M2,
BMu23,P60,CTR,INI,S2S_Unconstrained,1,R_ESI,FM,M3,
BMu23,P60,CTR,REL,S2S_Unconstrained,1,L_ESI,FM,M1,0.003475119197834008
BMu23,P60,CTR,REL,S2S_Unconstrained,1,L_ESI,FM,M2,0.002829867574882734
BMu23,P60,CTR,REL,S2S_Unconstrained,1,L_ESI,FM,M3,0.003101851189425429
BMu23,P60,CTR,REL,S2S_Unconstrained,1,R_ESI,FM,M1,0.0026247137622433946
BMu23,P60,CTR,REL,S2S_Unconstrained,1,R_ESI,FM,M2,0.002356342554652019
BMu23,P60,CTR,REL,S2S_Unconstrained,1,R_ESI,FM,M3,0.0023981748970242703
BMu23,P61,PAT,INI,S2S_Unconstrained,1,L_ESI,FM,M1,0.006432713874397977
BMu23,P61,PAT,INI,S2S_Unconstrained,1,L_ESI,FM,M2,0.006694477837586288
BMu23,P61,PAT,INI,S2S_Unconstrained,1,L_ESI,FM,M3,0.0053670220349074935
BMu23,P61,PAT,INI,S2S_Unconstrained,1,R_ESI,FM,M1,0.002816858312630251
BMu23,P61,PAT,INI,S2S_Unconstrained,1,R_ESI,FM,M2,0.0031574110704092767
BMu23,P61,PAT,INI,S2S_Unconstrained,1,R_ESI,FM,M3,0.00267730919217341
BMu23,P61,PAT,REL,S2S_Unconstrained,1,L_ESI,FM,M1,0.007276188613967754
BMu23,P61,PAT,REL,S2S_Unconstrained,1,L_ESI,FM,M2,0.006555963229689226
BMu23,P61,PAT,REL,S2S_Unconstrained,1,L_ESI,FM,M3,0.006202285151934858
BMu23,P61,PAT,REL,S2S_Unconstrained,1,L_ESI,FM,M4,0.005782988808642455
BMu23,P61,PAT,REL,S2S_Unconstrained,1,R_ESI,FM,M1,0.0020182974970288387
BMu23,P61,PAT,REL,S2S_Unconstrained,1,R_ESI,FM,M2,0.0020470744548870354
BMu23,P61,PAT,REL,S2S_Unconstrained,1,R_ESI,FM,M3,0.001986259531197026
BMu23,P61,PAT,REL,S2S_Unconstrained,1,R_ESI,FM,M4,0.0020147736329468756
BMu23,P62,PAT,INI,S2S_Unconstrained,1,L_ESI,FM,M1,0.002823941077968777
BMu23,P62,PAT,INI,S2S_Unconstrained,1,L_ESI,FM,M2,0.00352548813461609
BMu23,P62,PAT,INI,S2S_Unconstrained,1,L_ESI,FM,M3,0.0051642696292359186
BMu23,P62,PAT,INI,S2S_Unconstrained,1,R_ESI,FM,M1,0.0020793421014868477
BMu23,P62,PAT,INI,S2S_Unconstrained,1,R_ESI,FM,M2,0.0022821369798665535
BMu23,P62,PAT,INI,S2S_Unconstrained,1,R_ESI,FM,M3,0.0023541219135990556
BMu23,P62,PAT,REL,S2S_Unconstrained,1,L_ESI,FM,M1,0.001958821694244168
BMu23,P62,PAT,REL,S2S_Unconstrained,1,L_ESI,FM,M2,0.0018041612769735822
BMu23,P62,PAT,REL,S2S_Unconstrained,1,L_ESI,FM,M3,0.0015908502607293864
BMu23,P62,PAT,REL,S2S_Unconstrained,1,R_ESI,FM,M1,0.001622756165725508
BMu23,P62,PAT,REL,S2S_Unconstrained,1,R_ESI,FM,M2,0.0031280294845848333
BMu23,P62,PAT,REL,S2S_Unconstrained,1,R_ESI,FM,M3,0.0019552824187020145
BMu23,P63,PAT,INI,S2S_Unconstrained,1,L_ESI,FM,M1,0.007690222894048514
BMu23,P63,PAT,INI,S2S_Unconstrained,1,L_ESI,FM,M2,0.008420336544114896
BMu23,P63,PAT,INI,S2S_Unconstrained,1,L_ESI,FM,M3,0.005850406618039797
BMu23,P63,PAT,INI,S2S_Unconstrained,1,R_ESI,FM,M1,
BMu23,P63,PAT,INI,S2S_Unconstrained,1,R_ESI,FM,M2,0.004514312934690442
BMu23,P63,PAT,INI,S2S_Unconstrained,1,R_ESI,FM,M3,0.00531182575607515
BMu23,P63,PAT,REL,S2S_Unconstrained,1,L_ESI,FM,M1,0.0025050850823308594
BMu23,P63,PAT,REL,S2S_Unconstrained,1,L_ESI,FM,M2,0.002696616086153348
BMu23,P63,PAT,REL,S2S_Unconstrained,1,L_ESI,FM,M3,0.0029840910790357466
BMu23,P63,PAT,REL,S2S_Unconstrained,1,R_ESI,FM,M1,0.001973014470885241
BMu23,P63,PAT,REL,S2S_Unconstrained,1,R_ESI,FM,M2,0.0018634664920366062
BMu23,P63,PAT,REL,S2S_Unconstrained,1,R_ESI,FM,M3,0.0018987199264384894
BMu23,P64,CTR,INI,S2S_Unconstrained,1,L_ESI,FM,M1,0.006041435127607004
BMu23,P64,CTR,INI,S2S_Unconstrained,1,L_ESI,FM,M2,0.006158742420292037
BMu23,P64,CTR,INI,S2S_Unconstrained,1,L_ESI,FM,M3,0.00799819056826288
BMu23,P64,CTR,INI,S2S_Unconstrained,1,R_ESI,FM,M1,0.006029396421422541
BMu23,P64,CTR,INI,S2S_Unconstrained,1,R_ESI,FM,M2,0.006287799052251862
BMu23,P64,CTR,INI,S2S_Unconstrained,1,R_ESI,FM,M3,0.0060607180118425015
BMu23,P64,CTR,REL,S2S_Unconstrained,1,L_ESI,FM,M1,0.00463269190855717
BMu23,P64,CTR,REL,S2S_Unconstrained,1,L_ESI,FM,M2,0.007858056038350561
BMu23,P64,CTR,REL,S2S_Unconstrained,1,L_ESI,FM,M3,0.007090472004177425
BMu23,P64,CTR,REL,S2S_Unconstrained,1,R_ESI,FM,M1,
BMu23,P64,CTR,REL,S2S_Unconstrained,1,R_ESI,FM,M2,0.0046649095751909
BMu23,P64,CTR,REL,S2S_Unconstrained,1,R_ESI,FM,M3,
BMu23,P65,PAT,INI,S2S_Unconstrained,1,L_ESI,FM,M1,
BMu23,P65,PAT,INI,S2S_Unconstrained,1,L_ESI,FM,M2,
BMu23,P65,PAT,INI,S2S_Unconstrained,1,L_ESI,FM,M3,
BMu23,P65,PAT,INI,S2S_Unconstrained,1,R_ESI,FM,M1,0.006477741044584423
BMu23,P65,PAT,INI,S2S_Unconstrained,1,R_ESI,FM,M2,0.0052480569997204254
BMu23,P65,PAT,INI,S2S_Unconstrained,1,R_ESI,FM,M3,0.005589507812462816
BMu23,P65,PAT,REL,S2S_Unconstrained,1,L_ESI,FM,M1,0.005468856265417802
BMu23,P65,PAT,REL,S2S_Unconstrained,1,L_ESI,FM,M2,0.0055365151523325395
BMu23,P65,PAT,REL,S2S_Unconstrained,1,L_ESI,FM,M3,0.005104567401568915
BMu23,P65,PAT,REL,S2S_Unconstrained,1,R_ESI,FM,M1,0.0051247788234898405
BMu23,P65,PAT,REL,S2S_Unconstrained,1,R_ESI,FM,M2,0.00499744718267325
BMu23,P65,PAT,REL,S2S_Unconstrained,1,R_ESI,FM,M3,0.004514341916968753
BMu23,P66,CTR,INI,S2S_Unconstrained,1,L_ESI,FM,M1,0.0039028265621819367
BMu23,P66,CTR,INI,S2S_Unconstrained,1,L_ESI,FM,M2,0.004010107555285419
BMu23,P66,CTR,INI,S2S_Unconstrained,1,L_ESI,FM,M3,0.0032969739876385347
BMu23,P66,CTR,INI,S2S_Unconstrained,1,R_ESI,FM,M1,0.0032587043059495347
BMu23,P66,CTR,INI,S2S_Unconstrained,1,R_ESI,FM,M2,0.003499320284258708
BMu23,P66,CTR,INI,S2S_Unconstrained,1,R_ESI,FM,M3,0.0031842662413345455
BMu23,P66,CTR,REL,S2S_Unconstrained,1,L_ESI,FM,M1,0.0028074156949859466
BMu23,P66,CTR,REL,S2S_Unconstrained,1,L_ESI,FM,M2,0.0030511018023552435
BMu23,P66,CTR,REL,S2S_Unconstrained,1,L_ESI,FM,M3,0.0025511750916556637
BMu23,P66,CTR,REL,S2S_Unconstrained,1,R_ESI,FM,M1,0.0029937952562302736
BMu23,P66,CTR,REL,S2S_Unconstrained,1,R_ESI,FM,M2,0.002864197652378575
BMu23,P66,CTR,REL,S2S_Unconstrained,1,R_ESI,FM,M3,0.0027135861991310984
BMu23,P67,CTR,INI,S2S_Unconstrained,1,L_ESI,FM,M1,0.0038163407704506764
BMu23,P67,CTR,INI,S2S_Unconstrained,1,L_ESI,FM,M2,0.0034846532440057994
BMu23,P67,CTR,INI,S2S_Unconstrained,1,L_ESI,FM,M3,0.003366172067993868
BMu23,P67,CTR,INI,S2S_Unconstrained,1,R_ESI,FM,M1,
BMu23,P67,CTR,INI,S2S_Unconstrained,1,R_ESI,FM,M2,
BMu23,P67,CTR,INI,S2S_Unconstrained,1,R_ESI,FM,M3,
BMu23,P67,CTR,REL,S2S_Unconstrained,1,L_ESI,FM,M1,0.0033294123891049387
BMu23,P67,CTR,REL,S2S_Unconstrained,1,L_ESI,FM,M2,0.003650537446285251
BMu23,P67,CTR,REL,S2S_Unconstrained,1,L_ESI,FM,M3,0.004679711398902738
BMu23,P67,CTR,REL,S2S_Unconstrained,1,R_ESI,FM,M1,0.0028516398478679846
BMu23,P67,CTR,REL,S2S_Unconstrained,1,R_ESI,FM,M2,0.0037702353234371623
BMu23,P67,CTR,REL,S2S_Unconstrained,1,R_ESI,FM,M3,0.002903086704634948
BMu23,P68,CTR,INI,S2S_Unconstrained,1,L_ESI,FM,M1,
BMu23,P68,CTR,INI,S2S_Unconstrained,1,L_ESI,FM,M2,
BMu23,P68,CTR,INI,S2S_Unconstrained,1,L_ESI,FM,M3,
BMu23,P68,CTR,INI,S2S_Unconstrained,1,R_ESI,FM,M1,
BMu23,P68,CTR,INI,S2S_Unconstrained,1,R_ESI,FM,M2,
BMu23,P68,CTR,INI,S2S_Unconstrained,1,R_ESI,FM,M3,
BMu23,P68,CTR,REL,S2S_Unconstrained,1,L_ESI,FM,M1,0.006514063109460258
BMu23,P68,CTR,REL,S2S_Unconstrained,1,L_ESI,FM,M2,0.004853508787854865
BMu23,P68,CTR,REL,S2S_Unconstrained,1,L_ESI,FM,M3,0.004610047333782812
BMu23,P68,CTR,REL,S2S_Unconstrained,1,R_ESI,FM,M1,
BMu23,P68,CTR,REL,S2S_Unconstrained,1,R_ESI,FM,M2,
BMu23,P68,CTR,REL,S2S_Unconstrained,1,R_ESI,FM,M3,
