BMu,Participant,Group,Session,task,trials,channel,Operator,Measure,Value
BMu38,P01,CTR,INI,Trunk_Forward,1,L_MTF,FM,M1,100.39954024564568
BMu38,P01,CTR,INI,Trunk_Forward,1,L_MTF,FM,M2,101.42987695624976
BMu38,P01,CTR,INI,Trunk_Forward,1,L_MTF,FM,M3,97.12871064616645
BMu38,P01,CTR,INI,Trunk_Forward,1,R_MTF,FM,M1,40.53420573940881
BMu38,P01,CTR,INI,Trunk_Forward,1,R_MTF,FM,M2,37.45871752909197
BMu38,P01,CTR,INI,Trunk_Forward,1,R_MTF,FM,M3,38.899694765801634
BMu38,P01,CTR,REL,Trunk_Forward,1,L_MTF,FM,M1,77.53396396040657
BMu38,P01,CTR,REL,Trunk_Forward,1,L_MTF,FM,M2,80.61994410339747
BMu38,P01,CTR,REL,Trunk_Forward,1,L_MTF,FM,M3,80.57519129037665
BMu38,P01,CTR,REL,Trunk_Forward,1,R_MTF,FM,M1,44.14611968515463
BMu38,P01,CTR,REL,Trunk_Forward,1,R_MTF,FM,M2,33.017348643008546
BMu38,P01,CTR,REL,Trunk_Forward,1,R_MTF,FM,M3,52.455519967507875
BMu38,P02,CTR,INI,Trunk_Forward,1,L_MTF,FM,M1,104.78244075472006
BMu38,P02,CTR,INI,Trunk_Forward,1,L_MTF,FM,M2,102.65057350241663
BMu38,P02,CTR,INI,Trunk_Forward,1,L_MTF,FM,M3,105.79661551581015
BMu38,P02,CTR,INI,Trunk_Forward,1,R_MTF,FM,M1,91.9317714889314
BMu38,P02,CTR,INI,Trunk_Forward,1,R_MTF,FM,M2,95.98763405275052
BMu38,P02,CTR,INI,Trunk_Forward,1,R_MTF,FM,M3,97.1406164794808
BMu38,P02,CTR,REL,Trunk_Forward,1,L_MTF,FM,M1,100.30633276592981
BMu38,P02,CTR,REL,Trunk_Forward,1,L_MTF,FM,M2,105.35969674986801
BMu38,P02,CTR,REL,Trunk_Forward,1,L_MTF,FM,M3,107.41014855942227
BMu38,P02,CTR,REL,Trunk_Forward,1,R_MTF,FM,M1,97.91656246387632
BMu38,P02,CTR,REL,Trunk_Forward,1,R_MTF,FM,M2,104.28383790535457
BMu38,P02,CTR,REL,Trunk_Forward,1,R_MTF,FM,M3,99.15613235918622
BMu38,P03,CTR,INI,Trunk_Forward,1,L_MTF,FM,M1,89.42810153581283
BMu38,P03,CTR,INI,Trunk_Forward,1,L_MTF,FM,M2,88.05385608761804
BMu38,P03,CTR,INI,Trunk_Forward,1,L_MTF,FM,M3,92.55160210835889
BMu38,P03,CTR,INI,Trunk_Forward,1,R_MTF,FM,M1,88.71291683078782
BMu38,P03,CTR,INI,Trunk_Forward,1,R_MTF,FM,M2,89.50149887815347
BMu38,P03,CTR,INI,Trunk_Forward,1,R_MTF,FM,M3,95.24162605290859
BMu38,P03,CTR,REL,Trunk_Forward,1,L_MTF,FM,M1,87.94610133681093
BMu38,P03,CTR,REL,Trunk_Forward,1,L_MTF,FM,M2,90.60221873202377
BMu38,P03,CTR,REL,Trunk_Forward,1,L_MTF,FM,M3,93.63746730359041
BMu38,P03,CTR,REL,Trunk_Forward,1,R_MTF,FM,M1,84.90961751192395
BMu38,P03,CTR,REL,Trunk_Forward,1,R_MTF,FM,M2,68.35841573767856
BMu38,P03,CTR,REL,Trunk_Forward,1,R_MTF,FM,M3,85.75392392978078
BMu38,P05,CTR,INI,Trunk_Forward,1,L_MTF,FM,M1,136.17754032590693
BMu38,P05,CTR,INI,Trunk_Forward,1,L_MTF,FM,M2,128.9863851415639
BMu38,P05,CTR,INI,Trunk_Forward,1,L_MTF,FM,M3,128.65038371446374
BMu38,P05,CTR,INI,Trunk_Forward,1,R_MTF,FM,M1,124.11290985476266
BMu38,P05,CTR,INI,Trunk_Forward,1,R_MTF,FM,M2,123.6232507461457
BMu38,P05,CTR,INI,Trunk_Forward,1,R_MTF,FM,M3,120.17015967269178
BMu38,P05,CTR,REL,Trunk_Forward,1,L_MTF,FM,M1,130.156107973772
BMu38,P05,CTR,REL,Trunk_Forward,1,L_MTF,FM,M2,133.37346834072838
BMu38,P05,CTR,REL,Trunk_Forward,1,L_MTF,FM,M3,133.6187483233778
BMu38,P05,CTR,REL,Trunk_Forward,1,L_MTF,FM,M4,131.6857254707707
BMu38,P05,CTR,REL,Trunk_Forward,1,R_MTF,FM,M1,121.21208928464607
BMu38,P05,CTR,REL,Trunk_Forward,1,R_MTF,FM,M2,137.25796767429094
BMu38,P05,CTR,REL,Trunk_Forward,1,R_MTF,FM,M3,128.2046772892144
BMu38,P05,CTR,REL,Trunk_Forward,1,R_MTF,FM,M4,122.60174337587901
BMu38,P06,CTR,INI,Trunk_Forward,1,L_MTF,FM,M1,105.83712765200562
BMu38,P06,CTR,INI,Trunk_Forward,1,L_MTF,FM,M2,109.13599107956298
BMu38,P06,CTR,INI,Trunk_Forward,1,L_MTF,FM,M3,108.74879941653316
BMu38,P06,CTR,INI,Trunk_Forward,1,L_MTF,FM,M4,110.4060044183614
BMu38,P06,CTR,INI,Trunk_Forward,1,R_MTF,FM,M1,104.98915281989724
BMu38,P06,CTR,INI,Trunk_Forward,1,R_MTF,FM,M2,106.8393121703031
BMu38,P06,CTR,INI,Trunk_Forward,1,R_MTF,FM,M3,109.73144559774371
BMu38,P06,CTR,INI,Trunk_Forward,1,R_MTF,FM,M4,109.60149262846888
BMu38,P06,CTR,REL,Trunk_Forward,1,L_MTF,FM,M1,102.7121412120322
BMu38,P06,CTR,REL,Trunk_Forward,1,L_MTF,FM,M2,106.69254833603141
BMu38,P06,CTR,REL,Trunk_Forward,1,L_MTF,FM,M3,108.47165485770249
BMu38,P06,CTR,REL,Trunk_Forward,1,R_MTF,FM,M1,90.94727930239661
BMu38,P06,CTR,REL,Trunk_Forward,1,R_MTF,FM,M2,110.8155212617199
BMu38,P06,CTR,REL,Trunk_Forward,1,R_MTF,FM,M3,114.56142727384598
BMu38,P07,CTR,INI,Trunk_Forward,1,L_MTF,FM,M1,89.61392145802297
BMu38,P07,CTR,INI,Trunk_Forward,1,L_MTF,FM,M2,100.27865783948471
BMu38,P07,CTR,INI,Trunk_Forward,1,L_MTF,FM,M3,99.26096920085948
BMu38,P07,CTR,INI,Trunk_Forward,1,R_MTF,FM,M1,121.61066495004222
BMu38,P07,CTR,INI,Trunk_Forward,1,R_MTF,FM,M2,122.54030479550187
BMu38,P07,CTR,INI,Trunk_Forward,1,R_MTF,FM,M3,99.2437580104075
BMu38,P07,CTR,REL,Trunk_Forward,1,L_MTF,FM,M1,126.49750625469666
BMu38,P07,CTR,REL,Trunk_Forward,1,L_MTF,FM,M2,130.12686384164346
BMu38,P07,CTR,REL,Trunk_Forward,1,L_MTF,FM,M3,134.03387964510284
BMu38,P07,CTR,REL,Trunk_Forward,1,R_MTF,FM,M1,127.78934774440157
BMu38,P07,CTR,REL,Trunk_Forward,1,R_MTF,FM,M2,123.66720209971287
BMu38,P07,CTR,REL,Trunk_Forward,1,R_MTF,FM,M3,124.15365137737908
BMu38,P08,CTR,INI,Trunk_Forward,1,L_MTF,FM,M1,39.563338184412615
BMu38,P08,CTR,INI,Trunk_Forward,1,L_MTF,FM,M2,42.490923963035996
BMu38,P08,CTR,INI,Trunk_Forward,1,L_MTF,FM,M3,43.34224151970649
BMu38,P08,CTR,INI,Trunk_Forward,1,R_MTF,FM,M1,99.02138262351733
BMu38,P08,CTR,INI,Trunk_Forward,1,R_MTF,FM,M2,100.13111326498755
BMu38,P08,CTR,INI,Trunk_Forward,1,R_MTF,FM,M3,100.5693909457794
BMu38,P08,CTR,REL,Trunk_Forward,1,L_MTF,FM,M1,97.71931023118695
BMu38,P08,CTR,REL,Trunk_Forward,1,L_MTF,FM,M2,99.52553956518761
BMu38,P08,CTR,REL,Trunk_Forward,1,L_MTF,FM,M3,96.76509091271858
BMu38,P08,CTR,REL,Trunk_Forward,1,R_MTF,FM,M1,104.34073871120516
BMu38,P08,CTR,REL,Trunk_Forward,1,R_MTF,FM,M2,95.72545884971012
BMu38,P08,CTR,REL,Trunk_Forward,1,R_MTF,FM,M3,99.10269882254396
BMu38,P09,PAT,INI,Trunk_Forward,1,L_MTF,FM,M1,120.69899626126842
BMu38,P09,PAT,INI,Trunk_Forward,1,L_MTF,FM,M2,117.449374128668
BMu38,P09,PAT,INI,Trunk_Forward,1,L_MTF,FM,M3,102.02997057426684
BMu38,P09,PAT,INI,Trunk_Forward,1,L_MTF,FM,M4,106.70219790692407
BMu38,P09,PAT,INI,Trunk_Forward,1,R_MTF,FM,M1,126.56046685585737
BMu38,P09,PAT,INI,Trunk_Forward,1,R_MTF,FM,M2,118.43908136280807
BMu38,P09,PAT,INI,Trunk_Forward,1,R_MTF,FM,M3,111.30277806491388
BMu38,P09,PAT,INI,Trunk_Forward,1,R_MTF,FM,M4,113.89178081811846
BMu38,P09,PAT,REL,Trunk_Forward,1,L_MTF,FM,M1,120.49186079157928
BMu38,P09,PAT,REL,Trunk_Forward,1,L_MTF,FM,M2,123.54091319916982
BMu38,P09,PAT,REL,Trunk_Forward,1,L_MTF,FM,M3,125.88133127097574
BMu38,P09,PAT,REL,Trunk_Forward,1,R_MTF,FM,M1,129.59314981146528
BMu38,P09,PAT,REL,Trunk_Forward,1,R_MTF,FM,M2,129.8974934054858
BMu38,P09,PAT,REL,Trunk_Forward,1,R_MTF,FM,M3,129.5490222242532
BMu38,P10,PAT,INI,Trunk_Forward,1,L_MTF,FM,M1,78.08979144027248
BMu38,P10,PAT,INI,Trunk_Forward,1,L_MTF,FM,M2,91.09182226233884
BMu38,P10,PAT,INI,Trunk_Forward,1,L_MTF,FM,M3,84.62793872677587
BMu38,P10,PAT,INI,Trunk_Forward,1,R_MTF,FM,M1,38.82458617631763
BMu38,P10,PAT,INI,Trunk_Forward,1,R_MTF,FM,M2,58.214253531026635
BMu38,P10,PAT,INI,Trunk_Forward,1,R_MTF,FM,M3,51.31023629502924
BMu38,P10,PAT,REL,Trunk_Forward,1,L_MTF,FM,M1,116.1736062236664
BMu38,P10,PAT,REL,Trunk_Forward,1,L_MTF,FM,M2,121.29174335108374
BMu38,P10,PAT,REL,Trunk_Forward,1,L_MTF,FM,M3,125.17581190984404
BMu38,P10,PAT,REL,Trunk_Forward,1,R_MTF,FM,M1,39.37716095052048
BMu38,P10,PAT,REL,Trunk_Forward,1,R_MTF,FM,M2,35.028447354035755
BMu38,P10,PAT,REL,Trunk_Forward,1,R_MTF,FM,M3,29.14354763208265
BMu38,P11,PAT,INI,Trunk_Forward,1,L_MTF,FM,M1,123.03286447880944
BMu38,P11,PAT,INI,Trunk_Forward,1,L_MTF,FM,M2,123.957159963252
BMu38,P11,PAT,INI,Trunk_Forward,1,L_MTF,FM,M3,125.53953647158767
BMu38,P11,PAT,INI,Trunk_Forward,1,R_MTF,FM,M1,95.85509984781869
BMu38,P11,PAT,INI,Trunk_Forward,1,R_MTF,FM,M2,96.79256402445935
BMu38,P11,PAT,INI,Trunk_Forward,1,R_MTF,FM,M3,82.94658649575857
BMu38,P11,PAT,REL,Trunk_Forward,1,L_MTF,FM,M1,123.53817261339852
BMu38,P11,PAT,REL,Trunk_Forward,1,L_MTF,FM,M2,113.62812945376461
BMu38,P11,PAT,REL,Trunk_Forward,1,L_MTF,FM,M3,111.41252942727976
BMu38,P11,PAT,REL,Trunk_Forward,1,R_MTF,FM,M1,103.47375489384646
BMu38,P11,PAT,REL,Trunk_Forward,1,R_MTF,FM,M2,54.341630742371585
BMu38,P11,PAT,REL,Trunk_Forward,1,R_MTF,FM,M3,66.61648753267656
BMu38,P12,PAT,INI,Trunk_Forward,1,L_MTF,FM,M1,103.01721151671143
BMu38,P12,PAT,INI,Trunk_Forward,1,L_MTF,FM,M2,98.43446819421585
BMu38,P12,PAT,INI,Trunk_Forward,1,L_MTF,FM,M3,97.97480659968485
BMu38,P12,PAT,INI,Trunk_Forward,1,R_MTF,FM,M1,95.99821107399752
BMu38,P12,PAT,INI,Trunk_Forward,1,R_MTF,FM,M2,96.627072971518
BMu38,P12,PAT,INI,Trunk_Forward,1,R_MTF,FM,M3,94.84352910338941
BMu38,P12,PAT,REL,Trunk_Forward,1,L_MTF,FM,M1,93.28530509372303
BMu38,P12,PAT,REL,Trunk_Forward,1,L_MTF,FM,M2,79.92240829285252
BMu38,P12,PAT,REL,Trunk_Forward,1,L_MTF,FM,M3,77.48245391946354
BMu38,P12,PAT,REL,Trunk_Forward,1,R_MTF,FM,M1,24.826905580433028
BMu38,P12,PAT,REL,Trunk_Forward,1,R_MTF,FM,M2,24.797232007558556
BMu38,P12,PAT,REL,Trunk_Forward,1,R_MTF,FM,M3,247.98910929735715
BMu38,P13,CTR,INI,Trunk_Forward,1,L_MTF,FM,M1,102.08069281253498
BMu38,P13,CTR,INI,Trunk_Forward,1,L_MTF,FM,M2,108.91769575735168
BMu38,P13,CTR,INI,Trunk_Forward,1,L_MTF,FM,M3,108.0803333547304
BMu38,P13,CTR,INI,Trunk_Forward,1,R_MTF,FM,M1,100.07028319519353
BMu38,P13,CTR,INI,Trunk_Forward,1,R_MTF,FM,M2,96.71042348637843
BMu38,P13,CTR,INI,Trunk_Forward,1,R_MTF,FM,M3,93.06405373164681
BMu38,P13,CTR,REL,Trunk_Forward,1,L_MTF,FM,M1,106.42932264012214
BMu38,P13,CTR,REL,Trunk_Forward,1,L_MTF,FM,M2,107.26615359488429
BMu38,P13,CTR,REL,Trunk_Forward,1,L_MTF,FM,M3,109.77695011877317
BMu38,P13,CTR,REL,Trunk_Forward,1,R_MTF,FM,M1,99.57816822017983
BMu38,P13,CTR,REL,Trunk_Forward,1,R_MTF,FM,M2,98.76018151025164
BMu38,P13,CTR,REL,Trunk_Forward,1,R_MTF,FM,M3,95.75194985008062
BMu38,P14,PAT,INI,Trunk_Forward,1,L_MTF,FM,M1,74.90862874937733
BMu38,P14,PAT,INI,Trunk_Forward,1,L_MTF,FM,M2,76.54125322819539
BMu38,P14,PAT,INI,Trunk_Forward,1,L_MTF,FM,M3,77.91124314515672
BMu38,P14,PAT,INI,Trunk_Forward,1,R_MTF,FM,M1,88.54295790280001
BMu38,P14,PAT,INI,Trunk_Forward,1,R_MTF,FM,M2,87.27423838144664
BMu38,P14,PAT,INI,Trunk_Forward,1,R_MTF,FM,M3,90.33641509919426
BMu38,P14,PAT,REL,Trunk_Forward,1,L_MTF,FM,M1,85.75644551601677
BMu38,P14,PAT,REL,Trunk_Forward,1,L_MTF,FM,M2,81.9699201632378
BMu38,P14,PAT,REL,Trunk_Forward,1,L_MTF,FM,M3,81.1524994874743
BMu38,P14,PAT,REL,Trunk_Forward,1,L_MTF,FM,M4,76.49472294292316
BMu38,P14,PAT,REL,Trunk_Forward,1,R_MTF,FM,M1,92.60986220878456
BMu38,P14,PAT,REL,Trunk_Forward,1,R_MTF,FM,M2,84.61917458641146
BMu38,P14,PAT,REL,Trunk_Forward,1,R_MTF,FM,M3,83.30044365058569
BMu38,P14,PAT,REL,Trunk_Forward,1,R_MTF,FM,M4,82.7386767555685
BMu38,P16,CTR,INI,Trunk_Forward,1,L_MTF,FM,M1,95.83913829367827
BMu38,P16,CTR,INI,Trunk_Forward,1,L_MTF,FM,M2,98.9554463765061
BMu38,P16,CTR,INI,Trunk_Forward,1,L_MTF,FM,M3,97.5658732065361
BMu38,P16,CTR,INI,Trunk_Forward,1,R_MTF,FM,M1,48.05241654716736
BMu38,P16,CTR,INI,Trunk_Forward,1,R_MTF,FM,M2,51.701173288768594
BMu38,P16,CTR,INI,Trunk_Forward,1,R_MTF,FM,M3,39.695548801787616
BMu38,P16,CTR,REL,Trunk_Forward,1,L_MTF,FM,M1,63.71744810388188
BMu38,P16,CTR,REL,Trunk_Forward,1,L_MTF,FM,M2,71.11268084277424
BMu38,P16,CTR,REL,Trunk_Forward,1,L_MTF,FM,M3,72.26332279690519
BMu38,P16,CTR,REL,Trunk_Forward,1,R_MTF,FM,M1,99.83348672027047
BMu38,P16,CTR,REL,Trunk_Forward,1,R_MTF,FM,M2,105.54931016294694
BMu38,P16,CTR,REL,Trunk_Forward,1,R_MTF,FM,M3,103.86810971357771
BMu38,P17,PAT,INI,Trunk_Forward,1,L_MTF,FM,M1,119.42241962751562
BMu38,P17,PAT,INI,Trunk_Forward,1,L_MTF,FM,M2,121.61039983589443
BMu38,P17,PAT,INI,Trunk_Forward,1,L_MTF,FM,M3,115.05813146631431
BMu38,P17,PAT,INI,Trunk_Forward,1,R_MTF,FM,M1,127.13873739965514
BMu38,P17,PAT,INI,Trunk_Forward,1,R_MTF,FM,M2,112.30335012614837
BMu38,P17,PAT,INI,Trunk_Forward,1,R_MTF,FM,M3,112.48760558566264
BMu38,P17,PAT,REL,Trunk_Forward,1,L_MTF,FM,M1,104.62358585903738
BMu38,P17,PAT,REL,Trunk_Forward,1,L_MTF,FM,M2,72.94739050417617
BMu38,P17,PAT,REL,Trunk_Forward,1,L_MTF,FM,M3,67.18049342908085
BMu38,P17,PAT,REL,Trunk_Forward,1,R_MTF,FM,M1,112.35059642506064
BMu38,P17,PAT,REL,Trunk_Forward,1,R_MTF,FM,M2,111.47411058432871
BMu38,P17,PAT,REL,Trunk_Forward,1,R_MTF,FM,M3,101.90911564778973
BMu38,P21,CTR,INI,Trunk_Forward,1,L_MTF,FM,M1,53.54716118890517
BMu38,P21,CTR,INI,Trunk_Forward,1,L_MTF,FM,M2,63.55965713891753
BMu38,P21,CTR,INI,Trunk_Forward,1,L_MTF,FM,M3,67.18222941690883
BMu38,P21,CTR,INI,Trunk_Forward,1,R_MTF,FM,M1,87.5622208965908
BMu38,P21,CTR,INI,Trunk_Forward,1,R_MTF,FM,M2,79.82768129966375
BMu38,P21,CTR,INI,Trunk_Forward,1,R_MTF,FM,M3,81.4982365505793
BMu38,P21,CTR,REL,Trunk_Forward,1,L_MTF,FM,M1,77.97773218999818
BMu38,P21,CTR,REL,Trunk_Forward,1,L_MTF,FM,M2,64.42268783002524
BMu38,P21,CTR,REL,Trunk_Forward,1,L_MTF,FM,M3,71.85228783172474
BMu38,P21,CTR,REL,Trunk_Forward,1,R_MTF,FM,M1,87.23519591551809
BMu38,P21,CTR,REL,Trunk_Forward,1,R_MTF,FM,M2,80.9982136454061
BMu38,P21,CTR,REL,Trunk_Forward,1,R_MTF,FM,M3,81.46410714533843
BMu38,P22,CTR,INI,Trunk_Forward,1,L_MTF,FM,M1,95.07142278417038
BMu38,P22,CTR,INI,Trunk_Forward,1,L_MTF,FM,M2,91.06800891790067
BMu38,P22,CTR,INI,Trunk_Forward,1,L_MTF,FM,M3,96.83989532803687
BMu38,P22,CTR,INI,Trunk_Forward,1,R_MTF,FM,M1,42.74257651592599
BMu38,P22,CTR,INI,Trunk_Forward,1,R_MTF,FM,M2,49.95434987506462
BMu38,P22,CTR,INI,Trunk_Forward,1,R_MTF,FM,M3,40.11553709889292
BMu38,P22,CTR,REL,Trunk_Forward,1,L_MTF,FM,M1,89.44012193374404
BMu38,P22,CTR,REL,Trunk_Forward,1,L_MTF,FM,M2,83.823886241682
BMu38,P22,CTR,REL,Trunk_Forward,1,L_MTF,FM,M3,61.39500550032619
BMu38,P22,CTR,REL,Trunk_Forward,1,R_MTF,FM,M1,55.625128285181674
BMu38,P22,CTR,REL,Trunk_Forward,1,R_MTF,FM,M2,36.89826527331694
BMu38,P22,CTR,REL,Trunk_Forward,1,R_MTF,FM,M3,43.486206385317644
BMu38,P23,CTR,INI,Trunk_Forward,1,L_MTF,FM,M1,50.67130052146587
BMu38,P23,CTR,INI,Trunk_Forward,1,L_MTF,FM,M2,77.05931520087121
BMu38,P23,CTR,INI,Trunk_Forward,1,L_MTF,FM,M3,55.23182239707705
BMu38,P23,CTR,INI,Trunk_Forward,1,R_MTF,FM,M1,64.9386086675952
BMu38,P23,CTR,INI,Trunk_Forward,1,R_MTF,FM,M2,60.45131959402975
BMu38,P23,CTR,INI,Trunk_Forward,1,R_MTF,FM,M3,55.5785957358682
BMu38,P23,CTR,REL,Trunk_Forward,1,L_MTF,FM,M1,88.0955910888566
BMu38,P23,CTR,REL,Trunk_Forward,1,L_MTF,FM,M2,97.72013184035237
BMu38,P23,CTR,REL,Trunk_Forward,1,L_MTF,FM,M3,92.8053418683059
BMu38,P23,CTR,REL,Trunk_Forward,1,R_MTF,FM,M1,94.20675987122344
BMu38,P23,CTR,REL,Trunk_Forward,1,R_MTF,FM,M2,96.52852976626286
BMu38,P23,CTR,REL,Trunk_Forward,1,R_MTF,FM,M3,100.3718912194561
BMu38,P24,PAT,INI,Trunk_Forward,1,L_MTF,FM,M1,111.21245637282327
BMu38,P24,PAT,INI,Trunk_Forward,1,L_MTF,FM,M2,108.72712640410688
BMu38,P24,PAT,INI,Trunk_Forward,1,L_MTF,FM,M3,104.56569406283813
BMu38,P24,PAT,INI,Trunk_Forward,1,R_MTF,FM,M1,101.3759663837202
BMu38,P24,PAT,INI,Trunk_Forward,1,R_MTF,FM,M2,97.19062684904218
BMu38,P24,PAT,INI,Trunk_Forward,1,R_MTF,FM,M3,95.84301648110913
BMu38,P24,PAT,REL,Trunk_Forward,1,L_MTF,FM,M1,122.43222365666954
BMu38,P24,PAT,REL,Trunk_Forward,1,L_MTF,FM,M2,115.673888832645
BMu38,P24,PAT,REL,Trunk_Forward,1,L_MTF,FM,M3,111.21097445573125
BMu38,P24,PAT,REL,Trunk_Forward,1,R_MTF,FM,M1,112.01466221207329
BMu38,P24,PAT,REL,Trunk_Forward,1,R_MTF,FM,M2,106.29354248687979
BMu38,P24,PAT,REL,Trunk_Forward,1,R_MTF,FM,M3,99.15055287445179
BMu38,P25,CTR,INI,Trunk_Forward,1,L_MTF,FM,M1,47.31738569243737
BMu38,P25,CTR,INI,Trunk_Forward,1,L_MTF,FM,M2,33.89202265907473
BMu38,P25,CTR,INI,Trunk_Forward,1,L_MTF,FM,M3,38.324599222524604
BMu38,P25,CTR,INI,Trunk_Forward,1,R_MTF,FM,M1,115.85263816680752
BMu38,P25,CTR,INI,Trunk_Forward,1,R_MTF,FM,M2,121.94908644828075
BMu38,P25,CTR,INI,Trunk_Forward,1,R_MTF,FM,M3,118.05777497111399
BMu38,P25,CTR,REL,Trunk_Forward,1,L_MTF,FM,M1,131.05153380421842
BMu38,P25,CTR,REL,Trunk_Forward,1,L_MTF,FM,M2,131.21540437661037
BMu38,P25,CTR,REL,Trunk_Forward,1,L_MTF,FM,M3,124.7369824272365
BMu38,P25,CTR,REL,Trunk_Forward,1,R_MTF,FM,M1,124.2763494880753
BMu38,P25,CTR,REL,Trunk_Forward,1,R_MTF,FM,M2,121.35078195837642
BMu38,P25,CTR,REL,Trunk_Forward,1,R_MTF,FM,M3,127.39880211166808
BMu38,P26,PAT,INI,Trunk_Forward,1,L_MTF,FM,M1,78.14680195372209
BMu38,P26,PAT,INI,Trunk_Forward,1,L_MTF,FM,M2,93.33497746558217
BMu38,P26,PAT,INI,Trunk_Forward,1,L_MTF,FM,M3,80.94628342352571
BMu38,P26,PAT,INI,Trunk_Forward,1,R_MTF,FM,M1,43.55299991336999
BMu38,P26,PAT,INI,Trunk_Forward,1,R_MTF,FM,M2,31.696585614892406
BMu38,P26,PAT,INI,Trunk_Forward,1,R_MTF,FM,M3,40.85606987801777
BMu38,P26,PAT,REL,Trunk_Forward,1,L_MTF,FM,M1,71.3596919943575
BMu38,P26,PAT,REL,Trunk_Forward,1,L_MTF,FM,M2,65.31888432104536
BMu38,P26,PAT,REL,Trunk_Forward,1,L_MTF,FM,M3,70.11425130447459
BMu38,P26,PAT,REL,Trunk_Forward,1,R_MTF,FM,M1,35.19222023946024
BMu38,P26,PAT,REL,Trunk_Forward,1,R_MTF,FM,M2,53.2329385452521
BMu38,P26,PAT,REL,Trunk_Forward,1,R_MTF,FM,M3,39.00202885911316
BMu38,P27,PAT,INI,Trunk_Forward,1,L_MTF,FM,M1,88.81195996423232
BMu38,P27,PAT,INI,Trunk_Forward,1,L_MTF,FM,M2,85.60297415234139
BMu38,P27,PAT,INI,Trunk_Forward,1,L_MTF,FM,M3,84.05107214467748
BMu38,P27,PAT,INI,Trunk_Forward,1,R_MTF,FM,M1,79.79180734119919
BMu38,P27,PAT,INI,Trunk_Forward,1,R_MTF,FM,M2,74.57218129111932
BMu38,P27,PAT,INI,Trunk_Forward,1,R_MTF,FM,M3,76.24715210626344
BMu38,P27,PAT,REL,Trunk_Forward,1,L_MTF,FM,M1,98.3276374388532
BMu38,P27,PAT,REL,Trunk_Forward,1,L_MTF,FM,M2,97.97691588816213
BMu38,P27,PAT,REL,Trunk_Forward,1,L_MTF,FM,M3,97.0711853163582
BMu38,P27,PAT,REL,Trunk_Forward,1,L_MTF,FM,M4,93.12974518903337
BMu38,P27,PAT,REL,Trunk_Forward,1,R_MTF,FM,M1,92.164147377066
BMu38,P27,PAT,REL,Trunk_Forward,1,R_MTF,FM,M2,85.1150582388102
BMu38,P27,PAT,REL,Trunk_Forward,1,R_MTF,FM,M3,83.10701613123442
BMu38,P27,PAT,REL,Trunk_Forward,1,R_MTF,FM,M4,81.62032458105075
BMu38,P28,PAT,INI,Trunk_Forward,1,L_MTF,FM,M1,134.99816656933018
BMu38,P28,PAT,INI,Trunk_Forward,1,L_MTF,FM,M2,128.50477325130285
BMu38,P28,PAT,INI,Trunk_Forward,1,L_MTF,FM,M3,115.09506300994919
BMu38,P28,PAT,INI,Trunk_Forward,1,R_MTF,FM,M1,125.9063041313982
BMu38,P28,PAT,INI,Trunk_Forward,1,R_MTF,FM,M2,113.40869018316897
BMu38,P28,PAT,INI,Trunk_Forward,1,R_MTF,FM,M3,100.60840461999429
BMu38,P28,PAT,REL,Trunk_Forward,1,L_MTF,FM,M1,149.79160499550534
BMu38,P28,PAT,REL,Trunk_Forward,1,L_MTF,FM,M2,143.21410705632712
BMu38,P28,PAT,REL,Trunk_Forward,1,L_MTF,FM,M3,134.8897968496112
BMu38,P28,PAT,REL,Trunk_Forward,1,R_MTF,FM,M1,129.08033787712637
BMu38,P28,PAT,REL,Trunk_Forward,1,R_MTF,FM,M2,119.70441034409303
BMu38,P28,PAT,REL,Trunk_Forward,1,R_MTF,FM,M3,118.08488380231564
BMu38,P29,PAT,INI,Trunk_Forward,1,L_MTF,FM,M1,100.30417277767286
BMu38,P29,PAT,INI,Trunk_Forward,1,L_MTF,FM,M2,98.79901393220845
BMu38,P29,PAT,INI,Trunk_Forward,1,L_MTF,FM,M3,106.35958796782903
BMu38,P29,PAT,INI,Trunk_Forward,1,R_MTF,FM,M1,102.14182501616013
BMu38,P29,PAT,INI,Trunk_Forward,1,R_MTF,FM,M2,99.89839650552872
BMu38,P29,PAT,INI,Trunk_Forward,1,R_MTF,FM,M3,108.470231783027
BMu38,P29,PAT,REL,Trunk_Forward,1,L_MTF,FM,M1,101.36308429617048
BMu38,P29,PAT,REL,Trunk_Forward,1,L_MTF,FM,M2,105.26992743364615
BMu38,P29,PAT,REL,Trunk_Forward,1,L_MTF,FM,M3,98.89798588307153
BMu38,P29,PAT,REL,Trunk_Forward,1,R_MTF,FM,M1,105.45755831367391
BMu38,P29,PAT,REL,Trunk_Forward,1,R_MTF,FM,M2,100.40013659930312
BMu38,P29,PAT,REL,Trunk_Forward,1,R_MTF,FM,M3,103.72941786594434
BMu38,P30,PAT,INI,Trunk_Forward,1,L_MTF,FM,M1,81.6557450989505
BMu38,P30,PAT,INI,Trunk_Forward,1,L_MTF,FM,M2,83.57710078175654
BMu38,P30,PAT,INI,Trunk_Forward,1,L_MTF,FM,M3,72.18839561200426
BMu38,P30,PAT,INI,Trunk_Forward,1,R_MTF,FM,M1,55.3627675432556
BMu38,P30,PAT,INI,Trunk_Forward,1,R_MTF,FM,M2,64.32197594223176
BMu38,P30,PAT,INI,Trunk_Forward,1,R_MTF,FM,M3,59.15552928803237
BMu38,P30,PAT,REL,Trunk_Forward,1,L_MTF,FM,M1,119.81426482137245
BMu38,P30,PAT,REL,Trunk_Forward,1,L_MTF,FM,M2,122.58349702322049
BMu38,P30,PAT,REL,Trunk_Forward,1,L_MTF,FM,M3,124.45983272020887
BMu38,P30,PAT,REL,Trunk_Forward,1,R_MTF,FM,M1,122.59056179530447
BMu38,P30,PAT,REL,Trunk_Forward,1,R_MTF,FM,M2,117.82340321491351
BMu38,P30,PAT,REL,Trunk_Forward,1,R_MTF,FM,M3,120.78388903016702
BMu38,P32,PAT,INI,Trunk_Forward,1,L_MTF,FM,M1,113.67054712823146
BMu38,P32,PAT,INI,Trunk_Forward,1,L_MTF,FM,M2,109.22406497716841
BMu38,P32,PAT,INI,Trunk_Forward,1,L_MTF,FM,M3,113.8562841393861
BMu38,P32,PAT,INI,Trunk_Forward,1,R_MTF,FM,M1,120.97407302088565
BMu38,P32,PAT,INI,Trunk_Forward,1,R_MTF,FM,M2,119.94911826723661
BMu38,P32,PAT,INI,Trunk_Forward,1,R_MTF,FM,M3,119.82190298124698
BMu38,P32,PAT,REL,Trunk_Forward,1,L_MTF,FM,M1,101.84257993363244
BMu38,P32,PAT,REL,Trunk_Forward,1,L_MTF,FM,M2,103.84695458578943
BMu38,P32,PAT,REL,Trunk_Forward,1,L_MTF,FM,M3,105.26702546580881
BMu38,P32,PAT,REL,Trunk_Forward,1,L_MTF,FM,M4,99.24087808024362
BMu38,P32,PAT,REL,Trunk_Forward,1,R_MTF,FM,M1,107.52397393401371
BMu38,P32,PAT,REL,Trunk_Forward,1,R_MTF,FM,M2,110.20140212754784
BMu38,P32,PAT,REL,Trunk_Forward,1,R_MTF,FM,M3,105.20549899618172
BMu38,P32,PAT,REL,Trunk_Forward,1,R_MTF,FM,M4,76.19540508687739
BMu38,P33,PAT,INI,Trunk_Forward,1,L_MTF,FM,M1,102.29004738722388
BMu38,P33,PAT,INI,Trunk_Forward,1,L_MTF,FM,M2,94.91742046961019
BMu38,P33,PAT,INI,Trunk_Forward,1,L_MTF,FM,M3,93.15939740079344
BMu38,P33,PAT,INI,Trunk_Forward,1,L_MTF,FM,M4,96.0522428799891
BMu38,P33,PAT,INI,Trunk_Forward,1,R_MTF,FM,M1,97.2043209586535
BMu38,P33,PAT,INI,Trunk_Forward,1,R_MTF,FM,M2,86.6882550271687
BMu38,P33,PAT,INI,Trunk_Forward,1,R_MTF,FM,M3,87.99540420916239
BMu38,P33,PAT,INI,Trunk_Forward,1,R_MTF,FM,M4,90.95243745062399
BMu38,P33,PAT,REL,Trunk_Forward,1,L_MTF,FM,M1,92.2162059539542
BMu38,P33,PAT,REL,Trunk_Forward,1,L_MTF,FM,M2,98.31601004773383
BMu38,P33,PAT,REL,Trunk_Forward,1,L_MTF,FM,M3,96.44162893328712
BMu38,P33,PAT,REL,Trunk_Forward,1,R_MTF,FM,M1,70.65603904552057
BMu38,P33,PAT,REL,Trunk_Forward,1,R_MTF,FM,M2,88.97322423563969
BMu38,P33,PAT,REL,Trunk_Forward,1,R_MTF,FM,M3,100.6309649646855
BMu38,P34,PAT,INI,Trunk_Forward,1,L_MTF,FM,M1,108.98351360698211
BMu38,P34,PAT,INI,Trunk_Forward,1,L_MTF,FM,M2,101.90419159848835
BMu38,P34,PAT,INI,Trunk_Forward,1,L_MTF,FM,M3,103.8264409623701
BMu38,P34,PAT,INI,Trunk_Forward,1,R_MTF,FM,M1,34.776041463405406
BMu38,P34,PAT,INI,Trunk_Forward,1,R_MTF,FM,M2,33.318381134223245
BMu38,P34,PAT,INI,Trunk_Forward,1,R_MTF,FM,M3,30.471406327372843
BMu38,P34,PAT,REL,Trunk_Forward,1,L_MTF,FM,M1,103.08523582208163
BMu38,P34,PAT,REL,Trunk_Forward,1,L_MTF,FM,M2,103.93635235990149
BMu38,P34,PAT,REL,Trunk_Forward,1,L_MTF,FM,M3,105.30755341819426
BMu38,P34,PAT,REL,Trunk_Forward,1,R_MTF,FM,M1,94.026161314709
BMu38,P34,PAT,REL,Trunk_Forward,1,R_MTF,FM,M2,103.34500218761168
BMu38,P34,PAT,REL,Trunk_Forward,1,R_MTF,FM,M3,105.37426873001645
BMu38,P35,CTR,INI,Trunk_Forward,1,L_MTF,FM,M1,112.89579456469238
BMu38,P35,CTR,INI,Trunk_Forward,1,L_MTF,FM,M2,111.70234696039482
BMu38,P35,CTR,INI,Trunk_Forward,1,L_MTF,FM,M3,107.93840459778303
BMu38,P35,CTR,INI,Trunk_Forward,1,R_MTF,FM,M1,110.45004828692285
BMu38,P35,CTR,INI,Trunk_Forward,1,R_MTF,FM,M2,112.7997680937856
BMu38,P35,CTR,INI,Trunk_Forward,1,R_MTF,FM,M3,110.00558143823173
BMu38,P35,CTR,REL,Trunk_Forward,1,L_MTF,FM,M1,105.27043503533636
BMu38,P35,CTR,REL,Trunk_Forward,1,L_MTF,FM,M2,109.9547156044804
BMu38,P35,CTR,REL,Trunk_Forward,1,L_MTF,FM,M3,108.18304533044308
BMu38,P35,CTR,REL,Trunk_Forward,1,R_MTF,FM,M1,108.30843891572543
BMu38,P35,CTR,REL,Trunk_Forward,1,R_MTF,FM,M2,112.27212450863952
BMu38,P35,CTR,REL,Trunk_Forward,1,R_MTF,FM,M3,110.77729217977532
BMu38,P36,PAT,INI,Trunk_Forward,1,L_MTF,FM,M1,108.08758199697583
BMu38,P36,PAT,INI,Trunk_Forward,1,L_MTF,FM,M2,107.6654990728303
BMu38,P36,PAT,INI,Trunk_Forward,1,L_MTF,FM,M3,106.45792274170148
BMu38,P36,PAT,INI,Trunk_Forward,1,R_MTF,FM,M1,103.22307071237417
BMu38,P36,PAT,INI,Trunk_Forward,1,R_MTF,FM,M2,98.7872324358925
BMu38,P36,PAT,INI,Trunk_Forward,1,R_MTF,FM,M3,100.7767944243577
BMu38,P36,PAT,REL,Trunk_Forward,1,L_MTF,FM,M1,116.58895940488776
BMu38,P36,PAT,REL,Trunk_Forward,1,L_MTF,FM,M2,114.91012207134331
BMu38,P36,PAT,REL,Trunk_Forward,1,L_MTF,FM,M3,115.44560272644165
BMu38,P36,PAT,REL,Trunk_Forward,1,R_MTF,FM,M1,115.62483449666395
BMu38,P36,PAT,REL,Trunk_Forward,1,R_MTF,FM,M2,110.87464558159
BMu38,P36,PAT,REL,Trunk_Forward,1,R_MTF,FM,M3,111.9678983502457
BMu38,P38,CTR,INI,Trunk_Forward,1,L_MTF,FM,M1,29.97674558781616
BMu38,P38,CTR,INI,Trunk_Forward,1,L_MTF,FM,M2,32.274728510884245
BMu38,P38,CTR,INI,Trunk_Forward,1,L_MTF,FM,M3,33.47434218348073
BMu38,P38,CTR,INI,Trunk_Forward,1,R_MTF,FM,M1,95.07839728559651
BMu38,P38,CTR,INI,Trunk_Forward,1,R_MTF,FM,M2,88.58357900485872
BMu38,P38,CTR,INI,Trunk_Forward,1,R_MTF,FM,M3,91.69452459862552
BMu38,P38,CTR,REL,Trunk_Forward,1,L_MTF,FM,M1,113.79791735228261
BMu38,P38,CTR,REL,Trunk_Forward,1,L_MTF,FM,M2,100.60575650692101
BMu38,P38,CTR,REL,Trunk_Forward,1,L_MTF,FM,M3,101.4217236450233
BMu38,P38,CTR,REL,Trunk_Forward,1,R_MTF,FM,M1,96.26488041185988
BMu38,P38,CTR,REL,Trunk_Forward,1,R_MTF,FM,M2,86.23214988267787
BMu38,P38,CTR,REL,Trunk_Forward,1,R_MTF,FM,M3,87.30298656872891
BMu38,P39,CTR,INI,Trunk_Forward,1,L_MTF,FM,M1,102.68512243591388
BMu38,P39,CTR,INI,Trunk_Forward,1,L_MTF,FM,M2,98.94483866983101
BMu38,P39,CTR,INI,Trunk_Forward,1,L_MTF,FM,M3,101.4041881272782
BMu38,P39,CTR,INI,Trunk_Forward,1,R_MTF,FM,M1,111.93575914082209
BMu38,P39,CTR,INI,Trunk_Forward,1,R_MTF,FM,M2,103.67939411378907
BMu38,P39,CTR,INI,Trunk_Forward,1,R_MTF,FM,M3,96.12031540343717
BMu38,P39,CTR,REL,Trunk_Forward,1,L_MTF,FM,M1,99.75653030851247
BMu38,P39,CTR,REL,Trunk_Forward,1,L_MTF,FM,M2,95.52902794960585
BMu38,P39,CTR,REL,Trunk_Forward,1,L_MTF,FM,M3,97.66152403037707
BMu38,P39,CTR,REL,Trunk_Forward,1,R_MTF,FM,M1,89.73785991431838
BMu38,P39,CTR,REL,Trunk_Forward,1,R_MTF,FM,M2,84.67271877526247
BMu38,P39,CTR,REL,Trunk_Forward,1,R_MTF,FM,M3,86.77700043421756
BMu38,P40,CTR,INI,Trunk_Forward,1,L_MTF,FM,M1,68.1645486840497
BMu38,P40,CTR,INI,Trunk_Forward,1,L_MTF,FM,M2,62.217243937209325
BMu38,P40,CTR,INI,Trunk_Forward,1,L_MTF,FM,M3,72.76288619359198
BMu38,P40,CTR,INI,Trunk_Forward,1,R_MTF,FM,M1,131.51530393024294
BMu38,P40,CTR,INI,Trunk_Forward,1,R_MTF,FM,M2,131.57484695162321
BMu38,P40,CTR,INI,Trunk_Forward,1,R_MTF,FM,M3,132.54515189906718
BMu38,P40,CTR,REL,Trunk_Forward,1,L_MTF,FM,M1,115.63813147352562
BMu38,P40,CTR,REL,Trunk_Forward,1,L_MTF,FM,M2,115.29643262387904
BMu38,P40,CTR,REL,Trunk_Forward,1,L_MTF,FM,M3,121.62771376926796
BMu38,P40,CTR,REL,Trunk_Forward,1,R_MTF,FM,M1,120.13333292417303
BMu38,P40,CTR,REL,Trunk_Forward,1,R_MTF,FM,M2,121.98675115078575
BMu38,P40,CTR,REL,Trunk_Forward,1,R_MTF,FM,M3,118.45449213809516
BMu38,P41,PAT,INI,Trunk_Forward,1,L_MTF,FM,M1,87.72320010642932
BMu38,P41,PAT,INI,Trunk_Forward,1,L_MTF,FM,M2,88.31341837019716
BMu38,P41,PAT,INI,Trunk_Forward,1,L_MTF,FM,M3,94.11342060103013
BMu38,P41,PAT,INI,Trunk_Forward,1,R_MTF,FM,M1,88.11403838486359
BMu38,P41,PAT,INI,Trunk_Forward,1,R_MTF,FM,M2,84.1715748083908
BMu38,P41,PAT,INI,Trunk_Forward,1,R_MTF,FM,M3,83.92547451046184
BMu38,P41,PAT,REL,Trunk_Forward,1,L_MTF,FM,M1,85.0356792904026
BMu38,P41,PAT,REL,Trunk_Forward,1,L_MTF,FM,M2,88.80448447488696
BMu38,P41,PAT,REL,Trunk_Forward,1,L_MTF,FM,M3,86.5236271699921
BMu38,P41,PAT,REL,Trunk_Forward,1,R_MTF,FM,M1,83.18273980964767
BMu38,P41,PAT,REL,Trunk_Forward,1,R_MTF,FM,M2,84.094610697033
BMu38,P41,PAT,REL,Trunk_Forward,1,R_MTF,FM,M3,81.80299977676019
BMu38,P42,PAT,INI,Trunk_Forward,1,L_MTF,FM,M1,95.00012105872096
BMu38,P42,PAT,INI,Trunk_Forward,1,L_MTF,FM,M2,99.41752718624106
BMu38,P42,PAT,INI,Trunk_Forward,1,L_MTF,FM,M3,99.9504722355642
BMu38,P42,PAT,INI,Trunk_Forward,1,R_MTF,FM,M1,93.0237131229057
BMu38,P42,PAT,INI,Trunk_Forward,1,R_MTF,FM,M2,99.03239595819295
BMu38,P42,PAT,INI,Trunk_Forward,1,R_MTF,FM,M3,94.90843062127516
BMu38,P42,PAT,REL,Trunk_Forward,1,L_MTF,FM,M1,96.23412614884188
BMu38,P42,PAT,REL,Trunk_Forward,1,L_MTF,FM,M2,96.26268279062236
BMu38,P42,PAT,REL,Trunk_Forward,1,L_MTF,FM,M3,96.12475196857076
BMu38,P42,PAT,REL,Trunk_Forward,1,R_MTF,FM,M1,103.35997982482799
BMu38,P42,PAT,REL,Trunk_Forward,1,R_MTF,FM,M2,95.1013925736401
BMu38,P42,PAT,REL,Trunk_Forward,1,R_MTF,FM,M3,97.15102707437441
BMu38,P43,PAT,INI,Trunk_Forward,1,L_MTF,FM,M1,114.697191059148
BMu38,P43,PAT,INI,Trunk_Forward,1,L_MTF,FM,M2,103.09281641911497
BMu38,P43,PAT,INI,Trunk_Forward,1,L_MTF,FM,M3,108.49272170733238
BMu38,P43,PAT,INI,Trunk_Forward,1,R_MTF,FM,M1,83.40754221920814
BMu38,P43,PAT,INI,Trunk_Forward,1,R_MTF,FM,M2,78.96379466476468
BMu38,P43,PAT,INI,Trunk_Forward,1,R_MTF,FM,M3,77.21220574234415
BMu38,P43,PAT,REL,Trunk_Forward,1,L_MTF,FM,M1,108.10850931264358
BMu38,P43,PAT,REL,Trunk_Forward,1,L_MTF,FM,M2,110.22577722231262
BMu38,P43,PAT,REL,Trunk_Forward,1,L_MTF,FM,M3,106.13547452427771
BMu38,P43,PAT,REL,Trunk_Forward,1,R_MTF,FM,M1,111.32459807881243
BMu38,P43,PAT,REL,Trunk_Forward,1,R_MTF,FM,M2,111.26368828619454
BMu38,P43,PAT,REL,Trunk_Forward,1,R_MTF,FM,M3,107.39938149847004
BMu38,P44,CTR,INI,Trunk_Forward,1,L_MTF,FM,M1,42.82217411026345
BMu38,P44,CTR,INI,Trunk_Forward,1,L_MTF,FM,M2,47.01295383072231
BMu38,P44,CTR,INI,Trunk_Forward,1,L_MTF,FM,M3,44.2282617916832
BMu38,P44,CTR,INI,Trunk_Forward,1,R_MTF,FM,M1,106.60249771585453
BMu38,P44,CTR,INI,Trunk_Forward,1,R_MTF,FM,M2,101.91610472232053
BMu38,P44,CTR,INI,Trunk_Forward,1,R_MTF,FM,M3,108.91467804925412
BMu38,P44,CTR,REL,Trunk_Forward,1,L_MTF,FM,M1,112.97896325287394
BMu38,P44,CTR,REL,Trunk_Forward,1,L_MTF,FM,M2,115.0750616727342
BMu38,P44,CTR,REL,Trunk_Forward,1,L_MTF,FM,M3,113.07012197781371
BMu38,P44,CTR,REL,Trunk_Forward,1,R_MTF,FM,M1,113.67094841030467
BMu38,P44,CTR,REL,Trunk_Forward,1,R_MTF,FM,M2,116.2605233267905
BMu38,P44,CTR,REL,Trunk_Forward,1,R_MTF,FM,M3,122.0526229129305
BMu38,P45,PAT,INI,Trunk_Forward,1,L_MTF,FM,M1,81.90226226406871
BMu38,P45,PAT,INI,Trunk_Forward,1,L_MTF,FM,M2,84.67056667862603
BMu38,P45,PAT,INI,Trunk_Forward,1,L_MTF,FM,M3,87.49329566855415
BMu38,P45,PAT,INI,Trunk_Forward,1,R_MTF,FM,M1,69.83174804986523
BMu38,P45,PAT,INI,Trunk_Forward,1,R_MTF,FM,M2,69.44603764453875
BMu38,P45,PAT,INI,Trunk_Forward,1,R_MTF,FM,M3,74.63788335009123
BMu38,P45,PAT,REL,Trunk_Forward,1,L_MTF,FM,M1,81.80794906744326
BMu38,P45,PAT,REL,Trunk_Forward,1,L_MTF,FM,M2,85.21112853986291
BMu38,P45,PAT,REL,Trunk_Forward,1,L_MTF,FM,M3,77.79452004689269
BMu38,P45,PAT,REL,Trunk_Forward,1,R_MTF,FM,M1,70.2954283523327
BMu38,P45,PAT,REL,Trunk_Forward,1,R_MTF,FM,M2,63.20980523958208
BMu38,P45,PAT,REL,Trunk_Forward,1,R_MTF,FM,M3,68.44408204187108
BMu38,P46,CTR,INI,Trunk_Forward,1,L_MTF,FM,M1,37.32142471746617
BMu38,P46,CTR,INI,Trunk_Forward,1,L_MTF,FM,M2,64.186375188234
BMu38,P46,CTR,INI,Trunk_Forward,1,L_MTF,FM,M3,63.506463679523726
BMu38,P46,CTR,INI,Trunk_Forward,1,R_MTF,FM,M1,60.66362236286976
BMu38,P46,CTR,INI,Trunk_Forward,1,R_MTF,FM,M2,67.05925543803176
BMu38,P46,CTR,INI,Trunk_Forward,1,R_MTF,FM,M3,69.82904675940009
BMu38,P46,CTR,REL,Trunk_Forward,1,L_MTF,FM,M1,59.71100016383214
BMu38,P46,CTR,REL,Trunk_Forward,1,L_MTF,FM,M2,65.48626905438594
BMu38,P46,CTR,REL,Trunk_Forward,1,L_MTF,FM,M3,66.12260432924934
BMu38,P46,CTR,REL,Trunk_Forward,1,R_MTF,FM,M1,77.89736255665377
BMu38,P46,CTR,REL,Trunk_Forward,1,R_MTF,FM,M2,74.92169880887104
BMu38,P46,CTR,REL,Trunk_Forward,1,R_MTF,FM,M3,73.55029894481527
BMu38,P47,PAT,INI,Trunk_Forward,1,L_MTF,FM,M1,79.05225082364566
BMu38,P47,PAT,INI,Trunk_Forward,1,L_MTF,FM,M2,85.14850342081752
BMu38,P47,PAT,INI,Trunk_Forward,1,L_MTF,FM,M3,81.89012594487339
BMu38,P47,PAT,INI,Trunk_Forward,1,R_MTF,FM,M1,80.99613256161571
BMu38,P47,PAT,INI,Trunk_Forward,1,R_MTF,FM,M2,81.94641864470711
BMu38,P47,PAT,INI,Trunk_Forward,1,R_MTF,FM,M3,83.40961468412132
BMu38,P47,PAT,REL,Trunk_Forward,1,L_MTF,FM,M1,98.92368184764295
BMu38,P47,PAT,REL,Trunk_Forward,1,L_MTF,FM,M2,95.57734440079263
BMu38,P47,PAT,REL,Trunk_Forward,1,L_MTF,FM,M3,98.2803898732154
BMu38,P47,PAT,REL,Trunk_Forward,1,R_MTF,FM,M1,75.20062466969736
BMu38,P47,PAT,REL,Trunk_Forward,1,R_MTF,FM,M2,74.47610365155494
BMu38,P47,PAT,REL,Trunk_Forward,1,R_MTF,FM,M3,69.9604230687766
BMu38,P48,CTR,INI,Trunk_Forward,1,L_MTF,FM,M1,112.76547325231613
BMu38,P48,CTR,INI,Trunk_Forward,1,L_MTF,FM,M2,110.8531424362486
BMu38,P48,CTR,INI,Trunk_Forward,1,L_MTF,FM,M3,113.24534290205852
BMu38,P48,CTR,INI,Trunk_Forward,1,R_MTF,FM,M1,116.82559062590026
BMu38,P48,CTR,INI,Trunk_Forward,1,R_MTF,FM,M2,119.1580866109005
BMu38,P48,CTR,INI,Trunk_Forward,1,R_MTF,FM,M3,118.92606664720296
BMu38,P48,CTR,REL,Trunk_Forward,1,L_MTF,FM,M1,115.87179761515691
BMu38,P48,CTR,REL,Trunk_Forward,1,L_MTF,FM,M2,115.54952572552787
BMu38,P48,CTR,REL,Trunk_Forward,1,L_MTF,FM,M3,109.74676968465388
BMu38,P48,CTR,REL,Trunk_Forward,1,R_MTF,FM,M1,128.90371410104777
BMu38,P48,CTR,REL,Trunk_Forward,1,R_MTF,FM,M2,123.36021579065668
BMu38,P48,CTR,REL,Trunk_Forward,1,R_MTF,FM,M3,130.0933658350749
BMu38,P49,CTR,INI,Trunk_Forward,1,L_MTF,FM,M1,101.98449934355277
BMu38,P49,CTR,INI,Trunk_Forward,1,L_MTF,FM,M2,101.39388369334728
BMu38,P49,CTR,INI,Trunk_Forward,1,L_MTF,FM,M3,97.96751174974221
BMu38,P49,CTR,INI,Trunk_Forward,1,R_MTF,FM,M1,110.96783195041826
BMu38,P49,CTR,INI,Trunk_Forward,1,R_MTF,FM,M2,111.83955822021248
BMu38,P49,CTR,INI,Trunk_Forward,1,R_MTF,FM,M3,115.82930028238157
BMu38,P49,CTR,REL,Trunk_Forward,1,L_MTF,FM,M1,101.58201505070144
BMu38,P49,CTR,REL,Trunk_Forward,1,L_MTF,FM,M2,101.242313300047
BMu38,P49,CTR,REL,Trunk_Forward,1,L_MTF,FM,M3,100.94259493558525
BMu38,P49,CTR,REL,Trunk_Forward,1,R_MTF,FM,M1,105.25497264387512
BMu38,P49,CTR,REL,Trunk_Forward,1,R_MTF,FM,M2,112.41169422470375
BMu38,P49,CTR,REL,Trunk_Forward,1,R_MTF,FM,M3,111.84428197809144
BMu38,P50,PAT,INI,Trunk_Forward,1,L_MTF,FM,M1,128.05468448460778
BMu38,P50,PAT,INI,Trunk_Forward,1,L_MTF,FM,M2,128.97113594141257
BMu38,P50,PAT,INI,Trunk_Forward,1,L_MTF,FM,M3,127.00005176982992
BMu38,P50,PAT,INI,Trunk_Forward,1,R_MTF,FM,M1,77.095260500825
BMu38,P50,PAT,INI,Trunk_Forward,1,R_MTF,FM,M2,60.006461338204936
BMu38,P50,PAT,INI,Trunk_Forward,1,R_MTF,FM,M3,50.865526789564264
BMu38,P50,PAT,REL,Trunk_Forward,1,L_MTF,FM,M1,137.84763075870652
BMu38,P50,PAT,REL,Trunk_Forward,1,L_MTF,FM,M2,139.75753273110303
BMu38,P50,PAT,REL,Trunk_Forward,1,L_MTF,FM,M3,138.3772464607372
BMu38,P50,PAT,REL,Trunk_Forward,1,R_MTF,FM,M1,97.3335647281985
BMu38,P50,PAT,REL,Trunk_Forward,1,R_MTF,FM,M2,43.81867915275236
BMu38,P50,PAT,REL,Trunk_Forward,1,R_MTF,FM,M3,73.42288287407527
BMu38,P51,PAT,INI,Trunk_Forward,1,L_MTF,FM,M1,78.50832357950702
BMu38,P51,PAT,INI,Trunk_Forward,1,L_MTF,FM,M2,78.75334667426586
BMu38,P51,PAT,INI,Trunk_Forward,1,L_MTF,FM,M3,81.19601814155048
BMu38,P51,PAT,INI,Trunk_Forward,1,R_MTF,FM,M1,80.36121552122223
BMu38,P51,PAT,INI,Trunk_Forward,1,R_MTF,FM,M2,81.45613765760012
BMu38,P51,PAT,INI,Trunk_Forward,1,R_MTF,FM,M3,77.84775965081987
BMu38,P51,PAT,REL,Trunk_Forward,1,L_MTF,FM,M1,81.25019328470594
BMu38,P51,PAT,REL,Trunk_Forward,1,L_MTF,FM,M2,83.49185554986516
BMu38,P51,PAT,REL,Trunk_Forward,1,L_MTF,FM,M3,83.88806872130155
BMu38,P51,PAT,REL,Trunk_Forward,1,R_MTF,FM,M1,65.36576489446968
BMu38,P51,PAT,REL,Trunk_Forward,1,R_MTF,FM,M2,87.30993651519941
BMu38,P51,PAT,REL,Trunk_Forward,1,R_MTF,FM,M3,88.29287897052012
BMu38,P52,CTR,INI,Trunk_Forward,1,L_MTF,FM,M1,108.8503364014178
BMu38,P52,CTR,INI,Trunk_Forward,1,L_MTF,FM,M2,105.4026513349567
BMu38,P52,CTR,INI,Trunk_Forward,1,L_MTF,FM,M3,114.18844646718819
BMu38,P52,CTR,INI,Trunk_Forward,1,R_MTF,FM,M1,112.95208078450013
BMu38,P52,CTR,INI,Trunk_Forward,1,R_MTF,FM,M2,115.62381925663566
BMu38,P52,CTR,INI,Trunk_Forward,1,R_MTF,FM,M3,117.40176957619163
BMu38,P52,CTR,REL,Trunk_Forward,1,L_MTF,FM,M1,116.6673648204417
BMu38,P52,CTR,REL,Trunk_Forward,1,L_MTF,FM,M2,116.8525772573093
BMu38,P52,CTR,REL,Trunk_Forward,1,L_MTF,FM,M3,116.61442471556161
BMu38,P52,CTR,REL,Trunk_Forward,1,R_MTF,FM,M1,116.5844669677633
BMu38,P52,CTR,REL,Trunk_Forward,1,R_MTF,FM,M2,125.75234160382855
BMu38,P52,CTR,REL,Trunk_Forward,1,R_MTF,FM,M3,132.3677714543549
BMu38,P53,PAT,INI,Trunk_Forward,1,L_MTF,FM,M1,98.3345039488934
BMu38,P53,PAT,INI,Trunk_Forward,1,L_MTF,FM,M2,97.07442678795891
BMu38,P53,PAT,INI,Trunk_Forward,1,L_MTF,FM,M3,92.0430725801275
BMu38,P53,PAT,INI,Trunk_Forward,1,R_MTF,FM,M1,106.13794527720975
BMu38,P53,PAT,INI,Trunk_Forward,1,R_MTF,FM,M2,104.8955661669629
BMu38,P53,PAT,INI,Trunk_Forward,1,R_MTF,FM,M3,101.75317220524754
BMu38,P53,PAT,REL,Trunk_Forward,1,L_MTF,FM,M1,90.0949831543161
BMu38,P53,PAT,REL,Trunk_Forward,1,L_MTF,FM,M2,88.56890748268945
BMu38,P53,PAT,REL,Trunk_Forward,1,L_MTF,FM,M3,87.38773002332161
BMu38,P53,PAT,REL,Trunk_Forward,1,R_MTF,FM,M1,95.77749959618811
BMu38,P53,PAT,REL,Trunk_Forward,1,R_MTF,FM,M2,95.66195780324743
BMu38,P53,PAT,REL,Trunk_Forward,1,R_MTF,FM,M3,94.33264906609
BMu38,P54,PAT,INI,Trunk_Forward,1,L_MTF,FM,M1,99.83007106778362
BMu38,P54,PAT,INI,Trunk_Forward,1,L_MTF,FM,M2,79.54116283033021
BMu38,P54,PAT,INI,Trunk_Forward,1,L_MTF,FM,M3,84.05449575026779
BMu38,P54,PAT,INI,Trunk_Forward,1,R_MTF,FM,M1,105.31316059643184
BMu38,P54,PAT,INI,Trunk_Forward,1,R_MTF,FM,M2,96.65016583913753
BMu38,P54,PAT,INI,Trunk_Forward,1,R_MTF,FM,M3,86.23154836931423
BMu38,P54,PAT,REL,Trunk_Forward,1,L_MTF,FM,M1,110.50223882249385
BMu38,P54,PAT,REL,Trunk_Forward,1,L_MTF,FM,M2,110.79756906283147
BMu38,P54,PAT,REL,Trunk_Forward,1,L_MTF,FM,M3,108.69400655157487
BMu38,P54,PAT,REL,Trunk_Forward,1,R_MTF,FM,M1,109.71932376346473
BMu38,P54,PAT,REL,Trunk_Forward,1,R_MTF,FM,M2,110.03309067344472
BMu38,P54,PAT,REL,Trunk_Forward,1,R_MTF,FM,M3,110.7070632015518
BMu38,P55,CTR,INI,Trunk_Forward,1,L_MTF,FM,M1,71.25729075200285
BMu38,P55,CTR,INI,Trunk_Forward,1,L_MTF,FM,M2,62.372502603340195
BMu38,P55,CTR,INI,Trunk_Forward,1,L_MTF,FM,M3,46.88678564255332
BMu38,P55,CTR,INI,Trunk_Forward,1,R_MTF,FM,M1,76.40906374848105
BMu38,P55,CTR,INI,Trunk_Forward,1,R_MTF,FM,M2,77.78907128371507
BMu38,P55,CTR,INI,Trunk_Forward,1,R_MTF,FM,M3,74.32860455023787
BMu38,P55,CTR,REL,Trunk_Forward,1,L_MTF,FM,M1,91.44542468226682
BMu38,P55,CTR,REL,Trunk_Forward,1,L_MTF,FM,M2,87.17687529086524
BMu38,P55,CTR,REL,Trunk_Forward,1,L_MTF,FM,M3,91.71787380731162
BMu38,P55,CTR,REL,Trunk_Forward,1,R_MTF,FM,M1,79.97364449331158
BMu38,P55,CTR,REL,Trunk_Forward,1,R_MTF,FM,M2,78.64473967965685
BMu38,P55,CTR,REL,Trunk_Forward,1,R_MTF,FM,M3,83.93761285720163
BMu38,P56,CTR,INI,Trunk_Forward,1,L_MTF,FM,M1,71.01158312645967
BMu38,P56,CTR,INI,Trunk_Forward,1,L_MTF,FM,M2,83.64184672161267
BMu38,P56,CTR,INI,Trunk_Forward,1,L_MTF,FM,M3,85.15893659552172
BMu38,P56,CTR,INI,Trunk_Forward,1,R_MTF,FM,M1,63.349818191761436
BMu38,P56,CTR,INI,Trunk_Forward,1,R_MTF,FM,M2,69.21313229823392
BMu38,P56,CTR,INI,Trunk_Forward,1,R_MTF,FM,M3,67.08419852700672
BMu38,P56,CTR,REL,Trunk_Forward,1,L_MTF,FM,M1,79.07633529133649
BMu38,P56,CTR,REL,Trunk_Forward,1,L_MTF,FM,M2,77.22199491494551
BMu38,P56,CTR,REL,Trunk_Forward,1,L_MTF,FM,M3,81.36147781037296
BMu38,P56,CTR,REL,Trunk_Forward,1,R_MTF,FM,M1,48.54091572500618
BMu38,P56,CTR,REL,Trunk_Forward,1,R_MTF,FM,M2,54.53781041207015
BMu38,P56,CTR,REL,Trunk_Forward,1,R_MTF,FM,M3,62.68365434711292
BMu38,P57,CTR,INI,Trunk_Forward,1,L_MTF,FM,M1,69.43943477140309
BMu38,P57,CTR,INI,Trunk_Forward,1,L_MTF,FM,M2,72.86192547717859
BMu38,P57,CTR,INI,Trunk_Forward,1,L_MTF,FM,M3,60.38894343692458
BMu38,P57,CTR,INI,Trunk_Forward,1,R_MTF,FM,M1,72.67288205031005
BMu38,P57,CTR,INI,Trunk_Forward,1,R_MTF,FM,M2,67.3085507425278
BMu38,P57,CTR,INI,Trunk_Forward,1,R_MTF,FM,M3,78.51903650589567
BMu38,P57,CTR,REL,Trunk_Forward,1,L_MTF,FM,M1,87.40397718750967
BMu38,P57,CTR,REL,Trunk_Forward,1,L_MTF,FM,M2,76.36297867475538
BMu38,P57,CTR,REL,Trunk_Forward,1,L_MTF,FM,M3,84.76340586259487
BMu38,P57,CTR,REL,Trunk_Forward,1,R_MTF,FM,M1,71.70394647171045
BMu38,P57,CTR,REL,Trunk_Forward,1,R_MTF,FM,M2,68.71461347035785
BMu38,P57,CTR,REL,Trunk_Forward,1,R_MTF,FM,M3,83.4691459243855
BMu38,P58,PAT,INI,Trunk_Forward,1,L_MTF,FM,M1,45.6311999052495
BMu38,P58,PAT,INI,Trunk_Forward,1,L_MTF,FM,M2,48.268579063698745
BMu38,P58,PAT,INI,Trunk_Forward,1,L_MTF,FM,M3,50.42325286205848
BMu38,P58,PAT,INI,Trunk_Forward,1,R_MTF,FM,M1,37.45508176949129
BMu38,P58,PAT,INI,Trunk_Forward,1,R_MTF,FM,M2,47.586136402609306
BMu38,P58,PAT,INI,Trunk_Forward,1,R_MTF,FM,M3,37.803578582217156
BMu38,P58,PAT,REL,Trunk_Forward,1,L_MTF,FM,M1,73.55774804265641
BMu38,P58,PAT,REL,Trunk_Forward,1,L_MTF,FM,M2,64.73129773028165
BMu38,P58,PAT,REL,Trunk_Forward,1,L_MTF,FM,M3,58.35678211167843
BMu38,P58,PAT,REL,Trunk_Forward,1,R_MTF,FM,M1,89.2552710831242
BMu38,P58,PAT,REL,Trunk_Forward,1,R_MTF,FM,M2,89.48296725035144
BMu38,P58,PAT,REL,Trunk_Forward,1,R_MTF,FM,M3,94.1682651421347
BMu38,P60,CTR,INI,Trunk_Forward,1,L_MTF,FM,M1,105.63503100731144
BMu38,P60,CTR,INI,Trunk_Forward,1,L_MTF,FM,M2,104.40889219474323
BMu38,P60,CTR,INI,Trunk_Forward,1,L_MTF,FM,M3,103.93203738979744
BMu38,P60,CTR,INI,Trunk_Forward,1,R_MTF,FM,M1,113.90282307599695
BMu38,P60,CTR,INI,Trunk_Forward,1,R_MTF,FM,M2,110.36125073913709
BMu38,P60,CTR,INI,Trunk_Forward,1,R_MTF,FM,M3,104.24103914473395
BMu38,P60,CTR,REL,Trunk_Forward,1,L_MTF,FM,M1,106.3705838331568
BMu38,P60,CTR,REL,Trunk_Forward,1,L_MTF,FM,M2,98.8855014926909
BMu38,P60,CTR,REL,Trunk_Forward,1,L_MTF,FM,M3,107.10210377475754
BMu38,P60,CTR,REL,Trunk_Forward,1,R_MTF,FM,M1,113.07476363126156
BMu38,P60,CTR,REL,Trunk_Forward,1,R_MTF,FM,M2,105.7287179916026
BMu38,P60,CTR,REL,Trunk_Forward,1,R_MTF,FM,M3,109.08540363268679
BMu38,P61,PAT,INI,Trunk_Forward,1,L_MTF,FM,M1,83.3074930067158
BMu38,P61,PAT,INI,Trunk_Forward,1,L_MTF,FM,M2,85.18750671184758
BMu38,P61,PAT,INI,Trunk_Forward,1,L_MTF,FM,M3,82.67953055042598
BMu38,P61,PAT,INI,Trunk_Forward,1,R_MTF,FM,M1,75.46674300908097
BMu38,P61,PAT,INI,Trunk_Forward,1,R_MTF,FM,M2,87.46790829878354
BMu38,P61,PAT,INI,Trunk_Forward,1,R_MTF,FM,M3,86.58449520025411
BMu38,P61,PAT,REL,Trunk_Forward,1,L_MTF,FM,M1,80.73976236127757
BMu38,P61,PAT,REL,Trunk_Forward,1,L_MTF,FM,M2,81.81147409656768
BMu38,P61,PAT,REL,Trunk_Forward,1,L_MTF,FM,M3,83.81192696908762
BMu38,P61,PAT,REL,Trunk_Forward,1,R_MTF,FM,M1,80.00348371637628
BMu38,P61,PAT,REL,Trunk_Forward,1,R_MTF,FM,M2,79.1555371716529
BMu38,P61,PAT,REL,Trunk_Forward,1,R_MTF,FM,M3,77.37417867239664
BMu38,P62,PAT,INI,Trunk_Forward,1,L_MTF,FM,M1,98.48727353376717
BMu38,P62,PAT,INI,Trunk_Forward,1,L_MTF,FM,M2,98.69200317706543
BMu38,P62,PAT,INI,Trunk_Forward,1,L_MTF,FM,M3,95.50576535256474
BMu38,P62,PAT,INI,Trunk_Forward,1,R_MTF,FM,M1,91.34514590723158
BMu38,P62,PAT,INI,Trunk_Forward,1,R_MTF,FM,M2,82.89247382796955
BMu38,P62,PAT,INI,Trunk_Forward,1,R_MTF,FM,M3,87.46781159995213
BMu38,P62,PAT,REL,Trunk_Forward,1,L_MTF,FM,M1,97.18826392804115
BMu38,P62,PAT,REL,Trunk_Forward,1,L_MTF,FM,M2,96.06525191324037
BMu38,P62,PAT,REL,Trunk_Forward,1,L_MTF,FM,M3,94.59081145258722
BMu38,P62,PAT,REL,Trunk_Forward,1,R_MTF,FM,M1,90.85043467600357
BMu38,P62,PAT,REL,Trunk_Forward,1,R_MTF,FM,M2,88.3023973247471
BMu38,P62,PAT,REL,Trunk_Forward,1,R_MTF,FM,M3,84.82668728616484
BMu38,P63,PAT,INI,Trunk_Forward,1,L_MTF,FM,M1,91.46566170912432
BMu38,P63,PAT,INI,Trunk_Forward,1,L_MTF,FM,M2,91.76287396457163
BMu38,P63,PAT,INI,Trunk_Forward,1,L_MTF,FM,M3,86.46969963489258
BMu38,P63,PAT,INI,Trunk_Forward,1,R_MTF,FM,M1,101.91605194552544
BMu38,P63,PAT,INI,Trunk_Forward,1,R_MTF,FM,M2,98.28337023779044
BMu38,P63,PAT,INI,Trunk_Forward,1,R_MTF,FM,M3,108.85320116548225
BMu38,P63,PAT,REL,Trunk_Forward,1,L_MTF,FM,M1,100.67519264372629
BMu38,P63,PAT,REL,Trunk_Forward,1,L_MTF,FM,M2,100.19345612990045
BMu38,P63,PAT,REL,Trunk_Forward,1,L_MTF,FM,M3,104.5263640629709
BMu38,P63,PAT,REL,Trunk_Forward,1,R_MTF,FM,M1,82.14424862272604
BMu38,P63,PAT,REL,Trunk_Forward,1,R_MTF,FM,M2,84.09562548627605
BMu38,P63,PAT,REL,Trunk_Forward,1,R_MTF,FM,M3,88.18234427895659
BMu38,P64,CTR,INI,Trunk_Forward,1,L_MTF,FM,M1,86.39697837688527
BMu38,P64,CTR,INI,Trunk_Forward,1,L_MTF,FM,M2,89.14646763220748
BMu38,P64,CTR,INI,Trunk_Forward,1,L_MTF,FM,M3,92.17842331099843
BMu38,P64,CTR,INI,Trunk_Forward,1,R_MTF,FM,M1,88.4435850414311
BMu38,P64,CTR,INI,Trunk_Forward,1,R_MTF,FM,M2,93.6295216818068
BMu38,P64,CTR,INI,Trunk_Forward,1,R_MTF,FM,M3,97.2170060616033
BMu38,P64,CTR,REL,Trunk_Forward,1,L_MTF,FM,M1,88.23992850144276
BMu38,P64,CTR,REL,Trunk_Forward,1,L_MTF,FM,M2,89.08048420063837
BMu38,P64,CTR,REL,Trunk_Forward,1,L_MTF,FM,M3,87.7234598485398
BMu38,P64,CTR,REL,Trunk_Forward,1,R_MTF,FM,M1,92.2463126203677
BMu38,P64,CTR,REL,Trunk_Forward,1,R_MTF,FM,M2,103.2220665915307
BMu38,P64,CTR,REL,Trunk_Forward,1,R_MTF,FM,M3,97.95879722993328
BMu38,P65,PAT,INI,Trunk_Forward,1,L_MTF,FM,M1,94.31182266797805
BMu38,P65,PAT,INI,Trunk_Forward,1,L_MTF,FM,M2,100.43407506213374
BMu38,P65,PAT,INI,Trunk_Forward,1,L_MTF,FM,M3,98.13951184983738
BMu38,P65,PAT,INI,Trunk_Forward,1,R_MTF,FM,M1,101.61880701317642
BMu38,P65,PAT,INI,Trunk_Forward,1,R_MTF,FM,M2,106.27904355171319
BMu38,P65,PAT,INI,Trunk_Forward,1,R_MTF,FM,M3,106.39004739619655
BMu38,P65,PAT,REL,Trunk_Forward,1,L_MTF,FM,M1,96.38045939734995
BMu38,P65,PAT,REL,Trunk_Forward,1,L_MTF,FM,M2,94.28343226291477
BMu38,P65,PAT,REL,Trunk_Forward,1,L_MTF,FM,M3,95.36397184293025
BMu38,P65,PAT,REL,Trunk_Forward,1,R_MTF,FM,M1,97.74647386135105
BMu38,P65,PAT,REL,Trunk_Forward,1,R_MTF,FM,M2,99.09370639173751
BMu38,P65,PAT,REL,Trunk_Forward,1,R_MTF,FM,M3,97.96620705557444
BMu38,P66,CTR,INI,Trunk_Forward,1,L_MTF,FM,M1,67.84587309701419
BMu38,P66,CTR,INI,Trunk_Forward,1,L_MTF,FM,M2,45.63049573065795
BMu38,P66,CTR,INI,Trunk_Forward,1,L_MTF,FM,M3,53.580445042909886
BMu38,P66,CTR,INI,Trunk_Forward,1,R_MTF,FM,M1,47.80002412744416
BMu38,P66,CTR,INI,Trunk_Forward,1,R_MTF,FM,M2,44.884158793674565
BMu38,P66,CTR,INI,Trunk_Forward,1,R_MTF,FM,M3,51.75801599322164
BMu38,P66,CTR,REL,Trunk_Forward,1,L_MTF,FM,M1,67.45904818480408
BMu38,P66,CTR,REL,Trunk_Forward,1,L_MTF,FM,M2,82.24712507157129
BMu38,P66,CTR,REL,Trunk_Forward,1,L_MTF,FM,M3,79.76030673425716
BMu38,P66,CTR,REL,Trunk_Forward,1,R_MTF,FM,M1,70.66262137762259
BMu38,P66,CTR,REL,Trunk_Forward,1,R_MTF,FM,M2,76.81173043987683
BMu38,P66,CTR,REL,Trunk_Forward,1,R_MTF,FM,M3,76.53281335341752
BMu38,P67,CTR,INI,Trunk_Forward,1,L_MTF,FM,M1,102.7521413652818
BMu38,P67,CTR,INI,Trunk_Forward,1,L_MTF,FM,M2,94.35881971220154
BMu38,P67,CTR,INI,Trunk_Forward,1,L_MTF,FM,M3,105.39362930375268
BMu38,P67,CTR,INI,Trunk_Forward,1,R_MTF,FM,M1,89.86790922964065
BMu38,P67,CTR,INI,Trunk_Forward,1,R_MTF,FM,M2,86.91266449447774
BMu38,P67,CTR,INI,Trunk_Forward,1,R_MTF,FM,M3,96.35070637915149
BMu38,P67,CTR,REL,Trunk_Forward,1,L_MTF,FM,M1,107.11381615599667
BMu38,P67,CTR,REL,Trunk_Forward,1,L_MTF,FM,M2,99.90921160727008
BMu38,P67,CTR,REL,Trunk_Forward,1,L_MTF,FM,M3,96.48591945244173
BMu38,P67,CTR,REL,Trunk_Forward,1,R_MTF,FM,M1,88.61074474596097
BMu38,P67,CTR,REL,Trunk_Forward,1,R_MTF,FM,M2,91.11214039913858
BMu38,P67,CTR,REL,Trunk_Forward,1,R_MTF,FM,M3,84.75591535577342
BMu38,P68,CTR,INI,Trunk_Forward,1,L_MTF,FM,M1,116.15267071933958
BMu38,P68,CTR,INI,Trunk_Forward,1,L_MTF,FM,M2,113.92852545128737
BMu38,P68,CTR,INI,Trunk_Forward,1,L_MTF,FM,M3,113.15819960673907
BMu38,P68,CTR,INI,Trunk_Forward,1,R_MTF,FM,M1,108.15111969833579
BMu38,P68,CTR,INI,Trunk_Forward,1,R_MTF,FM,M2,100.85178068751873
BMu38,P68,CTR,INI,Trunk_Forward,1,R_MTF,FM,M3,92.68189725146304
BMu38,P68,CTR,REL,Trunk_Forward,1,L_MTF,FM,M1,124.2313778788075
BMu38,P68,CTR,REL,Trunk_Forward,1,L_MTF,FM,M2,118.4007018184193
BMu38,P68,CTR,REL,Trunk_Forward,1,L_MTF,FM,M3,121.39672280885421
BMu38,P68,CTR,REL,Trunk_Forward,1,L_MTF,FM,M4,118.81887720454161
BMu38,P68,CTR,REL,Trunk_Forward,1,R_MTF,FM,M1,117.8955134103788
BMu38,P68,CTR,REL,Trunk_Forward,1,R_MTF,FM,M2,114.73969662653106
BMu38,P68,CTR,REL,Trunk_Forward,1,R_MTF,FM,M3,108.24596783031467
BMu38,P68,CTR,REL,Trunk_Forward,1,R_MTF,FM,M4,100.69405723055684
