BMu,Participant,Group,Session,task,trials,channel,Operator,Measure,Value
BMu34,P01,CTR,INI,Trunk_Lateral,1,L_MTF,FM,M1,2.6548763070007855
BMu34,P01,CTR,INI,Trunk_Lateral,1,L_MTF,FM,M2,2.9557994969779817
BMu34,P01,CTR,INI,Trunk_Lateral,1,L_MTF,FM,M3,2.690581542363364
BMu34,P01,CTR,INI,Trunk_Lateral,1,R_MTF,FM,M1,0.07774991243397353
BMu34,P01,CTR,INI,Trunk_Lateral,1,R_MTF,FM,M2,0.31034280766023437
BMu34,P01,CTR,INI,Trunk_Lateral,1,R_MTF,FM,M3,0.07828081100170003
BMu34,P01,CTR,REL,Trunk_Lateral,1,L_MTF,FM,M1,2.8113640833773035
BMu34,P01,CTR,REL,Trunk_Lateral,1,L_MTF,FM,M2,3.7801952952279083
BMu34,P01,CTR,REL,Trunk_Lateral,1,L_MTF,FM,M3,3.275167153354171
BMu34,P01,CTR,REL,Trunk_Lateral,1,R_MTF,FM,M1,3.197882173623724
BMu34,P01,CTR,REL,Trunk_Lateral,1,R_MTF,FM,M2,2.61675460708566
BMu34,P01,CTR,REL,Trunk_Lateral,1,R_MTF,FM,M3,2.4629469812373324
BMu34,P02,CTR,INI,Trunk_Lateral,1,L_MTF,FM,M1,8.556306651568901
BMu34,P02,CTR,INI,Trunk_Lateral,1,L_MTF,FM,M2,7.992139792664715
BMu34,P02,CTR,INI,Trunk_Lateral,1,L_MTF,FM,M3,7.338780048377895
BMu34,P02,CTR,INI,Trunk_Lateral,1,R_MTF,FM,M1,7.653264157833667
BMu34,P02,CTR,INI,Trunk_Lateral,1,R_MTF,FM,M2,7.401067041901243
BMu34,P02,CTR,INI,Trunk_Lateral,1,R_MTF,FM,M3,7.806327188588403
BMu34,P03,CTR,INI,Trunk_Lateral,1,L_MTF,FM,M1,9.100399750982962
BMu34,P03,CTR,INI,Trunk_Lateral,1,L_MTF,FM,M2,11.530253464150853
BMu34,P03,CTR,INI,Trunk_Lateral,1,L_MTF,FM,M3,9.981991020742761
BMu34,P03,CTR,INI,Trunk_Lateral,1,R_MTF,FM,M1,9.188637324588381
BMu34,P03,CTR,INI,Trunk_Lateral,1,R_MTF,FM,M2,10.661707751259428
BMu34,P03,CTR,INI,Trunk_Lateral,1,R_MTF,FM,M3,9.984415958741096
BMu34,P03,CTR,REL,Trunk_Lateral,1,L_MTF,FM,M1,9.151483220917871
BMu34,P03,CTR,REL,Trunk_Lateral,1,L_MTF,FM,M2,9.88308609894629
BMu34,P03,CTR,REL,Trunk_Lateral,1,L_MTF,FM,M3,8.964058175688493
BMu34,P03,CTR,REL,Trunk_Lateral,1,R_MTF,FM,M1,10.85778790636433
BMu34,P03,CTR,REL,Trunk_Lateral,1,R_MTF,FM,M2,12.364033492613142
BMu34,P03,CTR,REL,Trunk_Lateral,1,R_MTF,FM,M3,12.393819635885315
BMu34,P05,CTR,INI,Trunk_Lateral,1,L_MTF,FM,M1,3.223739874091816
BMu34,P05,CTR,INI,Trunk_Lateral,1,L_MTF,FM,M2,4.295357073984377
BMu34,P05,CTR,INI,Trunk_Lateral,1,L_MTF,FM,M3,3.594424394579917
BMu34,P05,CTR,INI,Trunk_Lateral,1,R_MTF,FM,M1,4.966574506259297
BMu34,P05,CTR,INI,Trunk_Lateral,1,R_MTF,FM,M2,4.2502329401133405
BMu34,P05,CTR,INI,Trunk_Lateral,1,R_MTF,FM,M3,4.477039454690691
BMu34,P05,CTR,REL,Trunk_Lateral,1,L_MTF,FM,M1,5.438338852483149
BMu34,P05,CTR,REL,Trunk_Lateral,1,L_MTF,FM,M2,7.926665308719414
BMu34,P05,CTR,REL,Trunk_Lateral,1,L_MTF,FM,M3,6.669887879708195
BMu34,P05,CTR,REL,Trunk_Lateral,1,R_MTF,FM,M1,4.585940433884911
BMu34,P05,CTR,REL,Trunk_Lateral,1,R_MTF,FM,M2,4.456444888004752
BMu34,P05,CTR,REL,Trunk_Lateral,1,R_MTF,FM,M3,4.4563384311267065
BMu34,P06,CTR,INI,Trunk_Lateral,1,L_MTF,FM,M1,18.05820630305114
BMu34,P06,CTR,INI,Trunk_Lateral,1,L_MTF,FM,M2,19.000012328432994
BMu34,P06,CTR,INI,Trunk_Lateral,1,L_MTF,FM,M3,18.590443852437872
BMu34,P06,CTR,INI,Trunk_Lateral,1,R_MTF,FM,M1,17.362694257922136
BMu34,P06,CTR,INI,Trunk_Lateral,1,R_MTF,FM,M2,18.079692719035812
BMu34,P06,CTR,INI,Trunk_Lateral,1,R_MTF,FM,M3,17.667647788568907
BMu34,P06,CTR,REL,Trunk_Lateral,1,L_MTF,FM,M1,12.899587728154188
BMu34,P06,CTR,REL,Trunk_Lateral,1,L_MTF,FM,M2,13.52418570857273
BMu34,P06,CTR,REL,Trunk_Lateral,1,L_MTF,FM,M3,12.879593643024501
BMu34,P06,CTR,REL,Trunk_Lateral,1,R_MTF,FM,M1,12.535041458510799
BMu34,P06,CTR,REL,Trunk_Lateral,1,R_MTF,FM,M2,11.692990365043766
BMu34,P06,CTR,REL,Trunk_Lateral,1,R_MTF,FM,M3,11.788177103594945
BMu34,P07,CTR,INI,Trunk_Lateral,1,L_MTF,FM,M1,7.22005510191112
BMu34,P07,CTR,INI,Trunk_Lateral,1,L_MTF,FM,M2,7.755549116849533
BMu34,P07,CTR,INI,Trunk_Lateral,1,L_MTF,FM,M3,9.062626537250342
BMu34,P07,CTR,INI,Trunk_Lateral,1,R_MTF,FM,M1,6.947138396317538
BMu34,P07,CTR,INI,Trunk_Lateral,1,R_MTF,FM,M2,6.542040229311166
BMu34,P07,CTR,INI,Trunk_Lateral,1,R_MTF,FM,M3,6.657176613009763
BMu34,P07,CTR,REL,Trunk_Lateral,1,L_MTF,FM,M1,6.118273210328582
BMu34,P07,CTR,REL,Trunk_Lateral,1,L_MTF,FM,M2,7.770773064706535
BMu34,P07,CTR,REL,Trunk_Lateral,1,L_MTF,FM,M3,8.595385976485758
BMu34,P07,CTR,REL,Trunk_Lateral,1,R_MTF,FM,M1,8.265823559042802
BMu34,P07,CTR,REL,Trunk_Lateral,1,R_MTF,FM,M2,9.63406846531322
BMu34,P07,CTR,REL,Trunk_Lateral,1,R_MTF,FM,M3,12.235288166856156
BMu34,P08,CTR,INI,Trunk_Lateral,1,L_MTF,FM,M1,1.555955942162591
BMu34,P08,CTR,INI,Trunk_Lateral,1,L_MTF,FM,M2,1.3898399402119996
BMu34,P08,CTR,INI,Trunk_Lateral,1,L_MTF,FM,M3,0.9671580191061503
BMu34,P08,CTR,INI,Trunk_Lateral,1,R_MTF,FM,M1,3.9318329418783904
BMu34,P08,CTR,INI,Trunk_Lateral,1,R_MTF,FM,M2,3.9538379027714776
BMu34,P08,CTR,INI,Trunk_Lateral,1,R_MTF,FM,M3,3.463855343389283
BMu34,P08,CTR,REL,Trunk_Lateral,1,L_MTF,FM,M1,5.554146785784534
BMu34,P08,CTR,REL,Trunk_Lateral,1,L_MTF,FM,M2,5.558678741545036
BMu34,P08,CTR,REL,Trunk_Lateral,1,L_MTF,FM,M3,4.903225298770071
BMu34,P08,CTR,REL,Trunk_Lateral,1,R_MTF,FM,M1,2.3346874161144258
BMu34,P08,CTR,REL,Trunk_Lateral,1,R_MTF,FM,M2,2.174611056793659
BMu34,P08,CTR,REL,Trunk_Lateral,1,R_MTF,FM,M3,2.154484312067693
BMu34,P09,PAT,INI,Trunk_Lateral,1,L_MTF,FM,M1,9.659114783761982
BMu34,P09,PAT,INI,Trunk_Lateral,1,L_MTF,FM,M2,9.700297880379111
BMu34,P09,PAT,INI,Trunk_Lateral,1,L_MTF,FM,M3,9.405694201584053
BMu34,P09,PAT,INI,Trunk_Lateral,1,R_MTF,FM,M1,5.49687865528783
BMu34,P09,PAT,INI,Trunk_Lateral,1,R_MTF,FM,M2,5.802271037386319
BMu34,P09,PAT,INI,Trunk_Lateral,1,R_MTF,FM,M3,5.319460186601186
BMu34,P09,PAT,REL,Trunk_Lateral,1,L_MTF,FM,M1,8.944340929491723
BMu34,P09,PAT,REL,Trunk_Lateral,1,L_MTF,FM,M2,11.338172514368399
BMu34,P09,PAT,REL,Trunk_Lateral,1,L_MTF,FM,M3,10.818627527631694
BMu34,P09,PAT,REL,Trunk_Lateral,1,R_MTF,FM,M1,9.046013954296292
BMu34,P09,PAT,REL,Trunk_Lateral,1,R_MTF,FM,M2,11.400431282090693
BMu34,P09,PAT,REL,Trunk_Lateral,1,R_MTF,FM,M3,9.137401830450212
BMu34,P10,PAT,INI,Trunk_Lateral,1,L_MTF,FM,M1,8.389839321064017
BMu34,P10,PAT,INI,Trunk_Lateral,1,L_MTF,FM,M2,7.329127513025866
BMu34,P10,PAT,INI,Trunk_Lateral,1,L_MTF,FM,M3,7.970434981888484
BMu34,P10,PAT,INI,Trunk_Lateral,1,R_MTF,FM,M1,6.3661146165697104
BMu34,P10,PAT,INI,Trunk_Lateral,1,R_MTF,FM,M2,6.671839682295035
BMu34,P10,PAT,INI,Trunk_Lateral,1,R_MTF,FM,M3,5.6882463407412835
BMu34,P10,PAT,REL,Trunk_Lateral,1,L_MTF,FM,M1,8.376182542812991
BMu34,P10,PAT,REL,Trunk_Lateral,1,L_MTF,FM,M2,8.485665352661131
BMu34,P10,PAT,REL,Trunk_Lateral,1,L_MTF,FM,M3,6.844467365878914
BMu34,P10,PAT,REL,Trunk_Lateral,1,R_MTF,FM,M1,7.723718999675014
BMu34,P10,PAT,REL,Trunk_Lateral,1,R_MTF,FM,M2,7.463122768320087
BMu34,P10,PAT,REL,Trunk_Lateral,1,R_MTF,FM,M3,7.4727145969740505
BMu34,P11,PAT,INI,Trunk_Lateral,1,L_MTF,FM,M1,5.683370037516985
BMu34,P11,PAT,INI,Trunk_Lateral,1,L_MTF,FM,M2,7.2588754076536475
BMu34,P11,PAT,INI,Trunk_Lateral,1,L_MTF,FM,M3,6.247959430874518
BMu34,P11,PAT,INI,Trunk_Lateral,1,R_MTF,FM,M1,0.9441203944399041
BMu34,P11,PAT,INI,Trunk_Lateral,1,R_MTF,FM,M2,0.9186581350331412
BMu34,P11,PAT,INI,Trunk_Lateral,1,R_MTF,FM,M3,1.1589541647698707
BMu34,P11,PAT,REL,Trunk_Lateral,1,L_MTF,FM,M1,5.725641556128377
BMu34,P11,PAT,REL,Trunk_Lateral,1,L_MTF,FM,M2,4.562478784953045
BMu34,P11,PAT,REL,Trunk_Lateral,1,L_MTF,FM,M3,3.6403723199595976
BMu34,P11,PAT,REL,Trunk_Lateral,1,R_MTF,FM,M1,1.8578258332129465
BMu34,P11,PAT,REL,Trunk_Lateral,1,R_MTF,FM,M2,1.9788525701669801
BMu34,P11,PAT,REL,Trunk_Lateral,1,R_MTF,FM,M3,1.7704709302166917
BMu34,P12,PAT,INI,Trunk_Lateral,1,L_MTF,FM,M1,7.194106264625082
BMu34,P12,PAT,INI,Trunk_Lateral,1,L_MTF,FM,M2,8.035932257429556
BMu34,P12,PAT,INI,Trunk_Lateral,1,L_MTF,FM,M3,9.545289731362914
BMu34,P12,PAT,INI,Trunk_Lateral,1,R_MTF,FM,M1,7.519501907543217
BMu34,P12,PAT,INI,Trunk_Lateral,1,R_MTF,FM,M2,8.902785248560425
BMu34,P12,PAT,INI,Trunk_Lateral,1,R_MTF,FM,M3,8.821970137782538
BMu34,P12,PAT,REL,Trunk_Lateral,1,L_MTF,FM,M1,4.482266733882163
BMu34,P12,PAT,REL,Trunk_Lateral,1,L_MTF,FM,M2,5.135652263557406
BMu34,P12,PAT,REL,Trunk_Lateral,1,L_MTF,FM,M3,5.147306933007199
BMu34,P12,PAT,REL,Trunk_Lateral,1,R_MTF,FM,M1,0.1337461208288889
BMu34,P12,PAT,REL,Trunk_Lateral,1,R_MTF,FM,M2,0.9236116826767958
BMu34,P12,PAT,REL,Trunk_Lateral,1,R_MTF,FM,M3,0.7469401750680437
BMu34,P13,CTR,INI,Trunk_Lateral,1,L_MTF,FM,M1,9.067339841579368
BMu34,P13,CTR,INI,Trunk_Lateral,1,L_MTF,FM,M2,9.481503717235
BMu34,P13,CTR,INI,Trunk_Lateral,1,L_MTF,FM,M3,9.24157732047233
BMu34,P13,CTR,INI,Trunk_Lateral,1,R_MTF,FM,M1,6.090477814371868
BMu34,P13,CTR,INI,Trunk_Lateral,1,R_MTF,FM,M2,6.398869682272436
BMu34,P13,CTR,INI,Trunk_Lateral,1,R_MTF,FM,M3,6.4567666574903155
BMu34,P13,CTR,REL,Trunk_Lateral,1,L_MTF,FM,M1,11.675037054203571
BMu34,P13,CTR,REL,Trunk_Lateral,1,L_MTF,FM,M2,11.340130474044548
BMu34,P13,CTR,REL,Trunk_Lateral,1,L_MTF,FM,M3,11.40699734408447
BMu34,P13,CTR,REL,Trunk_Lateral,1,R_MTF,FM,M1,8.586348362507117
BMu34,P13,CTR,REL,Trunk_Lateral,1,R_MTF,FM,M2,8.704671617357572
BMu34,P13,CTR,REL,Trunk_Lateral,1,R_MTF,FM,M3,8.421323768591161
BMu34,P14,PAT,INI,Trunk_Lateral,1,L_MTF,FM,M1,6.570405168207752
BMu34,P14,PAT,INI,Trunk_Lateral,1,L_MTF,FM,M2,6.700621236573099
BMu34,P14,PAT,INI,Trunk_Lateral,1,L_MTF,FM,M3,6.040354030826297
BMu34,P14,PAT,INI,Trunk_Lateral,1,R_MTF,FM,M1,1.804302109327221
BMu34,P14,PAT,INI,Trunk_Lateral,1,R_MTF,FM,M2,2.0476311033488703
BMu34,P14,PAT,INI,Trunk_Lateral,1,R_MTF,FM,M3,1.8857254629080733
BMu34,P14,PAT,REL,Trunk_Lateral,1,L_MTF,FM,M1,6.05053212242517
BMu34,P14,PAT,REL,Trunk_Lateral,1,L_MTF,FM,M2,6.863504812930601
BMu34,P14,PAT,REL,Trunk_Lateral,1,L_MTF,FM,M3,5.9375025904671705
BMu34,P14,PAT,REL,Trunk_Lateral,1,R_MTF,FM,M1,12.670034617795874
BMu34,P14,PAT,REL,Trunk_Lateral,1,R_MTF,FM,M2,11.822100784911257
BMu34,P14,PAT,REL,Trunk_Lateral,1,R_MTF,FM,M3,10.528056837006861
BMu34,P16,CTR,INI,Trunk_Lateral,1,L_MTF,FM,M1,7.180703887474773
BMu34,P16,CTR,INI,Trunk_Lateral,1,L_MTF,FM,M2,7.3305091174778285
BMu34,P16,CTR,INI,Trunk_Lateral,1,L_MTF,FM,M3,6.466149506926261
BMu34,P16,CTR,INI,Trunk_Lateral,1,R_MTF,FM,M1,3.6637860736017496
BMu34,P16,CTR,INI,Trunk_Lateral,1,R_MTF,FM,M2,2.9809654692830745
BMu34,P16,CTR,INI,Trunk_Lateral,1,R_MTF,FM,M3,3.1112509176526872
BMu34,P16,CTR,REL,Trunk_Lateral,1,L_MTF,FM,M1,7.929289419321291
BMu34,P16,CTR,REL,Trunk_Lateral,1,L_MTF,FM,M2,8.418798464610907
BMu34,P16,CTR,REL,Trunk_Lateral,1,L_MTF,FM,M3,7.7192402188534395
BMu34,P16,CTR,REL,Trunk_Lateral,1,R_MTF,FM,M1,8.35619337376509
BMu34,P16,CTR,REL,Trunk_Lateral,1,R_MTF,FM,M2,8.560889010008799
BMu34,P16,CTR,REL,Trunk_Lateral,1,R_MTF,FM,M3,9.210116291897329
BMu34,P17,PAT,INI,Trunk_Lateral,1,L_MTF,FM,M1,8.923234829192637
BMu34,P17,PAT,INI,Trunk_Lateral,1,L_MTF,FM,M2,8.722532905916253
BMu34,P17,PAT,INI,Trunk_Lateral,1,L_MTF,FM,M3,8.112091170508064
BMu34,P17,PAT,INI,Trunk_Lateral,1,R_MTF,FM,M1,2.2765913894347043
BMu34,P17,PAT,INI,Trunk_Lateral,1,R_MTF,FM,M2,2.061429047891282
BMu34,P17,PAT,INI,Trunk_Lateral,1,R_MTF,FM,M3,1.9290755535415824
BMu34,P17,PAT,REL,Trunk_Lateral,1,L_MTF,FM,M1,8.951675928877133
BMu34,P17,PAT,REL,Trunk_Lateral,1,L_MTF,FM,M2,10.327291166958886
BMu34,P17,PAT,REL,Trunk_Lateral,1,L_MTF,FM,M3,8.817238205974373
BMu34,P17,PAT,REL,Trunk_Lateral,1,R_MTF,FM,M1,6.587113620224589
BMu34,P17,PAT,REL,Trunk_Lateral,1,R_MTF,FM,M2,7.0651861420528785
BMu34,P17,PAT,REL,Trunk_Lateral,1,R_MTF,FM,M3,6.584134696548425
BMu34,P21,CTR,INI,Trunk_Lateral,1,L_MTF,FM,M1,4.281365862056972
BMu34,P21,CTR,INI,Trunk_Lateral,1,L_MTF,FM,M2,5.06212645647827
BMu34,P21,CTR,INI,Trunk_Lateral,1,L_MTF,FM,M3,5.174764323188109
BMu34,P21,CTR,INI,Trunk_Lateral,1,R_MTF,FM,M1,7.678672419079952
BMu34,P21,CTR,INI,Trunk_Lateral,1,R_MTF,FM,M2,8.110231312583814
BMu34,P21,CTR,INI,Trunk_Lateral,1,R_MTF,FM,M3,9.032351967947784
BMu34,P21,CTR,REL,Trunk_Lateral,1,L_MTF,FM,M1,3.4067250703979544
BMu34,P21,CTR,REL,Trunk_Lateral,1,L_MTF,FM,M2,3.115164748532232
BMu34,P21,CTR,REL,Trunk_Lateral,1,L_MTF,FM,M3,3.845040527150438
BMu34,P21,CTR,REL,Trunk_Lateral,1,R_MTF,FM,M1,1.7374795878306517
BMu34,P21,CTR,REL,Trunk_Lateral,1,R_MTF,FM,M2,2.456353044038604
BMu34,P21,CTR,REL,Trunk_Lateral,1,R_MTF,FM,M3,2.2002361269918818
BMu34,P22,CTR,INI,Trunk_Lateral,1,L_MTF,FM,M1,7.399720457670475
BMu34,P22,CTR,INI,Trunk_Lateral,1,L_MTF,FM,M2,8.66551924989933
BMu34,P22,CTR,INI,Trunk_Lateral,1,L_MTF,FM,M3,7.597544466287805
BMu34,P22,CTR,INI,Trunk_Lateral,1,R_MTF,FM,M1,5.082281727799785
BMu34,P22,CTR,INI,Trunk_Lateral,1,R_MTF,FM,M2,5.116204148663973
BMu34,P22,CTR,INI,Trunk_Lateral,1,R_MTF,FM,M3,5.044721510133815
BMu34,P22,CTR,REL,Trunk_Lateral,1,L_MTF,FM,M1,8.05294101252728
BMu34,P22,CTR,REL,Trunk_Lateral,1,L_MTF,FM,M2,7.6379384202034135
BMu34,P22,CTR,REL,Trunk_Lateral,1,L_MTF,FM,M3,7.735891532733072
BMu34,P22,CTR,REL,Trunk_Lateral,1,R_MTF,FM,M1,6.5296061556564595
BMu34,P22,CTR,REL,Trunk_Lateral,1,R_MTF,FM,M2,6.589168140494969
BMu34,P22,CTR,REL,Trunk_Lateral,1,R_MTF,FM,M3,6.84571347005404
BMu34,P23,CTR,INI,Trunk_Lateral,1,L_MTF,FM,M1,9.373641592365335
BMu34,P23,CTR,INI,Trunk_Lateral,1,L_MTF,FM,M2,10.351358345769489
BMu34,P23,CTR,INI,Trunk_Lateral,1,L_MTF,FM,M3,10.468188977819361
BMu34,P23,CTR,INI,Trunk_Lateral,1,R_MTF,FM,M1,5.668802195756717
BMu34,P23,CTR,INI,Trunk_Lateral,1,R_MTF,FM,M2,7.750201638583232
BMu34,P23,CTR,INI,Trunk_Lateral,1,R_MTF,FM,M3,6.8472179840449074
BMu34,P23,CTR,REL,Trunk_Lateral,1,L_MTF,FM,M1,8.169220459942988
BMu34,P23,CTR,REL,Trunk_Lateral,1,L_MTF,FM,M2,10.016484215585118
BMu34,P23,CTR,REL,Trunk_Lateral,1,L_MTF,FM,M3,8.408205519377628
BMu34,P23,CTR,REL,Trunk_Lateral,1,R_MTF,FM,M1,10.804505981724231
BMu34,P23,CTR,REL,Trunk_Lateral,1,R_MTF,FM,M2,13.059912997459943
BMu34,P23,CTR,REL,Trunk_Lateral,1,R_MTF,FM,M3,12.146313810858498
BMu34,P24,PAT,INI,Trunk_Lateral,1,L_MTF,FM,M1,10.470387552824668
BMu34,P24,PAT,INI,Trunk_Lateral,1,L_MTF,FM,M2,10.070947827687277
BMu34,P24,PAT,INI,Trunk_Lateral,1,L_MTF,FM,M3,9.97387947702477
BMu34,P24,PAT,INI,Trunk_Lateral,1,R_MTF,FM,M1,9.58457597538534
BMu34,P24,PAT,INI,Trunk_Lateral,1,R_MTF,FM,M2,10.033603727549975
BMu34,P24,PAT,INI,Trunk_Lateral,1,R_MTF,FM,M3,9.876366929192589
BMu34,P24,PAT,REL,Trunk_Lateral,1,L_MTF,FM,M1,9.059676283545118
BMu34,P24,PAT,REL,Trunk_Lateral,1,L_MTF,FM,M2,9.845507681914528
BMu34,P24,PAT,REL,Trunk_Lateral,1,L_MTF,FM,M3,9.593920204509601
BMu34,P24,PAT,REL,Trunk_Lateral,1,R_MTF,FM,M1,10.600812893692819
BMu34,P24,PAT,REL,Trunk_Lateral,1,R_MTF,FM,M2,11.593189272713824
BMu34,P24,PAT,REL,Trunk_Lateral,1,R_MTF,FM,M3,11.139834375947864
BMu34,P25,CTR,INI,Trunk_Lateral,1,L_MTF,FM,M1,3.114413229972919
BMu34,P25,CTR,INI,Trunk_Lateral,1,L_MTF,FM,M2,2.81870359320908
BMu34,P25,CTR,INI,Trunk_Lateral,1,L_MTF,FM,M3,2.6954283175659284
BMu34,P25,CTR,INI,Trunk_Lateral,1,R_MTF,FM,M1,5.895111650249097
BMu34,P25,CTR,INI,Trunk_Lateral,1,R_MTF,FM,M2,6.0325046685602395
BMu34,P25,CTR,INI,Trunk_Lateral,1,R_MTF,FM,M3,7.053796739795608
BMu34,P25,CTR,REL,Trunk_Lateral,1,L_MTF,FM,M1,3.780075025113853
BMu34,P25,CTR,REL,Trunk_Lateral,1,L_MTF,FM,M2,3.8093397403024385
BMu34,P25,CTR,REL,Trunk_Lateral,1,L_MTF,FM,M3,4.311293207618958
BMu34,P25,CTR,REL,Trunk_Lateral,1,R_MTF,FM,M1,6.237636752947587
BMu34,P25,CTR,REL,Trunk_Lateral,1,R_MTF,FM,M2,6.661178117784701
BMu34,P25,CTR,REL,Trunk_Lateral,1,R_MTF,FM,M3,5.684585217941101
BMu34,P26,PAT,INI,Trunk_Lateral,1,L_MTF,FM,M1,3.4598028796514604
BMu34,P26,PAT,INI,Trunk_Lateral,1,L_MTF,FM,M2,3.475234308764222
BMu34,P26,PAT,INI,Trunk_Lateral,1,L_MTF,FM,M3,2.3892400458945597
BMu34,P26,PAT,INI,Trunk_Lateral,1,R_MTF,FM,M1,1.1709904366808896
BMu34,P26,PAT,INI,Trunk_Lateral,1,R_MTF,FM,M2,1.7119771296531785
BMu34,P26,PAT,INI,Trunk_Lateral,1,R_MTF,FM,M3,1.4140818009392484
BMu34,P26,PAT,REL,Trunk_Lateral,1,L_MTF,FM,M1,0.5821636422016305
BMu34,P26,PAT,REL,Trunk_Lateral,1,L_MTF,FM,M2,0.735975071170747
BMu34,P26,PAT,REL,Trunk_Lateral,1,L_MTF,FM,M3,0.5618890426059278
BMu34,P26,PAT,REL,Trunk_Lateral,1,R_MTF,FM,M1,0.4687194387182773
BMu34,P26,PAT,REL,Trunk_Lateral,1,R_MTF,FM,M2,0.8377179011964873
BMu34,P26,PAT,REL,Trunk_Lateral,1,R_MTF,FM,M3,0.4108831357043458
BMu34,P27,PAT,INI,Trunk_Lateral,1,L_MTF,FM,M1,4.397550476725633
BMu34,P27,PAT,INI,Trunk_Lateral,1,L_MTF,FM,M2,4.269560105789098
BMu34,P27,PAT,INI,Trunk_Lateral,1,L_MTF,FM,M3,3.808580572362775
BMu34,P27,PAT,INI,Trunk_Lateral,1,R_MTF,FM,M1,11.190153661239334
BMu34,P27,PAT,INI,Trunk_Lateral,1,R_MTF,FM,M2,11.555347761308404
BMu34,P27,PAT,INI,Trunk_Lateral,1,R_MTF,FM,M3,11.205321532334303
BMu34,P27,PAT,REL,Trunk_Lateral,1,L_MTF,FM,M1,5.452749437030835
BMu34,P27,PAT,REL,Trunk_Lateral,1,L_MTF,FM,M2,4.475514722384502
BMu34,P27,PAT,REL,Trunk_Lateral,1,L_MTF,FM,M3,4.318863553891611
BMu34,P27,PAT,REL,Trunk_Lateral,1,R_MTF,FM,M1,9.183312442401517
BMu34,P27,PAT,REL,Trunk_Lateral,1,R_MTF,FM,M2,8.71553383840414
BMu34,P27,PAT,REL,Trunk_Lateral,1,R_MTF,FM,M3,7.511747599627847
BMu34,P28,PAT,INI,Trunk_Lateral,1,L_MTF,FM,M1,10.801855186847027
BMu34,P28,PAT,INI,Trunk_Lateral,1,L_MTF,FM,M2,11.2838293824754
BMu34,P28,PAT,INI,Trunk_Lateral,1,L_MTF,FM,M3,10.904106423203771
BMu34,P28,PAT,INI,Trunk_Lateral,1,R_MTF,FM,M1,5.609326414544748
BMu34,P28,PAT,INI,Trunk_Lateral,1,R_MTF,FM,M2,6.394395377593068
BMu34,P28,PAT,INI,Trunk_Lateral,1,R_MTF,FM,M3,6.933446314172091
BMu34,P28,PAT,REL,Trunk_Lateral,1,L_MTF,FM,M1,5.39956973111019
BMu34,P28,PAT,REL,Trunk_Lateral,1,L_MTF,FM,M2,5.364439374845924
BMu34,P28,PAT,REL,Trunk_Lateral,1,L_MTF,FM,M3,4.68305778200074
BMu34,P28,PAT,REL,Trunk_Lateral,1,R_MTF,FM,M1,3.3666862771499857
BMu34,P28,PAT,REL,Trunk_Lateral,1,R_MTF,FM,M2,4.595054288195097
BMu34,P28,PAT,REL,Trunk_Lateral,1,R_MTF,FM,M3,4.393930511114384
BMu34,P29,PAT,INI,Trunk_Lateral,1,L_MTF,FM,M1,9.69908945179905
BMu34,P29,PAT,INI,Trunk_Lateral,1,L_MTF,FM,M2,10.401224809637853
BMu34,P29,PAT,INI,Trunk_Lateral,1,R_MTF,FM,M1,8.847870316990303
BMu34,P29,PAT,INI,Trunk_Lateral,1,R_MTF,FM,M2,8.057832536491192
BMu34,P29,PAT,REL,Trunk_Lateral,1,L_MTF,FM,M1,7.2630207516806635
BMu34,P29,PAT,REL,Trunk_Lateral,1,L_MTF,FM,M2,9.675108618544957
BMu34,P29,PAT,REL,Trunk_Lateral,1,L_MTF,FM,M3,10.28576874219349
BMu34,P29,PAT,REL,Trunk_Lateral,1,L_MTF,FM,M4,8.985958337200401
BMu34,P29,PAT,REL,Trunk_Lateral,1,R_MTF,FM,M1,7.680870253820977
BMu34,P29,PAT,REL,Trunk_Lateral,1,R_MTF,FM,M2,7.61454260034562
BMu34,P29,PAT,REL,Trunk_Lateral,1,R_MTF,FM,M3,7.643837600928414
BMu34,P29,PAT,REL,Trunk_Lateral,1,R_MTF,FM,M4,11.28246904226831
BMu34,P30,PAT,REL,Trunk_Lateral,1,L_MTF,FM,M1,8.640259035256623
BMu34,P30,PAT,REL,Trunk_Lateral,1,L_MTF,FM,M2,9.351996711247926
BMu34,P30,PAT,REL,Trunk_Lateral,1,L_MTF,FM,M3,8.360757495180243
BMu34,P30,PAT,REL,Trunk_Lateral,1,R_MTF,FM,M1,13.994125521867147
BMu34,P30,PAT,REL,Trunk_Lateral,1,R_MTF,FM,M2,15.063028062209849
BMu34,P30,PAT,REL,Trunk_Lateral,1,R_MTF,FM,M3,14.823672833260481
BMu34,P32,PAT,INI,Trunk_Lateral,1,L_MTF,FM,M1,6.598133914143132
BMu34,P32,PAT,INI,Trunk_Lateral,1,L_MTF,FM,M2,8.669541333564839
BMu34,P32,PAT,INI,Trunk_Lateral,1,L_MTF,FM,M3,9.09006686140828
BMu34,P32,PAT,INI,Trunk_Lateral,1,R_MTF,FM,M1,8.317496422187226
BMu34,P32,PAT,INI,Trunk_Lateral,1,R_MTF,FM,M2,9.95779257479499
BMu34,P32,PAT,INI,Trunk_Lateral,1,R_MTF,FM,M3,8.314873361622242
BMu34,P32,PAT,REL,Trunk_Lateral,1,L_MTF,FM,M1,9.470902382511545
BMu34,P32,PAT,REL,Trunk_Lateral,1,L_MTF,FM,M2,10.032497051727137
BMu34,P32,PAT,REL,Trunk_Lateral,1,L_MTF,FM,M3,9.384054533333833
BMu34,P32,PAT,REL,Trunk_Lateral,1,R_MTF,FM,M1,2.214202084742351
BMu34,P32,PAT,REL,Trunk_Lateral,1,R_MTF,FM,M2,2.5869822403532803
BMu34,P32,PAT,REL,Trunk_Lateral,1,R_MTF,FM,M3,2.428682606305065
BMu34,P33,PAT,INI,Trunk_Lateral,1,L_MTF,FM,M1,10.664785371368929
BMu34,P33,PAT,INI,Trunk_Lateral,1,L_MTF,FM,M2,12.197836136975742
BMu34,P33,PAT,INI,Trunk_Lateral,1,L_MTF,FM,M3,10.703388348620042
BMu34,P33,PAT,INI,Trunk_Lateral,1,R_MTF,FM,M1,1.6312123327318844
BMu34,P33,PAT,INI,Trunk_Lateral,1,R_MTF,FM,M2,1.865924727435424
BMu34,P33,PAT,INI,Trunk_Lateral,1,R_MTF,FM,M3,1.6380842833232654
BMu34,P33,PAT,REL,Trunk_Lateral,1,L_MTF,FM,M1,7.455028425814483
BMu34,P33,PAT,REL,Trunk_Lateral,1,L_MTF,FM,M2,7.226949060001212
BMu34,P33,PAT,REL,Trunk_Lateral,1,L_MTF,FM,M3,7.084994759751865
BMu34,P33,PAT,REL,Trunk_Lateral,1,R_MTF,FM,M1,0.9665389061299362
BMu34,P33,PAT,REL,Trunk_Lateral,1,R_MTF,FM,M2,0.8971233816356277
BMu34,P33,PAT,REL,Trunk_Lateral,1,R_MTF,FM,M3,0.9091636892915379
BMu34,P34,PAT,INI,Trunk_Lateral,1,L_MTF,FM,M1,10.378196014520396
BMu34,P34,PAT,INI,Trunk_Lateral,1,L_MTF,FM,M2,10.018742105644677
BMu34,P34,PAT,INI,Trunk_Lateral,1,L_MTF,FM,M3,9.487346825829823
BMu34,P34,PAT,INI,Trunk_Lateral,1,R_MTF,FM,M1,3.6964352579278064
BMu34,P34,PAT,INI,Trunk_Lateral,1,R_MTF,FM,M2,3.7845732935741268
BMu34,P34,PAT,INI,Trunk_Lateral,1,R_MTF,FM,M3,3.393363137086141
BMu34,P34,PAT,REL,Trunk_Lateral,1,L_MTF,FM,M1,9.38911968567118
BMu34,P34,PAT,REL,Trunk_Lateral,1,L_MTF,FM,M2,10.040470551799615
BMu34,P34,PAT,REL,Trunk_Lateral,1,L_MTF,FM,M3,8.123945717291019
BMu34,P34,PAT,REL,Trunk_Lateral,1,R_MTF,FM,M1,5.234803805042417
BMu34,P34,PAT,REL,Trunk_Lateral,1,R_MTF,FM,M2,5.101288648201811
BMu34,P34,PAT,REL,Trunk_Lateral,1,R_MTF,FM,M3,5.5532535109305154
BMu34,P35,CTR,INI,Trunk_Lateral,1,L_MTF,FM,M1,1.7980473895870481
BMu34,P35,CTR,INI,Trunk_Lateral,1,L_MTF,FM,M2,3.3694194734304883
BMu34,P35,CTR,INI,Trunk_Lateral,1,L_MTF,FM,M3,2.662246387154687
BMu34,P35,CTR,INI,Trunk_Lateral,1,R_MTF,FM,M1,2.0259651901605453
BMu34,P35,CTR,INI,Trunk_Lateral,1,R_MTF,FM,M2,3.22470843280598
BMu34,P35,CTR,INI,Trunk_Lateral,1,R_MTF,FM,M3,2.4726524738468507
BMu34,P35,CTR,REL,Trunk_Lateral,1,L_MTF,FM,M1,4.94589203952199
BMu34,P35,CTR,REL,Trunk_Lateral,1,L_MTF,FM,M2,4.97823236517759
BMu34,P35,CTR,REL,Trunk_Lateral,1,L_MTF,FM,M3,4.501127432849268
BMu34,P35,CTR,REL,Trunk_Lateral,1,R_MTF,FM,M1,6.9145249968783915
BMu34,P35,CTR,REL,Trunk_Lateral,1,R_MTF,FM,M2,7.2174279906193055
BMu34,P35,CTR,REL,Trunk_Lateral,1,R_MTF,FM,M3,6.38868226141615
BMu34,P36,PAT,INI,Trunk_Lateral,1,L_MTF,FM,M1,5.011300480722229
BMu34,P36,PAT,INI,Trunk_Lateral,1,L_MTF,FM,M2,2.8013885387011883
BMu34,P36,PAT,INI,Trunk_Lateral,1,L_MTF,FM,M3,2.3959430097345984
BMu34,P36,PAT,INI,Trunk_Lateral,1,R_MTF,FM,M1,5.109799017742695
BMu34,P36,PAT,INI,Trunk_Lateral,1,R_MTF,FM,M2,4.67747909656916
BMu34,P36,PAT,INI,Trunk_Lateral,1,R_MTF,FM,M3,4.7645576434305825
BMu34,P36,PAT,REL,Trunk_Lateral,1,L_MTF,FM,M1,4.191456494529671
BMu34,P36,PAT,REL,Trunk_Lateral,1,L_MTF,FM,M2,4.571244021945482
BMu34,P36,PAT,REL,Trunk_Lateral,1,L_MTF,FM,M3,4.047391724973959
BMu34,P36,PAT,REL,Trunk_Lateral,1,R_MTF,FM,M1,3.953943932878067
BMu34,P36,PAT,REL,Trunk_Lateral,1,R_MTF,FM,M2,4.33845782030071
BMu34,P36,PAT,REL,Trunk_Lateral,1,R_MTF,FM,M3,3.9505887267519277
BMu34,P38,CTR,INI,Trunk_Lateral,1,L_MTF,FM,M1,1.3699729711977402
BMu34,P38,CTR,INI,Trunk_Lateral,1,L_MTF,FM,M2,1.6961904952559657
BMu34,P38,CTR,INI,Trunk_Lateral,1,L_MTF,FM,M3,1.1533170868714648
BMu34,P38,CTR,INI,Trunk_Lateral,1,R_MTF,FM,M1,6.450779963693459
BMu34,P38,CTR,INI,Trunk_Lateral,1,R_MTF,FM,M2,7.121669319679231
BMu34,P38,CTR,INI,Trunk_Lateral,1,R_MTF,FM,M3,6.907164975059181
BMu34,P38,CTR,REL,Trunk_Lateral,1,L_MTF,FM,M1,6.794279666294687
BMu34,P38,CTR,REL,Trunk_Lateral,1,L_MTF,FM,M2,6.455661883097579
BMu34,P38,CTR,REL,Trunk_Lateral,1,L_MTF,FM,M3,6.320890867822465
BMu34,P38,CTR,REL,Trunk_Lateral,1,R_MTF,FM,M1,7.496904159029489
BMu34,P38,CTR,REL,Trunk_Lateral,1,R_MTF,FM,M2,7.118837572571216
BMu34,P38,CTR,REL,Trunk_Lateral,1,R_MTF,FM,M3,6.74410388994775
BMu34,P39,CTR,INI,Trunk_Lateral,1,L_MTF,FM,M1,5.848436770559422
BMu34,P39,CTR,INI,Trunk_Lateral,1,L_MTF,FM,M2,5.553350806348054
BMu34,P39,CTR,INI,Trunk_Lateral,1,L_MTF,FM,M3,4.553445794979985
BMu34,P39,CTR,INI,Trunk_Lateral,1,R_MTF,FM,M1,1.670426456769328
BMu34,P39,CTR,INI,Trunk_Lateral,1,R_MTF,FM,M2,1.5289987776483582
BMu34,P39,CTR,INI,Trunk_Lateral,1,R_MTF,FM,M3,1.4730269657398203
BMu34,P39,CTR,REL,Trunk_Lateral,1,L_MTF,FM,M1,6.091408274619331
BMu34,P39,CTR,REL,Trunk_Lateral,1,L_MTF,FM,M2,6.449725551343024
BMu34,P39,CTR,REL,Trunk_Lateral,1,L_MTF,FM,M3,6.306098032262383
BMu34,P39,CTR,REL,Trunk_Lateral,1,R_MTF,FM,M1,2.4464546996254226
BMu34,P39,CTR,REL,Trunk_Lateral,1,R_MTF,FM,M2,2.713127634860718
BMu34,P39,CTR,REL,Trunk_Lateral,1,R_MTF,FM,M3,2.5606275186885075
BMu34,P40,CTR,INI,Trunk_Lateral,1,L_MTF,FM,M1,1.9948926035829293
BMu34,P40,CTR,INI,Trunk_Lateral,1,L_MTF,FM,M2,1.861871926322701
BMu34,P40,CTR,INI,Trunk_Lateral,1,L_MTF,FM,M3,2.0333640156025825
BMu34,P40,CTR,INI,Trunk_Lateral,1,R_MTF,FM,M1,6.013507895799627
BMu34,P40,CTR,INI,Trunk_Lateral,1,R_MTF,FM,M2,5.945803795761563
BMu34,P40,CTR,INI,Trunk_Lateral,1,R_MTF,FM,M3,5.558476888754305
BMu34,P40,CTR,REL,Trunk_Lateral,1,L_MTF,FM,M1,5.466685634239566
BMu34,P40,CTR,REL,Trunk_Lateral,1,L_MTF,FM,M2,3.847481542549903
BMu34,P40,CTR,REL,Trunk_Lateral,1,L_MTF,FM,M3,4.12112810811962
BMu34,P40,CTR,REL,Trunk_Lateral,1,R_MTF,FM,M1,3.726247462099339
BMu34,P40,CTR,REL,Trunk_Lateral,1,R_MTF,FM,M2,3.6882378016268254
BMu34,P40,CTR,REL,Trunk_Lateral,1,R_MTF,FM,M3,3.4970571312046435
BMu34,P41,PAT,INI,Trunk_Lateral,1,L_MTF,FM,M1,6.097322488166707
BMu34,P41,PAT,INI,Trunk_Lateral,1,L_MTF,FM,M2,7.295693067932543
BMu34,P41,PAT,INI,Trunk_Lateral,1,L_MTF,FM,M3,5.316326902380588
BMu34,P41,PAT,INI,Trunk_Lateral,1,R_MTF,FM,M1,8.577783007914867
BMu34,P41,PAT,INI,Trunk_Lateral,1,R_MTF,FM,M2,9.050368045296244
BMu34,P41,PAT,INI,Trunk_Lateral,1,R_MTF,FM,M3,7.98209448420601
BMu34,P41,PAT,REL,Trunk_Lateral,1,L_MTF,FM,M1,4.321558471845458
BMu34,P41,PAT,REL,Trunk_Lateral,1,L_MTF,FM,M2,4.651100820025721
BMu34,P41,PAT,REL,Trunk_Lateral,1,L_MTF,FM,M3,4.714900667573559
BMu34,P41,PAT,REL,Trunk_Lateral,1,R_MTF,FM,M1,6.201410784343552
BMu34,P41,PAT,REL,Trunk_Lateral,1,R_MTF,FM,M2,6.768857346405877
BMu34,P41,PAT,REL,Trunk_Lateral,1,R_MTF,FM,M3,6.908899967467708
BMu34,P42,PAT,INI,Trunk_Lateral,1,L_MTF,FM,M1,7.964072458407296
BMu34,P42,PAT,INI,Trunk_Lateral,1,L_MTF,FM,M2,7.1636203884490115
BMu34,P42,PAT,INI,Trunk_Lateral,1,L_MTF,FM,M3,8.549356579238456
BMu34,P42,PAT,INI,Trunk_Lateral,1,R_MTF,FM,M1,7.8095043855055994
BMu34,P42,PAT,INI,Trunk_Lateral,1,R_MTF,FM,M2,6.368277666456397
BMu34,P42,PAT,INI,Trunk_Lateral,1,R_MTF,FM,M3,6.136207195416649
BMu34,P42,PAT,REL,Trunk_Lateral,1,L_MTF,FM,M1,8.290046069916354
BMu34,P42,PAT,REL,Trunk_Lateral,1,L_MTF,FM,M2,6.135972313163328
BMu34,P42,PAT,REL,Trunk_Lateral,1,L_MTF,FM,M3,6.656639161697739
BMu34,P42,PAT,REL,Trunk_Lateral,1,R_MTF,FM,M1,8.382416288651424
BMu34,P42,PAT,REL,Trunk_Lateral,1,R_MTF,FM,M2,7.417416430292896
BMu34,P42,PAT,REL,Trunk_Lateral,1,R_MTF,FM,M3,5.387028945942898
BMu34,P43,PAT,INI,Trunk_Lateral,1,L_MTF,FM,M1,5.966310490722782
BMu34,P43,PAT,INI,Trunk_Lateral,1,L_MTF,FM,M2,4.485649809183372
BMu34,P43,PAT,INI,Trunk_Lateral,1,L_MTF,FM,M3,4.7694476199152405
BMu34,P43,PAT,INI,Trunk_Lateral,1,R_MTF,FM,M1,2.9845812580469264
BMu34,P43,PAT,INI,Trunk_Lateral,1,R_MTF,FM,M2,2.9185510868947864
BMu34,P43,PAT,INI,Trunk_Lateral,1,R_MTF,FM,M3,3.0445672857942863
BMu34,P43,PAT,REL,Trunk_Lateral,1,L_MTF,FM,M1,3.112680080331514
BMu34,P43,PAT,REL,Trunk_Lateral,1,L_MTF,FM,M2,4.293907912147143
BMu34,P43,PAT,REL,Trunk_Lateral,1,L_MTF,FM,M3,3.0447808944058803
BMu34,P43,PAT,REL,Trunk_Lateral,1,R_MTF,FM,M1,5.558203728009621
BMu34,P43,PAT,REL,Trunk_Lateral,1,R_MTF,FM,M2,5.133525143371704
BMu34,P43,PAT,REL,Trunk_Lateral,1,R_MTF,FM,M3,4.932353840010314
BMu34,P44,CTR,INI,Trunk_Lateral,1,L_MTF,FM,M1,1.0765980725521198
BMu34,P44,CTR,INI,Trunk_Lateral,1,L_MTF,FM,M2,0.8311533955408639
BMu34,P44,CTR,INI,Trunk_Lateral,1,L_MTF,FM,M3,2.191643615063645
BMu34,P44,CTR,INI,Trunk_Lateral,1,R_MTF,FM,M1,13.359782534451412
BMu34,P44,CTR,INI,Trunk_Lateral,1,R_MTF,FM,M2,13.578637876354186
BMu34,P44,CTR,INI,Trunk_Lateral,1,R_MTF,FM,M3,13.656318712504559
BMu34,P44,CTR,REL,Trunk_Lateral,1,L_MTF,FM,M1,6.211428715870701
BMu34,P44,CTR,REL,Trunk_Lateral,1,L_MTF,FM,M2,6.146171554243698
BMu34,P44,CTR,REL,Trunk_Lateral,1,L_MTF,FM,M3,5.594154842821449
BMu34,P44,CTR,REL,Trunk_Lateral,1,R_MTF,FM,M1,7.562390852510664
BMu34,P44,CTR,REL,Trunk_Lateral,1,R_MTF,FM,M2,7.660477117512588
BMu34,P44,CTR,REL,Trunk_Lateral,1,R_MTF,FM,M3,7.7908871439855485
BMu34,P45,PAT,INI,Trunk_Lateral,1,L_MTF,FM,M1,6.1968782676404235
BMu34,P45,PAT,INI,Trunk_Lateral,1,L_MTF,FM,M2,5.810642750021732
BMu34,P45,PAT,INI,Trunk_Lateral,1,L_MTF,FM,M3,5.124626226036469
BMu34,P45,PAT,INI,Trunk_Lateral,1,R_MTF,FM,M1,8.16288119480856
BMu34,P45,PAT,INI,Trunk_Lateral,1,R_MTF,FM,M2,7.683428944307032
BMu34,P45,PAT,INI,Trunk_Lateral,1,R_MTF,FM,M3,8.206213939021906
BMu34,P45,PAT,REL,Trunk_Lateral,1,L_MTF,FM,M1,8.11891590743532
BMu34,P45,PAT,REL,Trunk_Lateral,1,L_MTF,FM,M2,8.118019596246494
BMu34,P45,PAT,REL,Trunk_Lateral,1,L_MTF,FM,M3,7.827382287628698
BMu34,P45,PAT,REL,Trunk_Lateral,1,R_MTF,FM,M1,2.2170509782447536
BMu34,P45,PAT,REL,Trunk_Lateral,1,R_MTF,FM,M2,2.2377252668537553
BMu34,P45,PAT,REL,Trunk_Lateral,1,R_MTF,FM,M3,2.233779597312937
BMu34,P46,CTR,INI,Trunk_Lateral,1,L_MTF,FM,M1,3.40919098504773
BMu34,P46,CTR,INI,Trunk_Lateral,1,L_MTF,FM,M2,3.5613048677324057
BMu34,P46,CTR,INI,Trunk_Lateral,1,L_MTF,FM,M3,3.466847459129369
BMu34,P46,CTR,INI,Trunk_Lateral,1,R_MTF,FM,M1,9.072193231326265
BMu34,P46,CTR,INI,Trunk_Lateral,1,R_MTF,FM,M2,9.212569429238119
BMu34,P46,CTR,INI,Trunk_Lateral,1,R_MTF,FM,M3,9.04064606214319
BMu34,P46,CTR,REL,Trunk_Lateral,1,L_MTF,FM,M1,3.759283835940025
BMu34,P46,CTR,REL,Trunk_Lateral,1,L_MTF,FM,M2,3.935073029454788
BMu34,P46,CTR,REL,Trunk_Lateral,1,L_MTF,FM,M3,3.7666432366040485
BMu34,P46,CTR,REL,Trunk_Lateral,1,R_MTF,FM,M1,12.62841824928805
BMu34,P46,CTR,REL,Trunk_Lateral,1,R_MTF,FM,M2,13.477567772824958
BMu34,P46,CTR,REL,Trunk_Lateral,1,R_MTF,FM,M3,13.73112651380287
BMu34,P47,PAT,INI,Trunk_Lateral,1,L_MTF,FM,M1,3.567199758847166
BMu34,P47,PAT,INI,Trunk_Lateral,1,L_MTF,FM,M2,4.579664482417851
BMu34,P47,PAT,INI,Trunk_Lateral,1,L_MTF,FM,M3,6.113864696484462
BMu34,P47,PAT,INI,Trunk_Lateral,1,R_MTF,FM,M1,0.860563202453141
BMu34,P47,PAT,INI,Trunk_Lateral,1,R_MTF,FM,M2,0.7075144974389475
BMu34,P47,PAT,INI,Trunk_Lateral,1,R_MTF,FM,M3,0.8791525776696562
BMu34,P47,PAT,REL,Trunk_Lateral,1,L_MTF,FM,M1,4.637619517191542
BMu34,P47,PAT,REL,Trunk_Lateral,1,L_MTF,FM,M2,5.598112073838234
BMu34,P47,PAT,REL,Trunk_Lateral,1,L_MTF,FM,M3,6.389589631115187
BMu34,P47,PAT,REL,Trunk_Lateral,1,R_MTF,FM,M1,2.5208892771332896
BMu34,P47,PAT,REL,Trunk_Lateral,1,R_MTF,FM,M2,3.5851538779517664
BMu34,P47,PAT,REL,Trunk_Lateral,1,R_MTF,FM,M3,3.7341323766278456
BMu34,P48,CTR,INI,Trunk_Lateral,1,L_MTF,FM,M1,6.7334804581464915
BMu34,P48,CTR,INI,Trunk_Lateral,1,L_MTF,FM,M2,6.709000921870001
BMu34,P48,CTR,INI,Trunk_Lateral,1,L_MTF,FM,M3,5.385580333610344
BMu34,P48,CTR,INI,Trunk_Lateral,1,R_MTF,FM,M1,8.819653104499235
BMu34,P48,CTR,INI,Trunk_Lateral,1,R_MTF,FM,M2,8.362015096244324
BMu34,P48,CTR,INI,Trunk_Lateral,1,R_MTF,FM,M3,8.388897703163632
BMu34,P48,CTR,REL,Trunk_Lateral,1,L_MTF,FM,M1,4.69319514882989
BMu34,P48,CTR,REL,Trunk_Lateral,1,L_MTF,FM,M2,4.703317044679834
BMu34,P48,CTR,REL,Trunk_Lateral,1,L_MTF,FM,M3,3.4118804361787527
BMu34,P48,CTR,REL,Trunk_Lateral,1,R_MTF,FM,M1,7.463790384028941
BMu34,P48,CTR,REL,Trunk_Lateral,1,R_MTF,FM,M2,7.70771780550813
BMu34,P48,CTR,REL,Trunk_Lateral,1,R_MTF,FM,M3,7.209736863610823
BMu34,P49,CTR,INI,Trunk_Lateral,1,L_MTF,FM,M1,3.090110037789099
BMu34,P49,CTR,INI,Trunk_Lateral,1,L_MTF,FM,M2,3.4949317056834572
BMu34,P49,CTR,INI,Trunk_Lateral,1,L_MTF,FM,M3,3.1638583385271124
BMu34,P49,CTR,INI,Trunk_Lateral,1,R_MTF,FM,M1,2.917457473006567
BMu34,P49,CTR,INI,Trunk_Lateral,1,R_MTF,FM,M2,2.9915035550954476
BMu34,P49,CTR,INI,Trunk_Lateral,1,R_MTF,FM,M3,2.6406135368967707
BMu34,P49,CTR,REL,Trunk_Lateral,1,L_MTF,FM,M1,2.433383273229132
BMu34,P49,CTR,REL,Trunk_Lateral,1,L_MTF,FM,M2,2.965810049464774
BMu34,P49,CTR,REL,Trunk_Lateral,1,L_MTF,FM,M3,2.5189868768559527
BMu34,P49,CTR,REL,Trunk_Lateral,1,R_MTF,FM,M1,1.6466282422806806
BMu34,P49,CTR,REL,Trunk_Lateral,1,R_MTF,FM,M2,1.80888556083754
BMu34,P49,CTR,REL,Trunk_Lateral,1,R_MTF,FM,M3,1.6161773976106775
BMu34,P50,PAT,INI,Trunk_Lateral,1,L_MTF,FM,M1,10.39332435442498
BMu34,P50,PAT,INI,Trunk_Lateral,1,L_MTF,FM,M2,12.19744588148312
BMu34,P50,PAT,INI,Trunk_Lateral,1,L_MTF,FM,M3,11.583179193946155
BMu34,P50,PAT,INI,Trunk_Lateral,1,R_MTF,FM,M1,8.165714101489433
BMu34,P50,PAT,INI,Trunk_Lateral,1,R_MTF,FM,M2,8.185794509691739
BMu34,P50,PAT,INI,Trunk_Lateral,1,R_MTF,FM,M3,8.983302801323777
BMu34,P50,PAT,REL,Trunk_Lateral,1,L_MTF,FM,M1,6.194369450723566
BMu34,P50,PAT,REL,Trunk_Lateral,1,L_MTF,FM,M2,7.330922291721115
BMu34,P50,PAT,REL,Trunk_Lateral,1,L_MTF,FM,M3,8.194101701409163
BMu34,P50,PAT,REL,Trunk_Lateral,1,R_MTF,FM,M1,8.19657673762093
BMu34,P50,PAT,REL,Trunk_Lateral,1,R_MTF,FM,M2,9.774857418614765
BMu34,P50,PAT,REL,Trunk_Lateral,1,R_MTF,FM,M3,10.01641892916875
BMu34,P51,PAT,INI,Trunk_Lateral,1,L_MTF,FM,M1,13.059071898714157
BMu34,P51,PAT,INI,Trunk_Lateral,1,L_MTF,FM,M2,13.4284007864987
BMu34,P51,PAT,INI,Trunk_Lateral,1,L_MTF,FM,M3,13.088315272205548
BMu34,P51,PAT,INI,Trunk_Lateral,1,R_MTF,FM,M1,7.504779641848029
BMu34,P51,PAT,INI,Trunk_Lateral,1,R_MTF,FM,M2,7.687303144905651
BMu34,P51,PAT,INI,Trunk_Lateral,1,R_MTF,FM,M3,8.273409906236598
BMu34,P51,PAT,REL,Trunk_Lateral,1,L_MTF,FM,M1,11.87125081141369
BMu34,P51,PAT,REL,Trunk_Lateral,1,L_MTF,FM,M2,11.986858503579388
BMu34,P51,PAT,REL,Trunk_Lateral,1,L_MTF,FM,M3,11.97086298663762
BMu34,P51,PAT,REL,Trunk_Lateral,1,R_MTF,FM,M1,13.391435220634028
BMu34,P51,PAT,REL,Trunk_Lateral,1,R_MTF,FM,M2,13.629135206641337
BMu34,P51,PAT,REL,Trunk_Lateral,1,R_MTF,FM,M3,13.355608090876995
BMu34,P52,CTR,INI,Trunk_Lateral,1,L_MTF,FM,M1,4.662679079051236
BMu34,P52,CTR,INI,Trunk_Lateral,1,L_MTF,FM,M2,6.140726156393832
BMu34,P52,CTR,INI,Trunk_Lateral,1,L_MTF,FM,M3,5.296006380819071
BMu34,P52,CTR,INI,Trunk_Lateral,1,R_MTF,FM,M1,6.90125240557132
BMu34,P52,CTR,INI,Trunk_Lateral,1,R_MTF,FM,M2,7.650926488672543
BMu34,P52,CTR,INI,Trunk_Lateral,1,R_MTF,FM,M3,5.885549368821974
BMu34,P52,CTR,REL,Trunk_Lateral,1,L_MTF,FM,M1,4.576520453213749
BMu34,P52,CTR,REL,Trunk_Lateral,1,L_MTF,FM,M2,3.955854680005902
BMu34,P52,CTR,REL,Trunk_Lateral,1,L_MTF,FM,M3,2.9286950050327185
BMu34,P52,CTR,REL,Trunk_Lateral,1,R_MTF,FM,M1,5.4617155639766555
BMu34,P52,CTR,REL,Trunk_Lateral,1,R_MTF,FM,M2,5.941177558602833
BMu34,P52,CTR,REL,Trunk_Lateral,1,R_MTF,FM,M3,4.653635976319382
BMu34,P53,PAT,INI,Trunk_Lateral,1,L_MTF,FM,M1,12.41885017660578
BMu34,P53,PAT,INI,Trunk_Lateral,1,R_MTF,FM,M1,7.317702641629779
BMu34,P53,PAT,REL,Trunk_Lateral,1,L_MTF,FM,M1,3.562192029810155
BMu34,P53,PAT,REL,Trunk_Lateral,1,L_MTF,FM,M2,3.826741688357267
BMu34,P53,PAT,REL,Trunk_Lateral,1,L_MTF,FM,M3,3.3849928894874117
BMu34,P53,PAT,REL,Trunk_Lateral,1,R_MTF,FM,M1,7.739052104143807
BMu34,P53,PAT,REL,Trunk_Lateral,1,R_MTF,FM,M2,7.831570949843109
BMu34,P53,PAT,REL,Trunk_Lateral,1,R_MTF,FM,M3,7.665254544225704
BMu34,P54,PAT,INI,Trunk_Lateral,1,L_MTF,FM,M1,7.632084136413164
BMu34,P54,PAT,INI,Trunk_Lateral,1,L_MTF,FM,M2,9.412628020812916
BMu34,P54,PAT,INI,Trunk_Lateral,1,L_MTF,FM,M3,7.58781784212467
BMu34,P54,PAT,INI,Trunk_Lateral,1,R_MTF,FM,M1,5.160386102061837
BMu34,P54,PAT,INI,Trunk_Lateral,1,R_MTF,FM,M2,6.828253283654192
BMu34,P54,PAT,INI,Trunk_Lateral,1,R_MTF,FM,M3,5.589997876207561
BMu34,P54,PAT,REL,Trunk_Lateral,1,L_MTF,FM,M1,7.827874484371007
BMu34,P54,PAT,REL,Trunk_Lateral,1,L_MTF,FM,M2,6.922431787407659
BMu34,P54,PAT,REL,Trunk_Lateral,1,L_MTF,FM,M3,8.253161289248279
BMu34,P54,PAT,REL,Trunk_Lateral,1,R_MTF,FM,M1,4.8134171685714
BMu34,P54,PAT,REL,Trunk_Lateral,1,R_MTF,FM,M2,5.4749740919721015
BMu34,P54,PAT,REL,Trunk_Lateral,1,R_MTF,FM,M3,5.011592508247993
BMu34,P55,CTR,INI,Trunk_Lateral,1,L_MTF,FM,M1,0.48129817423619875
BMu34,P55,CTR,INI,Trunk_Lateral,1,L_MTF,FM,M2,0.5463172234438205
BMu34,P55,CTR,INI,Trunk_Lateral,1,L_MTF,FM,M3,0.6156249334192964
BMu34,P55,CTR,INI,Trunk_Lateral,1,R_MTF,FM,M1,5.917472127915847
BMu34,P55,CTR,INI,Trunk_Lateral,1,R_MTF,FM,M2,6.990264937650856
BMu34,P55,CTR,INI,Trunk_Lateral,1,R_MTF,FM,M3,6.334997600562914
BMu34,P55,CTR,REL,Trunk_Lateral,1,L_MTF,FM,M1,6.354626407939929
BMu34,P55,CTR,REL,Trunk_Lateral,1,L_MTF,FM,M2,6.849073707164321
BMu34,P55,CTR,REL,Trunk_Lateral,1,L_MTF,FM,M3,6.038637810808289
BMu34,P55,CTR,REL,Trunk_Lateral,1,R_MTF,FM,M1,3.1642106726431507
BMu34,P55,CTR,REL,Trunk_Lateral,1,R_MTF,FM,M2,3.859862586072115
BMu34,P55,CTR,REL,Trunk_Lateral,1,R_MTF,FM,M3,2.9291773182838696
BMu34,P56,CTR,INI,Trunk_Lateral,1,L_MTF,FM,M1,3.615129235472731
BMu34,P56,CTR,INI,Trunk_Lateral,1,L_MTF,FM,M2,3.406967104650867
BMu34,P56,CTR,INI,Trunk_Lateral,1,L_MTF,FM,M3,5.733430512022476
BMu34,P56,CTR,INI,Trunk_Lateral,1,R_MTF,FM,M1,9.6410483783046
BMu34,P56,CTR,INI,Trunk_Lateral,1,R_MTF,FM,M2,9.006943963910661
BMu34,P56,CTR,INI,Trunk_Lateral,1,R_MTF,FM,M3,9.762236976022837
BMu34,P56,CTR,REL,Trunk_Lateral,1,L_MTF,FM,M1,5.677239991694554
BMu34,P56,CTR,REL,Trunk_Lateral,1,L_MTF,FM,M2,6.56852006236503
BMu34,P56,CTR,REL,Trunk_Lateral,1,L_MTF,FM,M3,5.635761096498631
BMu34,P56,CTR,REL,Trunk_Lateral,1,R_MTF,FM,M1,10.43448918522133
BMu34,P56,CTR,REL,Trunk_Lateral,1,R_MTF,FM,M2,9.403939983295137
BMu34,P56,CTR,REL,Trunk_Lateral,1,R_MTF,FM,M3,9.129342142979489
BMu34,P57,CTR,INI,Trunk_Lateral,1,L_MTF,FM,M1,0.45092617853591244
BMu34,P57,CTR,INI,Trunk_Lateral,1,L_MTF,FM,M2,0.4655857384578893
BMu34,P57,CTR,INI,Trunk_Lateral,1,L_MTF,FM,M3,0.7973823604649485
BMu34,P57,CTR,INI,Trunk_Lateral,1,R_MTF,FM,M1,0.2260218786886388
BMu34,P57,CTR,INI,Trunk_Lateral,1,R_MTF,FM,M2,0.3859960181335358
BMu34,P57,CTR,INI,Trunk_Lateral,1,R_MTF,FM,M3,0.42106711175295364
BMu34,P57,CTR,REL,Trunk_Lateral,1,L_MTF,FM,M1,2.554534546057692
BMu34,P57,CTR,REL,Trunk_Lateral,1,L_MTF,FM,M2,2.014065582030015
BMu34,P57,CTR,REL,Trunk_Lateral,1,L_MTF,FM,M3,2.250376857174568
BMu34,P57,CTR,REL,Trunk_Lateral,1,R_MTF,FM,M1,6.533993212778607
BMu34,P57,CTR,REL,Trunk_Lateral,1,R_MTF,FM,M2,6.6533631843563406
BMu34,P57,CTR,REL,Trunk_Lateral,1,R_MTF,FM,M3,5.66664337713002
BMu34,P58,PAT,INI,Trunk_Lateral,1,L_MTF,FM,M1,0.49352959524349116
BMu34,P58,PAT,INI,Trunk_Lateral,1,L_MTF,FM,M2,0.44024426888829904
BMu34,P58,PAT,INI,Trunk_Lateral,1,L_MTF,FM,M3,0.49005854717681985
BMu34,P58,PAT,INI,Trunk_Lateral,1,R_MTF,FM,M1,0.9788931773896642
BMu34,P58,PAT,INI,Trunk_Lateral,1,R_MTF,FM,M2,1.420445660403462
BMu34,P58,PAT,INI,Trunk_Lateral,1,R_MTF,FM,M3,1.5211400959768329
BMu34,P58,PAT,REL,Trunk_Lateral,1,L_MTF,FM,M1,0.5193486770400305
BMu34,P58,PAT,REL,Trunk_Lateral,1,L_MTF,FM,M2,0.564175280616253
BMu34,P58,PAT,REL,Trunk_Lateral,1,L_MTF,FM,M3,0.4938661268664517
BMu34,P58,PAT,REL,Trunk_Lateral,1,R_MTF,FM,M1,3.7742887277434503
BMu34,P58,PAT,REL,Trunk_Lateral,1,R_MTF,FM,M2,2.9615322177626267
BMu34,P58,PAT,REL,Trunk_Lateral,1,R_MTF,FM,M3,3.018666094438923
BMu34,P60,CTR,INI,Trunk_Lateral,1,L_MTF,FM,M1,6.596939272385779
BMu34,P60,CTR,INI,Trunk_Lateral,1,L_MTF,FM,M2,7.229366132462311
BMu34,P60,CTR,INI,Trunk_Lateral,1,L_MTF,FM,M3,6.016026702175881
BMu34,P60,CTR,INI,Trunk_Lateral,1,R_MTF,FM,M1,7.0093637190159575
BMu34,P60,CTR,INI,Trunk_Lateral,1,R_MTF,FM,M2,5.908839882589987
BMu34,P60,CTR,INI,Trunk_Lateral,1,R_MTF,FM,M3,5.249571325564056
BMu34,P60,CTR,REL,Trunk_Lateral,1,L_MTF,FM,M1,6.659233667429211
BMu34,P60,CTR,REL,Trunk_Lateral,1,L_MTF,FM,M2,7.485064352960886
BMu34,P60,CTR,REL,Trunk_Lateral,1,L_MTF,FM,M3,6.414906885592421
BMu34,P60,CTR,REL,Trunk_Lateral,1,R_MTF,FM,M1,7.089205704119585
BMu34,P60,CTR,REL,Trunk_Lateral,1,R_MTF,FM,M2,6.780665731020732
BMu34,P60,CTR,REL,Trunk_Lateral,1,R_MTF,FM,M3,5.951331000908241
BMu34,P61,PAT,INI,Trunk_Lateral,1,L_MTF,FM,M1,7.341240101572142
BMu34,P61,PAT,INI,Trunk_Lateral,1,L_MTF,FM,M2,7.403053612529588
BMu34,P61,PAT,INI,Trunk_Lateral,1,L_MTF,FM,M3,6.604346473903652
BMu34,P61,PAT,INI,Trunk_Lateral,1,R_MTF,FM,M1,9.097546190523845
BMu34,P61,PAT,INI,Trunk_Lateral,1,R_MTF,FM,M2,9.465130993020653
BMu34,P61,PAT,INI,Trunk_Lateral,1,R_MTF,FM,M3,8.782958390698006
BMu34,P61,PAT,REL,Trunk_Lateral,1,L_MTF,FM,M1,8.785795001335007
BMu34,P61,PAT,REL,Trunk_Lateral,1,L_MTF,FM,M2,10.60672501225903
BMu34,P61,PAT,REL,Trunk_Lateral,1,L_MTF,FM,M3,9.01017851892346
BMu34,P61,PAT,REL,Trunk_Lateral,1,R_MTF,FM,M1,8.270234891557898
BMu34,P61,PAT,REL,Trunk_Lateral,1,R_MTF,FM,M2,8.480583465853172
BMu34,P61,PAT,REL,Trunk_Lateral,1,R_MTF,FM,M3,7.6615698670947125
BMu34,P62,PAT,INI,Trunk_Lateral,1,L_MTF,FM,M1,8.244304154394914
BMu34,P62,PAT,INI,Trunk_Lateral,1,L_MTF,FM,M2,7.753519359149707
BMu34,P62,PAT,INI,Trunk_Lateral,1,L_MTF,FM,M3,7.771028999531531
BMu34,P62,PAT,INI,Trunk_Lateral,1,R_MTF,FM,M1,9.245677915978824
BMu34,P62,PAT,INI,Trunk_Lateral,1,R_MTF,FM,M2,9.382990170031405
BMu34,P62,PAT,INI,Trunk_Lateral,1,R_MTF,FM,M3,9.099332781177036
BMu34,P62,PAT,REL,Trunk_Lateral,1,L_MTF,FM,M1,9.717788633003156
BMu34,P62,PAT,REL,Trunk_Lateral,1,L_MTF,FM,M2,10.207229986401066
BMu34,P62,PAT,REL,Trunk_Lateral,1,L_MTF,FM,M3,9.577223090299672
BMu34,P62,PAT,REL,Trunk_Lateral,1,R_MTF,FM,M1,10.130894012073036
BMu34,P62,PAT,REL,Trunk_Lateral,1,R_MTF,FM,M2,10.389069101519201
BMu34,P62,PAT,REL,Trunk_Lateral,1,R_MTF,FM,M3,9.438794721519145
BMu34,P63,PAT,INI,Trunk_Lateral,1,L_MTF,FM,M1,6.214644791759323
BMu34,P63,PAT,INI,Trunk_Lateral,1,L_MTF,FM,M2,8.693869764177515
BMu34,P63,PAT,INI,Trunk_Lateral,1,L_MTF,FM,M3,8.082160571001502
BMu34,P63,PAT,INI,Trunk_Lateral,1,R_MTF,FM,M1,7.364420116242893
BMu34,P63,PAT,INI,Trunk_Lateral,1,R_MTF,FM,M2,8.00617112006109
BMu34,P63,PAT,INI,Trunk_Lateral,1,R_MTF,FM,M3,7.3424685261993865
BMu34,P63,PAT,REL,Trunk_Lateral,1,L_MTF,FM,M1,6.857866893310904
BMu34,P63,PAT,REL,Trunk_Lateral,1,L_MTF,FM,M2,7.254574775288918
BMu34,P63,PAT,REL,Trunk_Lateral,1,L_MTF,FM,M3,4.119707939895698
BMu34,P63,PAT,REL,Trunk_Lateral,1,R_MTF,FM,M1,7.15522886093175
BMu34,P63,PAT,REL,Trunk_Lateral,1,R_MTF,FM,M2,8.425950381395552
BMu34,P63,PAT,REL,Trunk_Lateral,1,R_MTF,FM,M3,6.398579936529091
BMu34,P64,CTR,INI,Trunk_Lateral,1,L_MTF,FM,M1,5.221860267670847
BMu34,P64,CTR,INI,Trunk_Lateral,1,L_MTF,FM,M2,4.274057430652098
BMu34,P64,CTR,INI,Trunk_Lateral,1,L_MTF,FM,M3,4.173827753862705
BMu34,P64,CTR,INI,Trunk_Lateral,1,R_MTF,FM,M1,3.464286890208329
BMu34,P64,CTR,INI,Trunk_Lateral,1,R_MTF,FM,M2,3.9473102875662334
BMu34,P64,CTR,INI,Trunk_Lateral,1,R_MTF,FM,M3,3.6314152081916746
BMu34,P64,CTR,REL,Trunk_Lateral,1,L_MTF,FM,M1,17.287703131500866
BMu34,P64,CTR,REL,Trunk_Lateral,1,L_MTF,FM,M2,17.70582695175038
BMu34,P64,CTR,REL,Trunk_Lateral,1,L_MTF,FM,M3,17.387672077550214
BMu34,P64,CTR,REL,Trunk_Lateral,1,R_MTF,FM,M1,2.228139295078475
BMu34,P64,CTR,REL,Trunk_Lateral,1,R_MTF,FM,M2,2.225848312902646
BMu34,P64,CTR,REL,Trunk_Lateral,1,R_MTF,FM,M3,2.2141200754105608
BMu34,P65,PAT,INI,Trunk_Lateral,1,L_MTF,FM,M1,4.170670315072931
BMu34,P65,PAT,INI,Trunk_Lateral,1,L_MTF,FM,M2,5.045708843970706
BMu34,P65,PAT,INI,Trunk_Lateral,1,L_MTF,FM,M3,5.02221892438676
BMu34,P65,PAT,INI,Trunk_Lateral,1,R_MTF,FM,M1,5.984638908270989
BMu34,P65,PAT,INI,Trunk_Lateral,1,R_MTF,FM,M2,6.17839890907252
BMu34,P65,PAT,INI,Trunk_Lateral,1,R_MTF,FM,M3,5.376526744061977
BMu34,P65,PAT,REL,Trunk_Lateral,1,L_MTF,FM,M1,4.547081412046321
BMu34,P65,PAT,REL,Trunk_Lateral,1,L_MTF,FM,M2,3.961784875870655
BMu34,P65,PAT,REL,Trunk_Lateral,1,L_MTF,FM,M3,3.4877753132397573
BMu34,P65,PAT,REL,Trunk_Lateral,1,R_MTF,FM,M1,7.787595669205966
BMu34,P65,PAT,REL,Trunk_Lateral,1,R_MTF,FM,M2,7.773887619473983
BMu34,P65,PAT,REL,Trunk_Lateral,1,R_MTF,FM,M3,6.901893769061233
BMu34,P66,CTR,INI,Trunk_Lateral,1,L_MTF,FM,M1,1.475280935262463
BMu34,P66,CTR,INI,Trunk_Lateral,1,L_MTF,FM,M2,1.7479575513758983
BMu34,P66,CTR,INI,Trunk_Lateral,1,L_MTF,FM,M3,1.5515815940846063
BMu34,P66,CTR,INI,Trunk_Lateral,1,R_MTF,FM,M1,4.265106200966997
BMu34,P66,CTR,INI,Trunk_Lateral,1,R_MTF,FM,M2,4.863085567916982
BMu34,P66,CTR,INI,Trunk_Lateral,1,R_MTF,FM,M3,4.372132669079282
BMu34,P66,CTR,REL,Trunk_Lateral,1,L_MTF,FM,M1,3.435634885950126
BMu34,P66,CTR,REL,Trunk_Lateral,1,L_MTF,FM,M2,4.085230033921149
BMu34,P66,CTR,REL,Trunk_Lateral,1,L_MTF,FM,M3,3.8880739388211145
BMu34,P66,CTR,REL,Trunk_Lateral,1,R_MTF,FM,M1,4.347378238339342
BMu34,P66,CTR,REL,Trunk_Lateral,1,R_MTF,FM,M2,4.019898098096809
BMu34,P66,CTR,REL,Trunk_Lateral,1,R_MTF,FM,M3,4.565087369853174
BMu34,P67,CTR,INI,Trunk_Lateral,1,L_MTF,FM,M1,1.7977367994665863
BMu34,P67,CTR,INI,Trunk_Lateral,1,L_MTF,FM,M2,2.4070949967887745
BMu34,P67,CTR,INI,Trunk_Lateral,1,L_MTF,FM,M3,2.308896642688137
BMu34,P67,CTR,INI,Trunk_Lateral,1,R_MTF,FM,M1,4.7057058718360905
BMu34,P67,CTR,INI,Trunk_Lateral,1,R_MTF,FM,M2,5.131072250614487
BMu34,P67,CTR,INI,Trunk_Lateral,1,R_MTF,FM,M3,5.673275785735994
BMu34,P67,CTR,REL,Trunk_Lateral,1,L_MTF,FM,M1,0.9485024263352848
BMu34,P67,CTR,REL,Trunk_Lateral,1,L_MTF,FM,M2,0.8358921494723632
BMu34,P67,CTR,REL,Trunk_Lateral,1,L_MTF,FM,M3,0.9020780514339896
BMu34,P67,CTR,REL,Trunk_Lateral,1,R_MTF,FM,M1,1.3682412250206222
BMu34,P67,CTR,REL,Trunk_Lateral,1,R_MTF,FM,M2,1.967259206501513
BMu34,P67,CTR,REL,Trunk_Lateral,1,R_MTF,FM,M3,1.652630045683341
BMu34,P68,CTR,INI,Trunk_Lateral,1,L_MTF,FM,M1,5.058394796755386
BMu34,P68,CTR,INI,Trunk_Lateral,1,L_MTF,FM,M2,2.863268425099145
BMu34,P68,CTR,INI,Trunk_Lateral,1,L_MTF,FM,M3,2.5552903128044484
BMu34,P68,CTR,INI,Trunk_Lateral,1,R_MTF,FM,M1,4.9486482751443255
BMu34,P68,CTR,INI,Trunk_Lateral,1,R_MTF,FM,M2,3.0311688772588097
BMu34,P68,CTR,INI,Trunk_Lateral,1,R_MTF,FM,M3,2.8563486510014897
BMu34,P68,CTR,REL,Trunk_Lateral,1,L_MTF,FM,M1,7.364908806024384
BMu34,P68,CTR,REL,Trunk_Lateral,1,L_MTF,FM,M2,6.5560803830301015
BMu34,P68,CTR,REL,Trunk_Lateral,1,L_MTF,FM,M3,3.269866621753494
BMu34,P68,CTR,REL,Trunk_Lateral,1,R_MTF,FM,M1,4.732634440544932
BMu34,P68,CTR,REL,Trunk_Lateral,1,R_MTF,FM,M2,4.595215568598893
BMu34,P68,CTR,REL,Trunk_Lateral,1,R_MTF,FM,M3,2.6549249300017053
