BMu,Participant,Group,Session,task,trials,channel,Operator,Measure,Value
BMu36,P01,CTR,INI,Trunk_Forward,1,L_MTF,FM,M1,9.258112518428986
BMu36,P01,CTR,INI,Trunk_Forward,1,L_MTF,FM,M2,9.778893911635295
BMu36,P01,CTR,INI,Trunk_Forward,1,L_MTF,FM,M3,11.194596334640346
BMu36,P01,CTR,INI,Trunk_Forward,1,R_MTF,FM,M1,17.837208701180348
BMu36,P01,CTR,INI,Trunk_Forward,1,R_MTF,FM,M2,19.73876849874819
BMu36,P01,CTR,INI,Trunk_Forward,1,R_MTF,FM,M3,18.743892517858317
BMu36,P01,CTR,REL,Trunk_Forward,1,L_MTF,FM,M1,19.44897980845509
BMu36,P01,CTR,REL,Trunk_Forward,1,L_MTF,FM,M2,16.630862556828582
BMu36,P01,CTR,REL,Trunk_Forward,1,L_MTF,FM,M3,12.364429462075762
BMu36,P01,CTR,REL,Trunk_Forward,1,R_MTF,FM,M1,20.29222854358668
BMu36,P01,CTR,REL,Trunk_Forward,1,R_MTF,FM,M2,18.93494083246087
BMu36,P01,CTR,REL,Trunk_Forward,1,R_MTF,FM,M3,18.017883183453844
BMu36,P02,CTR,INI,Trunk_Forward,1,L_MTF,FM,M1,6.283649687799909
BMu36,P02,CTR,INI,Trunk_Forward,1,L_MTF,FM,M2,6.307383829643668
BMu36,P02,CTR,INI,Trunk_Forward,1,L_MTF,FM,M3,5.769478517345878
BMu36,P02,CTR,INI,Trunk_Forward,1,R_MTF,FM,M1,8.41836232263006
BMu36,P02,CTR,INI,Trunk_Forward,1,R_MTF,FM,M2,8.64491710912531
BMu36,P02,CTR,INI,Trunk_Forward,1,R_MTF,FM,M3,8.432946685929767
BMu36,P02,CTR,REL,Trunk_Forward,1,L_MTF,FM,M1,7.922469521599649
BMu36,P02,CTR,REL,Trunk_Forward,1,L_MTF,FM,M2,8.154680011305864
BMu36,P02,CTR,REL,Trunk_Forward,1,L_MTF,FM,M3,8.537467607160949
BMu36,P02,CTR,REL,Trunk_Forward,1,R_MTF,FM,M1,8.586367406660216
BMu36,P02,CTR,REL,Trunk_Forward,1,R_MTF,FM,M2,8.343930594539884
BMu36,P02,CTR,REL,Trunk_Forward,1,R_MTF,FM,M3,9.004325801250728
BMu36,P03,CTR,INI,Trunk_Forward,1,L_MTF,FM,M1,16.8613832190499
BMu36,P03,CTR,INI,Trunk_Forward,1,L_MTF,FM,M2,17.276035356500305
BMu36,P03,CTR,INI,Trunk_Forward,1,L_MTF,FM,M3,16.569510408499315
BMu36,P03,CTR,INI,Trunk_Forward,1,R_MTF,FM,M1,21.45204335373887
BMu36,P03,CTR,INI,Trunk_Forward,1,R_MTF,FM,M2,21.48298004005884
BMu36,P03,CTR,INI,Trunk_Forward,1,R_MTF,FM,M3,21.74348093664996
BMu36,P03,CTR,REL,Trunk_Forward,1,L_MTF,FM,M1,32.50355205611151
BMu36,P03,CTR,REL,Trunk_Forward,1,L_MTF,FM,M2,26.689173968695016
BMu36,P03,CTR,REL,Trunk_Forward,1,L_MTF,FM,M3,28.375550075774324
BMu36,P03,CTR,REL,Trunk_Forward,1,R_MTF,FM,M1,31.144841070739965
BMu36,P03,CTR,REL,Trunk_Forward,1,R_MTF,FM,M2,26.86820996649497
BMu36,P03,CTR,REL,Trunk_Forward,1,R_MTF,FM,M3,26.199624022670477
BMu36,P05,CTR,INI,Trunk_Forward,1,L_MTF,FM,M1,5.465818812064426
BMu36,P05,CTR,INI,Trunk_Forward,1,L_MTF,FM,M2,4.188116310496332
BMu36,P05,CTR,INI,Trunk_Forward,1,L_MTF,FM,M3,4.166663075107814
BMu36,P05,CTR,INI,Trunk_Forward,1,R_MTF,FM,M1,10.683197024885738
BMu36,P05,CTR,INI,Trunk_Forward,1,R_MTF,FM,M2,8.804206448130133
BMu36,P05,CTR,INI,Trunk_Forward,1,R_MTF,FM,M3,7.65531781060745
BMu36,P05,CTR,REL,Trunk_Forward,1,L_MTF,FM,M1,69.60277460942706
BMu36,P05,CTR,REL,Trunk_Forward,1,L_MTF,FM,M2,7.469420552955863
BMu36,P05,CTR,REL,Trunk_Forward,1,L_MTF,FM,M3,6.543549768393238
BMu36,P05,CTR,REL,Trunk_Forward,1,L_MTF,FM,M4,4.52432528247467
BMu36,P05,CTR,REL,Trunk_Forward,1,R_MTF,FM,M1,84.07936404196565
BMu36,P05,CTR,REL,Trunk_Forward,1,R_MTF,FM,M2,9.891096225989195
BMu36,P05,CTR,REL,Trunk_Forward,1,R_MTF,FM,M3,8.878327680851488
BMu36,P05,CTR,REL,Trunk_Forward,1,R_MTF,FM,M4,8.140770307375426
BMu36,P06,CTR,INI,Trunk_Forward,1,L_MTF,FM,M1,82.45166031626226
BMu36,P06,CTR,INI,Trunk_Forward,1,L_MTF,FM,M2,78.10255949201851
BMu36,P06,CTR,INI,Trunk_Forward,1,L_MTF,FM,M3,57.109247334441605
BMu36,P06,CTR,INI,Trunk_Forward,1,L_MTF,FM,M4,54.93782261049018
BMu36,P06,CTR,INI,Trunk_Forward,1,R_MTF,FM,M1,108.35523071189354
BMu36,P06,CTR,INI,Trunk_Forward,1,R_MTF,FM,M2,99.44252733470216
BMu36,P06,CTR,INI,Trunk_Forward,1,R_MTF,FM,M3,70.04054031398374
BMu36,P06,CTR,INI,Trunk_Forward,1,R_MTF,FM,M4,65.12452563649369
BMu36,P06,CTR,REL,Trunk_Forward,1,L_MTF,FM,M1,76.47459462213122
BMu36,P06,CTR,REL,Trunk_Forward,1,L_MTF,FM,M2,76.41615504218592
BMu36,P06,CTR,REL,Trunk_Forward,1,L_MTF,FM,M3,63.530545601333294
BMu36,P06,CTR,REL,Trunk_Forward,1,R_MTF,FM,M1,80.61859860275321
BMu36,P06,CTR,REL,Trunk_Forward,1,R_MTF,FM,M2,83.91391930534952
BMu36,P06,CTR,REL,Trunk_Forward,1,R_MTF,FM,M3,73.27306600655328
BMu36,P07,CTR,INI,Trunk_Forward,1,L_MTF,FM,M1,80.32615926276969
BMu36,P07,CTR,INI,Trunk_Forward,1,L_MTF,FM,M2,74.30291654717756
BMu36,P07,CTR,INI,Trunk_Forward,1,L_MTF,FM,M3,79.61771530817659
BMu36,P07,CTR,INI,Trunk_Forward,1,R_MTF,FM,M1,55.09220566607676
BMu36,P07,CTR,INI,Trunk_Forward,1,R_MTF,FM,M2,53.564430896919745
BMu36,P07,CTR,INI,Trunk_Forward,1,R_MTF,FM,M3,153.41602049224787
BMu36,P07,CTR,REL,Trunk_Forward,1,L_MTF,FM,M1,52.1669154350825
BMu36,P07,CTR,REL,Trunk_Forward,1,L_MTF,FM,M2,28.533083409257397
BMu36,P07,CTR,REL,Trunk_Forward,1,L_MTF,FM,M3,9.407423164478718
BMu36,P07,CTR,REL,Trunk_Forward,1,R_MTF,FM,M1,17.421499148259933
BMu36,P07,CTR,REL,Trunk_Forward,1,R_MTF,FM,M2,6.16871111161683
BMu36,P07,CTR,REL,Trunk_Forward,1,R_MTF,FM,M3,7.6706421890845276
BMu36,P08,CTR,INI,Trunk_Forward,1,L_MTF,FM,M1,18.701173187361423
BMu36,P08,CTR,INI,Trunk_Forward,1,L_MTF,FM,M2,18.635489579890244
BMu36,P08,CTR,INI,Trunk_Forward,1,L_MTF,FM,M3,18.388450309319055
BMu36,P08,CTR,INI,Trunk_Forward,1,R_MTF,FM,M1,16.59168907357655
BMu36,P08,CTR,INI,Trunk_Forward,1,R_MTF,FM,M2,16.782297537457403
BMu36,P08,CTR,INI,Trunk_Forward,1,R_MTF,FM,M3,16.44320907895207
BMu36,P08,CTR,REL,Trunk_Forward,1,L_MTF,FM,M1,15.020291408694968
BMu36,P08,CTR,REL,Trunk_Forward,1,L_MTF,FM,M2,13.972802830831958
BMu36,P08,CTR,REL,Trunk_Forward,1,L_MTF,FM,M3,14.190576623080311
BMu36,P08,CTR,REL,Trunk_Forward,1,R_MTF,FM,M1,10.943578573172184
BMu36,P08,CTR,REL,Trunk_Forward,1,R_MTF,FM,M2,9.187059047523178
BMu36,P08,CTR,REL,Trunk_Forward,1,R_MTF,FM,M3,9.258232458029322
BMu36,P09,PAT,INI,Trunk_Forward,1,L_MTF,FM,M1,129.45365973551716
BMu36,P09,PAT,INI,Trunk_Forward,1,L_MTF,FM,M2,117.92404413855654
BMu36,P09,PAT,INI,Trunk_Forward,1,L_MTF,FM,M3,81.68604583322052
BMu36,P09,PAT,INI,Trunk_Forward,1,L_MTF,FM,M4,75.5932133877661
BMu36,P09,PAT,INI,Trunk_Forward,1,R_MTF,FM,M1,115.13397081920427
BMu36,P09,PAT,INI,Trunk_Forward,1,R_MTF,FM,M2,104.92280603755452
BMu36,P09,PAT,INI,Trunk_Forward,1,R_MTF,FM,M3,76.07744115729808
BMu36,P09,PAT,INI,Trunk_Forward,1,R_MTF,FM,M4,61.48488284643384
BMu36,P09,PAT,REL,Trunk_Forward,1,L_MTF,FM,M1,94.37618939370329
BMu36,P09,PAT,REL,Trunk_Forward,1,L_MTF,FM,M2,71.79377286617212
BMu36,P09,PAT,REL,Trunk_Forward,1,L_MTF,FM,M3,41.853543548442595
BMu36,P09,PAT,REL,Trunk_Forward,1,R_MTF,FM,M1,136.64381386026068
BMu36,P09,PAT,REL,Trunk_Forward,1,R_MTF,FM,M2,116.88012186197969
BMu36,P09,PAT,REL,Trunk_Forward,1,R_MTF,FM,M3,102.14325304019594
BMu36,P10,PAT,INI,Trunk_Forward,1,L_MTF,FM,M1,38.29207750754852
BMu36,P10,PAT,INI,Trunk_Forward,1,L_MTF,FM,M2,13.724970035311369
BMu36,P10,PAT,INI,Trunk_Forward,1,L_MTF,FM,M3,10.89318260206358
BMu36,P10,PAT,INI,Trunk_Forward,1,R_MTF,FM,M1,63.38034557992579
BMu36,P10,PAT,INI,Trunk_Forward,1,R_MTF,FM,M2,35.68467583761875
BMu36,P10,PAT,INI,Trunk_Forward,1,R_MTF,FM,M3,16.777909470685323
BMu36,P10,PAT,REL,Trunk_Forward,1,L_MTF,FM,M1,66.40670035120955
BMu36,P10,PAT,REL,Trunk_Forward,1,L_MTF,FM,M2,29.16298871924246
BMu36,P10,PAT,REL,Trunk_Forward,1,L_MTF,FM,M3,13.156435378551464
BMu36,P10,PAT,REL,Trunk_Forward,1,R_MTF,FM,M1,77.60125249421387
BMu36,P10,PAT,REL,Trunk_Forward,1,R_MTF,FM,M2,45.95996368796521
BMu36,P10,PAT,REL,Trunk_Forward,1,R_MTF,FM,M3,23.284951358751897
BMu36,P11,PAT,INI,Trunk_Forward,1,L_MTF,FM,M1,41.70448346885033
BMu36,P11,PAT,INI,Trunk_Forward,1,L_MTF,FM,M2,51.195455429683456
BMu36,P11,PAT,INI,Trunk_Forward,1,L_MTF,FM,M3,42.74305137234984
BMu36,P11,PAT,INI,Trunk_Forward,1,R_MTF,FM,M1,36.98436347893483
BMu36,P11,PAT,INI,Trunk_Forward,1,R_MTF,FM,M2,49.62688892874219
BMu36,P11,PAT,INI,Trunk_Forward,1,R_MTF,FM,M3,30.52787744526062
BMu36,P11,PAT,REL,Trunk_Forward,1,L_MTF,FM,M1,50.323156368355654
BMu36,P11,PAT,REL,Trunk_Forward,1,L_MTF,FM,M2,49.40807195252186
BMu36,P11,PAT,REL,Trunk_Forward,1,L_MTF,FM,M3,42.817110551088646
BMu36,P11,PAT,REL,Trunk_Forward,1,R_MTF,FM,M1,38.26720277117887
BMu36,P11,PAT,REL,Trunk_Forward,1,R_MTF,FM,M2,35.843312892970395
BMu36,P11,PAT,REL,Trunk_Forward,1,R_MTF,FM,M3,32.47580216828074
BMu36,P12,PAT,INI,Trunk_Forward,1,L_MTF,FM,M1,88.46590383805271
BMu36,P12,PAT,INI,Trunk_Forward,1,L_MTF,FM,M2,85.22229205038654
BMu36,P12,PAT,INI,Trunk_Forward,1,L_MTF,FM,M3,80.91866226926801
BMu36,P12,PAT,INI,Trunk_Forward,1,R_MTF,FM,M1,87.78300267279079
BMu36,P12,PAT,INI,Trunk_Forward,1,R_MTF,FM,M2,94.73404678223852
BMu36,P12,PAT,INI,Trunk_Forward,1,R_MTF,FM,M3,89.90115751689505
BMu36,P12,PAT,REL,Trunk_Forward,1,L_MTF,FM,M1,80.90196941192694
BMu36,P12,PAT,REL,Trunk_Forward,1,L_MTF,FM,M2,77.7954542701392
BMu36,P12,PAT,REL,Trunk_Forward,1,L_MTF,FM,M3,81.0274605416366
BMu36,P12,PAT,REL,Trunk_Forward,1,R_MTF,FM,M1,5.248536464658516
BMu36,P12,PAT,REL,Trunk_Forward,1,R_MTF,FM,M2,856.5816195260876
BMu36,P12,PAT,REL,Trunk_Forward,1,R_MTF,FM,M3,5.357228016510776
BMu36,P13,CTR,INI,Trunk_Forward,1,L_MTF,FM,M1,67.37776120639323
BMu36,P13,CTR,INI,Trunk_Forward,1,L_MTF,FM,M2,41.79491768974208
BMu36,P13,CTR,INI,Trunk_Forward,1,L_MTF,FM,M3,32.55617081183561
BMu36,P13,CTR,INI,Trunk_Forward,1,R_MTF,FM,M1,62.26152428133131
BMu36,P13,CTR,INI,Trunk_Forward,1,R_MTF,FM,M2,51.92683164414689
BMu36,P13,CTR,INI,Trunk_Forward,1,R_MTF,FM,M3,35.24103510206418
BMu36,P13,CTR,REL,Trunk_Forward,1,L_MTF,FM,M1,84.11128180697732
BMu36,P13,CTR,REL,Trunk_Forward,1,L_MTF,FM,M2,61.69932408990139
BMu36,P13,CTR,REL,Trunk_Forward,1,L_MTF,FM,M3,58.16925030606163
BMu36,P13,CTR,REL,Trunk_Forward,1,R_MTF,FM,M1,70.45752151186932
BMu36,P13,CTR,REL,Trunk_Forward,1,R_MTF,FM,M2,71.10924326103127
BMu36,P13,CTR,REL,Trunk_Forward,1,R_MTF,FM,M3,64.81733127379239
BMu36,P14,PAT,INI,Trunk_Forward,1,L_MTF,FM,M1,88.1730272685684
BMu36,P14,PAT,INI,Trunk_Forward,1,L_MTF,FM,M2,79.71733748862177
BMu36,P14,PAT,INI,Trunk_Forward,1,L_MTF,FM,M3,72.79057583988873
BMu36,P14,PAT,INI,Trunk_Forward,1,R_MTF,FM,M1,79.60641031986239
BMu36,P14,PAT,INI,Trunk_Forward,1,R_MTF,FM,M2,81.6854026963908
BMu36,P14,PAT,INI,Trunk_Forward,1,R_MTF,FM,M3,72.29979307573011
BMu36,P14,PAT,REL,Trunk_Forward,1,L_MTF,FM,M1,124.04560646128242
BMu36,P14,PAT,REL,Trunk_Forward,1,L_MTF,FM,M2,110.01266833269476
BMu36,P14,PAT,REL,Trunk_Forward,1,L_MTF,FM,M3,109.75428872784842
BMu36,P14,PAT,REL,Trunk_Forward,1,L_MTF,FM,M4,85.29261635317381
BMu36,P14,PAT,REL,Trunk_Forward,1,R_MTF,FM,M1,107.22798715815848
BMu36,P14,PAT,REL,Trunk_Forward,1,R_MTF,FM,M2,105.68589886851572
BMu36,P14,PAT,REL,Trunk_Forward,1,R_MTF,FM,M3,103.33542907145883
BMu36,P14,PAT,REL,Trunk_Forward,1,R_MTF,FM,M4,94.81823864371076
BMu36,P16,CTR,INI,Trunk_Forward,1,L_MTF,FM,M1,24.987991645925028
BMu36,P16,CTR,INI,Trunk_Forward,1,L_MTF,FM,M2,15.556069446471845
BMu36,P16,CTR,INI,Trunk_Forward,1,L_MTF,FM,M3,15.204490789526263
BMu36,P16,CTR,INI,Trunk_Forward,1,R_MTF,FM,M1,52.59292831858174
BMu36,P16,CTR,INI,Trunk_Forward,1,R_MTF,FM,M2,37.885237060243455
BMu36,P16,CTR,INI,Trunk_Forward,1,R_MTF,FM,M3,38.60041022570842
BMu36,P16,CTR,REL,Trunk_Forward,1,L_MTF,FM,M1,27.0836656806291
BMu36,P16,CTR,REL,Trunk_Forward,1,L_MTF,FM,M2,26.491204857548436
BMu36,P16,CTR,REL,Trunk_Forward,1,L_MTF,FM,M3,29.102706800404626
BMu36,P16,CTR,REL,Trunk_Forward,1,R_MTF,FM,M1,24.14132974069975
BMu36,P16,CTR,REL,Trunk_Forward,1,R_MTF,FM,M2,23.96513374955567
BMu36,P16,CTR,REL,Trunk_Forward,1,R_MTF,FM,M3,23.117629522110917
BMu36,P17,PAT,INI,Trunk_Forward,1,L_MTF,FM,M1,24.105621594690025
BMu36,P17,PAT,INI,Trunk_Forward,1,L_MTF,FM,M2,24.094511242347274
BMu36,P17,PAT,INI,Trunk_Forward,1,L_MTF,FM,M3,29.66280750648402
BMu36,P17,PAT,INI,Trunk_Forward,1,R_MTF,FM,M1,25.010744214963648
BMu36,P17,PAT,INI,Trunk_Forward,1,R_MTF,FM,M2,25.45064397224047
BMu36,P17,PAT,INI,Trunk_Forward,1,R_MTF,FM,M3,27.86302515006201
BMu36,P17,PAT,REL,Trunk_Forward,1,L_MTF,FM,M1,61.548747401882956
BMu36,P17,PAT,REL,Trunk_Forward,1,L_MTF,FM,M2,60.34764664202312
BMu36,P17,PAT,REL,Trunk_Forward,1,L_MTF,FM,M3,60.211031113941885
BMu36,P17,PAT,REL,Trunk_Forward,1,R_MTF,FM,M1,66.48404182143257
BMu36,P17,PAT,REL,Trunk_Forward,1,R_MTF,FM,M2,59.67939533041665
BMu36,P17,PAT,REL,Trunk_Forward,1,R_MTF,FM,M3,55.04417338237827
BMu36,P21,CTR,INI,Trunk_Forward,1,L_MTF,FM,M1,24.86848986956719
BMu36,P21,CTR,INI,Trunk_Forward,1,L_MTF,FM,M2,18.85536880100653
BMu36,P21,CTR,INI,Trunk_Forward,1,L_MTF,FM,M3,26.718173856008605
BMu36,P21,CTR,INI,Trunk_Forward,1,R_MTF,FM,M1,79.20424307350719
BMu36,P21,CTR,INI,Trunk_Forward,1,R_MTF,FM,M2,74.84309963414478
BMu36,P21,CTR,INI,Trunk_Forward,1,R_MTF,FM,M3,77.56497142716856
BMu36,P21,CTR,REL,Trunk_Forward,1,L_MTF,FM,M1,114.71673963016481
BMu36,P21,CTR,REL,Trunk_Forward,1,L_MTF,FM,M2,97.29129024414253
BMu36,P21,CTR,REL,Trunk_Forward,1,L_MTF,FM,M3,113.20160581529036
BMu36,P21,CTR,REL,Trunk_Forward,1,R_MTF,FM,M1,109.84939252506628
BMu36,P21,CTR,REL,Trunk_Forward,1,R_MTF,FM,M2,113.90989644617248
BMu36,P21,CTR,REL,Trunk_Forward,1,R_MTF,FM,M3,110.06027496615809
BMu36,P22,CTR,INI,Trunk_Forward,1,L_MTF,FM,M1,16.533771919450974
BMu36,P22,CTR,INI,Trunk_Forward,1,L_MTF,FM,M2,17.40410637684978
BMu36,P22,CTR,INI,Trunk_Forward,1,L_MTF,FM,M3,14.607662231329055
BMu36,P22,CTR,INI,Trunk_Forward,1,R_MTF,FM,M1,89.56315544556121
BMu36,P22,CTR,INI,Trunk_Forward,1,R_MTF,FM,M2,19.987685171537105
BMu36,P22,CTR,INI,Trunk_Forward,1,R_MTF,FM,M3,21.143666555217866
BMu36,P22,CTR,REL,Trunk_Forward,1,L_MTF,FM,M1,42.26648243801925
BMu36,P22,CTR,REL,Trunk_Forward,1,L_MTF,FM,M2,36.63324296150298
BMu36,P22,CTR,REL,Trunk_Forward,1,L_MTF,FM,M3,27.097529960380818
BMu36,P22,CTR,REL,Trunk_Forward,1,R_MTF,FM,M1,42.73432283884627
BMu36,P22,CTR,REL,Trunk_Forward,1,R_MTF,FM,M2,20.62367017617893
BMu36,P22,CTR,REL,Trunk_Forward,1,R_MTF,FM,M3,23.6188620120207
BMu36,P23,CTR,INI,Trunk_Forward,1,L_MTF,FM,M1,76.65184402594886
BMu36,P23,CTR,INI,Trunk_Forward,1,L_MTF,FM,M2,15.799262043347715
BMu36,P23,CTR,INI,Trunk_Forward,1,L_MTF,FM,M3,18.838017943156785
BMu36,P23,CTR,INI,Trunk_Forward,1,R_MTF,FM,M1,50.794587116637935
BMu36,P23,CTR,INI,Trunk_Forward,1,R_MTF,FM,M2,17.293439129713537
BMu36,P23,CTR,INI,Trunk_Forward,1,R_MTF,FM,M3,17.965039174390608
BMu36,P23,CTR,REL,Trunk_Forward,1,L_MTF,FM,M1,13.454070066665032
BMu36,P23,CTR,REL,Trunk_Forward,1,L_MTF,FM,M2,11.741822518999722
BMu36,P23,CTR,REL,Trunk_Forward,1,L_MTF,FM,M3,11.2994808589496
BMu36,P23,CTR,REL,Trunk_Forward,1,R_MTF,FM,M1,10.659085824295234
BMu36,P23,CTR,REL,Trunk_Forward,1,R_MTF,FM,M2,11.130690386634573
BMu36,P23,CTR,REL,Trunk_Forward,1,R_MTF,FM,M3,10.90125690764036
BMu36,P24,PAT,INI,Trunk_Forward,1,L_MTF,FM,M1,74.92772517169003
BMu36,P24,PAT,INI,Trunk_Forward,1,L_MTF,FM,M2,84.22000502829913
BMu36,P24,PAT,INI,Trunk_Forward,1,L_MTF,FM,M3,74.81497939909286
BMu36,P24,PAT,INI,Trunk_Forward,1,R_MTF,FM,M1,124.47656075190996
BMu36,P24,PAT,INI,Trunk_Forward,1,R_MTF,FM,M2,119.67119196070665
BMu36,P24,PAT,INI,Trunk_Forward,1,R_MTF,FM,M3,110.77333643659736
BMu36,P24,PAT,REL,Trunk_Forward,1,L_MTF,FM,M1,60.739621332069206
BMu36,P24,PAT,REL,Trunk_Forward,1,L_MTF,FM,M2,63.88812663201573
BMu36,P24,PAT,REL,Trunk_Forward,1,L_MTF,FM,M3,54.60079124144959
BMu36,P24,PAT,REL,Trunk_Forward,1,R_MTF,FM,M1,71.26382865329678
BMu36,P24,PAT,REL,Trunk_Forward,1,R_MTF,FM,M2,74.63570160448552
BMu36,P24,PAT,REL,Trunk_Forward,1,R_MTF,FM,M3,78.62370500351683
BMu36,P25,CTR,INI,Trunk_Forward,1,L_MTF,FM,M1,51.31653617068078
BMu36,P25,CTR,INI,Trunk_Forward,1,L_MTF,FM,M2,37.82350298478136
BMu36,P25,CTR,INI,Trunk_Forward,1,L_MTF,FM,M3,39.174222195325335
BMu36,P25,CTR,INI,Trunk_Forward,1,R_MTF,FM,M1,33.29209502443814
BMu36,P25,CTR,INI,Trunk_Forward,1,R_MTF,FM,M2,6.519630394664094
BMu36,P25,CTR,INI,Trunk_Forward,1,R_MTF,FM,M3,7.970252082874319
BMu36,P25,CTR,REL,Trunk_Forward,1,L_MTF,FM,M1,52.180093117054476
BMu36,P25,CTR,REL,Trunk_Forward,1,L_MTF,FM,M2,44.475063300513966
BMu36,P25,CTR,REL,Trunk_Forward,1,L_MTF,FM,M3,17.016448029824225
BMu36,P25,CTR,REL,Trunk_Forward,1,R_MTF,FM,M1,35.65046584390386
BMu36,P25,CTR,REL,Trunk_Forward,1,R_MTF,FM,M2,20.895880023226965
BMu36,P25,CTR,REL,Trunk_Forward,1,R_MTF,FM,M3,9.147497190744385
BMu36,P26,PAT,INI,Trunk_Forward,1,L_MTF,FM,M1,21.34596245802332
BMu36,P26,PAT,INI,Trunk_Forward,1,L_MTF,FM,M2,25.889359309904783
BMu36,P26,PAT,INI,Trunk_Forward,1,L_MTF,FM,M3,21.723442733404834
BMu36,P26,PAT,INI,Trunk_Forward,1,R_MTF,FM,M1,52.41885538348121
BMu36,P26,PAT,INI,Trunk_Forward,1,R_MTF,FM,M2,36.77218300413219
BMu36,P26,PAT,INI,Trunk_Forward,1,R_MTF,FM,M3,33.93710798749509
BMu36,P26,PAT,REL,Trunk_Forward,1,L_MTF,FM,M1,52.02800505975209
BMu36,P26,PAT,REL,Trunk_Forward,1,L_MTF,FM,M2,32.85408737730946
BMu36,P26,PAT,REL,Trunk_Forward,1,L_MTF,FM,M3,30.323000539115935
BMu36,P26,PAT,REL,Trunk_Forward,1,R_MTF,FM,M1,39.510033645738645
BMu36,P26,PAT,REL,Trunk_Forward,1,R_MTF,FM,M2,31.508095337749232
BMu36,P26,PAT,REL,Trunk_Forward,1,R_MTF,FM,M3,50.80710506991364
BMu36,P27,PAT,INI,Trunk_Forward,1,L_MTF,FM,M1,76.59231407803566
BMu36,P27,PAT,INI,Trunk_Forward,1,L_MTF,FM,M2,72.81072266993282
BMu36,P27,PAT,INI,Trunk_Forward,1,L_MTF,FM,M3,54.77231860593304
BMu36,P27,PAT,INI,Trunk_Forward,1,R_MTF,FM,M1,107.88665705285025
BMu36,P27,PAT,INI,Trunk_Forward,1,R_MTF,FM,M2,97.40114056694236
BMu36,P27,PAT,INI,Trunk_Forward,1,R_MTF,FM,M3,67.36515405364929
BMu36,P27,PAT,REL,Trunk_Forward,1,L_MTF,FM,M1,71.74508148471264
BMu36,P27,PAT,REL,Trunk_Forward,1,L_MTF,FM,M2,61.094795523175804
BMu36,P27,PAT,REL,Trunk_Forward,1,L_MTF,FM,M3,65.27457507591943
BMu36,P27,PAT,REL,Trunk_Forward,1,L_MTF,FM,M4,55.754289715122454
BMu36,P27,PAT,REL,Trunk_Forward,1,R_MTF,FM,M1,107.28894827267744
BMu36,P27,PAT,REL,Trunk_Forward,1,R_MTF,FM,M2,100.90173286451959
BMu36,P27,PAT,REL,Trunk_Forward,1,R_MTF,FM,M3,103.1817202016644
BMu36,P27,PAT,REL,Trunk_Forward,1,R_MTF,FM,M4,94.76676646770906
BMu36,P28,PAT,INI,Trunk_Forward,1,L_MTF,FM,M1,110.70779645112574
BMu36,P28,PAT,INI,Trunk_Forward,1,L_MTF,FM,M2,105.96535921560468
BMu36,P28,PAT,INI,Trunk_Forward,1,L_MTF,FM,M3,107.06486244068017
BMu36,P28,PAT,INI,Trunk_Forward,1,R_MTF,FM,M1,101.2230249312128
BMu36,P28,PAT,INI,Trunk_Forward,1,R_MTF,FM,M2,102.56515477391022
BMu36,P28,PAT,INI,Trunk_Forward,1,R_MTF,FM,M3,113.29161437819991
BMu36,P28,PAT,REL,Trunk_Forward,1,L_MTF,FM,M1,81.33941964031877
BMu36,P28,PAT,REL,Trunk_Forward,1,L_MTF,FM,M2,85.63500887556384
BMu36,P28,PAT,REL,Trunk_Forward,1,L_MTF,FM,M3,83.09322767111985
BMu36,P28,PAT,REL,Trunk_Forward,1,R_MTF,FM,M1,87.65962119140576
BMu36,P28,PAT,REL,Trunk_Forward,1,R_MTF,FM,M2,94.34324126991814
BMu36,P28,PAT,REL,Trunk_Forward,1,R_MTF,FM,M3,90.97818197697417
BMu36,P29,PAT,INI,Trunk_Forward,1,L_MTF,FM,M1,39.05066011228983
BMu36,P29,PAT,INI,Trunk_Forward,1,L_MTF,FM,M2,33.37295412642198
BMu36,P29,PAT,INI,Trunk_Forward,1,L_MTF,FM,M3,29.15432339091658
BMu36,P29,PAT,INI,Trunk_Forward,1,R_MTF,FM,M1,53.90710142285154
BMu36,P29,PAT,INI,Trunk_Forward,1,R_MTF,FM,M2,49.340396032648925
BMu36,P29,PAT,INI,Trunk_Forward,1,R_MTF,FM,M3,43.19887865375043
BMu36,P29,PAT,REL,Trunk_Forward,1,L_MTF,FM,M1,28.66986899996838
BMu36,P29,PAT,REL,Trunk_Forward,1,L_MTF,FM,M2,26.863974641953945
BMu36,P29,PAT,REL,Trunk_Forward,1,L_MTF,FM,M3,24.063385661884634
BMu36,P29,PAT,REL,Trunk_Forward,1,R_MTF,FM,M1,38.188873432108764
BMu36,P29,PAT,REL,Trunk_Forward,1,R_MTF,FM,M2,40.56912621706158
BMu36,P29,PAT,REL,Trunk_Forward,1,R_MTF,FM,M3,36.02945762216477
BMu36,P30,PAT,INI,Trunk_Forward,1,L_MTF,FM,M1,44.137299325104664
BMu36,P30,PAT,INI,Trunk_Forward,1,L_MTF,FM,M2,37.82030664474119
BMu36,P30,PAT,INI,Trunk_Forward,1,L_MTF,FM,M3,40.90765636219097
BMu36,P30,PAT,INI,Trunk_Forward,1,R_MTF,FM,M1,18.435348924095187
BMu36,P30,PAT,INI,Trunk_Forward,1,R_MTF,FM,M2,31.313838994435354
BMu36,P30,PAT,INI,Trunk_Forward,1,R_MTF,FM,M3,30.570251093088004
BMu36,P30,PAT,REL,Trunk_Forward,1,L_MTF,FM,M1,101.19499014658966
BMu36,P30,PAT,REL,Trunk_Forward,1,L_MTF,FM,M2,88.89599965255358
BMu36,P30,PAT,REL,Trunk_Forward,1,L_MTF,FM,M3,84.88852640009134
BMu36,P30,PAT,REL,Trunk_Forward,1,R_MTF,FM,M1,92.1623216029938
BMu36,P30,PAT,REL,Trunk_Forward,1,R_MTF,FM,M2,87.4432433409434
BMu36,P30,PAT,REL,Trunk_Forward,1,R_MTF,FM,M3,89.35917975279781
BMu36,P32,PAT,INI,Trunk_Forward,1,L_MTF,FM,M1,27.725718021545283
BMu36,P32,PAT,INI,Trunk_Forward,1,L_MTF,FM,M2,20.98144088467196
BMu36,P32,PAT,INI,Trunk_Forward,1,L_MTF,FM,M3,13.177787696361897
BMu36,P32,PAT,INI,Trunk_Forward,1,R_MTF,FM,M1,31.71016596186195
BMu36,P32,PAT,INI,Trunk_Forward,1,R_MTF,FM,M2,24.16910859416401
BMu36,P32,PAT,INI,Trunk_Forward,1,R_MTF,FM,M3,12.03559007057614
BMu36,P32,PAT,REL,Trunk_Forward,1,L_MTF,FM,M1,39.9913899784893
BMu36,P32,PAT,REL,Trunk_Forward,1,L_MTF,FM,M2,33.27796380937375
BMu36,P32,PAT,REL,Trunk_Forward,1,L_MTF,FM,M3,15.417931493608023
BMu36,P32,PAT,REL,Trunk_Forward,1,L_MTF,FM,M4,11.138249624236085
BMu36,P32,PAT,REL,Trunk_Forward,1,R_MTF,FM,M1,59.33966117305573
BMu36,P32,PAT,REL,Trunk_Forward,1,R_MTF,FM,M2,53.805177143787894
BMu36,P32,PAT,REL,Trunk_Forward,1,R_MTF,FM,M3,33.697145316935426
BMu36,P32,PAT,REL,Trunk_Forward,1,R_MTF,FM,M4,27.193825564384635
BMu36,P33,PAT,INI,Trunk_Forward,1,L_MTF,FM,M1,138.25847455573398
BMu36,P33,PAT,INI,Trunk_Forward,1,L_MTF,FM,M2,132.00685191527376
BMu36,P33,PAT,INI,Trunk_Forward,1,L_MTF,FM,M3,147.16342747687173
BMu36,P33,PAT,INI,Trunk_Forward,1,L_MTF,FM,M4,150.16707790637466
BMu36,P33,PAT,INI,Trunk_Forward,1,R_MTF,FM,M1,147.06335809330645
BMu36,P33,PAT,INI,Trunk_Forward,1,R_MTF,FM,M2,167.86657609821643
BMu36,P33,PAT,INI,Trunk_Forward,1,R_MTF,FM,M3,160.70853987407753
BMu36,P33,PAT,INI,Trunk_Forward,1,R_MTF,FM,M4,148.44003849173043
BMu36,P33,PAT,REL,Trunk_Forward,1,L_MTF,FM,M1,153.14567337301276
BMu36,P33,PAT,REL,Trunk_Forward,1,L_MTF,FM,M2,170.41821416232318
BMu36,P33,PAT,REL,Trunk_Forward,1,L_MTF,FM,M3,193.3660632705375
BMu36,P33,PAT,REL,Trunk_Forward,1,R_MTF,FM,M1,140.4081106380843
BMu36,P33,PAT,REL,Trunk_Forward,1,R_MTF,FM,M2,121.05302967162945
BMu36,P33,PAT,REL,Trunk_Forward,1,R_MTF,FM,M3,131.06407896970208
BMu36,P34,PAT,INI,Trunk_Forward,1,L_MTF,FM,M1,17.68831549672133
BMu36,P34,PAT,INI,Trunk_Forward,1,L_MTF,FM,M2,18.20386415173601
BMu36,P34,PAT,INI,Trunk_Forward,1,L_MTF,FM,M3,18.069015256698815
BMu36,P34,PAT,INI,Trunk_Forward,1,R_MTF,FM,M1,77.80481395732934
BMu36,P34,PAT,INI,Trunk_Forward,1,R_MTF,FM,M2,28.140589642921977
BMu36,P34,PAT,INI,Trunk_Forward,1,R_MTF,FM,M3,29.660728180980747
BMu36,P34,PAT,REL,Trunk_Forward,1,L_MTF,FM,M1,15.785193728737164
BMu36,P34,PAT,REL,Trunk_Forward,1,L_MTF,FM,M2,14.220573186311366
BMu36,P34,PAT,REL,Trunk_Forward,1,L_MTF,FM,M3,13.405667012806196
BMu36,P34,PAT,REL,Trunk_Forward,1,R_MTF,FM,M1,22.135156655533894
BMu36,P34,PAT,REL,Trunk_Forward,1,R_MTF,FM,M2,19.188593259791844
BMu36,P34,PAT,REL,Trunk_Forward,1,R_MTF,FM,M3,16.73776242137548
BMu36,P35,CTR,INI,Trunk_Forward,1,L_MTF,FM,M1,6.1756183771434126
BMu36,P35,CTR,INI,Trunk_Forward,1,L_MTF,FM,M2,5.908047394884918
BMu36,P35,CTR,INI,Trunk_Forward,1,L_MTF,FM,M3,5.571527039752547
BMu36,P35,CTR,INI,Trunk_Forward,1,R_MTF,FM,M1,7.687244792883475
BMu36,P35,CTR,INI,Trunk_Forward,1,R_MTF,FM,M2,6.704889646982012
BMu36,P35,CTR,INI,Trunk_Forward,1,R_MTF,FM,M3,6.42420643488105
BMu36,P35,CTR,REL,Trunk_Forward,1,L_MTF,FM,M1,6.896307701823363
BMu36,P35,CTR,REL,Trunk_Forward,1,L_MTF,FM,M2,6.52727862618372
BMu36,P35,CTR,REL,Trunk_Forward,1,L_MTF,FM,M3,7.009516967606793
BMu36,P35,CTR,REL,Trunk_Forward,1,R_MTF,FM,M1,8.631990910079399
BMu36,P35,CTR,REL,Trunk_Forward,1,R_MTF,FM,M2,9.266905263271328
BMu36,P35,CTR,REL,Trunk_Forward,1,R_MTF,FM,M3,10.463539523557433
BMu36,P36,PAT,INI,Trunk_Forward,1,L_MTF,FM,M1,72.27776718066646
BMu36,P36,PAT,INI,Trunk_Forward,1,L_MTF,FM,M2,77.4164212817095
BMu36,P36,PAT,INI,Trunk_Forward,1,L_MTF,FM,M3,78.17836024648729
BMu36,P36,PAT,INI,Trunk_Forward,1,R_MTF,FM,M1,126.92214174916296
BMu36,P36,PAT,INI,Trunk_Forward,1,R_MTF,FM,M2,128.3120981190706
BMu36,P36,PAT,INI,Trunk_Forward,1,R_MTF,FM,M3,120.61148139899393
BMu36,P36,PAT,REL,Trunk_Forward,1,L_MTF,FM,M1,73.66205214979188
BMu36,P36,PAT,REL,Trunk_Forward,1,L_MTF,FM,M2,65.48513724355169
BMu36,P36,PAT,REL,Trunk_Forward,1,L_MTF,FM,M3,71.58689697371791
BMu36,P36,PAT,REL,Trunk_Forward,1,R_MTF,FM,M1,126.66807536570295
BMu36,P36,PAT,REL,Trunk_Forward,1,R_MTF,FM,M2,130.11131485735734
BMu36,P36,PAT,REL,Trunk_Forward,1,R_MTF,FM,M3,135.3702711207126
BMu36,P38,CTR,INI,Trunk_Forward,1,L_MTF,FM,M1,121.35763928639128
BMu36,P38,CTR,INI,Trunk_Forward,1,L_MTF,FM,M2,66.50220408104187
BMu36,P38,CTR,INI,Trunk_Forward,1,L_MTF,FM,M3,59.49021830833316
BMu36,P38,CTR,INI,Trunk_Forward,1,R_MTF,FM,M1,12.357473904893567
BMu36,P38,CTR,INI,Trunk_Forward,1,R_MTF,FM,M2,13.128497805223306
BMu36,P38,CTR,INI,Trunk_Forward,1,R_MTF,FM,M3,12.949594009073534
BMu36,P38,CTR,REL,Trunk_Forward,1,L_MTF,FM,M1,10.526390045404446
BMu36,P38,CTR,REL,Trunk_Forward,1,L_MTF,FM,M2,10.194954361820713
BMu36,P38,CTR,REL,Trunk_Forward,1,L_MTF,FM,M3,10.134463813989775
BMu36,P38,CTR,REL,Trunk_Forward,1,R_MTF,FM,M1,19.403091177785356
BMu36,P38,CTR,REL,Trunk_Forward,1,R_MTF,FM,M2,19.74172828497512
BMu36,P38,CTR,REL,Trunk_Forward,1,R_MTF,FM,M3,13.147700040366098
BMu36,P39,CTR,INI,Trunk_Forward,1,L_MTF,FM,M1,27.008608061401034
BMu36,P39,CTR,INI,Trunk_Forward,1,L_MTF,FM,M2,17.69577265341989
BMu36,P39,CTR,INI,Trunk_Forward,1,L_MTF,FM,M3,11.960510591642091
BMu36,P39,CTR,INI,Trunk_Forward,1,R_MTF,FM,M1,27.96154191233098
BMu36,P39,CTR,INI,Trunk_Forward,1,R_MTF,FM,M2,18.383905850467325
BMu36,P39,CTR,INI,Trunk_Forward,1,R_MTF,FM,M3,16.757763576450557
BMu36,P39,CTR,REL,Trunk_Forward,1,L_MTF,FM,M1,77.22140681492003
BMu36,P39,CTR,REL,Trunk_Forward,1,L_MTF,FM,M2,57.64413631943006
BMu36,P39,CTR,REL,Trunk_Forward,1,L_MTF,FM,M3,25.657420884812165
BMu36,P39,CTR,REL,Trunk_Forward,1,R_MTF,FM,M1,91.30133138413892
BMu36,P39,CTR,REL,Trunk_Forward,1,R_MTF,FM,M2,63.92008711334042
BMu36,P39,CTR,REL,Trunk_Forward,1,R_MTF,FM,M3,41.9528891731041
BMu36,P40,CTR,INI,Trunk_Forward,1,L_MTF,FM,M1,3.707735762671606
BMu36,P40,CTR,INI,Trunk_Forward,1,L_MTF,FM,M2,3.408160328601168
BMu36,P40,CTR,INI,Trunk_Forward,1,L_MTF,FM,M3,3.021861275685114
BMu36,P40,CTR,INI,Trunk_Forward,1,R_MTF,FM,M1,5.463547302629884
BMu36,P40,CTR,INI,Trunk_Forward,1,R_MTF,FM,M2,4.68304590101451
BMu36,P40,CTR,INI,Trunk_Forward,1,R_MTF,FM,M3,5.0875352784212575
BMu36,P40,CTR,REL,Trunk_Forward,1,L_MTF,FM,M1,9.105373983765425
BMu36,P40,CTR,REL,Trunk_Forward,1,L_MTF,FM,M2,9.594417241703805
BMu36,P40,CTR,REL,Trunk_Forward,1,L_MTF,FM,M3,7.58699976006986
BMu36,P40,CTR,REL,Trunk_Forward,1,R_MTF,FM,M1,16.148588811303867
BMu36,P40,CTR,REL,Trunk_Forward,1,R_MTF,FM,M2,9.266434190384825
BMu36,P40,CTR,REL,Trunk_Forward,1,R_MTF,FM,M3,9.318598298096148
BMu36,P41,PAT,INI,Trunk_Forward,1,L_MTF,FM,M1,24.238130117943403
BMu36,P41,PAT,INI,Trunk_Forward,1,L_MTF,FM,M2,9.797468487636946
BMu36,P41,PAT,INI,Trunk_Forward,1,L_MTF,FM,M3,6.535835644450133
BMu36,P41,PAT,INI,Trunk_Forward,1,R_MTF,FM,M1,15.456583193368171
BMu36,P41,PAT,INI,Trunk_Forward,1,R_MTF,FM,M2,12.323886046028255
BMu36,P41,PAT,INI,Trunk_Forward,1,R_MTF,FM,M3,11.337878234377834
BMu36,P41,PAT,REL,Trunk_Forward,1,L_MTF,FM,M1,39.15724044443756
BMu36,P41,PAT,REL,Trunk_Forward,1,L_MTF,FM,M2,12.344105199417987
BMu36,P41,PAT,REL,Trunk_Forward,1,L_MTF,FM,M3,8.055732222776918
BMu36,P41,PAT,REL,Trunk_Forward,1,R_MTF,FM,M1,28.072046616476882
BMu36,P41,PAT,REL,Trunk_Forward,1,R_MTF,FM,M2,12.213783672692632
BMu36,P41,PAT,REL,Trunk_Forward,1,R_MTF,FM,M3,9.694691791712302
BMu36,P42,PAT,INI,Trunk_Forward,1,L_MTF,FM,M1,61.91188793268796
BMu36,P42,PAT,INI,Trunk_Forward,1,L_MTF,FM,M2,51.24194613862954
BMu36,P42,PAT,INI,Trunk_Forward,1,L_MTF,FM,M3,56.15821751437819
BMu36,P42,PAT,INI,Trunk_Forward,1,R_MTF,FM,M1,41.03497986154573
BMu36,P42,PAT,INI,Trunk_Forward,1,R_MTF,FM,M2,40.12057035789169
BMu36,P42,PAT,INI,Trunk_Forward,1,R_MTF,FM,M3,36.95778850554111
BMu36,P42,PAT,REL,Trunk_Forward,1,L_MTF,FM,M1,73.94046112955523
BMu36,P42,PAT,REL,Trunk_Forward,1,L_MTF,FM,M2,59.04426281406902
BMu36,P42,PAT,REL,Trunk_Forward,1,L_MTF,FM,M3,59.93289974355553
BMu36,P42,PAT,REL,Trunk_Forward,1,R_MTF,FM,M1,52.847162252691795
BMu36,P42,PAT,REL,Trunk_Forward,1,R_MTF,FM,M2,38.012465567051066
BMu36,P42,PAT,REL,Trunk_Forward,1,R_MTF,FM,M3,36.36584641944448
BMu36,P43,PAT,INI,Trunk_Forward,1,L_MTF,FM,M1,5.057359849241042
BMu36,P43,PAT,INI,Trunk_Forward,1,L_MTF,FM,M2,5.190680174698443
BMu36,P43,PAT,INI,Trunk_Forward,1,L_MTF,FM,M3,5.093273114733082
BMu36,P43,PAT,INI,Trunk_Forward,1,R_MTF,FM,M1,10.253721435748194
BMu36,P43,PAT,INI,Trunk_Forward,1,R_MTF,FM,M2,24.812959132307647
BMu36,P43,PAT,INI,Trunk_Forward,1,R_MTF,FM,M3,9.611814001820468
BMu36,P43,PAT,REL,Trunk_Forward,1,L_MTF,FM,M1,11.181893362570404
BMu36,P43,PAT,REL,Trunk_Forward,1,L_MTF,FM,M2,7.38917849808755
BMu36,P43,PAT,REL,Trunk_Forward,1,L_MTF,FM,M3,7.98296579894763
BMu36,P43,PAT,REL,Trunk_Forward,1,R_MTF,FM,M1,34.51705633504594
BMu36,P43,PAT,REL,Trunk_Forward,1,R_MTF,FM,M2,33.5781962409746
BMu36,P43,PAT,REL,Trunk_Forward,1,R_MTF,FM,M3,30.396943095925838
BMu36,P44,CTR,INI,Trunk_Forward,1,L_MTF,FM,M1,458.36338933896894
BMu36,P44,CTR,INI,Trunk_Forward,1,L_MTF,FM,M2,379.0476538900763
BMu36,P44,CTR,INI,Trunk_Forward,1,L_MTF,FM,M3,364.53412629626433
BMu36,P44,CTR,INI,Trunk_Forward,1,R_MTF,FM,M1,33.92913304389988
BMu36,P44,CTR,INI,Trunk_Forward,1,R_MTF,FM,M2,28.282867062864923
BMu36,P44,CTR,INI,Trunk_Forward,1,R_MTF,FM,M3,31.55280218834331
BMu36,P44,CTR,REL,Trunk_Forward,1,L_MTF,FM,M1,9.848011305535007
BMu36,P44,CTR,REL,Trunk_Forward,1,L_MTF,FM,M2,10.351129883067289
BMu36,P44,CTR,REL,Trunk_Forward,1,L_MTF,FM,M3,11.410662087659349
BMu36,P44,CTR,REL,Trunk_Forward,1,R_MTF,FM,M1,10.423469350904325
BMu36,P44,CTR,REL,Trunk_Forward,1,R_MTF,FM,M2,10.679192039263874
BMu36,P44,CTR,REL,Trunk_Forward,1,R_MTF,FM,M3,10.633604114118775
BMu36,P45,PAT,INI,Trunk_Forward,1,L_MTF,FM,M1,79.77914962371587
BMu36,P45,PAT,INI,Trunk_Forward,1,L_MTF,FM,M2,46.08072492140656
BMu36,P45,PAT,INI,Trunk_Forward,1,L_MTF,FM,M3,34.25076564660065
BMu36,P45,PAT,INI,Trunk_Forward,1,R_MTF,FM,M1,160.31881871542197
BMu36,P45,PAT,INI,Trunk_Forward,1,R_MTF,FM,M2,148.65163703678763
BMu36,P45,PAT,INI,Trunk_Forward,1,R_MTF,FM,M3,112.56603792067423
BMu36,P45,PAT,REL,Trunk_Forward,1,L_MTF,FM,M1,102.56613757882725
BMu36,P45,PAT,REL,Trunk_Forward,1,L_MTF,FM,M2,84.71688200184083
BMu36,P45,PAT,REL,Trunk_Forward,1,L_MTF,FM,M3,87.81509314306439
BMu36,P45,PAT,REL,Trunk_Forward,1,R_MTF,FM,M1,226.9522290755757
BMu36,P45,PAT,REL,Trunk_Forward,1,R_MTF,FM,M2,222.44984480618888
BMu36,P45,PAT,REL,Trunk_Forward,1,R_MTF,FM,M3,149.63410842502384
BMu36,P46,CTR,INI,Trunk_Forward,1,L_MTF,FM,M1,101.69333232985426
BMu36,P46,CTR,INI,Trunk_Forward,1,L_MTF,FM,M2,131.2907694654083
BMu36,P46,CTR,INI,Trunk_Forward,1,L_MTF,FM,M3,146.5572404204841
BMu36,P46,CTR,INI,Trunk_Forward,1,R_MTF,FM,M1,17.080273328463555
BMu36,P46,CTR,INI,Trunk_Forward,1,R_MTF,FM,M2,22.3452487213986
BMu36,P46,CTR,INI,Trunk_Forward,1,R_MTF,FM,M3,26.76529275208462
BMu36,P46,CTR,REL,Trunk_Forward,1,L_MTF,FM,M1,38.66669361447252
BMu36,P46,CTR,REL,Trunk_Forward,1,L_MTF,FM,M2,16.011608882247916
BMu36,P46,CTR,REL,Trunk_Forward,1,L_MTF,FM,M3,12.670009469539533
BMu36,P46,CTR,REL,Trunk_Forward,1,R_MTF,FM,M1,14.640939977493542
BMu36,P46,CTR,REL,Trunk_Forward,1,R_MTF,FM,M2,9.552606461857945
BMu36,P46,CTR,REL,Trunk_Forward,1,R_MTF,FM,M3,11.240623626049354
BMu36,P47,PAT,INI,Trunk_Forward,1,L_MTF,FM,M1,52.35968070392724
BMu36,P47,PAT,INI,Trunk_Forward,1,L_MTF,FM,M2,47.26375384907758
BMu36,P47,PAT,INI,Trunk_Forward,1,L_MTF,FM,M3,48.93047366133439
BMu36,P47,PAT,INI,Trunk_Forward,1,R_MTF,FM,M1,63.80419384868639
BMu36,P47,PAT,INI,Trunk_Forward,1,R_MTF,FM,M2,64.26097121698207
BMu36,P47,PAT,INI,Trunk_Forward,1,R_MTF,FM,M3,58.14331548134769
BMu36,P47,PAT,REL,Trunk_Forward,1,L_MTF,FM,M1,46.03515271970468
BMu36,P47,PAT,REL,Trunk_Forward,1,L_MTF,FM,M2,43.2731551645758
BMu36,P47,PAT,REL,Trunk_Forward,1,L_MTF,FM,M3,42.0446880769714
BMu36,P47,PAT,REL,Trunk_Forward,1,R_MTF,FM,M1,54.29862595808459
BMu36,P47,PAT,REL,Trunk_Forward,1,R_MTF,FM,M2,36.7032388116631
BMu36,P47,PAT,REL,Trunk_Forward,1,R_MTF,FM,M3,43.14205958557388
BMu36,P48,CTR,INI,Trunk_Forward,1,L_MTF,FM,M1,8.419953229297807
BMu36,P48,CTR,INI,Trunk_Forward,1,L_MTF,FM,M2,7.622982742160383
BMu36,P48,CTR,INI,Trunk_Forward,1,L_MTF,FM,M3,8.879683315329691
BMu36,P48,CTR,INI,Trunk_Forward,1,R_MTF,FM,M1,7.9387423002889
BMu36,P48,CTR,INI,Trunk_Forward,1,R_MTF,FM,M2,7.003665830172073
BMu36,P48,CTR,INI,Trunk_Forward,1,R_MTF,FM,M3,10.004865844937227
BMu36,P48,CTR,REL,Trunk_Forward,1,L_MTF,FM,M1,9.67362521197397
BMu36,P48,CTR,REL,Trunk_Forward,1,L_MTF,FM,M2,8.52021181983484
BMu36,P48,CTR,REL,Trunk_Forward,1,L_MTF,FM,M3,7.862553870942746
BMu36,P48,CTR,REL,Trunk_Forward,1,R_MTF,FM,M1,10.698026231173195
BMu36,P48,CTR,REL,Trunk_Forward,1,R_MTF,FM,M2,9.882113053984094
BMu36,P48,CTR,REL,Trunk_Forward,1,R_MTF,FM,M3,9.738420769624414
BMu36,P49,CTR,INI,Trunk_Forward,1,L_MTF,FM,M1,8.862203545432092
BMu36,P49,CTR,INI,Trunk_Forward,1,L_MTF,FM,M2,5.727880466840958
BMu36,P49,CTR,INI,Trunk_Forward,1,L_MTF,FM,M3,5.206705346682562
BMu36,P49,CTR,INI,Trunk_Forward,1,R_MTF,FM,M1,15.536854787915793
BMu36,P49,CTR,INI,Trunk_Forward,1,R_MTF,FM,M2,11.001081651144801
BMu36,P49,CTR,INI,Trunk_Forward,1,R_MTF,FM,M3,9.859010601481307
BMu36,P49,CTR,REL,Trunk_Forward,1,L_MTF,FM,M1,6.302652101586408
BMu36,P49,CTR,REL,Trunk_Forward,1,L_MTF,FM,M2,5.4650034251236965
BMu36,P49,CTR,REL,Trunk_Forward,1,L_MTF,FM,M3,6.723097543301643
BMu36,P49,CTR,REL,Trunk_Forward,1,R_MTF,FM,M1,6.669705205388712
BMu36,P49,CTR,REL,Trunk_Forward,1,R_MTF,FM,M2,6.316437149129675
BMu36,P49,CTR,REL,Trunk_Forward,1,R_MTF,FM,M3,8.415143837622523
BMu36,P50,PAT,INI,Trunk_Forward,1,L_MTF,FM,M1,48.22894781032537
BMu36,P50,PAT,INI,Trunk_Forward,1,L_MTF,FM,M2,38.822455108660044
BMu36,P50,PAT,INI,Trunk_Forward,1,L_MTF,FM,M3,28.633106065555484
BMu36,P50,PAT,INI,Trunk_Forward,1,R_MTF,FM,M1,61.23404157617236
BMu36,P50,PAT,INI,Trunk_Forward,1,R_MTF,FM,M2,70.48081499069849
BMu36,P50,PAT,INI,Trunk_Forward,1,R_MTF,FM,M3,49.76771801060547
BMu36,P50,PAT,REL,Trunk_Forward,1,L_MTF,FM,M1,75.53262092103267
BMu36,P50,PAT,REL,Trunk_Forward,1,L_MTF,FM,M2,75.27590705804842
BMu36,P50,PAT,REL,Trunk_Forward,1,L_MTF,FM,M3,71.93283734323009
BMu36,P50,PAT,REL,Trunk_Forward,1,R_MTF,FM,M1,116.07129056845105
BMu36,P50,PAT,REL,Trunk_Forward,1,R_MTF,FM,M2,6.952583097584967
BMu36,P50,PAT,REL,Trunk_Forward,1,R_MTF,FM,M3,7.026335809223724
BMu36,P51,PAT,INI,Trunk_Forward,1,L_MTF,FM,M1,83.61363853551062
BMu36,P51,PAT,INI,Trunk_Forward,1,L_MTF,FM,M2,76.99487617448865
BMu36,P51,PAT,INI,Trunk_Forward,1,L_MTF,FM,M3,74.40204834321777
BMu36,P51,PAT,INI,Trunk_Forward,1,R_MTF,FM,M1,63.090493245096376
BMu36,P51,PAT,INI,Trunk_Forward,1,R_MTF,FM,M2,58.22618167829335
BMu36,P51,PAT,INI,Trunk_Forward,1,R_MTF,FM,M3,61.23060753603326
BMu36,P51,PAT,REL,Trunk_Forward,1,L_MTF,FM,M1,77.37227441590217
BMu36,P51,PAT,REL,Trunk_Forward,1,L_MTF,FM,M2,71.92107758488592
BMu36,P51,PAT,REL,Trunk_Forward,1,L_MTF,FM,M3,40.84055001625232
BMu36,P51,PAT,REL,Trunk_Forward,1,R_MTF,FM,M1,43.954766271754195
BMu36,P51,PAT,REL,Trunk_Forward,1,R_MTF,FM,M2,42.758176465001064
BMu36,P51,PAT,REL,Trunk_Forward,1,R_MTF,FM,M3,25.6668126388651
BMu36,P52,CTR,INI,Trunk_Forward,1,L_MTF,FM,M1,4.0517773343346155
BMu36,P52,CTR,INI,Trunk_Forward,1,L_MTF,FM,M2,2.5447621321625804
BMu36,P52,CTR,INI,Trunk_Forward,1,L_MTF,FM,M3,2.669776232639958
BMu36,P52,CTR,INI,Trunk_Forward,1,R_MTF,FM,M1,5.972169026169165
BMu36,P52,CTR,INI,Trunk_Forward,1,R_MTF,FM,M2,6.086505894058947
BMu36,P52,CTR,INI,Trunk_Forward,1,R_MTF,FM,M3,5.97687822190569
BMu36,P52,CTR,REL,Trunk_Forward,1,L_MTF,FM,M1,10.359796044706947
BMu36,P52,CTR,REL,Trunk_Forward,1,L_MTF,FM,M2,5.528471162338678
BMu36,P52,CTR,REL,Trunk_Forward,1,L_MTF,FM,M3,3.2569386978297556
BMu36,P52,CTR,REL,Trunk_Forward,1,R_MTF,FM,M1,30.76283396143169
BMu36,P52,CTR,REL,Trunk_Forward,1,R_MTF,FM,M2,6.8155584977985235
BMu36,P52,CTR,REL,Trunk_Forward,1,R_MTF,FM,M3,6.031319036858197
BMu36,P53,PAT,INI,Trunk_Forward,1,L_MTF,FM,M1,63.12407921324673
BMu36,P53,PAT,INI,Trunk_Forward,1,L_MTF,FM,M2,61.227068181920146
BMu36,P53,PAT,INI,Trunk_Forward,1,L_MTF,FM,M3,63.626528136184184
BMu36,P53,PAT,INI,Trunk_Forward,1,R_MTF,FM,M1,80.84314686810917
BMu36,P53,PAT,INI,Trunk_Forward,1,R_MTF,FM,M2,75.16182992129494
BMu36,P53,PAT,INI,Trunk_Forward,1,R_MTF,FM,M3,71.13380529739737
BMu36,P53,PAT,REL,Trunk_Forward,1,L_MTF,FM,M1,69.4376868212544
BMu36,P53,PAT,REL,Trunk_Forward,1,L_MTF,FM,M2,68.3707771897676
BMu36,P53,PAT,REL,Trunk_Forward,1,L_MTF,FM,M3,70.44330807858243
BMu36,P53,PAT,REL,Trunk_Forward,1,R_MTF,FM,M1,77.59810078151148
BMu36,P53,PAT,REL,Trunk_Forward,1,R_MTF,FM,M2,71.51682975948341
BMu36,P53,PAT,REL,Trunk_Forward,1,R_MTF,FM,M3,72.17878978148336
BMu36,P54,PAT,INI,Trunk_Forward,1,L_MTF,FM,M1,17.503968540161726
BMu36,P54,PAT,INI,Trunk_Forward,1,L_MTF,FM,M2,21.383401792613967
BMu36,P54,PAT,INI,Trunk_Forward,1,L_MTF,FM,M3,16.82829226916621
BMu36,P54,PAT,INI,Trunk_Forward,1,R_MTF,FM,M1,12.831014467595965
BMu36,P54,PAT,INI,Trunk_Forward,1,R_MTF,FM,M2,9.529736681595393
BMu36,P54,PAT,INI,Trunk_Forward,1,R_MTF,FM,M3,10.307380980131942
BMu36,P54,PAT,REL,Trunk_Forward,1,L_MTF,FM,M1,13.8837007253328
BMu36,P54,PAT,REL,Trunk_Forward,1,L_MTF,FM,M2,13.860538186490613
BMu36,P54,PAT,REL,Trunk_Forward,1,L_MTF,FM,M3,13.08853223111021
BMu36,P54,PAT,REL,Trunk_Forward,1,R_MTF,FM,M1,6.008745020950413
BMu36,P54,PAT,REL,Trunk_Forward,1,R_MTF,FM,M2,6.160919757523133
BMu36,P54,PAT,REL,Trunk_Forward,1,R_MTF,FM,M3,5.906342375534506
BMu36,P55,CTR,INI,Trunk_Forward,1,L_MTF,FM,M1,18.51653659098248
BMu36,P55,CTR,INI,Trunk_Forward,1,L_MTF,FM,M2,14.465232454780894
BMu36,P55,CTR,INI,Trunk_Forward,1,L_MTF,FM,M3,14.778960200489776
BMu36,P55,CTR,INI,Trunk_Forward,1,R_MTF,FM,M1,32.1954317710439
BMu36,P55,CTR,INI,Trunk_Forward,1,R_MTF,FM,M2,20.614536042519976
BMu36,P55,CTR,INI,Trunk_Forward,1,R_MTF,FM,M3,17.131595306808272
BMu36,P55,CTR,REL,Trunk_Forward,1,L_MTF,FM,M1,19.798677650225958
BMu36,P55,CTR,REL,Trunk_Forward,1,L_MTF,FM,M2,11.46751335278944
BMu36,P55,CTR,REL,Trunk_Forward,1,L_MTF,FM,M3,11.078402856876826
BMu36,P55,CTR,REL,Trunk_Forward,1,R_MTF,FM,M1,27.862723881312647
BMu36,P55,CTR,REL,Trunk_Forward,1,R_MTF,FM,M2,15.159314571871771
BMu36,P55,CTR,REL,Trunk_Forward,1,R_MTF,FM,M3,13.699018035687496
BMu36,P56,CTR,INI,Trunk_Forward,1,L_MTF,FM,M1,34.74998139852787
BMu36,P56,CTR,INI,Trunk_Forward,1,L_MTF,FM,M2,21.12621268790243
BMu36,P56,CTR,INI,Trunk_Forward,1,L_MTF,FM,M3,9.573943169882497
BMu36,P56,CTR,INI,Trunk_Forward,1,R_MTF,FM,M1,39.916309517223624
BMu36,P56,CTR,INI,Trunk_Forward,1,R_MTF,FM,M2,18.85939053272565
BMu36,P56,CTR,INI,Trunk_Forward,1,R_MTF,FM,M3,13.367424891455425
BMu36,P56,CTR,REL,Trunk_Forward,1,L_MTF,FM,M1,61.866905967582056
BMu36,P56,CTR,REL,Trunk_Forward,1,L_MTF,FM,M2,31.626104059005016
BMu36,P56,CTR,REL,Trunk_Forward,1,L_MTF,FM,M3,11.927888640723992
BMu36,P56,CTR,REL,Trunk_Forward,1,R_MTF,FM,M1,61.94830583806431
BMu36,P56,CTR,REL,Trunk_Forward,1,R_MTF,FM,M2,25.10896999127165
BMu36,P56,CTR,REL,Trunk_Forward,1,R_MTF,FM,M3,16.486430953406543
BMu36,P57,CTR,INI,Trunk_Forward,1,L_MTF,FM,M1,73.17097407907136
BMu36,P57,CTR,INI,Trunk_Forward,1,L_MTF,FM,M2,68.2348467494287
BMu36,P57,CTR,INI,Trunk_Forward,1,L_MTF,FM,M3,171.8187694569455
BMu36,P57,CTR,INI,Trunk_Forward,1,R_MTF,FM,M1,93.77912565905667
BMu36,P57,CTR,INI,Trunk_Forward,1,R_MTF,FM,M2,57.08363487106003
BMu36,P57,CTR,INI,Trunk_Forward,1,R_MTF,FM,M3,25.700664374175904
BMu36,P57,CTR,REL,Trunk_Forward,1,L_MTF,FM,M1,73.71882445895368
BMu36,P57,CTR,REL,Trunk_Forward,1,L_MTF,FM,M2,78.47881068165582
BMu36,P57,CTR,REL,Trunk_Forward,1,L_MTF,FM,M3,70.06176096458908
BMu36,P57,CTR,REL,Trunk_Forward,1,R_MTF,FM,M1,85.22512919638714
BMu36,P57,CTR,REL,Trunk_Forward,1,R_MTF,FM,M2,87.8316101806166
BMu36,P57,CTR,REL,Trunk_Forward,1,R_MTF,FM,M3,98.79842744572534
BMu36,P58,PAT,INI,Trunk_Forward,1,L_MTF,FM,M1,31.694211018425598
BMu36,P58,PAT,INI,Trunk_Forward,1,L_MTF,FM,M2,24.58927698366624
BMu36,P58,PAT,INI,Trunk_Forward,1,L_MTF,FM,M3,23.73971096745321
BMu36,P58,PAT,INI,Trunk_Forward,1,R_MTF,FM,M1,187.63321479281683
BMu36,P58,PAT,INI,Trunk_Forward,1,R_MTF,FM,M2,633.5182466640989
BMu36,P58,PAT,INI,Trunk_Forward,1,R_MTF,FM,M3,324.9528954166772
BMu36,P58,PAT,REL,Trunk_Forward,1,L_MTF,FM,M1,100.56149798275639
BMu36,P58,PAT,REL,Trunk_Forward,1,L_MTF,FM,M2,120.14840979978679
BMu36,P58,PAT,REL,Trunk_Forward,1,L_MTF,FM,M3,110.9273632704397
BMu36,P58,PAT,REL,Trunk_Forward,1,R_MTF,FM,M1,79.75962206023536
BMu36,P58,PAT,REL,Trunk_Forward,1,R_MTF,FM,M2,78.48683231441998
BMu36,P58,PAT,REL,Trunk_Forward,1,R_MTF,FM,M3,80.11951708523384
BMu36,P60,CTR,INI,Trunk_Forward,1,L_MTF,FM,M1,27.277566990541693
BMu36,P60,CTR,INI,Trunk_Forward,1,L_MTF,FM,M2,11.106839616978458
BMu36,P60,CTR,INI,Trunk_Forward,1,L_MTF,FM,M3,7.998064441321248
BMu36,P60,CTR,INI,Trunk_Forward,1,R_MTF,FM,M1,27.31942486821142
BMu36,P60,CTR,INI,Trunk_Forward,1,R_MTF,FM,M2,10.108730737050916
BMu36,P60,CTR,INI,Trunk_Forward,1,R_MTF,FM,M3,10.062522960239026
BMu36,P60,CTR,REL,Trunk_Forward,1,L_MTF,FM,M1,43.70069778499314
BMu36,P60,CTR,REL,Trunk_Forward,1,L_MTF,FM,M2,31.374281419508694
BMu36,P60,CTR,REL,Trunk_Forward,1,L_MTF,FM,M3,22.423696549969996
BMu36,P60,CTR,REL,Trunk_Forward,1,R_MTF,FM,M1,45.35590902588178
BMu36,P60,CTR,REL,Trunk_Forward,1,R_MTF,FM,M2,30.043197111978138
BMu36,P60,CTR,REL,Trunk_Forward,1,R_MTF,FM,M3,21.777414695671666
BMu36,P61,PAT,REL,Trunk_Forward,1,L_MTF,FM,M1,19.873575487636472
BMu36,P61,PAT,REL,Trunk_Forward,1,L_MTF,FM,M2,20.03292350737263
BMu36,P61,PAT,REL,Trunk_Forward,1,L_MTF,FM,M3,19.795968921102524
BMu36,P61,PAT,REL,Trunk_Forward,1,R_MTF,FM,M1,17.311468734910978
BMu36,P61,PAT,REL,Trunk_Forward,1,R_MTF,FM,M2,13.661262872836796
BMu36,P61,PAT,REL,Trunk_Forward,1,R_MTF,FM,M3,13.365904181389366
BMu36,P62,PAT,INI,Trunk_Forward,1,L_MTF,FM,M1,74.37510829104457
BMu36,P62,PAT,INI,Trunk_Forward,1,L_MTF,FM,M2,74.21996580588396
BMu36,P62,PAT,INI,Trunk_Forward,1,L_MTF,FM,M3,70.4851701750131
BMu36,P62,PAT,INI,Trunk_Forward,1,R_MTF,FM,M1,92.35545980854883
BMu36,P62,PAT,INI,Trunk_Forward,1,R_MTF,FM,M2,88.16034836472299
BMu36,P62,PAT,INI,Trunk_Forward,1,R_MTF,FM,M3,78.33547919866783
BMu36,P62,PAT,REL,Trunk_Forward,1,L_MTF,FM,M1,92.16171833722957
BMu36,P62,PAT,REL,Trunk_Forward,1,L_MTF,FM,M2,98.0244953765426
BMu36,P62,PAT,REL,Trunk_Forward,1,L_MTF,FM,M3,90.08235270951987
BMu36,P62,PAT,REL,Trunk_Forward,1,R_MTF,FM,M1,101.17046609721419
BMu36,P62,PAT,REL,Trunk_Forward,1,R_MTF,FM,M2,105.8504685680962
BMu36,P62,PAT,REL,Trunk_Forward,1,R_MTF,FM,M3,101.01182262924445
BMu36,P63,PAT,INI,Trunk_Forward,1,L_MTF,FM,M1,51.24233161760172
BMu36,P63,PAT,INI,Trunk_Forward,1,L_MTF,FM,M2,38.67200496698537
BMu36,P63,PAT,INI,Trunk_Forward,1,L_MTF,FM,M3,38.391775558225866
BMu36,P63,PAT,INI,Trunk_Forward,1,R_MTF,FM,M1,30.476453059234355
BMu36,P63,PAT,INI,Trunk_Forward,1,R_MTF,FM,M2,20.393585681633574
BMu36,P63,PAT,INI,Trunk_Forward,1,R_MTF,FM,M3,17.55754289841559
BMu36,P63,PAT,REL,Trunk_Forward,1,L_MTF,FM,M1,28.15389199302194
BMu36,P63,PAT,REL,Trunk_Forward,1,L_MTF,FM,M2,16.074314767455963
BMu36,P63,PAT,REL,Trunk_Forward,1,L_MTF,FM,M3,13.73029385144689
BMu36,P63,PAT,REL,Trunk_Forward,1,R_MTF,FM,M1,24.649439044426213
BMu36,P63,PAT,REL,Trunk_Forward,1,R_MTF,FM,M2,14.566964741599264
BMu36,P63,PAT,REL,Trunk_Forward,1,R_MTF,FM,M3,15.834615508061916
BMu36,P64,CTR,INI,Trunk_Forward,1,L_MTF,FM,M1,30.700003704824386
BMu36,P64,CTR,INI,Trunk_Forward,1,L_MTF,FM,M2,10.087351197617968
BMu36,P64,CTR,INI,Trunk_Forward,1,L_MTF,FM,M3,6.624331015229877
BMu36,P64,CTR,INI,Trunk_Forward,1,R_MTF,FM,M1,37.10671228712089
BMu36,P64,CTR,INI,Trunk_Forward,1,R_MTF,FM,M2,11.389694979915594
BMu36,P64,CTR,INI,Trunk_Forward,1,R_MTF,FM,M3,9.65855930472318
BMu36,P64,CTR,REL,Trunk_Forward,1,L_MTF,FM,M1,4.973618003201309
BMu36,P64,CTR,REL,Trunk_Forward,1,L_MTF,FM,M2,3.7202123711152137
BMu36,P64,CTR,REL,Trunk_Forward,1,L_MTF,FM,M3,3.9869984943067367
BMu36,P64,CTR,REL,Trunk_Forward,1,R_MTF,FM,M1,9.544567991387469
BMu36,P64,CTR,REL,Trunk_Forward,1,R_MTF,FM,M2,6.950140092496775
BMu36,P64,CTR,REL,Trunk_Forward,1,R_MTF,FM,M3,6.239238644780107
BMu36,P65,PAT,INI,Trunk_Forward,1,L_MTF,FM,M1,35.918963836016424
BMu36,P65,PAT,INI,Trunk_Forward,1,L_MTF,FM,M2,8.652248595738326
BMu36,P65,PAT,INI,Trunk_Forward,1,L_MTF,FM,M3,5.257492335157466
BMu36,P65,PAT,INI,Trunk_Forward,1,R_MTF,FM,M1,23.009861503744396
BMu36,P65,PAT,INI,Trunk_Forward,1,R_MTF,FM,M2,5.912859975536708
BMu36,P65,PAT,INI,Trunk_Forward,1,R_MTF,FM,M3,4.600572496954692
BMu36,P65,PAT,REL,Trunk_Forward,1,L_MTF,FM,M1,59.83950866106071
BMu36,P65,PAT,REL,Trunk_Forward,1,L_MTF,FM,M2,30.312103094322207
BMu36,P65,PAT,REL,Trunk_Forward,1,L_MTF,FM,M3,12.432867779561507
BMu36,P65,PAT,REL,Trunk_Forward,1,R_MTF,FM,M1,37.465483367452975
BMu36,P65,PAT,REL,Trunk_Forward,1,R_MTF,FM,M2,9.5151515824495
BMu36,P65,PAT,REL,Trunk_Forward,1,R_MTF,FM,M3,8.54211831359918
BMu36,P66,CTR,INI,Trunk_Forward,1,L_MTF,FM,M1,10.502021865826624
BMu36,P66,CTR,INI,Trunk_Forward,1,L_MTF,FM,M2,10.020352486099876
BMu36,P66,CTR,INI,Trunk_Forward,1,L_MTF,FM,M3,13.385700501424537
BMu36,P66,CTR,INI,Trunk_Forward,1,R_MTF,FM,M1,36.33274948040938
BMu36,P66,CTR,INI,Trunk_Forward,1,R_MTF,FM,M2,24.76255763151187
BMu36,P66,CTR,INI,Trunk_Forward,1,R_MTF,FM,M3,57.27364074589486
BMu36,P66,CTR,REL,Trunk_Forward,1,L_MTF,FM,M1,61.70592035476475
BMu36,P66,CTR,REL,Trunk_Forward,1,L_MTF,FM,M2,19.376193059625734
BMu36,P66,CTR,REL,Trunk_Forward,1,L_MTF,FM,M3,21.28115014337632
BMu36,P66,CTR,REL,Trunk_Forward,1,R_MTF,FM,M1,52.550787775329084
BMu36,P66,CTR,REL,Trunk_Forward,1,R_MTF,FM,M2,34.79183751307715
BMu36,P66,CTR,REL,Trunk_Forward,1,R_MTF,FM,M3,32.76450312671221
BMu36,P67,CTR,INI,Trunk_Forward,1,L_MTF,FM,M1,9.255814398877305
BMu36,P67,CTR,INI,Trunk_Forward,1,L_MTF,FM,M2,6.3502420767043875
BMu36,P67,CTR,INI,Trunk_Forward,1,L_MTF,FM,M3,6.033301989553414
BMu36,P67,CTR,INI,Trunk_Forward,1,R_MTF,FM,M1,32.920781527283495
BMu36,P67,CTR,INI,Trunk_Forward,1,R_MTF,FM,M2,25.641919347259932
BMu36,P67,CTR,INI,Trunk_Forward,1,R_MTF,FM,M3,15.119120726200466
BMu36,P67,CTR,REL,Trunk_Forward,1,L_MTF,FM,M1,10.024306396040531
BMu36,P67,CTR,REL,Trunk_Forward,1,L_MTF,FM,M2,31.343897776335673
BMu36,P67,CTR,REL,Trunk_Forward,1,L_MTF,FM,M3,14.365543461721847
BMu36,P67,CTR,REL,Trunk_Forward,1,R_MTF,FM,M1,11.60665373098614
BMu36,P67,CTR,REL,Trunk_Forward,1,R_MTF,FM,M2,9.907853903065034
BMu36,P67,CTR,REL,Trunk_Forward,1,R_MTF,FM,M3,11.5686979055194
BMu36,P68,CTR,INI,Trunk_Forward,1,L_MTF,FM,M1,58.722214312455925
BMu36,P68,CTR,INI,Trunk_Forward,1,L_MTF,FM,M2,42.01763930188647
BMu36,P68,CTR,INI,Trunk_Forward,1,L_MTF,FM,M3,40.95660400843597
BMu36,P68,CTR,INI,Trunk_Forward,1,R_MTF,FM,M1,83.80513762462174
BMu36,P68,CTR,INI,Trunk_Forward,1,R_MTF,FM,M2,99.73139551359228
BMu36,P68,CTR,INI,Trunk_Forward,1,R_MTF,FM,M3,105.99728980243862
BMu36,P68,CTR,REL,Trunk_Forward,1,L_MTF,FM,M1,38.50214655984031
BMu36,P68,CTR,REL,Trunk_Forward,1,L_MTF,FM,M2,37.95839561029247
BMu36,P68,CTR,REL,Trunk_Forward,1,L_MTF,FM,M3,14.922656979702587
BMu36,P68,CTR,REL,Trunk_Forward,1,L_MTF,FM,M4,16.635934070525224
BMu36,P68,CTR,REL,Trunk_Forward,1,R_MTF,FM,M1,72.0710834026746
BMu36,P68,CTR,REL,Trunk_Forward,1,R_MTF,FM,M2,87.14029063179302
BMu36,P68,CTR,REL,Trunk_Forward,1,R_MTF,FM,M3,79.08153361834071
BMu36,P68,CTR,REL,Trunk_Forward,1,R_MTF,FM,M4,89.6618269539986
