BMu,Participant,Group,Session,task,trials,channel,Operator,Measure,Value
BMu37,P01,CTR,INI,Trunk_Forward,1,L_EO,FM,M1,110.68404777578432
BMu37,P01,CTR,INI,Trunk_Forward,1,L_EO,FM,M2,59.289025477238184
BMu37,P01,CTR,INI,Trunk_Forward,1,L_EO,FM,M3,99.82014395707192
BMu37,P01,CTR,INI,Trunk_Forward,1,R_EO,FM,M1,96.07670119837572
BMu37,P01,CTR,INI,Trunk_Forward,1,R_EO,FM,M2,94.82868525084706
BMu37,P01,CTR,INI,Trunk_Forward,1,R_EO,FM,M3,83.53140657208692
BMu37,P01,CTR,REL,Trunk_Forward,1,L_EO,FM,M1,81.63080264433766
BMu37,P01,CTR,REL,Trunk_Forward,1,L_EO,FM,M2,98.68662191687415
BMu37,P01,CTR,REL,Trunk_Forward,1,L_EO,FM,M3,98.15541985931652
BMu37,P01,CTR,REL,Trunk_Forward,1,R_EO,FM,M1,92.0046693499222
BMu37,P01,CTR,REL,Trunk_Forward,1,R_EO,FM,M2,77.01949361331552
BMu37,P01,CTR,REL,Trunk_Forward,1,R_EO,FM,M3,72.71432429609145
BMu37,P02,CTR,INI,Trunk_Forward,1,L_EO,FM,M1,84.15440762536548
BMu37,P02,CTR,INI,Trunk_Forward,1,L_EO,FM,M2,86.7075737355062
BMu37,P02,CTR,INI,Trunk_Forward,1,L_EO,FM,M3,83.40055026547357
BMu37,P02,CTR,INI,Trunk_Forward,1,R_EO,FM,M1,112.69713331198169
BMu37,P02,CTR,INI,Trunk_Forward,1,R_EO,FM,M2,120.63009577918992
BMu37,P02,CTR,INI,Trunk_Forward,1,R_EO,FM,M3,120.01752151523614
BMu37,P02,CTR,REL,Trunk_Forward,1,L_EO,FM,M1,53.2839162521004
BMu37,P02,CTR,REL,Trunk_Forward,1,L_EO,FM,M2,60.33590598614064
BMu37,P02,CTR,REL,Trunk_Forward,1,L_EO,FM,M3,85.86937049339487
BMu37,P02,CTR,REL,Trunk_Forward,1,R_EO,FM,M1,78.3714624946339
BMu37,P02,CTR,REL,Trunk_Forward,1,R_EO,FM,M2,103.74866229244581
BMu37,P02,CTR,REL,Trunk_Forward,1,R_EO,FM,M3,118.1329135328384
BMu37,P03,CTR,INI,Trunk_Forward,1,L_EO,FM,M1,125.57004583116164
BMu37,P03,CTR,INI,Trunk_Forward,1,L_EO,FM,M2,135.20679758756887
BMu37,P03,CTR,INI,Trunk_Forward,1,L_EO,FM,M3,136.8005322172421
BMu37,P03,CTR,INI,Trunk_Forward,1,R_EO,FM,M1,120.83388564164433
BMu37,P03,CTR,INI,Trunk_Forward,1,R_EO,FM,M2,125.27488183173062
BMu37,P03,CTR,INI,Trunk_Forward,1,R_EO,FM,M3,127.07047581316134
BMu37,P03,CTR,REL,Trunk_Forward,1,L_EO,FM,M1,107.69406638522372
BMu37,P03,CTR,REL,Trunk_Forward,1,L_EO,FM,M2,116.78098962349023
BMu37,P03,CTR,REL,Trunk_Forward,1,L_EO,FM,M3,107.96873679778713
BMu37,P03,CTR,REL,Trunk_Forward,1,R_EO,FM,M1,100.66875664136073
BMu37,P03,CTR,REL,Trunk_Forward,1,R_EO,FM,M2,119.93063668467444
BMu37,P03,CTR,REL,Trunk_Forward,1,R_EO,FM,M3,107.84306988927018
BMu37,P05,CTR,INI,Trunk_Forward,1,L_EO,FM,M1,88.92725461086309
BMu37,P05,CTR,INI,Trunk_Forward,1,L_EO,FM,M2,81.46359746151899
BMu37,P05,CTR,INI,Trunk_Forward,1,L_EO,FM,M3,87.11718870392029
BMu37,P05,CTR,INI,Trunk_Forward,1,R_EO,FM,M1,102.12920132465949
BMu37,P05,CTR,INI,Trunk_Forward,1,R_EO,FM,M2,99.0552790008902
BMu37,P05,CTR,INI,Trunk_Forward,1,R_EO,FM,M3,105.81662015326312
BMu37,P05,CTR,REL,Trunk_Forward,1,L_EO,FM,M1,88.59312522527414
BMu37,P05,CTR,REL,Trunk_Forward,1,L_EO,FM,M2,84.89365569155117
BMu37,P05,CTR,REL,Trunk_Forward,1,L_EO,FM,M3,56.40839160747287
BMu37,P05,CTR,REL,Trunk_Forward,1,L_EO,FM,M4,73.43775041282512
BMu37,P05,CTR,REL,Trunk_Forward,1,R_EO,FM,M1,29.39778541114774
BMu37,P05,CTR,REL,Trunk_Forward,1,R_EO,FM,M2,99.98538295892898
BMu37,P05,CTR,REL,Trunk_Forward,1,R_EO,FM,M3,98.93625639940792
BMu37,P05,CTR,REL,Trunk_Forward,1,R_EO,FM,M4,103.66153133339114
BMu37,P06,CTR,INI,Trunk_Forward,1,L_EO,FM,M1,153.60133045735765
BMu37,P06,CTR,INI,Trunk_Forward,1,L_EO,FM,M2,151.34618348209847
BMu37,P06,CTR,INI,Trunk_Forward,1,L_EO,FM,M3,142.16916740664695
BMu37,P06,CTR,INI,Trunk_Forward,1,L_EO,FM,M4,141.29645155260775
BMu37,P06,CTR,INI,Trunk_Forward,1,R_EO,FM,M1,171.29965277012747
BMu37,P06,CTR,INI,Trunk_Forward,1,R_EO,FM,M2,178.64483943781747
BMu37,P06,CTR,INI,Trunk_Forward,1,R_EO,FM,M3,177.84625275390215
BMu37,P06,CTR,INI,Trunk_Forward,1,R_EO,FM,M4,169.23521220660675
BMu37,P06,CTR,REL,Trunk_Forward,1,L_EO,FM,M1,116.46742176107594
BMu37,P06,CTR,REL,Trunk_Forward,1,L_EO,FM,M2,109.84320612946863
BMu37,P06,CTR,REL,Trunk_Forward,1,L_EO,FM,M3,110.49325187173302
BMu37,P06,CTR,REL,Trunk_Forward,1,R_EO,FM,M1,78.42825915708339
BMu37,P06,CTR,REL,Trunk_Forward,1,R_EO,FM,M2,64.08273278114835
BMu37,P06,CTR,REL,Trunk_Forward,1,R_EO,FM,M3,76.57284039395375
BMu37,P07,CTR,INI,Trunk_Forward,1,L_EO,FM,M1,87.11716041220983
BMu37,P07,CTR,INI,Trunk_Forward,1,L_EO,FM,M2,87.81249909489932
BMu37,P07,CTR,INI,Trunk_Forward,1,L_EO,FM,M3,91.99273199825541
BMu37,P07,CTR,INI,Trunk_Forward,1,R_EO,FM,M1,51.75787341732816
BMu37,P07,CTR,INI,Trunk_Forward,1,R_EO,FM,M2,54.81976533629428
BMu37,P07,CTR,INI,Trunk_Forward,1,R_EO,FM,M3,57.817536081507605
BMu37,P07,CTR,REL,Trunk_Forward,1,L_EO,FM,M1,77.57413335856795
BMu37,P07,CTR,REL,Trunk_Forward,1,L_EO,FM,M2,79.96190211623723
BMu37,P07,CTR,REL,Trunk_Forward,1,L_EO,FM,M3,68.30240169336021
BMu37,P07,CTR,REL,Trunk_Forward,1,R_EO,FM,M1,44.79404629574688
BMu37,P07,CTR,REL,Trunk_Forward,1,R_EO,FM,M2,90.68333690813455
BMu37,P07,CTR,REL,Trunk_Forward,1,R_EO,FM,M3,101.28927354691172
BMu37,P08,CTR,INI,Trunk_Forward,1,L_EO,FM,M1,71.71836252496071
BMu37,P08,CTR,INI,Trunk_Forward,1,L_EO,FM,M2,80.51890592938022
BMu37,P08,CTR,INI,Trunk_Forward,1,L_EO,FM,M3,103.3227666732636
BMu37,P08,CTR,INI,Trunk_Forward,1,R_EO,FM,M1,89.63146799041449
BMu37,P08,CTR,INI,Trunk_Forward,1,R_EO,FM,M2,87.3443260769179
BMu37,P08,CTR,INI,Trunk_Forward,1,R_EO,FM,M3,102.12097076679022
BMu37,P08,CTR,REL,Trunk_Forward,1,L_EO,FM,M1,75.99195179894717
BMu37,P08,CTR,REL,Trunk_Forward,1,L_EO,FM,M2,78.26713232076008
BMu37,P08,CTR,REL,Trunk_Forward,1,L_EO,FM,M3,79.17257592298631
BMu37,P08,CTR,REL,Trunk_Forward,1,R_EO,FM,M1,106.86087705080261
BMu37,P08,CTR,REL,Trunk_Forward,1,R_EO,FM,M2,107.11198412081501
BMu37,P08,CTR,REL,Trunk_Forward,1,R_EO,FM,M3,106.78642128881634
BMu37,P09,PAT,INI,Trunk_Forward,1,L_EO,FM,M1,92.25365445794142
BMu37,P09,PAT,INI,Trunk_Forward,1,L_EO,FM,M2,94.81959214782495
BMu37,P09,PAT,INI,Trunk_Forward,1,L_EO,FM,M3,86.57398916501504
BMu37,P09,PAT,INI,Trunk_Forward,1,L_EO,FM,M4,94.72067612124816
BMu37,P09,PAT,INI,Trunk_Forward,1,R_EO,FM,M1,83.44600135870728
BMu37,P09,PAT,INI,Trunk_Forward,1,R_EO,FM,M2,88.93397288313079
BMu37,P09,PAT,INI,Trunk_Forward,1,R_EO,FM,M3,88.89121047745485
BMu37,P09,PAT,INI,Trunk_Forward,1,R_EO,FM,M4,91.74910435605328
BMu37,P09,PAT,REL,Trunk_Forward,1,L_EO,FM,M1,86.52714571651174
BMu37,P09,PAT,REL,Trunk_Forward,1,L_EO,FM,M2,89.08286844163827
BMu37,P09,PAT,REL,Trunk_Forward,1,L_EO,FM,M3,89.57484955419886
BMu37,P09,PAT,REL,Trunk_Forward,1,R_EO,FM,M1,71.4047980842964
BMu37,P09,PAT,REL,Trunk_Forward,1,R_EO,FM,M2,96.17575908408027
BMu37,P09,PAT,REL,Trunk_Forward,1,R_EO,FM,M3,49.31894069563569
BMu37,P10,PAT,INI,Trunk_Forward,1,L_EO,FM,M1,91.21537739485858
BMu37,P10,PAT,INI,Trunk_Forward,1,L_EO,FM,M2,90.80211636664056
BMu37,P10,PAT,INI,Trunk_Forward,1,L_EO,FM,M3,91.88276952937937
BMu37,P10,PAT,INI,Trunk_Forward,1,R_EO,FM,M1,89.75308734538189
BMu37,P10,PAT,INI,Trunk_Forward,1,R_EO,FM,M2,94.48474887419718
BMu37,P10,PAT,INI,Trunk_Forward,1,R_EO,FM,M3,93.9338403755504
BMu37,P10,PAT,REL,Trunk_Forward,1,L_EO,FM,M1,102.38100504814139
BMu37,P10,PAT,REL,Trunk_Forward,1,L_EO,FM,M2,95.97577578461241
BMu37,P10,PAT,REL,Trunk_Forward,1,L_EO,FM,M3,96.53283495493142
BMu37,P10,PAT,REL,Trunk_Forward,1,R_EO,FM,M1,107.88389851024488
BMu37,P10,PAT,REL,Trunk_Forward,1,R_EO,FM,M2,105.63657989813618
BMu37,P10,PAT,REL,Trunk_Forward,1,R_EO,FM,M3,107.62498725876574
BMu37,P11,PAT,INI,Trunk_Forward,1,L_EO,FM,M1,76.17836275664241
BMu37,P11,PAT,INI,Trunk_Forward,1,L_EO,FM,M2,81.22843155923916
BMu37,P11,PAT,INI,Trunk_Forward,1,L_EO,FM,M3,78.26105128670987
BMu37,P11,PAT,INI,Trunk_Forward,1,R_EO,FM,M1,74.22096216902149
BMu37,P11,PAT,INI,Trunk_Forward,1,R_EO,FM,M2,72.09867259213672
BMu37,P11,PAT,INI,Trunk_Forward,1,R_EO,FM,M3,74.77388641499462
BMu37,P11,PAT,REL,Trunk_Forward,1,L_EO,FM,M1,91.3123558880787
BMu37,P11,PAT,REL,Trunk_Forward,1,L_EO,FM,M2,97.03333293571922
BMu37,P11,PAT,REL,Trunk_Forward,1,L_EO,FM,M3,93.09988223780023
BMu37,P11,PAT,REL,Trunk_Forward,1,R_EO,FM,M1,88.98787203894568
BMu37,P11,PAT,REL,Trunk_Forward,1,R_EO,FM,M2,100.73790374951936
BMu37,P11,PAT,REL,Trunk_Forward,1,R_EO,FM,M3,91.59182451068934
BMu37,P12,PAT,INI,Trunk_Forward,1,L_EO,FM,M1,100.7202877058492
BMu37,P12,PAT,INI,Trunk_Forward,1,L_EO,FM,M2,101.5033806186992
BMu37,P12,PAT,INI,Trunk_Forward,1,L_EO,FM,M3,103.40019826674046
BMu37,P12,PAT,INI,Trunk_Forward,1,R_EO,FM,M1,106.69611372672844
BMu37,P12,PAT,INI,Trunk_Forward,1,R_EO,FM,M2,105.94282745425288
BMu37,P12,PAT,INI,Trunk_Forward,1,R_EO,FM,M3,99.54852027916317
BMu37,P12,PAT,REL,Trunk_Forward,1,L_EO,FM,M1,120.51552248921209
BMu37,P12,PAT,REL,Trunk_Forward,1,L_EO,FM,M2,121.78838836596155
BMu37,P12,PAT,REL,Trunk_Forward,1,L_EO,FM,M3,119.59419871880162
BMu37,P12,PAT,REL,Trunk_Forward,1,R_EO,FM,M1,132.1353073029668
BMu37,P12,PAT,REL,Trunk_Forward,1,R_EO,FM,M2,129.70822440645352
BMu37,P12,PAT,REL,Trunk_Forward,1,R_EO,FM,M3,128.23294442237332
BMu37,P13,CTR,INI,Trunk_Forward,1,L_EO,FM,M1,55.159945671755096
BMu37,P13,CTR,INI,Trunk_Forward,1,L_EO,FM,M2,43.217732022164036
BMu37,P13,CTR,INI,Trunk_Forward,1,L_EO,FM,M3,37.01911807239565
BMu37,P13,CTR,INI,Trunk_Forward,1,R_EO,FM,M1,80.59281684786858
BMu37,P13,CTR,INI,Trunk_Forward,1,R_EO,FM,M2,83.56297176074347
BMu37,P13,CTR,INI,Trunk_Forward,1,R_EO,FM,M3,89.71071374958981
BMu37,P13,CTR,REL,Trunk_Forward,1,L_EO,FM,M1,41.50087026722901
BMu37,P13,CTR,REL,Trunk_Forward,1,L_EO,FM,M2,42.787147924068364
BMu37,P13,CTR,REL,Trunk_Forward,1,L_EO,FM,M3,47.42488304472916
BMu37,P13,CTR,REL,Trunk_Forward,1,R_EO,FM,M1,118.48268265098547
BMu37,P13,CTR,REL,Trunk_Forward,1,R_EO,FM,M2,118.23070433929574
BMu37,P13,CTR,REL,Trunk_Forward,1,R_EO,FM,M3,119.39139489590534
BMu37,P14,PAT,INI,Trunk_Forward,1,L_EO,FM,M1,74.7430997236469
BMu37,P14,PAT,INI,Trunk_Forward,1,L_EO,FM,M2,54.171880576016825
BMu37,P14,PAT,INI,Trunk_Forward,1,L_EO,FM,M3,68.99068775036814
BMu37,P14,PAT,INI,Trunk_Forward,1,R_EO,FM,M1,94.93975830456368
BMu37,P14,PAT,INI,Trunk_Forward,1,R_EO,FM,M2,77.94574322979699
BMu37,P14,PAT,INI,Trunk_Forward,1,R_EO,FM,M3,78.39587659084803
BMu37,P14,PAT,REL,Trunk_Forward,1,L_EO,FM,M1,113.55127936458068
BMu37,P14,PAT,REL,Trunk_Forward,1,L_EO,FM,M2,63.6018496200767
BMu37,P14,PAT,REL,Trunk_Forward,1,L_EO,FM,M3,52.1750720120079
BMu37,P14,PAT,REL,Trunk_Forward,1,L_EO,FM,M4,59.22597351066782
BMu37,P14,PAT,REL,Trunk_Forward,1,R_EO,FM,M1,37.67528295227454
BMu37,P14,PAT,REL,Trunk_Forward,1,R_EO,FM,M2,69.6051044571024
BMu37,P14,PAT,REL,Trunk_Forward,1,R_EO,FM,M3,29.641778936367697
BMu37,P14,PAT,REL,Trunk_Forward,1,R_EO,FM,M4,47.42153582199368
BMu37,P16,CTR,INI,Trunk_Forward,1,L_EO,FM,M1,141.94436772224543
BMu37,P16,CTR,INI,Trunk_Forward,1,L_EO,FM,M2,138.30831895417603
BMu37,P16,CTR,INI,Trunk_Forward,1,L_EO,FM,M3,139.60168280409
BMu37,P16,CTR,INI,Trunk_Forward,1,R_EO,FM,M1,35.11650787987497
BMu37,P16,CTR,INI,Trunk_Forward,1,R_EO,FM,M2,114.93886170387934
BMu37,P16,CTR,INI,Trunk_Forward,1,R_EO,FM,M3,100.654338041968
BMu37,P16,CTR,REL,Trunk_Forward,1,L_EO,FM,M1,110.70956999599977
BMu37,P16,CTR,REL,Trunk_Forward,1,L_EO,FM,M2,123.7793395416639
BMu37,P16,CTR,REL,Trunk_Forward,1,L_EO,FM,M3,140.24020756620558
BMu37,P16,CTR,REL,Trunk_Forward,1,R_EO,FM,M1,68.16024662013913
BMu37,P16,CTR,REL,Trunk_Forward,1,R_EO,FM,M2,59.335036880986095
BMu37,P16,CTR,REL,Trunk_Forward,1,R_EO,FM,M3,63.20901217765904
BMu37,P17,PAT,INI,Trunk_Forward,1,L_EO,FM,M1,90.82498338704498
BMu37,P17,PAT,INI,Trunk_Forward,1,L_EO,FM,M2,87.00476668273487
BMu37,P17,PAT,INI,Trunk_Forward,1,L_EO,FM,M3,85.47767379944369
BMu37,P17,PAT,INI,Trunk_Forward,1,R_EO,FM,M1,111.43008691040762
BMu37,P17,PAT,INI,Trunk_Forward,1,R_EO,FM,M2,111.6666022485576
BMu37,P17,PAT,INI,Trunk_Forward,1,R_EO,FM,M3,111.88310297013618
BMu37,P17,PAT,REL,Trunk_Forward,1,L_EO,FM,M1,103.57123516186847
BMu37,P17,PAT,REL,Trunk_Forward,1,L_EO,FM,M2,101.19903225787482
BMu37,P17,PAT,REL,Trunk_Forward,1,L_EO,FM,M3,84.35944473293253
BMu37,P17,PAT,REL,Trunk_Forward,1,R_EO,FM,M1,109.65367531952431
BMu37,P17,PAT,REL,Trunk_Forward,1,R_EO,FM,M2,110.592021458074
BMu37,P17,PAT,REL,Trunk_Forward,1,R_EO,FM,M3,114.16678325071464
BMu37,P21,CTR,INI,Trunk_Forward,1,L_EO,FM,M1,95.72787779522596
BMu37,P21,CTR,INI,Trunk_Forward,1,L_EO,FM,M2,97.42116719452237
BMu37,P21,CTR,INI,Trunk_Forward,1,L_EO,FM,M3,96.66978780010308
BMu37,P21,CTR,INI,Trunk_Forward,1,R_EO,FM,M1,83.23641222352893
BMu37,P21,CTR,INI,Trunk_Forward,1,R_EO,FM,M2,87.12177202646264
BMu37,P21,CTR,INI,Trunk_Forward,1,R_EO,FM,M3,87.03025172925075
BMu37,P21,CTR,REL,Trunk_Forward,1,L_EO,FM,M1,105.08089740701851
BMu37,P21,CTR,REL,Trunk_Forward,1,L_EO,FM,M2,101.83669791187556
BMu37,P21,CTR,REL,Trunk_Forward,1,L_EO,FM,M3,80.69985857504707
BMu37,P21,CTR,REL,Trunk_Forward,1,R_EO,FM,M1,75.71436272595649
BMu37,P21,CTR,REL,Trunk_Forward,1,R_EO,FM,M2,72.82189674890941
BMu37,P21,CTR,REL,Trunk_Forward,1,R_EO,FM,M3,71.64803801102745
BMu37,P22,CTR,INI,Trunk_Forward,1,L_EO,FM,M1,102.32937095534366
BMu37,P22,CTR,INI,Trunk_Forward,1,L_EO,FM,M2,104.06464213836611
BMu37,P22,CTR,INI,Trunk_Forward,1,L_EO,FM,M3,102.1603823154744
BMu37,P22,CTR,INI,Trunk_Forward,1,R_EO,FM,M1,125.58653593701877
BMu37,P22,CTR,INI,Trunk_Forward,1,R_EO,FM,M2,123.64468137294065
BMu37,P22,CTR,INI,Trunk_Forward,1,R_EO,FM,M3,122.5085008584985
BMu37,P22,CTR,REL,Trunk_Forward,1,L_EO,FM,M1,116.52294295489996
BMu37,P22,CTR,REL,Trunk_Forward,1,L_EO,FM,M2,116.83819157073717
BMu37,P22,CTR,REL,Trunk_Forward,1,L_EO,FM,M3,117.03538674121351
BMu37,P22,CTR,REL,Trunk_Forward,1,R_EO,FM,M1,146.62643470878683
BMu37,P22,CTR,REL,Trunk_Forward,1,R_EO,FM,M2,146.17327003659605
BMu37,P22,CTR,REL,Trunk_Forward,1,R_EO,FM,M3,141.41917663401094
BMu37,P23,CTR,INI,Trunk_Forward,1,L_EO,FM,M1,123.1851774216234
BMu37,P23,CTR,INI,Trunk_Forward,1,L_EO,FM,M2,128.16388028077185
BMu37,P23,CTR,INI,Trunk_Forward,1,L_EO,FM,M3,133.50126657233656
BMu37,P23,CTR,INI,Trunk_Forward,1,R_EO,FM,M1,92.93009922839248
BMu37,P23,CTR,INI,Trunk_Forward,1,R_EO,FM,M2,95.29737894889489
BMu37,P23,CTR,INI,Trunk_Forward,1,R_EO,FM,M3,90.40754115871312
BMu37,P23,CTR,REL,Trunk_Forward,1,L_EO,FM,M1,113.3071695971958
BMu37,P23,CTR,REL,Trunk_Forward,1,L_EO,FM,M2,134.44599119694993
BMu37,P23,CTR,REL,Trunk_Forward,1,L_EO,FM,M3,116.97015712714465
BMu37,P23,CTR,REL,Trunk_Forward,1,R_EO,FM,M1,86.18821687479857
BMu37,P23,CTR,REL,Trunk_Forward,1,R_EO,FM,M2,89.48476334797454
BMu37,P23,CTR,REL,Trunk_Forward,1,R_EO,FM,M3,79.6875665843769
BMu37,P24,PAT,INI,Trunk_Forward,1,L_EO,FM,M1,107.09527752986284
BMu37,P24,PAT,INI,Trunk_Forward,1,L_EO,FM,M2,110.31283331508187
BMu37,P24,PAT,INI,Trunk_Forward,1,L_EO,FM,M3,111.67543476260168
BMu37,P24,PAT,INI,Trunk_Forward,1,R_EO,FM,M1,132.8963718215244
BMu37,P24,PAT,INI,Trunk_Forward,1,R_EO,FM,M2,132.1207686551003
BMu37,P24,PAT,INI,Trunk_Forward,1,R_EO,FM,M3,132.62821903451504
BMu37,P24,PAT,REL,Trunk_Forward,1,L_EO,FM,M1,109.0695488571715
BMu37,P24,PAT,REL,Trunk_Forward,1,L_EO,FM,M2,113.54463883349325
BMu37,P24,PAT,REL,Trunk_Forward,1,L_EO,FM,M3,110.85455304964837
BMu37,P24,PAT,REL,Trunk_Forward,1,R_EO,FM,M1,128.84691443887675
BMu37,P24,PAT,REL,Trunk_Forward,1,R_EO,FM,M2,134.0923616026019
BMu37,P24,PAT,REL,Trunk_Forward,1,R_EO,FM,M3,127.86320590370617
BMu37,P25,CTR,INI,Trunk_Forward,1,L_EO,FM,M1,95.14120844858628
BMu37,P25,CTR,INI,Trunk_Forward,1,L_EO,FM,M2,83.54206158892208
BMu37,P25,CTR,INI,Trunk_Forward,1,L_EO,FM,M3,72.05692258928985
BMu37,P25,CTR,INI,Trunk_Forward,1,R_EO,FM,M1,38.825587162175616
BMu37,P25,CTR,INI,Trunk_Forward,1,R_EO,FM,M2,28.30348829199233
BMu37,P25,CTR,INI,Trunk_Forward,1,R_EO,FM,M3,34.39239505819079
BMu37,P25,CTR,REL,Trunk_Forward,1,L_EO,FM,M1,99.93459299184777
BMu37,P25,CTR,REL,Trunk_Forward,1,L_EO,FM,M2,98.79252159064539
BMu37,P25,CTR,REL,Trunk_Forward,1,L_EO,FM,M3,101.62712721682651
BMu37,P25,CTR,REL,Trunk_Forward,1,R_EO,FM,M1,46.22545030887931
BMu37,P25,CTR,REL,Trunk_Forward,1,R_EO,FM,M2,48.46933650667764
BMu37,P25,CTR,REL,Trunk_Forward,1,R_EO,FM,M3,51.4255217231908
BMu37,P26,PAT,INI,Trunk_Forward,1,L_EO,FM,M1,51.94159911170102
BMu37,P26,PAT,INI,Trunk_Forward,1,L_EO,FM,M2,57.579987979797075
BMu37,P26,PAT,INI,Trunk_Forward,1,L_EO,FM,M3,56.212097512220325
BMu37,P26,PAT,INI,Trunk_Forward,1,R_EO,FM,M1,70.11265594828801
BMu37,P26,PAT,INI,Trunk_Forward,1,R_EO,FM,M2,69.43344607998222
BMu37,P26,PAT,INI,Trunk_Forward,1,R_EO,FM,M3,69.37053290776377
BMu37,P26,PAT,REL,Trunk_Forward,1,L_EO,FM,M1,47.62993596580175
BMu37,P26,PAT,REL,Trunk_Forward,1,L_EO,FM,M2,62.65537996931065
BMu37,P26,PAT,REL,Trunk_Forward,1,L_EO,FM,M3,64.4595269513405
BMu37,P26,PAT,REL,Trunk_Forward,1,R_EO,FM,M1,37.531643883954935
BMu37,P26,PAT,REL,Trunk_Forward,1,R_EO,FM,M2,37.784886503934686
BMu37,P26,PAT,REL,Trunk_Forward,1,R_EO,FM,M3,32.49992943154152
BMu37,P27,PAT,INI,Trunk_Forward,1,L_EO,FM,M1,96.8186526485141
BMu37,P27,PAT,INI,Trunk_Forward,1,L_EO,FM,M2,103.08621371986703
BMu37,P27,PAT,INI,Trunk_Forward,1,L_EO,FM,M3,101.93805796872047
BMu37,P27,PAT,INI,Trunk_Forward,1,R_EO,FM,M1,96.11568581569423
BMu37,P27,PAT,INI,Trunk_Forward,1,R_EO,FM,M2,112.02852338922261
BMu37,P27,PAT,INI,Trunk_Forward,1,R_EO,FM,M3,109.79442304944699
BMu37,P27,PAT,REL,Trunk_Forward,1,L_EO,FM,M1,101.79803631665621
BMu37,P27,PAT,REL,Trunk_Forward,1,L_EO,FM,M2,105.89062183149937
BMu37,P27,PAT,REL,Trunk_Forward,1,L_EO,FM,M3,99.78838580415632
BMu37,P27,PAT,REL,Trunk_Forward,1,L_EO,FM,M4,85.72663583105783
BMu37,P27,PAT,REL,Trunk_Forward,1,R_EO,FM,M1,75.6618829574615
BMu37,P27,PAT,REL,Trunk_Forward,1,R_EO,FM,M2,64.18467886142227
BMu37,P27,PAT,REL,Trunk_Forward,1,R_EO,FM,M3,48.74180350939349
BMu37,P27,PAT,REL,Trunk_Forward,1,R_EO,FM,M4,60.023287706208855
BMu37,P28,PAT,INI,Trunk_Forward,1,L_EO,FM,M1,100.11292567320879
BMu37,P28,PAT,INI,Trunk_Forward,1,L_EO,FM,M2,99.56286704696716
BMu37,P28,PAT,INI,Trunk_Forward,1,L_EO,FM,M3,100.74757572152838
BMu37,P28,PAT,INI,Trunk_Forward,1,R_EO,FM,M1,121.56150061544179
BMu37,P28,PAT,INI,Trunk_Forward,1,R_EO,FM,M2,120.82763918268373
BMu37,P28,PAT,INI,Trunk_Forward,1,R_EO,FM,M3,113.04273283456537
BMu37,P28,PAT,REL,Trunk_Forward,1,L_EO,FM,M1,101.74640193253244
BMu37,P28,PAT,REL,Trunk_Forward,1,L_EO,FM,M2,104.15302525085941
BMu37,P28,PAT,REL,Trunk_Forward,1,L_EO,FM,M3,102.0267221385571
BMu37,P28,PAT,REL,Trunk_Forward,1,R_EO,FM,M1,113.39496214604985
BMu37,P28,PAT,REL,Trunk_Forward,1,R_EO,FM,M2,115.69843418454877
BMu37,P28,PAT,REL,Trunk_Forward,1,R_EO,FM,M3,114.04424544585783
BMu37,P29,PAT,INI,Trunk_Forward,1,L_EO,FM,M1,96.67297266332169
BMu37,P29,PAT,INI,Trunk_Forward,1,L_EO,FM,M2,94.62237121378098
BMu37,P29,PAT,INI,Trunk_Forward,1,L_EO,FM,M3,93.24332553732097
BMu37,P29,PAT,INI,Trunk_Forward,1,R_EO,FM,M1,93.70115829820773
BMu37,P29,PAT,INI,Trunk_Forward,1,R_EO,FM,M2,97.20940520691032
BMu37,P29,PAT,INI,Trunk_Forward,1,R_EO,FM,M3,97.32588913713337
BMu37,P29,PAT,REL,Trunk_Forward,1,L_EO,FM,M1,92.06702402341271
BMu37,P29,PAT,REL,Trunk_Forward,1,L_EO,FM,M2,94.1714416886539
BMu37,P29,PAT,REL,Trunk_Forward,1,L_EO,FM,M3,94.05126193414489
BMu37,P29,PAT,REL,Trunk_Forward,1,R_EO,FM,M1,104.96888963074683
BMu37,P29,PAT,REL,Trunk_Forward,1,R_EO,FM,M2,96.06504534488418
BMu37,P29,PAT,REL,Trunk_Forward,1,R_EO,FM,M3,96.49235657254576
BMu37,P30,PAT,INI,Trunk_Forward,1,L_EO,FM,M1,139.75399358906535
BMu37,P30,PAT,INI,Trunk_Forward,1,L_EO,FM,M2,142.01735176036655
BMu37,P30,PAT,INI,Trunk_Forward,1,L_EO,FM,M3,139.97246617234234
BMu37,P30,PAT,INI,Trunk_Forward,1,R_EO,FM,M1,97.44360627609423
BMu37,P30,PAT,INI,Trunk_Forward,1,R_EO,FM,M2,88.38919032275872
BMu37,P30,PAT,INI,Trunk_Forward,1,R_EO,FM,M3,77.73785656428852
BMu37,P30,PAT,REL,Trunk_Forward,1,L_EO,FM,M1,124.07898486072251
BMu37,P30,PAT,REL,Trunk_Forward,1,L_EO,FM,M2,136.62592390013458
BMu37,P30,PAT,REL,Trunk_Forward,1,L_EO,FM,M3,146.11582273421357
BMu37,P30,PAT,REL,Trunk_Forward,1,R_EO,FM,M1,53.879232375425865
BMu37,P30,PAT,REL,Trunk_Forward,1,R_EO,FM,M2,66.34293677210636
BMu37,P30,PAT,REL,Trunk_Forward,1,R_EO,FM,M3,76.2758164477413
BMu37,P32,PAT,INI,Trunk_Forward,1,L_EO,FM,M1,128.74037015488955
BMu37,P32,PAT,INI,Trunk_Forward,1,L_EO,FM,M2,131.9095906467336
BMu37,P32,PAT,INI,Trunk_Forward,1,L_EO,FM,M3,130.2183589235711
BMu37,P32,PAT,INI,Trunk_Forward,1,R_EO,FM,M1,120.59670843782327
BMu37,P32,PAT,INI,Trunk_Forward,1,R_EO,FM,M2,128.86832813948334
BMu37,P32,PAT,INI,Trunk_Forward,1,R_EO,FM,M3,124.6407003764139
BMu37,P32,PAT,REL,Trunk_Forward,1,L_EO,FM,M1,50.55795267823017
BMu37,P32,PAT,REL,Trunk_Forward,1,L_EO,FM,M2,114.8943526846754
BMu37,P32,PAT,REL,Trunk_Forward,1,L_EO,FM,M3,97.66786288035927
BMu37,P32,PAT,REL,Trunk_Forward,1,L_EO,FM,M4,99.04168607651673
BMu37,P32,PAT,REL,Trunk_Forward,1,R_EO,FM,M1,121.18504207552938
BMu37,P32,PAT,REL,Trunk_Forward,1,R_EO,FM,M2,132.9062411717012
BMu37,P32,PAT,REL,Trunk_Forward,1,R_EO,FM,M3,136.79871833567051
BMu37,P32,PAT,REL,Trunk_Forward,1,R_EO,FM,M4,120.57703889718645
BMu37,P33,PAT,INI,Trunk_Forward,1,L_EO,FM,M1,66.11000067838314
BMu37,P33,PAT,INI,Trunk_Forward,1,L_EO,FM,M2,58.628125761054555
BMu37,P33,PAT,INI,Trunk_Forward,1,L_EO,FM,M3,55.44144970680351
BMu37,P33,PAT,INI,Trunk_Forward,1,L_EO,FM,M4,55.139555629172065
BMu37,P33,PAT,INI,Trunk_Forward,1,R_EO,FM,M1,78.9445522554938
BMu37,P33,PAT,INI,Trunk_Forward,1,R_EO,FM,M2,72.3877809522156
BMu37,P33,PAT,INI,Trunk_Forward,1,R_EO,FM,M3,71.43701042314952
BMu37,P33,PAT,INI,Trunk_Forward,1,R_EO,FM,M4,73.96692916835845
BMu37,P33,PAT,REL,Trunk_Forward,1,L_EO,FM,M1,48.2500628112725
BMu37,P33,PAT,REL,Trunk_Forward,1,L_EO,FM,M2,35.39095389470816
BMu37,P33,PAT,REL,Trunk_Forward,1,L_EO,FM,M3,52.16861794998476
BMu37,P33,PAT,REL,Trunk_Forward,1,R_EO,FM,M1,61.92461827504177
BMu37,P33,PAT,REL,Trunk_Forward,1,R_EO,FM,M2,58.96376318483135
BMu37,P33,PAT,REL,Trunk_Forward,1,R_EO,FM,M3,60.922587249749824
BMu37,P34,PAT,INI,Trunk_Forward,1,L_EO,FM,M1,75.41481436282432
BMu37,P34,PAT,INI,Trunk_Forward,1,L_EO,FM,M2,97.2233450948637
BMu37,P34,PAT,INI,Trunk_Forward,1,L_EO,FM,M3,88.58866546313688
BMu37,P34,PAT,INI,Trunk_Forward,1,R_EO,FM,M1,90.68064587566046
BMu37,P34,PAT,INI,Trunk_Forward,1,R_EO,FM,M2,96.13786638531766
BMu37,P34,PAT,INI,Trunk_Forward,1,R_EO,FM,M3,88.92066981964234
BMu37,P34,PAT,REL,Trunk_Forward,1,L_EO,FM,M1,107.06187109221348
BMu37,P34,PAT,REL,Trunk_Forward,1,L_EO,FM,M2,108.3968048559143
BMu37,P34,PAT,REL,Trunk_Forward,1,L_EO,FM,M3,105.50760040675684
BMu37,P34,PAT,REL,Trunk_Forward,1,R_EO,FM,M1,83.93979488250766
BMu37,P34,PAT,REL,Trunk_Forward,1,R_EO,FM,M2,85.43502181441117
BMu37,P34,PAT,REL,Trunk_Forward,1,R_EO,FM,M3,84.25819839023875
BMu37,P35,CTR,INI,Trunk_Forward,1,L_EO,FM,M1,59.20826065417766
BMu37,P35,CTR,INI,Trunk_Forward,1,L_EO,FM,M2,107.1350109599157
BMu37,P35,CTR,INI,Trunk_Forward,1,L_EO,FM,M3,113.03793683395949
BMu37,P35,CTR,INI,Trunk_Forward,1,R_EO,FM,M1,88.37028600561834
BMu37,P35,CTR,INI,Trunk_Forward,1,R_EO,FM,M2,82.55246588582415
BMu37,P35,CTR,INI,Trunk_Forward,1,R_EO,FM,M3,111.80599736669329
BMu37,P35,CTR,REL,Trunk_Forward,1,L_EO,FM,M1,60.06637642720216
BMu37,P35,CTR,REL,Trunk_Forward,1,L_EO,FM,M2,60.059033308591495
BMu37,P35,CTR,REL,Trunk_Forward,1,L_EO,FM,M3,93.60673661380109
BMu37,P35,CTR,REL,Trunk_Forward,1,R_EO,FM,M1,81.49151242137415
BMu37,P35,CTR,REL,Trunk_Forward,1,R_EO,FM,M2,85.18328661409127
BMu37,P35,CTR,REL,Trunk_Forward,1,R_EO,FM,M3,107.45347210397564
BMu37,P36,PAT,INI,Trunk_Forward,1,L_EO,FM,M1,89.86984491105494
BMu37,P36,PAT,INI,Trunk_Forward,1,L_EO,FM,M2,95.34687782977491
BMu37,P36,PAT,INI,Trunk_Forward,1,L_EO,FM,M3,93.93538554803796
BMu37,P36,PAT,INI,Trunk_Forward,1,R_EO,FM,M1,111.36402906585673
BMu37,P36,PAT,INI,Trunk_Forward,1,R_EO,FM,M2,107.7436365265705
BMu37,P36,PAT,INI,Trunk_Forward,1,R_EO,FM,M3,121.88317034245915
BMu37,P36,PAT,REL,Trunk_Forward,1,L_EO,FM,M1,93.02886948574891
BMu37,P36,PAT,REL,Trunk_Forward,1,L_EO,FM,M2,89.61274753544227
BMu37,P36,PAT,REL,Trunk_Forward,1,L_EO,FM,M3,88.17418051389147
BMu37,P36,PAT,REL,Trunk_Forward,1,R_EO,FM,M1,111.05413157875266
BMu37,P36,PAT,REL,Trunk_Forward,1,R_EO,FM,M2,100.58946337912772
BMu37,P36,PAT,REL,Trunk_Forward,1,R_EO,FM,M3,94.09721982623809
BMu37,P38,CTR,INI,Trunk_Forward,1,L_EO,FM,M1,105.56916615067588
BMu37,P38,CTR,INI,Trunk_Forward,1,L_EO,FM,M2,52.76627144637787
BMu37,P38,CTR,INI,Trunk_Forward,1,L_EO,FM,M3,69.3012146266438
BMu37,P38,CTR,INI,Trunk_Forward,1,R_EO,FM,M1,80.77628172176918
BMu37,P38,CTR,INI,Trunk_Forward,1,R_EO,FM,M2,57.303653991122395
BMu37,P38,CTR,INI,Trunk_Forward,1,R_EO,FM,M3,51.54445081348486
BMu37,P38,CTR,REL,Trunk_Forward,1,L_EO,FM,M1,93.91797119923699
BMu37,P38,CTR,REL,Trunk_Forward,1,L_EO,FM,M2,86.95236478843664
BMu37,P38,CTR,REL,Trunk_Forward,1,L_EO,FM,M3,95.05314928236287
BMu37,P38,CTR,REL,Trunk_Forward,1,R_EO,FM,M1,103.8100714981628
BMu37,P38,CTR,REL,Trunk_Forward,1,R_EO,FM,M2,105.47758119847347
BMu37,P38,CTR,REL,Trunk_Forward,1,R_EO,FM,M3,107.55729539880822
BMu37,P39,CTR,INI,Trunk_Forward,1,L_EO,FM,M1,43.026993477520485
BMu37,P39,CTR,INI,Trunk_Forward,1,L_EO,FM,M2,42.12549596557149
BMu37,P39,CTR,INI,Trunk_Forward,1,L_EO,FM,M3,33.33703390825727
BMu37,P39,CTR,INI,Trunk_Forward,1,R_EO,FM,M1,32.898911588652645
BMu37,P39,CTR,INI,Trunk_Forward,1,R_EO,FM,M2,41.9339814267107
BMu37,P39,CTR,INI,Trunk_Forward,1,R_EO,FM,M3,38.44383780274329
BMu37,P39,CTR,REL,Trunk_Forward,1,L_EO,FM,M1,75.04774812512548
BMu37,P39,CTR,REL,Trunk_Forward,1,L_EO,FM,M2,65.20682711546588
BMu37,P39,CTR,REL,Trunk_Forward,1,L_EO,FM,M3,63.63016216471187
BMu37,P39,CTR,REL,Trunk_Forward,1,R_EO,FM,M1,66.4460504266828
BMu37,P39,CTR,REL,Trunk_Forward,1,R_EO,FM,M2,38.83438157411501
BMu37,P39,CTR,REL,Trunk_Forward,1,R_EO,FM,M3,57.2428058563206
BMu37,P40,CTR,INI,Trunk_Forward,1,L_EO,FM,M1,48.55608273837044
BMu37,P40,CTR,INI,Trunk_Forward,1,L_EO,FM,M2,71.64301840663192
BMu37,P40,CTR,INI,Trunk_Forward,1,L_EO,FM,M3,64.1447275817043
BMu37,P40,CTR,INI,Trunk_Forward,1,R_EO,FM,M1,59.840237755797126
BMu37,P40,CTR,INI,Trunk_Forward,1,R_EO,FM,M2,53.94102035010044
BMu37,P40,CTR,INI,Trunk_Forward,1,R_EO,FM,M3,77.97628809360297
BMu37,P40,CTR,REL,Trunk_Forward,1,L_EO,FM,M1,65.58500860246984
BMu37,P40,CTR,REL,Trunk_Forward,1,L_EO,FM,M2,62.70606383735869
BMu37,P40,CTR,REL,Trunk_Forward,1,L_EO,FM,M3,82.60433917708968
BMu37,P40,CTR,REL,Trunk_Forward,1,R_EO,FM,M1,80.19026928480591
BMu37,P40,CTR,REL,Trunk_Forward,1,R_EO,FM,M2,96.02418218072883
BMu37,P40,CTR,REL,Trunk_Forward,1,R_EO,FM,M3,99.68072198173971
BMu37,P41,PAT,INI,Trunk_Forward,1,L_EO,FM,M1,80.94089342648742
BMu37,P41,PAT,INI,Trunk_Forward,1,L_EO,FM,M2,98.78584012122947
BMu37,P41,PAT,INI,Trunk_Forward,1,L_EO,FM,M3,101.0512428944181
BMu37,P41,PAT,INI,Trunk_Forward,1,R_EO,FM,M1,119.44243300627824
BMu37,P41,PAT,INI,Trunk_Forward,1,R_EO,FM,M2,129.50247768733394
BMu37,P41,PAT,INI,Trunk_Forward,1,R_EO,FM,M3,127.02418463125657
BMu37,P41,PAT,REL,Trunk_Forward,1,L_EO,FM,M1,105.10831687693616
BMu37,P41,PAT,REL,Trunk_Forward,1,L_EO,FM,M2,103.88629432671473
BMu37,P41,PAT,REL,Trunk_Forward,1,L_EO,FM,M3,104.15118714253826
BMu37,P41,PAT,REL,Trunk_Forward,1,R_EO,FM,M1,124.19694104651688
BMu37,P41,PAT,REL,Trunk_Forward,1,R_EO,FM,M2,121.59946161350189
BMu37,P41,PAT,REL,Trunk_Forward,1,R_EO,FM,M3,127.00450190438177
BMu37,P42,PAT,INI,Trunk_Forward,1,L_EO,FM,M1,96.18330302979494
BMu37,P42,PAT,INI,Trunk_Forward,1,L_EO,FM,M2,98.31057750522275
BMu37,P42,PAT,INI,Trunk_Forward,1,L_EO,FM,M3,101.92305566586619
BMu37,P42,PAT,INI,Trunk_Forward,1,R_EO,FM,M1,87.09261035874394
BMu37,P42,PAT,INI,Trunk_Forward,1,R_EO,FM,M2,101.67850646531652
BMu37,P42,PAT,INI,Trunk_Forward,1,R_EO,FM,M3,105.30331800324653
BMu37,P42,PAT,REL,Trunk_Forward,1,L_EO,FM,M1,87.87529540066306
BMu37,P42,PAT,REL,Trunk_Forward,1,L_EO,FM,M2,75.12486289653023
BMu37,P42,PAT,REL,Trunk_Forward,1,L_EO,FM,M3,78.89350727854807
BMu37,P42,PAT,REL,Trunk_Forward,1,R_EO,FM,M1,93.43837151623887
BMu37,P42,PAT,REL,Trunk_Forward,1,R_EO,FM,M2,90.24033228615883
BMu37,P42,PAT,REL,Trunk_Forward,1,R_EO,FM,M3,87.68325769426521
BMu37,P43,PAT,INI,Trunk_Forward,1,L_EO,FM,M1,41.40014267391219
BMu37,P43,PAT,INI,Trunk_Forward,1,L_EO,FM,M2,44.005447437193304
BMu37,P43,PAT,INI,Trunk_Forward,1,L_EO,FM,M3,87.6051270576389
BMu37,P43,PAT,INI,Trunk_Forward,1,R_EO,FM,M1,114.3956995530329
BMu37,P43,PAT,INI,Trunk_Forward,1,R_EO,FM,M2,116.70668768670875
BMu37,P43,PAT,INI,Trunk_Forward,1,R_EO,FM,M3,103.34359469451326
BMu37,P43,PAT,REL,Trunk_Forward,1,L_EO,FM,M1,74.39598472563345
BMu37,P43,PAT,REL,Trunk_Forward,1,L_EO,FM,M2,85.33224477901798
BMu37,P43,PAT,REL,Trunk_Forward,1,L_EO,FM,M3,81.74742674626702
BMu37,P43,PAT,REL,Trunk_Forward,1,R_EO,FM,M1,92.78272436705079
BMu37,P43,PAT,REL,Trunk_Forward,1,R_EO,FM,M2,92.94341016568119
BMu37,P43,PAT,REL,Trunk_Forward,1,R_EO,FM,M3,68.76390294157204
BMu37,P44,CTR,INI,Trunk_Forward,1,L_EO,FM,M1,66.3704226252387
BMu37,P44,CTR,INI,Trunk_Forward,1,L_EO,FM,M2,85.37659964908829
BMu37,P44,CTR,INI,Trunk_Forward,1,L_EO,FM,M3,67.36316994092746
BMu37,P44,CTR,INI,Trunk_Forward,1,R_EO,FM,M1,144.01345807386681
BMu37,P44,CTR,INI,Trunk_Forward,1,R_EO,FM,M2,139.3281548700582
BMu37,P44,CTR,INI,Trunk_Forward,1,R_EO,FM,M3,114.70628663120475
BMu37,P44,CTR,REL,Trunk_Forward,1,L_EO,FM,M1,68.28166968023943
BMu37,P44,CTR,REL,Trunk_Forward,1,L_EO,FM,M2,80.20960043153852
BMu37,P44,CTR,REL,Trunk_Forward,1,L_EO,FM,M3,110.95268238077237
BMu37,P44,CTR,REL,Trunk_Forward,1,R_EO,FM,M1,105.04254967834407
BMu37,P44,CTR,REL,Trunk_Forward,1,R_EO,FM,M2,103.15374016043812
BMu37,P44,CTR,REL,Trunk_Forward,1,R_EO,FM,M3,146.1578295686944
BMu37,P45,PAT,INI,Trunk_Forward,1,L_EO,FM,M1,124.24987874784414
BMu37,P45,PAT,INI,Trunk_Forward,1,L_EO,FM,M2,127.85668804052202
BMu37,P45,PAT,INI,Trunk_Forward,1,L_EO,FM,M3,127.28810252281562
BMu37,P45,PAT,INI,Trunk_Forward,1,R_EO,FM,M1,112.79857929557761
BMu37,P45,PAT,INI,Trunk_Forward,1,R_EO,FM,M2,115.35088542797124
BMu37,P45,PAT,INI,Trunk_Forward,1,R_EO,FM,M3,122.62418141217832
BMu37,P45,PAT,REL,Trunk_Forward,1,L_EO,FM,M1,144.35681185654445
BMu37,P45,PAT,REL,Trunk_Forward,1,L_EO,FM,M2,145.3404360525256
BMu37,P45,PAT,REL,Trunk_Forward,1,L_EO,FM,M3,137.0110469768486
BMu37,P45,PAT,REL,Trunk_Forward,1,R_EO,FM,M1,139.0781985624647
BMu37,P45,PAT,REL,Trunk_Forward,1,R_EO,FM,M2,152.8142817993955
BMu37,P45,PAT,REL,Trunk_Forward,1,R_EO,FM,M3,142.6372155042185
BMu37,P46,CTR,INI,Trunk_Forward,1,L_EO,FM,M1,93.64802052096006
BMu37,P46,CTR,INI,Trunk_Forward,1,L_EO,FM,M2,115.51852497451755
BMu37,P46,CTR,INI,Trunk_Forward,1,L_EO,FM,M3,108.27459902945697
BMu37,P46,CTR,INI,Trunk_Forward,1,R_EO,FM,M1,153.2626936210329
BMu37,P46,CTR,INI,Trunk_Forward,1,R_EO,FM,M2,136.54201673999557
BMu37,P46,CTR,INI,Trunk_Forward,1,R_EO,FM,M3,139.97502988252396
BMu37,P46,CTR,REL,Trunk_Forward,1,L_EO,FM,M1,43.76326116539887
BMu37,P46,CTR,REL,Trunk_Forward,1,L_EO,FM,M2,69.9994455456151
BMu37,P46,CTR,REL,Trunk_Forward,1,L_EO,FM,M3,62.55414297935102
BMu37,P46,CTR,REL,Trunk_Forward,1,R_EO,FM,M1,43.77440516546828
BMu37,P46,CTR,REL,Trunk_Forward,1,R_EO,FM,M2,48.63199044101572
BMu37,P46,CTR,REL,Trunk_Forward,1,R_EO,FM,M3,35.27059477784829
BMu37,P47,PAT,REL,Trunk_Forward,1,L_EO,FM,M1,87.67101134139251
BMu37,P47,PAT,REL,Trunk_Forward,1,L_EO,FM,M2,78.67669084018623
BMu37,P47,PAT,REL,Trunk_Forward,1,L_EO,FM,M3,76.21982499302764
BMu37,P47,PAT,REL,Trunk_Forward,1,R_EO,FM,M1,93.19227148268284
BMu37,P47,PAT,REL,Trunk_Forward,1,R_EO,FM,M2,88.2851913695403
BMu37,P47,PAT,REL,Trunk_Forward,1,R_EO,FM,M3,91.60617841365824
BMu37,P48,CTR,INI,Trunk_Forward,1,L_EO,FM,M1,108.90802486756908
BMu37,P48,CTR,INI,Trunk_Forward,1,L_EO,FM,M2,106.71382141085836
BMu37,P48,CTR,INI,Trunk_Forward,1,L_EO,FM,M3,105.5910093543543
BMu37,P48,CTR,INI,Trunk_Forward,1,R_EO,FM,M1,114.10001173621812
BMu37,P48,CTR,INI,Trunk_Forward,1,R_EO,FM,M2,112.43532787449419
BMu37,P48,CTR,INI,Trunk_Forward,1,R_EO,FM,M3,109.89922137458748
BMu37,P48,CTR,REL,Trunk_Forward,1,L_EO,FM,M1,94.10994323974435
BMu37,P48,CTR,REL,Trunk_Forward,1,L_EO,FM,M2,94.15927045145669
BMu37,P48,CTR,REL,Trunk_Forward,1,L_EO,FM,M3,98.64832522957136
BMu37,P48,CTR,REL,Trunk_Forward,1,R_EO,FM,M1,111.7263642901454
BMu37,P48,CTR,REL,Trunk_Forward,1,R_EO,FM,M2,113.27208954595541
BMu37,P48,CTR,REL,Trunk_Forward,1,R_EO,FM,M3,110.53972272237529
BMu37,P49,CTR,INI,Trunk_Forward,1,L_EO,FM,M1,100.59972783931862
BMu37,P49,CTR,INI,Trunk_Forward,1,L_EO,FM,M2,94.59648756290686
BMu37,P49,CTR,INI,Trunk_Forward,1,L_EO,FM,M3,90.94577902437234
BMu37,P49,CTR,INI,Trunk_Forward,1,R_EO,FM,M1,34.247478214169035
BMu37,P49,CTR,INI,Trunk_Forward,1,R_EO,FM,M2,38.76515426059703
BMu37,P49,CTR,INI,Trunk_Forward,1,R_EO,FM,M3,44.54915235198456
BMu37,P49,CTR,REL,Trunk_Forward,1,L_EO,FM,M1,42.8708931441071
BMu37,P49,CTR,REL,Trunk_Forward,1,L_EO,FM,M2,51.787877370479926
BMu37,P49,CTR,REL,Trunk_Forward,1,L_EO,FM,M3,30.112470568085403
BMu37,P49,CTR,REL,Trunk_Forward,1,R_EO,FM,M1,37.93188234453601
BMu37,P49,CTR,REL,Trunk_Forward,1,R_EO,FM,M2,37.80594485410451
BMu37,P49,CTR,REL,Trunk_Forward,1,R_EO,FM,M3,52.70679730736802
BMu37,P50,PAT,INI,Trunk_Forward,1,L_EO,FM,M1,58.07616189600774
BMu37,P50,PAT,INI,Trunk_Forward,1,L_EO,FM,M2,70.30105590613431
BMu37,P50,PAT,INI,Trunk_Forward,1,L_EO,FM,M3,73.44921517177801
BMu37,P50,PAT,INI,Trunk_Forward,1,R_EO,FM,M1,38.798979135403314
BMu37,P50,PAT,INI,Trunk_Forward,1,R_EO,FM,M2,49.73697631641895
BMu37,P50,PAT,INI,Trunk_Forward,1,R_EO,FM,M3,43.322574302407084
BMu37,P50,PAT,REL,Trunk_Forward,1,L_EO,FM,M1,64.86058035859058
BMu37,P50,PAT,REL,Trunk_Forward,1,L_EO,FM,M2,80.14548478457544
BMu37,P50,PAT,REL,Trunk_Forward,1,L_EO,FM,M3,63.7102986445563
BMu37,P50,PAT,REL,Trunk_Forward,1,R_EO,FM,M1,27.447239945090384
BMu37,P50,PAT,REL,Trunk_Forward,1,R_EO,FM,M2,28.82708720126737
BMu37,P50,PAT,REL,Trunk_Forward,1,R_EO,FM,M3,28.605168888900582
BMu37,P51,PAT,INI,Trunk_Forward,1,L_EO,FM,M1,122.79830152809653
BMu37,P51,PAT,INI,Trunk_Forward,1,L_EO,FM,M2,120.88822853760885
BMu37,P51,PAT,INI,Trunk_Forward,1,L_EO,FM,M3,122.55143434129877
BMu37,P51,PAT,INI,Trunk_Forward,1,R_EO,FM,M1,85.6182113301325
BMu37,P51,PAT,INI,Trunk_Forward,1,R_EO,FM,M2,88.46357099213317
BMu37,P51,PAT,INI,Trunk_Forward,1,R_EO,FM,M3,87.81550173406549
BMu37,P51,PAT,REL,Trunk_Forward,1,L_EO,FM,M1,130.12109254558615
BMu37,P51,PAT,REL,Trunk_Forward,1,L_EO,FM,M2,121.22018924173925
BMu37,P51,PAT,REL,Trunk_Forward,1,L_EO,FM,M3,123.9211903406999
BMu37,P51,PAT,REL,Trunk_Forward,1,R_EO,FM,M1,95.64703843519382
BMu37,P51,PAT,REL,Trunk_Forward,1,R_EO,FM,M2,90.09664995378192
BMu37,P51,PAT,REL,Trunk_Forward,1,R_EO,FM,M3,95.49523763217701
BMu37,P52,CTR,INI,Trunk_Forward,1,L_EO,FM,M1,92.44441995549998
BMu37,P52,CTR,INI,Trunk_Forward,1,L_EO,FM,M2,83.3620324766746
BMu37,P52,CTR,INI,Trunk_Forward,1,L_EO,FM,M3,95.09093026976561
BMu37,P52,CTR,INI,Trunk_Forward,1,R_EO,FM,M1,131.81307027385648
BMu37,P52,CTR,INI,Trunk_Forward,1,R_EO,FM,M2,130.45723013025133
BMu37,P52,CTR,INI,Trunk_Forward,1,R_EO,FM,M3,126.54939631060937
BMu37,P52,CTR,REL,Trunk_Forward,1,L_EO,FM,M1,95.36981376323385
BMu37,P52,CTR,REL,Trunk_Forward,1,L_EO,FM,M2,93.12076377707545
BMu37,P52,CTR,REL,Trunk_Forward,1,L_EO,FM,M3,116.99593493756261
BMu37,P52,CTR,REL,Trunk_Forward,1,R_EO,FM,M1,108.62425611709159
BMu37,P52,CTR,REL,Trunk_Forward,1,R_EO,FM,M2,118.30802141521916
BMu37,P52,CTR,REL,Trunk_Forward,1,R_EO,FM,M3,110.49326903920719
BMu37,P53,PAT,INI,Trunk_Forward,1,L_EO,FM,M1,114.87816766307455
BMu37,P53,PAT,INI,Trunk_Forward,1,L_EO,FM,M2,119.93974492569987
BMu37,P53,PAT,INI,Trunk_Forward,1,L_EO,FM,M3,124.91288183405254
BMu37,P53,PAT,INI,Trunk_Forward,1,R_EO,FM,M1,113.97454759299453
BMu37,P53,PAT,INI,Trunk_Forward,1,R_EO,FM,M2,113.3086037775502
BMu37,P53,PAT,INI,Trunk_Forward,1,R_EO,FM,M3,120.0885073202264
BMu37,P53,PAT,REL,Trunk_Forward,1,L_EO,FM,M1,135.66675797187128
BMu37,P53,PAT,REL,Trunk_Forward,1,L_EO,FM,M2,149.0893967593142
BMu37,P53,PAT,REL,Trunk_Forward,1,L_EO,FM,M3,135.41650091138138
BMu37,P53,PAT,REL,Trunk_Forward,1,R_EO,FM,M1,120.2513394864077
BMu37,P53,PAT,REL,Trunk_Forward,1,R_EO,FM,M2,124.29789529705222
BMu37,P53,PAT,REL,Trunk_Forward,1,R_EO,FM,M3,123.0839351487332
BMu37,P54,PAT,INI,Trunk_Forward,1,L_EO,FM,M1,104.19601657889743
BMu37,P54,PAT,INI,Trunk_Forward,1,L_EO,FM,M2,120.85026756951821
BMu37,P54,PAT,INI,Trunk_Forward,1,L_EO,FM,M3,124.08412182763946
BMu37,P54,PAT,INI,Trunk_Forward,1,R_EO,FM,M1,78.91982045301516
BMu37,P54,PAT,INI,Trunk_Forward,1,R_EO,FM,M2,77.2557312118988
BMu37,P54,PAT,INI,Trunk_Forward,1,R_EO,FM,M3,70.32989320246573
BMu37,P54,PAT,REL,Trunk_Forward,1,L_EO,FM,M1,87.61835593791153
BMu37,P54,PAT,REL,Trunk_Forward,1,L_EO,FM,M2,75.67063376842488
BMu37,P54,PAT,REL,Trunk_Forward,1,L_EO,FM,M3,52.962358537708035
BMu37,P54,PAT,REL,Trunk_Forward,1,R_EO,FM,M1,84.46606278533017
BMu37,P54,PAT,REL,Trunk_Forward,1,R_EO,FM,M2,87.34957887218133
BMu37,P54,PAT,REL,Trunk_Forward,1,R_EO,FM,M3,87.99812927362626
BMu37,P55,CTR,INI,Trunk_Forward,1,L_EO,FM,M1,117.20568586323492
BMu37,P55,CTR,INI,Trunk_Forward,1,L_EO,FM,M2,110.13270368939517
BMu37,P55,CTR,INI,Trunk_Forward,1,L_EO,FM,M3,97.23520989886039
BMu37,P55,CTR,INI,Trunk_Forward,1,R_EO,FM,M1,120.85627154621102
BMu37,P55,CTR,INI,Trunk_Forward,1,R_EO,FM,M2,98.15398178056302
BMu37,P55,CTR,INI,Trunk_Forward,1,R_EO,FM,M3,103.48311284010833
BMu37,P55,CTR,REL,Trunk_Forward,1,L_EO,FM,M1,81.98998794031742
BMu37,P55,CTR,REL,Trunk_Forward,1,L_EO,FM,M2,101.2567680957137
BMu37,P55,CTR,REL,Trunk_Forward,1,L_EO,FM,M3,105.97575472269202
BMu37,P55,CTR,REL,Trunk_Forward,1,R_EO,FM,M1,48.97645594286131
BMu37,P55,CTR,REL,Trunk_Forward,1,R_EO,FM,M2,54.3722770336424
BMu37,P55,CTR,REL,Trunk_Forward,1,R_EO,FM,M3,45.1688123265566
BMu37,P56,CTR,INI,Trunk_Forward,1,L_EO,FM,M1,106.0389302265751
BMu37,P56,CTR,INI,Trunk_Forward,1,L_EO,FM,M2,108.89768933275175
BMu37,P56,CTR,INI,Trunk_Forward,1,L_EO,FM,M3,108.6446822561043
BMu37,P56,CTR,INI,Trunk_Forward,1,R_EO,FM,M1,76.20433201430002
BMu37,P56,CTR,INI,Trunk_Forward,1,R_EO,FM,M2,92.33911455162111
BMu37,P56,CTR,INI,Trunk_Forward,1,R_EO,FM,M3,95.58612709286204
BMu37,P56,CTR,REL,Trunk_Forward,1,L_EO,FM,M1,94.45231823133287
BMu37,P56,CTR,REL,Trunk_Forward,1,L_EO,FM,M2,90.23101592771215
BMu37,P56,CTR,REL,Trunk_Forward,1,L_EO,FM,M3,92.15305481806679
BMu37,P56,CTR,REL,Trunk_Forward,1,R_EO,FM,M1,96.38553970833988
BMu37,P56,CTR,REL,Trunk_Forward,1,R_EO,FM,M2,95.88596511872994
BMu37,P56,CTR,REL,Trunk_Forward,1,R_EO,FM,M3,98.63277335855065
BMu37,P57,CTR,INI,Trunk_Forward,1,L_EO,FM,M1,39.689322249646985
BMu37,P57,CTR,INI,Trunk_Forward,1,L_EO,FM,M2,42.94712157801984
BMu37,P57,CTR,INI,Trunk_Forward,1,L_EO,FM,M3,46.77872976013747
BMu37,P57,CTR,INI,Trunk_Forward,1,R_EO,FM,M1,51.32324426821152
BMu37,P57,CTR,INI,Trunk_Forward,1,R_EO,FM,M2,77.57503751751956
BMu37,P57,CTR,INI,Trunk_Forward,1,R_EO,FM,M3,86.74134814002792
BMu37,P57,CTR,REL,Trunk_Forward,1,L_EO,FM,M1,108.23192442584082
BMu37,P57,CTR,REL,Trunk_Forward,1,L_EO,FM,M2,110.069120399562
BMu37,P57,CTR,REL,Trunk_Forward,1,L_EO,FM,M3,115.99775675660258
BMu37,P57,CTR,REL,Trunk_Forward,1,R_EO,FM,M1,121.18082148165085
BMu37,P57,CTR,REL,Trunk_Forward,1,R_EO,FM,M2,124.36252023906229
BMu37,P57,CTR,REL,Trunk_Forward,1,R_EO,FM,M3,127.30646782518491
BMu37,P58,PAT,INI,Trunk_Forward,1,L_EO,FM,M1,129.6261862611429
BMu37,P58,PAT,INI,Trunk_Forward,1,L_EO,FM,M2,134.874748204508
BMu37,P58,PAT,INI,Trunk_Forward,1,L_EO,FM,M3,129.02001668389258
BMu37,P58,PAT,INI,Trunk_Forward,1,R_EO,FM,M1,128.19260064511292
BMu37,P58,PAT,INI,Trunk_Forward,1,R_EO,FM,M2,126.79764709062037
BMu37,P58,PAT,INI,Trunk_Forward,1,R_EO,FM,M3,114.9088406719293
BMu37,P58,PAT,REL,Trunk_Forward,1,L_EO,FM,M1,123.83058329034282
BMu37,P58,PAT,REL,Trunk_Forward,1,L_EO,FM,M2,124.85882594880422
BMu37,P58,PAT,REL,Trunk_Forward,1,L_EO,FM,M3,130.28713654823127
BMu37,P58,PAT,REL,Trunk_Forward,1,R_EO,FM,M1,115.93962186383013
BMu37,P58,PAT,REL,Trunk_Forward,1,R_EO,FM,M2,118.12044135220754
BMu37,P58,PAT,REL,Trunk_Forward,1,R_EO,FM,M3,123.13540715180531
BMu37,P60,CTR,INI,Trunk_Forward,1,L_EO,FM,M1,99.4319006300495
BMu37,P60,CTR,INI,Trunk_Forward,1,L_EO,FM,M2,100.08037156915951
BMu37,P60,CTR,INI,Trunk_Forward,1,L_EO,FM,M3,95.26120147169107
BMu37,P60,CTR,INI,Trunk_Forward,1,R_EO,FM,M1,71.597692973932
BMu37,P60,CTR,INI,Trunk_Forward,1,R_EO,FM,M2,56.79775426736026
BMu37,P60,CTR,INI,Trunk_Forward,1,R_EO,FM,M3,44.6059814781446
BMu37,P60,CTR,REL,Trunk_Forward,1,L_EO,FM,M1,92.22744823882772
BMu37,P60,CTR,REL,Trunk_Forward,1,L_EO,FM,M2,92.58051826752919
BMu37,P60,CTR,REL,Trunk_Forward,1,L_EO,FM,M3,77.92403094162158
BMu37,P60,CTR,REL,Trunk_Forward,1,R_EO,FM,M1,70.00059803361414
BMu37,P60,CTR,REL,Trunk_Forward,1,R_EO,FM,M2,75.05626881293458
BMu37,P60,CTR,REL,Trunk_Forward,1,R_EO,FM,M3,76.44215044640957
BMu37,P61,PAT,INI,Trunk_Forward,1,L_EO,FM,M1,78.4382389330374
BMu37,P61,PAT,INI,Trunk_Forward,1,L_EO,FM,M2,96.46892746382179
BMu37,P61,PAT,INI,Trunk_Forward,1,L_EO,FM,M3,102.0652831301278
BMu37,P61,PAT,INI,Trunk_Forward,1,R_EO,FM,M1,98.94061978771474
BMu37,P61,PAT,INI,Trunk_Forward,1,R_EO,FM,M2,105.50079810305154
BMu37,P61,PAT,INI,Trunk_Forward,1,R_EO,FM,M3,107.16952454575943
BMu37,P61,PAT,REL,Trunk_Forward,1,L_EO,FM,M1,143.63629859821748
BMu37,P61,PAT,REL,Trunk_Forward,1,L_EO,FM,M2,146.6357195801677
BMu37,P61,PAT,REL,Trunk_Forward,1,L_EO,FM,M3,148.02186018341393
BMu37,P61,PAT,REL,Trunk_Forward,1,R_EO,FM,M1,146.82223615540858
BMu37,P61,PAT,REL,Trunk_Forward,1,R_EO,FM,M2,148.1350555373991
BMu37,P61,PAT,REL,Trunk_Forward,1,R_EO,FM,M3,145.09930787523453
BMu37,P62,PAT,INI,Trunk_Forward,1,L_EO,FM,M1,101.95438573760269
BMu37,P62,PAT,INI,Trunk_Forward,1,L_EO,FM,M2,83.96490551821624
BMu37,P62,PAT,INI,Trunk_Forward,1,L_EO,FM,M3,56.928192222887084
BMu37,P62,PAT,INI,Trunk_Forward,1,R_EO,FM,M1,136.26913121845655
BMu37,P62,PAT,INI,Trunk_Forward,1,R_EO,FM,M2,119.91138481471566
BMu37,P62,PAT,INI,Trunk_Forward,1,R_EO,FM,M3,78.62248469872105
BMu37,P62,PAT,REL,Trunk_Forward,1,L_EO,FM,M1,90.06805824317398
BMu37,P62,PAT,REL,Trunk_Forward,1,L_EO,FM,M2,61.55094327334308
BMu37,P62,PAT,REL,Trunk_Forward,1,L_EO,FM,M3,103.11375401790008
BMu37,P62,PAT,REL,Trunk_Forward,1,R_EO,FM,M1,119.76867157275584
BMu37,P62,PAT,REL,Trunk_Forward,1,R_EO,FM,M2,122.11292347131244
BMu37,P62,PAT,REL,Trunk_Forward,1,R_EO,FM,M3,125.41313408808236
BMu37,P63,PAT,INI,Trunk_Forward,1,L_EO,FM,M1,47.995284051738956
BMu37,P63,PAT,INI,Trunk_Forward,1,L_EO,FM,M2,96.44073847149001
BMu37,P63,PAT,INI,Trunk_Forward,1,L_EO,FM,M3,56.52571923993151
BMu37,P63,PAT,INI,Trunk_Forward,1,R_EO,FM,M1,48.005839303031394
BMu37,P63,PAT,INI,Trunk_Forward,1,R_EO,FM,M2,44.89249538775605
BMu37,P63,PAT,INI,Trunk_Forward,1,R_EO,FM,M3,38.42873157926397
BMu37,P63,PAT,REL,Trunk_Forward,1,L_EO,FM,M1,123.19198357748202
BMu37,P63,PAT,REL,Trunk_Forward,1,L_EO,FM,M2,115.95887670207296
BMu37,P63,PAT,REL,Trunk_Forward,1,L_EO,FM,M3,122.10499375512865
BMu37,P63,PAT,REL,Trunk_Forward,1,R_EO,FM,M1,84.5335027542989
BMu37,P63,PAT,REL,Trunk_Forward,1,R_EO,FM,M2,66.29137769474343
BMu37,P63,PAT,REL,Trunk_Forward,1,R_EO,FM,M3,59.0098305661482
BMu37,P64,CTR,INI,Trunk_Forward,1,L_EO,FM,M1,78.17341287630379
BMu37,P64,CTR,INI,Trunk_Forward,1,L_EO,FM,M2,75.61971789865241
BMu37,P64,CTR,INI,Trunk_Forward,1,L_EO,FM,M3,77.46057557295387
BMu37,P64,CTR,INI,Trunk_Forward,1,R_EO,FM,M1,73.48549896492217
BMu37,P64,CTR,INI,Trunk_Forward,1,R_EO,FM,M2,76.52915484546556
BMu37,P64,CTR,INI,Trunk_Forward,1,R_EO,FM,M3,78.14861842913116
BMu37,P64,CTR,REL,Trunk_Forward,1,L_EO,FM,M1,67.40631694008545
BMu37,P64,CTR,REL,Trunk_Forward,1,L_EO,FM,M2,66.30731455232254
BMu37,P64,CTR,REL,Trunk_Forward,1,L_EO,FM,M3,72.36253394981335
BMu37,P64,CTR,REL,Trunk_Forward,1,R_EO,FM,M1,69.00116891672324
BMu37,P64,CTR,REL,Trunk_Forward,1,R_EO,FM,M2,70.3554333414448
BMu37,P64,CTR,REL,Trunk_Forward,1,R_EO,FM,M3,75.33757098389023
BMu37,P65,PAT,INI,Trunk_Forward,1,L_EO,FM,M1,100.00049381556568
BMu37,P65,PAT,INI,Trunk_Forward,1,L_EO,FM,M2,95.47272276118245
BMu37,P65,PAT,INI,Trunk_Forward,1,L_EO,FM,M3,104.3721452288435
BMu37,P65,PAT,INI,Trunk_Forward,1,R_EO,FM,M1,96.69205490747491
BMu37,P65,PAT,INI,Trunk_Forward,1,R_EO,FM,M2,103.02862294909403
BMu37,P65,PAT,INI,Trunk_Forward,1,R_EO,FM,M3,113.0000735110274
BMu37,P65,PAT,REL,Trunk_Forward,1,L_EO,FM,M1,98.87175932945809
BMu37,P65,PAT,REL,Trunk_Forward,1,L_EO,FM,M2,100.66988804354516
BMu37,P65,PAT,REL,Trunk_Forward,1,L_EO,FM,M3,101.52775928658667
BMu37,P65,PAT,REL,Trunk_Forward,1,R_EO,FM,M1,106.2478828051441
BMu37,P65,PAT,REL,Trunk_Forward,1,R_EO,FM,M2,107.99474805537251
BMu37,P65,PAT,REL,Trunk_Forward,1,R_EO,FM,M3,107.21204396645373
BMu37,P66,CTR,INI,Trunk_Forward,1,L_EO,FM,M1,114.78956348956156
BMu37,P66,CTR,INI,Trunk_Forward,1,L_EO,FM,M2,98.85053967505398
BMu37,P66,CTR,INI,Trunk_Forward,1,L_EO,FM,M3,107.99749720941561
BMu37,P66,CTR,INI,Trunk_Forward,1,R_EO,FM,M1,78.08887688421271
BMu37,P66,CTR,INI,Trunk_Forward,1,R_EO,FM,M2,98.90641301686483
BMu37,P66,CTR,INI,Trunk_Forward,1,R_EO,FM,M3,188.04174375901138
BMu37,P66,CTR,REL,Trunk_Forward,1,L_EO,FM,M1,112.61351236668833
BMu37,P66,CTR,REL,Trunk_Forward,1,L_EO,FM,M2,115.81349419132687
BMu37,P66,CTR,REL,Trunk_Forward,1,L_EO,FM,M3,113.66425039132882
BMu37,P66,CTR,REL,Trunk_Forward,1,R_EO,FM,M1,60.117943552699714
BMu37,P66,CTR,REL,Trunk_Forward,1,R_EO,FM,M2,41.89444075262163
BMu37,P66,CTR,REL,Trunk_Forward,1,R_EO,FM,M3,68.29636639148333
BMu37,P67,CTR,INI,Trunk_Forward,1,L_EO,FM,M1,50.40255050593319
BMu37,P67,CTR,INI,Trunk_Forward,1,L_EO,FM,M2,126.19561671029071
BMu37,P67,CTR,INI,Trunk_Forward,1,L_EO,FM,M3,69.32920613900741
BMu37,P67,CTR,INI,Trunk_Forward,1,R_EO,FM,M1,45.657929656471005
BMu37,P67,CTR,INI,Trunk_Forward,1,R_EO,FM,M2,46.8842235440833
BMu37,P67,CTR,INI,Trunk_Forward,1,R_EO,FM,M3,44.38552797915738
BMu37,P67,CTR,REL,Trunk_Forward,1,L_EO,FM,M1,44.81211921345822
BMu37,P67,CTR,REL,Trunk_Forward,1,L_EO,FM,M2,44.11368838345163
BMu37,P67,CTR,REL,Trunk_Forward,1,L_EO,FM,M3,42.79438733732757
BMu37,P67,CTR,REL,Trunk_Forward,1,R_EO,FM,M1,33.775280078114186
BMu37,P67,CTR,REL,Trunk_Forward,1,R_EO,FM,M2,50.82900557510557
BMu37,P67,CTR,REL,Trunk_Forward,1,R_EO,FM,M3,34.25804515009185
BMu37,P68,CTR,INI,Trunk_Forward,1,L_EO,FM,M1,48.02284801552176
BMu37,P68,CTR,INI,Trunk_Forward,1,L_EO,FM,M2,59.863193999335316
BMu37,P68,CTR,INI,Trunk_Forward,1,L_EO,FM,M3,82.33985475287743
BMu37,P68,CTR,INI,Trunk_Forward,1,R_EO,FM,M1,31.845381635799026
BMu37,P68,CTR,INI,Trunk_Forward,1,R_EO,FM,M2,29.866232052085234
BMu37,P68,CTR,INI,Trunk_Forward,1,R_EO,FM,M3,31.596150525701642
BMu37,P68,CTR,REL,Trunk_Forward,1,L_EO,FM,M1,80.01178557186458
BMu37,P68,CTR,REL,Trunk_Forward,1,L_EO,FM,M2,74.3186146986039
BMu37,P68,CTR,REL,Trunk_Forward,1,L_EO,FM,M3,84.6295156996353
BMu37,P68,CTR,REL,Trunk_Forward,1,L_EO,FM,M4,68.84038955607649
BMu37,P68,CTR,REL,Trunk_Forward,1,R_EO,FM,M1,36.31379880747589
BMu37,P68,CTR,REL,Trunk_Forward,1,R_EO,FM,M2,39.56254994261835
BMu37,P68,CTR,REL,Trunk_Forward,1,R_EO,FM,M3,38.65375517344259
BMu37,P68,CTR,REL,Trunk_Forward,1,R_EO,FM,M4,40.97720159581496
