BMu,Participant,Group,Session,task,trials,channel,Operator,Measure,Value
BMu42,P01,CTR,INI,Trunk_Forward,1,L_LES,FM,M1,10.334476551852296
BMu42,P01,CTR,INI,Trunk_Forward,1,L_LES,FM,M2,11.373955114174182
BMu42,P01,CTR,INI,Trunk_Forward,1,L_LES,FM,M3,7.722728906404992
BMu42,P01,CTR,INI,Trunk_Forward,1,R_LES,FM,M1,6.239601196416709
BMu42,P01,CTR,INI,Trunk_Forward,1,R_LES,FM,M2,7.479433230120514
BMu42,P01,CTR,INI,Trunk_Forward,1,R_LES,FM,M3,3.835243448694429
BMu42,P01,CTR,REL,Trunk_Forward,1,L_LES,FM,M1,11.792171398395425
BMu42,P01,CTR,REL,Trunk_Forward,1,L_LES,FM,M2,19.43661863967346
BMu42,P01,CTR,REL,Trunk_Forward,1,L_LES,FM,M3,24.971306204000392
BMu42,P01,CTR,REL,Trunk_Forward,1,R_LES,FM,M1,16.848513858854876
BMu42,P01,CTR,REL,Trunk_Forward,1,R_LES,FM,M2,80.36376630679185
BMu42,P01,CTR,REL,Trunk_Forward,1,R_LES,FM,M3,25.73612556971322
BMu42,P02,CTR,INI,Trunk_Forward,1,L_LES,FM,M1,10.465346154442544
BMu42,P02,CTR,INI,Trunk_Forward,1,L_LES,FM,M2,8.68091997781737
BMu42,P02,CTR,INI,Trunk_Forward,1,L_LES,FM,M3,7.821595512802662
BMu42,P02,CTR,INI,Trunk_Forward,1,R_LES,FM,M1,13.409499356215505
BMu42,P02,CTR,INI,Trunk_Forward,1,R_LES,FM,M2,14.3581408862889
BMu42,P02,CTR,INI,Trunk_Forward,1,R_LES,FM,M3,16.06887610699085
BMu42,P02,CTR,REL,Trunk_Forward,1,L_LES,FM,M1,6.413849209401321
BMu42,P02,CTR,REL,Trunk_Forward,1,L_LES,FM,M2,6.1792581481066415
BMu42,P02,CTR,REL,Trunk_Forward,1,L_LES,FM,M3,6.89653360246782
BMu42,P02,CTR,REL,Trunk_Forward,1,R_LES,FM,M1,7.0236393272927025
BMu42,P02,CTR,REL,Trunk_Forward,1,R_LES,FM,M2,5.064959137612961
BMu42,P02,CTR,REL,Trunk_Forward,1,R_LES,FM,M3,5.7397563843849095
BMu42,P03,CTR,INI,Trunk_Forward,1,L_LES,FM,M1,5.879716593845187
BMu42,P03,CTR,INI,Trunk_Forward,1,L_LES,FM,M2,5.6230621758964325
BMu42,P03,CTR,INI,Trunk_Forward,1,L_LES,FM,M3,5.292158119887665
BMu42,P03,CTR,INI,Trunk_Forward,1,R_LES,FM,M1,7.196649259619826
BMu42,P03,CTR,INI,Trunk_Forward,1,R_LES,FM,M2,7.697854731275666
BMu42,P03,CTR,INI,Trunk_Forward,1,R_LES,FM,M3,5.798585814658261
BMu42,P03,CTR,REL,Trunk_Forward,1,L_LES,FM,M1,9.089493057579423
BMu42,P03,CTR,REL,Trunk_Forward,1,L_LES,FM,M2,15.210328199908334
BMu42,P03,CTR,REL,Trunk_Forward,1,L_LES,FM,M3,26.178124670319885
BMu42,P03,CTR,REL,Trunk_Forward,1,R_LES,FM,M1,7.4268563251413715
BMu42,P03,CTR,REL,Trunk_Forward,1,R_LES,FM,M2,7.941980749661242
BMu42,P03,CTR,REL,Trunk_Forward,1,R_LES,FM,M3,5.789981871867352
BMu42,P05,CTR,INI,Trunk_Forward,1,L_LES,FM,M1,5.653649535757025
BMu42,P05,CTR,INI,Trunk_Forward,1,L_LES,FM,M2,6.157488842183969
BMu42,P05,CTR,INI,Trunk_Forward,1,L_LES,FM,M3,5.209367046698848
BMu42,P05,CTR,INI,Trunk_Forward,1,R_LES,FM,M1,2.983455838467694
BMu42,P05,CTR,INI,Trunk_Forward,1,R_LES,FM,M2,2.872464527475476
BMu42,P05,CTR,INI,Trunk_Forward,1,R_LES,FM,M3,2.539066561209479
BMu42,P05,CTR,REL,Trunk_Forward,1,L_LES,FM,M1,0.7148289453372111
BMu42,P05,CTR,REL,Trunk_Forward,1,L_LES,FM,M2,7.627201001830302
BMu42,P05,CTR,REL,Trunk_Forward,1,L_LES,FM,M3,8.085196745890455
BMu42,P05,CTR,REL,Trunk_Forward,1,L_LES,FM,M4,9.063798000418679
BMu42,P05,CTR,REL,Trunk_Forward,1,R_LES,FM,M1,0.8871888356934785
BMu42,P05,CTR,REL,Trunk_Forward,1,R_LES,FM,M2,2.7305681242184403
BMu42,P05,CTR,REL,Trunk_Forward,1,R_LES,FM,M3,1.8531484961758862
BMu42,P05,CTR,REL,Trunk_Forward,1,R_LES,FM,M4,3.997290860962279
BMu42,P06,CTR,INI,Trunk_Forward,1,L_LES,FM,M1,2.537494785623795
BMu42,P06,CTR,INI,Trunk_Forward,1,L_LES,FM,M2,1.5565634009621736
BMu42,P06,CTR,INI,Trunk_Forward,1,L_LES,FM,M3,2.42512299111857
BMu42,P06,CTR,INI,Trunk_Forward,1,L_LES,FM,M4,
BMu42,P06,CTR,INI,Trunk_Forward,1,R_LES,FM,M1,2.2742517566211506
BMu42,P06,CTR,INI,Trunk_Forward,1,R_LES,FM,M2,8.283385194874567
BMu42,P06,CTR,INI,Trunk_Forward,1,R_LES,FM,M3,18.727134658116483
BMu42,P06,CTR,INI,Trunk_Forward,1,R_LES,FM,M4,
BMu42,P06,CTR,REL,Trunk_Forward,1,L_LES,FM,M1,1.3629973218884637
BMu42,P06,CTR,REL,Trunk_Forward,1,L_LES,FM,M2,1.1424812216135252
BMu42,P06,CTR,REL,Trunk_Forward,1,L_LES,FM,M3,1.2052565757997937
BMu42,P06,CTR,REL,Trunk_Forward,1,R_LES,FM,M1,1.7022436844018305
BMu42,P06,CTR,REL,Trunk_Forward,1,R_LES,FM,M2,1.2697475100903577
BMu42,P06,CTR,REL,Trunk_Forward,1,R_LES,FM,M3,1.3557656347098832
BMu42,P07,CTR,INI,Trunk_Forward,1,L_LES,FM,M1,5.324659215339719
BMu42,P07,CTR,INI,Trunk_Forward,1,L_LES,FM,M2,5.2891237248203575
BMu42,P07,CTR,INI,Trunk_Forward,1,L_LES,FM,M3,4.7175109250495915
BMu42,P07,CTR,INI,Trunk_Forward,1,R_LES,FM,M1,2.7459648201796054
BMu42,P07,CTR,INI,Trunk_Forward,1,R_LES,FM,M2,4.573235844270378
BMu42,P07,CTR,INI,Trunk_Forward,1,R_LES,FM,M3,5.354006793406192
BMu42,P07,CTR,REL,Trunk_Forward,1,L_LES,FM,M1,3.483197485015904
BMu42,P07,CTR,REL,Trunk_Forward,1,L_LES,FM,M2,6.84124732135077
BMu42,P07,CTR,REL,Trunk_Forward,1,L_LES,FM,M3,8.899012354716605
BMu42,P07,CTR,REL,Trunk_Forward,1,R_LES,FM,M1,5.326723440300502
BMu42,P07,CTR,REL,Trunk_Forward,1,R_LES,FM,M2,9.461721833282498
BMu42,P07,CTR,REL,Trunk_Forward,1,R_LES,FM,M3,9.338686063335121
BMu42,P08,CTR,INI,Trunk_Forward,1,L_LES,FM,M1,10.167331004888979
BMu42,P08,CTR,INI,Trunk_Forward,1,L_LES,FM,M2,8.059497353256095
BMu42,P08,CTR,INI,Trunk_Forward,1,L_LES,FM,M3,9.167684663642957
BMu42,P08,CTR,INI,Trunk_Forward,1,R_LES,FM,M1,5.9421338666343875
BMu42,P08,CTR,INI,Trunk_Forward,1,R_LES,FM,M2,4.837230759747863
BMu42,P08,CTR,INI,Trunk_Forward,1,R_LES,FM,M3,8.969858742685572
BMu42,P08,CTR,REL,Trunk_Forward,1,L_LES,FM,M1,8.875960710945028
BMu42,P08,CTR,REL,Trunk_Forward,1,L_LES,FM,M2,9.501972733373353
BMu42,P08,CTR,REL,Trunk_Forward,1,L_LES,FM,M3,9.194399719017133
BMu42,P08,CTR,REL,Trunk_Forward,1,R_LES,FM,M1,5.832294431637732
BMu42,P08,CTR,REL,Trunk_Forward,1,R_LES,FM,M2,5.060258315815487
BMu42,P08,CTR,REL,Trunk_Forward,1,R_LES,FM,M3,7.443836670450931
BMu42,P09,PAT,INI,Trunk_Forward,1,L_LES,FM,M1,2.4223004683551306
BMu42,P09,PAT,INI,Trunk_Forward,1,L_LES,FM,M2,4.828066646394183
BMu42,P09,PAT,INI,Trunk_Forward,1,L_LES,FM,M3,5.9372002309774095
BMu42,P09,PAT,INI,Trunk_Forward,1,L_LES,FM,M4,
BMu42,P09,PAT,INI,Trunk_Forward,1,R_LES,FM,M1,1.8398309230603975
BMu42,P09,PAT,INI,Trunk_Forward,1,R_LES,FM,M2,2.387053364418557
BMu42,P09,PAT,INI,Trunk_Forward,1,R_LES,FM,M3,4.637751814429213
BMu42,P09,PAT,INI,Trunk_Forward,1,R_LES,FM,M4,
BMu42,P09,PAT,REL,Trunk_Forward,1,L_LES,FM,M1,3.334723471941916
BMu42,P09,PAT,REL,Trunk_Forward,1,L_LES,FM,M2,5.783726582412015
BMu42,P09,PAT,REL,Trunk_Forward,1,L_LES,FM,M3,7.651814609237411
BMu42,P09,PAT,REL,Trunk_Forward,1,R_LES,FM,M1,1.8486722263329731
BMu42,P09,PAT,REL,Trunk_Forward,1,R_LES,FM,M2,3.005753838717472
BMu42,P09,PAT,REL,Trunk_Forward,1,R_LES,FM,M3,4.252963529499806
BMu42,P10,PAT,INI,Trunk_Forward,1,L_LES,FM,M1,1.5487179142311884
BMu42,P10,PAT,INI,Trunk_Forward,1,L_LES,FM,M2,4.793684683487455
BMu42,P10,PAT,INI,Trunk_Forward,1,L_LES,FM,M3,5.095581424792039
BMu42,P10,PAT,INI,Trunk_Forward,1,R_LES,FM,M1,2.0041142169727872
BMu42,P10,PAT,INI,Trunk_Forward,1,R_LES,FM,M2,3.1969689271535837
BMu42,P10,PAT,INI,Trunk_Forward,1,R_LES,FM,M3,5.425014849959498
BMu42,P10,PAT,REL,Trunk_Forward,1,L_LES,FM,M1,1.304826782952114
BMu42,P10,PAT,REL,Trunk_Forward,1,L_LES,FM,M2,3.859584397723138
BMu42,P10,PAT,REL,Trunk_Forward,1,L_LES,FM,M3,5.5214699841142965
BMu42,P10,PAT,REL,Trunk_Forward,1,R_LES,FM,M1,1.5343306516659105
BMu42,P10,PAT,REL,Trunk_Forward,1,R_LES,FM,M2,4.413658939283198
BMu42,P10,PAT,REL,Trunk_Forward,1,R_LES,FM,M3,6.285442721969053
BMu42,P11,PAT,INI,Trunk_Forward,1,L_LES,FM,M1,8.924092403486576
BMu42,P11,PAT,INI,Trunk_Forward,1,L_LES,FM,M2,11.272502089601142
BMu42,P11,PAT,INI,Trunk_Forward,1,L_LES,FM,M3,10.491502122876817
BMu42,P11,PAT,INI,Trunk_Forward,1,R_LES,FM,M1,1.8317800558939086
BMu42,P11,PAT,INI,Trunk_Forward,1,R_LES,FM,M2,3.3825407445977196
BMu42,P11,PAT,INI,Trunk_Forward,1,R_LES,FM,M3,2.3277498423832483
BMu42,P11,PAT,REL,Trunk_Forward,1,L_LES,FM,M1,15.050385583090558
BMu42,P11,PAT,REL,Trunk_Forward,1,L_LES,FM,M2,10.07284670237807
BMu42,P11,PAT,REL,Trunk_Forward,1,L_LES,FM,M3,13.02449759414121
BMu42,P11,PAT,REL,Trunk_Forward,1,R_LES,FM,M1,4.53553678262618
BMu42,P11,PAT,REL,Trunk_Forward,1,R_LES,FM,M2,4.208420890676594
BMu42,P11,PAT,REL,Trunk_Forward,1,R_LES,FM,M3,6.229256486645633
BMu42,P12,PAT,INI,Trunk_Forward,1,L_LES,FM,M1,1.61831044753282
BMu42,P12,PAT,INI,Trunk_Forward,1,L_LES,FM,M2,1.70607772529182
BMu42,P12,PAT,INI,Trunk_Forward,1,L_LES,FM,M3,1.3961045638035412
BMu42,P12,PAT,INI,Trunk_Forward,1,R_LES,FM,M1,2.4292601588096656
BMu42,P12,PAT,INI,Trunk_Forward,1,R_LES,FM,M2,2.223773476139909
BMu42,P12,PAT,INI,Trunk_Forward,1,R_LES,FM,M3,2.4519895187057563
BMu42,P12,PAT,REL,Trunk_Forward,1,L_LES,FM,M1,1.44794458139339
BMu42,P12,PAT,REL,Trunk_Forward,1,L_LES,FM,M2,1.0909138544251782
BMu42,P12,PAT,REL,Trunk_Forward,1,L_LES,FM,M3,1.3203568875218072
BMu42,P12,PAT,REL,Trunk_Forward,1,R_LES,FM,M1,12.112877444581827
BMu42,P12,PAT,REL,Trunk_Forward,1,R_LES,FM,M2,9.925264667422375
BMu42,P12,PAT,REL,Trunk_Forward,1,R_LES,FM,M3,2.3873274983932102
BMu42,P13,CTR,INI,Trunk_Forward,1,L_LES,FM,M1,1.778756721005419
BMu42,P13,CTR,INI,Trunk_Forward,1,L_LES,FM,M2,2.568167004538534
BMu42,P13,CTR,INI,Trunk_Forward,1,L_LES,FM,M3,3.1719952050903406
BMu42,P13,CTR,INI,Trunk_Forward,1,R_LES,FM,M1,1.841730272514191
BMu42,P13,CTR,INI,Trunk_Forward,1,R_LES,FM,M2,3.213582985741083
BMu42,P13,CTR,INI,Trunk_Forward,1,R_LES,FM,M3,3.5394131712417325
BMu42,P13,CTR,REL,Trunk_Forward,1,L_LES,FM,M1,2.4090545214415826
BMu42,P13,CTR,REL,Trunk_Forward,1,L_LES,FM,M2,2.447222234443098
BMu42,P13,CTR,REL,Trunk_Forward,1,L_LES,FM,M3,2.6311778088393414
BMu42,P13,CTR,REL,Trunk_Forward,1,R_LES,FM,M1,1.6345671087767126
BMu42,P13,CTR,REL,Trunk_Forward,1,R_LES,FM,M2,1.642308031238227
BMu42,P13,CTR,REL,Trunk_Forward,1,R_LES,FM,M3,2.405010322634518
BMu42,P14,PAT,INI,Trunk_Forward,1,L_LES,FM,M1,2.247009953250348
BMu42,P14,PAT,INI,Trunk_Forward,1,L_LES,FM,M2,2.324991830151505
BMu42,P14,PAT,INI,Trunk_Forward,1,L_LES,FM,M3,1.9206469348749124
BMu42,P14,PAT,INI,Trunk_Forward,1,R_LES,FM,M1,2.1776046615104176
BMu42,P14,PAT,INI,Trunk_Forward,1,R_LES,FM,M2,2.0950336210078517
BMu42,P14,PAT,INI,Trunk_Forward,1,R_LES,FM,M3,2.0212146021332122
BMu42,P14,PAT,REL,Trunk_Forward,1,L_LES,FM,M1,3.959775903928823
BMu42,P14,PAT,REL,Trunk_Forward,1,L_LES,FM,M2,7.674822758542632
BMu42,P14,PAT,REL,Trunk_Forward,1,L_LES,FM,M3,11.88619926637827
BMu42,P14,PAT,REL,Trunk_Forward,1,L_LES,FM,M4,
BMu42,P14,PAT,REL,Trunk_Forward,1,R_LES,FM,M1,2.0554439309866233
BMu42,P14,PAT,REL,Trunk_Forward,1,R_LES,FM,M2,1.56980655765782
BMu42,P14,PAT,REL,Trunk_Forward,1,R_LES,FM,M3,1.8306693828022802
BMu42,P14,PAT,REL,Trunk_Forward,1,R_LES,FM,M4,
BMu42,P16,CTR,INI,Trunk_Forward,1,L_LES,FM,M1,4.175426042609734
BMu42,P16,CTR,INI,Trunk_Forward,1,L_LES,FM,M2,5.470227683269067
BMu42,P16,CTR,INI,Trunk_Forward,1,L_LES,FM,M3,6.281519919990559
BMu42,P16,CTR,INI,Trunk_Forward,1,R_LES,FM,M1,2.5553813671308894
BMu42,P16,CTR,INI,Trunk_Forward,1,R_LES,FM,M2,4.108299753322065
BMu42,P16,CTR,INI,Trunk_Forward,1,R_LES,FM,M3,5.011731945424824
BMu42,P16,CTR,REL,Trunk_Forward,1,L_LES,FM,M1,1.4125522714842926
BMu42,P16,CTR,REL,Trunk_Forward,1,L_LES,FM,M2,1.739108761457581
BMu42,P16,CTR,REL,Trunk_Forward,1,L_LES,FM,M3,2.329951471053239
BMu42,P16,CTR,REL,Trunk_Forward,1,R_LES,FM,M1,1.1566639524686126
BMu42,P16,CTR,REL,Trunk_Forward,1,R_LES,FM,M2,1.2725046848232056
BMu42,P16,CTR,REL,Trunk_Forward,1,R_LES,FM,M3,1.3124667077112755
BMu42,P17,PAT,INI,Trunk_Forward,1,L_LES,FM,M1,6.444693800979733
BMu42,P17,PAT,INI,Trunk_Forward,1,L_LES,FM,M2,5.591947067155272
BMu42,P17,PAT,INI,Trunk_Forward,1,L_LES,FM,M3,3.5117726231946462
BMu42,P17,PAT,INI,Trunk_Forward,1,R_LES,FM,M1,5.849100988110885
BMu42,P17,PAT,INI,Trunk_Forward,1,R_LES,FM,M2,4.740655323197583
BMu42,P17,PAT,INI,Trunk_Forward,1,R_LES,FM,M3,2.609269969071111
BMu42,P17,PAT,REL,Trunk_Forward,1,L_LES,FM,M1,1.2335953210096813
BMu42,P17,PAT,REL,Trunk_Forward,1,L_LES,FM,M2,1.130228063594823
BMu42,P17,PAT,REL,Trunk_Forward,1,L_LES,FM,M3,1.1581559600453477
BMu42,P17,PAT,REL,Trunk_Forward,1,R_LES,FM,M1,1.714550593175453
BMu42,P17,PAT,REL,Trunk_Forward,1,R_LES,FM,M2,1.3971770057119701
BMu42,P17,PAT,REL,Trunk_Forward,1,R_LES,FM,M3,1.380171325850255
BMu42,P21,CTR,INI,Trunk_Forward,1,L_LES,FM,M1,3.1338384266268644
BMu42,P21,CTR,INI,Trunk_Forward,1,L_LES,FM,M2,5.30890894019261
BMu42,P21,CTR,INI,Trunk_Forward,1,L_LES,FM,M3,3.258652664904677
BMu42,P21,CTR,INI,Trunk_Forward,1,R_LES,FM,M1,3.229741332343449
BMu42,P21,CTR,INI,Trunk_Forward,1,R_LES,FM,M2,3.4080890783105287
BMu42,P21,CTR,INI,Trunk_Forward,1,R_LES,FM,M3,2.511122861323054
BMu42,P21,CTR,REL,Trunk_Forward,1,L_LES,FM,M1,3.0194249573740564
BMu42,P21,CTR,REL,Trunk_Forward,1,L_LES,FM,M2,152.89605410059377
BMu42,P21,CTR,REL,Trunk_Forward,1,L_LES,FM,M3,34.14559173619539
BMu42,P21,CTR,REL,Trunk_Forward,1,R_LES,FM,M1,3.4362562594807406
BMu42,P21,CTR,REL,Trunk_Forward,1,R_LES,FM,M2,6.196048193977406
BMu42,P21,CTR,REL,Trunk_Forward,1,R_LES,FM,M3,8.482282234097083
BMu42,P22,CTR,INI,Trunk_Forward,1,L_LES,FM,M1,21.805781826955922
BMu42,P22,CTR,INI,Trunk_Forward,1,L_LES,FM,M2,8.263247532566792
BMu42,P22,CTR,INI,Trunk_Forward,1,L_LES,FM,M3,6.249244169356858
BMu42,P22,CTR,INI,Trunk_Forward,1,R_LES,FM,M1,5.659898919414964
BMu42,P22,CTR,INI,Trunk_Forward,1,R_LES,FM,M2,5.247369566240793
BMu42,P22,CTR,INI,Trunk_Forward,1,R_LES,FM,M3,8.072235053251454
BMu42,P22,CTR,REL,Trunk_Forward,1,L_LES,FM,M1,3.410494575571059
BMu42,P22,CTR,REL,Trunk_Forward,1,L_LES,FM,M2,3.1508604404360465
BMu42,P22,CTR,REL,Trunk_Forward,1,L_LES,FM,M3,3.0188925166131897
BMu42,P22,CTR,REL,Trunk_Forward,1,R_LES,FM,M1,3.101371209456671
BMu42,P22,CTR,REL,Trunk_Forward,1,R_LES,FM,M2,15.988813219662516
BMu42,P22,CTR,REL,Trunk_Forward,1,R_LES,FM,M3,4.970469874537745
BMu42,P23,CTR,INI,Trunk_Forward,1,L_LES,FM,M1,2.961936695428459
BMu42,P23,CTR,INI,Trunk_Forward,1,L_LES,FM,M2,4.1074163620688555
BMu42,P23,CTR,INI,Trunk_Forward,1,L_LES,FM,M3,3.821352058672994
BMu42,P23,CTR,INI,Trunk_Forward,1,R_LES,FM,M1,7.265897474526663
BMu42,P23,CTR,INI,Trunk_Forward,1,R_LES,FM,M2,4.731811035403092
BMu42,P23,CTR,INI,Trunk_Forward,1,R_LES,FM,M3,4.455039993705845
BMu42,P23,CTR,REL,Trunk_Forward,1,L_LES,FM,M1,6.407068397678702
BMu42,P23,CTR,REL,Trunk_Forward,1,L_LES,FM,M2,4.235384545573658
BMu42,P23,CTR,REL,Trunk_Forward,1,L_LES,FM,M3,4.571608531288459
BMu42,P23,CTR,REL,Trunk_Forward,1,R_LES,FM,M1,3.678936679919846
BMu42,P23,CTR,REL,Trunk_Forward,1,R_LES,FM,M2,4.17575485130885
BMu42,P23,CTR,REL,Trunk_Forward,1,R_LES,FM,M3,5.98307081943187
BMu42,P24,PAT,INI,Trunk_Forward,1,L_LES,FM,M1,1.2104695101269316
BMu42,P24,PAT,INI,Trunk_Forward,1,L_LES,FM,M2,1.7724477374378182
BMu42,P24,PAT,INI,Trunk_Forward,1,L_LES,FM,M3,3.282964365186851
BMu42,P24,PAT,INI,Trunk_Forward,1,R_LES,FM,M1,1.2389681888592345
BMu42,P24,PAT,INI,Trunk_Forward,1,R_LES,FM,M2,1.4608140306399837
BMu42,P24,PAT,INI,Trunk_Forward,1,R_LES,FM,M3,2.540941619483506
BMu42,P24,PAT,REL,Trunk_Forward,1,L_LES,FM,M1,1.6408247531492786
BMu42,P24,PAT,REL,Trunk_Forward,1,L_LES,FM,M2,1.6350400524608388
BMu42,P24,PAT,REL,Trunk_Forward,1,L_LES,FM,M3,1.7832693600239742
BMu42,P24,PAT,REL,Trunk_Forward,1,R_LES,FM,M1,1.84251248651747
BMu42,P24,PAT,REL,Trunk_Forward,1,R_LES,FM,M2,2.1740038514803524
BMu42,P24,PAT,REL,Trunk_Forward,1,R_LES,FM,M3,2.6085692665607114
BMu42,P25,CTR,INI,Trunk_Forward,1,L_LES,FM,M1,2.5574406737900777
BMu42,P25,CTR,INI,Trunk_Forward,1,L_LES,FM,M2,10.801131923034305
BMu42,P25,CTR,INI,Trunk_Forward,1,L_LES,FM,M3,15.941619612176442
BMu42,P25,CTR,INI,Trunk_Forward,1,R_LES,FM,M1,2.6853136050964554
BMu42,P25,CTR,INI,Trunk_Forward,1,R_LES,FM,M2,6.139704090159445
BMu42,P25,CTR,INI,Trunk_Forward,1,R_LES,FM,M3,7.285324969567784
BMu42,P25,CTR,REL,Trunk_Forward,1,L_LES,FM,M1,1.77710563183165
BMu42,P25,CTR,REL,Trunk_Forward,1,L_LES,FM,M2,2.3670900030791078
BMu42,P25,CTR,REL,Trunk_Forward,1,L_LES,FM,M3,4.072950567181953
BMu42,P25,CTR,REL,Trunk_Forward,1,R_LES,FM,M1,1.9782664265619587
BMu42,P25,CTR,REL,Trunk_Forward,1,R_LES,FM,M2,2.7501772727503893
BMu42,P25,CTR,REL,Trunk_Forward,1,R_LES,FM,M3,3.598868753645752
BMu42,P26,PAT,INI,Trunk_Forward,1,L_LES,FM,M1,14.443525243231004
BMu42,P26,PAT,INI,Trunk_Forward,1,L_LES,FM,M2,13.484305788336933
BMu42,P26,PAT,INI,Trunk_Forward,1,L_LES,FM,M3,17.65937407809673
BMu42,P26,PAT,INI,Trunk_Forward,1,R_LES,FM,M1,3.4257025585392666
BMu42,P26,PAT,INI,Trunk_Forward,1,R_LES,FM,M2,4.841932675325304
BMu42,P26,PAT,INI,Trunk_Forward,1,R_LES,FM,M3,4.12982811977569
BMu42,P26,PAT,REL,Trunk_Forward,1,L_LES,FM,M1,8.048530674731937
BMu42,P26,PAT,REL,Trunk_Forward,1,L_LES,FM,M2,11.646088001655947
BMu42,P26,PAT,REL,Trunk_Forward,1,L_LES,FM,M3,10.855932073258197
BMu42,P26,PAT,REL,Trunk_Forward,1,R_LES,FM,M1,5.023486080124957
BMu42,P26,PAT,REL,Trunk_Forward,1,R_LES,FM,M2,5.820850014367233
BMu42,P26,PAT,REL,Trunk_Forward,1,R_LES,FM,M3,3.1212562874115517
BMu42,P27,PAT,INI,Trunk_Forward,1,L_LES,FM,M1,1.3664833133033658
BMu42,P27,PAT,INI,Trunk_Forward,1,L_LES,FM,M2,1.543688470857873
BMu42,P27,PAT,INI,Trunk_Forward,1,L_LES,FM,M3,3.3097697031695517
BMu42,P27,PAT,INI,Trunk_Forward,1,R_LES,FM,M1,1.2996592744289788
BMu42,P27,PAT,INI,Trunk_Forward,1,R_LES,FM,M2,1.3293622924349284
BMu42,P27,PAT,INI,Trunk_Forward,1,R_LES,FM,M3,3.124196770022042
BMu42,P27,PAT,REL,Trunk_Forward,1,L_LES,FM,M1,1.7514019895878192
BMu42,P27,PAT,REL,Trunk_Forward,1,L_LES,FM,M2,2.1595484762157824
BMu42,P27,PAT,REL,Trunk_Forward,1,L_LES,FM,M3,2.0303310577116376
BMu42,P27,PAT,REL,Trunk_Forward,1,L_LES,FM,M4,
BMu42,P27,PAT,REL,Trunk_Forward,1,R_LES,FM,M1,1.378277998057253
BMu42,P27,PAT,REL,Trunk_Forward,1,R_LES,FM,M2,1.9944080340540098
BMu42,P27,PAT,REL,Trunk_Forward,1,R_LES,FM,M3,2.143261774524386
BMu42,P27,PAT,REL,Trunk_Forward,1,R_LES,FM,M4,
BMu42,P28,PAT,INI,Trunk_Forward,1,L_LES,FM,M1,1.5026387765708809
BMu42,P28,PAT,INI,Trunk_Forward,1,L_LES,FM,M2,2.0235059239268525
BMu42,P28,PAT,INI,Trunk_Forward,1,L_LES,FM,M3,2.283913834800165
BMu42,P28,PAT,INI,Trunk_Forward,1,R_LES,FM,M1,1.2632278750894288
BMu42,P28,PAT,INI,Trunk_Forward,1,R_LES,FM,M2,1.7205458785088785
BMu42,P28,PAT,INI,Trunk_Forward,1,R_LES,FM,M3,2.146943860686966
BMu42,P28,PAT,REL,Trunk_Forward,1,L_LES,FM,M1,1.4549313985809753
BMu42,P28,PAT,REL,Trunk_Forward,1,L_LES,FM,M2,1.2419743777634862
BMu42,P28,PAT,REL,Trunk_Forward,1,L_LES,FM,M3,1.7232471376791252
BMu42,P28,PAT,REL,Trunk_Forward,1,R_LES,FM,M1,1.1604004380724746
BMu42,P28,PAT,REL,Trunk_Forward,1,R_LES,FM,M2,1.040796916719563
BMu42,P28,PAT,REL,Trunk_Forward,1,R_LES,FM,M3,1.364380441638226
BMu42,P29,PAT,INI,Trunk_Forward,1,L_LES,FM,M1,2.8945390004307696
BMu42,P29,PAT,INI,Trunk_Forward,1,L_LES,FM,M2,5.942510135035357
BMu42,P29,PAT,INI,Trunk_Forward,1,L_LES,FM,M3,4.330109782513275
BMu42,P29,PAT,INI,Trunk_Forward,1,R_LES,FM,M1,2.942920698402398
BMu42,P29,PAT,INI,Trunk_Forward,1,R_LES,FM,M2,3.9337202721051288
BMu42,P29,PAT,INI,Trunk_Forward,1,R_LES,FM,M3,6.062264511628442
BMu42,P29,PAT,REL,Trunk_Forward,1,L_LES,FM,M1,4.500245887960261
BMu42,P29,PAT,REL,Trunk_Forward,1,L_LES,FM,M2,9.358249106900683
BMu42,P29,PAT,REL,Trunk_Forward,1,L_LES,FM,M3,9.518919806034395
BMu42,P29,PAT,REL,Trunk_Forward,1,R_LES,FM,M1,7.489279946665055
BMu42,P29,PAT,REL,Trunk_Forward,1,R_LES,FM,M2,8.419829181920786
BMu42,P29,PAT,REL,Trunk_Forward,1,R_LES,FM,M3,10.134415263152398
BMu42,P30,PAT,INI,Trunk_Forward,1,L_LES,FM,M1,1.680295332811645
BMu42,P30,PAT,INI,Trunk_Forward,1,L_LES,FM,M2,1.3253355894696561
BMu42,P30,PAT,INI,Trunk_Forward,1,L_LES,FM,M3,1.394095333235605
BMu42,P30,PAT,INI,Trunk_Forward,1,R_LES,FM,M1,1.9934102381866083
BMu42,P30,PAT,INI,Trunk_Forward,1,R_LES,FM,M2,1.6035445204339331
BMu42,P30,PAT,INI,Trunk_Forward,1,R_LES,FM,M3,1.3682902531475833
BMu42,P30,PAT,REL,Trunk_Forward,1,L_LES,FM,M1,1.3191860764368533
BMu42,P30,PAT,REL,Trunk_Forward,1,L_LES,FM,M2,2.2888061746982062
BMu42,P30,PAT,REL,Trunk_Forward,1,L_LES,FM,M3,3.5362168859864527
BMu42,P30,PAT,REL,Trunk_Forward,1,R_LES,FM,M1,1.5798641538875662
BMu42,P30,PAT,REL,Trunk_Forward,1,R_LES,FM,M2,2.0746188283664404
BMu42,P30,PAT,REL,Trunk_Forward,1,R_LES,FM,M3,2.100993745474843
BMu42,P32,PAT,INI,Trunk_Forward,1,L_LES,FM,M1,2.528444176661076
BMu42,P32,PAT,INI,Trunk_Forward,1,L_LES,FM,M2,2.3257543385026453
BMu42,P32,PAT,INI,Trunk_Forward,1,L_LES,FM,M3,3.3223737535810494
BMu42,P32,PAT,INI,Trunk_Forward,1,R_LES,FM,M1,1.909155856808165
BMu42,P32,PAT,INI,Trunk_Forward,1,R_LES,FM,M2,1.5416419169573823
BMu42,P32,PAT,INI,Trunk_Forward,1,R_LES,FM,M3,2.3861532636545926
BMu42,P32,PAT,REL,Trunk_Forward,1,L_LES,FM,M1,4.374650290263481
BMu42,P32,PAT,REL,Trunk_Forward,1,L_LES,FM,M2,1.3941975673949638
BMu42,P32,PAT,REL,Trunk_Forward,1,L_LES,FM,M3,3.7146891880605146
BMu42,P32,PAT,REL,Trunk_Forward,1,L_LES,FM,M4,3.611325617763285
BMu42,P32,PAT,REL,Trunk_Forward,1,R_LES,FM,M1,3.6243540466475417
BMu42,P32,PAT,REL,Trunk_Forward,1,R_LES,FM,M2,1.478344802026884
BMu42,P32,PAT,REL,Trunk_Forward,1,R_LES,FM,M3,3.0092603809836462
BMu42,P32,PAT,REL,Trunk_Forward,1,R_LES,FM,M4,3.0052500026890248
BMu42,P33,PAT,INI,Trunk_Forward,1,L_LES,FM,M1,2.1731763987259165
BMu42,P33,PAT,INI,Trunk_Forward,1,L_LES,FM,M2,1.8941218075048762
BMu42,P33,PAT,INI,Trunk_Forward,1,L_LES,FM,M3,1.9094276867087934
BMu42,P33,PAT,INI,Trunk_Forward,1,L_LES,FM,M4,3.3547249992441888
BMu42,P33,PAT,INI,Trunk_Forward,1,R_LES,FM,M1,1.7910770437573513
BMu42,P33,PAT,INI,Trunk_Forward,1,R_LES,FM,M2,2.2710176462176004
BMu42,P33,PAT,INI,Trunk_Forward,1,R_LES,FM,M3,2.0918784196432267
BMu42,P33,PAT,INI,Trunk_Forward,1,R_LES,FM,M4,3.922172168345904
BMu42,P33,PAT,REL,Trunk_Forward,1,L_LES,FM,M1,1.654920706766085
BMu42,P33,PAT,REL,Trunk_Forward,1,L_LES,FM,M2,1.0618238108612776
BMu42,P33,PAT,REL,Trunk_Forward,1,L_LES,FM,M3,1.0058147608379624
BMu42,P33,PAT,REL,Trunk_Forward,1,R_LES,FM,M1,1.0585113363191039
BMu42,P33,PAT,REL,Trunk_Forward,1,R_LES,FM,M2,2.040360213757246
BMu42,P33,PAT,REL,Trunk_Forward,1,R_LES,FM,M3,1.1042925655495026
BMu42,P34,PAT,INI,Trunk_Forward,1,L_LES,FM,M1,3.497064662977484
BMu42,P34,PAT,INI,Trunk_Forward,1,L_LES,FM,M2,4.60488064063343
BMu42,P34,PAT,INI,Trunk_Forward,1,L_LES,FM,M3,2.6418065205255403
BMu42,P34,PAT,INI,Trunk_Forward,1,R_LES,FM,M1,2.3802952842872456
BMu42,P34,PAT,INI,Trunk_Forward,1,R_LES,FM,M2,8.713106327591628
BMu42,P34,PAT,INI,Trunk_Forward,1,R_LES,FM,M3,4.477619455488873
BMu42,P34,PAT,REL,Trunk_Forward,1,L_LES,FM,M1,3.509792432497726
BMu42,P34,PAT,REL,Trunk_Forward,1,L_LES,FM,M2,3.2160043065164747
BMu42,P34,PAT,REL,Trunk_Forward,1,L_LES,FM,M3,4.278757936043967
BMu42,P34,PAT,REL,Trunk_Forward,1,R_LES,FM,M1,3.6316171079539235
BMu42,P34,PAT,REL,Trunk_Forward,1,R_LES,FM,M2,2.690776608667044
BMu42,P34,PAT,REL,Trunk_Forward,1,R_LES,FM,M3,5.328355029765639
BMu42,P35,CTR,INI,Trunk_Forward,1,L_LES,FM,M1,9.138651091472637
BMu42,P35,CTR,INI,Trunk_Forward,1,L_LES,FM,M2,12.19711346116981
BMu42,P35,CTR,INI,Trunk_Forward,1,L_LES,FM,M3,9.41415153389398
BMu42,P35,CTR,INI,Trunk_Forward,1,R_LES,FM,M1,6.612510809619648
BMu42,P35,CTR,INI,Trunk_Forward,1,R_LES,FM,M2,11.005288114806852
BMu42,P35,CTR,INI,Trunk_Forward,1,R_LES,FM,M3,14.758473069508055
BMu42,P35,CTR,REL,Trunk_Forward,1,L_LES,FM,M1,12.92123456724563
BMu42,P35,CTR,REL,Trunk_Forward,1,L_LES,FM,M2,10.844632673665462
BMu42,P35,CTR,REL,Trunk_Forward,1,L_LES,FM,M3,11.426760859334312
BMu42,P35,CTR,REL,Trunk_Forward,1,R_LES,FM,M1,10.960095468089863
BMu42,P35,CTR,REL,Trunk_Forward,1,R_LES,FM,M2,8.05305265391136
BMu42,P35,CTR,REL,Trunk_Forward,1,R_LES,FM,M3,9.377993846575293
BMu42,P36,PAT,INI,Trunk_Forward,1,L_LES,FM,M1,1.4287034621395824
BMu42,P36,PAT,INI,Trunk_Forward,1,L_LES,FM,M2,1.5289031336573926
BMu42,P36,PAT,INI,Trunk_Forward,1,L_LES,FM,M3,1.535810561208954
BMu42,P36,PAT,INI,Trunk_Forward,1,R_LES,FM,M1,2.4948052134485574
BMu42,P36,PAT,INI,Trunk_Forward,1,R_LES,FM,M2,2.7606241510620433
BMu42,P36,PAT,INI,Trunk_Forward,1,R_LES,FM,M3,2.3639018314893816
BMu42,P36,PAT,REL,Trunk_Forward,1,L_LES,FM,M1,1.1169558952245944
BMu42,P36,PAT,REL,Trunk_Forward,1,L_LES,FM,M2,1.1195702893478003
BMu42,P36,PAT,REL,Trunk_Forward,1,L_LES,FM,M3,1.1507157865397564
BMu42,P36,PAT,REL,Trunk_Forward,1,R_LES,FM,M1,2.108827565630072
BMu42,P36,PAT,REL,Trunk_Forward,1,R_LES,FM,M2,1.6955087164546012
BMu42,P36,PAT,REL,Trunk_Forward,1,R_LES,FM,M3,1.8234675163197833
BMu42,P38,CTR,INI,Trunk_Forward,1,L_LES,FM,M1,34.53983112808276
BMu42,P38,CTR,INI,Trunk_Forward,1,L_LES,FM,M2,12.803112025071837
BMu42,P38,CTR,INI,Trunk_Forward,1,L_LES,FM,M3,13.06185751029141
BMu42,P38,CTR,INI,Trunk_Forward,1,R_LES,FM,M1,4.530702265854056
BMu42,P38,CTR,INI,Trunk_Forward,1,R_LES,FM,M2,10.669288201546998
BMu42,P38,CTR,INI,Trunk_Forward,1,R_LES,FM,M3,17.478671868085744
BMu42,P38,CTR,REL,Trunk_Forward,1,L_LES,FM,M1,7.7320680016911
BMu42,P38,CTR,REL,Trunk_Forward,1,L_LES,FM,M2,10.730532710674447
BMu42,P38,CTR,REL,Trunk_Forward,1,L_LES,FM,M3,9.170341654315354
BMu42,P38,CTR,REL,Trunk_Forward,1,R_LES,FM,M1,7.4711924463846415
BMu42,P38,CTR,REL,Trunk_Forward,1,R_LES,FM,M2,7.398989759157687
BMu42,P38,CTR,REL,Trunk_Forward,1,R_LES,FM,M3,7.7577735785771305
BMu42,P39,CTR,INI,Trunk_Forward,1,L_LES,FM,M1,22.918086873284164
BMu42,P39,CTR,INI,Trunk_Forward,1,L_LES,FM,M2,10.317275400627235
BMu42,P39,CTR,INI,Trunk_Forward,1,L_LES,FM,M3,11.070195913256496
BMu42,P39,CTR,INI,Trunk_Forward,1,R_LES,FM,M1,6.920714034727272
BMu42,P39,CTR,INI,Trunk_Forward,1,R_LES,FM,M2,5.883365532044158
BMu42,P39,CTR,INI,Trunk_Forward,1,R_LES,FM,M3,6.24353658838028
BMu42,P39,CTR,REL,Trunk_Forward,1,L_LES,FM,M1,2.5666933384229855
BMu42,P39,CTR,REL,Trunk_Forward,1,L_LES,FM,M2,3.1477070022589166
BMu42,P39,CTR,REL,Trunk_Forward,1,L_LES,FM,M3,3.6905703174008315
BMu42,P39,CTR,REL,Trunk_Forward,1,R_LES,FM,M1,5.428960535441153
BMu42,P39,CTR,REL,Trunk_Forward,1,R_LES,FM,M2,6.770437104994005
BMu42,P39,CTR,REL,Trunk_Forward,1,R_LES,FM,M3,12.468243321693127
BMu42,P40,CTR,INI,Trunk_Forward,1,L_LES,FM,M1,9.280902816934054
BMu42,P40,CTR,INI,Trunk_Forward,1,L_LES,FM,M2,8.028195147287203
BMu42,P40,CTR,INI,Trunk_Forward,1,L_LES,FM,M3,5.46414551855392
BMu42,P40,CTR,INI,Trunk_Forward,1,R_LES,FM,M1,3.91662370890087
BMu42,P40,CTR,INI,Trunk_Forward,1,R_LES,FM,M2,12.366723936973699
BMu42,P40,CTR,INI,Trunk_Forward,1,R_LES,FM,M3,8.246509774718552
BMu42,P40,CTR,REL,Trunk_Forward,1,L_LES,FM,M1,3.38086790881993
BMu42,P40,CTR,REL,Trunk_Forward,1,L_LES,FM,M2,8.597877108784157
BMu42,P40,CTR,REL,Trunk_Forward,1,L_LES,FM,M3,7.216097211576773
BMu42,P40,CTR,REL,Trunk_Forward,1,R_LES,FM,M1,3.4110035335586564
BMu42,P40,CTR,REL,Trunk_Forward,1,R_LES,FM,M2,5.067326740776908
BMu42,P40,CTR,REL,Trunk_Forward,1,R_LES,FM,M3,7.50874961281688
BMu42,P41,PAT,INI,Trunk_Forward,1,L_LES,FM,M1,2.543130335264266
BMu42,P41,PAT,INI,Trunk_Forward,1,L_LES,FM,M2,2.84384217775676
BMu42,P41,PAT,INI,Trunk_Forward,1,L_LES,FM,M3,4.4814400861075505
BMu42,P41,PAT,INI,Trunk_Forward,1,R_LES,FM,M1,8.766436520415727
BMu42,P41,PAT,INI,Trunk_Forward,1,R_LES,FM,M2,8.306878865543105
BMu42,P41,PAT,INI,Trunk_Forward,1,R_LES,FM,M3,10.427114572285152
BMu42,P41,PAT,REL,Trunk_Forward,1,L_LES,FM,M1,2.7852116058617042
BMu42,P41,PAT,REL,Trunk_Forward,1,L_LES,FM,M2,4.4326537013440435
BMu42,P41,PAT,REL,Trunk_Forward,1,L_LES,FM,M3,5.717481258434059
BMu42,P41,PAT,REL,Trunk_Forward,1,R_LES,FM,M1,4.703977564722412
BMu42,P41,PAT,REL,Trunk_Forward,1,R_LES,FM,M2,9.889643061944966
BMu42,P41,PAT,REL,Trunk_Forward,1,R_LES,FM,M3,6.427185454957489
BMu42,P42,PAT,INI,Trunk_Forward,1,L_LES,FM,M1,3.730820805439925
BMu42,P42,PAT,INI,Trunk_Forward,1,L_LES,FM,M2,1.8999880811158494
BMu42,P42,PAT,INI,Trunk_Forward,1,L_LES,FM,M3,4.437251134543376
BMu42,P42,PAT,INI,Trunk_Forward,1,R_LES,FM,M1,4.865435249247894
BMu42,P42,PAT,INI,Trunk_Forward,1,R_LES,FM,M2,5.448473742444744
BMu42,P42,PAT,INI,Trunk_Forward,1,R_LES,FM,M3,8.157413698730997
BMu42,P42,PAT,REL,Trunk_Forward,1,L_LES,FM,M1,1.3493016519727754
BMu42,P42,PAT,REL,Trunk_Forward,1,L_LES,FM,M2,2.434820109458298
BMu42,P42,PAT,REL,Trunk_Forward,1,L_LES,FM,M3,2.4634880548474176
BMu42,P42,PAT,REL,Trunk_Forward,1,R_LES,FM,M1,8.223656468644888
BMu42,P42,PAT,REL,Trunk_Forward,1,R_LES,FM,M2,7.995182903533736
BMu42,P42,PAT,REL,Trunk_Forward,1,R_LES,FM,M3,10.140908044039305
BMu42,P43,PAT,INI,Trunk_Forward,1,L_LES,FM,M1,5.99965138823373
BMu42,P43,PAT,INI,Trunk_Forward,1,L_LES,FM,M2,3.314315189658057
BMu42,P43,PAT,INI,Trunk_Forward,1,L_LES,FM,M3,1.569158299159102
BMu42,P43,PAT,INI,Trunk_Forward,1,R_LES,FM,M1,5.90992842559139
BMu42,P43,PAT,INI,Trunk_Forward,1,R_LES,FM,M2,2.695931728047254
BMu42,P43,PAT,INI,Trunk_Forward,1,R_LES,FM,M3,1.6039502460976387
BMu42,P43,PAT,REL,Trunk_Forward,1,L_LES,FM,M1,3.7472702380533844
BMu42,P43,PAT,REL,Trunk_Forward,1,L_LES,FM,M2,5.173600989513902
BMu42,P43,PAT,REL,Trunk_Forward,1,L_LES,FM,M3,6.574121323839981
BMu42,P43,PAT,REL,Trunk_Forward,1,R_LES,FM,M1,5.379233738170099
BMu42,P43,PAT,REL,Trunk_Forward,1,R_LES,FM,M2,1.8881641540560912
BMu42,P43,PAT,REL,Trunk_Forward,1,R_LES,FM,M3,1.0158959411912396
BMu42,P44,CTR,INI,Trunk_Forward,1,L_LES,FM,M1,7.700847343969763
BMu42,P44,CTR,INI,Trunk_Forward,1,L_LES,FM,M2,8.241404674471745
BMu42,P44,CTR,INI,Trunk_Forward,1,L_LES,FM,M3,7.983188496534486
BMu42,P44,CTR,INI,Trunk_Forward,1,R_LES,FM,M1,15.884048254180653
BMu42,P44,CTR,INI,Trunk_Forward,1,R_LES,FM,M2,13.634818309468038
BMu42,P44,CTR,INI,Trunk_Forward,1,R_LES,FM,M3,9.66721593782058
BMu42,P44,CTR,REL,Trunk_Forward,1,L_LES,FM,M1,5.837526481639105
BMu42,P44,CTR,REL,Trunk_Forward,1,L_LES,FM,M2,7.780501965993518
BMu42,P44,CTR,REL,Trunk_Forward,1,L_LES,FM,M3,5.299327839813903
BMu42,P44,CTR,REL,Trunk_Forward,1,R_LES,FM,M1,12.347236334222751
BMu42,P44,CTR,REL,Trunk_Forward,1,R_LES,FM,M2,12.933396911370387
BMu42,P44,CTR,REL,Trunk_Forward,1,R_LES,FM,M3,14.291853548687023
BMu42,P45,PAT,INI,Trunk_Forward,1,L_LES,FM,M1,10.438974045195568
BMu42,P45,PAT,INI,Trunk_Forward,1,L_LES,FM,M2,4.55538141496334
BMu42,P45,PAT,INI,Trunk_Forward,1,L_LES,FM,M3,17.436076662960048
BMu42,P45,PAT,INI,Trunk_Forward,1,R_LES,FM,M1,2.54858231832623
BMu42,P45,PAT,INI,Trunk_Forward,1,R_LES,FM,M2,2.2593095911362817
BMu42,P45,PAT,INI,Trunk_Forward,1,R_LES,FM,M3,3.2521070724084726
BMu42,P45,PAT,REL,Trunk_Forward,1,L_LES,FM,M1,6.170259164289282
BMu42,P45,PAT,REL,Trunk_Forward,1,L_LES,FM,M2,3.686092426205121
BMu42,P45,PAT,REL,Trunk_Forward,1,L_LES,FM,M3,2.604591054583216
BMu42,P45,PAT,REL,Trunk_Forward,1,R_LES,FM,M1,3.796085337279304
BMu42,P45,PAT,REL,Trunk_Forward,1,R_LES,FM,M2,2.7112243302435535
BMu42,P45,PAT,REL,Trunk_Forward,1,R_LES,FM,M3,2.8168424818446
BMu42,P46,CTR,INI,Trunk_Forward,1,L_LES,FM,M1,6.9818153638934195
BMu42,P46,CTR,INI,Trunk_Forward,1,L_LES,FM,M2,7.182315498592582
BMu42,P46,CTR,INI,Trunk_Forward,1,L_LES,FM,M3,11.717157559194467
BMu42,P46,CTR,INI,Trunk_Forward,1,R_LES,FM,M1,3.62948157491018
BMu42,P46,CTR,INI,Trunk_Forward,1,R_LES,FM,M2,4.270489120321759
BMu42,P46,CTR,INI,Trunk_Forward,1,R_LES,FM,M3,3.9155901815403302
BMu42,P46,CTR,REL,Trunk_Forward,1,L_LES,FM,M1,2.73909661807992
BMu42,P46,CTR,REL,Trunk_Forward,1,L_LES,FM,M2,3.3702082456934574
BMu42,P46,CTR,REL,Trunk_Forward,1,L_LES,FM,M3,2.5557138696620583
BMu42,P46,CTR,REL,Trunk_Forward,1,R_LES,FM,M1,3.2927347373732783
BMu42,P46,CTR,REL,Trunk_Forward,1,R_LES,FM,M2,3.6414978217897915
BMu42,P46,CTR,REL,Trunk_Forward,1,R_LES,FM,M3,2.070735811368264
BMu42,P47,PAT,INI,Trunk_Forward,1,L_LES,FM,M1,1.4345328752754325
BMu42,P47,PAT,INI,Trunk_Forward,1,L_LES,FM,M2,1.4028795607515205
BMu42,P47,PAT,INI,Trunk_Forward,1,L_LES,FM,M3,1.4302685515854519
BMu42,P47,PAT,INI,Trunk_Forward,1,R_LES,FM,M1,1.7763863355601295
BMu42,P47,PAT,INI,Trunk_Forward,1,R_LES,FM,M2,1.329517923428126
BMu42,P47,PAT,INI,Trunk_Forward,1,R_LES,FM,M3,1.3783228052848353
BMu42,P47,PAT,REL,Trunk_Forward,1,L_LES,FM,M1,1.7699872182110457
BMu42,P47,PAT,REL,Trunk_Forward,1,L_LES,FM,M2,1.5563992575313799
BMu42,P47,PAT,REL,Trunk_Forward,1,L_LES,FM,M3,1.4644738169373903
BMu42,P47,PAT,REL,Trunk_Forward,1,R_LES,FM,M1,2.7329120577622197
BMu42,P47,PAT,REL,Trunk_Forward,1,R_LES,FM,M2,2.1365949300575475
BMu42,P47,PAT,REL,Trunk_Forward,1,R_LES,FM,M3,1.8504769605498486
BMu42,P48,CTR,INI,Trunk_Forward,1,L_LES,FM,M1,10.464601292603183
BMu42,P48,CTR,INI,Trunk_Forward,1,L_LES,FM,M2,6.292841903444355
BMu42,P48,CTR,INI,Trunk_Forward,1,L_LES,FM,M3,5.570275208916858
BMu42,P48,CTR,INI,Trunk_Forward,1,R_LES,FM,M1,9.004511833206639
BMu42,P48,CTR,INI,Trunk_Forward,1,R_LES,FM,M2,10.672204238199567
BMu42,P48,CTR,INI,Trunk_Forward,1,R_LES,FM,M3,5.3650945075448675
BMu42,P48,CTR,REL,Trunk_Forward,1,L_LES,FM,M1,11.77907694105786
BMu42,P48,CTR,REL,Trunk_Forward,1,L_LES,FM,M2,9.807644937325886
BMu42,P48,CTR,REL,Trunk_Forward,1,L_LES,FM,M3,13.029883087327457
BMu42,P48,CTR,REL,Trunk_Forward,1,R_LES,FM,M1,8.402914109149302
BMu42,P48,CTR,REL,Trunk_Forward,1,R_LES,FM,M2,11.918811692028768
BMu42,P48,CTR,REL,Trunk_Forward,1,R_LES,FM,M3,12.689277148610762
BMu42,P49,CTR,INI,Trunk_Forward,1,L_LES,FM,M1,8.344890221405644
BMu42,P49,CTR,INI,Trunk_Forward,1,L_LES,FM,M2,11.165247948234295
BMu42,P49,CTR,INI,Trunk_Forward,1,L_LES,FM,M3,12.966020504802145
BMu42,P49,CTR,INI,Trunk_Forward,1,R_LES,FM,M1,11.852597673417419
BMu42,P49,CTR,INI,Trunk_Forward,1,R_LES,FM,M2,14.232792838985647
BMu42,P49,CTR,INI,Trunk_Forward,1,R_LES,FM,M3,13.346048350635058
BMu42,P49,CTR,REL,Trunk_Forward,1,L_LES,FM,M1,9.620946881588244
BMu42,P49,CTR,REL,Trunk_Forward,1,L_LES,FM,M2,6.325608809281024
BMu42,P49,CTR,REL,Trunk_Forward,1,L_LES,FM,M3,4.698999512209676
BMu42,P49,CTR,REL,Trunk_Forward,1,R_LES,FM,M1,14.189374307817507
BMu42,P49,CTR,REL,Trunk_Forward,1,R_LES,FM,M2,11.196787241596688
BMu42,P49,CTR,REL,Trunk_Forward,1,R_LES,FM,M3,11.81002712120743
BMu42,P50,PAT,INI,Trunk_Forward,1,L_LES,FM,M1,3.2222740459486077
BMu42,P50,PAT,INI,Trunk_Forward,1,L_LES,FM,M2,5.933840630830642
BMu42,P50,PAT,INI,Trunk_Forward,1,L_LES,FM,M3,
BMu42,P50,PAT,INI,Trunk_Forward,1,R_LES,FM,M1,3.941326083494565
BMu42,P50,PAT,INI,Trunk_Forward,1,R_LES,FM,M2,3.482920475520315
BMu42,P50,PAT,INI,Trunk_Forward,1,R_LES,FM,M3,
BMu42,P50,PAT,REL,Trunk_Forward,1,L_LES,FM,M1,1.4280720006911098
BMu42,P50,PAT,REL,Trunk_Forward,1,L_LES,FM,M2,1.361844500263341
BMu42,P50,PAT,REL,Trunk_Forward,1,L_LES,FM,M3,1.500860351820164
BMu42,P50,PAT,REL,Trunk_Forward,1,R_LES,FM,M1,1.366583755256874
BMu42,P50,PAT,REL,Trunk_Forward,1,R_LES,FM,M2,1.2114196071061174
BMu42,P50,PAT,REL,Trunk_Forward,1,R_LES,FM,M3,1.8067225032139345
BMu42,P51,PAT,INI,Trunk_Forward,1,L_LES,FM,M1,1.1674464041817945
BMu42,P51,PAT,INI,Trunk_Forward,1,L_LES,FM,M2,1.3895129293742854
BMu42,P51,PAT,INI,Trunk_Forward,1,L_LES,FM,M3,1.2461736065641416
BMu42,P51,PAT,INI,Trunk_Forward,1,R_LES,FM,M1,1.3263456121101285
BMu42,P51,PAT,INI,Trunk_Forward,1,R_LES,FM,M2,1.3356268940651754
BMu42,P51,PAT,INI,Trunk_Forward,1,R_LES,FM,M3,1.375371621524936
BMu42,P51,PAT,REL,Trunk_Forward,1,L_LES,FM,M1,1.6671294862014794
BMu42,P51,PAT,REL,Trunk_Forward,1,L_LES,FM,M2,1.602238546666753
BMu42,P51,PAT,REL,Trunk_Forward,1,L_LES,FM,M3,1.08286636778593
BMu42,P51,PAT,REL,Trunk_Forward,1,R_LES,FM,M1,1.7195567470101363
BMu42,P51,PAT,REL,Trunk_Forward,1,R_LES,FM,M2,1.7582725962522534
BMu42,P51,PAT,REL,Trunk_Forward,1,R_LES,FM,M3,3.3197416557638424
BMu42,P52,CTR,INI,Trunk_Forward,1,L_LES,FM,M1,11.231859059180161
BMu42,P52,CTR,INI,Trunk_Forward,1,L_LES,FM,M2,11.193238340901273
BMu42,P52,CTR,INI,Trunk_Forward,1,L_LES,FM,M3,6.4652989686814495
BMu42,P52,CTR,INI,Trunk_Forward,1,R_LES,FM,M1,4.196949037165035
BMu42,P52,CTR,INI,Trunk_Forward,1,R_LES,FM,M2,2.9454820678618043
BMu42,P52,CTR,INI,Trunk_Forward,1,R_LES,FM,M3,4.281344653361711
BMu42,P52,CTR,REL,Trunk_Forward,1,L_LES,FM,M1,7.215834221860173
BMu42,P52,CTR,REL,Trunk_Forward,1,L_LES,FM,M2,6.214776146302976
BMu42,P52,CTR,REL,Trunk_Forward,1,L_LES,FM,M3,7.01309728911822
BMu42,P52,CTR,REL,Trunk_Forward,1,R_LES,FM,M1,1.9462433711311198
BMu42,P52,CTR,REL,Trunk_Forward,1,R_LES,FM,M2,3.486027399976237
BMu42,P52,CTR,REL,Trunk_Forward,1,R_LES,FM,M3,3.8233305743464117
BMu42,P53,PAT,INI,Trunk_Forward,1,L_LES,FM,M1,1.1234371452108987
BMu42,P53,PAT,INI,Trunk_Forward,1,L_LES,FM,M2,1.1266022773413227
BMu42,P53,PAT,INI,Trunk_Forward,1,L_LES,FM,M3,
BMu42,P53,PAT,INI,Trunk_Forward,1,R_LES,FM,M1,1.099811457903448
BMu42,P53,PAT,INI,Trunk_Forward,1,R_LES,FM,M2,1.1583052495357338
BMu42,P53,PAT,INI,Trunk_Forward,1,R_LES,FM,M3,
BMu42,P53,PAT,REL,Trunk_Forward,1,L_LES,FM,M1,1.2264839878782767
BMu42,P53,PAT,REL,Trunk_Forward,1,L_LES,FM,M2,1.194485822273729
BMu42,P53,PAT,REL,Trunk_Forward,1,L_LES,FM,M3,1.382308049145116
BMu42,P53,PAT,REL,Trunk_Forward,1,R_LES,FM,M1,1.2449931221563284
BMu42,P53,PAT,REL,Trunk_Forward,1,R_LES,FM,M2,1.2189281550798265
BMu42,P53,PAT,REL,Trunk_Forward,1,R_LES,FM,M3,1.0738008141162523
BMu42,P54,PAT,INI,Trunk_Forward,1,L_LES,FM,M1,5.597733014302733
BMu42,P54,PAT,INI,Trunk_Forward,1,L_LES,FM,M2,7.363341213420732
BMu42,P54,PAT,INI,Trunk_Forward,1,L_LES,FM,M3,5.249758994554421
BMu42,P54,PAT,INI,Trunk_Forward,1,R_LES,FM,M1,3.734356343493435
BMu42,P54,PAT,INI,Trunk_Forward,1,R_LES,FM,M2,4.991033092107614
BMu42,P54,PAT,INI,Trunk_Forward,1,R_LES,FM,M3,4.453527264332247
BMu42,P54,PAT,REL,Trunk_Forward,1,L_LES,FM,M1,8.657767136349168
BMu42,P54,PAT,REL,Trunk_Forward,1,L_LES,FM,M2,11.995617988729368
BMu42,P54,PAT,REL,Trunk_Forward,1,L_LES,FM,M3,9.872323110389432
BMu42,P54,PAT,REL,Trunk_Forward,1,R_LES,FM,M1,6.203290919108031
BMu42,P54,PAT,REL,Trunk_Forward,1,R_LES,FM,M2,8.148403403227219
BMu42,P54,PAT,REL,Trunk_Forward,1,R_LES,FM,M3,7.550881600410975
BMu42,P55,CTR,INI,Trunk_Forward,1,L_LES,FM,M1,4.951680250576331
BMu42,P55,CTR,INI,Trunk_Forward,1,L_LES,FM,M2,11.00182587393541
BMu42,P55,CTR,INI,Trunk_Forward,1,L_LES,FM,M3,11.62619572359701
BMu42,P55,CTR,INI,Trunk_Forward,1,R_LES,FM,M1,4.02952010021589
BMu42,P55,CTR,INI,Trunk_Forward,1,R_LES,FM,M2,5.1421699310513915
BMu42,P55,CTR,INI,Trunk_Forward,1,R_LES,FM,M3,6.033112923781024
BMu42,P55,CTR,REL,Trunk_Forward,1,L_LES,FM,M1,4.051131890830798
BMu42,P55,CTR,REL,Trunk_Forward,1,L_LES,FM,M2,15.849372134700184
BMu42,P55,CTR,REL,Trunk_Forward,1,L_LES,FM,M3,10.752313857619706
BMu42,P55,CTR,REL,Trunk_Forward,1,R_LES,FM,M1,3.902810982836975
BMu42,P55,CTR,REL,Trunk_Forward,1,R_LES,FM,M2,6.6762268541462655
BMu42,P55,CTR,REL,Trunk_Forward,1,R_LES,FM,M3,5.9796111858735745
BMu42,P56,CTR,INI,Trunk_Forward,1,L_LES,FM,M1,2.3850770142475803
BMu42,P56,CTR,INI,Trunk_Forward,1,L_LES,FM,M2,2.6172132644074804
BMu42,P56,CTR,INI,Trunk_Forward,1,L_LES,FM,M3,2.99244506403175
BMu42,P56,CTR,INI,Trunk_Forward,1,R_LES,FM,M1,2.2826358403701144
BMu42,P56,CTR,INI,Trunk_Forward,1,R_LES,FM,M2,4.382176432163494
BMu42,P56,CTR,INI,Trunk_Forward,1,R_LES,FM,M3,5.175404803535683
BMu42,P56,CTR,REL,Trunk_Forward,1,L_LES,FM,M1,1.5342291982583505
BMu42,P56,CTR,REL,Trunk_Forward,1,L_LES,FM,M2,1.7842027555316944
BMu42,P56,CTR,REL,Trunk_Forward,1,L_LES,FM,M3,2.298223396592245
BMu42,P56,CTR,REL,Trunk_Forward,1,R_LES,FM,M1,1.4816201395241146
BMu42,P56,CTR,REL,Trunk_Forward,1,R_LES,FM,M2,3.385405855573105
BMu42,P56,CTR,REL,Trunk_Forward,1,R_LES,FM,M3,3.2396778412996663
BMu42,P57,CTR,INI,Trunk_Forward,1,L_LES,FM,M1,2.888145331010437
BMu42,P57,CTR,INI,Trunk_Forward,1,L_LES,FM,M2,4.458475245103603
BMu42,P57,CTR,INI,Trunk_Forward,1,L_LES,FM,M3,25.204812035113573
BMu42,P57,CTR,INI,Trunk_Forward,1,R_LES,FM,M1,2.984478653902955
BMu42,P57,CTR,INI,Trunk_Forward,1,R_LES,FM,M2,6.379691575890107
BMu42,P57,CTR,INI,Trunk_Forward,1,R_LES,FM,M3,3.207418422505453
BMu42,P57,CTR,REL,Trunk_Forward,1,L_LES,FM,M1,17.60544859576442
BMu42,P57,CTR,REL,Trunk_Forward,1,L_LES,FM,M2,43.28571182608618
BMu42,P57,CTR,REL,Trunk_Forward,1,L_LES,FM,M3,77.91376533875733
BMu42,P57,CTR,REL,Trunk_Forward,1,R_LES,FM,M1,2.9667432122540753
BMu42,P57,CTR,REL,Trunk_Forward,1,R_LES,FM,M2,3.604497479255717
BMu42,P57,CTR,REL,Trunk_Forward,1,R_LES,FM,M3,4.307090023655708
BMu42,P58,PAT,INI,Trunk_Forward,1,L_LES,FM,M1,1.9134326090482814
BMu42,P58,PAT,INI,Trunk_Forward,1,L_LES,FM,M2,1.0779721338584674
BMu42,P58,PAT,INI,Trunk_Forward,1,L_LES,FM,M3,1.2220418557165358
BMu42,P58,PAT,INI,Trunk_Forward,1,R_LES,FM,M1,1.5953384688579713
BMu42,P58,PAT,INI,Trunk_Forward,1,R_LES,FM,M2,1.5946689427244536
BMu42,P58,PAT,INI,Trunk_Forward,1,R_LES,FM,M3,1.6400575174509315
BMu42,P58,PAT,REL,Trunk_Forward,1,L_LES,FM,M1,7.448001018723426
BMu42,P58,PAT,REL,Trunk_Forward,1,L_LES,FM,M2,19.99996648006437
BMu42,P58,PAT,REL,Trunk_Forward,1,L_LES,FM,M3,27.17422123291059
BMu42,P58,PAT,REL,Trunk_Forward,1,R_LES,FM,M1,0.8850407221486011
BMu42,P58,PAT,REL,Trunk_Forward,1,R_LES,FM,M2,1.7525508490431556
BMu42,P58,PAT,REL,Trunk_Forward,1,R_LES,FM,M3,1.5835150700815435
BMu42,P60,CTR,INI,Trunk_Forward,1,L_LES,FM,M1,2.3497302140113216
BMu42,P60,CTR,INI,Trunk_Forward,1,L_LES,FM,M2,3.7905218163355627
BMu42,P60,CTR,INI,Trunk_Forward,1,L_LES,FM,M3,2.41259057808383
BMu42,P60,CTR,INI,Trunk_Forward,1,R_LES,FM,M1,1.932774457432683
BMu42,P60,CTR,INI,Trunk_Forward,1,R_LES,FM,M2,2.885662044307366
BMu42,P60,CTR,INI,Trunk_Forward,1,R_LES,FM,M3,6.930418307806405
BMu42,P60,CTR,REL,Trunk_Forward,1,L_LES,FM,M1,1.6982182948441082
BMu42,P60,CTR,REL,Trunk_Forward,1,L_LES,FM,M2,1.144950036418236
BMu42,P60,CTR,REL,Trunk_Forward,1,L_LES,FM,M3,1.7707541026631357
BMu42,P60,CTR,REL,Trunk_Forward,1,R_LES,FM,M1,1.2043352777816325
BMu42,P60,CTR,REL,Trunk_Forward,1,R_LES,FM,M2,1.7192950829585285
BMu42,P60,CTR,REL,Trunk_Forward,1,R_LES,FM,M3,2.43852224269763
BMu42,P61,PAT,INI,Trunk_Forward,1,L_LES,FM,M1,11.414048311641737
BMu42,P61,PAT,INI,Trunk_Forward,1,L_LES,FM,M2,12.310559513188668
BMu42,P61,PAT,INI,Trunk_Forward,1,L_LES,FM,M3,5.52884340112853
BMu42,P61,PAT,INI,Trunk_Forward,1,R_LES,FM,M1,9.154077249682102
BMu42,P61,PAT,INI,Trunk_Forward,1,R_LES,FM,M2,10.361378323160995
BMu42,P61,PAT,INI,Trunk_Forward,1,R_LES,FM,M3,7.917400072054095
BMu42,P61,PAT,REL,Trunk_Forward,1,L_LES,FM,M1,11.506789903777916
BMu42,P61,PAT,REL,Trunk_Forward,1,L_LES,FM,M2,12.311047222763856
BMu42,P61,PAT,REL,Trunk_Forward,1,L_LES,FM,M3,10.942629482094677
BMu42,P61,PAT,REL,Trunk_Forward,1,R_LES,FM,M1,6.617286238202554
BMu42,P61,PAT,REL,Trunk_Forward,1,R_LES,FM,M2,8.43668880181511
BMu42,P61,PAT,REL,Trunk_Forward,1,R_LES,FM,M3,7.925407991684167
BMu42,P62,PAT,INI,Trunk_Forward,1,L_LES,FM,M1,1.073988852439724
BMu42,P62,PAT,INI,Trunk_Forward,1,L_LES,FM,M2,2.4863539452520826
BMu42,P62,PAT,INI,Trunk_Forward,1,L_LES,FM,M3,1.211686244310709
BMu42,P62,PAT,INI,Trunk_Forward,1,R_LES,FM,M1,1.5062839256879652
BMu42,P62,PAT,INI,Trunk_Forward,1,R_LES,FM,M2,3.594289197583262
BMu42,P62,PAT,INI,Trunk_Forward,1,R_LES,FM,M3,1.3820806299627164
BMu42,P62,PAT,REL,Trunk_Forward,1,L_LES,FM,M1,2.9354920485885776
BMu42,P62,PAT,REL,Trunk_Forward,1,L_LES,FM,M2,4.824655677229401
BMu42,P62,PAT,REL,Trunk_Forward,1,L_LES,FM,M3,4.435119611461102
BMu42,P62,PAT,REL,Trunk_Forward,1,R_LES,FM,M1,2.4589060224391575
BMu42,P62,PAT,REL,Trunk_Forward,1,R_LES,FM,M2,1.992181764040054
BMu42,P62,PAT,REL,Trunk_Forward,1,R_LES,FM,M3,1.6401773024734814
BMu42,P63,PAT,INI,Trunk_Forward,1,L_LES,FM,M1,8.006453883616086
BMu42,P63,PAT,INI,Trunk_Forward,1,L_LES,FM,M2,19.754913060980737
BMu42,P63,PAT,INI,Trunk_Forward,1,L_LES,FM,M3,22.30897407720219
BMu42,P63,PAT,INI,Trunk_Forward,1,R_LES,FM,M1,6.246868853802415
BMu42,P63,PAT,INI,Trunk_Forward,1,R_LES,FM,M2,9.564692267775246
BMu42,P63,PAT,INI,Trunk_Forward,1,R_LES,FM,M3,4.664647111903564
BMu42,P63,PAT,REL,Trunk_Forward,1,L_LES,FM,M1,15.042067840499394
BMu42,P63,PAT,REL,Trunk_Forward,1,L_LES,FM,M2,10.878477476853085
BMu42,P63,PAT,REL,Trunk_Forward,1,L_LES,FM,M3,2.8150092668457556
BMu42,P63,PAT,REL,Trunk_Forward,1,R_LES,FM,M1,11.993218633970637
BMu42,P63,PAT,REL,Trunk_Forward,1,R_LES,FM,M2,10.004093774370503
BMu42,P63,PAT,REL,Trunk_Forward,1,R_LES,FM,M3,4.903111050173262
BMu42,P64,CTR,INI,Trunk_Forward,1,L_LES,FM,M1,3.98928590820497
BMu42,P64,CTR,INI,Trunk_Forward,1,L_LES,FM,M2,5.006550820101363
BMu42,P64,CTR,INI,Trunk_Forward,1,L_LES,FM,M3,7.560622263268808
BMu42,P64,CTR,INI,Trunk_Forward,1,R_LES,FM,M1,5.73832892189735
BMu42,P64,CTR,INI,Trunk_Forward,1,R_LES,FM,M2,5.744718722902953
BMu42,P64,CTR,INI,Trunk_Forward,1,R_LES,FM,M3,9.950770742570958
BMu42,P64,CTR,REL,Trunk_Forward,1,L_LES,FM,M1,4.260202874375234
BMu42,P64,CTR,REL,Trunk_Forward,1,L_LES,FM,M2,5.44550827764051
BMu42,P64,CTR,REL,Trunk_Forward,1,L_LES,FM,M3,8.840676264633764
BMu42,P64,CTR,REL,Trunk_Forward,1,R_LES,FM,M1,3.739096715077809
BMu42,P64,CTR,REL,Trunk_Forward,1,R_LES,FM,M2,6.669325550633444
BMu42,P64,CTR,REL,Trunk_Forward,1,R_LES,FM,M3,4.712789556654494
BMu42,P65,PAT,INI,Trunk_Forward,1,L_LES,FM,M1,3.456093612484469
BMu42,P65,PAT,INI,Trunk_Forward,1,L_LES,FM,M2,7.734902453001754
BMu42,P65,PAT,INI,Trunk_Forward,1,L_LES,FM,M3,9.052712091796497
BMu42,P65,PAT,INI,Trunk_Forward,1,R_LES,FM,M1,5.314498321687847
BMu42,P65,PAT,INI,Trunk_Forward,1,R_LES,FM,M2,6.068029233824384
BMu42,P65,PAT,INI,Trunk_Forward,1,R_LES,FM,M3,6.857114314229572
BMu42,P65,PAT,REL,Trunk_Forward,1,L_LES,FM,M1,3.583474076991297
BMu42,P65,PAT,REL,Trunk_Forward,1,L_LES,FM,M2,5.775772531146419
BMu42,P65,PAT,REL,Trunk_Forward,1,L_LES,FM,M3,6.878536634246258
BMu42,P65,PAT,REL,Trunk_Forward,1,R_LES,FM,M1,5.24595634853546
BMu42,P65,PAT,REL,Trunk_Forward,1,R_LES,FM,M2,5.741889263685991
BMu42,P65,PAT,REL,Trunk_Forward,1,R_LES,FM,M3,5.450431268715809
BMu42,P66,CTR,INI,Trunk_Forward,1,L_LES,FM,M1,4.271919313785128
BMu42,P66,CTR,INI,Trunk_Forward,1,L_LES,FM,M2,6.189648866331087
BMu42,P66,CTR,INI,Trunk_Forward,1,L_LES,FM,M3,5.696815972363746
BMu42,P66,CTR,INI,Trunk_Forward,1,R_LES,FM,M1,4.654619615589649
BMu42,P66,CTR,INI,Trunk_Forward,1,R_LES,FM,M2,7.744390622108826
BMu42,P66,CTR,INI,Trunk_Forward,1,R_LES,FM,M3,5.1182724325723
BMu42,P66,CTR,REL,Trunk_Forward,1,L_LES,FM,M1,2.0856855659711644
BMu42,P66,CTR,REL,Trunk_Forward,1,L_LES,FM,M2,5.89062703396236
BMu42,P66,CTR,REL,Trunk_Forward,1,L_LES,FM,M3,3.0473101321768463
BMu42,P66,CTR,REL,Trunk_Forward,1,R_LES,FM,M1,3.742518296892042
BMu42,P66,CTR,REL,Trunk_Forward,1,R_LES,FM,M2,5.372439686719649
BMu42,P66,CTR,REL,Trunk_Forward,1,R_LES,FM,M3,4.608579202154959
BMu42,P67,CTR,INI,Trunk_Forward,1,L_LES,FM,M1,13.298897902786631
BMu42,P67,CTR,INI,Trunk_Forward,1,L_LES,FM,M2,8.851459763139108
BMu42,P67,CTR,INI,Trunk_Forward,1,L_LES,FM,M3,16.329057138331635
BMu42,P67,CTR,INI,Trunk_Forward,1,R_LES,FM,M1,8.633909582319433
BMu42,P67,CTR,INI,Trunk_Forward,1,R_LES,FM,M2,10.579224375511773
BMu42,P67,CTR,INI,Trunk_Forward,1,R_LES,FM,M3,4.398839723395729
BMu42,P67,CTR,REL,Trunk_Forward,1,L_LES,FM,M1,25.634313001292348
BMu42,P67,CTR,REL,Trunk_Forward,1,L_LES,FM,M2,24.05369022516354
BMu42,P67,CTR,REL,Trunk_Forward,1,L_LES,FM,M3,12.386382062791135
BMu42,P67,CTR,REL,Trunk_Forward,1,R_LES,FM,M1,10.366442354819998
BMu42,P67,CTR,REL,Trunk_Forward,1,R_LES,FM,M2,11.434664977297867
BMu42,P67,CTR,REL,Trunk_Forward,1,R_LES,FM,M3,9.633186592595132
BMu42,P68,CTR,INI,Trunk_Forward,1,L_LES,FM,M1,2.817541731683797
BMu42,P68,CTR,INI,Trunk_Forward,1,L_LES,FM,M2,4.997732588535832
BMu42,P68,CTR,INI,Trunk_Forward,1,L_LES,FM,M3,6.1103975235844
BMu42,P68,CTR,INI,Trunk_Forward,1,R_LES,FM,M1,1.3041870748108775
BMu42,P68,CTR,INI,Trunk_Forward,1,R_LES,FM,M2,1.4298244940634108
BMu42,P68,CTR,INI,Trunk_Forward,1,R_LES,FM,M3,1.5730825763800618
BMu42,P68,CTR,REL,Trunk_Forward,1,L_LES,FM,M1,3.552318816985518
BMu42,P68,CTR,REL,Trunk_Forward,1,L_LES,FM,M2,4.264560471933972
BMu42,P68,CTR,REL,Trunk_Forward,1,L_LES,FM,M3,9.435427444535254
BMu42,P68,CTR,REL,Trunk_Forward,1,L_LES,FM,M4,6.689863847361628
BMu42,P68,CTR,REL,Trunk_Forward,1,R_LES,FM,M1,2.191744737245143
BMu42,P68,CTR,REL,Trunk_Forward,1,R_LES,FM,M2,1.5608667743082925
BMu42,P68,CTR,REL,Trunk_Forward,1,R_LES,FM,M3,3.0890500438685757
BMu42,P68,CTR,REL,Trunk_Forward,1,R_LES,FM,M4,2.7767840055609327
