BMu,Participant,Group,Session,task,trials,channel,Operator,Measure,Value
BMu43,P01,CTR,INI,Trunk_Forward,1,L_LES,FM,M1,3.700531712877821
BMu43,P01,CTR,INI,Trunk_Forward,1,L_LES,FM,M2,2.7460370673491306
BMu43,P01,CTR,INI,Trunk_Forward,1,L_LES,FM,M3,2.915127484774106
BMu43,P01,CTR,INI,Trunk_Forward,1,R_LES,FM,M1,2.003403757016604
BMu43,P01,CTR,INI,Trunk_Forward,1,R_LES,FM,M2,2.276921745467301
BMu43,P01,CTR,INI,Trunk_Forward,1,R_LES,FM,M3,1.7089937030447369
BMu43,P01,CTR,REL,Trunk_Forward,1,L_LES,FM,M1,5.921231789018605
BMu43,P01,CTR,REL,Trunk_Forward,1,L_LES,FM,M2,3.5486075506311874
BMu43,P01,CTR,REL,Trunk_Forward,1,L_LES,FM,M3,6.218351872237671
BMu43,P01,CTR,REL,Trunk_Forward,1,R_LES,FM,M1,1.4662774572079864
BMu43,P01,CTR,REL,Trunk_Forward,1,R_LES,FM,M2,16.376318994444002
BMu43,P01,CTR,REL,Trunk_Forward,1,R_LES,FM,M3,6.732282839826535
BMu43,P02,CTR,INI,Trunk_Forward,1,L_LES,FM,M1,1.0726427246438757
BMu43,P02,CTR,INI,Trunk_Forward,1,L_LES,FM,M2,1.2047840846022573
BMu43,P02,CTR,INI,Trunk_Forward,1,L_LES,FM,M3,1.978865759408302
BMu43,P02,CTR,INI,Trunk_Forward,1,R_LES,FM,M1,1.2409676429874676
BMu43,P02,CTR,INI,Trunk_Forward,1,R_LES,FM,M2,1.2720952190472405
BMu43,P02,CTR,INI,Trunk_Forward,1,R_LES,FM,M3,1.662772273868903
BMu43,P02,CTR,REL,Trunk_Forward,1,L_LES,FM,M1,1.4476348652209197
BMu43,P02,CTR,REL,Trunk_Forward,1,L_LES,FM,M2,1.5583669997056881
BMu43,P02,CTR,REL,Trunk_Forward,1,L_LES,FM,M3,1.2910203464758956
BMu43,P02,CTR,REL,Trunk_Forward,1,R_LES,FM,M1,1.13299584921829
BMu43,P02,CTR,REL,Trunk_Forward,1,R_LES,FM,M2,1.1372423170932344
BMu43,P02,CTR,REL,Trunk_Forward,1,R_LES,FM,M3,1.202034706644099
BMu43,P03,CTR,INI,Trunk_Forward,1,L_LES,FM,M1,1.050964721618118
BMu43,P03,CTR,INI,Trunk_Forward,1,L_LES,FM,M2,1.0171089063658463
BMu43,P03,CTR,INI,Trunk_Forward,1,L_LES,FM,M3,1.0864090334982135
BMu43,P03,CTR,INI,Trunk_Forward,1,R_LES,FM,M1,1.1325649532245956
BMu43,P03,CTR,INI,Trunk_Forward,1,R_LES,FM,M2,1.02195039863711
BMu43,P03,CTR,INI,Trunk_Forward,1,R_LES,FM,M3,1.1105274327175731
BMu43,P03,CTR,REL,Trunk_Forward,1,L_LES,FM,M1,0.10616363279885499
BMu43,P03,CTR,REL,Trunk_Forward,1,L_LES,FM,M2,1.5746443680905746
BMu43,P03,CTR,REL,Trunk_Forward,1,L_LES,FM,M3,2.4249953452323068
BMu43,P03,CTR,REL,Trunk_Forward,1,R_LES,FM,M1,0.9858496324292599
BMu43,P03,CTR,REL,Trunk_Forward,1,R_LES,FM,M2,0.9873690359441671
BMu43,P03,CTR,REL,Trunk_Forward,1,R_LES,FM,M3,1.035742345110738
BMu43,P05,CTR,INI,Trunk_Forward,1,L_LES,FM,M1,1.071227835527995
BMu43,P05,CTR,INI,Trunk_Forward,1,L_LES,FM,M2,2.1770508000281406
BMu43,P05,CTR,INI,Trunk_Forward,1,L_LES,FM,M3,1.8242507686576768
BMu43,P05,CTR,INI,Trunk_Forward,1,R_LES,FM,M1,1.0484482047111539
BMu43,P05,CTR,INI,Trunk_Forward,1,R_LES,FM,M2,1.0903243413456647
BMu43,P05,CTR,INI,Trunk_Forward,1,R_LES,FM,M3,1.224079378539432
BMu43,P05,CTR,REL,Trunk_Forward,1,L_LES,FM,M1,0.3970362462849105
BMu43,P05,CTR,REL,Trunk_Forward,1,L_LES,FM,M2,1.0284808049710272
BMu43,P05,CTR,REL,Trunk_Forward,1,L_LES,FM,M3,3.216028907476201
BMu43,P05,CTR,REL,Trunk_Forward,1,L_LES,FM,M4,1.462194795832357
BMu43,P05,CTR,REL,Trunk_Forward,1,R_LES,FM,M1,0.267765181786926
BMu43,P05,CTR,REL,Trunk_Forward,1,R_LES,FM,M2,0.9368712227137388
BMu43,P05,CTR,REL,Trunk_Forward,1,R_LES,FM,M3,1.1024649562928899
BMu43,P05,CTR,REL,Trunk_Forward,1,R_LES,FM,M4,1.172562200051528
BMu43,P06,CTR,INI,Trunk_Forward,1,L_LES,FM,M1,0.6956267544074636
BMu43,P06,CTR,INI,Trunk_Forward,1,L_LES,FM,M2,0.9677950419455106
BMu43,P06,CTR,INI,Trunk_Forward,1,L_LES,FM,M3,1.2164865805091114
BMu43,P06,CTR,INI,Trunk_Forward,1,L_LES,FM,M4,
BMu43,P06,CTR,INI,Trunk_Forward,1,L_LES,FM,M5,
BMu43,P06,CTR,INI,Trunk_Forward,1,R_LES,FM,M1,0.9913201482154612
BMu43,P06,CTR,INI,Trunk_Forward,1,R_LES,FM,M2,1.7918341826168023
BMu43,P06,CTR,INI,Trunk_Forward,1,R_LES,FM,M3,3.477045460528368
BMu43,P06,CTR,INI,Trunk_Forward,1,R_LES,FM,M4,
BMu43,P06,CTR,INI,Trunk_Forward,1,R_LES,FM,M5,
BMu43,P06,CTR,REL,Trunk_Forward,1,L_LES,FM,M1,0.7285340051711067
BMu43,P06,CTR,REL,Trunk_Forward,1,L_LES,FM,M2,0.8369185548410527
BMu43,P06,CTR,REL,Trunk_Forward,1,L_LES,FM,M3,0.9291728901147118
BMu43,P06,CTR,REL,Trunk_Forward,1,R_LES,FM,M1,0.8418126332375049
BMu43,P06,CTR,REL,Trunk_Forward,1,R_LES,FM,M2,1.0790382900156497
BMu43,P06,CTR,REL,Trunk_Forward,1,R_LES,FM,M3,1.2819017265089683
BMu43,P07,CTR,INI,Trunk_Forward,1,L_LES,FM,M1,1.3492553342464448
BMu43,P07,CTR,INI,Trunk_Forward,1,L_LES,FM,M2,2.8184575352106345
BMu43,P07,CTR,INI,Trunk_Forward,1,L_LES,FM,M3,4.066969200382551
BMu43,P07,CTR,INI,Trunk_Forward,1,R_LES,FM,M1,1.4681306457630472
BMu43,P07,CTR,INI,Trunk_Forward,1,R_LES,FM,M2,0.7288526238490565
BMu43,P07,CTR,INI,Trunk_Forward,1,R_LES,FM,M3,1.41671643620234
BMu43,P07,CTR,REL,Trunk_Forward,1,L_LES,FM,M1,1.9014530798414364
BMu43,P07,CTR,REL,Trunk_Forward,1,L_LES,FM,M2,6.320294154712058
BMu43,P07,CTR,REL,Trunk_Forward,1,L_LES,FM,M3,9.151197970395792
BMu43,P07,CTR,REL,Trunk_Forward,1,R_LES,FM,M1,2.012113809561824
BMu43,P07,CTR,REL,Trunk_Forward,1,R_LES,FM,M2,1.4729501276549481
BMu43,P07,CTR,REL,Trunk_Forward,1,R_LES,FM,M3,1.7004194134316277
BMu43,P08,CTR,INI,Trunk_Forward,1,L_LES,FM,M1,1.0931750359802854
BMu43,P08,CTR,INI,Trunk_Forward,1,L_LES,FM,M2,1.4412717136353417
BMu43,P08,CTR,INI,Trunk_Forward,1,L_LES,FM,M3,1.1547067162890303
BMu43,P08,CTR,INI,Trunk_Forward,1,R_LES,FM,M1,0.9456032330039176
BMu43,P08,CTR,INI,Trunk_Forward,1,R_LES,FM,M2,1.140287552719455
BMu43,P08,CTR,INI,Trunk_Forward,1,R_LES,FM,M3,1.4528488794844079
BMu43,P08,CTR,REL,Trunk_Forward,1,L_LES,FM,M1,2.1214039241721947
BMu43,P08,CTR,REL,Trunk_Forward,1,L_LES,FM,M2,1.3487334398209498
BMu43,P08,CTR,REL,Trunk_Forward,1,L_LES,FM,M3,4.813889234011359
BMu43,P08,CTR,REL,Trunk_Forward,1,R_LES,FM,M1,1.1663548191712712
BMu43,P08,CTR,REL,Trunk_Forward,1,R_LES,FM,M2,1.0698268592855424
BMu43,P08,CTR,REL,Trunk_Forward,1,R_LES,FM,M3,1.6405047415000078
BMu43,P09,PAT,INI,Trunk_Forward,1,L_LES,FM,M1,1.44140394929511
BMu43,P09,PAT,INI,Trunk_Forward,1,L_LES,FM,M2,3.9169791895205233
BMu43,P09,PAT,INI,Trunk_Forward,1,L_LES,FM,M3,5.457365368382647
BMu43,P09,PAT,INI,Trunk_Forward,1,L_LES,FM,M4,
BMu43,P09,PAT,INI,Trunk_Forward,1,L_LES,FM,M5,
BMu43,P09,PAT,INI,Trunk_Forward,1,R_LES,FM,M1,0.9341829393523197
BMu43,P09,PAT,INI,Trunk_Forward,1,R_LES,FM,M2,1.7211309359980465
BMu43,P09,PAT,INI,Trunk_Forward,1,R_LES,FM,M3,4.204962685081511
BMu43,P09,PAT,INI,Trunk_Forward,1,R_LES,FM,M4,
BMu43,P09,PAT,INI,Trunk_Forward,1,R_LES,FM,M5,
BMu43,P09,PAT,REL,Trunk_Forward,1,L_LES,FM,M1,1.9618394957042222
BMu43,P09,PAT,REL,Trunk_Forward,1,L_LES,FM,M2,4.323459578901346
BMu43,P09,PAT,REL,Trunk_Forward,1,L_LES,FM,M3,5.764541743782641
BMu43,P09,PAT,REL,Trunk_Forward,1,R_LES,FM,M1,1.2563611663682874
BMu43,P09,PAT,REL,Trunk_Forward,1,R_LES,FM,M2,2.7859245531562986
BMu43,P09,PAT,REL,Trunk_Forward,1,R_LES,FM,M3,3.8145928439993075
BMu43,P10,PAT,INI,Trunk_Forward,1,L_LES,FM,M1,0.4377854438082813
BMu43,P10,PAT,INI,Trunk_Forward,1,L_LES,FM,M2,1.6102828934922349
BMu43,P10,PAT,INI,Trunk_Forward,1,L_LES,FM,M3,1.538844528342145
BMu43,P10,PAT,INI,Trunk_Forward,1,R_LES,FM,M1,1.7308592502769975
BMu43,P10,PAT,INI,Trunk_Forward,1,R_LES,FM,M2,3.576839931109078
BMu43,P10,PAT,INI,Trunk_Forward,1,R_LES,FM,M3,3.309210445533092
BMu43,P10,PAT,REL,Trunk_Forward,1,L_LES,FM,M1,0.3261970234920478
BMu43,P10,PAT,REL,Trunk_Forward,1,L_LES,FM,M2,0.9491010952029579
BMu43,P10,PAT,REL,Trunk_Forward,1,L_LES,FM,M3,1.582692211221987
BMu43,P10,PAT,REL,Trunk_Forward,1,R_LES,FM,M1,1.1252455212646058
BMu43,P10,PAT,REL,Trunk_Forward,1,R_LES,FM,M2,1.842826745210384
BMu43,P10,PAT,REL,Trunk_Forward,1,R_LES,FM,M3,3.300757272905024
BMu43,P11,PAT,INI,Trunk_Forward,1,L_LES,FM,M1,4.556191098767642
BMu43,P11,PAT,INI,Trunk_Forward,1,L_LES,FM,M2,7.935550358747902
BMu43,P11,PAT,INI,Trunk_Forward,1,L_LES,FM,M3,7.29583405460646
BMu43,P11,PAT,INI,Trunk_Forward,1,R_LES,FM,M1,1.5611170994605204
BMu43,P11,PAT,INI,Trunk_Forward,1,R_LES,FM,M2,1.888271405982457
BMu43,P11,PAT,INI,Trunk_Forward,1,R_LES,FM,M3,1.2720845509813845
BMu43,P11,PAT,REL,Trunk_Forward,1,L_LES,FM,M1,12.347362209240375
BMu43,P11,PAT,REL,Trunk_Forward,1,L_LES,FM,M2,8.96467601434231
BMu43,P11,PAT,REL,Trunk_Forward,1,L_LES,FM,M3,11.639886230191337
BMu43,P11,PAT,REL,Trunk_Forward,1,R_LES,FM,M1,3.679371197843705
BMu43,P11,PAT,REL,Trunk_Forward,1,R_LES,FM,M2,3.555826546829557
BMu43,P11,PAT,REL,Trunk_Forward,1,R_LES,FM,M3,4.215093445433882
BMu43,P12,PAT,INI,Trunk_Forward,1,L_LES,FM,M1,1.4082590049937642
BMu43,P12,PAT,INI,Trunk_Forward,1,L_LES,FM,M2,0.8546046787877339
BMu43,P12,PAT,INI,Trunk_Forward,1,L_LES,FM,M3,0.5615553932150069
BMu43,P12,PAT,INI,Trunk_Forward,1,R_LES,FM,M1,1.0134214882808747
BMu43,P12,PAT,INI,Trunk_Forward,1,R_LES,FM,M2,1.2747140499455603
BMu43,P12,PAT,INI,Trunk_Forward,1,R_LES,FM,M3,0.780815498027595
BMu43,P12,PAT,REL,Trunk_Forward,1,L_LES,FM,M1,0.9701231593952996
BMu43,P12,PAT,REL,Trunk_Forward,1,L_LES,FM,M2,0.6685557866441754
BMu43,P12,PAT,REL,Trunk_Forward,1,L_LES,FM,M3,0.7737624865221012
BMu43,P12,PAT,REL,Trunk_Forward,1,R_LES,FM,M1,0.9113630210581161
BMu43,P12,PAT,REL,Trunk_Forward,1,R_LES,FM,M2,1.428023433776997
BMu43,P12,PAT,REL,Trunk_Forward,1,R_LES,FM,M3,1.7042003352883068
BMu43,P13,CTR,INI,Trunk_Forward,1,L_LES,FM,M1,0.6677025837162636
BMu43,P13,CTR,INI,Trunk_Forward,1,L_LES,FM,M2,0.7143854937298942
BMu43,P13,CTR,INI,Trunk_Forward,1,L_LES,FM,M3,0.9294639231979193
BMu43,P13,CTR,INI,Trunk_Forward,1,R_LES,FM,M1,0.8396365043684081
BMu43,P13,CTR,INI,Trunk_Forward,1,R_LES,FM,M2,1.0421539680494818
BMu43,P13,CTR,INI,Trunk_Forward,1,R_LES,FM,M3,0.9285363074603604
BMu43,P13,CTR,REL,Trunk_Forward,1,L_LES,FM,M1,0.24886938159168193
BMu43,P13,CTR,REL,Trunk_Forward,1,L_LES,FM,M2,0.3621451234417856
BMu43,P13,CTR,REL,Trunk_Forward,1,L_LES,FM,M3,0.5662272614426217
BMu43,P13,CTR,REL,Trunk_Forward,1,R_LES,FM,M1,0.1961182038583539
BMu43,P13,CTR,REL,Trunk_Forward,1,R_LES,FM,M2,0.4060346877710452
BMu43,P13,CTR,REL,Trunk_Forward,1,R_LES,FM,M3,0.737939759616136
BMu43,P14,PAT,INI,Trunk_Forward,1,L_LES,FM,M1,0.8278441852758825
BMu43,P14,PAT,INI,Trunk_Forward,1,L_LES,FM,M2,0.6833795094965103
BMu43,P14,PAT,INI,Trunk_Forward,1,L_LES,FM,M3,0.7209631353640938
BMu43,P14,PAT,INI,Trunk_Forward,1,R_LES,FM,M1,0.5476624897735473
BMu43,P14,PAT,INI,Trunk_Forward,1,R_LES,FM,M2,0.5316613190594619
BMu43,P14,PAT,INI,Trunk_Forward,1,R_LES,FM,M3,0.5533619121762344
BMu43,P14,PAT,REL,Trunk_Forward,1,L_LES,FM,M1,1.5612147272267793
BMu43,P14,PAT,REL,Trunk_Forward,1,L_LES,FM,M2,2.555583708049378
BMu43,P14,PAT,REL,Trunk_Forward,1,L_LES,FM,M3,3.0072688898254967
BMu43,P14,PAT,REL,Trunk_Forward,1,L_LES,FM,M4,
BMu43,P14,PAT,REL,Trunk_Forward,1,L_LES,FM,M5,
BMu43,P14,PAT,REL,Trunk_Forward,1,R_LES,FM,M1,0.303076067567487
BMu43,P14,PAT,REL,Trunk_Forward,1,R_LES,FM,M2,0.3307868090949368
BMu43,P14,PAT,REL,Trunk_Forward,1,R_LES,FM,M3,0.4857437106284774
BMu43,P14,PAT,REL,Trunk_Forward,1,R_LES,FM,M4,
BMu43,P14,PAT,REL,Trunk_Forward,1,R_LES,FM,M5,
BMu43,P16,CTR,INI,Trunk_Forward,1,L_LES,FM,M1,1.492257207764864
BMu43,P16,CTR,INI,Trunk_Forward,1,L_LES,FM,M2,2.367844575657139
BMu43,P16,CTR,INI,Trunk_Forward,1,L_LES,FM,M3,2.191462904422046
BMu43,P16,CTR,INI,Trunk_Forward,1,R_LES,FM,M1,0.9574484631717634
BMu43,P16,CTR,INI,Trunk_Forward,1,R_LES,FM,M2,1.470292959907667
BMu43,P16,CTR,INI,Trunk_Forward,1,R_LES,FM,M3,1.696863313023682
BMu43,P16,CTR,REL,Trunk_Forward,1,L_LES,FM,M1,1.0126045636250998
BMu43,P16,CTR,REL,Trunk_Forward,1,L_LES,FM,M2,1.1196961176061189
BMu43,P16,CTR,REL,Trunk_Forward,1,L_LES,FM,M3,1.9380542129455338
BMu43,P16,CTR,REL,Trunk_Forward,1,R_LES,FM,M1,0.9591315460715345
BMu43,P16,CTR,REL,Trunk_Forward,1,R_LES,FM,M2,1.0879055435848874
BMu43,P16,CTR,REL,Trunk_Forward,1,R_LES,FM,M3,1.2887850955209612
BMu43,P17,PAT,INI,Trunk_Forward,1,L_LES,FM,M1,2.56513362187696
BMu43,P17,PAT,INI,Trunk_Forward,1,L_LES,FM,M2,3.258632622541985
BMu43,P17,PAT,INI,Trunk_Forward,1,L_LES,FM,M3,1.9197153775899383
BMu43,P17,PAT,INI,Trunk_Forward,1,R_LES,FM,M1,3.512745971050824
BMu43,P17,PAT,INI,Trunk_Forward,1,R_LES,FM,M2,3.813823474089477
BMu43,P17,PAT,INI,Trunk_Forward,1,R_LES,FM,M3,2.1565170275373546
BMu43,P17,PAT,REL,Trunk_Forward,1,L_LES,FM,M1,0.17924470797409423
BMu43,P17,PAT,REL,Trunk_Forward,1,L_LES,FM,M2,0.2783225826048494
BMu43,P17,PAT,REL,Trunk_Forward,1,L_LES,FM,M3,0.2842222980069471
BMu43,P17,PAT,REL,Trunk_Forward,1,R_LES,FM,M1,0.46430639005405
BMu43,P17,PAT,REL,Trunk_Forward,1,R_LES,FM,M2,0.49749209698841096
BMu43,P17,PAT,REL,Trunk_Forward,1,R_LES,FM,M3,0.5450794044568005
BMu43,P21,CTR,INI,Trunk_Forward,1,L_LES,FM,M1,0.3305412558184996
BMu43,P21,CTR,INI,Trunk_Forward,1,L_LES,FM,M2,0.6627949214463199
BMu43,P21,CTR,INI,Trunk_Forward,1,L_LES,FM,M3,0.4272801709678517
BMu43,P21,CTR,INI,Trunk_Forward,1,R_LES,FM,M1,0.6629012144065626
BMu43,P21,CTR,INI,Trunk_Forward,1,R_LES,FM,M2,0.7505500333211456
BMu43,P21,CTR,INI,Trunk_Forward,1,R_LES,FM,M3,0.658604140593138
BMu43,P21,CTR,REL,Trunk_Forward,1,L_LES,FM,M1,0.10044019539936068
BMu43,P21,CTR,REL,Trunk_Forward,1,L_LES,FM,M2,2.7098276738305724
BMu43,P21,CTR,REL,Trunk_Forward,1,L_LES,FM,M3,2.8503004123789126
BMu43,P21,CTR,REL,Trunk_Forward,1,R_LES,FM,M1,0.22586781615174625
BMu43,P21,CTR,REL,Trunk_Forward,1,R_LES,FM,M2,0.5470256280561276
BMu43,P21,CTR,REL,Trunk_Forward,1,R_LES,FM,M3,0.43727048429660803
BMu43,P22,CTR,INI,Trunk_Forward,1,L_LES,FM,M1,1.2054300426528706
BMu43,P22,CTR,INI,Trunk_Forward,1,L_LES,FM,M2,2.083689231666236
BMu43,P22,CTR,INI,Trunk_Forward,1,L_LES,FM,M3,2.250426585046747
BMu43,P22,CTR,INI,Trunk_Forward,1,R_LES,FM,M1,0.9232654732136939
BMu43,P22,CTR,INI,Trunk_Forward,1,R_LES,FM,M2,1.7250955412227917
BMu43,P22,CTR,INI,Trunk_Forward,1,R_LES,FM,M3,2.1196573100398903
BMu43,P22,CTR,REL,Trunk_Forward,1,L_LES,FM,M1,1.086434384461752
BMu43,P22,CTR,REL,Trunk_Forward,1,L_LES,FM,M2,1.6436215440852509
BMu43,P22,CTR,REL,Trunk_Forward,1,L_LES,FM,M3,1.6747548676329167
BMu43,P22,CTR,REL,Trunk_Forward,1,R_LES,FM,M1,0.9924711542083434
BMu43,P22,CTR,REL,Trunk_Forward,1,R_LES,FM,M2,2.6756459500216123
BMu43,P22,CTR,REL,Trunk_Forward,1,R_LES,FM,M3,1.8346282990315017
BMu43,P23,CTR,INI,Trunk_Forward,1,L_LES,FM,M1,1.1620620735641207
BMu43,P23,CTR,INI,Trunk_Forward,1,L_LES,FM,M2,1.2708154529496616
BMu43,P23,CTR,INI,Trunk_Forward,1,L_LES,FM,M3,1.114995240917515
BMu43,P23,CTR,INI,Trunk_Forward,1,R_LES,FM,M1,0.9329325664616318
BMu43,P23,CTR,INI,Trunk_Forward,1,R_LES,FM,M2,0.9787314929942759
BMu43,P23,CTR,INI,Trunk_Forward,1,R_LES,FM,M3,0.8521993095247898
BMu43,P23,CTR,REL,Trunk_Forward,1,L_LES,FM,M1,0.9032230846839087
BMu43,P23,CTR,REL,Trunk_Forward,1,L_LES,FM,M2,0.8786367568443436
BMu43,P23,CTR,REL,Trunk_Forward,1,L_LES,FM,M3,1.1761203259546895
BMu43,P23,CTR,REL,Trunk_Forward,1,R_LES,FM,M1,0.8806143357510015
BMu43,P23,CTR,REL,Trunk_Forward,1,R_LES,FM,M2,0.9772355681775421
BMu43,P23,CTR,REL,Trunk_Forward,1,R_LES,FM,M3,1.4146933337609378
BMu43,P24,PAT,INI,Trunk_Forward,1,L_LES,FM,M1,0.5913495490379603
BMu43,P24,PAT,INI,Trunk_Forward,1,L_LES,FM,M2,1.1606492565313404
BMu43,P24,PAT,INI,Trunk_Forward,1,L_LES,FM,M3,1.4571692508151044
BMu43,P24,PAT,INI,Trunk_Forward,1,R_LES,FM,M1,0.8528858248462926
BMu43,P24,PAT,INI,Trunk_Forward,1,R_LES,FM,M2,1.1427680407267269
BMu43,P24,PAT,INI,Trunk_Forward,1,R_LES,FM,M3,2.0682709890562436
BMu43,P24,PAT,REL,Trunk_Forward,1,L_LES,FM,M1,0.5455289226799643
BMu43,P24,PAT,REL,Trunk_Forward,1,L_LES,FM,M2,1.0646914882368175
BMu43,P24,PAT,REL,Trunk_Forward,1,L_LES,FM,M3,1.093395357195645
BMu43,P24,PAT,REL,Trunk_Forward,1,R_LES,FM,M1,0.922392897664937
BMu43,P24,PAT,REL,Trunk_Forward,1,R_LES,FM,M2,0.9578964441946869
BMu43,P24,PAT,REL,Trunk_Forward,1,R_LES,FM,M3,1.071401402470061
BMu43,P25,CTR,INI,Trunk_Forward,1,L_LES,FM,M1,0.17103715585555798
BMu43,P25,CTR,INI,Trunk_Forward,1,L_LES,FM,M2,6.820065631048376
BMu43,P25,CTR,INI,Trunk_Forward,1,L_LES,FM,M3,6.781331748508656
BMu43,P25,CTR,INI,Trunk_Forward,1,R_LES,FM,M1,0.42404980442957263
BMu43,P25,CTR,INI,Trunk_Forward,1,R_LES,FM,M2,2.1090957003859008
BMu43,P25,CTR,INI,Trunk_Forward,1,R_LES,FM,M3,2.0313170893320067
BMu43,P25,CTR,REL,Trunk_Forward,1,L_LES,FM,M1,0.35395904525923677
BMu43,P25,CTR,REL,Trunk_Forward,1,L_LES,FM,M2,1.636352925878819
BMu43,P25,CTR,REL,Trunk_Forward,1,L_LES,FM,M3,3.534202900909108
BMu43,P25,CTR,REL,Trunk_Forward,1,R_LES,FM,M1,0.6318716576916827
BMu43,P25,CTR,REL,Trunk_Forward,1,R_LES,FM,M2,1.675940100003322
BMu43,P25,CTR,REL,Trunk_Forward,1,R_LES,FM,M3,3.4256959929460815
BMu43,P26,PAT,INI,Trunk_Forward,1,L_LES,FM,M1,0.7336165180527847
BMu43,P26,PAT,INI,Trunk_Forward,1,L_LES,FM,M2,0.9840964037254674
BMu43,P26,PAT,INI,Trunk_Forward,1,L_LES,FM,M3,1.0874816743900113
BMu43,P26,PAT,INI,Trunk_Forward,1,R_LES,FM,M1,0.6697146371430763
BMu43,P26,PAT,INI,Trunk_Forward,1,R_LES,FM,M2,1.0781410925398334
BMu43,P26,PAT,INI,Trunk_Forward,1,R_LES,FM,M3,1.6645542788431815
BMu43,P26,PAT,REL,Trunk_Forward,1,L_LES,FM,M1,0.7053504439590838
BMu43,P26,PAT,REL,Trunk_Forward,1,L_LES,FM,M2,0.8708937609284367
BMu43,P26,PAT,REL,Trunk_Forward,1,L_LES,FM,M3,1.8618094262967242
BMu43,P26,PAT,REL,Trunk_Forward,1,R_LES,FM,M1,1.4553774560839112
BMu43,P26,PAT,REL,Trunk_Forward,1,R_LES,FM,M2,1.2103224984287397
BMu43,P26,PAT,REL,Trunk_Forward,1,R_LES,FM,M3,1.2469826171522858
BMu43,P27,PAT,INI,Trunk_Forward,1,L_LES,FM,M1,0.2472397503907325
BMu43,P27,PAT,INI,Trunk_Forward,1,L_LES,FM,M2,0.22415162861892227
BMu43,P27,PAT,INI,Trunk_Forward,1,L_LES,FM,M3,0.399856995643659
BMu43,P27,PAT,INI,Trunk_Forward,1,R_LES,FM,M1,0.29949861668192695
BMu43,P27,PAT,INI,Trunk_Forward,1,R_LES,FM,M2,0.5595289054307245
BMu43,P27,PAT,INI,Trunk_Forward,1,R_LES,FM,M3,0.5338638597408882
BMu43,P27,PAT,REL,Trunk_Forward,1,L_LES,FM,M1,0.2825072533500886
BMu43,P27,PAT,REL,Trunk_Forward,1,L_LES,FM,M2,0.27884381859752333
BMu43,P27,PAT,REL,Trunk_Forward,1,L_LES,FM,M3,0.3791933535320088
BMu43,P27,PAT,REL,Trunk_Forward,1,L_LES,FM,M4,
BMu43,P27,PAT,REL,Trunk_Forward,1,L_LES,FM,M5,
BMu43,P27,PAT,REL,Trunk_Forward,1,R_LES,FM,M1,0.24898237784081076
BMu43,P27,PAT,REL,Trunk_Forward,1,R_LES,FM,M2,0.2866826883245741
BMu43,P27,PAT,REL,Trunk_Forward,1,R_LES,FM,M3,0.536793430645607
BMu43,P27,PAT,REL,Trunk_Forward,1,R_LES,FM,M4,
BMu43,P27,PAT,REL,Trunk_Forward,1,R_LES,FM,M5,
BMu43,P28,PAT,INI,Trunk_Forward,1,L_LES,FM,M1,0.28142882139296094
BMu43,P28,PAT,INI,Trunk_Forward,1,L_LES,FM,M2,0.7571367215138676
BMu43,P28,PAT,INI,Trunk_Forward,1,L_LES,FM,M3,0.9339429376510291
BMu43,P28,PAT,INI,Trunk_Forward,1,R_LES,FM,M1,0.3792055682931033
BMu43,P28,PAT,INI,Trunk_Forward,1,R_LES,FM,M2,0.7727686683852916
BMu43,P28,PAT,INI,Trunk_Forward,1,R_LES,FM,M3,0.9795902868089937
BMu43,P28,PAT,REL,Trunk_Forward,1,L_LES,FM,M1,0.19693151657986166
BMu43,P28,PAT,REL,Trunk_Forward,1,L_LES,FM,M2,0.6749530419619448
BMu43,P28,PAT,REL,Trunk_Forward,1,L_LES,FM,M3,0.48318875738311595
BMu43,P28,PAT,REL,Trunk_Forward,1,R_LES,FM,M1,0.21275275848578004
BMu43,P28,PAT,REL,Trunk_Forward,1,R_LES,FM,M2,0.4662862186101995
BMu43,P28,PAT,REL,Trunk_Forward,1,R_LES,FM,M3,0.4415857982169279
BMu43,P29,PAT,INI,Trunk_Forward,1,L_LES,FM,M1,1.1418214316623043
BMu43,P29,PAT,INI,Trunk_Forward,1,L_LES,FM,M2,1.7357357109318903
BMu43,P29,PAT,INI,Trunk_Forward,1,L_LES,FM,M3,2.8480411526113993
BMu43,P29,PAT,INI,Trunk_Forward,1,R_LES,FM,M1,1.3904254667519178
BMu43,P29,PAT,INI,Trunk_Forward,1,R_LES,FM,M2,1.5817207586740738
BMu43,P29,PAT,INI,Trunk_Forward,1,R_LES,FM,M3,3.4327440539293157
BMu43,P29,PAT,REL,Trunk_Forward,1,L_LES,FM,M1,1.2756330154302449
BMu43,P29,PAT,REL,Trunk_Forward,1,L_LES,FM,M2,1.7521266816520569
BMu43,P29,PAT,REL,Trunk_Forward,1,L_LES,FM,M3,1.90101804112601
BMu43,P29,PAT,REL,Trunk_Forward,1,R_LES,FM,M1,2.3210093043181823
BMu43,P29,PAT,REL,Trunk_Forward,1,R_LES,FM,M2,2.4587349575075343
BMu43,P29,PAT,REL,Trunk_Forward,1,R_LES,FM,M3,1.691296642154933
BMu43,P30,PAT,INI,Trunk_Forward,1,L_LES,FM,M1,1.0387601574056282
BMu43,P30,PAT,INI,Trunk_Forward,1,L_LES,FM,M2,0.9281132805929665
BMu43,P30,PAT,INI,Trunk_Forward,1,L_LES,FM,M3,1.035606968038153
BMu43,P30,PAT,INI,Trunk_Forward,1,R_LES,FM,M1,1.5954738181014947
BMu43,P30,PAT,INI,Trunk_Forward,1,R_LES,FM,M2,1.7284859366123204
BMu43,P30,PAT,INI,Trunk_Forward,1,R_LES,FM,M3,1.5787428096845695
BMu43,P30,PAT,REL,Trunk_Forward,1,L_LES,FM,M1,0.6067158237062005
BMu43,P30,PAT,REL,Trunk_Forward,1,L_LES,FM,M2,0.8011165855151237
BMu43,P30,PAT,REL,Trunk_Forward,1,L_LES,FM,M3,1.1401546566040202
BMu43,P30,PAT,REL,Trunk_Forward,1,R_LES,FM,M1,1.379678859380371
BMu43,P30,PAT,REL,Trunk_Forward,1,R_LES,FM,M2,1.8441057488324766
BMu43,P30,PAT,REL,Trunk_Forward,1,R_LES,FM,M3,2.0780900808512492
BMu43,P32,PAT,INI,Trunk_Forward,1,L_LES,FM,M1,0.8013892231501069
BMu43,P32,PAT,INI,Trunk_Forward,1,L_LES,FM,M2,0.7074425135169304
BMu43,P32,PAT,INI,Trunk_Forward,1,L_LES,FM,M3,1.0338691445285313
BMu43,P32,PAT,INI,Trunk_Forward,1,R_LES,FM,M1,0.9704129346426072
BMu43,P32,PAT,INI,Trunk_Forward,1,R_LES,FM,M2,0.7487347855486557
BMu43,P32,PAT,INI,Trunk_Forward,1,R_LES,FM,M3,0.9513526135696381
BMu43,P32,PAT,REL,Trunk_Forward,1,L_LES,FM,M1,0.28928119596484936
BMu43,P32,PAT,REL,Trunk_Forward,1,L_LES,FM,M2,0.30891406604744204
BMu43,P32,PAT,REL,Trunk_Forward,1,L_LES,FM,M3,1.1223046832542698
BMu43,P32,PAT,REL,Trunk_Forward,1,L_LES,FM,M4,1.2368640574506502
BMu43,P32,PAT,REL,Trunk_Forward,1,R_LES,FM,M1,0.4303106069906469
BMu43,P32,PAT,REL,Trunk_Forward,1,R_LES,FM,M2,0.3978772453641458
BMu43,P32,PAT,REL,Trunk_Forward,1,R_LES,FM,M3,0.7960388410052255
BMu43,P32,PAT,REL,Trunk_Forward,1,R_LES,FM,M4,0.7729464931573276
BMu43,P33,PAT,INI,Trunk_Forward,1,L_LES,FM,M1,0.8157598996503955
BMu43,P33,PAT,INI,Trunk_Forward,1,L_LES,FM,M2,1.4544289985674674
BMu43,P33,PAT,INI,Trunk_Forward,1,L_LES,FM,M3,1.1557831810235053
BMu43,P33,PAT,INI,Trunk_Forward,1,L_LES,FM,M4,1.1176003249205886
BMu43,P33,PAT,INI,Trunk_Forward,1,R_LES,FM,M1,0.3847923256339906
BMu43,P33,PAT,INI,Trunk_Forward,1,R_LES,FM,M2,0.7105182380841074
BMu43,P33,PAT,INI,Trunk_Forward,1,R_LES,FM,M3,0.49011227933128954
BMu43,P33,PAT,INI,Trunk_Forward,1,R_LES,FM,M4,0.745684488534514
BMu43,P33,PAT,REL,Trunk_Forward,1,L_LES,FM,M1,0.5940073037832222
BMu43,P33,PAT,REL,Trunk_Forward,1,L_LES,FM,M2,0.4321663997173275
BMu43,P33,PAT,REL,Trunk_Forward,1,L_LES,FM,M3,0.5060576611445685
BMu43,P33,PAT,REL,Trunk_Forward,1,R_LES,FM,M1,0.4081522724707589
BMu43,P33,PAT,REL,Trunk_Forward,1,R_LES,FM,M2,0.2752598243331879
BMu43,P33,PAT,REL,Trunk_Forward,1,R_LES,FM,M3,0.29020525626948684
BMu43,P34,PAT,INI,Trunk_Forward,1,L_LES,FM,M1,1.1057285838911721
BMu43,P34,PAT,INI,Trunk_Forward,1,L_LES,FM,M2,1.0060203628958826
BMu43,P34,PAT,INI,Trunk_Forward,1,L_LES,FM,M3,1.135726148240775
BMu43,P34,PAT,INI,Trunk_Forward,1,R_LES,FM,M1,1.032116762597995
BMu43,P34,PAT,INI,Trunk_Forward,1,R_LES,FM,M2,0.9113693396346291
BMu43,P34,PAT,INI,Trunk_Forward,1,R_LES,FM,M3,1.3072640015073078
BMu43,P34,PAT,REL,Trunk_Forward,1,L_LES,FM,M1,1.0276926658542234
BMu43,P34,PAT,REL,Trunk_Forward,1,L_LES,FM,M2,1.2193489242685007
BMu43,P34,PAT,REL,Trunk_Forward,1,L_LES,FM,M3,1.4340987991610246
BMu43,P34,PAT,REL,Trunk_Forward,1,R_LES,FM,M1,1.0647263758953622
BMu43,P34,PAT,REL,Trunk_Forward,1,R_LES,FM,M2,1.2347972722187623
BMu43,P34,PAT,REL,Trunk_Forward,1,R_LES,FM,M3,1.830889604541066
BMu43,P35,CTR,INI,Trunk_Forward,1,L_LES,FM,M1,0.8169320372659139
BMu43,P35,CTR,INI,Trunk_Forward,1,L_LES,FM,M2,3.605798344009317
BMu43,P35,CTR,INI,Trunk_Forward,1,L_LES,FM,M3,3.608028694943542
BMu43,P35,CTR,INI,Trunk_Forward,1,R_LES,FM,M1,1.126423968505321
BMu43,P35,CTR,INI,Trunk_Forward,1,R_LES,FM,M2,2.615292991594188
BMu43,P35,CTR,INI,Trunk_Forward,1,R_LES,FM,M3,4.775988578580251
BMu43,P35,CTR,REL,Trunk_Forward,1,L_LES,FM,M1,1.0186456735179152
BMu43,P35,CTR,REL,Trunk_Forward,1,L_LES,FM,M2,2.0453997059325233
BMu43,P35,CTR,REL,Trunk_Forward,1,L_LES,FM,M3,1.8291914473301574
BMu43,P35,CTR,REL,Trunk_Forward,1,R_LES,FM,M1,1.0962261622667229
BMu43,P35,CTR,REL,Trunk_Forward,1,R_LES,FM,M2,1.8886434648925299
BMu43,P35,CTR,REL,Trunk_Forward,1,R_LES,FM,M3,2.276828139698433
BMu43,P36,PAT,INI,Trunk_Forward,1,L_LES,FM,M1,0.17577433242369872
BMu43,P36,PAT,INI,Trunk_Forward,1,L_LES,FM,M2,0.19010500674693348
BMu43,P36,PAT,INI,Trunk_Forward,1,L_LES,FM,M3,0.17765268483257224
BMu43,P36,PAT,INI,Trunk_Forward,1,R_LES,FM,M1,0.3879854188051722
BMu43,P36,PAT,INI,Trunk_Forward,1,R_LES,FM,M2,0.22500458701528206
BMu43,P36,PAT,INI,Trunk_Forward,1,R_LES,FM,M3,0.3165507582534432
BMu43,P36,PAT,REL,Trunk_Forward,1,L_LES,FM,M1,0.09367805973690108
BMu43,P36,PAT,REL,Trunk_Forward,1,L_LES,FM,M2,0.08811622107486311
BMu43,P36,PAT,REL,Trunk_Forward,1,L_LES,FM,M3,0.08654856402243614
BMu43,P36,PAT,REL,Trunk_Forward,1,R_LES,FM,M1,0.23818801287848537
BMu43,P36,PAT,REL,Trunk_Forward,1,R_LES,FM,M2,0.15240321270005933
BMu43,P36,PAT,REL,Trunk_Forward,1,R_LES,FM,M3,0.1490501044265452
BMu43,P38,CTR,INI,Trunk_Forward,1,L_LES,FM,M1,0.20196078418722777
BMu43,P38,CTR,INI,Trunk_Forward,1,L_LES,FM,M2,1.770008644924368
BMu43,P38,CTR,INI,Trunk_Forward,1,L_LES,FM,M3,1.345827761981068
BMu43,P38,CTR,INI,Trunk_Forward,1,R_LES,FM,M1,0.2560720334557095
BMu43,P38,CTR,INI,Trunk_Forward,1,R_LES,FM,M2,1.8886655203938714
BMu43,P38,CTR,INI,Trunk_Forward,1,R_LES,FM,M3,1.9935427789896505
BMu43,P38,CTR,REL,Trunk_Forward,1,L_LES,FM,M1,0.40886074869529576
BMu43,P38,CTR,REL,Trunk_Forward,1,L_LES,FM,M2,1.6048751894160351
BMu43,P38,CTR,REL,Trunk_Forward,1,L_LES,FM,M3,2.2491621157522306
BMu43,P38,CTR,REL,Trunk_Forward,1,R_LES,FM,M1,1.1909794820207917
BMu43,P38,CTR,REL,Trunk_Forward,1,R_LES,FM,M2,1.5049325614872533
BMu43,P38,CTR,REL,Trunk_Forward,1,R_LES,FM,M3,1.4460312967394224
BMu43,P39,CTR,INI,Trunk_Forward,1,L_LES,FM,M1,2.9155135740736196
BMu43,P39,CTR,INI,Trunk_Forward,1,L_LES,FM,M2,3.387472490950392
BMu43,P39,CTR,INI,Trunk_Forward,1,L_LES,FM,M3,1.2357362620197911
BMu43,P39,CTR,INI,Trunk_Forward,1,R_LES,FM,M1,3.5608129552007513
BMu43,P39,CTR,INI,Trunk_Forward,1,R_LES,FM,M2,3.6708984245705194
BMu43,P39,CTR,INI,Trunk_Forward,1,R_LES,FM,M3,2.6125497107150286
BMu43,P39,CTR,REL,Trunk_Forward,1,L_LES,FM,M1,0.6348327277198144
BMu43,P39,CTR,REL,Trunk_Forward,1,L_LES,FM,M2,0.9863519328304458
BMu43,P39,CTR,REL,Trunk_Forward,1,L_LES,FM,M3,1.6560455202489508
BMu43,P39,CTR,REL,Trunk_Forward,1,R_LES,FM,M1,1.6925761408781799
BMu43,P39,CTR,REL,Trunk_Forward,1,R_LES,FM,M2,2.233422091391659
BMu43,P39,CTR,REL,Trunk_Forward,1,R_LES,FM,M3,2.0364205535723325
BMu43,P40,CTR,INI,Trunk_Forward,1,L_LES,FM,M1,4.836880327790863
BMu43,P40,CTR,INI,Trunk_Forward,1,L_LES,FM,M2,2.685835161514223
BMu43,P40,CTR,INI,Trunk_Forward,1,L_LES,FM,M3,2.0982157095130476
BMu43,P40,CTR,INI,Trunk_Forward,1,R_LES,FM,M1,2.4516632129433527
BMu43,P40,CTR,INI,Trunk_Forward,1,R_LES,FM,M2,3.7084548392103067
BMu43,P40,CTR,INI,Trunk_Forward,1,R_LES,FM,M3,2.6572265117048426
BMu43,P40,CTR,REL,Trunk_Forward,1,L_LES,FM,M1,1.031042188802364
BMu43,P40,CTR,REL,Trunk_Forward,1,L_LES,FM,M2,1.8236171067289628
BMu43,P40,CTR,REL,Trunk_Forward,1,L_LES,FM,M3,2.3966483294161796
BMu43,P40,CTR,REL,Trunk_Forward,1,R_LES,FM,M1,1.2127076692492078
BMu43,P40,CTR,REL,Trunk_Forward,1,R_LES,FM,M2,2.326738279812459
BMu43,P40,CTR,REL,Trunk_Forward,1,R_LES,FM,M3,3.7902767554623327
BMu43,P41,PAT,INI,Trunk_Forward,1,L_LES,FM,M1,0.3675410589554135
BMu43,P41,PAT,INI,Trunk_Forward,1,L_LES,FM,M2,0.6844795786925626
BMu43,P41,PAT,INI,Trunk_Forward,1,L_LES,FM,M3,1.0603044091112035
BMu43,P41,PAT,INI,Trunk_Forward,1,R_LES,FM,M1,0.9080141233432437
BMu43,P41,PAT,INI,Trunk_Forward,1,R_LES,FM,M2,1.7008576238620123
BMu43,P41,PAT,INI,Trunk_Forward,1,R_LES,FM,M3,2.3897483970787077
BMu43,P41,PAT,REL,Trunk_Forward,1,L_LES,FM,M1,0.25809770355332684
BMu43,P41,PAT,REL,Trunk_Forward,1,L_LES,FM,M2,0.7053702922336461
BMu43,P41,PAT,REL,Trunk_Forward,1,L_LES,FM,M3,0.8554442231678742
BMu43,P41,PAT,REL,Trunk_Forward,1,R_LES,FM,M1,0.9185865352910301
BMu43,P41,PAT,REL,Trunk_Forward,1,R_LES,FM,M2,2.7768938473024023
BMu43,P41,PAT,REL,Trunk_Forward,1,R_LES,FM,M3,2.0083719601736068
BMu43,P42,PAT,INI,Trunk_Forward,1,L_LES,FM,M1,0.6656784529513362
BMu43,P42,PAT,INI,Trunk_Forward,1,L_LES,FM,M2,0.6060337815800173
BMu43,P42,PAT,INI,Trunk_Forward,1,L_LES,FM,M3,0.8546884139729167
BMu43,P42,PAT,INI,Trunk_Forward,1,R_LES,FM,M1,1.576681084472434
BMu43,P42,PAT,INI,Trunk_Forward,1,R_LES,FM,M2,1.2988928912129105
BMu43,P42,PAT,INI,Trunk_Forward,1,R_LES,FM,M3,2.217848537418217
BMu43,P42,PAT,REL,Trunk_Forward,1,L_LES,FM,M1,0.44457386462453946
BMu43,P42,PAT,REL,Trunk_Forward,1,L_LES,FM,M2,1.2808063248237207
BMu43,P42,PAT,REL,Trunk_Forward,1,L_LES,FM,M3,1.0435868571545106
BMu43,P42,PAT,REL,Trunk_Forward,1,R_LES,FM,M1,2.8283117329031744
BMu43,P42,PAT,REL,Trunk_Forward,1,R_LES,FM,M2,2.8590949547282474
BMu43,P42,PAT,REL,Trunk_Forward,1,R_LES,FM,M3,2.2238043806955416
BMu43,P43,PAT,INI,Trunk_Forward,1,L_LES,FM,M1,5.075888723130748
BMu43,P43,PAT,INI,Trunk_Forward,1,L_LES,FM,M2,2.5557900037224695
BMu43,P43,PAT,INI,Trunk_Forward,1,L_LES,FM,M3,2.1156275940178224
BMu43,P43,PAT,INI,Trunk_Forward,1,R_LES,FM,M1,4.339492719585571
BMu43,P43,PAT,INI,Trunk_Forward,1,R_LES,FM,M2,0.9547242987101799
BMu43,P43,PAT,INI,Trunk_Forward,1,R_LES,FM,M3,1.2870315449308751
BMu43,P43,PAT,REL,Trunk_Forward,1,L_LES,FM,M1,3.2877544458147727
BMu43,P43,PAT,REL,Trunk_Forward,1,L_LES,FM,M2,1.8065237417849935
BMu43,P43,PAT,REL,Trunk_Forward,1,L_LES,FM,M3,1.0879831435720857
BMu43,P43,PAT,REL,Trunk_Forward,1,R_LES,FM,M1,1.2749059646704808
BMu43,P43,PAT,REL,Trunk_Forward,1,R_LES,FM,M2,1.0713375726706502
BMu43,P43,PAT,REL,Trunk_Forward,1,R_LES,FM,M3,0.5648332714440369
BMu43,P44,CTR,INI,Trunk_Forward,1,L_LES,FM,M1,0.9460576464543654
BMu43,P44,CTR,INI,Trunk_Forward,1,L_LES,FM,M2,1.3395202473336112
BMu43,P44,CTR,INI,Trunk_Forward,1,L_LES,FM,M3,1.599003058600452
BMu43,P44,CTR,INI,Trunk_Forward,1,R_LES,FM,M1,1.013722690158871
BMu43,P44,CTR,INI,Trunk_Forward,1,R_LES,FM,M2,1.4284961612675182
BMu43,P44,CTR,INI,Trunk_Forward,1,R_LES,FM,M3,2.3428464452979485
BMu43,P44,CTR,REL,Trunk_Forward,1,L_LES,FM,M1,1.0297704977108888
BMu43,P44,CTR,REL,Trunk_Forward,1,L_LES,FM,M2,1.3685450949783706
BMu43,P44,CTR,REL,Trunk_Forward,1,L_LES,FM,M3,1.0766510812809846
BMu43,P44,CTR,REL,Trunk_Forward,1,R_LES,FM,M1,1.029948145214556
BMu43,P44,CTR,REL,Trunk_Forward,1,R_LES,FM,M2,1.6651147397227675
BMu43,P44,CTR,REL,Trunk_Forward,1,R_LES,FM,M3,1.2926171476576047
BMu43,P45,PAT,INI,Trunk_Forward,1,L_LES,FM,M1,0.41570707412312335
BMu43,P45,PAT,INI,Trunk_Forward,1,L_LES,FM,M2,0.9040520879657159
BMu43,P45,PAT,INI,Trunk_Forward,1,L_LES,FM,M3,1.0961349117067083
BMu43,P45,PAT,INI,Trunk_Forward,1,R_LES,FM,M1,0.26399702146932263
BMu43,P45,PAT,INI,Trunk_Forward,1,R_LES,FM,M2,0.3013743945626931
BMu43,P45,PAT,INI,Trunk_Forward,1,R_LES,FM,M3,0.9419344405917744
BMu43,P45,PAT,REL,Trunk_Forward,1,L_LES,FM,M1,3.6164837988052048
BMu43,P45,PAT,REL,Trunk_Forward,1,L_LES,FM,M2,0.632436473016143
BMu43,P45,PAT,REL,Trunk_Forward,1,L_LES,FM,M3,0.6411525643622359
BMu43,P45,PAT,REL,Trunk_Forward,1,R_LES,FM,M1,2.7675863458901055
BMu43,P45,PAT,REL,Trunk_Forward,1,R_LES,FM,M2,0.7774497739442887
BMu43,P45,PAT,REL,Trunk_Forward,1,R_LES,FM,M3,0.9197738304483299
BMu43,P46,CTR,INI,Trunk_Forward,1,L_LES,FM,M1,3.2783312727942673
BMu43,P46,CTR,INI,Trunk_Forward,1,L_LES,FM,M2,2.794669920562596
BMu43,P46,CTR,INI,Trunk_Forward,1,L_LES,FM,M3,3.1053898748081954
BMu43,P46,CTR,INI,Trunk_Forward,1,R_LES,FM,M1,0.5358784191893332
BMu43,P46,CTR,INI,Trunk_Forward,1,R_LES,FM,M2,0.4468955062664641
BMu43,P46,CTR,INI,Trunk_Forward,1,R_LES,FM,M3,0.703087081723783
BMu43,P46,CTR,REL,Trunk_Forward,1,L_LES,FM,M1,0.1268551176954721
BMu43,P46,CTR,REL,Trunk_Forward,1,L_LES,FM,M2,0.2877621869544414
BMu43,P46,CTR,REL,Trunk_Forward,1,L_LES,FM,M3,0.4040262541531014
BMu43,P46,CTR,REL,Trunk_Forward,1,R_LES,FM,M1,0.7826212782869765
BMu43,P46,CTR,REL,Trunk_Forward,1,R_LES,FM,M2,0.5439396410255021
BMu43,P46,CTR,REL,Trunk_Forward,1,R_LES,FM,M3,0.42146407075105
BMu43,P47,PAT,INI,Trunk_Forward,1,L_LES,FM,M1,0.3448053714826994
BMu43,P47,PAT,INI,Trunk_Forward,1,L_LES,FM,M2,0.19831572977939366
BMu43,P47,PAT,INI,Trunk_Forward,1,L_LES,FM,M3,0.23495882214390368
BMu43,P47,PAT,INI,Trunk_Forward,1,R_LES,FM,M1,0.45826565349653053
BMu43,P47,PAT,INI,Trunk_Forward,1,R_LES,FM,M2,0.2754605701032377
BMu43,P47,PAT,INI,Trunk_Forward,1,R_LES,FM,M3,0.3397993286476711
BMu43,P47,PAT,REL,Trunk_Forward,1,L_LES,FM,M1,0.22454792678538332
BMu43,P47,PAT,REL,Trunk_Forward,1,L_LES,FM,M2,0.2859677773383373
BMu43,P47,PAT,REL,Trunk_Forward,1,L_LES,FM,M3,0.2639025480842412
BMu43,P47,PAT,REL,Trunk_Forward,1,R_LES,FM,M1,0.36272718767811835
BMu43,P47,PAT,REL,Trunk_Forward,1,R_LES,FM,M2,0.6084685109609744
BMu43,P47,PAT,REL,Trunk_Forward,1,R_LES,FM,M3,0.46498481638182143
BMu43,P48,CTR,INI,Trunk_Forward,1,L_LES,FM,M1,1.6517869399656007
BMu43,P48,CTR,INI,Trunk_Forward,1,L_LES,FM,M2,2.0236352763501038
BMu43,P48,CTR,INI,Trunk_Forward,1,L_LES,FM,M3,1.332399996301198
BMu43,P48,CTR,INI,Trunk_Forward,1,R_LES,FM,M1,7.68550610631034
BMu43,P48,CTR,INI,Trunk_Forward,1,R_LES,FM,M2,8.334071838582737
BMu43,P48,CTR,INI,Trunk_Forward,1,R_LES,FM,M3,4.7585306014826445
BMu43,P48,CTR,REL,Trunk_Forward,1,L_LES,FM,M1,1.1491851894064693
BMu43,P48,CTR,REL,Trunk_Forward,1,L_LES,FM,M2,2.647205724475904
BMu43,P48,CTR,REL,Trunk_Forward,1,L_LES,FM,M3,1.7423465088871628
BMu43,P48,CTR,REL,Trunk_Forward,1,R_LES,FM,M1,6.138211442846063
BMu43,P48,CTR,REL,Trunk_Forward,1,R_LES,FM,M2,7.537224536385839
BMu43,P48,CTR,REL,Trunk_Forward,1,R_LES,FM,M3,6.632391067233037
BMu43,P49,CTR,INI,Trunk_Forward,1,L_LES,FM,M1,1.6344721091675196
BMu43,P49,CTR,INI,Trunk_Forward,1,L_LES,FM,M2,1.427268759611013
BMu43,P49,CTR,INI,Trunk_Forward,1,L_LES,FM,M3,2.0711490440455704
BMu43,P49,CTR,INI,Trunk_Forward,1,R_LES,FM,M1,1.3905976127121962
BMu43,P49,CTR,INI,Trunk_Forward,1,R_LES,FM,M2,1.5569769532994597
BMu43,P49,CTR,INI,Trunk_Forward,1,R_LES,FM,M3,1.9556961357643863
BMu43,P49,CTR,REL,Trunk_Forward,1,L_LES,FM,M1,1.2645477791016595
BMu43,P49,CTR,REL,Trunk_Forward,1,L_LES,FM,M2,1.6728041023160634
BMu43,P49,CTR,REL,Trunk_Forward,1,L_LES,FM,M3,2.222075890509043
BMu43,P49,CTR,REL,Trunk_Forward,1,R_LES,FM,M1,1.3500062610312278
BMu43,P49,CTR,REL,Trunk_Forward,1,R_LES,FM,M2,2.405774272511428
BMu43,P49,CTR,REL,Trunk_Forward,1,R_LES,FM,M3,4.657318057902709
BMu43,P50,PAT,INI,Trunk_Forward,1,L_LES,FM,M1,2.8103044433687803
BMu43,P50,PAT,INI,Trunk_Forward,1,L_LES,FM,M2,4.547515308077132
BMu43,P50,PAT,INI,Trunk_Forward,1,L_LES,FM,M3,
BMu43,P50,PAT,INI,Trunk_Forward,1,L_LES,FM,M4,
BMu43,P50,PAT,INI,Trunk_Forward,1,R_LES,FM,M1,3.384057311933138
BMu43,P50,PAT,INI,Trunk_Forward,1,R_LES,FM,M2,2.53919438655846
BMu43,P50,PAT,INI,Trunk_Forward,1,R_LES,FM,M3,
BMu43,P50,PAT,INI,Trunk_Forward,1,R_LES,FM,M4,
BMu43,P50,PAT,REL,Trunk_Forward,1,L_LES,FM,M1,0.6372457641100369
BMu43,P50,PAT,REL,Trunk_Forward,1,L_LES,FM,M2,1.113693854043559
BMu43,P50,PAT,REL,Trunk_Forward,1,L_LES,FM,M3,1.2859261621196414
BMu43,P50,PAT,REL,Trunk_Forward,1,R_LES,FM,M1,0.60365679162186
BMu43,P50,PAT,REL,Trunk_Forward,1,R_LES,FM,M2,0.9717457955729009
BMu43,P50,PAT,REL,Trunk_Forward,1,R_LES,FM,M3,1.4362477653519072
BMu43,P51,PAT,INI,Trunk_Forward,1,L_LES,FM,M1,0.3619842412890563
BMu43,P51,PAT,INI,Trunk_Forward,1,L_LES,FM,M2,0.4469162575648207
BMu43,P51,PAT,INI,Trunk_Forward,1,L_LES,FM,M3,0.26386351374362277
BMu43,P51,PAT,INI,Trunk_Forward,1,R_LES,FM,M1,0.4986665799066027
BMu43,P51,PAT,INI,Trunk_Forward,1,R_LES,FM,M2,0.5985022547643079
BMu43,P51,PAT,INI,Trunk_Forward,1,R_LES,FM,M3,0.37766328686455797
BMu43,P51,PAT,REL,Trunk_Forward,1,L_LES,FM,M1,0.6382145229248365
BMu43,P51,PAT,REL,Trunk_Forward,1,L_LES,FM,M2,0.7519113493209381
BMu43,P51,PAT,REL,Trunk_Forward,1,L_LES,FM,M3,0.5241438237000375
BMu43,P51,PAT,REL,Trunk_Forward,1,R_LES,FM,M1,1.14899106148545
BMu43,P51,PAT,REL,Trunk_Forward,1,R_LES,FM,M2,1.074632017180342
BMu43,P51,PAT,REL,Trunk_Forward,1,R_LES,FM,M3,2.418837826273459
BMu43,P52,CTR,INI,Trunk_Forward,1,L_LES,FM,M1,1.5459167767552124
BMu43,P52,CTR,INI,Trunk_Forward,1,L_LES,FM,M2,1.2495303601170957
BMu43,P52,CTR,INI,Trunk_Forward,1,L_LES,FM,M3,2.6614127179710367
BMu43,P52,CTR,INI,Trunk_Forward,1,R_LES,FM,M1,3.678592207577821
BMu43,P52,CTR,INI,Trunk_Forward,1,R_LES,FM,M2,0.9998001391302331
BMu43,P52,CTR,INI,Trunk_Forward,1,R_LES,FM,M3,3.2797171151881632
BMu43,P52,CTR,REL,Trunk_Forward,1,L_LES,FM,M1,1.02742467631635
BMu43,P52,CTR,REL,Trunk_Forward,1,L_LES,FM,M2,2.2213833458573675
BMu43,P52,CTR,REL,Trunk_Forward,1,L_LES,FM,M3,2.8980849469048944
BMu43,P52,CTR,REL,Trunk_Forward,1,R_LES,FM,M1,0.6816579114678865
BMu43,P52,CTR,REL,Trunk_Forward,1,R_LES,FM,M2,3.9039988992862016
BMu43,P52,CTR,REL,Trunk_Forward,1,R_LES,FM,M3,4.795075643970722
BMu43,P53,PAT,INI,Trunk_Forward,1,L_LES,FM,M1,0.2917775583902281
BMu43,P53,PAT,INI,Trunk_Forward,1,L_LES,FM,M2,0.2972537066022377
BMu43,P53,PAT,INI,Trunk_Forward,1,L_LES,FM,M3,
BMu43,P53,PAT,INI,Trunk_Forward,1,L_LES,FM,M4,
BMu43,P53,PAT,INI,Trunk_Forward,1,R_LES,FM,M1,0.2902925890656709
BMu43,P53,PAT,INI,Trunk_Forward,1,R_LES,FM,M2,0.42044281751289425
BMu43,P53,PAT,INI,Trunk_Forward,1,R_LES,FM,M3,
BMu43,P53,PAT,INI,Trunk_Forward,1,R_LES,FM,M4,
BMu43,P53,PAT,REL,Trunk_Forward,1,L_LES,FM,M1,0.27056693948943655
BMu43,P53,PAT,REL,Trunk_Forward,1,L_LES,FM,M2,0.31198498701677796
BMu43,P53,PAT,REL,Trunk_Forward,1,L_LES,FM,M3,0.5648972428910949
BMu43,P53,PAT,REL,Trunk_Forward,1,R_LES,FM,M1,0.317351228856264
BMu43,P53,PAT,REL,Trunk_Forward,1,R_LES,FM,M2,0.4420145174053591
BMu43,P53,PAT,REL,Trunk_Forward,1,R_LES,FM,M3,0.6293125964371336
BMu43,P54,PAT,INI,Trunk_Forward,1,L_LES,FM,M1,1.203553049580771
BMu43,P54,PAT,INI,Trunk_Forward,1,L_LES,FM,M2,1.5570173464364998
BMu43,P54,PAT,INI,Trunk_Forward,1,L_LES,FM,M3,1.4000688166650501
BMu43,P54,PAT,INI,Trunk_Forward,1,R_LES,FM,M1,1.0891252406461271
BMu43,P54,PAT,INI,Trunk_Forward,1,R_LES,FM,M2,1.9953375302242644
BMu43,P54,PAT,INI,Trunk_Forward,1,R_LES,FM,M3,1.9224474796890019
BMu43,P54,PAT,REL,Trunk_Forward,1,L_LES,FM,M1,1.1171556902988657
BMu43,P54,PAT,REL,Trunk_Forward,1,L_LES,FM,M2,1.2993205776107724
BMu43,P54,PAT,REL,Trunk_Forward,1,L_LES,FM,M3,1.1692952752616141
BMu43,P54,PAT,REL,Trunk_Forward,1,R_LES,FM,M1,1.138246878928591
BMu43,P54,PAT,REL,Trunk_Forward,1,R_LES,FM,M2,1.9382745412747218
BMu43,P54,PAT,REL,Trunk_Forward,1,R_LES,FM,M3,1.6485507145745049
BMu43,P55,CTR,INI,Trunk_Forward,1,L_LES,FM,M1,3.2012444999212235
BMu43,P55,CTR,INI,Trunk_Forward,1,L_LES,FM,M2,3.5399129153874664
BMu43,P55,CTR,INI,Trunk_Forward,1,L_LES,FM,M3,2.5770882173012986
BMu43,P55,CTR,INI,Trunk_Forward,1,R_LES,FM,M1,1.6768974904188694
BMu43,P55,CTR,INI,Trunk_Forward,1,R_LES,FM,M2,1.6017086951256205
BMu43,P55,CTR,INI,Trunk_Forward,1,R_LES,FM,M3,1.4952818897868507
BMu43,P55,CTR,REL,Trunk_Forward,1,L_LES,FM,M1,0.569405062527882
BMu43,P55,CTR,REL,Trunk_Forward,1,L_LES,FM,M2,3.7422456238945085
BMu43,P55,CTR,REL,Trunk_Forward,1,L_LES,FM,M3,3.0157063531833614
BMu43,P55,CTR,REL,Trunk_Forward,1,R_LES,FM,M1,0.5796436094767738
BMu43,P55,CTR,REL,Trunk_Forward,1,R_LES,FM,M2,1.663731338986369
BMu43,P55,CTR,REL,Trunk_Forward,1,R_LES,FM,M3,1.8299743445013628
BMu43,P56,CTR,INI,Trunk_Forward,1,L_LES,FM,M1,1.1361968505566689
BMu43,P56,CTR,INI,Trunk_Forward,1,L_LES,FM,M2,1.0499706952844687
BMu43,P56,CTR,INI,Trunk_Forward,1,L_LES,FM,M3,1.6741426121611047
BMu43,P56,CTR,INI,Trunk_Forward,1,R_LES,FM,M1,0.6461063575319433
BMu43,P56,CTR,INI,Trunk_Forward,1,R_LES,FM,M2,0.9100819478923048
BMu43,P56,CTR,INI,Trunk_Forward,1,R_LES,FM,M3,1.083171722418199
BMu43,P56,CTR,REL,Trunk_Forward,1,L_LES,FM,M1,0.6511433892573618
BMu43,P56,CTR,REL,Trunk_Forward,1,L_LES,FM,M2,1.006752203427592
BMu43,P56,CTR,REL,Trunk_Forward,1,L_LES,FM,M3,0.9543979466041991
BMu43,P56,CTR,REL,Trunk_Forward,1,R_LES,FM,M1,0.34735949253495957
BMu43,P56,CTR,REL,Trunk_Forward,1,R_LES,FM,M2,0.9421173975349795
BMu43,P56,CTR,REL,Trunk_Forward,1,R_LES,FM,M3,0.8663996967436419
BMu43,P57,CTR,INI,Trunk_Forward,1,L_LES,FM,M1,0.12243211201492123
BMu43,P57,CTR,INI,Trunk_Forward,1,L_LES,FM,M2,0.49926358734652565
BMu43,P57,CTR,INI,Trunk_Forward,1,L_LES,FM,M3,3.7371349961455307
BMu43,P57,CTR,INI,Trunk_Forward,1,R_LES,FM,M1,1.0640928998018366
BMu43,P57,CTR,INI,Trunk_Forward,1,R_LES,FM,M2,3.082612683614104
BMu43,P57,CTR,INI,Trunk_Forward,1,R_LES,FM,M3,3.1759402117091438
BMu43,P57,CTR,REL,Trunk_Forward,1,L_LES,FM,M1,0.6131337679659449
BMu43,P57,CTR,REL,Trunk_Forward,1,L_LES,FM,M2,3.600985075208294
BMu43,P57,CTR,REL,Trunk_Forward,1,L_LES,FM,M3,5.84404586413813
BMu43,P57,CTR,REL,Trunk_Forward,1,R_LES,FM,M1,1.325794231642927
BMu43,P57,CTR,REL,Trunk_Forward,1,R_LES,FM,M2,2.994104776187268
BMu43,P57,CTR,REL,Trunk_Forward,1,R_LES,FM,M3,3.8245248084365
BMu43,P58,PAT,INI,Trunk_Forward,1,L_LES,FM,M1,0.7348658473811427
BMu43,P58,PAT,INI,Trunk_Forward,1,L_LES,FM,M2,0.6487655922293873
BMu43,P58,PAT,INI,Trunk_Forward,1,L_LES,FM,M3,0.7712977732055268
BMu43,P58,PAT,INI,Trunk_Forward,1,R_LES,FM,M1,0.7709186137233186
BMu43,P58,PAT,INI,Trunk_Forward,1,R_LES,FM,M2,0.6307573299419805
BMu43,P58,PAT,INI,Trunk_Forward,1,R_LES,FM,M3,0.6499299050622845
BMu43,P58,PAT,REL,Trunk_Forward,1,L_LES,FM,M1,0.1416976551872728
BMu43,P58,PAT,REL,Trunk_Forward,1,L_LES,FM,M2,1.1865246231497928
BMu43,P58,PAT,REL,Trunk_Forward,1,L_LES,FM,M3,1.4372062188964947
BMu43,P58,PAT,REL,Trunk_Forward,1,R_LES,FM,M1,0.43335932749755574
BMu43,P58,PAT,REL,Trunk_Forward,1,R_LES,FM,M2,0.7838612299036221
BMu43,P58,PAT,REL,Trunk_Forward,1,R_LES,FM,M3,0.9513280458349397
BMu43,P60,CTR,INI,Trunk_Forward,1,L_LES,FM,M1,0.8034070533386607
BMu43,P60,CTR,INI,Trunk_Forward,1,L_LES,FM,M2,1.9000754864831795
BMu43,P60,CTR,INI,Trunk_Forward,1,L_LES,FM,M3,1.0486945675415742
BMu43,P60,CTR,INI,Trunk_Forward,1,R_LES,FM,M1,0.634492431528049
BMu43,P60,CTR,INI,Trunk_Forward,1,R_LES,FM,M2,1.7467429696516648
BMu43,P60,CTR,INI,Trunk_Forward,1,R_LES,FM,M3,0.9456375012347645
BMu43,P60,CTR,REL,Trunk_Forward,1,L_LES,FM,M1,0.4002078559870818
BMu43,P60,CTR,REL,Trunk_Forward,1,L_LES,FM,M2,0.6938950628280719
BMu43,P60,CTR,REL,Trunk_Forward,1,L_LES,FM,M3,0.786012406700512
BMu43,P60,CTR,REL,Trunk_Forward,1,R_LES,FM,M1,0.31452361069106943
BMu43,P60,CTR,REL,Trunk_Forward,1,R_LES,FM,M2,0.5546457404083599
BMu43,P60,CTR,REL,Trunk_Forward,1,R_LES,FM,M3,0.8446938187050378
BMu43,P61,PAT,INI,Trunk_Forward,1,L_LES,FM,M1,1.67571171459883
BMu43,P61,PAT,INI,Trunk_Forward,1,L_LES,FM,M2,4.317340886430024
BMu43,P61,PAT,INI,Trunk_Forward,1,L_LES,FM,M3,2.3117015572375315
BMu43,P61,PAT,INI,Trunk_Forward,1,R_LES,FM,M1,1.8659208504805034
BMu43,P61,PAT,INI,Trunk_Forward,1,R_LES,FM,M2,3.3454036015921504
BMu43,P61,PAT,INI,Trunk_Forward,1,R_LES,FM,M3,3.015732915210848
BMu43,P61,PAT,REL,Trunk_Forward,1,L_LES,FM,M1,4.253814209604885
BMu43,P61,PAT,REL,Trunk_Forward,1,L_LES,FM,M2,4.121686067269841
BMu43,P61,PAT,REL,Trunk_Forward,1,L_LES,FM,M3,3.995200569334266
BMu43,P61,PAT,REL,Trunk_Forward,1,R_LES,FM,M1,2.1184969656835184
BMu43,P61,PAT,REL,Trunk_Forward,1,R_LES,FM,M2,1.897751721390157
BMu43,P61,PAT,REL,Trunk_Forward,1,R_LES,FM,M3,2.1400161574169347
BMu43,P62,PAT,INI,Trunk_Forward,1,L_LES,FM,M1,0.10817353348041106
BMu43,P62,PAT,INI,Trunk_Forward,1,L_LES,FM,M2,0.3980965988830507
BMu43,P62,PAT,INI,Trunk_Forward,1,L_LES,FM,M3,0.4115315795071235
BMu43,P62,PAT,INI,Trunk_Forward,1,R_LES,FM,M1,0.19464693921046253
BMu43,P62,PAT,INI,Trunk_Forward,1,R_LES,FM,M2,0.9721816701747352
BMu43,P62,PAT,INI,Trunk_Forward,1,R_LES,FM,M3,0.3408117764977407
BMu43,P62,PAT,REL,Trunk_Forward,1,L_LES,FM,M1,0.27738674083928233
BMu43,P62,PAT,REL,Trunk_Forward,1,L_LES,FM,M2,0.41065820128234354
BMu43,P62,PAT,REL,Trunk_Forward,1,L_LES,FM,M3,0.2380175670235182
BMu43,P62,PAT,REL,Trunk_Forward,1,R_LES,FM,M1,0.28017933529524
BMu43,P62,PAT,REL,Trunk_Forward,1,R_LES,FM,M2,0.3895367875566426
BMu43,P62,PAT,REL,Trunk_Forward,1,R_LES,FM,M3,0.3525544391288406
BMu43,P63,PAT,INI,Trunk_Forward,1,L_LES,FM,M1,0.9412125298805559
BMu43,P63,PAT,INI,Trunk_Forward,1,L_LES,FM,M2,4.2893070766143815
BMu43,P63,PAT,INI,Trunk_Forward,1,L_LES,FM,M3,8.904660586739219
BMu43,P63,PAT,INI,Trunk_Forward,1,R_LES,FM,M1,0.8931372472298448
BMu43,P63,PAT,INI,Trunk_Forward,1,R_LES,FM,M2,4.657177345694741
BMu43,P63,PAT,INI,Trunk_Forward,1,R_LES,FM,M3,1.9226659977971943
BMu43,P63,PAT,REL,Trunk_Forward,1,L_LES,FM,M1,3.445422753077583
BMu43,P63,PAT,REL,Trunk_Forward,1,L_LES,FM,M2,2.795533687019775
BMu43,P63,PAT,REL,Trunk_Forward,1,L_LES,FM,M3,2.111368920337993
BMu43,P63,PAT,REL,Trunk_Forward,1,R_LES,FM,M1,3.920073984970325
BMu43,P63,PAT,REL,Trunk_Forward,1,R_LES,FM,M2,2.2478508131049986
BMu43,P63,PAT,REL,Trunk_Forward,1,R_LES,FM,M3,2.0560681859523915
BMu43,P64,CTR,INI,Trunk_Forward,1,L_LES,FM,M1,0.6155287688969355
BMu43,P64,CTR,INI,Trunk_Forward,1,L_LES,FM,M2,0.7707244399278878
BMu43,P64,CTR,INI,Trunk_Forward,1,L_LES,FM,M3,0.9587790757884318
BMu43,P64,CTR,INI,Trunk_Forward,1,R_LES,FM,M1,0.653837264223493
BMu43,P64,CTR,INI,Trunk_Forward,1,R_LES,FM,M2,0.8812912066136918
BMu43,P64,CTR,INI,Trunk_Forward,1,R_LES,FM,M3,0.8744478288111254
BMu43,P64,CTR,REL,Trunk_Forward,1,L_LES,FM,M1,1.0332228643847492
BMu43,P64,CTR,REL,Trunk_Forward,1,L_LES,FM,M2,1.0614751781310867
BMu43,P64,CTR,REL,Trunk_Forward,1,L_LES,FM,M3,1.1013405471902011
BMu43,P64,CTR,REL,Trunk_Forward,1,R_LES,FM,M1,1.11136842259572
BMu43,P64,CTR,REL,Trunk_Forward,1,R_LES,FM,M2,1.106910123000076
BMu43,P64,CTR,REL,Trunk_Forward,1,R_LES,FM,M3,1.1399397434938332
BMu43,P65,PAT,INI,Trunk_Forward,1,L_LES,FM,M1,0.8990936318719425
BMu43,P65,PAT,INI,Trunk_Forward,1,L_LES,FM,M2,1.925469902770244
BMu43,P65,PAT,INI,Trunk_Forward,1,L_LES,FM,M3,3.073337162451766
BMu43,P65,PAT,INI,Trunk_Forward,1,R_LES,FM,M1,1.7569641103213813
BMu43,P65,PAT,INI,Trunk_Forward,1,R_LES,FM,M2,3.023672879824146
BMu43,P65,PAT,INI,Trunk_Forward,1,R_LES,FM,M3,5.0172365949179865
BMu43,P65,PAT,REL,Trunk_Forward,1,L_LES,FM,M1,0.38883379442368576
BMu43,P65,PAT,REL,Trunk_Forward,1,L_LES,FM,M2,1.5248232513299191
BMu43,P65,PAT,REL,Trunk_Forward,1,L_LES,FM,M3,1.6216308459659232
BMu43,P65,PAT,REL,Trunk_Forward,1,R_LES,FM,M1,1.2308764471699298
BMu43,P65,PAT,REL,Trunk_Forward,1,R_LES,FM,M2,2.6975890650084327
BMu43,P65,PAT,REL,Trunk_Forward,1,R_LES,FM,M3,2.46465686162716
BMu43,P66,CTR,INI,Trunk_Forward,1,L_LES,FM,M1,0.5994411067077018
BMu43,P66,CTR,INI,Trunk_Forward,1,L_LES,FM,M2,2.0573973687275244
BMu43,P66,CTR,INI,Trunk_Forward,1,L_LES,FM,M3,1.3744575011646407
BMu43,P66,CTR,INI,Trunk_Forward,1,R_LES,FM,M1,0.6781567597812279
BMu43,P66,CTR,INI,Trunk_Forward,1,R_LES,FM,M2,1.3161207602584144
BMu43,P66,CTR,INI,Trunk_Forward,1,R_LES,FM,M3,0.9765470790764693
BMu43,P66,CTR,REL,Trunk_Forward,1,L_LES,FM,M1,0.3299961670171652
BMu43,P66,CTR,REL,Trunk_Forward,1,L_LES,FM,M2,0.9792732665019867
BMu43,P66,CTR,REL,Trunk_Forward,1,L_LES,FM,M3,0.6652272239576886
BMu43,P66,CTR,REL,Trunk_Forward,1,R_LES,FM,M1,0.5817607937146841
BMu43,P66,CTR,REL,Trunk_Forward,1,R_LES,FM,M2,0.8579033658138328
BMu43,P66,CTR,REL,Trunk_Forward,1,R_LES,FM,M3,1.0294000334055018
BMu43,P67,CTR,INI,Trunk_Forward,1,L_LES,FM,M1,1.4505840749503214
BMu43,P67,CTR,INI,Trunk_Forward,1,L_LES,FM,M2,1.676362720938349
BMu43,P67,CTR,INI,Trunk_Forward,1,L_LES,FM,M3,2.3337832236163485
BMu43,P67,CTR,INI,Trunk_Forward,1,R_LES,FM,M1,2.33583416375357
BMu43,P67,CTR,INI,Trunk_Forward,1,R_LES,FM,M2,5.74692705052452
BMu43,P67,CTR,INI,Trunk_Forward,1,R_LES,FM,M3,1.0184867675777163
BMu43,P67,CTR,REL,Trunk_Forward,1,L_LES,FM,M1,1.8337811076103427
BMu43,P67,CTR,REL,Trunk_Forward,1,L_LES,FM,M2,1.0743836929897996
BMu43,P67,CTR,REL,Trunk_Forward,1,L_LES,FM,M3,4.51581800324758
BMu43,P67,CTR,REL,Trunk_Forward,1,R_LES,FM,M1,1.7137504162193702
BMu43,P67,CTR,REL,Trunk_Forward,1,R_LES,FM,M2,1.5339131379978075
BMu43,P67,CTR,REL,Trunk_Forward,1,R_LES,FM,M3,3.842972058540074
BMu43,P68,CTR,INI,Trunk_Forward,1,L_LES,FM,M1,0.7864929999281404
BMu43,P68,CTR,INI,Trunk_Forward,1,L_LES,FM,M2,0.4095490684601124
BMu43,P68,CTR,INI,Trunk_Forward,1,L_LES,FM,M3,0.6159571463356691
BMu43,P68,CTR,INI,Trunk_Forward,1,R_LES,FM,M1,0.409773970633955
BMu43,P68,CTR,INI,Trunk_Forward,1,R_LES,FM,M2,0.19840011009754088
BMu43,P68,CTR,INI,Trunk_Forward,1,R_LES,FM,M3,0.5231510086304758
BMu43,P68,CTR,REL,Trunk_Forward,1,L_LES,FM,M1,0.594232267506533
BMu43,P68,CTR,REL,Trunk_Forward,1,L_LES,FM,M2,0.8135571481944935
BMu43,P68,CTR,REL,Trunk_Forward,1,L_LES,FM,M3,1.0751314446155216
BMu43,P68,CTR,REL,Trunk_Forward,1,L_LES,FM,M4,1.2508808577490473
BMu43,P68,CTR,REL,Trunk_Forward,1,R_LES,FM,M1,0.4619689304990066
BMu43,P68,CTR,REL,Trunk_Forward,1,R_LES,FM,M2,0.6590608945688812
BMu43,P68,CTR,REL,Trunk_Forward,1,R_LES,FM,M3,0.6692921637011042
BMu43,P68,CTR,REL,Trunk_Forward,1,R_LES,FM,M4,0.71004280526449
