BMu,Participant,Group,Session,task,trials,channel,Operator,Measure,Value
BMu53,P01,CTR,INI,Trunk_Lateral,1,L_MTF,FM,M1,79.34668071654373
BMu53,P01,CTR,INI,Trunk_Lateral,1,L_MTF,FM,M2,80.72487644151566
BMu53,P01,CTR,INI,Trunk_Lateral,1,L_MTF,FM,M3,70.22436303714032
BMu53,P01,CTR,INI,Trunk_Lateral,1,R_MTF,FM,M1,76.87523323796492
BMu53,P01,CTR,INI,Trunk_Lateral,1,R_MTF,FM,M2,30.25
BMu53,P01,CTR,INI,Trunk_Lateral,1,R_MTF,FM,M3,70.82122484124422
BMu53,P01,CTR,REL,Trunk_Lateral,1,L_MTF,FM,M1,122.7878787878788
BMu53,P01,CTR,REL,Trunk_Lateral,1,L_MTF,FM,M2,30.04291845493562
BMu53,P01,CTR,REL,Trunk_Lateral,1,L_MTF,FM,M3,68.20950060901339
BMu53,P01,CTR,REL,Trunk_Lateral,1,R_MTF,FM,M1,35.95505617977528
BMu53,P01,CTR,REL,Trunk_Lateral,1,R_MTF,FM,M2,36.907730673316706
BMu53,P01,CTR,REL,Trunk_Lateral,1,R_MTF,FM,M3,85.14739229024943
BMu53,P02,CTR,INI,Trunk_Lateral,1,L_MTF,FM,M1,102.9053297318664
BMu53,P02,CTR,INI,Trunk_Lateral,1,L_MTF,FM,M2,97.43816254416961
BMu53,P02,CTR,INI,Trunk_Lateral,1,L_MTF,FM,M3,104.24972431928069
BMu53,P02,CTR,INI,Trunk_Lateral,1,R_MTF,FM,M1,116.52397260273972
BMu53,P02,CTR,INI,Trunk_Lateral,1,R_MTF,FM,M2,117.44813088383145
BMu53,P02,CTR,INI,Trunk_Lateral,1,R_MTF,FM,M3,111.07981220657277
BMu53,P03,CTR,INI,Trunk_Lateral,1,L_MTF,FM,M1,91.19839209446444
BMu53,P03,CTR,INI,Trunk_Lateral,1,L_MTF,FM,M2,79.3249706705171
BMu53,P03,CTR,INI,Trunk_Lateral,1,L_MTF,FM,M3,91.81565638578248
BMu53,P03,CTR,INI,Trunk_Lateral,1,R_MTF,FM,M1,64.67996116214802
BMu53,P03,CTR,INI,Trunk_Lateral,1,R_MTF,FM,M2,66.1639285393662
BMu53,P03,CTR,INI,Trunk_Lateral,1,R_MTF,FM,M3,75.84269662921349
BMu53,P03,CTR,REL,Trunk_Lateral,1,L_MTF,FM,M1,87.19728903215142
BMu53,P03,CTR,REL,Trunk_Lateral,1,L_MTF,FM,M2,82.88694671553426
BMu53,P03,CTR,REL,Trunk_Lateral,1,L_MTF,FM,M3,83.5292914834884
BMu53,P03,CTR,REL,Trunk_Lateral,1,R_MTF,FM,M1,59.74382433668802
BMu53,P03,CTR,REL,Trunk_Lateral,1,R_MTF,FM,M2,59.62111741513607
BMu53,P03,CTR,REL,Trunk_Lateral,1,R_MTF,FM,M3,55.653933721224384
BMu53,P05,CTR,INI,Trunk_Lateral,1,L_MTF,FM,M1,136.23695638084126
BMu53,P05,CTR,INI,Trunk_Lateral,1,L_MTF,FM,M2,137.7887133899516
BMu53,P05,CTR,INI,Trunk_Lateral,1,L_MTF,FM,M3,134.6631205673759
BMu53,P05,CTR,INI,Trunk_Lateral,1,R_MTF,FM,M1,125.30621334719027
BMu53,P05,CTR,INI,Trunk_Lateral,1,R_MTF,FM,M2,128.18096135721018
BMu53,P05,CTR,INI,Trunk_Lateral,1,R_MTF,FM,M3,121.60546541417592
BMu53,P05,CTR,REL,Trunk_Lateral,1,L_MTF,FM,M1,145.37094349633034
BMu53,P05,CTR,REL,Trunk_Lateral,1,L_MTF,FM,M2,159.222890930208
BMu53,P05,CTR,REL,Trunk_Lateral,1,L_MTF,FM,M3,149.1871214536181
BMu53,P05,CTR,REL,Trunk_Lateral,1,R_MTF,FM,M1,74.19724770642202
BMu53,P05,CTR,REL,Trunk_Lateral,1,R_MTF,FM,M2,120.39918446185213
BMu53,P05,CTR,REL,Trunk_Lateral,1,R_MTF,FM,M3,122.34146341463415
BMu53,P06,CTR,INI,Trunk_Lateral,1,L_MTF,FM,M1,77.62520193861066
BMu53,P06,CTR,INI,Trunk_Lateral,1,L_MTF,FM,M2,79.43201376936317
BMu53,P06,CTR,INI,Trunk_Lateral,1,L_MTF,FM,M3,79.84084880636604
BMu53,P06,CTR,INI,Trunk_Lateral,1,R_MTF,FM,M1,61.22969640275534
BMu53,P06,CTR,INI,Trunk_Lateral,1,R_MTF,FM,M2,63.953980204720416
BMu53,P06,CTR,INI,Trunk_Lateral,1,R_MTF,FM,M3,60.86572438162544
BMu53,P06,CTR,INI,Trunk_Lateral,1,R_MTF,FM,M4,63.011583011583014
BMu53,P06,CTR,REL,Trunk_Lateral,1,L_MTF,FM,M1,87.940234791889
BMu53,P06,CTR,REL,Trunk_Lateral,1,L_MTF,FM,M2,85.11576626240353
BMu53,P06,CTR,REL,Trunk_Lateral,1,L_MTF,FM,M3,82.64761732525544
BMu53,P06,CTR,REL,Trunk_Lateral,1,R_MTF,FM,M1,97.05117085862966
BMu53,P06,CTR,REL,Trunk_Lateral,1,R_MTF,FM,M2,97.0328789093825
BMu53,P06,CTR,REL,Trunk_Lateral,1,R_MTF,FM,M3,95.38603152686687
BMu53,P07,CTR,INI,Trunk_Lateral,1,L_MTF,FM,M1,120.29984282432595
BMu53,P07,CTR,INI,Trunk_Lateral,1,L_MTF,FM,M2,117.17417783191229
BMu53,P07,CTR,INI,Trunk_Lateral,1,L_MTF,FM,M3,124.27163894480347
BMu53,P07,CTR,INI,Trunk_Lateral,1,R_MTF,FM,M1,102.07726290064856
BMu53,P07,CTR,INI,Trunk_Lateral,1,R_MTF,FM,M2,104.32736305399398
BMu53,P07,CTR,INI,Trunk_Lateral,1,R_MTF,FM,M3,108.38168127391678
BMu53,P07,CTR,REL,Trunk_Lateral,1,L_MTF,FM,M1,120.01655400744929
BMu53,P07,CTR,REL,Trunk_Lateral,1,L_MTF,FM,M2,123.2707848239967
BMu53,P07,CTR,REL,Trunk_Lateral,1,L_MTF,FM,M3,121.54160835396705
BMu53,P07,CTR,REL,Trunk_Lateral,1,R_MTF,FM,M1,112.98969072164948
BMu53,P07,CTR,REL,Trunk_Lateral,1,R_MTF,FM,M2,110.21798365122616
BMu53,P07,CTR,REL,Trunk_Lateral,1,R_MTF,FM,M3,118.16920943134535
BMu53,P08,CTR,INI,Trunk_Lateral,1,L_MTF,FM,M1,33.98972602739726
BMu53,P08,CTR,INI,Trunk_Lateral,1,L_MTF,FM,M2,29.586330935251798
BMu53,P08,CTR,INI,Trunk_Lateral,1,L_MTF,FM,M3,42.039972432804966
BMu53,P08,CTR,INI,Trunk_Lateral,1,R_MTF,FM,M1,135.68
BMu53,P08,CTR,INI,Trunk_Lateral,1,R_MTF,FM,M2,131.64052344223936
BMu53,P08,CTR,INI,Trunk_Lateral,1,R_MTF,FM,M3,114.39387704715661
BMu53,P08,CTR,REL,Trunk_Lateral,1,L_MTF,FM,M1,100.70388180361
BMu53,P08,CTR,REL,Trunk_Lateral,1,L_MTF,FM,M2,105.96552545873382
BMu53,P08,CTR,REL,Trunk_Lateral,1,L_MTF,FM,M3,100.80971659919028
BMu53,P08,CTR,REL,Trunk_Lateral,1,R_MTF,FM,M1,147.49822148446762
BMu53,P08,CTR,REL,Trunk_Lateral,1,R_MTF,FM,M2,148.5494880546075
BMu53,P08,CTR,REL,Trunk_Lateral,1,R_MTF,FM,M3,151.86811217632828
BMu53,P09,PAT,INI,Trunk_Lateral,1,L_MTF,FM,M1,119.6478220574606
BMu53,P09,PAT,INI,Trunk_Lateral,1,L_MTF,FM,M2,119.15517030887558
BMu53,P09,PAT,INI,Trunk_Lateral,1,L_MTF,FM,M3,121.82111400570649
BMu53,P09,PAT,INI,Trunk_Lateral,1,R_MTF,FM,M1,123.8648746821649
BMu53,P09,PAT,INI,Trunk_Lateral,1,R_MTF,FM,M2,133.67762439169726
BMu53,P09,PAT,INI,Trunk_Lateral,1,R_MTF,FM,M3,121.33333333333333
BMu53,P09,PAT,REL,Trunk_Lateral,1,L_MTF,FM,M1,129.76791120080728
BMu53,P09,PAT,REL,Trunk_Lateral,1,L_MTF,FM,M2,140.66093693257474
BMu53,P09,PAT,REL,Trunk_Lateral,1,L_MTF,FM,M3,142.87449884582674
BMu53,P09,PAT,REL,Trunk_Lateral,1,R_MTF,FM,M1,157.16255169820778
BMu53,P09,PAT,REL,Trunk_Lateral,1,R_MTF,FM,M2,156.21332637892814
BMu53,P09,PAT,REL,Trunk_Lateral,1,R_MTF,FM,M3,154.83469789615503
BMu53,P10,PAT,INI,Trunk_Lateral,1,L_MTF,FM,M1,154.84154929577466
BMu53,P10,PAT,INI,Trunk_Lateral,1,L_MTF,FM,M2,138.03269900830875
BMu53,P10,PAT,INI,Trunk_Lateral,1,L_MTF,FM,M3,166.45021645021646
BMu53,P10,PAT,INI,Trunk_Lateral,1,L_MTF,FM,M4,156.68545899372407
BMu53,P10,PAT,INI,Trunk_Lateral,1,R_MTF,FM,M1,127.74263023287116
BMu53,P10,PAT,INI,Trunk_Lateral,1,R_MTF,FM,M2,121.14714553738943
BMu53,P10,PAT,INI,Trunk_Lateral,1,R_MTF,FM,M3,135.00941411008972
BMu53,P10,PAT,INI,Trunk_Lateral,1,R_MTF,FM,M4,100.99547511312217
BMu53,P10,PAT,REL,Trunk_Lateral,1,L_MTF,FM,M1,154.01987353206866
BMu53,P10,PAT,REL,Trunk_Lateral,1,L_MTF,FM,M2,152.40174672489084
BMu53,P10,PAT,REL,Trunk_Lateral,1,L_MTF,FM,M3,139.84287317620652
BMu53,P10,PAT,REL,Trunk_Lateral,1,R_MTF,FM,M1,128.08515615861504
BMu53,P10,PAT,REL,Trunk_Lateral,1,R_MTF,FM,M2,126.88574435738511
BMu53,P10,PAT,REL,Trunk_Lateral,1,R_MTF,FM,M3,129.31506849315068
BMu53,P11,PAT,INI,Trunk_Lateral,1,L_MTF,FM,M1,118.05259417199714
BMu53,P11,PAT,INI,Trunk_Lateral,1,L_MTF,FM,M2,126.953125
BMu53,P11,PAT,INI,Trunk_Lateral,1,L_MTF,FM,M3,123.72047244094487
BMu53,P11,PAT,INI,Trunk_Lateral,1,R_MTF,FM,M1,26.207380138487157
BMu53,P11,PAT,INI,Trunk_Lateral,1,R_MTF,FM,M2,32.39394243305586
BMu53,P11,PAT,INI,Trunk_Lateral,1,R_MTF,FM,M3,27.34761120263591
BMu53,P11,PAT,REL,Trunk_Lateral,1,L_MTF,FM,M1,126.18328298086607
BMu53,P11,PAT,REL,Trunk_Lateral,1,L_MTF,FM,M2,120.73184943479781
BMu53,P11,PAT,REL,Trunk_Lateral,1,L_MTF,FM,M3,115.27173363019938
BMu53,P11,PAT,REL,Trunk_Lateral,1,R_MTF,FM,M1,125.61284868977177
BMu53,P11,PAT,REL,Trunk_Lateral,1,R_MTF,FM,M2,296.31300033825687
BMu53,P11,PAT,REL,Trunk_Lateral,1,R_MTF,FM,M3,46.18023485948014
BMu53,P12,PAT,INI,Trunk_Lateral,1,L_MTF,FM,M1,96.52628343067937
BMu53,P12,PAT,INI,Trunk_Lateral,1,L_MTF,FM,M2,100.38560411311053
BMu53,P12,PAT,INI,Trunk_Lateral,1,L_MTF,FM,M3,107.96714043551961
BMu53,P12,PAT,INI,Trunk_Lateral,1,R_MTF,FM,M1,95.29844126219744
BMu53,P12,PAT,INI,Trunk_Lateral,1,R_MTF,FM,M2,107.74365821094793
BMu53,P12,PAT,INI,Trunk_Lateral,1,R_MTF,FM,M3,105.19467520768693
BMu53,P12,PAT,REL,Trunk_Lateral,1,L_MTF,FM,M1,43.56721627151281
BMu53,P12,PAT,REL,Trunk_Lateral,1,L_MTF,FM,M2,33.959879955773175
BMu53,P12,PAT,REL,Trunk_Lateral,1,L_MTF,FM,M3,33.328142033951096
BMu53,P12,PAT,REL,Trunk_Lateral,1,R_MTF,FM,M1,105.89887640449439
BMu53,P12,PAT,REL,Trunk_Lateral,1,R_MTF,FM,M2,28.10488302716282
BMu53,P12,PAT,REL,Trunk_Lateral,1,R_MTF,FM,M3,27.857061308368532
BMu53,P13,CTR,INI,Trunk_Lateral,1,L_MTF,FM,M1,49.159120310478656
BMu53,P13,CTR,INI,Trunk_Lateral,1,L_MTF,FM,M2,56.470588235294116
BMu53,P13,CTR,INI,Trunk_Lateral,1,L_MTF,FM,M3,53.03225806451613
BMu53,P13,CTR,INI,Trunk_Lateral,1,R_MTF,FM,M1,71.81372549019608
BMu53,P13,CTR,INI,Trunk_Lateral,1,R_MTF,FM,M2,70.16645326504481
BMu53,P13,CTR,INI,Trunk_Lateral,1,R_MTF,FM,M3,73.085478233238
BMu53,P13,CTR,REL,Trunk_Lateral,1,L_MTF,FM,M1,85.89153920205369
BMu53,P13,CTR,REL,Trunk_Lateral,1,L_MTF,FM,M2,86.39820471262934
BMu53,P13,CTR,REL,Trunk_Lateral,1,L_MTF,FM,M3,74.45887445887446
BMu53,P13,CTR,REL,Trunk_Lateral,1,R_MTF,FM,M1,90.34690799396681
BMu53,P13,CTR,REL,Trunk_Lateral,1,R_MTF,FM,M2,87.91369004228021
BMu53,P13,CTR,REL,Trunk_Lateral,1,R_MTF,FM,M3,93.0776947943373
BMu53,P14,PAT,INI,Trunk_Lateral,1,L_MTF,FM,M1,94.19710944876172
BMu53,P14,PAT,INI,Trunk_Lateral,1,L_MTF,FM,M2,79.69737796662866
BMu53,P14,PAT,INI,Trunk_Lateral,1,L_MTF,FM,M3,77.26787620064033
BMu53,P14,PAT,INI,Trunk_Lateral,1,R_MTF,FM,M1,83.43759022230776
BMu53,P14,PAT,INI,Trunk_Lateral,1,R_MTF,FM,M2,85.73540280857354
BMu53,P14,PAT,INI,Trunk_Lateral,1,R_MTF,FM,M3,78.81304611125529
BMu53,P14,PAT,REL,Trunk_Lateral,1,L_MTF,FM,M1,88.37161396642291
BMu53,P14,PAT,REL,Trunk_Lateral,1,L_MTF,FM,M2,88.08705612829324
BMu53,P14,PAT,REL,Trunk_Lateral,1,L_MTF,FM,M3,88.92857142857142
BMu53,P14,PAT,REL,Trunk_Lateral,1,R_MTF,FM,M1,107.62639245929734
BMu53,P14,PAT,REL,Trunk_Lateral,1,R_MTF,FM,M2,103.42154800132874
BMu53,P14,PAT,REL,Trunk_Lateral,1,R_MTF,FM,M3,97.33796296296295
BMu53,P16,CTR,INI,Trunk_Lateral,1,L_MTF,FM,M1,106.02409638554217
BMu53,P16,CTR,INI,Trunk_Lateral,1,L_MTF,FM,M2,106.26029654036243
BMu53,P16,CTR,INI,Trunk_Lateral,1,L_MTF,FM,M3,101.76289525230855
BMu53,P16,CTR,INI,Trunk_Lateral,1,R_MTF,FM,M1,130.1851851851852
BMu53,P16,CTR,INI,Trunk_Lateral,1,R_MTF,FM,M2,132.6141617325006
BMu53,P16,CTR,INI,Trunk_Lateral,1,R_MTF,FM,M3,126.12401282352022
BMu53,P16,CTR,REL,Trunk_Lateral,1,L_MTF,FM,M1,111.9047619047619
BMu53,P16,CTR,REL,Trunk_Lateral,1,L_MTF,FM,M2,110.77811077811077
BMu53,P16,CTR,REL,Trunk_Lateral,1,L_MTF,FM,M3,106.48379052369077
BMu53,P16,CTR,REL,Trunk_Lateral,1,R_MTF,FM,M1,122.54584681769148
BMu53,P16,CTR,REL,Trunk_Lateral,1,R_MTF,FM,M2,115.21666106818944
BMu53,P16,CTR,REL,Trunk_Lateral,1,R_MTF,FM,M3,116.46102919049054
BMu53,P17,PAT,INI,Trunk_Lateral,1,L_MTF,FM,M1,127.58514250437288
BMu53,P17,PAT,INI,Trunk_Lateral,1,L_MTF,FM,M2,121.36838133568105
BMu53,P17,PAT,INI,Trunk_Lateral,1,L_MTF,FM,M3,129.01078418319796
BMu53,P17,PAT,INI,Trunk_Lateral,1,R_MTF,FM,M1,148.9596083231334
BMu53,P17,PAT,INI,Trunk_Lateral,1,R_MTF,FM,M2,152.1877790534507
BMu53,P17,PAT,INI,Trunk_Lateral,1,R_MTF,FM,M3,148.32285115303984
BMu53,P17,PAT,REL,Trunk_Lateral,1,L_MTF,FM,M1,68.9419795221843
BMu53,P17,PAT,REL,Trunk_Lateral,1,L_MTF,FM,M2,93.84594847149913
BMu53,P17,PAT,REL,Trunk_Lateral,1,L_MTF,FM,M3,73.40254423161281
BMu53,P17,PAT,REL,Trunk_Lateral,1,R_MTF,FM,M1,107.30193008503173
BMu53,P17,PAT,REL,Trunk_Lateral,1,R_MTF,FM,M2,91.40211640211639
BMu53,P17,PAT,REL,Trunk_Lateral,1,R_MTF,FM,M3,77.12902893625785
BMu53,P21,CTR,INI,Trunk_Lateral,1,L_MTF,FM,M1,51.74363807728559
BMu53,P21,CTR,INI,Trunk_Lateral,1,L_MTF,FM,M2,100.01190617930705
BMu53,P21,CTR,INI,Trunk_Lateral,1,L_MTF,FM,M3,43.74193548387097
BMu53,P21,CTR,INI,Trunk_Lateral,1,R_MTF,FM,M1,82.32044198895028
BMu53,P21,CTR,INI,Trunk_Lateral,1,R_MTF,FM,M2,70.63197026022304
BMu53,P21,CTR,INI,Trunk_Lateral,1,R_MTF,FM,M3,93.94240317775571
BMu53,P21,CTR,REL,Trunk_Lateral,1,L_MTF,FM,M1,78.83597883597884
BMu53,P21,CTR,REL,Trunk_Lateral,1,L_MTF,FM,M2,80.31907578049787
BMu53,P21,CTR,REL,Trunk_Lateral,1,L_MTF,FM,M3,92.93044469783352
BMu53,P21,CTR,REL,Trunk_Lateral,1,R_MTF,FM,M1,73.80410022779044
BMu53,P21,CTR,REL,Trunk_Lateral,1,R_MTF,FM,M2,52.4077376869255
BMu53,P21,CTR,REL,Trunk_Lateral,1,R_MTF,FM,M3,45.91482868636426
BMu53,P22,CTR,INI,Trunk_Lateral,1,L_MTF,FM,M1,98.40674789128398
BMu53,P22,CTR,INI,Trunk_Lateral,1,L_MTF,FM,M2,87.97106521992767
BMu53,P22,CTR,INI,Trunk_Lateral,1,L_MTF,FM,M3,98.09939794593318
BMu53,P22,CTR,INI,Trunk_Lateral,1,R_MTF,FM,M1,296.3440464131135
BMu53,P22,CTR,INI,Trunk_Lateral,1,R_MTF,FM,M2,296.35170905742893
BMu53,P22,CTR,INI,Trunk_Lateral,1,R_MTF,FM,M3,296.26253418413853
BMu53,P22,CTR,REL,Trunk_Lateral,1,L_MTF,FM,M1,110.18229428945513
BMu53,P22,CTR,REL,Trunk_Lateral,1,L_MTF,FM,M2,99.46931555313647
BMu53,P22,CTR,REL,Trunk_Lateral,1,L_MTF,FM,M3,100.35294117647058
BMu53,P22,CTR,REL,Trunk_Lateral,1,R_MTF,FM,M1,79.78790556747884
BMu53,P22,CTR,REL,Trunk_Lateral,1,R_MTF,FM,M2,79.06683480453972
BMu53,P22,CTR,REL,Trunk_Lateral,1,R_MTF,FM,M3,65.08066721356303
BMu53,P23,CTR,INI,Trunk_Lateral,1,L_MTF,FM,M1,87.38379814077025
BMu53,P23,CTR,INI,Trunk_Lateral,1,L_MTF,FM,M2,85.19833307609198
BMu53,P23,CTR,INI,Trunk_Lateral,1,L_MTF,FM,M3,80.90957165520888
BMu53,P23,CTR,INI,Trunk_Lateral,1,L_MTF,FM,M4,86.16439824241776
BMu53,P23,CTR,INI,Trunk_Lateral,1,R_MTF,FM,M1,96.86262564727383
BMu53,P23,CTR,INI,Trunk_Lateral,1,R_MTF,FM,M2,67.57313555830243
BMu53,P23,CTR,INI,Trunk_Lateral,1,R_MTF,FM,M3,63.98730830248546
BMu53,P23,CTR,INI,Trunk_Lateral,1,R_MTF,FM,M4,73.43941248470011
BMu53,P23,CTR,REL,Trunk_Lateral,1,L_MTF,FM,M1,105.48424737456243
BMu53,P23,CTR,REL,Trunk_Lateral,1,L_MTF,FM,M2,96.25862695241554
BMu53,P23,CTR,REL,Trunk_Lateral,1,L_MTF,FM,M3,99.50727076072587
BMu53,P23,CTR,REL,Trunk_Lateral,1,R_MTF,FM,M1,110.83437110834372
BMu53,P23,CTR,REL,Trunk_Lateral,1,R_MTF,FM,M2,111.2820512820513
BMu53,P23,CTR,REL,Trunk_Lateral,1,R_MTF,FM,M3,108.71794871794872
BMu53,P24,PAT,INI,Trunk_Lateral,1,L_MTF,FM,M1,110.54131054131055
BMu53,P24,PAT,INI,Trunk_Lateral,1,L_MTF,FM,M2,119.44444444444446
BMu53,P24,PAT,INI,Trunk_Lateral,1,L_MTF,FM,M3,109.81366459627328
BMu53,P24,PAT,INI,Trunk_Lateral,1,R_MTF,FM,M1,126.56249999999999
BMu53,P24,PAT,INI,Trunk_Lateral,1,R_MTF,FM,M2,124.89327966825223
BMu53,P24,PAT,INI,Trunk_Lateral,1,R_MTF,FM,M3,127.7173913043478
BMu53,P24,PAT,REL,Trunk_Lateral,1,L_MTF,FM,M1,81.99283022336613
BMu53,P24,PAT,REL,Trunk_Lateral,1,L_MTF,FM,M2,90.2621722846442
BMu53,P24,PAT,REL,Trunk_Lateral,1,L_MTF,FM,M3,85.83157109093172
BMu53,P24,PAT,REL,Trunk_Lateral,1,R_MTF,FM,M1,97.45507176456398
BMu53,P24,PAT,REL,Trunk_Lateral,1,R_MTF,FM,M2,94.14012738853503
BMu53,P24,PAT,REL,Trunk_Lateral,1,R_MTF,FM,M3,92.64505298499633
BMu53,P25,CTR,INI,Trunk_Lateral,1,L_MTF,FM,M1,32.081185039692286
BMu53,P25,CTR,INI,Trunk_Lateral,1,L_MTF,FM,M2,99.98820893762529
BMu53,P25,CTR,INI,Trunk_Lateral,1,L_MTF,FM,M3,99.87980769230768
BMu53,P25,CTR,INI,Trunk_Lateral,1,R_MTF,FM,M1,101.98537095088818
BMu53,P25,CTR,INI,Trunk_Lateral,1,R_MTF,FM,M2,95.95505617977528
BMu53,P25,CTR,INI,Trunk_Lateral,1,R_MTF,FM,M3,91.54148603689889
BMu53,P25,CTR,REL,Trunk_Lateral,1,L_MTF,FM,M1,129.76809022937525
BMu53,P25,CTR,REL,Trunk_Lateral,1,L_MTF,FM,M2,124.70892626131953
BMu53,P25,CTR,REL,Trunk_Lateral,1,L_MTF,FM,M3,104.99479708636838
BMu53,P25,CTR,REL,Trunk_Lateral,1,R_MTF,FM,M1,99.45617107567519
BMu53,P25,CTR,REL,Trunk_Lateral,1,R_MTF,FM,M2,103.02663438256658
BMu53,P25,CTR,REL,Trunk_Lateral,1,R_MTF,FM,M3,103.89447236180904
BMu53,P26,PAT,INI,Trunk_Lateral,1,L_MTF,FM,M1,28.76984126984127
BMu53,P26,PAT,INI,Trunk_Lateral,1,L_MTF,FM,M2,58.525345622119815
BMu53,P26,PAT,INI,Trunk_Lateral,1,L_MTF,FM,M3,60.57213930348258
BMu53,P26,PAT,INI,Trunk_Lateral,1,R_MTF,FM,M1,31.480850096601888
BMu53,P26,PAT,INI,Trunk_Lateral,1,R_MTF,FM,M2,27.992166801059785
BMu53,P26,PAT,INI,Trunk_Lateral,1,R_MTF,FM,M3,29.504741833508955
BMu53,P26,PAT,REL,Trunk_Lateral,1,L_MTF,FM,M1,35.22167487684729
BMu53,P26,PAT,REL,Trunk_Lateral,1,L_MTF,FM,M2,29.957203994293863
BMu53,P26,PAT,REL,Trunk_Lateral,1,L_MTF,FM,M3,33.917197452229296
BMu53,P26,PAT,REL,Trunk_Lateral,1,R_MTF,FM,M1,27.947598253275107
BMu53,P26,PAT,REL,Trunk_Lateral,1,R_MTF,FM,M2,31.899109792284865
BMu53,P26,PAT,REL,Trunk_Lateral,1,R_MTF,FM,M3,30.522745877675124
BMu53,P27,PAT,INI,Trunk_Lateral,1,L_MTF,FM,M1,68.37686567164178
BMu53,P27,PAT,INI,Trunk_Lateral,1,L_MTF,FM,M2,65.17558951523125
BMu53,P27,PAT,INI,Trunk_Lateral,1,L_MTF,FM,M3,66.22889305816135
BMu53,P27,PAT,INI,Trunk_Lateral,1,R_MTF,FM,M1,80.08504606661941
BMu53,P27,PAT,INI,Trunk_Lateral,1,R_MTF,FM,M2,77.88134854952521
BMu53,P27,PAT,INI,Trunk_Lateral,1,R_MTF,FM,M3,77.12707182320442
BMu53,P27,PAT,REL,Trunk_Lateral,1,L_MTF,FM,M1,91.81338028169014
BMu53,P27,PAT,REL,Trunk_Lateral,1,L_MTF,FM,M2,83.0574488802337
BMu53,P27,PAT,REL,Trunk_Lateral,1,L_MTF,FM,M3,82.88699622442707
BMu53,P27,PAT,REL,Trunk_Lateral,1,R_MTF,FM,M1,56.22551655273062
BMu53,P27,PAT,REL,Trunk_Lateral,1,R_MTF,FM,M2,80.0526262524036
BMu53,P27,PAT,REL,Trunk_Lateral,1,R_MTF,FM,M3,95.51760939167555
BMu53,P28,PAT,INI,Trunk_Lateral,1,L_MTF,FM,M1,76.4283717028614
BMu53,P28,PAT,INI,Trunk_Lateral,1,L_MTF,FM,M2,86.1410969359939
BMu53,P28,PAT,INI,Trunk_Lateral,1,L_MTF,FM,M3,87.87578460521969
BMu53,P28,PAT,INI,Trunk_Lateral,1,R_MTF,FM,M1,101.8362662586075
BMu53,P28,PAT,INI,Trunk_Lateral,1,R_MTF,FM,M2,93.17226890756302
BMu53,P28,PAT,INI,Trunk_Lateral,1,R_MTF,FM,M3,90.22902520428127
BMu53,P28,PAT,REL,Trunk_Lateral,1,L_MTF,FM,M1,125.51020408163265
BMu53,P28,PAT,REL,Trunk_Lateral,1,L_MTF,FM,M2,109.79498861047837
BMu53,P28,PAT,REL,Trunk_Lateral,1,L_MTF,FM,M3,101.00628930817611
BMu53,P28,PAT,REL,Trunk_Lateral,1,R_MTF,FM,M1,93.16579834508123
BMu53,P28,PAT,REL,Trunk_Lateral,1,R_MTF,FM,M2,90.82125603864735
BMu53,P28,PAT,REL,Trunk_Lateral,1,R_MTF,FM,M3,70.72179981251952
BMu53,P29,PAT,INI,Trunk_Lateral,1,L_MTF,FM,M1,116.94444444444444
BMu53,P29,PAT,INI,Trunk_Lateral,1,L_MTF,FM,M2,108.82128448369863
BMu53,P29,PAT,INI,Trunk_Lateral,1,R_MTF,FM,M1,119.6244131455399
BMu53,P29,PAT,INI,Trunk_Lateral,1,R_MTF,FM,M2,109.66663571362243
BMu53,P29,PAT,INI,Trunk_Lateral,1,R_MTF,FM,M3,124.4917715392062
BMu53,P29,PAT,REL,Trunk_Lateral,1,L_MTF,FM,M1,116.86046511627907
BMu53,P29,PAT,REL,Trunk_Lateral,1,L_MTF,FM,M2,105.02763885232956
BMu53,P29,PAT,REL,Trunk_Lateral,1,L_MTF,FM,M3,106.64961636828644
BMu53,P29,PAT,REL,Trunk_Lateral,1,L_MTF,FM,M4,107.38255033557049
BMu53,P29,PAT,REL,Trunk_Lateral,1,L_MTF,FM,M5,105.29695024077047
BMu53,P29,PAT,REL,Trunk_Lateral,1,R_MTF,FM,M1,115.53072625698323
BMu53,P29,PAT,REL,Trunk_Lateral,1,R_MTF,FM,M2,126.17079889807162
BMu53,P29,PAT,REL,Trunk_Lateral,1,R_MTF,FM,M3,128.6445012787724
BMu53,P29,PAT,REL,Trunk_Lateral,1,R_MTF,FM,M4,126.22036262203626
BMu53,P29,PAT,REL,Trunk_Lateral,1,R_MTF,FM,M5,121.18780096308186
BMu53,P30,PAT,REL,Trunk_Lateral,1,L_MTF,FM,M1,151.23331985442783
BMu53,P30,PAT,REL,Trunk_Lateral,1,L_MTF,FM,M2,143.21784261467246
BMu53,P30,PAT,REL,Trunk_Lateral,1,L_MTF,FM,M3,138.8245672069688
BMu53,P30,PAT,REL,Trunk_Lateral,1,R_MTF,FM,M1,109.64912280701753
BMu53,P30,PAT,REL,Trunk_Lateral,1,R_MTF,FM,M2,118.92102191674232
BMu53,P30,PAT,REL,Trunk_Lateral,1,R_MTF,FM,M3,103.91771290273786
BMu53,P32,PAT,INI,Trunk_Lateral,1,L_MTF,FM,M1,128.21009787770132
BMu53,P32,PAT,INI,Trunk_Lateral,1,L_MTF,FM,M2,120.56160341845559
BMu53,P32,PAT,INI,Trunk_Lateral,1,L_MTF,FM,M3,118.5096768692983
BMu53,P32,PAT,INI,Trunk_Lateral,1,R_MTF,FM,M1,134.76649369903632
BMu53,P32,PAT,INI,Trunk_Lateral,1,R_MTF,FM,M2,135.97483040015732
BMu53,P32,PAT,INI,Trunk_Lateral,1,R_MTF,FM,M3,135.23886476113526
BMu53,P32,PAT,REL,Trunk_Lateral,1,L_MTF,FM,M1,116.80044284528094
BMu53,P32,PAT,REL,Trunk_Lateral,1,L_MTF,FM,M2,122.18225419664269
BMu53,P32,PAT,REL,Trunk_Lateral,1,L_MTF,FM,M3,125.55644332838715
BMu53,P32,PAT,REL,Trunk_Lateral,1,R_MTF,FM,M1,62.315270935960584
BMu53,P32,PAT,REL,Trunk_Lateral,1,R_MTF,FM,M2,41.97828709288299
BMu53,P32,PAT,REL,Trunk_Lateral,1,R_MTF,FM,M3,78.87817703768624
BMu53,P33,PAT,INI,Trunk_Lateral,1,L_MTF,FM,M1,95.95426561125768
BMu53,P33,PAT,INI,Trunk_Lateral,1,L_MTF,FM,M2,95.3235258940318
BMu53,P33,PAT,INI,Trunk_Lateral,1,L_MTF,FM,M3,93.34203655352479
BMu53,P33,PAT,INI,Trunk_Lateral,1,R_MTF,FM,M1,56.34289664707916
BMu53,P33,PAT,INI,Trunk_Lateral,1,R_MTF,FM,M2,64.88399528116396
BMu53,P33,PAT,INI,Trunk_Lateral,1,R_MTF,FM,M3,62.11790393013101
BMu53,P33,PAT,REL,Trunk_Lateral,1,L_MTF,FM,M1,88.23144390627046
BMu53,P33,PAT,REL,Trunk_Lateral,1,L_MTF,FM,M2,76.98986975397973
BMu53,P33,PAT,REL,Trunk_Lateral,1,L_MTF,FM,M3,100.010461345329
BMu53,P33,PAT,REL,Trunk_Lateral,1,R_MTF,FM,M1,98.83720930232558
BMu53,P33,PAT,REL,Trunk_Lateral,1,R_MTF,FM,M2,59.73684210526316
BMu53,P33,PAT,REL,Trunk_Lateral,1,R_MTF,FM,M3,40.085352842554485
BMu53,P34,PAT,INI,Trunk_Lateral,1,L_MTF,FM,M1,62.880790895505235
BMu53,P34,PAT,INI,Trunk_Lateral,1,L_MTF,FM,M2,57.6857435430652
BMu53,P34,PAT,INI,Trunk_Lateral,1,L_MTF,FM,M3,55.10078338174456
BMu53,P34,PAT,INI,Trunk_Lateral,1,R_MTF,FM,M1,95.58011049723757
BMu53,P34,PAT,INI,Trunk_Lateral,1,R_MTF,FM,M2,78.72165432969098
BMu53,P34,PAT,INI,Trunk_Lateral,1,R_MTF,FM,M3,148.18880351262348
BMu53,P34,PAT,REL,Trunk_Lateral,1,L_MTF,FM,M1,111.9193689745837
BMu53,P34,PAT,REL,Trunk_Lateral,1,L_MTF,FM,M2,97.48571428571428
BMu53,P34,PAT,REL,Trunk_Lateral,1,L_MTF,FM,M3,90.72188536780689
BMu53,P34,PAT,REL,Trunk_Lateral,1,R_MTF,FM,M1,116.17647058823529
BMu53,P34,PAT,REL,Trunk_Lateral,1,R_MTF,FM,M2,64.96681802305274
BMu53,P34,PAT,REL,Trunk_Lateral,1,R_MTF,FM,M3,109.87654320987653
BMu53,P35,CTR,INI,Trunk_Lateral,1,L_MTF,FM,M1,139.8890331719986
BMu53,P35,CTR,INI,Trunk_Lateral,1,L_MTF,FM,M2,111.89284264646192
BMu53,P35,CTR,INI,Trunk_Lateral,1,L_MTF,FM,M3,134.79188900747064
BMu53,P35,CTR,INI,Trunk_Lateral,1,R_MTF,FM,M1,91.53097600924946
BMu53,P35,CTR,INI,Trunk_Lateral,1,R_MTF,FM,M2,122.08504801097394
BMu53,P35,CTR,INI,Trunk_Lateral,1,R_MTF,FM,M3,112.31593038821954
BMu53,P35,CTR,REL,Trunk_Lateral,1,L_MTF,FM,M1,98.27188940092167
BMu53,P35,CTR,REL,Trunk_Lateral,1,L_MTF,FM,M2,81.58508158508158
BMu53,P35,CTR,REL,Trunk_Lateral,1,L_MTF,FM,M3,102.27531285551763
BMu53,P35,CTR,REL,Trunk_Lateral,1,R_MTF,FM,M1,92.615413783297
BMu53,P35,CTR,REL,Trunk_Lateral,1,R_MTF,FM,M2,120.54309327036599
BMu53,P35,CTR,REL,Trunk_Lateral,1,R_MTF,FM,M3,96.13645173795065
BMu53,P36,PAT,INI,Trunk_Lateral,1,L_MTF,FM,M1,132.68251273344654
BMu53,P36,PAT,INI,Trunk_Lateral,1,L_MTF,FM,M2,124.02040054733176
BMu53,P36,PAT,INI,Trunk_Lateral,1,L_MTF,FM,M3,117.52988047808765
BMu53,P36,PAT,INI,Trunk_Lateral,1,R_MTF,FM,M1,101.22574055158324
BMu53,P36,PAT,INI,Trunk_Lateral,1,R_MTF,FM,M2,99.86303075582119
BMu53,P36,PAT,INI,Trunk_Lateral,1,R_MTF,FM,M3,104.93454179254783
BMu53,P36,PAT,REL,Trunk_Lateral,1,L_MTF,FM,M1,133.93881453154876
BMu53,P36,PAT,REL,Trunk_Lateral,1,L_MTF,FM,M2,138.65404125803178
BMu53,P36,PAT,REL,Trunk_Lateral,1,L_MTF,FM,M3,112.39157372986368
BMu53,P36,PAT,REL,Trunk_Lateral,1,R_MTF,FM,M1,105.78953217024113
BMu53,P36,PAT,REL,Trunk_Lateral,1,R_MTF,FM,M2,87.76595744680851
BMu53,P36,PAT,REL,Trunk_Lateral,1,R_MTF,FM,M3,77.78785131459655
BMu53,P38,CTR,INI,Trunk_Lateral,1,L_MTF,FM,M1,61.404418628772945
BMu53,P38,CTR,INI,Trunk_Lateral,1,L_MTF,FM,M2,29.542920847268668
BMu53,P38,CTR,INI,Trunk_Lateral,1,L_MTF,FM,M3,24.12443127711353
BMu53,P38,CTR,INI,Trunk_Lateral,1,R_MTF,FM,M1,77.33796507907488
BMu53,P38,CTR,INI,Trunk_Lateral,1,R_MTF,FM,M2,69.38300349243306
BMu53,P38,CTR,INI,Trunk_Lateral,1,R_MTF,FM,M3,67.13577113853962
BMu53,P38,CTR,INI,Trunk_Lateral,1,R_MTF,FM,M4,68.60454248060566
BMu53,P38,CTR,REL,Trunk_Lateral,1,L_MTF,FM,M1,65.35162950257289
BMu53,P38,CTR,REL,Trunk_Lateral,1,L_MTF,FM,M2,62.82335550628233
BMu53,P38,CTR,REL,Trunk_Lateral,1,L_MTF,FM,M3,77.26394727871833
BMu53,P38,CTR,REL,Trunk_Lateral,1,R_MTF,FM,M1,81.71675545280932
BMu53,P38,CTR,REL,Trunk_Lateral,1,R_MTF,FM,M2,75.89237860435202
BMu53,P38,CTR,REL,Trunk_Lateral,1,R_MTF,FM,M3,74.22222222222223
BMu53,P39,CTR,INI,Trunk_Lateral,1,L_MTF,FM,M1,81.90255220417632
BMu53,P39,CTR,INI,Trunk_Lateral,1,L_MTF,FM,M2,84.18275572610625
BMu53,P39,CTR,INI,Trunk_Lateral,1,L_MTF,FM,M3,85.12501216071603
BMu53,P39,CTR,INI,Trunk_Lateral,1,R_MTF,FM,M1,82.40534521158129
BMu53,P39,CTR,INI,Trunk_Lateral,1,R_MTF,FM,M2,69.32427992552842
BMu53,P39,CTR,INI,Trunk_Lateral,1,R_MTF,FM,M3,76.86017988552739
BMu53,P39,CTR,REL,Trunk_Lateral,1,L_MTF,FM,M1,87.59894459102902
BMu53,P39,CTR,REL,Trunk_Lateral,1,L_MTF,FM,M2,76.87165775401068
BMu53,P39,CTR,REL,Trunk_Lateral,1,L_MTF,FM,M3,77.16155700998966
BMu53,P39,CTR,REL,Trunk_Lateral,1,R_MTF,FM,M1,26.67643058897374
BMu53,P39,CTR,REL,Trunk_Lateral,1,R_MTF,FM,M2,44.35001991767361
BMu53,P39,CTR,REL,Trunk_Lateral,1,R_MTF,FM,M3,47.116736990154706
BMu53,P40,CTR,INI,Trunk_Lateral,1,L_MTF,FM,M1,105.46139359698682
BMu53,P40,CTR,INI,Trunk_Lateral,1,L_MTF,FM,M2,91.73728813559323
BMu53,P40,CTR,INI,Trunk_Lateral,1,L_MTF,FM,M3,98.79491911844534
BMu53,P40,CTR,INI,Trunk_Lateral,1,R_MTF,FM,M1,129.41834451901568
BMu53,P40,CTR,INI,Trunk_Lateral,1,R_MTF,FM,M2,129.24226254002133
BMu53,P40,CTR,INI,Trunk_Lateral,1,R_MTF,FM,M3,121.1715331726047
BMu53,P40,CTR,REL,Trunk_Lateral,1,L_MTF,FM,M1,116.87371848992883
BMu53,P40,CTR,REL,Trunk_Lateral,1,L_MTF,FM,M2,99.33065595716198
BMu53,P40,CTR,REL,Trunk_Lateral,1,L_MTF,FM,M3,93.15960912052117
BMu53,P40,CTR,REL,Trunk_Lateral,1,R_MTF,FM,M1,131.74992011928853
BMu53,P40,CTR,REL,Trunk_Lateral,1,R_MTF,FM,M2,134.6049046321526
BMu53,P40,CTR,REL,Trunk_Lateral,1,R_MTF,FM,M3,85.419734904271
BMu53,P41,PAT,INI,Trunk_Lateral,1,L_MTF,FM,M1,80.51700391990677
BMu53,P41,PAT,INI,Trunk_Lateral,1,L_MTF,FM,M2,84.63687150837988
BMu53,P41,PAT,INI,Trunk_Lateral,1,L_MTF,FM,M3,96.61266568483063
BMu53,P41,PAT,INI,Trunk_Lateral,1,R_MTF,FM,M1,62.15864759427828
BMu53,P41,PAT,INI,Trunk_Lateral,1,R_MTF,FM,M2,59.5900439238653
BMu53,P41,PAT,INI,Trunk_Lateral,1,R_MTF,FM,M3,79.33127462464061
BMu53,P41,PAT,REL,Trunk_Lateral,1,L_MTF,FM,M1,110.03270387171642
BMu53,P41,PAT,REL,Trunk_Lateral,1,L_MTF,FM,M2,103.33292033205304
BMu53,P41,PAT,REL,Trunk_Lateral,1,L_MTF,FM,M3,101.60855230292736
BMu53,P41,PAT,REL,Trunk_Lateral,1,R_MTF,FM,M1,79.75830815709969
BMu53,P41,PAT,REL,Trunk_Lateral,1,R_MTF,FM,M2,90.46538024971623
BMu53,P41,PAT,REL,Trunk_Lateral,1,R_MTF,FM,M3,82.08616780045351
BMu53,P42,PAT,INI,Trunk_Lateral,1,L_MTF,FM,M1,104.83162518301611
BMu53,P42,PAT,INI,Trunk_Lateral,1,L_MTF,FM,M2,105.62770562770564
BMu53,P42,PAT,INI,Trunk_Lateral,1,L_MTF,FM,M3,104.58422174840085
BMu53,P42,PAT,INI,Trunk_Lateral,1,R_MTF,FM,M1,122.14294352400532
BMu53,P42,PAT,INI,Trunk_Lateral,1,R_MTF,FM,M2,117.86216596343178
BMu53,P42,PAT,INI,Trunk_Lateral,1,R_MTF,FM,M3,119.63788300835655
BMu53,P42,PAT,REL,Trunk_Lateral,1,L_MTF,FM,M1,120.0
BMu53,P42,PAT,REL,Trunk_Lateral,1,L_MTF,FM,M2,119.84446604638244
BMu53,P42,PAT,REL,Trunk_Lateral,1,L_MTF,FM,M3,115.14890871949252
BMu53,P42,PAT,REL,Trunk_Lateral,1,R_MTF,FM,M1,116.36908477962292
BMu53,P42,PAT,REL,Trunk_Lateral,1,R_MTF,FM,M2,109.42334739803094
BMu53,P42,PAT,REL,Trunk_Lateral,1,R_MTF,FM,M3,114.91240171058075
BMu53,P43,PAT,INI,Trunk_Lateral,1,L_MTF,FM,M1,92.27053140096619
BMu53,P43,PAT,INI,Trunk_Lateral,1,L_MTF,FM,M2,103.16389263757684
BMu53,P43,PAT,INI,Trunk_Lateral,1,L_MTF,FM,M3,108.43201597945497
BMu53,P43,PAT,INI,Trunk_Lateral,1,R_MTF,FM,M1,108.44444444444444
BMu53,P43,PAT,INI,Trunk_Lateral,1,R_MTF,FM,M2,67.90031338606178
BMu53,P43,PAT,INI,Trunk_Lateral,1,R_MTF,FM,M3,90.34792368125702
BMu53,P43,PAT,REL,Trunk_Lateral,1,L_MTF,FM,M1,99.88663559642272
BMu53,P43,PAT,REL,Trunk_Lateral,1,L_MTF,FM,M2,93.06539285126009
BMu53,P43,PAT,REL,Trunk_Lateral,1,L_MTF,FM,M3,86.13409896976862
BMu53,P43,PAT,REL,Trunk_Lateral,1,R_MTF,FM,M1,295.253164556962
BMu53,P43,PAT,REL,Trunk_Lateral,1,R_MTF,FM,M2,148.07267787400238
BMu53,P43,PAT,REL,Trunk_Lateral,1,R_MTF,FM,M3,229.82456140350877
BMu53,P44,CTR,INI,Trunk_Lateral,1,L_MTF,FM,M1,184.4806007509387
BMu53,P44,CTR,INI,Trunk_Lateral,1,L_MTF,FM,M2,33.53365384615385
BMu53,P44,CTR,INI,Trunk_Lateral,1,L_MTF,FM,M3,59.99999999999999
BMu53,P44,CTR,INI,Trunk_Lateral,1,R_MTF,FM,M1,145.13584574934268
BMu53,P44,CTR,INI,Trunk_Lateral,1,R_MTF,FM,M2,140.32584136044713
BMu53,P44,CTR,INI,Trunk_Lateral,1,R_MTF,FM,M3,120.6024096385542
BMu53,P44,CTR,REL,Trunk_Lateral,1,L_MTF,FM,M1,107.61548064918851
BMu53,P44,CTR,REL,Trunk_Lateral,1,L_MTF,FM,M2,104.9437349854596
BMu53,P44,CTR,REL,Trunk_Lateral,1,L_MTF,FM,M3,108.44879674966141
BMu53,P44,CTR,REL,Trunk_Lateral,1,R_MTF,FM,M1,106.73828125
BMu53,P44,CTR,REL,Trunk_Lateral,1,R_MTF,FM,M2,101.54761904761904
BMu53,P44,CTR,REL,Trunk_Lateral,1,R_MTF,FM,M3,103.11635182288533
BMu53,P45,PAT,INI,Trunk_Lateral,1,L_MTF,FM,M1,109.39663699307617
BMu53,P45,PAT,INI,Trunk_Lateral,1,L_MTF,FM,M2,106.39342250582892
BMu53,P45,PAT,INI,Trunk_Lateral,1,L_MTF,FM,M3,139.51271186440678
BMu53,P45,PAT,INI,Trunk_Lateral,1,R_MTF,FM,M1,75.38148524923703
BMu53,P45,PAT,INI,Trunk_Lateral,1,R_MTF,FM,M2,67.17827626918536
BMu53,P45,PAT,INI,Trunk_Lateral,1,R_MTF,FM,M3,75.31987864397837
BMu53,P45,PAT,REL,Trunk_Lateral,1,L_MTF,FM,M1,138.63049095607235
BMu53,P45,PAT,REL,Trunk_Lateral,1,L_MTF,FM,M2,136.24220837043634
BMu53,P45,PAT,REL,Trunk_Lateral,1,L_MTF,FM,M3,136.08040201005025
BMu53,P45,PAT,REL,Trunk_Lateral,1,R_MTF,FM,M1,131.4048770855958
BMu53,P45,PAT,REL,Trunk_Lateral,1,R_MTF,FM,M2,78.22685788787484
BMu53,P45,PAT,REL,Trunk_Lateral,1,R_MTF,FM,M3,66.93017127799737
BMu53,P46,CTR,INI,Trunk_Lateral,1,L_MTF,FM,M1,45.531364946813795
BMu53,P46,CTR,INI,Trunk_Lateral,1,L_MTF,FM,M2,52.30157516439823
BMu53,P46,CTR,INI,Trunk_Lateral,1,L_MTF,FM,M3,31.50102378327296
BMu53,P46,CTR,INI,Trunk_Lateral,1,R_MTF,FM,M1,95.42956708216056
BMu53,P46,CTR,INI,Trunk_Lateral,1,R_MTF,FM,M2,88.85663602644735
BMu53,P46,CTR,INI,Trunk_Lateral,1,R_MTF,FM,M3,70.0939299060701
BMu53,P46,CTR,REL,Trunk_Lateral,1,L_MTF,FM,M1,34.21418636995827
BMu53,P46,CTR,REL,Trunk_Lateral,1,L_MTF,FM,M2,39.285714285714285
BMu53,P46,CTR,REL,Trunk_Lateral,1,L_MTF,FM,M3,39.846322722283205
BMu53,P46,CTR,REL,Trunk_Lateral,1,R_MTF,FM,M1,70.79395085066163
BMu53,P46,CTR,REL,Trunk_Lateral,1,R_MTF,FM,M2,65.02949650157771
BMu53,P46,CTR,REL,Trunk_Lateral,1,R_MTF,FM,M3,64.08759124087591
BMu53,P47,PAT,INI,Trunk_Lateral,1,L_MTF,FM,M1,90.49723138878012
BMu53,P47,PAT,INI,Trunk_Lateral,1,L_MTF,FM,M2,88.84838819911151
BMu53,P47,PAT,INI,Trunk_Lateral,1,L_MTF,FM,M3,81.61248888449758
BMu53,P47,PAT,INI,Trunk_Lateral,1,R_MTF,FM,M1,29.611601257478952
BMu53,P47,PAT,INI,Trunk_Lateral,1,R_MTF,FM,M2,33.6734693877551
BMu53,P47,PAT,INI,Trunk_Lateral,1,R_MTF,FM,M3,37.5796178343949
BMu53,P47,PAT,REL,Trunk_Lateral,1,L_MTF,FM,M1,107.8558225508318
BMu53,P47,PAT,REL,Trunk_Lateral,1,L_MTF,FM,M2,95.28404293812567
BMu53,P47,PAT,REL,Trunk_Lateral,1,L_MTF,FM,M3,96.05110336817654
BMu53,P47,PAT,REL,Trunk_Lateral,1,R_MTF,FM,M1,46.58486263437941
BMu53,P47,PAT,REL,Trunk_Lateral,1,R_MTF,FM,M2,69.58981612446959
BMu53,P47,PAT,REL,Trunk_Lateral,1,R_MTF,FM,M3,31.346841477949937
BMu53,P47,PAT,REL,Trunk_Lateral,1,R_MTF,FM,M4,32.316491897044806
BMu53,P48,CTR,INI,Trunk_Lateral,1,L_MTF,FM,M1,114.35597909621886
BMu53,P48,CTR,INI,Trunk_Lateral,1,L_MTF,FM,M2,121.86333805173079
BMu53,P48,CTR,INI,Trunk_Lateral,1,L_MTF,FM,M3,116.43922969009054
BMu53,P48,CTR,INI,Trunk_Lateral,1,R_MTF,FM,M1,111.42490372272144
BMu53,P48,CTR,INI,Trunk_Lateral,1,R_MTF,FM,M2,111.64233105052334
BMu53,P48,CTR,INI,Trunk_Lateral,1,R_MTF,FM,M3,110.27088036117382
BMu53,P48,CTR,REL,Trunk_Lateral,1,L_MTF,FM,M1,114.1899441340782
BMu53,P48,CTR,REL,Trunk_Lateral,1,L_MTF,FM,M2,118.66666666666667
BMu53,P48,CTR,REL,Trunk_Lateral,1,L_MTF,FM,M3,112.67605633802815
BMu53,P48,CTR,REL,Trunk_Lateral,1,R_MTF,FM,M1,125.99179206566347
BMu53,P48,CTR,REL,Trunk_Lateral,1,R_MTF,FM,M2,132.09700427960058
BMu53,P48,CTR,REL,Trunk_Lateral,1,R_MTF,FM,M3,121.82628062360801
BMu53,P49,CTR,INI,Trunk_Lateral,1,L_MTF,FM,M1,127.75280898876404
BMu53,P49,CTR,INI,Trunk_Lateral,1,L_MTF,FM,M2,113.16315727561465
BMu53,P49,CTR,INI,Trunk_Lateral,1,L_MTF,FM,M3,115.51606288448393
BMu53,P49,CTR,INI,Trunk_Lateral,1,R_MTF,FM,M1,128.70448772226925
BMu53,P49,CTR,INI,Trunk_Lateral,1,R_MTF,FM,M2,120.3143893591294
BMu53,P49,CTR,INI,Trunk_Lateral,1,R_MTF,FM,M3,121.53437143942271
BMu53,P49,CTR,REL,Trunk_Lateral,1,L_MTF,FM,M1,108.51808634772462
BMu53,P49,CTR,REL,Trunk_Lateral,1,L_MTF,FM,M2,98.10771470160115
BMu53,P49,CTR,REL,Trunk_Lateral,1,L_MTF,FM,M3,92.62536873156343
BMu53,P49,CTR,REL,Trunk_Lateral,1,R_MTF,FM,M1,121.1864406779661
BMu53,P49,CTR,REL,Trunk_Lateral,1,R_MTF,FM,M2,129.9236641221374
BMu53,P49,CTR,REL,Trunk_Lateral,1,R_MTF,FM,M3,112.97167106319533
BMu53,P50,PAT,INI,Trunk_Lateral,1,L_MTF,FM,M1,138.12218500981638
BMu53,P50,PAT,INI,Trunk_Lateral,1,L_MTF,FM,M2,141.46000698567934
BMu53,P50,PAT,INI,Trunk_Lateral,1,L_MTF,FM,M3,139.04255319148936
BMu53,P50,PAT,INI,Trunk_Lateral,1,R_MTF,FM,M1,110.8411214953271
BMu53,P50,PAT,INI,Trunk_Lateral,1,R_MTF,FM,M2,113.2970720981368
BMu53,P50,PAT,INI,Trunk_Lateral,1,R_MTF,FM,M3,112.50153355416514
BMu53,P50,PAT,REL,Trunk_Lateral,1,L_MTF,FM,M1,122.6019565493584
BMu53,P50,PAT,REL,Trunk_Lateral,1,L_MTF,FM,M2,98.4896560477218
BMu53,P50,PAT,REL,Trunk_Lateral,1,L_MTF,FM,M3,117.18838286812068
BMu53,P50,PAT,REL,Trunk_Lateral,1,R_MTF,FM,M1,114.61776308774922
BMu53,P50,PAT,REL,Trunk_Lateral,1,R_MTF,FM,M2,119.29824561403508
BMu53,P50,PAT,REL,Trunk_Lateral,1,R_MTF,FM,M3,124.63647694225176
BMu53,P51,PAT,INI,Trunk_Lateral,1,L_MTF,FM,M1,89.57270165282962
BMu53,P51,PAT,INI,Trunk_Lateral,1,L_MTF,FM,M2,92.24720233894546
BMu53,P51,PAT,INI,Trunk_Lateral,1,L_MTF,FM,M3,83.01967953543392
BMu53,P51,PAT,INI,Trunk_Lateral,1,R_MTF,FM,M1,71.718028461031
BMu53,P51,PAT,INI,Trunk_Lateral,1,R_MTF,FM,M2,71.91316146540028
BMu53,P51,PAT,INI,Trunk_Lateral,1,R_MTF,FM,M3,63.657291562406165
BMu53,P51,PAT,REL,Trunk_Lateral,1,L_MTF,FM,M1,88.32735323307122
BMu53,P51,PAT,REL,Trunk_Lateral,1,L_MTF,FM,M2,85.38812785388127
BMu53,P51,PAT,REL,Trunk_Lateral,1,L_MTF,FM,M3,84.38095238095238
BMu53,P51,PAT,REL,Trunk_Lateral,1,R_MTF,FM,M1,78.21277331259184
BMu53,P51,PAT,REL,Trunk_Lateral,1,R_MTF,FM,M2,81.5126050420168
BMu53,P51,PAT,REL,Trunk_Lateral,1,R_MTF,FM,M3,79.04238618524333
BMu53,P52,CTR,INI,Trunk_Lateral,1,L_MTF,FM,M1,112.83828073789681
BMu53,P52,CTR,INI,Trunk_Lateral,1,L_MTF,FM,M2,116.27906976744185
BMu53,P52,CTR,INI,Trunk_Lateral,1,L_MTF,FM,M3,117.38648947951275
BMu53,P52,CTR,INI,Trunk_Lateral,1,R_MTF,FM,M1,113.76370280146162
BMu53,P52,CTR,INI,Trunk_Lateral,1,R_MTF,FM,M2,118.20150299324925
BMu53,P52,CTR,INI,Trunk_Lateral,1,R_MTF,FM,M3,93.55265090321632
BMu53,P52,CTR,REL,Trunk_Lateral,1,L_MTF,FM,M1,103.52201257861635
BMu53,P52,CTR,REL,Trunk_Lateral,1,L_MTF,FM,M2,97.50656167979002
BMu53,P52,CTR,REL,Trunk_Lateral,1,L_MTF,FM,M3,102.70197607205269
BMu53,P52,CTR,REL,Trunk_Lateral,1,R_MTF,FM,M1,102.9514617429011
BMu53,P52,CTR,REL,Trunk_Lateral,1,R_MTF,FM,M2,111.17486730741643
BMu53,P52,CTR,REL,Trunk_Lateral,1,R_MTF,FM,M3,113.79570704346888
BMu53,P53,PAT,INI,Trunk_Lateral,1,L_MTF,FM,M1,89.6629213483146
BMu53,P53,PAT,INI,Trunk_Lateral,1,L_MTF,FM,M2,91.2133891213389
BMu53,P53,PAT,INI,Trunk_Lateral,1,R_MTF,FM,M1,88.7538177749554
BMu53,P53,PAT,REL,Trunk_Lateral,1,L_MTF,FM,M1,73.00106391685081
BMu53,P53,PAT,REL,Trunk_Lateral,1,L_MTF,FM,M2,66.63101604278074
BMu53,P53,PAT,REL,Trunk_Lateral,1,L_MTF,FM,M3,51.605995717344754
BMu53,P53,PAT,REL,Trunk_Lateral,1,L_MTF,FM,M4,38.775510204081634
BMu53,P53,PAT,REL,Trunk_Lateral,1,R_MTF,FM,M1,72.64770240700219
BMu53,P53,PAT,REL,Trunk_Lateral,1,R_MTF,FM,M2,72.18934911242604
BMu53,P53,PAT,REL,Trunk_Lateral,1,R_MTF,FM,M3,80.21108179419525
BMu53,P53,PAT,REL,Trunk_Lateral,1,R_MTF,FM,M4,79.74882260596546
BMu53,P54,PAT,INI,Trunk_Lateral,1,L_MTF,FM,M1,93.56430657669452
BMu53,P54,PAT,INI,Trunk_Lateral,1,L_MTF,FM,M2,89.37402002171028
BMu53,P54,PAT,INI,Trunk_Lateral,1,L_MTF,FM,M3,78.8983997022702
BMu53,P54,PAT,INI,Trunk_Lateral,1,R_MTF,FM,M1,92.66503667481663
BMu53,P54,PAT,INI,Trunk_Lateral,1,R_MTF,FM,M2,90.57482534624341
BMu53,P54,PAT,INI,Trunk_Lateral,1,R_MTF,FM,M3,94.27195409365713
BMu53,P54,PAT,REL,Trunk_Lateral,1,L_MTF,FM,M1,77.09178638008554
BMu53,P54,PAT,REL,Trunk_Lateral,1,L_MTF,FM,M2,74.90196078431373
BMu53,P54,PAT,REL,Trunk_Lateral,1,L_MTF,FM,M3,70.06621207629212
BMu53,P54,PAT,REL,Trunk_Lateral,1,R_MTF,FM,M1,89.0742285237698
BMu53,P54,PAT,REL,Trunk_Lateral,1,R_MTF,FM,M2,90.3737531546689
BMu53,P54,PAT,REL,Trunk_Lateral,1,R_MTF,FM,M3,85.13011152416357
BMu53,P55,CTR,INI,Trunk_Lateral,1,L_MTF,FM,M1,27.75712515489467
BMu53,P55,CTR,INI,Trunk_Lateral,1,L_MTF,FM,M2,28.681177976952625
BMu53,P55,CTR,INI,Trunk_Lateral,1,L_MTF,FM,M3,31.67191148106791
BMu53,P55,CTR,INI,Trunk_Lateral,1,R_MTF,FM,M1,78.40785169029444
BMu53,P55,CTR,INI,Trunk_Lateral,1,R_MTF,FM,M2,82.67515923566879
BMu53,P55,CTR,INI,Trunk_Lateral,1,R_MTF,FM,M3,90.06414452153423
BMu53,P55,CTR,REL,Trunk_Lateral,1,L_MTF,FM,M1,67.08715596330275
BMu53,P55,CTR,REL,Trunk_Lateral,1,L_MTF,FM,M2,69.75627326209629
BMu53,P55,CTR,REL,Trunk_Lateral,1,L_MTF,FM,M3,78.30188679245283
BMu53,P55,CTR,REL,Trunk_Lateral,1,R_MTF,FM,M1,83.02550571679859
BMu53,P55,CTR,REL,Trunk_Lateral,1,R_MTF,FM,M2,80.95238095238095
BMu53,P55,CTR,REL,Trunk_Lateral,1,R_MTF,FM,M3,70.32679738562092
BMu53,P56,CTR,INI,Trunk_Lateral,1,L_MTF,FM,M1,59.19292941039656
BMu53,P56,CTR,INI,Trunk_Lateral,1,L_MTF,FM,M2,60.642092746730086
BMu53,P56,CTR,INI,Trunk_Lateral,1,L_MTF,FM,M3,31.42312233221324
BMu53,P56,CTR,INI,Trunk_Lateral,1,R_MTF,FM,M1,71.00802854594112
BMu53,P56,CTR,INI,Trunk_Lateral,1,R_MTF,FM,M2,74.36885959457778
BMu53,P56,CTR,INI,Trunk_Lateral,1,R_MTF,FM,M3,71.52983631911329
BMu53,P56,CTR,REL,Trunk_Lateral,1,L_MTF,FM,M1,54.71464019851116
BMu53,P56,CTR,REL,Trunk_Lateral,1,L_MTF,FM,M2,53.91388252321794
BMu53,P56,CTR,REL,Trunk_Lateral,1,L_MTF,FM,M3,64.16747809152872
BMu53,P56,CTR,REL,Trunk_Lateral,1,R_MTF,FM,M1,59.827962511233785
BMu53,P56,CTR,REL,Trunk_Lateral,1,R_MTF,FM,M2,56.78704856787049
BMu53,P56,CTR,REL,Trunk_Lateral,1,R_MTF,FM,M3,60.36036036036036
BMu53,P57,CTR,INI,Trunk_Lateral,1,L_MTF,FM,M1,27.571515520389532
BMu53,P57,CTR,INI,Trunk_Lateral,1,L_MTF,FM,M2,29.90726429675425
BMu53,P57,CTR,INI,Trunk_Lateral,1,L_MTF,FM,M3,33.301617507136065
BMu53,P57,CTR,INI,Trunk_Lateral,1,R_MTF,FM,M1,56.51290541048988
BMu53,P57,CTR,INI,Trunk_Lateral,1,R_MTF,FM,M2,45.92247784441859
BMu53,P57,CTR,INI,Trunk_Lateral,1,R_MTF,FM,M3,41.983104360440315
BMu53,P57,CTR,REL,Trunk_Lateral,1,L_MTF,FM,M1,42.11055276381909
BMu53,P57,CTR,REL,Trunk_Lateral,1,L_MTF,FM,M2,64.53614644740925
BMu53,P57,CTR,REL,Trunk_Lateral,1,L_MTF,FM,M3,43.689320388349515
BMu53,P57,CTR,REL,Trunk_Lateral,1,R_MTF,FM,M1,71.04984093319194
BMu53,P57,CTR,REL,Trunk_Lateral,1,R_MTF,FM,M2,56.51155686793606
BMu53,P57,CTR,REL,Trunk_Lateral,1,R_MTF,FM,M3,84.75251468977193
BMu53,P58,PAT,INI,Trunk_Lateral,1,L_MTF,FM,M1,23.217371703358626
BMu53,P58,PAT,INI,Trunk_Lateral,1,L_MTF,FM,M2,21.310946076848563
BMu53,P58,PAT,INI,Trunk_Lateral,1,L_MTF,FM,M3,19.616634906400627
BMu53,P58,PAT,INI,Trunk_Lateral,1,R_MTF,FM,M1,28.139321723189735
BMu53,P58,PAT,INI,Trunk_Lateral,1,R_MTF,FM,M2,24.948919238627813
BMu53,P58,PAT,INI,Trunk_Lateral,1,R_MTF,FM,M3,22.76989016876507
BMu53,P58,PAT,REL,Trunk_Lateral,1,L_MTF,FM,M1,30.45240442545734
BMu53,P58,PAT,REL,Trunk_Lateral,1,L_MTF,FM,M2,32.456912819222545
BMu53,P58,PAT,REL,Trunk_Lateral,1,L_MTF,FM,M3,35.547240411599624
BMu53,P58,PAT,REL,Trunk_Lateral,1,R_MTF,FM,M1,106.27390971690895
BMu53,P58,PAT,REL,Trunk_Lateral,1,R_MTF,FM,M2,63.83796949109089
BMu53,P58,PAT,REL,Trunk_Lateral,1,R_MTF,FM,M3,74.11598302687412
BMu53,P60,CTR,INI,Trunk_Lateral,1,L_MTF,FM,M1,95.07818239059712
BMu53,P60,CTR,INI,Trunk_Lateral,1,L_MTF,FM,M2,106.71462829736211
BMu53,P60,CTR,INI,Trunk_Lateral,1,L_MTF,FM,M3,106.48887219457225
BMu53,P60,CTR,INI,Trunk_Lateral,1,R_MTF,FM,M1,114.64254952627047
BMu53,P60,CTR,INI,Trunk_Lateral,1,R_MTF,FM,M2,113.82022471910112
BMu53,P60,CTR,INI,Trunk_Lateral,1,R_MTF,FM,M3,114.87713351894442
BMu53,P60,CTR,REL,Trunk_Lateral,1,L_MTF,FM,M1,83.34470058655026
BMu53,P60,CTR,REL,Trunk_Lateral,1,L_MTF,FM,M2,86.98602252680148
BMu53,P60,CTR,REL,Trunk_Lateral,1,L_MTF,FM,M3,86.85300207039337
BMu53,P60,CTR,REL,Trunk_Lateral,1,R_MTF,FM,M1,113.91592683709487
BMu53,P60,CTR,REL,Trunk_Lateral,1,R_MTF,FM,M2,91.57894736842104
BMu53,P60,CTR,REL,Trunk_Lateral,1,R_MTF,FM,M3,104.21901864832694
BMu53,P61,PAT,REL,Trunk_Lateral,1,L_MTF,FM,M1,67.8646934460888
BMu53,P61,PAT,REL,Trunk_Lateral,1,L_MTF,FM,M2,70.31687381032359
BMu53,P61,PAT,REL,Trunk_Lateral,1,L_MTF,FM,M3,76.45968489341983
BMu53,P61,PAT,REL,Trunk_Lateral,1,R_MTF,FM,M1,77.03081232492997
BMu53,P61,PAT,REL,Trunk_Lateral,1,R_MTF,FM,M2,78.78993114346991
BMu53,P61,PAT,REL,Trunk_Lateral,1,R_MTF,FM,M3,77.41935483870967
BMu53,P62,PAT,INI,Trunk_Lateral,1,L_MTF,FM,M1,115.98105673693007
BMu53,P62,PAT,INI,Trunk_Lateral,1,L_MTF,FM,M2,111.81120403253522
BMu53,P62,PAT,INI,Trunk_Lateral,1,L_MTF,FM,M3,106.76156583629894
BMu53,P62,PAT,INI,Trunk_Lateral,1,R_MTF,FM,M1,91.62753407398924
BMu53,P62,PAT,INI,Trunk_Lateral,1,R_MTF,FM,M2,92.38014732520226
BMu53,P62,PAT,INI,Trunk_Lateral,1,R_MTF,FM,M3,89.72746331236897
BMu53,P62,PAT,REL,Trunk_Lateral,1,L_MTF,FM,M1,103.60531309297912
BMu53,P62,PAT,REL,Trunk_Lateral,1,L_MTF,FM,M2,101.6489988221437
BMu53,P62,PAT,REL,Trunk_Lateral,1,L_MTF,FM,M3,99.47916666666667
BMu53,P62,PAT,REL,Trunk_Lateral,1,R_MTF,FM,M1,93.97741530740277
BMu53,P62,PAT,REL,Trunk_Lateral,1,R_MTF,FM,M2,90.23040288325396
BMu53,P62,PAT,REL,Trunk_Lateral,1,R_MTF,FM,M3,85.1966873706004
BMu53,P63,PAT,INI,Trunk_Lateral,1,L_MTF,FM,M1,98.98580121703856
BMu53,P63,PAT,INI,Trunk_Lateral,1,L_MTF,FM,M2,81.21591831999072
BMu53,P63,PAT,INI,Trunk_Lateral,1,L_MTF,FM,M3,76.07709750566893
BMu53,P63,PAT,INI,Trunk_Lateral,1,L_MTF,FM,M4,72.79786459597184
BMu53,P63,PAT,INI,Trunk_Lateral,1,R_MTF,FM,M1,124.70960929250263
BMu53,P63,PAT,INI,Trunk_Lateral,1,R_MTF,FM,M2,121.95121951219512
BMu53,P63,PAT,INI,Trunk_Lateral,1,R_MTF,FM,M3,130.33629552186792
BMu53,P63,PAT,INI,Trunk_Lateral,1,R_MTF,FM,M4,115.02062606163551
BMu53,P63,PAT,REL,Trunk_Lateral,1,L_MTF,FM,M1,114.4925593243062
BMu53,P63,PAT,REL,Trunk_Lateral,1,L_MTF,FM,M2,107.3911193077032
BMu53,P63,PAT,REL,Trunk_Lateral,1,L_MTF,FM,M3,110.22727272727273
BMu53,P63,PAT,REL,Trunk_Lateral,1,R_MTF,FM,M1,86.3403752788348
BMu53,P63,PAT,REL,Trunk_Lateral,1,R_MTF,FM,M2,88.04836459463648
BMu53,P63,PAT,REL,Trunk_Lateral,1,R_MTF,FM,M3,93.32787556283259
BMu53,P64,CTR,INI,Trunk_Lateral,1,L_MTF,FM,M1,110.0507008648971
BMu53,P64,CTR,INI,Trunk_Lateral,1,L_MTF,FM,M2,108.38398898956304
BMu53,P64,CTR,INI,Trunk_Lateral,1,L_MTF,FM,M3,108.57473928157589
BMu53,P64,CTR,INI,Trunk_Lateral,1,R_MTF,FM,M1,99.43962201955827
BMu53,P64,CTR,INI,Trunk_Lateral,1,R_MTF,FM,M2,86.7716354442018
BMu53,P64,CTR,INI,Trunk_Lateral,1,R_MTF,FM,M3,97.4485090685521
BMu53,P64,CTR,REL,Trunk_Lateral,1,L_MTF,FM,M1,106.2304935845567
BMu53,P64,CTR,REL,Trunk_Lateral,1,L_MTF,FM,M2,105.87529976019185
BMu53,P64,CTR,REL,Trunk_Lateral,1,L_MTF,FM,M3,103.13725490196077
BMu53,P64,CTR,REL,Trunk_Lateral,1,R_MTF,FM,M1,83.48317492936039
BMu53,P64,CTR,REL,Trunk_Lateral,1,R_MTF,FM,M2,90.56372549019608
BMu53,P64,CTR,REL,Trunk_Lateral,1,R_MTF,FM,M3,93.01470588235294
BMu53,P65,PAT,INI,Trunk_Lateral,1,L_MTF,FM,M1,83.58475807352777
BMu53,P65,PAT,INI,Trunk_Lateral,1,L_MTF,FM,M2,96.00470035252644
BMu53,P65,PAT,INI,Trunk_Lateral,1,L_MTF,FM,M3,87.80709736123748
BMu53,P65,PAT,INI,Trunk_Lateral,1,R_MTF,FM,M1,84.39519852262234
BMu53,P65,PAT,INI,Trunk_Lateral,1,R_MTF,FM,M2,92.38451935081149
BMu53,P65,PAT,INI,Trunk_Lateral,1,R_MTF,FM,M3,86.90058479532163
BMu53,P65,PAT,REL,Trunk_Lateral,1,L_MTF,FM,M1,106.26930461641204
BMu53,P65,PAT,REL,Trunk_Lateral,1,L_MTF,FM,M2,88.96034297963558
BMu53,P65,PAT,REL,Trunk_Lateral,1,L_MTF,FM,M3,81.45956607495069
BMu53,P65,PAT,REL,Trunk_Lateral,1,R_MTF,FM,M1,73.1606645341038
BMu53,P65,PAT,REL,Trunk_Lateral,1,R_MTF,FM,M2,91.46675429948516
BMu53,P65,PAT,REL,Trunk_Lateral,1,R_MTF,FM,M3,90.09981116806041
BMu53,P66,CTR,INI,Trunk_Lateral,1,L_MTF,FM,M1,27.680776765181843
BMu53,P66,CTR,INI,Trunk_Lateral,1,L_MTF,FM,M2,28.932763169866256
BMu53,P66,CTR,INI,Trunk_Lateral,1,L_MTF,FM,M3,31.96652719665272
BMu53,P66,CTR,INI,Trunk_Lateral,1,R_MTF,FM,M1,136.12106148110243
BMu53,P66,CTR,INI,Trunk_Lateral,1,R_MTF,FM,M2,108.83537578198646
BMu53,P66,CTR,INI,Trunk_Lateral,1,R_MTF,FM,M3,129.45454545454547
BMu53,P66,CTR,REL,Trunk_Lateral,1,L_MTF,FM,M1,64.65390279823269
BMu53,P66,CTR,REL,Trunk_Lateral,1,L_MTF,FM,M2,41.32053080159672
BMu53,P66,CTR,REL,Trunk_Lateral,1,L_MTF,FM,M3,63.98926054368498
BMu53,P66,CTR,REL,Trunk_Lateral,1,R_MTF,FM,M1,57.018393030009676
BMu53,P66,CTR,REL,Trunk_Lateral,1,R_MTF,FM,M2,96.35502697940755
BMu53,P66,CTR,REL,Trunk_Lateral,1,R_MTF,FM,M3,96.02771934166564
BMu53,P67,CTR,INI,Trunk_Lateral,1,L_MTF,FM,M1,92.2092209220922
BMu53,P67,CTR,INI,Trunk_Lateral,1,L_MTF,FM,M2,89.51533135509398
BMu53,P67,CTR,INI,Trunk_Lateral,1,L_MTF,FM,M3,92.49524661670952
BMu53,P67,CTR,INI,Trunk_Lateral,1,R_MTF,FM,M1,80.76923076923077
BMu53,P67,CTR,INI,Trunk_Lateral,1,R_MTF,FM,M2,82.70270270270271
BMu53,P67,CTR,INI,Trunk_Lateral,1,R_MTF,FM,M3,82.79816513761467
BMu53,P67,CTR,REL,Trunk_Lateral,1,L_MTF,FM,M1,106.61229245557821
BMu53,P67,CTR,REL,Trunk_Lateral,1,L_MTF,FM,M2,37.22469237927826
BMu53,P67,CTR,REL,Trunk_Lateral,1,L_MTF,FM,M3,35.09655751469354
BMu53,P67,CTR,REL,Trunk_Lateral,1,R_MTF,FM,M1,100.75685903500474
BMu53,P67,CTR,REL,Trunk_Lateral,1,R_MTF,FM,M2,92.37451737451738
BMu53,P67,CTR,REL,Trunk_Lateral,1,R_MTF,FM,M3,93.69369369369369
BMu53,P68,CTR,INI,Trunk_Lateral,1,L_MTF,FM,M1,88.67713004484305
BMu53,P68,CTR,INI,Trunk_Lateral,1,L_MTF,FM,M2,67.99877663370373
BMu53,P68,CTR,INI,Trunk_Lateral,1,L_MTF,FM,M3,84.79182519839114
BMu53,P68,CTR,INI,Trunk_Lateral,1,R_MTF,FM,M1,83.33333333333333
BMu53,P68,CTR,INI,Trunk_Lateral,1,R_MTF,FM,M2,69.43844492440604
BMu53,P68,CTR,INI,Trunk_Lateral,1,R_MTF,FM,M3,61.20897224686352
BMu53,P68,CTR,REL,Trunk_Lateral,1,L_MTF,FM,M1,115.48601071519687
BMu53,P68,CTR,REL,Trunk_Lateral,1,L_MTF,FM,M2,118.65577166532397
BMu53,P68,CTR,REL,Trunk_Lateral,1,L_MTF,FM,M3,86.12862547288778
BMu53,P68,CTR,REL,Trunk_Lateral,1,R_MTF,FM,M1,100.21937420621175
BMu53,P68,CTR,REL,Trunk_Lateral,1,R_MTF,FM,M2,63.92239771172739
BMu53,P68,CTR,REL,Trunk_Lateral,1,R_MTF,FM,M3,66.99346405228759
