BMu,Participant,Group,Session,task,trials,channel,Operator,Measure,Value
BMu52,P01,CTR,INI,Trunk_Lateral,1,L_EO,FM,M1,35.91785099152253
BMu52,P01,CTR,INI,Trunk_Lateral,1,L_EO,FM,M2,47.662351959333414
BMu52,P01,CTR,INI,Trunk_Lateral,1,L_EO,FM,M3,40.46936345496353
BMu52,P01,CTR,INI,Trunk_Lateral,1,R_EO,FM,M1,38.37382734201806
BMu52,P01,CTR,INI,Trunk_Lateral,1,R_EO,FM,M2,38.711556841732346
BMu52,P01,CTR,INI,Trunk_Lateral,1,R_EO,FM,M3,57.22473599637868
BMu52,P01,CTR,REL,Trunk_Lateral,1,L_EO,FM,M1,84.46705248239626
BMu52,P01,CTR,REL,Trunk_Lateral,1,L_EO,FM,M2,78.83378747609251
BMu52,P01,CTR,REL,Trunk_Lateral,1,L_EO,FM,M3,73.51137728376517
BMu52,P01,CTR,REL,Trunk_Lateral,1,R_EO,FM,M1,40.49402577597812
BMu52,P01,CTR,REL,Trunk_Lateral,1,R_EO,FM,M2,51.63190367498198
BMu52,P01,CTR,REL,Trunk_Lateral,1,R_EO,FM,M3,55.192018144532476
BMu52,P02,CTR,INI,Trunk_Lateral,1,L_EO,FM,M1,76.90940465734911
BMu52,P02,CTR,INI,Trunk_Lateral,1,L_EO,FM,M2,61.62237030454351
BMu52,P02,CTR,INI,Trunk_Lateral,1,L_EO,FM,M3,70.01459354679399
BMu52,P02,CTR,INI,Trunk_Lateral,1,R_EO,FM,M1,95.28829785797524
BMu52,P02,CTR,INI,Trunk_Lateral,1,R_EO,FM,M2,79.7936010093998
BMu52,P02,CTR,INI,Trunk_Lateral,1,R_EO,FM,M3,88.95960880545391
BMu52,P03,CTR,INI,Trunk_Lateral,1,L_EO,FM,M1,59.42741296926972
BMu52,P03,CTR,INI,Trunk_Lateral,1,L_EO,FM,M2,69.1137955984543
BMu52,P03,CTR,INI,Trunk_Lateral,1,L_EO,FM,M3,67.85808840515698
BMu52,P03,CTR,INI,Trunk_Lateral,1,R_EO,FM,M1,68.6539320492726
BMu52,P03,CTR,INI,Trunk_Lateral,1,R_EO,FM,M2,67.06889548008256
BMu52,P03,CTR,INI,Trunk_Lateral,1,R_EO,FM,M3,62.31743860755836
BMu52,P03,CTR,REL,Trunk_Lateral,1,L_EO,FM,M1,73.00270106540252
BMu52,P03,CTR,REL,Trunk_Lateral,1,L_EO,FM,M2,68.56616097489079
BMu52,P03,CTR,REL,Trunk_Lateral,1,L_EO,FM,M3,69.426855997743
BMu52,P03,CTR,REL,Trunk_Lateral,1,R_EO,FM,M1,66.1057831935582
BMu52,P03,CTR,REL,Trunk_Lateral,1,R_EO,FM,M2,82.844724819171
BMu52,P03,CTR,REL,Trunk_Lateral,1,R_EO,FM,M3,74.31784490479754
BMu52,P05,CTR,INI,Trunk_Lateral,1,L_EO,FM,M1,81.22773642523849
BMu52,P05,CTR,INI,Trunk_Lateral,1,L_EO,FM,M2,82.04182550899442
BMu52,P05,CTR,INI,Trunk_Lateral,1,L_EO,FM,M3,83.82980797311242
BMu52,P05,CTR,INI,Trunk_Lateral,1,R_EO,FM,M1,90.3702314580776
BMu52,P05,CTR,INI,Trunk_Lateral,1,R_EO,FM,M2,92.42741314199893
BMu52,P05,CTR,INI,Trunk_Lateral,1,R_EO,FM,M3,98.76345204730663
BMu52,P05,CTR,REL,Trunk_Lateral,1,L_EO,FM,M1,74.6643295222924
BMu52,P05,CTR,REL,Trunk_Lateral,1,L_EO,FM,M2,81.96494309715385
BMu52,P05,CTR,REL,Trunk_Lateral,1,L_EO,FM,M3,84.885035313913
BMu52,P05,CTR,REL,Trunk_Lateral,1,R_EO,FM,M1,88.64385146585076
BMu52,P05,CTR,REL,Trunk_Lateral,1,R_EO,FM,M2,91.15348400025943
BMu52,P05,CTR,REL,Trunk_Lateral,1,R_EO,FM,M3,86.06047867041184
BMu52,P06,CTR,INI,Trunk_Lateral,1,L_EO,FM,M1,147.24173309566712
BMu52,P06,CTR,INI,Trunk_Lateral,1,L_EO,FM,M2,144.14345930570792
BMu52,P06,CTR,INI,Trunk_Lateral,1,L_EO,FM,M3,137.18171964885536
BMu52,P06,CTR,INI,Trunk_Lateral,1,R_EO,FM,M1,164.59982205158653
BMu52,P06,CTR,INI,Trunk_Lateral,1,R_EO,FM,M2,164.07785629939488
BMu52,P06,CTR,INI,Trunk_Lateral,1,R_EO,FM,M3,157.8212497430218
BMu52,P06,CTR,INI,Trunk_Lateral,1,R_EO,FM,M4,165.37320218442474
BMu52,P06,CTR,REL,Trunk_Lateral,1,L_EO,FM,M1,114.4010740997222
BMu52,P06,CTR,REL,Trunk_Lateral,1,L_EO,FM,M2,116.30554085322184
BMu52,P06,CTR,REL,Trunk_Lateral,1,L_EO,FM,M3,106.60000598863195
BMu52,P06,CTR,REL,Trunk_Lateral,1,R_EO,FM,M1,118.78043010368596
BMu52,P06,CTR,REL,Trunk_Lateral,1,R_EO,FM,M2,124.35339247793486
BMu52,P06,CTR,REL,Trunk_Lateral,1,R_EO,FM,M3,124.0363072396681
BMu52,P07,CTR,INI,Trunk_Lateral,1,L_EO,FM,M1,144.59983523159877
BMu52,P07,CTR,INI,Trunk_Lateral,1,L_EO,FM,M2,128.1757759752366
BMu52,P07,CTR,INI,Trunk_Lateral,1,L_EO,FM,M3,137.77201856756275
BMu52,P07,CTR,INI,Trunk_Lateral,1,R_EO,FM,M1,87.31636089338302
BMu52,P07,CTR,INI,Trunk_Lateral,1,R_EO,FM,M2,83.84379073279125
BMu52,P07,CTR,INI,Trunk_Lateral,1,R_EO,FM,M3,90.20600675783653
BMu52,P07,CTR,REL,Trunk_Lateral,1,L_EO,FM,M1,89.87257225690496
BMu52,P07,CTR,REL,Trunk_Lateral,1,L_EO,FM,M2,32.533635187990996
BMu52,P07,CTR,REL,Trunk_Lateral,1,L_EO,FM,M3,87.98116769207618
BMu52,P07,CTR,REL,Trunk_Lateral,1,R_EO,FM,M1,95.85076448813786
BMu52,P07,CTR,REL,Trunk_Lateral,1,R_EO,FM,M2,96.81029890486191
BMu52,P07,CTR,REL,Trunk_Lateral,1,R_EO,FM,M3,87.21991398040657
BMu52,P08,CTR,INI,Trunk_Lateral,1,L_EO,FM,M1,74.60126872275852
BMu52,P08,CTR,INI,Trunk_Lateral,1,L_EO,FM,M2,76.89047172403703
BMu52,P08,CTR,INI,Trunk_Lateral,1,L_EO,FM,M3,79.5314633332719
BMu52,P08,CTR,INI,Trunk_Lateral,1,R_EO,FM,M1,82.31476010446819
BMu52,P08,CTR,INI,Trunk_Lateral,1,R_EO,FM,M2,86.57811740107414
BMu52,P08,CTR,INI,Trunk_Lateral,1,R_EO,FM,M3,88.65703994620088
BMu52,P08,CTR,REL,Trunk_Lateral,1,L_EO,FM,M1,80.34012642079178
BMu52,P08,CTR,REL,Trunk_Lateral,1,L_EO,FM,M2,81.45817753389719
BMu52,P08,CTR,REL,Trunk_Lateral,1,L_EO,FM,M3,77.35671049003629
BMu52,P08,CTR,REL,Trunk_Lateral,1,R_EO,FM,M1,81.56282267146149
BMu52,P08,CTR,REL,Trunk_Lateral,1,R_EO,FM,M2,83.18997740300809
BMu52,P08,CTR,REL,Trunk_Lateral,1,R_EO,FM,M3,79.26831823012556
BMu52,P09,PAT,INI,Trunk_Lateral,1,L_EO,FM,M1,85.55906511426697
BMu52,P09,PAT,INI,Trunk_Lateral,1,L_EO,FM,M2,84.08107217287194
BMu52,P09,PAT,INI,Trunk_Lateral,1,L_EO,FM,M3,88.56880198862952
BMu52,P09,PAT,INI,Trunk_Lateral,1,R_EO,FM,M1,97.31070959923618
BMu52,P09,PAT,INI,Trunk_Lateral,1,R_EO,FM,M2,96.34425375140431
BMu52,P09,PAT,INI,Trunk_Lateral,1,R_EO,FM,M3,96.59541529120655
BMu52,P09,PAT,REL,Trunk_Lateral,1,L_EO,FM,M1,74.09258922479265
BMu52,P09,PAT,REL,Trunk_Lateral,1,L_EO,FM,M2,77.31271411887718
BMu52,P09,PAT,REL,Trunk_Lateral,1,L_EO,FM,M3,78.40659710588109
BMu52,P09,PAT,REL,Trunk_Lateral,1,R_EO,FM,M1,100.00442710848826
BMu52,P09,PAT,REL,Trunk_Lateral,1,R_EO,FM,M2,103.10769867469912
BMu52,P09,PAT,REL,Trunk_Lateral,1,R_EO,FM,M3,101.45685761791547
BMu52,P10,PAT,INI,Trunk_Lateral,1,L_EO,FM,M1,92.85629463809904
BMu52,P10,PAT,INI,Trunk_Lateral,1,L_EO,FM,M2,97.05763106182025
BMu52,P10,PAT,INI,Trunk_Lateral,1,L_EO,FM,M3,93.61135651921293
BMu52,P10,PAT,INI,Trunk_Lateral,1,L_EO,FM,M4,92.61732832084455
BMu52,P10,PAT,INI,Trunk_Lateral,1,R_EO,FM,M1,89.01844591076704
BMu52,P10,PAT,INI,Trunk_Lateral,1,R_EO,FM,M2,83.04297077244104
BMu52,P10,PAT,INI,Trunk_Lateral,1,R_EO,FM,M3,89.6255516229045
BMu52,P10,PAT,INI,Trunk_Lateral,1,R_EO,FM,M4,87.7165091748081
BMu52,P10,PAT,REL,Trunk_Lateral,1,L_EO,FM,M1,52.25866217317438
BMu52,P10,PAT,REL,Trunk_Lateral,1,L_EO,FM,M2,97.11488574382179
BMu52,P10,PAT,REL,Trunk_Lateral,1,L_EO,FM,M3,102.10049999223179
BMu52,P10,PAT,REL,Trunk_Lateral,1,R_EO,FM,M1,98.86468143764647
BMu52,P10,PAT,REL,Trunk_Lateral,1,R_EO,FM,M2,102.12121855013761
BMu52,P10,PAT,REL,Trunk_Lateral,1,R_EO,FM,M3,102.50058619834827
BMu52,P11,PAT,INI,Trunk_Lateral,1,L_EO,FM,M1,74.28648637154595
BMu52,P11,PAT,INI,Trunk_Lateral,1,L_EO,FM,M2,73.86808939667314
BMu52,P11,PAT,INI,Trunk_Lateral,1,L_EO,FM,M3,71.48099954458647
BMu52,P11,PAT,INI,Trunk_Lateral,1,R_EO,FM,M1,76.12071777545448
BMu52,P11,PAT,INI,Trunk_Lateral,1,R_EO,FM,M2,74.00950212511864
BMu52,P11,PAT,INI,Trunk_Lateral,1,R_EO,FM,M3,69.46249405964288
BMu52,P11,PAT,REL,Trunk_Lateral,1,L_EO,FM,M1,82.32379067013146
BMu52,P11,PAT,REL,Trunk_Lateral,1,L_EO,FM,M2,79.83191169415296
BMu52,P11,PAT,REL,Trunk_Lateral,1,L_EO,FM,M3,76.18989266816916
BMu52,P11,PAT,REL,Trunk_Lateral,1,R_EO,FM,M1,90.21913083954462
BMu52,P11,PAT,REL,Trunk_Lateral,1,R_EO,FM,M2,83.05063731282848
BMu52,P11,PAT,REL,Trunk_Lateral,1,R_EO,FM,M3,84.20883487039927
BMu52,P12,PAT,INI,Trunk_Lateral,1,L_EO,FM,M1,80.54603512800011
BMu52,P12,PAT,INI,Trunk_Lateral,1,L_EO,FM,M2,74.19527425624052
BMu52,P12,PAT,INI,Trunk_Lateral,1,L_EO,FM,M3,76.57436733379838
BMu52,P12,PAT,INI,Trunk_Lateral,1,R_EO,FM,M1,82.24386818740406
BMu52,P12,PAT,INI,Trunk_Lateral,1,R_EO,FM,M2,89.66245653903793
BMu52,P12,PAT,INI,Trunk_Lateral,1,R_EO,FM,M3,96.722238068558
BMu52,P12,PAT,REL,Trunk_Lateral,1,L_EO,FM,M1,83.45709627227062
BMu52,P12,PAT,REL,Trunk_Lateral,1,L_EO,FM,M2,87.91923299963676
BMu52,P12,PAT,REL,Trunk_Lateral,1,L_EO,FM,M3,79.91708795403869
BMu52,P12,PAT,REL,Trunk_Lateral,1,R_EO,FM,M1,106.14363400946706
BMu52,P12,PAT,REL,Trunk_Lateral,1,R_EO,FM,M2,106.61677384589055
BMu52,P12,PAT,REL,Trunk_Lateral,1,R_EO,FM,M3,107.36273828527294
BMu52,P13,CTR,INI,Trunk_Lateral,1,L_EO,FM,M1,93.82145432737474
BMu52,P13,CTR,INI,Trunk_Lateral,1,L_EO,FM,M2,92.57933089038194
BMu52,P13,CTR,INI,Trunk_Lateral,1,L_EO,FM,M3,92.98432715541125
BMu52,P13,CTR,INI,Trunk_Lateral,1,R_EO,FM,M1,78.38050889038452
BMu52,P13,CTR,INI,Trunk_Lateral,1,R_EO,FM,M2,75.90564083541277
BMu52,P13,CTR,INI,Trunk_Lateral,1,R_EO,FM,M3,75.97380145153414
BMu52,P13,CTR,REL,Trunk_Lateral,1,L_EO,FM,M1,76.15002520266566
BMu52,P13,CTR,REL,Trunk_Lateral,1,L_EO,FM,M2,71.73279021140787
BMu52,P13,CTR,REL,Trunk_Lateral,1,L_EO,FM,M3,70.67768406838357
BMu52,P13,CTR,REL,Trunk_Lateral,1,R_EO,FM,M1,81.4251349634147
BMu52,P13,CTR,REL,Trunk_Lateral,1,R_EO,FM,M2,87.382907644204
BMu52,P13,CTR,REL,Trunk_Lateral,1,R_EO,FM,M3,85.42121873421249
BMu52,P14,PAT,INI,Trunk_Lateral,1,L_EO,FM,M1,111.44910975669812
BMu52,P14,PAT,INI,Trunk_Lateral,1,L_EO,FM,M2,111.19193586347441
BMu52,P14,PAT,INI,Trunk_Lateral,1,L_EO,FM,M3,56.715666329865414
BMu52,P14,PAT,INI,Trunk_Lateral,1,R_EO,FM,M1,94.24436205860451
BMu52,P14,PAT,INI,Trunk_Lateral,1,R_EO,FM,M2,103.04667470705695
BMu52,P14,PAT,INI,Trunk_Lateral,1,R_EO,FM,M3,98.52376473695492
BMu52,P14,PAT,REL,Trunk_Lateral,1,L_EO,FM,M1,114.25227412011455
BMu52,P14,PAT,REL,Trunk_Lateral,1,L_EO,FM,M2,112.28551217841212
BMu52,P14,PAT,REL,Trunk_Lateral,1,L_EO,FM,M3,112.66503696850364
BMu52,P14,PAT,REL,Trunk_Lateral,1,R_EO,FM,M1,135.6686218584058
BMu52,P14,PAT,REL,Trunk_Lateral,1,R_EO,FM,M2,136.12697254477288
BMu52,P14,PAT,REL,Trunk_Lateral,1,R_EO,FM,M3,130.32314126448685
BMu52,P16,CTR,INI,Trunk_Lateral,1,L_EO,FM,M1,101.27576050091595
BMu52,P16,CTR,INI,Trunk_Lateral,1,L_EO,FM,M2,75.04745015238046
BMu52,P16,CTR,INI,Trunk_Lateral,1,L_EO,FM,M3,90.6810342671567
BMu52,P16,CTR,INI,Trunk_Lateral,1,R_EO,FM,M1,82.8053445723543
BMu52,P16,CTR,INI,Trunk_Lateral,1,R_EO,FM,M2,82.39435004704865
BMu52,P16,CTR,INI,Trunk_Lateral,1,R_EO,FM,M3,81.94408548647729
BMu52,P16,CTR,REL,Trunk_Lateral,1,L_EO,FM,M1,105.51627073340735
BMu52,P16,CTR,REL,Trunk_Lateral,1,L_EO,FM,M2,106.55212405526774
BMu52,P16,CTR,REL,Trunk_Lateral,1,L_EO,FM,M3,97.89880419895121
BMu52,P16,CTR,REL,Trunk_Lateral,1,R_EO,FM,M1,99.64169923337833
BMu52,P16,CTR,REL,Trunk_Lateral,1,R_EO,FM,M2,97.6725325041446
BMu52,P16,CTR,REL,Trunk_Lateral,1,R_EO,FM,M3,103.45379566368905
BMu52,P17,PAT,INI,Trunk_Lateral,1,L_EO,FM,M1,111.4208457870345
BMu52,P17,PAT,INI,Trunk_Lateral,1,L_EO,FM,M2,108.76389024364106
BMu52,P17,PAT,INI,Trunk_Lateral,1,L_EO,FM,M3,96.24560160919849
BMu52,P17,PAT,INI,Trunk_Lateral,1,R_EO,FM,M1,106.18510901319881
BMu52,P17,PAT,INI,Trunk_Lateral,1,R_EO,FM,M2,100.43847613319167
BMu52,P17,PAT,INI,Trunk_Lateral,1,R_EO,FM,M3,109.97643546758458
BMu52,P17,PAT,REL,Trunk_Lateral,1,L_EO,FM,M1,103.14191562198987
BMu52,P17,PAT,REL,Trunk_Lateral,1,L_EO,FM,M2,70.53061224694571
BMu52,P17,PAT,REL,Trunk_Lateral,1,L_EO,FM,M3,90.9173013571293
BMu52,P17,PAT,REL,Trunk_Lateral,1,R_EO,FM,M1,97.63894681949783
BMu52,P17,PAT,REL,Trunk_Lateral,1,R_EO,FM,M2,97.64475995606244
BMu52,P17,PAT,REL,Trunk_Lateral,1,R_EO,FM,M3,104.15805218399922
BMu52,P21,CTR,INI,Trunk_Lateral,1,L_EO,FM,M1,82.08239081721791
BMu52,P21,CTR,INI,Trunk_Lateral,1,L_EO,FM,M2,80.04162092441007
BMu52,P21,CTR,INI,Trunk_Lateral,1,L_EO,FM,M3,82.84795292980975
BMu52,P21,CTR,INI,Trunk_Lateral,1,R_EO,FM,M1,64.27523718195371
BMu52,P21,CTR,INI,Trunk_Lateral,1,R_EO,FM,M2,64.0660979810369
BMu52,P21,CTR,INI,Trunk_Lateral,1,R_EO,FM,M3,63.210800114634324
BMu52,P21,CTR,REL,Trunk_Lateral,1,L_EO,FM,M1,73.19037071084706
BMu52,P21,CTR,REL,Trunk_Lateral,1,L_EO,FM,M2,77.43456466521992
BMu52,P21,CTR,REL,Trunk_Lateral,1,L_EO,FM,M3,85.93486598883733
BMu52,P21,CTR,REL,Trunk_Lateral,1,R_EO,FM,M1,59.11242271044915
BMu52,P21,CTR,REL,Trunk_Lateral,1,R_EO,FM,M2,60.94771551108046
BMu52,P21,CTR,REL,Trunk_Lateral,1,R_EO,FM,M3,61.07518642386921
BMu52,P22,CTR,INI,Trunk_Lateral,1,L_EO,FM,M1,98.56173756829835
BMu52,P22,CTR,INI,Trunk_Lateral,1,L_EO,FM,M2,98.84630614754153
BMu52,P22,CTR,INI,Trunk_Lateral,1,L_EO,FM,M3,99.94127989498102
BMu52,P22,CTR,INI,Trunk_Lateral,1,R_EO,FM,M1,97.06103712317338
BMu52,P22,CTR,INI,Trunk_Lateral,1,R_EO,FM,M2,76.64147035108687
BMu52,P22,CTR,INI,Trunk_Lateral,1,R_EO,FM,M3,64.77551967974773
BMu52,P22,CTR,REL,Trunk_Lateral,1,L_EO,FM,M1,94.26448782647654
BMu52,P22,CTR,REL,Trunk_Lateral,1,L_EO,FM,M2,80.9988545244242
BMu52,P22,CTR,REL,Trunk_Lateral,1,L_EO,FM,M3,85.82211928440252
BMu52,P22,CTR,REL,Trunk_Lateral,1,R_EO,FM,M1,121.44371014556864
BMu52,P22,CTR,REL,Trunk_Lateral,1,R_EO,FM,M2,131.88929866282362
BMu52,P22,CTR,REL,Trunk_Lateral,1,R_EO,FM,M3,116.58102791099952
BMu52,P23,CTR,INI,Trunk_Lateral,1,L_EO,FM,M1,54.820799979066095
BMu52,P23,CTR,INI,Trunk_Lateral,1,L_EO,FM,M2,78.12134961165569
BMu52,P23,CTR,INI,Trunk_Lateral,1,L_EO,FM,M3,48.5440393273729
BMu52,P23,CTR,INI,Trunk_Lateral,1,L_EO,FM,M4,95.30317269520353
BMu52,P23,CTR,INI,Trunk_Lateral,1,R_EO,FM,M1,52.57766420529887
BMu52,P23,CTR,INI,Trunk_Lateral,1,R_EO,FM,M2,68.58788662954638
BMu52,P23,CTR,INI,Trunk_Lateral,1,R_EO,FM,M3,105.27023109646075
BMu52,P23,CTR,INI,Trunk_Lateral,1,R_EO,FM,M4,47.60595183194774
BMu52,P23,CTR,REL,Trunk_Lateral,1,L_EO,FM,M1,56.01798269819279
BMu52,P23,CTR,REL,Trunk_Lateral,1,L_EO,FM,M2,98.39368717789745
BMu52,P23,CTR,REL,Trunk_Lateral,1,L_EO,FM,M3,114.73225316452604
BMu52,P23,CTR,REL,Trunk_Lateral,1,R_EO,FM,M1,71.7955557044553
BMu52,P23,CTR,REL,Trunk_Lateral,1,R_EO,FM,M2,74.32828707646885
BMu52,P23,CTR,REL,Trunk_Lateral,1,R_EO,FM,M3,73.14394698058565
BMu52,P24,PAT,INI,Trunk_Lateral,1,L_EO,FM,M1,117.7093301625904
BMu52,P24,PAT,INI,Trunk_Lateral,1,L_EO,FM,M2,117.91798972296189
BMu52,P24,PAT,INI,Trunk_Lateral,1,L_EO,FM,M3,121.61129506841094
BMu52,P24,PAT,INI,Trunk_Lateral,1,R_EO,FM,M1,124.12187081841286
BMu52,P24,PAT,INI,Trunk_Lateral,1,R_EO,FM,M2,116.71084460873561
BMu52,P24,PAT,INI,Trunk_Lateral,1,R_EO,FM,M3,122.27848750926664
BMu52,P24,PAT,REL,Trunk_Lateral,1,L_EO,FM,M1,116.4929191130637
BMu52,P24,PAT,REL,Trunk_Lateral,1,L_EO,FM,M2,120.59562893629807
BMu52,P24,PAT,REL,Trunk_Lateral,1,L_EO,FM,M3,116.40582870095695
BMu52,P24,PAT,REL,Trunk_Lateral,1,R_EO,FM,M1,122.90564608925683
BMu52,P24,PAT,REL,Trunk_Lateral,1,R_EO,FM,M2,124.15930269747072
BMu52,P24,PAT,REL,Trunk_Lateral,1,R_EO,FM,M3,127.48311528898748
BMu52,P25,CTR,INI,Trunk_Lateral,1,L_EO,FM,M1,92.0190588888236
BMu52,P25,CTR,INI,Trunk_Lateral,1,L_EO,FM,M2,90.93974821973625
BMu52,P25,CTR,INI,Trunk_Lateral,1,L_EO,FM,M3,86.34936325098295
BMu52,P25,CTR,INI,Trunk_Lateral,1,R_EO,FM,M1,93.35353546411564
BMu52,P25,CTR,INI,Trunk_Lateral,1,R_EO,FM,M2,91.00644809101765
BMu52,P25,CTR,INI,Trunk_Lateral,1,R_EO,FM,M3,90.47367909122521
BMu52,P25,CTR,REL,Trunk_Lateral,1,L_EO,FM,M1,91.40280363804811
BMu52,P25,CTR,REL,Trunk_Lateral,1,L_EO,FM,M2,89.29901946883633
BMu52,P25,CTR,REL,Trunk_Lateral,1,L_EO,FM,M3,92.99024001483026
BMu52,P25,CTR,REL,Trunk_Lateral,1,R_EO,FM,M1,92.88699764182137
BMu52,P25,CTR,REL,Trunk_Lateral,1,R_EO,FM,M2,96.37555029508933
BMu52,P25,CTR,REL,Trunk_Lateral,1,R_EO,FM,M3,91.97667155890218
BMu52,P26,PAT,INI,Trunk_Lateral,1,L_EO,FM,M1,68.58984715683012
BMu52,P26,PAT,INI,Trunk_Lateral,1,L_EO,FM,M2,55.566197653071434
BMu52,P26,PAT,INI,Trunk_Lateral,1,L_EO,FM,M3,66.20400782379672
BMu52,P26,PAT,INI,Trunk_Lateral,1,R_EO,FM,M1,44.009039993713905
BMu52,P26,PAT,INI,Trunk_Lateral,1,R_EO,FM,M2,43.893169732567806
BMu52,P26,PAT,INI,Trunk_Lateral,1,R_EO,FM,M3,42.454511345954174
BMu52,P26,PAT,REL,Trunk_Lateral,1,L_EO,FM,M1,73.65578564350496
BMu52,P26,PAT,REL,Trunk_Lateral,1,L_EO,FM,M2,61.14812160035728
BMu52,P26,PAT,REL,Trunk_Lateral,1,L_EO,FM,M3,72.93957630256075
BMu52,P26,PAT,REL,Trunk_Lateral,1,R_EO,FM,M1,42.530727140927226
BMu52,P26,PAT,REL,Trunk_Lateral,1,R_EO,FM,M2,41.711348216586266
BMu52,P26,PAT,REL,Trunk_Lateral,1,R_EO,FM,M3,39.03805694516114
BMu52,P27,PAT,INI,Trunk_Lateral,1,L_EO,FM,M1,77.18576948551829
BMu52,P27,PAT,INI,Trunk_Lateral,1,L_EO,FM,M2,78.15416893259263
BMu52,P27,PAT,INI,Trunk_Lateral,1,L_EO,FM,M3,78.19730354339082
BMu52,P27,PAT,INI,Trunk_Lateral,1,R_EO,FM,M1,88.42740532579109
BMu52,P27,PAT,INI,Trunk_Lateral,1,R_EO,FM,M2,84.99304821480187
BMu52,P27,PAT,INI,Trunk_Lateral,1,R_EO,FM,M3,85.51429993265224
BMu52,P27,PAT,REL,Trunk_Lateral,1,L_EO,FM,M1,77.75829405723893
BMu52,P27,PAT,REL,Trunk_Lateral,1,L_EO,FM,M2,77.8023235366535
BMu52,P27,PAT,REL,Trunk_Lateral,1,L_EO,FM,M3,79.69110369603126
BMu52,P27,PAT,REL,Trunk_Lateral,1,R_EO,FM,M1,78.4382487497172
BMu52,P27,PAT,REL,Trunk_Lateral,1,R_EO,FM,M2,88.1805527050592
BMu52,P27,PAT,REL,Trunk_Lateral,1,R_EO,FM,M3,78.75782712622411
BMu52,P28,PAT,INI,Trunk_Lateral,1,L_EO,FM,M1,95.48242502235134
BMu52,P28,PAT,INI,Trunk_Lateral,1,L_EO,FM,M2,92.87366393335925
BMu52,P28,PAT,INI,Trunk_Lateral,1,L_EO,FM,M3,92.36343798571308
BMu52,P28,PAT,INI,Trunk_Lateral,1,R_EO,FM,M1,109.04230874174176
BMu52,P28,PAT,INI,Trunk_Lateral,1,R_EO,FM,M2,106.76858716865425
BMu52,P28,PAT,INI,Trunk_Lateral,1,R_EO,FM,M3,99.59336565808132
BMu52,P28,PAT,REL,Trunk_Lateral,1,L_EO,FM,M1,99.47948836376776
BMu52,P28,PAT,REL,Trunk_Lateral,1,L_EO,FM,M2,97.1402206581228
BMu52,P28,PAT,REL,Trunk_Lateral,1,L_EO,FM,M3,99.21797595107559
BMu52,P28,PAT,REL,Trunk_Lateral,1,R_EO,FM,M1,101.98040856988949
BMu52,P28,PAT,REL,Trunk_Lateral,1,R_EO,FM,M2,100.18120727582529
BMu52,P28,PAT,REL,Trunk_Lateral,1,R_EO,FM,M3,99.09826329864579
BMu52,P29,PAT,INI,Trunk_Lateral,1,L_EO,FM,M1,72.92686188734324
BMu52,P29,PAT,INI,Trunk_Lateral,1,L_EO,FM,M2,90.72713676417042
BMu52,P29,PAT,INI,Trunk_Lateral,1,R_EO,FM,M1,87.44191076683067
BMu52,P29,PAT,INI,Trunk_Lateral,1,R_EO,FM,M2,79.8904952337291
BMu52,P29,PAT,INI,Trunk_Lateral,1,R_EO,FM,M3,84.86978611380563
BMu52,P29,PAT,REL,Trunk_Lateral,1,L_EO,FM,M1,61.64408501615448
BMu52,P29,PAT,REL,Trunk_Lateral,1,L_EO,FM,M2,79.499650984866
BMu52,P29,PAT,REL,Trunk_Lateral,1,L_EO,FM,M3,90.61310153295763
BMu52,P29,PAT,REL,Trunk_Lateral,1,L_EO,FM,M4,74.17669171760252
BMu52,P29,PAT,REL,Trunk_Lateral,1,L_EO,FM,M5,89.89128834735483
BMu52,P29,PAT,REL,Trunk_Lateral,1,R_EO,FM,M1,80.01882727361512
BMu52,P29,PAT,REL,Trunk_Lateral,1,R_EO,FM,M2,83.39698127353492
BMu52,P29,PAT,REL,Trunk_Lateral,1,R_EO,FM,M3,83.52062610644174
BMu52,P29,PAT,REL,Trunk_Lateral,1,R_EO,FM,M4,85.57405842784947
BMu52,P29,PAT,REL,Trunk_Lateral,1,R_EO,FM,M5,88.18995732607152
BMu52,P30,PAT,REL,Trunk_Lateral,1,L_EO,FM,M1,139.31688463416583
BMu52,P30,PAT,REL,Trunk_Lateral,1,L_EO,FM,M2,141.68118354806938
BMu52,P30,PAT,REL,Trunk_Lateral,1,L_EO,FM,M3,143.07476409175487
BMu52,P30,PAT,REL,Trunk_Lateral,1,R_EO,FM,M1,131.13978730970584
BMu52,P30,PAT,REL,Trunk_Lateral,1,R_EO,FM,M2,132.75665750639033
BMu52,P30,PAT,REL,Trunk_Lateral,1,R_EO,FM,M3,123.81356745573687
BMu52,P32,PAT,INI,Trunk_Lateral,1,L_EO,FM,M1,82.29736230591081
BMu52,P32,PAT,INI,Trunk_Lateral,1,L_EO,FM,M2,86.85453840565808
BMu52,P32,PAT,INI,Trunk_Lateral,1,L_EO,FM,M3,77.22155036142053
BMu52,P32,PAT,INI,Trunk_Lateral,1,R_EO,FM,M1,89.17791284597168
BMu52,P32,PAT,INI,Trunk_Lateral,1,R_EO,FM,M2,75.67191954938124
BMu52,P32,PAT,INI,Trunk_Lateral,1,R_EO,FM,M3,80.20650964205325
BMu52,P32,PAT,REL,Trunk_Lateral,1,L_EO,FM,M1,114.94699085041644
BMu52,P32,PAT,REL,Trunk_Lateral,1,L_EO,FM,M2,81.13943759425327
BMu52,P32,PAT,REL,Trunk_Lateral,1,L_EO,FM,M3,71.05818323305026
BMu52,P32,PAT,REL,Trunk_Lateral,1,R_EO,FM,M1,86.23595873049591
BMu52,P32,PAT,REL,Trunk_Lateral,1,R_EO,FM,M2,72.49749807461679
BMu52,P32,PAT,REL,Trunk_Lateral,1,R_EO,FM,M3,76.83312041877996
BMu52,P33,PAT,INI,Trunk_Lateral,1,L_EO,FM,M1,59.4320254498271
BMu52,P33,PAT,INI,Trunk_Lateral,1,L_EO,FM,M2,51.89899275701615
BMu52,P33,PAT,INI,Trunk_Lateral,1,L_EO,FM,M3,72.445002797083
BMu52,P33,PAT,INI,Trunk_Lateral,1,R_EO,FM,M1,81.92418827550763
BMu52,P33,PAT,INI,Trunk_Lateral,1,R_EO,FM,M2,84.1736336471751
BMu52,P33,PAT,INI,Trunk_Lateral,1,R_EO,FM,M3,89.80721758762375
BMu52,P33,PAT,REL,Trunk_Lateral,1,L_EO,FM,M1,69.61967887887877
BMu52,P33,PAT,REL,Trunk_Lateral,1,L_EO,FM,M2,49.17776427599687
BMu52,P33,PAT,REL,Trunk_Lateral,1,L_EO,FM,M3,48.97757606967449
BMu52,P33,PAT,REL,Trunk_Lateral,1,R_EO,FM,M1,92.192772554521
BMu52,P33,PAT,REL,Trunk_Lateral,1,R_EO,FM,M2,39.42198149800784
BMu52,P33,PAT,REL,Trunk_Lateral,1,R_EO,FM,M3,85.78536795346736
BMu52,P34,PAT,INI,Trunk_Lateral,1,L_EO,FM,M1,46.15811260115961
BMu52,P34,PAT,INI,Trunk_Lateral,1,L_EO,FM,M2,73.983502882802
BMu52,P34,PAT,INI,Trunk_Lateral,1,L_EO,FM,M3,79.5629809050799
BMu52,P34,PAT,INI,Trunk_Lateral,1,R_EO,FM,M1,81.19488330448831
BMu52,P34,PAT,INI,Trunk_Lateral,1,R_EO,FM,M2,88.9913821335022
BMu52,P34,PAT,INI,Trunk_Lateral,1,R_EO,FM,M3,86.30946977111572
BMu52,P34,PAT,REL,Trunk_Lateral,1,L_EO,FM,M1,82.76759865075294
BMu52,P34,PAT,REL,Trunk_Lateral,1,L_EO,FM,M2,74.81643965112833
BMu52,P34,PAT,REL,Trunk_Lateral,1,L_EO,FM,M3,77.68040538790629
BMu52,P34,PAT,REL,Trunk_Lateral,1,R_EO,FM,M1,72.46248806041626
BMu52,P34,PAT,REL,Trunk_Lateral,1,R_EO,FM,M2,73.95905626129685
BMu52,P34,PAT,REL,Trunk_Lateral,1,R_EO,FM,M3,67.99597244528798
BMu52,P35,CTR,INI,Trunk_Lateral,1,L_EO,FM,M1,89.10925367756823
BMu52,P35,CTR,INI,Trunk_Lateral,1,L_EO,FM,M2,66.35660598006496
BMu52,P35,CTR,INI,Trunk_Lateral,1,L_EO,FM,M3,99.42873431093975
BMu52,P35,CTR,INI,Trunk_Lateral,1,R_EO,FM,M1,79.26581091735291
BMu52,P35,CTR,INI,Trunk_Lateral,1,R_EO,FM,M2,68.5322206690483
BMu52,P35,CTR,INI,Trunk_Lateral,1,R_EO,FM,M3,79.15347332834833
BMu52,P35,CTR,REL,Trunk_Lateral,1,L_EO,FM,M1,84.98898762386555
BMu52,P35,CTR,REL,Trunk_Lateral,1,L_EO,FM,M2,83.55537196991666
BMu52,P35,CTR,REL,Trunk_Lateral,1,L_EO,FM,M3,71.89125536237403
BMu52,P35,CTR,REL,Trunk_Lateral,1,R_EO,FM,M1,70.2078005072277
BMu52,P35,CTR,REL,Trunk_Lateral,1,R_EO,FM,M2,70.11511760339141
BMu52,P35,CTR,REL,Trunk_Lateral,1,R_EO,FM,M3,72.87282763903109
BMu52,P36,PAT,INI,Trunk_Lateral,1,L_EO,FM,M1,88.8951611317832
BMu52,P36,PAT,INI,Trunk_Lateral,1,L_EO,FM,M2,88.40061230434543
BMu52,P36,PAT,INI,Trunk_Lateral,1,L_EO,FM,M3,89.31701392515609
BMu52,P36,PAT,INI,Trunk_Lateral,1,R_EO,FM,M1,111.00996317769348
BMu52,P36,PAT,INI,Trunk_Lateral,1,R_EO,FM,M2,108.40569413646169
BMu52,P36,PAT,INI,Trunk_Lateral,1,R_EO,FM,M3,106.87673561927978
BMu52,P36,PAT,REL,Trunk_Lateral,1,L_EO,FM,M1,97.60179649328221
BMu52,P36,PAT,REL,Trunk_Lateral,1,L_EO,FM,M2,91.63902784705024
BMu52,P36,PAT,REL,Trunk_Lateral,1,L_EO,FM,M3,102.02560071616006
BMu52,P36,PAT,REL,Trunk_Lateral,1,R_EO,FM,M1,110.70808663032713
BMu52,P36,PAT,REL,Trunk_Lateral,1,R_EO,FM,M2,102.51789566160242
BMu52,P36,PAT,REL,Trunk_Lateral,1,R_EO,FM,M3,113.9636854475028
BMu52,P38,CTR,INI,Trunk_Lateral,1,L_EO,FM,M1,66.2119233448577
BMu52,P38,CTR,INI,Trunk_Lateral,1,L_EO,FM,M2,68.59924281992076
BMu52,P38,CTR,INI,Trunk_Lateral,1,L_EO,FM,M3,66.27900965029345
BMu52,P38,CTR,INI,Trunk_Lateral,1,R_EO,FM,M1,68.88211781862614
BMu52,P38,CTR,INI,Trunk_Lateral,1,R_EO,FM,M2,82.07858687258289
BMu52,P38,CTR,INI,Trunk_Lateral,1,R_EO,FM,M3,69.64393770755535
BMu52,P38,CTR,INI,Trunk_Lateral,1,R_EO,FM,M4,69.23925801446119
BMu52,P38,CTR,REL,Trunk_Lateral,1,L_EO,FM,M1,70.09034759356994
BMu52,P38,CTR,REL,Trunk_Lateral,1,L_EO,FM,M2,69.40475241830896
BMu52,P38,CTR,REL,Trunk_Lateral,1,L_EO,FM,M3,65.58668157343241
BMu52,P38,CTR,REL,Trunk_Lateral,1,R_EO,FM,M1,82.92125906549039
BMu52,P38,CTR,REL,Trunk_Lateral,1,R_EO,FM,M2,84.66305415968006
BMu52,P38,CTR,REL,Trunk_Lateral,1,R_EO,FM,M3,78.82957796489121
BMu52,P39,CTR,INI,Trunk_Lateral,1,L_EO,FM,M1,46.89050666588432
BMu52,P39,CTR,INI,Trunk_Lateral,1,L_EO,FM,M2,48.74039181620042
BMu52,P39,CTR,INI,Trunk_Lateral,1,L_EO,FM,M3,51.65174682628274
BMu52,P39,CTR,INI,Trunk_Lateral,1,R_EO,FM,M1,32.22156094960013
BMu52,P39,CTR,INI,Trunk_Lateral,1,R_EO,FM,M2,48.03472895212593
BMu52,P39,CTR,INI,Trunk_Lateral,1,R_EO,FM,M3,38.343766002809666
BMu52,P39,CTR,REL,Trunk_Lateral,1,L_EO,FM,M1,59.17839575020032
BMu52,P39,CTR,REL,Trunk_Lateral,1,L_EO,FM,M2,80.58335422450425
BMu52,P39,CTR,REL,Trunk_Lateral,1,L_EO,FM,M3,73.94224683253462
BMu52,P39,CTR,REL,Trunk_Lateral,1,R_EO,FM,M1,35.98597890235779
BMu52,P39,CTR,REL,Trunk_Lateral,1,R_EO,FM,M2,61.515505361908126
BMu52,P39,CTR,REL,Trunk_Lateral,1,R_EO,FM,M3,75.9159030318904
BMu52,P40,CTR,INI,Trunk_Lateral,1,L_EO,FM,M1,86.3363446999109
BMu52,P40,CTR,INI,Trunk_Lateral,1,L_EO,FM,M2,102.29602754312198
BMu52,P40,CTR,INI,Trunk_Lateral,1,L_EO,FM,M3,99.26223660127312
BMu52,P40,CTR,INI,Trunk_Lateral,1,R_EO,FM,M1,61.5929831986917
BMu52,P40,CTR,INI,Trunk_Lateral,1,R_EO,FM,M2,65.18935024061226
BMu52,P40,CTR,INI,Trunk_Lateral,1,R_EO,FM,M3,51.5451698790097
BMu52,P40,CTR,REL,Trunk_Lateral,1,L_EO,FM,M1,90.59892235539796
BMu52,P40,CTR,REL,Trunk_Lateral,1,L_EO,FM,M2,93.01641806069655
BMu52,P40,CTR,REL,Trunk_Lateral,1,L_EO,FM,M3,100.42171647741418
BMu52,P40,CTR,REL,Trunk_Lateral,1,R_EO,FM,M1,47.131112883992614
BMu52,P40,CTR,REL,Trunk_Lateral,1,R_EO,FM,M2,67.26829581360191
BMu52,P40,CTR,REL,Trunk_Lateral,1,R_EO,FM,M3,67.37643976151428
BMu52,P41,PAT,INI,Trunk_Lateral,1,L_EO,FM,M1,86.29168946596133
BMu52,P41,PAT,INI,Trunk_Lateral,1,L_EO,FM,M2,86.05140391396729
BMu52,P41,PAT,INI,Trunk_Lateral,1,L_EO,FM,M3,88.77000386219926
BMu52,P41,PAT,INI,Trunk_Lateral,1,R_EO,FM,M1,99.49927313260088
BMu52,P41,PAT,INI,Trunk_Lateral,1,R_EO,FM,M2,101.77240793656311
BMu52,P41,PAT,INI,Trunk_Lateral,1,R_EO,FM,M3,99.93624221868687
BMu52,P41,PAT,REL,Trunk_Lateral,1,L_EO,FM,M1,93.98003747233327
BMu52,P41,PAT,REL,Trunk_Lateral,1,L_EO,FM,M2,91.22132061381721
BMu52,P41,PAT,REL,Trunk_Lateral,1,L_EO,FM,M3,99.44163757012386
BMu52,P41,PAT,REL,Trunk_Lateral,1,R_EO,FM,M1,100.29514215051297
BMu52,P41,PAT,REL,Trunk_Lateral,1,R_EO,FM,M2,96.48884738283286
BMu52,P41,PAT,REL,Trunk_Lateral,1,R_EO,FM,M3,98.45270815253781
BMu52,P42,PAT,INI,Trunk_Lateral,1,L_EO,FM,M1,95.1711726000151
BMu52,P42,PAT,INI,Trunk_Lateral,1,L_EO,FM,M2,89.12470883737566
BMu52,P42,PAT,INI,Trunk_Lateral,1,L_EO,FM,M3,91.50610247757852
BMu52,P42,PAT,INI,Trunk_Lateral,1,R_EO,FM,M1,108.22668055498998
BMu52,P42,PAT,INI,Trunk_Lateral,1,R_EO,FM,M2,112.19262720471356
BMu52,P42,PAT,INI,Trunk_Lateral,1,R_EO,FM,M3,114.44506304295253
BMu52,P42,PAT,REL,Trunk_Lateral,1,L_EO,FM,M1,101.7908923819683
BMu52,P42,PAT,REL,Trunk_Lateral,1,L_EO,FM,M2,90.46185673816476
BMu52,P42,PAT,REL,Trunk_Lateral,1,L_EO,FM,M3,91.33147143986766
BMu52,P42,PAT,REL,Trunk_Lateral,1,R_EO,FM,M1,103.73786735885348
BMu52,P42,PAT,REL,Trunk_Lateral,1,R_EO,FM,M2,86.94463718192252
BMu52,P42,PAT,REL,Trunk_Lateral,1,R_EO,FM,M3,85.27574141156016
BMu52,P43,PAT,INI,Trunk_Lateral,1,L_EO,FM,M1,71.78041868240565
BMu52,P43,PAT,INI,Trunk_Lateral,1,L_EO,FM,M2,78.47883028868131
BMu52,P43,PAT,INI,Trunk_Lateral,1,L_EO,FM,M3,70.53226512853897
BMu52,P43,PAT,INI,Trunk_Lateral,1,R_EO,FM,M1,84.08120739755637
BMu52,P43,PAT,INI,Trunk_Lateral,1,R_EO,FM,M2,75.05247029899209
BMu52,P43,PAT,INI,Trunk_Lateral,1,R_EO,FM,M3,84.83947071073293
BMu52,P43,PAT,REL,Trunk_Lateral,1,L_EO,FM,M1,79.16421301033864
BMu52,P43,PAT,REL,Trunk_Lateral,1,L_EO,FM,M2,76.21243210994749
BMu52,P43,PAT,REL,Trunk_Lateral,1,L_EO,FM,M3,81.04839545426198
BMu52,P43,PAT,REL,Trunk_Lateral,1,R_EO,FM,M1,86.06492993765649
BMu52,P43,PAT,REL,Trunk_Lateral,1,R_EO,FM,M2,88.4463669320128
BMu52,P43,PAT,REL,Trunk_Lateral,1,R_EO,FM,M3,86.59628250761462
BMu52,P44,CTR,INI,Trunk_Lateral,1,L_EO,FM,M1,85.69275532360228
BMu52,P44,CTR,INI,Trunk_Lateral,1,L_EO,FM,M2,102.54705042002155
BMu52,P44,CTR,INI,Trunk_Lateral,1,L_EO,FM,M3,98.85317201840537
BMu52,P44,CTR,INI,Trunk_Lateral,1,R_EO,FM,M1,84.29865655782814
BMu52,P44,CTR,INI,Trunk_Lateral,1,R_EO,FM,M2,95.07375567878931
BMu52,P44,CTR,INI,Trunk_Lateral,1,R_EO,FM,M3,99.88701697604439
BMu52,P44,CTR,REL,Trunk_Lateral,1,L_EO,FM,M1,92.31753615839122
BMu52,P44,CTR,REL,Trunk_Lateral,1,L_EO,FM,M2,91.16496206789914
BMu52,P44,CTR,REL,Trunk_Lateral,1,L_EO,FM,M3,79.26153253015238
BMu52,P44,CTR,REL,Trunk_Lateral,1,R_EO,FM,M1,97.23293232548289
BMu52,P44,CTR,REL,Trunk_Lateral,1,R_EO,FM,M2,95.063341869289
BMu52,P44,CTR,REL,Trunk_Lateral,1,R_EO,FM,M3,97.24796688499649
BMu52,P45,PAT,INI,Trunk_Lateral,1,L_EO,FM,M1,97.03782857792068
BMu52,P45,PAT,INI,Trunk_Lateral,1,L_EO,FM,M2,95.72592479156289
BMu52,P45,PAT,INI,Trunk_Lateral,1,L_EO,FM,M3,101.85218798437425
BMu52,P45,PAT,INI,Trunk_Lateral,1,R_EO,FM,M1,82.37279979612649
BMu52,P45,PAT,INI,Trunk_Lateral,1,R_EO,FM,M2,82.13341116827971
BMu52,P45,PAT,INI,Trunk_Lateral,1,R_EO,FM,M3,80.91057305813771
BMu52,P45,PAT,REL,Trunk_Lateral,1,L_EO,FM,M1,107.00868685866907
BMu52,P45,PAT,REL,Trunk_Lateral,1,L_EO,FM,M2,106.00141768348475
BMu52,P45,PAT,REL,Trunk_Lateral,1,L_EO,FM,M3,110.06442280339076
BMu52,P45,PAT,REL,Trunk_Lateral,1,R_EO,FM,M1,94.01503726774762
BMu52,P45,PAT,REL,Trunk_Lateral,1,R_EO,FM,M2,93.12423380304193
BMu52,P45,PAT,REL,Trunk_Lateral,1,R_EO,FM,M3,96.43900522779319
BMu52,P46,CTR,INI,Trunk_Lateral,1,L_EO,FM,M1,115.74507664525224
BMu52,P46,CTR,INI,Trunk_Lateral,1,L_EO,FM,M2,103.76299593422641
BMu52,P46,CTR,INI,Trunk_Lateral,1,L_EO,FM,M3,103.36283024891905
BMu52,P46,CTR,INI,Trunk_Lateral,1,R_EO,FM,M1,99.23924155156196
BMu52,P46,CTR,INI,Trunk_Lateral,1,R_EO,FM,M2,99.48405024736084
BMu52,P46,CTR,INI,Trunk_Lateral,1,R_EO,FM,M3,95.42704272022976
BMu52,P46,CTR,REL,Trunk_Lateral,1,L_EO,FM,M1,93.36591537843229
BMu52,P46,CTR,REL,Trunk_Lateral,1,L_EO,FM,M2,104.34381204439015
BMu52,P46,CTR,REL,Trunk_Lateral,1,L_EO,FM,M3,100.58283997473582
BMu52,P46,CTR,REL,Trunk_Lateral,1,R_EO,FM,M1,83.05883162642151
BMu52,P46,CTR,REL,Trunk_Lateral,1,R_EO,FM,M2,83.22723899173583
BMu52,P46,CTR,REL,Trunk_Lateral,1,R_EO,FM,M3,86.70345622107617
BMu52,P47,PAT,REL,Trunk_Lateral,1,L_EO,FM,M1,79.17923823353748
BMu52,P47,PAT,REL,Trunk_Lateral,1,L_EO,FM,M2,87.16975697437326
BMu52,P47,PAT,REL,Trunk_Lateral,1,L_EO,FM,M3,80.22567021277895
BMu52,P47,PAT,REL,Trunk_Lateral,1,R_EO,FM,M1,74.88046683307071
BMu52,P47,PAT,REL,Trunk_Lateral,1,R_EO,FM,M2,34.09595005125903
BMu52,P47,PAT,REL,Trunk_Lateral,1,R_EO,FM,M3,51.24308572690703
BMu52,P47,PAT,REL,Trunk_Lateral,1,R_EO,FM,M4,49.00347176042889
BMu52,P48,CTR,INI,Trunk_Lateral,1,L_EO,FM,M1,111.51321582268764
BMu52,P48,CTR,INI,Trunk_Lateral,1,L_EO,FM,M2,118.55126928314277
BMu52,P48,CTR,INI,Trunk_Lateral,1,L_EO,FM,M3,104.04776087981172
BMu52,P48,CTR,INI,Trunk_Lateral,1,R_EO,FM,M1,107.0608649918753
BMu52,P48,CTR,INI,Trunk_Lateral,1,R_EO,FM,M2,103.08108819433907
BMu52,P48,CTR,INI,Trunk_Lateral,1,R_EO,FM,M3,104.66970869194913
BMu52,P48,CTR,REL,Trunk_Lateral,1,L_EO,FM,M1,103.72529206608606
BMu52,P48,CTR,REL,Trunk_Lateral,1,L_EO,FM,M2,112.74537875731953
BMu52,P48,CTR,REL,Trunk_Lateral,1,L_EO,FM,M3,102.96698544049048
BMu52,P48,CTR,REL,Trunk_Lateral,1,R_EO,FM,M1,92.43434717655501
BMu52,P48,CTR,REL,Trunk_Lateral,1,R_EO,FM,M2,88.8674323910261
BMu52,P48,CTR,REL,Trunk_Lateral,1,R_EO,FM,M3,92.39862703409017
BMu52,P49,CTR,INI,Trunk_Lateral,1,L_EO,FM,M1,68.90458541839322
BMu52,P49,CTR,INI,Trunk_Lateral,1,L_EO,FM,M2,72.44583005529854
BMu52,P49,CTR,INI,Trunk_Lateral,1,L_EO,FM,M3,76.12408045014733
BMu52,P49,CTR,INI,Trunk_Lateral,1,R_EO,FM,M1,72.36455056581634
BMu52,P49,CTR,INI,Trunk_Lateral,1,R_EO,FM,M2,75.83031526597236
BMu52,P49,CTR,INI,Trunk_Lateral,1,R_EO,FM,M3,78.08763319805615
BMu52,P49,CTR,REL,Trunk_Lateral,1,L_EO,FM,M1,51.331850861909714
BMu52,P49,CTR,REL,Trunk_Lateral,1,L_EO,FM,M2,73.63773167455862
BMu52,P49,CTR,REL,Trunk_Lateral,1,L_EO,FM,M3,73.60469465017286
BMu52,P49,CTR,REL,Trunk_Lateral,1,R_EO,FM,M1,87.39709081338376
BMu52,P49,CTR,REL,Trunk_Lateral,1,R_EO,FM,M2,83.49050613392913
BMu52,P49,CTR,REL,Trunk_Lateral,1,R_EO,FM,M3,93.55394776325058
BMu52,P50,PAT,INI,Trunk_Lateral,1,L_EO,FM,M1,52.20139193698832
BMu52,P50,PAT,INI,Trunk_Lateral,1,L_EO,FM,M2,67.61087195505516
BMu52,P50,PAT,INI,Trunk_Lateral,1,L_EO,FM,M3,88.01150820079786
BMu52,P50,PAT,INI,Trunk_Lateral,1,R_EO,FM,M1,83.19668966008543
BMu52,P50,PAT,INI,Trunk_Lateral,1,R_EO,FM,M2,84.11507814014654
BMu52,P50,PAT,INI,Trunk_Lateral,1,R_EO,FM,M3,85.57567996031976
BMu52,P50,PAT,REL,Trunk_Lateral,1,L_EO,FM,M1,92.81433490692329
BMu52,P50,PAT,REL,Trunk_Lateral,1,L_EO,FM,M2,87.03323140826272
BMu52,P50,PAT,REL,Trunk_Lateral,1,L_EO,FM,M3,94.84907837334525
BMu52,P50,PAT,REL,Trunk_Lateral,1,R_EO,FM,M1,92.20104063390764
BMu52,P50,PAT,REL,Trunk_Lateral,1,R_EO,FM,M2,89.3985440923224
BMu52,P50,PAT,REL,Trunk_Lateral,1,R_EO,FM,M3,92.47153158106643
BMu52,P51,PAT,INI,Trunk_Lateral,1,L_EO,FM,M1,118.04634849567074
BMu52,P51,PAT,INI,Trunk_Lateral,1,L_EO,FM,M2,114.30611698693251
BMu52,P51,PAT,INI,Trunk_Lateral,1,L_EO,FM,M3,113.90039880198692
BMu52,P51,PAT,INI,Trunk_Lateral,1,R_EO,FM,M1,84.55178403135201
BMu52,P51,PAT,INI,Trunk_Lateral,1,R_EO,FM,M2,90.57407800130363
BMu52,P51,PAT,INI,Trunk_Lateral,1,R_EO,FM,M3,85.83779176290128
BMu52,P51,PAT,REL,Trunk_Lateral,1,L_EO,FM,M1,122.66098263145744
BMu52,P51,PAT,REL,Trunk_Lateral,1,L_EO,FM,M2,123.85835552757963
BMu52,P51,PAT,REL,Trunk_Lateral,1,L_EO,FM,M3,121.92588687951186
BMu52,P51,PAT,REL,Trunk_Lateral,1,R_EO,FM,M1,93.55037847606384
BMu52,P51,PAT,REL,Trunk_Lateral,1,R_EO,FM,M2,93.53679673182917
BMu52,P51,PAT,REL,Trunk_Lateral,1,R_EO,FM,M3,91.90275191147245
BMu52,P52,CTR,INI,Trunk_Lateral,1,L_EO,FM,M1,91.44790839943734
BMu52,P52,CTR,INI,Trunk_Lateral,1,L_EO,FM,M2,92.88450706151872
BMu52,P52,CTR,INI,Trunk_Lateral,1,L_EO,FM,M3,83.08004028151218
BMu52,P52,CTR,INI,Trunk_Lateral,1,R_EO,FM,M1,87.18333961115603
BMu52,P52,CTR,INI,Trunk_Lateral,1,R_EO,FM,M2,90.12846963388853
BMu52,P52,CTR,INI,Trunk_Lateral,1,R_EO,FM,M3,89.902198727827
BMu52,P52,CTR,REL,Trunk_Lateral,1,L_EO,FM,M1,80.81463056441953
BMu52,P52,CTR,REL,Trunk_Lateral,1,L_EO,FM,M2,87.77015267163227
BMu52,P52,CTR,REL,Trunk_Lateral,1,L_EO,FM,M3,86.57354683392632
BMu52,P52,CTR,REL,Trunk_Lateral,1,R_EO,FM,M1,87.72454655042691
BMu52,P52,CTR,REL,Trunk_Lateral,1,R_EO,FM,M2,87.77765234115799
BMu52,P52,CTR,REL,Trunk_Lateral,1,R_EO,FM,M3,88.36226960816435
BMu52,P53,PAT,INI,Trunk_Lateral,1,L_EO,FM,M1,113.26719392682047
BMu52,P53,PAT,INI,Trunk_Lateral,1,L_EO,FM,M2,115.28101139776344
BMu52,P53,PAT,INI,Trunk_Lateral,1,R_EO,FM,M1,115.32185502676606
BMu52,P53,PAT,REL,Trunk_Lateral,1,L_EO,FM,M1,130.75873111677262
BMu52,P53,PAT,REL,Trunk_Lateral,1,L_EO,FM,M2,127.93932951018265
BMu52,P53,PAT,REL,Trunk_Lateral,1,L_EO,FM,M3,133.3592316611376
BMu52,P53,PAT,REL,Trunk_Lateral,1,L_EO,FM,M4,109.67684437984161
BMu52,P53,PAT,REL,Trunk_Lateral,1,R_EO,FM,M1,112.03507719196891
BMu52,P53,PAT,REL,Trunk_Lateral,1,R_EO,FM,M2,112.94259116363631
BMu52,P53,PAT,REL,Trunk_Lateral,1,R_EO,FM,M3,110.17085548424856
BMu52,P53,PAT,REL,Trunk_Lateral,1,R_EO,FM,M4,113.8107539591945
BMu52,P54,PAT,INI,Trunk_Lateral,1,L_EO,FM,M1,87.2074734127654
BMu52,P54,PAT,INI,Trunk_Lateral,1,L_EO,FM,M2,85.35003481191436
BMu52,P54,PAT,INI,Trunk_Lateral,1,L_EO,FM,M3,82.3231825068591
BMu52,P54,PAT,INI,Trunk_Lateral,1,R_EO,FM,M1,69.99016086821639
BMu52,P54,PAT,INI,Trunk_Lateral,1,R_EO,FM,M2,70.2028595120209
BMu52,P54,PAT,INI,Trunk_Lateral,1,R_EO,FM,M3,71.57197298214923
BMu52,P54,PAT,REL,Trunk_Lateral,1,L_EO,FM,M1,79.12120254563811
BMu52,P54,PAT,REL,Trunk_Lateral,1,L_EO,FM,M2,81.98635103625142
BMu52,P54,PAT,REL,Trunk_Lateral,1,L_EO,FM,M3,83.26731673058903
BMu52,P54,PAT,REL,Trunk_Lateral,1,R_EO,FM,M1,81.55810016702878
BMu52,P54,PAT,REL,Trunk_Lateral,1,R_EO,FM,M2,78.46088249484778
BMu52,P54,PAT,REL,Trunk_Lateral,1,R_EO,FM,M3,81.85731144154022
BMu52,P55,CTR,INI,Trunk_Lateral,1,L_EO,FM,M1,52.79145961034531
BMu52,P55,CTR,INI,Trunk_Lateral,1,L_EO,FM,M2,61.475532056675064
BMu52,P55,CTR,INI,Trunk_Lateral,1,L_EO,FM,M3,57.63746024654592
BMu52,P55,CTR,INI,Trunk_Lateral,1,R_EO,FM,M1,47.95016392377517
BMu52,P55,CTR,INI,Trunk_Lateral,1,R_EO,FM,M2,42.67996567100128
BMu52,P55,CTR,INI,Trunk_Lateral,1,R_EO,FM,M3,45.932764314254406
BMu52,P55,CTR,REL,Trunk_Lateral,1,L_EO,FM,M1,67.83053497511888
BMu52,P55,CTR,REL,Trunk_Lateral,1,L_EO,FM,M2,65.96912345798123
BMu52,P55,CTR,REL,Trunk_Lateral,1,L_EO,FM,M3,66.34791646362503
BMu52,P55,CTR,REL,Trunk_Lateral,1,R_EO,FM,M1,41.284764583995866
BMu52,P55,CTR,REL,Trunk_Lateral,1,R_EO,FM,M2,54.91519602364225
BMu52,P55,CTR,REL,Trunk_Lateral,1,R_EO,FM,M3,58.24615302460957
BMu52,P56,CTR,INI,Trunk_Lateral,1,L_EO,FM,M1,82.8731271414801
BMu52,P56,CTR,INI,Trunk_Lateral,1,L_EO,FM,M2,71.99113404313402
BMu52,P56,CTR,INI,Trunk_Lateral,1,L_EO,FM,M3,84.65229567495058
BMu52,P56,CTR,INI,Trunk_Lateral,1,R_EO,FM,M1,83.20212363449652
BMu52,P56,CTR,INI,Trunk_Lateral,1,R_EO,FM,M2,97.58794010732184
BMu52,P56,CTR,INI,Trunk_Lateral,1,R_EO,FM,M3,97.42749443990044
BMu52,P56,CTR,REL,Trunk_Lateral,1,L_EO,FM,M1,59.86432558956887
BMu52,P56,CTR,REL,Trunk_Lateral,1,L_EO,FM,M2,80.33287482586356
BMu52,P56,CTR,REL,Trunk_Lateral,1,L_EO,FM,M3,78.49461131195763
BMu52,P56,CTR,REL,Trunk_Lateral,1,R_EO,FM,M1,91.78216711097971
BMu52,P56,CTR,REL,Trunk_Lateral,1,R_EO,FM,M2,92.42367075638128
BMu52,P56,CTR,REL,Trunk_Lateral,1,R_EO,FM,M3,91.7983009992738
BMu52,P57,CTR,INI,Trunk_Lateral,1,L_EO,FM,M1,40.24613512109536
BMu52,P57,CTR,INI,Trunk_Lateral,1,L_EO,FM,M2,41.91575197390283
BMu52,P57,CTR,INI,Trunk_Lateral,1,L_EO,FM,M3,46.94861259734948
BMu52,P57,CTR,INI,Trunk_Lateral,1,R_EO,FM,M1,62.90970067209124
BMu52,P57,CTR,INI,Trunk_Lateral,1,R_EO,FM,M2,70.67028277222552
BMu52,P57,CTR,INI,Trunk_Lateral,1,R_EO,FM,M3,55.178476320565125
BMu52,P57,CTR,REL,Trunk_Lateral,1,L_EO,FM,M1,100.02402120103996
BMu52,P57,CTR,REL,Trunk_Lateral,1,L_EO,FM,M2,93.10137949399162
BMu52,P57,CTR,REL,Trunk_Lateral,1,L_EO,FM,M3,94.9055749650314
BMu52,P57,CTR,REL,Trunk_Lateral,1,R_EO,FM,M1,110.54514838109503
BMu52,P57,CTR,REL,Trunk_Lateral,1,R_EO,FM,M2,113.27677825459206
BMu52,P57,CTR,REL,Trunk_Lateral,1,R_EO,FM,M3,112.35899607378157
BMu52,P58,PAT,INI,Trunk_Lateral,1,L_EO,FM,M1,96.01529173481401
BMu52,P58,PAT,INI,Trunk_Lateral,1,L_EO,FM,M2,108.60942389541536
BMu52,P58,PAT,INI,Trunk_Lateral,1,L_EO,FM,M3,88.80777454442055
BMu52,P58,PAT,INI,Trunk_Lateral,1,R_EO,FM,M1,117.88628255827987
BMu52,P58,PAT,INI,Trunk_Lateral,1,R_EO,FM,M2,120.71041188536203
BMu52,P58,PAT,INI,Trunk_Lateral,1,R_EO,FM,M3,112.71288964733152
BMu52,P58,PAT,REL,Trunk_Lateral,1,L_EO,FM,M1,115.92371311500582
BMu52,P58,PAT,REL,Trunk_Lateral,1,L_EO,FM,M2,122.16378674351733
BMu52,P58,PAT,REL,Trunk_Lateral,1,L_EO,FM,M3,122.48570187084977
BMu52,P58,PAT,REL,Trunk_Lateral,1,R_EO,FM,M1,104.3865994806509
BMu52,P58,PAT,REL,Trunk_Lateral,1,R_EO,FM,M2,121.15948142572611
BMu52,P58,PAT,REL,Trunk_Lateral,1,R_EO,FM,M3,114.08132227209842
BMu52,P60,CTR,INI,Trunk_Lateral,1,L_EO,FM,M1,84.42665695038157
BMu52,P60,CTR,INI,Trunk_Lateral,1,L_EO,FM,M2,87.47232185254417
BMu52,P60,CTR,INI,Trunk_Lateral,1,L_EO,FM,M3,84.29409880619782
BMu52,P60,CTR,INI,Trunk_Lateral,1,R_EO,FM,M1,76.14263784621998
BMu52,P60,CTR,INI,Trunk_Lateral,1,R_EO,FM,M2,72.43750172938205
BMu52,P60,CTR,INI,Trunk_Lateral,1,R_EO,FM,M3,78.776220546144
BMu52,P60,CTR,REL,Trunk_Lateral,1,L_EO,FM,M1,82.31025535628042
BMu52,P60,CTR,REL,Trunk_Lateral,1,L_EO,FM,M2,85.14445092673884
BMu52,P60,CTR,REL,Trunk_Lateral,1,L_EO,FM,M3,83.05380624413637
BMu52,P60,CTR,REL,Trunk_Lateral,1,R_EO,FM,M1,73.78202213877825
BMu52,P60,CTR,REL,Trunk_Lateral,1,R_EO,FM,M2,71.04594321064604
BMu52,P60,CTR,REL,Trunk_Lateral,1,R_EO,FM,M3,73.64714434310238
BMu52,P61,PAT,INI,Trunk_Lateral,1,L_EO,FM,M1,83.01023946859829
BMu52,P61,PAT,INI,Trunk_Lateral,1,L_EO,FM,M2,91.68657125427951
BMu52,P61,PAT,INI,Trunk_Lateral,1,L_EO,FM,M3,87.98501069161874
BMu52,P61,PAT,INI,Trunk_Lateral,1,R_EO,FM,M1,100.44245944647363
BMu52,P61,PAT,INI,Trunk_Lateral,1,R_EO,FM,M2,102.95715643666715
BMu52,P61,PAT,INI,Trunk_Lateral,1,R_EO,FM,M3,105.7040467015088
BMu52,P61,PAT,REL,Trunk_Lateral,1,L_EO,FM,M1,114.54963982497213
BMu52,P61,PAT,REL,Trunk_Lateral,1,L_EO,FM,M2,113.66343585392761
BMu52,P61,PAT,REL,Trunk_Lateral,1,L_EO,FM,M3,115.69698861038101
BMu52,P61,PAT,REL,Trunk_Lateral,1,R_EO,FM,M1,140.26833639354516
BMu52,P61,PAT,REL,Trunk_Lateral,1,R_EO,FM,M2,113.99960208912297
BMu52,P61,PAT,REL,Trunk_Lateral,1,R_EO,FM,M3,109.42824354657607
BMu52,P62,PAT,INI,Trunk_Lateral,1,L_EO,FM,M1,47.521915535673955
BMu52,P62,PAT,INI,Trunk_Lateral,1,L_EO,FM,M2,85.39784752703099
BMu52,P62,PAT,INI,Trunk_Lateral,1,L_EO,FM,M3,69.13867668872115
BMu52,P62,PAT,INI,Trunk_Lateral,1,R_EO,FM,M1,101.27738927709676
BMu52,P62,PAT,INI,Trunk_Lateral,1,R_EO,FM,M2,110.02866672730947
BMu52,P62,PAT,INI,Trunk_Lateral,1,R_EO,FM,M3,109.59914844693716
BMu52,P62,PAT,REL,Trunk_Lateral,1,L_EO,FM,M1,92.08577202444398
BMu52,P62,PAT,REL,Trunk_Lateral,1,L_EO,FM,M2,69.06387148565865
BMu52,P62,PAT,REL,Trunk_Lateral,1,L_EO,FM,M3,77.82102114630959
BMu52,P62,PAT,REL,Trunk_Lateral,1,R_EO,FM,M1,93.29339339533203
BMu52,P62,PAT,REL,Trunk_Lateral,1,R_EO,FM,M2,90.67333661014894
BMu52,P62,PAT,REL,Trunk_Lateral,1,R_EO,FM,M3,82.65477042149355
BMu52,P63,PAT,INI,Trunk_Lateral,1,L_EO,FM,M1,73.08169507374187
BMu52,P63,PAT,INI,Trunk_Lateral,1,L_EO,FM,M2,72.48036116674474
BMu52,P63,PAT,INI,Trunk_Lateral,1,L_EO,FM,M3,73.34675809656312
BMu52,P63,PAT,INI,Trunk_Lateral,1,L_EO,FM,M4,73.71888996546983
BMu52,P63,PAT,INI,Trunk_Lateral,1,R_EO,FM,M1,70.95494135478039
BMu52,P63,PAT,INI,Trunk_Lateral,1,R_EO,FM,M2,70.14315091027369
BMu52,P63,PAT,INI,Trunk_Lateral,1,R_EO,FM,M3,68.87368934260407
BMu52,P63,PAT,INI,Trunk_Lateral,1,R_EO,FM,M4,65.53307831930431
BMu52,P63,PAT,REL,Trunk_Lateral,1,L_EO,FM,M1,80.4598701857155
BMu52,P63,PAT,REL,Trunk_Lateral,1,L_EO,FM,M2,83.43605873396332
BMu52,P63,PAT,REL,Trunk_Lateral,1,L_EO,FM,M3,76.88997109052701
BMu52,P63,PAT,REL,Trunk_Lateral,1,R_EO,FM,M1,99.21828040129753
BMu52,P63,PAT,REL,Trunk_Lateral,1,R_EO,FM,M2,101.4876845938587
BMu52,P63,PAT,REL,Trunk_Lateral,1,R_EO,FM,M3,97.42267816600476
BMu52,P64,CTR,INI,Trunk_Lateral,1,L_EO,FM,M1,75.2107365233122
BMu52,P64,CTR,INI,Trunk_Lateral,1,L_EO,FM,M2,70.67763676642427
BMu52,P64,CTR,INI,Trunk_Lateral,1,L_EO,FM,M3,74.17318980684229
BMu52,P64,CTR,INI,Trunk_Lateral,1,R_EO,FM,M1,71.43852363008307
BMu52,P64,CTR,INI,Trunk_Lateral,1,R_EO,FM,M2,75.61378544199532
BMu52,P64,CTR,INI,Trunk_Lateral,1,R_EO,FM,M3,79.60059999040742
BMu52,P64,CTR,REL,Trunk_Lateral,1,L_EO,FM,M1,63.0444100116236
BMu52,P64,CTR,REL,Trunk_Lateral,1,L_EO,FM,M2,66.592917597581
BMu52,P64,CTR,REL,Trunk_Lateral,1,L_EO,FM,M3,69.84380998484593
BMu52,P64,CTR,REL,Trunk_Lateral,1,R_EO,FM,M1,68.03579430592727
BMu52,P64,CTR,REL,Trunk_Lateral,1,R_EO,FM,M2,70.65889833000237
BMu52,P64,CTR,REL,Trunk_Lateral,1,R_EO,FM,M3,68.21119072968443
BMu52,P65,PAT,INI,Trunk_Lateral,1,L_EO,FM,M1,102.54521621795368
BMu52,P65,PAT,INI,Trunk_Lateral,1,L_EO,FM,M2,108.84777919201554
BMu52,P65,PAT,INI,Trunk_Lateral,1,L_EO,FM,M3,108.87426439700377
BMu52,P65,PAT,INI,Trunk_Lateral,1,R_EO,FM,M1,81.1946313067343
BMu52,P65,PAT,INI,Trunk_Lateral,1,R_EO,FM,M2,76.74106470331334
BMu52,P65,PAT,INI,Trunk_Lateral,1,R_EO,FM,M3,74.66193901144882
BMu52,P65,PAT,REL,Trunk_Lateral,1,L_EO,FM,M1,106.1418807404211
BMu52,P65,PAT,REL,Trunk_Lateral,1,L_EO,FM,M2,101.80194843181293
BMu52,P65,PAT,REL,Trunk_Lateral,1,L_EO,FM,M3,99.20185973627052
BMu52,P65,PAT,REL,Trunk_Lateral,1,R_EO,FM,M1,99.40024712538663
BMu52,P65,PAT,REL,Trunk_Lateral,1,R_EO,FM,M2,101.11038550064355
BMu52,P65,PAT,REL,Trunk_Lateral,1,R_EO,FM,M3,101.70782817444217
BMu52,P66,CTR,INI,Trunk_Lateral,1,L_EO,FM,M1,117.74166943514102
BMu52,P66,CTR,INI,Trunk_Lateral,1,L_EO,FM,M2,107.74408018898332
BMu52,P66,CTR,INI,Trunk_Lateral,1,L_EO,FM,M3,123.23690857957875
BMu52,P66,CTR,INI,Trunk_Lateral,1,R_EO,FM,M1,208.32798534432317
BMu52,P66,CTR,INI,Trunk_Lateral,1,R_EO,FM,M2,137.1960587082078
BMu52,P66,CTR,INI,Trunk_Lateral,1,R_EO,FM,M3,120.34298259142015
BMu52,P66,CTR,REL,Trunk_Lateral,1,L_EO,FM,M1,68.73011253417666
BMu52,P66,CTR,REL,Trunk_Lateral,1,L_EO,FM,M2,60.00810360962626
BMu52,P66,CTR,REL,Trunk_Lateral,1,L_EO,FM,M3,59.740043728202856
BMu52,P66,CTR,REL,Trunk_Lateral,1,R_EO,FM,M1,59.223999334783244
BMu52,P66,CTR,REL,Trunk_Lateral,1,R_EO,FM,M2,57.53038095963642
BMu52,P66,CTR,REL,Trunk_Lateral,1,R_EO,FM,M3,52.20006314382934
BMu52,P67,CTR,INI,Trunk_Lateral,1,L_EO,FM,M1,95.77203512537945
BMu52,P67,CTR,INI,Trunk_Lateral,1,L_EO,FM,M2,102.43674385454607
BMu52,P67,CTR,INI,Trunk_Lateral,1,L_EO,FM,M3,85.98119113675136
BMu52,P67,CTR,INI,Trunk_Lateral,1,R_EO,FM,M1,52.85567512161108
BMu52,P67,CTR,INI,Trunk_Lateral,1,R_EO,FM,M2,65.3797418563363
BMu52,P67,CTR,INI,Trunk_Lateral,1,R_EO,FM,M3,66.65176440950587
BMu52,P67,CTR,REL,Trunk_Lateral,1,L_EO,FM,M1,60.535389117204666
BMu52,P67,CTR,REL,Trunk_Lateral,1,L_EO,FM,M2,61.65588273750992
BMu52,P67,CTR,REL,Trunk_Lateral,1,L_EO,FM,M3,65.12971096398353
BMu52,P67,CTR,REL,Trunk_Lateral,1,R_EO,FM,M1,48.14774831403051
BMu52,P67,CTR,REL,Trunk_Lateral,1,R_EO,FM,M2,78.73241440932803
BMu52,P67,CTR,REL,Trunk_Lateral,1,R_EO,FM,M3,79.66384063496331
BMu52,P68,CTR,INI,Trunk_Lateral,1,L_EO,FM,M1,51.64381652499453
BMu52,P68,CTR,INI,Trunk_Lateral,1,L_EO,FM,M2,45.705768046713416
BMu52,P68,CTR,INI,Trunk_Lateral,1,L_EO,FM,M3,54.46651589949609
BMu52,P68,CTR,INI,Trunk_Lateral,1,R_EO,FM,M1,33.07812177932573
BMu52,P68,CTR,INI,Trunk_Lateral,1,R_EO,FM,M2,60.09560765586163
BMu52,P68,CTR,INI,Trunk_Lateral,1,R_EO,FM,M3,55.833137836766056
BMu52,P68,CTR,REL,Trunk_Lateral,1,L_EO,FM,M1,57.61257607549769
BMu52,P68,CTR,REL,Trunk_Lateral,1,L_EO,FM,M2,54.957269349814716
BMu52,P68,CTR,REL,Trunk_Lateral,1,L_EO,FM,M3,54.13334251700813
BMu52,P68,CTR,REL,Trunk_Lateral,1,R_EO,FM,M1,49.0366421896052
BMu52,P68,CTR,REL,Trunk_Lateral,1,R_EO,FM,M2,39.64117975268622
BMu52,P68,CTR,REL,Trunk_Lateral,1,R_EO,FM,M3,43.590629440865385
