BMu,Participant,Group,Session,task,trials,channel,Operator,Measure,Value
BMu68,P01,CTR,INI,Posture_Sitting,1,L_MTF,FM,M1,10.411213324654437
BMu68,P01,CTR,INI,Posture_Sitting,1,L_MTF,FM,M2,9.086290621119161
BMu68,P01,CTR,INI,Posture_Sitting,1,L_MTF,FM,M3,7.133240160267556
BMu68,P01,CTR,INI,Posture_Sitting,1,R_MTF,FM,M1,8.108096042191324
BMu68,P01,CTR,INI,Posture_Sitting,1,R_MTF,FM,M2,8.994346116038104
BMu68,P01,CTR,INI,Posture_Sitting,1,R_MTF,FM,M3,9.546962949809679
BMu68,P01,CTR,REL,Posture_Sitting,1,L_MTF,FM,M1,11.26406829494469
BMu68,P01,CTR,REL,Posture_Sitting,1,L_MTF,FM,M2,9.759486978109484
BMu68,P01,CTR,REL,Posture_Sitting,1,L_MTF,FM,M3,9.392415640118758
BMu68,P01,CTR,REL,Posture_Sitting,1,R_MTF,FM,M1,9.540212614595784
BMu68,P01,CTR,REL,Posture_Sitting,1,R_MTF,FM,M2,8.175206385132046
BMu68,P01,CTR,REL,Posture_Sitting,1,R_MTF,FM,M3,7.593026601736278
BMu68,P02,CTR,INI,Posture_Sitting,1,L_MTF,FM,M1,3.5948292494181286
BMu68,P02,CTR,INI,Posture_Sitting,1,L_MTF,FM,M2,3.6457476082901756
BMu68,P02,CTR,INI,Posture_Sitting,1,L_MTF,FM,M3,3.778422650997852
BMu68,P02,CTR,INI,Posture_Sitting,1,R_MTF,FM,M1,4.8484717123316265
BMu68,P02,CTR,INI,Posture_Sitting,1,R_MTF,FM,M2,4.620658300302849
BMu68,P02,CTR,INI,Posture_Sitting,1,R_MTF,FM,M3,4.505003443775838
BMu68,P02,CTR,REL,Posture_Sitting,1,L_MTF,FM,M1,4.478366515006703
BMu68,P02,CTR,REL,Posture_Sitting,1,L_MTF,FM,M2,4.586060689046445
BMu68,P02,CTR,REL,Posture_Sitting,1,L_MTF,FM,M3,4.651223159560519
BMu68,P02,CTR,REL,Posture_Sitting,1,R_MTF,FM,M1,4.552726204829781
BMu68,P02,CTR,REL,Posture_Sitting,1,R_MTF,FM,M2,4.718996815441544
BMu68,P02,CTR,REL,Posture_Sitting,1,R_MTF,FM,M3,4.731401832793946
BMu68,P03,CTR,INI,Posture_Sitting,1,L_MTF,FM,M1,10.217390941611825
BMu68,P03,CTR,INI,Posture_Sitting,1,L_MTF,FM,M2,15.83657022443149
BMu68,P03,CTR,INI,Posture_Sitting,1,L_MTF,FM,M3,8.655848508930028
BMu68,P03,CTR,INI,Posture_Sitting,1,R_MTF,FM,M1,12.885205583822914
BMu68,P03,CTR,INI,Posture_Sitting,1,R_MTF,FM,M2,12.657196013932278
BMu68,P03,CTR,INI,Posture_Sitting,1,R_MTF,FM,M3,12.605259338892658
BMu68,P03,CTR,REL,Posture_Sitting,1,L_MTF,FM,M1,13.771956161215686
BMu68,P03,CTR,REL,Posture_Sitting,1,L_MTF,FM,M2,14.213338490658826
BMu68,P03,CTR,REL,Posture_Sitting,1,L_MTF,FM,M3,14.405945013634902
BMu68,P03,CTR,REL,Posture_Sitting,1,R_MTF,FM,M1,11.494397329809363
BMu68,P03,CTR,REL,Posture_Sitting,1,R_MTF,FM,M2,11.502528889783987
BMu68,P03,CTR,REL,Posture_Sitting,1,R_MTF,FM,M3,11.440168999322944
BMu68,P05,CTR,INI,Posture_Sitting,1,L_MTF,FM,M1,2.4227961858120795
BMu68,P05,CTR,INI,Posture_Sitting,1,L_MTF,FM,M2,2.4460457305658125
BMu68,P05,CTR,INI,Posture_Sitting,1,L_MTF,FM,M3,2.4149276550406213
BMu68,P05,CTR,INI,Posture_Sitting,1,R_MTF,FM,M1,3.484703235549054
BMu68,P05,CTR,INI,Posture_Sitting,1,R_MTF,FM,M2,3.488138640074306
BMu68,P05,CTR,INI,Posture_Sitting,1,R_MTF,FM,M3,3.5031999996839827
BMu68,P05,CTR,REL,Posture_Sitting,1,L_MTF,FM,M1,2.144086763830607
BMu68,P05,CTR,REL,Posture_Sitting,1,L_MTF,FM,M2,2.155808599922646
BMu68,P05,CTR,REL,Posture_Sitting,1,L_MTF,FM,M3,2.1758674224027135
BMu68,P05,CTR,REL,Posture_Sitting,1,R_MTF,FM,M1,4.6646590071108465
BMu68,P05,CTR,REL,Posture_Sitting,1,R_MTF,FM,M2,4.596288152618137
BMu68,P05,CTR,REL,Posture_Sitting,1,R_MTF,FM,M3,4.687642173117234
BMu68,P06,CTR,INI,Posture_Sitting,1,L_MTF,FM,M1,21.63100835609934
BMu68,P06,CTR,INI,Posture_Sitting,1,L_MTF,FM,M2,22.395473547893296
BMu68,P06,CTR,INI,Posture_Sitting,1,L_MTF,FM,M3,24.141831124828197
BMu68,P06,CTR,INI,Posture_Sitting,1,R_MTF,FM,M1,26.241961629245097
BMu68,P06,CTR,INI,Posture_Sitting,1,R_MTF,FM,M2,28.397435033178784
BMu68,P06,CTR,INI,Posture_Sitting,1,R_MTF,FM,M3,31.05833017738726
BMu68,P06,CTR,REL,Posture_Sitting,1,L_MTF,FM,M1,24.21754384888085
BMu68,P06,CTR,REL,Posture_Sitting,1,L_MTF,FM,M2,24.18329851495569
BMu68,P06,CTR,REL,Posture_Sitting,1,L_MTF,FM,M3,24.015343521269426
BMu68,P06,CTR,REL,Posture_Sitting,1,R_MTF,FM,M1,17.654931953763104
BMu68,P06,CTR,REL,Posture_Sitting,1,R_MTF,FM,M2,17.291421522939352
BMu68,P06,CTR,REL,Posture_Sitting,1,R_MTF,FM,M3,17.49044014752419
BMu68,P07,CTR,INI,Posture_Sitting,1,L_MTF,FM,M1,4.666502724128066
BMu68,P07,CTR,INI,Posture_Sitting,1,L_MTF,FM,M2,4.391245222752883
BMu68,P07,CTR,INI,Posture_Sitting,1,L_MTF,FM,M3,4.509166981744935
BMu68,P07,CTR,INI,Posture_Sitting,1,R_MTF,FM,M1,3.4913006995460822
BMu68,P07,CTR,INI,Posture_Sitting,1,R_MTF,FM,M2,3.539259907735562
BMu68,P07,CTR,INI,Posture_Sitting,1,R_MTF,FM,M3,3.678094881743589
BMu68,P07,CTR,REL,Posture_Sitting,1,L_MTF,FM,M1,2.8176819158670128
BMu68,P07,CTR,REL,Posture_Sitting,1,L_MTF,FM,M2,2.792974826995945
BMu68,P07,CTR,REL,Posture_Sitting,1,L_MTF,FM,M3,2.815217695184325
BMu68,P07,CTR,REL,Posture_Sitting,1,R_MTF,FM,M1,2.5076848286839755
BMu68,P07,CTR,REL,Posture_Sitting,1,R_MTF,FM,M2,2.4644846631691406
BMu68,P07,CTR,REL,Posture_Sitting,1,R_MTF,FM,M3,2.4744673379193016
BMu68,P08,CTR,INI,Posture_Sitting,1,L_MTF,FM,M1,56.023032395053995
BMu68,P08,CTR,INI,Posture_Sitting,1,L_MTF,FM,M2,53.48444100190207
BMu68,P08,CTR,INI,Posture_Sitting,1,L_MTF,FM,M3,53.756083178280726
BMu68,P08,CTR,INI,Posture_Sitting,1,R_MTF,FM,M1,9.918504705179904
BMu68,P08,CTR,INI,Posture_Sitting,1,R_MTF,FM,M2,9.77905431808605
BMu68,P08,CTR,INI,Posture_Sitting,1,R_MTF,FM,M3,9.607855626817965
BMu68,P08,CTR,REL,Posture_Sitting,1,L_MTF,FM,M1,7.284809425724814
BMu68,P08,CTR,REL,Posture_Sitting,1,L_MTF,FM,M2,7.121570203869386
BMu68,P08,CTR,REL,Posture_Sitting,1,L_MTF,FM,M3,7.310743290914595
BMu68,P08,CTR,REL,Posture_Sitting,1,R_MTF,FM,M1,7.795405082060338
BMu68,P08,CTR,REL,Posture_Sitting,1,R_MTF,FM,M2,7.457280300680466
BMu68,P08,CTR,REL,Posture_Sitting,1,R_MTF,FM,M3,7.164553666914215
BMu68,P09,PAT,INI,Posture_Sitting,1,L_MTF,FM,M1,23.89399537174296
BMu68,P09,PAT,INI,Posture_Sitting,1,L_MTF,FM,M2,25.273891807583368
BMu68,P09,PAT,INI,Posture_Sitting,1,L_MTF,FM,M3,26.91005526291003
BMu68,P09,PAT,INI,Posture_Sitting,1,R_MTF,FM,M1,7.750704664143788
BMu68,P09,PAT,INI,Posture_Sitting,1,R_MTF,FM,M2,7.937418642054732
BMu68,P09,PAT,INI,Posture_Sitting,1,R_MTF,FM,M3,7.936593411202619
BMu68,P09,PAT,REL,Posture_Sitting,1,L_MTF,FM,M1,8.027828856590563
BMu68,P09,PAT,REL,Posture_Sitting,1,L_MTF,FM,M2,8.511325766720153
BMu68,P09,PAT,REL,Posture_Sitting,1,L_MTF,FM,M3,8.718894817338747
BMu68,P09,PAT,REL,Posture_Sitting,1,R_MTF,FM,M1,6.397545160679295
BMu68,P09,PAT,REL,Posture_Sitting,1,R_MTF,FM,M2,6.293454212967708
BMu68,P09,PAT,REL,Posture_Sitting,1,R_MTF,FM,M3,6.320737750259857
BMu68,P10,PAT,INI,Posture_Sitting,1,L_MTF,FM,M1,39.3667249880473
BMu68,P10,PAT,INI,Posture_Sitting,1,L_MTF,FM,M2,38.472246640408144
BMu68,P10,PAT,INI,Posture_Sitting,1,L_MTF,FM,M3,38.67812087412198
BMu68,P10,PAT,INI,Posture_Sitting,1,R_MTF,FM,M1,199.81865282281032
BMu68,P10,PAT,INI,Posture_Sitting,1,R_MTF,FM,M2,208.06874272041674
BMu68,P10,PAT,INI,Posture_Sitting,1,R_MTF,FM,M3,213.77303124062368
BMu68,P10,PAT,REL,Posture_Sitting,1,L_MTF,FM,M1,7.709994500259078
BMu68,P10,PAT,REL,Posture_Sitting,1,L_MTF,FM,M2,7.672785768152322
BMu68,P10,PAT,REL,Posture_Sitting,1,L_MTF,FM,M3,7.862906322354681
BMu68,P10,PAT,REL,Posture_Sitting,1,R_MTF,FM,M1,28.24096337990282
BMu68,P10,PAT,REL,Posture_Sitting,1,R_MTF,FM,M2,23.2445831301833
BMu68,P10,PAT,REL,Posture_Sitting,1,R_MTF,FM,M3,20.799290297809282
BMu68,P11,PAT,INI,Posture_Sitting,1,L_MTF,FM,M1,3.8674299975069304
BMu68,P11,PAT,INI,Posture_Sitting,1,L_MTF,FM,M2,3.713496091189578
BMu68,P11,PAT,INI,Posture_Sitting,1,L_MTF,FM,M3,3.759358526558855
BMu68,P11,PAT,INI,Posture_Sitting,1,R_MTF,FM,M1,46.41786196795806
BMu68,P11,PAT,INI,Posture_Sitting,1,R_MTF,FM,M2,32.0028623234228
BMu68,P11,PAT,INI,Posture_Sitting,1,R_MTF,FM,M3,25.734939330160366
BMu68,P11,PAT,REL,Posture_Sitting,1,L_MTF,FM,M1,4.029276447609328
BMu68,P11,PAT,REL,Posture_Sitting,1,L_MTF,FM,M2,4.274925211826879
BMu68,P11,PAT,REL,Posture_Sitting,1,L_MTF,FM,M3,3.9884230573092876
BMu68,P11,PAT,REL,Posture_Sitting,1,R_MTF,FM,M1,11.355591329247444
BMu68,P11,PAT,REL,Posture_Sitting,1,R_MTF,FM,M2,10.167052784418521
BMu68,P11,PAT,REL,Posture_Sitting,1,R_MTF,FM,M3,10.238018020149367
BMu68,P12,PAT,INI,Posture_Sitting,1,L_MTF,FM,M1,25.42099171427824
BMu68,P12,PAT,INI,Posture_Sitting,1,L_MTF,FM,M2,24.415946254000353
BMu68,P12,PAT,INI,Posture_Sitting,1,L_MTF,FM,M3,25.44722313307357
BMu68,P12,PAT,INI,Posture_Sitting,1,R_MTF,FM,M1,15.723746858819174
BMu68,P12,PAT,INI,Posture_Sitting,1,R_MTF,FM,M2,14.641094313274634
BMu68,P12,PAT,INI,Posture_Sitting,1,R_MTF,FM,M3,14.509328713818851
BMu68,P12,PAT,REL,Posture_Sitting,1,L_MTF,FM,M1,14.29854263760696
BMu68,P12,PAT,REL,Posture_Sitting,1,L_MTF,FM,M2,14.160705710455531
BMu68,P12,PAT,REL,Posture_Sitting,1,L_MTF,FM,M3,15.238041784810726
BMu68,P12,PAT,REL,Posture_Sitting,1,R_MTF,FM,M1,114.23653993629253
BMu68,P12,PAT,REL,Posture_Sitting,1,R_MTF,FM,M2,117.9081458872086
BMu68,P12,PAT,REL,Posture_Sitting,1,R_MTF,FM,M3,119.51366363389677
BMu68,P13,CTR,INI,Posture_Sitting,1,L_MTF,FM,M1,15.71394677526342
BMu68,P13,CTR,INI,Posture_Sitting,1,L_MTF,FM,M2,15.239330791710936
BMu68,P13,CTR,INI,Posture_Sitting,1,L_MTF,FM,M3,14.332217128569129
BMu68,P13,CTR,INI,Posture_Sitting,1,R_MTF,FM,M1,10.04702743650112
BMu68,P13,CTR,INI,Posture_Sitting,1,R_MTF,FM,M2,9.897099131391014
BMu68,P13,CTR,INI,Posture_Sitting,1,R_MTF,FM,M3,9.915875642980504
BMu68,P13,CTR,REL,Posture_Sitting,1,L_MTF,FM,M1,12.370945144005946
BMu68,P13,CTR,REL,Posture_Sitting,1,L_MTF,FM,M2,12.35985965776774
BMu68,P13,CTR,REL,Posture_Sitting,1,L_MTF,FM,M3,12.228038655034366
BMu68,P13,CTR,REL,Posture_Sitting,1,R_MTF,FM,M1,10.88531431285265
BMu68,P13,CTR,REL,Posture_Sitting,1,R_MTF,FM,M2,10.930287596991544
BMu68,P13,CTR,REL,Posture_Sitting,1,R_MTF,FM,M3,10.89638967025158
BMu68,P14,PAT,INI,Posture_Sitting,1,L_MTF,FM,M1,8.067154701635111
BMu68,P14,PAT,INI,Posture_Sitting,1,L_MTF,FM,M2,7.265076835543448
BMu68,P14,PAT,INI,Posture_Sitting,1,L_MTF,FM,M3,7.255734637197672
BMu68,P14,PAT,INI,Posture_Sitting,1,R_MTF,FM,M1,13.2104151405157
BMu68,P14,PAT,INI,Posture_Sitting,1,R_MTF,FM,M2,12.61907889206563
BMu68,P14,PAT,INI,Posture_Sitting,1,R_MTF,FM,M3,12.620835144551462
BMu68,P14,PAT,REL,Posture_Sitting,1,L_MTF,FM,M1,9.07356451610127
BMu68,P14,PAT,REL,Posture_Sitting,1,L_MTF,FM,M2,8.928022206482568
BMu68,P14,PAT,REL,Posture_Sitting,1,L_MTF,FM,M3,8.80757789837046
BMu68,P14,PAT,REL,Posture_Sitting,1,R_MTF,FM,M1,10.920098463672764
BMu68,P14,PAT,REL,Posture_Sitting,1,R_MTF,FM,M2,10.89273722676095
BMu68,P14,PAT,REL,Posture_Sitting,1,R_MTF,FM,M3,11.070094440470065
BMu68,P16,CTR,INI,Posture_Sitting,1,L_MTF,FM,M1,8.347091229851687
BMu68,P16,CTR,INI,Posture_Sitting,1,L_MTF,FM,M2,8.27905535353081
BMu68,P16,CTR,INI,Posture_Sitting,1,L_MTF,FM,M3,8.326142295441485
BMu68,P16,CTR,INI,Posture_Sitting,1,R_MTF,FM,M1,81.56695445783758
BMu68,P16,CTR,INI,Posture_Sitting,1,R_MTF,FM,M2,93.40086999987427
BMu68,P16,CTR,INI,Posture_Sitting,1,R_MTF,FM,M3,93.77322360116801
BMu68,P16,CTR,REL,Posture_Sitting,1,L_MTF,FM,M1,11.941812293118533
BMu68,P16,CTR,REL,Posture_Sitting,1,L_MTF,FM,M2,11.8077700414389
BMu68,P16,CTR,REL,Posture_Sitting,1,L_MTF,FM,M3,12.01364621190495
BMu68,P16,CTR,REL,Posture_Sitting,1,R_MTF,FM,M1,12.865743706740767
BMu68,P16,CTR,REL,Posture_Sitting,1,R_MTF,FM,M2,12.632613193804504
BMu68,P16,CTR,REL,Posture_Sitting,1,R_MTF,FM,M3,12.734978551023326
BMu68,P17,PAT,INI,Posture_Sitting,1,L_MTF,FM,M1,12.832217416304937
BMu68,P17,PAT,INI,Posture_Sitting,1,L_MTF,FM,M2,13.218310465593161
BMu68,P17,PAT,INI,Posture_Sitting,1,L_MTF,FM,M3,13.688696682454912
BMu68,P17,PAT,INI,Posture_Sitting,1,R_MTF,FM,M1,12.441180642355109
BMu68,P17,PAT,INI,Posture_Sitting,1,R_MTF,FM,M2,12.613710174124295
BMu68,P17,PAT,INI,Posture_Sitting,1,R_MTF,FM,M3,12.599550923701207
BMu68,P17,PAT,REL,Posture_Sitting,1,L_MTF,FM,M1,9.813405469315908
BMu68,P17,PAT,REL,Posture_Sitting,1,L_MTF,FM,M2,11.094585317299032
BMu68,P17,PAT,REL,Posture_Sitting,1,L_MTF,FM,M3,11.272671097606333
BMu68,P17,PAT,REL,Posture_Sitting,1,R_MTF,FM,M1,14.436416745813366
BMu68,P17,PAT,REL,Posture_Sitting,1,R_MTF,FM,M2,15.146870997401896
BMu68,P17,PAT,REL,Posture_Sitting,1,R_MTF,FM,M3,15.853423567950939
BMu68,P21,CTR,INI,Posture_Sitting,1,L_MTF,FM,M1,44.41948889518763
BMu68,P21,CTR,INI,Posture_Sitting,1,L_MTF,FM,M2,45.38184575188539
BMu68,P21,CTR,INI,Posture_Sitting,1,L_MTF,FM,M3,42.33965209692383
BMu68,P21,CTR,INI,Posture_Sitting,1,R_MTF,FM,M1,6.177279635822617
BMu68,P21,CTR,INI,Posture_Sitting,1,R_MTF,FM,M2,6.192685290673964
BMu68,P21,CTR,INI,Posture_Sitting,1,R_MTF,FM,M3,6.065323881564936
BMu68,P21,CTR,REL,Posture_Sitting,1,L_MTF,FM,M1,4.238595855246855
BMu68,P21,CTR,REL,Posture_Sitting,1,L_MTF,FM,M2,4.133644773931577
BMu68,P21,CTR,REL,Posture_Sitting,1,L_MTF,FM,M3,4.515591620729377
BMu68,P21,CTR,REL,Posture_Sitting,1,R_MTF,FM,M1,6.13949382175831
BMu68,P21,CTR,REL,Posture_Sitting,1,R_MTF,FM,M2,6.009058483506664
BMu68,P21,CTR,REL,Posture_Sitting,1,R_MTF,FM,M3,6.009815284158748
BMu68,P22,CTR,INI,Posture_Sitting,1,L_MTF,FM,M1,14.216015555563077
BMu68,P22,CTR,INI,Posture_Sitting,1,L_MTF,FM,M2,14.339271223666675
BMu68,P22,CTR,INI,Posture_Sitting,1,L_MTF,FM,M3,14.303952572477737
BMu68,P22,CTR,INI,Posture_Sitting,1,R_MTF,FM,M1,7.595160095550271
BMu68,P22,CTR,INI,Posture_Sitting,1,R_MTF,FM,M2,7.782469180528571
BMu68,P22,CTR,INI,Posture_Sitting,1,R_MTF,FM,M3,7.6573927687846695
BMu68,P22,CTR,REL,Posture_Sitting,1,L_MTF,FM,M1,10.718072762047974
BMu68,P22,CTR,REL,Posture_Sitting,1,L_MTF,FM,M2,11.873272632576974
BMu68,P22,CTR,REL,Posture_Sitting,1,L_MTF,FM,M3,12.38584215793021
BMu68,P22,CTR,REL,Posture_Sitting,1,R_MTF,FM,M1,11.449300115473022
BMu68,P22,CTR,REL,Posture_Sitting,1,R_MTF,FM,M2,10.664095791037315
BMu68,P22,CTR,REL,Posture_Sitting,1,R_MTF,FM,M3,10.535671775634377
BMu68,P23,CTR,INI,Posture_Sitting,1,L_MTF,FM,M1,6.543919867285749
BMu68,P23,CTR,INI,Posture_Sitting,1,L_MTF,FM,M2,6.0900854395876785
BMu68,P23,CTR,INI,Posture_Sitting,1,L_MTF,FM,M3,6.053339814862328
BMu68,P23,CTR,INI,Posture_Sitting,1,R_MTF,FM,M1,9.987185849778692
BMu68,P23,CTR,INI,Posture_Sitting,1,R_MTF,FM,M2,8.826177678960741
BMu68,P23,CTR,INI,Posture_Sitting,1,R_MTF,FM,M3,8.293256439937208
BMu68,P23,CTR,REL,Posture_Sitting,1,L_MTF,FM,M1,7.024185333979226
BMu68,P23,CTR,REL,Posture_Sitting,1,L_MTF,FM,M2,6.808316268059979
BMu68,P23,CTR,REL,Posture_Sitting,1,L_MTF,FM,M3,6.987535123744335
BMu68,P23,CTR,REL,Posture_Sitting,1,R_MTF,FM,M1,6.862249362728194
BMu68,P23,CTR,REL,Posture_Sitting,1,R_MTF,FM,M2,6.98429380268087
BMu68,P23,CTR,REL,Posture_Sitting,1,R_MTF,FM,M3,6.989689258098773
BMu68,P24,PAT,INI,Posture_Sitting,1,L_MTF,FM,M1,8.536933766886253
BMu68,P24,PAT,INI,Posture_Sitting,1,L_MTF,FM,M2,8.598007448385399
BMu68,P24,PAT,INI,Posture_Sitting,1,L_MTF,FM,M3,8.54599311845165
BMu68,P24,PAT,INI,Posture_Sitting,1,R_MTF,FM,M1,16.119852976323326
BMu68,P24,PAT,INI,Posture_Sitting,1,R_MTF,FM,M2,16.05378063627628
BMu68,P24,PAT,INI,Posture_Sitting,1,R_MTF,FM,M3,16.13980959341646
BMu68,P24,PAT,REL,Posture_Sitting,1,L_MTF,FM,M1,6.000931712217506
BMu68,P24,PAT,REL,Posture_Sitting,1,L_MTF,FM,M2,6.11389150542753
BMu68,P24,PAT,REL,Posture_Sitting,1,L_MTF,FM,M3,6.080964454746083
BMu68,P24,PAT,REL,Posture_Sitting,1,R_MTF,FM,M1,8.960903193657916
BMu68,P24,PAT,REL,Posture_Sitting,1,R_MTF,FM,M2,8.690141698770299
BMu68,P24,PAT,REL,Posture_Sitting,1,R_MTF,FM,M3,8.740136602239534
BMu68,P25,CTR,INI,Posture_Sitting,1,L_MTF,FM,M1,47.319426021252234
BMu68,P25,CTR,INI,Posture_Sitting,1,L_MTF,FM,M2,45.11836533770282
BMu68,P25,CTR,INI,Posture_Sitting,1,L_MTF,FM,M3,44.4024337296324
BMu68,P25,CTR,INI,Posture_Sitting,1,R_MTF,FM,M1,3.0847510704075196
BMu68,P25,CTR,INI,Posture_Sitting,1,R_MTF,FM,M2,3.0731888168272836
BMu68,P25,CTR,INI,Posture_Sitting,1,R_MTF,FM,M3,3.060355699946705
BMu68,P25,CTR,REL,Posture_Sitting,1,L_MTF,FM,M1,5.501965824212139
BMu68,P25,CTR,REL,Posture_Sitting,1,L_MTF,FM,M2,5.416101412848411
BMu68,P25,CTR,REL,Posture_Sitting,1,L_MTF,FM,M3,3.1567462531823542
BMu68,P25,CTR,REL,Posture_Sitting,1,R_MTF,FM,M1,3.2356107581638005
BMu68,P25,CTR,REL,Posture_Sitting,1,R_MTF,FM,M2,3.472796781914275
BMu68,P25,CTR,REL,Posture_Sitting,1,R_MTF,FM,M3,2.9626048847887834
BMu68,P26,PAT,INI,Posture_Sitting,1,L_MTF,FM,M1,16.296556445414897
BMu68,P26,PAT,INI,Posture_Sitting,1,L_MTF,FM,M2,18.176344813680828
BMu68,P26,PAT,INI,Posture_Sitting,1,L_MTF,FM,M3,16.73536166909947
BMu68,P26,PAT,INI,Posture_Sitting,1,R_MTF,FM,M1,17.69687502107145
BMu68,P26,PAT,INI,Posture_Sitting,1,R_MTF,FM,M2,19.708886954530637
BMu68,P26,PAT,INI,Posture_Sitting,1,R_MTF,FM,M3,17.07109672316236
BMu68,P26,PAT,REL,Posture_Sitting,1,L_MTF,FM,M1,16.29240407353943
BMu68,P26,PAT,REL,Posture_Sitting,1,L_MTF,FM,M2,15.647915002814672
BMu68,P26,PAT,REL,Posture_Sitting,1,L_MTF,FM,M3,15.875623679011614
BMu68,P26,PAT,REL,Posture_Sitting,1,R_MTF,FM,M1,11.541266695486984
BMu68,P26,PAT,REL,Posture_Sitting,1,R_MTF,FM,M2,11.755669374072143
BMu68,P26,PAT,REL,Posture_Sitting,1,R_MTF,FM,M3,11.902312081574415
BMu68,P27,PAT,INI,Posture_Sitting,1,L_MTF,FM,M1,5.482306285115806
BMu68,P27,PAT,INI,Posture_Sitting,1,L_MTF,FM,M2,5.342707491296292
BMu68,P27,PAT,INI,Posture_Sitting,1,L_MTF,FM,M3,5.809236250964281
BMu68,P27,PAT,INI,Posture_Sitting,1,R_MTF,FM,M1,9.638223668500038
BMu68,P27,PAT,INI,Posture_Sitting,1,R_MTF,FM,M2,9.668137645598295
BMu68,P27,PAT,INI,Posture_Sitting,1,R_MTF,FM,M3,10.6750690408707
BMu68,P27,PAT,REL,Posture_Sitting,1,L_MTF,FM,M1,7.32826721492886
BMu68,P27,PAT,REL,Posture_Sitting,1,L_MTF,FM,M2,6.421515958329579
BMu68,P27,PAT,REL,Posture_Sitting,1,L_MTF,FM,M3,6.010272922089582
BMu68,P27,PAT,REL,Posture_Sitting,1,R_MTF,FM,M1,8.051773290684844
BMu68,P27,PAT,REL,Posture_Sitting,1,R_MTF,FM,M2,7.973364996357694
BMu68,P27,PAT,REL,Posture_Sitting,1,R_MTF,FM,M3,7.556304526198676
BMu68,P28,PAT,INI,Posture_Sitting,1,L_MTF,FM,M1,13.903968565156562
BMu68,P28,PAT,INI,Posture_Sitting,1,L_MTF,FM,M2,15.37904054384434
BMu68,P28,PAT,INI,Posture_Sitting,1,L_MTF,FM,M3,15.512617070001019
BMu68,P28,PAT,INI,Posture_Sitting,1,R_MTF,FM,M1,18.21043994181724
BMu68,P28,PAT,INI,Posture_Sitting,1,R_MTF,FM,M2,17.148366562308503
BMu68,P28,PAT,INI,Posture_Sitting,1,R_MTF,FM,M3,15.656993222387712
BMu68,P28,PAT,REL,Posture_Sitting,1,L_MTF,FM,M1,9.760414793867882
BMu68,P28,PAT,REL,Posture_Sitting,1,L_MTF,FM,M2,10.048759099959542
BMu68,P28,PAT,REL,Posture_Sitting,1,L_MTF,FM,M3,9.624968097836748
BMu68,P28,PAT,REL,Posture_Sitting,1,R_MTF,FM,M1,8.956884014684768
BMu68,P28,PAT,REL,Posture_Sitting,1,R_MTF,FM,M2,8.708440322672912
BMu68,P28,PAT,REL,Posture_Sitting,1,R_MTF,FM,M3,8.119021378553883
BMu68,P29,PAT,INI,Posture_Sitting,1,L_MTF,FM,M1,1.8483418506429812
BMu68,P29,PAT,INI,Posture_Sitting,1,L_MTF,FM,M2,2.0370461924361445
BMu68,P29,PAT,INI,Posture_Sitting,1,L_MTF,FM,M3,2.1490161390385003
BMu68,P29,PAT,INI,Posture_Sitting,1,R_MTF,FM,M1,3.5404241311390185
BMu68,P29,PAT,INI,Posture_Sitting,1,R_MTF,FM,M2,3.7045196662995497
BMu68,P29,PAT,INI,Posture_Sitting,1,R_MTF,FM,M3,4.292646972950198
BMu68,P29,PAT,REL,Posture_Sitting,1,L_MTF,FM,M1,3.131249759844975
BMu68,P29,PAT,REL,Posture_Sitting,1,L_MTF,FM,M2,2.9794276159862227
BMu68,P29,PAT,REL,Posture_Sitting,1,L_MTF,FM,M3,1.7633574862345671
BMu68,P29,PAT,REL,Posture_Sitting,1,R_MTF,FM,M1,6.356528874707983
BMu68,P29,PAT,REL,Posture_Sitting,1,R_MTF,FM,M2,5.715034944945127
BMu68,P29,PAT,REL,Posture_Sitting,1,R_MTF,FM,M3,3.440578003509414
BMu68,P30,PAT,INI,Posture_Sitting,1,L_MTF,FM,M1,54.63447982067777
BMu68,P30,PAT,INI,Posture_Sitting,1,L_MTF,FM,M2,56.593292340606475
BMu68,P30,PAT,INI,Posture_Sitting,1,L_MTF,FM,M3,58.256548152205255
BMu68,P30,PAT,INI,Posture_Sitting,1,R_MTF,FM,M1,9.96207277050873
BMu68,P30,PAT,INI,Posture_Sitting,1,R_MTF,FM,M2,10.482560389218108
BMu68,P30,PAT,INI,Posture_Sitting,1,R_MTF,FM,M3,10.816656098755255
BMu68,P30,PAT,REL,Posture_Sitting,1,L_MTF,FM,M1,16.17558486751108
BMu68,P30,PAT,REL,Posture_Sitting,1,L_MTF,FM,M2,16.28432979272872
BMu68,P30,PAT,REL,Posture_Sitting,1,L_MTF,FM,M3,16.0102451692127
BMu68,P30,PAT,REL,Posture_Sitting,1,R_MTF,FM,M1,30.555786644266455
BMu68,P30,PAT,REL,Posture_Sitting,1,R_MTF,FM,M2,29.945168887039873
BMu68,P30,PAT,REL,Posture_Sitting,1,R_MTF,FM,M3,30.577948251489413
BMu68,P32,PAT,INI,Posture_Sitting,1,L_MTF,FM,M1,6.718113883475627
BMu68,P32,PAT,INI,Posture_Sitting,1,L_MTF,FM,M2,6.8915534311388855
BMu68,P32,PAT,INI,Posture_Sitting,1,L_MTF,FM,M3,7.137954805771935
BMu68,P32,PAT,INI,Posture_Sitting,1,R_MTF,FM,M1,8.530414527367572
BMu68,P32,PAT,INI,Posture_Sitting,1,R_MTF,FM,M2,9.067441910032489
BMu68,P32,PAT,INI,Posture_Sitting,1,R_MTF,FM,M3,9.120182833486261
BMu68,P32,PAT,REL,Posture_Sitting,1,L_MTF,FM,M1,14.981850192651436
BMu68,P32,PAT,REL,Posture_Sitting,1,L_MTF,FM,M2,15.21175557447488
BMu68,P32,PAT,REL,Posture_Sitting,1,L_MTF,FM,M3,15.202775393028428
BMu68,P32,PAT,REL,Posture_Sitting,1,R_MTF,FM,M1,20.43112117056762
BMu68,P32,PAT,REL,Posture_Sitting,1,R_MTF,FM,M2,20.216753354017275
BMu68,P32,PAT,REL,Posture_Sitting,1,R_MTF,FM,M3,21.149916546833186
BMu68,P33,PAT,INI,Posture_Sitting,1,L_MTF,FM,M1,24.175769548026782
BMu68,P33,PAT,INI,Posture_Sitting,1,L_MTF,FM,M2,24.79940823249935
BMu68,P33,PAT,INI,Posture_Sitting,1,L_MTF,FM,M3,26.06904092480558
BMu68,P33,PAT,INI,Posture_Sitting,1,R_MTF,FM,M1,25.462899140295647
BMu68,P33,PAT,INI,Posture_Sitting,1,R_MTF,FM,M2,23.990641559347957
BMu68,P33,PAT,INI,Posture_Sitting,1,R_MTF,FM,M3,21.816204292447107
BMu68,P33,PAT,REL,Posture_Sitting,1,L_MTF,FM,M1,29.97979971175564
BMu68,P33,PAT,REL,Posture_Sitting,1,L_MTF,FM,M2,32.8023529709365
BMu68,P33,PAT,REL,Posture_Sitting,1,L_MTF,FM,M3,32.84683307870057
BMu68,P33,PAT,REL,Posture_Sitting,1,R_MTF,FM,M1,24.922558875997897
BMu68,P33,PAT,REL,Posture_Sitting,1,R_MTF,FM,M2,21.402586121820526
BMu68,P33,PAT,REL,Posture_Sitting,1,R_MTF,FM,M3,19.11555487013891
BMu68,P34,PAT,INI,Posture_Sitting,1,L_MTF,FM,M1,10.557731153571538
BMu68,P34,PAT,INI,Posture_Sitting,1,L_MTF,FM,M2,10.485480590963824
BMu68,P34,PAT,INI,Posture_Sitting,1,L_MTF,FM,M3,10.733327306777232
BMu68,P34,PAT,INI,Posture_Sitting,1,R_MTF,FM,M1,13.122453037881463
BMu68,P34,PAT,INI,Posture_Sitting,1,R_MTF,FM,M2,12.900739370799936
BMu68,P34,PAT,INI,Posture_Sitting,1,R_MTF,FM,M3,12.60060917698613
BMu68,P34,PAT,REL,Posture_Sitting,1,L_MTF,FM,M1,7.579527334172739
BMu68,P34,PAT,REL,Posture_Sitting,1,L_MTF,FM,M2,7.481952962180046
BMu68,P34,PAT,REL,Posture_Sitting,1,L_MTF,FM,M3,7.404059959288355
BMu68,P34,PAT,REL,Posture_Sitting,1,R_MTF,FM,M1,13.505598383147811
BMu68,P34,PAT,REL,Posture_Sitting,1,R_MTF,FM,M2,13.118945048531097
BMu68,P34,PAT,REL,Posture_Sitting,1,R_MTF,FM,M3,12.541519501971427
BMu68,P35,CTR,INI,Posture_Sitting,1,L_MTF,FM,M1,3.4374808293134045
BMu68,P35,CTR,INI,Posture_Sitting,1,L_MTF,FM,M2,3.4281114289602335
BMu68,P35,CTR,INI,Posture_Sitting,1,L_MTF,FM,M3,3.4022216852905545
BMu68,P35,CTR,INI,Posture_Sitting,1,R_MTF,FM,M1,3.6433277272365436
BMu68,P35,CTR,INI,Posture_Sitting,1,R_MTF,FM,M2,3.718658243365916
BMu68,P35,CTR,INI,Posture_Sitting,1,R_MTF,FM,M3,3.854435897612939
BMu68,P35,CTR,REL,Posture_Sitting,1,L_MTF,FM,M1,3.9042948368594605
BMu68,P35,CTR,REL,Posture_Sitting,1,L_MTF,FM,M2,3.943550480247066
BMu68,P35,CTR,REL,Posture_Sitting,1,L_MTF,FM,M3,3.9308988693398623
BMu68,P35,CTR,REL,Posture_Sitting,1,R_MTF,FM,M1,5.39570938738133
BMu68,P35,CTR,REL,Posture_Sitting,1,R_MTF,FM,M2,5.427046442290829
BMu68,P35,CTR,REL,Posture_Sitting,1,R_MTF,FM,M3,5.460886841661197
BMu68,P36,PAT,INI,Posture_Sitting,1,L_MTF,FM,M1,2.787101978795719
BMu68,P36,PAT,INI,Posture_Sitting,1,L_MTF,FM,M2,2.7597148553105977
BMu68,P36,PAT,INI,Posture_Sitting,1,L_MTF,FM,M3,2.799392148301449
BMu68,P36,PAT,INI,Posture_Sitting,1,R_MTF,FM,M1,4.38281716097923
BMu68,P36,PAT,INI,Posture_Sitting,1,R_MTF,FM,M2,4.348746403074887
BMu68,P36,PAT,INI,Posture_Sitting,1,R_MTF,FM,M3,4.3900662642555925
BMu68,P36,PAT,REL,Posture_Sitting,1,L_MTF,FM,M1,2.7738959156933296
BMu68,P36,PAT,REL,Posture_Sitting,1,L_MTF,FM,M2,2.774858435340012
BMu68,P36,PAT,REL,Posture_Sitting,1,L_MTF,FM,M3,2.796953872728243
BMu68,P36,PAT,REL,Posture_Sitting,1,R_MTF,FM,M1,4.953385649498889
BMu68,P36,PAT,REL,Posture_Sitting,1,R_MTF,FM,M2,5.165287879299211
BMu68,P36,PAT,REL,Posture_Sitting,1,R_MTF,FM,M3,5.391196238839111
BMu68,P38,CTR,INI,Posture_Sitting,1,L_MTF,FM,M1,13.611024196431725
BMu68,P38,CTR,INI,Posture_Sitting,1,L_MTF,FM,M2,12.74634862433054
BMu68,P38,CTR,INI,Posture_Sitting,1,L_MTF,FM,M3,12.199245606153605
BMu68,P38,CTR,INI,Posture_Sitting,1,R_MTF,FM,M1,8.166091805670172
BMu68,P38,CTR,INI,Posture_Sitting,1,R_MTF,FM,M2,8.801482982779477
BMu68,P38,CTR,INI,Posture_Sitting,1,R_MTF,FM,M3,8.361583591439114
BMu68,P38,CTR,REL,Posture_Sitting,1,L_MTF,FM,M1,8.99539191519237
BMu68,P38,CTR,REL,Posture_Sitting,1,L_MTF,FM,M2,9.01498678714899
BMu68,P38,CTR,REL,Posture_Sitting,1,L_MTF,FM,M3,9.278054329817946
BMu68,P38,CTR,REL,Posture_Sitting,1,R_MTF,FM,M1,9.37381720665463
BMu68,P38,CTR,REL,Posture_Sitting,1,R_MTF,FM,M2,9.274529983750444
BMu68,P38,CTR,REL,Posture_Sitting,1,R_MTF,FM,M3,10.056824324858114
BMu68,P39,CTR,INI,Posture_Sitting,1,L_MTF,FM,M1,4.895404286874276
BMu68,P39,CTR,INI,Posture_Sitting,1,L_MTF,FM,M2,4.9051852906266245
BMu68,P39,CTR,INI,Posture_Sitting,1,L_MTF,FM,M3,4.724550337531671
BMu68,P39,CTR,INI,Posture_Sitting,1,R_MTF,FM,M1,8.017244755106745
BMu68,P39,CTR,INI,Posture_Sitting,1,R_MTF,FM,M2,7.5938773325284705
BMu68,P39,CTR,INI,Posture_Sitting,1,R_MTF,FM,M3,7.4148319846333175
BMu68,P39,CTR,REL,Posture_Sitting,1,L_MTF,FM,M1,6.98441355507497
BMu68,P39,CTR,REL,Posture_Sitting,1,L_MTF,FM,M2,6.957914102323217
BMu68,P39,CTR,REL,Posture_Sitting,1,L_MTF,FM,M3,7.087627232264783
BMu68,P39,CTR,REL,Posture_Sitting,1,R_MTF,FM,M1,10.90950383579519
BMu68,P39,CTR,REL,Posture_Sitting,1,R_MTF,FM,M2,10.946631457315016
BMu68,P39,CTR,REL,Posture_Sitting,1,R_MTF,FM,M3,11.301785469260244
BMu68,P40,CTR,INI,Posture_Sitting,1,L_MTF,FM,M1,2.9864862008203943
BMu68,P40,CTR,INI,Posture_Sitting,1,L_MTF,FM,M2,3.114597759093638
BMu68,P40,CTR,INI,Posture_Sitting,1,L_MTF,FM,M3,3.0798211210049966
BMu68,P40,CTR,INI,Posture_Sitting,1,R_MTF,FM,M1,2.8815791806188016
BMu68,P40,CTR,INI,Posture_Sitting,1,R_MTF,FM,M2,2.9273252731054886
BMu68,P40,CTR,INI,Posture_Sitting,1,R_MTF,FM,M3,3.258154608956166
BMu68,P40,CTR,REL,Posture_Sitting,1,L_MTF,FM,M1,2.924290777213266
BMu68,P40,CTR,REL,Posture_Sitting,1,L_MTF,FM,M2,2.85618822212912
BMu68,P40,CTR,REL,Posture_Sitting,1,L_MTF,FM,M3,2.7794048071624307
BMu68,P40,CTR,REL,Posture_Sitting,1,R_MTF,FM,M1,4.610841392916002
BMu68,P40,CTR,REL,Posture_Sitting,1,R_MTF,FM,M2,4.896994955487169
BMu68,P40,CTR,REL,Posture_Sitting,1,R_MTF,FM,M3,5.071912917347777
BMu68,P41,PAT,INI,Posture_Sitting,1,L_MTF,FM,M1,3.045902724748586
BMu68,P41,PAT,INI,Posture_Sitting,1,L_MTF,FM,M2,3.1191974440884374
BMu68,P41,PAT,INI,Posture_Sitting,1,L_MTF,FM,M3,3.1156803759052414
BMu68,P41,PAT,INI,Posture_Sitting,1,R_MTF,FM,M1,6.261724081182528
BMu68,P41,PAT,INI,Posture_Sitting,1,R_MTF,FM,M2,6.481029646742526
BMu68,P41,PAT,INI,Posture_Sitting,1,R_MTF,FM,M3,6.609650898092179
BMu68,P41,PAT,REL,Posture_Sitting,1,L_MTF,FM,M1,3.7591664162310114
BMu68,P41,PAT,REL,Posture_Sitting,1,L_MTF,FM,M2,3.8944417714255475
BMu68,P41,PAT,REL,Posture_Sitting,1,L_MTF,FM,M3,4.022141064037556
BMu68,P41,PAT,REL,Posture_Sitting,1,R_MTF,FM,M1,14.968415087811072
BMu68,P41,PAT,REL,Posture_Sitting,1,R_MTF,FM,M2,14.954215573719345
BMu68,P41,PAT,REL,Posture_Sitting,1,R_MTF,FM,M3,15.23198990254844
BMu68,P42,PAT,INI,Posture_Sitting,1,L_MTF,FM,M1,5.0809646002863635
BMu68,P42,PAT,INI,Posture_Sitting,1,L_MTF,FM,M2,4.795628216580661
BMu68,P42,PAT,INI,Posture_Sitting,1,L_MTF,FM,M3,4.695658595746902
BMu68,P42,PAT,INI,Posture_Sitting,1,R_MTF,FM,M1,8.501975469862536
BMu68,P42,PAT,INI,Posture_Sitting,1,R_MTF,FM,M2,9.308672133043316
BMu68,P42,PAT,INI,Posture_Sitting,1,R_MTF,FM,M3,9.065554108860582
BMu68,P42,PAT,REL,Posture_Sitting,1,L_MTF,FM,M1,3.515295814583908
BMu68,P42,PAT,REL,Posture_Sitting,1,L_MTF,FM,M2,3.536341170178731
BMu68,P42,PAT,REL,Posture_Sitting,1,L_MTF,FM,M3,3.547613372369915
BMu68,P42,PAT,REL,Posture_Sitting,1,R_MTF,FM,M1,5.165285408748457
BMu68,P42,PAT,REL,Posture_Sitting,1,R_MTF,FM,M2,6.142398608526191
BMu68,P42,PAT,REL,Posture_Sitting,1,R_MTF,FM,M3,6.271813331972322
BMu68,P43,PAT,INI,Posture_Sitting,1,L_MTF,FM,M1,2.7822170147069456
BMu68,P43,PAT,INI,Posture_Sitting,1,L_MTF,FM,M2,2.721244352684247
BMu68,P43,PAT,INI,Posture_Sitting,1,L_MTF,FM,M3,2.7439144738879873
BMu68,P43,PAT,INI,Posture_Sitting,1,R_MTF,FM,M1,5.032279483559365
BMu68,P43,PAT,INI,Posture_Sitting,1,R_MTF,FM,M2,5.008523310630925
BMu68,P43,PAT,INI,Posture_Sitting,1,R_MTF,FM,M3,4.97632670971892
BMu68,P43,PAT,REL,Posture_Sitting,1,L_MTF,FM,M1,4.50548520662022
BMu68,P43,PAT,REL,Posture_Sitting,1,L_MTF,FM,M2,4.416699578219278
BMu68,P43,PAT,REL,Posture_Sitting,1,L_MTF,FM,M3,4.380003971063158
BMu68,P43,PAT,REL,Posture_Sitting,1,R_MTF,FM,M1,11.6962455804796
BMu68,P43,PAT,REL,Posture_Sitting,1,R_MTF,FM,M2,11.285742975266963
BMu68,P43,PAT,REL,Posture_Sitting,1,R_MTF,FM,M3,11.061125437066165
BMu68,P44,CTR,INI,Posture_Sitting,1,L_MTF,FM,M1,131.05144897549374
BMu68,P44,CTR,INI,Posture_Sitting,1,L_MTF,FM,M2,123.33976348153284
BMu68,P44,CTR,INI,Posture_Sitting,1,L_MTF,FM,M3,120.50283273898074
BMu68,P44,CTR,INI,Posture_Sitting,1,R_MTF,FM,M1,9.14891053120679
BMu68,P44,CTR,INI,Posture_Sitting,1,R_MTF,FM,M2,9.352943557655601
BMu68,P44,CTR,INI,Posture_Sitting,1,R_MTF,FM,M3,9.245266324067277
BMu68,P44,CTR,REL,Posture_Sitting,1,L_MTF,FM,M1,6.105243670894018
BMu68,P44,CTR,REL,Posture_Sitting,1,L_MTF,FM,M2,6.0788620386348375
BMu68,P44,CTR,REL,Posture_Sitting,1,L_MTF,FM,M3,6.096906387629241
BMu68,P44,CTR,REL,Posture_Sitting,1,R_MTF,FM,M1,5.707817681137833
BMu68,P44,CTR,REL,Posture_Sitting,1,R_MTF,FM,M2,5.7146874811539625
BMu68,P44,CTR,REL,Posture_Sitting,1,R_MTF,FM,M3,5.704760270680034
BMu68,P45,PAT,INI,Posture_Sitting,1,L_MTF,FM,M1,6.496034310119582
BMu68,P45,PAT,INI,Posture_Sitting,1,L_MTF,FM,M2,6.5393977137508585
BMu68,P45,PAT,INI,Posture_Sitting,1,L_MTF,FM,M3,6.424392837335567
BMu68,P45,PAT,INI,Posture_Sitting,1,R_MTF,FM,M1,10.546832755259018
BMu68,P45,PAT,INI,Posture_Sitting,1,R_MTF,FM,M2,10.511386921841975
BMu68,P45,PAT,INI,Posture_Sitting,1,R_MTF,FM,M3,10.585551590796596
BMu68,P45,PAT,REL,Posture_Sitting,1,L_MTF,FM,M1,7.0694929526954935
BMu68,P45,PAT,REL,Posture_Sitting,1,L_MTF,FM,M2,6.894675273134994
BMu68,P45,PAT,REL,Posture_Sitting,1,L_MTF,FM,M3,6.956294290110793
BMu68,P45,PAT,REL,Posture_Sitting,1,R_MTF,FM,M1,9.709170145565315
BMu68,P45,PAT,REL,Posture_Sitting,1,R_MTF,FM,M2,9.503381681831607
BMu68,P45,PAT,REL,Posture_Sitting,1,R_MTF,FM,M3,9.334657991321043
BMu68,P46,CTR,INI,Posture_Sitting,1,L_MTF,FM,M1,8.717754724336327
BMu68,P46,CTR,INI,Posture_Sitting,1,L_MTF,FM,M2,8.57756555582169
BMu68,P46,CTR,INI,Posture_Sitting,1,L_MTF,FM,M3,8.65301977083502
BMu68,P46,CTR,INI,Posture_Sitting,1,R_MTF,FM,M1,7.070894434288033
BMu68,P46,CTR,INI,Posture_Sitting,1,R_MTF,FM,M2,6.945073266501377
BMu68,P46,CTR,INI,Posture_Sitting,1,R_MTF,FM,M3,6.863123659121165
BMu68,P46,CTR,REL,Posture_Sitting,1,L_MTF,FM,M1,4.370267781933003
BMu68,P46,CTR,REL,Posture_Sitting,1,L_MTF,FM,M2,4.39619333749984
BMu68,P46,CTR,REL,Posture_Sitting,1,L_MTF,FM,M3,4.280625896476825
BMu68,P46,CTR,REL,Posture_Sitting,1,R_MTF,FM,M1,5.122485199965042
BMu68,P46,CTR,REL,Posture_Sitting,1,R_MTF,FM,M2,5.110431220148663
BMu68,P46,CTR,REL,Posture_Sitting,1,R_MTF,FM,M3,4.982090247004022
BMu68,P47,PAT,INI,Posture_Sitting,1,L_MTF,FM,M1,2.4633062656859406
BMu68,P47,PAT,INI,Posture_Sitting,1,L_MTF,FM,M2,2.300214858152331
BMu68,P47,PAT,INI,Posture_Sitting,1,L_MTF,FM,M3,2.4617772836772778
BMu68,P47,PAT,INI,Posture_Sitting,1,R_MTF,FM,M1,10.241710318257098
BMu68,P47,PAT,INI,Posture_Sitting,1,R_MTF,FM,M2,8.954669470763443
BMu68,P47,PAT,INI,Posture_Sitting,1,R_MTF,FM,M3,6.058843738485746
BMu68,P47,PAT,REL,Posture_Sitting,1,L_MTF,FM,M1,2.918309183926443
BMu68,P47,PAT,REL,Posture_Sitting,1,L_MTF,FM,M2,2.5721678360072993
BMu68,P47,PAT,REL,Posture_Sitting,1,L_MTF,FM,M3,2.5252771521719835
BMu68,P47,PAT,REL,Posture_Sitting,1,R_MTF,FM,M1,4.284730311239058
BMu68,P47,PAT,REL,Posture_Sitting,1,R_MTF,FM,M2,4.220528538657329
BMu68,P47,PAT,REL,Posture_Sitting,1,R_MTF,FM,M3,4.236898665560798
BMu68,P48,CTR,INI,Posture_Sitting,1,L_MTF,FM,M1,9.459559895140075
BMu68,P48,CTR,INI,Posture_Sitting,1,L_MTF,FM,M2,8.339999794269122
BMu68,P48,CTR,INI,Posture_Sitting,1,L_MTF,FM,M3,7.557849598168172
BMu68,P48,CTR,INI,Posture_Sitting,1,R_MTF,FM,M1,5.333265845611116
BMu68,P48,CTR,INI,Posture_Sitting,1,R_MTF,FM,M2,4.751006047634983
BMu68,P48,CTR,INI,Posture_Sitting,1,R_MTF,FM,M3,4.618437883184783
BMu68,P48,CTR,REL,Posture_Sitting,1,L_MTF,FM,M1,4.639590796062805
BMu68,P48,CTR,REL,Posture_Sitting,1,L_MTF,FM,M2,4.43476118539908
BMu68,P48,CTR,REL,Posture_Sitting,1,L_MTF,FM,M3,4.362188970290351
BMu68,P48,CTR,REL,Posture_Sitting,1,R_MTF,FM,M1,5.984619527916539
BMu68,P48,CTR,REL,Posture_Sitting,1,R_MTF,FM,M2,5.803451899302107
BMu68,P48,CTR,REL,Posture_Sitting,1,R_MTF,FM,M3,5.823585755337934
BMu68,P49,CTR,INI,Posture_Sitting,1,L_MTF,FM,M1,5.744056805736121
BMu68,P49,CTR,INI,Posture_Sitting,1,L_MTF,FM,M2,6.789140893755316
BMu68,P49,CTR,INI,Posture_Sitting,1,L_MTF,FM,M3,7.781163397610762
BMu68,P49,CTR,INI,Posture_Sitting,1,R_MTF,FM,M1,4.08412202146674
BMu68,P49,CTR,INI,Posture_Sitting,1,R_MTF,FM,M2,4.151869144134663
BMu68,P49,CTR,INI,Posture_Sitting,1,R_MTF,FM,M3,3.636392053342745
BMu68,P49,CTR,REL,Posture_Sitting,1,L_MTF,FM,M1,14.264443338833859
BMu68,P49,CTR,REL,Posture_Sitting,1,L_MTF,FM,M2,14.92308538171497
BMu68,P49,CTR,REL,Posture_Sitting,1,L_MTF,FM,M3,15.601644164402046
BMu68,P49,CTR,REL,Posture_Sitting,1,R_MTF,FM,M1,18.63633691352012
BMu68,P49,CTR,REL,Posture_Sitting,1,R_MTF,FM,M2,17.61102934825264
BMu68,P49,CTR,REL,Posture_Sitting,1,R_MTF,FM,M3,18.63219379984155
BMu68,P50,PAT,INI,Posture_Sitting,1,L_MTF,FM,M1,12.665418919677641
BMu68,P50,PAT,INI,Posture_Sitting,1,L_MTF,FM,M2,12.574097322895403
BMu68,P50,PAT,INI,Posture_Sitting,1,L_MTF,FM,M3,8.688645715278732
BMu68,P50,PAT,INI,Posture_Sitting,1,R_MTF,FM,M1,10.55176359551602
BMu68,P50,PAT,INI,Posture_Sitting,1,R_MTF,FM,M2,10.778180985845637
BMu68,P50,PAT,INI,Posture_Sitting,1,R_MTF,FM,M3,11.42561868704318
BMu68,P50,PAT,REL,Posture_Sitting,1,L_MTF,FM,M1,8.347938479400636
BMu68,P50,PAT,REL,Posture_Sitting,1,L_MTF,FM,M2,6.709507219169618
BMu68,P50,PAT,REL,Posture_Sitting,1,L_MTF,FM,M3,6.6709095444618
BMu68,P50,PAT,REL,Posture_Sitting,1,R_MTF,FM,M1,7.602530550154626
BMu68,P50,PAT,REL,Posture_Sitting,1,R_MTF,FM,M2,8.813639882730534
BMu68,P50,PAT,REL,Posture_Sitting,1,R_MTF,FM,M3,8.532042235832305
BMu68,P51,PAT,INI,Posture_Sitting,1,L_MTF,FM,M1,9.20653056562354
BMu68,P51,PAT,INI,Posture_Sitting,1,L_MTF,FM,M2,9.275141057555384
BMu68,P51,PAT,INI,Posture_Sitting,1,L_MTF,FM,M3,9.702178748074145
BMu68,P51,PAT,INI,Posture_Sitting,1,R_MTF,FM,M1,6.918845651725918
BMu68,P51,PAT,INI,Posture_Sitting,1,R_MTF,FM,M2,7.022354475050797
BMu68,P51,PAT,INI,Posture_Sitting,1,R_MTF,FM,M3,7.346172888238975
BMu68,P51,PAT,REL,Posture_Sitting,1,L_MTF,FM,M1,10.10761788156198
BMu68,P51,PAT,REL,Posture_Sitting,1,L_MTF,FM,M2,10.331492143748896
BMu68,P51,PAT,REL,Posture_Sitting,1,L_MTF,FM,M3,10.278843323787283
BMu68,P51,PAT,REL,Posture_Sitting,1,R_MTF,FM,M1,12.620871739814879
BMu68,P51,PAT,REL,Posture_Sitting,1,R_MTF,FM,M2,12.865004713940094
BMu68,P51,PAT,REL,Posture_Sitting,1,R_MTF,FM,M3,12.609465903138558
BMu68,P52,CTR,INI,Posture_Sitting,1,L_MTF,FM,M1,1.5759322182914688
BMu68,P52,CTR,INI,Posture_Sitting,1,L_MTF,FM,M2,1.5797074040781662
BMu68,P52,CTR,INI,Posture_Sitting,1,L_MTF,FM,M3,1.6007508363698717
BMu68,P52,CTR,INI,Posture_Sitting,1,R_MTF,FM,M1,3.430006460165518
BMu68,P52,CTR,INI,Posture_Sitting,1,R_MTF,FM,M2,3.590913812490877
BMu68,P52,CTR,INI,Posture_Sitting,1,R_MTF,FM,M3,3.64273440865299
BMu68,P52,CTR,REL,Posture_Sitting,1,L_MTF,FM,M1,1.859170349061026
BMu68,P52,CTR,REL,Posture_Sitting,1,L_MTF,FM,M2,1.885308175451099
BMu68,P52,CTR,REL,Posture_Sitting,1,L_MTF,FM,M3,1.8685620954180606
BMu68,P52,CTR,REL,Posture_Sitting,1,R_MTF,FM,M1,2.959024063291573
BMu68,P52,CTR,REL,Posture_Sitting,1,R_MTF,FM,M2,2.9295754259858646
BMu68,P52,CTR,REL,Posture_Sitting,1,R_MTF,FM,M3,2.959727250183414
BMu68,P53,PAT,INI,Posture_Sitting,1,L_MTF,FM,M1,5.998133998640262
BMu68,P53,PAT,INI,Posture_Sitting,1,L_MTF,FM,M2,6.039266055272739
BMu68,P53,PAT,INI,Posture_Sitting,1,L_MTF,FM,M3,5.9801777525518505
BMu68,P53,PAT,INI,Posture_Sitting,1,R_MTF,FM,M1,5.980901334219374
BMu68,P53,PAT,INI,Posture_Sitting,1,R_MTF,FM,M2,6.527650841663215
BMu68,P53,PAT,INI,Posture_Sitting,1,R_MTF,FM,M3,6.6668284760029835
BMu68,P53,PAT,REL,Posture_Sitting,1,L_MTF,FM,M1,12.598624046944536
BMu68,P53,PAT,REL,Posture_Sitting,1,L_MTF,FM,M2,12.598175693070973
BMu68,P53,PAT,REL,Posture_Sitting,1,L_MTF,FM,M3,12.550131362639863
BMu68,P53,PAT,REL,Posture_Sitting,1,R_MTF,FM,M1,6.011048618095111
BMu68,P53,PAT,REL,Posture_Sitting,1,R_MTF,FM,M2,5.879331070724839
BMu68,P53,PAT,REL,Posture_Sitting,1,R_MTF,FM,M3,5.9978836455656745
BMu68,P54,PAT,INI,Posture_Sitting,1,L_MTF,FM,M1,7.103436645634973
BMu68,P54,PAT,INI,Posture_Sitting,1,L_MTF,FM,M2,6.9816767889065
BMu68,P54,PAT,INI,Posture_Sitting,1,L_MTF,FM,M3,7.03596167922241
BMu68,P54,PAT,INI,Posture_Sitting,1,R_MTF,FM,M1,5.715913916142595
BMu68,P54,PAT,INI,Posture_Sitting,1,R_MTF,FM,M2,5.760547046629134
BMu68,P54,PAT,INI,Posture_Sitting,1,R_MTF,FM,M3,5.716522210974149
BMu68,P54,PAT,REL,Posture_Sitting,1,L_MTF,FM,M1,7.087876770897061
BMu68,P54,PAT,REL,Posture_Sitting,1,L_MTF,FM,M2,7.038640191609384
BMu68,P54,PAT,REL,Posture_Sitting,1,L_MTF,FM,M3,7.097049347594281
BMu68,P54,PAT,REL,Posture_Sitting,1,R_MTF,FM,M1,3.7424311758815887
BMu68,P54,PAT,REL,Posture_Sitting,1,R_MTF,FM,M2,3.8232021029761176
BMu68,P54,PAT,REL,Posture_Sitting,1,R_MTF,FM,M3,3.981166747667226
BMu68,P55,CTR,INI,Posture_Sitting,1,L_MTF,FM,M1,5.665015855695494
BMu68,P55,CTR,INI,Posture_Sitting,1,L_MTF,FM,M2,5.868536207883871
BMu68,P55,CTR,INI,Posture_Sitting,1,L_MTF,FM,M3,5.606053735100974
BMu68,P55,CTR,INI,Posture_Sitting,1,R_MTF,FM,M1,5.358300761584941
BMu68,P55,CTR,INI,Posture_Sitting,1,R_MTF,FM,M2,5.312379014285994
BMu68,P55,CTR,INI,Posture_Sitting,1,R_MTF,FM,M3,5.286642045665758
BMu68,P55,CTR,REL,Posture_Sitting,1,L_MTF,FM,M1,6.561423618516958
BMu68,P55,CTR,REL,Posture_Sitting,1,L_MTF,FM,M2,6.485574225228695
BMu68,P55,CTR,REL,Posture_Sitting,1,L_MTF,FM,M3,6.785934728833403
BMu68,P55,CTR,REL,Posture_Sitting,1,R_MTF,FM,M1,5.52696773520669
BMu68,P55,CTR,REL,Posture_Sitting,1,R_MTF,FM,M2,5.5151443539465035
BMu68,P55,CTR,REL,Posture_Sitting,1,R_MTF,FM,M3,5.556277942948166
BMu68,P56,CTR,INI,Posture_Sitting,1,L_MTF,FM,M1,8.908065508240433
BMu68,P56,CTR,INI,Posture_Sitting,1,L_MTF,FM,M2,9.484022167421017
BMu68,P56,CTR,INI,Posture_Sitting,1,L_MTF,FM,M3,9.214338857698255
BMu68,P56,CTR,INI,Posture_Sitting,1,R_MTF,FM,M1,6.642915465796145
BMu68,P56,CTR,INI,Posture_Sitting,1,R_MTF,FM,M2,6.970161731798339
BMu68,P56,CTR,INI,Posture_Sitting,1,R_MTF,FM,M3,6.9778939139107905
BMu68,P56,CTR,REL,Posture_Sitting,1,L_MTF,FM,M1,14.705604929945213
BMu68,P56,CTR,REL,Posture_Sitting,1,L_MTF,FM,M2,14.79777120751471
BMu68,P56,CTR,REL,Posture_Sitting,1,L_MTF,FM,M3,14.03901771307385
BMu68,P56,CTR,REL,Posture_Sitting,1,R_MTF,FM,M1,7.966591499583868
BMu68,P56,CTR,REL,Posture_Sitting,1,R_MTF,FM,M2,8.049875658313583
BMu68,P56,CTR,REL,Posture_Sitting,1,R_MTF,FM,M3,7.898556765336028
BMu68,P57,CTR,INI,Posture_Sitting,1,L_MTF,FM,M1,36.22527191325831
BMu68,P57,CTR,INI,Posture_Sitting,1,L_MTF,FM,M2,36.24819984718146
BMu68,P57,CTR,INI,Posture_Sitting,1,L_MTF,FM,M3,33.602988023534
BMu68,P57,CTR,INI,Posture_Sitting,1,R_MTF,FM,M1,5.147318071253832
BMu68,P57,CTR,INI,Posture_Sitting,1,R_MTF,FM,M2,5.595723209943387
BMu68,P57,CTR,INI,Posture_Sitting,1,R_MTF,FM,M3,5.3978383052434316
BMu68,P57,CTR,REL,Posture_Sitting,1,L_MTF,FM,M1,4.639427895473234
BMu68,P57,CTR,REL,Posture_Sitting,1,L_MTF,FM,M2,4.417535282592259
BMu68,P57,CTR,REL,Posture_Sitting,1,L_MTF,FM,M3,4.440503996849279
BMu68,P57,CTR,REL,Posture_Sitting,1,R_MTF,FM,M1,7.45741739932209
BMu68,P57,CTR,REL,Posture_Sitting,1,R_MTF,FM,M2,7.2676828328006495
BMu68,P57,CTR,REL,Posture_Sitting,1,R_MTF,FM,M3,6.878489384417498
BMu68,P58,PAT,INI,Posture_Sitting,1,L_MTF,FM,M1,8.653384813936299
BMu68,P58,PAT,INI,Posture_Sitting,1,L_MTF,FM,M2,8.525404186463634
BMu68,P58,PAT,INI,Posture_Sitting,1,L_MTF,FM,M3,8.600398296898607
BMu68,P58,PAT,INI,Posture_Sitting,1,R_MTF,FM,M1,18.794814473211307
BMu68,P58,PAT,INI,Posture_Sitting,1,R_MTF,FM,M2,18.653823462244386
BMu68,P58,PAT,INI,Posture_Sitting,1,R_MTF,FM,M3,18.423671037593454
BMu68,P58,PAT,REL,Posture_Sitting,1,L_MTF,FM,M1,35.80906420685273
BMu68,P58,PAT,REL,Posture_Sitting,1,L_MTF,FM,M2,22.104080773905373
BMu68,P58,PAT,REL,Posture_Sitting,1,L_MTF,FM,M3,18.77376431048861
BMu68,P58,PAT,REL,Posture_Sitting,1,R_MTF,FM,M1,9.757151436642884
BMu68,P58,PAT,REL,Posture_Sitting,1,R_MTF,FM,M2,9.019292787460005
BMu68,P58,PAT,REL,Posture_Sitting,1,R_MTF,FM,M3,9.027355200661386
BMu68,P60,CTR,INI,Posture_Sitting,1,L_MTF,FM,M1,2.902123355713489
BMu68,P60,CTR,INI,Posture_Sitting,1,L_MTF,FM,M2,2.9381310176869375
BMu68,P60,CTR,INI,Posture_Sitting,1,L_MTF,FM,M3,3.0032155929467113
BMu68,P60,CTR,INI,Posture_Sitting,1,R_MTF,FM,M1,3.477137885627772
BMu68,P60,CTR,INI,Posture_Sitting,1,R_MTF,FM,M2,3.5296892653427077
BMu68,P60,CTR,INI,Posture_Sitting,1,R_MTF,FM,M3,3.562573734753903
BMu68,P60,CTR,REL,Posture_Sitting,1,L_MTF,FM,M1,3.531321516708492
BMu68,P60,CTR,REL,Posture_Sitting,1,L_MTF,FM,M2,3.634591192532106
BMu68,P60,CTR,REL,Posture_Sitting,1,L_MTF,FM,M3,3.677947714120466
BMu68,P60,CTR,REL,Posture_Sitting,1,R_MTF,FM,M1,4.276565187547702
BMu68,P60,CTR,REL,Posture_Sitting,1,R_MTF,FM,M2,4.494112340963133
BMu68,P60,CTR,REL,Posture_Sitting,1,R_MTF,FM,M3,4.318656995282449
BMu68,P61,PAT,REL,Posture_Sitting,1,L_MTF,FM,M1,13.274182098357745
BMu68,P61,PAT,REL,Posture_Sitting,1,L_MTF,FM,M2,13.141308828523748
BMu68,P61,PAT,REL,Posture_Sitting,1,L_MTF,FM,M3,15.455639421467042
BMu68,P61,PAT,REL,Posture_Sitting,1,R_MTF,FM,M1,12.426527458426062
BMu68,P61,PAT,REL,Posture_Sitting,1,R_MTF,FM,M2,8.96303355577508
BMu68,P61,PAT,REL,Posture_Sitting,1,R_MTF,FM,M3,12.701941274145256
BMu68,P62,PAT,INI,Posture_Sitting,1,L_MTF,FM,M1,11.879971483479734
BMu68,P62,PAT,INI,Posture_Sitting,1,L_MTF,FM,M2,12.385693736349564
BMu68,P62,PAT,INI,Posture_Sitting,1,L_MTF,FM,M3,11.347700631020047
BMu68,P62,PAT,INI,Posture_Sitting,1,R_MTF,FM,M1,8.150312377004612
BMu68,P62,PAT,INI,Posture_Sitting,1,R_MTF,FM,M2,8.523017403927415
BMu68,P62,PAT,INI,Posture_Sitting,1,R_MTF,FM,M3,8.584561959909038
BMu68,P62,PAT,REL,Posture_Sitting,1,L_MTF,FM,M1,11.084314701892529
BMu68,P62,PAT,REL,Posture_Sitting,1,L_MTF,FM,M2,11.207965296379696
BMu68,P62,PAT,REL,Posture_Sitting,1,L_MTF,FM,M3,11.713150509538087
BMu68,P62,PAT,REL,Posture_Sitting,1,R_MTF,FM,M1,6.543464449806287
BMu68,P62,PAT,REL,Posture_Sitting,1,R_MTF,FM,M2,6.3369130193746965
BMu68,P62,PAT,REL,Posture_Sitting,1,R_MTF,FM,M3,6.564100053818907
BMu68,P63,PAT,INI,Posture_Sitting,1,L_MTF,FM,M1,16.41927416677979
BMu68,P63,PAT,INI,Posture_Sitting,1,L_MTF,FM,M2,12.384327179493967
BMu68,P63,PAT,INI,Posture_Sitting,1,L_MTF,FM,M3,10.77793893191629
BMu68,P63,PAT,INI,Posture_Sitting,1,R_MTF,FM,M1,6.032673607666419
BMu68,P63,PAT,INI,Posture_Sitting,1,R_MTF,FM,M2,6.283391133271653
BMu68,P63,PAT,INI,Posture_Sitting,1,R_MTF,FM,M3,7.020201481927539
BMu68,P63,PAT,REL,Posture_Sitting,1,L_MTF,FM,M1,8.849929536386766
BMu68,P63,PAT,REL,Posture_Sitting,1,L_MTF,FM,M2,7.364323889370607
BMu68,P63,PAT,REL,Posture_Sitting,1,L_MTF,FM,M3,6.471096802098388
BMu68,P63,PAT,REL,Posture_Sitting,1,R_MTF,FM,M1,10.419788431587001
BMu68,P63,PAT,REL,Posture_Sitting,1,R_MTF,FM,M2,11.49086120177741
BMu68,P63,PAT,REL,Posture_Sitting,1,R_MTF,FM,M3,11.103611954061861
BMu68,P64,CTR,INI,Posture_Sitting,1,L_MTF,FM,M1,2.306856776748946
BMu68,P64,CTR,INI,Posture_Sitting,1,L_MTF,FM,M2,2.321669059320808
BMu68,P64,CTR,INI,Posture_Sitting,1,L_MTF,FM,M3,2.2809777755027527
BMu68,P64,CTR,INI,Posture_Sitting,1,R_MTF,FM,M1,2.413803945440847
BMu68,P64,CTR,INI,Posture_Sitting,1,R_MTF,FM,M2,2.451890964127209
BMu68,P64,CTR,INI,Posture_Sitting,1,R_MTF,FM,M3,2.470083345620456
BMu68,P64,CTR,REL,Posture_Sitting,1,L_MTF,FM,M1,2.227042886957085
BMu68,P64,CTR,REL,Posture_Sitting,1,L_MTF,FM,M2,2.2341953909259415
BMu68,P64,CTR,REL,Posture_Sitting,1,L_MTF,FM,M3,2.2159411425215465
BMu68,P64,CTR,REL,Posture_Sitting,1,R_MTF,FM,M1,3.0405359506964302
BMu68,P64,CTR,REL,Posture_Sitting,1,R_MTF,FM,M2,2.9639493834310238
BMu68,P64,CTR,REL,Posture_Sitting,1,R_MTF,FM,M3,3.023068952962497
BMu68,P65,PAT,INI,Posture_Sitting,1,L_MTF,FM,M1,9.199735511882706
BMu68,P65,PAT,INI,Posture_Sitting,1,L_MTF,FM,M2,9.038225920664182
BMu68,P65,PAT,INI,Posture_Sitting,1,L_MTF,FM,M3,8.907289935221435
BMu68,P65,PAT,INI,Posture_Sitting,1,R_MTF,FM,M1,13.028299729133746
BMu68,P65,PAT,INI,Posture_Sitting,1,R_MTF,FM,M2,13.99444927411636
BMu68,P65,PAT,INI,Posture_Sitting,1,R_MTF,FM,M3,13.959285386514713
BMu68,P65,PAT,REL,Posture_Sitting,1,L_MTF,FM,M1,14.142715449227278
BMu68,P65,PAT,REL,Posture_Sitting,1,L_MTF,FM,M2,12.852232452485326
BMu68,P65,PAT,REL,Posture_Sitting,1,L_MTF,FM,M3,13.377648122927729
BMu68,P65,PAT,REL,Posture_Sitting,1,R_MTF,FM,M1,18.170739873652927
BMu68,P65,PAT,REL,Posture_Sitting,1,R_MTF,FM,M2,17.753920067723527
BMu68,P65,PAT,REL,Posture_Sitting,1,R_MTF,FM,M3,17.91055518589317
BMu68,P66,CTR,INI,Posture_Sitting,1,L_MTF,FM,M1,6.022362064772116
BMu68,P66,CTR,INI,Posture_Sitting,1,L_MTF,FM,M2,5.936870772632114
BMu68,P66,CTR,INI,Posture_Sitting,1,L_MTF,FM,M3,5.73805572552428
BMu68,P66,CTR,INI,Posture_Sitting,1,R_MTF,FM,M1,6.666038254382737
BMu68,P66,CTR,INI,Posture_Sitting,1,R_MTF,FM,M2,5.910701521205295
BMu68,P66,CTR,INI,Posture_Sitting,1,R_MTF,FM,M3,5.1614167631763985
BMu68,P66,CTR,REL,Posture_Sitting,1,L_MTF,FM,M1,5.580185810095172
BMu68,P66,CTR,REL,Posture_Sitting,1,L_MTF,FM,M2,5.699801806208448
BMu68,P66,CTR,REL,Posture_Sitting,1,L_MTF,FM,M3,5.308894802522304
BMu68,P66,CTR,REL,Posture_Sitting,1,R_MTF,FM,M1,5.725720150835816
BMu68,P66,CTR,REL,Posture_Sitting,1,R_MTF,FM,M2,5.940331124499448
BMu68,P66,CTR,REL,Posture_Sitting,1,R_MTF,FM,M3,6.222248405293687
BMu68,P67,CTR,INI,Posture_Sitting,1,L_MTF,FM,M1,3.7650944351756994
BMu68,P67,CTR,INI,Posture_Sitting,1,L_MTF,FM,M2,3.859532819346933
BMu68,P67,CTR,INI,Posture_Sitting,1,L_MTF,FM,M3,3.6952098919081133
BMu68,P67,CTR,INI,Posture_Sitting,1,R_MTF,FM,M1,34.26406567597983
BMu68,P67,CTR,INI,Posture_Sitting,1,R_MTF,FM,M2,36.00799821756504
BMu68,P67,CTR,INI,Posture_Sitting,1,R_MTF,FM,M3,34.98593484778358
BMu68,P67,CTR,REL,Posture_Sitting,1,L_MTF,FM,M1,3.0028806992931507
BMu68,P67,CTR,REL,Posture_Sitting,1,L_MTF,FM,M2,2.300284713462478
BMu68,P67,CTR,REL,Posture_Sitting,1,L_MTF,FM,M3,2.8347407603719206
BMu68,P67,CTR,REL,Posture_Sitting,1,R_MTF,FM,M1,10.481325889822173
BMu68,P67,CTR,REL,Posture_Sitting,1,R_MTF,FM,M2,8.827389392971906
BMu68,P67,CTR,REL,Posture_Sitting,1,R_MTF,FM,M3,9.793840196893388
BMu68,P68,CTR,INI,Posture_Sitting,1,L_MTF,FM,M1,3.857121326921014
BMu68,P68,CTR,INI,Posture_Sitting,1,L_MTF,FM,M2,3.842205706302111
BMu68,P68,CTR,INI,Posture_Sitting,1,L_MTF,FM,M3,3.7329444242908703
BMu68,P68,CTR,INI,Posture_Sitting,1,R_MTF,FM,M1,5.996460561927245
BMu68,P68,CTR,INI,Posture_Sitting,1,R_MTF,FM,M2,6.061617940902099
BMu68,P68,CTR,INI,Posture_Sitting,1,R_MTF,FM,M3,6.4214188833899515
BMu68,P68,CTR,REL,Posture_Sitting,1,L_MTF,FM,M1,3.2247475117944866
BMu68,P68,CTR,REL,Posture_Sitting,1,L_MTF,FM,M2,3.1080839677697814
BMu68,P68,CTR,REL,Posture_Sitting,1,L_MTF,FM,M3,3.146052830960055
BMu68,P68,CTR,REL,Posture_Sitting,1,R_MTF,FM,M1,5.370885966692295
BMu68,P68,CTR,REL,Posture_Sitting,1,R_MTF,FM,M2,5.310118438154483
BMu68,P68,CTR,REL,Posture_Sitting,1,R_MTF,FM,M3,5.30051531476174
