BMu,Participant,Group,Session,task,trials,channel,Operator,Measure,Value
BMu81,P01,CTR,INI,S2S_Unconstrained,1,L_ESI,FM,M1,0.002388631982784843
BMu81,P01,CTR,INI,S2S_Unconstrained,1,L_ESI,FM,M2,0.002450028883891223
BMu81,P01,CTR,INI,S2S_Unconstrained,1,L_ESI,FM,M3,0.0024984572405516185
BMu81,P01,CTR,INI,S2S_Unconstrained,1,R_ESI,FM,M1,
BMu81,P01,CTR,INI,S2S_Unconstrained,1,R_ESI,FM,M2,
BMu81,P01,CTR,INI,S2S_Unconstrained,1,R_ESI,FM,M3,
BMu81,P01,CTR,REL,S2S_Unconstrained,1,L_ESI,FM,M1,0.002941329735644736
BMu81,P01,CTR,REL,S2S_Unconstrained,1,L_ESI,FM,M2,0.0023420873147982145
BMu81,P01,CTR,REL,S2S_Unconstrained,1,L_ESI,FM,M3,0.005252918964850195
BMu81,P01,CTR,REL,S2S_Unconstrained,1,R_ESI,FM,M1,0.01947249504700783
BMu81,P01,CTR,REL,S2S_Unconstrained,1,R_ESI,FM,M2,0.016217355979858322
BMu81,P01,CTR,REL,S2S_Unconstrained,1,R_ESI,FM,M3,0.026041270969545893
BMu81,P02,CTR,INI,S2S_Unconstrained,1,L_ESI,FM,M1,0.00844241317617818
BMu81,P02,CTR,INI,S2S_Unconstrained,1,L_ESI,FM,M2,0.008957244481737944
BMu81,P02,CTR,INI,S2S_Unconstrained,1,L_ESI,FM,M3,0.0077296195202812175
BMu81,P02,CTR,INI,S2S_Unconstrained,1,R_ESI,FM,M1,0.0030176711017616074
BMu81,P02,CTR,INI,S2S_Unconstrained,1,R_ESI,FM,M2,0.0026601607203830245
BMu81,P02,CTR,INI,S2S_Unconstrained,1,R_ESI,FM,M3,0.0072846620410950925
BMu81,P02,CTR,REL,S2S_Unconstrained,1,L_ESI,FM,M1,0.003823701038831884
BMu81,P02,CTR,REL,S2S_Unconstrained,1,L_ESI,FM,M2,0.0035861716733785703
BMu81,P02,CTR,REL,S2S_Unconstrained,1,L_ESI,FM,M3,0.004085431020184238
BMu81,P02,CTR,REL,S2S_Unconstrained,1,R_ESI,FM,M1,
BMu81,P02,CTR,REL,S2S_Unconstrained,1,R_ESI,FM,M2,
BMu81,P02,CTR,REL,S2S_Unconstrained,1,R_ESI,FM,M3,0.003966082183562529
BMu81,P03,CTR,INI,S2S_Unconstrained,1,L_ESI,FM,M1,0.005013667694581657
BMu81,P03,CTR,INI,S2S_Unconstrained,1,L_ESI,FM,M2,0.0037592019179036574
BMu81,P03,CTR,INI,S2S_Unconstrained,1,L_ESI,FM,M3,0.003916927836609338
BMu81,P03,CTR,INI,S2S_Unconstrained,1,R_ESI,FM,M1,0.005851871712952793
BMu81,P03,CTR,INI,S2S_Unconstrained,1,R_ESI,FM,M2,0.0030530017422180874
BMu81,P03,CTR,INI,S2S_Unconstrained,1,R_ESI,FM,M3,0.0029902153231404407
BMu81,P03,CTR,REL,S2S_Unconstrained,1,L_ESI,FM,M1,0.006931370076390424
BMu81,P03,CTR,REL,S2S_Unconstrained,1,L_ESI,FM,M2,0.008309796169266337
BMu81,P03,CTR,REL,S2S_Unconstrained,1,L_ESI,FM,M3,0.006197153471467303
BMu81,P03,CTR,REL,S2S_Unconstrained,1,L_ESI,FM,M4,0.006262460487888553
BMu81,P03,CTR,REL,S2S_Unconstrained,1,R_ESI,FM,M1,0.004238222789949498
BMu81,P03,CTR,REL,S2S_Unconstrained,1,R_ESI,FM,M2,0.006759205311911407
BMu81,P03,CTR,REL,S2S_Unconstrained,1,R_ESI,FM,M3,0.004236623062074661
BMu81,P03,CTR,REL,S2S_Unconstrained,1,R_ESI,FM,M4,0.004468008682516581
BMu81,P05,CTR,INI,S2S_Unconstrained,1,L_ESI,FM,M1,0.0049328824918081805
BMu81,P05,CTR,INI,S2S_Unconstrained,1,L_ESI,FM,M2,0.005207050416985126
BMu81,P05,CTR,INI,S2S_Unconstrained,1,L_ESI,FM,M3,0.004940968194856351
BMu81,P05,CTR,INI,S2S_Unconstrained,1,R_ESI,FM,M1,0.07198129238038914
BMu81,P05,CTR,INI,S2S_Unconstrained,1,R_ESI,FM,M2,0.010910151722001243
BMu81,P05,CTR,INI,S2S_Unconstrained,1,R_ESI,FM,M3,0.05895783425882528
BMu81,P05,CTR,REL,S2S_Unconstrained,1,L_ESI,FM,M1,0.003113148000151414
BMu81,P05,CTR,REL,S2S_Unconstrained,1,L_ESI,FM,M2,0.002955083249670054
BMu81,P05,CTR,REL,S2S_Unconstrained,1,L_ESI,FM,M3,0.0033641924801377323
BMu81,P05,CTR,REL,S2S_Unconstrained,1,R_ESI,FM,M1,0.0030491376601038955
BMu81,P05,CTR,REL,S2S_Unconstrained,1,R_ESI,FM,M2,0.0030292612953161085
BMu81,P05,CTR,REL,S2S_Unconstrained,1,R_ESI,FM,M3,0.0030768006715797547
BMu81,P06,CTR,INI,S2S_Unconstrained,1,L_ESI,FM,M1,0.001937560087440482
BMu81,P06,CTR,INI,S2S_Unconstrained,1,L_ESI,FM,M2,0.0018540341442175728
BMu81,P06,CTR,INI,S2S_Unconstrained,1,L_ESI,FM,M3,0.0019874874839078157
BMu81,P06,CTR,INI,S2S_Unconstrained,1,R_ESI,FM,M1,0.0017328164392453604
BMu81,P06,CTR,INI,S2S_Unconstrained,1,R_ESI,FM,M2,0.0015214706013709275
BMu81,P06,CTR,INI,S2S_Unconstrained,1,R_ESI,FM,M3,0.0016353550662653689
BMu81,P06,CTR,REL,S2S_Unconstrained,1,L_ESI,FM,M1,0.0030594445844313524
BMu81,P06,CTR,REL,S2S_Unconstrained,1,L_ESI,FM,M2,0.0028004610783765736
BMu81,P06,CTR,REL,S2S_Unconstrained,1,L_ESI,FM,M3,
BMu81,P06,CTR,REL,S2S_Unconstrained,1,R_ESI,FM,M1,0.0019888932198589625
BMu81,P06,CTR,REL,S2S_Unconstrained,1,R_ESI,FM,M2,0.0018740907984433023
BMu81,P06,CTR,REL,S2S_Unconstrained,1,R_ESI,FM,M3,0.0018618825936424002
BMu81,P07,CTR,INI,S2S_Unconstrained,1,L_ESI,FM,M1,0.00639764178389304
BMu81,P07,CTR,INI,S2S_Unconstrained,1,L_ESI,FM,M2,0.006943226846392408
BMu81,P07,CTR,INI,S2S_Unconstrained,1,L_ESI,FM,M3,0.006867398069011368
BMu81,P07,CTR,INI,S2S_Unconstrained,1,R_ESI,FM,M1,0.004467176350055583
BMu81,P07,CTR,INI,S2S_Unconstrained,1,R_ESI,FM,M2,0.005603042982690835
BMu81,P07,CTR,INI,S2S_Unconstrained,1,R_ESI,FM,M3,0.005473900598550605
BMu81,P07,CTR,REL,S2S_Unconstrained,1,L_ESI,FM,M1,0.0064341262028621915
BMu81,P07,CTR,REL,S2S_Unconstrained,1,L_ESI,FM,M2,0.0076609752539127576
BMu81,P07,CTR,REL,S2S_Unconstrained,1,L_ESI,FM,M3,0.007126084425637829
BMu81,P07,CTR,REL,S2S_Unconstrained,1,R_ESI,FM,M1,0.004382278892868857
BMu81,P07,CTR,REL,S2S_Unconstrained,1,R_ESI,FM,M2,0.004231418263086846
BMu81,P07,CTR,REL,S2S_Unconstrained,1,R_ESI,FM,M3,0.004251217446549577
BMu81,P08,CTR,INI,S2S_Unconstrained,1,L_ESI,FM,M1,0.005935082179704421
BMu81,P08,CTR,INI,S2S_Unconstrained,1,L_ESI,FM,M2,0.003445684577891869
BMu81,P08,CTR,INI,S2S_Unconstrained,1,L_ESI,FM,M3,0.0037523199086243277
BMu81,P08,CTR,INI,S2S_Unconstrained,1,L_ESI,FM,M4,0.0035108152241312336
BMu81,P08,CTR,INI,S2S_Unconstrained,1,R_ESI,FM,M1,
BMu81,P08,CTR,INI,S2S_Unconstrained,1,R_ESI,FM,M2,
BMu81,P08,CTR,INI,S2S_Unconstrained,1,R_ESI,FM,M3,
BMu81,P08,CTR,INI,S2S_Unconstrained,1,R_ESI,FM,M4,
BMu81,P08,CTR,REL,S2S_Unconstrained,1,L_ESI,FM,M1,0.004795638454904044
BMu81,P08,CTR,REL,S2S_Unconstrained,1,L_ESI,FM,M2,0.003460177856058557
BMu81,P08,CTR,REL,S2S_Unconstrained,1,L_ESI,FM,M3,0.0034520103282386747
BMu81,P08,CTR,REL,S2S_Unconstrained,1,R_ESI,FM,M1,
BMu81,P08,CTR,REL,S2S_Unconstrained,1,R_ESI,FM,M2,0.003214886502983873
BMu81,P08,CTR,REL,S2S_Unconstrained,1,R_ESI,FM,M3,
BMu81,P09,PAT,INI,S2S_Unconstrained,1,L_ESI,FM,M1,0.0036879237977828173
BMu81,P09,PAT,INI,S2S_Unconstrained,1,L_ESI,FM,M2,0.0029904200226996947
BMu81,P09,PAT,INI,S2S_Unconstrained,1,L_ESI,FM,M3,0.002918640815981279
BMu81,P09,PAT,INI,S2S_Unconstrained,1,R_ESI,FM,M1,0.00228081391616399
BMu81,P09,PAT,INI,S2S_Unconstrained,1,R_ESI,FM,M2,0.0021318437739866504
BMu81,P09,PAT,INI,S2S_Unconstrained,1,R_ESI,FM,M3,0.002076534170871444
BMu81,P09,PAT,REL,S2S_Unconstrained,1,L_ESI,FM,M1,0.003456208784496807
BMu81,P09,PAT,REL,S2S_Unconstrained,1,L_ESI,FM,M2,0.0031054714257072666
BMu81,P09,PAT,REL,S2S_Unconstrained,1,L_ESI,FM,M3,0.003231959328374514
BMu81,P09,PAT,REL,S2S_Unconstrained,1,R_ESI,FM,M1,0.0024934252627604133
BMu81,P09,PAT,REL,S2S_Unconstrained,1,R_ESI,FM,M2,0.0022933120302151325
BMu81,P09,PAT,REL,S2S_Unconstrained,1,R_ESI,FM,M3,0.002441704778844481
BMu81,P10,PAT,INI,S2S_Unconstrained,1,L_ESI,FM,M1,0.004713476590908838
BMu81,P10,PAT,INI,S2S_Unconstrained,1,L_ESI,FM,M2,0.005028880344799616
BMu81,P10,PAT,INI,S2S_Unconstrained,1,L_ESI,FM,M3,0.005048498052355232
BMu81,P10,PAT,INI,S2S_Unconstrained,1,R_ESI,FM,M1,0.003134471448808655
BMu81,P10,PAT,INI,S2S_Unconstrained,1,R_ESI,FM,M2,0.0030018641727304817
BMu81,P10,PAT,INI,S2S_Unconstrained,1,R_ESI,FM,M3,0.0032700451214644983
BMu81,P10,PAT,REL,S2S_Unconstrained,1,L_ESI,FM,M1,0.004042048510080695
BMu81,P10,PAT,REL,S2S_Unconstrained,1,L_ESI,FM,M2,0.004265480964341663
BMu81,P10,PAT,REL,S2S_Unconstrained,1,L_ESI,FM,M3,0.004301445014879675
BMu81,P10,PAT,REL,S2S_Unconstrained,1,R_ESI,FM,M1,0.006880733411012599
BMu81,P10,PAT,REL,S2S_Unconstrained,1,R_ESI,FM,M2,0.015887883513408214
BMu81,P10,PAT,REL,S2S_Unconstrained,1,R_ESI,FM,M3,0.03501447499820432
BMu81,P11,PAT,INI,S2S_Unconstrained,1,L_ESI,FM,M1,0.0044681560326212556
BMu81,P11,PAT,INI,S2S_Unconstrained,1,L_ESI,FM,M2,0.007749005718964103
BMu81,P11,PAT,INI,S2S_Unconstrained,1,L_ESI,FM,M3,0.004561406285464512
BMu81,P11,PAT,INI,S2S_Unconstrained,1,R_ESI,FM,M1,0.004590057270295874
BMu81,P11,PAT,INI,S2S_Unconstrained,1,R_ESI,FM,M2,0.006723457402657107
BMu81,P11,PAT,INI,S2S_Unconstrained,1,R_ESI,FM,M3,0.0041821966683339516
BMu81,P11,PAT,REL,S2S_Unconstrained,1,L_ESI,FM,M1,0.006608046576339522
BMu81,P11,PAT,REL,S2S_Unconstrained,1,L_ESI,FM,M2,0.00536687844420844
BMu81,P11,PAT,REL,S2S_Unconstrained,1,L_ESI,FM,M3,0.007046177520346706
BMu81,P11,PAT,REL,S2S_Unconstrained,1,L_ESI,FM,M4,0.004641518311176475
BMu81,P11,PAT,REL,S2S_Unconstrained,1,R_ESI,FM,M1,0.009918431416223708
BMu81,P11,PAT,REL,S2S_Unconstrained,1,R_ESI,FM,M2,0.007211835205816194
BMu81,P11,PAT,REL,S2S_Unconstrained,1,R_ESI,FM,M3,0.014083733348862593
BMu81,P11,PAT,REL,S2S_Unconstrained,1,R_ESI,FM,M4,0.007900867992114835
BMu81,P12,PAT,INI,S2S_Unconstrained,1,L_ESI,FM,M1,
BMu81,P12,PAT,INI,S2S_Unconstrained,1,L_ESI,FM,M2,0.003071643607144672
BMu81,P12,PAT,INI,S2S_Unconstrained,1,L_ESI,FM,M3,
BMu81,P12,PAT,INI,S2S_Unconstrained,1,R_ESI,FM,M1,
BMu81,P12,PAT,INI,S2S_Unconstrained,1,R_ESI,FM,M2,
BMu81,P12,PAT,INI,S2S_Unconstrained,1,R_ESI,FM,M3,
BMu81,P12,PAT,REL,S2S_Unconstrained,1,L_ESI,FM,M1,
BMu81,P12,PAT,REL,S2S_Unconstrained,1,L_ESI,FM,M2,0.002221970671463039
BMu81,P12,PAT,REL,S2S_Unconstrained,1,L_ESI,FM,M3,0.0020275185507863665
BMu81,P12,PAT,REL,S2S_Unconstrained,1,R_ESI,FM,M1,0.0020089885108819277
BMu81,P12,PAT,REL,S2S_Unconstrained,1,R_ESI,FM,M2,0.0019076090722496839
BMu81,P12,PAT,REL,S2S_Unconstrained,1,R_ESI,FM,M3,0.0019810021156879344
BMu81,P13,CTR,INI,S2S_Unconstrained,1,L_ESI,FM,M1,0.004327997200547046
BMu81,P13,CTR,INI,S2S_Unconstrained,1,L_ESI,FM,M2,0.00314570786636234
BMu81,P13,CTR,INI,S2S_Unconstrained,1,L_ESI,FM,M3,0.003417447944937761
BMu81,P13,CTR,INI,S2S_Unconstrained,1,L_ESI,FM,M4,0.002970335217913602
BMu81,P13,CTR,INI,S2S_Unconstrained,1,R_ESI,FM,M1,0.005338644431615171
BMu81,P13,CTR,INI,S2S_Unconstrained,1,R_ESI,FM,M2,0.004929579741708436
BMu81,P13,CTR,INI,S2S_Unconstrained,1,R_ESI,FM,M3,0.0051398269473357456
BMu81,P13,CTR,INI,S2S_Unconstrained,1,R_ESI,FM,M4,0.004144396968084938
BMu81,P13,CTR,REL,S2S_Unconstrained,1,L_ESI,FM,M1,0.0031987228208587935
BMu81,P13,CTR,REL,S2S_Unconstrained,1,L_ESI,FM,M2,0.0029692310558108643
BMu81,P13,CTR,REL,S2S_Unconstrained,1,L_ESI,FM,M3,0.003319490938739606
BMu81,P13,CTR,REL,S2S_Unconstrained,1,R_ESI,FM,M1,0.0026168431388212537
BMu81,P13,CTR,REL,S2S_Unconstrained,1,R_ESI,FM,M2,0.0026648284702442855
BMu81,P13,CTR,REL,S2S_Unconstrained,1,R_ESI,FM,M3,0.0029118125485465816
BMu81,P14,PAT,INI,S2S_Unconstrained,1,L_ESI,FM,M1,0.004422850765855596
BMu81,P14,PAT,INI,S2S_Unconstrained,1,L_ESI,FM,M2,0.004140147307901355
BMu81,P14,PAT,INI,S2S_Unconstrained,1,L_ESI,FM,M3,0.004583048966974773
BMu81,P14,PAT,INI,S2S_Unconstrained,1,R_ESI,FM,M1,
BMu81,P14,PAT,INI,S2S_Unconstrained,1,R_ESI,FM,M2,
BMu81,P14,PAT,INI,S2S_Unconstrained,1,R_ESI,FM,M3,
BMu81,P14,PAT,REL,S2S_Unconstrained,1,L_ESI,FM,M1,0.004012427181731457
BMu81,P14,PAT,REL,S2S_Unconstrained,1,L_ESI,FM,M2,0.0036810080816863924
BMu81,P14,PAT,REL,S2S_Unconstrained,1,L_ESI,FM,M3,0.0038843562365719697
BMu81,P14,PAT,REL,S2S_Unconstrained,1,R_ESI,FM,M1,0.0019387233184915511
BMu81,P14,PAT,REL,S2S_Unconstrained,1,R_ESI,FM,M2,0.002118655209020097
BMu81,P14,PAT,REL,S2S_Unconstrained,1,R_ESI,FM,M3,0.0023552494849177863
BMu81,P16,CTR,INI,S2S_Unconstrained,1,L_ESI,FM,M1,0.0026667707652842836
BMu81,P16,CTR,INI,S2S_Unconstrained,1,L_ESI,FM,M2,0.002712373209644583
BMu81,P16,CTR,INI,S2S_Unconstrained,1,L_ESI,FM,M3,0.002844152388507162
BMu81,P16,CTR,INI,S2S_Unconstrained,1,R_ESI,FM,M1,0.002344415192383558
BMu81,P16,CTR,INI,S2S_Unconstrained,1,R_ESI,FM,M2,
BMu81,P16,CTR,INI,S2S_Unconstrained,1,R_ESI,FM,M3,0.002234657540873904
BMu81,P16,CTR,REL,S2S_Unconstrained,1,L_ESI,FM,M1,
BMu81,P16,CTR,REL,S2S_Unconstrained,1,L_ESI,FM,M2,
BMu81,P16,CTR,REL,S2S_Unconstrained,1,L_ESI,FM,M3,
BMu81,P16,CTR,REL,S2S_Unconstrained,1,R_ESI,FM,M1,
BMu81,P16,CTR,REL,S2S_Unconstrained,1,R_ESI,FM,M2,
BMu81,P16,CTR,REL,S2S_Unconstrained,1,R_ESI,FM,M3,
BMu81,P17,PAT,INI,S2S_Unconstrained,1,L_ESI,FM,M1,0.0036270639194965646
BMu81,P17,PAT,INI,S2S_Unconstrained,1,L_ESI,FM,M2,0.004833281309636447
BMu81,P17,PAT,INI,S2S_Unconstrained,1,L_ESI,FM,M3,0.004646329749621378
BMu81,P17,PAT,INI,S2S_Unconstrained,1,R_ESI,FM,M1,0.27056861831657786
BMu81,P17,PAT,INI,S2S_Unconstrained,1,R_ESI,FM,M2,0.125087097654002
BMu81,P17,PAT,INI,S2S_Unconstrained,1,R_ESI,FM,M3,0.12381256373494201
BMu81,P17,PAT,REL,S2S_Unconstrained,1,L_ESI,FM,M1,0.004630245830705453
BMu81,P17,PAT,REL,S2S_Unconstrained,1,L_ESI,FM,M2,0.0030558191092238196
BMu81,P17,PAT,REL,S2S_Unconstrained,1,L_ESI,FM,M3,0.003498965227976741
BMu81,P17,PAT,REL,S2S_Unconstrained,1,R_ESI,FM,M1,0.005304916776670026
BMu81,P17,PAT,REL,S2S_Unconstrained,1,R_ESI,FM,M2,0.003622725739227515
BMu81,P17,PAT,REL,S2S_Unconstrained,1,R_ESI,FM,M3,0.0038666622318884463
BMu81,P21,CTR,INI,S2S_Unconstrained,1,L_ESI,FM,M1,0.0037865725263295812
BMu81,P21,CTR,INI,S2S_Unconstrained,1,L_ESI,FM,M2,0.0037826134214701437
BMu81,P21,CTR,INI,S2S_Unconstrained,1,L_ESI,FM,M3,0.003806235306999359
BMu81,P21,CTR,INI,S2S_Unconstrained,1,R_ESI,FM,M1,0.003159946533713162
BMu81,P21,CTR,INI,S2S_Unconstrained,1,R_ESI,FM,M2,0.0026734219753121284
BMu81,P21,CTR,INI,S2S_Unconstrained,1,R_ESI,FM,M3,0.0026766595899166364
BMu81,P21,CTR,REL,S2S_Unconstrained,1,L_ESI,FM,M1,0.0035406272091522426
BMu81,P21,CTR,REL,S2S_Unconstrained,1,L_ESI,FM,M2,0.005571719796171998
BMu81,P21,CTR,REL,S2S_Unconstrained,1,L_ESI,FM,M3,0.004387417833278737
BMu81,P21,CTR,REL,S2S_Unconstrained,1,L_ESI,FM,M4,0.0063734142072761745
BMu81,P21,CTR,REL,S2S_Unconstrained,1,R_ESI,FM,M1,
BMu81,P21,CTR,REL,S2S_Unconstrained,1,R_ESI,FM,M2,
BMu81,P21,CTR,REL,S2S_Unconstrained,1,R_ESI,FM,M3,
BMu81,P21,CTR,REL,S2S_Unconstrained,1,R_ESI,FM,M4,
BMu81,P22,CTR,INI,S2S_Unconstrained,1,L_ESI,FM,M1,
BMu81,P22,CTR,INI,S2S_Unconstrained,1,L_ESI,FM,M2,0.0035135771683522227
BMu81,P22,CTR,INI,S2S_Unconstrained,1,L_ESI,FM,M3,0.003376636388971901
BMu81,P22,CTR,INI,S2S_Unconstrained,1,L_ESI,FM,M4,0.006743496026552342
BMu81,P22,CTR,INI,S2S_Unconstrained,1,R_ESI,FM,M1,0.002058635037854817
BMu81,P22,CTR,INI,S2S_Unconstrained,1,R_ESI,FM,M2,0.0027981483774610883
BMu81,P22,CTR,INI,S2S_Unconstrained,1,R_ESI,FM,M3,0.0022536085033167935
BMu81,P22,CTR,INI,S2S_Unconstrained,1,R_ESI,FM,M4,0.0023833988464550425
BMu81,P22,CTR,REL,S2S_Unconstrained,1,L_ESI,FM,M1,0.00413887552615654
BMu81,P22,CTR,REL,S2S_Unconstrained,1,L_ESI,FM,M2,0.003941271006417222
BMu81,P22,CTR,REL,S2S_Unconstrained,1,L_ESI,FM,M3,0.006370446255268231
BMu81,P22,CTR,REL,S2S_Unconstrained,1,L_ESI,FM,M4,0.004238557520452581
BMu81,P22,CTR,REL,S2S_Unconstrained,1,R_ESI,FM,M1,
BMu81,P22,CTR,REL,S2S_Unconstrained,1,R_ESI,FM,M2,
BMu81,P22,CTR,REL,S2S_Unconstrained,1,R_ESI,FM,M3,
BMu81,P22,CTR,REL,S2S_Unconstrained,1,R_ESI,FM,M4,
BMu81,P23,CTR,INI,S2S_Unconstrained,1,L_ESI,FM,M1,0.002576222565881086
BMu81,P23,CTR,INI,S2S_Unconstrained,1,L_ESI,FM,M2,0.0024887395703218932
BMu81,P23,CTR,INI,S2S_Unconstrained,1,L_ESI,FM,M3,0.0025829574926345055
BMu81,P23,CTR,INI,S2S_Unconstrained,1,R_ESI,FM,M1,0.002973649623249741
BMu81,P23,CTR,INI,S2S_Unconstrained,1,R_ESI,FM,M2,0.0030415546192896696
BMu81,P23,CTR,INI,S2S_Unconstrained,1,R_ESI,FM,M3,0.0034658377146509233
BMu81,P23,CTR,REL,S2S_Unconstrained,1,L_ESI,FM,M1,0.004716434550763241
BMu81,P23,CTR,REL,S2S_Unconstrained,1,L_ESI,FM,M2,0.006770225750335923
BMu81,P23,CTR,REL,S2S_Unconstrained,1,L_ESI,FM,M3,0.004960478609353273
BMu81,P23,CTR,REL,S2S_Unconstrained,1,R_ESI,FM,M1,0.003971304714413359
BMu81,P23,CTR,REL,S2S_Unconstrained,1,R_ESI,FM,M2,0.0036722247436819263
BMu81,P23,CTR,REL,S2S_Unconstrained,1,R_ESI,FM,M3,0.0038696172094809704
BMu81,P24,PAT,INI,S2S_Unconstrained,1,L_ESI,FM,M1,0.004733648770816497
BMu81,P24,PAT,INI,S2S_Unconstrained,1,L_ESI,FM,M2,0.004831449989132815
BMu81,P24,PAT,INI,S2S_Unconstrained,1,L_ESI,FM,M3,0.005431016217451661
BMu81,P24,PAT,INI,S2S_Unconstrained,1,R_ESI,FM,M1,
BMu81,P24,PAT,INI,S2S_Unconstrained,1,R_ESI,FM,M2,
BMu81,P24,PAT,INI,S2S_Unconstrained,1,R_ESI,FM,M3,
BMu81,P24,PAT,REL,S2S_Unconstrained,1,L_ESI,FM,M1,0.003493873801977322
BMu81,P24,PAT,REL,S2S_Unconstrained,1,L_ESI,FM,M2,0.0036801615026004634
BMu81,P24,PAT,REL,S2S_Unconstrained,1,L_ESI,FM,M3,0.003871679534643209
BMu81,P24,PAT,REL,S2S_Unconstrained,1,R_ESI,FM,M1,0.0025611923856131303
BMu81,P24,PAT,REL,S2S_Unconstrained,1,R_ESI,FM,M2,0.0025200021375285874
BMu81,P24,PAT,REL,S2S_Unconstrained,1,R_ESI,FM,M3,0.002778958576694429
BMu81,P25,CTR,INI,S2S_Unconstrained,1,L_ESI,FM,M1,0.007783273968513597
BMu81,P25,CTR,INI,S2S_Unconstrained,1,L_ESI,FM,M2,0.011545643979638724
BMu81,P25,CTR,INI,S2S_Unconstrained,1,L_ESI,FM,M3,0.011458420565043089
BMu81,P25,CTR,INI,S2S_Unconstrained,1,R_ESI,FM,M1,
BMu81,P25,CTR,INI,S2S_Unconstrained,1,R_ESI,FM,M2,
BMu81,P25,CTR,INI,S2S_Unconstrained,1,R_ESI,FM,M3,
BMu81,P25,CTR,REL,S2S_Unconstrained,1,L_ESI,FM,M1,0.007025655618430948
BMu81,P25,CTR,REL,S2S_Unconstrained,1,L_ESI,FM,M2,0.01150420051862983
BMu81,P25,CTR,REL,S2S_Unconstrained,1,L_ESI,FM,M3,0.007265397735471999
BMu81,P25,CTR,REL,S2S_Unconstrained,1,R_ESI,FM,M1,0.0021300913359592645
BMu81,P25,CTR,REL,S2S_Unconstrained,1,R_ESI,FM,M2,0.0024920190685190683
BMu81,P25,CTR,REL,S2S_Unconstrained,1,R_ESI,FM,M3,0.002295213935474772
BMu81,P26,PAT,INI,S2S_Unconstrained,1,L_ESI,FM,M1,0.014552888250435977
BMu81,P26,PAT,INI,S2S_Unconstrained,1,L_ESI,FM,M2,0.006180776638005357
BMu81,P26,PAT,INI,S2S_Unconstrained,1,L_ESI,FM,M3,0.006956079997080238
BMu81,P26,PAT,INI,S2S_Unconstrained,1,R_ESI,FM,M1,0.005478551980944106
BMu81,P26,PAT,INI,S2S_Unconstrained,1,R_ESI,FM,M2,0.004900297599760416
BMu81,P26,PAT,INI,S2S_Unconstrained,1,R_ESI,FM,M3,0.00508302845266859
BMu81,P26,PAT,REL,S2S_Unconstrained,1,L_ESI,FM,M1,0.013616097771501235
BMu81,P26,PAT,REL,S2S_Unconstrained,1,L_ESI,FM,M2,0.005927648379002029
BMu81,P26,PAT,REL,S2S_Unconstrained,1,L_ESI,FM,M3,0.007429905882758045
BMu81,P26,PAT,REL,S2S_Unconstrained,1,R_ESI,FM,M1,0.13238791869906458
BMu81,P26,PAT,REL,S2S_Unconstrained,1,R_ESI,FM,M2,0.053380688247943
BMu81,P26,PAT,REL,S2S_Unconstrained,1,R_ESI,FM,M3,0.06325454227122286
BMu81,P27,PAT,INI,S2S_Unconstrained,1,L_ESI,FM,M1,0.003999569333108144
BMu81,P27,PAT,INI,S2S_Unconstrained,1,L_ESI,FM,M2,0.0045390386490670774
BMu81,P27,PAT,INI,S2S_Unconstrained,1,L_ESI,FM,M3,0.003733481716604777
BMu81,P27,PAT,INI,S2S_Unconstrained,1,R_ESI,FM,M1,0.003944039313257893
BMu81,P27,PAT,INI,S2S_Unconstrained,1,R_ESI,FM,M2,0.0033271964787165553
BMu81,P27,PAT,INI,S2S_Unconstrained,1,R_ESI,FM,M3,0.0039506299429290966
BMu81,P27,PAT,REL,S2S_Unconstrained,1,L_ESI,FM,M1,0.0041391170394016715
BMu81,P27,PAT,REL,S2S_Unconstrained,1,L_ESI,FM,M2,0.003840379590766735
BMu81,P27,PAT,REL,S2S_Unconstrained,1,L_ESI,FM,M3,0.004938608241122373
BMu81,P27,PAT,REL,S2S_Unconstrained,1,R_ESI,FM,M1,0.004036378943320667
BMu81,P27,PAT,REL,S2S_Unconstrained,1,R_ESI,FM,M2,0.0028728941546287082
BMu81,P27,PAT,REL,S2S_Unconstrained,1,R_ESI,FM,M3,0.004089979164626268
BMu81,P28,PAT,INI,S2S_Unconstrained,1,L_ESI,FM,M1,0.00268952178207148
BMu81,P28,PAT,INI,S2S_Unconstrained,1,L_ESI,FM,M2,0.0027441006016454376
BMu81,P28,PAT,INI,S2S_Unconstrained,1,L_ESI,FM,M3,
BMu81,P28,PAT,INI,S2S_Unconstrained,1,R_ESI,FM,M1,0.0031661116730238247
BMu81,P28,PAT,INI,S2S_Unconstrained,1,R_ESI,FM,M2,0.0036800854058209706
BMu81,P28,PAT,INI,S2S_Unconstrained,1,R_ESI,FM,M3,0.0036445962048742417
BMu81,P28,PAT,REL,S2S_Unconstrained,1,L_ESI,FM,M1,0.00335713354562763
BMu81,P28,PAT,REL,S2S_Unconstrained,1,L_ESI,FM,M2,0.004455407736706509
BMu81,P28,PAT,REL,S2S_Unconstrained,1,L_ESI,FM,M3,0.00321114365824045
BMu81,P28,PAT,REL,S2S_Unconstrained,1,R_ESI,FM,M1,0.004037558186539199
BMu81,P28,PAT,REL,S2S_Unconstrained,1,R_ESI,FM,M2,0.0031238647736943096
BMu81,P28,PAT,REL,S2S_Unconstrained,1,R_ESI,FM,M3,0.002900742452575037
BMu81,P29,PAT,INI,S2S_Unconstrained,1,L_ESI,FM,M1,0.021099797262978153
BMu81,P29,PAT,INI,S2S_Unconstrained,1,L_ESI,FM,M2,0.013273453763421709
BMu81,P29,PAT,INI,S2S_Unconstrained,1,L_ESI,FM,M3,0.014137678357427545
BMu81,P29,PAT,INI,S2S_Unconstrained,1,R_ESI,FM,M1,0.008112121976524356
BMu81,P29,PAT,INI,S2S_Unconstrained,1,R_ESI,FM,M2,0.008256708733533243
BMu81,P29,PAT,INI,S2S_Unconstrained,1,R_ESI,FM,M3,0.009001823702238933
BMu81,P29,PAT,REL,S2S_Unconstrained,1,L_ESI,FM,M1,0.0224253201042224
BMu81,P29,PAT,REL,S2S_Unconstrained,1,L_ESI,FM,M2,0.027236739473956387
BMu81,P29,PAT,REL,S2S_Unconstrained,1,L_ESI,FM,M3,0.03165607135880987
BMu81,P29,PAT,REL,S2S_Unconstrained,1,R_ESI,FM,M1,
BMu81,P29,PAT,REL,S2S_Unconstrained,1,R_ESI,FM,M2,0.008421153525464275
BMu81,P29,PAT,REL,S2S_Unconstrained,1,R_ESI,FM,M3,0.010507232917075313
BMu81,P30,PAT,INI,S2S_Unconstrained,1,L_ESI,FM,M1,0.004127026302360778
BMu81,P30,PAT,INI,S2S_Unconstrained,1,L_ESI,FM,M2,0.0028685707351660586
BMu81,P30,PAT,INI,S2S_Unconstrained,1,L_ESI,FM,M3,0.0033758904861460387
BMu81,P30,PAT,INI,S2S_Unconstrained,1,R_ESI,FM,M1,0.0022709395347103225
BMu81,P30,PAT,INI,S2S_Unconstrained,1,R_ESI,FM,M2,0.0025176582559396435
BMu81,P30,PAT,INI,S2S_Unconstrained,1,R_ESI,FM,M3,0.0021931410984472105
BMu81,P30,PAT,REL,S2S_Unconstrained,1,L_ESI,FM,M1,0.005434825922948796
BMu81,P30,PAT,REL,S2S_Unconstrained,1,L_ESI,FM,M2,0.003602960242131835
BMu81,P30,PAT,REL,S2S_Unconstrained,1,L_ESI,FM,M3,0.0036982177963973467
BMu81,P30,PAT,REL,S2S_Unconstrained,1,R_ESI,FM,M1,0.003045688265722313
BMu81,P30,PAT,REL,S2S_Unconstrained,1,R_ESI,FM,M2,0.0025856005388392982
BMu81,P30,PAT,REL,S2S_Unconstrained,1,R_ESI,FM,M3,0.002668649147167832
BMu81,P32,PAT,INI,S2S_Unconstrained,1,L_ESI,FM,M1,0.003778992592095655
BMu81,P32,PAT,INI,S2S_Unconstrained,1,L_ESI,FM,M2,0.004674792251102212
BMu81,P32,PAT,INI,S2S_Unconstrained,1,L_ESI,FM,M3,0.004062991231542546
BMu81,P32,PAT,INI,S2S_Unconstrained,1,L_ESI,FM,M4,0.003986777377924297
BMu81,P32,PAT,INI,S2S_Unconstrained,1,R_ESI,FM,M1,0.0022092348973486256
BMu81,P32,PAT,INI,S2S_Unconstrained,1,R_ESI,FM,M2,0.0023292151364485555
BMu81,P32,PAT,INI,S2S_Unconstrained,1,R_ESI,FM,M3,0.0022102463790883457
BMu81,P32,PAT,INI,S2S_Unconstrained,1,R_ESI,FM,M4,0.002331546837750815
BMu81,P32,PAT,REL,S2S_Unconstrained,1,L_ESI,FM,M1,0.0028710072165124426
BMu81,P32,PAT,REL,S2S_Unconstrained,1,L_ESI,FM,M2,0.0035192781883279602
BMu81,P32,PAT,REL,S2S_Unconstrained,1,L_ESI,FM,M3,0.0041564685934253115
BMu81,P32,PAT,REL,S2S_Unconstrained,1,R_ESI,FM,M1,0.002156866194560895
BMu81,P32,PAT,REL,S2S_Unconstrained,1,R_ESI,FM,M2,0.0019551755470820224
BMu81,P32,PAT,REL,S2S_Unconstrained,1,R_ESI,FM,M3,0.00197467097020897
BMu81,P33,PAT,INI,S2S_Unconstrained,1,L_ESI,FM,M1,0.008949767948493982
BMu81,P33,PAT,INI,S2S_Unconstrained,1,L_ESI,FM,M2,0.008013775218985173
BMu81,P33,PAT,INI,S2S_Unconstrained,1,L_ESI,FM,M3,0.008285788483290252
BMu81,P33,PAT,INI,S2S_Unconstrained,1,R_ESI,FM,M1,0.002788148922992822
BMu81,P33,PAT,INI,S2S_Unconstrained,1,R_ESI,FM,M2,0.002008187751789182
BMu81,P33,PAT,INI,S2S_Unconstrained,1,R_ESI,FM,M3,0.0020227384248026874
BMu81,P33,PAT,REL,S2S_Unconstrained,1,L_ESI,FM,M1,0.005604921947725432
BMu81,P33,PAT,REL,S2S_Unconstrained,1,L_ESI,FM,M2,0.005193617410014221
BMu81,P33,PAT,REL,S2S_Unconstrained,1,L_ESI,FM,M3,0.004080682846283592
BMu81,P33,PAT,REL,S2S_Unconstrained,1,L_ESI,FM,M4,0.00439740202985283
BMu81,P33,PAT,REL,S2S_Unconstrained,1,R_ESI,FM,M1,0.095593450225429
BMu81,P33,PAT,REL,S2S_Unconstrained,1,R_ESI,FM,M2,0.03782382569410344
BMu81,P33,PAT,REL,S2S_Unconstrained,1,R_ESI,FM,M3,0.06788576860062885
BMu81,P33,PAT,REL,S2S_Unconstrained,1,R_ESI,FM,M4,0.21082667457536905
BMu81,P34,PAT,INI,S2S_Unconstrained,1,L_ESI,FM,M1,0.006270474122224224
BMu81,P34,PAT,INI,S2S_Unconstrained,1,L_ESI,FM,M2,0.004719282989639909
BMu81,P34,PAT,INI,S2S_Unconstrained,1,L_ESI,FM,M3,0.005658879812069588
BMu81,P34,PAT,INI,S2S_Unconstrained,1,R_ESI,FM,M1,0.005428826867150786
BMu81,P34,PAT,INI,S2S_Unconstrained,1,R_ESI,FM,M2,0.00554875015805654
BMu81,P34,PAT,INI,S2S_Unconstrained,1,R_ESI,FM,M3,0.0042160810882020325
BMu81,P34,PAT,REL,S2S_Unconstrained,1,L_ESI,FM,M1,0.0037090026806414983
BMu81,P34,PAT,REL,S2S_Unconstrained,1,L_ESI,FM,M2,0.003341487625834559
BMu81,P34,PAT,REL,S2S_Unconstrained,1,L_ESI,FM,M3,0.0039916959761952305
BMu81,P34,PAT,REL,S2S_Unconstrained,1,R_ESI,FM,M1,0.09634406736245094
BMu81,P34,PAT,REL,S2S_Unconstrained,1,R_ESI,FM,M2,0.059753099588362016
BMu81,P34,PAT,REL,S2S_Unconstrained,1,R_ESI,FM,M3,0.13018998871540371
BMu81,P35,CTR,INI,S2S_Unconstrained,1,L_ESI,FM,M1,
BMu81,P35,CTR,INI,S2S_Unconstrained,1,L_ESI,FM,M2,
BMu81,P35,CTR,INI,S2S_Unconstrained,1,L_ESI,FM,M3,
BMu81,P35,CTR,INI,S2S_Unconstrained,1,R_ESI,FM,M1,
BMu81,P35,CTR,INI,S2S_Unconstrained,1,R_ESI,FM,M2,
BMu81,P35,CTR,INI,S2S_Unconstrained,1,R_ESI,FM,M3,
BMu81,P35,CTR,REL,S2S_Unconstrained,1,L_ESI,FM,M1,
BMu81,P35,CTR,REL,S2S_Unconstrained,1,L_ESI,FM,M2,
BMu81,P35,CTR,REL,S2S_Unconstrained,1,L_ESI,FM,M3,
BMu81,P35,CTR,REL,S2S_Unconstrained,1,R_ESI,FM,M1,0.004450751926850218
BMu81,P35,CTR,REL,S2S_Unconstrained,1,R_ESI,FM,M2,0.0036639543502890153
BMu81,P35,CTR,REL,S2S_Unconstrained,1,R_ESI,FM,M3,0.0030107988745982127
BMu81,P36,PAT,INI,S2S_Unconstrained,1,L_ESI,FM,M1,0.00995261700280475
BMu81,P36,PAT,INI,S2S_Unconstrained,1,L_ESI,FM,M2,0.008224503042340237
BMu81,P36,PAT,INI,S2S_Unconstrained,1,L_ESI,FM,M3,0.0061762071244607685
BMu81,P36,PAT,INI,S2S_Unconstrained,1,R_ESI,FM,M1,0.006928439950291535
BMu81,P36,PAT,INI,S2S_Unconstrained,1,R_ESI,FM,M2,0.005509216505096571
BMu81,P36,PAT,INI,S2S_Unconstrained,1,R_ESI,FM,M3,0.0037990607813079232
BMu81,P36,PAT,REL,S2S_Unconstrained,1,L_ESI,FM,M1,0.010021017658477908
BMu81,P36,PAT,REL,S2S_Unconstrained,1,L_ESI,FM,M2,0.0064655546517775695
BMu81,P36,PAT,REL,S2S_Unconstrained,1,L_ESI,FM,M3,0.007294881028000274
BMu81,P36,PAT,REL,S2S_Unconstrained,1,R_ESI,FM,M1,0.004786669630003513
BMu81,P36,PAT,REL,S2S_Unconstrained,1,R_ESI,FM,M2,0.006020678373042516
BMu81,P36,PAT,REL,S2S_Unconstrained,1,R_ESI,FM,M3,0.007788562375397759
BMu81,P38,CTR,INI,S2S_Unconstrained,1,L_ESI,FM,M1,0.005832076430151586
BMu81,P38,CTR,INI,S2S_Unconstrained,1,L_ESI,FM,M2,
BMu81,P38,CTR,INI,S2S_Unconstrained,1,L_ESI,FM,M3,0.004822509515196337
BMu81,P38,CTR,INI,S2S_Unconstrained,1,R_ESI,FM,M1,0.0033402734760813913
BMu81,P38,CTR,INI,S2S_Unconstrained,1,R_ESI,FM,M2,0.0032909682165440683
BMu81,P38,CTR,INI,S2S_Unconstrained,1,R_ESI,FM,M3,0.0034265106996885764
BMu81,P38,CTR,REL,S2S_Unconstrained,1,L_ESI,FM,M1,
BMu81,P38,CTR,REL,S2S_Unconstrained,1,L_ESI,FM,M2,
BMu81,P38,CTR,REL,S2S_Unconstrained,1,L_ESI,FM,M3,0.005213305374922678
BMu81,P38,CTR,REL,S2S_Unconstrained,1,R_ESI,FM,M1,0.002934215915032517
BMu81,P38,CTR,REL,S2S_Unconstrained,1,R_ESI,FM,M2,0.0025956467419620366
BMu81,P38,CTR,REL,S2S_Unconstrained,1,R_ESI,FM,M3,0.002818824346013736
BMu81,P39,CTR,INI,S2S_Unconstrained,1,L_ESI,FM,M1,0.004957981727141867
BMu81,P39,CTR,INI,S2S_Unconstrained,1,L_ESI,FM,M2,0.003797345789321513
BMu81,P39,CTR,INI,S2S_Unconstrained,1,L_ESI,FM,M3,0.004677387230352629
BMu81,P39,CTR,INI,S2S_Unconstrained,1,R_ESI,FM,M1,0.0032999355341424715
BMu81,P39,CTR,INI,S2S_Unconstrained,1,R_ESI,FM,M2,0.002868386124346497
BMu81,P39,CTR,INI,S2S_Unconstrained,1,R_ESI,FM,M3,0.003220151162021051
BMu81,P39,CTR,REL,S2S_Unconstrained,1,L_ESI,FM,M1,0.004970304002173388
BMu81,P39,CTR,REL,S2S_Unconstrained,1,L_ESI,FM,M2,0.004325600829499546
BMu81,P39,CTR,REL,S2S_Unconstrained,1,L_ESI,FM,M3,0.0042860231349671875
BMu81,P39,CTR,REL,S2S_Unconstrained,1,R_ESI,FM,M1,0.0025418753112894732
BMu81,P39,CTR,REL,S2S_Unconstrained,1,R_ESI,FM,M2,0.0021452400399065755
BMu81,P39,CTR,REL,S2S_Unconstrained,1,R_ESI,FM,M3,0.0027831349875355772
BMu81,P40,CTR,INI,S2S_Unconstrained,1,L_ESI,FM,M1,0.015548462224598741
BMu81,P40,CTR,INI,S2S_Unconstrained,1,L_ESI,FM,M2,
BMu81,P40,CTR,INI,S2S_Unconstrained,1,L_ESI,FM,M3,
BMu81,P40,CTR,INI,S2S_Unconstrained,1,R_ESI,FM,M1,
BMu81,P40,CTR,INI,S2S_Unconstrained,1,R_ESI,FM,M2,
BMu81,P40,CTR,INI,S2S_Unconstrained,1,R_ESI,FM,M3,0.007082949140522387
BMu81,P40,CTR,REL,S2S_Unconstrained,1,L_ESI,FM,M1,0.012295534451814817
BMu81,P40,CTR,REL,S2S_Unconstrained,1,L_ESI,FM,M2,0.014465205095501067
BMu81,P40,CTR,REL,S2S_Unconstrained,1,L_ESI,FM,M3,0.012743215604285941
BMu81,P40,CTR,REL,S2S_Unconstrained,1,R_ESI,FM,M1,
BMu81,P40,CTR,REL,S2S_Unconstrained,1,R_ESI,FM,M2,
BMu81,P40,CTR,REL,S2S_Unconstrained,1,R_ESI,FM,M3,0.005117906626053851
BMu81,P41,PAT,INI,S2S_Unconstrained,1,L_ESI,FM,M1,0.005339952999175415
BMu81,P41,PAT,INI,S2S_Unconstrained,1,L_ESI,FM,M2,0.0049320698608071
BMu81,P41,PAT,INI,S2S_Unconstrained,1,L_ESI,FM,M3,0.0045816918542335395
BMu81,P41,PAT,INI,S2S_Unconstrained,1,R_ESI,FM,M1,0.005927479489557651
BMu81,P41,PAT,INI,S2S_Unconstrained,1,R_ESI,FM,M2,0.0043116988216776375
BMu81,P41,PAT,INI,S2S_Unconstrained,1,R_ESI,FM,M3,0.0050842861882219315
BMu81,P41,PAT,REL,S2S_Unconstrained,1,L_ESI,FM,M1,0.0036263794887511774
BMu81,P41,PAT,REL,S2S_Unconstrained,1,L_ESI,FM,M2,0.003605252767612129
BMu81,P41,PAT,REL,S2S_Unconstrained,1,L_ESI,FM,M3,0.0038316257859572858
BMu81,P41,PAT,REL,S2S_Unconstrained,1,R_ESI,FM,M1,0.0031985560364328268
BMu81,P41,PAT,REL,S2S_Unconstrained,1,R_ESI,FM,M2,0.0030113362901011223
BMu81,P41,PAT,REL,S2S_Unconstrained,1,R_ESI,FM,M3,0.00311019755582027
BMu81,P42,PAT,INI,S2S_Unconstrained,1,L_ESI,FM,M1,0.0036728353438202663
BMu81,P42,PAT,INI,S2S_Unconstrained,1,L_ESI,FM,M2,0.0037963108722218024
BMu81,P42,PAT,INI,S2S_Unconstrained,1,L_ESI,FM,M3,0.003888988592469288
BMu81,P42,PAT,INI,S2S_Unconstrained,1,R_ESI,FM,M1,0.007801535349122459
BMu81,P42,PAT,INI,S2S_Unconstrained,1,R_ESI,FM,M2,0.007143530650697011
BMu81,P42,PAT,INI,S2S_Unconstrained,1,R_ESI,FM,M3,0.005974368189686885
BMu81,P42,PAT,REL,S2S_Unconstrained,1,L_ESI,FM,M1,0.0049525360816633866
BMu81,P42,PAT,REL,S2S_Unconstrained,1,L_ESI,FM,M2,0.00418103959205231
BMu81,P42,PAT,REL,S2S_Unconstrained,1,L_ESI,FM,M3,0.004716402361786171
BMu81,P42,PAT,REL,S2S_Unconstrained,1,R_ESI,FM,M1,0.008395501493142868
BMu81,P42,PAT,REL,S2S_Unconstrained,1,R_ESI,FM,M2,0.008067671532126905
BMu81,P42,PAT,REL,S2S_Unconstrained,1,R_ESI,FM,M3,0.008274117880693606
BMu81,P43,PAT,INI,S2S_Unconstrained,1,L_ESI,FM,M1,0.003895144247160965
BMu81,P43,PAT,INI,S2S_Unconstrained,1,L_ESI,FM,M2,0.00517802210234144
BMu81,P43,PAT,INI,S2S_Unconstrained,1,L_ESI,FM,M3,0.004320616410608631
BMu81,P43,PAT,INI,S2S_Unconstrained,1,R_ESI,FM,M1,0.0041272006478726975
BMu81,P43,PAT,INI,S2S_Unconstrained,1,R_ESI,FM,M2,0.004496902271429347
BMu81,P43,PAT,INI,S2S_Unconstrained,1,R_ESI,FM,M3,0.004085323181780191
BMu81,P43,PAT,REL,S2S_Unconstrained,1,L_ESI,FM,M1,0.006916799159044981
BMu81,P43,PAT,REL,S2S_Unconstrained,1,L_ESI,FM,M2,0.006751846254707261
BMu81,P43,PAT,REL,S2S_Unconstrained,1,L_ESI,FM,M3,0.005465941053839173
BMu81,P43,PAT,REL,S2S_Unconstrained,1,R_ESI,FM,M1,0.004648039616249775
BMu81,P43,PAT,REL,S2S_Unconstrained,1,R_ESI,FM,M2,0.0042373183956742385
BMu81,P43,PAT,REL,S2S_Unconstrained,1,R_ESI,FM,M3,0.0036542002367760643
BMu81,P44,CTR,INI,S2S_Unconstrained,1,L_ESI,FM,M1,0.007632115922543726
BMu81,P44,CTR,INI,S2S_Unconstrained,1,L_ESI,FM,M2,0.008538968862937585
BMu81,P44,CTR,INI,S2S_Unconstrained,1,L_ESI,FM,M3,0.008423271232615302
BMu81,P44,CTR,INI,S2S_Unconstrained,1,L_ESI,FM,M4,0.007652028798047235
BMu81,P44,CTR,INI,S2S_Unconstrained,1,R_ESI,FM,M1,0.007098619083465924
BMu81,P44,CTR,INI,S2S_Unconstrained,1,R_ESI,FM,M2,0.005661765240561579
BMu81,P44,CTR,INI,S2S_Unconstrained,1,R_ESI,FM,M3,0.007323027046089027
BMu81,P44,CTR,INI,S2S_Unconstrained,1,R_ESI,FM,M4,0.008218551150806545
BMu81,P44,CTR,REL,S2S_Unconstrained,1,L_ESI,FM,M1,0.003376508744108015
BMu81,P44,CTR,REL,S2S_Unconstrained,1,L_ESI,FM,M2,0.0035575939779527543
BMu81,P44,CTR,REL,S2S_Unconstrained,1,L_ESI,FM,M3,0.002865248010460599
BMu81,P44,CTR,REL,S2S_Unconstrained,1,R_ESI,FM,M1,0.006942578856474517
BMu81,P44,CTR,REL,S2S_Unconstrained,1,R_ESI,FM,M2,0.008538963932978896
BMu81,P44,CTR,REL,S2S_Unconstrained,1,R_ESI,FM,M3,0.005613098836396465
BMu81,P45,PAT,INI,S2S_Unconstrained,1,L_ESI,FM,M1,
BMu81,P45,PAT,INI,S2S_Unconstrained,1,L_ESI,FM,M2,
BMu81,P45,PAT,INI,S2S_Unconstrained,1,L_ESI,FM,M3,
BMu81,P45,PAT,INI,S2S_Unconstrained,1,R_ESI,FM,M1,
BMu81,P45,PAT,INI,S2S_Unconstrained,1,R_ESI,FM,M2,
BMu81,P45,PAT,INI,S2S_Unconstrained,1,R_ESI,FM,M3,
BMu81,P45,PAT,REL,S2S_Unconstrained,1,L_ESI,FM,M1,
BMu81,P45,PAT,REL,S2S_Unconstrained,1,L_ESI,FM,M2,
BMu81,P45,PAT,REL,S2S_Unconstrained,1,L_ESI,FM,M3,
BMu81,P45,PAT,REL,S2S_Unconstrained,1,R_ESI,FM,M1,0.0020080951595620312
BMu81,P45,PAT,REL,S2S_Unconstrained,1,R_ESI,FM,M2,
BMu81,P45,PAT,REL,S2S_Unconstrained,1,R_ESI,FM,M3,
BMu81,P46,CTR,INI,S2S_Unconstrained,1,L_ESI,FM,M1,0.00596202159604144
BMu81,P46,CTR,INI,S2S_Unconstrained,1,L_ESI,FM,M2,0.005482914328530469
BMu81,P46,CTR,INI,S2S_Unconstrained,1,L_ESI,FM,M3,0.0051261399367189845
BMu81,P46,CTR,INI,S2S_Unconstrained,1,R_ESI,FM,M1,0.0023596456286872013
BMu81,P46,CTR,INI,S2S_Unconstrained,1,R_ESI,FM,M2,
BMu81,P46,CTR,INI,S2S_Unconstrained,1,R_ESI,FM,M3,
BMu81,P46,CTR,REL,S2S_Unconstrained,1,L_ESI,FM,M1,0.004007336400631812
BMu81,P46,CTR,REL,S2S_Unconstrained,1,L_ESI,FM,M2,
BMu81,P46,CTR,REL,S2S_Unconstrained,1,L_ESI,FM,M3,
BMu81,P46,CTR,REL,S2S_Unconstrained,1,R_ESI,FM,M1,0.002227847997624901
BMu81,P46,CTR,REL,S2S_Unconstrained,1,R_ESI,FM,M2,
BMu81,P46,CTR,REL,S2S_Unconstrained,1,R_ESI,FM,M3,
BMu81,P47,PAT,INI,S2S_Unconstrained,1,L_ESI,FM,M1,0.007862747440651834
BMu81,P47,PAT,INI,S2S_Unconstrained,1,L_ESI,FM,M2,0.0030456809031037735
BMu81,P47,PAT,INI,S2S_Unconstrained,1,L_ESI,FM,M3,0.0034524211522791396
BMu81,P47,PAT,INI,S2S_Unconstrained,1,R_ESI,FM,M1,0.010593609352795526
BMu81,P47,PAT,INI,S2S_Unconstrained,1,R_ESI,FM,M2,0.011381212150699418
BMu81,P47,PAT,INI,S2S_Unconstrained,1,R_ESI,FM,M3,0.00971711729155344
BMu81,P47,PAT,REL,S2S_Unconstrained,1,L_ESI,FM,M1,0.004500992519571293
BMu81,P47,PAT,REL,S2S_Unconstrained,1,L_ESI,FM,M2,0.003958378547207508
BMu81,P47,PAT,REL,S2S_Unconstrained,1,L_ESI,FM,M3,0.004144795777175626
BMu81,P47,PAT,REL,S2S_Unconstrained,1,R_ESI,FM,M1,0.0037237336029328143
BMu81,P47,PAT,REL,S2S_Unconstrained,1,R_ESI,FM,M2,0.004551587517757527
BMu81,P47,PAT,REL,S2S_Unconstrained,1,R_ESI,FM,M3,0.0037337162023396452
BMu81,P48,CTR,INI,S2S_Unconstrained,1,L_ESI,FM,M1,0.009647888526709477
BMu81,P48,CTR,INI,S2S_Unconstrained,1,L_ESI,FM,M2,0.006610932009468075
BMu81,P48,CTR,INI,S2S_Unconstrained,1,L_ESI,FM,M3,0.007372005440271102
BMu81,P48,CTR,INI,S2S_Unconstrained,1,R_ESI,FM,M1,0.007672702739665468
BMu81,P48,CTR,INI,S2S_Unconstrained,1,R_ESI,FM,M2,0.007616161757378553
BMu81,P48,CTR,INI,S2S_Unconstrained,1,R_ESI,FM,M3,0.0070202778812399795
BMu81,P48,CTR,REL,S2S_Unconstrained,1,L_ESI,FM,M1,0.007256896935440717
BMu81,P48,CTR,REL,S2S_Unconstrained,1,L_ESI,FM,M2,0.005661904752813418
BMu81,P48,CTR,REL,S2S_Unconstrained,1,L_ESI,FM,M3,0.005185228362139985
BMu81,P48,CTR,REL,S2S_Unconstrained,1,R_ESI,FM,M1,0.008182149459179148
BMu81,P48,CTR,REL,S2S_Unconstrained,1,R_ESI,FM,M2,0.007829922775013477
BMu81,P48,CTR,REL,S2S_Unconstrained,1,R_ESI,FM,M3,0.009335650592369743
BMu81,P49,CTR,INI,S2S_Unconstrained,1,L_ESI,FM,M1,0.004813568862763916
BMu81,P49,CTR,INI,S2S_Unconstrained,1,L_ESI,FM,M2,0.005549586491636186
BMu81,P49,CTR,INI,S2S_Unconstrained,1,L_ESI,FM,M3,0.00615075116951176
BMu81,P49,CTR,INI,S2S_Unconstrained,1,R_ESI,FM,M1,0.004226348225388618
BMu81,P49,CTR,INI,S2S_Unconstrained,1,R_ESI,FM,M2,0.004022958502575597
BMu81,P49,CTR,INI,S2S_Unconstrained,1,R_ESI,FM,M3,0.004273286466035532
BMu81,P49,CTR,REL,S2S_Unconstrained,1,L_ESI,FM,M1,0.005083460501196933
BMu81,P49,CTR,REL,S2S_Unconstrained,1,L_ESI,FM,M2,0.004320533304834265
BMu81,P49,CTR,REL,S2S_Unconstrained,1,L_ESI,FM,M3,0.004135113539411684
BMu81,P49,CTR,REL,S2S_Unconstrained,1,R_ESI,FM,M1,0.004910777145224523
BMu81,P49,CTR,REL,S2S_Unconstrained,1,R_ESI,FM,M2,0.005156969060728609
BMu81,P49,CTR,REL,S2S_Unconstrained,1,R_ESI,FM,M3,0.004768308649198507
BMu81,P50,PAT,INI,S2S_Unconstrained,1,L_ESI,FM,M1,0.008404030868237765
BMu81,P50,PAT,INI,S2S_Unconstrained,1,L_ESI,FM,M2,0.008996481491513442
BMu81,P50,PAT,INI,S2S_Unconstrained,1,L_ESI,FM,M3,0.008733362256385598
BMu81,P50,PAT,INI,S2S_Unconstrained,1,R_ESI,FM,M1,0.0028571093510704197
BMu81,P50,PAT,INI,S2S_Unconstrained,1,R_ESI,FM,M2,0.003607349585187468
BMu81,P50,PAT,INI,S2S_Unconstrained,1,R_ESI,FM,M3,0.003023116449673501
BMu81,P50,PAT,REL,S2S_Unconstrained,1,L_ESI,FM,M1,0.006535078995799095
BMu81,P50,PAT,REL,S2S_Unconstrained,1,L_ESI,FM,M2,0.006640977163849212
BMu81,P50,PAT,REL,S2S_Unconstrained,1,L_ESI,FM,M3,0.0071187740669218695
BMu81,P50,PAT,REL,S2S_Unconstrained,1,R_ESI,FM,M1,0.0034475792610640754
BMu81,P50,PAT,REL,S2S_Unconstrained,1,R_ESI,FM,M2,0.00366011029607141
BMu81,P50,PAT,REL,S2S_Unconstrained,1,R_ESI,FM,M3,0.003744703659309043
BMu81,P51,PAT,INI,S2S_Unconstrained,1,L_ESI,FM,M1,0.0028411978274051936
BMu81,P51,PAT,INI,S2S_Unconstrained,1,L_ESI,FM,M2,0.003692098354771108
BMu81,P51,PAT,INI,S2S_Unconstrained,1,L_ESI,FM,M3,0.002407384916879632
BMu81,P51,PAT,INI,S2S_Unconstrained,1,R_ESI,FM,M1,0.0031240878093628404
BMu81,P51,PAT,INI,S2S_Unconstrained,1,R_ESI,FM,M2,0.0034271025798947937
BMu81,P51,PAT,INI,S2S_Unconstrained,1,R_ESI,FM,M3,0.0032944304544748034
BMu81,P51,PAT,REL,S2S_Unconstrained,1,L_ESI,FM,M1,0.003081015106998602
BMu81,P51,PAT,REL,S2S_Unconstrained,1,L_ESI,FM,M2,0.0027751389612505517
BMu81,P51,PAT,REL,S2S_Unconstrained,1,L_ESI,FM,M3,0.003019891497810078
BMu81,P51,PAT,REL,S2S_Unconstrained,1,R_ESI,FM,M1,0.0056259671505107045
BMu81,P51,PAT,REL,S2S_Unconstrained,1,R_ESI,FM,M2,0.012106345712968494
BMu81,P51,PAT,REL,S2S_Unconstrained,1,R_ESI,FM,M3,0.016105642054449112
BMu81,P52,CTR,INI,S2S_Unconstrained,1,L_ESI,FM,M1,0.00787259237651017
BMu81,P52,CTR,INI,S2S_Unconstrained,1,L_ESI,FM,M2,0.008959216403299856
BMu81,P52,CTR,INI,S2S_Unconstrained,1,L_ESI,FM,M3,0.006064209871380738
BMu81,P52,CTR,INI,S2S_Unconstrained,1,R_ESI,FM,M1,0.004928674843003819
BMu81,P52,CTR,INI,S2S_Unconstrained,1,R_ESI,FM,M2,0.003846170485556054
BMu81,P52,CTR,INI,S2S_Unconstrained,1,R_ESI,FM,M3,0.0035935162835114827
BMu81,P52,CTR,REL,S2S_Unconstrained,1,L_ESI,FM,M1,0.007094123840341243
BMu81,P52,CTR,REL,S2S_Unconstrained,1,L_ESI,FM,M2,0.008613361397633206
BMu81,P52,CTR,REL,S2S_Unconstrained,1,L_ESI,FM,M3,0.006900333188220018
BMu81,P52,CTR,REL,S2S_Unconstrained,1,R_ESI,FM,M1,0.003961136944352185
BMu81,P52,CTR,REL,S2S_Unconstrained,1,R_ESI,FM,M2,0.0033364337245045633
BMu81,P52,CTR,REL,S2S_Unconstrained,1,R_ESI,FM,M3,0.00366817874704015
BMu81,P53,PAT,INI,S2S_Unconstrained,1,L_ESI,FM,M1,0.015523281532030355
BMu81,P53,PAT,INI,S2S_Unconstrained,1,L_ESI,FM,M2,0.01031288383041699
BMu81,P53,PAT,INI,S2S_Unconstrained,1,L_ESI,FM,M3,0.013816926422816681
BMu81,P53,PAT,INI,S2S_Unconstrained,1,R_ESI,FM,M1,0.007883185323280043
BMu81,P53,PAT,INI,S2S_Unconstrained,1,R_ESI,FM,M2,0.00767000732145085
BMu81,P53,PAT,INI,S2S_Unconstrained,1,R_ESI,FM,M3,0.011549837100975378
BMu81,P53,PAT,REL,S2S_Unconstrained,1,L_ESI,FM,M1,0.0027005134888067922
BMu81,P53,PAT,REL,S2S_Unconstrained,1,L_ESI,FM,M2,0.0030440079133086124
BMu81,P53,PAT,REL,S2S_Unconstrained,1,L_ESI,FM,M3,0.0033504399492714117
BMu81,P53,PAT,REL,S2S_Unconstrained,1,R_ESI,FM,M1,0.00942591215370921
BMu81,P53,PAT,REL,S2S_Unconstrained,1,R_ESI,FM,M2,0.003406607157735172
BMu81,P53,PAT,REL,S2S_Unconstrained,1,R_ESI,FM,M3,0.0031395026551044336
BMu81,P54,PAT,INI,S2S_Unconstrained,1,L_ESI,FM,M1,0.00396799940651428
BMu81,P54,PAT,INI,S2S_Unconstrained,1,L_ESI,FM,M2,0.0036190193883409456
BMu81,P54,PAT,INI,S2S_Unconstrained,1,L_ESI,FM,M3,0.004231806462669386
BMu81,P54,PAT,INI,S2S_Unconstrained,1,R_ESI,FM,M1,0.005328854470744941
BMu81,P54,PAT,INI,S2S_Unconstrained,1,R_ESI,FM,M2,0.005335246605232365
BMu81,P54,PAT,INI,S2S_Unconstrained,1,R_ESI,FM,M3,0.00471111204466872
BMu81,P54,PAT,REL,S2S_Unconstrained,1,L_ESI,FM,M1,0.003823614932563457
BMu81,P54,PAT,REL,S2S_Unconstrained,1,L_ESI,FM,M2,0.0037376282212486377
BMu81,P54,PAT,REL,S2S_Unconstrained,1,L_ESI,FM,M3,
BMu81,P54,PAT,REL,S2S_Unconstrained,1,R_ESI,FM,M1,0.0043869830781716945
BMu81,P54,PAT,REL,S2S_Unconstrained,1,R_ESI,FM,M2,0.0037247926265322646
BMu81,P54,PAT,REL,S2S_Unconstrained,1,R_ESI,FM,M3,
BMu81,P55,CTR,INI,S2S_Unconstrained,1,L_ESI,FM,M1,0.0025847238673614675
BMu81,P55,CTR,INI,S2S_Unconstrained,1,L_ESI,FM,M2,0.0022647201291565904
BMu81,P55,CTR,INI,S2S_Unconstrained,1,L_ESI,FM,M3,0.0025892523606023668
BMu81,P55,CTR,INI,S2S_Unconstrained,1,R_ESI,FM,M1,0.003054624776592865
BMu81,P55,CTR,INI,S2S_Unconstrained,1,R_ESI,FM,M2,
BMu81,P55,CTR,INI,S2S_Unconstrained,1,R_ESI,FM,M3,0.002628355799190294
BMu81,P55,CTR,REL,S2S_Unconstrained,1,L_ESI,FM,M1,0.004937521002405514
BMu81,P55,CTR,REL,S2S_Unconstrained,1,L_ESI,FM,M2,0.005309754152033859
BMu81,P55,CTR,REL,S2S_Unconstrained,1,L_ESI,FM,M3,0.004780653162550012
BMu81,P55,CTR,REL,S2S_Unconstrained,1,R_ESI,FM,M1,0.002939747993812413
BMu81,P55,CTR,REL,S2S_Unconstrained,1,R_ESI,FM,M2,0.0038103269616818133
BMu81,P55,CTR,REL,S2S_Unconstrained,1,R_ESI,FM,M3,0.0036362777733361623
BMu81,P56,CTR,INI,S2S_Unconstrained,1,L_ESI,FM,M1,0.005770324885819335
BMu81,P56,CTR,INI,S2S_Unconstrained,1,L_ESI,FM,M2,0.00620293835931099
BMu81,P56,CTR,INI,S2S_Unconstrained,1,L_ESI,FM,M3,0.005065902505224685
BMu81,P56,CTR,INI,S2S_Unconstrained,1,R_ESI,FM,M1,0.0032677887463534376
BMu81,P56,CTR,INI,S2S_Unconstrained,1,R_ESI,FM,M2,0.0026183792922445204
BMu81,P56,CTR,INI,S2S_Unconstrained,1,R_ESI,FM,M3,0.0028172122521972734
BMu81,P56,CTR,REL,S2S_Unconstrained,1,L_ESI,FM,M1,0.005158532094463951
BMu81,P56,CTR,REL,S2S_Unconstrained,1,L_ESI,FM,M2,0.004615182585068242
BMu81,P56,CTR,REL,S2S_Unconstrained,1,L_ESI,FM,M3,0.005564802811740089
BMu81,P56,CTR,REL,S2S_Unconstrained,1,R_ESI,FM,M1,0.0027250825098848915
BMu81,P56,CTR,REL,S2S_Unconstrained,1,R_ESI,FM,M2,0.0024800553382593868
BMu81,P56,CTR,REL,S2S_Unconstrained,1,R_ESI,FM,M3,0.0032722672504821334
BMu81,P57,CTR,INI,S2S_Unconstrained,1,L_ESI,FM,M1,0.002512606162441933
BMu81,P57,CTR,INI,S2S_Unconstrained,1,L_ESI,FM,M2,0.002163463275083928
BMu81,P57,CTR,INI,S2S_Unconstrained,1,L_ESI,FM,M3,0.002345309748789009
BMu81,P57,CTR,INI,S2S_Unconstrained,1,L_ESI,FM,M4,0.0022272922325300673
BMu81,P57,CTR,INI,S2S_Unconstrained,1,R_ESI,FM,M1,0.002298098504526149
BMu81,P57,CTR,INI,S2S_Unconstrained,1,R_ESI,FM,M2,0.0024340455332881516
BMu81,P57,CTR,INI,S2S_Unconstrained,1,R_ESI,FM,M3,0.0022160059702506867
BMu81,P57,CTR,INI,S2S_Unconstrained,1,R_ESI,FM,M4,0.00246579784116507
BMu81,P57,CTR,REL,S2S_Unconstrained,1,L_ESI,FM,M1,0.0020974764996277468
BMu81,P57,CTR,REL,S2S_Unconstrained,1,L_ESI,FM,M2,0.002559330394057052
BMu81,P57,CTR,REL,S2S_Unconstrained,1,L_ESI,FM,M3,0.0020141732954856674
BMu81,P57,CTR,REL,S2S_Unconstrained,1,R_ESI,FM,M1,0.0026550051893171832
BMu81,P57,CTR,REL,S2S_Unconstrained,1,R_ESI,FM,M2,0.002149215998916803
BMu81,P57,CTR,REL,S2S_Unconstrained,1,R_ESI,FM,M3,0.0022901126790778404
BMu81,P58,PAT,INI,S2S_Unconstrained,1,L_ESI,FM,M1,0.002779287164269384
BMu81,P58,PAT,INI,S2S_Unconstrained,1,L_ESI,FM,M2,0.002758285175434829
BMu81,P58,PAT,INI,S2S_Unconstrained,1,L_ESI,FM,M3,0.0027437901302703994
BMu81,P58,PAT,INI,S2S_Unconstrained,1,L_ESI,FM,M4,0.0028637982431108486
BMu81,P58,PAT,INI,S2S_Unconstrained,1,R_ESI,FM,M1,0.004152338693326518
BMu81,P58,PAT,INI,S2S_Unconstrained,1,R_ESI,FM,M2,0.00414161200096758
BMu81,P58,PAT,INI,S2S_Unconstrained,1,R_ESI,FM,M3,0.005100706235891623
BMu81,P58,PAT,INI,S2S_Unconstrained,1,R_ESI,FM,M4,0.0046032721643774425
BMu81,P58,PAT,REL,S2S_Unconstrained,1,L_ESI,FM,M1,0.003015630876204131
BMu81,P58,PAT,REL,S2S_Unconstrained,1,L_ESI,FM,M2,0.0030714364569691547
BMu81,P58,PAT,REL,S2S_Unconstrained,1,L_ESI,FM,M3,0.0032850931121414626
BMu81,P58,PAT,REL,S2S_Unconstrained,1,R_ESI,FM,M1,0.004104824030511427
BMu81,P58,PAT,REL,S2S_Unconstrained,1,R_ESI,FM,M2,0.004565680309152989
BMu81,P58,PAT,REL,S2S_Unconstrained,1,R_ESI,FM,M3,0.0041216510368006845
BMu81,P60,CTR,INI,S2S_Unconstrained,1,L_ESI,FM,M1,0.00537445877893002
BMu81,P60,CTR,INI,S2S_Unconstrained,1,L_ESI,FM,M2,0.0055181283686316475
BMu81,P60,CTR,INI,S2S_Unconstrained,1,L_ESI,FM,M3,0.005149938808403781
BMu81,P60,CTR,INI,S2S_Unconstrained,1,R_ESI,FM,M1,0.003785181481979965
BMu81,P60,CTR,INI,S2S_Unconstrained,1,R_ESI,FM,M2,0.005931712165617768
BMu81,P60,CTR,INI,S2S_Unconstrained,1,R_ESI,FM,M3,0.004503872819224774
BMu81,P60,CTR,REL,S2S_Unconstrained,1,L_ESI,FM,M1,
BMu81,P60,CTR,REL,S2S_Unconstrained,1,L_ESI,FM,M2,0.0038767639303341037
BMu81,P60,CTR,REL,S2S_Unconstrained,1,L_ESI,FM,M3,0.004570045944964366
BMu81,P60,CTR,REL,S2S_Unconstrained,1,R_ESI,FM,M1,
BMu81,P60,CTR,REL,S2S_Unconstrained,1,R_ESI,FM,M2,
BMu81,P60,CTR,REL,S2S_Unconstrained,1,R_ESI,FM,M3,0.004781055787295545
BMu81,P61,PAT,INI,S2S_Unconstrained,1,L_ESI,FM,M1,0.0058344882751499814
BMu81,P61,PAT,INI,S2S_Unconstrained,1,L_ESI,FM,M2,0.005457704029742907
BMu81,P61,PAT,INI,S2S_Unconstrained,1,L_ESI,FM,M3,0.00696695833369162
BMu81,P61,PAT,INI,S2S_Unconstrained,1,R_ESI,FM,M1,0.002699141587222747
BMu81,P61,PAT,INI,S2S_Unconstrained,1,R_ESI,FM,M2,0.002625313975337078
BMu81,P61,PAT,INI,S2S_Unconstrained,1,R_ESI,FM,M3,0.003095597038310851
BMu81,P61,PAT,REL,S2S_Unconstrained,1,L_ESI,FM,M1,0.008595842338624714
BMu81,P61,PAT,REL,S2S_Unconstrained,1,L_ESI,FM,M2,0.01077070035180782
BMu81,P61,PAT,REL,S2S_Unconstrained,1,L_ESI,FM,M3,0.00904316638248769
BMu81,P61,PAT,REL,S2S_Unconstrained,1,L_ESI,FM,M4,0.010011876773443883
BMu81,P61,PAT,REL,S2S_Unconstrained,1,R_ESI,FM,M1,0.003068472526930846
BMu81,P61,PAT,REL,S2S_Unconstrained,1,R_ESI,FM,M2,0.002439389511565902
BMu81,P61,PAT,REL,S2S_Unconstrained,1,R_ESI,FM,M3,0.002302652702569934
BMu81,P61,PAT,REL,S2S_Unconstrained,1,R_ESI,FM,M4,0.0023795431415031326
BMu81,P62,PAT,INI,S2S_Unconstrained,1,L_ESI,FM,M1,0.00796931423243032
BMu81,P62,PAT,INI,S2S_Unconstrained,1,L_ESI,FM,M2,0.0052557627067023145
BMu81,P62,PAT,INI,S2S_Unconstrained,1,L_ESI,FM,M3,0.011086795571074233
BMu81,P62,PAT,INI,S2S_Unconstrained,1,R_ESI,FM,M1,0.002653729211340919
BMu81,P62,PAT,INI,S2S_Unconstrained,1,R_ESI,FM,M2,0.00239102498060458
BMu81,P62,PAT,INI,S2S_Unconstrained,1,R_ESI,FM,M3,0.005199269176754367
BMu81,P62,PAT,REL,S2S_Unconstrained,1,L_ESI,FM,M1,0.0028274170133630798
BMu81,P62,PAT,REL,S2S_Unconstrained,1,L_ESI,FM,M2,0.0022451417143979488
BMu81,P62,PAT,REL,S2S_Unconstrained,1,L_ESI,FM,M3,0.002512463568837325
BMu81,P62,PAT,REL,S2S_Unconstrained,1,R_ESI,FM,M1,0.00371780059381892
BMu81,P62,PAT,REL,S2S_Unconstrained,1,R_ESI,FM,M2,0.002959077215104929
BMu81,P62,PAT,REL,S2S_Unconstrained,1,R_ESI,FM,M3,0.0031187767130017624
BMu81,P63,PAT,INI,S2S_Unconstrained,1,L_ESI,FM,M1,
BMu81,P63,PAT,INI,S2S_Unconstrained,1,L_ESI,FM,M2,
BMu81,P63,PAT,INI,S2S_Unconstrained,1,L_ESI,FM,M3,
BMu81,P63,PAT,INI,S2S_Unconstrained,1,R_ESI,FM,M1,
BMu81,P63,PAT,INI,S2S_Unconstrained,1,R_ESI,FM,M2,
BMu81,P63,PAT,INI,S2S_Unconstrained,1,R_ESI,FM,M3,
BMu81,P63,PAT,REL,S2S_Unconstrained,1,L_ESI,FM,M1,
BMu81,P63,PAT,REL,S2S_Unconstrained,1,L_ESI,FM,M2,0.002057461136533613
BMu81,P63,PAT,REL,S2S_Unconstrained,1,L_ESI,FM,M3,0.0023592315947433434
BMu81,P63,PAT,REL,S2S_Unconstrained,1,R_ESI,FM,M1,
BMu81,P63,PAT,REL,S2S_Unconstrained,1,R_ESI,FM,M2,0.0020572986542291643
BMu81,P63,PAT,REL,S2S_Unconstrained,1,R_ESI,FM,M3,0.0018140666709851368
BMu81,P64,CTR,INI,S2S_Unconstrained,1,L_ESI,FM,M1,0.00604731248594284
BMu81,P64,CTR,INI,S2S_Unconstrained,1,L_ESI,FM,M2,0.004944408874536127
BMu81,P64,CTR,INI,S2S_Unconstrained,1,L_ESI,FM,M3,0.006038084226896087
BMu81,P64,CTR,INI,S2S_Unconstrained,1,R_ESI,FM,M1,0.00532952979067861
BMu81,P64,CTR,INI,S2S_Unconstrained,1,R_ESI,FM,M2,0.004481370871211354
BMu81,P64,CTR,INI,S2S_Unconstrained,1,R_ESI,FM,M3,0.0040757447809723225
BMu81,P64,CTR,REL,S2S_Unconstrained,1,L_ESI,FM,M1,0.007138746079247341
BMu81,P64,CTR,REL,S2S_Unconstrained,1,L_ESI,FM,M2,
BMu81,P64,CTR,REL,S2S_Unconstrained,1,L_ESI,FM,M3,0.007361943394496313
BMu81,P64,CTR,REL,S2S_Unconstrained,1,R_ESI,FM,M1,0.004981512964215985
BMu81,P64,CTR,REL,S2S_Unconstrained,1,R_ESI,FM,M2,0.005294053992581002
BMu81,P64,CTR,REL,S2S_Unconstrained,1,R_ESI,FM,M3,0.004332707627948914
BMu81,P65,PAT,INI,S2S_Unconstrained,1,L_ESI,FM,M1,
BMu81,P65,PAT,INI,S2S_Unconstrained,1,L_ESI,FM,M2,
BMu81,P65,PAT,INI,S2S_Unconstrained,1,L_ESI,FM,M3,0.009795068709653788
BMu81,P65,PAT,INI,S2S_Unconstrained,1,R_ESI,FM,M1,0.007630138974137838
BMu81,P65,PAT,INI,S2S_Unconstrained,1,R_ESI,FM,M2,0.007612416846170487
BMu81,P65,PAT,INI,S2S_Unconstrained,1,R_ESI,FM,M3,0.008044606170617677
BMu81,P65,PAT,REL,S2S_Unconstrained,1,L_ESI,FM,M1,0.006346179181314221
BMu81,P65,PAT,REL,S2S_Unconstrained,1,L_ESI,FM,M2,0.006692586798778105
BMu81,P65,PAT,REL,S2S_Unconstrained,1,L_ESI,FM,M3,0.0063714620557414735
BMu81,P65,PAT,REL,S2S_Unconstrained,1,R_ESI,FM,M1,0.008611360287580134
BMu81,P65,PAT,REL,S2S_Unconstrained,1,R_ESI,FM,M2,0.006365980698391316
BMu81,P65,PAT,REL,S2S_Unconstrained,1,R_ESI,FM,M3,0.004886978911675268
BMu81,P66,CTR,INI,S2S_Unconstrained,1,L_ESI,FM,M1,0.00701895907379759
BMu81,P66,CTR,INI,S2S_Unconstrained,1,L_ESI,FM,M2,0.004972373924140272
BMu81,P66,CTR,INI,S2S_Unconstrained,1,L_ESI,FM,M3,0.005052661480427757
BMu81,P66,CTR,INI,S2S_Unconstrained,1,R_ESI,FM,M1,0.0071359805070783135
BMu81,P66,CTR,INI,S2S_Unconstrained,1,R_ESI,FM,M2,0.0041872062362824794
BMu81,P66,CTR,INI,S2S_Unconstrained,1,R_ESI,FM,M3,0.0047256003461895535
BMu81,P66,CTR,REL,S2S_Unconstrained,1,L_ESI,FM,M1,0.0033869780644885275
BMu81,P66,CTR,REL,S2S_Unconstrained,1,L_ESI,FM,M2,0.0037929482540505132
BMu81,P66,CTR,REL,S2S_Unconstrained,1,L_ESI,FM,M3,0.003412828804551695
BMu81,P66,CTR,REL,S2S_Unconstrained,1,R_ESI,FM,M1,0.003974923272029262
BMu81,P66,CTR,REL,S2S_Unconstrained,1,R_ESI,FM,M2,0.003477781698485912
BMu81,P66,CTR,REL,S2S_Unconstrained,1,R_ESI,FM,M3,0.0036959544010668945
BMu81,P67,CTR,INI,S2S_Unconstrained,1,L_ESI,FM,M1,0.006569194265228004
BMu81,P67,CTR,INI,S2S_Unconstrained,1,L_ESI,FM,M2,0.0041622034266779835
BMu81,P67,CTR,INI,S2S_Unconstrained,1,L_ESI,FM,M3,0.00506879379882178
BMu81,P67,CTR,INI,S2S_Unconstrained,1,R_ESI,FM,M1,
BMu81,P67,CTR,INI,S2S_Unconstrained,1,R_ESI,FM,M2,
BMu81,P67,CTR,INI,S2S_Unconstrained,1,R_ESI,FM,M3,0.006310689305373509
BMu81,P67,CTR,REL,S2S_Unconstrained,1,L_ESI,FM,M1,0.0037185698514582964
BMu81,P67,CTR,REL,S2S_Unconstrained,1,L_ESI,FM,M2,0.00388246732531112
BMu81,P67,CTR,REL,S2S_Unconstrained,1,L_ESI,FM,M3,0.004568872511093038
BMu81,P67,CTR,REL,S2S_Unconstrained,1,R_ESI,FM,M1,0.0030554872968715178
BMu81,P67,CTR,REL,S2S_Unconstrained,1,R_ESI,FM,M2,0.0050629764562531016
BMu81,P67,CTR,REL,S2S_Unconstrained,1,R_ESI,FM,M3,0.004070657676116437
BMu81,P68,CTR,INI,S2S_Unconstrained,1,L_ESI,FM,M1,
BMu81,P68,CTR,INI,S2S_Unconstrained,1,L_ESI,FM,M2,
BMu81,P68,CTR,INI,S2S_Unconstrained,1,L_ESI,FM,M3,
BMu81,P68,CTR,INI,S2S_Unconstrained,1,R_ESI,FM,M1,
BMu81,P68,CTR,INI,S2S_Unconstrained,1,R_ESI,FM,M2,
BMu81,P68,CTR,INI,S2S_Unconstrained,1,R_ESI,FM,M3,
BMu81,P68,CTR,REL,S2S_Unconstrained,1,L_ESI,FM,M1,0.007531206857548135
BMu81,P68,CTR,REL,S2S_Unconstrained,1,L_ESI,FM,M2,
BMu81,P68,CTR,REL,S2S_Unconstrained,1,L_ESI,FM,M3,0.006175743580582779
BMu81,P68,CTR,REL,S2S_Unconstrained,1,R_ESI,FM,M1,
BMu81,P68,CTR,REL,S2S_Unconstrained,1,R_ESI,FM,M2,
BMu81,P68,CTR,REL,S2S_Unconstrained,1,R_ESI,FM,M3,
