BMu,Participant,Group,Session,task,trials,channel,Operator,Measure,Value
BMu96,P01,CTR,REL,Weight_Unconstrained,1,L_LES,FM,M1,0.019894814493218206
BMu96,P01,CTR,REL,Weight_Unconstrained,1,L_LES,FM,M2,0.01744311253849893
BMu96,P01,CTR,REL,Weight_Unconstrained,1,L_LES,FM,M3,0.01786075043850378
BMu96,P02,CTR,INI,Weight_Unconstrained,1,L_LES,FM,M1,0.030468552173120438
BMu96,P02,CTR,INI,Weight_Unconstrained,1,L_LES,FM,M2,0.03100634265353528
BMu96,P02,CTR,INI,Weight_Unconstrained,1,L_LES,FM,M3,0.031253735067461416
BMu96,P02,CTR,INI,Weight_Unconstrained,1,R_LES,FM,M1,0.02923670180268265
BMu96,P02,CTR,INI,Weight_Unconstrained,1,R_LES,FM,M2,0.029801969717642776
BMu96,P02,CTR,INI,Weight_Unconstrained,1,R_LES,FM,M3,0.02925724787967923
BMu96,P02,CTR,REL,Weight_Unconstrained,1,R_LES,FM,M1,0.021308889486138904
BMu96,P02,CTR,REL,Weight_Unconstrained,1,R_LES,FM,M2,0.02329940060709615
BMu96,P02,CTR,REL,Weight_Unconstrained,1,R_LES,FM,M3,0.0218113640414758
BMu96,P03,CTR,INI,Weight_Unconstrained,1,L_LES,FM,M1,0.022120273003049362
BMu96,P03,CTR,INI,Weight_Unconstrained,1,L_LES,FM,M2,0.022958636133718444
BMu96,P03,CTR,INI,Weight_Unconstrained,1,L_LES,FM,M3,0.02426079197344272
BMu96,P03,CTR,INI,Weight_Unconstrained,1,R_LES,FM,M1,0.018803382482913883
BMu96,P03,CTR,INI,Weight_Unconstrained,1,R_LES,FM,M2,0.019098877242535343
BMu96,P03,CTR,INI,Weight_Unconstrained,1,R_LES,FM,M3,0.020537177557144376
BMu96,P03,CTR,REL,Weight_Unconstrained,1,R_LES,FM,M1,0.021772557358829703
BMu96,P03,CTR,REL,Weight_Unconstrained,1,R_LES,FM,M2,0.022481888402387525
BMu96,P03,CTR,REL,Weight_Unconstrained,1,R_LES,FM,M3,0.02231990054027189
BMu96,P05,CTR,INI,Weight_Unconstrained,1,L_LES,FM,M1,0.027247307762506646
BMu96,P05,CTR,INI,Weight_Unconstrained,1,L_LES,FM,M2,0.027963678807661985
BMu96,P05,CTR,INI,Weight_Unconstrained,1,L_LES,FM,M3,0.029684384902209142
BMu96,P05,CTR,INI,Weight_Unconstrained,1,R_LES,FM,M1,0.01374953441132309
BMu96,P05,CTR,INI,Weight_Unconstrained,1,R_LES,FM,M2,0.014539226771068852
BMu96,P05,CTR,INI,Weight_Unconstrained,1,R_LES,FM,M3,0.01523941663039068
BMu96,P05,CTR,REL,Weight_Unconstrained,1,L_LES,FM,M1,0.03775242699150543
BMu96,P05,CTR,REL,Weight_Unconstrained,1,L_LES,FM,M2,0.03464301118972251
BMu96,P05,CTR,REL,Weight_Unconstrained,1,L_LES,FM,M3,0.036583408694621136
BMu96,P05,CTR,REL,Weight_Unconstrained,1,L_LES,FM,M4,0.043322541840405966
BMu96,P05,CTR,REL,Weight_Unconstrained,1,R_LES,FM,M1,0.01637542816664654
BMu96,P05,CTR,REL,Weight_Unconstrained,1,R_LES,FM,M2,0.014913397856055027
BMu96,P05,CTR,REL,Weight_Unconstrained,1,R_LES,FM,M3,0.01674703156214643
BMu96,P05,CTR,REL,Weight_Unconstrained,1,R_LES,FM,M4,0.017391116515374897
BMu96,P06,CTR,INI,Weight_Unconstrained,1,R_LES,FM,M1,0.007447053411971549
BMu96,P06,CTR,INI,Weight_Unconstrained,1,R_LES,FM,M2,0.008172001935828338
BMu96,P06,CTR,INI,Weight_Unconstrained,1,R_LES,FM,M3,0.007989719300236908
BMu96,P06,CTR,REL,Weight_Unconstrained,1,L_LES,FM,M1,0.008589437829253756
BMu96,P06,CTR,REL,Weight_Unconstrained,1,L_LES,FM,M2,0.008781292641668596
BMu96,P06,CTR,REL,Weight_Unconstrained,1,L_LES,FM,M3,0.008999728333253534
BMu96,P06,CTR,REL,Weight_Unconstrained,1,R_LES,FM,M1,0.007321112509318519
BMu96,P06,CTR,REL,Weight_Unconstrained,1,R_LES,FM,M2,0.007571218735513
BMu96,P06,CTR,REL,Weight_Unconstrained,1,R_LES,FM,M3,0.00766738862544626
BMu96,P07,CTR,INI,Weight_Unconstrained,1,R_LES,FM,M1,0.042073759775830694
BMu96,P07,CTR,INI,Weight_Unconstrained,1,R_LES,FM,M2,0.04067770542743131
BMu96,P07,CTR,INI,Weight_Unconstrained,1,R_LES,FM,M3,0.0433608161879064
BMu96,P07,CTR,REL,Weight_Unconstrained,1,L_LES,FM,M1,0.053885053505916936
BMu96,P07,CTR,REL,Weight_Unconstrained,1,L_LES,FM,M2,0.05821993890110114
BMu96,P07,CTR,REL,Weight_Unconstrained,1,L_LES,FM,M3,0.0629208743498211
BMu96,P07,CTR,REL,Weight_Unconstrained,1,R_LES,FM,M1,0.04437374941484262
BMu96,P07,CTR,REL,Weight_Unconstrained,1,R_LES,FM,M2,0.04462861433807626
BMu96,P07,CTR,REL,Weight_Unconstrained,1,R_LES,FM,M3,0.04973573824679252
BMu96,P08,CTR,INI,Weight_Unconstrained,1,L_LES,FM,M1,0.028097674495100207
BMu96,P08,CTR,INI,Weight_Unconstrained,1,L_LES,FM,M2,0.015890247225625508
BMu96,P08,CTR,INI,Weight_Unconstrained,1,L_LES,FM,M3,0.024888909171638697
BMu96,P08,CTR,INI,Weight_Unconstrained,1,R_LES,FM,M1,0.01778340924990225
BMu96,P08,CTR,INI,Weight_Unconstrained,1,R_LES,FM,M2,0.01194286160360587
BMu96,P08,CTR,INI,Weight_Unconstrained,1,R_LES,FM,M3,0.017413957515106007
BMu96,P08,CTR,REL,Weight_Unconstrained,1,L_LES,FM,M1,0.02297994432416183
BMu96,P08,CTR,REL,Weight_Unconstrained,1,L_LES,FM,M2,0.02436306540634273
BMu96,P08,CTR,REL,Weight_Unconstrained,1,L_LES,FM,M3,0.02372588055131794
BMu96,P08,CTR,REL,Weight_Unconstrained,1,R_LES,FM,M1,0.013314393925817248
BMu96,P08,CTR,REL,Weight_Unconstrained,1,R_LES,FM,M2,0.01587240888695903
BMu96,P08,CTR,REL,Weight_Unconstrained,1,R_LES,FM,M3,0.016447348710911774
BMu96,P09,PAT,INI,Weight_Unconstrained,1,L_LES,FM,M1,0.019676623565441663
BMu96,P09,PAT,INI,Weight_Unconstrained,1,L_LES,FM,M2,0.02189052298184908
BMu96,P09,PAT,INI,Weight_Unconstrained,1,L_LES,FM,M3,0.024044033309029145
BMu96,P09,PAT,INI,Weight_Unconstrained,1,R_LES,FM,M1,0.017159897930690643
BMu96,P09,PAT,INI,Weight_Unconstrained,1,R_LES,FM,M2,0.01955435092895479
BMu96,P09,PAT,INI,Weight_Unconstrained,1,R_LES,FM,M3,0.0210350675220931
BMu96,P09,PAT,REL,Weight_Unconstrained,1,L_LES,FM,M1,
BMu96,P09,PAT,REL,Weight_Unconstrained,1,L_LES,FM,M2,
BMu96,P09,PAT,REL,Weight_Unconstrained,1,L_LES,FM,M3,
BMu96,P09,PAT,REL,Weight_Unconstrained,1,L_LES,FM,M4,
BMu96,P09,PAT,REL,Weight_Unconstrained,1,L_LES,FM,M5,
BMu96,P09,PAT,REL,Weight_Unconstrained,1,R_LES,FM,M1,
BMu96,P09,PAT,REL,Weight_Unconstrained,1,R_LES,FM,M2,
BMu96,P09,PAT,REL,Weight_Unconstrained,1,R_LES,FM,M3,
BMu96,P09,PAT,REL,Weight_Unconstrained,1,R_LES,FM,M4,
BMu96,P09,PAT,REL,Weight_Unconstrained,1,R_LES,FM,M5,
BMu96,P10,PAT,INI,Weight_Unconstrained,1,L_LES,FM,M1,0.020559530609071064
BMu96,P10,PAT,INI,Weight_Unconstrained,1,L_LES,FM,M2,0.021410088506543797
BMu96,P10,PAT,INI,Weight_Unconstrained,1,L_LES,FM,M3,0.02397240921157437
BMu96,P10,PAT,INI,Weight_Unconstrained,1,R_LES,FM,M1,0.021194855371737327
BMu96,P10,PAT,INI,Weight_Unconstrained,1,R_LES,FM,M2,0.023983957748971847
BMu96,P10,PAT,INI,Weight_Unconstrained,1,R_LES,FM,M3,0.022893929687765234
BMu96,P10,PAT,REL,Weight_Unconstrained,1,L_LES,FM,M1,0.023430251302210346
BMu96,P10,PAT,REL,Weight_Unconstrained,1,L_LES,FM,M2,0.023820345325138922
BMu96,P10,PAT,REL,Weight_Unconstrained,1,L_LES,FM,M3,0.022598340782156588
BMu96,P10,PAT,REL,Weight_Unconstrained,1,R_LES,FM,M1,0.024898157527680986
BMu96,P10,PAT,REL,Weight_Unconstrained,1,R_LES,FM,M2,0.023745548842269926
BMu96,P10,PAT,REL,Weight_Unconstrained,1,R_LES,FM,M3,0.023231781969907297
BMu96,P11,PAT,INI,Weight_Unconstrained,1,L_LES,FM,M1,0.0299310742643725
BMu96,P11,PAT,INI,Weight_Unconstrained,1,L_LES,FM,M2,0.030528237279179013
BMu96,P11,PAT,INI,Weight_Unconstrained,1,L_LES,FM,M3,0.03128718792293863
BMu96,P11,PAT,INI,Weight_Unconstrained,1,R_LES,FM,M1,0.015909376371799625
BMu96,P11,PAT,INI,Weight_Unconstrained,1,R_LES,FM,M2,0.017401147758815107
BMu96,P11,PAT,INI,Weight_Unconstrained,1,R_LES,FM,M3,0.016396558132761984
BMu96,P11,PAT,REL,Weight_Unconstrained,1,L_LES,FM,M1,0.03823024902688264
BMu96,P11,PAT,REL,Weight_Unconstrained,1,L_LES,FM,M2,0.035171324744676956
BMu96,P11,PAT,REL,Weight_Unconstrained,1,L_LES,FM,M3,0.034700431125154835
BMu96,P11,PAT,REL,Weight_Unconstrained,1,R_LES,FM,M1,0.021472298755345374
BMu96,P11,PAT,REL,Weight_Unconstrained,1,R_LES,FM,M2,0.01940387115645624
BMu96,P11,PAT,REL,Weight_Unconstrained,1,R_LES,FM,M3,0.019043140368201542
BMu96,P12,PAT,INI,Weight_Unconstrained,1,L_LES,FM,M1,0.01597932650844163
BMu96,P12,PAT,INI,Weight_Unconstrained,1,L_LES,FM,M2,0.015040885732718858
BMu96,P12,PAT,INI,Weight_Unconstrained,1,L_LES,FM,M3,0.01596005408889364
BMu96,P12,PAT,INI,Weight_Unconstrained,1,R_LES,FM,M1,0.015587448035985371
BMu96,P12,PAT,INI,Weight_Unconstrained,1,R_LES,FM,M2,0.014334811604756113
BMu96,P12,PAT,INI,Weight_Unconstrained,1,R_LES,FM,M3,0.01483197725167011
BMu96,P12,PAT,REL,Weight_Unconstrained,1,L_LES,FM,M1,0.017843238036741312
BMu96,P12,PAT,REL,Weight_Unconstrained,1,L_LES,FM,M2,0.01762295280635324
BMu96,P12,PAT,REL,Weight_Unconstrained,1,L_LES,FM,M3,0.01628318161712406
BMu96,P12,PAT,REL,Weight_Unconstrained,1,R_LES,FM,M1,0.017121686189925704
BMu96,P12,PAT,REL,Weight_Unconstrained,1,R_LES,FM,M2,0.01748514156708259
BMu96,P12,PAT,REL,Weight_Unconstrained,1,R_LES,FM,M3,0.015503883138771424
BMu96,P13,CTR,INI,Weight_Unconstrained,1,L_LES,FM,M1,0.02611596818149128
BMu96,P13,CTR,INI,Weight_Unconstrained,1,L_LES,FM,M2,0.024686493322975026
BMu96,P13,CTR,INI,Weight_Unconstrained,1,L_LES,FM,M3,0.026977130626687447
BMu96,P13,CTR,INI,Weight_Unconstrained,1,R_LES,FM,M1,0.026044250749138353
BMu96,P13,CTR,INI,Weight_Unconstrained,1,R_LES,FM,M2,0.024210760577031004
BMu96,P13,CTR,INI,Weight_Unconstrained,1,R_LES,FM,M3,0.026642850062266552
BMu96,P13,CTR,REL,Weight_Unconstrained,1,L_LES,FM,M1,0.02597221527503457
BMu96,P13,CTR,REL,Weight_Unconstrained,1,L_LES,FM,M2,0.0265358807768353
BMu96,P13,CTR,REL,Weight_Unconstrained,1,L_LES,FM,M3,0.026568774822024962
BMu96,P13,CTR,REL,Weight_Unconstrained,1,R_LES,FM,M1,0.026021049445169454
BMu96,P13,CTR,REL,Weight_Unconstrained,1,R_LES,FM,M2,0.025220797111025966
BMu96,P13,CTR,REL,Weight_Unconstrained,1,R_LES,FM,M3,0.026854972471714096
BMu96,P14,PAT,INI,Weight_Unconstrained,1,L_LES,FM,M1,0.02308046833916167
BMu96,P14,PAT,INI,Weight_Unconstrained,1,L_LES,FM,M2,0.024440332529581506
BMu96,P14,PAT,INI,Weight_Unconstrained,1,L_LES,FM,M3,0.024164132677331737
BMu96,P14,PAT,INI,Weight_Unconstrained,1,R_LES,FM,M1,0.017054590133298624
BMu96,P14,PAT,INI,Weight_Unconstrained,1,R_LES,FM,M2,0.01881936247475884
BMu96,P14,PAT,INI,Weight_Unconstrained,1,R_LES,FM,M3,0.01853814142152756
BMu96,P14,PAT,REL,Weight_Unconstrained,1,R_LES,FM,M1,0.02021388185236425
BMu96,P14,PAT,REL,Weight_Unconstrained,1,R_LES,FM,M2,0.019062562924372844
BMu96,P14,PAT,REL,Weight_Unconstrained,1,R_LES,FM,M3,0.01922973881235233
BMu96,P16,CTR,INI,Weight_Unconstrained,1,L_LES,FM,M1,0.015111188227848961
BMu96,P16,CTR,INI,Weight_Unconstrained,1,L_LES,FM,M2,0.014586766488541545
BMu96,P16,CTR,INI,Weight_Unconstrained,1,L_LES,FM,M3,0.015824633875701898
BMu96,P16,CTR,INI,Weight_Unconstrained,1,R_LES,FM,M1,0.011626266390578635
BMu96,P16,CTR,INI,Weight_Unconstrained,1,R_LES,FM,M2,0.01073348947324498
BMu96,P16,CTR,INI,Weight_Unconstrained,1,R_LES,FM,M3,0.011330020350140834
BMu96,P16,CTR,REL,Weight_Unconstrained,1,L_LES,FM,M1,0.012918881118506293
BMu96,P16,CTR,REL,Weight_Unconstrained,1,L_LES,FM,M2,0.012762405753574922
BMu96,P16,CTR,REL,Weight_Unconstrained,1,L_LES,FM,M3,0.012713274558653717
BMu96,P16,CTR,REL,Weight_Unconstrained,1,R_LES,FM,M1,0.01001623102050138
BMu96,P16,CTR,REL,Weight_Unconstrained,1,R_LES,FM,M2,0.009467736834103851
BMu96,P16,CTR,REL,Weight_Unconstrained,1,R_LES,FM,M3,0.009263685129989263
BMu96,P17,PAT,INI,Weight_Unconstrained,1,L_LES,FM,M1,0.021266379203841987
BMu96,P17,PAT,INI,Weight_Unconstrained,1,L_LES,FM,M2,0.0233825619481681
BMu96,P17,PAT,INI,Weight_Unconstrained,1,L_LES,FM,M3,0.0237001470620086
BMu96,P17,PAT,INI,Weight_Unconstrained,1,R_LES,FM,M1,0.019334660443897745
BMu96,P17,PAT,INI,Weight_Unconstrained,1,R_LES,FM,M2,0.021118200147437607
BMu96,P17,PAT,INI,Weight_Unconstrained,1,R_LES,FM,M3,0.02253966827606693
BMu96,P17,PAT,REL,Weight_Unconstrained,1,L_LES,FM,M1,0.021978909536644067
BMu96,P17,PAT,REL,Weight_Unconstrained,1,L_LES,FM,M2,0.02357294751320399
BMu96,P17,PAT,REL,Weight_Unconstrained,1,L_LES,FM,M3,0.025170486485023846
BMu96,P17,PAT,REL,Weight_Unconstrained,1,R_LES,FM,M1,0.023861791713214085
BMu96,P17,PAT,REL,Weight_Unconstrained,1,R_LES,FM,M2,0.02459039738813603
BMu96,P17,PAT,REL,Weight_Unconstrained,1,R_LES,FM,M3,0.025925315822834954
BMu96,P21,CTR,INI,Weight_Unconstrained,1,L_LES,FM,M1,0.033021524294383625
BMu96,P21,CTR,INI,Weight_Unconstrained,1,L_LES,FM,M2,0.037010526823429646
BMu96,P21,CTR,INI,Weight_Unconstrained,1,L_LES,FM,M3,0.039771694671056866
BMu96,P21,CTR,INI,Weight_Unconstrained,1,R_LES,FM,M1,0.024790353719069354
BMu96,P21,CTR,INI,Weight_Unconstrained,1,R_LES,FM,M2,0.024880785124128207
BMu96,P21,CTR,INI,Weight_Unconstrained,1,R_LES,FM,M3,0.027068368001465455
BMu96,P21,CTR,REL,Weight_Unconstrained,1,R_LES,FM,M1,0.027452816948847845
BMu96,P21,CTR,REL,Weight_Unconstrained,1,R_LES,FM,M2,0.027067443987397754
BMu96,P21,CTR,REL,Weight_Unconstrained,1,R_LES,FM,M3,0.030548021861076236
BMu96,P21,CTR,REL,Weight_Unconstrained,1,R_LES,FM,M4,0.03149871540672533
BMu96,P22,CTR,INI,Weight_Unconstrained,1,L_LES,FM,M1,0.02069264170354953
BMu96,P22,CTR,INI,Weight_Unconstrained,1,L_LES,FM,M2,0.020037993108775833
BMu96,P22,CTR,INI,Weight_Unconstrained,1,L_LES,FM,M3,0.018689117151121842
BMu96,P22,CTR,INI,Weight_Unconstrained,1,R_LES,FM,M1,0.018153687388623038
BMu96,P22,CTR,INI,Weight_Unconstrained,1,R_LES,FM,M2,0.017744373666955984
BMu96,P22,CTR,INI,Weight_Unconstrained,1,R_LES,FM,M3,0.01692074048372378
BMu96,P22,CTR,REL,Weight_Unconstrained,1,L_LES,FM,M1,
BMu96,P22,CTR,REL,Weight_Unconstrained,1,L_LES,FM,M2,0.017600095972436065
BMu96,P22,CTR,REL,Weight_Unconstrained,1,R_LES,FM,M1,
BMu96,P22,CTR,REL,Weight_Unconstrained,1,R_LES,FM,M2,
BMu96,P23,CTR,REL,Weight_Unconstrained,1,L_LES,FM,M1,0.012743526622157731
BMu96,P23,CTR,REL,Weight_Unconstrained,1,L_LES,FM,M2,0.013859967082127103
BMu96,P23,CTR,REL,Weight_Unconstrained,1,L_LES,FM,M3,0.01329482337205576
BMu96,P24,PAT,INI,Weight_Unconstrained,1,L_LES,FM,M1,0.0287461474279159
BMu96,P24,PAT,INI,Weight_Unconstrained,1,L_LES,FM,M2,0.028499320809066073
BMu96,P24,PAT,INI,Weight_Unconstrained,1,L_LES,FM,M3,0.026808361535997194
BMu96,P24,PAT,INI,Weight_Unconstrained,1,R_LES,FM,M1,0.020211571352061884
BMu96,P24,PAT,INI,Weight_Unconstrained,1,R_LES,FM,M2,0.019984441624228584
BMu96,P24,PAT,INI,Weight_Unconstrained,1,R_LES,FM,M3,0.019165560404828863
BMu96,P24,PAT,REL,Weight_Unconstrained,1,R_LES,FM,M1,0.018380523685079423
BMu96,P24,PAT,REL,Weight_Unconstrained,1,R_LES,FM,M2,0.018152439245628788
BMu96,P24,PAT,REL,Weight_Unconstrained,1,R_LES,FM,M3,0.020991520412070863
BMu96,P25,CTR,INI,Weight_Unconstrained,1,L_LES,FM,M1,0.04572683504335798
BMu96,P25,CTR,INI,Weight_Unconstrained,1,L_LES,FM,M2,0.04555929383715801
BMu96,P25,CTR,INI,Weight_Unconstrained,1,L_LES,FM,M3,0.04752849255695744
BMu96,P25,CTR,INI,Weight_Unconstrained,1,R_LES,FM,M1,0.01955713016540142
BMu96,P25,CTR,INI,Weight_Unconstrained,1,R_LES,FM,M2,0.02086498713345635
BMu96,P25,CTR,INI,Weight_Unconstrained,1,R_LES,FM,M3,0.021695741069721802
BMu96,P25,CTR,REL,Weight_Unconstrained,1,L_LES,FM,M1,0.03788776034008887
BMu96,P25,CTR,REL,Weight_Unconstrained,1,L_LES,FM,M2,0.03531180054697136
BMu96,P25,CTR,REL,Weight_Unconstrained,1,L_LES,FM,M3,0.037276480571419114
BMu96,P25,CTR,REL,Weight_Unconstrained,1,R_LES,FM,M1,0.016755459667189172
BMu96,P25,CTR,REL,Weight_Unconstrained,1,R_LES,FM,M2,0.01749839725486258
BMu96,P25,CTR,REL,Weight_Unconstrained,1,R_LES,FM,M3,0.01784839933550558
BMu96,P26,PAT,INI,Weight_Unconstrained,1,R_LES,FM,M1,0.011776265866553226
BMu96,P26,PAT,INI,Weight_Unconstrained,1,R_LES,FM,M2,0.012146688402945064
BMu96,P26,PAT,INI,Weight_Unconstrained,1,R_LES,FM,M3,0.011758406633472333
BMu96,P26,PAT,REL,Weight_Unconstrained,1,R_LES,FM,M1,0.013397150539699186
BMu96,P26,PAT,REL,Weight_Unconstrained,1,R_LES,FM,M2,0.01615219142186542
BMu96,P26,PAT,REL,Weight_Unconstrained,1,R_LES,FM,M3,0.016023452761321215
BMu96,P27,PAT,INI,Weight_Unconstrained,1,L_LES,FM,M1,0.023428714519851783
BMu96,P27,PAT,INI,Weight_Unconstrained,1,L_LES,FM,M2,0.022503637323427257
BMu96,P27,PAT,INI,Weight_Unconstrained,1,L_LES,FM,M3,0.024108007113354014
BMu96,P27,PAT,INI,Weight_Unconstrained,1,R_LES,FM,M1,0.021863395211533184
BMu96,P27,PAT,INI,Weight_Unconstrained,1,R_LES,FM,M2,0.021698975668419544
BMu96,P27,PAT,INI,Weight_Unconstrained,1,R_LES,FM,M3,0.02023892318799591
BMu96,P27,PAT,REL,Weight_Unconstrained,1,L_LES,FM,M1,0.02499590815681374
BMu96,P27,PAT,REL,Weight_Unconstrained,1,L_LES,FM,M2,0.025011152742033856
BMu96,P27,PAT,REL,Weight_Unconstrained,1,L_LES,FM,M3,0.024736607526801787
BMu96,P27,PAT,REL,Weight_Unconstrained,1,R_LES,FM,M1,0.020897071581902016
BMu96,P27,PAT,REL,Weight_Unconstrained,1,R_LES,FM,M2,0.01951740641343401
BMu96,P27,PAT,REL,Weight_Unconstrained,1,R_LES,FM,M3,0.01881797420855437
BMu96,P28,PAT,INI,Weight_Unconstrained,1,L_LES,FM,M1,0.015103093781743026
BMu96,P28,PAT,INI,Weight_Unconstrained,1,L_LES,FM,M2,0.018377249469541584
BMu96,P28,PAT,INI,Weight_Unconstrained,1,L_LES,FM,M3,0.017440768955751487
BMu96,P28,PAT,INI,Weight_Unconstrained,1,R_LES,FM,M1,0.016566889591473698
BMu96,P28,PAT,INI,Weight_Unconstrained,1,R_LES,FM,M2,0.018377978242224834
BMu96,P28,PAT,INI,Weight_Unconstrained,1,R_LES,FM,M3,0.017024007469904373
BMu96,P28,PAT,REL,Weight_Unconstrained,1,L_LES,FM,M1,0.016888222830285904
BMu96,P28,PAT,REL,Weight_Unconstrained,1,L_LES,FM,M2,0.018326529091895305
BMu96,P28,PAT,REL,Weight_Unconstrained,1,L_LES,FM,M3,0.018014486503781988
BMu96,P28,PAT,REL,Weight_Unconstrained,1,R_LES,FM,M1,0.015843924402300702
BMu96,P28,PAT,REL,Weight_Unconstrained,1,R_LES,FM,M2,0.016955641733735045
BMu96,P28,PAT,REL,Weight_Unconstrained,1,R_LES,FM,M3,0.01685368104364734
BMu96,P29,PAT,INI,Weight_Unconstrained,1,L_LES,FM,M1,0.042095934261996135
BMu96,P29,PAT,INI,Weight_Unconstrained,1,L_LES,FM,M2,
BMu96,P29,PAT,INI,Weight_Unconstrained,1,L_LES,FM,M3,
BMu96,P29,PAT,INI,Weight_Unconstrained,1,R_LES,FM,M1,0.05179590872275126
BMu96,P29,PAT,INI,Weight_Unconstrained,1,R_LES,FM,M2,
BMu96,P29,PAT,INI,Weight_Unconstrained,1,R_LES,FM,M3,
BMu96,P29,PAT,REL,Weight_Unconstrained,1,L_LES,FM,M1,
BMu96,P29,PAT,REL,Weight_Unconstrained,1,L_LES,FM,M2,0.038916579529571275
BMu96,P29,PAT,REL,Weight_Unconstrained,1,L_LES,FM,M3,0.036446734649401374
BMu96,P29,PAT,REL,Weight_Unconstrained,1,R_LES,FM,M1,
BMu96,P29,PAT,REL,Weight_Unconstrained,1,R_LES,FM,M2,0.046715241662679464
BMu96,P29,PAT,REL,Weight_Unconstrained,1,R_LES,FM,M3,0.04483502165242534
BMu96,P30,PAT,INI,Weight_Unconstrained,1,R_LES,FM,M1,0.0084148278650681
BMu96,P30,PAT,INI,Weight_Unconstrained,1,R_LES,FM,M2,0.008243251029393776
BMu96,P30,PAT,INI,Weight_Unconstrained,1,R_LES,FM,M3,0.009074814241893027
BMu96,P30,PAT,REL,Weight_Unconstrained,1,R_LES,FM,M1,0.008061884308150429
BMu96,P30,PAT,REL,Weight_Unconstrained,1,R_LES,FM,M2,0.00902778371073702
BMu96,P30,PAT,REL,Weight_Unconstrained,1,R_LES,FM,M3,0.009937001468967564
BMu96,P32,PAT,INI,Weight_Unconstrained,1,L_LES,FM,M1,0.017723532395249895
BMu96,P32,PAT,INI,Weight_Unconstrained,1,L_LES,FM,M2,0.01797178749193685
BMu96,P32,PAT,INI,Weight_Unconstrained,1,L_LES,FM,M3,0.018639615355319727
BMu96,P32,PAT,INI,Weight_Unconstrained,1,R_LES,FM,M1,0.010779622261626157
BMu96,P32,PAT,INI,Weight_Unconstrained,1,R_LES,FM,M2,0.010990423856676555
BMu96,P32,PAT,INI,Weight_Unconstrained,1,R_LES,FM,M3,0.011080752631608654
BMu96,P32,PAT,REL,Weight_Unconstrained,1,L_LES,FM,M1,0.01848317169102745
BMu96,P32,PAT,REL,Weight_Unconstrained,1,L_LES,FM,M2,0.019026802255593608
BMu96,P32,PAT,REL,Weight_Unconstrained,1,L_LES,FM,M3,0.018248561410479206
BMu96,P32,PAT,REL,Weight_Unconstrained,1,R_LES,FM,M1,0.013029493934989728
BMu96,P32,PAT,REL,Weight_Unconstrained,1,R_LES,FM,M2,0.013120450142399088
BMu96,P32,PAT,REL,Weight_Unconstrained,1,R_LES,FM,M3,0.012831025769876778
BMu96,P33,PAT,INI,Weight_Unconstrained,1,L_LES,FM,M1,0.01374897630719883
BMu96,P33,PAT,INI,Weight_Unconstrained,1,L_LES,FM,M2,0.013709461092651837
BMu96,P33,PAT,INI,Weight_Unconstrained,1,L_LES,FM,M3,0.013650194289347802
BMu96,P33,PAT,INI,Weight_Unconstrained,1,R_LES,FM,M1,0.010097234413433015
BMu96,P33,PAT,INI,Weight_Unconstrained,1,R_LES,FM,M2,0.010823678330789753
BMu96,P33,PAT,INI,Weight_Unconstrained,1,R_LES,FM,M3,0.011429558757558023
BMu96,P33,PAT,REL,Weight_Unconstrained,1,L_LES,FM,M1,0.005842759966994453
BMu96,P33,PAT,REL,Weight_Unconstrained,1,R_LES,FM,M1,0.00704407603298132
BMu96,P34,PAT,INI,Weight_Unconstrained,1,L_LES,FM,M1,0.017196289397831854
BMu96,P34,PAT,INI,Weight_Unconstrained,1,L_LES,FM,M2,0.016626558838144716
BMu96,P34,PAT,INI,Weight_Unconstrained,1,L_LES,FM,M3,0.017647368337721646
BMu96,P34,PAT,INI,Weight_Unconstrained,1,R_LES,FM,M1,0.01724048147188198
BMu96,P34,PAT,INI,Weight_Unconstrained,1,R_LES,FM,M2,0.018865915927930136
BMu96,P34,PAT,INI,Weight_Unconstrained,1,R_LES,FM,M3,0.01902299517366033
BMu96,P34,PAT,REL,Weight_Unconstrained,1,L_LES,FM,M1,0.027607074759891635
BMu96,P34,PAT,REL,Weight_Unconstrained,1,L_LES,FM,M2,0.029975655363557216
BMu96,P34,PAT,REL,Weight_Unconstrained,1,L_LES,FM,M3,0.028001149402854343
BMu96,P34,PAT,REL,Weight_Unconstrained,1,R_LES,FM,M1,0.022865889139793864
BMu96,P34,PAT,REL,Weight_Unconstrained,1,R_LES,FM,M2,0.024490817621338458
BMu96,P34,PAT,REL,Weight_Unconstrained,1,R_LES,FM,M3,0.021564945981400904
BMu96,P35,CTR,INI,Weight_Unconstrained,1,R_LES,FM,M1,0.029955588607010256
BMu96,P35,CTR,INI,Weight_Unconstrained,1,R_LES,FM,M2,0.027971196081301143
BMu96,P35,CTR,INI,Weight_Unconstrained,1,R_LES,FM,M3,0.02900490717008216
BMu96,P35,CTR,REL,Weight_Unconstrained,1,L_LES,FM,M1,0.04033599859126021
BMu96,P35,CTR,REL,Weight_Unconstrained,1,L_LES,FM,M2,0.03371031128073783
BMu96,P35,CTR,REL,Weight_Unconstrained,1,L_LES,FM,M3,0.034458135433219364
BMu96,P35,CTR,REL,Weight_Unconstrained,1,R_LES,FM,M1,0.027406957576439572
BMu96,P35,CTR,REL,Weight_Unconstrained,1,R_LES,FM,M2,0.025496710129837844
BMu96,P35,CTR,REL,Weight_Unconstrained,1,R_LES,FM,M3,0.0276096899665988
BMu96,P36,PAT,INI,Weight_Unconstrained,1,L_LES,FM,M1,0.035051250865245645
BMu96,P36,PAT,INI,Weight_Unconstrained,1,L_LES,FM,M2,0.03600639857037642
BMu96,P36,PAT,INI,Weight_Unconstrained,1,L_LES,FM,M3,0.03725635590129253
BMu96,P36,PAT,INI,Weight_Unconstrained,1,R_LES,FM,M1,0.04644572214890056
BMu96,P36,PAT,INI,Weight_Unconstrained,1,R_LES,FM,M2,0.04728448529742116
BMu96,P36,PAT,INI,Weight_Unconstrained,1,R_LES,FM,M3,0.04925828513868878
BMu96,P36,PAT,REL,Weight_Unconstrained,1,L_LES,FM,M1,0.025257777562564736
BMu96,P36,PAT,REL,Weight_Unconstrained,1,L_LES,FM,M2,0.026218057106140676
BMu96,P36,PAT,REL,Weight_Unconstrained,1,L_LES,FM,M3,0.02618326357740005
BMu96,P36,PAT,REL,Weight_Unconstrained,1,R_LES,FM,M1,0.049830215845697294
BMu96,P36,PAT,REL,Weight_Unconstrained,1,R_LES,FM,M2,0.04952630391153779
BMu96,P36,PAT,REL,Weight_Unconstrained,1,R_LES,FM,M3,0.04890762848327654
BMu96,P38,CTR,REL,Weight_Unconstrained,1,L_LES,FM,M1,0.04095311175063043
BMu96,P38,CTR,REL,Weight_Unconstrained,1,L_LES,FM,M2,0.0402059684520167
BMu96,P38,CTR,REL,Weight_Unconstrained,1,L_LES,FM,M3,0.04179896693084337
BMu96,P38,CTR,REL,Weight_Unconstrained,1,L_LES,FM,M4,0.04323248592508284
BMu96,P38,CTR,REL,Weight_Unconstrained,1,L_LES,FM,M5,0.04057787763276102
BMu96,P38,CTR,REL,Weight_Unconstrained,1,R_LES,FM,M1,0.020440772777435924
BMu96,P38,CTR,REL,Weight_Unconstrained,1,R_LES,FM,M2,0.020784393985230822
BMu96,P38,CTR,REL,Weight_Unconstrained,1,R_LES,FM,M3,0.02324600271951603
BMu96,P38,CTR,REL,Weight_Unconstrained,1,R_LES,FM,M4,0.022374001658929284
BMu96,P38,CTR,REL,Weight_Unconstrained,1,R_LES,FM,M5,0.022935983825705483
BMu96,P39,CTR,INI,Weight_Unconstrained,1,L_LES,FM,M1,0.011828531413925737
BMu96,P39,CTR,INI,Weight_Unconstrained,1,L_LES,FM,M2,0.010523389733561159
BMu96,P39,CTR,INI,Weight_Unconstrained,1,L_LES,FM,M3,0.012182040310249422
BMu96,P39,CTR,INI,Weight_Unconstrained,1,R_LES,FM,M1,0.012360862124471989
BMu96,P39,CTR,INI,Weight_Unconstrained,1,R_LES,FM,M2,0.01258992713905502
BMu96,P39,CTR,INI,Weight_Unconstrained,1,R_LES,FM,M3,0.013813748472526099
BMu96,P39,CTR,REL,Weight_Unconstrained,1,L_LES,FM,M1,0.016144934974179313
BMu96,P39,CTR,REL,Weight_Unconstrained,1,L_LES,FM,M2,0.01592618219362703
BMu96,P39,CTR,REL,Weight_Unconstrained,1,L_LES,FM,M3,0.017196708726024898
BMu96,P39,CTR,REL,Weight_Unconstrained,1,R_LES,FM,M1,0.015852143280230234
BMu96,P39,CTR,REL,Weight_Unconstrained,1,R_LES,FM,M2,0.014071694283987229
BMu96,P39,CTR,REL,Weight_Unconstrained,1,R_LES,FM,M3,0.016841964576043113
BMu96,P40,CTR,INI,Weight_Unconstrained,1,L_LES,FM,M1,0.03232095143966547
BMu96,P40,CTR,INI,Weight_Unconstrained,1,L_LES,FM,M2,0.030599445293774633
BMu96,P40,CTR,INI,Weight_Unconstrained,1,L_LES,FM,M3,0.036628659154847365
BMu96,P40,CTR,INI,Weight_Unconstrained,1,R_LES,FM,M1,0.03466533584553568
BMu96,P40,CTR,INI,Weight_Unconstrained,1,R_LES,FM,M2,0.03280447132079867
BMu96,P40,CTR,INI,Weight_Unconstrained,1,R_LES,FM,M3,0.03598979721066553
BMu96,P40,CTR,REL,Weight_Unconstrained,1,L_LES,FM,M1,0.023778167815349586
BMu96,P40,CTR,REL,Weight_Unconstrained,1,L_LES,FM,M2,0.024029374867697666
BMu96,P40,CTR,REL,Weight_Unconstrained,1,L_LES,FM,M3,0.024188270980962583
BMu96,P40,CTR,REL,Weight_Unconstrained,1,R_LES,FM,M1,0.03157550571283957
BMu96,P40,CTR,REL,Weight_Unconstrained,1,R_LES,FM,M2,0.03254391104226621
BMu96,P40,CTR,REL,Weight_Unconstrained,1,R_LES,FM,M3,0.03215526608116909
BMu96,P41,PAT,INI,Weight_Unconstrained,1,L_LES,FM,M1,0.0332145287951994
BMu96,P41,PAT,INI,Weight_Unconstrained,1,L_LES,FM,M2,0.032228770286536784
BMu96,P41,PAT,INI,Weight_Unconstrained,1,L_LES,FM,M3,0.03547109242135485
BMu96,P41,PAT,INI,Weight_Unconstrained,1,L_LES,FM,M4,0.03473392969653524
BMu96,P41,PAT,INI,Weight_Unconstrained,1,R_LES,FM,M1,0.035681092376787155
BMu96,P41,PAT,INI,Weight_Unconstrained,1,R_LES,FM,M2,0.03750238611655354
BMu96,P41,PAT,INI,Weight_Unconstrained,1,R_LES,FM,M3,0.03982258863754365
BMu96,P41,PAT,INI,Weight_Unconstrained,1,R_LES,FM,M4,0.042463737083605624
BMu96,P41,PAT,REL,Weight_Unconstrained,1,L_LES,FM,M1,0.03500620272537229
BMu96,P41,PAT,REL,Weight_Unconstrained,1,L_LES,FM,M2,0.034037467495474975
BMu96,P41,PAT,REL,Weight_Unconstrained,1,L_LES,FM,M3,0.03271222777685613
BMu96,P41,PAT,REL,Weight_Unconstrained,1,R_LES,FM,M1,0.03424863588537114
BMu96,P41,PAT,REL,Weight_Unconstrained,1,R_LES,FM,M2,0.033569324703058095
BMu96,P41,PAT,REL,Weight_Unconstrained,1,R_LES,FM,M3,0.033692822371429385
BMu96,P42,PAT,INI,Weight_Unconstrained,1,L_LES,FM,M1,0.03205299058966219
BMu96,P42,PAT,INI,Weight_Unconstrained,1,L_LES,FM,M2,0.034200769655017366
BMu96,P42,PAT,INI,Weight_Unconstrained,1,L_LES,FM,M3,0.03571160487450773
BMu96,P42,PAT,INI,Weight_Unconstrained,1,R_LES,FM,M1,0.03751949264658469
BMu96,P42,PAT,INI,Weight_Unconstrained,1,R_LES,FM,M2,0.03888840735179696
BMu96,P42,PAT,INI,Weight_Unconstrained,1,R_LES,FM,M3,0.04210915824149569
BMu96,P42,PAT,REL,Weight_Unconstrained,1,L_LES,FM,M1,0.039614273014351754
BMu96,P42,PAT,REL,Weight_Unconstrained,1,L_LES,FM,M2,0.04079267918873173
BMu96,P42,PAT,REL,Weight_Unconstrained,1,L_LES,FM,M3,0.043052709204809664
BMu96,P42,PAT,REL,Weight_Unconstrained,1,R_LES,FM,M1,0.04289544169207877
BMu96,P42,PAT,REL,Weight_Unconstrained,1,R_LES,FM,M2,0.036974764467526455
BMu96,P42,PAT,REL,Weight_Unconstrained,1,R_LES,FM,M3,0.04131357924425337
BMu96,P43,PAT,INI,Weight_Unconstrained,1,L_LES,FM,M1,0.03362158531517513
BMu96,P43,PAT,INI,Weight_Unconstrained,1,L_LES,FM,M2,0.04360736445313727
BMu96,P43,PAT,INI,Weight_Unconstrained,1,L_LES,FM,M3,0.03541945866529336
BMu96,P43,PAT,INI,Weight_Unconstrained,1,R_LES,FM,M1,0.025808491018255407
BMu96,P43,PAT,INI,Weight_Unconstrained,1,R_LES,FM,M2,0.03155782684069543
BMu96,P43,PAT,INI,Weight_Unconstrained,1,R_LES,FM,M3,0.0268168893130453
BMu96,P43,PAT,REL,Weight_Unconstrained,1,L_LES,FM,M1,0.02925453341152525
BMu96,P43,PAT,REL,Weight_Unconstrained,1,L_LES,FM,M2,0.03586128286253123
BMu96,P43,PAT,REL,Weight_Unconstrained,1,L_LES,FM,M3,0.041019497720458015
BMu96,P43,PAT,REL,Weight_Unconstrained,1,L_LES,FM,M4,0.04017590109375017
BMu96,P43,PAT,REL,Weight_Unconstrained,1,R_LES,FM,M1,0.02749709070134247
BMu96,P43,PAT,REL,Weight_Unconstrained,1,R_LES,FM,M2,0.0338820150871958
BMu96,P43,PAT,REL,Weight_Unconstrained,1,R_LES,FM,M3,0.02771932029968396
BMu96,P43,PAT,REL,Weight_Unconstrained,1,R_LES,FM,M4,0.027802777215523947
BMu96,P44,CTR,INI,Weight_Unconstrained,1,L_LES,FM,M1,0.043172900631689895
BMu96,P44,CTR,INI,Weight_Unconstrained,1,L_LES,FM,M2,0.045843219013221276
BMu96,P44,CTR,INI,Weight_Unconstrained,1,L_LES,FM,M3,0.044658266477205506
BMu96,P44,CTR,INI,Weight_Unconstrained,1,R_LES,FM,M1,0.05844982042361316
BMu96,P44,CTR,INI,Weight_Unconstrained,1,R_LES,FM,M2,0.06137670937625243
BMu96,P44,CTR,INI,Weight_Unconstrained,1,R_LES,FM,M3,0.06184661944500852
BMu96,P44,CTR,REL,Weight_Unconstrained,1,L_LES,FM,M1,0.03256954923029773
BMu96,P44,CTR,REL,Weight_Unconstrained,1,L_LES,FM,M2,0.036463305824581654
BMu96,P44,CTR,REL,Weight_Unconstrained,1,L_LES,FM,M3,0.03769357883894587
BMu96,P44,CTR,REL,Weight_Unconstrained,1,R_LES,FM,M1,0.04869171474395649
BMu96,P44,CTR,REL,Weight_Unconstrained,1,R_LES,FM,M2,0.05072851517660342
BMu96,P44,CTR,REL,Weight_Unconstrained,1,R_LES,FM,M3,0.051817901472596684
BMu96,P45,PAT,INI,Weight_Unconstrained,1,R_LES,FM,M1,0.01733279547522332
BMu96,P45,PAT,INI,Weight_Unconstrained,1,R_LES,FM,M2,0.017497246597646572
BMu96,P45,PAT,INI,Weight_Unconstrained,1,R_LES,FM,M3,0.017926264034527517
BMu96,P45,PAT,REL,Weight_Unconstrained,1,L_LES,FM,M1,0.013546964150290323
BMu96,P45,PAT,REL,Weight_Unconstrained,1,L_LES,FM,M2,0.014833044903825829
BMu96,P45,PAT,REL,Weight_Unconstrained,1,L_LES,FM,M3,0.014166871290743493
BMu96,P45,PAT,REL,Weight_Unconstrained,1,R_LES,FM,M1,0.007648596897821731
BMu96,P45,PAT,REL,Weight_Unconstrained,1,R_LES,FM,M2,0.008444781636041537
BMu96,P45,PAT,REL,Weight_Unconstrained,1,R_LES,FM,M3,0.008152228321767822
BMu96,P46,CTR,INI,Weight_Unconstrained,1,L_LES,FM,M1,0.031816429349604054
BMu96,P46,CTR,INI,Weight_Unconstrained,1,L_LES,FM,M2,0.033682573218700315
BMu96,P46,CTR,INI,Weight_Unconstrained,1,L_LES,FM,M3,0.03304748294456558
BMu96,P46,CTR,INI,Weight_Unconstrained,1,R_LES,FM,M1,0.022566693744254206
BMu96,P46,CTR,INI,Weight_Unconstrained,1,R_LES,FM,M2,0.02225702561396014
BMu96,P46,CTR,INI,Weight_Unconstrained,1,R_LES,FM,M3,0.02390033985706067
BMu96,P46,CTR,REL,Weight_Unconstrained,1,L_LES,FM,M1,0.02652189347735559
BMu96,P46,CTR,REL,Weight_Unconstrained,1,L_LES,FM,M2,0.028216155298026915
BMu96,P46,CTR,REL,Weight_Unconstrained,1,L_LES,FM,M3,0.030036280868737907
BMu96,P46,CTR,REL,Weight_Unconstrained,1,R_LES,FM,M1,0.01906825973929907
BMu96,P46,CTR,REL,Weight_Unconstrained,1,R_LES,FM,M2,0.021153652595389608
BMu96,P46,CTR,REL,Weight_Unconstrained,1,R_LES,FM,M3,0.021672259053450615
BMu96,P47,PAT,INI,Weight_Unconstrained,1,L_LES,FM,M1,0.021671528209440273
BMu96,P47,PAT,INI,Weight_Unconstrained,1,L_LES,FM,M2,0.021663676183297537
BMu96,P47,PAT,INI,Weight_Unconstrained,1,L_LES,FM,M3,0.020898057331535463
BMu96,P47,PAT,INI,Weight_Unconstrained,1,R_LES,FM,M1,0.019237547719230697
BMu96,P47,PAT,INI,Weight_Unconstrained,1,R_LES,FM,M2,0.020564420986667373
BMu96,P47,PAT,INI,Weight_Unconstrained,1,R_LES,FM,M3,0.020538942304608905
BMu96,P47,PAT,REL,Weight_Unconstrained,1,L_LES,FM,M1,0.021072245712022864
BMu96,P47,PAT,REL,Weight_Unconstrained,1,L_LES,FM,M2,0.019456234359256707
BMu96,P47,PAT,REL,Weight_Unconstrained,1,L_LES,FM,M3,0.02011948117708228
BMu96,P47,PAT,REL,Weight_Unconstrained,1,R_LES,FM,M1,0.01758323130792173
BMu96,P47,PAT,REL,Weight_Unconstrained,1,R_LES,FM,M2,0.01590460674126259
BMu96,P47,PAT,REL,Weight_Unconstrained,1,R_LES,FM,M3,0.017832825154163873
BMu96,P48,CTR,INI,Weight_Unconstrained,1,L_LES,FM,M1,0.044652463112646396
BMu96,P48,CTR,INI,Weight_Unconstrained,1,L_LES,FM,M2,0.04218570670913063
BMu96,P48,CTR,INI,Weight_Unconstrained,1,L_LES,FM,M3,0.040240522818043155
BMu96,P48,CTR,INI,Weight_Unconstrained,1,R_LES,FM,M1,0.04351622705568245
BMu96,P48,CTR,INI,Weight_Unconstrained,1,R_LES,FM,M2,0.042900321434892266
BMu96,P48,CTR,INI,Weight_Unconstrained,1,R_LES,FM,M3,0.042057313237947626
BMu96,P48,CTR,REL,Weight_Unconstrained,1,L_LES,FM,M1,0.042892676407705
BMu96,P48,CTR,REL,Weight_Unconstrained,1,L_LES,FM,M2,0.0389243008812976
BMu96,P48,CTR,REL,Weight_Unconstrained,1,L_LES,FM,M3,0.043462345912402084
BMu96,P48,CTR,REL,Weight_Unconstrained,1,R_LES,FM,M1,0.04365659530555088
BMu96,P48,CTR,REL,Weight_Unconstrained,1,R_LES,FM,M2,0.03942530260159493
BMu96,P48,CTR,REL,Weight_Unconstrained,1,R_LES,FM,M3,0.04221621296912937
BMu96,P49,CTR,INI,Weight_Unconstrained,1,R_LES,FM,M1,0.0436915753765034
BMu96,P49,CTR,INI,Weight_Unconstrained,1,R_LES,FM,M2,0.04058186294005443
BMu96,P49,CTR,INI,Weight_Unconstrained,1,R_LES,FM,M3,0.04133480219802767
BMu96,P49,CTR,REL,Weight_Unconstrained,1,L_LES,FM,M1,0.0329274411587474
BMu96,P49,CTR,REL,Weight_Unconstrained,1,L_LES,FM,M2,0.030993268674662056
BMu96,P49,CTR,REL,Weight_Unconstrained,1,L_LES,FM,M3,0.0376706881457554
BMu96,P49,CTR,REL,Weight_Unconstrained,1,R_LES,FM,M1,0.03477290275123321
BMu96,P49,CTR,REL,Weight_Unconstrained,1,R_LES,FM,M2,0.03422115922565041
BMu96,P49,CTR,REL,Weight_Unconstrained,1,R_LES,FM,M3,0.04044305115066496
BMu96,P50,PAT,INI,Weight_Unconstrained,1,R_LES,FM,M1,0.03331961834548632
BMu96,P50,PAT,INI,Weight_Unconstrained,1,R_LES,FM,M2,0.03367631651070831
BMu96,P50,PAT,INI,Weight_Unconstrained,1,R_LES,FM,M3,0.03799848411327571
BMu96,P50,PAT,REL,Weight_Unconstrained,1,L_LES,FM,M1,0.05354959325963221
BMu96,P50,PAT,REL,Weight_Unconstrained,1,L_LES,FM,M2,0.05017837232976327
BMu96,P50,PAT,REL,Weight_Unconstrained,1,L_LES,FM,M3,0.04966068919996858
BMu96,P50,PAT,REL,Weight_Unconstrained,1,R_LES,FM,M1,0.039880892053515915
BMu96,P50,PAT,REL,Weight_Unconstrained,1,R_LES,FM,M2,0.03830809494735925
BMu96,P50,PAT,REL,Weight_Unconstrained,1,R_LES,FM,M3,0.03505306090597413
BMu96,P51,PAT,INI,Weight_Unconstrained,1,L_LES,FM,M1,0.013946759145496014
BMu96,P51,PAT,INI,Weight_Unconstrained,1,L_LES,FM,M2,
BMu96,P51,PAT,INI,Weight_Unconstrained,1,L_LES,FM,M3,
BMu96,P51,PAT,INI,Weight_Unconstrained,1,L_LES,FM,M4,0.012324857560858956
BMu96,P51,PAT,INI,Weight_Unconstrained,1,R_LES,FM,M1,0.011102496887686122
BMu96,P51,PAT,INI,Weight_Unconstrained,1,R_LES,FM,M2,
BMu96,P51,PAT,INI,Weight_Unconstrained,1,R_LES,FM,M3,
BMu96,P51,PAT,INI,Weight_Unconstrained,1,R_LES,FM,M4,
BMu96,P51,PAT,REL,Weight_Unconstrained,1,L_LES,FM,M1,0.014169693064674947
BMu96,P51,PAT,REL,Weight_Unconstrained,1,L_LES,FM,M2,0.010858938354573015
BMu96,P51,PAT,REL,Weight_Unconstrained,1,L_LES,FM,M3,0.011566602469232738
BMu96,P51,PAT,REL,Weight_Unconstrained,1,R_LES,FM,M1,0.009378869046667262
BMu96,P51,PAT,REL,Weight_Unconstrained,1,R_LES,FM,M2,0.008816416411580024
BMu96,P51,PAT,REL,Weight_Unconstrained,1,R_LES,FM,M3,0.009627695164041111
BMu96,P52,CTR,INI,Weight_Unconstrained,1,L_LES,FM,M1,0.03175136769064788
BMu96,P52,CTR,INI,Weight_Unconstrained,1,L_LES,FM,M2,0.03227988349806173
BMu96,P52,CTR,INI,Weight_Unconstrained,1,L_LES,FM,M3,0.03233632502533004
BMu96,P52,CTR,INI,Weight_Unconstrained,1,R_LES,FM,M1,0.025287204051028876
BMu96,P52,CTR,INI,Weight_Unconstrained,1,R_LES,FM,M2,0.031196065184583052
BMu96,P52,CTR,INI,Weight_Unconstrained,1,R_LES,FM,M3,0.02988544109262805
BMu96,P52,CTR,REL,Weight_Unconstrained,1,L_LES,FM,M1,0.027851829610735644
BMu96,P52,CTR,REL,Weight_Unconstrained,1,L_LES,FM,M2,0.032752538196366046
BMu96,P52,CTR,REL,Weight_Unconstrained,1,L_LES,FM,M3,0.03487093755361184
BMu96,P52,CTR,REL,Weight_Unconstrained,1,R_LES,FM,M1,0.025801280539106346
BMu96,P52,CTR,REL,Weight_Unconstrained,1,R_LES,FM,M2,0.031826075236762646
BMu96,P52,CTR,REL,Weight_Unconstrained,1,R_LES,FM,M3,0.028968302733282367
BMu96,P53,PAT,INI,Weight_Unconstrained,1,L_LES,FM,M1,0.02610623715266187
BMu96,P53,PAT,INI,Weight_Unconstrained,1,L_LES,FM,M2,0.027232302819463906
BMu96,P53,PAT,INI,Weight_Unconstrained,1,L_LES,FM,M3,0.027113266702260302
BMu96,P53,PAT,INI,Weight_Unconstrained,1,R_LES,FM,M1,0.017500752381651236
BMu96,P53,PAT,INI,Weight_Unconstrained,1,R_LES,FM,M2,0.01761570457413328
BMu96,P53,PAT,INI,Weight_Unconstrained,1,R_LES,FM,M3,0.01780711917898335
BMu96,P53,PAT,REL,Weight_Unconstrained,1,L_LES,FM,M1,0.027728213522350977
BMu96,P53,PAT,REL,Weight_Unconstrained,1,L_LES,FM,M2,0.027523655458245526
BMu96,P53,PAT,REL,Weight_Unconstrained,1,L_LES,FM,M3,0.026735010762797752
BMu96,P53,PAT,REL,Weight_Unconstrained,1,R_LES,FM,M1,0.018028896858592255
BMu96,P53,PAT,REL,Weight_Unconstrained,1,R_LES,FM,M2,0.017338185245328822
BMu96,P53,PAT,REL,Weight_Unconstrained,1,R_LES,FM,M3,0.01825836910735611
BMu96,P54,PAT,INI,Weight_Unconstrained,1,L_LES,FM,M1,0.03504531089415653
BMu96,P54,PAT,INI,Weight_Unconstrained,1,L_LES,FM,M2,0.0352111609997569
BMu96,P54,PAT,INI,Weight_Unconstrained,1,L_LES,FM,M3,0.0388184612990395
BMu96,P54,PAT,INI,Weight_Unconstrained,1,R_LES,FM,M1,0.028040123140029995
BMu96,P54,PAT,INI,Weight_Unconstrained,1,R_LES,FM,M2,0.026612296291228937
BMu96,P54,PAT,INI,Weight_Unconstrained,1,R_LES,FM,M3,0.030687054294719948
BMu96,P54,PAT,REL,Weight_Unconstrained,1,L_LES,FM,M1,0.03624462186766125
BMu96,P54,PAT,REL,Weight_Unconstrained,1,L_LES,FM,M2,0.034405859737359115
BMu96,P54,PAT,REL,Weight_Unconstrained,1,L_LES,FM,M3,0.03734883438058976
BMu96,P54,PAT,REL,Weight_Unconstrained,1,R_LES,FM,M1,0.03017273935327531
BMu96,P54,PAT,REL,Weight_Unconstrained,1,R_LES,FM,M2,0.029572912822577832
BMu96,P54,PAT,REL,Weight_Unconstrained,1,R_LES,FM,M3,0.029032498468574836
BMu96,P55,CTR,INI,Weight_Unconstrained,1,L_LES,FM,M1,0.023157779934267434
BMu96,P55,CTR,INI,Weight_Unconstrained,1,L_LES,FM,M2,0.028088610834277605
BMu96,P55,CTR,INI,Weight_Unconstrained,1,L_LES,FM,M3,0.02817901436352871
BMu96,P55,CTR,INI,Weight_Unconstrained,1,R_LES,FM,M1,0.01342337649510052
BMu96,P55,CTR,INI,Weight_Unconstrained,1,R_LES,FM,M2,0.01652745772149938
BMu96,P55,CTR,INI,Weight_Unconstrained,1,R_LES,FM,M3,0.01556699355981292
BMu96,P55,CTR,REL,Weight_Unconstrained,1,R_LES,FM,M1,0.0175530218630208
BMu96,P55,CTR,REL,Weight_Unconstrained,1,R_LES,FM,M2,0.018735363208796003
BMu96,P55,CTR,REL,Weight_Unconstrained,1,R_LES,FM,M3,0.018885607746036988
BMu96,P56,CTR,INI,Weight_Unconstrained,1,L_LES,FM,M1,0.024309110536472292
BMu96,P56,CTR,INI,Weight_Unconstrained,1,L_LES,FM,M2,0.023198610048616022
BMu96,P56,CTR,INI,Weight_Unconstrained,1,L_LES,FM,M3,0.02523634712128036
BMu96,P56,CTR,INI,Weight_Unconstrained,1,R_LES,FM,M1,0.022068599319965607
BMu96,P56,CTR,INI,Weight_Unconstrained,1,R_LES,FM,M2,0.022069674924884937
BMu96,P56,CTR,INI,Weight_Unconstrained,1,R_LES,FM,M3,0.021239193269380938
BMu96,P56,CTR,REL,Weight_Unconstrained,1,L_LES,FM,M1,0.025425020873390394
BMu96,P56,CTR,REL,Weight_Unconstrained,1,L_LES,FM,M2,0.027006284885350625
BMu96,P56,CTR,REL,Weight_Unconstrained,1,L_LES,FM,M3,0.026560451982854425
BMu96,P56,CTR,REL,Weight_Unconstrained,1,R_LES,FM,M1,0.022294170102185585
BMu96,P56,CTR,REL,Weight_Unconstrained,1,R_LES,FM,M2,0.02314577652936395
BMu96,P56,CTR,REL,Weight_Unconstrained,1,R_LES,FM,M3,0.021883796396264896
BMu96,P57,CTR,INI,Weight_Unconstrained,1,R_LES,FM,M1,0.00784625326877327
BMu96,P57,CTR,INI,Weight_Unconstrained,1,R_LES,FM,M2,0.008773832027877446
BMu96,P57,CTR,INI,Weight_Unconstrained,1,R_LES,FM,M3,0.009176390956947583
BMu96,P57,CTR,REL,Weight_Unconstrained,1,R_LES,FM,M1,0.010740049563416385
BMu96,P57,CTR,REL,Weight_Unconstrained,1,R_LES,FM,M2,0.01151438647632556
BMu96,P57,CTR,REL,Weight_Unconstrained,1,R_LES,FM,M3,0.011516019674611522
BMu96,P58,PAT,INI,Weight_Unconstrained,1,L_LES,FM,M1,0.008723084918375524
BMu96,P58,PAT,INI,Weight_Unconstrained,1,L_LES,FM,M2,0.010777680348479451
BMu96,P58,PAT,INI,Weight_Unconstrained,1,L_LES,FM,M3,0.011192468361386645
BMu96,P58,PAT,INI,Weight_Unconstrained,1,R_LES,FM,M1,0.010340883113320029
BMu96,P58,PAT,INI,Weight_Unconstrained,1,R_LES,FM,M2,0.012811876570272232
BMu96,P58,PAT,INI,Weight_Unconstrained,1,R_LES,FM,M3,0.01351354694833779
BMu96,P58,PAT,REL,Weight_Unconstrained,1,R_LES,FM,M1,0.01409035310598428
BMu96,P58,PAT,REL,Weight_Unconstrained,1,R_LES,FM,M2,0.01786189895248228
BMu96,P58,PAT,REL,Weight_Unconstrained,1,R_LES,FM,M3,0.017274335098193167
BMu96,P60,CTR,INI,Weight_Unconstrained,1,L_LES,FM,M1,0.021404595581531616
BMu96,P60,CTR,INI,Weight_Unconstrained,1,R_LES,FM,M1,0.015312361229479219
BMu96,P60,CTR,REL,Weight_Unconstrained,1,L_LES,FM,M1,0.027466560379287384
BMu96,P60,CTR,REL,Weight_Unconstrained,1,L_LES,FM,M2,0.02601451148237848
BMu96,P60,CTR,REL,Weight_Unconstrained,1,L_LES,FM,M3,0.026606484398170576
BMu96,P61,PAT,INI,Weight_Unconstrained,1,L_LES,FM,M1,0.03208209678825109
BMu96,P61,PAT,INI,Weight_Unconstrained,1,L_LES,FM,M2,0.03131803012850276
BMu96,P61,PAT,INI,Weight_Unconstrained,1,L_LES,FM,M3,0.03221969870626347
BMu96,P61,PAT,INI,Weight_Unconstrained,1,R_LES,FM,M1,0.02309355514810793
BMu96,P61,PAT,INI,Weight_Unconstrained,1,R_LES,FM,M2,0.022264023657274666
BMu96,P61,PAT,INI,Weight_Unconstrained,1,R_LES,FM,M3,0.02450691593667574
BMu96,P61,PAT,REL,Weight_Unconstrained,1,L_LES,FM,M1,0.03863179127549167
BMu96,P61,PAT,REL,Weight_Unconstrained,1,L_LES,FM,M2,0.03567631479374876
BMu96,P61,PAT,REL,Weight_Unconstrained,1,L_LES,FM,M3,0.03665239058191891
BMu96,P61,PAT,REL,Weight_Unconstrained,1,R_LES,FM,M1,0.01881267232002278
BMu96,P61,PAT,REL,Weight_Unconstrained,1,R_LES,FM,M2,0.019356412249745505
BMu96,P61,PAT,REL,Weight_Unconstrained,1,R_LES,FM,M3,0.01971397368213171
BMu96,P62,PAT,INI,Weight_Unconstrained,1,R_LES,FM,M1,0.01529758224886699
BMu96,P62,PAT,INI,Weight_Unconstrained,1,R_LES,FM,M2,0.014553537845864398
BMu96,P62,PAT,INI,Weight_Unconstrained,1,R_LES,FM,M3,0.013770750050854862
BMu96,P62,PAT,INI,Weight_Unconstrained,1,R_LES,FM,M4,0.013001308775736253
BMu96,P62,PAT,REL,Weight_Unconstrained,1,L_LES,FM,M1,0.020853127417882176
BMu96,P62,PAT,REL,Weight_Unconstrained,1,L_LES,FM,M2,0.021418317734105227
BMu96,P62,PAT,REL,Weight_Unconstrained,1,L_LES,FM,M3,0.02220334603804139
BMu96,P62,PAT,REL,Weight_Unconstrained,1,R_LES,FM,M1,0.01377805644006252
BMu96,P62,PAT,REL,Weight_Unconstrained,1,R_LES,FM,M2,0.013429736971059373
BMu96,P62,PAT,REL,Weight_Unconstrained,1,R_LES,FM,M3,0.01385710025868754
BMu96,P63,PAT,INI,Weight_Unconstrained,1,R_LES,FM,M1,0.033134625715652025
BMu96,P63,PAT,INI,Weight_Unconstrained,1,R_LES,FM,M2,0.03159490205804738
BMu96,P63,PAT,INI,Weight_Unconstrained,1,R_LES,FM,M3,0.02321040147386822
BMu96,P63,PAT,REL,Weight_Unconstrained,1,L_LES,FM,M1,0.029790213850482014
BMu96,P63,PAT,REL,Weight_Unconstrained,1,L_LES,FM,M2,0.029048618456509592
BMu96,P63,PAT,REL,Weight_Unconstrained,1,L_LES,FM,M3,0.02900328240495246
BMu96,P63,PAT,REL,Weight_Unconstrained,1,R_LES,FM,M1,0.02430175271995027
BMu96,P63,PAT,REL,Weight_Unconstrained,1,R_LES,FM,M2,0.024220826214777814
BMu96,P63,PAT,REL,Weight_Unconstrained,1,R_LES,FM,M3,0.024241962763814094
BMu96,P64,CTR,INI,Weight_Unconstrained,1,L_LES,FM,M1,0.02551712608568185
BMu96,P64,CTR,INI,Weight_Unconstrained,1,L_LES,FM,M2,0.025875085175222502
BMu96,P64,CTR,INI,Weight_Unconstrained,1,L_LES,FM,M3,0.02632460951002132
BMu96,P64,CTR,INI,Weight_Unconstrained,1,R_LES,FM,M1,0.034402618480387066
BMu96,P64,CTR,INI,Weight_Unconstrained,1,R_LES,FM,M2,0.03401828318553267
BMu96,P64,CTR,INI,Weight_Unconstrained,1,R_LES,FM,M3,0.034854093579507466
BMu96,P64,CTR,REL,Weight_Unconstrained,1,L_LES,FM,M1,0.02780860363556012
BMu96,P64,CTR,REL,Weight_Unconstrained,1,L_LES,FM,M2,0.027864849202802133
BMu96,P64,CTR,REL,Weight_Unconstrained,1,L_LES,FM,M3,0.030052091029554657
BMu96,P64,CTR,REL,Weight_Unconstrained,1,R_LES,FM,M1,0.03322818429220827
BMu96,P64,CTR,REL,Weight_Unconstrained,1,R_LES,FM,M2,0.03851183014650647
BMu96,P64,CTR,REL,Weight_Unconstrained,1,R_LES,FM,M3,0.03960428480048799
BMu96,P65,PAT,INI,Weight_Unconstrained,1,L_LES,FM,M1,
BMu96,P65,PAT,INI,Weight_Unconstrained,1,L_LES,FM,M2,0.03074864061351807
BMu96,P65,PAT,INI,Weight_Unconstrained,1,L_LES,FM,M3,0.035913464241330115
BMu96,P65,PAT,INI,Weight_Unconstrained,1,L_LES,FM,M4,0.03955320677173442
BMu96,P65,PAT,INI,Weight_Unconstrained,1,R_LES,FM,M1,
BMu96,P65,PAT,INI,Weight_Unconstrained,1,R_LES,FM,M2,0.024098235430666706
BMu96,P65,PAT,INI,Weight_Unconstrained,1,R_LES,FM,M3,0.02791916587406098
BMu96,P65,PAT,INI,Weight_Unconstrained,1,R_LES,FM,M4,0.030577130985607028
BMu96,P65,PAT,REL,Weight_Unconstrained,1,L_LES,FM,M1,0.0343836711972503
BMu96,P65,PAT,REL,Weight_Unconstrained,1,L_LES,FM,M2,0.03635562695469991
BMu96,P65,PAT,REL,Weight_Unconstrained,1,L_LES,FM,M3,0.036711164392000104
BMu96,P65,PAT,REL,Weight_Unconstrained,1,R_LES,FM,M1,0.028807558793442788
BMu96,P65,PAT,REL,Weight_Unconstrained,1,R_LES,FM,M2,0.03141502341748259
BMu96,P65,PAT,REL,Weight_Unconstrained,1,R_LES,FM,M3,0.030937746658719383
BMu96,P66,CTR,INI,Weight_Unconstrained,1,L_LES,FM,M1,0.022722196160836886
BMu96,P66,CTR,INI,Weight_Unconstrained,1,L_LES,FM,M2,0.022247400162291327
BMu96,P66,CTR,INI,Weight_Unconstrained,1,L_LES,FM,M3,0.02436188330181917
BMu96,P66,CTR,INI,Weight_Unconstrained,1,R_LES,FM,M1,0.019831791517572264
BMu96,P66,CTR,INI,Weight_Unconstrained,1,R_LES,FM,M2,0.020093800564248428
BMu96,P66,CTR,INI,Weight_Unconstrained,1,R_LES,FM,M3,0.021100302511709933
BMu96,P66,CTR,REL,Weight_Unconstrained,1,L_LES,FM,M1,0.026268913061446117
BMu96,P66,CTR,REL,Weight_Unconstrained,1,L_LES,FM,M2,0.026067657170341065
BMu96,P66,CTR,REL,Weight_Unconstrained,1,L_LES,FM,M3,0.028298772492762556
BMu96,P66,CTR,REL,Weight_Unconstrained,1,R_LES,FM,M1,0.02356482621433356
BMu96,P66,CTR,REL,Weight_Unconstrained,1,R_LES,FM,M2,0.022067517370419912
BMu96,P66,CTR,REL,Weight_Unconstrained,1,R_LES,FM,M3,0.023638932741367094
BMu96,P67,CTR,INI,Weight_Unconstrained,1,R_LES,FM,M1,0.053607557635775425
BMu96,P67,CTR,INI,Weight_Unconstrained,1,R_LES,FM,M2,0.05626356690095535
BMu96,P67,CTR,INI,Weight_Unconstrained,1,R_LES,FM,M3,0.04817784143019688
BMu96,P68,CTR,INI,Weight_Unconstrained,1,R_LES,FM,M1,0.03849294221533553
BMu96,P68,CTR,INI,Weight_Unconstrained,1,R_LES,FM,M2,0.03837588171498317
BMu96,P68,CTR,INI,Weight_Unconstrained,1,R_LES,FM,M3,0.039229490646006115
BMu96,P68,CTR,REL,Weight_Unconstrained,1,L_LES,FM,M1,0.033375971111324454
BMu96,P68,CTR,REL,Weight_Unconstrained,1,L_LES,FM,M2,0.033453032403289694
BMu96,P68,CTR,REL,Weight_Unconstrained,1,L_LES,FM,M3,0.036751681442286965
BMu96,P68,CTR,REL,Weight_Unconstrained,1,R_LES,FM,M1,0.034034907931576
BMu96,P68,CTR,REL,Weight_Unconstrained,1,R_LES,FM,M2,0.034261059443950324
BMu96,P68,CTR,REL,Weight_Unconstrained,1,R_LES,FM,M3,0.04255370902026301
