BMu,Participant,Group,Session,task,trials,channel,Operator,Measure,Value
BMu96,P01,CTR,INI,Weight_Unconstrained,1,L_LES,FM,M1,0.47937855254959294
BMu96,P01,CTR,INI,Weight_Unconstrained,1,L_LES,FM,M2,0.5044238995350169
BMu96,P01,CTR,INI,Weight_Unconstrained,1,L_LES,FM,M3,0.4833658541920796
BMu96,P01,CTR,INI,Weight_Unconstrained,1,R_LES,FM,M1,0.8150066603100101
BMu96,P01,CTR,INI,Weight_Unconstrained,1,R_LES,FM,M2,0.7924983077116617
BMu96,P01,CTR,INI,Weight_Unconstrained,1,R_LES,FM,M3,0.8539074292746563
BMu96,P01,CTR,REL,Weight_Unconstrained,1,L_LES,FM,M1,0.31185857646672405
BMu96,P01,CTR,REL,Weight_Unconstrained,1,L_LES,FM,M2,0.282841521245107
BMu96,P01,CTR,REL,Weight_Unconstrained,1,L_LES,FM,M3,0.3088395383573444
BMu96,P01,CTR,REL,Weight_Unconstrained,1,R_LES,FM,M1,2.0439457255398206
BMu96,P01,CTR,REL,Weight_Unconstrained,1,R_LES,FM,M2,1.9206715628111415
BMu96,P01,CTR,REL,Weight_Unconstrained,1,R_LES,FM,M3,1.777052401147983
BMu96,P02,CTR,INI,Weight_Unconstrained,1,L_LES,FM,M1,0.4317151448541275
BMu96,P02,CTR,INI,Weight_Unconstrained,1,L_LES,FM,M2,0.443497761436837
BMu96,P02,CTR,INI,Weight_Unconstrained,1,L_LES,FM,M3,0.4416357280892168
BMu96,P02,CTR,INI,Weight_Unconstrained,1,R_LES,FM,M1,0.5727050467630224
BMu96,P02,CTR,INI,Weight_Unconstrained,1,R_LES,FM,M2,0.5796012099884074
BMu96,P02,CTR,INI,Weight_Unconstrained,1,R_LES,FM,M3,0.5495223070573471
BMu96,P02,CTR,REL,Weight_Unconstrained,1,L_LES,FM,M1,0.45417621567126915
BMu96,P02,CTR,REL,Weight_Unconstrained,1,L_LES,FM,M2,0.6081999762498035
BMu96,P02,CTR,REL,Weight_Unconstrained,1,L_LES,FM,M3,0.65914286680375
BMu96,P02,CTR,REL,Weight_Unconstrained,1,R_LES,FM,M1,0.4789696312400089
BMu96,P02,CTR,REL,Weight_Unconstrained,1,R_LES,FM,M2,0.5175810369292737
BMu96,P02,CTR,REL,Weight_Unconstrained,1,R_LES,FM,M3,0.5163969135570393
BMu96,P03,CTR,INI,Weight_Unconstrained,1,L_LES,FM,M1,0.4548298721797977
BMu96,P03,CTR,INI,Weight_Unconstrained,1,L_LES,FM,M2,0.4917744456221526
BMu96,P03,CTR,INI,Weight_Unconstrained,1,L_LES,FM,M3,0.49421620589663134
BMu96,P03,CTR,INI,Weight_Unconstrained,1,R_LES,FM,M1,0.5084121746798606
BMu96,P03,CTR,INI,Weight_Unconstrained,1,R_LES,FM,M2,0.5260811764684501
BMu96,P03,CTR,INI,Weight_Unconstrained,1,R_LES,FM,M3,0.5535538336570165
BMu96,P03,CTR,REL,Weight_Unconstrained,1,L_LES,FM,M1,3.798172687879265
BMu96,P03,CTR,REL,Weight_Unconstrained,1,L_LES,FM,M2,3.931540881553221
BMu96,P03,CTR,REL,Weight_Unconstrained,1,L_LES,FM,M3,4.030778448038491
BMu96,P03,CTR,REL,Weight_Unconstrained,1,R_LES,FM,M1,0.6067801443205684
BMu96,P03,CTR,REL,Weight_Unconstrained,1,R_LES,FM,M2,0.597385297242609
BMu96,P03,CTR,REL,Weight_Unconstrained,1,R_LES,FM,M3,0.6826054897001538
BMu96,P05,CTR,INI,Weight_Unconstrained,1,L_LES,FM,M1,0.2509086691936496
BMu96,P05,CTR,INI,Weight_Unconstrained,1,L_LES,FM,M2,0.25951924744256416
BMu96,P05,CTR,INI,Weight_Unconstrained,1,L_LES,FM,M3,0.2591819156023049
BMu96,P05,CTR,INI,Weight_Unconstrained,1,R_LES,FM,M1,0.25812542306597525
BMu96,P05,CTR,INI,Weight_Unconstrained,1,R_LES,FM,M2,0.2917358770907193
BMu96,P05,CTR,INI,Weight_Unconstrained,1,R_LES,FM,M3,0.33223744144544454
BMu96,P05,CTR,REL,Weight_Unconstrained,1,L_LES,FM,M1,0.3885266920362301
BMu96,P05,CTR,REL,Weight_Unconstrained,1,L_LES,FM,M2,0.3292121030831654
BMu96,P05,CTR,REL,Weight_Unconstrained,1,L_LES,FM,M3,0.3451190295776229
BMu96,P05,CTR,REL,Weight_Unconstrained,1,L_LES,FM,M4,0.38905552407881494
BMu96,P05,CTR,REL,Weight_Unconstrained,1,R_LES,FM,M1,0.31659778330175614
BMu96,P05,CTR,REL,Weight_Unconstrained,1,R_LES,FM,M2,0.28645415644732064
BMu96,P05,CTR,REL,Weight_Unconstrained,1,R_LES,FM,M3,0.3164344213760857
BMu96,P05,CTR,REL,Weight_Unconstrained,1,R_LES,FM,M4,0.3389322794161282
BMu96,P06,CTR,INI,Weight_Unconstrained,1,L_LES,FM,M1,1.1317380219626467
BMu96,P06,CTR,INI,Weight_Unconstrained,1,L_LES,FM,M2,1.1806663269392277
BMu96,P06,CTR,INI,Weight_Unconstrained,1,L_LES,FM,M3,1.246186299285622
BMu96,P06,CTR,INI,Weight_Unconstrained,1,R_LES,FM,M1,0.9670667452968699
BMu96,P06,CTR,INI,Weight_Unconstrained,1,R_LES,FM,M2,1.0570816793742188
BMu96,P06,CTR,INI,Weight_Unconstrained,1,R_LES,FM,M3,1.1073926413772859
BMu96,P06,CTR,REL,Weight_Unconstrained,1,L_LES,FM,M1,0.5530457051487043
BMu96,P06,CTR,REL,Weight_Unconstrained,1,L_LES,FM,M2,0.5747193714053024
BMu96,P06,CTR,REL,Weight_Unconstrained,1,L_LES,FM,M3,0.6027734001815874
BMu96,P06,CTR,REL,Weight_Unconstrained,1,R_LES,FM,M1,0.5737480475122533
BMu96,P06,CTR,REL,Weight_Unconstrained,1,R_LES,FM,M2,0.5808353663687762
BMu96,P06,CTR,REL,Weight_Unconstrained,1,R_LES,FM,M3,0.5997477872351776
BMu96,P07,CTR,INI,Weight_Unconstrained,1,L_LES,FM,M1,1.2218583699369825
BMu96,P07,CTR,INI,Weight_Unconstrained,1,L_LES,FM,M2,1.0686801918330655
BMu96,P07,CTR,INI,Weight_Unconstrained,1,L_LES,FM,M3,0.8880411774616352
BMu96,P07,CTR,INI,Weight_Unconstrained,1,R_LES,FM,M1,0.9813416726570744
BMu96,P07,CTR,INI,Weight_Unconstrained,1,R_LES,FM,M2,0.9722460342014715
BMu96,P07,CTR,INI,Weight_Unconstrained,1,R_LES,FM,M3,1.0231470024392675
BMu96,P07,CTR,REL,Weight_Unconstrained,1,L_LES,FM,M1,0.6460338631463917
BMu96,P07,CTR,REL,Weight_Unconstrained,1,L_LES,FM,M2,0.671373115942449
BMu96,P07,CTR,REL,Weight_Unconstrained,1,L_LES,FM,M3,0.6935950364505912
BMu96,P07,CTR,REL,Weight_Unconstrained,1,R_LES,FM,M1,0.8690158421127175
BMu96,P07,CTR,REL,Weight_Unconstrained,1,R_LES,FM,M2,0.838391440184865
BMu96,P07,CTR,REL,Weight_Unconstrained,1,R_LES,FM,M3,0.9007996332645902
BMu96,P08,CTR,INI,Weight_Unconstrained,1,L_LES,FM,M1,0.4872116773571187
BMu96,P08,CTR,INI,Weight_Unconstrained,1,L_LES,FM,M2,0.3657806759856442
BMu96,P08,CTR,INI,Weight_Unconstrained,1,L_LES,FM,M3,0.4608001421907319
BMu96,P08,CTR,INI,Weight_Unconstrained,1,R_LES,FM,M1,0.434676879523644
BMu96,P08,CTR,INI,Weight_Unconstrained,1,R_LES,FM,M2,0.44011856398896665
BMu96,P08,CTR,INI,Weight_Unconstrained,1,R_LES,FM,M3,0.4113126914122608
BMu96,P08,CTR,REL,Weight_Unconstrained,1,L_LES,FM,M1,0.7219317588770531
BMu96,P08,CTR,REL,Weight_Unconstrained,1,L_LES,FM,M2,0.08160022643776996
BMu96,P08,CTR,REL,Weight_Unconstrained,1,L_LES,FM,M3,0.7136395019292772
BMu96,P08,CTR,REL,Weight_Unconstrained,1,R_LES,FM,M1,0.6959375781666355
BMu96,P08,CTR,REL,Weight_Unconstrained,1,R_LES,FM,M2,0.08778872599933413
BMu96,P08,CTR,REL,Weight_Unconstrained,1,R_LES,FM,M3,0.794503760093326
BMu96,P09,PAT,INI,Weight_Unconstrained,1,L_LES,FM,M1,0.6487713962584729
BMu96,P09,PAT,INI,Weight_Unconstrained,1,L_LES,FM,M2,0.7321497965856445
BMu96,P09,PAT,INI,Weight_Unconstrained,1,L_LES,FM,M3,0.7852306837173143
BMu96,P09,PAT,INI,Weight_Unconstrained,1,R_LES,FM,M1,0.5535616396275077
BMu96,P09,PAT,INI,Weight_Unconstrained,1,R_LES,FM,M2,0.6373681562711527
BMu96,P09,PAT,INI,Weight_Unconstrained,1,R_LES,FM,M3,0.6860103946116572
BMu96,P09,PAT,REL,Weight_Unconstrained,1,L_LES,FM,M1,0.39641837934415863
BMu96,P09,PAT,REL,Weight_Unconstrained,1,L_LES,FM,M2,0.4564428013947392
BMu96,P09,PAT,REL,Weight_Unconstrained,1,L_LES,FM,M3,0.5066670911240105
BMu96,P09,PAT,REL,Weight_Unconstrained,1,L_LES,FM,M4,0.5095395875744544
BMu96,P09,PAT,REL,Weight_Unconstrained,1,L_LES,FM,M5,0.5201280109201899
BMu96,P09,PAT,REL,Weight_Unconstrained,1,R_LES,FM,M1,0.3382445121998047
BMu96,P09,PAT,REL,Weight_Unconstrained,1,R_LES,FM,M2,0.3080677182937318
BMu96,P09,PAT,REL,Weight_Unconstrained,1,R_LES,FM,M3,0.4032088535222703
BMu96,P09,PAT,REL,Weight_Unconstrained,1,R_LES,FM,M4,0.40925875277800267
BMu96,P09,PAT,REL,Weight_Unconstrained,1,R_LES,FM,M5,0.4476714086154516
BMu96,P10,PAT,INI,Weight_Unconstrained,1,L_LES,FM,M1,0.44448083309099246
BMu96,P10,PAT,INI,Weight_Unconstrained,1,L_LES,FM,M2,0.3869725525190668
BMu96,P10,PAT,INI,Weight_Unconstrained,1,L_LES,FM,M3,0.48525937364175387
BMu96,P10,PAT,INI,Weight_Unconstrained,1,R_LES,FM,M1,0.46242618279493075
BMu96,P10,PAT,INI,Weight_Unconstrained,1,R_LES,FM,M2,0.5228030704780794
BMu96,P10,PAT,INI,Weight_Unconstrained,1,R_LES,FM,M3,0.5010487668803982
BMu96,P10,PAT,REL,Weight_Unconstrained,1,L_LES,FM,M1,0.3383435349277137
BMu96,P10,PAT,REL,Weight_Unconstrained,1,L_LES,FM,M2,0.4047305263496611
BMu96,P10,PAT,REL,Weight_Unconstrained,1,L_LES,FM,M3,0.37378897710013825
BMu96,P10,PAT,REL,Weight_Unconstrained,1,R_LES,FM,M1,0.5755950763246157
BMu96,P10,PAT,REL,Weight_Unconstrained,1,R_LES,FM,M2,0.5202095395181012
BMu96,P10,PAT,REL,Weight_Unconstrained,1,R_LES,FM,M3,0.4834477053507567
BMu96,P11,PAT,INI,Weight_Unconstrained,1,L_LES,FM,M1,0.3685003360882902
BMu96,P11,PAT,INI,Weight_Unconstrained,1,L_LES,FM,M2,0.3331754439978889
BMu96,P11,PAT,INI,Weight_Unconstrained,1,L_LES,FM,M3,0.3587476040242455
BMu96,P11,PAT,INI,Weight_Unconstrained,1,R_LES,FM,M1,0.42608747849981565
BMu96,P11,PAT,INI,Weight_Unconstrained,1,R_LES,FM,M2,0.3732250364761615
BMu96,P11,PAT,INI,Weight_Unconstrained,1,R_LES,FM,M3,0.3919517103327202
BMu96,P11,PAT,REL,Weight_Unconstrained,1,L_LES,FM,M1,0.5518223979499157
BMu96,P11,PAT,REL,Weight_Unconstrained,1,L_LES,FM,M2,0.4701094817903482
BMu96,P11,PAT,REL,Weight_Unconstrained,1,L_LES,FM,M3,0.46923304730010196
BMu96,P11,PAT,REL,Weight_Unconstrained,1,R_LES,FM,M1,0.662707720099334
BMu96,P11,PAT,REL,Weight_Unconstrained,1,R_LES,FM,M2,0.5530121864076736
BMu96,P11,PAT,REL,Weight_Unconstrained,1,R_LES,FM,M3,0.5180263081247137
BMu96,P12,PAT,INI,Weight_Unconstrained,1,L_LES,FM,M1,0.8447434485606765
BMu96,P12,PAT,INI,Weight_Unconstrained,1,L_LES,FM,M2,0.8293716519748643
BMu96,P12,PAT,INI,Weight_Unconstrained,1,L_LES,FM,M3,0.9159323498401818
BMu96,P12,PAT,INI,Weight_Unconstrained,1,R_LES,FM,M1,0.8779731638771616
BMu96,P12,PAT,INI,Weight_Unconstrained,1,R_LES,FM,M2,0.765130855244322
BMu96,P12,PAT,INI,Weight_Unconstrained,1,R_LES,FM,M3,0.8515055909574691
BMu96,P12,PAT,REL,Weight_Unconstrained,1,L_LES,FM,M1,0.746693802487339
BMu96,P12,PAT,REL,Weight_Unconstrained,1,L_LES,FM,M2,0.8068851046316754
BMu96,P12,PAT,REL,Weight_Unconstrained,1,L_LES,FM,M3,0.6969717679915652
BMu96,P12,PAT,REL,Weight_Unconstrained,1,R_LES,FM,M1,0.7104983183368552
BMu96,P12,PAT,REL,Weight_Unconstrained,1,R_LES,FM,M2,0.7577696552511077
BMu96,P12,PAT,REL,Weight_Unconstrained,1,R_LES,FM,M3,0.6373475881327848
BMu96,P13,CTR,INI,Weight_Unconstrained,1,L_LES,FM,M1,0.729961742274819
BMu96,P13,CTR,INI,Weight_Unconstrained,1,L_LES,FM,M2,0.6427550878206142
BMu96,P13,CTR,INI,Weight_Unconstrained,1,L_LES,FM,M3,0.6845872465378192
BMu96,P13,CTR,INI,Weight_Unconstrained,1,R_LES,FM,M1,0.6984558614037546
BMu96,P13,CTR,INI,Weight_Unconstrained,1,R_LES,FM,M2,0.6384657590986554
BMu96,P13,CTR,INI,Weight_Unconstrained,1,R_LES,FM,M3,0.6872428580680136
BMu96,P13,CTR,REL,Weight_Unconstrained,1,L_LES,FM,M1,0.7300381974490613
BMu96,P13,CTR,REL,Weight_Unconstrained,1,L_LES,FM,M2,0.7079358681195939
BMu96,P13,CTR,REL,Weight_Unconstrained,1,L_LES,FM,M3,0.7193458038184044
BMu96,P13,CTR,REL,Weight_Unconstrained,1,R_LES,FM,M1,0.7725710576062612
BMu96,P13,CTR,REL,Weight_Unconstrained,1,R_LES,FM,M2,0.6979017075423355
BMu96,P13,CTR,REL,Weight_Unconstrained,1,R_LES,FM,M3,0.7856094663870387
BMu96,P14,PAT,INI,Weight_Unconstrained,1,L_LES,FM,M1,0.4615305777007971
BMu96,P14,PAT,INI,Weight_Unconstrained,1,L_LES,FM,M2,0.5119615479908243
BMu96,P14,PAT,INI,Weight_Unconstrained,1,L_LES,FM,M3,0.4620229287175489
BMu96,P14,PAT,INI,Weight_Unconstrained,1,R_LES,FM,M1,0.40447912352812426
BMu96,P14,PAT,INI,Weight_Unconstrained,1,R_LES,FM,M2,0.425834915432535
BMu96,P14,PAT,INI,Weight_Unconstrained,1,R_LES,FM,M3,0.37964825223353005
BMu96,P14,PAT,REL,Weight_Unconstrained,1,L_LES,FM,M1,1.281991280573374
BMu96,P14,PAT,REL,Weight_Unconstrained,1,L_LES,FM,M2,2.2544113066444367
BMu96,P14,PAT,REL,Weight_Unconstrained,1,L_LES,FM,M3,0.8210045596643983
BMu96,P14,PAT,REL,Weight_Unconstrained,1,R_LES,FM,M1,0.4964860531198102
BMu96,P14,PAT,REL,Weight_Unconstrained,1,R_LES,FM,M2,0.4146896154647696
BMu96,P14,PAT,REL,Weight_Unconstrained,1,R_LES,FM,M3,0.430503945993749
BMu96,P16,CTR,INI,Weight_Unconstrained,1,L_LES,FM,M1,0.6348513050764064
BMu96,P16,CTR,INI,Weight_Unconstrained,1,L_LES,FM,M2,0.5695297513464905
BMu96,P16,CTR,INI,Weight_Unconstrained,1,L_LES,FM,M3,0.6353745469957441
BMu96,P16,CTR,INI,Weight_Unconstrained,1,R_LES,FM,M1,0.7422215919442697
BMu96,P16,CTR,INI,Weight_Unconstrained,1,R_LES,FM,M2,0.5920985509947913
BMu96,P16,CTR,INI,Weight_Unconstrained,1,R_LES,FM,M3,0.6602812584438957
BMu96,P16,CTR,REL,Weight_Unconstrained,1,L_LES,FM,M1,0.5928926770229812
BMu96,P16,CTR,REL,Weight_Unconstrained,1,L_LES,FM,M2,0.5319906993578623
BMu96,P16,CTR,REL,Weight_Unconstrained,1,L_LES,FM,M3,0.5864657582856875
BMu96,P16,CTR,REL,Weight_Unconstrained,1,R_LES,FM,M1,0.5639793675396313
BMu96,P16,CTR,REL,Weight_Unconstrained,1,R_LES,FM,M2,0.54326798356328
BMu96,P16,CTR,REL,Weight_Unconstrained,1,R_LES,FM,M3,0.5602891473486724
BMu96,P17,PAT,INI,Weight_Unconstrained,1,L_LES,FM,M1,0.6198469097673048
BMu96,P17,PAT,INI,Weight_Unconstrained,1,L_LES,FM,M2,0.6817719474593222
BMu96,P17,PAT,INI,Weight_Unconstrained,1,L_LES,FM,M3,0.7186690786775399
BMu96,P17,PAT,INI,Weight_Unconstrained,1,R_LES,FM,M1,0.1737365486107403
BMu96,P17,PAT,INI,Weight_Unconstrained,1,R_LES,FM,M2,0.18014763527910171
BMu96,P17,PAT,INI,Weight_Unconstrained,1,R_LES,FM,M3,0.19294049594941112
BMu96,P17,PAT,REL,Weight_Unconstrained,1,L_LES,FM,M1,0.5588629462984291
BMu96,P17,PAT,REL,Weight_Unconstrained,1,L_LES,FM,M2,0.553479727787204
BMu96,P17,PAT,REL,Weight_Unconstrained,1,L_LES,FM,M3,0.5838816067439234
BMu96,P17,PAT,REL,Weight_Unconstrained,1,R_LES,FM,M1,0.5567287385621085
BMu96,P17,PAT,REL,Weight_Unconstrained,1,R_LES,FM,M2,0.5472916258325521
BMu96,P17,PAT,REL,Weight_Unconstrained,1,R_LES,FM,M3,0.5916109449916738
BMu96,P21,CTR,INI,Weight_Unconstrained,1,L_LES,FM,M1,0.5990527003475321
BMu96,P21,CTR,INI,Weight_Unconstrained,1,L_LES,FM,M2,0.7220504230540385
BMu96,P21,CTR,INI,Weight_Unconstrained,1,L_LES,FM,M3,0.7331752794727279
BMu96,P21,CTR,INI,Weight_Unconstrained,1,R_LES,FM,M1,0.5928174725286518
BMu96,P21,CTR,INI,Weight_Unconstrained,1,R_LES,FM,M2,0.6194008630133153
BMu96,P21,CTR,INI,Weight_Unconstrained,1,R_LES,FM,M3,0.5729732227247262
BMu96,P21,CTR,REL,Weight_Unconstrained,1,L_LES,FM,M1,1.4872847920084311
BMu96,P21,CTR,REL,Weight_Unconstrained,1,L_LES,FM,M2,2.8975421831054518
BMu96,P21,CTR,REL,Weight_Unconstrained,1,L_LES,FM,M3,5.202730147314937
BMu96,P21,CTR,REL,Weight_Unconstrained,1,L_LES,FM,M4,3.5515835666315465
BMu96,P21,CTR,REL,Weight_Unconstrained,1,R_LES,FM,M1,0.7940351231396515
BMu96,P21,CTR,REL,Weight_Unconstrained,1,R_LES,FM,M2,0.8787575267510458
BMu96,P21,CTR,REL,Weight_Unconstrained,1,R_LES,FM,M3,1.0572870466296322
BMu96,P21,CTR,REL,Weight_Unconstrained,1,R_LES,FM,M4,1.07067038035817
BMu96,P22,CTR,INI,Weight_Unconstrained,1,L_LES,FM,M1,0.9464949158305632
BMu96,P22,CTR,INI,Weight_Unconstrained,1,L_LES,FM,M2,0.914500571127209
BMu96,P22,CTR,INI,Weight_Unconstrained,1,L_LES,FM,M3,0.9384226077817659
BMu96,P22,CTR,INI,Weight_Unconstrained,1,R_LES,FM,M1,0.7812329539014176
BMu96,P22,CTR,INI,Weight_Unconstrained,1,R_LES,FM,M2,0.7535413945246432
BMu96,P22,CTR,INI,Weight_Unconstrained,1,R_LES,FM,M3,0.753855948139498
BMu96,P22,CTR,REL,Weight_Unconstrained,1,L_LES,FM,M1,0.4259567783397217
BMu96,P22,CTR,REL,Weight_Unconstrained,1,L_LES,FM,M2,0.49437054275729986
BMu96,P22,CTR,REL,Weight_Unconstrained,1,R_LES,FM,M1,0.24013730382152867
BMu96,P22,CTR,REL,Weight_Unconstrained,1,R_LES,FM,M2,0.2596946703983383
BMu96,P23,CTR,INI,Weight_Unconstrained,1,L_LES,FM,M1,0.13625215009855582
BMu96,P23,CTR,INI,Weight_Unconstrained,1,L_LES,FM,M2,0.16766564337841283
BMu96,P23,CTR,INI,Weight_Unconstrained,1,L_LES,FM,M3,1.3938083855263579
BMu96,P23,CTR,INI,Weight_Unconstrained,1,R_LES,FM,M1,0.5137526078167961
BMu96,P23,CTR,INI,Weight_Unconstrained,1,R_LES,FM,M2,0.43755543257585566
BMu96,P23,CTR,INI,Weight_Unconstrained,1,R_LES,FM,M3,0.8993650929167485
BMu96,P23,CTR,REL,Weight_Unconstrained,1,L_LES,FM,M1,0.3873350265393799
BMu96,P23,CTR,REL,Weight_Unconstrained,1,L_LES,FM,M2,0.40476043362990805
BMu96,P23,CTR,REL,Weight_Unconstrained,1,L_LES,FM,M3,0.3860987577125014
BMu96,P23,CTR,REL,Weight_Unconstrained,1,R_LES,FM,M1,0.3948497859180631
BMu96,P23,CTR,REL,Weight_Unconstrained,1,R_LES,FM,M2,0.39081499500904304
BMu96,P23,CTR,REL,Weight_Unconstrained,1,R_LES,FM,M3,0.3503664115920637
BMu96,P24,PAT,INI,Weight_Unconstrained,1,L_LES,FM,M1,0.616612462702428
BMu96,P24,PAT,INI,Weight_Unconstrained,1,L_LES,FM,M2,0.6170384476590878
BMu96,P24,PAT,INI,Weight_Unconstrained,1,L_LES,FM,M3,0.5874446920557767
BMu96,P24,PAT,INI,Weight_Unconstrained,1,R_LES,FM,M1,0.6854323413102769
BMu96,P24,PAT,INI,Weight_Unconstrained,1,R_LES,FM,M2,0.7246052091393778
BMu96,P24,PAT,INI,Weight_Unconstrained,1,R_LES,FM,M3,0.6659500408373141
BMu96,P24,PAT,REL,Weight_Unconstrained,1,L_LES,FM,M1,0.5091877144308341
BMu96,P24,PAT,REL,Weight_Unconstrained,1,L_LES,FM,M2,0.5156458777394214
BMu96,P24,PAT,REL,Weight_Unconstrained,1,L_LES,FM,M3,1.3250207563851433
BMu96,P24,PAT,REL,Weight_Unconstrained,1,R_LES,FM,M1,0.20754863058927062
BMu96,P24,PAT,REL,Weight_Unconstrained,1,R_LES,FM,M2,0.18689945886790627
BMu96,P24,PAT,REL,Weight_Unconstrained,1,R_LES,FM,M3,0.23124466429977122
BMu96,P25,CTR,INI,Weight_Unconstrained,1,L_LES,FM,M1,0.4605044039859702
BMu96,P25,CTR,INI,Weight_Unconstrained,1,L_LES,FM,M2,0.4378881667128808
BMu96,P25,CTR,INI,Weight_Unconstrained,1,L_LES,FM,M3,0.4658744033601772
BMu96,P25,CTR,INI,Weight_Unconstrained,1,R_LES,FM,M1,0.3988628146915995
BMu96,P25,CTR,INI,Weight_Unconstrained,1,R_LES,FM,M2,0.4358593356188592
BMu96,P25,CTR,INI,Weight_Unconstrained,1,R_LES,FM,M3,0.44916249431259575
BMu96,P25,CTR,REL,Weight_Unconstrained,1,L_LES,FM,M1,0.4965592744213223
BMu96,P25,CTR,REL,Weight_Unconstrained,1,L_LES,FM,M2,0.44303564844718235
BMu96,P25,CTR,REL,Weight_Unconstrained,1,L_LES,FM,M3,0.4956064133522351
BMu96,P25,CTR,REL,Weight_Unconstrained,1,R_LES,FM,M1,0.38039075538891537
BMu96,P25,CTR,REL,Weight_Unconstrained,1,R_LES,FM,M2,0.39846978139228667
BMu96,P25,CTR,REL,Weight_Unconstrained,1,R_LES,FM,M3,0.39997577347533897
BMu96,P26,PAT,INI,Weight_Unconstrained,1,L_LES,FM,M1,0.6671230432565103
BMu96,P26,PAT,INI,Weight_Unconstrained,1,L_LES,FM,M2,0.7190749210593974
BMu96,P26,PAT,INI,Weight_Unconstrained,1,L_LES,FM,M3,0.733562694488055
BMu96,P26,PAT,INI,Weight_Unconstrained,1,R_LES,FM,M1,0.5428157155366459
BMu96,P26,PAT,INI,Weight_Unconstrained,1,R_LES,FM,M2,0.5646484749207703
BMu96,P26,PAT,INI,Weight_Unconstrained,1,R_LES,FM,M3,0.5637803892930411
BMu96,P26,PAT,REL,Weight_Unconstrained,1,L_LES,FM,M1,0.7065725636246373
BMu96,P26,PAT,REL,Weight_Unconstrained,1,L_LES,FM,M2,0.9299909097668664
BMu96,P26,PAT,REL,Weight_Unconstrained,1,L_LES,FM,M3,0.9492518946769146
BMu96,P26,PAT,REL,Weight_Unconstrained,1,R_LES,FM,M1,0.5877690619017527
BMu96,P26,PAT,REL,Weight_Unconstrained,1,R_LES,FM,M2,0.8010983838067486
BMu96,P26,PAT,REL,Weight_Unconstrained,1,R_LES,FM,M3,0.7474329908728847
BMu96,P27,PAT,INI,Weight_Unconstrained,1,L_LES,FM,M1,0.5076285585222753
BMu96,P27,PAT,INI,Weight_Unconstrained,1,L_LES,FM,M2,0.4375512547216053
BMu96,P27,PAT,INI,Weight_Unconstrained,1,L_LES,FM,M3,0.4696243263744691
BMu96,P27,PAT,INI,Weight_Unconstrained,1,R_LES,FM,M1,0.7325478971862707
BMu96,P27,PAT,INI,Weight_Unconstrained,1,R_LES,FM,M2,0.7024164500696114
BMu96,P27,PAT,INI,Weight_Unconstrained,1,R_LES,FM,M3,0.5888752251218553
BMu96,P27,PAT,REL,Weight_Unconstrained,1,L_LES,FM,M1,0.5345928923096442
BMu96,P27,PAT,REL,Weight_Unconstrained,1,L_LES,FM,M2,0.5345108015083301
BMu96,P27,PAT,REL,Weight_Unconstrained,1,L_LES,FM,M3,0.4869012052509172
BMu96,P27,PAT,REL,Weight_Unconstrained,1,R_LES,FM,M1,0.69045214338501
BMu96,P27,PAT,REL,Weight_Unconstrained,1,R_LES,FM,M2,0.6731661481467223
BMu96,P27,PAT,REL,Weight_Unconstrained,1,R_LES,FM,M3,0.5553057069077427
BMu96,P28,PAT,INI,Weight_Unconstrained,1,L_LES,FM,M1,0.5183889945403638
BMu96,P28,PAT,INI,Weight_Unconstrained,1,L_LES,FM,M2,0.634410209960943
BMu96,P28,PAT,INI,Weight_Unconstrained,1,L_LES,FM,M3,0.5685996671358859
BMu96,P28,PAT,INI,Weight_Unconstrained,1,R_LES,FM,M1,0.5840137406291743
BMu96,P28,PAT,INI,Weight_Unconstrained,1,R_LES,FM,M2,0.5890955490010685
BMu96,P28,PAT,INI,Weight_Unconstrained,1,R_LES,FM,M3,0.5718331093487015
BMu96,P28,PAT,REL,Weight_Unconstrained,1,L_LES,FM,M1,0.507016997027557
BMu96,P28,PAT,REL,Weight_Unconstrained,1,L_LES,FM,M2,0.4910353861160799
BMu96,P28,PAT,REL,Weight_Unconstrained,1,L_LES,FM,M3,0.5062526926175753
BMu96,P28,PAT,REL,Weight_Unconstrained,1,R_LES,FM,M1,0.5475610871438933
BMu96,P28,PAT,REL,Weight_Unconstrained,1,R_LES,FM,M2,0.5860454241401725
BMu96,P28,PAT,REL,Weight_Unconstrained,1,R_LES,FM,M3,0.5851268960711068
BMu96,P29,PAT,INI,Weight_Unconstrained,1,L_LES,FM,M1,0.3974076331902626
BMu96,P29,PAT,INI,Weight_Unconstrained,1,L_LES,FM,M2,0.4417525510874901
BMu96,P29,PAT,INI,Weight_Unconstrained,1,L_LES,FM,M3,
BMu96,P29,PAT,INI,Weight_Unconstrained,1,R_LES,FM,M1,0.5567520133557246
BMu96,P29,PAT,INI,Weight_Unconstrained,1,R_LES,FM,M2,0.5053819899325607
BMu96,P29,PAT,INI,Weight_Unconstrained,1,R_LES,FM,M3,
BMu96,P29,PAT,REL,Weight_Unconstrained,1,L_LES,FM,M1,0.711794754222926
BMu96,P29,PAT,REL,Weight_Unconstrained,1,L_LES,FM,M2,0.2986353164034387
BMu96,P29,PAT,REL,Weight_Unconstrained,1,L_LES,FM,M3,0.4087980960330348
BMu96,P29,PAT,REL,Weight_Unconstrained,1,R_LES,FM,M1,1.0471624186254405
BMu96,P29,PAT,REL,Weight_Unconstrained,1,R_LES,FM,M2,0.38690964743827133
BMu96,P29,PAT,REL,Weight_Unconstrained,1,R_LES,FM,M3,0.5224524689250174
BMu96,P30,PAT,INI,Weight_Unconstrained,1,L_LES,FM,M1,0.7331043172358598
BMu96,P30,PAT,INI,Weight_Unconstrained,1,L_LES,FM,M2,0.8366803182460745
BMu96,P30,PAT,INI,Weight_Unconstrained,1,L_LES,FM,M3,1.5268485950244877
BMu96,P30,PAT,INI,Weight_Unconstrained,1,R_LES,FM,M1,0.56767398784868
BMu96,P30,PAT,INI,Weight_Unconstrained,1,R_LES,FM,M2,0.5573816667910761
BMu96,P30,PAT,INI,Weight_Unconstrained,1,R_LES,FM,M3,0.5517370359528813
BMu96,P30,PAT,REL,Weight_Unconstrained,1,L_LES,FM,M1,0.7893942220116551
BMu96,P30,PAT,REL,Weight_Unconstrained,1,L_LES,FM,M2,0.6593716411484903
BMu96,P30,PAT,REL,Weight_Unconstrained,1,L_LES,FM,M3,0.6790655247707839
BMu96,P30,PAT,REL,Weight_Unconstrained,1,R_LES,FM,M1,0.5529685926481089
BMu96,P30,PAT,REL,Weight_Unconstrained,1,R_LES,FM,M2,0.6402534101806373
BMu96,P30,PAT,REL,Weight_Unconstrained,1,R_LES,FM,M3,0.6027738074042142
BMu96,P32,PAT,INI,Weight_Unconstrained,1,L_LES,FM,M1,5.637530957929563
BMu96,P32,PAT,INI,Weight_Unconstrained,1,L_LES,FM,M2,5.419261098435699
BMu96,P32,PAT,INI,Weight_Unconstrained,1,L_LES,FM,M3,5.694561202808315
BMu96,P32,PAT,INI,Weight_Unconstrained,1,R_LES,FM,M1,3.42656908100455
BMu96,P32,PAT,INI,Weight_Unconstrained,1,R_LES,FM,M2,3.575598091385422
BMu96,P32,PAT,INI,Weight_Unconstrained,1,R_LES,FM,M3,3.67098411922783
BMu96,P32,PAT,REL,Weight_Unconstrained,1,L_LES,FM,M1,0.5303559243583305
BMu96,P32,PAT,REL,Weight_Unconstrained,1,L_LES,FM,M2,0.5210529561521662
BMu96,P32,PAT,REL,Weight_Unconstrained,1,L_LES,FM,M3,0.5076704012078229
BMu96,P32,PAT,REL,Weight_Unconstrained,1,R_LES,FM,M1,2.058831273748902
BMu96,P32,PAT,REL,Weight_Unconstrained,1,R_LES,FM,M2,1.963967511974778
BMu96,P32,PAT,REL,Weight_Unconstrained,1,R_LES,FM,M3,1.994799936843475
BMu96,P33,PAT,INI,Weight_Unconstrained,1,L_LES,FM,M1,0.7529236917663458
BMu96,P33,PAT,INI,Weight_Unconstrained,1,L_LES,FM,M2,0.7350435300903853
BMu96,P33,PAT,INI,Weight_Unconstrained,1,L_LES,FM,M3,0.7608553827319622
BMu96,P33,PAT,INI,Weight_Unconstrained,1,R_LES,FM,M1,0.5318253537180018
BMu96,P33,PAT,INI,Weight_Unconstrained,1,R_LES,FM,M2,0.5564499123135672
BMu96,P33,PAT,INI,Weight_Unconstrained,1,R_LES,FM,M3,0.624266119381252
BMu96,P33,PAT,REL,Weight_Unconstrained,1,L_LES,FM,M1,0.7753555697578491
BMu96,P33,PAT,REL,Weight_Unconstrained,1,R_LES,FM,M1,0.9425268213235345
BMu96,P34,PAT,INI,Weight_Unconstrained,1,L_LES,FM,M1,0.43443264114019275
BMu96,P34,PAT,INI,Weight_Unconstrained,1,L_LES,FM,M2,0.4389080884191062
BMu96,P34,PAT,INI,Weight_Unconstrained,1,L_LES,FM,M3,0.4525926960978806
BMu96,P34,PAT,INI,Weight_Unconstrained,1,R_LES,FM,M1,0.6536112260898486
BMu96,P34,PAT,INI,Weight_Unconstrained,1,R_LES,FM,M2,0.7284651436122719
BMu96,P34,PAT,INI,Weight_Unconstrained,1,R_LES,FM,M3,0.7706824654890292
BMu96,P34,PAT,REL,Weight_Unconstrained,1,L_LES,FM,M1,0.7242813968801065
BMu96,P34,PAT,REL,Weight_Unconstrained,1,L_LES,FM,M2,0.786180975211235
BMu96,P34,PAT,REL,Weight_Unconstrained,1,L_LES,FM,M3,0.7111034602794957
BMu96,P34,PAT,REL,Weight_Unconstrained,1,R_LES,FM,M1,0.9149220333384581
BMu96,P34,PAT,REL,Weight_Unconstrained,1,R_LES,FM,M2,0.9160070187954366
BMu96,P34,PAT,REL,Weight_Unconstrained,1,R_LES,FM,M3,0.8585475154396065
BMu96,P35,CTR,INI,Weight_Unconstrained,1,L_LES,FM,M1,1.2682589904019674
BMu96,P35,CTR,INI,Weight_Unconstrained,1,L_LES,FM,M2,1.0667192849066116
BMu96,P35,CTR,INI,Weight_Unconstrained,1,L_LES,FM,M3,1.0583046652319454
BMu96,P35,CTR,INI,Weight_Unconstrained,1,R_LES,FM,M1,1.1861291875594344
BMu96,P35,CTR,INI,Weight_Unconstrained,1,R_LES,FM,M2,1.0532405810371444
BMu96,P35,CTR,INI,Weight_Unconstrained,1,R_LES,FM,M3,1.110091058684856
BMu96,P35,CTR,REL,Weight_Unconstrained,1,L_LES,FM,M1,0.49798885185473246
BMu96,P35,CTR,REL,Weight_Unconstrained,1,L_LES,FM,M2,0.3537040347515134
BMu96,P35,CTR,REL,Weight_Unconstrained,1,L_LES,FM,M3,0.37924806833087
BMu96,P35,CTR,REL,Weight_Unconstrained,1,R_LES,FM,M1,0.49572676697826074
BMu96,P35,CTR,REL,Weight_Unconstrained,1,R_LES,FM,M2,0.44362528050796934
BMu96,P35,CTR,REL,Weight_Unconstrained,1,R_LES,FM,M3,0.47750707633502154
BMu96,P36,PAT,INI,Weight_Unconstrained,1,L_LES,FM,M1,0.652689145690551
BMu96,P36,PAT,INI,Weight_Unconstrained,1,L_LES,FM,M2,0.6234356264152197
BMu96,P36,PAT,INI,Weight_Unconstrained,1,L_LES,FM,M3,0.6255913988308758
BMu96,P36,PAT,INI,Weight_Unconstrained,1,R_LES,FM,M1,0.7943590777037772
BMu96,P36,PAT,INI,Weight_Unconstrained,1,R_LES,FM,M2,0.7647987526257377
BMu96,P36,PAT,INI,Weight_Unconstrained,1,R_LES,FM,M3,0.7689710300374635
BMu96,P36,PAT,REL,Weight_Unconstrained,1,L_LES,FM,M1,0.4764984292149258
BMu96,P36,PAT,REL,Weight_Unconstrained,1,L_LES,FM,M2,0.49254768355514333
BMu96,P36,PAT,REL,Weight_Unconstrained,1,L_LES,FM,M3,0.4788905728763011
BMu96,P36,PAT,REL,Weight_Unconstrained,1,R_LES,FM,M1,0.6570541035138389
BMu96,P36,PAT,REL,Weight_Unconstrained,1,R_LES,FM,M2,0.662291032699651
BMu96,P36,PAT,REL,Weight_Unconstrained,1,R_LES,FM,M3,0.6435121384682128
BMu96,P38,CTR,INI,Weight_Unconstrained,1,L_LES,FM,M1,3.4559436122642397
BMu96,P38,CTR,INI,Weight_Unconstrained,1,L_LES,FM,M2,3.4603662201812435
BMu96,P38,CTR,INI,Weight_Unconstrained,1,L_LES,FM,M3,4.509199982211902
BMu96,P38,CTR,INI,Weight_Unconstrained,1,L_LES,FM,M4,3.4259794594313493
BMu96,P38,CTR,INI,Weight_Unconstrained,1,R_LES,FM,M1,2.8791396785350516
BMu96,P38,CTR,INI,Weight_Unconstrained,1,R_LES,FM,M2,2.860149162119854
BMu96,P38,CTR,INI,Weight_Unconstrained,1,R_LES,FM,M3,2.970838540138661
BMu96,P38,CTR,INI,Weight_Unconstrained,1,R_LES,FM,M4,2.968465321986671
BMu96,P38,CTR,REL,Weight_Unconstrained,1,L_LES,FM,M1,0.639169970931706
BMu96,P38,CTR,REL,Weight_Unconstrained,1,L_LES,FM,M2,0.607822048165511
BMu96,P38,CTR,REL,Weight_Unconstrained,1,L_LES,FM,M3,0.6399439364582106
BMu96,P38,CTR,REL,Weight_Unconstrained,1,L_LES,FM,M4,0.6529867598191954
BMu96,P38,CTR,REL,Weight_Unconstrained,1,L_LES,FM,M5,0.6644213760777182
BMu96,P38,CTR,REL,Weight_Unconstrained,1,R_LES,FM,M1,0.605540268293548
BMu96,P38,CTR,REL,Weight_Unconstrained,1,R_LES,FM,M2,0.5696420521228377
BMu96,P38,CTR,REL,Weight_Unconstrained,1,R_LES,FM,M3,0.6171173773530036
BMu96,P38,CTR,REL,Weight_Unconstrained,1,R_LES,FM,M4,0.6647413978650206
BMu96,P38,CTR,REL,Weight_Unconstrained,1,R_LES,FM,M5,0.7043253055561015
BMu96,P39,CTR,INI,Weight_Unconstrained,1,L_LES,FM,M1,0.5669427088346477
BMu96,P39,CTR,INI,Weight_Unconstrained,1,L_LES,FM,M2,0.3756293834382054
BMu96,P39,CTR,INI,Weight_Unconstrained,1,L_LES,FM,M3,0.6129557203116331
BMu96,P39,CTR,INI,Weight_Unconstrained,1,R_LES,FM,M1,0.3562396734237836
BMu96,P39,CTR,INI,Weight_Unconstrained,1,R_LES,FM,M2,0.3089289689909418
BMu96,P39,CTR,INI,Weight_Unconstrained,1,R_LES,FM,M3,0.40901677152552757
BMu96,P39,CTR,REL,Weight_Unconstrained,1,L_LES,FM,M1,0.5550620803940656
BMu96,P39,CTR,REL,Weight_Unconstrained,1,L_LES,FM,M2,0.46702224719901286
BMu96,P39,CTR,REL,Weight_Unconstrained,1,L_LES,FM,M3,0.6136018091143246
BMu96,P39,CTR,REL,Weight_Unconstrained,1,R_LES,FM,M1,0.722364615841536
BMu96,P39,CTR,REL,Weight_Unconstrained,1,R_LES,FM,M2,0.6001476387982871
BMu96,P39,CTR,REL,Weight_Unconstrained,1,R_LES,FM,M3,0.849902927485944
BMu96,P40,CTR,INI,Weight_Unconstrained,1,L_LES,FM,M1,0.3878261978264464
BMu96,P40,CTR,INI,Weight_Unconstrained,1,L_LES,FM,M2,0.3594525732995093
BMu96,P40,CTR,INI,Weight_Unconstrained,1,L_LES,FM,M3,0.485111766829878
BMu96,P40,CTR,INI,Weight_Unconstrained,1,R_LES,FM,M1,0.44699326011855667
BMu96,P40,CTR,INI,Weight_Unconstrained,1,R_LES,FM,M2,0.4393069205660439
BMu96,P40,CTR,INI,Weight_Unconstrained,1,R_LES,FM,M3,0.4787795671509313
BMu96,P40,CTR,REL,Weight_Unconstrained,1,L_LES,FM,M1,0.4551819051368886
BMu96,P40,CTR,REL,Weight_Unconstrained,1,L_LES,FM,M2,0.46560533699092826
BMu96,P40,CTR,REL,Weight_Unconstrained,1,L_LES,FM,M3,0.458654306586127
BMu96,P40,CTR,REL,Weight_Unconstrained,1,R_LES,FM,M1,0.6039851204856328
BMu96,P40,CTR,REL,Weight_Unconstrained,1,R_LES,FM,M2,0.6110907117024956
BMu96,P40,CTR,REL,Weight_Unconstrained,1,R_LES,FM,M3,0.5926771478804277
BMu96,P41,PAT,INI,Weight_Unconstrained,1,L_LES,FM,M1,0.5129424128227207
BMu96,P41,PAT,INI,Weight_Unconstrained,1,L_LES,FM,M2,0.538213928995788
BMu96,P41,PAT,INI,Weight_Unconstrained,1,L_LES,FM,M3,0.5654326928188044
BMu96,P41,PAT,INI,Weight_Unconstrained,1,L_LES,FM,M4,0.5332988185801234
BMu96,P41,PAT,INI,Weight_Unconstrained,1,R_LES,FM,M1,0.7199561739605647
BMu96,P41,PAT,INI,Weight_Unconstrained,1,R_LES,FM,M2,0.8293482169022054
BMu96,P41,PAT,INI,Weight_Unconstrained,1,R_LES,FM,M3,0.7946106962909203
BMu96,P41,PAT,INI,Weight_Unconstrained,1,R_LES,FM,M4,0.8139767298080357
BMu96,P41,PAT,REL,Weight_Unconstrained,1,L_LES,FM,M1,0.528357924157572
BMu96,P41,PAT,REL,Weight_Unconstrained,1,L_LES,FM,M2,0.48013804458203235
BMu96,P41,PAT,REL,Weight_Unconstrained,1,L_LES,FM,M3,0.4522426972465612
BMu96,P41,PAT,REL,Weight_Unconstrained,1,R_LES,FM,M1,0.7889171459885678
BMu96,P41,PAT,REL,Weight_Unconstrained,1,R_LES,FM,M2,0.7896474520082204
BMu96,P41,PAT,REL,Weight_Unconstrained,1,R_LES,FM,M3,0.7997161690966801
BMu96,P42,PAT,INI,Weight_Unconstrained,1,L_LES,FM,M1,0.49988703499247306
BMu96,P42,PAT,INI,Weight_Unconstrained,1,L_LES,FM,M2,0.47625985582330904
BMu96,P42,PAT,INI,Weight_Unconstrained,1,L_LES,FM,M3,0.5636067267320348
BMu96,P42,PAT,INI,Weight_Unconstrained,1,R_LES,FM,M1,0.5013457868808636
BMu96,P42,PAT,INI,Weight_Unconstrained,1,R_LES,FM,M2,0.4808403394638135
BMu96,P42,PAT,INI,Weight_Unconstrained,1,R_LES,FM,M3,0.5415043063656687
BMu96,P42,PAT,REL,Weight_Unconstrained,1,L_LES,FM,M1,0.6463771838763588
BMu96,P42,PAT,REL,Weight_Unconstrained,1,L_LES,FM,M2,0.6500011023694352
BMu96,P42,PAT,REL,Weight_Unconstrained,1,L_LES,FM,M3,0.6514621130548971
BMu96,P42,PAT,REL,Weight_Unconstrained,1,R_LES,FM,M1,0.6765360969313402
BMu96,P42,PAT,REL,Weight_Unconstrained,1,R_LES,FM,M2,0.6605328823616142
BMu96,P42,PAT,REL,Weight_Unconstrained,1,R_LES,FM,M3,0.6924791051412013
BMu96,P43,PAT,INI,Weight_Unconstrained,1,L_LES,FM,M1,0.42326194832056013
BMu96,P43,PAT,INI,Weight_Unconstrained,1,L_LES,FM,M2,0.6253966254951672
BMu96,P43,PAT,INI,Weight_Unconstrained,1,L_LES,FM,M3,0.45205873947953135
BMu96,P43,PAT,INI,Weight_Unconstrained,1,R_LES,FM,M1,0.5467212284031125
BMu96,P43,PAT,INI,Weight_Unconstrained,1,R_LES,FM,M2,0.6704236842246624
BMu96,P43,PAT,INI,Weight_Unconstrained,1,R_LES,FM,M3,0.5497203205121942
BMu96,P43,PAT,REL,Weight_Unconstrained,1,L_LES,FM,M1,0.528734190826085
BMu96,P43,PAT,REL,Weight_Unconstrained,1,L_LES,FM,M2,0.34869028871715585
BMu96,P43,PAT,REL,Weight_Unconstrained,1,L_LES,FM,M3,0.4714082683743382
BMu96,P43,PAT,REL,Weight_Unconstrained,1,L_LES,FM,M4,0.5029376113603863
BMu96,P43,PAT,REL,Weight_Unconstrained,1,R_LES,FM,M1,0.6291838823531312
BMu96,P43,PAT,REL,Weight_Unconstrained,1,R_LES,FM,M2,0.4105599613601318
BMu96,P43,PAT,REL,Weight_Unconstrained,1,R_LES,FM,M3,0.5692178264718158
BMu96,P43,PAT,REL,Weight_Unconstrained,1,R_LES,FM,M4,0.5929124362500612
BMu96,P44,CTR,INI,Weight_Unconstrained,1,L_LES,FM,M1,8.393617942455773
BMu96,P44,CTR,INI,Weight_Unconstrained,1,L_LES,FM,M2,8.474265217871665
BMu96,P44,CTR,INI,Weight_Unconstrained,1,L_LES,FM,M3,8.70650412390435
BMu96,P44,CTR,INI,Weight_Unconstrained,1,R_LES,FM,M1,8.317260607736717
BMu96,P44,CTR,INI,Weight_Unconstrained,1,R_LES,FM,M2,8.108755213133929
BMu96,P44,CTR,INI,Weight_Unconstrained,1,R_LES,FM,M3,8.583313863636755
BMu96,P44,CTR,REL,Weight_Unconstrained,1,L_LES,FM,M1,0.4537436862055812
BMu96,P44,CTR,REL,Weight_Unconstrained,1,L_LES,FM,M2,0.5170404530915756
BMu96,P44,CTR,REL,Weight_Unconstrained,1,L_LES,FM,M3,0.5506685636125819
BMu96,P44,CTR,REL,Weight_Unconstrained,1,R_LES,FM,M1,0.6533325994704279
BMu96,P44,CTR,REL,Weight_Unconstrained,1,R_LES,FM,M2,0.6506996364844091
BMu96,P44,CTR,REL,Weight_Unconstrained,1,R_LES,FM,M3,0.7142048041872969
BMu96,P45,PAT,INI,Weight_Unconstrained,1,L_LES,FM,M1,2.1912335482513465
BMu96,P45,PAT,INI,Weight_Unconstrained,1,L_LES,FM,M2,1.5917184230027688
BMu96,P45,PAT,INI,Weight_Unconstrained,1,L_LES,FM,M3,1.1714160679293573
BMu96,P45,PAT,INI,Weight_Unconstrained,1,R_LES,FM,M1,0.31763556713272717
BMu96,P45,PAT,INI,Weight_Unconstrained,1,R_LES,FM,M2,0.29780706495164627
BMu96,P45,PAT,INI,Weight_Unconstrained,1,R_LES,FM,M3,0.288423414322392
BMu96,P45,PAT,REL,Weight_Unconstrained,1,L_LES,FM,M1,1.15612621957522
BMu96,P45,PAT,REL,Weight_Unconstrained,1,L_LES,FM,M2,1.2237752926246053
BMu96,P45,PAT,REL,Weight_Unconstrained,1,L_LES,FM,M3,1.0854438313556538
BMu96,P45,PAT,REL,Weight_Unconstrained,1,R_LES,FM,M1,0.36291580543709895
BMu96,P45,PAT,REL,Weight_Unconstrained,1,R_LES,FM,M2,0.37653155128032073
BMu96,P45,PAT,REL,Weight_Unconstrained,1,R_LES,FM,M3,0.3496414698380339
BMu96,P46,CTR,INI,Weight_Unconstrained,1,L_LES,FM,M1,0.41047407163201316
BMu96,P46,CTR,INI,Weight_Unconstrained,1,L_LES,FM,M2,0.47092289711585134
BMu96,P46,CTR,INI,Weight_Unconstrained,1,L_LES,FM,M3,0.4346871054422328
BMu96,P46,CTR,INI,Weight_Unconstrained,1,R_LES,FM,M1,0.4305278414369276
BMu96,P46,CTR,INI,Weight_Unconstrained,1,R_LES,FM,M2,0.43016556325147554
BMu96,P46,CTR,INI,Weight_Unconstrained,1,R_LES,FM,M3,0.4066693967711483
BMu96,P46,CTR,REL,Weight_Unconstrained,1,L_LES,FM,M1,0.34113538978805585
BMu96,P46,CTR,REL,Weight_Unconstrained,1,L_LES,FM,M2,0.386316799805454
BMu96,P46,CTR,REL,Weight_Unconstrained,1,L_LES,FM,M3,0.3777399927346617
BMu96,P46,CTR,REL,Weight_Unconstrained,1,R_LES,FM,M1,0.35149595471873973
BMu96,P46,CTR,REL,Weight_Unconstrained,1,R_LES,FM,M2,0.3694018821706862
BMu96,P46,CTR,REL,Weight_Unconstrained,1,R_LES,FM,M3,0.3645657072448387
BMu96,P47,PAT,INI,Weight_Unconstrained,1,L_LES,FM,M1,1.8601172577196443
BMu96,P47,PAT,INI,Weight_Unconstrained,1,L_LES,FM,M2,1.76571094745086
BMu96,P47,PAT,INI,Weight_Unconstrained,1,L_LES,FM,M3,1.6821128048331973
BMu96,P47,PAT,INI,Weight_Unconstrained,1,R_LES,FM,M1,1.8753456681192804
BMu96,P47,PAT,INI,Weight_Unconstrained,1,R_LES,FM,M2,1.8561038150069646
BMu96,P47,PAT,INI,Weight_Unconstrained,1,R_LES,FM,M3,1.852625845576147
BMu96,P47,PAT,REL,Weight_Unconstrained,1,L_LES,FM,M1,0.6116301228737427
BMu96,P47,PAT,REL,Weight_Unconstrained,1,L_LES,FM,M2,0.6015162271562904
BMu96,P47,PAT,REL,Weight_Unconstrained,1,L_LES,FM,M3,0.6636098424519159
BMu96,P47,PAT,REL,Weight_Unconstrained,1,R_LES,FM,M1,0.581814598230965
BMu96,P47,PAT,REL,Weight_Unconstrained,1,R_LES,FM,M2,0.5025758613381358
BMu96,P47,PAT,REL,Weight_Unconstrained,1,R_LES,FM,M3,0.5895354630382436
BMu96,P48,CTR,INI,Weight_Unconstrained,1,L_LES,FM,M1,0.8083701457799114
BMu96,P48,CTR,INI,Weight_Unconstrained,1,L_LES,FM,M2,0.7825010207665771
BMu96,P48,CTR,INI,Weight_Unconstrained,1,L_LES,FM,M3,0.6924820190150408
BMu96,P48,CTR,INI,Weight_Unconstrained,1,R_LES,FM,M1,0.7428064508132883
BMu96,P48,CTR,INI,Weight_Unconstrained,1,R_LES,FM,M2,0.6585451823389523
BMu96,P48,CTR,INI,Weight_Unconstrained,1,R_LES,FM,M3,0.678683313522539
BMu96,P48,CTR,REL,Weight_Unconstrained,1,L_LES,FM,M1,0.5846652858332702
BMu96,P48,CTR,REL,Weight_Unconstrained,1,L_LES,FM,M2,0.508879330503003
BMu96,P48,CTR,REL,Weight_Unconstrained,1,L_LES,FM,M3,0.5628988236002093
BMu96,P48,CTR,REL,Weight_Unconstrained,1,R_LES,FM,M1,0.7449109649587649
BMu96,P48,CTR,REL,Weight_Unconstrained,1,R_LES,FM,M2,0.6491294334960834
BMu96,P48,CTR,REL,Weight_Unconstrained,1,R_LES,FM,M3,0.6897298697368378
BMu96,P49,CTR,INI,Weight_Unconstrained,1,L_LES,FM,M1,0.5873596517477502
BMu96,P49,CTR,INI,Weight_Unconstrained,1,L_LES,FM,M2,0.5761028674804827
BMu96,P49,CTR,INI,Weight_Unconstrained,1,L_LES,FM,M3,0.5825009235818552
BMu96,P49,CTR,INI,Weight_Unconstrained,1,R_LES,FM,M1,0.7353565202262915
BMu96,P49,CTR,INI,Weight_Unconstrained,1,R_LES,FM,M2,0.6225247447115528
BMu96,P49,CTR,INI,Weight_Unconstrained,1,R_LES,FM,M3,0.6291936425936172
BMu96,P49,CTR,REL,Weight_Unconstrained,1,L_LES,FM,M1,0.49909996913606514
BMu96,P49,CTR,REL,Weight_Unconstrained,1,L_LES,FM,M2,0.5560218487145387
BMu96,P49,CTR,REL,Weight_Unconstrained,1,L_LES,FM,M3,0.5367415851429447
BMu96,P49,CTR,REL,Weight_Unconstrained,1,R_LES,FM,M1,0.5517666326920608
BMu96,P49,CTR,REL,Weight_Unconstrained,1,R_LES,FM,M2,0.6146680344978506
BMu96,P49,CTR,REL,Weight_Unconstrained,1,R_LES,FM,M3,0.6553287256598718
BMu96,P50,PAT,INI,Weight_Unconstrained,1,L_LES,FM,M1,0.6312124337249481
BMu96,P50,PAT,INI,Weight_Unconstrained,1,L_LES,FM,M2,0.6046796935585467
BMu96,P50,PAT,INI,Weight_Unconstrained,1,L_LES,FM,M3,0.6271881931798047
BMu96,P50,PAT,INI,Weight_Unconstrained,1,R_LES,FM,M1,0.5264097614894605
BMu96,P50,PAT,INI,Weight_Unconstrained,1,R_LES,FM,M2,0.5013979771666929
BMu96,P50,PAT,INI,Weight_Unconstrained,1,R_LES,FM,M3,0.5649446752831112
BMu96,P50,PAT,REL,Weight_Unconstrained,1,L_LES,FM,M1,0.5270673893641722
BMu96,P50,PAT,REL,Weight_Unconstrained,1,L_LES,FM,M2,0.4746055196178579
BMu96,P50,PAT,REL,Weight_Unconstrained,1,L_LES,FM,M3,0.44848242846430464
BMu96,P50,PAT,REL,Weight_Unconstrained,1,R_LES,FM,M1,0.5782525453241837
BMu96,P50,PAT,REL,Weight_Unconstrained,1,R_LES,FM,M2,0.536909189803828
BMu96,P50,PAT,REL,Weight_Unconstrained,1,R_LES,FM,M3,0.451963387521696
BMu96,P51,PAT,INI,Weight_Unconstrained,1,L_LES,FM,M1,0.36006809011874563
BMu96,P51,PAT,INI,Weight_Unconstrained,1,L_LES,FM,M2,0.19536684497238488
BMu96,P51,PAT,INI,Weight_Unconstrained,1,L_LES,FM,M3,0.1544097466912538
BMu96,P51,PAT,INI,Weight_Unconstrained,1,L_LES,FM,M4,0.16199842357726862
BMu96,P51,PAT,INI,Weight_Unconstrained,1,R_LES,FM,M1,0.645006021177737
BMu96,P51,PAT,INI,Weight_Unconstrained,1,R_LES,FM,M2,0.3213985653917813
BMu96,P51,PAT,INI,Weight_Unconstrained,1,R_LES,FM,M3,0.27068211918823676
BMu96,P51,PAT,INI,Weight_Unconstrained,1,R_LES,FM,M4,0.30033598442293374
BMu96,P51,PAT,REL,Weight_Unconstrained,1,L_LES,FM,M1,0.17884425338773202
BMu96,P51,PAT,REL,Weight_Unconstrained,1,L_LES,FM,M2,0.14001430320438799
BMu96,P51,PAT,REL,Weight_Unconstrained,1,L_LES,FM,M3,0.15965736261109986
BMu96,P51,PAT,REL,Weight_Unconstrained,1,R_LES,FM,M1,0.49449408135004463
BMu96,P51,PAT,REL,Weight_Unconstrained,1,R_LES,FM,M2,0.41677501069092665
BMu96,P51,PAT,REL,Weight_Unconstrained,1,R_LES,FM,M3,0.4805770467713014
BMu96,P52,CTR,INI,Weight_Unconstrained,1,L_LES,FM,M1,0.772951691012478
BMu96,P52,CTR,INI,Weight_Unconstrained,1,L_LES,FM,M2,0.7034345821332858
BMu96,P52,CTR,INI,Weight_Unconstrained,1,L_LES,FM,M3,0.783748623251228
BMu96,P52,CTR,INI,Weight_Unconstrained,1,R_LES,FM,M1,0.8024965153020989
BMu96,P52,CTR,INI,Weight_Unconstrained,1,R_LES,FM,M2,0.9359453356511194
BMu96,P52,CTR,INI,Weight_Unconstrained,1,R_LES,FM,M3,0.9767917841804767
BMu96,P52,CTR,REL,Weight_Unconstrained,1,L_LES,FM,M1,0.5034873689933638
BMu96,P52,CTR,REL,Weight_Unconstrained,1,L_LES,FM,M2,0.5582259520142325
BMu96,P52,CTR,REL,Weight_Unconstrained,1,L_LES,FM,M3,0.5711507813711327
BMu96,P52,CTR,REL,Weight_Unconstrained,1,R_LES,FM,M1,0.5998543866496201
BMu96,P52,CTR,REL,Weight_Unconstrained,1,R_LES,FM,M2,0.696601383959922
BMu96,P52,CTR,REL,Weight_Unconstrained,1,R_LES,FM,M3,0.608714385514351
BMu96,P53,PAT,INI,Weight_Unconstrained,1,L_LES,FM,M1,4.8748297673373795
BMu96,P53,PAT,INI,Weight_Unconstrained,1,L_LES,FM,M2,4.8512078366780855
BMu96,P53,PAT,INI,Weight_Unconstrained,1,L_LES,FM,M3,4.390247211688279
BMu96,P53,PAT,INI,Weight_Unconstrained,1,R_LES,FM,M1,2.71764619943919
BMu96,P53,PAT,INI,Weight_Unconstrained,1,R_LES,FM,M2,2.74995135258104
BMu96,P53,PAT,INI,Weight_Unconstrained,1,R_LES,FM,M3,2.5912258772351193
BMu96,P53,PAT,REL,Weight_Unconstrained,1,L_LES,FM,M1,1.3447322505843204
BMu96,P53,PAT,REL,Weight_Unconstrained,1,L_LES,FM,M2,1.3221460947116155
BMu96,P53,PAT,REL,Weight_Unconstrained,1,L_LES,FM,M3,1.3098395160360121
BMu96,P53,PAT,REL,Weight_Unconstrained,1,R_LES,FM,M1,1.6271692935855608
BMu96,P53,PAT,REL,Weight_Unconstrained,1,R_LES,FM,M2,1.656108655135005
BMu96,P53,PAT,REL,Weight_Unconstrained,1,R_LES,FM,M3,1.5829049246766602
BMu96,P54,PAT,INI,Weight_Unconstrained,1,L_LES,FM,M1,0.6985630328406401
BMu96,P54,PAT,INI,Weight_Unconstrained,1,L_LES,FM,M2,0.7045063123749592
BMu96,P54,PAT,INI,Weight_Unconstrained,1,L_LES,FM,M3,0.7135624932051327
BMu96,P54,PAT,INI,Weight_Unconstrained,1,R_LES,FM,M1,0.8533198435059259
BMu96,P54,PAT,INI,Weight_Unconstrained,1,R_LES,FM,M2,0.7876936149967267
BMu96,P54,PAT,INI,Weight_Unconstrained,1,R_LES,FM,M3,0.8361679019641701
BMu96,P54,PAT,REL,Weight_Unconstrained,1,L_LES,FM,M1,0.6012369130196532
BMu96,P54,PAT,REL,Weight_Unconstrained,1,L_LES,FM,M2,0.49745107008503103
BMu96,P54,PAT,REL,Weight_Unconstrained,1,L_LES,FM,M3,0.4365791433074453
BMu96,P54,PAT,REL,Weight_Unconstrained,1,R_LES,FM,M1,0.6953666169525715
BMu96,P54,PAT,REL,Weight_Unconstrained,1,R_LES,FM,M2,0.6275129686039206
BMu96,P54,PAT,REL,Weight_Unconstrained,1,R_LES,FM,M3,0.5523412434223329
BMu96,P55,CTR,INI,Weight_Unconstrained,1,L_LES,FM,M1,0.6835578881540834
BMu96,P55,CTR,INI,Weight_Unconstrained,1,L_LES,FM,M2,0.7341842615219109
BMu96,P55,CTR,INI,Weight_Unconstrained,1,L_LES,FM,M3,0.7596141925970143
BMu96,P55,CTR,INI,Weight_Unconstrained,1,R_LES,FM,M1,0.446590636711795
BMu96,P55,CTR,INI,Weight_Unconstrained,1,R_LES,FM,M2,0.49127492095696274
BMu96,P55,CTR,INI,Weight_Unconstrained,1,R_LES,FM,M3,0.49883828399214375
BMu96,P55,CTR,REL,Weight_Unconstrained,1,L_LES,FM,M1,0.7973163875709026
BMu96,P55,CTR,REL,Weight_Unconstrained,1,L_LES,FM,M2,0.8098965416390349
BMu96,P55,CTR,REL,Weight_Unconstrained,1,L_LES,FM,M3,0.8594028186477374
BMu96,P55,CTR,REL,Weight_Unconstrained,1,R_LES,FM,M1,0.5581271845473941
BMu96,P55,CTR,REL,Weight_Unconstrained,1,R_LES,FM,M2,0.5383906258153124
BMu96,P55,CTR,REL,Weight_Unconstrained,1,R_LES,FM,M3,0.5450435554379124
BMu96,P56,CTR,INI,Weight_Unconstrained,1,L_LES,FM,M1,0.5745133181320626
BMu96,P56,CTR,INI,Weight_Unconstrained,1,L_LES,FM,M2,0.5179667344811115
BMu96,P56,CTR,INI,Weight_Unconstrained,1,L_LES,FM,M3,0.6013586518383178
BMu96,P56,CTR,INI,Weight_Unconstrained,1,R_LES,FM,M1,0.6826326964202022
BMu96,P56,CTR,INI,Weight_Unconstrained,1,R_LES,FM,M2,0.6593686404268484
BMu96,P56,CTR,INI,Weight_Unconstrained,1,R_LES,FM,M3,0.6418721018222271
BMu96,P56,CTR,REL,Weight_Unconstrained,1,L_LES,FM,M1,0.4383031028704936
BMu96,P56,CTR,REL,Weight_Unconstrained,1,L_LES,FM,M2,0.47129654023650314
BMu96,P56,CTR,REL,Weight_Unconstrained,1,L_LES,FM,M3,0.4602315102060753
BMu96,P56,CTR,REL,Weight_Unconstrained,1,R_LES,FM,M1,0.5447966094073272
BMu96,P56,CTR,REL,Weight_Unconstrained,1,R_LES,FM,M2,0.5810685706921269
BMu96,P56,CTR,REL,Weight_Unconstrained,1,R_LES,FM,M3,0.5322729414548526
BMu96,P57,CTR,INI,Weight_Unconstrained,1,L_LES,FM,M1,0.4441575694707068
BMu96,P57,CTR,INI,Weight_Unconstrained,1,L_LES,FM,M2,0.4862373773934531
BMu96,P57,CTR,INI,Weight_Unconstrained,1,L_LES,FM,M3,0.568857821296885
BMu96,P57,CTR,INI,Weight_Unconstrained,1,R_LES,FM,M1,0.4397869217158689
BMu96,P57,CTR,INI,Weight_Unconstrained,1,R_LES,FM,M2,0.49049825119756296
BMu96,P57,CTR,INI,Weight_Unconstrained,1,R_LES,FM,M3,0.4826628145244504
BMu96,P57,CTR,REL,Weight_Unconstrained,1,L_LES,FM,M1,0.8035949380556028
BMu96,P57,CTR,REL,Weight_Unconstrained,1,L_LES,FM,M2,0.6829525584359786
BMu96,P57,CTR,REL,Weight_Unconstrained,1,L_LES,FM,M3,0.7999727178299758
BMu96,P57,CTR,REL,Weight_Unconstrained,1,R_LES,FM,M1,0.6552761450569974
BMu96,P57,CTR,REL,Weight_Unconstrained,1,R_LES,FM,M2,0.707966535468201
BMu96,P57,CTR,REL,Weight_Unconstrained,1,R_LES,FM,M3,0.6699239394482823
BMu96,P58,PAT,INI,Weight_Unconstrained,1,L_LES,FM,M1,0.4411332276681952
BMu96,P58,PAT,INI,Weight_Unconstrained,1,L_LES,FM,M2,0.5101498754568429
BMu96,P58,PAT,INI,Weight_Unconstrained,1,L_LES,FM,M3,0.5205327070365787
BMu96,P58,PAT,INI,Weight_Unconstrained,1,R_LES,FM,M1,0.5838937771679406
BMu96,P58,PAT,INI,Weight_Unconstrained,1,R_LES,FM,M2,0.6936267823825737
BMu96,P58,PAT,INI,Weight_Unconstrained,1,R_LES,FM,M3,0.6913349168887414
BMu96,P58,PAT,REL,Weight_Unconstrained,1,L_LES,FM,M1,6.0639521420164275
BMu96,P58,PAT,REL,Weight_Unconstrained,1,L_LES,FM,M2,6.055583026619184
BMu96,P58,PAT,REL,Weight_Unconstrained,1,L_LES,FM,M3,6.114646976433701
BMu96,P58,PAT,REL,Weight_Unconstrained,1,R_LES,FM,M1,0.7324090106348092
BMu96,P58,PAT,REL,Weight_Unconstrained,1,R_LES,FM,M2,1.0427158565150536
BMu96,P58,PAT,REL,Weight_Unconstrained,1,R_LES,FM,M3,0.8543648419859791
BMu96,P60,CTR,INI,Weight_Unconstrained,1,L_LES,FM,M1,0.32055512769738453
BMu96,P60,CTR,INI,Weight_Unconstrained,1,R_LES,FM,M1,0.42392967146027966
BMu96,P60,CTR,REL,Weight_Unconstrained,1,L_LES,FM,M1,0.8135097154272574
BMu96,P60,CTR,REL,Weight_Unconstrained,1,L_LES,FM,M2,0.834909025865022
BMu96,P60,CTR,REL,Weight_Unconstrained,1,L_LES,FM,M3,0.7421987042987344
BMu96,P60,CTR,REL,Weight_Unconstrained,1,R_LES,FM,M1,0.8863956134620833
BMu96,P60,CTR,REL,Weight_Unconstrained,1,R_LES,FM,M2,1.1326518489594957
BMu96,P60,CTR,REL,Weight_Unconstrained,1,R_LES,FM,M3,0.6866698328271074
BMu96,P61,PAT,REL,Weight_Unconstrained,1,L_LES,FM,M1,1.872865013122714
BMu96,P61,PAT,REL,Weight_Unconstrained,1,L_LES,FM,M2,1.6644885691031077
BMu96,P61,PAT,REL,Weight_Unconstrained,1,L_LES,FM,M3,1.6590219447185681
BMu96,P61,PAT,REL,Weight_Unconstrained,1,R_LES,FM,M1,0.9886838699439613
BMu96,P61,PAT,REL,Weight_Unconstrained,1,R_LES,FM,M2,1.079169121954584
BMu96,P61,PAT,REL,Weight_Unconstrained,1,R_LES,FM,M3,1.0736291406216472
BMu96,P62,PAT,INI,Weight_Unconstrained,1,L_LES,FM,M1,0.8674534372335267
BMu96,P62,PAT,INI,Weight_Unconstrained,1,L_LES,FM,M2,0.717536767087306
BMu96,P62,PAT,INI,Weight_Unconstrained,1,L_LES,FM,M3,0.752177584520953
BMu96,P62,PAT,INI,Weight_Unconstrained,1,L_LES,FM,M4,0.6778556998172394
BMu96,P62,PAT,INI,Weight_Unconstrained,1,R_LES,FM,M1,0.8419303145244935
BMu96,P62,PAT,INI,Weight_Unconstrained,1,R_LES,FM,M2,0.6295219246986332
BMu96,P62,PAT,INI,Weight_Unconstrained,1,R_LES,FM,M3,0.6241928473364659
BMu96,P62,PAT,INI,Weight_Unconstrained,1,R_LES,FM,M4,0.548817649847518
BMu96,P62,PAT,REL,Weight_Unconstrained,1,L_LES,FM,M1,0.5968915133571892
BMu96,P62,PAT,REL,Weight_Unconstrained,1,L_LES,FM,M2,0.6959511810370129
BMu96,P62,PAT,REL,Weight_Unconstrained,1,L_LES,FM,M3,0.695397116389958
BMu96,P62,PAT,REL,Weight_Unconstrained,1,R_LES,FM,M1,0.5095021575698184
BMu96,P62,PAT,REL,Weight_Unconstrained,1,R_LES,FM,M2,0.5003068787715493
BMu96,P62,PAT,REL,Weight_Unconstrained,1,R_LES,FM,M3,0.4830538682910645
BMu96,P63,PAT,INI,Weight_Unconstrained,1,L_LES,FM,M1,0.768925459933523
BMu96,P63,PAT,INI,Weight_Unconstrained,1,L_LES,FM,M2,0.9320511444804566
BMu96,P63,PAT,INI,Weight_Unconstrained,1,L_LES,FM,M3,0.6853961431522612
BMu96,P63,PAT,INI,Weight_Unconstrained,1,R_LES,FM,M1,0.9035904462127833
BMu96,P63,PAT,INI,Weight_Unconstrained,1,R_LES,FM,M2,0.9350124499827042
BMu96,P63,PAT,INI,Weight_Unconstrained,1,R_LES,FM,M3,0.6978534063270603
BMu96,P63,PAT,REL,Weight_Unconstrained,1,L_LES,FM,M1,1.0540429855586695
BMu96,P63,PAT,REL,Weight_Unconstrained,1,L_LES,FM,M2,1.1867535790860482
BMu96,P63,PAT,REL,Weight_Unconstrained,1,L_LES,FM,M3,1.0801217559643643
BMu96,P63,PAT,REL,Weight_Unconstrained,1,R_LES,FM,M1,0.8569632650364956
BMu96,P63,PAT,REL,Weight_Unconstrained,1,R_LES,FM,M2,0.9249272629876649
BMu96,P63,PAT,REL,Weight_Unconstrained,1,R_LES,FM,M3,0.827726475107154
BMu96,P64,CTR,INI,Weight_Unconstrained,1,L_LES,FM,M1,0.31480457075217144
BMu96,P64,CTR,INI,Weight_Unconstrained,1,L_LES,FM,M2,0.3375769831008624
BMu96,P64,CTR,INI,Weight_Unconstrained,1,L_LES,FM,M3,0.33849923894365525
BMu96,P64,CTR,INI,Weight_Unconstrained,1,R_LES,FM,M1,0.4248323189613908
BMu96,P64,CTR,INI,Weight_Unconstrained,1,R_LES,FM,M2,0.39989232630391214
BMu96,P64,CTR,INI,Weight_Unconstrained,1,R_LES,FM,M3,0.4183336006909005
BMu96,P64,CTR,REL,Weight_Unconstrained,1,L_LES,FM,M1,0.399438787162435
BMu96,P64,CTR,REL,Weight_Unconstrained,1,L_LES,FM,M2,0.3390757710261251
BMu96,P64,CTR,REL,Weight_Unconstrained,1,L_LES,FM,M3,0.397016901412897
BMu96,P64,CTR,REL,Weight_Unconstrained,1,R_LES,FM,M1,0.5161810309519909
BMu96,P64,CTR,REL,Weight_Unconstrained,1,R_LES,FM,M2,0.6048111964729181
BMu96,P64,CTR,REL,Weight_Unconstrained,1,R_LES,FM,M3,0.6312467918145556
BMu96,P65,PAT,INI,Weight_Unconstrained,1,L_LES,FM,M1,1.0267461491073138
BMu96,P65,PAT,INI,Weight_Unconstrained,1,L_LES,FM,M2,0.2202303765301084
BMu96,P65,PAT,INI,Weight_Unconstrained,1,L_LES,FM,M3,0.5050831188536058
BMu96,P65,PAT,INI,Weight_Unconstrained,1,L_LES,FM,M4,0.47340448277283026
BMu96,P65,PAT,INI,Weight_Unconstrained,1,R_LES,FM,M1,1.7795086269424965
BMu96,P65,PAT,INI,Weight_Unconstrained,1,R_LES,FM,M2,0.330849491477702
BMu96,P65,PAT,INI,Weight_Unconstrained,1,R_LES,FM,M3,0.7999419545194314
BMu96,P65,PAT,INI,Weight_Unconstrained,1,R_LES,FM,M4,0.7378075214957467
BMu96,P65,PAT,REL,Weight_Unconstrained,1,L_LES,FM,M1,0.5738590159139267
BMu96,P65,PAT,REL,Weight_Unconstrained,1,L_LES,FM,M2,0.5526068075926863
BMu96,P65,PAT,REL,Weight_Unconstrained,1,L_LES,FM,M3,0.530317984043986
BMu96,P65,PAT,REL,Weight_Unconstrained,1,R_LES,FM,M1,0.6897727272007501
BMu96,P65,PAT,REL,Weight_Unconstrained,1,R_LES,FM,M2,0.6984564558330445
BMu96,P65,PAT,REL,Weight_Unconstrained,1,R_LES,FM,M3,0.6802749512982307
BMu96,P66,CTR,INI,Weight_Unconstrained,1,L_LES,FM,M1,0.4823237273804659
BMu96,P66,CTR,INI,Weight_Unconstrained,1,L_LES,FM,M2,0.5195424681358617
BMu96,P66,CTR,INI,Weight_Unconstrained,1,L_LES,FM,M3,0.5077404162388545
BMu96,P66,CTR,INI,Weight_Unconstrained,1,R_LES,FM,M1,0.5781794735792188
BMu96,P66,CTR,INI,Weight_Unconstrained,1,R_LES,FM,M2,0.6207657510586073
BMu96,P66,CTR,INI,Weight_Unconstrained,1,R_LES,FM,M3,0.6140472226359418
BMu96,P66,CTR,REL,Weight_Unconstrained,1,L_LES,FM,M1,0.46864488146003896
BMu96,P66,CTR,REL,Weight_Unconstrained,1,L_LES,FM,M2,0.4539073492153333
BMu96,P66,CTR,REL,Weight_Unconstrained,1,L_LES,FM,M3,0.472163453445505
BMu96,P66,CTR,REL,Weight_Unconstrained,1,R_LES,FM,M1,0.7433256306125039
BMu96,P66,CTR,REL,Weight_Unconstrained,1,R_LES,FM,M2,0.7249076350957521
BMu96,P66,CTR,REL,Weight_Unconstrained,1,R_LES,FM,M3,0.6768329545590664
BMu96,P67,CTR,INI,Weight_Unconstrained,1,L_LES,FM,M1,0.6235834681123664
BMu96,P67,CTR,INI,Weight_Unconstrained,1,L_LES,FM,M2,0.5572405684592743
BMu96,P67,CTR,INI,Weight_Unconstrained,1,L_LES,FM,M3,0.6699891482511052
BMu96,P67,CTR,INI,Weight_Unconstrained,1,R_LES,FM,M1,2.6766068575661994
BMu96,P67,CTR,INI,Weight_Unconstrained,1,R_LES,FM,M2,2.8145543954216454
BMu96,P67,CTR,INI,Weight_Unconstrained,1,R_LES,FM,M3,2.282871536213315
BMu96,P67,CTR,REL,Weight_Unconstrained,1,L_LES,FM,M1,0.522356736918307
BMu96,P67,CTR,REL,Weight_Unconstrained,1,L_LES,FM,M2,0.5695965257667426
BMu96,P67,CTR,REL,Weight_Unconstrained,1,L_LES,FM,M3,0.6141042050102352
BMu96,P67,CTR,REL,Weight_Unconstrained,1,R_LES,FM,M1,1.0037340077198544
BMu96,P67,CTR,REL,Weight_Unconstrained,1,R_LES,FM,M2,0.7995193268156034
BMu96,P67,CTR,REL,Weight_Unconstrained,1,R_LES,FM,M3,0.7369009373394395
BMu96,P68,CTR,INI,Weight_Unconstrained,1,L_LES,FM,M1,0.6150901279749199
BMu96,P68,CTR,INI,Weight_Unconstrained,1,L_LES,FM,M2,0.5491392618250663
BMu96,P68,CTR,INI,Weight_Unconstrained,1,L_LES,FM,M3,1.0973283716615108
BMu96,P68,CTR,INI,Weight_Unconstrained,1,R_LES,FM,M1,0.5992766797211871
BMu96,P68,CTR,INI,Weight_Unconstrained,1,R_LES,FM,M2,0.5508770263407992
BMu96,P68,CTR,INI,Weight_Unconstrained,1,R_LES,FM,M3,0.6098164318203473
BMu96,P68,CTR,REL,Weight_Unconstrained,1,L_LES,FM,M1,0.5475982797602292
BMu96,P68,CTR,REL,Weight_Unconstrained,1,L_LES,FM,M2,0.5486231724037015
BMu96,P68,CTR,REL,Weight_Unconstrained,1,L_LES,FM,M3,0.6115362933902407
BMu96,P68,CTR,REL,Weight_Unconstrained,1,R_LES,FM,M1,0.6613989312601413
BMu96,P68,CTR,REL,Weight_Unconstrained,1,R_LES,FM,M2,0.6818093152783996
BMu96,P68,CTR,REL,Weight_Unconstrained,1,R_LES,FM,M3,0.9322548362753149
