BMu,Participant,Group,Session,task,trials,channel,Operator,Measure,Value
BMu97,P01,CTR,INI,Weight_Unconstrained,1,L_ESI,FM,M1,56.90869250497482
BMu97,P01,CTR,INI,Weight_Unconstrained,1,L_ESI,FM,M2,64.82255520359068
BMu97,P01,CTR,INI,Weight_Unconstrained,1,L_ESI,FM,M3,60.26543070677229
BMu97,P01,CTR,INI,Weight_Unconstrained,1,R_ESI,FM,M1,49.27802983167915
BMu97,P01,CTR,INI,Weight_Unconstrained,1,R_ESI,FM,M2,62.55638024362304
BMu97,P01,CTR,INI,Weight_Unconstrained,1,R_ESI,FM,M3,50.67381711349036
BMu97,P01,CTR,REL,Weight_Unconstrained,1,L_ESI,FM,M1,47.205951976186476
BMu97,P01,CTR,REL,Weight_Unconstrained,1,L_ESI,FM,M2,47.52460079513796
BMu97,P01,CTR,REL,Weight_Unconstrained,1,L_ESI,FM,M3,51.08665756509292
BMu97,P01,CTR,REL,Weight_Unconstrained,1,R_ESI,FM,M1,253.51324722493314
BMu97,P01,CTR,REL,Weight_Unconstrained,1,R_ESI,FM,M2,335.7748344878
BMu97,P01,CTR,REL,Weight_Unconstrained,1,R_ESI,FM,M3,208.66105775878435
BMu97,P02,CTR,INI,Weight_Unconstrained,1,L_ESI,FM,M1,63.24462163881138
BMu97,P02,CTR,INI,Weight_Unconstrained,1,L_ESI,FM,M2,70.28962465538476
BMu97,P02,CTR,INI,Weight_Unconstrained,1,L_ESI,FM,M3,62.21710136845509
BMu97,P02,CTR,INI,Weight_Unconstrained,1,R_ESI,FM,M1,649.9435938863426
BMu97,P02,CTR,INI,Weight_Unconstrained,1,R_ESI,FM,M2,348.3366065004677
BMu97,P02,CTR,INI,Weight_Unconstrained,1,R_ESI,FM,M3,784.7558184129712
BMu97,P02,CTR,REL,Weight_Unconstrained,1,L_ESI,FM,M1,65.06035653983619
BMu97,P02,CTR,REL,Weight_Unconstrained,1,L_ESI,FM,M2,64.86917943005614
BMu97,P02,CTR,REL,Weight_Unconstrained,1,L_ESI,FM,M3,65.86528230397748
BMu97,P02,CTR,REL,Weight_Unconstrained,1,R_ESI,FM,M1,63.55060877349957
BMu97,P02,CTR,REL,Weight_Unconstrained,1,R_ESI,FM,M2,63.60423866231869
BMu97,P02,CTR,REL,Weight_Unconstrained,1,R_ESI,FM,M3,62.25909586504258
BMu97,P03,CTR,INI,Weight_Unconstrained,1,L_ESI,FM,M1,88.46557986260879
BMu97,P03,CTR,INI,Weight_Unconstrained,1,L_ESI,FM,M2,86.81399650278246
BMu97,P03,CTR,INI,Weight_Unconstrained,1,L_ESI,FM,M3,92.51574575447084
BMu97,P03,CTR,INI,Weight_Unconstrained,1,R_ESI,FM,M1,77.09958254797095
BMu97,P03,CTR,INI,Weight_Unconstrained,1,R_ESI,FM,M2,75.24976378706431
BMu97,P03,CTR,INI,Weight_Unconstrained,1,R_ESI,FM,M3,78.05873946827754
BMu97,P03,CTR,REL,Weight_Unconstrained,1,L_ESI,FM,M1,80.77926584756756
BMu97,P03,CTR,REL,Weight_Unconstrained,1,L_ESI,FM,M2,74.61813588119252
BMu97,P03,CTR,REL,Weight_Unconstrained,1,L_ESI,FM,M3,80.31159864969445
BMu97,P03,CTR,REL,Weight_Unconstrained,1,R_ESI,FM,M1,95.50008278890026
BMu97,P03,CTR,REL,Weight_Unconstrained,1,R_ESI,FM,M2,96.26698081275808
BMu97,P03,CTR,REL,Weight_Unconstrained,1,R_ESI,FM,M3,94.28401332750863
BMu97,P05,CTR,INI,Weight_Unconstrained,1,L_ESI,FM,M1,35.002051554613246
BMu97,P05,CTR,INI,Weight_Unconstrained,1,L_ESI,FM,M2,34.03886778511784
BMu97,P05,CTR,INI,Weight_Unconstrained,1,L_ESI,FM,M3,36.53417501996596
BMu97,P05,CTR,INI,Weight_Unconstrained,1,R_ESI,FM,M1,47.88198074957528
BMu97,P05,CTR,INI,Weight_Unconstrained,1,R_ESI,FM,M2,36.89686307473279
BMu97,P05,CTR,INI,Weight_Unconstrained,1,R_ESI,FM,M3,35.976922397692036
BMu97,P05,CTR,REL,Weight_Unconstrained,1,L_ESI,FM,M1,39.94469576169758
BMu97,P05,CTR,REL,Weight_Unconstrained,1,L_ESI,FM,M2,37.67689561289558
BMu97,P05,CTR,REL,Weight_Unconstrained,1,L_ESI,FM,M3,37.78387901204407
BMu97,P05,CTR,REL,Weight_Unconstrained,1,L_ESI,FM,M4,47.55513606158955
BMu97,P05,CTR,REL,Weight_Unconstrained,1,R_ESI,FM,M1,68.35584634617793
BMu97,P05,CTR,REL,Weight_Unconstrained,1,R_ESI,FM,M2,72.41060634987753
BMu97,P05,CTR,REL,Weight_Unconstrained,1,R_ESI,FM,M3,81.27167229516331
BMu97,P05,CTR,REL,Weight_Unconstrained,1,R_ESI,FM,M4,88.848168788624
BMu97,P06,CTR,INI,Weight_Unconstrained,1,L_ESI,FM,M1,66.35200204637464
BMu97,P06,CTR,INI,Weight_Unconstrained,1,L_ESI,FM,M2,69.48025556818398
BMu97,P06,CTR,INI,Weight_Unconstrained,1,L_ESI,FM,M3,69.1500984292392
BMu97,P06,CTR,INI,Weight_Unconstrained,1,R_ESI,FM,M1,74.80908712478421
BMu97,P06,CTR,INI,Weight_Unconstrained,1,R_ESI,FM,M2,76.59374945990902
BMu97,P06,CTR,INI,Weight_Unconstrained,1,R_ESI,FM,M3,77.79501144122996
BMu97,P06,CTR,REL,Weight_Unconstrained,1,L_ESI,FM,M1,59.65471373959974
BMu97,P06,CTR,REL,Weight_Unconstrained,1,L_ESI,FM,M2,58.46811813081304
BMu97,P06,CTR,REL,Weight_Unconstrained,1,L_ESI,FM,M3,61.03916058165763
BMu97,P06,CTR,REL,Weight_Unconstrained,1,R_ESI,FM,M1,61.594765396457376
BMu97,P06,CTR,REL,Weight_Unconstrained,1,R_ESI,FM,M2,62.80101745550448
BMu97,P06,CTR,REL,Weight_Unconstrained,1,R_ESI,FM,M3,62.61815037779999
BMu97,P07,CTR,INI,Weight_Unconstrained,1,L_ESI,FM,M1,40.09573883018539
BMu97,P07,CTR,INI,Weight_Unconstrained,1,L_ESI,FM,M2,42.7607964098427
BMu97,P07,CTR,INI,Weight_Unconstrained,1,L_ESI,FM,M3,49.34448092294208
BMu97,P07,CTR,INI,Weight_Unconstrained,1,R_ESI,FM,M1,34.053753946869314
BMu97,P07,CTR,INI,Weight_Unconstrained,1,R_ESI,FM,M2,37.80255938913434
BMu97,P07,CTR,INI,Weight_Unconstrained,1,R_ESI,FM,M3,39.821192306619054
BMu97,P07,CTR,REL,Weight_Unconstrained,1,L_ESI,FM,M1,28.467328181153512
BMu97,P07,CTR,REL,Weight_Unconstrained,1,L_ESI,FM,M2,27.849096842858284
BMu97,P07,CTR,REL,Weight_Unconstrained,1,L_ESI,FM,M3,29.734205613291564
BMu97,P07,CTR,REL,Weight_Unconstrained,1,R_ESI,FM,M1,26.352574864178358
BMu97,P07,CTR,REL,Weight_Unconstrained,1,R_ESI,FM,M2,27.720311657989853
BMu97,P07,CTR,REL,Weight_Unconstrained,1,R_ESI,FM,M3,28.22418046518789
BMu97,P08,CTR,INI,Weight_Unconstrained,1,L_ESI,FM,M1,87.11146149323109
BMu97,P08,CTR,INI,Weight_Unconstrained,1,L_ESI,FM,M2,48.31930320515472
BMu97,P08,CTR,INI,Weight_Unconstrained,1,L_ESI,FM,M3,68.73442478653112
BMu97,P08,CTR,INI,Weight_Unconstrained,1,R_ESI,FM,M1,89.77538453037852
BMu97,P08,CTR,INI,Weight_Unconstrained,1,R_ESI,FM,M2,72.11958385911802
BMu97,P08,CTR,INI,Weight_Unconstrained,1,R_ESI,FM,M3,87.3052943346705
BMu97,P08,CTR,REL,Weight_Unconstrained,1,L_ESI,FM,M1,82.90739686887645
BMu97,P08,CTR,REL,Weight_Unconstrained,1,L_ESI,FM,M2,57.40400951263182
BMu97,P08,CTR,REL,Weight_Unconstrained,1,L_ESI,FM,M3,73.00489851707687
BMu97,P08,CTR,REL,Weight_Unconstrained,1,R_ESI,FM,M1,89.85087088670565
BMu97,P08,CTR,REL,Weight_Unconstrained,1,R_ESI,FM,M2,89.22266530081862
BMu97,P08,CTR,REL,Weight_Unconstrained,1,R_ESI,FM,M3,95.3432502983901
BMu97,P09,PAT,INI,Weight_Unconstrained,1,L_ESI,FM,M1,49.18084952878759
BMu97,P09,PAT,INI,Weight_Unconstrained,1,L_ESI,FM,M2,42.26346956028054
BMu97,P09,PAT,INI,Weight_Unconstrained,1,L_ESI,FM,M3,43.57365806369712
BMu97,P09,PAT,INI,Weight_Unconstrained,1,R_ESI,FM,M1,53.1826811575143
BMu97,P09,PAT,INI,Weight_Unconstrained,1,R_ESI,FM,M2,55.570051083823444
BMu97,P09,PAT,INI,Weight_Unconstrained,1,R_ESI,FM,M3,55.769962602195776
BMu97,P09,PAT,REL,Weight_Unconstrained,1,L_ESI,FM,M1,22.59900195533276
BMu97,P09,PAT,REL,Weight_Unconstrained,1,L_ESI,FM,M2,29.61627724193586
BMu97,P09,PAT,REL,Weight_Unconstrained,1,L_ESI,FM,M3,30.906614763581207
BMu97,P09,PAT,REL,Weight_Unconstrained,1,L_ESI,FM,M4,31.5892188788698
BMu97,P09,PAT,REL,Weight_Unconstrained,1,L_ESI,FM,M5,30.180168162861044
BMu97,P09,PAT,REL,Weight_Unconstrained,1,R_ESI,FM,M1,31.189265088282973
BMu97,P09,PAT,REL,Weight_Unconstrained,1,R_ESI,FM,M2,36.77688423092671
BMu97,P09,PAT,REL,Weight_Unconstrained,1,R_ESI,FM,M3,37.855458571582375
BMu97,P09,PAT,REL,Weight_Unconstrained,1,R_ESI,FM,M4,40.48070688389717
BMu97,P09,PAT,REL,Weight_Unconstrained,1,R_ESI,FM,M5,43.11741377698481
BMu97,P10,PAT,INI,Weight_Unconstrained,1,L_ESI,FM,M1,88.71007338705205
BMu97,P10,PAT,INI,Weight_Unconstrained,1,L_ESI,FM,M2,94.78836266526615
BMu97,P10,PAT,INI,Weight_Unconstrained,1,L_ESI,FM,M3,105.1479460786829
BMu97,P10,PAT,INI,Weight_Unconstrained,1,R_ESI,FM,M1,71.52035458148234
BMu97,P10,PAT,INI,Weight_Unconstrained,1,R_ESI,FM,M2,77.90538982726268
BMu97,P10,PAT,INI,Weight_Unconstrained,1,R_ESI,FM,M3,78.75395543966292
BMu97,P10,PAT,REL,Weight_Unconstrained,1,L_ESI,FM,M1,55.007024975813934
BMu97,P10,PAT,REL,Weight_Unconstrained,1,L_ESI,FM,M2,59.047563005978134
BMu97,P10,PAT,REL,Weight_Unconstrained,1,L_ESI,FM,M3,56.70278010994872
BMu97,P10,PAT,REL,Weight_Unconstrained,1,R_ESI,FM,M1,447.72429979433605
BMu97,P10,PAT,REL,Weight_Unconstrained,1,R_ESI,FM,M2,536.7656126201525
BMu97,P10,PAT,REL,Weight_Unconstrained,1,R_ESI,FM,M3,641.6840884736915
BMu97,P11,PAT,INI,Weight_Unconstrained,1,L_ESI,FM,M1,31.143442886487406
BMu97,P11,PAT,INI,Weight_Unconstrained,1,L_ESI,FM,M2,29.574028943413076
BMu97,P11,PAT,INI,Weight_Unconstrained,1,L_ESI,FM,M3,31.699792373474374
BMu97,P11,PAT,INI,Weight_Unconstrained,1,R_ESI,FM,M1,36.95443066074128
BMu97,P11,PAT,INI,Weight_Unconstrained,1,R_ESI,FM,M2,37.103978568512275
BMu97,P11,PAT,INI,Weight_Unconstrained,1,R_ESI,FM,M3,41.11531565410619
BMu97,P11,PAT,REL,Weight_Unconstrained,1,L_ESI,FM,M1,66.9961208674498
BMu97,P11,PAT,REL,Weight_Unconstrained,1,L_ESI,FM,M2,70.95835727178705
BMu97,P11,PAT,REL,Weight_Unconstrained,1,L_ESI,FM,M3,68.55146665995935
BMu97,P11,PAT,REL,Weight_Unconstrained,1,R_ESI,FM,M1,49.13683741443103
BMu97,P11,PAT,REL,Weight_Unconstrained,1,R_ESI,FM,M2,56.91968499040715
BMu97,P11,PAT,REL,Weight_Unconstrained,1,R_ESI,FM,M3,63.26095250514943
BMu97,P12,PAT,INI,Weight_Unconstrained,1,L_ESI,FM,M1,65.78777642031174
BMu97,P12,PAT,INI,Weight_Unconstrained,1,L_ESI,FM,M2,57.89493973825179
BMu97,P12,PAT,INI,Weight_Unconstrained,1,L_ESI,FM,M3,59.88749333341916
BMu97,P12,PAT,INI,Weight_Unconstrained,1,R_ESI,FM,M1,437.16494018952915
BMu97,P12,PAT,INI,Weight_Unconstrained,1,R_ESI,FM,M2,233.40497815746664
BMu97,P12,PAT,INI,Weight_Unconstrained,1,R_ESI,FM,M3,210.48128489759
BMu97,P12,PAT,REL,Weight_Unconstrained,1,L_ESI,FM,M1,54.84307195923434
BMu97,P12,PAT,REL,Weight_Unconstrained,1,L_ESI,FM,M2,60.22445867792669
BMu97,P12,PAT,REL,Weight_Unconstrained,1,L_ESI,FM,M3,61.85754057301131
BMu97,P12,PAT,REL,Weight_Unconstrained,1,R_ESI,FM,M1,38.364827412125294
BMu97,P12,PAT,REL,Weight_Unconstrained,1,R_ESI,FM,M2,49.94060212772867
BMu97,P12,PAT,REL,Weight_Unconstrained,1,R_ESI,FM,M3,48.039869069978025
BMu97,P13,CTR,INI,Weight_Unconstrained,1,L_ESI,FM,M1,79.83775870992586
BMu97,P13,CTR,INI,Weight_Unconstrained,1,L_ESI,FM,M2,77.23169259196294
BMu97,P13,CTR,INI,Weight_Unconstrained,1,L_ESI,FM,M3,76.97922282926575
BMu97,P13,CTR,INI,Weight_Unconstrained,1,R_ESI,FM,M1,63.77991993851634
BMu97,P13,CTR,INI,Weight_Unconstrained,1,R_ESI,FM,M2,68.3090435126598
BMu97,P13,CTR,INI,Weight_Unconstrained,1,R_ESI,FM,M3,73.44622828205397
BMu97,P13,CTR,REL,Weight_Unconstrained,1,L_ESI,FM,M1,81.34222758566449
BMu97,P13,CTR,REL,Weight_Unconstrained,1,L_ESI,FM,M2,83.10314242294709
BMu97,P13,CTR,REL,Weight_Unconstrained,1,L_ESI,FM,M3,83.91193079626399
BMu97,P13,CTR,REL,Weight_Unconstrained,1,R_ESI,FM,M1,74.09403894662924
BMu97,P13,CTR,REL,Weight_Unconstrained,1,R_ESI,FM,M2,80.07995386381276
BMu97,P13,CTR,REL,Weight_Unconstrained,1,R_ESI,FM,M3,76.6707255849441
BMu97,P14,PAT,INI,Weight_Unconstrained,1,L_ESI,FM,M1,47.11142236040652
BMu97,P14,PAT,INI,Weight_Unconstrained,1,L_ESI,FM,M2,51.191887091357685
BMu97,P14,PAT,INI,Weight_Unconstrained,1,L_ESI,FM,M3,55.23394122611012
BMu97,P14,PAT,INI,Weight_Unconstrained,1,R_ESI,FM,M1,80.59613833022917
BMu97,P14,PAT,INI,Weight_Unconstrained,1,R_ESI,FM,M2,81.5072453167931
BMu97,P14,PAT,INI,Weight_Unconstrained,1,R_ESI,FM,M3,78.96658076041147
BMu97,P14,PAT,REL,Weight_Unconstrained,1,L_ESI,FM,M1,87.71796892106865
BMu97,P14,PAT,REL,Weight_Unconstrained,1,L_ESI,FM,M2,87.66611782180166
BMu97,P14,PAT,REL,Weight_Unconstrained,1,L_ESI,FM,M3,93.71993582001278
BMu97,P14,PAT,REL,Weight_Unconstrained,1,R_ESI,FM,M1,74.44675715298487
BMu97,P14,PAT,REL,Weight_Unconstrained,1,R_ESI,FM,M2,76.11550674806014
BMu97,P14,PAT,REL,Weight_Unconstrained,1,R_ESI,FM,M3,71.70344881053731
BMu97,P16,CTR,INI,Weight_Unconstrained,1,L_ESI,FM,M1,89.3764800329656
BMu97,P16,CTR,INI,Weight_Unconstrained,1,L_ESI,FM,M2,83.26275054353523
BMu97,P16,CTR,INI,Weight_Unconstrained,1,L_ESI,FM,M3,94.2092303789324
BMu97,P16,CTR,INI,Weight_Unconstrained,1,R_ESI,FM,M1,134.1755888991212
BMu97,P16,CTR,INI,Weight_Unconstrained,1,R_ESI,FM,M2,122.90689852091656
BMu97,P16,CTR,INI,Weight_Unconstrained,1,R_ESI,FM,M3,129.6976960395994
BMu97,P16,CTR,REL,Weight_Unconstrained,1,L_ESI,FM,M1,108.61159359654408
BMu97,P16,CTR,REL,Weight_Unconstrained,1,L_ESI,FM,M2,110.76174385697439
BMu97,P16,CTR,REL,Weight_Unconstrained,1,L_ESI,FM,M3,113.71031500522574
BMu97,P16,CTR,REL,Weight_Unconstrained,1,R_ESI,FM,M1,102.56790872790174
BMu97,P16,CTR,REL,Weight_Unconstrained,1,R_ESI,FM,M2,119.20668482140843
BMu97,P16,CTR,REL,Weight_Unconstrained,1,R_ESI,FM,M3,124.62406886031513
BMu97,P17,PAT,INI,Weight_Unconstrained,1,L_ESI,FM,M1,41.9808902306856
BMu97,P17,PAT,INI,Weight_Unconstrained,1,L_ESI,FM,M2,44.477762849881586
BMu97,P17,PAT,INI,Weight_Unconstrained,1,L_ESI,FM,M3,45.583403547073175
BMu97,P17,PAT,INI,Weight_Unconstrained,1,R_ESI,FM,M1,107.18774395380126
BMu97,P17,PAT,INI,Weight_Unconstrained,1,R_ESI,FM,M2,84.29497145357978
BMu97,P17,PAT,INI,Weight_Unconstrained,1,R_ESI,FM,M3,96.86787717925222
BMu97,P17,PAT,REL,Weight_Unconstrained,1,L_ESI,FM,M1,26.90573946514496
BMu97,P17,PAT,REL,Weight_Unconstrained,1,L_ESI,FM,M2,29.09748615363194
BMu97,P17,PAT,REL,Weight_Unconstrained,1,L_ESI,FM,M3,34.90633750167543
BMu97,P17,PAT,REL,Weight_Unconstrained,1,R_ESI,FM,M1,58.493891340676655
BMu97,P17,PAT,REL,Weight_Unconstrained,1,R_ESI,FM,M2,152.16569348029674
BMu97,P17,PAT,REL,Weight_Unconstrained,1,R_ESI,FM,M3,153.88840169393083
BMu97,P21,CTR,INI,Weight_Unconstrained,1,L_ESI,FM,M1,45.70377066547685
BMu97,P21,CTR,INI,Weight_Unconstrained,1,L_ESI,FM,M2,51.9082932504281
BMu97,P21,CTR,INI,Weight_Unconstrained,1,L_ESI,FM,M3,73.90455429713343
BMu97,P21,CTR,INI,Weight_Unconstrained,1,R_ESI,FM,M1,46.52376417605063
BMu97,P21,CTR,INI,Weight_Unconstrained,1,R_ESI,FM,M2,58.04398577659464
BMu97,P21,CTR,INI,Weight_Unconstrained,1,R_ESI,FM,M3,73.2088599786796
BMu97,P21,CTR,REL,Weight_Unconstrained,1,L_ESI,FM,M1,66.38886259876138
BMu97,P21,CTR,REL,Weight_Unconstrained,1,L_ESI,FM,M2,129.817140511572
BMu97,P21,CTR,REL,Weight_Unconstrained,1,L_ESI,FM,M3,176.82799642129038
BMu97,P21,CTR,REL,Weight_Unconstrained,1,L_ESI,FM,M4,124.93168785887946
BMu97,P21,CTR,REL,Weight_Unconstrained,1,R_ESI,FM,M1,247.2162847082089
BMu97,P21,CTR,REL,Weight_Unconstrained,1,R_ESI,FM,M2,550.5135174434789
BMu97,P21,CTR,REL,Weight_Unconstrained,1,R_ESI,FM,M3,567.7642869714712
BMu97,P21,CTR,REL,Weight_Unconstrained,1,R_ESI,FM,M4,731.3628361420451
BMu97,P22,CTR,INI,Weight_Unconstrained,1,L_ESI,FM,M1,75.39386430033191
BMu97,P22,CTR,INI,Weight_Unconstrained,1,L_ESI,FM,M2,84.17122529048895
BMu97,P22,CTR,INI,Weight_Unconstrained,1,L_ESI,FM,M3,72.84399189548395
BMu97,P22,CTR,INI,Weight_Unconstrained,1,R_ESI,FM,M1,529.1083609958462
BMu97,P22,CTR,INI,Weight_Unconstrained,1,R_ESI,FM,M2,309.1583136972822
BMu97,P22,CTR,INI,Weight_Unconstrained,1,R_ESI,FM,M3,437.906352701964
BMu97,P22,CTR,REL,Weight_Unconstrained,1,L_ESI,FM,M1,39.24806385989097
BMu97,P22,CTR,REL,Weight_Unconstrained,1,L_ESI,FM,M2,46.486560288171184
BMu97,P22,CTR,REL,Weight_Unconstrained,1,R_ESI,FM,M1,38.96010529807711
BMu97,P22,CTR,REL,Weight_Unconstrained,1,R_ESI,FM,M2,43.13796069909291
BMu97,P23,CTR,INI,Weight_Unconstrained,1,L_ESI,FM,M1,67.27536908289858
BMu97,P23,CTR,INI,Weight_Unconstrained,1,L_ESI,FM,M2,67.81530496374815
BMu97,P23,CTR,INI,Weight_Unconstrained,1,L_ESI,FM,M3,77.29525262135101
BMu97,P23,CTR,INI,Weight_Unconstrained,1,R_ESI,FM,M1,79.48169066951294
BMu97,P23,CTR,INI,Weight_Unconstrained,1,R_ESI,FM,M2,71.26487059224081
BMu97,P23,CTR,INI,Weight_Unconstrained,1,R_ESI,FM,M3,83.07527125351305
BMu97,P23,CTR,REL,Weight_Unconstrained,1,L_ESI,FM,M1,81.2869231524061
BMu97,P23,CTR,REL,Weight_Unconstrained,1,L_ESI,FM,M2,90.21706295478899
BMu97,P23,CTR,REL,Weight_Unconstrained,1,L_ESI,FM,M3,81.48990609733048
BMu97,P23,CTR,REL,Weight_Unconstrained,1,R_ESI,FM,M1,41.254975731268644
BMu97,P23,CTR,REL,Weight_Unconstrained,1,R_ESI,FM,M2,44.104941770224784
BMu97,P23,CTR,REL,Weight_Unconstrained,1,R_ESI,FM,M3,45.89587086183272
BMu97,P24,PAT,INI,Weight_Unconstrained,1,L_ESI,FM,M1,84.23178235721669
BMu97,P24,PAT,INI,Weight_Unconstrained,1,L_ESI,FM,M2,85.86259630860894
BMu97,P24,PAT,INI,Weight_Unconstrained,1,L_ESI,FM,M3,86.05938196444691
BMu97,P24,PAT,INI,Weight_Unconstrained,1,R_ESI,FM,M1,78.63840049274862
BMu97,P24,PAT,INI,Weight_Unconstrained,1,R_ESI,FM,M2,77.96381060599182
BMu97,P24,PAT,INI,Weight_Unconstrained,1,R_ESI,FM,M3,78.54446485054754
BMu97,P24,PAT,REL,Weight_Unconstrained,1,L_ESI,FM,M1,77.14447401360445
BMu97,P24,PAT,REL,Weight_Unconstrained,1,L_ESI,FM,M2,75.86943724450028
BMu97,P24,PAT,REL,Weight_Unconstrained,1,L_ESI,FM,M3,105.18211640157269
BMu97,P24,PAT,REL,Weight_Unconstrained,1,R_ESI,FM,M1,70.6588808603473
BMu97,P24,PAT,REL,Weight_Unconstrained,1,R_ESI,FM,M2,72.14934720174622
BMu97,P24,PAT,REL,Weight_Unconstrained,1,R_ESI,FM,M3,70.8966596905159
BMu97,P25,CTR,INI,Weight_Unconstrained,1,L_ESI,FM,M1,77.97611083870119
BMu97,P25,CTR,INI,Weight_Unconstrained,1,L_ESI,FM,M2,66.30306529058312
BMu97,P25,CTR,INI,Weight_Unconstrained,1,L_ESI,FM,M3,69.62754146244362
BMu97,P25,CTR,INI,Weight_Unconstrained,1,R_ESI,FM,M1,64.98576732597428
BMu97,P25,CTR,INI,Weight_Unconstrained,1,R_ESI,FM,M2,42.21070355360774
BMu97,P25,CTR,INI,Weight_Unconstrained,1,R_ESI,FM,M3,52.42623454846969
BMu97,P25,CTR,REL,Weight_Unconstrained,1,L_ESI,FM,M1,71.12792747495659
BMu97,P25,CTR,REL,Weight_Unconstrained,1,L_ESI,FM,M2,62.885525010706004
BMu97,P25,CTR,REL,Weight_Unconstrained,1,L_ESI,FM,M3,75.1143540966649
BMu97,P25,CTR,REL,Weight_Unconstrained,1,R_ESI,FM,M1,83.88196171235839
BMu97,P25,CTR,REL,Weight_Unconstrained,1,R_ESI,FM,M2,66.0347608133716
BMu97,P25,CTR,REL,Weight_Unconstrained,1,R_ESI,FM,M3,59.65533363145412
BMu97,P26,PAT,INI,Weight_Unconstrained,1,L_ESI,FM,M1,77.63351022503912
BMu97,P26,PAT,INI,Weight_Unconstrained,1,L_ESI,FM,M2,95.88074807596095
BMu97,P26,PAT,INI,Weight_Unconstrained,1,L_ESI,FM,M3,111.14436132045634
BMu97,P26,PAT,INI,Weight_Unconstrained,1,R_ESI,FM,M1,63.11764639823148
BMu97,P26,PAT,INI,Weight_Unconstrained,1,R_ESI,FM,M2,68.18997081445396
BMu97,P26,PAT,INI,Weight_Unconstrained,1,R_ESI,FM,M3,59.633739351630226
BMu97,P26,PAT,REL,Weight_Unconstrained,1,L_ESI,FM,M1,143.98326747203407
BMu97,P26,PAT,REL,Weight_Unconstrained,1,L_ESI,FM,M2,171.13435654632588
BMu97,P26,PAT,REL,Weight_Unconstrained,1,L_ESI,FM,M3,252.57922227660913
BMu97,P26,PAT,REL,Weight_Unconstrained,1,R_ESI,FM,M1,2661.7944738199085
BMu97,P26,PAT,REL,Weight_Unconstrained,1,R_ESI,FM,M2,2547.40173255725
BMu97,P26,PAT,REL,Weight_Unconstrained,1,R_ESI,FM,M3,1526.2002098789942
BMu97,P27,PAT,INI,Weight_Unconstrained,1,L_ESI,FM,M1,56.66364575085434
BMu97,P27,PAT,INI,Weight_Unconstrained,1,L_ESI,FM,M2,54.129133042932835
BMu97,P27,PAT,INI,Weight_Unconstrained,1,L_ESI,FM,M3,53.61986623675101
BMu97,P27,PAT,INI,Weight_Unconstrained,1,R_ESI,FM,M1,66.07028529737686
BMu97,P27,PAT,INI,Weight_Unconstrained,1,R_ESI,FM,M2,66.3513345221573
BMu97,P27,PAT,INI,Weight_Unconstrained,1,R_ESI,FM,M3,62.36883692561766
BMu97,P27,PAT,REL,Weight_Unconstrained,1,L_ESI,FM,M1,56.17608622066561
BMu97,P27,PAT,REL,Weight_Unconstrained,1,L_ESI,FM,M2,55.45925732767867
BMu97,P27,PAT,REL,Weight_Unconstrained,1,L_ESI,FM,M3,50.747749378904984
BMu97,P27,PAT,REL,Weight_Unconstrained,1,R_ESI,FM,M1,83.88510326042649
BMu97,P27,PAT,REL,Weight_Unconstrained,1,R_ESI,FM,M2,86.54271342790021
BMu97,P27,PAT,REL,Weight_Unconstrained,1,R_ESI,FM,M3,69.24999187036364
BMu97,P28,PAT,INI,Weight_Unconstrained,1,L_ESI,FM,M1,37.851979877178
BMu97,P28,PAT,INI,Weight_Unconstrained,1,L_ESI,FM,M2,37.315191842848094
BMu97,P28,PAT,INI,Weight_Unconstrained,1,L_ESI,FM,M3,38.235654201112624
BMu97,P28,PAT,INI,Weight_Unconstrained,1,R_ESI,FM,M1,42.70651694063843
BMu97,P28,PAT,INI,Weight_Unconstrained,1,R_ESI,FM,M2,45.3464578163549
BMu97,P28,PAT,INI,Weight_Unconstrained,1,R_ESI,FM,M3,42.693898095618124
BMu97,P28,PAT,REL,Weight_Unconstrained,1,L_ESI,FM,M1,40.387203613975224
BMu97,P28,PAT,REL,Weight_Unconstrained,1,L_ESI,FM,M2,43.35693244181323
BMu97,P28,PAT,REL,Weight_Unconstrained,1,L_ESI,FM,M3,44.436987937401675
BMu97,P28,PAT,REL,Weight_Unconstrained,1,R_ESI,FM,M1,46.44138580932045
BMu97,P28,PAT,REL,Weight_Unconstrained,1,R_ESI,FM,M2,46.82581968606462
BMu97,P28,PAT,REL,Weight_Unconstrained,1,R_ESI,FM,M3,44.06965706215951
BMu97,P29,PAT,INI,Weight_Unconstrained,1,L_ESI,FM,M1,57.156882125797026
BMu97,P29,PAT,INI,Weight_Unconstrained,1,L_ESI,FM,M2,
BMu97,P29,PAT,INI,Weight_Unconstrained,1,L_ESI,FM,M3,
BMu97,P29,PAT,INI,Weight_Unconstrained,1,R_ESI,FM,M1,55.577044849499714
BMu97,P29,PAT,INI,Weight_Unconstrained,1,R_ESI,FM,M2,
BMu97,P29,PAT,INI,Weight_Unconstrained,1,R_ESI,FM,M3,
BMu97,P29,PAT,REL,Weight_Unconstrained,1,L_ESI,FM,M1,
BMu97,P29,PAT,REL,Weight_Unconstrained,1,L_ESI,FM,M2,52.514461612737534
BMu97,P29,PAT,REL,Weight_Unconstrained,1,L_ESI,FM,M3,68.34278555175689
BMu97,P29,PAT,REL,Weight_Unconstrained,1,R_ESI,FM,M1,
BMu97,P29,PAT,REL,Weight_Unconstrained,1,R_ESI,FM,M2,43.97284437302313
BMu97,P29,PAT,REL,Weight_Unconstrained,1,R_ESI,FM,M3,52.937210453066655
BMu97,P30,PAT,INI,Weight_Unconstrained,1,L_ESI,FM,M1,36.80183387958871
BMu97,P30,PAT,INI,Weight_Unconstrained,1,L_ESI,FM,M2,40.38348104687233
BMu97,P30,PAT,INI,Weight_Unconstrained,1,L_ESI,FM,M3,44.7819906279431
BMu97,P30,PAT,INI,Weight_Unconstrained,1,R_ESI,FM,M1,40.37145359522276
BMu97,P30,PAT,INI,Weight_Unconstrained,1,R_ESI,FM,M2,43.29824344169619
BMu97,P30,PAT,INI,Weight_Unconstrained,1,R_ESI,FM,M3,46.33397677255492
BMu97,P30,PAT,REL,Weight_Unconstrained,1,L_ESI,FM,M1,62.27021847045005
BMu97,P30,PAT,REL,Weight_Unconstrained,1,L_ESI,FM,M2,62.87391398808248
BMu97,P30,PAT,REL,Weight_Unconstrained,1,L_ESI,FM,M3,62.94381628353159
BMu97,P30,PAT,REL,Weight_Unconstrained,1,R_ESI,FM,M1,58.6359965910387
BMu97,P30,PAT,REL,Weight_Unconstrained,1,R_ESI,FM,M2,61.59160849125861
BMu97,P30,PAT,REL,Weight_Unconstrained,1,R_ESI,FM,M3,59.51461821603982
BMu97,P32,PAT,INI,Weight_Unconstrained,1,L_ESI,FM,M1,31.549774553638734
BMu97,P32,PAT,INI,Weight_Unconstrained,1,L_ESI,FM,M2,33.310172253868245
BMu97,P32,PAT,INI,Weight_Unconstrained,1,L_ESI,FM,M3,33.13021466091803
BMu97,P32,PAT,INI,Weight_Unconstrained,1,R_ESI,FM,M1,56.21322272979248
BMu97,P32,PAT,INI,Weight_Unconstrained,1,R_ESI,FM,M2,60.97560468173265
BMu97,P32,PAT,INI,Weight_Unconstrained,1,R_ESI,FM,M3,60.84519434456739
BMu97,P32,PAT,REL,Weight_Unconstrained,1,L_ESI,FM,M1,45.07884063576887
BMu97,P32,PAT,REL,Weight_Unconstrained,1,L_ESI,FM,M2,48.38174529729629
BMu97,P32,PAT,REL,Weight_Unconstrained,1,L_ESI,FM,M3,42.82853481749595
BMu97,P32,PAT,REL,Weight_Unconstrained,1,R_ESI,FM,M1,68.68785394282713
BMu97,P32,PAT,REL,Weight_Unconstrained,1,R_ESI,FM,M2,73.90357371733062
BMu97,P32,PAT,REL,Weight_Unconstrained,1,R_ESI,FM,M3,73.66059271865802
BMu97,P33,PAT,INI,Weight_Unconstrained,1,L_ESI,FM,M1,78.28625272513767
BMu97,P33,PAT,INI,Weight_Unconstrained,1,L_ESI,FM,M2,101.60608089918617
BMu97,P33,PAT,INI,Weight_Unconstrained,1,L_ESI,FM,M3,93.36909769610793
BMu97,P33,PAT,INI,Weight_Unconstrained,1,R_ESI,FM,M1,53.9366949488566
BMu97,P33,PAT,INI,Weight_Unconstrained,1,R_ESI,FM,M2,71.50924670465922
BMu97,P33,PAT,INI,Weight_Unconstrained,1,R_ESI,FM,M3,74.39022236926962
BMu97,P33,PAT,REL,Weight_Unconstrained,1,L_ESI,FM,M1,44.46796823418406
BMu97,P33,PAT,REL,Weight_Unconstrained,1,R_ESI,FM,M1,103.06286985137801
BMu97,P34,PAT,INI,Weight_Unconstrained,1,L_ESI,FM,M1,66.08223981797362
BMu97,P34,PAT,INI,Weight_Unconstrained,1,L_ESI,FM,M2,58.434423128496185
BMu97,P34,PAT,INI,Weight_Unconstrained,1,L_ESI,FM,M3,61.43978137358474
BMu97,P34,PAT,INI,Weight_Unconstrained,1,R_ESI,FM,M1,53.72148116721958
BMu97,P34,PAT,INI,Weight_Unconstrained,1,R_ESI,FM,M2,48.972098069229524
BMu97,P34,PAT,INI,Weight_Unconstrained,1,R_ESI,FM,M3,51.385095662110444
BMu97,P34,PAT,REL,Weight_Unconstrained,1,L_ESI,FM,M1,86.48034735831564
BMu97,P34,PAT,REL,Weight_Unconstrained,1,L_ESI,FM,M2,95.2321826523245
BMu97,P34,PAT,REL,Weight_Unconstrained,1,L_ESI,FM,M3,92.4738353613231
BMu97,P34,PAT,REL,Weight_Unconstrained,1,R_ESI,FM,M1,3556.6236710156363
BMu97,P34,PAT,REL,Weight_Unconstrained,1,R_ESI,FM,M2,2134.5324793015952
BMu97,P34,PAT,REL,Weight_Unconstrained,1,R_ESI,FM,M3,2717.4745216454057
BMu97,P35,CTR,INI,Weight_Unconstrained,1,L_ESI,FM,M1,56.09277316204198
BMu97,P35,CTR,INI,Weight_Unconstrained,1,L_ESI,FM,M2,75.41038156962539
BMu97,P35,CTR,INI,Weight_Unconstrained,1,L_ESI,FM,M3,205.28665983673713
BMu97,P35,CTR,INI,Weight_Unconstrained,1,R_ESI,FM,M1,46.95913992421654
BMu97,P35,CTR,INI,Weight_Unconstrained,1,R_ESI,FM,M2,57.687353377885714
BMu97,P35,CTR,INI,Weight_Unconstrained,1,R_ESI,FM,M3,59.254332641740234
BMu97,P35,CTR,REL,Weight_Unconstrained,1,L_ESI,FM,M1,64.7361084562702
BMu97,P35,CTR,REL,Weight_Unconstrained,1,L_ESI,FM,M2,62.88569558462041
BMu97,P35,CTR,REL,Weight_Unconstrained,1,L_ESI,FM,M3,73.42678885758964
BMu97,P35,CTR,REL,Weight_Unconstrained,1,R_ESI,FM,M1,73.07745345355238
BMu97,P35,CTR,REL,Weight_Unconstrained,1,R_ESI,FM,M2,66.04813780758235
BMu97,P35,CTR,REL,Weight_Unconstrained,1,R_ESI,FM,M3,76.41906322502653
BMu97,P36,PAT,INI,Weight_Unconstrained,1,L_ESI,FM,M1,46.02789227217963
BMu97,P36,PAT,INI,Weight_Unconstrained,1,L_ESI,FM,M2,45.65027664199236
BMu97,P36,PAT,INI,Weight_Unconstrained,1,L_ESI,FM,M3,76.44501877714583
BMu97,P36,PAT,INI,Weight_Unconstrained,1,R_ESI,FM,M1,39.89694907818238
BMu97,P36,PAT,INI,Weight_Unconstrained,1,R_ESI,FM,M2,35.50512208098195
BMu97,P36,PAT,INI,Weight_Unconstrained,1,R_ESI,FM,M3,43.775703383595676
BMu97,P36,PAT,REL,Weight_Unconstrained,1,L_ESI,FM,M1,23.683662006916485
BMu97,P36,PAT,REL,Weight_Unconstrained,1,L_ESI,FM,M2,23.91397882580715
BMu97,P36,PAT,REL,Weight_Unconstrained,1,L_ESI,FM,M3,27.394956907189528
BMu97,P36,PAT,REL,Weight_Unconstrained,1,R_ESI,FM,M1,13.592665637910695
BMu97,P36,PAT,REL,Weight_Unconstrained,1,R_ESI,FM,M2,12.716706562271312
BMu97,P36,PAT,REL,Weight_Unconstrained,1,R_ESI,FM,M3,12.993895316523998
BMu97,P38,CTR,INI,Weight_Unconstrained,1,L_ESI,FM,M1,71.9188221168977
BMu97,P38,CTR,INI,Weight_Unconstrained,1,L_ESI,FM,M2,77.85110422559137
BMu97,P38,CTR,INI,Weight_Unconstrained,1,L_ESI,FM,M3,75.90198706179322
BMu97,P38,CTR,INI,Weight_Unconstrained,1,L_ESI,FM,M4,76.84989202534774
BMu97,P38,CTR,INI,Weight_Unconstrained,1,R_ESI,FM,M1,79.86301509779238
BMu97,P38,CTR,INI,Weight_Unconstrained,1,R_ESI,FM,M2,85.8455885672721
BMu97,P38,CTR,INI,Weight_Unconstrained,1,R_ESI,FM,M3,78.45362795130362
BMu97,P38,CTR,INI,Weight_Unconstrained,1,R_ESI,FM,M4,78.96234420376715
BMu97,P38,CTR,REL,Weight_Unconstrained,1,L_ESI,FM,M1,58.38537211966573
BMu97,P38,CTR,REL,Weight_Unconstrained,1,L_ESI,FM,M2,61.37983215915928
BMu97,P38,CTR,REL,Weight_Unconstrained,1,L_ESI,FM,M3,61.80145358928082
BMu97,P38,CTR,REL,Weight_Unconstrained,1,L_ESI,FM,M4,59.63038803961168
BMu97,P38,CTR,REL,Weight_Unconstrained,1,L_ESI,FM,M5,57.84053077875575
BMu97,P38,CTR,REL,Weight_Unconstrained,1,R_ESI,FM,M1,74.64927997391588
BMu97,P38,CTR,REL,Weight_Unconstrained,1,R_ESI,FM,M2,77.27182959840069
BMu97,P38,CTR,REL,Weight_Unconstrained,1,R_ESI,FM,M3,81.56533986690383
BMu97,P38,CTR,REL,Weight_Unconstrained,1,R_ESI,FM,M4,74.6470191645308
BMu97,P38,CTR,REL,Weight_Unconstrained,1,R_ESI,FM,M5,76.25243515108028
BMu97,P39,CTR,INI,Weight_Unconstrained,1,L_ESI,FM,M1,50.49239055717193
BMu97,P39,CTR,INI,Weight_Unconstrained,1,L_ESI,FM,M2,48.383162116187876
BMu97,P39,CTR,INI,Weight_Unconstrained,1,L_ESI,FM,M3,51.91045278638349
BMu97,P39,CTR,INI,Weight_Unconstrained,1,R_ESI,FM,M1,21.219419862323498
BMu97,P39,CTR,INI,Weight_Unconstrained,1,R_ESI,FM,M2,32.09674882383615
BMu97,P39,CTR,INI,Weight_Unconstrained,1,R_ESI,FM,M3,32.19951815283217
BMu97,P39,CTR,REL,Weight_Unconstrained,1,L_ESI,FM,M1,54.574835864860276
BMu97,P39,CTR,REL,Weight_Unconstrained,1,L_ESI,FM,M2,48.900374533116846
BMu97,P39,CTR,REL,Weight_Unconstrained,1,L_ESI,FM,M3,52.371209079600575
BMu97,P39,CTR,REL,Weight_Unconstrained,1,R_ESI,FM,M1,29.953891690645733
BMu97,P39,CTR,REL,Weight_Unconstrained,1,R_ESI,FM,M2,46.886444359801075
BMu97,P39,CTR,REL,Weight_Unconstrained,1,R_ESI,FM,M3,34.99404633304478
BMu97,P40,CTR,INI,Weight_Unconstrained,1,L_ESI,FM,M1,59.1556835256478
BMu97,P40,CTR,INI,Weight_Unconstrained,1,L_ESI,FM,M2,56.66754313331427
BMu97,P40,CTR,INI,Weight_Unconstrained,1,L_ESI,FM,M3,62.230875160716494
BMu97,P40,CTR,INI,Weight_Unconstrained,1,R_ESI,FM,M1,40.18339406913335
BMu97,P40,CTR,INI,Weight_Unconstrained,1,R_ESI,FM,M2,38.86823904836169
BMu97,P40,CTR,INI,Weight_Unconstrained,1,R_ESI,FM,M3,43.29056788470852
BMu97,P40,CTR,REL,Weight_Unconstrained,1,L_ESI,FM,M1,41.873694153266094
BMu97,P40,CTR,REL,Weight_Unconstrained,1,L_ESI,FM,M2,41.823437157652776
BMu97,P40,CTR,REL,Weight_Unconstrained,1,L_ESI,FM,M3,41.34371798499528
BMu97,P40,CTR,REL,Weight_Unconstrained,1,R_ESI,FM,M1,22.48243342191731
BMu97,P40,CTR,REL,Weight_Unconstrained,1,R_ESI,FM,M2,21.95701297320634
BMu97,P40,CTR,REL,Weight_Unconstrained,1,R_ESI,FM,M3,24.391174543497783
BMu97,P41,PAT,INI,Weight_Unconstrained,1,L_ESI,FM,M1,64.05767555965659
BMu97,P41,PAT,INI,Weight_Unconstrained,1,L_ESI,FM,M2,57.707041336114
BMu97,P41,PAT,INI,Weight_Unconstrained,1,L_ESI,FM,M3,59.54005491763124
BMu97,P41,PAT,INI,Weight_Unconstrained,1,L_ESI,FM,M4,59.36998912807947
BMu97,P41,PAT,INI,Weight_Unconstrained,1,R_ESI,FM,M1,23.796736437121115
BMu97,P41,PAT,INI,Weight_Unconstrained,1,R_ESI,FM,M2,24.611796211174113
BMu97,P41,PAT,INI,Weight_Unconstrained,1,R_ESI,FM,M3,22.42402446169078
BMu97,P41,PAT,INI,Weight_Unconstrained,1,R_ESI,FM,M4,25.413604301688625
BMu97,P41,PAT,REL,Weight_Unconstrained,1,L_ESI,FM,M1,49.529092049608494
BMu97,P41,PAT,REL,Weight_Unconstrained,1,L_ESI,FM,M2,45.98893620137477
BMu97,P41,PAT,REL,Weight_Unconstrained,1,L_ESI,FM,M3,46.99012454600751
BMu97,P41,PAT,REL,Weight_Unconstrained,1,R_ESI,FM,M1,21.985343193038084
BMu97,P41,PAT,REL,Weight_Unconstrained,1,R_ESI,FM,M2,18.523031544846816
BMu97,P41,PAT,REL,Weight_Unconstrained,1,R_ESI,FM,M3,17.63254457129908
BMu97,P42,PAT,INI,Weight_Unconstrained,1,L_ESI,FM,M1,84.54773036965648
BMu97,P42,PAT,INI,Weight_Unconstrained,1,L_ESI,FM,M2,103.53744878599565
BMu97,P42,PAT,INI,Weight_Unconstrained,1,L_ESI,FM,M3,102.32051078277443
BMu97,P42,PAT,INI,Weight_Unconstrained,1,R_ESI,FM,M1,63.78274606721203
BMu97,P42,PAT,INI,Weight_Unconstrained,1,R_ESI,FM,M2,80.77239103223013
BMu97,P42,PAT,INI,Weight_Unconstrained,1,R_ESI,FM,M3,72.68221881354134
BMu97,P42,PAT,REL,Weight_Unconstrained,1,L_ESI,FM,M1,103.43593071387525
BMu97,P42,PAT,REL,Weight_Unconstrained,1,L_ESI,FM,M2,101.68816559153463
BMu97,P42,PAT,REL,Weight_Unconstrained,1,L_ESI,FM,M3,110.57661339702702
BMu97,P42,PAT,REL,Weight_Unconstrained,1,R_ESI,FM,M1,96.02407910491414
BMu97,P42,PAT,REL,Weight_Unconstrained,1,R_ESI,FM,M2,96.66766502003438
BMu97,P42,PAT,REL,Weight_Unconstrained,1,R_ESI,FM,M3,96.37924326791932
BMu97,P43,PAT,INI,Weight_Unconstrained,1,L_ESI,FM,M1,30.85091516594527
BMu97,P43,PAT,INI,Weight_Unconstrained,1,L_ESI,FM,M2,35.047511077350904
BMu97,P43,PAT,INI,Weight_Unconstrained,1,L_ESI,FM,M3,33.42508620850502
BMu97,P43,PAT,INI,Weight_Unconstrained,1,R_ESI,FM,M1,45.10406189276989
BMu97,P43,PAT,INI,Weight_Unconstrained,1,R_ESI,FM,M2,51.33507258473814
BMu97,P43,PAT,INI,Weight_Unconstrained,1,R_ESI,FM,M3,48.49677468740414
BMu97,P43,PAT,REL,Weight_Unconstrained,1,L_ESI,FM,M1,33.92548592033931
BMu97,P43,PAT,REL,Weight_Unconstrained,1,L_ESI,FM,M2,31.27804680081792
BMu97,P43,PAT,REL,Weight_Unconstrained,1,L_ESI,FM,M3,34.59679269488449
BMu97,P43,PAT,REL,Weight_Unconstrained,1,L_ESI,FM,M4,36.42567782665078
BMu97,P43,PAT,REL,Weight_Unconstrained,1,R_ESI,FM,M1,37.483195327299974
BMu97,P43,PAT,REL,Weight_Unconstrained,1,R_ESI,FM,M2,39.187875978513304
BMu97,P43,PAT,REL,Weight_Unconstrained,1,R_ESI,FM,M3,33.7193508518841
BMu97,P43,PAT,REL,Weight_Unconstrained,1,R_ESI,FM,M4,37.32861572486214
BMu97,P44,CTR,INI,Weight_Unconstrained,1,L_ESI,FM,M1,35.53337507004299
BMu97,P44,CTR,INI,Weight_Unconstrained,1,L_ESI,FM,M2,33.28623034910932
BMu97,P44,CTR,INI,Weight_Unconstrained,1,L_ESI,FM,M3,33.59265988547334
BMu97,P44,CTR,INI,Weight_Unconstrained,1,R_ESI,FM,M1,45.2239710710775
BMu97,P44,CTR,INI,Weight_Unconstrained,1,R_ESI,FM,M2,48.321261215428024
BMu97,P44,CTR,INI,Weight_Unconstrained,1,R_ESI,FM,M3,52.65741533545311
BMu97,P44,CTR,REL,Weight_Unconstrained,1,L_ESI,FM,M1,28.487678126275625
BMu97,P44,CTR,REL,Weight_Unconstrained,1,L_ESI,FM,M2,30.75569779239402
BMu97,P44,CTR,REL,Weight_Unconstrained,1,L_ESI,FM,M3,33.946584726317184
BMu97,P44,CTR,REL,Weight_Unconstrained,1,R_ESI,FM,M1,51.60605290990675
BMu97,P44,CTR,REL,Weight_Unconstrained,1,R_ESI,FM,M2,56.59940470112355
BMu97,P44,CTR,REL,Weight_Unconstrained,1,R_ESI,FM,M3,52.851761364510224
BMu97,P45,PAT,INI,Weight_Unconstrained,1,L_ESI,FM,M1,51.35555246277356
BMu97,P45,PAT,INI,Weight_Unconstrained,1,L_ESI,FM,M2,53.262640276132295
BMu97,P45,PAT,INI,Weight_Unconstrained,1,L_ESI,FM,M3,50.472510247476436
BMu97,P45,PAT,INI,Weight_Unconstrained,1,R_ESI,FM,M1,37.233081270058506
BMu97,P45,PAT,INI,Weight_Unconstrained,1,R_ESI,FM,M2,37.12086863147985
BMu97,P45,PAT,INI,Weight_Unconstrained,1,R_ESI,FM,M3,38.72734910487411
BMu97,P45,PAT,REL,Weight_Unconstrained,1,L_ESI,FM,M1,54.576235812756394
BMu97,P45,PAT,REL,Weight_Unconstrained,1,L_ESI,FM,M2,58.71748306184449
BMu97,P45,PAT,REL,Weight_Unconstrained,1,L_ESI,FM,M3,54.23797611294916
BMu97,P45,PAT,REL,Weight_Unconstrained,1,R_ESI,FM,M1,55.04797260757722
BMu97,P45,PAT,REL,Weight_Unconstrained,1,R_ESI,FM,M2,66.37337872244535
BMu97,P45,PAT,REL,Weight_Unconstrained,1,R_ESI,FM,M3,61.90759133630745
BMu97,P46,CTR,INI,Weight_Unconstrained,1,L_ESI,FM,M1,41.42096939206681
BMu97,P46,CTR,INI,Weight_Unconstrained,1,L_ESI,FM,M2,42.663307484981715
BMu97,P46,CTR,INI,Weight_Unconstrained,1,L_ESI,FM,M3,49.23955671298615
BMu97,P46,CTR,INI,Weight_Unconstrained,1,R_ESI,FM,M1,43.167499487664074
BMu97,P46,CTR,INI,Weight_Unconstrained,1,R_ESI,FM,M2,44.671059726508304
BMu97,P46,CTR,INI,Weight_Unconstrained,1,R_ESI,FM,M3,49.89517532524255
BMu97,P46,CTR,REL,Weight_Unconstrained,1,L_ESI,FM,M1,25.801383597659076
BMu97,P46,CTR,REL,Weight_Unconstrained,1,L_ESI,FM,M2,24.49911639558202
BMu97,P46,CTR,REL,Weight_Unconstrained,1,L_ESI,FM,M3,32.38147662492929
BMu97,P46,CTR,REL,Weight_Unconstrained,1,R_ESI,FM,M1,23.415503231007435
BMu97,P46,CTR,REL,Weight_Unconstrained,1,R_ESI,FM,M2,21.05384844930269
BMu97,P46,CTR,REL,Weight_Unconstrained,1,R_ESI,FM,M3,24.481026087638575
BMu97,P47,PAT,INI,Weight_Unconstrained,1,L_ESI,FM,M1,137.26564896351806
BMu97,P47,PAT,INI,Weight_Unconstrained,1,L_ESI,FM,M2,154.8571219152047
BMu97,P47,PAT,INI,Weight_Unconstrained,1,L_ESI,FM,M3,165.5510153888502
BMu97,P47,PAT,INI,Weight_Unconstrained,1,R_ESI,FM,M1,203.90387234773112
BMu97,P47,PAT,INI,Weight_Unconstrained,1,R_ESI,FM,M2,383.54522007445036
BMu97,P47,PAT,INI,Weight_Unconstrained,1,R_ESI,FM,M3,245.4764511580754
BMu97,P47,PAT,REL,Weight_Unconstrained,1,L_ESI,FM,M1,55.12812282316219
BMu97,P47,PAT,REL,Weight_Unconstrained,1,L_ESI,FM,M2,55.83972783799563
BMu97,P47,PAT,REL,Weight_Unconstrained,1,L_ESI,FM,M3,63.30954140179374
BMu97,P47,PAT,REL,Weight_Unconstrained,1,R_ESI,FM,M1,52.991255736428315
BMu97,P47,PAT,REL,Weight_Unconstrained,1,R_ESI,FM,M2,45.51246092154139
BMu97,P47,PAT,REL,Weight_Unconstrained,1,R_ESI,FM,M3,45.59574878794051
BMu97,P48,CTR,INI,Weight_Unconstrained,1,L_ESI,FM,M1,57.826615421426176
BMu97,P48,CTR,INI,Weight_Unconstrained,1,L_ESI,FM,M2,55.06296077179983
BMu97,P48,CTR,INI,Weight_Unconstrained,1,L_ESI,FM,M3,60.31226788370319
BMu97,P48,CTR,INI,Weight_Unconstrained,1,R_ESI,FM,M1,75.09603669452028
BMu97,P48,CTR,INI,Weight_Unconstrained,1,R_ESI,FM,M2,73.03211474781834
BMu97,P48,CTR,INI,Weight_Unconstrained,1,R_ESI,FM,M3,69.84995882365813
BMu97,P48,CTR,REL,Weight_Unconstrained,1,L_ESI,FM,M1,80.65518210879296
BMu97,P48,CTR,REL,Weight_Unconstrained,1,L_ESI,FM,M2,72.84336076278278
BMu97,P48,CTR,REL,Weight_Unconstrained,1,L_ESI,FM,M3,80.68076505839943
BMu97,P48,CTR,REL,Weight_Unconstrained,1,R_ESI,FM,M1,74.48688098570008
BMu97,P48,CTR,REL,Weight_Unconstrained,1,R_ESI,FM,M2,72.04352430939237
BMu97,P48,CTR,REL,Weight_Unconstrained,1,R_ESI,FM,M3,79.8772105512358
BMu97,P49,CTR,INI,Weight_Unconstrained,1,L_ESI,FM,M1,195.09809500576898
BMu97,P49,CTR,INI,Weight_Unconstrained,1,L_ESI,FM,M2,55.51275226167003
BMu97,P49,CTR,INI,Weight_Unconstrained,1,L_ESI,FM,M3,72.96992321331129
BMu97,P49,CTR,INI,Weight_Unconstrained,1,R_ESI,FM,M1,67.71327715704626
BMu97,P49,CTR,INI,Weight_Unconstrained,1,R_ESI,FM,M2,63.41212641960371
BMu97,P49,CTR,INI,Weight_Unconstrained,1,R_ESI,FM,M3,64.65962177585864
BMu97,P49,CTR,REL,Weight_Unconstrained,1,L_ESI,FM,M1,13.8139782004849
BMu97,P49,CTR,REL,Weight_Unconstrained,1,L_ESI,FM,M2,13.059018498434689
BMu97,P49,CTR,REL,Weight_Unconstrained,1,L_ESI,FM,M3,15.129237878793152
BMu97,P49,CTR,REL,Weight_Unconstrained,1,R_ESI,FM,M1,123.03119292860084
BMu97,P49,CTR,REL,Weight_Unconstrained,1,R_ESI,FM,M2,46.25847755092559
BMu97,P49,CTR,REL,Weight_Unconstrained,1,R_ESI,FM,M3,81.67721537489513
BMu97,P50,PAT,INI,Weight_Unconstrained,1,L_ESI,FM,M1,85.80373246211249
BMu97,P50,PAT,INI,Weight_Unconstrained,1,L_ESI,FM,M2,99.47392079760832
BMu97,P50,PAT,INI,Weight_Unconstrained,1,L_ESI,FM,M3,101.97438909403252
BMu97,P50,PAT,INI,Weight_Unconstrained,1,R_ESI,FM,M1,81.57637497786315
BMu97,P50,PAT,INI,Weight_Unconstrained,1,R_ESI,FM,M2,104.53424519256687
BMu97,P50,PAT,INI,Weight_Unconstrained,1,R_ESI,FM,M3,110.32417211687556
BMu97,P50,PAT,REL,Weight_Unconstrained,1,L_ESI,FM,M1,101.48531664100659
BMu97,P50,PAT,REL,Weight_Unconstrained,1,L_ESI,FM,M2,110.58582356443843
BMu97,P50,PAT,REL,Weight_Unconstrained,1,L_ESI,FM,M3,117.45577347395749
BMu97,P50,PAT,REL,Weight_Unconstrained,1,R_ESI,FM,M1,86.35827271341105
BMu97,P50,PAT,REL,Weight_Unconstrained,1,R_ESI,FM,M2,75.48300937152385
BMu97,P50,PAT,REL,Weight_Unconstrained,1,R_ESI,FM,M3,69.36168252506957
BMu97,P51,PAT,INI,Weight_Unconstrained,1,L_ESI,FM,M1,71.84979239767152
BMu97,P51,PAT,INI,Weight_Unconstrained,1,L_ESI,FM,M2,43.624566983519315
BMu97,P51,PAT,INI,Weight_Unconstrained,1,L_ESI,FM,M3,46.25579403552974
BMu97,P51,PAT,INI,Weight_Unconstrained,1,L_ESI,FM,M4,44.55545949017096
BMu97,P51,PAT,INI,Weight_Unconstrained,1,R_ESI,FM,M1,101.77150353278779
BMu97,P51,PAT,INI,Weight_Unconstrained,1,R_ESI,FM,M2,60.754721892423845
BMu97,P51,PAT,INI,Weight_Unconstrained,1,R_ESI,FM,M3,61.419048804910865
BMu97,P51,PAT,INI,Weight_Unconstrained,1,R_ESI,FM,M4,62.21861230889841
BMu97,P51,PAT,REL,Weight_Unconstrained,1,L_ESI,FM,M1,36.58144749742706
BMu97,P51,PAT,REL,Weight_Unconstrained,1,L_ESI,FM,M2,29.238114343572576
BMu97,P51,PAT,REL,Weight_Unconstrained,1,L_ESI,FM,M3,38.8288455946212
BMu97,P51,PAT,REL,Weight_Unconstrained,1,R_ESI,FM,M1,110.53805292506797
BMu97,P51,PAT,REL,Weight_Unconstrained,1,R_ESI,FM,M2,73.75929840634197
BMu97,P51,PAT,REL,Weight_Unconstrained,1,R_ESI,FM,M3,81.50458415705585
BMu97,P52,CTR,INI,Weight_Unconstrained,1,L_ESI,FM,M1,25.106615623758405
BMu97,P52,CTR,INI,Weight_Unconstrained,1,L_ESI,FM,M2,29.955532284361347
BMu97,P52,CTR,INI,Weight_Unconstrained,1,L_ESI,FM,M3,28.958524070983483
BMu97,P52,CTR,INI,Weight_Unconstrained,1,R_ESI,FM,M1,48.653044773421755
BMu97,P52,CTR,INI,Weight_Unconstrained,1,R_ESI,FM,M2,50.040554205471324
BMu97,P52,CTR,INI,Weight_Unconstrained,1,R_ESI,FM,M3,50.5552049144913
BMu97,P52,CTR,REL,Weight_Unconstrained,1,L_ESI,FM,M1,24.230124455058395
BMu97,P52,CTR,REL,Weight_Unconstrained,1,L_ESI,FM,M2,26.147380651987618
BMu97,P52,CTR,REL,Weight_Unconstrained,1,L_ESI,FM,M3,30.847664572742893
BMu97,P52,CTR,REL,Weight_Unconstrained,1,R_ESI,FM,M1,46.01223675950748
BMu97,P52,CTR,REL,Weight_Unconstrained,1,R_ESI,FM,M2,50.310447513386165
BMu97,P52,CTR,REL,Weight_Unconstrained,1,R_ESI,FM,M3,49.339384211781905
BMu97,P53,PAT,INI,Weight_Unconstrained,1,L_ESI,FM,M1,51.925699507858226
BMu97,P53,PAT,INI,Weight_Unconstrained,1,L_ESI,FM,M2,51.04313381536276
BMu97,P53,PAT,INI,Weight_Unconstrained,1,L_ESI,FM,M3,50.510314389672615
BMu97,P53,PAT,INI,Weight_Unconstrained,1,R_ESI,FM,M1,38.9375923718232
BMu97,P53,PAT,INI,Weight_Unconstrained,1,R_ESI,FM,M2,35.888294685363746
BMu97,P53,PAT,INI,Weight_Unconstrained,1,R_ESI,FM,M3,36.453167969470265
BMu97,P53,PAT,REL,Weight_Unconstrained,1,L_ESI,FM,M1,52.35499455915867
BMu97,P53,PAT,REL,Weight_Unconstrained,1,L_ESI,FM,M2,51.072627701656444
BMu97,P53,PAT,REL,Weight_Unconstrained,1,L_ESI,FM,M3,51.520047658711206
BMu97,P53,PAT,REL,Weight_Unconstrained,1,R_ESI,FM,M1,35.03658630776984
BMu97,P53,PAT,REL,Weight_Unconstrained,1,R_ESI,FM,M2,33.33784153472874
BMu97,P53,PAT,REL,Weight_Unconstrained,1,R_ESI,FM,M3,36.712144789828464
BMu97,P54,PAT,INI,Weight_Unconstrained,1,L_ESI,FM,M1,87.18400936724314
BMu97,P54,PAT,INI,Weight_Unconstrained,1,L_ESI,FM,M2,84.73848584084604
BMu97,P54,PAT,INI,Weight_Unconstrained,1,L_ESI,FM,M3,100.35958612659637
BMu97,P54,PAT,INI,Weight_Unconstrained,1,R_ESI,FM,M1,75.58150048050308
BMu97,P54,PAT,INI,Weight_Unconstrained,1,R_ESI,FM,M2,72.93103064811356
BMu97,P54,PAT,INI,Weight_Unconstrained,1,R_ESI,FM,M3,85.17798443361175
BMu97,P54,PAT,REL,Weight_Unconstrained,1,L_ESI,FM,M1,78.61479932172578
BMu97,P54,PAT,REL,Weight_Unconstrained,1,L_ESI,FM,M2,80.73917585062857
BMu97,P54,PAT,REL,Weight_Unconstrained,1,L_ESI,FM,M3,82.19243151675971
BMu97,P54,PAT,REL,Weight_Unconstrained,1,R_ESI,FM,M1,77.18191603360071
BMu97,P54,PAT,REL,Weight_Unconstrained,1,R_ESI,FM,M2,87.0231297506518
BMu97,P54,PAT,REL,Weight_Unconstrained,1,R_ESI,FM,M3,79.5662792729461
BMu97,P55,CTR,INI,Weight_Unconstrained,1,L_ESI,FM,M1,43.245468619313826
BMu97,P55,CTR,INI,Weight_Unconstrained,1,L_ESI,FM,M2,51.69803024934474
BMu97,P55,CTR,INI,Weight_Unconstrained,1,L_ESI,FM,M3,55.13632086694333
BMu97,P55,CTR,INI,Weight_Unconstrained,1,R_ESI,FM,M1,42.52038463415212
BMu97,P55,CTR,INI,Weight_Unconstrained,1,R_ESI,FM,M2,56.13176482256475
BMu97,P55,CTR,INI,Weight_Unconstrained,1,R_ESI,FM,M3,58.92265816617531
BMu97,P55,CTR,REL,Weight_Unconstrained,1,L_ESI,FM,M1,43.08004220490105
BMu97,P55,CTR,REL,Weight_Unconstrained,1,L_ESI,FM,M2,48.77809023752984
BMu97,P55,CTR,REL,Weight_Unconstrained,1,L_ESI,FM,M3,49.518989446216935
BMu97,P55,CTR,REL,Weight_Unconstrained,1,R_ESI,FM,M1,44.45063101013484
BMu97,P55,CTR,REL,Weight_Unconstrained,1,R_ESI,FM,M2,49.26072839954192
BMu97,P55,CTR,REL,Weight_Unconstrained,1,R_ESI,FM,M3,45.74482718930516
BMu97,P56,CTR,INI,Weight_Unconstrained,1,L_ESI,FM,M1,53.45049275812056
BMu97,P56,CTR,INI,Weight_Unconstrained,1,L_ESI,FM,M2,59.97670842556887
BMu97,P56,CTR,INI,Weight_Unconstrained,1,L_ESI,FM,M3,54.479390514338775
BMu97,P56,CTR,INI,Weight_Unconstrained,1,R_ESI,FM,M1,24.401500411559606
BMu97,P56,CTR,INI,Weight_Unconstrained,1,R_ESI,FM,M2,24.645621343101375
BMu97,P56,CTR,INI,Weight_Unconstrained,1,R_ESI,FM,M3,23.324801498972256
BMu97,P56,CTR,REL,Weight_Unconstrained,1,L_ESI,FM,M1,56.36152306299294
BMu97,P56,CTR,REL,Weight_Unconstrained,1,L_ESI,FM,M2,54.912806796130894
BMu97,P56,CTR,REL,Weight_Unconstrained,1,L_ESI,FM,M3,51.48190358955155
BMu97,P56,CTR,REL,Weight_Unconstrained,1,R_ESI,FM,M1,65.3281954610705
BMu97,P56,CTR,REL,Weight_Unconstrained,1,R_ESI,FM,M2,64.32978321514662
BMu97,P56,CTR,REL,Weight_Unconstrained,1,R_ESI,FM,M3,62.099322959214035
BMu97,P57,CTR,INI,Weight_Unconstrained,1,L_ESI,FM,M1,25.383175903146252
BMu97,P57,CTR,INI,Weight_Unconstrained,1,L_ESI,FM,M2,28.067294202934384
BMu97,P57,CTR,INI,Weight_Unconstrained,1,L_ESI,FM,M3,28.57344190370052
BMu97,P57,CTR,INI,Weight_Unconstrained,1,R_ESI,FM,M1,21.497551921812054
BMu97,P57,CTR,INI,Weight_Unconstrained,1,R_ESI,FM,M2,24.060534613048176
BMu97,P57,CTR,INI,Weight_Unconstrained,1,R_ESI,FM,M3,24.92942298343855
BMu97,P57,CTR,REL,Weight_Unconstrained,1,L_ESI,FM,M1,50.922842921115304
BMu97,P57,CTR,REL,Weight_Unconstrained,1,L_ESI,FM,M2,52.04187456358852
BMu97,P57,CTR,REL,Weight_Unconstrained,1,L_ESI,FM,M3,54.485693438977336
BMu97,P57,CTR,REL,Weight_Unconstrained,1,R_ESI,FM,M1,48.97833285276119
BMu97,P57,CTR,REL,Weight_Unconstrained,1,R_ESI,FM,M2,52.92576794459089
BMu97,P57,CTR,REL,Weight_Unconstrained,1,R_ESI,FM,M3,51.507199956534535
BMu97,P58,PAT,INI,Weight_Unconstrained,1,L_ESI,FM,M1,51.92216268407382
BMu97,P58,PAT,INI,Weight_Unconstrained,1,L_ESI,FM,M2,65.89850775785663
BMu97,P58,PAT,INI,Weight_Unconstrained,1,L_ESI,FM,M3,70.71826418861541
BMu97,P58,PAT,INI,Weight_Unconstrained,1,R_ESI,FM,M1,54.14782054068162
BMu97,P58,PAT,INI,Weight_Unconstrained,1,R_ESI,FM,M2,67.75855449525238
BMu97,P58,PAT,INI,Weight_Unconstrained,1,R_ESI,FM,M3,69.92738207766698
BMu97,P58,PAT,REL,Weight_Unconstrained,1,L_ESI,FM,M1,56.382557351952414
BMu97,P58,PAT,REL,Weight_Unconstrained,1,L_ESI,FM,M2,68.49932811521077
BMu97,P58,PAT,REL,Weight_Unconstrained,1,L_ESI,FM,M3,72.3697450796123
BMu97,P58,PAT,REL,Weight_Unconstrained,1,R_ESI,FM,M1,52.23730339332456
BMu97,P58,PAT,REL,Weight_Unconstrained,1,R_ESI,FM,M2,58.68635590746911
BMu97,P58,PAT,REL,Weight_Unconstrained,1,R_ESI,FM,M3,60.625451475996215
BMu97,P60,CTR,INI,Weight_Unconstrained,1,L_ESI,FM,M1,25.14079354973627
BMu97,P60,CTR,INI,Weight_Unconstrained,1,R_ESI,FM,M1,40.60179925595514
BMu97,P60,CTR,REL,Weight_Unconstrained,1,L_ESI,FM,M1,57.03902435554261
BMu97,P60,CTR,REL,Weight_Unconstrained,1,L_ESI,FM,M2,57.78539913483521
BMu97,P60,CTR,REL,Weight_Unconstrained,1,L_ESI,FM,M3,65.58780058276348
BMu97,P60,CTR,REL,Weight_Unconstrained,1,R_ESI,FM,M1,61.47997337010342
BMu97,P60,CTR,REL,Weight_Unconstrained,1,R_ESI,FM,M2,65.02644873310028
BMu97,P60,CTR,REL,Weight_Unconstrained,1,R_ESI,FM,M3,64.60572246136344
BMu97,P61,PAT,REL,Weight_Unconstrained,1,L_ESI,FM,M1,46.5640528621431
BMu97,P61,PAT,REL,Weight_Unconstrained,1,L_ESI,FM,M2,41.865230840195125
BMu97,P61,PAT,REL,Weight_Unconstrained,1,L_ESI,FM,M3,46.45203908012669
BMu97,P61,PAT,REL,Weight_Unconstrained,1,R_ESI,FM,M1,17.13212763760899
BMu97,P61,PAT,REL,Weight_Unconstrained,1,R_ESI,FM,M2,17.713536784361217
BMu97,P61,PAT,REL,Weight_Unconstrained,1,R_ESI,FM,M3,17.776570611355677
BMu97,P62,PAT,INI,Weight_Unconstrained,1,L_ESI,FM,M1,144.94409507105576
BMu97,P62,PAT,INI,Weight_Unconstrained,1,L_ESI,FM,M2,110.89131201105779
BMu97,P62,PAT,INI,Weight_Unconstrained,1,L_ESI,FM,M3,98.90149929978926
BMu97,P62,PAT,INI,Weight_Unconstrained,1,L_ESI,FM,M4,92.60592767147608
BMu97,P62,PAT,INI,Weight_Unconstrained,1,R_ESI,FM,M1,146.18034475610986
BMu97,P62,PAT,INI,Weight_Unconstrained,1,R_ESI,FM,M2,113.79963967904222
BMu97,P62,PAT,INI,Weight_Unconstrained,1,R_ESI,FM,M3,115.44929992807212
BMu97,P62,PAT,INI,Weight_Unconstrained,1,R_ESI,FM,M4,110.83518622345184
BMu97,P62,PAT,REL,Weight_Unconstrained,1,L_ESI,FM,M1,64.73342302241979
BMu97,P62,PAT,REL,Weight_Unconstrained,1,L_ESI,FM,M2,54.4368530264159
BMu97,P62,PAT,REL,Weight_Unconstrained,1,L_ESI,FM,M3,64.68687450564533
BMu97,P62,PAT,REL,Weight_Unconstrained,1,R_ESI,FM,M1,61.98433207922585
BMu97,P62,PAT,REL,Weight_Unconstrained,1,R_ESI,FM,M2,46.6636490955988
BMu97,P62,PAT,REL,Weight_Unconstrained,1,R_ESI,FM,M3,60.35388879025496
BMu97,P63,PAT,INI,Weight_Unconstrained,1,L_ESI,FM,M1,83.54503510459666
BMu97,P63,PAT,INI,Weight_Unconstrained,1,L_ESI,FM,M2,78.47976623897902
BMu97,P63,PAT,INI,Weight_Unconstrained,1,L_ESI,FM,M3,74.08889426442221
BMu97,P63,PAT,INI,Weight_Unconstrained,1,R_ESI,FM,M1,64.48891383708882
BMu97,P63,PAT,INI,Weight_Unconstrained,1,R_ESI,FM,M2,75.97635369996202
BMu97,P63,PAT,INI,Weight_Unconstrained,1,R_ESI,FM,M3,63.07051867433164
BMu97,P63,PAT,REL,Weight_Unconstrained,1,L_ESI,FM,M1,49.631579366923575
BMu97,P63,PAT,REL,Weight_Unconstrained,1,L_ESI,FM,M2,53.167918272686
BMu97,P63,PAT,REL,Weight_Unconstrained,1,L_ESI,FM,M3,58.11651804393737
BMu97,P63,PAT,REL,Weight_Unconstrained,1,R_ESI,FM,M1,39.51273302347624
BMu97,P63,PAT,REL,Weight_Unconstrained,1,R_ESI,FM,M2,41.85277596744994
BMu97,P63,PAT,REL,Weight_Unconstrained,1,R_ESI,FM,M3,43.47470646511172
BMu97,P64,CTR,INI,Weight_Unconstrained,1,L_ESI,FM,M1,54.56749103075809
BMu97,P64,CTR,INI,Weight_Unconstrained,1,L_ESI,FM,M2,68.58628143224438
BMu97,P64,CTR,INI,Weight_Unconstrained,1,L_ESI,FM,M3,62.88805515718067
BMu97,P64,CTR,INI,Weight_Unconstrained,1,R_ESI,FM,M1,62.787265527193455
BMu97,P64,CTR,INI,Weight_Unconstrained,1,R_ESI,FM,M2,65.3655805324657
BMu97,P64,CTR,INI,Weight_Unconstrained,1,R_ESI,FM,M3,66.69377402260571
BMu97,P64,CTR,REL,Weight_Unconstrained,1,L_ESI,FM,M1,42.67710974831971
BMu97,P64,CTR,REL,Weight_Unconstrained,1,L_ESI,FM,M2,41.46936798339065
BMu97,P64,CTR,REL,Weight_Unconstrained,1,L_ESI,FM,M3,42.82950019631737
BMu97,P64,CTR,REL,Weight_Unconstrained,1,R_ESI,FM,M1,57.7384877898174
BMu97,P64,CTR,REL,Weight_Unconstrained,1,R_ESI,FM,M2,60.81721490002815
BMu97,P64,CTR,REL,Weight_Unconstrained,1,R_ESI,FM,M3,60.48443385510028
BMu97,P65,PAT,INI,Weight_Unconstrained,1,L_ESI,FM,M1,
BMu97,P65,PAT,INI,Weight_Unconstrained,1,L_ESI,FM,M2,72.6044174882109
BMu97,P65,PAT,INI,Weight_Unconstrained,1,L_ESI,FM,M3,108.04059318591484
BMu97,P65,PAT,INI,Weight_Unconstrained,1,L_ESI,FM,M4,106.65455253332654
BMu97,P65,PAT,INI,Weight_Unconstrained,1,R_ESI,FM,M1,
BMu97,P65,PAT,INI,Weight_Unconstrained,1,R_ESI,FM,M2,70.41688218584295
BMu97,P65,PAT,INI,Weight_Unconstrained,1,R_ESI,FM,M3,102.65642693974115
BMu97,P65,PAT,INI,Weight_Unconstrained,1,R_ESI,FM,M4,91.64674619186675
BMu97,P65,PAT,REL,Weight_Unconstrained,1,L_ESI,FM,M1,75.69734454197184
BMu97,P65,PAT,REL,Weight_Unconstrained,1,L_ESI,FM,M2,81.19490788414407
BMu97,P65,PAT,REL,Weight_Unconstrained,1,L_ESI,FM,M3,86.67383140643557
BMu97,P65,PAT,REL,Weight_Unconstrained,1,R_ESI,FM,M1,92.28630197706414
BMu97,P65,PAT,REL,Weight_Unconstrained,1,R_ESI,FM,M2,101.46719578864528
BMu97,P65,PAT,REL,Weight_Unconstrained,1,R_ESI,FM,M3,101.38173632497734
BMu97,P66,CTR,INI,Weight_Unconstrained,1,L_ESI,FM,M1,55.89283113996798
BMu97,P66,CTR,INI,Weight_Unconstrained,1,L_ESI,FM,M2,58.054387250039184
BMu97,P66,CTR,INI,Weight_Unconstrained,1,L_ESI,FM,M3,58.76063790451283
BMu97,P66,CTR,INI,Weight_Unconstrained,1,R_ESI,FM,M1,63.567830215844864
BMu97,P66,CTR,INI,Weight_Unconstrained,1,R_ESI,FM,M2,59.770662687717206
BMu97,P66,CTR,INI,Weight_Unconstrained,1,R_ESI,FM,M3,67.65561852916616
BMu97,P66,CTR,REL,Weight_Unconstrained,1,L_ESI,FM,M1,60.34381975322495
BMu97,P66,CTR,REL,Weight_Unconstrained,1,L_ESI,FM,M2,52.49810102481159
BMu97,P66,CTR,REL,Weight_Unconstrained,1,L_ESI,FM,M3,56.64211027968649
BMu97,P66,CTR,REL,Weight_Unconstrained,1,R_ESI,FM,M1,92.8351601731482
BMu97,P66,CTR,REL,Weight_Unconstrained,1,R_ESI,FM,M2,92.8856522959671
BMu97,P66,CTR,REL,Weight_Unconstrained,1,R_ESI,FM,M3,96.183149964981
BMu97,P67,CTR,INI,Weight_Unconstrained,1,L_ESI,FM,M1,40.758149495964325
BMu97,P67,CTR,INI,Weight_Unconstrained,1,L_ESI,FM,M2,40.653635278310574
BMu97,P67,CTR,INI,Weight_Unconstrained,1,L_ESI,FM,M3,53.74638957863465
BMu97,P67,CTR,INI,Weight_Unconstrained,1,R_ESI,FM,M1,61.18688979504853
BMu97,P67,CTR,INI,Weight_Unconstrained,1,R_ESI,FM,M2,58.723950491960494
BMu97,P67,CTR,INI,Weight_Unconstrained,1,R_ESI,FM,M3,50.890756117177716
BMu97,P67,CTR,REL,Weight_Unconstrained,1,L_ESI,FM,M1,85.17892623773267
BMu97,P67,CTR,REL,Weight_Unconstrained,1,L_ESI,FM,M2,54.28491388121982
BMu97,P67,CTR,REL,Weight_Unconstrained,1,L_ESI,FM,M3,58.8076363873861
BMu97,P67,CTR,REL,Weight_Unconstrained,1,R_ESI,FM,M1,61.10402535298341
BMu97,P67,CTR,REL,Weight_Unconstrained,1,R_ESI,FM,M2,75.52555929242584
BMu97,P67,CTR,REL,Weight_Unconstrained,1,R_ESI,FM,M3,70.03808173163333
BMu97,P68,CTR,INI,Weight_Unconstrained,1,L_ESI,FM,M1,69.84082936475487
BMu97,P68,CTR,INI,Weight_Unconstrained,1,L_ESI,FM,M2,78.06522173779851
BMu97,P68,CTR,INI,Weight_Unconstrained,1,L_ESI,FM,M3,81.89476835296364
BMu97,P68,CTR,INI,Weight_Unconstrained,1,R_ESI,FM,M1,64.84076730006356
BMu97,P68,CTR,INI,Weight_Unconstrained,1,R_ESI,FM,M2,62.24396009002366
BMu97,P68,CTR,INI,Weight_Unconstrained,1,R_ESI,FM,M3,74.80046457092507
BMu97,P68,CTR,REL,Weight_Unconstrained,1,L_ESI,FM,M1,68.11328549451703
BMu97,P68,CTR,REL,Weight_Unconstrained,1,L_ESI,FM,M2,62.844889074698
BMu97,P68,CTR,REL,Weight_Unconstrained,1,L_ESI,FM,M3,91.43577715919501
BMu97,P68,CTR,REL,Weight_Unconstrained,1,R_ESI,FM,M1,57.02820797907274
BMu97,P68,CTR,REL,Weight_Unconstrained,1,R_ESI,FM,M2,61.58074020662117
BMu97,P68,CTR,REL,Weight_Unconstrained,1,R_ESI,FM,M3,192.89441386373662
