BMu,Participant,Group,Session,task,trials,channel,Operator,Measure,Value
BMu97,P01,CTR,INI,Weight_Unconstrained,1,L_ESI,FM,M1,0.0032658592351341937
BMu97,P01,CTR,INI,Weight_Unconstrained,1,L_ESI,FM,M2,0.0037200176499949675
BMu97,P01,CTR,INI,Weight_Unconstrained,1,L_ESI,FM,M3,0.0034584947355071755
BMu97,P01,CTR,INI,Weight_Unconstrained,1,R_ESI,FM,M1,0.0021767013391666345
BMu97,P01,CTR,INI,Weight_Unconstrained,1,R_ESI,FM,M2,0.0027632305332583465
BMu97,P01,CTR,INI,Weight_Unconstrained,1,R_ESI,FM,M3,0.0022383558341999782
BMu97,P01,CTR,REL,Weight_Unconstrained,1,L_ESI,FM,M1,0.0032657128024317712
BMu97,P01,CTR,REL,Weight_Unconstrained,1,L_ESI,FM,M2,0.0032877569617796127
BMu97,P01,CTR,REL,Weight_Unconstrained,1,L_ESI,FM,M3,0.0035341804297884544
BMu97,P02,CTR,INI,Weight_Unconstrained,1,L_ESI,FM,M1,0.011302118584632675
BMu97,P02,CTR,INI,Weight_Unconstrained,1,L_ESI,FM,M2,0.012561094564869146
BMu97,P02,CTR,INI,Weight_Unconstrained,1,L_ESI,FM,M3,0.011118495761967957
BMu97,P02,CTR,REL,Weight_Unconstrained,1,L_ESI,FM,M1,0.0057803461812830905
BMu97,P02,CTR,REL,Weight_Unconstrained,1,L_ESI,FM,M2,0.005763360878170139
BMu97,P02,CTR,REL,Weight_Unconstrained,1,L_ESI,FM,M3,0.005851860538326641
BMu97,P02,CTR,REL,Weight_Unconstrained,1,R_ESI,FM,M1,0.004549126730648455
BMu97,P02,CTR,REL,Weight_Unconstrained,1,R_ESI,FM,M2,0.00455296570505794
BMu97,P02,CTR,REL,Weight_Unconstrained,1,R_ESI,FM,M3,0.0044566766973878885
BMu97,P03,CTR,INI,Weight_Unconstrained,1,L_ESI,FM,M1,0.006409148981299826
BMu97,P03,CTR,INI,Weight_Unconstrained,1,L_ESI,FM,M2,0.006289495169901064
BMu97,P03,CTR,INI,Weight_Unconstrained,1,L_ESI,FM,M3,0.006702575154962363
BMu97,P03,CTR,INI,Weight_Unconstrained,1,R_ESI,FM,M1,0.003840494263938121
BMu97,P03,CTR,INI,Weight_Unconstrained,1,R_ESI,FM,M2,0.00374835085529947
BMu97,P03,CTR,INI,Weight_Unconstrained,1,R_ESI,FM,M3,0.003888271911091554
BMu97,P03,CTR,REL,Weight_Unconstrained,1,L_ESI,FM,M1,0.01138417877561822
BMu97,P03,CTR,REL,Weight_Unconstrained,1,L_ESI,FM,M2,0.010515894021342453
BMu97,P03,CTR,REL,Weight_Unconstrained,1,L_ESI,FM,M3,0.01131827068729607
BMu97,P03,CTR,REL,Weight_Unconstrained,1,R_ESI,FM,M1,0.006517135878154232
BMu97,P03,CTR,REL,Weight_Unconstrained,1,R_ESI,FM,M2,0.0065694706875095
BMu97,P03,CTR,REL,Weight_Unconstrained,1,R_ESI,FM,M3,0.006434148621120312
BMu97,P05,CTR,INI,Weight_Unconstrained,1,L_ESI,FM,M1,0.008754772835740063
BMu97,P05,CTR,INI,Weight_Unconstrained,1,L_ESI,FM,M2,0.008513859668469077
BMu97,P05,CTR,INI,Weight_Unconstrained,1,L_ESI,FM,M3,0.009137990170145192
BMu97,P05,CTR,INI,Weight_Unconstrained,1,R_ESI,FM,M1,0.007662285873488375
BMu97,P05,CTR,INI,Weight_Unconstrained,1,R_ESI,FM,M2,0.005593694680991836
BMu97,P05,CTR,INI,Weight_Unconstrained,1,R_ESI,FM,M3,0.005184805796440636
BMu97,P05,CTR,REL,Weight_Unconstrained,1,L_ESI,FM,M1,0.005343008548380087
BMu97,P05,CTR,REL,Weight_Unconstrained,1,L_ESI,FM,M2,0.005039667257377305
BMu97,P05,CTR,REL,Weight_Unconstrained,1,L_ESI,FM,M3,0.005053977373033092
BMu97,P05,CTR,REL,Weight_Unconstrained,1,L_ESI,FM,M4,0.006360982194289037
BMu97,P05,CTR,REL,Weight_Unconstrained,1,R_ESI,FM,M1,0.004488196819364649
BMu97,P05,CTR,REL,Weight_Unconstrained,1,R_ESI,FM,M2,0.0050301051748980466
BMu97,P05,CTR,REL,Weight_Unconstrained,1,R_ESI,FM,M3,0.005230775059715096
BMu97,P05,CTR,REL,Weight_Unconstrained,1,R_ESI,FM,M4,0.005736199551376163
BMu97,P06,CTR,INI,Weight_Unconstrained,1,L_ESI,FM,M1,0.002361186122162075
BMu97,P06,CTR,INI,Weight_Unconstrained,1,L_ESI,FM,M2,0.0023391382468755323
BMu97,P06,CTR,INI,Weight_Unconstrained,1,L_ESI,FM,M3,0.002313909635111094
BMu97,P06,CTR,INI,Weight_Unconstrained,1,R_ESI,FM,M1,0.0019941690620302326
BMu97,P06,CTR,INI,Weight_Unconstrained,1,R_ESI,FM,M2,0.002041426022928565
BMu97,P06,CTR,INI,Weight_Unconstrained,1,R_ESI,FM,M3,0.0020734428322154233
BMu97,P06,CTR,REL,Weight_Unconstrained,1,L_ESI,FM,M1,0.0029604400006692858
BMu97,P06,CTR,REL,Weight_Unconstrained,1,L_ESI,FM,M2,0.002846479207835078
BMu97,P06,CTR,REL,Weight_Unconstrained,1,L_ESI,FM,M3,0.002937717964444291
BMu97,P06,CTR,REL,Weight_Unconstrained,1,R_ESI,FM,M1,0.0022562421209433754
BMu97,P06,CTR,REL,Weight_Unconstrained,1,R_ESI,FM,M2,0.0023004276403877488
BMu97,P06,CTR,REL,Weight_Unconstrained,1,R_ESI,FM,M3,0.0022937291425430854
BMu97,P07,CTR,INI,Weight_Unconstrained,1,L_ESI,FM,M1,0.008962556555729057
BMu97,P07,CTR,INI,Weight_Unconstrained,1,L_ESI,FM,M2,0.009558273955603257
BMu97,P07,CTR,INI,Weight_Unconstrained,1,L_ESI,FM,M3,0.011029917739089512
BMu97,P07,CTR,INI,Weight_Unconstrained,1,R_ESI,FM,M1,0.006035189563637275
BMu97,P07,CTR,INI,Weight_Unconstrained,1,R_ESI,FM,M2,0.006699573041493009
BMu97,P07,CTR,INI,Weight_Unconstrained,1,R_ESI,FM,M3,0.007057326032115603
BMu97,P07,CTR,REL,Weight_Unconstrained,1,L_ESI,FM,M1,0.007458896884816245
BMu97,P07,CTR,REL,Weight_Unconstrained,1,L_ESI,FM,M2,0.007296910351553916
BMu97,P07,CTR,REL,Weight_Unconstrained,1,L_ESI,FM,M3,0.0077908391054519865
BMu97,P07,CTR,REL,Weight_Unconstrained,1,R_ESI,FM,M1,0.0047936800445332675
BMu97,P07,CTR,REL,Weight_Unconstrained,1,R_ESI,FM,M2,0.005042478980062732
BMu97,P07,CTR,REL,Weight_Unconstrained,1,R_ESI,FM,M3,0.005134135520593474
BMu97,P08,CTR,INI,Weight_Unconstrained,1,L_ESI,FM,M1,0.005788224890083323
BMu97,P08,CTR,INI,Weight_Unconstrained,1,L_ESI,FM,M2,0.004613842061074963
BMu97,P08,CTR,INI,Weight_Unconstrained,1,L_ESI,FM,M3,0.004567140781880627
BMu97,P08,CTR,INI,Weight_Unconstrained,1,R_ESI,FM,M1,0.004622792074402446
BMu97,P08,CTR,INI,Weight_Unconstrained,1,R_ESI,FM,M2,
BMu97,P08,CTR,INI,Weight_Unconstrained,1,R_ESI,FM,M3,0.003497160375821688
BMu97,P08,CTR,REL,Weight_Unconstrained,1,L_ESI,FM,M1,0.005943832054143245
BMu97,P08,CTR,REL,Weight_Unconstrained,1,L_ESI,FM,M2,0.005340616977118774
BMu97,P08,CTR,REL,Weight_Unconstrained,1,L_ESI,FM,M3,0.004880491653898497
BMu97,P08,CTR,REL,Weight_Unconstrained,1,R_ESI,FM,M1,0.003935420512882019
BMu97,P08,CTR,REL,Weight_Unconstrained,1,R_ESI,FM,M2,
BMu97,P08,CTR,REL,Weight_Unconstrained,1,R_ESI,FM,M3,0.0037831800469970366
BMu97,P09,PAT,INI,Weight_Unconstrained,1,L_ESI,FM,M1,0.007505072896723806
BMu97,P09,PAT,INI,Weight_Unconstrained,1,L_ESI,FM,M2,0.006449470128260155
BMu97,P09,PAT,INI,Weight_Unconstrained,1,L_ESI,FM,M3,0.006649406898787779
BMu97,P09,PAT,INI,Weight_Unconstrained,1,R_ESI,FM,M1,0.00355918251509115
BMu97,P09,PAT,INI,Weight_Unconstrained,1,R_ESI,FM,M2,0.0037187501552814156
BMu97,P09,PAT,INI,Weight_Unconstrained,1,R_ESI,FM,M3,0.0037321282424972843
BMu97,P09,PAT,REL,Weight_Unconstrained,1,L_ESI,FM,M1,
BMu97,P09,PAT,REL,Weight_Unconstrained,1,L_ESI,FM,M2,
BMu97,P09,PAT,REL,Weight_Unconstrained,1,L_ESI,FM,M3,
BMu97,P09,PAT,REL,Weight_Unconstrained,1,L_ESI,FM,M4,0.004580685380125698
BMu97,P09,PAT,REL,Weight_Unconstrained,1,L_ESI,FM,M5,
BMu97,P09,PAT,REL,Weight_Unconstrained,1,R_ESI,FM,M1,
BMu97,P09,PAT,REL,Weight_Unconstrained,1,R_ESI,FM,M2,
BMu97,P09,PAT,REL,Weight_Unconstrained,1,R_ESI,FM,M3,
BMu97,P09,PAT,REL,Weight_Unconstrained,1,R_ESI,FM,M4,
BMu97,P09,PAT,REL,Weight_Unconstrained,1,R_ESI,FM,M5,0.0030798800632885633
BMu97,P10,PAT,INI,Weight_Unconstrained,1,L_ESI,FM,M1,0.004744488421216857
BMu97,P10,PAT,INI,Weight_Unconstrained,1,L_ESI,FM,M2,0.005069574085112865
BMu97,P10,PAT,INI,Weight_Unconstrained,1,L_ESI,FM,M3,0.005623636568401939
BMu97,P10,PAT,INI,Weight_Unconstrained,1,R_ESI,FM,M1,0.0036037863272851242
BMu97,P10,PAT,INI,Weight_Unconstrained,1,R_ESI,FM,M2,0.003925517152763086
BMu97,P10,PAT,INI,Weight_Unconstrained,1,R_ESI,FM,M3,0.003968274898717607
BMu97,P10,PAT,REL,Weight_Unconstrained,1,L_ESI,FM,M1,0.0055195540640478056
BMu97,P10,PAT,REL,Weight_Unconstrained,1,L_ESI,FM,M2,0.005626476237515892
BMu97,P10,PAT,REL,Weight_Unconstrained,1,L_ESI,FM,M3,0.007029713349033847
BMu97,P11,PAT,INI,Weight_Unconstrained,1,L_ESI,FM,M1,0.005947058084184539
BMu97,P11,PAT,INI,Weight_Unconstrained,1,L_ESI,FM,M2,0.004957831780203295
BMu97,P11,PAT,INI,Weight_Unconstrained,1,L_ESI,FM,M3,0.005314197749510943
BMu97,P11,PAT,INI,Weight_Unconstrained,1,R_ESI,FM,M1,0.0027426299634493697
BMu97,P11,PAT,INI,Weight_Unconstrained,1,R_ESI,FM,M2,0.0028166766635097725
BMu97,P11,PAT,INI,Weight_Unconstrained,1,R_ESI,FM,M3,0.0031507690502700306
BMu97,P11,PAT,REL,Weight_Unconstrained,1,L_ESI,FM,M1,0.005638309992439323
BMu97,P11,PAT,REL,Weight_Unconstrained,1,L_ESI,FM,M2,0.005971766867579621
BMu97,P11,PAT,REL,Weight_Unconstrained,1,L_ESI,FM,M3,0.005769205954922812
BMu97,P11,PAT,REL,Weight_Unconstrained,1,R_ESI,FM,M1,0.0032837162282807115
BMu97,P11,PAT,REL,Weight_Unconstrained,1,R_ESI,FM,M2,0.0038038283118468023
BMu97,P11,PAT,REL,Weight_Unconstrained,1,R_ESI,FM,M3,0.004227602493127608
BMu97,P12,PAT,INI,Weight_Unconstrained,1,L_ESI,FM,M1,0.003872609698827469
BMu97,P12,PAT,INI,Weight_Unconstrained,1,L_ESI,FM,M2,0.00337118412748081
BMu97,P12,PAT,INI,Weight_Unconstrained,1,L_ESI,FM,M3,0.0037040191418336765
BMu97,P12,PAT,REL,Weight_Unconstrained,1,L_ESI,FM,M1,0.004184116807220275
BMu97,P12,PAT,REL,Weight_Unconstrained,1,L_ESI,FM,M2,0.004594676424168235
BMu97,P12,PAT,REL,Weight_Unconstrained,1,L_ESI,FM,M3,0.004719268376454748
BMu97,P13,CTR,INI,Weight_Unconstrained,1,L_ESI,FM,M1,0.006256302124264398
BMu97,P13,CTR,INI,Weight_Unconstrained,1,L_ESI,FM,M2,0.006194740529567604
BMu97,P13,CTR,INI,Weight_Unconstrained,1,L_ESI,FM,M3,0.006170203730374956
BMu97,P13,CTR,INI,Weight_Unconstrained,1,R_ESI,FM,M1,0.007892430122006503
BMu97,P13,CTR,INI,Weight_Unconstrained,1,R_ESI,FM,M2,0.00815650335602371
BMu97,P13,CTR,INI,Weight_Unconstrained,1,R_ESI,FM,M3,0.008976094030128381
BMu97,P13,CTR,REL,Weight_Unconstrained,1,L_ESI,FM,M1,0.005842518720861929
BMu97,P13,CTR,REL,Weight_Unconstrained,1,L_ESI,FM,M2,0.005968998880159659
BMu97,P13,CTR,REL,Weight_Unconstrained,1,L_ESI,FM,M3,0.006027091230868189
BMu97,P13,CTR,REL,Weight_Unconstrained,1,R_ESI,FM,M1,0.004527804606387551
BMu97,P13,CTR,REL,Weight_Unconstrained,1,R_ESI,FM,M2,0.004893597233173495
BMu97,P13,CTR,REL,Weight_Unconstrained,1,R_ESI,FM,M3,0.0046852630712794835
BMu97,P14,PAT,INI,Weight_Unconstrained,1,L_ESI,FM,M1,0.006226455126202548
BMu97,P14,PAT,INI,Weight_Unconstrained,1,L_ESI,FM,M2,0.006765747494557616
BMu97,P14,PAT,INI,Weight_Unconstrained,1,L_ESI,FM,M3,0.0072999633476724425
BMu97,P14,PAT,INI,Weight_Unconstrained,1,R_ESI,FM,M1,0.004182901480762148
BMu97,P14,PAT,INI,Weight_Unconstrained,1,R_ESI,FM,M2,0.004230187502675701
BMu97,P14,PAT,INI,Weight_Unconstrained,1,R_ESI,FM,M3,0.004098328213196287
BMu97,P14,PAT,REL,Weight_Unconstrained,1,L_ESI,FM,M1,0.005156264416452493
BMu97,P14,PAT,REL,Weight_Unconstrained,1,L_ESI,FM,M2,0.005153216489312901
BMu97,P14,PAT,REL,Weight_Unconstrained,1,L_ESI,FM,M3,0.0055090738662198395
BMu97,P14,PAT,REL,Weight_Unconstrained,1,R_ESI,FM,M1,0.0024090929898286486
BMu97,P14,PAT,REL,Weight_Unconstrained,1,R_ESI,FM,M2,0.0026575503295762767
BMu97,P14,PAT,REL,Weight_Unconstrained,1,R_ESI,FM,M3,0.002591941303084852
BMu97,P16,CTR,INI,Weight_Unconstrained,1,L_ESI,FM,M1,0.004141762291694076
BMu97,P16,CTR,INI,Weight_Unconstrained,1,L_ESI,FM,M2,0.0038339626150778673
BMu97,P16,CTR,INI,Weight_Unconstrained,1,L_ESI,FM,M3,0.004338010273624442
BMu97,P16,CTR,INI,Weight_Unconstrained,1,R_ESI,FM,M1,0.003663798956868805
BMu97,P16,CTR,INI,Weight_Unconstrained,1,R_ESI,FM,M2,0.0033116935493482874
BMu97,P16,CTR,INI,Weight_Unconstrained,1,R_ESI,FM,M3,0.003659641974105259
BMu97,P16,CTR,REL,Weight_Unconstrained,1,L_ESI,FM,M1,0.004607000300974784
BMu97,P16,CTR,REL,Weight_Unconstrained,1,L_ESI,FM,M2,0.004698203666738296
BMu97,P16,CTR,REL,Weight_Unconstrained,1,L_ESI,FM,M3,0.004823273815491473
BMu97,P16,CTR,REL,Weight_Unconstrained,1,R_ESI,FM,M1,0.0027479240354041407
BMu97,P16,CTR,REL,Weight_Unconstrained,1,R_ESI,FM,M2,0.0036459547619220544
BMu97,P16,CTR,REL,Weight_Unconstrained,1,R_ESI,FM,M3,0.003294701138951664
BMu97,P17,PAT,INI,Weight_Unconstrained,1,L_ESI,FM,M1,0.008391674758832901
BMu97,P17,PAT,INI,Weight_Unconstrained,1,L_ESI,FM,M2,0.009359356762967244
BMu97,P17,PAT,INI,Weight_Unconstrained,1,L_ESI,FM,M3,0.009773392602994865
BMu97,P17,PAT,REL,Weight_Unconstrained,1,L_ESI,FM,M1,0.00479257815179962
BMu97,P17,PAT,REL,Weight_Unconstrained,1,L_ESI,FM,M2,0.005120734776486287
BMu97,P17,PAT,REL,Weight_Unconstrained,1,L_ESI,FM,M3,0.005463725656662344
BMu97,P21,CTR,INI,Weight_Unconstrained,1,L_ESI,FM,M1,0.006877333916112366
BMu97,P21,CTR,INI,Weight_Unconstrained,1,L_ESI,FM,M2,0.006871903782031102
BMu97,P21,CTR,INI,Weight_Unconstrained,1,L_ESI,FM,M3,0.009783889131812395
BMu97,P21,CTR,INI,Weight_Unconstrained,1,R_ESI,FM,M1,0.004438275315883705
BMu97,P21,CTR,INI,Weight_Unconstrained,1,R_ESI,FM,M2,0.005537281728385581
BMu97,P21,CTR,INI,Weight_Unconstrained,1,R_ESI,FM,M3,0.006983980808556804
BMu97,P21,CTR,REL,Weight_Unconstrained,1,L_ESI,FM,M1,0.00889123640096439
BMu97,P21,CTR,REL,Weight_Unconstrained,1,L_ESI,FM,M2,0.016451919189455332
BMu97,P21,CTR,REL,Weight_Unconstrained,1,L_ESI,FM,M3,0.02240967484025764
BMu97,P21,CTR,REL,Weight_Unconstrained,1,L_ESI,FM,M4,0.01583277851258267
BMu97,P22,CTR,INI,Weight_Unconstrained,1,L_ESI,FM,M1,0.004964949968445085
BMu97,P22,CTR,INI,Weight_Unconstrained,1,L_ESI,FM,M2,0.0055429699250494225
BMu97,P22,CTR,INI,Weight_Unconstrained,1,L_ESI,FM,M3,0.004797031941779708
BMu97,P22,CTR,REL,Weight_Unconstrained,1,L_ESI,FM,M1,
BMu97,P22,CTR,REL,Weight_Unconstrained,1,L_ESI,FM,M2,
BMu97,P22,CTR,REL,Weight_Unconstrained,1,R_ESI,FM,M1,
BMu97,P22,CTR,REL,Weight_Unconstrained,1,R_ESI,FM,M2,
BMu97,P23,CTR,INI,Weight_Unconstrained,1,L_ESI,FM,M1,0.0062154203960099845
BMu97,P23,CTR,INI,Weight_Unconstrained,1,L_ESI,FM,M2,0.006265303860524832
BMu97,P23,CTR,INI,Weight_Unconstrained,1,L_ESI,FM,M3,0.0071411349533511935
BMu97,P23,CTR,REL,Weight_Unconstrained,1,R_ESI,FM,M1,0.005374569881123992
BMu97,P23,CTR,REL,Weight_Unconstrained,1,R_ESI,FM,M2,0.005745854589542577
BMu97,P23,CTR,REL,Weight_Unconstrained,1,R_ESI,FM,M3,0.005979171259456148
BMu97,P24,PAT,INI,Weight_Unconstrained,1,L_ESI,FM,M1,0.006555804720380891
BMu97,P24,PAT,INI,Weight_Unconstrained,1,L_ESI,FM,M2,0.00703371861805249
BMu97,P24,PAT,INI,Weight_Unconstrained,1,L_ESI,FM,M3,0.006673282990174972
BMu97,P24,PAT,INI,Weight_Unconstrained,1,R_ESI,FM,M1,
BMu97,P24,PAT,INI,Weight_Unconstrained,1,R_ESI,FM,M2,0.004832043084850191
BMu97,P24,PAT,INI,Weight_Unconstrained,1,R_ESI,FM,M3,
BMu97,P24,PAT,REL,Weight_Unconstrained,1,L_ESI,FM,M1,0.006243919587357155
BMu97,P24,PAT,REL,Weight_Unconstrained,1,L_ESI,FM,M2,0.006140720658866099
BMu97,P24,PAT,REL,Weight_Unconstrained,1,L_ESI,FM,M3,0.008513230341341653
BMu97,P24,PAT,REL,Weight_Unconstrained,1,R_ESI,FM,M1,0.003424638651615885
BMu97,P24,PAT,REL,Weight_Unconstrained,1,R_ESI,FM,M2,0.003495892203643911
BMu97,P24,PAT,REL,Weight_Unconstrained,1,R_ESI,FM,M3,0.00342798705397703
BMu97,P25,CTR,INI,Weight_Unconstrained,1,R_ESI,FM,M1,0.0061694662324626795
BMu97,P25,CTR,INI,Weight_Unconstrained,1,R_ESI,FM,M2,0.004372206962402662
BMu97,P25,CTR,INI,Weight_Unconstrained,1,R_ESI,FM,M3,0.005529767641294274
BMu97,P25,CTR,REL,Weight_Unconstrained,1,R_ESI,FM,M1,0.005305251559575713
BMu97,P25,CTR,REL,Weight_Unconstrained,1,R_ESI,FM,M2,0.004181169460603384
BMu97,P25,CTR,REL,Weight_Unconstrained,1,R_ESI,FM,M3,0.0037729989299791645
BMu97,P26,PAT,INI,Weight_Unconstrained,1,L_ESI,FM,M1,0.01094035712616967
BMu97,P26,PAT,INI,Weight_Unconstrained,1,L_ESI,FM,M2,0.013511814967977504
BMu97,P26,PAT,INI,Weight_Unconstrained,1,L_ESI,FM,M3,0.0156628110964078
BMu97,P26,PAT,INI,Weight_Unconstrained,1,R_ESI,FM,M1,0.007930419605133843
BMu97,P26,PAT,INI,Weight_Unconstrained,1,R_ESI,FM,M2,0.007310406156836445
BMu97,P26,PAT,INI,Weight_Unconstrained,1,R_ESI,FM,M3,0.0063931227731062685
BMu97,P26,PAT,REL,Weight_Unconstrained,1,L_ESI,FM,M1,0.012543194221466951
BMu97,P26,PAT,REL,Weight_Unconstrained,1,L_ESI,FM,M2,0.014908478671268304
BMu97,P26,PAT,REL,Weight_Unconstrained,1,L_ESI,FM,M3,0.022003600119284213
BMu97,P27,PAT,INI,Weight_Unconstrained,1,L_ESI,FM,M1,0.007883237050636241
BMu97,P27,PAT,INI,Weight_Unconstrained,1,L_ESI,FM,M2,0.007042846594901488
BMu97,P27,PAT,INI,Weight_Unconstrained,1,L_ESI,FM,M3,0.006976584901979689
BMu97,P27,PAT,INI,Weight_Unconstrained,1,R_ESI,FM,M1,0.005105424495394794
BMu97,P27,PAT,INI,Weight_Unconstrained,1,R_ESI,FM,M2,0.0051271419072410965
BMu97,P27,PAT,INI,Weight_Unconstrained,1,R_ESI,FM,M3,0.004819403856910146
BMu97,P27,PAT,REL,Weight_Unconstrained,1,L_ESI,FM,M1,0.008001192141352361
BMu97,P27,PAT,REL,Weight_Unconstrained,1,L_ESI,FM,M2,
BMu97,P27,PAT,REL,Weight_Unconstrained,1,L_ESI,FM,M3,0.010724350928697543
BMu97,P27,PAT,REL,Weight_Unconstrained,1,R_ESI,FM,M1,0.006675162260729116
BMu97,P27,PAT,REL,Weight_Unconstrained,1,R_ESI,FM,M2,0.007008210325975359
BMu97,P27,PAT,REL,Weight_Unconstrained,1,R_ESI,FM,M3,0.005585200814400877
BMu97,P28,PAT,INI,Weight_Unconstrained,1,L_ESI,FM,M1,0.00489011875953612
BMu97,P28,PAT,INI,Weight_Unconstrained,1,L_ESI,FM,M2,0.004820770808779287
BMu97,P28,PAT,INI,Weight_Unconstrained,1,L_ESI,FM,M3,0.004939685863162218
BMu97,P28,PAT,INI,Weight_Unconstrained,1,R_ESI,FM,M1,0.004710983915730235
BMu97,P28,PAT,INI,Weight_Unconstrained,1,R_ESI,FM,M2,0.005002197526553754
BMu97,P28,PAT,INI,Weight_Unconstrained,1,R_ESI,FM,M3,0.004709591922653198
BMu97,P28,PAT,REL,Weight_Unconstrained,1,L_ESI,FM,M1,0.004298999277241576
BMu97,P28,PAT,REL,Weight_Unconstrained,1,L_ESI,FM,M2,0.004615110840857269
BMu97,P28,PAT,REL,Weight_Unconstrained,1,L_ESI,FM,M3,0.004730076903853243
BMu97,P28,PAT,REL,Weight_Unconstrained,1,R_ESI,FM,M1,0.004453540806926225
BMu97,P28,PAT,REL,Weight_Unconstrained,1,R_ESI,FM,M2,0.004490406458710919
BMu97,P28,PAT,REL,Weight_Unconstrained,1,R_ESI,FM,M3,0.0042261016258085616
BMu97,P29,PAT,INI,Weight_Unconstrained,1,L_ESI,FM,M1,0.027916098708993815
BMu97,P29,PAT,INI,Weight_Unconstrained,1,L_ESI,FM,M2,
BMu97,P29,PAT,INI,Weight_Unconstrained,1,L_ESI,FM,M3,
BMu97,P29,PAT,INI,Weight_Unconstrained,1,R_ESI,FM,M1,0.013588921093411775
BMu97,P29,PAT,INI,Weight_Unconstrained,1,R_ESI,FM,M2,
BMu97,P29,PAT,INI,Weight_Unconstrained,1,R_ESI,FM,M3,
BMu97,P29,PAT,REL,Weight_Unconstrained,1,L_ESI,FM,M1,
BMu97,P29,PAT,REL,Weight_Unconstrained,1,L_ESI,FM,M2,0.030310452775916364
BMu97,P29,PAT,REL,Weight_Unconstrained,1,L_ESI,FM,M3,0.03344970412264636
BMu97,P29,PAT,REL,Weight_Unconstrained,1,R_ESI,FM,M1,
BMu97,P29,PAT,REL,Weight_Unconstrained,1,R_ESI,FM,M2,0.015053307427566474
BMu97,P29,PAT,REL,Weight_Unconstrained,1,R_ESI,FM,M3,0.014620599022036582
BMu97,P30,PAT,INI,Weight_Unconstrained,1,L_ESI,FM,M1,0.003928100439448308
BMu97,P30,PAT,INI,Weight_Unconstrained,1,L_ESI,FM,M2,0.004310393068065346
BMu97,P30,PAT,INI,Weight_Unconstrained,1,L_ESI,FM,M3,0.004779874764951772
BMu97,P30,PAT,INI,Weight_Unconstrained,1,R_ESI,FM,M1,0.0032173460853850812
BMu97,P30,PAT,INI,Weight_Unconstrained,1,R_ESI,FM,M2,0.00345059247650364
BMu97,P30,PAT,INI,Weight_Unconstrained,1,R_ESI,FM,M3,0.003692520965040083
BMu97,P30,PAT,REL,Weight_Unconstrained,1,L_ESI,FM,M1,0.006498378414624523
BMu97,P30,PAT,REL,Weight_Unconstrained,1,L_ESI,FM,M2,0.00656137870621094
BMu97,P30,PAT,REL,Weight_Unconstrained,1,L_ESI,FM,M3,0.006568673550825863
BMu97,P30,PAT,REL,Weight_Unconstrained,1,R_ESI,FM,M1,0.003730646295861721
BMu97,P30,PAT,REL,Weight_Unconstrained,1,R_ESI,FM,M2,0.0039186936256353465
BMu97,P30,PAT,REL,Weight_Unconstrained,1,R_ESI,FM,M3,0.003786547563024209
BMu97,P32,PAT,INI,Weight_Unconstrained,1,L_ESI,FM,M1,0.006355075384781653
BMu97,P32,PAT,INI,Weight_Unconstrained,1,L_ESI,FM,M2,0.006709672533269501
BMu97,P32,PAT,INI,Weight_Unconstrained,1,L_ESI,FM,M3,0.00667342365081495
BMu97,P32,PAT,INI,Weight_Unconstrained,1,R_ESI,FM,M1,0.0038688055633083218
BMu97,P32,PAT,INI,Weight_Unconstrained,1,R_ESI,FM,M2,0.004209783134939762
BMu97,P32,PAT,INI,Weight_Unconstrained,1,R_ESI,FM,M3,0.0042010357950201145
BMu97,P32,PAT,REL,Weight_Unconstrained,1,L_ESI,FM,M1,0.004043544909489239
BMu97,P32,PAT,REL,Weight_Unconstrained,1,L_ESI,FM,M2,0.004339813472351307
BMu97,P32,PAT,REL,Weight_Unconstrained,1,L_ESI,FM,M3,0.0038416938301815006
BMu97,P32,PAT,REL,Weight_Unconstrained,1,R_ESI,FM,M1,0.0028344172615151686
BMu97,P32,PAT,REL,Weight_Unconstrained,1,R_ESI,FM,M2,0.003049644922760545
BMu97,P32,PAT,REL,Weight_Unconstrained,1,R_ESI,FM,M3,0.003039618265974455
BMu97,P33,PAT,INI,Weight_Unconstrained,1,L_ESI,FM,M1,0.018094469045166834
BMu97,P33,PAT,INI,Weight_Unconstrained,1,L_ESI,FM,M2,0.02348443081170364
BMu97,P33,PAT,INI,Weight_Unconstrained,1,L_ESI,FM,M3,0.021580599265225747
BMu97,P33,PAT,INI,Weight_Unconstrained,1,R_ESI,FM,M1,0.008495015356262951
BMu97,P33,PAT,INI,Weight_Unconstrained,1,R_ESI,FM,M2,0.011262687664620314
BMu97,P33,PAT,INI,Weight_Unconstrained,1,R_ESI,FM,M3,0.011716440578755889
BMu97,P33,PAT,REL,Weight_Unconstrained,1,L_ESI,FM,M1,0.006080181053408915
BMu97,P34,PAT,INI,Weight_Unconstrained,1,L_ESI,FM,M1,0.00616327477376235
BMu97,P34,PAT,INI,Weight_Unconstrained,1,L_ESI,FM,M2,0.005449987878426297
BMu97,P34,PAT,INI,Weight_Unconstrained,1,L_ESI,FM,M3,0.005730287830563133
BMu97,P34,PAT,INI,Weight_Unconstrained,1,R_ESI,FM,M1,0.004907413001764087
BMu97,P34,PAT,INI,Weight_Unconstrained,1,R_ESI,FM,M2,0.004931627258933881
BMu97,P34,PAT,INI,Weight_Unconstrained,1,R_ESI,FM,M3,0.004948146505562539
BMu97,P34,PAT,REL,Weight_Unconstrained,1,L_ESI,FM,M1,0.007581261036294652
BMu97,P34,PAT,REL,Weight_Unconstrained,1,L_ESI,FM,M2,0.008348486769508102
BMu97,P34,PAT,REL,Weight_Unconstrained,1,L_ESI,FM,M3,0.008106677485889087
BMu97,P35,CTR,INI,Weight_Unconstrained,1,R_ESI,FM,M1,0.005964368346650181
BMu97,P35,CTR,INI,Weight_Unconstrained,1,R_ESI,FM,M2,0.007326978838291093
BMu97,P35,CTR,INI,Weight_Unconstrained,1,R_ESI,FM,M3,0.007526003810560045
BMu97,P35,CTR,REL,Weight_Unconstrained,1,L_ESI,FM,M1,0.008620729727156136
BMu97,P35,CTR,REL,Weight_Unconstrained,1,L_ESI,FM,M2,0.008374315328290634
BMu97,P35,CTR,REL,Weight_Unconstrained,1,L_ESI,FM,M3,0.009778043762112016
BMu97,P35,CTR,REL,Weight_Unconstrained,1,R_ESI,FM,M1,0.006605575571076311
BMu97,P35,CTR,REL,Weight_Unconstrained,1,R_ESI,FM,M2,0.005970185672851183
BMu97,P35,CTR,REL,Weight_Unconstrained,1,R_ESI,FM,M3,0.006907628459229416
BMu97,P36,PAT,INI,Weight_Unconstrained,1,L_ESI,FM,M1,0.009681922914630905
BMu97,P36,PAT,INI,Weight_Unconstrained,1,L_ESI,FM,M2,0.009602491829644148
BMu97,P36,PAT,INI,Weight_Unconstrained,1,L_ESI,FM,M3,0.016080136249367067
BMu97,P36,PAT,INI,Weight_Unconstrained,1,R_ESI,FM,M1,0.008607479566216561
BMu97,P36,PAT,INI,Weight_Unconstrained,1,R_ESI,FM,M2,0.007659974506050611
BMu97,P36,PAT,INI,Weight_Unconstrained,1,R_ESI,FM,M3,0.00944429288647309
BMu97,P36,PAT,REL,Weight_Unconstrained,1,L_ESI,FM,M1,0.0055207954747511605
BMu97,P36,PAT,REL,Weight_Unconstrained,1,L_ESI,FM,M2,0.005574483626993804
BMu97,P36,PAT,REL,Weight_Unconstrained,1,L_ESI,FM,M3,0.006385919292381678
BMu97,P36,PAT,REL,Weight_Unconstrained,1,R_ESI,FM,M1,0.003880997584930701
BMu97,P36,PAT,REL,Weight_Unconstrained,1,R_ESI,FM,M2,0.0036308924806329164
BMu97,P36,PAT,REL,Weight_Unconstrained,1,R_ESI,FM,M3,0.0037100358153166037
BMu97,P38,CTR,INI,Weight_Unconstrained,1,L_ESI,FM,M1,0.007534361210268025
BMu97,P38,CTR,INI,Weight_Unconstrained,1,L_ESI,FM,M2,0.008155839077848493
BMu97,P38,CTR,INI,Weight_Unconstrained,1,L_ESI,FM,M3,0.007951645623048599
BMu97,P38,CTR,INI,Weight_Unconstrained,1,L_ESI,FM,M4,0.00805095006350255
BMu97,P38,CTR,INI,Weight_Unconstrained,1,R_ESI,FM,M1,0.005503166654860942
BMu97,P38,CTR,INI,Weight_Unconstrained,1,R_ESI,FM,M2,0.0059154112813276745
BMu97,P38,CTR,INI,Weight_Unconstrained,1,R_ESI,FM,M3,0.005406049205202308
BMu97,P38,CTR,INI,Weight_Unconstrained,1,R_ESI,FM,M4,0.005441103608218711
BMu97,P38,CTR,REL,Weight_Unconstrained,1,L_ESI,FM,M1,0.007717157177945221
BMu97,P38,CTR,REL,Weight_Unconstrained,1,L_ESI,FM,M2,0.008112953555511924
BMu97,P38,CTR,REL,Weight_Unconstrained,1,L_ESI,FM,M3,0.008168681877996006
BMu97,P38,CTR,REL,Weight_Unconstrained,1,L_ESI,FM,M4,0.007881718663030467
BMu97,P38,CTR,REL,Weight_Unconstrained,1,L_ESI,FM,M5,0.0076451421147162475
BMu97,P38,CTR,REL,Weight_Unconstrained,1,R_ESI,FM,M1,0.005172018543504945
BMu97,P38,CTR,REL,Weight_Unconstrained,1,R_ESI,FM,M2,0.0052781664750474674
BMu97,P38,CTR,REL,Weight_Unconstrained,1,R_ESI,FM,M3,0.0055714410367766806
BMu97,P38,CTR,REL,Weight_Unconstrained,1,R_ESI,FM,M4,0.005098874920707287
BMu97,P38,CTR,REL,Weight_Unconstrained,1,R_ESI,FM,M5,0.005208535231363192
BMu97,P39,CTR,INI,Weight_Unconstrained,1,L_ESI,FM,M1,0.0052356371157407525
BMu97,P39,CTR,INI,Weight_Unconstrained,1,L_ESI,FM,M2,0.005016927829265436
BMu97,P39,CTR,INI,Weight_Unconstrained,1,L_ESI,FM,M3,0.005382678267046186
BMu97,P39,CTR,INI,Weight_Unconstrained,1,R_ESI,FM,M1,0.0027937136884130754
BMu97,P39,CTR,INI,Weight_Unconstrained,1,R_ESI,FM,M2,0.004225804811088208
BMu97,P39,CTR,INI,Weight_Unconstrained,1,R_ESI,FM,M3,0.004443544892048923
BMu97,P39,CTR,REL,Weight_Unconstrained,1,L_ESI,FM,M1,0.00718416180623771
BMu97,P39,CTR,REL,Weight_Unconstrained,1,L_ESI,FM,M2,0.006036789191256951
BMu97,P39,CTR,REL,Weight_Unconstrained,1,L_ESI,FM,M3,0.006465266409987952
BMu97,P39,CTR,REL,Weight_Unconstrained,1,R_ESI,FM,M1,0.003577250342292329
BMu97,P39,CTR,REL,Weight_Unconstrained,1,R_ESI,FM,M2,0.005599424304099596
BMu97,P39,CTR,REL,Weight_Unconstrained,1,R_ESI,FM,M3,0.004179171959220616
BMu97,P40,CTR,INI,Weight_Unconstrained,1,L_ESI,FM,M1,0.019572886285904523
BMu97,P40,CTR,INI,Weight_Unconstrained,1,L_ESI,FM,M2,0.018749633369869914
BMu97,P40,CTR,INI,Weight_Unconstrained,1,L_ESI,FM,M3,0.02059037729595207
BMu97,P40,CTR,INI,Weight_Unconstrained,1,R_ESI,FM,M1,0.007064013679596224
BMu97,P40,CTR,INI,Weight_Unconstrained,1,R_ESI,FM,M2,0.0061189000486692865
BMu97,P40,CTR,INI,Weight_Unconstrained,1,R_ESI,FM,M3,0.006815092847583722
BMu97,P40,CTR,REL,Weight_Unconstrained,1,L_ESI,FM,M1,0.015293219877335623
BMu97,P40,CTR,REL,Weight_Unconstrained,1,L_ESI,FM,M2,0.015274864886216962
BMu97,P40,CTR,REL,Weight_Unconstrained,1,L_ESI,FM,M3,0.015099660597816422
BMu97,P40,CTR,REL,Weight_Unconstrained,1,R_ESI,FM,M1,0.003907174165941749
BMu97,P40,CTR,REL,Weight_Unconstrained,1,R_ESI,FM,M2,0.0034355695183977183
BMu97,P40,CTR,REL,Weight_Unconstrained,1,R_ESI,FM,M3,0.003816437868020377
BMu97,P41,PAT,INI,Weight_Unconstrained,1,L_ESI,FM,M1,0.008204126825700337
BMu97,P41,PAT,INI,Weight_Unconstrained,1,L_ESI,FM,M2,0.007390775293063867
BMu97,P41,PAT,INI,Weight_Unconstrained,1,L_ESI,FM,M3,0.007625536791426286
BMu97,P41,PAT,INI,Weight_Unconstrained,1,L_ESI,FM,M4,0.008245283412702475
BMu97,P41,PAT,INI,Weight_Unconstrained,1,R_ESI,FM,M1,0.005866216293266281
BMu97,P41,PAT,INI,Weight_Unconstrained,1,R_ESI,FM,M2,0.006067139513942757
BMu97,P41,PAT,INI,Weight_Unconstrained,1,R_ESI,FM,M3,0.00552782428823194
BMu97,P41,PAT,INI,Weight_Unconstrained,1,R_ESI,FM,M4,0.006316334404152377
BMu97,P41,PAT,REL,Weight_Unconstrained,1,L_ESI,FM,M1,0.007495783748708445
BMu97,P41,PAT,REL,Weight_Unconstrained,1,L_ESI,FM,M2,0.006960012920353531
BMu97,P41,PAT,REL,Weight_Unconstrained,1,L_ESI,FM,M3,0.007111533794501147
BMu97,P41,PAT,REL,Weight_Unconstrained,1,R_ESI,FM,M1,0.005428722964280097
BMu97,P41,PAT,REL,Weight_Unconstrained,1,R_ESI,FM,M2,0.004573792905240475
BMu97,P41,PAT,REL,Weight_Unconstrained,1,R_ESI,FM,M3,0.004353909729424429
BMu97,P42,PAT,INI,Weight_Unconstrained,1,L_ESI,FM,M1,0.008582565810557805
BMu97,P42,PAT,INI,Weight_Unconstrained,1,L_ESI,FM,M2,0.010490562302064192
BMu97,P42,PAT,INI,Weight_Unconstrained,1,L_ESI,FM,M3,0.008846751846346004
BMu97,P42,PAT,INI,Weight_Unconstrained,1,R_ESI,FM,M1,0.008932221574844948
BMu97,P42,PAT,INI,Weight_Unconstrained,1,R_ESI,FM,M2,0.01131147431422334
BMu97,P42,PAT,INI,Weight_Unconstrained,1,R_ESI,FM,M3,0.0101785157119105
BMu97,P42,PAT,REL,Weight_Unconstrained,1,L_ESI,FM,M1,0.008657851331236154
BMu97,P42,PAT,REL,Weight_Unconstrained,1,L_ESI,FM,M2,0.008511558930841916
BMu97,P42,PAT,REL,Weight_Unconstrained,1,L_ESI,FM,M3,0.009255544692214124
BMu97,P42,PAT,REL,Weight_Unconstrained,1,R_ESI,FM,M1,0.013126604772247613
BMu97,P42,PAT,REL,Weight_Unconstrained,1,R_ESI,FM,M2,0.013214583725271869
BMu97,P42,PAT,REL,Weight_Unconstrained,1,R_ESI,FM,M3,0.013175156131870041
BMu97,P43,PAT,INI,Weight_Unconstrained,1,L_ESI,FM,M1,0.005230406012678401
BMu97,P43,PAT,INI,Weight_Unconstrained,1,L_ESI,FM,M2,0.005941888974196086
BMu97,P43,PAT,INI,Weight_Unconstrained,1,L_ESI,FM,M3,0.0056668261197074885
BMu97,P43,PAT,INI,Weight_Unconstrained,1,R_ESI,FM,M1,0.0038938116086318078
BMu97,P43,PAT,INI,Weight_Unconstrained,1,R_ESI,FM,M2,0.004287186614139299
BMu97,P43,PAT,INI,Weight_Unconstrained,1,R_ESI,FM,M3,0.0041070502252011
BMu97,P43,PAT,REL,Weight_Unconstrained,1,L_ESI,FM,M1,0.008715226337456137
BMu97,P43,PAT,REL,Weight_Unconstrained,1,L_ESI,FM,M2,0.007813456643912463
BMu97,P43,PAT,REL,Weight_Unconstrained,1,L_ESI,FM,M3,0.00927716558918855
BMu97,P43,PAT,REL,Weight_Unconstrained,1,L_ESI,FM,M4,0.008867636307328395
BMu97,P43,PAT,REL,Weight_Unconstrained,1,R_ESI,FM,M1,0.00542177864100714
BMu97,P43,PAT,REL,Weight_Unconstrained,1,R_ESI,FM,M2,0.005534300076336715
BMu97,P43,PAT,REL,Weight_Unconstrained,1,R_ESI,FM,M3,0.00469129920614271
BMu97,P43,PAT,REL,Weight_Unconstrained,1,R_ESI,FM,M4,0.0055469898860836175
BMu97,P44,CTR,INI,Weight_Unconstrained,1,L_ESI,FM,M1,0.01064670031282857
BMu97,P44,CTR,INI,Weight_Unconstrained,1,L_ESI,FM,M2,0.009973398765869532
BMu97,P44,CTR,INI,Weight_Unconstrained,1,L_ESI,FM,M3,0.010065212826150489
BMu97,P44,CTR,INI,Weight_Unconstrained,1,R_ESI,FM,M1,0.010071366363672365
BMu97,P44,CTR,INI,Weight_Unconstrained,1,R_ESI,FM,M2,0.010761132057386411
BMu97,P44,CTR,INI,Weight_Unconstrained,1,R_ESI,FM,M3,0.011726792429923869
BMu97,P44,CTR,REL,Weight_Unconstrained,1,L_ESI,FM,M1,0.0066258974947008085
BMu97,P44,CTR,REL,Weight_Unconstrained,1,L_ESI,FM,M2,0.007153412083887537
BMu97,P44,CTR,REL,Weight_Unconstrained,1,L_ESI,FM,M3,0.007895574700568266
BMu97,P44,CTR,REL,Weight_Unconstrained,1,R_ESI,FM,M1,0.011094000305192957
BMu97,P44,CTR,REL,Weight_Unconstrained,1,R_ESI,FM,M2,0.012167445049986847
BMu97,P44,CTR,REL,Weight_Unconstrained,1,R_ESI,FM,M3,0.011361796216646966
BMu97,P45,PAT,INI,Weight_Unconstrained,1,L_ESI,FM,M1,0.00447417380412744
BMu97,P45,PAT,INI,Weight_Unconstrained,1,L_ESI,FM,M2,0.004640322193688342
BMu97,P45,PAT,INI,Weight_Unconstrained,1,L_ESI,FM,M3,0.004397241823880805
BMu97,P45,PAT,INI,Weight_Unconstrained,1,R_ESI,FM,M1,0.003036746582849145
BMu97,P45,PAT,INI,Weight_Unconstrained,1,R_ESI,FM,M2,0.0030275944703961194
BMu97,P45,PAT,INI,Weight_Unconstrained,1,R_ESI,FM,M3,0.0031586197286230543
BMu97,P45,PAT,REL,Weight_Unconstrained,1,L_ESI,FM,M1,0.004482700610694106
BMu97,P45,PAT,REL,Weight_Unconstrained,1,L_ESI,FM,M2,0.004449290903849145
BMu97,P45,PAT,REL,Weight_Unconstrained,1,L_ESI,FM,M3,0.004505546277501889
BMu97,P46,CTR,INI,Weight_Unconstrained,1,L_ESI,FM,M1,0.007593435063452692
BMu97,P46,CTR,INI,Weight_Unconstrained,1,L_ESI,FM,M2,0.00836244848979416
BMu97,P46,CTR,INI,Weight_Unconstrained,1,L_ESI,FM,M3,0.00902676547509454
BMu97,P46,CTR,INI,Weight_Unconstrained,1,R_ESI,FM,M1,0.00484910992289471
BMu97,P46,CTR,INI,Weight_Unconstrained,1,R_ESI,FM,M2,0.005098417388863255
BMu97,P46,CTR,INI,Weight_Unconstrained,1,R_ESI,FM,M3,0.005193238147280989
BMu97,P46,CTR,REL,Weight_Unconstrained,1,L_ESI,FM,M1,0.005702299127110802
BMu97,P46,CTR,REL,Weight_Unconstrained,1,L_ESI,FM,M2,0.00536594805280603
BMu97,P46,CTR,REL,Weight_Unconstrained,1,L_ESI,FM,M3,0.007363010924828705
BMu97,P46,CTR,REL,Weight_Unconstrained,1,R_ESI,FM,M1,0.004777268477927667
BMu97,P46,CTR,REL,Weight_Unconstrained,1,R_ESI,FM,M2,0.003978348024241262
BMu97,P46,CTR,REL,Weight_Unconstrained,1,R_ESI,FM,M3,0.004215719525344236
BMu97,P47,PAT,INI,Weight_Unconstrained,1,L_ESI,FM,M1,0.010455602092705706
BMu97,P47,PAT,INI,Weight_Unconstrained,1,L_ESI,FM,M2,0.011795554533802714
BMu97,P47,PAT,INI,Weight_Unconstrained,1,L_ESI,FM,M3,0.012610114446107767
BMu97,P47,PAT,REL,Weight_Unconstrained,1,L_ESI,FM,M1,0.008714637040125964
BMu97,P47,PAT,REL,Weight_Unconstrained,1,L_ESI,FM,M2,0.008827127346391234
BMu97,P47,PAT,REL,Weight_Unconstrained,1,L_ESI,FM,M3,0.010007953223135212
BMu97,P47,PAT,REL,Weight_Unconstrained,1,R_ESI,FM,M1,0.006885693608442965
BMu97,P47,PAT,REL,Weight_Unconstrained,1,R_ESI,FM,M2,0.006800499345488594
BMu97,P47,PAT,REL,Weight_Unconstrained,1,R_ESI,FM,M3,0.0059247200625492154
BMu97,P48,CTR,INI,Weight_Unconstrained,1,L_ESI,FM,M1,0.01251648467370427
BMu97,P48,CTR,INI,Weight_Unconstrained,1,L_ESI,FM,M2,0.011918295746108089
BMu97,P48,CTR,INI,Weight_Unconstrained,1,L_ESI,FM,M3,0.013054500442421003
BMu97,P48,CTR,INI,Weight_Unconstrained,1,R_ESI,FM,M1,0.012329059445400149
BMu97,P48,CTR,INI,Weight_Unconstrained,1,R_ESI,FM,M2,0.01199021045294179
BMu97,P48,CTR,INI,Weight_Unconstrained,1,R_ESI,FM,M3,0.011467772901235865
BMu97,P48,CTR,REL,Weight_Unconstrained,1,L_ESI,FM,M1,0.012652126292019799
BMu97,P48,CTR,REL,Weight_Unconstrained,1,L_ESI,FM,M2,0.01142671029696197
BMu97,P48,CTR,REL,Weight_Unconstrained,1,L_ESI,FM,M3,0.012656139409353125
BMu97,P48,CTR,REL,Weight_Unconstrained,1,R_ESI,FM,M1,0.013134346566446783
BMu97,P48,CTR,REL,Weight_Unconstrained,1,R_ESI,FM,M2,0.012703507028700154
BMu97,P48,CTR,REL,Weight_Unconstrained,1,R_ESI,FM,M3,0.01628925447447
BMu97,P49,CTR,INI,Weight_Unconstrained,1,R_ESI,FM,M1,0.008789396623882393
BMu97,P49,CTR,INI,Weight_Unconstrained,1,R_ESI,FM,M2,0.009301755360845902
BMu97,P49,CTR,INI,Weight_Unconstrained,1,R_ESI,FM,M3,0.009569886220707317
BMu97,P49,CTR,REL,Weight_Unconstrained,1,L_ESI,FM,M1,0.006913685461035501
BMu97,P49,CTR,REL,Weight_Unconstrained,1,L_ESI,FM,M2,0.006535839641389643
BMu97,P49,CTR,REL,Weight_Unconstrained,1,L_ESI,FM,M3,0.007571952875637821
BMu97,P50,PAT,INI,Weight_Unconstrained,1,L_ESI,FM,M1,0.013230523530210586
BMu97,P50,PAT,INI,Weight_Unconstrained,1,L_ESI,FM,M2,0.015338400929542247
BMu97,P50,PAT,INI,Weight_Unconstrained,1,L_ESI,FM,M3,0.015723961134012303
BMu97,P50,PAT,INI,Weight_Unconstrained,1,R_ESI,FM,M1,0.004748423940817225
BMu97,P50,PAT,INI,Weight_Unconstrained,1,R_ESI,FM,M2,0.006203578982563017
BMu97,P50,PAT,INI,Weight_Unconstrained,1,R_ESI,FM,M3,0.006609364416310382
BMu97,P50,PAT,REL,Weight_Unconstrained,1,L_ESI,FM,M1,0.011343563868895398
BMu97,P50,PAT,REL,Weight_Unconstrained,1,L_ESI,FM,M2,0.0123607768504585
BMu97,P50,PAT,REL,Weight_Unconstrained,1,L_ESI,FM,M3,0.013128668385451781
BMu97,P50,PAT,REL,Weight_Unconstrained,1,R_ESI,FM,M1,0.006207913405819294
BMu97,P50,PAT,REL,Weight_Unconstrained,1,R_ESI,FM,M2,0.005500991058096276
BMu97,P50,PAT,REL,Weight_Unconstrained,1,R_ESI,FM,M3,0.005346401178475463
BMu97,P51,PAT,INI,Weight_Unconstrained,1,L_ESI,FM,M1,0.012880403703151272
BMu97,P51,PAT,INI,Weight_Unconstrained,1,L_ESI,FM,M2,
BMu97,P51,PAT,INI,Weight_Unconstrained,1,L_ESI,FM,M3,0.010904956476163564
BMu97,P51,PAT,INI,Weight_Unconstrained,1,L_ESI,FM,M4,0.010701230675563018
BMu97,P51,PAT,INI,Weight_Unconstrained,1,R_ESI,FM,M1,0.01254618720495532
BMu97,P51,PAT,INI,Weight_Unconstrained,1,R_ESI,FM,M2,
BMu97,P51,PAT,INI,Weight_Unconstrained,1,R_ESI,FM,M3,
BMu97,P51,PAT,INI,Weight_Unconstrained,1,R_ESI,FM,M4,0.009072902061743176
BMu97,P51,PAT,REL,Weight_Unconstrained,1,L_ESI,FM,M1,0.006923898921214638
BMu97,P51,PAT,REL,Weight_Unconstrained,1,L_ESI,FM,M2,0.005534000489621167
BMu97,P51,PAT,REL,Weight_Unconstrained,1,L_ESI,FM,M3,0.007349271844519458
BMu97,P52,CTR,INI,Weight_Unconstrained,1,L_ESI,FM,M1,0.009730083792421906
BMu97,P52,CTR,INI,Weight_Unconstrained,1,L_ESI,FM,M2,0.011609284323356488
BMu97,P52,CTR,INI,Weight_Unconstrained,1,L_ESI,FM,M3,0.011222893198273126
BMu97,P52,CTR,INI,Weight_Unconstrained,1,R_ESI,FM,M1,0.0062592414812056895
BMu97,P52,CTR,INI,Weight_Unconstrained,1,R_ESI,FM,M2,0.005339068865185928
BMu97,P52,CTR,INI,Weight_Unconstrained,1,R_ESI,FM,M3,0.0060067076799081385
BMu97,P52,CTR,REL,Weight_Unconstrained,1,L_ESI,FM,M1,0.00602955648482126
BMu97,P52,CTR,REL,Weight_Unconstrained,1,L_ESI,FM,M2,0.006506656986583023
BMu97,P52,CTR,REL,Weight_Unconstrained,1,L_ESI,FM,M3,0.007676301304649022
BMu97,P52,CTR,REL,Weight_Unconstrained,1,R_ESI,FM,M1,0.0040077187591715056
BMu97,P52,CTR,REL,Weight_Unconstrained,1,R_ESI,FM,M2,0.004382097860957572
BMu97,P52,CTR,REL,Weight_Unconstrained,1,R_ESI,FM,M3,0.004297517130172337
BMu97,P53,PAT,INI,Weight_Unconstrained,1,L_ESI,FM,M1,0.006970885652115245
BMu97,P53,PAT,INI,Weight_Unconstrained,1,L_ESI,FM,M2,0.0068524035790536245
BMu97,P53,PAT,INI,Weight_Unconstrained,1,L_ESI,FM,M3,0.006780874002660541
BMu97,P53,PAT,INI,Weight_Unconstrained,1,R_ESI,FM,M1,0.00437828091085646
BMu97,P53,PAT,INI,Weight_Unconstrained,1,R_ESI,FM,M2,0.004035407069950843
BMu97,P53,PAT,INI,Weight_Unconstrained,1,R_ESI,FM,M3,0.004098923424358161
BMu97,P53,PAT,REL,Weight_Unconstrained,1,L_ESI,FM,M1,0.0056726046875093285
BMu97,P53,PAT,REL,Weight_Unconstrained,1,L_ESI,FM,M2,0.005533661682964576
BMu97,P53,PAT,REL,Weight_Unconstrained,1,L_ESI,FM,M3,0.005582139131334972
BMu97,P53,PAT,REL,Weight_Unconstrained,1,R_ESI,FM,M1,0.00391873841475235
BMu97,P53,PAT,REL,Weight_Unconstrained,1,R_ESI,FM,M2,0.0037287388428619904
BMu97,P53,PAT,REL,Weight_Unconstrained,1,R_ESI,FM,M3,0.0041061446686644545
BMu97,P54,PAT,INI,Weight_Unconstrained,1,L_ESI,FM,M1,0.0057041152466722434
BMu97,P54,PAT,INI,Weight_Unconstrained,1,L_ESI,FM,M2,0.0051277808674444715
BMu97,P54,PAT,INI,Weight_Unconstrained,1,L_ESI,FM,M3,0.0060730606701087176
BMu97,P54,PAT,INI,Weight_Unconstrained,1,R_ESI,FM,M1,0.005369262607511319
BMu97,P54,PAT,INI,Weight_Unconstrained,1,R_ESI,FM,M2,0.005180974885345007
BMu97,P54,PAT,INI,Weight_Unconstrained,1,R_ESI,FM,M3,0.006050990836316467
BMu97,P54,PAT,REL,Weight_Unconstrained,1,L_ESI,FM,M1,0.005542376121747567
BMu97,P54,PAT,REL,Weight_Unconstrained,1,L_ESI,FM,M2,0.005642021105389473
BMu97,P54,PAT,REL,Weight_Unconstrained,1,L_ESI,FM,M3,0.005843098489939511
BMu97,P54,PAT,REL,Weight_Unconstrained,1,R_ESI,FM,M1,0.006290062914832678
BMu97,P54,PAT,REL,Weight_Unconstrained,1,R_ESI,FM,M2,0.0072779203857891266
BMu97,P54,PAT,REL,Weight_Unconstrained,1,R_ESI,FM,M3,0.006477080750408605
BMu97,P55,CTR,INI,Weight_Unconstrained,1,L_ESI,FM,M1,0.004393100921234129
BMu97,P55,CTR,INI,Weight_Unconstrained,1,L_ESI,FM,M2,0.0052517563473217805
BMu97,P55,CTR,INI,Weight_Unconstrained,1,L_ESI,FM,M3,0.005601035894101789
BMu97,P55,CTR,INI,Weight_Unconstrained,1,R_ESI,FM,M1,0.003565936955680908
BMu97,P55,CTR,INI,Weight_Unconstrained,1,R_ESI,FM,M2,0.004707444118640545
BMu97,P55,CTR,INI,Weight_Unconstrained,1,R_ESI,FM,M3,0.004941500084948791
BMu97,P55,CTR,REL,Weight_Unconstrained,1,L_ESI,FM,M1,0.007799056236490083
BMu97,P55,CTR,REL,Weight_Unconstrained,1,L_ESI,FM,M2,0.008830610403343658
BMu97,P55,CTR,REL,Weight_Unconstrained,1,L_ESI,FM,M3,0.008964740137168857
BMu97,P55,CTR,REL,Weight_Unconstrained,1,R_ESI,FM,M1,0.004544768265422607
BMu97,P55,CTR,REL,Weight_Unconstrained,1,R_ESI,FM,M2,0.004876666290478995
BMu97,P55,CTR,REL,Weight_Unconstrained,1,R_ESI,FM,M3,0.0045286024783983084
BMu97,P56,CTR,INI,Weight_Unconstrained,1,L_ESI,FM,M1,0.007387782547354209
BMu97,P56,CTR,INI,Weight_Unconstrained,1,L_ESI,FM,M2,0.008289818426170673
BMu97,P56,CTR,INI,Weight_Unconstrained,1,L_ESI,FM,M3,0.007529994012472013
BMu97,P56,CTR,INI,Weight_Unconstrained,1,R_ESI,FM,M1,0.004030348316565522
BMu97,P56,CTR,INI,Weight_Unconstrained,1,R_ESI,FM,M2,0.004070669295557931
BMu97,P56,CTR,INI,Weight_Unconstrained,1,R_ESI,FM,M3,0.003852512053360221
BMu97,P56,CTR,REL,Weight_Unconstrained,1,L_ESI,FM,M1,0.008100530139546291
BMu97,P56,CTR,REL,Weight_Unconstrained,1,L_ESI,FM,M2,0.00789231415911136
BMu97,P56,CTR,REL,Weight_Unconstrained,1,L_ESI,FM,M3,0.007399209407493846
BMu97,P56,CTR,REL,Weight_Unconstrained,1,R_ESI,FM,M1,0.004888372530841816
BMu97,P56,CTR,REL,Weight_Unconstrained,1,R_ESI,FM,M2,0.00508661181257978
BMu97,P56,CTR,REL,Weight_Unconstrained,1,R_ESI,FM,M3,0.004743889971480888
BMu97,P57,CTR,INI,Weight_Unconstrained,1,L_ESI,FM,M1,0.003979125119388605
BMu97,P57,CTR,INI,Weight_Unconstrained,1,L_ESI,FM,M2,0.004399893686365826
BMu97,P57,CTR,INI,Weight_Unconstrained,1,L_ESI,FM,M3,0.004479238565742788
BMu97,P57,CTR,INI,Weight_Unconstrained,1,R_ESI,FM,M1,0.002672746201304757
BMu97,P57,CTR,INI,Weight_Unconstrained,1,R_ESI,FM,M2,0.002991396542372698
BMu97,P57,CTR,INI,Weight_Unconstrained,1,R_ESI,FM,M3,0.003099423637725934
BMu97,P57,CTR,REL,Weight_Unconstrained,1,L_ESI,FM,M1,0.0038509710750543294
BMu97,P57,CTR,REL,Weight_Unconstrained,1,L_ESI,FM,M2,0.003935596328477641
BMu97,P57,CTR,REL,Weight_Unconstrained,1,L_ESI,FM,M3,0.00412040682337426
BMu97,P57,CTR,REL,Weight_Unconstrained,1,R_ESI,FM,M1,0.003536877870398354
BMu97,P57,CTR,REL,Weight_Unconstrained,1,R_ESI,FM,M2,0.0038219344455802354
BMu97,P57,CTR,REL,Weight_Unconstrained,1,R_ESI,FM,M3,0.003719495235579048
BMu97,P58,PAT,INI,Weight_Unconstrained,1,L_ESI,FM,M1,0.0034528818368321293
BMu97,P58,PAT,INI,Weight_Unconstrained,1,L_ESI,FM,M2,0.004382324401545739
BMu97,P58,PAT,INI,Weight_Unconstrained,1,L_ESI,FM,M3,0.004702843589834992
BMu97,P58,PAT,INI,Weight_Unconstrained,1,R_ESI,FM,M1,0.005345576739246509
BMu97,P58,PAT,INI,Weight_Unconstrained,1,R_ESI,FM,M2,0.0066892545106715506
BMu97,P58,PAT,INI,Weight_Unconstrained,1,R_ESI,FM,M3,0.006903365331018998
BMu97,P58,PAT,REL,Weight_Unconstrained,1,L_ESI,FM,M1,0.006138054858334184
BMu97,P58,PAT,REL,Weight_Unconstrained,1,L_ESI,FM,M2,0.007457140177336022
BMu97,P58,PAT,REL,Weight_Unconstrained,1,L_ESI,FM,M3,0.007878490906495545
BMu97,P58,PAT,REL,Weight_Unconstrained,1,R_ESI,FM,M1,0.006955413653064131
BMu97,P58,PAT,REL,Weight_Unconstrained,1,R_ESI,FM,M2,0.007814107057822477
BMu97,P58,PAT,REL,Weight_Unconstrained,1,R_ESI,FM,M3,0.008072298252922591
BMu97,P60,CTR,INI,Weight_Unconstrained,1,L_ESI,FM,M1,0.006810658566078929
BMu97,P60,CTR,INI,Weight_Unconstrained,1,R_ESI,FM,M1,0.00702086769015472
BMu97,P60,CTR,REL,Weight_Unconstrained,1,L_ESI,FM,M1,0.0072116177517336285
BMu97,P60,CTR,REL,Weight_Unconstrained,1,L_ESI,FM,M2,0.007875111281592673
BMu97,P60,CTR,REL,Weight_Unconstrained,1,L_ESI,FM,M3,0.008292465593932631
BMu97,P60,CTR,REL,Weight_Unconstrained,1,R_ESI,FM,M1,0.006836391804579341
BMu97,P60,CTR,REL,Weight_Unconstrained,1,R_ESI,FM,M2,0.007008082103325536
BMu97,P60,CTR,REL,Weight_Unconstrained,1,R_ESI,FM,M3,0.006516868949421564
BMu97,P61,PAT,INI,Weight_Unconstrained,1,L_ESI,FM,M1,0.010097073467941767
BMu97,P61,PAT,INI,Weight_Unconstrained,1,L_ESI,FM,M2,0.009617683720657789
BMu97,P61,PAT,INI,Weight_Unconstrained,1,L_ESI,FM,M3,0.010463172059501449
BMu97,P61,PAT,INI,Weight_Unconstrained,1,R_ESI,FM,M1,0.004324104110702862
BMu97,P61,PAT,INI,Weight_Unconstrained,1,R_ESI,FM,M2,0.004494349614547852
BMu97,P61,PAT,INI,Weight_Unconstrained,1,R_ESI,FM,M3,0.004553369987484297
BMu97,P61,PAT,REL,Weight_Unconstrained,1,L_ESI,FM,M1,0.009186581748240127
BMu97,P61,PAT,REL,Weight_Unconstrained,1,L_ESI,FM,M2,0.008259555212280015
BMu97,P61,PAT,REL,Weight_Unconstrained,1,L_ESI,FM,M3,0.009164482645989088
BMu97,P61,PAT,REL,Weight_Unconstrained,1,R_ESI,FM,M1,0.00431164139045102
BMu97,P61,PAT,REL,Weight_Unconstrained,1,R_ESI,FM,M2,0.004457964590636657
BMu97,P61,PAT,REL,Weight_Unconstrained,1,R_ESI,FM,M3,0.00447382830956385
BMu97,P62,PAT,INI,Weight_Unconstrained,1,L_ESI,FM,M1,0.025792126863860013
BMu97,P62,PAT,INI,Weight_Unconstrained,1,L_ESI,FM,M2,0.01973259266675867
BMu97,P62,PAT,INI,Weight_Unconstrained,1,L_ESI,FM,M3,0.017599061318887204
BMu97,P62,PAT,INI,Weight_Unconstrained,1,L_ESI,FM,M4,0.016478793659564003
BMu97,P62,PAT,INI,Weight_Unconstrained,1,R_ESI,FM,M1,0.012232959161542878
BMu97,P62,PAT,INI,Weight_Unconstrained,1,R_ESI,FM,M2,0.00952321153103473
BMu97,P62,PAT,INI,Weight_Unconstrained,1,R_ESI,FM,M3,0.010918423694035357
BMu97,P62,PAT,INI,Weight_Unconstrained,1,R_ESI,FM,M4,0.010898568839828994
BMu97,P62,PAT,REL,Weight_Unconstrained,1,L_ESI,FM,M1,0.005867919371209214
BMu97,P62,PAT,REL,Weight_Unconstrained,1,L_ESI,FM,M2,0.004934561613878242
BMu97,P62,PAT,REL,Weight_Unconstrained,1,L_ESI,FM,M3,0.005863699867117991
BMu97,P62,PAT,REL,Weight_Unconstrained,1,R_ESI,FM,M1,0.00795944201671131
BMu97,P62,PAT,REL,Weight_Unconstrained,1,R_ESI,FM,M2,0.005992104727205131
BMu97,P62,PAT,REL,Weight_Unconstrained,1,R_ESI,FM,M3,0.00775007590135957
BMu97,P63,PAT,INI,Weight_Unconstrained,1,L_ESI,FM,M1,0.013882199013742755
BMu97,P63,PAT,INI,Weight_Unconstrained,1,L_ESI,FM,M2,0.014935184066073224
BMu97,P63,PAT,INI,Weight_Unconstrained,1,L_ESI,FM,M3,0.013308746179431423
BMu97,P63,PAT,REL,Weight_Unconstrained,1,L_ESI,FM,M1,0.0048303332179583484
BMu97,P63,PAT,REL,Weight_Unconstrained,1,L_ESI,FM,M2,0.0048978325696412
BMu97,P63,PAT,REL,Weight_Unconstrained,1,L_ESI,FM,M3,0.005353697947131546
BMu97,P63,PAT,REL,Weight_Unconstrained,1,R_ESI,FM,M1,0.003039753270810724
BMu97,P63,PAT,REL,Weight_Unconstrained,1,R_ESI,FM,M2,0.003153392738604986
BMu97,P63,PAT,REL,Weight_Unconstrained,1,R_ESI,FM,M3,0.0032370044744344183
BMu97,P64,CTR,INI,Weight_Unconstrained,1,L_ESI,FM,M1,0.012325708500358464
BMu97,P64,CTR,INI,Weight_Unconstrained,1,L_ESI,FM,M2,0.015492273807877287
BMu97,P64,CTR,INI,Weight_Unconstrained,1,L_ESI,FM,M3,0.014205158078185239
BMu97,P64,CTR,INI,Weight_Unconstrained,1,R_ESI,FM,M1,0.013168904565059944
BMu97,P64,CTR,INI,Weight_Unconstrained,1,R_ESI,FM,M2,0.013709676391289366
BMu97,P64,CTR,INI,Weight_Unconstrained,1,R_ESI,FM,M3,0.013988249652423224
BMu97,P64,CTR,REL,Weight_Unconstrained,1,L_ESI,FM,M1,0.012051192784481569
BMu97,P64,CTR,REL,Weight_Unconstrained,1,L_ESI,FM,M2,0.011710149800810367
BMu97,P64,CTR,REL,Weight_Unconstrained,1,L_ESI,FM,M3,0.012094224908216366
BMu97,P64,CTR,REL,Weight_Unconstrained,1,R_ESI,FM,M1,0.008852569404666026
BMu97,P64,CTR,REL,Weight_Unconstrained,1,R_ESI,FM,M2,0.009324605415037155
BMu97,P64,CTR,REL,Weight_Unconstrained,1,R_ESI,FM,M3,0.009273582823182908
BMu97,P65,PAT,INI,Weight_Unconstrained,1,L_ESI,FM,M1,
BMu97,P65,PAT,INI,Weight_Unconstrained,1,L_ESI,FM,M2,0.013070562572033897
BMu97,P65,PAT,INI,Weight_Unconstrained,1,L_ESI,FM,M3,0.014480846577431478
BMu97,P65,PAT,INI,Weight_Unconstrained,1,L_ESI,FM,M4,0.014295073420802504
BMu97,P65,PAT,INI,Weight_Unconstrained,1,R_ESI,FM,M1,
BMu97,P65,PAT,INI,Weight_Unconstrained,1,R_ESI,FM,M2,0.00982730199596595
BMu97,P65,PAT,INI,Weight_Unconstrained,1,R_ESI,FM,M3,0.011944463701991516
BMu97,P65,PAT,INI,Weight_Unconstrained,1,R_ESI,FM,M4,0.01066344568895768
BMu97,P65,PAT,REL,Weight_Unconstrained,1,L_ESI,FM,M1,0.009510514205697112
BMu97,P65,PAT,REL,Weight_Unconstrained,1,L_ESI,FM,M2,0.010201220789644166
BMu97,P65,PAT,REL,Weight_Unconstrained,1,L_ESI,FM,M3,0.010889585491285571
BMu97,P65,PAT,REL,Weight_Unconstrained,1,R_ESI,FM,M1,0.009999251908585177
BMu97,P65,PAT,REL,Weight_Unconstrained,1,R_ESI,FM,M2,0.010994004845925606
BMu97,P65,PAT,REL,Weight_Unconstrained,1,R_ESI,FM,M3,0.010984745284247636
BMu97,P66,CTR,INI,Weight_Unconstrained,1,L_ESI,FM,M1,0.0068245950404181716
BMu97,P66,CTR,INI,Weight_Unconstrained,1,L_ESI,FM,M2,0.007088524149169807
BMu97,P66,CTR,INI,Weight_Unconstrained,1,L_ESI,FM,M3,0.007174758369471568
BMu97,P66,CTR,INI,Weight_Unconstrained,1,R_ESI,FM,M1,0.007178918683194013
BMu97,P66,CTR,INI,Weight_Unconstrained,1,R_ESI,FM,M2,0.00675009239136789
BMu97,P66,CTR,INI,Weight_Unconstrained,1,R_ESI,FM,M3,0.007640565711192298
BMu97,P66,CTR,REL,Weight_Unconstrained,1,L_ESI,FM,M1,0.006183715266277954
BMu97,P66,CTR,REL,Weight_Unconstrained,1,L_ESI,FM,M2,0.005379727536064377
BMu97,P66,CTR,REL,Weight_Unconstrained,1,L_ESI,FM,M3,0.005804383671485728
BMu97,P66,CTR,REL,Weight_Unconstrained,1,R_ESI,FM,M1,0.00685438890703205
BMu97,P66,CTR,REL,Weight_Unconstrained,1,R_ESI,FM,M2,0.006858116941172315
BMu97,P66,CTR,REL,Weight_Unconstrained,1,R_ESI,FM,M3,0.0071015843020439595
BMu97,P67,CTR,INI,Weight_Unconstrained,1,L_ESI,FM,M1,0.012361022731177191
BMu97,P67,CTR,INI,Weight_Unconstrained,1,L_ESI,FM,M2,0.012329325938360896
BMu97,P67,CTR,INI,Weight_Unconstrained,1,L_ESI,FM,M3,0.016300061497296132
BMu97,P67,CTR,INI,Weight_Unconstrained,1,R_ESI,FM,M1,0.008949209204516716
BMu97,P67,CTR,INI,Weight_Unconstrained,1,R_ESI,FM,M2,0.008588979110207442
BMu97,P67,CTR,INI,Weight_Unconstrained,1,R_ESI,FM,M3,0.008520577917482397
BMu97,P67,CTR,REL,Weight_Unconstrained,1,L_ESI,FM,M1,0.02426501672575172
BMu97,P67,CTR,REL,Weight_Unconstrained,1,L_ESI,FM,M2,0.01546420460393506
BMu97,P67,CTR,REL,Weight_Unconstrained,1,L_ESI,FM,M3,0.016752597661999272
BMu97,P67,CTR,REL,Weight_Unconstrained,1,R_ESI,FM,M1,0.010483681115981648
BMu97,P67,CTR,REL,Weight_Unconstrained,1,R_ESI,FM,M2,0.012957998677730287
BMu97,P67,CTR,REL,Weight_Unconstrained,1,R_ESI,FM,M3,0.012016506451217837
BMu97,P68,CTR,INI,Weight_Unconstrained,1,L_ESI,FM,M1,0.009467716276560744
BMu97,P68,CTR,INI,Weight_Unconstrained,1,L_ESI,FM,M2,0.01058262591098703
BMu97,P68,CTR,INI,Weight_Unconstrained,1,L_ESI,FM,M3,0.01110176437411851
BMu97,P68,CTR,INI,Weight_Unconstrained,1,R_ESI,FM,M1,0.008275990923124699
BMu97,P68,CTR,INI,Weight_Unconstrained,1,R_ESI,FM,M2,0.007944545849380577
BMu97,P68,CTR,INI,Weight_Unconstrained,1,R_ESI,FM,M3,0.009547202965222771
BMu97,P68,CTR,REL,Weight_Unconstrained,1,L_ESI,FM,M1,0.008872565209631603
BMu97,P68,CTR,REL,Weight_Unconstrained,1,L_ESI,FM,M2,0.008186293941909582
BMu97,P68,CTR,REL,Weight_Unconstrained,1,L_ESI,FM,M3,0.01191059702154005
