BMu,Participant,Group,Session,task,trials,channel,Operator,Measure,Value
BMu96,P01,CTR,REL,Weight_Unconstrained,1,L_LES,FM,M1,36.65707419391934
BMu96,P01,CTR,REL,Weight_Unconstrained,1,L_LES,FM,M2,32.13970508318159
BMu96,P01,CTR,REL,Weight_Unconstrained,1,L_LES,FM,M3,32.909221355468986
BMu96,P02,CTR,INI,Weight_Unconstrained,1,L_LES,FM,M1,44.30137578911354
BMu96,P02,CTR,INI,Weight_Unconstrained,1,L_LES,FM,M2,45.08332492910859
BMu96,P02,CTR,INI,Weight_Unconstrained,1,L_LES,FM,M3,45.443034318463376
BMu96,P02,CTR,INI,Weight_Unconstrained,1,R_LES,FM,M1,55.22203868184367
BMu96,P02,CTR,INI,Weight_Unconstrained,1,R_LES,FM,M2,56.28971200820598
BMu96,P02,CTR,INI,Weight_Unconstrained,1,R_LES,FM,M3,55.26084594082667
BMu96,P02,CTR,REL,Weight_Unconstrained,1,R_LES,FM,M1,47.06059098896188
BMu96,P02,CTR,REL,Weight_Unconstrained,1,R_LES,FM,M2,51.456626257870795
BMu96,P02,CTR,REL,Weight_Unconstrained,1,R_LES,FM,M3,48.170303888193544
BMu96,P03,CTR,INI,Weight_Unconstrained,1,L_LES,FM,M1,49.2352299184802
BMu96,P03,CTR,INI,Weight_Unconstrained,1,L_LES,FM,M2,51.10125578027579
BMu96,P03,CTR,INI,Weight_Unconstrained,1,L_LES,FM,M3,53.99958990796392
BMu96,P03,CTR,INI,Weight_Unconstrained,1,R_LES,FM,M1,61.05373270043713
BMu96,P03,CTR,INI,Weight_Unconstrained,1,R_LES,FM,M2,62.013190823713714
BMu96,P03,CTR,INI,Weight_Unconstrained,1,R_LES,FM,M3,66.68328691046239
BMu96,P03,CTR,REL,Weight_Unconstrained,1,R_LES,FM,M1,81.00620036053687
BMu96,P03,CTR,REL,Weight_Unconstrained,1,R_LES,FM,M2,83.64531214191388
BMu96,P03,CTR,REL,Weight_Unconstrained,1,R_LES,FM,M3,83.0426258796502
BMu96,P05,CTR,INI,Weight_Unconstrained,1,L_LES,FM,M1,30.475038978320867
BMu96,P05,CTR,INI,Weight_Unconstrained,1,L_LES,FM,M2,31.27627173549221
BMu96,P05,CTR,INI,Weight_Unconstrained,1,L_LES,FM,M3,33.20081363000248
BMu96,P05,CTR,INI,Weight_Unconstrained,1,R_LES,FM,M1,31.11510764555465
BMu96,P05,CTR,INI,Weight_Unconstrained,1,R_LES,FM,M2,32.90217635968699
BMu96,P05,CTR,INI,Weight_Unconstrained,1,R_LES,FM,M3,34.48670149292952
BMu96,P05,CTR,REL,Weight_Unconstrained,1,L_LES,FM,M1,46.00113501663847
BMu96,P05,CTR,REL,Weight_Unconstrained,1,L_LES,FM,M2,42.212328110187926
BMu96,P05,CTR,REL,Weight_Unconstrained,1,L_LES,FM,M3,44.57669233050348
BMu96,P05,CTR,REL,Weight_Unconstrained,1,L_LES,FM,M4,52.7882908538012
BMu96,P05,CTR,REL,Weight_Unconstrained,1,R_LES,FM,M1,38.44600991847118
BMu96,P05,CTR,REL,Weight_Unconstrained,1,R_LES,FM,M2,35.013474826864
BMu96,P05,CTR,REL,Weight_Unconstrained,1,R_LES,FM,M3,39.31845537050677
BMu96,P05,CTR,REL,Weight_Unconstrained,1,R_LES,FM,M4,40.83062935754156
BMu96,P06,CTR,INI,Weight_Unconstrained,1,R_LES,FM,M1,82.41887306693715
BMu96,P06,CTR,INI,Weight_Unconstrained,1,R_LES,FM,M2,90.44210548685851
BMu96,P06,CTR,INI,Weight_Unconstrained,1,R_LES,FM,M3,88.42472645464079
BMu96,P06,CTR,REL,Weight_Unconstrained,1,L_LES,FM,M1,62.59220415184403
BMu96,P06,CTR,REL,Weight_Unconstrained,1,L_LES,FM,M2,63.990271851372015
BMu96,P06,CTR,REL,Weight_Unconstrained,1,L_LES,FM,M3,65.58203742131056
BMu96,P06,CTR,REL,Weight_Unconstrained,1,R_LES,FM,M1,60.82124914788156
BMu96,P06,CTR,REL,Weight_Unconstrained,1,R_LES,FM,M2,62.8990444388908
BMu96,P06,CTR,REL,Weight_Unconstrained,1,R_LES,FM,M3,63.69799034072064
BMu96,P07,CTR,INI,Weight_Unconstrained,1,R_LES,FM,M1,88.50368645653144
BMu96,P07,CTR,INI,Weight_Unconstrained,1,R_LES,FM,M2,85.56703527571653
BMu96,P07,CTR,INI,Weight_Unconstrained,1,R_LES,FM,M3,91.21105650744029
BMu96,P07,CTR,REL,Weight_Unconstrained,1,L_LES,FM,M1,59.85418116485826
BMu96,P07,CTR,REL,Weight_Unconstrained,1,L_LES,FM,M2,64.66926436309176
BMu96,P07,CTR,REL,Weight_Unconstrained,1,L_LES,FM,M3,69.89094688329364
BMu96,P07,CTR,REL,Weight_Unconstrained,1,R_LES,FM,M1,71.97168515195797
BMu96,P07,CTR,REL,Weight_Unconstrained,1,R_LES,FM,M2,72.38506148939035
BMu96,P07,CTR,REL,Weight_Unconstrained,1,R_LES,FM,M3,80.66852454665491
BMu96,P08,CTR,INI,Weight_Unconstrained,1,L_LES,FM,M1,50.967127000256625
BMu96,P08,CTR,INI,Weight_Unconstrained,1,L_LES,FM,M2,28.823746554369155
BMu96,P08,CTR,INI,Weight_Unconstrained,1,L_LES,FM,M3,45.14666133206043
BMu96,P08,CTR,INI,Weight_Unconstrained,1,R_LES,FM,M1,52.55985826331235
BMu96,P08,CTR,INI,Weight_Unconstrained,1,R_LES,FM,M2,35.29779382135797
BMu96,P08,CTR,INI,Weight_Unconstrained,1,R_LES,FM,M3,51.46792304756444
BMu96,P08,CTR,REL,Weight_Unconstrained,1,L_LES,FM,M1,55.80466167681252
BMu96,P08,CTR,REL,Weight_Unconstrained,1,L_LES,FM,M2,59.16344283660923
BMu96,P08,CTR,REL,Weight_Unconstrained,1,L_LES,FM,M3,57.61609856289571
BMu96,P08,CTR,REL,Weight_Unconstrained,1,R_LES,FM,M1,47.992821977401846
BMu96,P08,CTR,REL,Weight_Unconstrained,1,R_LES,FM,M2,57.21339614169468
BMu96,P08,CTR,REL,Weight_Unconstrained,1,R_LES,FM,M3,59.285813765239574
BMu96,P09,PAT,INI,Weight_Unconstrained,1,L_LES,FM,M1,63.22437291914296
BMu96,P09,PAT,INI,Weight_Unconstrained,1,L_LES,FM,M2,70.33801219993151
BMu96,P09,PAT,INI,Weight_Unconstrained,1,L_LES,FM,M3,77.25761095924241
BMu96,P09,PAT,INI,Weight_Unconstrained,1,R_LES,FM,M1,47.38632947796674
BMu96,P09,PAT,INI,Weight_Unconstrained,1,R_LES,FM,M2,53.99850975744952
BMu96,P09,PAT,INI,Weight_Unconstrained,1,R_LES,FM,M3,58.087445754000655
BMu96,P09,PAT,REL,Weight_Unconstrained,1,L_LES,FM,M1,
BMu96,P09,PAT,REL,Weight_Unconstrained,1,L_LES,FM,M2,
BMu96,P09,PAT,REL,Weight_Unconstrained,1,L_LES,FM,M3,
BMu96,P09,PAT,REL,Weight_Unconstrained,1,L_LES,FM,M4,
BMu96,P09,PAT,REL,Weight_Unconstrained,1,L_LES,FM,M5,
BMu96,P09,PAT,REL,Weight_Unconstrained,1,R_LES,FM,M1,
BMu96,P09,PAT,REL,Weight_Unconstrained,1,R_LES,FM,M2,
BMu96,P09,PAT,REL,Weight_Unconstrained,1,R_LES,FM,M3,
BMu96,P09,PAT,REL,Weight_Unconstrained,1,R_LES,FM,M4,
BMu96,P09,PAT,REL,Weight_Unconstrained,1,R_LES,FM,M5,
BMu96,P10,PAT,INI,Weight_Unconstrained,1,L_LES,FM,M1,51.89466001312172
BMu96,P10,PAT,INI,Weight_Unconstrained,1,L_LES,FM,M2,54.04156763227468
BMu96,P10,PAT,INI,Weight_Unconstrained,1,L_LES,FM,M3,60.50916479490036
BMu96,P10,PAT,INI,Weight_Unconstrained,1,R_LES,FM,M1,57.55570942536171
BMu96,P10,PAT,INI,Weight_Unconstrained,1,R_LES,FM,M2,65.12965900728506
BMu96,P10,PAT,INI,Weight_Unconstrained,1,R_LES,FM,M3,62.169632281178856
BMu96,P10,PAT,REL,Weight_Unconstrained,1,L_LES,FM,M1,45.424309576601715
BMu96,P10,PAT,REL,Weight_Unconstrained,1,L_LES,FM,M2,46.18058621371222
BMu96,P10,PAT,REL,Weight_Unconstrained,1,L_LES,FM,M3,43.811481762015326
BMu96,P10,PAT,REL,Weight_Unconstrained,1,R_LES,FM,M1,53.88040412933107
BMu96,P10,PAT,REL,Weight_Unconstrained,1,R_LES,FM,M2,51.38612230530933
BMu96,P10,PAT,REL,Weight_Unconstrained,1,R_LES,FM,M3,50.27431446650097
BMu96,P11,PAT,INI,Weight_Unconstrained,1,L_LES,FM,M1,47.590569790439154
BMu96,P11,PAT,INI,Weight_Unconstrained,1,L_LES,FM,M2,48.54006221030349
BMu96,P11,PAT,INI,Weight_Unconstrained,1,L_LES,FM,M3,49.74679783430125
BMu96,P11,PAT,INI,Weight_Unconstrained,1,R_LES,FM,M1,45.50534957833402
BMu96,P11,PAT,INI,Weight_Unconstrained,1,R_LES,FM,M2,49.772240804656604
BMu96,P11,PAT,INI,Weight_Unconstrained,1,R_LES,FM,M3,46.898828230336804
BMu96,P11,PAT,REL,Weight_Unconstrained,1,L_LES,FM,M1,56.08206161779077
BMu96,P11,PAT,REL,Weight_Unconstrained,1,L_LES,FM,M2,51.594756814775096
BMu96,P11,PAT,REL,Weight_Unconstrained,1,L_LES,FM,M3,50.90397698315815
BMu96,P11,PAT,REL,Weight_Unconstrained,1,R_LES,FM,M1,56.49956499145826
BMu96,P11,PAT,REL,Weight_Unconstrained,1,R_LES,FM,M2,51.05695910723872
BMu96,P11,PAT,REL,Weight_Unconstrained,1,R_LES,FM,M3,50.10777649537037
BMu96,P12,PAT,INI,Weight_Unconstrained,1,L_LES,FM,M1,81.40039766570322
BMu96,P12,PAT,INI,Weight_Unconstrained,1,L_LES,FM,M2,76.61988002065794
BMu96,P12,PAT,INI,Weight_Unconstrained,1,L_LES,FM,M3,81.3022219000126
BMu96,P12,PAT,INI,Weight_Unconstrained,1,R_LES,FM,M1,85.93442363587044
BMu96,P12,PAT,INI,Weight_Unconstrained,1,R_LES,FM,M2,79.02857288374796
BMu96,P12,PAT,INI,Weight_Unconstrained,1,R_LES,FM,M3,81.76947333265252
BMu96,P12,PAT,REL,Weight_Unconstrained,1,L_LES,FM,M1,77.4899676340517
BMu96,P12,PAT,REL,Weight_Unconstrained,1,L_LES,FM,M2,76.53330857150473
BMu96,P12,PAT,REL,Weight_Unconstrained,1,L_LES,FM,M3,70.71492370903587
BMu96,P12,PAT,REL,Weight_Unconstrained,1,R_LES,FM,M1,76.87711388455777
BMu96,P12,PAT,REL,Weight_Unconstrained,1,R_LES,FM,M2,78.50904429793525
BMu96,P12,PAT,REL,Weight_Unconstrained,1,R_LES,FM,M3,69.61310799011775
BMu96,P13,CTR,INI,Weight_Unconstrained,1,L_LES,FM,M1,70.40080949495359
BMu96,P13,CTR,INI,Weight_Unconstrained,1,L_LES,FM,M2,66.5473744435374
BMu96,P13,CTR,INI,Weight_Unconstrained,1,L_LES,FM,M3,72.72224490286737
BMu96,P13,CTR,INI,Weight_Unconstrained,1,R_LES,FM,M1,62.295868210386985
BMu96,P13,CTR,INI,Weight_Unconstrained,1,R_LES,FM,M2,57.910299079341115
BMu96,P13,CTR,INI,Weight_Unconstrained,1,R_LES,FM,M3,63.727672268819965
BMu96,P13,CTR,REL,Weight_Unconstrained,1,L_LES,FM,M1,62.63749333030435
BMu96,P13,CTR,REL,Weight_Unconstrained,1,L_LES,FM,M2,63.99689196979983
BMu96,P13,CTR,REL,Weight_Unconstrained,1,L_LES,FM,M3,64.07622292075474
BMu96,P13,CTR,REL,Weight_Unconstrained,1,R_LES,FM,M1,66.44583406197967
BMu96,P13,CTR,REL,Weight_Unconstrained,1,R_LES,FM,M2,64.40235638002625
BMu96,P13,CTR,REL,Weight_Unconstrained,1,R_LES,FM,M3,68.57529126004573
BMu96,P14,PAT,INI,Weight_Unconstrained,1,L_LES,FM,M1,51.431154389349516
BMu96,P14,PAT,INI,Weight_Unconstrained,1,L_LES,FM,M2,54.46139554816348
BMu96,P14,PAT,INI,Weight_Unconstrained,1,L_LES,FM,M3,53.845928087337725
BMu96,P14,PAT,INI,Weight_Unconstrained,1,R_LES,FM,M1,43.913739170678014
BMu96,P14,PAT,INI,Weight_Unconstrained,1,R_LES,FM,M2,48.457838541743996
BMu96,P14,PAT,INI,Weight_Unconstrained,1,R_LES,FM,M3,47.73372451236081
BMu96,P14,PAT,REL,Weight_Unconstrained,1,R_LES,FM,M1,54.511653592284006
BMu96,P14,PAT,REL,Weight_Unconstrained,1,R_LES,FM,M2,51.40684180821954
BMu96,P14,PAT,REL,Weight_Unconstrained,1,R_LES,FM,M3,51.85767229001809
BMu96,P16,CTR,INI,Weight_Unconstrained,1,L_LES,FM,M1,58.300232671797204
BMu96,P16,CTR,INI,Weight_Unconstrained,1,L_LES,FM,M2,56.27696957965828
BMu96,P16,CTR,INI,Weight_Unconstrained,1,L_LES,FM,M3,61.05276587046731
BMu96,P16,CTR,INI,Weight_Unconstrained,1,R_LES,FM,M1,67.31572165695903
BMu96,P16,CTR,INI,Weight_Unconstrained,1,R_LES,FM,M2,62.146571007040095
BMu96,P16,CTR,INI,Weight_Unconstrained,1,R_LES,FM,M3,65.60046627486601
BMu96,P16,CTR,REL,Weight_Unconstrained,1,L_LES,FM,M1,61.50217923819334
BMu96,P16,CTR,REL,Weight_Unconstrained,1,L_LES,FM,M2,60.75725590837145
BMu96,P16,CTR,REL,Weight_Unconstrained,1,L_LES,FM,M3,60.52335983575398
BMu96,P16,CTR,REL,Weight_Unconstrained,1,R_LES,FM,M1,70.26912137059462
BMu96,P16,CTR,REL,Weight_Unconstrained,1,R_LES,FM,M2,66.42114657087755
BMu96,P16,CTR,REL,Weight_Unconstrained,1,R_LES,FM,M3,64.98961669372554
BMu96,P17,PAT,INI,Weight_Unconstrained,1,L_LES,FM,M1,63.31122724342184
BMu96,P17,PAT,INI,Weight_Unconstrained,1,L_LES,FM,M2,69.61122431064399
BMu96,P17,PAT,INI,Weight_Unconstrained,1,L_LES,FM,M3,70.5566933591716
BMu96,P17,PAT,INI,Weight_Unconstrained,1,R_LES,FM,M1,15.991352536605476
BMu96,P17,PAT,INI,Weight_Unconstrained,1,R_LES,FM,M2,17.46648638987883
BMu96,P17,PAT,INI,Weight_Unconstrained,1,R_LES,FM,M3,18.642157306387453
BMu96,P17,PAT,REL,Weight_Unconstrained,1,L_LES,FM,M1,57.78200348225589
BMu96,P17,PAT,REL,Weight_Unconstrained,1,L_LES,FM,M2,61.9726894559558
BMu96,P17,PAT,REL,Weight_Unconstrained,1,L_LES,FM,M3,66.17257945863466
BMu96,P17,PAT,REL,Weight_Unconstrained,1,R_LES,FM,M1,63.575437282842024
BMu96,P17,PAT,REL,Weight_Unconstrained,1,R_LES,FM,M2,65.51667560000791
BMu96,P17,PAT,REL,Weight_Unconstrained,1,R_LES,FM,M3,69.07332483418564
BMu96,P21,CTR,INI,Weight_Unconstrained,1,L_LES,FM,M1,63.771041689495135
BMu96,P21,CTR,INI,Weight_Unconstrained,1,L_LES,FM,M2,71.47458814941919
BMu96,P21,CTR,INI,Weight_Unconstrained,1,L_LES,FM,M3,76.80694495866186
BMu96,P21,CTR,INI,Weight_Unconstrained,1,R_LES,FM,M1,58.559103192359984
BMu96,P21,CTR,INI,Weight_Unconstrained,1,R_LES,FM,M2,58.77271781200932
BMu96,P21,CTR,INI,Weight_Unconstrained,1,R_LES,FM,M3,63.940166929820485
BMu96,P21,CTR,REL,Weight_Unconstrained,1,R_LES,FM,M1,107.02113633105373
BMu96,P21,CTR,REL,Weight_Unconstrained,1,R_LES,FM,M2,105.51881136664298
BMu96,P21,CTR,REL,Weight_Unconstrained,1,R_LES,FM,M3,119.0873788409337
BMu96,P21,CTR,REL,Weight_Unconstrained,1,R_LES,FM,M4,122.7935305173734
BMu96,P22,CTR,INI,Weight_Unconstrained,1,L_LES,FM,M1,76.28311415723165
BMu96,P22,CTR,INI,Weight_Unconstrained,1,L_LES,FM,M2,73.86976190364156
BMu96,P22,CTR,INI,Weight_Unconstrained,1,L_LES,FM,M3,68.8971508597837
BMu96,P22,CTR,INI,Weight_Unconstrained,1,R_LES,FM,M1,66.02231807618293
BMu96,P22,CTR,INI,Weight_Unconstrained,1,R_LES,FM,M2,64.53370366158282
BMu96,P22,CTR,INI,Weight_Unconstrained,1,R_LES,FM,M3,61.53826968514811
BMu96,P22,CTR,REL,Weight_Unconstrained,1,L_LES,FM,M1,
BMu96,P22,CTR,REL,Weight_Unconstrained,1,L_LES,FM,M2,77.55474743345296
BMu96,P22,CTR,REL,Weight_Unconstrained,1,R_LES,FM,M1,
BMu96,P22,CTR,REL,Weight_Unconstrained,1,R_LES,FM,M2,
BMu96,P23,CTR,REL,Weight_Unconstrained,1,L_LES,FM,M1,32.899540188608
BMu96,P23,CTR,REL,Weight_Unconstrained,1,L_LES,FM,M2,35.78181751026287
BMu96,P23,CTR,REL,Weight_Unconstrained,1,L_LES,FM,M3,34.322804730432935
BMu96,P24,PAT,INI,Weight_Unconstrained,1,L_LES,FM,M1,57.76492526636937
BMu96,P24,PAT,INI,Weight_Unconstrained,1,L_LES,FM,M2,57.26893110828735
BMu96,P24,PAT,INI,Weight_Unconstrained,1,L_LES,FM,M3,53.87097538979545
BMu96,P24,PAT,INI,Weight_Unconstrained,1,R_LES,FM,M1,63.419100825619324
BMu96,P24,PAT,INI,Weight_Unconstrained,1,R_LES,FM,M2,62.70642179344273
BMu96,P24,PAT,INI,Weight_Unconstrained,1,R_LES,FM,M3,60.13696740948069
BMu96,P24,PAT,REL,Weight_Unconstrained,1,R_LES,FM,M1,79.75896172161896
BMu96,P24,PAT,REL,Weight_Unconstrained,1,R_LES,FM,M2,78.76923050464568
BMu96,P24,PAT,REL,Weight_Unconstrained,1,R_LES,FM,M3,91.08891028953883
BMu96,P25,CTR,INI,Weight_Unconstrained,1,L_LES,FM,M1,45.61636871913474
BMu96,P25,CTR,INI,Weight_Unconstrained,1,L_LES,FM,M2,45.44923225691471
BMu96,P25,CTR,INI,Weight_Unconstrained,1,L_LES,FM,M3,47.41367381072976
BMu96,P25,CTR,INI,Weight_Unconstrained,1,R_LES,FM,M1,43.71927694013306
BMu96,P25,CTR,INI,Weight_Unconstrained,1,R_LES,FM,M2,46.64294521359123
BMu96,P25,CTR,INI,Weight_Unconstrained,1,R_LES,FM,M3,48.50006643237562
BMu96,P25,CTR,REL,Weight_Unconstrained,1,L_LES,FM,M1,44.54264659506495
BMu96,P25,CTR,REL,Weight_Unconstrained,1,L_LES,FM,M2,41.51422618493784
BMu96,P25,CTR,REL,Weight_Unconstrained,1,L_LES,FM,M3,43.82399712985071
BMu96,P25,CTR,REL,Weight_Unconstrained,1,R_LES,FM,M1,38.86710337854267
BMu96,P25,CTR,REL,Weight_Unconstrained,1,R_LES,FM,M2,40.590471916169406
BMu96,P25,CTR,REL,Weight_Unconstrained,1,R_LES,FM,M3,41.40236053762544
BMu96,P26,PAT,INI,Weight_Unconstrained,1,R_LES,FM,M1,50.751831061112334
BMu96,P26,PAT,INI,Weight_Unconstrained,1,R_LES,FM,M2,52.348230310349884
BMu96,P26,PAT,INI,Weight_Unconstrained,1,R_LES,FM,M3,50.674863642876915
BMu96,P26,PAT,REL,Weight_Unconstrained,1,R_LES,FM,M1,59.08653566431572
BMu96,P26,PAT,REL,Weight_Unconstrained,1,R_LES,FM,M2,71.23731510494282
BMu96,P26,PAT,REL,Weight_Unconstrained,1,R_LES,FM,M3,70.66952858682609
BMu96,P27,PAT,INI,Weight_Unconstrained,1,L_LES,FM,M1,46.012808220911836
BMu96,P27,PAT,INI,Weight_Unconstrained,1,L_LES,FM,M2,44.1960034793391
BMu96,P27,PAT,INI,Weight_Unconstrained,1,L_LES,FM,M3,47.34690445586403
BMu96,P27,PAT,INI,Weight_Unconstrained,1,R_LES,FM,M1,63.89168784922286
BMu96,P27,PAT,INI,Weight_Unconstrained,1,R_LES,FM,M2,63.4112024523625
BMu96,P27,PAT,INI,Weight_Unconstrained,1,R_LES,FM,M3,59.144471854477075
BMu96,P27,PAT,REL,Weight_Unconstrained,1,L_LES,FM,M1,48.74262270272196
BMu96,P27,PAT,REL,Weight_Unconstrained,1,L_LES,FM,M2,48.77235001092704
BMu96,P27,PAT,REL,Weight_Unconstrained,1,L_LES,FM,M3,48.23698023132388
BMu96,P27,PAT,REL,Weight_Unconstrained,1,R_LES,FM,M1,58.70865044291331
BMu96,P27,PAT,REL,Weight_Unconstrained,1,R_LES,FM,M2,54.83259155177184
BMu96,P27,PAT,REL,Weight_Unconstrained,1,R_LES,FM,M3,52.867592740150904
BMu96,P28,PAT,INI,Weight_Unconstrained,1,L_LES,FM,M1,46.20851786666502
BMu96,P28,PAT,INI,Weight_Unconstrained,1,L_LES,FM,M2,56.22592779500501
BMu96,P28,PAT,INI,Weight_Unconstrained,1,L_LES,FM,M3,53.36072830815793
BMu96,P28,PAT,INI,Weight_Unconstrained,1,R_LES,FM,M1,51.365539114232796
BMu96,P28,PAT,INI,Weight_Unconstrained,1,R_LES,FM,M2,56.98080831825877
BMu96,P28,PAT,INI,Weight_Unconstrained,1,R_LES,FM,M3,52.78283028012734
BMu96,P28,PAT,REL,Weight_Unconstrained,1,L_LES,FM,M1,47.17357165703126
BMu96,P28,PAT,REL,Weight_Unconstrained,1,L_LES,FM,M2,51.19116688766211
BMu96,P28,PAT,REL,Weight_Unconstrained,1,L_LES,FM,M3,50.31954389107237
BMu96,P28,PAT,REL,Weight_Unconstrained,1,R_LES,FM,M1,50.28629944837466
BMu96,P28,PAT,REL,Weight_Unconstrained,1,R_LES,FM,M2,53.814727709641645
BMu96,P28,PAT,REL,Weight_Unconstrained,1,R_LES,FM,M3,53.491119387389816
BMu96,P29,PAT,INI,Weight_Unconstrained,1,L_LES,FM,M1,32.9582255855512
BMu96,P29,PAT,INI,Weight_Unconstrained,1,L_LES,FM,M2,
BMu96,P29,PAT,INI,Weight_Unconstrained,1,L_LES,FM,M3,
BMu96,P29,PAT,INI,Weight_Unconstrained,1,R_LES,FM,M1,47.97055233460857
BMu96,P29,PAT,INI,Weight_Unconstrained,1,R_LES,FM,M2,
BMu96,P29,PAT,INI,Weight_Unconstrained,1,R_LES,FM,M3,
BMu96,P29,PAT,REL,Weight_Unconstrained,1,L_LES,FM,M1,
BMu96,P29,PAT,REL,Weight_Unconstrained,1,L_LES,FM,M2,39.00399681275818
BMu96,P29,PAT,REL,Weight_Unconstrained,1,L_LES,FM,M3,36.52860398536559
BMu96,P29,PAT,REL,Weight_Unconstrained,1,R_LES,FM,M1,
BMu96,P29,PAT,REL,Weight_Unconstrained,1,R_LES,FM,M2,49.1972464506822
BMu96,P29,PAT,REL,Weight_Unconstrained,1,R_LES,FM,M3,47.21712938538025
BMu96,P30,PAT,INI,Weight_Unconstrained,1,R_LES,FM,M1,56.16715793319729
BMu96,P30,PAT,INI,Weight_Unconstrained,1,R_LES,FM,M2,55.02191962511456
BMu96,P30,PAT,INI,Weight_Unconstrained,1,R_LES,FM,M3,60.57242440510798
BMu96,P30,PAT,REL,Weight_Unconstrained,1,R_LES,FM,M1,50.82206757796531
BMu96,P30,PAT,REL,Weight_Unconstrained,1,R_LES,FM,M2,56.91109128947454
BMu96,P30,PAT,REL,Weight_Unconstrained,1,R_LES,FM,M3,62.642794274242384
BMu96,P32,PAT,INI,Weight_Unconstrained,1,L_LES,FM,M1,39.258604533468485
BMu96,P32,PAT,INI,Weight_Unconstrained,1,L_LES,FM,M2,39.8085033034712
BMu96,P32,PAT,INI,Weight_Unconstrained,1,L_LES,FM,M3,41.28777895802449
BMu96,P32,PAT,INI,Weight_Unconstrained,1,R_LES,FM,M1,50.65567216690353
BMu96,P32,PAT,INI,Weight_Unconstrained,1,R_LES,FM,M2,51.64627241540634
BMu96,P32,PAT,INI,Weight_Unconstrained,1,R_LES,FM,M3,52.07074599148766
BMu96,P32,PAT,REL,Weight_Unconstrained,1,L_LES,FM,M1,137.12472606490354
BMu96,P32,PAT,REL,Weight_Unconstrained,1,L_LES,FM,M2,141.15786461345851
BMu96,P32,PAT,REL,Weight_Unconstrained,1,L_LES,FM,M3,135.38417682422286
BMu96,P32,PAT,REL,Weight_Unconstrained,1,R_LES,FM,M1,134.8683353306348
BMu96,P32,PAT,REL,Weight_Unconstrained,1,R_LES,FM,M2,135.8098233379584
BMu96,P32,PAT,REL,Weight_Unconstrained,1,R_LES,FM,M3,132.81399068928016
BMu96,P33,PAT,INI,Weight_Unconstrained,1,L_LES,FM,M1,61.51485918173864
BMu96,P33,PAT,INI,Weight_Unconstrained,1,L_LES,FM,M2,61.33806253854988
BMu96,P33,PAT,INI,Weight_Unconstrained,1,L_LES,FM,M3,61.07289450145824
BMu96,P33,PAT,INI,Weight_Unconstrained,1,R_LES,FM,M1,42.75237288714564
BMu96,P33,PAT,INI,Weight_Unconstrained,1,R_LES,FM,M2,45.82818552700241
BMu96,P33,PAT,INI,Weight_Unconstrained,1,R_LES,FM,M3,48.39352419991266
BMu96,P33,PAT,REL,Weight_Unconstrained,1,L_LES,FM,M1,58.84202289702138
BMu96,P33,PAT,REL,Weight_Unconstrained,1,R_LES,FM,M1,72.66399608478423
BMu96,P34,PAT,INI,Weight_Unconstrained,1,L_LES,FM,M1,40.07059617980745
BMu96,P34,PAT,INI,Weight_Unconstrained,1,L_LES,FM,M2,38.74301656885968
BMu96,P34,PAT,INI,Weight_Unconstrained,1,L_LES,FM,M3,41.12169514815922
BMu96,P34,PAT,INI,Weight_Unconstrained,1,R_LES,FM,M1,58.59178425213693
BMu96,P34,PAT,INI,Weight_Unconstrained,1,R_LES,FM,M2,64.11582400242395
BMu96,P34,PAT,INI,Weight_Unconstrained,1,R_LES,FM,M3,64.64965789165277
BMu96,P34,PAT,REL,Weight_Unconstrained,1,L_LES,FM,M1,67.0582763223567
BMu96,P34,PAT,REL,Weight_Unconstrained,1,L_LES,FM,M2,72.8116179564779
BMu96,P34,PAT,REL,Weight_Unconstrained,1,L_LES,FM,M3,68.0154935041575
BMu96,P34,PAT,REL,Weight_Unconstrained,1,R_LES,FM,M1,84.76360395192019
BMu96,P34,PAT,REL,Weight_Unconstrained,1,R_LES,FM,M2,90.78719627399344
BMu96,P34,PAT,REL,Weight_Unconstrained,1,R_LES,FM,M3,79.94102172177756
BMu96,P35,CTR,INI,Weight_Unconstrained,1,R_LES,FM,M1,64.69890855319457
BMu96,P35,CTR,INI,Weight_Unconstrained,1,R_LES,FM,M2,60.41296270720136
BMu96,P35,CTR,INI,Weight_Unconstrained,1,R_LES,FM,M3,62.645600499129614
BMu96,P35,CTR,REL,Weight_Unconstrained,1,L_LES,FM,M1,41.73748049072897
BMu96,P35,CTR,REL,Weight_Unconstrained,1,L_LES,FM,M2,34.881582421540784
BMu96,P35,CTR,REL,Weight_Unconstrained,1,L_LES,FM,M3,35.65538986563011
BMu96,P35,CTR,REL,Weight_Unconstrained,1,R_LES,FM,M1,42.13277484608565
BMu96,P35,CTR,REL,Weight_Unconstrained,1,R_LES,FM,M2,39.19614733668385
BMu96,P35,CTR,REL,Weight_Unconstrained,1,R_LES,FM,M3,42.44443578563957
BMu96,P36,PAT,INI,Weight_Unconstrained,1,L_LES,FM,M1,58.620062297535185
BMu96,P36,PAT,INI,Weight_Unconstrained,1,L_LES,FM,M2,60.21746086665817
BMu96,P36,PAT,INI,Weight_Unconstrained,1,L_LES,FM,M3,62.307902000678155
BMu96,P36,PAT,INI,Weight_Unconstrained,1,R_LES,FM,M1,63.10537502238509
BMu96,P36,PAT,INI,Weight_Unconstrained,1,R_LES,FM,M2,64.2449947891455
BMu96,P36,PAT,INI,Weight_Unconstrained,1,R_LES,FM,M3,66.92677845918938
BMu96,P36,PAT,REL,Weight_Unconstrained,1,L_LES,FM,M1,43.867479993289265
BMu96,P36,PAT,REL,Weight_Unconstrained,1,L_LES,FM,M2,45.5352848332613
BMu96,P36,PAT,REL,Weight_Unconstrained,1,L_LES,FM,M3,45.47485574672965
BMu96,P36,PAT,REL,Weight_Unconstrained,1,R_LES,FM,M1,58.35167340044454
BMu96,P36,PAT,REL,Weight_Unconstrained,1,R_LES,FM,M2,57.995789533124224
BMu96,P36,PAT,REL,Weight_Unconstrained,1,R_LES,FM,M3,57.2713145149431
BMu96,P38,CTR,REL,Weight_Unconstrained,1,L_LES,FM,M1,55.63018296584438
BMu96,P38,CTR,REL,Weight_Unconstrained,1,L_LES,FM,M2,54.61527306945666
BMu96,P38,CTR,REL,Weight_Unconstrained,1,L_LES,FM,M3,56.779181819078744
BMu96,P38,CTR,REL,Weight_Unconstrained,1,L_LES,FM,M4,58.72645567753779
BMu96,P38,CTR,REL,Weight_Unconstrained,1,L_LES,FM,M5,55.12046974162813
BMu96,P38,CTR,REL,Weight_Unconstrained,1,R_LES,FM,M1,51.857269409735366
BMu96,P38,CTR,REL,Weight_Unconstrained,1,R_LES,FM,M2,52.72902008871111
BMu96,P38,CTR,REL,Weight_Unconstrained,1,R_LES,FM,M3,58.974004498307295
BMu96,P38,CTR,REL,Weight_Unconstrained,1,R_LES,FM,M4,56.76177923575076
BMu96,P38,CTR,REL,Weight_Unconstrained,1,R_LES,FM,M5,58.18750129348775
BMu96,P39,CTR,INI,Weight_Unconstrained,1,L_LES,FM,M1,48.21288147228263
BMu96,P39,CTR,INI,Weight_Unconstrained,1,L_LES,FM,M2,42.89314743785533
BMu96,P39,CTR,INI,Weight_Unconstrained,1,L_LES,FM,M3,49.65377738077942
BMu96,P39,CTR,INI,Weight_Unconstrained,1,R_LES,FM,M1,32.72629392965986
BMu96,P39,CTR,INI,Weight_Unconstrained,1,R_LES,FM,M2,33.33276044637674
BMu96,P39,CTR,INI,Weight_Unconstrained,1,R_LES,FM,M3,36.57291766787585
BMu96,P39,CTR,REL,Weight_Unconstrained,1,L_LES,FM,M1,42.728973431456616
BMu96,P39,CTR,REL,Weight_Unconstrained,1,L_LES,FM,M2,42.15002518773656
BMu96,P39,CTR,REL,Weight_Unconstrained,1,L_LES,FM,M3,45.51258406664271
BMu96,P39,CTR,REL,Weight_Unconstrained,1,R_LES,FM,M1,61.021405417129984
BMu96,P39,CTR,REL,Weight_Unconstrained,1,R_LES,FM,M2,54.16772651052041
BMu96,P39,CTR,REL,Weight_Unconstrained,1,R_LES,FM,M3,64.83163382060611
BMu96,P40,CTR,INI,Weight_Unconstrained,1,L_LES,FM,M1,38.26186255292857
BMu96,P40,CTR,INI,Weight_Unconstrained,1,L_LES,FM,M2,36.22392652059811
BMu96,P40,CTR,INI,Weight_Unconstrained,1,L_LES,FM,M3,43.36136962728422
BMu96,P40,CTR,INI,Weight_Unconstrained,1,R_LES,FM,M1,43.54114220542493
BMu96,P40,CTR,INI,Weight_Unconstrained,1,R_LES,FM,M2,41.203816894121495
BMu96,P40,CTR,INI,Weight_Unconstrained,1,R_LES,FM,M3,45.20472224116074
BMu96,P40,CTR,REL,Weight_Unconstrained,1,L_LES,FM,M1,39.401049606337324
BMu96,P40,CTR,REL,Weight_Unconstrained,1,L_LES,FM,M2,39.81730630062472
BMu96,P40,CTR,REL,Weight_Unconstrained,1,L_LES,FM,M3,40.080601340411754
BMu96,P40,CTR,REL,Weight_Unconstrained,1,R_LES,FM,M1,50.786908898661984
BMu96,P40,CTR,REL,Weight_Unconstrained,1,R_LES,FM,M2,52.34451857528454
BMu96,P40,CTR,REL,Weight_Unconstrained,1,R_LES,FM,M3,51.71941136678343
BMu96,P41,PAT,INI,Weight_Unconstrained,1,L_LES,FM,M1,49.88142580909034
BMu96,P41,PAT,INI,Weight_Unconstrained,1,L_LES,FM,M2,48.401018237490504
BMu96,P41,PAT,INI,Weight_Unconstrained,1,L_LES,FM,M3,53.270322631791416
BMu96,P41,PAT,INI,Weight_Unconstrained,1,L_LES,FM,M4,52.16325505922268
BMu96,P41,PAT,INI,Weight_Unconstrained,1,R_LES,FM,M1,72.95625838353607
BMu96,P41,PAT,INI,Weight_Unconstrained,1,R_LES,FM,M2,76.68021322403185
BMu96,P41,PAT,INI,Weight_Unconstrained,1,R_LES,FM,M3,81.42427466800292
BMu96,P41,PAT,INI,Weight_Unconstrained,1,R_LES,FM,M4,86.82456640866522
BMu96,P41,PAT,REL,Weight_Unconstrained,1,L_LES,FM,M1,41.49962760487509
BMu96,P41,PAT,REL,Weight_Unconstrained,1,L_LES,FM,M2,40.35119823640425
BMu96,P41,PAT,REL,Weight_Unconstrained,1,L_LES,FM,M3,38.780135095356684
BMu96,P41,PAT,REL,Weight_Unconstrained,1,R_LES,FM,M1,67.74081922610381
BMu96,P41,PAT,REL,Weight_Unconstrained,1,R_LES,FM,M2,66.39720086555492
BMu96,P41,PAT,REL,Weight_Unconstrained,1,R_LES,FM,M3,66.64146849875307
BMu96,P42,PAT,INI,Weight_Unconstrained,1,L_LES,FM,M1,39.51166721294195
BMu96,P42,PAT,INI,Weight_Unconstrained,1,L_LES,FM,M2,42.15923082919331
BMu96,P42,PAT,INI,Weight_Unconstrained,1,L_LES,FM,M3,44.02163484541478
BMu96,P42,PAT,INI,Weight_Unconstrained,1,R_LES,FM,M1,42.6952561046802
BMu96,P42,PAT,INI,Weight_Unconstrained,1,R_LES,FM,M2,44.25301074904692
BMu96,P42,PAT,INI,Weight_Unconstrained,1,R_LES,FM,M3,47.91805988444831
BMu96,P42,PAT,REL,Weight_Unconstrained,1,L_LES,FM,M1,53.29557551160581
BMu96,P42,PAT,REL,Weight_Unconstrained,1,L_LES,FM,M2,54.880959527797586
BMu96,P42,PAT,REL,Weight_Unconstrained,1,L_LES,FM,M3,57.92152019482636
BMu96,P42,PAT,REL,Weight_Unconstrained,1,R_LES,FM,M1,65.35463480813624
BMu96,P42,PAT,REL,Weight_Unconstrained,1,R_LES,FM,M2,56.33400971223192
BMu96,P42,PAT,REL,Weight_Unconstrained,1,R_LES,FM,M3,62.944540902670646
BMu96,P43,PAT,INI,Weight_Unconstrained,1,L_LES,FM,M1,52.93055713640284
BMu96,P43,PAT,INI,Weight_Unconstrained,1,L_LES,FM,M2,68.65119756006668
BMu96,P43,PAT,INI,Weight_Unconstrained,1,L_LES,FM,M3,55.760954251541165
BMu96,P43,PAT,INI,Weight_Unconstrained,1,R_LES,FM,M1,63.001181589957966
BMu96,P43,PAT,INI,Weight_Unconstrained,1,R_LES,FM,M2,77.03590178785659
BMu96,P43,PAT,INI,Weight_Unconstrained,1,R_LES,FM,M3,65.46278556518166
BMu96,P43,PAT,REL,Weight_Unconstrained,1,L_LES,FM,M1,50.873546355044965
BMu96,P43,PAT,REL,Weight_Unconstrained,1,L_LES,FM,M2,62.362663946628416
BMu96,P43,PAT,REL,Weight_Unconstrained,1,L_LES,FM,M3,71.33278420090112
BMu96,P43,PAT,REL,Weight_Unconstrained,1,L_LES,FM,M4,69.86577218296637
BMu96,P43,PAT,REL,Weight_Unconstrained,1,R_LES,FM,M1,61.000370187124936
BMu96,P43,PAT,REL,Weight_Unconstrained,1,R_LES,FM,M2,75.16487782119398
BMu96,P43,PAT,REL,Weight_Unconstrained,1,R_LES,FM,M3,61.4933709890136
BMu96,P43,PAT,REL,Weight_Unconstrained,1,R_LES,FM,M4,61.67851431258222
BMu96,P44,CTR,INI,Weight_Unconstrained,1,L_LES,FM,M1,48.57923126689995
BMu96,P44,CTR,INI,Weight_Unconstrained,1,L_LES,FM,M2,51.583940524666346
BMu96,P44,CTR,INI,Weight_Unconstrained,1,L_LES,FM,M3,50.25060219332531
BMu96,P44,CTR,INI,Weight_Unconstrained,1,R_LES,FM,M1,65.85770345119627
BMu96,P44,CTR,INI,Weight_Unconstrained,1,R_LES,FM,M2,69.15554394549534
BMu96,P44,CTR,INI,Weight_Unconstrained,1,R_LES,FM,M3,69.6850100367952
BMu96,P44,CTR,REL,Weight_Unconstrained,1,L_LES,FM,M1,39.25583110909108
BMu96,P44,CTR,REL,Weight_Unconstrained,1,L_LES,FM,M2,43.94894645325215
BMu96,P44,CTR,REL,Weight_Unconstrained,1,L_LES,FM,M3,45.43178520329009
BMu96,P44,CTR,REL,Weight_Unconstrained,1,R_LES,FM,M1,56.38662625994061
BMu96,P44,CTR,REL,Weight_Unconstrained,1,R_LES,FM,M2,58.74530895094202
BMu96,P44,CTR,REL,Weight_Unconstrained,1,R_LES,FM,M3,60.00685453930102
BMu96,P45,PAT,INI,Weight_Unconstrained,1,R_LES,FM,M1,81.21254211310028
BMu96,P45,PAT,INI,Weight_Unconstrained,1,R_LES,FM,M2,81.9830752751881
BMu96,P45,PAT,INI,Weight_Unconstrained,1,R_LES,FM,M3,83.9932297658329
BMu96,P45,PAT,REL,Weight_Unconstrained,1,L_LES,FM,M1,95.43759058080532
BMu96,P45,PAT,REL,Weight_Unconstrained,1,L_LES,FM,M2,104.49795621314108
BMu96,P45,PAT,REL,Weight_Unconstrained,1,L_LES,FM,M3,99.80480106518675
BMu96,P45,PAT,REL,Weight_Unconstrained,1,R_LES,FM,M1,31.76435200164307
BMu96,P45,PAT,REL,Weight_Unconstrained,1,R_LES,FM,M2,35.070879018428656
BMu96,P45,PAT,REL,Weight_Unconstrained,1,R_LES,FM,M3,33.85591546655365
BMu96,P46,CTR,INI,Weight_Unconstrained,1,L_LES,FM,M1,41.97090791881165
BMu96,P46,CTR,INI,Weight_Unconstrained,1,L_LES,FM,M2,44.43264715524387
BMu96,P46,CTR,INI,Weight_Unconstrained,1,L_LES,FM,M3,43.59486252759288
BMu96,P46,CTR,INI,Weight_Unconstrained,1,R_LES,FM,M1,44.388329920599645
BMu96,P46,CTR,INI,Weight_Unconstrained,1,R_LES,FM,M2,43.77921760272241
BMu96,P46,CTR,INI,Weight_Unconstrained,1,R_LES,FM,M3,47.011590745754916
BMu96,P46,CTR,REL,Weight_Unconstrained,1,L_LES,FM,M1,33.74289805588289
BMu96,P46,CTR,REL,Weight_Unconstrained,1,L_LES,FM,M2,35.89844942870242
BMu96,P46,CTR,REL,Weight_Unconstrained,1,L_LES,FM,M3,38.21413294631567
BMu96,P46,CTR,REL,Weight_Unconstrained,1,R_LES,FM,M1,32.96921386708613
BMu96,P46,CTR,REL,Weight_Unconstrained,1,R_LES,FM,M2,36.57487919834041
BMu96,P46,CTR,REL,Weight_Unconstrained,1,R_LES,FM,M3,37.4715550073775
BMu96,P47,PAT,INI,Weight_Unconstrained,1,L_LES,FM,M1,136.3284261394366
BMu96,P47,PAT,INI,Weight_Unconstrained,1,L_LES,FM,M2,136.27903163639556
BMu96,P47,PAT,INI,Weight_Unconstrained,1,L_LES,FM,M3,131.46277631398874
BMu96,P47,PAT,INI,Weight_Unconstrained,1,R_LES,FM,M1,131.07516865706498
BMu96,P47,PAT,INI,Weight_Unconstrained,1,R_LES,FM,M2,140.11582913282587
BMu96,P47,PAT,INI,Weight_Unconstrained,1,R_LES,FM,M3,139.94222995081395
BMu96,P47,PAT,REL,Weight_Unconstrained,1,L_LES,FM,M1,54.38126490955556
BMu96,P47,PAT,REL,Weight_Unconstrained,1,L_LES,FM,M2,50.21081517806421
BMu96,P47,PAT,REL,Weight_Unconstrained,1,L_LES,FM,M3,51.92246003042152
BMu96,P47,PAT,REL,Weight_Unconstrained,1,R_LES,FM,M1,46.76014182093884
BMu96,P47,PAT,REL,Weight_Unconstrained,1,R_LES,FM,M2,42.29607481149614
BMu96,P47,PAT,REL,Weight_Unconstrained,1,R_LES,FM,M3,47.42390170918294
BMu96,P48,CTR,INI,Weight_Unconstrained,1,L_LES,FM,M1,72.99924493234757
BMu96,P48,CTR,INI,Weight_Unconstrained,1,L_LES,FM,M2,68.96651432050177
BMu96,P48,CTR,INI,Weight_Unconstrained,1,L_LES,FM,M3,65.7864667843618
BMu96,P48,CTR,INI,Weight_Unconstrained,1,R_LES,FM,M1,62.260420927253136
BMu96,P48,CTR,INI,Weight_Unconstrained,1,R_LES,FM,M2,61.37921991796549
BMu96,P48,CTR,INI,Weight_Unconstrained,1,R_LES,FM,M3,60.17309409460912
BMu96,P48,CTR,REL,Weight_Unconstrained,1,L_LES,FM,M1,53.54302715652627
BMu96,P48,CTR,REL,Weight_Unconstrained,1,L_LES,FM,M2,48.58929480935203
BMu96,P48,CTR,REL,Weight_Unconstrained,1,L_LES,FM,M3,54.25414691669963
BMu96,P48,CTR,REL,Weight_Unconstrained,1,R_LES,FM,M1,69.9302546256464
BMu96,P48,CTR,REL,Weight_Unconstrained,1,R_LES,FM,M2,63.152461393894825
BMu96,P48,CTR,REL,Weight_Unconstrained,1,R_LES,FM,M3,67.62301323773556
BMu96,P49,CTR,INI,Weight_Unconstrained,1,R_LES,FM,M1,59.57391558473636
BMu96,P49,CTR,INI,Weight_Unconstrained,1,R_LES,FM,M2,55.333790467127436
BMu96,P49,CTR,INI,Weight_Unconstrained,1,R_LES,FM,M3,56.36043094434525
BMu96,P49,CTR,REL,Weight_Unconstrained,1,L_LES,FM,M1,23.435636664658887
BMu96,P49,CTR,REL,Weight_Unconstrained,1,L_LES,FM,M2,22.059016982453095
BMu96,P49,CTR,REL,Weight_Unconstrained,1,L_LES,FM,M3,26.811575063951324
BMu96,P49,CTR,REL,Weight_Unconstrained,1,R_LES,FM,M1,49.50393180512385
BMu96,P49,CTR,REL,Weight_Unconstrained,1,R_LES,FM,M2,48.71845024611304
BMu96,P49,CTR,REL,Weight_Unconstrained,1,R_LES,FM,M3,57.57615521708638
BMu96,P50,PAT,INI,Weight_Unconstrained,1,R_LES,FM,M1,37.829332879384964
BMu96,P50,PAT,INI,Weight_Unconstrained,1,R_LES,FM,M2,38.23430911559915
BMu96,P50,PAT,INI,Weight_Unconstrained,1,R_LES,FM,M3,43.141469674962664
BMu96,P50,PAT,REL,Weight_Unconstrained,1,L_LES,FM,M1,43.58348468798751
BMu96,P50,PAT,REL,Weight_Unconstrained,1,L_LES,FM,M2,40.839681293172056
BMu96,P50,PAT,REL,Weight_Unconstrained,1,L_LES,FM,M3,40.41834411043672
BMu96,P50,PAT,REL,Weight_Unconstrained,1,R_LES,FM,M1,47.23464732980163
BMu96,P50,PAT,REL,Weight_Unconstrained,1,R_LES,FM,M2,45.37183752778036
BMu96,P50,PAT,REL,Weight_Unconstrained,1,R_LES,FM,M3,41.516598161895345
BMu96,P51,PAT,INI,Weight_Unconstrained,1,L_LES,FM,M1,59.68897502518091
BMu96,P51,PAT,INI,Weight_Unconstrained,1,L_LES,FM,M2,
BMu96,P51,PAT,INI,Weight_Unconstrained,1,L_LES,FM,M3,
BMu96,P51,PAT,INI,Weight_Unconstrained,1,L_LES,FM,M4,52.74760304271812
BMu96,P51,PAT,INI,Weight_Unconstrained,1,R_LES,FM,M1,48.92270715276013
BMu96,P51,PAT,INI,Weight_Unconstrained,1,R_LES,FM,M2,
BMu96,P51,PAT,INI,Weight_Unconstrained,1,R_LES,FM,M3,
BMu96,P51,PAT,INI,Weight_Unconstrained,1,R_LES,FM,M4,
BMu96,P51,PAT,REL,Weight_Unconstrained,1,L_LES,FM,M1,53.16608402691851
BMu96,P51,PAT,REL,Weight_Unconstrained,1,L_LES,FM,M2,40.74380626081692
BMu96,P51,PAT,REL,Weight_Unconstrained,1,L_LES,FM,M3,43.399031720613905
BMu96,P51,PAT,REL,Weight_Unconstrained,1,R_LES,FM,M1,39.052258951684564
BMu96,P51,PAT,REL,Weight_Unconstrained,1,R_LES,FM,M2,36.71028724441467
BMu96,P51,PAT,REL,Weight_Unconstrained,1,R_LES,FM,M3,40.088335041592096
BMu96,P52,CTR,INI,Weight_Unconstrained,1,L_LES,FM,M1,39.571144323417855
BMu96,P52,CTR,INI,Weight_Unconstrained,1,L_LES,FM,M2,40.22982383279033
BMu96,P52,CTR,INI,Weight_Unconstrained,1,L_LES,FM,M3,40.30016586791552
BMu96,P52,CTR,INI,Weight_Unconstrained,1,R_LES,FM,M1,43.952609652154834
BMu96,P52,CTR,INI,Weight_Unconstrained,1,R_LES,FM,M2,54.22301623280363
BMu96,P52,CTR,INI,Weight_Unconstrained,1,R_LES,FM,M3,51.94497280031651
BMu96,P52,CTR,REL,Weight_Unconstrained,1,L_LES,FM,M1,40.030473263361216
BMu96,P52,CTR,REL,Weight_Unconstrained,1,L_LES,FM,M2,47.074092542612625
BMu96,P52,CTR,REL,Weight_Unconstrained,1,L_LES,FM,M3,50.11879481232141
BMu96,P52,CTR,REL,Weight_Unconstrained,1,R_LES,FM,M1,51.75621945803776
BMu96,P52,CTR,REL,Weight_Unconstrained,1,R_LES,FM,M2,63.84168925047319
BMu96,P52,CTR,REL,Weight_Unconstrained,1,R_LES,FM,M3,58.10912490634726
BMu96,P53,PAT,INI,Weight_Unconstrained,1,L_LES,FM,M1,78.62661094729906
BMu96,P53,PAT,INI,Weight_Unconstrained,1,L_LES,FM,M2,82.01808887523654
BMu96,P53,PAT,INI,Weight_Unconstrained,1,L_LES,FM,M3,81.65957660013105
BMu96,P53,PAT,INI,Weight_Unconstrained,1,R_LES,FM,M1,56.50485844253564
BMu96,P53,PAT,INI,Weight_Unconstrained,1,R_LES,FM,M2,56.87600576364551
BMu96,P53,PAT,INI,Weight_Unconstrained,1,R_LES,FM,M3,57.49402805863134
BMu96,P53,PAT,REL,Weight_Unconstrained,1,L_LES,FM,M1,76.61383218112908
BMu96,P53,PAT,REL,Weight_Unconstrained,1,L_LES,FM,M2,76.04863250888769
BMu96,P53,PAT,REL,Weight_Unconstrained,1,L_LES,FM,M3,73.86958508129668
BMu96,P53,PAT,REL,Weight_Unconstrained,1,R_LES,FM,M1,67.2693984377944
BMu96,P53,PAT,REL,Weight_Unconstrained,1,R_LES,FM,M2,64.69221609088414
BMu96,P53,PAT,REL,Weight_Unconstrained,1,R_LES,FM,M3,68.12560501846245
BMu96,P54,PAT,INI,Weight_Unconstrained,1,L_LES,FM,M1,61.2906506896411
BMu96,P54,PAT,INI,Weight_Unconstrained,1,L_LES,FM,M2,61.58070549668483
BMu96,P54,PAT,INI,Weight_Unconstrained,1,L_LES,FM,M3,67.8895033625024
BMu96,P54,PAT,INI,Weight_Unconstrained,1,R_LES,FM,M1,71.97216603483614
BMu96,P54,PAT,INI,Weight_Unconstrained,1,R_LES,FM,M2,68.30728230669726
BMu96,P54,PAT,INI,Weight_Unconstrained,1,R_LES,FM,M3,78.76619356448566
BMu96,P54,PAT,REL,Weight_Unconstrained,1,L_LES,FM,M1,50.17550284302014
BMu96,P54,PAT,REL,Weight_Unconstrained,1,L_LES,FM,M2,47.62999926918009
BMu96,P54,PAT,REL,Weight_Unconstrained,1,L_LES,FM,M3,51.70412737341361
BMu96,P54,PAT,REL,Weight_Unconstrained,1,R_LES,FM,M1,58.4665456118491
BMu96,P54,PAT,REL,Weight_Unconstrained,1,R_LES,FM,M2,57.304245271611194
BMu96,P54,PAT,REL,Weight_Unconstrained,1,R_LES,FM,M3,56.257069537659014
BMu96,P55,CTR,INI,Weight_Unconstrained,1,L_LES,FM,M1,53.06492702960905
BMu96,P55,CTR,INI,Weight_Unconstrained,1,L_LES,FM,M2,64.36368635140406
BMu96,P55,CTR,INI,Weight_Unconstrained,1,L_LES,FM,M3,64.5708416442061
BMu96,P55,CTR,INI,Weight_Unconstrained,1,R_LES,FM,M1,39.901804858417066
BMu96,P55,CTR,INI,Weight_Unconstrained,1,R_LES,FM,M2,49.128875514272615
BMu96,P55,CTR,INI,Weight_Unconstrained,1,R_LES,FM,M3,46.27383724822201
BMu96,P55,CTR,REL,Weight_Unconstrained,1,R_LES,FM,M1,56.99323533475605
BMu96,P55,CTR,REL,Weight_Unconstrained,1,R_LES,FM,M2,60.83220158749799
BMu96,P55,CTR,REL,Weight_Unconstrained,1,R_LES,FM,M3,61.3200333885155
BMu96,P56,CTR,INI,Weight_Unconstrained,1,L_LES,FM,M1,45.376923860682375
BMu96,P56,CTR,INI,Weight_Unconstrained,1,L_LES,FM,M2,43.303993384303986
BMu96,P56,CTR,INI,Weight_Unconstrained,1,L_LES,FM,M3,47.10776233980103
BMu96,P56,CTR,INI,Weight_Unconstrained,1,R_LES,FM,M1,60.0526661146578
BMu96,P56,CTR,INI,Weight_Unconstrained,1,R_LES,FM,M2,60.05559303095889
BMu96,P56,CTR,INI,Weight_Unconstrained,1,R_LES,FM,M3,57.79570164187514
BMu96,P56,CTR,REL,Weight_Unconstrained,1,L_LES,FM,M1,41.218144691344015
BMu96,P56,CTR,REL,Weight_Unconstrained,1,L_LES,FM,M2,43.7816339865841
BMu96,P56,CTR,REL,Weight_Unconstrained,1,L_LES,FM,M3,43.05886545181043
BMu96,P56,CTR,REL,Weight_Unconstrained,1,R_LES,FM,M1,49.42395356190102
BMu96,P56,CTR,REL,Weight_Unconstrained,1,R_LES,FM,M2,51.31188015064422
BMu96,P56,CTR,REL,Weight_Unconstrained,1,R_LES,FM,M3,48.51419594852115
BMu96,P57,CTR,INI,Weight_Unconstrained,1,R_LES,FM,M1,38.89514930574909
BMu96,P57,CTR,INI,Weight_Unconstrained,1,R_LES,FM,M2,43.493307572164454
BMu96,P57,CTR,INI,Weight_Unconstrained,1,R_LES,FM,M3,45.48885743707385
BMu96,P57,CTR,REL,Weight_Unconstrained,1,R_LES,FM,M1,58.04727999561911
BMu96,P57,CTR,REL,Weight_Unconstrained,1,R_LES,FM,M2,62.23237721785989
BMu96,P57,CTR,REL,Weight_Unconstrained,1,R_LES,FM,M3,62.241204245857645
BMu96,P58,PAT,INI,Weight_Unconstrained,1,L_LES,FM,M1,42.968729428811855
BMu96,P58,PAT,INI,Weight_Unconstrained,1,L_LES,FM,M2,53.089386965440504
BMu96,P58,PAT,INI,Weight_Unconstrained,1,L_LES,FM,M3,55.13257628019531
BMu96,P58,PAT,INI,Weight_Unconstrained,1,R_LES,FM,M1,52.28674295144579
BMu96,P58,PAT,INI,Weight_Unconstrained,1,R_LES,FM,M2,64.78085958563753
BMu96,P58,PAT,INI,Weight_Unconstrained,1,R_LES,FM,M3,68.32872472370296
BMu96,P58,PAT,REL,Weight_Unconstrained,1,R_LES,FM,M1,69.25923004735186
BMu96,P58,PAT,REL,Weight_Unconstrained,1,R_LES,FM,M2,87.79775491269393
BMu96,P58,PAT,REL,Weight_Unconstrained,1,R_LES,FM,M3,84.90966404331498
BMu96,P60,CTR,INI,Weight_Unconstrained,1,L_LES,FM,M1,43.720488977025866
BMu96,P60,CTR,INI,Weight_Unconstrained,1,R_LES,FM,M1,55.621299539056395
BMu96,P60,CTR,REL,Weight_Unconstrained,1,L_LES,FM,M1,70.60984526078344
BMu96,P60,CTR,REL,Weight_Unconstrained,1,L_LES,FM,M2,66.87698077007181
BMu96,P60,CTR,REL,Weight_Unconstrained,1,L_LES,FM,M3,68.3987991341279
BMu96,P61,PAT,REL,Weight_Unconstrained,1,L_LES,FM,M1,85.47192721334054
BMu96,P61,PAT,REL,Weight_Unconstrained,1,L_LES,FM,M2,78.93300519114251
BMu96,P61,PAT,REL,Weight_Unconstrained,1,L_LES,FM,M3,81.09254985543848
BMu96,P61,PAT,REL,Weight_Unconstrained,1,R_LES,FM,M1,60.808708390898985
BMu96,P61,PAT,REL,Weight_Unconstrained,1,R_LES,FM,M2,62.566253638301504
BMu96,P61,PAT,REL,Weight_Unconstrained,1,R_LES,FM,M3,63.72200910482624
BMu96,P62,PAT,INI,Weight_Unconstrained,1,R_LES,FM,M1,53.21916598918904
BMu96,P62,PAT,INI,Weight_Unconstrained,1,R_LES,FM,M2,50.63069011486223
BMu96,P62,PAT,INI,Weight_Unconstrained,1,R_LES,FM,M3,47.90742882303233
BMu96,P62,PAT,INI,Weight_Unconstrained,1,R_LES,FM,M4,45.23059909443235
BMu96,P62,PAT,REL,Weight_Unconstrained,1,L_LES,FM,M1,65.75760878348814
BMu96,P62,PAT,REL,Weight_Unconstrained,1,L_LES,FM,M2,67.53986249333411
BMu96,P62,PAT,REL,Weight_Unconstrained,1,L_LES,FM,M3,70.01534653271769
BMu96,P62,PAT,REL,Weight_Unconstrained,1,R_LES,FM,M1,57.63129762426409
BMu96,P62,PAT,REL,Weight_Unconstrained,1,R_LES,FM,M2,56.17433574623924
BMu96,P62,PAT,REL,Weight_Unconstrained,1,R_LES,FM,M3,57.96192465111319
BMu96,P63,PAT,INI,Weight_Unconstrained,1,R_LES,FM,M1,71.3510939926663
BMu96,P63,PAT,INI,Weight_Unconstrained,1,R_LES,FM,M2,68.03549995640759
BMu96,P63,PAT,INI,Weight_Unconstrained,1,R_LES,FM,M3,49.980571725220805
BMu96,P63,PAT,REL,Weight_Unconstrained,1,L_LES,FM,M1,83.85961606821691
BMu96,P63,PAT,REL,Weight_Unconstrained,1,L_LES,FM,M2,81.77202094961123
BMu96,P63,PAT,REL,Weight_Unconstrained,1,L_LES,FM,M3,81.64439971477513
BMu96,P63,PAT,REL,Weight_Unconstrained,1,R_LES,FM,M1,63.861190382527
BMu96,P63,PAT,REL,Weight_Unconstrained,1,R_LES,FM,M2,63.64852823369492
BMu96,P63,PAT,REL,Weight_Unconstrained,1,R_LES,FM,M3,63.70407176578456
BMu96,P64,CTR,INI,Weight_Unconstrained,1,L_LES,FM,M1,34.33122269390647
BMu96,P64,CTR,INI,Weight_Unconstrained,1,L_LES,FM,M2,34.81282760415628
BMu96,P64,CTR,INI,Weight_Unconstrained,1,L_LES,FM,M3,35.41762612231574
BMu96,P64,CTR,INI,Weight_Unconstrained,1,R_LES,FM,M1,46.40443547643355
BMu96,P64,CTR,INI,Weight_Unconstrained,1,R_LES,FM,M2,45.88601963545463
BMu96,P64,CTR,INI,Weight_Unconstrained,1,R_LES,FM,M3,47.013413747035045
BMu96,P64,CTR,REL,Weight_Unconstrained,1,L_LES,FM,M1,37.65969336387596
BMu96,P64,CTR,REL,Weight_Unconstrained,1,L_LES,FM,M2,37.735863704651464
BMu96,P64,CTR,REL,Weight_Unconstrained,1,L_LES,FM,M3,40.69792744534259
BMu96,P64,CTR,REL,Weight_Unconstrained,1,R_LES,FM,M1,54.00835845948603
BMu96,P64,CTR,REL,Weight_Unconstrained,1,R_LES,FM,M2,62.59627998906625
BMu96,P64,CTR,REL,Weight_Unconstrained,1,R_LES,FM,M3,64.37193170792358
BMu96,P65,PAT,INI,Weight_Unconstrained,1,L_LES,FM,M1,
BMu96,P65,PAT,INI,Weight_Unconstrained,1,L_LES,FM,M2,39.198829668944356
BMu96,P65,PAT,INI,Weight_Unconstrained,1,L_LES,FM,M3,45.78302453470821
BMu96,P65,PAT,INI,Weight_Unconstrained,1,L_LES,FM,M4,50.42302307257551
BMu96,P65,PAT,INI,Weight_Unconstrained,1,R_LES,FM,M1,
BMu96,P65,PAT,INI,Weight_Unconstrained,1,R_LES,FM,M2,56.06640721094713
BMu96,P65,PAT,INI,Weight_Unconstrained,1,R_LES,FM,M3,64.95609719594208
BMu96,P65,PAT,INI,Weight_Unconstrained,1,R_LES,FM,M4,71.14005845423361
BMu96,P65,PAT,REL,Weight_Unconstrained,1,L_LES,FM,M1,50.20975345976565
BMu96,P65,PAT,REL,Weight_Unconstrained,1,L_LES,FM,M2,53.08935906811118
BMu96,P65,PAT,REL,Weight_Unconstrained,1,L_LES,FM,M3,53.608542926348726
BMu96,P65,PAT,REL,Weight_Unconstrained,1,R_LES,FM,M1,60.859824372698526
BMu96,P65,PAT,REL,Weight_Unconstrained,1,R_LES,FM,M2,66.368442448077
BMu96,P65,PAT,REL,Weight_Unconstrained,1,R_LES,FM,M3,65.36013140291786
BMu96,P66,CTR,INI,Weight_Unconstrained,1,L_LES,FM,M1,44.60491246194617
BMu96,P66,CTR,INI,Weight_Unconstrained,1,L_LES,FM,M2,43.67286197692709
BMu96,P66,CTR,INI,Weight_Unconstrained,1,L_LES,FM,M3,47.823707901911256
BMu96,P66,CTR,INI,Weight_Unconstrained,1,R_LES,FM,M1,51.81116306097108
BMu96,P66,CTR,INI,Weight_Unconstrained,1,R_LES,FM,M2,52.49566972436354
BMu96,P66,CTR,INI,Weight_Unconstrained,1,R_LES,FM,M3,55.125186905144034
BMu96,P66,CTR,REL,Weight_Unconstrained,1,L_LES,FM,M1,45.38730110981372
BMu96,P66,CTR,REL,Weight_Unconstrained,1,L_LES,FM,M2,45.039572153219964
BMu96,P66,CTR,REL,Weight_Unconstrained,1,L_LES,FM,M3,48.894482431106006
BMu96,P66,CTR,REL,Weight_Unconstrained,1,R_LES,FM,M1,73.75358569062203
BMu96,P66,CTR,REL,Weight_Unconstrained,1,R_LES,FM,M2,69.06728352482293
BMu96,P66,CTR,REL,Weight_Unconstrained,1,R_LES,FM,M3,73.9855255335935
BMu96,P67,CTR,INI,Weight_Unconstrained,1,R_LES,FM,M1,225.33352248614557
BMu96,P67,CTR,INI,Weight_Unconstrained,1,R_LES,FM,M2,236.49776778799503
BMu96,P67,CTR,INI,Weight_Unconstrained,1,R_LES,FM,M3,202.51030253988534
BMu96,P68,CTR,INI,Weight_Unconstrained,1,R_LES,FM,M1,52.20309999626662
BMu96,P68,CTR,INI,Weight_Unconstrained,1,R_LES,FM,M2,52.04434567264745
BMu96,P68,CTR,INI,Weight_Unconstrained,1,R_LES,FM,M3,53.20198730301739
BMu96,P68,CTR,REL,Weight_Unconstrained,1,L_LES,FM,M1,45.49864271050332
BMu96,P68,CTR,REL,Weight_Unconstrained,1,L_LES,FM,M2,45.60369386177145
BMu96,P68,CTR,REL,Weight_Unconstrained,1,L_LES,FM,M3,50.1004635153669
BMu96,P68,CTR,REL,Weight_Unconstrained,1,R_LES,FM,M1,50.99129763807913
BMu96,P68,CTR,REL,Weight_Unconstrained,1,R_LES,FM,M2,51.330119153388196
BMu96,P68,CTR,REL,Weight_Unconstrained,1,R_LES,FM,M3,63.754215131674876
