BMu,Participant,Group,Session,task,trials,channel,Operator,Measure,Value
BMu97,P01,CTR,INI,Weight_Unconstrained,1,L_ESI,FM,M1,44.726797350533445
BMu97,P01,CTR,INI,Weight_Unconstrained,1,L_ESI,FM,M2,50.94661575788825
BMu97,P01,CTR,INI,Weight_Unconstrained,1,L_ESI,FM,M3,47.364990967395485
BMu97,P01,CTR,INI,Weight_Unconstrained,1,R_ESI,FM,M1,39.207161436728924
BMu97,P01,CTR,INI,Weight_Unconstrained,1,R_ESI,FM,M2,49.771837621892885
BMu97,P01,CTR,INI,Weight_Unconstrained,1,R_ESI,FM,M3,40.317694010296314
BMu97,P01,CTR,REL,Weight_Unconstrained,1,L_ESI,FM,M1,37.06664451813035
BMu97,P01,CTR,REL,Weight_Unconstrained,1,L_ESI,FM,M2,37.316851155296675
BMu97,P01,CTR,REL,Weight_Unconstrained,1,L_ESI,FM,M3,40.113818201145605
BMu97,P02,CTR,INI,Weight_Unconstrained,1,L_ESI,FM,M1,50.925052372589576
BMu97,P02,CTR,INI,Weight_Unconstrained,1,L_ESI,FM,M2,56.597742607546806
BMu97,P02,CTR,INI,Weight_Unconstrained,1,L_ESI,FM,M3,50.097685203241525
BMu97,P02,CTR,REL,Weight_Unconstrained,1,L_ESI,FM,M1,51.03491253710235
BMu97,P02,CTR,REL,Weight_Unconstrained,1,L_ESI,FM,M2,50.88494860214072
BMu97,P02,CTR,REL,Weight_Unconstrained,1,L_ESI,FM,M3,51.66631571649714
BMu97,P02,CTR,REL,Weight_Unconstrained,1,R_ESI,FM,M1,50.35619812246512
BMu97,P02,CTR,REL,Weight_Unconstrained,1,R_ESI,FM,M2,50.39869334570186
BMu97,P02,CTR,REL,Weight_Unconstrained,1,R_ESI,FM,M3,49.33282979994007
BMu97,P03,CTR,INI,Weight_Unconstrained,1,L_ESI,FM,M1,69.37824340571173
BMu97,P03,CTR,INI,Weight_Unconstrained,1,L_ESI,FM,M2,68.08300572659621
BMu97,P03,CTR,INI,Weight_Unconstrained,1,L_ESI,FM,M3,72.55454536988256
BMu97,P03,CTR,INI,Weight_Unconstrained,1,R_ESI,FM,M1,61.82225095795319
BMu97,P03,CTR,INI,Weight_Unconstrained,1,R_ESI,FM,M2,60.338974967550165
BMu97,P03,CTR,INI,Weight_Unconstrained,1,R_ESI,FM,M3,62.59135032108341
BMu97,P03,CTR,REL,Weight_Unconstrained,1,L_ESI,FM,M1,63.879251300896016
BMu97,P03,CTR,REL,Weight_Unconstrained,1,L_ESI,FM,M2,59.00710539451671
BMu97,P03,CTR,REL,Weight_Unconstrained,1,L_ESI,FM,M3,63.5094258247089
BMu97,P03,CTR,REL,Weight_Unconstrained,1,R_ESI,FM,M1,74.97467302049992
BMu97,P03,CTR,REL,Weight_Unconstrained,1,R_ESI,FM,M2,75.57674504912742
BMu97,P03,CTR,REL,Weight_Unconstrained,1,R_ESI,FM,M3,74.01996798176617
BMu97,P05,CTR,INI,Weight_Unconstrained,1,L_ESI,FM,M1,27.130333064783066
BMu97,P05,CTR,INI,Weight_Unconstrained,1,L_ESI,FM,M2,26.383762640811455
BMu97,P05,CTR,INI,Weight_Unconstrained,1,L_ESI,FM,M3,28.317892595301785
BMu97,P05,CTR,INI,Weight_Unconstrained,1,R_ESI,FM,M1,40.45922967635254
BMu97,P05,CTR,INI,Weight_Unconstrained,1,R_ESI,FM,M2,29.536430978214877
BMu97,P05,CTR,INI,Weight_Unconstrained,1,R_ESI,FM,M3,27.377371715051027
BMu97,P05,CTR,REL,Weight_Unconstrained,1,L_ESI,FM,M1,31.429229740428738
BMu97,P05,CTR,REL,Weight_Unconstrained,1,L_ESI,FM,M2,29.644882394105444
BMu97,P05,CTR,REL,Weight_Unconstrained,1,L_ESI,FM,M3,29.72905892283179
BMu97,P05,CTR,REL,Weight_Unconstrained,1,L_ESI,FM,M4,37.41726574996767
BMu97,P05,CTR,REL,Weight_Unconstrained,1,R_ESI,FM,M1,59.849186860697046
BMu97,P05,CTR,REL,Weight_Unconstrained,1,R_ESI,FM,M2,67.07542397484448
BMu97,P05,CTR,REL,Weight_Unconstrained,1,R_ESI,FM,M3,69.75131585683872
BMu97,P05,CTR,REL,Weight_Unconstrained,1,R_ESI,FM,M4,76.49104810629876
BMu97,P06,CTR,INI,Weight_Unconstrained,1,L_ESI,FM,M1,55.287535592326975
BMu97,P06,CTR,INI,Weight_Unconstrained,1,L_ESI,FM,M2,54.77128120721154
BMu97,P06,CTR,INI,Weight_Unconstrained,1,L_ESI,FM,M3,54.18054938908863
BMu97,P06,CTR,INI,Weight_Unconstrained,1,R_ESI,FM,M1,58.87351625844158
BMu97,P06,CTR,INI,Weight_Unconstrained,1,R_ESI,FM,M2,60.26867552991281
BMu97,P06,CTR,INI,Weight_Unconstrained,1,R_ESI,FM,M3,61.21390238052608
BMu97,P06,CTR,REL,Weight_Unconstrained,1,L_ESI,FM,M1,51.859678346993846
BMu97,P06,CTR,REL,Weight_Unconstrained,1,L_ESI,FM,M2,49.86336358999344
BMu97,P06,CTR,REL,Weight_Unconstrained,1,L_ESI,FM,M3,51.46164376775882
BMu97,P06,CTR,REL,Weight_Unconstrained,1,R_ESI,FM,M1,49.136433086933394
BMu97,P06,CTR,REL,Weight_Unconstrained,1,R_ESI,FM,M2,50.0987051761904
BMu97,P06,CTR,REL,Weight_Unconstrained,1,R_ESI,FM,M3,49.95282531335474
BMu97,P07,CTR,INI,Weight_Unconstrained,1,L_ESI,FM,M1,31.291561980582603
BMu97,P07,CTR,INI,Weight_Unconstrained,1,L_ESI,FM,M2,33.37142924001534
BMu97,P07,CTR,INI,Weight_Unconstrained,1,L_ESI,FM,M3,38.5094757759519
BMu97,P07,CTR,INI,Weight_Unconstrained,1,R_ESI,FM,M1,26.645516382565212
BMu97,P07,CTR,INI,Weight_Unconstrained,1,R_ESI,FM,M2,29.578786440919686
BMu97,P07,CTR,INI,Weight_Unconstrained,1,R_ESI,FM,M3,31.158275050520373
BMu97,P07,CTR,REL,Weight_Unconstrained,1,L_ESI,FM,M1,21.935987650229443
BMu97,P07,CTR,REL,Weight_Unconstrained,1,L_ESI,FM,M2,21.459598896232947
BMu97,P07,CTR,REL,Weight_Unconstrained,1,L_ESI,FM,M3,22.912201769408103
BMu97,P07,CTR,REL,Weight_Unconstrained,1,R_ESI,FM,M1,20.20493850644302
BMu97,P07,CTR,REL,Weight_Unconstrained,1,R_ESI,FM,M2,21.253604071549745
BMu97,P07,CTR,REL,Weight_Unconstrained,1,R_ESI,FM,M3,21.63992830427547
BMu97,P08,CTR,INI,Weight_Unconstrained,1,L_ESI,FM,M1,67.97976005020033
BMu97,P08,CTR,INI,Weight_Unconstrained,1,L_ESI,FM,M2,54.18723048559411
BMu97,P08,CTR,INI,Weight_Unconstrained,1,L_ESI,FM,M3,53.63874769269027
BMu97,P08,CTR,INI,Weight_Unconstrained,1,R_ESI,FM,M1,91.39666710994541
BMu97,P08,CTR,INI,Weight_Unconstrained,1,R_ESI,FM,M2,
BMu97,P08,CTR,INI,Weight_Unconstrained,1,R_ESI,FM,M3,69.14193793593506
BMu97,P08,CTR,REL,Weight_Unconstrained,1,L_ESI,FM,M1,70.23307628579525
BMu97,P08,CTR,REL,Weight_Unconstrained,1,L_ESI,FM,M2,63.10541013784784
BMu97,P08,CTR,REL,Weight_Unconstrained,1,L_ESI,FM,M3,57.66851073820387
BMu97,P08,CTR,REL,Weight_Unconstrained,1,R_ESI,FM,M1,88.57692720468073
BMu97,P08,CTR,REL,Weight_Unconstrained,1,R_ESI,FM,M2,
BMu97,P08,CTR,REL,Weight_Unconstrained,1,R_ESI,FM,M3,85.15035751024539
BMu97,P09,PAT,INI,Weight_Unconstrained,1,L_ESI,FM,M1,37.81076219321008
BMu97,P09,PAT,INI,Weight_Unconstrained,1,L_ESI,FM,M2,32.492606620557794
BMu97,P09,PAT,INI,Weight_Unconstrained,1,L_ESI,FM,M3,33.499893530109134
BMu97,P09,PAT,INI,Weight_Unconstrained,1,R_ESI,FM,M1,35.30185714029356
BMu97,P09,PAT,INI,Weight_Unconstrained,1,R_ESI,FM,M2,36.88453350328594
BMu97,P09,PAT,INI,Weight_Unconstrained,1,R_ESI,FM,M3,37.01722445737512
BMu97,P09,PAT,REL,Weight_Unconstrained,1,L_ESI,FM,M1,
BMu97,P09,PAT,REL,Weight_Unconstrained,1,L_ESI,FM,M2,
BMu97,P09,PAT,REL,Weight_Unconstrained,1,L_ESI,FM,M3,
BMu97,P09,PAT,REL,Weight_Unconstrained,1,L_ESI,FM,M4,30.88418599508656
BMu97,P09,PAT,REL,Weight_Unconstrained,1,L_ESI,FM,M5,
BMu97,P09,PAT,REL,Weight_Unconstrained,1,R_ESI,FM,M1,
BMu97,P09,PAT,REL,Weight_Unconstrained,1,R_ESI,FM,M2,
BMu97,P09,PAT,REL,Weight_Unconstrained,1,R_ESI,FM,M3,
BMu97,P09,PAT,REL,Weight_Unconstrained,1,R_ESI,FM,M4,
BMu97,P09,PAT,REL,Weight_Unconstrained,1,R_ESI,FM,M5,35.92273176153945
BMu97,P10,PAT,INI,Weight_Unconstrained,1,L_ESI,FM,M1,68.94552969401877
BMu97,P10,PAT,INI,Weight_Unconstrained,1,L_ESI,FM,M2,73.6695802772202
BMu97,P10,PAT,INI,Weight_Unconstrained,1,L_ESI,FM,M3,81.72105558973685
BMu97,P10,PAT,INI,Weight_Unconstrained,1,R_ESI,FM,M1,55.4777013571633
BMu97,P10,PAT,INI,Weight_Unconstrained,1,R_ESI,FM,M2,60.430516266893605
BMu97,P10,PAT,INI,Weight_Unconstrained,1,R_ESI,FM,M3,61.088741046429135
BMu97,P10,PAT,REL,Weight_Unconstrained,1,L_ESI,FM,M1,19.244246689693746
BMu97,P10,PAT,REL,Weight_Unconstrained,1,L_ESI,FM,M2,19.617037074377304
BMu97,P10,PAT,REL,Weight_Unconstrained,1,L_ESI,FM,M3,24.50950498479778
BMu97,P11,PAT,INI,Weight_Unconstrained,1,L_ESI,FM,M1,26.817797709528193
BMu97,P11,PAT,INI,Weight_Unconstrained,1,L_ESI,FM,M2,22.35695832750442
BMu97,P11,PAT,INI,Weight_Unconstrained,1,L_ESI,FM,M3,23.96396305827508
BMu97,P11,PAT,INI,Weight_Unconstrained,1,R_ESI,FM,M1,28.8818720406425
BMu97,P11,PAT,INI,Weight_Unconstrained,1,R_ESI,FM,M2,29.66163720935913
BMu97,P11,PAT,INI,Weight_Unconstrained,1,R_ESI,FM,M3,33.17987105525022
BMu97,P11,PAT,REL,Weight_Unconstrained,1,L_ESI,FM,M1,51.47255106654443
BMu97,P11,PAT,REL,Weight_Unconstrained,1,L_ESI,FM,M2,54.51670366850587
BMu97,P11,PAT,REL,Weight_Unconstrained,1,L_ESI,FM,M3,52.6675100387135
BMu97,P11,PAT,REL,Weight_Unconstrained,1,R_ESI,FM,M1,36.08242443563982
BMu97,P11,PAT,REL,Weight_Unconstrained,1,R_ESI,FM,M2,41.79756656385066
BMu97,P11,PAT,REL,Weight_Unconstrained,1,R_ESI,FM,M3,46.454119935347606
BMu97,P12,PAT,INI,Weight_Unconstrained,1,L_ESI,FM,M1,53.391013078002715
BMu97,P12,PAT,INI,Weight_Unconstrained,1,L_ESI,FM,M2,46.47794377346623
BMu97,P12,PAT,INI,Weight_Unconstrained,1,L_ESI,FM,M3,51.06668366365231
BMu97,P12,PAT,REL,Weight_Unconstrained,1,L_ESI,FM,M1,42.841768291899754
BMu97,P12,PAT,REL,Weight_Unconstrained,1,L_ESI,FM,M2,47.04554672106387
BMu97,P12,PAT,REL,Weight_Unconstrained,1,L_ESI,FM,M3,48.32126147684775
BMu97,P13,CTR,INI,Weight_Unconstrained,1,L_ESI,FM,M1,67.03485439465811
BMu97,P13,CTR,INI,Weight_Unconstrained,1,L_ESI,FM,M2,66.37523590839652
BMu97,P13,CTR,INI,Weight_Unconstrained,1,L_ESI,FM,M3,66.11232968543601
BMu97,P13,CTR,INI,Weight_Unconstrained,1,R_ESI,FM,M1,59.27569086701748
BMu97,P13,CTR,INI,Weight_Unconstrained,1,R_ESI,FM,M2,61.258999321306085
BMu97,P13,CTR,INI,Weight_Unconstrained,1,R_ESI,FM,M3,67.41449296327804
BMu97,P13,CTR,REL,Weight_Unconstrained,1,L_ESI,FM,M1,62.84560329275776
BMu97,P13,CTR,REL,Weight_Unconstrained,1,L_ESI,FM,M2,64.20609904731091
BMu97,P13,CTR,REL,Weight_Unconstrained,1,L_ESI,FM,M3,64.83097489305462
BMu97,P13,CTR,REL,Weight_Unconstrained,1,R_ESI,FM,M1,58.50008438310073
BMu97,P13,CTR,REL,Weight_Unconstrained,1,R_ESI,FM,M2,63.22619369963474
BMu97,P13,CTR,REL,Weight_Unconstrained,1,R_ESI,FM,M3,60.53447726967026
BMu97,P14,PAT,INI,Weight_Unconstrained,1,L_ESI,FM,M1,36.01711953534243
BMu97,P14,PAT,INI,Weight_Unconstrained,1,L_ESI,FM,M2,39.13667268426053
BMu97,P14,PAT,INI,Weight_Unconstrained,1,L_ESI,FM,M3,42.22686057597774
BMu97,P14,PAT,INI,Weight_Unconstrained,1,R_ESI,FM,M1,62.56969141158825
BMu97,P14,PAT,INI,Weight_Unconstrained,1,R_ESI,FM,M2,63.27701665288788
BMu97,P14,PAT,INI,Weight_Unconstrained,1,R_ESI,FM,M3,61.30460704907025
BMu97,P14,PAT,REL,Weight_Unconstrained,1,L_ESI,FM,M1,68.2267005683238
BMu97,P14,PAT,REL,Weight_Unconstrained,1,L_ESI,FM,M2,68.18637098172553
BMu97,P14,PAT,REL,Weight_Unconstrained,1,L_ESI,FM,M3,72.8950074554079
BMu97,P14,PAT,REL,Weight_Unconstrained,1,R_ESI,FM,M1,57.829654292562154
BMu97,P14,PAT,REL,Weight_Unconstrained,1,R_ESI,FM,M2,63.79380848865109
BMu97,P14,PAT,REL,Weight_Unconstrained,1,R_ESI,FM,M3,62.21888077249827
BMu97,P16,CTR,INI,Weight_Unconstrained,1,L_ESI,FM,M1,71.43673096630252
BMu97,P16,CTR,INI,Weight_Unconstrained,1,L_ESI,FM,M2,66.12783075876467
BMu97,P16,CTR,INI,Weight_Unconstrained,1,L_ESI,FM,M3,74.82159791435353
BMu97,P16,CTR,INI,Weight_Unconstrained,1,R_ESI,FM,M1,116.05046153540462
BMu97,P16,CTR,INI,Weight_Unconstrained,1,R_ESI,FM,M2,104.89755835133099
BMu97,P16,CTR,INI,Weight_Unconstrained,1,R_ESI,FM,M3,115.91878952665539
BMu97,P16,CTR,REL,Weight_Unconstrained,1,L_ESI,FM,M1,85.54893348784536
BMu97,P16,CTR,REL,Weight_Unconstrained,1,L_ESI,FM,M2,87.2425193705985
BMu97,P16,CTR,REL,Weight_Unconstrained,1,L_ESI,FM,M3,89.56498890348232
BMu97,P16,CTR,REL,Weight_Unconstrained,1,R_ESI,FM,M1,87.40634796590044
BMu97,P16,CTR,REL,Weight_Unconstrained,1,R_ESI,FM,M2,115.97103358121839
BMu97,P16,CTR,REL,Weight_Unconstrained,1,R_ESI,FM,M3,104.79830973657334
BMu97,P17,PAT,INI,Weight_Unconstrained,1,L_ESI,FM,M1,36.72512342544937
BMu97,P17,PAT,INI,Weight_Unconstrained,1,L_ESI,FM,M2,40.96006365606462
BMu97,P17,PAT,INI,Weight_Unconstrained,1,L_ESI,FM,M3,42.77204014044505
BMu97,P17,PAT,REL,Weight_Unconstrained,1,L_ESI,FM,M1,22.448641058141895
BMu97,P17,PAT,REL,Weight_Unconstrained,1,L_ESI,FM,M2,23.98574072456594
BMu97,P17,PAT,REL,Weight_Unconstrained,1,L_ESI,FM,M3,25.59232467821461
BMu97,P21,CTR,INI,Weight_Unconstrained,1,L_ESI,FM,M1,40.97045745512143
BMu97,P21,CTR,INI,Weight_Unconstrained,1,L_ESI,FM,M2,40.938108425676916
BMu97,P21,CTR,INI,Weight_Unconstrained,1,L_ESI,FM,M3,58.285727915787774
BMu97,P21,CTR,INI,Weight_Unconstrained,1,R_ESI,FM,M1,36.11583603085215
BMu97,P21,CTR,INI,Weight_Unconstrained,1,R_ESI,FM,M2,45.05884487231017
BMu97,P21,CTR,INI,Weight_Unconstrained,1,R_ESI,FM,M3,56.8311534937381
BMu97,P21,CTR,REL,Weight_Unconstrained,1,L_ESI,FM,M1,54.85995324832291
BMu97,P21,CTR,REL,Weight_Unconstrained,1,L_ESI,FM,M2,101.51023737045284
BMu97,P21,CTR,REL,Weight_Unconstrained,1,L_ESI,FM,M3,138.27027632662043
BMu97,P21,CTR,REL,Weight_Unconstrained,1,L_ESI,FM,M4,97.69006804240695
BMu97,P22,CTR,INI,Weight_Unconstrained,1,L_ESI,FM,M1,58.2793621174619
BMu97,P22,CTR,INI,Weight_Unconstrained,1,L_ESI,FM,M2,65.06425110449305
BMu97,P22,CTR,INI,Weight_Unconstrained,1,L_ESI,FM,M3,56.308313961029825
BMu97,P22,CTR,REL,Weight_Unconstrained,1,L_ESI,FM,M1,
BMu97,P22,CTR,REL,Weight_Unconstrained,1,L_ESI,FM,M2,
BMu97,P22,CTR,REL,Weight_Unconstrained,1,R_ESI,FM,M1,
BMu97,P22,CTR,REL,Weight_Unconstrained,1,R_ESI,FM,M2,
BMu97,P23,CTR,INI,Weight_Unconstrained,1,L_ESI,FM,M1,51.44911806248409
BMu97,P23,CTR,INI,Weight_Unconstrained,1,L_ESI,FM,M2,51.86203627101551
BMu97,P23,CTR,INI,Weight_Unconstrained,1,L_ESI,FM,M3,59.111865635179655
BMu97,P23,CTR,REL,Weight_Unconstrained,1,R_ESI,FM,M1,32.40427682463678
BMu97,P23,CTR,REL,Weight_Unconstrained,1,R_ESI,FM,M2,34.642821068819956
BMu97,P23,CTR,REL,Weight_Unconstrained,1,R_ESI,FM,M3,36.04953046639144
BMu97,P24,PAT,INI,Weight_Unconstrained,1,L_ESI,FM,M1,72.7803368908418
BMu97,P24,PAT,INI,Weight_Unconstrained,1,L_ESI,FM,M2,78.08597608555738
BMu97,P24,PAT,INI,Weight_Unconstrained,1,L_ESI,FM,M3,74.08454109118742
BMu97,P24,PAT,INI,Weight_Unconstrained,1,R_ESI,FM,M1,
BMu97,P24,PAT,INI,Weight_Unconstrained,1,R_ESI,FM,M2,72.0146401914944
BMu97,P24,PAT,INI,Weight_Unconstrained,1,R_ESI,FM,M3,
BMu97,P24,PAT,REL,Weight_Unconstrained,1,L_ESI,FM,M1,60.94110966625368
BMu97,P24,PAT,REL,Weight_Unconstrained,1,L_ESI,FM,M2,59.93388061235177
BMu97,P24,PAT,REL,Weight_Unconstrained,1,L_ESI,FM,M3,83.0897478078146
BMu97,P24,PAT,REL,Weight_Unconstrained,1,R_ESI,FM,M1,59.3501998996339
BMu97,P24,PAT,REL,Weight_Unconstrained,1,R_ESI,FM,M2,60.58504917473242
BMu97,P24,PAT,REL,Weight_Unconstrained,1,R_ESI,FM,M3,59.408228897637684
BMu97,P25,CTR,INI,Weight_Unconstrained,1,R_ESI,FM,M1,39.07925746000026
BMu97,P25,CTR,INI,Weight_Unconstrained,1,R_ESI,FM,M2,27.694875879713777
BMu97,P25,CTR,INI,Weight_Unconstrained,1,R_ESI,FM,M3,35.0272138959186
BMu97,P25,CTR,REL,Weight_Unconstrained,1,R_ESI,FM,M1,54.631051947568565
BMu97,P25,CTR,REL,Weight_Unconstrained,1,R_ESI,FM,M2,43.05576906933302
BMu97,P25,CTR,REL,Weight_Unconstrained,1,R_ESI,FM,M3,38.8526157953379
BMu97,P26,PAT,INI,Weight_Unconstrained,1,L_ESI,FM,M1,58.92977458949659
BMu97,P26,PAT,INI,Weight_Unconstrained,1,L_ESI,FM,M2,72.7808243529135
BMu97,P26,PAT,INI,Weight_Unconstrained,1,L_ESI,FM,M3,84.36707474030433
BMu97,P26,PAT,INI,Weight_Unconstrained,1,R_ESI,FM,M1,55.60968872006761
BMu97,P26,PAT,INI,Weight_Unconstrained,1,R_ESI,FM,M2,51.26203038938434
BMu97,P26,PAT,INI,Weight_Unconstrained,1,R_ESI,FM,M3,44.82985580377935
BMu97,P26,PAT,REL,Weight_Unconstrained,1,L_ESI,FM,M1,110.61473980399724
BMu97,P26,PAT,REL,Weight_Unconstrained,1,L_ESI,FM,M2,131.47348753266144
BMu97,P26,PAT,REL,Weight_Unconstrained,1,L_ESI,FM,M3,194.0432762956272
BMu97,P27,PAT,INI,Weight_Unconstrained,1,L_ESI,FM,M1,48.01406001484712
BMu97,P27,PAT,INI,Weight_Unconstrained,1,L_ESI,FM,M2,42.89553351128389
BMu97,P27,PAT,INI,Weight_Unconstrained,1,L_ESI,FM,M3,42.49195654408159
BMu97,P27,PAT,INI,Weight_Unconstrained,1,R_ESI,FM,M1,52.519670464456226
BMu97,P27,PAT,INI,Weight_Unconstrained,1,R_ESI,FM,M2,52.74307819765011
BMu97,P27,PAT,INI,Weight_Unconstrained,1,R_ESI,FM,M3,49.57736670640496
BMu97,P27,PAT,REL,Weight_Unconstrained,1,L_ESI,FM,M1,52.63933828573051
BMu97,P27,PAT,REL,Weight_Unconstrained,1,L_ESI,FM,M2,
BMu97,P27,PAT,REL,Weight_Unconstrained,1,L_ESI,FM,M3,70.5548281377958
BMu97,P27,PAT,REL,Weight_Unconstrained,1,R_ESI,FM,M1,76.6808371378244
BMu97,P27,PAT,REL,Weight_Unconstrained,1,R_ESI,FM,M2,80.50672233022794
BMu97,P27,PAT,REL,Weight_Unconstrained,1,R_ESI,FM,M3,64.15991960985495
BMu97,P28,PAT,INI,Weight_Unconstrained,1,L_ESI,FM,M1,29.742935122205456
BMu97,P28,PAT,INI,Weight_Unconstrained,1,L_ESI,FM,M2,29.32114340269023
BMu97,P28,PAT,INI,Weight_Unconstrained,1,L_ESI,FM,M3,30.04441474260766
BMu97,P28,PAT,INI,Weight_Unconstrained,1,R_ESI,FM,M1,33.55076430355413
BMu97,P28,PAT,INI,Weight_Unconstrained,1,R_ESI,FM,M2,35.62473428381723
BMu97,P28,PAT,INI,Weight_Unconstrained,1,R_ESI,FM,M3,33.5408507838998
BMu97,P28,PAT,REL,Weight_Unconstrained,1,L_ESI,FM,M1,31.636595701714775
BMu97,P28,PAT,REL,Weight_Unconstrained,1,L_ESI,FM,M2,33.962879818041365
BMu97,P28,PAT,REL,Weight_Unconstrained,1,L_ESI,FM,M3,34.808922029231326
BMu97,P28,PAT,REL,Weight_Unconstrained,1,R_ESI,FM,M1,36.78955636904307
BMu97,P28,PAT,REL,Weight_Unconstrained,1,R_ESI,FM,M2,37.094094046637764
BMu97,P28,PAT,REL,Weight_Unconstrained,1,R_ESI,FM,M3,34.910739729203556
BMu97,P29,PAT,INI,Weight_Unconstrained,1,L_ESI,FM,M1,45.13118007515531
BMu97,P29,PAT,INI,Weight_Unconstrained,1,L_ESI,FM,M2,
BMu97,P29,PAT,INI,Weight_Unconstrained,1,L_ESI,FM,M3,
BMu97,P29,PAT,INI,Weight_Unconstrained,1,R_ESI,FM,M1,44.10699238342248
BMu97,P29,PAT,INI,Weight_Unconstrained,1,R_ESI,FM,M2,
BMu97,P29,PAT,INI,Weight_Unconstrained,1,R_ESI,FM,M3,
BMu97,P29,PAT,REL,Weight_Unconstrained,1,L_ESI,FM,M1,
BMu97,P29,PAT,REL,Weight_Unconstrained,1,L_ESI,FM,M2,54.409324449532015
BMu97,P29,PAT,REL,Weight_Unconstrained,1,L_ESI,FM,M3,60.04449414876456
BMu97,P29,PAT,REL,Weight_Unconstrained,1,R_ESI,FM,M1,
BMu97,P29,PAT,REL,Weight_Unconstrained,1,R_ESI,FM,M2,43.413438814896004
BMu97,P29,PAT,REL,Weight_Unconstrained,1,R_ESI,FM,M3,42.16551639129876
BMu97,P30,PAT,INI,Weight_Unconstrained,1,L_ESI,FM,M1,29.179830327486556
BMu97,P30,PAT,INI,Weight_Unconstrained,1,L_ESI,FM,M2,32.01968491126108
BMu97,P30,PAT,INI,Weight_Unconstrained,1,L_ESI,FM,M3,35.50722207284406
BMu97,P30,PAT,INI,Weight_Unconstrained,1,R_ESI,FM,M1,32.20263403433155
BMu97,P30,PAT,INI,Weight_Unconstrained,1,R_ESI,FM,M2,34.53721289954571
BMu97,P30,PAT,INI,Weight_Unconstrained,1,R_ESI,FM,M3,36.95869146357329
BMu97,P30,PAT,REL,Weight_Unconstrained,1,L_ESI,FM,M1,49.18718824610046
BMu97,P30,PAT,REL,Weight_Unconstrained,1,L_ESI,FM,M2,49.664046779738094
BMu97,P30,PAT,REL,Weight_Unconstrained,1,L_ESI,FM,M3,49.719262538563825
BMu97,P30,PAT,REL,Weight_Unconstrained,1,R_ESI,FM,M1,45.60765016997504
BMu97,P30,PAT,REL,Weight_Unconstrained,1,R_ESI,FM,M2,47.90655393933718
BMu97,P30,PAT,REL,Weight_Unconstrained,1,R_ESI,FM,M3,46.2910506412642
BMu97,P32,PAT,INI,Weight_Unconstrained,1,L_ESI,FM,M1,23.553010989989104
BMu97,P32,PAT,INI,Weight_Unconstrained,1,L_ESI,FM,M2,24.867209489562065
BMu97,P32,PAT,INI,Weight_Unconstrained,1,L_ESI,FM,M3,24.732864847660355
BMu97,P32,PAT,INI,Weight_Unconstrained,1,R_ESI,FM,M1,49.2283260849363
BMu97,P32,PAT,INI,Weight_Unconstrained,1,R_ESI,FM,M2,53.56706960906634
BMu97,P32,PAT,INI,Weight_Unconstrained,1,R_ESI,FM,M3,53.45576473863704
BMu97,P32,PAT,REL,Weight_Unconstrained,1,L_ESI,FM,M1,35.23202579554005
BMu97,P32,PAT,REL,Weight_Unconstrained,1,L_ESI,FM,M2,37.81345913752376
BMu97,P32,PAT,REL,Weight_Unconstrained,1,L_ESI,FM,M3,33.47326644150431
BMu97,P32,PAT,REL,Weight_Unconstrained,1,R_ESI,FM,M1,52.534766109651656
BMu97,P32,PAT,REL,Weight_Unconstrained,1,R_ESI,FM,M2,56.523922892379176
BMu97,P32,PAT,REL,Weight_Unconstrained,1,R_ESI,FM,M3,56.338082904643066
BMu97,P33,PAT,INI,Weight_Unconstrained,1,L_ESI,FM,M1,61.8909051355123
BMu97,P33,PAT,INI,Weight_Unconstrained,1,L_ESI,FM,M2,80.32690408878759
BMu97,P33,PAT,INI,Weight_Unconstrained,1,L_ESI,FM,M3,73.81497730370559
BMu97,P33,PAT,INI,Weight_Unconstrained,1,R_ESI,FM,M1,42.41328884194073
BMu97,P33,PAT,INI,Weight_Unconstrained,1,R_ESI,FM,M2,56.231519899952744
BMu97,P33,PAT,INI,Weight_Unconstrained,1,R_ESI,FM,M3,58.496984128444794
BMu97,P33,PAT,REL,Weight_Unconstrained,1,L_ESI,FM,M1,33.50956741883029
BMu97,P34,PAT,INI,Weight_Unconstrained,1,L_ESI,FM,M1,52.04534587761282
BMu97,P34,PAT,INI,Weight_Unconstrained,1,L_ESI,FM,M2,46.022044217305414
BMu97,P34,PAT,INI,Weight_Unconstrained,1,L_ESI,FM,M3,48.38901770038681
BMu97,P34,PAT,INI,Weight_Unconstrained,1,R_ESI,FM,M1,41.84276899759247
BMu97,P34,PAT,INI,Weight_Unconstrained,1,R_ESI,FM,M2,42.049230440483
BMu97,P34,PAT,INI,Weight_Unconstrained,1,R_ESI,FM,M3,42.190080827529854
BMu97,P34,PAT,REL,Weight_Unconstrained,1,L_ESI,FM,M1,69.22405612751169
BMu97,P34,PAT,REL,Weight_Unconstrained,1,L_ESI,FM,M2,76.22954993179798
BMu97,P34,PAT,REL,Weight_Unconstrained,1,L_ESI,FM,M3,74.02160334596489
BMu97,P35,CTR,INI,Weight_Unconstrained,1,R_ESI,FM,M1,14.444238334509468
BMu97,P35,CTR,INI,Weight_Unconstrained,1,R_ESI,FM,M2,17.74414698442016
BMu97,P35,CTR,INI,Weight_Unconstrained,1,R_ESI,FM,M3,18.226136688424013
BMu97,P35,CTR,REL,Weight_Unconstrained,1,L_ESI,FM,M1,50.588214957178565
BMu97,P35,CTR,REL,Weight_Unconstrained,1,L_ESI,FM,M2,49.142204587652195
BMu97,P35,CTR,REL,Weight_Unconstrained,1,L_ESI,FM,M3,57.37957172467827
BMu97,P35,CTR,REL,Weight_Unconstrained,1,R_ESI,FM,M1,57.39576296038099
BMu97,P35,CTR,REL,Weight_Unconstrained,1,R_ESI,FM,M2,51.874868135464496
BMu97,P35,CTR,REL,Weight_Unconstrained,1,R_ESI,FM,M3,60.020296702125655
BMu97,P36,PAT,INI,Weight_Unconstrained,1,L_ESI,FM,M1,33.76312814290213
BMu97,P36,PAT,INI,Weight_Unconstrained,1,L_ESI,FM,M2,33.4861333842592
BMu97,P36,PAT,INI,Weight_Unconstrained,1,L_ESI,FM,M3,56.07519348478546
BMu97,P36,PAT,INI,Weight_Unconstrained,1,R_ESI,FM,M1,30.38804755488082
BMu97,P36,PAT,INI,Weight_Unconstrained,1,R_ESI,FM,M2,27.042953488108722
BMu97,P36,PAT,INI,Weight_Unconstrained,1,R_ESI,FM,M3,33.342352909298356
BMu97,P36,PAT,REL,Weight_Unconstrained,1,L_ESI,FM,M1,18.464820150568123
BMu97,P36,PAT,REL,Weight_Unconstrained,1,L_ESI,FM,M2,18.644385229533743
BMu97,P36,PAT,REL,Weight_Unconstrained,1,L_ESI,FM,M3,21.35830819474176
BMu97,P36,PAT,REL,Weight_Unconstrained,1,R_ESI,FM,M1,9.981859622670555
BMu97,P36,PAT,REL,Weight_Unconstrained,1,R_ESI,FM,M2,9.338593558371151
BMu97,P36,PAT,REL,Weight_Unconstrained,1,R_ESI,FM,M3,9.542148865890546
BMu97,P38,CTR,INI,Weight_Unconstrained,1,L_ESI,FM,M1,56.79714468377024
BMu97,P38,CTR,INI,Weight_Unconstrained,1,L_ESI,FM,M2,61.482103020334144
BMu97,P38,CTR,INI,Weight_Unconstrained,1,L_ESI,FM,M3,59.942807933188206
BMu97,P38,CTR,INI,Weight_Unconstrained,1,L_ESI,FM,M4,60.69140605780655
BMu97,P38,CTR,INI,Weight_Unconstrained,1,R_ESI,FM,M1,63.259015229653905
BMu97,P38,CTR,INI,Weight_Unconstrained,1,R_ESI,FM,M2,67.99777579053337
BMu97,P38,CTR,INI,Weight_Unconstrained,1,R_ESI,FM,M3,62.142648124617374
BMu97,P38,CTR,INI,Weight_Unconstrained,1,R_ESI,FM,M4,62.54559921684393
BMu97,P38,CTR,REL,Weight_Unconstrained,1,L_ESI,FM,M1,46.518588728100084
BMu97,P38,CTR,REL,Weight_Unconstrained,1,L_ESI,FM,M2,48.9044269951651
BMu97,P38,CTR,REL,Weight_Unconstrained,1,L_ESI,FM,M3,49.240354183683806
BMu97,P38,CTR,REL,Weight_Unconstrained,1,L_ESI,FM,M4,47.51055608973988
BMu97,P38,CTR,REL,Weight_Unconstrained,1,L_ESI,FM,M5,46.08448598387312
BMu97,P38,CTR,REL,Weight_Unconstrained,1,R_ESI,FM,M1,60.306730381845554
BMu97,P38,CTR,REL,Weight_Unconstrained,1,R_ESI,FM,M2,61.544435667369804
BMu97,P38,CTR,REL,Weight_Unconstrained,1,R_ESI,FM,M3,64.96407343032182
BMu97,P38,CTR,REL,Weight_Unconstrained,1,R_ESI,FM,M4,59.45386168036937
BMu97,P38,CTR,REL,Weight_Unconstrained,1,R_ESI,FM,M5,60.73252198150462
BMu97,P39,CTR,INI,Weight_Unconstrained,1,L_ESI,FM,M1,40.20056536070636
BMu97,P39,CTR,INI,Weight_Unconstrained,1,L_ESI,FM,M2,38.521259333267814
BMu97,P39,CTR,INI,Weight_Unconstrained,1,L_ESI,FM,M3,41.329585054603015
BMu97,P39,CTR,INI,Weight_Unconstrained,1,R_ESI,FM,M1,16.83344516458173
BMu97,P39,CTR,INI,Weight_Unconstrained,1,R_ESI,FM,M2,25.46247092488781
BMu97,P39,CTR,INI,Weight_Unconstrained,1,R_ESI,FM,M3,26.77445780750419
BMu97,P39,CTR,REL,Weight_Unconstrained,1,L_ESI,FM,M1,44.073073778113965
BMu97,P39,CTR,REL,Weight_Unconstrained,1,L_ESI,FM,M2,37.03422369721403
BMu97,P39,CTR,REL,Weight_Unconstrained,1,L_ESI,FM,M3,39.66282652976382
BMu97,P39,CTR,REL,Weight_Unconstrained,1,R_ESI,FM,M1,23.693527295114237
BMu97,P39,CTR,REL,Weight_Unconstrained,1,R_ESI,FM,M2,37.08717587293424
BMu97,P39,CTR,REL,Weight_Unconstrained,1,R_ESI,FM,M3,27.680289443572285
BMu97,P40,CTR,INI,Weight_Unconstrained,1,L_ESI,FM,M1,46.17132943233881
BMu97,P40,CTR,INI,Weight_Unconstrained,1,L_ESI,FM,M2,44.229322462230314
BMu97,P40,CTR,INI,Weight_Unconstrained,1,L_ESI,FM,M3,48.57153305755378
BMu97,P40,CTR,INI,Weight_Unconstrained,1,R_ESI,FM,M1,34.524419660182936
BMu97,P40,CTR,INI,Weight_Unconstrained,1,R_ESI,FM,M2,29.905303517340762
BMu97,P40,CTR,INI,Weight_Unconstrained,1,R_ESI,FM,M3,33.30785247099641
BMu97,P40,CTR,REL,Weight_Unconstrained,1,L_ESI,FM,M1,32.72364503987188
BMu97,P40,CTR,REL,Weight_Unconstrained,1,L_ESI,FM,M2,32.68436997426145
BMu97,P40,CTR,REL,Weight_Unconstrained,1,L_ESI,FM,M3,32.309476852402966
BMu97,P40,CTR,REL,Weight_Unconstrained,1,R_ESI,FM,M1,19.354363967934038
BMu97,P40,CTR,REL,Weight_Unconstrained,1,R_ESI,FM,M2,17.01824901378113
BMu97,P40,CTR,REL,Weight_Unconstrained,1,R_ESI,FM,M3,18.90489761181888
BMu97,P41,PAT,INI,Weight_Unconstrained,1,L_ESI,FM,M1,50.35381278362749
BMu97,P41,PAT,INI,Weight_Unconstrained,1,L_ESI,FM,M2,45.361770160230186
BMu97,P41,PAT,INI,Weight_Unconstrained,1,L_ESI,FM,M3,46.802647024824
BMu97,P41,PAT,INI,Weight_Unconstrained,1,L_ESI,FM,M4,50.60641627462018
BMu97,P41,PAT,INI,Weight_Unconstrained,1,R_ESI,FM,M1,18.334456759978018
BMu97,P41,PAT,INI,Weight_Unconstrained,1,R_ESI,FM,M2,18.96242850827461
BMu97,P41,PAT,INI,Weight_Unconstrained,1,R_ESI,FM,M3,17.276835752831364
BMu97,P41,PAT,INI,Weight_Unconstrained,1,R_ESI,FM,M4,19.741270049559105
BMu97,P41,PAT,REL,Weight_Unconstrained,1,L_ESI,FM,M1,38.63231769109086
BMu97,P41,PAT,REL,Weight_Unconstrained,1,L_ESI,FM,M2,35.8710228692929
BMu97,P41,PAT,REL,Weight_Unconstrained,1,L_ESI,FM,M3,36.651942215840364
BMu97,P41,PAT,REL,Weight_Unconstrained,1,R_ESI,FM,M1,17.065976300371315
BMu97,P41,PAT,REL,Weight_Unconstrained,1,R_ESI,FM,M2,14.37837993156673
BMu97,P41,PAT,REL,Weight_Unconstrained,1,R_ESI,FM,M3,13.68714534619226
BMu97,P42,PAT,INI,Weight_Unconstrained,1,L_ESI,FM,M1,73.1714706090896
BMu97,P42,PAT,INI,Weight_Unconstrained,1,L_ESI,FM,M2,89.4382738334545
BMu97,P42,PAT,INI,Weight_Unconstrained,1,L_ESI,FM,M3,75.42381346083079
BMu97,P42,PAT,INI,Weight_Unconstrained,1,R_ESI,FM,M1,49.246965543295914
BMu97,P42,PAT,INI,Weight_Unconstrained,1,R_ESI,FM,M2,62.364752276770886
BMu97,P42,PAT,INI,Weight_Unconstrained,1,R_ESI,FM,M3,56.11829132833101
BMu97,P42,PAT,REL,Weight_Unconstrained,1,L_ESI,FM,M1,80.55414426439003
BMu97,P42,PAT,REL,Weight_Unconstrained,1,L_ESI,FM,M2,79.1930145019021
BMu97,P42,PAT,REL,Weight_Unconstrained,1,L_ESI,FM,M3,86.11518653504925
BMu97,P42,PAT,REL,Weight_Unconstrained,1,R_ESI,FM,M1,75.29070815755743
BMu97,P42,PAT,REL,Weight_Unconstrained,1,R_ESI,FM,M2,75.7953319952585
BMu97,P42,PAT,REL,Weight_Unconstrained,1,R_ESI,FM,M3,75.56918582268172
BMu97,P43,PAT,INI,Weight_Unconstrained,1,L_ESI,FM,M1,24.314892585506165
BMu97,P43,PAT,INI,Weight_Unconstrained,1,L_ESI,FM,M2,27.622404802298966
BMu97,P43,PAT,INI,Weight_Unconstrained,1,L_ESI,FM,M3,26.343704115403707
BMu97,P43,PAT,INI,Weight_Unconstrained,1,R_ESI,FM,M1,35.233962205693736
BMu97,P43,PAT,INI,Weight_Unconstrained,1,R_ESI,FM,M2,38.793497558146406
BMu97,P43,PAT,INI,Weight_Unconstrained,1,R_ESI,FM,M3,37.163496069207184
BMu97,P43,PAT,REL,Weight_Unconstrained,1,L_ESI,FM,M1,32.090686957390204
BMu97,P43,PAT,REL,Weight_Unconstrained,1,L_ESI,FM,M2,28.77024434090866
BMu97,P43,PAT,REL,Weight_Unconstrained,1,L_ESI,FM,M3,34.15982617628955
BMu97,P43,PAT,REL,Weight_Unconstrained,1,L_ESI,FM,M4,32.65188186420929
BMu97,P43,PAT,REL,Weight_Unconstrained,1,R_ESI,FM,M1,32.86292019961902
BMu97,P43,PAT,REL,Weight_Unconstrained,1,R_ESI,FM,M2,33.54494416164775
BMu97,P43,PAT,REL,Weight_Unconstrained,1,R_ESI,FM,M3,28.43527957374623
BMu97,P43,PAT,REL,Weight_Unconstrained,1,R_ESI,FM,M4,33.62186065578615
BMu97,P44,CTR,INI,Weight_Unconstrained,1,L_ESI,FM,M1,27.703693797859863
BMu97,P44,CTR,INI,Weight_Unconstrained,1,L_ESI,FM,M2,25.951701223399684
BMu97,P44,CTR,INI,Weight_Unconstrained,1,L_ESI,FM,M3,26.19060985589843
BMu97,P44,CTR,INI,Weight_Unconstrained,1,R_ESI,FM,M1,36.16243195706877
BMu97,P44,CTR,INI,Weight_Unconstrained,1,R_ESI,FM,M2,38.63911725125355
BMu97,P44,CTR,INI,Weight_Unconstrained,1,R_ESI,FM,M3,42.10643501674393
BMu97,P44,CTR,REL,Weight_Unconstrained,1,L_ESI,FM,M1,22.0602238286107
BMu97,P44,CTR,REL,Weight_Unconstrained,1,L_ESI,FM,M2,23.816527773793045
BMu97,P44,CTR,REL,Weight_Unconstrained,1,L_ESI,FM,M3,26.28747958889407
BMu97,P44,CTR,REL,Weight_Unconstrained,1,R_ESI,FM,M1,40.731889784379305
BMu97,P44,CTR,REL,Weight_Unconstrained,1,R_ESI,FM,M2,44.673068063786744
BMu97,P44,CTR,REL,Weight_Unconstrained,1,R_ESI,FM,M3,41.71510893436854
BMu97,P45,PAT,INI,Weight_Unconstrained,1,L_ESI,FM,M1,40.828755088171874
BMu97,P45,PAT,INI,Weight_Unconstrained,1,L_ESI,FM,M2,42.34493040961745
BMu97,P45,PAT,INI,Weight_Unconstrained,1,L_ESI,FM,M3,40.12671776967515
BMu97,P45,PAT,INI,Weight_Unconstrained,1,R_ESI,FM,M1,29.258380591295207
BMu97,P45,PAT,INI,Weight_Unconstrained,1,R_ESI,FM,M2,29.17020201528979
BMu97,P45,PAT,INI,Weight_Unconstrained,1,R_ESI,FM,M3,30.432601352108875
BMu97,P45,PAT,REL,Weight_Unconstrained,1,L_ESI,FM,M1,47.60962592638617
BMu97,P45,PAT,REL,Weight_Unconstrained,1,L_ESI,FM,M2,47.254789906018416
BMu97,P45,PAT,REL,Weight_Unconstrained,1,L_ESI,FM,M3,47.85226395761284
BMu97,P46,CTR,INI,Weight_Unconstrained,1,L_ESI,FM,M1,32.53626560235293
BMu97,P46,CTR,INI,Weight_Unconstrained,1,L_ESI,FM,M2,35.8313257275981
BMu97,P46,CTR,INI,Weight_Unconstrained,1,L_ESI,FM,M3,38.67778371364422
BMu97,P46,CTR,INI,Weight_Unconstrained,1,R_ESI,FM,M1,37.081808414391546
BMu97,P46,CTR,INI,Weight_Unconstrained,1,R_ESI,FM,M2,38.988296787788585
BMu97,P46,CTR,INI,Weight_Unconstrained,1,R_ESI,FM,M3,39.7134041277465
BMu97,P46,CTR,REL,Weight_Unconstrained,1,L_ESI,FM,M1,23.09786849983891
BMu97,P46,CTR,REL,Weight_Unconstrained,1,L_ESI,FM,M2,21.73543683659372
BMu97,P46,CTR,REL,Weight_Unconstrained,1,L_ESI,FM,M3,29.824787215387705
BMu97,P46,CTR,REL,Weight_Unconstrained,1,R_ESI,FM,M1,21.5913992240081
BMu97,P46,CTR,REL,Weight_Unconstrained,1,R_ESI,FM,M2,17.98058887423022
BMu97,P46,CTR,REL,Weight_Unconstrained,1,R_ESI,FM,M3,19.05341592349408
BMu97,P47,PAT,INI,Weight_Unconstrained,1,L_ESI,FM,M1,105.43569580916918
BMu97,P47,PAT,INI,Weight_Unconstrained,1,L_ESI,FM,M2,118.94795619605023
BMu97,P47,PAT,INI,Weight_Unconstrained,1,L_ESI,FM,M3,127.16208775639868
BMu97,P47,PAT,REL,Weight_Unconstrained,1,L_ESI,FM,M1,40.82279374911159
BMu97,P47,PAT,REL,Weight_Unconstrained,1,L_ESI,FM,M2,41.3497426685327
BMu97,P47,PAT,REL,Weight_Unconstrained,1,L_ESI,FM,M3,46.88119635937241
BMu97,P47,PAT,REL,Weight_Unconstrained,1,R_ESI,FM,M1,38.68338290760882
BMu97,P47,PAT,REL,Weight_Unconstrained,1,R_ESI,FM,M2,38.204767029122074
BMu97,P47,PAT,REL,Weight_Unconstrained,1,R_ESI,FM,M3,33.28469546175593
BMu97,P48,CTR,INI,Weight_Unconstrained,1,L_ESI,FM,M1,45.3566377325357
BMu97,P48,CTR,INI,Weight_Unconstrained,1,L_ESI,FM,M2,43.18894934462955
BMu97,P48,CTR,INI,Weight_Unconstrained,1,L_ESI,FM,M3,47.30627350905238
BMu97,P48,CTR,INI,Weight_Unconstrained,1,R_ESI,FM,M1,59.325568864898216
BMu97,P48,CTR,INI,Weight_Unconstrained,1,R_ESI,FM,M2,57.69507877553541
BMu97,P48,CTR,INI,Weight_Unconstrained,1,R_ESI,FM,M3,55.18118831303933
BMu97,P48,CTR,REL,Weight_Unconstrained,1,L_ESI,FM,M1,62.896701068073114
BMu97,P48,CTR,REL,Weight_Unconstrained,1,L_ESI,FM,M2,56.80486940703432
BMu97,P48,CTR,REL,Weight_Unconstrained,1,L_ESI,FM,M3,62.916651219963754
BMu97,P48,CTR,REL,Weight_Unconstrained,1,R_ESI,FM,M1,56.96919754208989
BMu97,P48,CTR,REL,Weight_Unconstrained,1,R_ESI,FM,M2,55.100464856329
BMu97,P48,CTR,REL,Weight_Unconstrained,1,R_ESI,FM,M3,70.6533630184619
BMu97,P49,CTR,INI,Weight_Unconstrained,1,R_ESI,FM,M1,50.64168524598235
BMu97,P49,CTR,INI,Weight_Unconstrained,1,R_ESI,FM,M2,53.593732013314835
BMu97,P49,CTR,INI,Weight_Unconstrained,1,R_ESI,FM,M3,55.13861605836303
BMu97,P49,CTR,REL,Weight_Unconstrained,1,L_ESI,FM,M1,4.27412898005451
BMu97,P49,CTR,REL,Weight_Unconstrained,1,L_ESI,FM,M2,4.040539850661438
BMu97,P49,CTR,REL,Weight_Unconstrained,1,L_ESI,FM,M3,4.681078334235273
BMu97,P50,PAT,INI,Weight_Unconstrained,1,L_ESI,FM,M1,66.79284975844774
BMu97,P50,PAT,INI,Weight_Unconstrained,1,L_ESI,FM,M2,77.43423806944726
BMu97,P50,PAT,INI,Weight_Unconstrained,1,L_ESI,FM,M3,79.38069655623362
BMu97,P50,PAT,INI,Weight_Unconstrained,1,R_ESI,FM,M1,62.56847526611341
BMu97,P50,PAT,INI,Weight_Unconstrained,1,R_ESI,FM,M2,81.74259143025739
BMu97,P50,PAT,INI,Weight_Unconstrained,1,R_ESI,FM,M3,87.08949730707374
BMu97,P50,PAT,REL,Weight_Unconstrained,1,L_ESI,FM,M1,78.88823827328831
BMu97,P50,PAT,REL,Weight_Unconstrained,1,L_ESI,FM,M2,85.96239424328914
BMu97,P50,PAT,REL,Weight_Unconstrained,1,L_ESI,FM,M3,91.30265688743908
BMu97,P50,PAT,REL,Weight_Unconstrained,1,R_ESI,FM,M1,66.74627444226454
BMu97,P50,PAT,REL,Weight_Unconstrained,1,R_ESI,FM,M2,59.14558320416514
BMu97,P50,PAT,REL,Weight_Unconstrained,1,R_ESI,FM,M3,57.48346296236295
BMu97,P51,PAT,INI,Weight_Unconstrained,1,L_ESI,FM,M1,64.84104835116352
BMu97,P51,PAT,INI,Weight_Unconstrained,1,L_ESI,FM,M2,
BMu97,P51,PAT,INI,Weight_Unconstrained,1,L_ESI,FM,M3,54.896478901919956
BMu97,P51,PAT,INI,Weight_Unconstrained,1,L_ESI,FM,M4,53.87090588483451
BMu97,P51,PAT,INI,Weight_Unconstrained,1,R_ESI,FM,M1,113.9389595026414
BMu97,P51,PAT,INI,Weight_Unconstrained,1,R_ESI,FM,M2,
BMu97,P51,PAT,INI,Weight_Unconstrained,1,R_ESI,FM,M3,
BMu97,P51,PAT,INI,Weight_Unconstrained,1,R_ESI,FM,M4,82.39610996527202
BMu97,P51,PAT,REL,Weight_Unconstrained,1,L_ESI,FM,M1,28.547212532369677
BMu97,P51,PAT,REL,Weight_Unconstrained,1,L_ESI,FM,M2,22.816665859665573
BMu97,P51,PAT,REL,Weight_Unconstrained,1,L_ESI,FM,M3,30.301023699354168
BMu97,P52,CTR,INI,Weight_Unconstrained,1,L_ESI,FM,M1,19.416629906322044
BMu97,P52,CTR,INI,Weight_Unconstrained,1,L_ESI,FM,M2,23.166622404571495
BMu97,P52,CTR,INI,Weight_Unconstrained,1,L_ESI,FM,M3,22.395569078116672
BMu97,P52,CTR,INI,Weight_Unconstrained,1,R_ESI,FM,M1,46.32839028496808
BMu97,P52,CTR,INI,Weight_Unconstrained,1,R_ESI,FM,M2,39.51764233531525
BMu97,P52,CTR,INI,Weight_Unconstrained,1,R_ESI,FM,M3,44.45923656374019
BMu97,P52,CTR,REL,Weight_Unconstrained,1,L_ESI,FM,M1,18.955759287725574
BMu97,P52,CTR,REL,Weight_Unconstrained,1,L_ESI,FM,M2,20.45567097944218
BMu97,P52,CTR,REL,Weight_Unconstrained,1,L_ESI,FM,M3,24.132806470473618
BMu97,P52,CTR,REL,Weight_Unconstrained,1,R_ESI,FM,M1,36.32703602395551
BMu97,P52,CTR,REL,Weight_Unconstrained,1,R_ESI,FM,M2,39.72050845414421
BMu97,P52,CTR,REL,Weight_Unconstrained,1,R_ESI,FM,M3,38.95384606119653
BMu97,P53,PAT,INI,Weight_Unconstrained,1,L_ESI,FM,M1,40.838562898263596
BMu97,P53,PAT,INI,Weight_Unconstrained,1,L_ESI,FM,M2,40.14444197381902
BMu97,P53,PAT,INI,Weight_Unconstrained,1,L_ESI,FM,M3,39.7253897542881
BMu97,P53,PAT,INI,Weight_Unconstrained,1,R_ESI,FM,M1,30.946193416526317
BMu97,P53,PAT,INI,Weight_Unconstrained,1,R_ESI,FM,M2,28.522721644346937
BMu97,P53,PAT,INI,Weight_Unconstrained,1,R_ESI,FM,M3,28.97166254800791
BMu97,P53,PAT,REL,Weight_Unconstrained,1,L_ESI,FM,M1,41.08542178401309
BMu97,P53,PAT,REL,Weight_Unconstrained,1,L_ESI,FM,M2,40.07908831638595
BMu97,P53,PAT,REL,Weight_Unconstrained,1,L_ESI,FM,M3,40.43019975866503
BMu97,P53,PAT,REL,Weight_Unconstrained,1,R_ESI,FM,M1,26.813052200773527
BMu97,P53,PAT,REL,Weight_Unconstrained,1,R_ESI,FM,M2,25.513024513280435
BMu97,P53,PAT,REL,Weight_Unconstrained,1,R_ESI,FM,M3,28.095335715789474
BMu97,P54,PAT,INI,Weight_Unconstrained,1,L_ESI,FM,M1,73.97570029065966
BMu97,P54,PAT,INI,Weight_Unconstrained,1,L_ESI,FM,M2,66.50131776835175
BMu97,P54,PAT,INI,Weight_Unconstrained,1,L_ESI,FM,M3,78.76049072484133
BMu97,P54,PAT,INI,Weight_Unconstrained,1,R_ESI,FM,M1,59.37392696255644
BMu97,P54,PAT,INI,Weight_Unconstrained,1,R_ESI,FM,M2,57.29181955208831
BMu97,P54,PAT,INI,Weight_Unconstrained,1,R_ESI,FM,M3,66.91255657042191
BMu97,P54,PAT,REL,Weight_Unconstrained,1,L_ESI,FM,M1,68.25632311195814
BMu97,P54,PAT,REL,Weight_Unconstrained,1,L_ESI,FM,M2,69.48348634493685
BMu97,P54,PAT,REL,Weight_Unconstrained,1,L_ESI,FM,M3,71.95982548700636
BMu97,P54,PAT,REL,Weight_Unconstrained,1,R_ESI,FM,M1,65.31053889689268
BMu97,P54,PAT,REL,Weight_Unconstrained,1,R_ESI,FM,M2,75.56759111640986
BMu97,P54,PAT,REL,Weight_Unconstrained,1,R_ESI,FM,M3,67.25236933486678
BMu97,P55,CTR,INI,Weight_Unconstrained,1,L_ESI,FM,M1,33.833347179102375
BMu97,P55,CTR,INI,Weight_Unconstrained,1,L_ESI,FM,M2,40.44625857333513
BMu97,P55,CTR,INI,Weight_Unconstrained,1,L_ESI,FM,M3,43.13622549661897
BMu97,P55,CTR,INI,Weight_Unconstrained,1,R_ESI,FM,M1,33.58462409984189
BMu97,P55,CTR,INI,Weight_Unconstrained,1,R_ESI,FM,M2,44.335540184940186
BMu97,P55,CTR,INI,Weight_Unconstrained,1,R_ESI,FM,M3,46.53992061692309
BMu97,P55,CTR,REL,Weight_Unconstrained,1,L_ESI,FM,M1,33.467271992954224
BMu97,P55,CTR,REL,Weight_Unconstrained,1,L_ESI,FM,M2,37.89387219055593
BMu97,P55,CTR,REL,Weight_Unconstrained,1,L_ESI,FM,M3,38.469449048595195
BMu97,P55,CTR,REL,Weight_Unconstrained,1,R_ESI,FM,M1,35.375360131269716
BMu97,P55,CTR,REL,Weight_Unconstrained,1,R_ESI,FM,M2,37.958772854984275
BMu97,P55,CTR,REL,Weight_Unconstrained,1,R_ESI,FM,M3,35.24952961486234
BMu97,P56,CTR,INI,Weight_Unconstrained,1,L_ESI,FM,M1,42.103285814319406
BMu97,P56,CTR,INI,Weight_Unconstrained,1,L_ESI,FM,M2,47.244026513865535
BMu97,P56,CTR,INI,Weight_Unconstrained,1,L_ESI,FM,M3,42.913754980615096
BMu97,P56,CTR,INI,Weight_Unconstrained,1,R_ESI,FM,M1,6.9011217742524655
BMu97,P56,CTR,INI,Weight_Unconstrained,1,R_ESI,FM,M2,6.970162949909664
BMu97,P56,CTR,INI,Weight_Unconstrained,1,R_ESI,FM,M3,6.596614666712039
BMu97,P56,CTR,REL,Weight_Unconstrained,1,L_ESI,FM,M1,43.50471047851177
BMu97,P56,CTR,REL,Weight_Unconstrained,1,L_ESI,FM,M2,42.38646564888035
BMu97,P56,CTR,REL,Weight_Unconstrained,1,L_ESI,FM,M3,39.738197068288414
BMu97,P56,CTR,REL,Weight_Unconstrained,1,R_ESI,FM,M1,51.50230576340894
BMu97,P56,CTR,REL,Weight_Unconstrained,1,R_ESI,FM,M2,53.59089046884442
BMu97,P56,CTR,REL,Weight_Unconstrained,1,R_ESI,FM,M3,49.98008443049328
BMu97,P57,CTR,INI,Weight_Unconstrained,1,L_ESI,FM,M1,19.71116394328378
BMu97,P57,CTR,INI,Weight_Unconstrained,1,L_ESI,FM,M2,21.795501066903284
BMu97,P57,CTR,INI,Weight_Unconstrained,1,L_ESI,FM,M3,22.18854724628547
BMu97,P57,CTR,INI,Weight_Unconstrained,1,R_ESI,FM,M1,16.902614775363396
BMu97,P57,CTR,INI,Weight_Unconstrained,1,R_ESI,FM,M2,18.917779537539566
BMu97,P57,CTR,INI,Weight_Unconstrained,1,R_ESI,FM,M3,19.600949670628083
BMu97,P57,CTR,REL,Weight_Unconstrained,1,L_ESI,FM,M1,39.57349440636234
BMu97,P57,CTR,REL,Weight_Unconstrained,1,L_ESI,FM,M2,40.443123631748605
BMu97,P57,CTR,REL,Weight_Unconstrained,1,L_ESI,FM,M3,42.342280219395846
BMu97,P57,CTR,REL,Weight_Unconstrained,1,R_ESI,FM,M1,39.16493130114617
BMu97,P57,CTR,REL,Weight_Unconstrained,1,R_ESI,FM,M2,42.32145001426786
BMu97,P57,CTR,REL,Weight_Unconstrained,1,R_ESI,FM,M3,41.18710928516932
BMu97,P58,PAT,INI,Weight_Unconstrained,1,L_ESI,FM,M1,40.91734141869769
BMu97,P58,PAT,INI,Weight_Unconstrained,1,L_ESI,FM,M2,51.93142198866819
BMu97,P58,PAT,INI,Weight_Unconstrained,1,L_ESI,FM,M3,55.72963857360277
BMu97,P58,PAT,INI,Weight_Unconstrained,1,R_ESI,FM,M1,43.03024929703156
BMu97,P58,PAT,INI,Weight_Unconstrained,1,R_ESI,FM,M2,53.84644225424822
BMu97,P58,PAT,INI,Weight_Unconstrained,1,R_ESI,FM,M3,55.569968531422425
BMu97,P58,PAT,REL,Weight_Unconstrained,1,L_ESI,FM,M1,44.22744055035388
BMu97,P58,PAT,REL,Weight_Unconstrained,1,L_ESI,FM,M2,53.73204239466378
BMu97,P58,PAT,REL,Weight_Unconstrained,1,L_ESI,FM,M3,56.768063537330555
BMu97,P58,PAT,REL,Weight_Unconstrained,1,R_ESI,FM,M1,41.38111002074519
BMu97,P58,PAT,REL,Weight_Unconstrained,1,R_ESI,FM,M2,46.48989118442758
BMu97,P58,PAT,REL,Weight_Unconstrained,1,R_ESI,FM,M3,48.025995114942006
BMu97,P60,CTR,INI,Weight_Unconstrained,1,L_ESI,FM,M1,19.641986017005085
BMu97,P60,CTR,INI,Weight_Unconstrained,1,R_ESI,FM,M1,31.848842901123188
BMu97,P60,CTR,REL,Weight_Unconstrained,1,L_ESI,FM,M1,44.776146382374364
BMu97,P60,CTR,REL,Weight_Unconstrained,1,L_ESI,FM,M2,48.895705188660926
BMu97,P60,CTR,REL,Weight_Unconstrained,1,L_ESI,FM,M3,51.487012496671916
BMu97,P60,CTR,REL,Weight_Unconstrained,1,R_ESI,FM,M1,53.213738505193575
BMu97,P60,CTR,REL,Weight_Unconstrained,1,R_ESI,FM,M2,54.55015732414404
BMu97,P60,CTR,REL,Weight_Unconstrained,1,R_ESI,FM,M3,50.72660696755856
BMu97,P61,PAT,REL,Weight_Unconstrained,1,L_ESI,FM,M1,36.50556217206872
BMu97,P61,PAT,REL,Weight_Unconstrained,1,L_ESI,FM,M2,32.821751830955456
BMu97,P61,PAT,REL,Weight_Unconstrained,1,L_ESI,FM,M3,36.41774494327993
BMu97,P61,PAT,REL,Weight_Unconstrained,1,R_ESI,FM,M1,5.045316969323462
BMu97,P61,PAT,REL,Weight_Unconstrained,1,R_ESI,FM,M2,5.216538751946038
BMu97,P61,PAT,REL,Weight_Unconstrained,1,R_ESI,FM,M3,5.235101865862981
BMu97,P62,PAT,INI,Weight_Unconstrained,1,L_ESI,FM,M1,111.83182840285266
BMu97,P62,PAT,INI,Weight_Unconstrained,1,L_ESI,FM,M2,85.55835386124835
BMu97,P62,PAT,INI,Weight_Unconstrained,1,L_ESI,FM,M3,76.30759633951828
BMu97,P62,PAT,INI,Weight_Unconstrained,1,L_ESI,FM,M4,71.45023884806449
BMu97,P62,PAT,INI,Weight_Unconstrained,1,R_ESI,FM,M1,100.91665704310859
BMu97,P62,PAT,INI,Weight_Unconstrained,1,R_ESI,FM,M2,78.5624033674283
BMu97,P62,PAT,INI,Weight_Unconstrained,1,R_ESI,FM,M3,90.07230424231601
BMu97,P62,PAT,INI,Weight_Unconstrained,1,R_ESI,FM,M4,89.908510225993
BMu97,P62,PAT,REL,Weight_Unconstrained,1,L_ESI,FM,M1,48.654979780111944
BMu97,P62,PAT,REL,Weight_Unconstrained,1,L_ESI,FM,M2,40.915864782492136
BMu97,P62,PAT,REL,Weight_Unconstrained,1,L_ESI,FM,M3,48.619992952029776
BMu97,P62,PAT,REL,Weight_Unconstrained,1,R_ESI,FM,M1,46.07716550072897
BMu97,P62,PAT,REL,Weight_Unconstrained,1,R_ESI,FM,M2,34.68826088982681
BMu97,P62,PAT,REL,Weight_Unconstrained,1,R_ESI,FM,M3,44.86514622512492
BMu97,P63,PAT,INI,Weight_Unconstrained,1,L_ESI,FM,M1,64.19596410099655
BMu97,P63,PAT,INI,Weight_Unconstrained,1,L_ESI,FM,M2,69.06532165388671
BMu97,P63,PAT,INI,Weight_Unconstrained,1,L_ESI,FM,M3,61.54412504231273
BMu97,P63,PAT,REL,Weight_Unconstrained,1,L_ESI,FM,M1,39.54926120128087
BMu97,P63,PAT,REL,Weight_Unconstrained,1,L_ESI,FM,M2,40.10192483133796
BMu97,P63,PAT,REL,Weight_Unconstrained,1,L_ESI,FM,M3,43.83440830058538
BMu97,P63,PAT,REL,Weight_Unconstrained,1,R_ESI,FM,M1,31.934805287865842
BMu97,P63,PAT,REL,Weight_Unconstrained,1,R_ESI,FM,M2,33.12867003730932
BMu97,P63,PAT,REL,Weight_Unconstrained,1,R_ESI,FM,M3,34.007071757979645
BMu97,P64,CTR,INI,Weight_Unconstrained,1,L_ESI,FM,M1,41.94227357338632
BMu97,P64,CTR,INI,Weight_Unconstrained,1,L_ESI,FM,M2,52.71755261005072
BMu97,P64,CTR,INI,Weight_Unconstrained,1,L_ESI,FM,M3,48.33771837546837
BMu97,P64,CTR,INI,Weight_Unconstrained,1,R_ESI,FM,M1,50.28731651654799
BMu97,P64,CTR,INI,Weight_Unconstrained,1,R_ESI,FM,M2,52.3523298860717
BMu97,P64,CTR,INI,Weight_Unconstrained,1,R_ESI,FM,M3,53.41610111218064
BMu97,P64,CTR,REL,Weight_Unconstrained,1,L_ESI,FM,M1,32.11883127452129
BMu97,P64,CTR,REL,Weight_Unconstrained,1,L_ESI,FM,M2,31.209883733328518
BMu97,P64,CTR,REL,Weight_Unconstrained,1,L_ESI,FM,M3,32.23352046308046
BMu97,P64,CTR,REL,Weight_Unconstrained,1,R_ESI,FM,M1,44.7486793172845
BMu97,P64,CTR,REL,Weight_Unconstrained,1,R_ESI,FM,M2,47.13476488055323
BMu97,P64,CTR,REL,Weight_Unconstrained,1,R_ESI,FM,M3,46.87685178250748
BMu97,P65,PAT,INI,Weight_Unconstrained,1,L_ESI,FM,M1,
BMu97,P65,PAT,INI,Weight_Unconstrained,1,L_ESI,FM,M2,75.61249188302634
BMu97,P65,PAT,INI,Weight_Unconstrained,1,L_ESI,FM,M3,83.77090796674148
BMu97,P65,PAT,INI,Weight_Unconstrained,1,L_ESI,FM,M4,82.6962203838407
BMu97,P65,PAT,INI,Weight_Unconstrained,1,R_ESI,FM,M1,
BMu97,P65,PAT,INI,Weight_Unconstrained,1,R_ESI,FM,M2,66.1592531595777
BMu97,P65,PAT,INI,Weight_Unconstrained,1,R_ESI,FM,M3,80.41238564153528
BMu97,P65,PAT,INI,Weight_Unconstrained,1,R_ESI,FM,M4,71.78833042667827
BMu97,P65,PAT,REL,Weight_Unconstrained,1,L_ESI,FM,M1,57.98701216725515
BMu97,P65,PAT,REL,Weight_Unconstrained,1,L_ESI,FM,M2,62.19835239777061
BMu97,P65,PAT,REL,Weight_Unconstrained,1,L_ESI,FM,M3,66.39541382539332
BMu97,P65,PAT,REL,Weight_Unconstrained,1,R_ESI,FM,M1,71.92146442698004
BMu97,P65,PAT,REL,Weight_Unconstrained,1,R_ESI,FM,M2,79.0764084818585
BMu97,P65,PAT,REL,Weight_Unconstrained,1,R_ESI,FM,M3,79.00980737590379
BMu97,P66,CTR,INI,Weight_Unconstrained,1,L_ESI,FM,M1,36.08401399066092
BMu97,P66,CTR,INI,Weight_Unconstrained,1,L_ESI,FM,M2,37.47949923137246
BMu97,P66,CTR,INI,Weight_Unconstrained,1,L_ESI,FM,M3,37.93544962746392
BMu97,P66,CTR,INI,Weight_Unconstrained,1,R_ESI,FM,M1,47.793506004487234
BMu97,P66,CTR,INI,Weight_Unconstrained,1,R_ESI,FM,M2,44.938603635798586
BMu97,P66,CTR,INI,Weight_Unconstrained,1,R_ESI,FM,M3,50.86691176073871
BMu97,P66,CTR,REL,Weight_Unconstrained,1,L_ESI,FM,M1,27.377000071899825
BMu97,P66,CTR,REL,Weight_Unconstrained,1,L_ESI,FM,M2,23.817526325122316
BMu97,P66,CTR,REL,Weight_Unconstrained,1,L_ESI,FM,M3,25.69759527224263
BMu97,P66,CTR,REL,Weight_Unconstrained,1,R_ESI,FM,M1,71.3594225564886
BMu97,P66,CTR,REL,Weight_Unconstrained,1,R_ESI,FM,M2,71.39823423862809
BMu97,P66,CTR,REL,Weight_Unconstrained,1,R_ESI,FM,M3,73.93291537779263
BMu97,P67,CTR,INI,Weight_Unconstrained,1,L_ESI,FM,M1,25.56144794892152
BMu97,P67,CTR,INI,Weight_Unconstrained,1,L_ESI,FM,M2,25.49590192272759
BMu97,P67,CTR,INI,Weight_Unconstrained,1,L_ESI,FM,M3,33.70701458840171
BMu97,P67,CTR,INI,Weight_Unconstrained,1,R_ESI,FM,M1,46.037533248375006
BMu97,P67,CTR,INI,Weight_Unconstrained,1,R_ESI,FM,M2,44.18439689131472
BMu97,P67,CTR,INI,Weight_Unconstrained,1,R_ESI,FM,M3,43.83251974638012
BMu97,P67,CTR,REL,Weight_Unconstrained,1,L_ESI,FM,M1,65.17248079678276
BMu97,P67,CTR,REL,Weight_Unconstrained,1,L_ESI,FM,M2,41.534715964893074
BMu97,P67,CTR,REL,Weight_Unconstrained,1,L_ESI,FM,M3,44.99516162559133
BMu97,P67,CTR,REL,Weight_Unconstrained,1,R_ESI,FM,M1,46.59010926784928
BMu97,P67,CTR,REL,Weight_Unconstrained,1,R_ESI,FM,M2,57.58612529408009
BMu97,P67,CTR,REL,Weight_Unconstrained,1,R_ESI,FM,M3,53.40207722711077
BMu97,P68,CTR,INI,Weight_Unconstrained,1,L_ESI,FM,M1,54.770254223914904
BMu97,P68,CTR,INI,Weight_Unconstrained,1,L_ESI,FM,M2,61.21994941233069
BMu97,P68,CTR,INI,Weight_Unconstrained,1,L_ESI,FM,M3,64.22313885871452
BMu97,P68,CTR,INI,Weight_Unconstrained,1,R_ESI,FM,M1,50.77290428956961
BMu97,P68,CTR,INI,Weight_Unconstrained,1,R_ESI,FM,M2,48.73950077779946
BMu97,P68,CTR,INI,Weight_Unconstrained,1,R_ESI,FM,M3,58.57174408346641
BMu97,P68,CTR,REL,Weight_Unconstrained,1,L_ESI,FM,M1,50.391166393141674
BMu97,P68,CTR,REL,Weight_Unconstrained,1,L_ESI,FM,M2,46.49353263948134
BMu97,P68,CTR,REL,Weight_Unconstrained,1,L_ESI,FM,M3,67.64547367908303
