"","Biomarkers","Unit","MDC_intra","MDC_testretest","MDCp_intra","MDCp_testretest"
"1","Control_BMo1.csv","V","0.00704156339476556","0.00747304844390425","133.515587665463","141.697006574144"
"2","Control_BMo100.csv","%MAX","18.7343882551727","19.76944764827","56.4651424646233","59.5847946942309"
"3","Control_BMo101.csv","%MAX","18.8631300362005","21.7817668572533","56.4953283998073","65.2366849704672"
"4","Control_BMo102.csv","%MAX","29.0891804882486","39.6481708780877","96.0665143704823","130.937397117868"
"5","Control_BMo103.csv","%MAX","41.7933412984996","36.7810533497495","160.245788019769","141.027462631693"
"6","Control_BMo104.csv","%MAX","45.4002412796657","42.0632764961953","155.964631171509","144.501069150322"
"7","Control_BMo105.csv","%MAX","20.0591186702584","24.5476403367646","82.1585761605884","100.542761191254"
"8","Control_BMo106.csv","%MAX","37.7944900130213","28.1762653671929","143.959092006738","107.323304984523"
"9","Control_BMo107.csv","%MAX","23.8012279016069","30.2669259308564","125.531249118448","159.632311189265"
"10","Control_BMo108.csv","%MAX","20.410722913769","22.010414779788","68.3017284355131","73.6548812794835"
"11","Control_BMo109.csv","%MAX","131.993287721884","97.8379748806411","121.114473363689","89.7742226680975"
"12","Control_BMo110.csv","%subMVIC","4.68162713303203","19.7991275800148","36.6463601344337","154.981577777833"
"13","Control_BMo111.csv","%subMVIC","15.5563609109552","67.7733731455457","34.4575598626264","150.118981914991"
"14","Control_BMo112.csv","%subMVIC","13.0529433692873","29.4927010802518","47.7702859167844","107.935407609051"
"15","Control_BMo113.csv","%subMVIC","6.24835650279611","19.8081570169103","33.5699992674706","106.421555212167"
"16","Control_BMo114.csv","V","0.01840722845059","0.020532032732702","82.3040807212205","91.804699655851"
"17","Control_BMo115.csv","V","0.00615659069579818","0.00937957478797654","45.2850875967966","68.9918961453966"
"18","Control_BMo117.csv","Hz","12.6749223096119","20.3190263681117","11.3890643946977","18.2576819085112"
"19","Control_BMo118.csv","Hz","13.0642829021452","21.697582658055","14.0584767016981","23.3487718052513"
"20","Control_BMo15.csv","V","0.00854802524802714","0.00819086761161471","188.203780636676","180.340161203452"
"21","Control_BMo22.csv","V","0.0136880694213542","0.0218571151082504","95.141885676962","151.92260375398"
"22","Control_BMo23.csv","V","0.0023404239250061","0.00378099167132712","58.8738338953549","95.1116048845096"
"23","Control_BMo24.csv","V","0.00582864857858731","0.0110330531373175","57.3590377893187","108.57496438537"
"24","Control_BMo29.csv","Hz","15.256492284367","55.9726613930826","20.8024913507919","76.3196928106147"
"25","Control_BMo34.csv","%MAX","1.82029192525601","6.90345214525159","32.5343142218549","123.386297655287"
"26","Control_BMo35.csv","NAN","0.622405548781235","0.678298606151271","119.871501015827","130.636161929326"
"27","Control_BMo36.csv","%SubMVIC","1.95629765778672","6.01305115283248","37.2248521298326","114.417629199918"
"28","Control_BMo37.csv","Hz","34.10787545225","55.3037175169435","38.579605242314","62.5543386079"
"29","Control_BMo38.csv","Hz","14.4519154202358","59.0484151896139","15.4707199429439","63.2111016366777"
"30","Control_BMo40.csv","Hz","28.0983353228087","42.2653016666727","49.0936668992564","73.8463192777074"
"31","Control_BMo41.csv","NAN","0.241741940696824","1.83388900956624","17.6399586611938","133.819254634581"
"32","Control_BMo42.csv","NAN","9.63314882994399","12.3515646958358","134.843046124007","172.894931593611"
"33","Control_BMo43.csv","NAN","2.83491746224047","2.80582405436696","171.803129420235","170.039995718904"
"34","Control_BMo44.csv","NAN","12.6856697013489","13.9999209024754","90.1139032493941","99.4498160054324"
"35","Control_BMo51.csv","Hz","47.3050233650349","60.7074456110364","40.1604008687508","51.5386142533683"
"36","Control_BMo52.csv","Hz","23.9955870460375","46.467765410557","29.3252667073292","56.788759172417"
"37","Control_BMo53.csv","Hz","45.5705837691842","59.2583531318188","52.766218810952","68.6152989298473"
"38","Control_BMo67.csv","%subMVIC","2.76325873682221","13.8208070397503","17.177410398241","85.9151086335511"
"39","Control_BMo68.csv","%subMVIC","1.92138571586963","5.59996101580641","26.720067961566","77.8767832448173"
"40","Control_BMo69.csv","V","0.011945333597144","0.0201888754707775","58.9334580912778","99.6037688517597"
"41","Control_BMo81.csv","V","0.00238291397513931","0.00413461125440294","47.9382751553246","83.178047567698"
"42","Control_BMo82.csv","V","0.0092312763273664","0.01623966294252","55.07521516451","96.8883282268267"
"43","Control_BMo86.csv","s","0.935476462506642","1.10645786856867","102.781046543416","121.566818883888"
"44","Control_BMo87.csv","s","2.72863397644756","2.25819560520764","229.836499968759","190.210844923023"
"45","Control_BMo88.csv","s","5.81934475670095","5.3607404676051","288.905223495482","266.137509916619"
"46","Control_BMo91.csv","V","0.00162041189490924","0.00345834352932325","45.1155801303147","96.2873545334455"
"47","Control_BMo96.csv","V","0.0126670172968079","0.0169084203925213","42.2419533517283","56.3861790614502"
"48","Control_BMo97.csv","V","0.00746338240446377","0.00973320000122327","85.6360155300018","111.680257193153"
"49","Control_BMo98.csv","V","0.0235348106583496","0.0345452037661305","81.4834719019339","119.60423991877"
"50","Patient_BMo1.csv","V","0.00383822531702171","0.00513795796167725","134.883167549323","180.558457976105"
"51","Patient_BMo100.csv","%MAX","14.5278663997897","20.7461310787453","43.4007798581637","61.9773229653505"
"52","Patient_BMo101.csv","%MAX","17.8917701763694","14.079553488664","56.925939264916","44.7966746091672"
"53","Patient_BMo102.csv","%MAX","31.6713757008831","26.432015048835","115.093982494587","96.0541122702936"
"54","Patient_BMo103.csv","%MAX","24.51488653719","28.4536676388287","122.320730406908","141.973873836084"
"55","Patient_BMo104.csv","%MAX","35.5638907123624","32.2211165649071","164.47649225987","149.01677300032"
"56","Patient_BMo105.csv","%MAX","22.1183656478842","28.0536593119877","82.1288226653568","104.167461892419"
"57","Patient_BMo106.csv","%MAX","33.5278573843396","28.042139562351","144.855954857531","121.155099653037"
"58","Patient_BMo107.csv","%MAX","21.268097422823","17.8220935929145","112.015054920233","93.8656031574102"
"59","Patient_BMo108.csv","%MAX","14.0569912594773","14.429214625038","48.3344595971833","49.6143362714816"
"60","Patient_BMo109.csv","%MAX","50.0713954453557","43.0643621819772","61.8800861488038","53.2205347596561"
"61","Patient_BMo110.csv","%subMVIC","4.5822830324023","20.1994453427324","31.0401716986018","136.830101331875"
"62","Patient_BMo111.csv","%subMVIC","18.2048407623217","45.027315881584","38.1195766927164","94.2838360095773"
"63","Patient_BMo112.csv","%subMVIC","12.1937053769766","37.4796524041788","41.6100975285035","127.896479671955"
"64","Patient_BMo113.csv","%subMVIC","6.02105496288042","19.8364583358169","32.7440105017548","107.875647053533"
"65","Patient_BMo114.csv","V","0.0138959474268636","0.0171507446348448","78.5494519703649","96.9478043178527"
"66","Patient_BMo115.csv","V","0.00364699228546896","0.00793751415440319","35.0956125645006","76.3840172073063"
"67","Patient_BMo117.csv","Hz","17.0758857275285","31.2884262617593","15.8790519902176","29.0954481208323"
"68","Patient_BMo118.csv","Hz","17.6335236769026","32.9014281250698","19.8601526297085","37.0559733988485"
"69","Patient_BMo15.csv","V","0.00594258433775339","0.0085782933652373","81.8878194492595","118.207449545579"
"70","Patient_BMo22.csv","V","0.00553769940975193","0.00707881805863184","40.234145377341","51.4311402257023"
"71","Patient_BMo23.csv","V","0.0028455057455004","0.00436934454378715","70.1272826455337","107.682179268978"
"72","Patient_BMo24.csv","V","0.00858627677945739","0.0127194645328328","79.6350436587856","117.969073139117"
"73","Patient_BMo29.csv","Hz","15.3099758960646","34.0460385712337","19.502185707302","43.3685964838675"
"74","Patient_BMo34.csv","%MAX","2.13869414099821","5.26892453704346","30.2412009498926","74.5027550504168"
"75","Patient_BMo35.csv","NAN","0.487793631748836","0.591549670171221","91.1813998723428","110.576119714509"
"76","Patient_BMo36.csv","%SubMVIC","1.99775545701321","5.18847215487067","25.3843168110358","65.9268983509045"
"77","Patient_BMo37.csv","Hz","28.7128008301546","48.6678198359085","29.7793747952056","50.4756486813014"
"78","Patient_BMo38.csv","Hz","13.59647343325","30.1647452256392","13.8371379342553","30.6986765713901"
"79","Patient_BMo40.csv","Hz","25.7226852008774","43.9629765785383","39.3393336066842","67.2353678653645"
"80","Patient_BMo41.csv","NAN","0.224259794974718","1.81407926160247","19.1506770558598","154.913394514598"
"81","Patient_BMo42.csv","NAN","5.17803696597215","6.31075080653638","120.392860458354","146.729223107456"
"82","Patient_BMo43.csv","NAN","2.35458254956373","2.45219705051921","185.187712705072","192.865084714026"
"83","Patient_BMo44.csv","NAN","10.1571830737308","11.1343041459988","113.914593968802","124.873178587962"
"84","Patient_BMo51.csv","Hz","21.7660623888551","42.6874247159747","17.2968975226402","33.9225348906331"
"85","Patient_BMo52.csv","Hz","25.490277927616","30.9872754349591","28.3274217538174","34.4362514500793"
"86","Patient_BMo53.csv","Hz","21.3226113876578","47.1320815196162","21.9717433162156","48.566940431479"
"87","Patient_BMo67.csv","%subMVIC","1.52659674320443","15.4250533617546","8.68126399124725","87.7173103562268"
"88","Patient_BMo68.csv","%subMVIC","3.86985099187466","12.0554419609639","39.1130850617613","121.845912895961"
"89","Patient_BMo69.csv","V","0.00839547878444141","0.0123913449738411","44.303288785701","65.3896399377124"
"90","Patient_BMo81.csv","V","0.00392256039804847","0.00596178577098242","74.2954080349008","112.919435655387"
"91","Patient_BMo82.csv","V","0.0116053256223294","0.020437046479752","77.3067717975565","136.137678497049"
"92","Patient_BMo86.csv","s","1.9542407542157","2.06736120691309","172.418230403744","182.398591438831"
"93","Patient_BMo87.csv","s","7.8488877845378","9.07993705512507","457.110505529254","528.805447520669"
"94","Patient_BMo88.csv","s","14.418257000835","14.418257000835","427.891350015713","427.891350015713"
"95","Patient_BMo91.csv","V","0.00134776312675438","0.00401871938384997","32.6194978255745","97.2638333850029"
"96","Patient_BMo96.csv","V","0.0185403908492054","0.0216520183989545","67.8411117773107","79.2268627104382"
"97","Patient_BMo97.csv","V","0.00357842696630124","0.0105918347440509","43.9393139988443","130.056574306383"
"98","Patient_BMo98.csv","V","0.0141162495955321","0.0241047821767811","61.7442676421359","105.433961910792"
