"","Biomarkers","Unit","MDC_intra","MDC_testretest","MDCp_intra","MDCp_testretest"
"1","Control_BMo1.csv","V","0.0064449401392511","0.00889258311662971","142.585064094","196.735657158983"
"2","Control_BMo100.csv","%MAX","13.3593681168102","22.6287654122914","35.1340276131961","59.5117719563084"
"3","Control_BMo101.csv","%MAX","17.506038945167","29.4245223413483","50.6041851757236","85.0565900106079"
"4","Control_BMo102.csv","%MAX","31.7114886126485","51.8976464035212","81.2488148752042","132.968285298869"
"5","Control_BMo103.csv","%MAX","40.1969964468954","65.8283762130666","124.147584863286","203.309566502579"
"6","Control_BMo104.csv","%MAX","61.6929228737129","55.6095999433084","172.376146522125","155.378738781543"
"7","Control_BMo105.csv","%MAX","21.5009061318227","26.5468004425823","66.5485974839675","82.1664131878549"
"8","Control_BMo106.csv","%MAX","44.3149792699718","49.7219056704228","125.33889352829","140.631649693036"
"9","Control_BMo107.csv","%MAX","31.4170499100887","31.8049491968872","138.373068611607","140.081529933729"
"10","Control_BMo108.csv","%MAX","20.9286604812498","23.5289982492554","67.3612032721253","75.7306773301395"
"11","Control_BMo109.csv","%MAX","109.993914096439","98.9261290215438","101.897027705739","91.6439658733448"
"12","Control_BMo110.csv","%subMVIC","19.6300992109929","42.0336071769813","115.569771257679","247.467642132877"
"13","Control_BMo111.csv","%subMVIC","634.777969822188","1268.78323129241","481.612051976203","962.637842814402"
"14","Control_BMo112.csv","%subMVIC","34.8486430585678","248.411272450735","69.984669590278","498.871097957743"
"15","Control_BMo113.csv","%subMVIC","47.5461179639643","69.4289432192768","163.518116339982","238.776381770982"
"16","Control_BMo114.csv","V","0.139221333747362","1.03270896942585","159.342096860025","1181.95974859053"
"17","Control_BMo115.csv","V","0.0645377563068295","0.671138679118386","115.186850618177","1197.84689148714"
"18","Control_BMo117.csv","Hz","11.5684810507714","27.2761170854001","11.1718884971172","26.3410327920346"
"19","Control_BMo118.csv","Hz","11.1589218165697","25.2343354729421","13.074050692595","29.5651306273431"
"20","Control_BMo15.csv","V","0.00493698087487107","0.0150780687420404","92.5986343209598","282.806154023628"
"21","Control_BMo22.csv","V","0.00824214109556696","0.017788096116192","64.466484582776","139.130841214087"
"22","Control_BMo23.csv","V","0.0329365317538326","0.0624646978180226","415.157029242289","787.352432018891"
"23","Control_BMo24.csv","V","0.0295976831718957","0.0637378659211021","225.459957858595","485.522345823801"
"24","Control_BMo29.csv","Hz","14.2070844858787","28.1856618083731","19.4404696958939","38.5682583072569"
"25","Control_BMo34.csv","%MAX","1.56228309925581","6.36356819309482","25.2734265492681","102.944961381231"
"26","Control_BMo35.csv","NAN","1.31367002225659","1.44103596995234","222.704278610844","244.296414398828"
"27","Control_BMo36.csv","%SubMVIC","1.38981223898996","6.19419788763528","25.5371374809913","113.815433914991"
"28","Control_BMo37.csv","Hz","39.376225440211","77.5700428977516","45.7777632774218","90.1808901562836"
"29","Control_BMo38.csv","Hz","14.2753469244577","31.2749552313605","15.2299911457333","33.3664249126414"
"30","Control_BMo40.csv","Hz","48.0689143360535","80.2824896637527","81.6380002986597","136.348032937178"
"31","Control_BMo41.csv","NAN","0.240833909092725","1.98628358734107","19.1565159656802","157.993836485118"
"32","Control_BMo42.csv","NAN","13.9194340955132","17.6297490680484","208.337218879764","263.87084885651"
"33","Control_BMo43.csv","NAN","3.53366593114747","3.7028524002198","198.914987294095","208.438729776148"
"34","Control_BMo44.csv","NAN","9.83017902709484","11.3910228813447","80.225940414177","92.964280753833"
"35","Control_BMo51.csv","Hz","31.9627185382466","76.8718358762169","25.0274906870279","60.1922879051918"
"36","Control_BMo52.csv","Hz","26.6307988501741","52.0251743430179","33.0347322011974","64.5357171525842"
"37","Control_BMo53.csv","Hz","30.5753617278036","91.5494011122082","31.6355175714778","94.7237423820851"
"38","Control_BMo67.csv","%subMVIC","32.3949025845006","39.1899313727412","145.757695505207","176.331262889212"
"39","Control_BMo68.csv","%subMVIC","2.78064401115524","29.906476329424","30.6350533647921","329.487160035333"
"40","Control_BMo69.csv","V","0.0104003708950049","0.0190973138490892","59.1180926318556","108.553510307244"
"41","Control_BMo81.csv","V","0.0138997041158429","0.0219136112216886","262.832508041832","414.369208844182"
"42","Control_BMo82.csv","V","0.00973582786317468","0.0261767265012751","63.9828158898223","172.030637339471"
"43","Control_BMo86.csv","s","3.47463045840367","2.98262660147","327.451773777144","281.08496223076"
"44","Control_BMo87.csv","s","10.2402073438608","19.1075378009443","421.614468433867","786.704226048206"
"45","Control_BMo88.csv","s","8.75248852018164","11.9678800796535","389.225701997545","532.215096847552"
"46","Control_BMo91.csv","V","0.0086517943203213","0.0439389317030732","125.644727154981","638.098281225545"
"47","Control_BMo96.csv","V","0.00729495281548564","0.0545685276381697","25.3309328484431","189.483296767406"
"48","Control_BMo97.csv","V","0.0120937800615651","0.0298816273324026","142.877463998045","353.025366068698"
"49","Control_BMo98.csv","V","0.0205761222823493","0.0524599200545184","76.4387225480194","194.884595790844"
"50","Patient_BMo1.csv","V","0.0049859501794235","0.00495980323755585","196.38315921443","195.353301541773"
"51","Patient_BMo100.csv","%MAX","13.6986055106363","21.2398801822821","38.8091530981068","60.1741367863756"
"52","Patient_BMo101.csv","%MAX","27.8382176485466","30.2253025752684","77.8429040128736","84.5178149273331"
"53","Patient_BMo102.csv","%MAX","36.4162239885946","33.5383121068218","109.08538223177","100.464551094778"
"54","Patient_BMo103.csv","%MAX","57.1654952059773","56.5681692053972","181.348170390079","179.453251489415"
"55","Patient_BMo104.csv","%MAX","71.045309302187","49.7606057308192","211.029381279535","147.806377966552"
"56","Patient_BMo105.csv","%MAX","18.9860684454575","26.2928021024293","63.3489539611781","87.7286160998576"
"57","Patient_BMo106.csv","%MAX","67.9890915329808","52.7265684953242","191.981836186207","148.884816774171"
"58","Patient_BMo107.csv","%MAX","30.679861800746","24.3752139573649","139.363547709857","110.724628270738"
"59","Patient_BMo108.csv","%MAX","23.4044477046759","17.5387088095778","76.1676955008685","57.0781694549209"
"60","Patient_BMo109.csv","%MAX","104.00441263911","72.8062395447112","105.198394974242","73.6420633496634"
"61","Patient_BMo110.csv","%subMVIC","188.108467826638","419.204949939006","348.835165138553","777.388863076819"
"62","Patient_BMo111.csv","%subMVIC","23.4863451459563","60.0939636952628","50.6733045960588","129.656602923544"
"63","Patient_BMo112.csv","%subMVIC","274.914613715275","834.922146234562","258.431813889945","784.863495586138"
"64","Patient_BMo113.csv","%subMVIC","47.9836545239778","289.915993920275","112.834733957348","681.744530892862"
"65","Patient_BMo114.csv","V","0.0120833682303341","0.012996100767346","73.1476127822177","78.6729104408187"
"66","Patient_BMo115.csv","V","0.00347675022797733","0.00769476562176704","36.6300493785441","81.0698572516174"
"67","Patient_BMo117.csv","Hz","11.1728508431301","33.0294023222945","11.1818220658422","33.0559232280545"
"68","Patient_BMo118.csv","Hz","11.6787054760658","28.894732115294","14.1119428406344","34.9148977891541"
"69","Patient_BMo15.csv","V","0.00413073516980303","0.00997421128529715","60.7553386198471","146.701872473956"
"70","Patient_BMo22.csv","V","0.00509450569087438","0.00825324358964287","43.6196312611766","70.665038756116"
"71","Patient_BMo23.csv","V","0.0389406233802567","0.071376852089615","352.518283059373","646.154148666536"
"72","Patient_BMo24.csv","V","0.0277373263460553","0.139029805166391","122.158313793726","612.302943488708"
"73","Patient_BMo29.csv","Hz","51.1368802764672","53.1523027358313","76.2155826831577","79.2194146780446"
"74","Patient_BMo34.csv","%MAX","1.49773757735037","7.03390732176381","24.3094079107531","114.165608766848"
"75","Patient_BMo35.csv","NAN","0.564280016057824","0.684284447853518","103.568461745139","125.594183106864"
"76","Patient_BMo36.csv","%SubMVIC","1.78306846933683","8.75490243671158","29.1858402795577","143.30306916145"
"77","Patient_BMo37.csv","Hz","22.2838603318869","43.891387948551","23.1809487929029","45.6583375291082"
"78","Patient_BMo38.csv","Hz","50.3731460536719","58.7859016187184","56.747273984968","66.2245646133833"
"79","Patient_BMo40.csv","Hz","20.3380133047125","37.4953798724403","32.5832473855395","60.0708250060696"
"80","Patient_BMo41.csv","NAN","0.199315876694361","1.54607307061068","21.7062116463688","168.372885532285"
"81","Patient_BMo42.csv","NAN","3.8988225216237","4.53147761860901","105.946695503825","123.138480086862"
"82","Patient_BMo43.csv","NAN","1.90892910645927","2.24014193762777","137.533964254031","161.397089148647"
"83","Patient_BMo44.csv","NAN","6.4954459971714","9.50661356267071","81.935020082525","119.918566563933"
"84","Patient_BMo51.csv","Hz","35.8361645098772","77.7409392655887","28.7412251430571","62.3495809002991"
"85","Patient_BMo52.csv","Hz","17.8827565981584","30.3493441700876","19.4009548053904","32.9259223199259"
"86","Patient_BMo53.csv","Hz","64.5140610678174","97.7810446495683","69.127758434903","104.773817089926"
"87","Patient_BMo67.csv","%subMVIC","4.02567524515342","44.2232460807259","16.1058088647094","176.927125358825"
"88","Patient_BMo68.csv","%subMVIC","5.30689143643882","77.2932007166987","31.8632176339504","464.077719613848"
"89","Patient_BMo69.csv","V","0.00794937250720566","0.0114634998501865","50.7559032294287","73.1932348797633"
"90","Patient_BMo81.csv","V","0.0406726201278195","0.0859628291683575","327.75977597132","692.730331646629"
"91","Patient_BMo82.csv","V","0.0247853051837454","0.0836046856791005","99.9772262373403","337.238719179574"
"92","Patient_BMo86.csv","s","2.56766473869167","2.68521553748553","292.099643366125","305.472318500724"
"93","Patient_BMo87.csv","s","12.1214934223233","22.3821216855488","305.487600688607","564.077413055939"
"94","Patient_BMo88.csv","s","9.14555449946714","12.3834529370088","333.808193875644","451.989877605321"
"95","Patient_BMo91.csv","V","0.00130070872234325","0.00251237296643149","32.2588062367752","62.3092252142504"
"96","Patient_BMo96.csv","V","0.00437382219827098","0.00736342209979483","19.6897795522314","33.1481599668827"
"97","Patient_BMo97.csv","V","0.028173349224119","0.0857055513436993","212.200701447595","645.531277393042"
"98","Patient_BMo98.csv","V","0.0484487099560285","0.126110214856287","130.233507656637","338.993043302338"
