event,time_sec,time_min
RHS,0.6399999856948853,0.0
RHS,1.7799999713897705,0.0
RHS,2.9100000858306885,0.0
RTO,0.20000000298023224,0.0
RTO,1.3300000429153442,0.0
RTO,2.4600000381469727,0.0
LHS,0.07999999821186066,0.0
LHS,1.2000000476837158,0.0
LHS,2.3499999046325684,0.0
LTO,0.7599999904632568,0.0
LTO,1.909999966621399,0.0
LTO,3.0399999618530273,0.0
