event,time_sec,time_min
RHS,0.2199999988079071,0.0
RHS,1.350000023841858,0.0
RHS,2.4600000381469727,0.0
RTO,0.8899999856948853,0.0
RTO,2.0299999713897705,0.0
LHS,0.7900000214576721,0.0
LHS,1.909999966621399,0.0
LTO,0.3199999928474426,0.0
LTO,1.4600000381469727,0.0
LTO,2.5799999237060547,0.0
