event,time_sec,time_min
RHS,0.550000011920929,0.0
RHS,1.399999976158142,0.0
RTO,0.18000000715255737,0.0
RTO,1.0399999618530273,0.0
LHS,0.11999999731779099,0.0
LHS,0.9700000286102295,0.0
LTO,0.6100000143051147,0.0
LTO,1.4600000381469727,0.0
