event,time_sec,time_min
RHS,0.5199999809265137,0.0
RHS,1.3799999952316284,0.0
RTO,0.1899999976158142,0.0
RTO,1.0,0.0
LHS,0.10000000149011612,0.0
LHS,0.9399999976158142,0.0
LTO,0.5799999833106995,0.0
LTO,1.4299999475479126,0.0
