event,time_sec,time_min
startMotion,0.10000000149011612,0.0
startMotion,11.779999732971191,0.0
startMotion,22.0,0.0
startMotion,33.91999816894531,0.0
stopMotion,6.46999979019165,0.0
stopMotion,16.8799991607666,0.0
stopMotion,27.1299991607666,0.0
