Group,Participant,Session,Operator,Measure,Value,Unit
CTR,P01,INI,FM,M1,14.313679813254593,%MAX
CTR,P01,INI,FM,M2,16.306565263179735,%MAX
CTR,P01,INI,FM,M3,20.72555603776283,%MAX
CTR,P01,REL,FM,M1,9.690897370790106,%MAX
CTR,P01,REL,FM,M2,7.003918449786518,%MAX
CTR,P01,REL,FM,M3,8.913506616972398,%MAX
CTR,P02,INI,FM,M1,8.400839531236896,%MAX
CTR,P02,INI,FM,M2,8.291851387359989,%MAX
CTR,P02,INI,FM,M3,8.486142521612708,%MAX
CTR,P02,REL,FM,M1,7.6315648818694255,%MAX
CTR,P02,REL,FM,M2,6.992221897552527,%MAX
CTR,P02,REL,FM,M3,5.639832273190097,%MAX
CTR,P03,INI,FM,M1,11.894694500500202,%MAX
CTR,P03,INI,FM,M2,8.10091474893135,%MAX
CTR,P03,INI,FM,M3,8.389351613103106,%MAX
CTR,P03,REL,FM,M1,25.82742607759772,%MAX
CTR,P03,REL,FM,M2,28.13158321808092,%MAX
CTR,P03,REL,FM,M3,37.79058201232653,%MAX
CTR,P05,INI,FM,M1,11.223759629278325,%MAX
CTR,P05,INI,FM,M2,12.990788934524508,%MAX
CTR,P05,INI,FM,M3,12.502035067267641,%MAX
CTR,P05,REL,FM,M1,10.569608557340057,%MAX
CTR,P05,REL,FM,M2,13.141815839668402,%MAX
CTR,P05,REL,FM,M3,14.540247201538307,%MAX
CTR,P06,INI,FM,M1,25.89424509718365,%MAX
CTR,P06,INI,FM,M2,28.479038301273825,%MAX
CTR,P06,INI,FM,M3,27.906040507993225,%MAX
CTR,P06,REL,FM,M1,18.121380555707145,%MAX
CTR,P06,REL,FM,M2,16.23846951263034,%MAX
CTR,P06,REL,FM,M3,17.223259169763743,%MAX
CTR,P07,INI,FM,M1,5.337292836794659,%MAX
CTR,P07,INI,FM,M2,5.733700233921606,%MAX
CTR,P07,INI,FM,M3,6.980941372517926,%MAX
CTR,P07,REL,FM,M1,19.414055817331374,%MAX
CTR,P07,REL,FM,M2,15.545719300045175,%MAX
CTR,P07,REL,FM,M3,18.161572749543215,%MAX
CTR,P08,INI,FM,M1,5.775024741844843,%MAX
CTR,P08,INI,FM,M2,12.46145776692217,%MAX
CTR,P08,INI,FM,M3,10.778794936996109,%MAX
CTR,P08,REL,FM,M1,9.765599742471366,%MAX
CTR,P08,REL,FM,M2,8.833980573130122,%MAX
CTR,P08,REL,FM,M3,9.041663207493702,%MAX
CTR,P13,INI,FM,M1,24.14447488904934,%MAX
CTR,P13,INI,FM,M2,23.396162495764784,%MAX
CTR,P13,INI,FM,M3,23.078359919765155,%MAX
CTR,P13,REL,FM,M1,19.65890887081742,%MAX
CTR,P13,REL,FM,M2,16.94777043845805,%MAX
CTR,P13,REL,FM,M3,15.954474824048523,%MAX
CTR,P16,INI,FM,M1,,%MAX
CTR,P16,INI,FM,M2,,%MAX
CTR,P16,INI,FM,M3,,%MAX
CTR,P16,REL,FM,M1,19.07757326363378,%MAX
CTR,P16,REL,FM,M2,25.36658680597294,%MAX
CTR,P16,REL,FM,M3,18.55954707336431,%MAX
CTR,P21,REL,FM,M1,,%MAX
CTR,P21,REL,FM,M2,,%MAX
CTR,P21,REL,FM,M3,,%MAX
CTR,P22,INI,FM,M1,106.42738518734096,%MAX
CTR,P22,INI,FM,M2,80.85870274673825,%MAX
CTR,P22,INI,FM,M3,53.18286256495302,%MAX
CTR,P22,REL,FM,M1,,%MAX
CTR,P22,REL,FM,M2,,%MAX
CTR,P22,REL,FM,M3,,%MAX
CTR,P23,INI,FM,M1,,%MAX
CTR,P23,INI,FM,M2,,%MAX
CTR,P23,INI,FM,M3,,%MAX
CTR,P23,REL,FM,M1,23.56556031489974,%MAX
CTR,P23,REL,FM,M2,84.6341705544223,%MAX
CTR,P23,REL,FM,M3,111.65805065774029,%MAX
CTR,P25,INI,FM,M1,,%MAX
CTR,P25,INI,FM,M2,,%MAX
CTR,P25,INI,FM,M3,,%MAX
CTR,P35,INI,FM,M1,,%MAX
CTR,P35,INI,FM,M2,,%MAX
CTR,P35,INI,FM,M3,,%MAX
CTR,P35,REL,FM,M1,,%MAX
CTR,P35,REL,FM,M2,,%MAX
CTR,P35,REL,FM,M3,,%MAX
CTR,P38,INI,FM,M1,,%MAX
CTR,P38,INI,FM,M2,,%MAX
CTR,P38,INI,FM,M3,,%MAX
CTR,P38,REL,FM,M1,79.78357115104534,%MAX
CTR,P38,REL,FM,M2,44.33961691965259,%MAX
CTR,P38,REL,FM,M3,66.9019753148266,%MAX
CTR,P39,INI,FM,M1,8.249204624846858,%MAX
CTR,P39,INI,FM,M2,8.48978901234961,%MAX
CTR,P39,INI,FM,M3,55.28984225142184,%MAX
CTR,P39,REL,FM,M1,12.463182180319011,%MAX
CTR,P39,REL,FM,M2,13.427775917689964,%MAX
CTR,P39,REL,FM,M3,11.679374365586641,%MAX
CTR,P40,INI,FM,M1,6.841552799013514,%MAX
CTR,P40,INI,FM,M2,6.903388508552045,%MAX
CTR,P40,INI,FM,M3,16.310685323046528,%MAX
CTR,P40,REL,FM,M1,9.092968301181672,%MAX
CTR,P40,REL,FM,M2,7.300752709372161,%MAX
CTR,P40,REL,FM,M3,51.68926297502818,%MAX
CTR,P44,INI,FM,M1,21.959924743893115,%MAX
CTR,P44,INI,FM,M2,26.882844278406008,%MAX
CTR,P44,INI,FM,M3,44.807748571086734,%MAX
CTR,P44,REL,FM,M1,15.855022696561788,%MAX
CTR,P44,REL,FM,M2,42.78976719255105,%MAX
CTR,P44,REL,FM,M3,28.884222917971744,%MAX
CTR,P46,REL,FM,M1,,%MAX
CTR,P46,REL,FM,M2,,%MAX
CTR,P46,REL,FM,M3,,%MAX
CTR,P48,INI,FM,M1,11.522051946759374,%MAX
CTR,P48,INI,FM,M2,11.398000783632124,%MAX
CTR,P48,INI,FM,M3,65.49115076790243,%MAX
CTR,P48,REL,FM,M1,,%MAX
CTR,P48,REL,FM,M2,,%MAX
CTR,P48,REL,FM,M3,,%MAX
CTR,P49,INI,FM,M1,,%MAX
CTR,P49,INI,FM,M2,,%MAX
CTR,P49,INI,FM,M3,,%MAX
CTR,P49,REL,FM,M1,11.266680432864437,%MAX
CTR,P49,REL,FM,M2,16.958373946043913,%MAX
CTR,P49,REL,FM,M3,38.438587643506054,%MAX
CTR,P52,INI,FM,M1,35.485192062597115,%MAX
CTR,P52,INI,FM,M2,58.28379933069746,%MAX
CTR,P52,INI,FM,M3,47.40046189567153,%MAX
CTR,P52,REL,FM,M1,,%MAX
CTR,P52,REL,FM,M2,,%MAX
CTR,P52,REL,FM,M3,,%MAX
CTR,P55,INI,FM,M1,24.24859032885763,%MAX
CTR,P55,INI,FM,M2,50.68964268433607,%MAX
CTR,P55,INI,FM,M3,50.16374447746081,%MAX
CTR,P55,REL,FM,M1,31.279881869366278,%MAX
CTR,P55,REL,FM,M2,38.73411648341888,%MAX
CTR,P55,REL,FM,M3,58.736370275664434,%MAX
CTR,P56,INI,FM,M1,17.511326758623124,%MAX
CTR,P56,INI,FM,M2,23.886331183651347,%MAX
CTR,P56,INI,FM,M3,31.146721429761094,%MAX
CTR,P56,REL,FM,M1,40.70804852134791,%MAX
CTR,P56,REL,FM,M2,37.043033902356605,%MAX
CTR,P56,REL,FM,M3,42.80282369603548,%MAX
CTR,P57,INI,FM,M1,,%MAX
CTR,P57,INI,FM,M2,,%MAX
CTR,P57,INI,FM,M3,,%MAX
CTR,P57,REL,FM,M1,11.285496661858007,%MAX
CTR,P57,REL,FM,M2,34.87982500857348,%MAX
CTR,P57,REL,FM,M3,46.096612791686866,%MAX
CTR,P60,INI,FM,M1,,%MAX
CTR,P60,INI,FM,M2,,%MAX
CTR,P60,INI,FM,M3,,%MAX
CTR,P60,REL,FM,M1,,%MAX
CTR,P60,REL,FM,M2,,%MAX
CTR,P60,REL,FM,M3,,%MAX
CTR,P64,INI,FM,M1,18.342747094022904,%MAX
CTR,P64,INI,FM,M2,24.398140507230554,%MAX
CTR,P64,INI,FM,M3,36.714210419020574,%MAX
CTR,P64,REL,FM,M1,,%MAX
CTR,P64,REL,FM,M2,,%MAX
CTR,P64,REL,FM,M3,,%MAX
CTR,P66,INI,FM,M1,46.994576808318705,%MAX
CTR,P66,INI,FM,M2,57.375404378741436,%MAX
CTR,P66,INI,FM,M3,48.419529029002014,%MAX
CTR,P66,REL,FM,M1,6.731920626172355,%MAX
CTR,P66,REL,FM,M2,7.62786862124327,%MAX
CTR,P66,REL,FM,M3,7.259932421970079,%MAX
CTR,P67,REL,FM,M1,,%MAX
CTR,P67,REL,FM,M2,,%MAX
CTR,P67,REL,FM,M3,,%MAX
