Group,Participant,Session,Operator,Measure,Value,Unit
CTR,P01,INI,FM,M1,42.08402876983229,%subMVIC
CTR,P01,INI,FM,M2,44.39518067421003,%subMVIC
CTR,P01,INI,FM,M3,43.9243816308865,%subMVIC
CTR,P01,REL,FM,M1,30.998388010334832,%subMVIC
CTR,P01,REL,FM,M2,28.593731497320988,%subMVIC
CTR,P01,REL,FM,M3,29.075729606374395,%subMVIC
CTR,P02,INI,FM,M1,135.86476978344498,%subMVIC
CTR,P02,INI,FM,M2,117.33935701093831,%subMVIC
CTR,P02,INI,FM,M3,132.70980487902037,%subMVIC
CTR,P02,REL,FM,M1,102.2198554954016,%subMVIC
CTR,P02,REL,FM,M2,102.79873623936528,%subMVIC
CTR,P02,REL,FM,M3,97.21279186693391,%subMVIC
CTR,P03,INI,FM,M1,40.56217616131418,%subMVIC
CTR,P03,INI,FM,M2,36.51097483290354,%subMVIC
CTR,P03,INI,FM,M3,39.76950347840741,%subMVIC
CTR,P03,REL,FM,M1,42.12956309657448,%subMVIC
CTR,P03,REL,FM,M2,39.628699037902614,%subMVIC
CTR,P03,REL,FM,M3,40.30907609299057,%subMVIC
CTR,P05,INI,FM,M1,36.45522378151319,%subMVIC
CTR,P05,INI,FM,M2,34.778064289616,%subMVIC
CTR,P05,INI,FM,M3,36.92154699550576,%subMVIC
CTR,P05,REL,FM,M1,28.59189421925378,%subMVIC
CTR,P05,REL,FM,M2,26.744592121193808,%subMVIC
CTR,P05,REL,FM,M3,29.979035324161007,%subMVIC
CTR,P06,INI,FM,M1,23.424860122588978,%subMVIC
CTR,P06,INI,FM,M2,23.119784744048502,%subMVIC
CTR,P06,INI,FM,M3,23.30503970442718,%subMVIC
CTR,P06,REL,FM,M1,48.977420714308174,%subMVIC
CTR,P06,REL,FM,M2,49.240425139721886,%subMVIC
CTR,P06,REL,FM,M3,49.59708485273278,%subMVIC
CTR,P07,INI,FM,M1,0.4739382393497686,%subMVIC
CTR,P07,INI,FM,M2,1.026151700401492,%subMVIC
CTR,P07,INI,FM,M3,1.4194455589148323,%subMVIC
CTR,P07,REL,FM,M1,,%subMVIC
CTR,P07,REL,FM,M2,,%subMVIC
CTR,P07,REL,FM,M3,,%subMVIC
CTR,P08,INI,FM,M1,9.874401457194926,%subMVIC
CTR,P08,INI,FM,M2,9.218595563982129,%subMVIC
CTR,P08,INI,FM,M3,11.730065382067039,%subMVIC
CTR,P08,REL,FM,M1,52.525016408462555,%subMVIC
CTR,P08,REL,FM,M2,54.29680096897779,%subMVIC
CTR,P08,REL,FM,M3,46.095575525281774,%subMVIC
CTR,P13,INI,FM,M1,119.007741282577,%subMVIC
CTR,P13,INI,FM,M2,118.73177988693698,%subMVIC
CTR,P13,INI,FM,M3,119.50564774773073,%subMVIC
CTR,P13,REL,FM,M1,30.536508092644794,%subMVIC
CTR,P13,REL,FM,M2,32.30446609856845,%subMVIC
CTR,P13,REL,FM,M3,30.21304639463075,%subMVIC
CTR,P16,INI,FM,M1,15.938009067286691,%subMVIC
CTR,P16,INI,FM,M2,15.71186277192235,%subMVIC
CTR,P16,INI,FM,M3,14.58685509921188,%subMVIC
CTR,P16,REL,FM,M1,17.87445426308696,%subMVIC
CTR,P16,REL,FM,M2,16.900301025770215,%subMVIC
CTR,P16,REL,FM,M3,19.447730862943484,%subMVIC
CTR,P21,INI,FM,M1,13.913140749186569,%subMVIC
CTR,P21,INI,FM,M2,13.037481410629118,%subMVIC
CTR,P21,INI,FM,M3,11.992521946689855,%subMVIC
CTR,P21,REL,FM,M1,16.56494127424026,%subMVIC
CTR,P21,REL,FM,M2,15.031239940360887,%subMVIC
CTR,P21,REL,FM,M3,14.554925460922803,%subMVIC
CTR,P22,INI,FM,M1,58.46597811533866,%subMVIC
CTR,P22,INI,FM,M2,56.14002709095151,%subMVIC
CTR,P22,INI,FM,M3,57.16727526024109,%subMVIC
CTR,P22,REL,FM,M1,14.213791688500912,%subMVIC
CTR,P22,REL,FM,M2,12.879854699425573,%subMVIC
CTR,P22,REL,FM,M3,13.85583768062109,%subMVIC
CTR,P23,INI,FM,M1,38.877365802507946,%subMVIC
CTR,P23,INI,FM,M2,40.75496421672732,%subMVIC
CTR,P23,INI,FM,M3,40.501102012448705,%subMVIC
CTR,P23,REL,FM,M1,31.746233513498783,%subMVIC
CTR,P23,REL,FM,M2,26.915210595229187,%subMVIC
CTR,P23,REL,FM,M3,27.83383511397703,%subMVIC
CTR,P25,INI,FM,M1,47.339773112232145,%subMVIC
CTR,P25,INI,FM,M2,51.39267092568402,%subMVIC
CTR,P25,INI,FM,M3,41.81637368058042,%subMVIC
CTR,P25,REL,FM,M1,16.552081836019973,%subMVIC
CTR,P25,REL,FM,M2,15.915602293986161,%subMVIC
CTR,P25,REL,FM,M3,10.615900214298101,%subMVIC
CTR,P35,INI,FM,M1,24.25657927427326,%subMVIC
CTR,P35,INI,FM,M2,32.368025248746186,%subMVIC
CTR,P35,INI,FM,M3,26.667571105412932,%subMVIC
CTR,P35,REL,FM,M1,32.392963943764755,%subMVIC
CTR,P35,REL,FM,M2,35.55388651790283,%subMVIC
CTR,P35,REL,FM,M3,25.05197334980673,%subMVIC
CTR,P38,INI,FM,M1,12.244732527824988,%subMVIC
CTR,P38,INI,FM,M2,10.839402196434976,%subMVIC
CTR,P38,INI,FM,M3,12.685990236359658,%subMVIC
CTR,P38,REL,FM,M1,31.03577374317704,%subMVIC
CTR,P38,REL,FM,M2,31.13129207001915,%subMVIC
CTR,P38,REL,FM,M3,30.93130722791568,%subMVIC
CTR,P39,REL,FM,M1,72.15027166845412,%subMVIC
CTR,P39,REL,FM,M2,70.30897594860613,%subMVIC
CTR,P39,REL,FM,M3,86.68390042744338,%subMVIC
CTR,P40,INI,FM,M1,10.510724682214713,%subMVIC
CTR,P40,INI,FM,M2,11.138114724897003,%subMVIC
CTR,P40,INI,FM,M3,11.580833437464847,%subMVIC
CTR,P40,REL,FM,M1,22.945879894689657,%subMVIC
CTR,P40,REL,FM,M2,24.009506125064572,%subMVIC
CTR,P40,REL,FM,M3,17.55541030364959,%subMVIC
CTR,P44,INI,FM,M1,148.16685191854478,%subMVIC
CTR,P44,INI,FM,M2,124.07014840983568,%subMVIC
CTR,P44,INI,FM,M3,124.77158672640591,%subMVIC
CTR,P44,REL,FM,M1,,%subMVIC
CTR,P44,REL,FM,M2,,%subMVIC
CTR,P44,REL,FM,M3,,%subMVIC
CTR,P46,INI,FM,M1,9.771749475513044,%subMVIC
CTR,P46,INI,FM,M2,12.776293046165819,%subMVIC
CTR,P46,INI,FM,M3,14.468792707999565,%subMVIC
CTR,P46,REL,FM,M1,15.85091357974852,%subMVIC
CTR,P46,REL,FM,M2,17.687161930365303,%subMVIC
CTR,P46,REL,FM,M3,14.735600991069587,%subMVIC
CTR,P48,INI,FM,M1,60.363220094933595,%subMVIC
CTR,P48,INI,FM,M2,55.80734281322863,%subMVIC
CTR,P48,INI,FM,M3,46.87706967565041,%subMVIC
CTR,P48,REL,FM,M1,65.54866542698754,%subMVIC
CTR,P48,REL,FM,M2,73.07355134406994,%subMVIC
CTR,P48,REL,FM,M3,58.27701555513388,%subMVIC
CTR,P49,INI,FM,M1,49.5515957137185,%subMVIC
CTR,P49,INI,FM,M2,48.57636303090957,%subMVIC
CTR,P49,INI,FM,M3,44.54321929464546,%subMVIC
CTR,P49,REL,FM,M1,60.381973665096716,%subMVIC
CTR,P49,REL,FM,M2,55.700125924693005,%subMVIC
CTR,P49,REL,FM,M3,36.887812407329534,%subMVIC
CTR,P52,INI,FM,M1,25.337267700632015,%subMVIC
CTR,P52,INI,FM,M2,25.71725049161978,%subMVIC
CTR,P52,INI,FM,M3,21.38054336717587,%subMVIC
CTR,P52,REL,FM,M1,28.975452778307684,%subMVIC
CTR,P52,REL,FM,M2,17.17821309442873,%subMVIC
CTR,P52,REL,FM,M3,32.156922248223935,%subMVIC
CTR,P55,INI,FM,M1,82.2176199816985,%subMVIC
CTR,P55,INI,FM,M2,85.74623953592938,%subMVIC
CTR,P55,INI,FM,M3,76.36238286349291,%subMVIC
CTR,P55,REL,FM,M1,105.22603047005937,%subMVIC
CTR,P55,REL,FM,M2,105.90078979518061,%subMVIC
CTR,P55,REL,FM,M3,107.64105136469443,%subMVIC
CTR,P56,INI,FM,M1,79.83309623233353,%subMVIC
CTR,P56,INI,FM,M2,89.45949367252443,%subMVIC
CTR,P56,INI,FM,M3,93.0608179674758,%subMVIC
CTR,P56,REL,FM,M1,52.23940727574293,%subMVIC
CTR,P56,REL,FM,M2,52.6547723002561,%subMVIC
CTR,P56,REL,FM,M3,52.197063086757986,%subMVIC
CTR,P57,REL,FM,M1,51.87235145308976,%subMVIC
CTR,P57,REL,FM,M2,45.33226740997577,%subMVIC
CTR,P57,REL,FM,M3,43.86531317699584,%subMVIC
CTR,P60,INI,FM,M1,69.86215857678805,%subMVIC
CTR,P60,INI,FM,M2,56.65561123184117,%subMVIC
CTR,P60,INI,FM,M3,51.79675191510588,%subMVIC
CTR,P60,REL,FM,M1,36.70281436648619,%subMVIC
CTR,P60,REL,FM,M2,39.06899392704308,%subMVIC
CTR,P60,REL,FM,M3,57.02067062781227,%subMVIC
CTR,P64,INI,FM,M1,29.309423358551346,%subMVIC
CTR,P64,INI,FM,M2,28.844098325306923,%subMVIC
CTR,P64,INI,FM,M3,32.71815667754275,%subMVIC
CTR,P64,REL,FM,M1,38.210716341554345,%subMVIC
CTR,P64,REL,FM,M2,39.85182480121268,%subMVIC
CTR,P64,REL,FM,M3,36.64519647924824,%subMVIC
CTR,P66,INI,FM,M1,106.93349857956179,%subMVIC
CTR,P66,INI,FM,M2,119.909250038362,%subMVIC
CTR,P66,INI,FM,M3,131.88464872159125,%subMVIC
CTR,P66,REL,FM,M1,19.11875253872534,%subMVIC
CTR,P66,REL,FM,M2,21.170024115875417,%subMVIC
CTR,P66,REL,FM,M3,24.970068129337033,%subMVIC
CTR,P67,INI,FM,M1,,%subMVIC
CTR,P67,INI,FM,M2,,%subMVIC
CTR,P67,INI,FM,M3,,%subMVIC
CTR,P67,REL,FM,M1,61.82304161890897,%subMVIC
CTR,P67,REL,FM,M2,67.43801474520694,%subMVIC
CTR,P67,REL,FM,M3,61.72230366223688,%subMVIC
CTR,P68,INI,FM,M1,46.290507892884285,%subMVIC
CTR,P68,INI,FM,M2,61.574195149672335,%subMVIC
CTR,P68,INI,FM,M3,80.6439671653964,%subMVIC
CTR,P68,REL,FM,M1,28.876142558303865,%subMVIC
CTR,P68,REL,FM,M2,28.21871259892149,%subMVIC
CTR,P68,REL,FM,M3,44.8599743909454,%subMVIC
