Group,Participant,Session,Operator,Measure,Value,Unit
PAT,P09,INI,FM,M1,27.196834545293285,%MAX
PAT,P09,INI,FM,M2,23.960658361311378,%MAX
PAT,P09,INI,FM,M3,25.3486282422401,%MAX
PAT,P09,REL,FM,M1,27.775336173537,%MAX
PAT,P09,REL,FM,M2,25.590873526300122,%MAX
PAT,P09,REL,FM,M3,26.626554603282827,%MAX
PAT,P10,INI,FM,M1,25.469286168307388,%MAX
PAT,P10,INI,FM,M2,26.36894274329913,%MAX
PAT,P10,INI,FM,M3,25.90946626285214,%MAX
PAT,P10,REL,FM,M1,25.7771299146593,%MAX
PAT,P10,REL,FM,M2,26.31762097488191,%MAX
PAT,P10,REL,FM,M3,27.348232981717437,%MAX
PAT,P11,INI,FM,M1,17.71991094424486,%MAX
PAT,P11,INI,FM,M2,17.581185449947657,%MAX
PAT,P11,INI,FM,M3,18.96166625898535,%MAX
PAT,P11,REL,FM,M1,21.60783722940157,%MAX
PAT,P11,REL,FM,M2,16.31277241723318,%MAX
PAT,P11,REL,FM,M3,17.693868101804025,%MAX
PAT,P12,INI,FM,M1,30.317773438020946,%MAX
PAT,P12,INI,FM,M2,25.475662003979,%MAX
PAT,P12,INI,FM,M3,27.849125796189735,%MAX
PAT,P12,REL,FM,M1,26.883437914476335,%MAX
PAT,P12,REL,FM,M2,33.166076952210624,%MAX
PAT,P12,REL,FM,M3,28.862643017676294,%MAX
PAT,P14,INI,FM,M1,,%MAX
PAT,P14,INI,FM,M2,,%MAX
PAT,P14,INI,FM,M3,,%MAX
PAT,P14,REL,FM,M1,,%MAX
PAT,P14,REL,FM,M2,,%MAX
PAT,P14,REL,FM,M3,,%MAX
PAT,P17,INI,FM,M1,29.45256102354814,%MAX
PAT,P17,INI,FM,M2,26.75442642302807,%MAX
PAT,P17,INI,FM,M3,26.74414186307697,%MAX
PAT,P17,REL,FM,M1,24.12726453770955,%MAX
PAT,P17,REL,FM,M2,29.7695613562029,%MAX
PAT,P17,REL,FM,M3,29.15701552220999,%MAX
PAT,P24,INI,FM,M1,35.15852808554763,%MAX
PAT,P24,INI,FM,M2,33.981480362605346,%MAX
PAT,P24,INI,FM,M3,39.81920906264823,%MAX
PAT,P24,REL,FM,M1,28.404482461559486,%MAX
PAT,P24,REL,FM,M2,27.764031600451453,%MAX
PAT,P24,REL,FM,M3,29.282123962777042,%MAX
PAT,P26,INI,FM,M1,28.719385213794055,%MAX
PAT,P26,INI,FM,M2,30.1466912918035,%MAX
PAT,P26,INI,FM,M3,34.26436947865109,%MAX
PAT,P26,REL,FM,M1,29.703482557249224,%MAX
PAT,P26,REL,FM,M2,27.614871396504974,%MAX
PAT,P26,REL,FM,M3,29.039414674734466,%MAX
PAT,P27,INI,FM,M1,,%MAX
PAT,P27,INI,FM,M2,,%MAX
PAT,P27,INI,FM,M3,,%MAX
PAT,P28,INI,FM,M1,25.717671675318485,%MAX
PAT,P28,INI,FM,M2,26.959416656261098,%MAX
PAT,P28,INI,FM,M3,45.25264451073321,%MAX
PAT,P28,REL,FM,M1,27.745032064684302,%MAX
PAT,P28,REL,FM,M2,28.74610881023476,%MAX
PAT,P28,REL,FM,M3,35.0808610604633,%MAX
PAT,P29,INI,FM,M1,26.618396824977474,%MAX
PAT,P29,INI,FM,M2,31.782972812961834,%MAX
PAT,P29,INI,FM,M3,42.8808175543292,%MAX
PAT,P29,REL,FM,M1,30.87418842023615,%MAX
PAT,P29,REL,FM,M2,29.53821506887698,%MAX
PAT,P29,REL,FM,M3,40.39737627484336,%MAX
PAT,P30,INI,FM,M1,36.48810512693146,%MAX
PAT,P30,INI,FM,M2,37.16746709908287,%MAX
PAT,P30,INI,FM,M3,43.51753085038349,%MAX
PAT,P30,REL,FM,M1,36.698758452212466,%MAX
PAT,P30,REL,FM,M2,37.029335456554435,%MAX
PAT,P30,REL,FM,M3,32.544852467692735,%MAX
PAT,P32,INI,FM,M1,24.25319145156318,%MAX
PAT,P32,INI,FM,M2,27.815776997727937,%MAX
PAT,P32,INI,FM,M3,36.683053354728486,%MAX
PAT,P32,REL,FM,M1,22.480818938470765,%MAX
PAT,P32,REL,FM,M2,31.06789908212542,%MAX
PAT,P32,REL,FM,M3,44.243978767384796,%MAX
PAT,P33,INI,FM,M1,23.79846430177578,%MAX
PAT,P33,INI,FM,M2,19.734325017939046,%MAX
PAT,P33,INI,FM,M3,33.78601895339015,%MAX
PAT,P33,REL,FM,M1,30.634989918315426,%MAX
PAT,P33,REL,FM,M2,34.28359348436338,%MAX
PAT,P33,REL,FM,M3,40.72404259321047,%MAX
PAT,P34,INI,FM,M1,29.057910380577717,%MAX
PAT,P34,INI,FM,M2,33.93987141711505,%MAX
PAT,P34,INI,FM,M3,32.6411199053788,%MAX
PAT,P34,REL,FM,M1,26.24943173696217,%MAX
PAT,P34,REL,FM,M2,25.235954425636226,%MAX
PAT,P34,REL,FM,M3,38.85295158471365,%MAX
PAT,P36,INI,FM,M1,26.749513624189998,%MAX
PAT,P36,INI,FM,M2,23.75486252594912,%MAX
PAT,P36,INI,FM,M3,42.01961011916338,%MAX
PAT,P36,REL,FM,M1,26.058410800690414,%MAX
PAT,P36,REL,FM,M2,23.88563680279373,%MAX
PAT,P36,REL,FM,M3,35.037922229275644,%MAX
PAT,P41,INI,FM,M1,25.329937743204155,%MAX
PAT,P41,INI,FM,M2,25.84187658616547,%MAX
PAT,P41,INI,FM,M3,29.53390909959425,%MAX
PAT,P41,REL,FM,M1,29.88469147746167,%MAX
PAT,P41,REL,FM,M2,29.291217326226416,%MAX
PAT,P41,REL,FM,M3,33.78594092767688,%MAX
PAT,P42,INI,FM,M1,17.470064379101768,%MAX
PAT,P42,INI,FM,M2,19.853004115183715,%MAX
PAT,P42,INI,FM,M3,16.594722762487237,%MAX
PAT,P42,REL,FM,M1,17.68646744622195,%MAX
PAT,P42,REL,FM,M2,17.478005945125442,%MAX
PAT,P42,REL,FM,M3,33.199068908169416,%MAX
PAT,P43,INI,FM,M1,,%MAX
PAT,P43,INI,FM,M2,,%MAX
PAT,P43,INI,FM,M3,,%MAX
PAT,P43,REL,FM,M1,26.303089930359253,%MAX
PAT,P43,REL,FM,M2,26.80934336407837,%MAX
PAT,P43,REL,FM,M3,36.46951443453791,%MAX
PAT,P45,INI,FM,M1,25.297116216579067,%MAX
PAT,P45,INI,FM,M2,27.915563617411102,%MAX
PAT,P45,INI,FM,M3,39.84479918533909,%MAX
PAT,P45,REL,FM,M1,18.40405260720423,%MAX
PAT,P45,REL,FM,M2,19.565118409202785,%MAX
PAT,P45,REL,FM,M3,21.25019417008063,%MAX
PAT,P47,INI,FM,M1,19.475095882677852,%MAX
PAT,P47,INI,FM,M2,19.17198248215988,%MAX
PAT,P47,INI,FM,M3,20.168013836016357,%MAX
PAT,P47,REL,FM,M1,23.844240276348856,%MAX
PAT,P47,REL,FM,M2,24.668106319015585,%MAX
PAT,P47,REL,FM,M3,44.40452602673608,%MAX
PAT,P50,INI,FM,M1,,%MAX
PAT,P50,INI,FM,M2,,%MAX
PAT,P50,INI,FM,M3,,%MAX
PAT,P50,REL,FM,M1,23.147156696184297,%MAX
PAT,P50,REL,FM,M2,22.397576697242418,%MAX
PAT,P50,REL,FM,M3,20.454143262351504,%MAX
PAT,P51,INI,FM,M1,33.42703151160142,%MAX
PAT,P51,INI,FM,M2,27.739751454326676,%MAX
PAT,P51,INI,FM,M3,27.86534602784113,%MAX
PAT,P51,REL,FM,M1,28.307765029061567,%MAX
PAT,P51,REL,FM,M2,36.701854880074364,%MAX
PAT,P51,REL,FM,M3,34.703484852139304,%MAX
PAT,P53,INI,FM,M1,,%MAX
PAT,P53,INI,FM,M2,,%MAX
PAT,P53,INI,FM,M3,,%MAX
PAT,P53,REL,FM,M1,,%MAX
PAT,P53,REL,FM,M2,,%MAX
PAT,P53,REL,FM,M3,,%MAX
PAT,P58,INI,FM,M1,31.097174536434853,%MAX
PAT,P58,INI,FM,M2,32.7284024093734,%MAX
PAT,P58,INI,FM,M3,35.22554040371468,%MAX
PAT,P58,REL,FM,M1,31.932993917125,%MAX
PAT,P58,REL,FM,M2,24.4660870516744,%MAX
PAT,P58,REL,FM,M3,23.734108863405755,%MAX
PAT,P61,INI,FM,M1,36.23049929791178,%MAX
PAT,P61,INI,FM,M2,31.823227318014013,%MAX
PAT,P61,INI,FM,M3,35.83848559350888,%MAX
PAT,P61,REL,FM,M1,,%MAX
PAT,P61,REL,FM,M2,,%MAX
PAT,P61,REL,FM,M3,,%MAX
PAT,P62,INI,FM,M1,25.086628908707265,%MAX
PAT,P62,INI,FM,M2,23.369252422196162,%MAX
PAT,P62,INI,FM,M3,33.089241008177716,%MAX
PAT,P62,REL,FM,M1,34.0707697610661,%MAX
PAT,P62,REL,FM,M2,42.37571058238244,%MAX
PAT,P62,REL,FM,M3,41.25052359202959,%MAX
PAT,P63,INI,FM,M1,24.62091310808335,%MAX
PAT,P63,INI,FM,M2,32.215476933311514,%MAX
PAT,P63,INI,FM,M3,27.542817686276702,%MAX
PAT,P63,REL,FM,M1,,%MAX
PAT,P63,REL,FM,M2,,%MAX
PAT,P63,REL,FM,M3,,%MAX
PAT,P65,INI,FM,M1,38.722264544672974,%MAX
PAT,P65,INI,FM,M2,32.095674263522085,%MAX
PAT,P65,INI,FM,M3,34.81487268018525,%MAX
