Group,Participant,Session,Operator,Measure,Value,Unit
CTR,P01,INI,FM,MF,92.33828472305429,Hz
CTR,P02,INI,FM,MF,80.11229788116897,Hz
CTR,P03,INI,FM,MF,72.52956484753412,Hz
CTR,P05,INI,FM,MF,100.04253357626772,Hz
CTR,P06,INI,FM,MF,100.58908121700374,Hz
CTR,P07,INI,FM,MF,116.60540117453944,Hz
CTR,P08,INI,FM,MF,96.88792454323516,Hz
PAT,P09,INI,FM,MF,84.78515559343883,Hz
PAT,P10,INI,FM,MF,90.03197647152224,Hz
PAT,P11,INI,FM,MF,84.17788043706548,Hz
PAT,P12,INI,FM,MF,76.7155690335383,Hz
CTR,P13,INI,FM,MF,92.00394905137726,Hz
PAT,P14,INI,FM,MF,90.21403744182636,Hz
CTR,P16,INI,FM,MF,84.93584979890926,Hz
PAT,P17,INI,FM,MF,108.38451252612909,Hz
CTR,P21,INI,FM,MF,79.14235970348194,Hz
CTR,P22,INI,FM,MF,66.03761713982156,Hz
CTR,P23,INI,FM,MF,61.97203458392503,Hz
PAT,P24,INI,FM,MF,103.56162927973216,Hz
CTR,P25,INI,FM,MF,104.34981042863475,Hz
PAT,P26,INI,FM,MF,75.38059709068393,Hz
PAT,P27,INI,FM,MF,86.05830583118494,Hz
PAT,P28,INI,FM,MF,98.46459078256004,Hz
PAT,P29,INI,FM,MF,80.26451179423793,Hz
PAT,P30,INI,FM,MF,93.42937399049625,Hz
PAT,P32,INI,FM,MF,87.18106580498029,Hz
PAT,P33,INI,FM,MF,48.140324693430905,Hz
PAT,P34,INI,FM,MF,84.54182001276192,Hz
CTR,P35,INI,FM,MF,99.73992939924806,Hz
PAT,P36,INI,FM,MF,82.81233197732865,Hz
CTR,P38,INI,FM,MF,94.1881943885952,Hz
CTR,P39,INI,FM,MF,107.9295728594326,Hz
CTR,P40,INI,FM,MF,107.29263301073588,Hz
PAT,P41,INI,FM,MF,81.1749382223664,Hz
PAT,P42,INI,FM,MF,104.01608263999714,Hz
PAT,P43,INI,FM,MF,102.74202057769192,Hz
CTR,P44,INI,FM,MF,128.92074682321845,Hz
PAT,P45,INI,FM,MF,66.03779950473337,Hz
CTR,P46,INI,FM,MF,100.25450239211096,Hz
PAT,P47,INI,FM,MF,120.73049547999447,Hz
CTR,P48,INI,FM,MF,137.99060492447268,Hz
CTR,P49,INI,FM,MF,96.55431833120544,Hz
PAT,P50,INI,FM,MF,91.4579485053767,Hz
PAT,P51,INI,FM,MF,64.00430916128978,Hz
CTR,P52,INI,FM,MF,103.37956830942802,Hz
PAT,P53,INI,FM,MF,109.6586961650422,Hz
PAT,P54,INI,FM,MF,96.49365160387204,Hz
CTR,P55,INI,FM,MF,95.00725599589995,Hz
CTR,P56,INI,FM,MF,64.67273735142807,Hz
CTR,P57,INI,FM,MF,84.72369861815422,Hz
PAT,P58,INI,FM,MF,78.74881622376613,Hz
CTR,P60,INI,FM,MF,99.82965293586535,Hz
PAT,P62,INI,FM,MF,74.95599078765412,Hz
PAT,P63,INI,FM,MF,96.15767464798864,Hz
CTR,P64,INI,FM,MF,100.64914006129771,Hz
PAT,P65,INI,FM,MF,95.5223152951944,Hz
CTR,P66,INI,FM,MF,82.41866692100494,Hz
CTR,P67,INI,FM,MF,81.81230358919072,Hz
CTR,P68,INI,FM,MF,110.53812055816064,Hz
