Group,Participant,Session,Operator,Measure,Value,Unit
CTR,P01,INI,FM,MPF,110.21515947577063,Hz
CTR,P02,INI,FM,MPF,98.17646394345648,Hz
CTR,P03,INI,FM,MPF,91.75073944392064,Hz
CTR,P05,INI,FM,MPF,118.83619973478248,Hz
CTR,P06,INI,FM,MPF,120.22977257248117,Hz
CTR,P07,INI,FM,MPF,140.8456554614758,Hz
CTR,P08,INI,FM,MPF,115.51274274507186,Hz
PAT,P09,INI,FM,MPF,103.81579561286256,Hz
PAT,P10,INI,FM,MPF,113.18435720812512,Hz
PAT,P11,INI,FM,MPF,102.89331358010848,Hz
PAT,P12,INI,FM,MPF,93.43756050518596,Hz
CTR,P13,INI,FM,MPF,106.81661431142751,Hz
PAT,P14,INI,FM,MPF,107.09078424125263,Hz
CTR,P16,INI,FM,MPF,108.0896427049242,Hz
PAT,P17,INI,FM,MPF,126.90975473232264,Hz
CTR,P21,INI,FM,MPF,100.5450248483617,Hz
CTR,P22,INI,FM,MPF,86.97695433352244,Hz
CTR,P23,INI,FM,MPF,83.31763715739015,Hz
PAT,P24,INI,FM,MPF,121.87258921969782,Hz
CTR,P25,INI,FM,MPF,121.36428132320118,Hz
PAT,P26,INI,FM,MPF,96.63620700736952,Hz
PAT,P27,INI,FM,MPF,102.23658476763904,Hz
PAT,P28,INI,FM,MPF,121.90327399490754,Hz
PAT,P29,INI,FM,MPF,99.6893064434525,Hz
PAT,P30,INI,FM,MPF,111.11575309135613,Hz
PAT,P32,INI,FM,MPF,104.29108891584946,Hz
PAT,P33,INI,FM,MPF,66.28103067786496,Hz
PAT,P34,INI,FM,MPF,104.21134265600332,Hz
CTR,P35,INI,FM,MPF,112.69484563008338,Hz
PAT,P36,INI,FM,MPF,98.4358601555925,Hz
CTR,P38,INI,FM,MPF,107.44661477716768,Hz
CTR,P39,INI,FM,MPF,126.4359426566175,Hz
CTR,P40,INI,FM,MPF,129.56678925141617,Hz
PAT,P41,INI,FM,MPF,95.26822576117657,Hz
PAT,P42,INI,FM,MPF,123.87763297342812,Hz
PAT,P43,INI,FM,MPF,125.99658206110648,Hz
CTR,P44,INI,FM,MPF,143.01250333787505,Hz
PAT,P45,INI,FM,MPF,85.01421310098165,Hz
CTR,P46,INI,FM,MPF,119.7312958301057,Hz
PAT,P47,INI,FM,MPF,140.44478673209724,Hz
CTR,P48,INI,FM,MPF,155.91224702445697,Hz
CTR,P49,INI,FM,MPF,114.49222141818028,Hz
PAT,P50,INI,FM,MPF,113.45113500284828,Hz
PAT,P51,INI,FM,MPF,81.96287021536942,Hz
CTR,P52,INI,FM,MPF,122.2149511020122,Hz
PAT,P53,INI,FM,MPF,121.4313200569384,Hz
PAT,P54,INI,FM,MPF,116.6387363187576,Hz
CTR,P55,INI,FM,MPF,112.54270562471947,Hz
CTR,P56,INI,FM,MPF,81.55797700178863,Hz
CTR,P57,INI,FM,MPF,100.98720720100413,Hz
PAT,P58,INI,FM,MPF,90.83127334045356,Hz
CTR,P60,INI,FM,MPF,117.18759645768957,Hz
PAT,P62,INI,FM,MPF,88.50874421461602,Hz
PAT,P63,INI,FM,MPF,111.93422215563348,Hz
CTR,P64,INI,FM,MPF,116.18579868593535,Hz
PAT,P65,INI,FM,MPF,112.2266969508212,Hz
CTR,P66,INI,FM,MPF,97.43406875499193,Hz
CTR,P67,INI,FM,MPF,104.86410149862336,Hz
CTR,P68,INI,FM,MPF,125.05655625925807,Hz
