Group,Participant,Session,Operator,Measure,Value,Unit
CTR,P01,INI,FM,MF,29.744267061974615,Hz
CTR,P02,INI,FM,MF,11.9454911369598,Hz
CTR,P03,INI,FM,MF,8.435518467194422,Hz
CTR,P05,INI,FM,MF,17.414114882338925,Hz
CTR,P06,INI,FM,MF,9.812618674563168,Hz
CTR,P07,INI,FM,MF,12.52994206157859,Hz
CTR,P08,INI,FM,MF,13.871217368099051,Hz
PAT,P09,INI,FM,MF,16.966145257878615,Hz
PAT,P10,INI,FM,MF,26.229185828154083,Hz
PAT,P11,INI,FM,MF,19.63232815044861,Hz
PAT,P12,INI,FM,MF,12.39472800828578,Hz
CTR,P13,INI,FM,MF,13.03905205447802,Hz
PAT,P14,INI,FM,MF,15.846890068566994,Hz
CTR,P16,INI,FM,MF,14.202167906919442,Hz
PAT,P17,INI,FM,MF,12.846766784002524,Hz
CTR,P21,INI,FM,MF,15.494195903638074,Hz
CTR,P22,INI,FM,MF,13.417757481299438,Hz
CTR,P23,INI,FM,MF,1.4434581331006489,Hz
PAT,P24,INI,FM,MF,14.988326577162098,Hz
CTR,P25,INI,FM,MF,19.81175095951125,Hz
PAT,P26,INI,FM,MF,21.66126122456084,Hz
PAT,P27,INI,FM,MF,25.582151455837064,Hz
PAT,P28,INI,FM,MF,15.489313469245948,Hz
PAT,P29,INI,FM,MF,34.99823703316543,Hz
PAT,P30,INI,FM,MF,10.495603606266098,Hz
PAT,P32,INI,FM,MF,21.80598629623166,Hz
PAT,P33,INI,FM,MF,-6.749672532610815,Hz
PAT,P34,INI,FM,MF,20.01579611472953,Hz
CTR,P35,INI,FM,MF,9.426098532402436,Hz
PAT,P36,INI,FM,MF,10.316904115593724,Hz
CTR,P38,INI,FM,MF,18.343413423083927,Hz
CTR,P39,INI,FM,MF,16.01828959993235,Hz
CTR,P40,INI,FM,MF,22.448741781535517,Hz
PAT,P41,INI,FM,MF,13.987989662108411,Hz
PAT,P42,INI,FM,MF,15.24795894819066,Hz
PAT,P43,INI,FM,MF,15.239797120926031,Hz
CTR,P44,INI,FM,MF,15.59588847991221,Hz
PAT,P45,INI,FM,MF,9.903928354653598,Hz
CTR,P46,INI,FM,MF,11.832222203317205,Hz
PAT,P47,INI,FM,MF,12.39787364945329,Hz
CTR,P48,INI,FM,MF,13.389115742181492,Hz
CTR,P49,INI,FM,MF,22.82052316031831,Hz
PAT,P50,INI,FM,MF,35.36965944159663,Hz
PAT,P51,INI,FM,MF,11.344199468822898,Hz
CTR,P52,INI,FM,MF,24.06560731118409,Hz
PAT,P53,INI,FM,MF,3.469955330450994,Hz
PAT,P54,INI,FM,MF,12.553816425456317,Hz
CTR,P55,INI,FM,MF,18.32314696557666,Hz
CTR,P56,INI,FM,MF,14.754026726687083,Hz
CTR,P57,INI,FM,MF,12.668347236752254,Hz
PAT,P58,INI,FM,MF,17.447316093954235,Hz
CTR,P60,INI,FM,MF,11.950709346991127,Hz
PAT,P62,INI,FM,MF,8.180246130131852,Hz
PAT,P63,INI,FM,MF,1.064162841890354,Hz
CTR,P64,INI,FM,MF,10.015864834631254,Hz
PAT,P65,INI,FM,MF,8.409741396216692,Hz
CTR,P66,INI,FM,MF,15.925361795395274,Hz
CTR,P67,INI,FM,MF,5.14834109475244,Hz
CTR,P68,INI,FM,MF,7.491821643436566,Hz
