Group,Participant,Session,Operator,Measure,Value,Unit
CTR,P01,INI,FM,MPF,113.40762002970588,Hz
CTR,P02,INI,FM,MPF,117.88220215843783,Hz
CTR,P03,INI,FM,MPF,117.11173482424248,Hz
CTR,P05,INI,FM,MPF,155.4301317171102,Hz
CTR,P06,INI,FM,MPF,112.29859035384636,Hz
CTR,P07,INI,FM,MPF,131.39006267799456,Hz
CTR,P08,INI,FM,MPF,77.83054468542656,Hz
PAT,P09,INI,FM,MPF,140.4135486435381,Hz
PAT,P10,INI,FM,MPF,170.29563812577294,Hz
PAT,P11,INI,FM,MPF,141.89752796412998,Hz
PAT,P12,INI,FM,MPF,115.24938243907164,Hz
CTR,P13,INI,FM,MPF,93.17061876448864,Hz
PAT,P14,INI,FM,MPF,107.12350774070516,Hz
CTR,P16,INI,FM,MPF,144.5256714995391,Hz
PAT,P17,INI,FM,MPF,148.03061010701433,Hz
CTR,P21,INI,FM,MPF,128.87685151359292,Hz
CTR,P22,INI,FM,MPF,128.72960051785302,Hz
CTR,P23,INI,FM,MPF,115.240412333115,Hz
PAT,P24,INI,FM,MPF,145.1407040391241,Hz
CTR,P25,INI,FM,MPF,139.98304223056846,Hz
PAT,P26,INI,FM,MPF,84.88153570670957,Hz
PAT,P27,INI,FM,MPF,107.02965408175244,Hz
PAT,P28,INI,FM,MPF,125.97097854593854,Hz
PAT,P29,INI,FM,MPF,132.64011774620138,Hz
PAT,P32,INI,FM,MPF,144.75903752643998,Hz
PAT,P33,INI,FM,MPF,116.90185562273577,Hz
PAT,P34,INI,FM,MPF,106.57186011239352,Hz
CTR,P35,INI,FM,MPF,149.33597400975358,Hz
PAT,P36,INI,FM,MPF,148.54475627619846,Hz
CTR,P38,INI,FM,MPF,85.83590512931052,Hz
CTR,P39,INI,FM,MPF,108.5126766272461,Hz
CTR,P40,INI,FM,MPF,120.86181362921404,Hz
PAT,P41,INI,FM,MPF,120.05183770993864,Hz
PAT,P42,INI,FM,MPF,130.0413936433232,Hz
PAT,P43,INI,FM,MPF,122.7225203485741,Hz
CTR,P44,INI,FM,MPF,118.8938878336026,Hz
PAT,P45,INI,FM,MPF,148.00630162734333,Hz
CTR,P46,INI,FM,MPF,112.5077222980452,Hz
PAT,P47,INI,FM,MPF,111.80819357365614,Hz
CTR,P48,INI,FM,MPF,136.46530347219746,Hz
CTR,P49,INI,FM,MPF,141.19448728029448,Hz
PAT,P50,INI,FM,MPF,159.17700358637885,Hz
PAT,P51,INI,FM,MPF,134.07274620649233,Hz
CTR,P52,INI,FM,MPF,136.01203226041196,Hz
PAT,P53,INI,FM,MPF,128.4707812127597,Hz
PAT,P54,INI,FM,MPF,115.69476204420214,Hz
CTR,P55,INI,FM,MPF,42.38215746784518,Hz
CTR,P56,INI,FM,MPF,78.79478119658579,Hz
CTR,P57,INI,FM,MPF,40.47513568880522,Hz
PAT,P58,INI,FM,MPF,27.08814966414589,Hz
CTR,P60,INI,FM,MPF,133.1878191647978,Hz
PAT,P61,INI,FM,MPF,89.55946728896554,Hz
PAT,P62,INI,FM,MPF,146.17969466829058,Hz
PAT,P63,INI,FM,MPF,97.78905708577508,Hz
CTR,P64,INI,FM,MPF,147.55400806871498,Hz
PAT,P65,INI,FM,MPF,118.86152780008707,Hz
CTR,P66,INI,FM,MPF,100.24811547649358,Hz
CTR,P67,INI,FM,MPF,114.44105862700523,Hz
CTR,P68,INI,FM,MPF,107.70033337569934,Hz
