Group,Participant,Session,Operator,Measure,Value,Unit
CTR,P01,INI,FM,M1,0.0015331523672116,V
CTR,P01,INI,FM,M2,0.0021209820113243,V
CTR,P01,INI,FM,M3,0.0050066314785533,V
CTR,P01,REL,FM,M1,0.0028860662210489,V
CTR,P01,REL,FM,M2,0.0028902621247976,V
CTR,P01,REL,FM,M3,0.00230587986506,V
CTR,P02,INI,FM,M1,0.0007132455254725,V
CTR,P02,INI,FM,M2,0.0003390600418947,V
CTR,P02,INI,FM,M3,0.0006894616751315,V
CTR,P02,REL,FM,M1,0.0010520103884472,V
CTR,P02,REL,FM,M2,0.0004293801400576,V
CTR,P02,REL,FM,M3,0.0009247095389092,V
CTR,P03,INI,FM,M1,0.0001838569527383,V
CTR,P03,INI,FM,M2,0.0003590468379833,V
CTR,P03,INI,FM,M3,0.0005542473475787,V
CTR,P03,REL,FM,M1,0.077604368812912,V
CTR,P03,REL,FM,M2,0.0208182997141672,V
CTR,P03,REL,FM,M3,0.0103314948456175,V
CTR,P05,INI,FM,M1,0.0056008933926057,V
CTR,P05,INI,FM,M2,0.0043469049049446,V
CTR,P05,INI,FM,M3,0.0038894387735974,V
CTR,P05,REL,FM,M1,0.0235947740123869,V
CTR,P05,REL,FM,M2,0.0017944649451474,V
CTR,P05,REL,FM,M3,0.0061423119507569,V
CTR,P06,INI,FM,M1,0.0006358293885462,V
CTR,P06,INI,FM,M2,0.0003940517347563,V
CTR,P06,INI,FM,M3,0.0002422620559916,V
CTR,P06,REL,FM,M1,0.000731818041366,V
CTR,P06,REL,FM,M2,0.0007811274364218,V
CTR,P06,REL,FM,M3,0.0011999995864253,V
CTR,P07,INI,FM,M1,0.0118032510374253,V
CTR,P07,INI,FM,M2,0.0085534976469817,V
CTR,P07,INI,FM,M3,0.0084426997918188,V
CTR,P07,REL,FM,M1,0.0053871033382839,V
CTR,P07,REL,FM,M2,0.005208588083983,V
CTR,P07,REL,FM,M3,0.0064175251536727,V
CTR,P08,INI,FM,M1,0.0003179564792238,V
CTR,P08,INI,FM,M2,0.001585782400921,V
CTR,P08,INI,FM,M3,0.0008725299327644,V
CTR,P08,REL,FM,M1,0.0005700485914725,V
CTR,P08,REL,FM,M2,0.0037396663042991,V
CTR,P08,REL,FM,M3,0.0007074538633734,V
CTR,P13,INI,FM,M1,0.003513848714502,V
CTR,P13,INI,FM,M2,0.0083440439255124,V
CTR,P13,INI,FM,M3,0.008438634090066,V
CTR,P13,REL,FM,M1,0.0060142257600874,V
CTR,P13,REL,FM,M2,0.0080091013520488,V
CTR,P13,REL,FM,M3,0.0082931852456591,V
CTR,P16,INI,FM,M1,0.0010756886542118,V
CTR,P16,INI,FM,M2,0.0006933701450956,V
CTR,P16,INI,FM,M3,0.0004864191600552,V
CTR,P16,REL,FM,M1,0.0004021250304417,V
CTR,P16,REL,FM,M2,0.0008521308071702,V
CTR,P16,REL,FM,M3,0.000644351947835,V
CTR,P21,INI,FM,M1,0.009103677536651,V
CTR,P21,INI,FM,M2,0.0072156245605283,V
CTR,P21,INI,FM,M3,0.0095776729412402,V
CTR,P21,REL,FM,M1,0.0617651909989081,V
CTR,P21,REL,FM,M2,0.019671573732062,V
CTR,P21,REL,FM,M3,0.0196111126527152,V
CTR,P22,INI,FM,M1,0.0038922597599496,V
CTR,P22,INI,FM,M2,0.0006561331129983,V
CTR,P22,INI,FM,M3,0.000631961286185,V
CTR,P22,REL,FM,M1,0.0010302522555062,V
CTR,P22,REL,FM,M2,0.0005661921708074,V
CTR,P22,REL,FM,M3,0.0004942064847462,V
CTR,P23,INI,FM,M1,0.0010129651470666,V
CTR,P23,INI,FM,M2,0.000511875561741,V
CTR,P23,INI,FM,M3,0.0008831630640016,V
CTR,P23,REL,FM,M1,0.0010295277530159,V
CTR,P23,REL,FM,M2,0.0013043545183824,V
CTR,P23,REL,FM,M3,0.0020486807676778,V
CTR,P25,INI,FM,M1,0.0036414938029716,V
CTR,P25,INI,FM,M2,0.0117526886554726,V
CTR,P25,INI,FM,M3,0.0104317667166486,V
CTR,P25,REL,FM,M1,0.0076827234661921,V
CTR,P25,REL,FM,M2,0.0073605229297431,V
CTR,P25,REL,FM,M3,0.0100966815736997,V
CTR,P35,INI,FM,M1,0.0078162262078463,V
CTR,P35,INI,FM,M2,0.0041334263896474,V
CTR,P35,INI,FM,M3,0.006352551065512,V
CTR,P35,REL,FM,M1,0.0071491675444371,V
CTR,P35,REL,FM,M2,0.0099263209290131,V
CTR,P35,REL,FM,M3,0.0041722352634973,V
CTR,P38,INI,FM,M1,,V
CTR,P38,INI,FM,M2,,V
CTR,P38,INI,FM,M3,,V
CTR,P38,REL,FM,M1,0.0408800439841174,V
CTR,P38,REL,FM,M2,0.0134977286262366,V
CTR,P38,REL,FM,M3,0.0129811797665053,V
CTR,P39,INI,FM,M1,0.003392342993955,V
CTR,P39,INI,FM,M2,0.0042649789691959,V
CTR,P39,INI,FM,M3,0.0045596044423342,V
CTR,P39,REL,FM,M1,0.0060433768362864,V
CTR,P39,REL,FM,M2,0.00474956292821,V
CTR,P39,REL,FM,M3,0.005178279124273,V
CTR,P40,INI,FM,M1,0.0059165955132156,V
CTR,P40,INI,FM,M2,0.0090597117650012,V
CTR,P40,INI,FM,M3,0.0116374733207321,V
CTR,P40,REL,FM,M1,0.0055032592070414,V
CTR,P40,REL,FM,M2,0.0095471960484968,V
CTR,P40,REL,FM,M3,0.0081317503396556,V
CTR,P44,INI,FM,M1,0.0007699050041552,V
CTR,P44,INI,FM,M2,0.0018937055927348,V
CTR,P44,INI,FM,M3,0.0012102870732307,V
CTR,P44,REL,FM,M1,0.0030742372812761,V
CTR,P44,REL,FM,M2,0.004424316492777,V
CTR,P44,REL,FM,M3,0.0039386203552791,V
CTR,P46,INI,FM,M1,0.008467236768621,V
CTR,P46,INI,FM,M2,0.0089563932656058,V
CTR,P46,INI,FM,M3,0.016982828385954,V
CTR,P46,REL,FM,M1,0.0167962327663902,V
CTR,P46,REL,FM,M2,0.0158728454869235,V
CTR,P46,REL,FM,M3,0.0187422233533921,V
CTR,P48,INI,FM,M1,0.0086526447376485,V
CTR,P48,INI,FM,M2,0.0069602974786351,V
CTR,P48,INI,FM,M3,0.0184618893710652,V
CTR,P48,REL,FM,M1,0.0083135530362186,V
CTR,P48,REL,FM,M2,0.0077305129711499,V
CTR,P48,REL,FM,M3,0.0084075543933946,V
CTR,P49,INI,FM,M1,0.0010401872226629,V
CTR,P49,INI,FM,M2,0.0016062813986579,V
CTR,P49,INI,FM,M3,0.0022514769018257,V
CTR,P49,REL,FM,M1,0.0052431817814138,V
CTR,P49,REL,FM,M2,0.0019655793682266,V
CTR,P49,REL,FM,M3,0.0020690096378874,V
CTR,P52,INI,FM,M1,0.0024036965387343,V
CTR,P52,INI,FM,M2,0.0037322455059601,V
CTR,P52,INI,FM,M3,0.0034222943300724,V
CTR,P52,REL,FM,M1,0.0110141978667905,V
CTR,P52,REL,FM,M2,0.008908805932019,V
CTR,P52,REL,FM,M3,0.0088966194051695,V
CTR,P55,INI,FM,M1,0.0069272787624987,V
CTR,P55,INI,FM,M2,0.0030874504028775,V
CTR,P55,INI,FM,M3,0.0033265797653052,V
CTR,P55,REL,FM,M1,0.0051904750052906,V
CTR,P55,REL,FM,M2,0.0056629657538228,V
CTR,P55,REL,FM,M3,0.0049035375246459,V
CTR,P56,INI,FM,M1,0.0007220367795488,V
CTR,P56,INI,FM,M2,0.0016147123616857,V
CTR,P56,INI,FM,M3,0.0026092078997006,V
CTR,P56,REL,FM,M1,0.0034875934396641,V
CTR,P56,REL,FM,M2,0.0029040448364313,V
CTR,P56,REL,FM,M3,0.0048949398039339,V
CTR,P57,INI,FM,M1,0.0098750813607593,V
CTR,P57,INI,FM,M2,0.0087964607463958,V
CTR,P57,INI,FM,M3,0.0109091996038909,V
CTR,P57,REL,FM,M1,0.0061606444809256,V
CTR,P57,REL,FM,M2,0.0058263865797257,V
CTR,P57,REL,FM,M3,0.004159639827451,V
CTR,P60,INI,FM,M1,0.004857957924814,V
CTR,P60,INI,FM,M2,0.0036376069521016,V
CTR,P60,INI,FM,M3,0.0054969997260959,V
CTR,P60,REL,FM,M1,0.0092371522646393,V
CTR,P60,REL,FM,M2,0.0121471180347775,V
CTR,P60,REL,FM,M3,0.009348148707829,V
CTR,P64,INI,FM,M1,0.0020630609565235,V
CTR,P64,INI,FM,M2,0.0083014662426552,V
CTR,P64,INI,FM,M3,0.005023180430333,V
CTR,P64,REL,FM,M1,0.0012231401398843,V
CTR,P64,REL,FM,M2,0.006345704269088,V
CTR,P64,REL,FM,M3,0.0053292588398962,V
CTR,P66,INI,FM,M1,0.0012314657752142,V
CTR,P66,INI,FM,M2,0.0005172312211769,V
CTR,P66,INI,FM,M3,0.0009738289989145,V
CTR,P66,REL,FM,M1,0.0029950090617836,V
CTR,P66,REL,FM,M2,0.0019964913969863,V
CTR,P66,REL,FM,M3,0.0026801913857243,V
CTR,P67,INI,FM,M1,0.0019703195333927,V
CTR,P67,INI,FM,M2,0.0090346899333893,V
CTR,P67,INI,FM,M3,0.0129322977853819,V
CTR,P67,REL,FM,M1,0.0088726045592793,V
CTR,P67,REL,FM,M2,0.0089177822233544,V
CTR,P67,REL,FM,M3,0.0165974574475812,V
CTR,P68,INI,FM,M1,0.0100858671651006,V
CTR,P68,INI,FM,M2,0.0112983485075103,V
CTR,P68,INI,FM,M3,0.009878108067814,V
CTR,P68,REL,FM,M1,0.0084819603744035,V
CTR,P68,REL,FM,M2,0.0121170445928386,V
CTR,P68,REL,FM,M3,0.0089937060318243,V
