Group,Participant,Session,Operator,Measure,Value,Unit
CTR,P01,INI,FM,M1,0.0032658592351341,V
CTR,P01,INI,FM,M2,0.0037200176499949,V
CTR,P01,INI,FM,M3,0.0034584947355071,V
CTR,P01,REL,FM,M1,0.0032657128024317,V
CTR,P01,REL,FM,M2,0.0032877569617796,V
CTR,P01,REL,FM,M3,0.0035341804297884,V
CTR,P02,INI,FM,M1,0.0113021185846326,V
CTR,P02,INI,FM,M2,0.0125610945648691,V
CTR,P02,INI,FM,M3,0.0111184957619679,V
CTR,P02,REL,FM,M1,0.005780346181283,V
CTR,P02,REL,FM,M2,0.0057633608781701,V
CTR,P02,REL,FM,M3,0.0058518605383266,V
CTR,P03,INI,FM,M1,0.0064091489812998,V
CTR,P03,INI,FM,M2,0.006289495169901,V
CTR,P03,INI,FM,M3,0.0067025751549623,V
CTR,P03,REL,FM,M1,0.0113841787756182,V
CTR,P03,REL,FM,M2,0.0105158940213424,V
CTR,P03,REL,FM,M3,0.011318270687296,V
CTR,P05,INI,FM,M1,0.00875477283574,V
CTR,P05,INI,FM,M2,0.008513859668469,V
CTR,P05,INI,FM,M3,0.0091379901701451,V
CTR,P05,REL,FM,M1,0.00534300854838,V
CTR,P05,REL,FM,M2,0.0050396672573773,V
CTR,P05,REL,FM,M3,0.005053977373033,V
CTR,P06,INI,FM,M1,0.002361186122162,V
CTR,P06,INI,FM,M2,0.0023391382468755,V
CTR,P06,INI,FM,M3,0.002313909635111,V
CTR,P06,REL,FM,M1,0.0029604400006692,V
CTR,P06,REL,FM,M2,0.002846479207835,V
CTR,P06,REL,FM,M3,0.0029377179644442,V
CTR,P07,INI,FM,M1,0.008962556555729,V
CTR,P07,INI,FM,M2,0.0095582739556032,V
CTR,P07,INI,FM,M3,0.0110299177390895,V
CTR,P07,REL,FM,M1,0.0074588968848162,V
CTR,P07,REL,FM,M2,0.0072969103515539,V
CTR,P07,REL,FM,M3,0.0077908391054519,V
CTR,P08,INI,FM,M1,0.0057882248900833,V
CTR,P08,INI,FM,M2,0.0046138420610749,V
CTR,P08,INI,FM,M3,0.0045671407818806,V
CTR,P08,REL,FM,M1,0.0059438320541432,V
CTR,P08,REL,FM,M2,0.0053406169771187,V
CTR,P08,REL,FM,M3,0.0048804916538984,V
CTR,P13,INI,FM,M1,0.0062563021242643,V
CTR,P13,INI,FM,M2,0.0061947405295676,V
CTR,P13,INI,FM,M3,0.0061702037303749,V
CTR,P13,REL,FM,M1,0.0058425187208619,V
CTR,P13,REL,FM,M2,0.0059689988801596,V
CTR,P13,REL,FM,M3,0.0060270912308681,V
CTR,P16,INI,FM,M1,0.004141762291694,V
CTR,P16,INI,FM,M2,0.0038339626150778,V
CTR,P16,INI,FM,M3,0.0043380102736244,V
CTR,P16,REL,FM,M1,0.0046070003009747,V
CTR,P16,REL,FM,M2,0.0046982036667382,V
CTR,P16,REL,FM,M3,0.0048232738154914,V
CTR,P21,INI,FM,M1,0.0068773339161123,V
CTR,P21,INI,FM,M2,0.0068719037820311,V
CTR,P21,INI,FM,M3,0.0097838891318123,V
CTR,P21,REL,FM,M1,0.0088912364009643,V
CTR,P21,REL,FM,M2,0.0164519191894553,V
CTR,P21,REL,FM,M3,0.0224096748402576,V
CTR,P22,INI,FM,M1,0.004964949968445,V
CTR,P22,INI,FM,M2,0.0055429699250494,V
CTR,P22,INI,FM,M3,0.0047970319417797,V
CTR,P22,REL,FM,M1,,V
CTR,P22,REL,FM,M2,,V
CTR,P22,REL,FM,M3,,V
CTR,P23,INI,FM,M1,0.0062154203960099,V
CTR,P23,INI,FM,M2,0.0062653038605248,V
CTR,P23,INI,FM,M3,0.0071411349533511,V
CTR,P23,REL,FM,M1,0.0110774789264153,V
CTR,P23,REL,FM,M2,0.0122944450955661,V
CTR,P23,REL,FM,M3,0.0111051406856211,V
CTR,P25,INI,FM,M1,0.0128222138232649,V
CTR,P25,INI,FM,M2,0.0109027248364867,V
CTR,P25,INI,FM,M3,0.0114493941159295,V
CTR,P25,REL,FM,M1,0.0132877342980093,V
CTR,P25,REL,FM,M2,0.0117479332970483,V
CTR,P25,REL,FM,M3,0.0140324569354912,V
CTR,P35,INI,FM,M1,0.0092398518236746,V
CTR,P35,INI,FM,M2,0.0124219344559277,V
CTR,P35,INI,FM,M3,0.0338157343868343,V
CTR,P35,REL,FM,M1,0.0086207297271561,V
CTR,P35,REL,FM,M2,0.0083743153282906,V
CTR,P35,REL,FM,M3,0.009778043762112,V
CTR,P38,INI,FM,M1,0.007534361210268,V
CTR,P38,INI,FM,M2,0.0081558390778484,V
CTR,P38,INI,FM,M3,0.0079516456230485,V
CTR,P38,REL,FM,M1,0.0077171571779452,V
CTR,P38,REL,FM,M2,0.0081129535555119,V
CTR,P38,REL,FM,M3,0.008168681877996,V
CTR,P39,INI,FM,M1,0.0052356371157407,V
CTR,P39,INI,FM,M2,0.0050169278292654,V
CTR,P39,INI,FM,M3,0.0053826782670461,V
CTR,P39,REL,FM,M1,0.0071841618062377,V
CTR,P39,REL,FM,M2,0.0060367891912569,V
CTR,P39,REL,FM,M3,0.0064652664099879,V
CTR,P40,INI,FM,M1,0.0195728862859045,V
CTR,P40,INI,FM,M2,0.0187496333698699,V
CTR,P40,INI,FM,M3,0.020590377295952,V
CTR,P40,REL,FM,M1,0.0152932198773356,V
CTR,P40,REL,FM,M2,0.0152748648862169,V
CTR,P40,REL,FM,M3,0.0150996605978164,V
CTR,P44,INI,FM,M1,0.0106467003128285,V
CTR,P44,INI,FM,M2,0.0099733987658695,V
CTR,P44,INI,FM,M3,0.0100652128261504,V
CTR,P44,REL,FM,M1,0.0066258974947008,V
CTR,P44,REL,FM,M2,0.0071534120838875,V
CTR,P44,REL,FM,M3,0.0078955747005682,V
CTR,P46,INI,FM,M1,0.0075934350634526,V
CTR,P46,INI,FM,M2,0.0083624484897941,V
CTR,P46,INI,FM,M3,0.0090267654750945,V
CTR,P46,REL,FM,M1,0.0057022991271108,V
CTR,P46,REL,FM,M2,0.005365948052806,V
CTR,P46,REL,FM,M3,0.0073630109248287,V
CTR,P48,INI,FM,M1,0.0125164846737042,V
CTR,P48,INI,FM,M2,0.011918295746108,V
CTR,P48,INI,FM,M3,0.013054500442421,V
CTR,P48,REL,FM,M1,0.0126521262920197,V
CTR,P48,REL,FM,M2,0.0114267102969619,V
CTR,P48,REL,FM,M3,0.0126561394093531,V
CTR,P49,INI,FM,M1,0.0307849473963635,V
CTR,P49,INI,FM,M2,0.0087594763964883,V
CTR,P49,INI,FM,M3,0.011514080891318,V
CTR,P49,REL,FM,M1,0.0069136854610355,V
CTR,P49,REL,FM,M2,0.0065358396413896,V
CTR,P49,REL,FM,M3,0.0075719528756378,V
CTR,P52,INI,FM,M1,0.0097300837924219,V
CTR,P52,INI,FM,M2,0.0116092843233564,V
CTR,P52,INI,FM,M3,0.0112228931982731,V
CTR,P52,REL,FM,M1,0.0060295564848212,V
CTR,P52,REL,FM,M2,0.006506656986583,V
CTR,P52,REL,FM,M3,0.007676301304649,V
CTR,P55,INI,FM,M1,0.0043931009212341,V
CTR,P55,INI,FM,M2,0.0052517563473217,V
CTR,P55,INI,FM,M3,0.0056010358941017,V
CTR,P55,REL,FM,M1,0.00779905623649,V
CTR,P55,REL,FM,M2,0.0088306104033436,V
CTR,P55,REL,FM,M3,0.0089647401371688,V
CTR,P56,INI,FM,M1,0.0073877825473542,V
CTR,P56,INI,FM,M2,0.0082898184261706,V
CTR,P56,INI,FM,M3,0.007529994012472,V
CTR,P56,REL,FM,M1,0.0081005301395462,V
CTR,P56,REL,FM,M2,0.0078923141591113,V
CTR,P56,REL,FM,M3,0.0073992094074938,V
CTR,P57,INI,FM,M1,0.0039791251193886,V
CTR,P57,INI,FM,M2,0.0043998936863658,V
CTR,P57,INI,FM,M3,0.0044792385657427,V
CTR,P57,REL,FM,M1,0.0038509710750543,V
CTR,P57,REL,FM,M2,0.0039355963284776,V
CTR,P57,REL,FM,M3,0.0041204068233742,V
CTR,P60,INI,FM,M1,0.0068106585660789,V
CTR,P60,INI,FM,M2,,V
CTR,P60,INI,FM,M3,,V
CTR,P60,REL,FM,M1,0.0072116177517336,V
CTR,P60,REL,FM,M2,0.0078751112815926,V
CTR,P60,REL,FM,M3,0.0082924655939326,V
CTR,P64,INI,FM,M1,0.0123257085003584,V
CTR,P64,INI,FM,M2,0.0154922738078772,V
CTR,P64,INI,FM,M3,0.0142051580781852,V
CTR,P64,REL,FM,M1,0.0120511927844815,V
CTR,P64,REL,FM,M2,0.0117101498008103,V
CTR,P64,REL,FM,M3,0.0120942249082163,V
CTR,P66,INI,FM,M1,0.0068245950404181,V
CTR,P66,INI,FM,M2,0.0070885241491698,V
CTR,P66,INI,FM,M3,0.0071747583694715,V
CTR,P66,REL,FM,M1,0.0061837152662779,V
CTR,P66,REL,FM,M2,0.0053797275360643,V
CTR,P66,REL,FM,M3,0.0058043836714857,V
CTR,P67,INI,FM,M1,0.0123610227311771,V
CTR,P67,INI,FM,M2,0.0123293259383608,V
CTR,P67,INI,FM,M3,0.0163000614972961,V
CTR,P67,REL,FM,M1,0.0242650167257517,V
CTR,P67,REL,FM,M2,0.015464204603935,V
CTR,P67,REL,FM,M3,0.0167525976619992,V
CTR,P68,INI,FM,M1,0.0094677162765607,V
CTR,P68,INI,FM,M2,0.010582625910987,V
CTR,P68,INI,FM,M3,0.0111017643741185,V
CTR,P68,REL,FM,M1,0.0088725652096316,V
CTR,P68,REL,FM,M2,0.0081862939419095,V
CTR,P68,REL,FM,M3,0.01191059702154,V
