Group,Participant,Session,Operator,Measure,Value,Unit
PAT,P09,INI,FM,M1,55.647188531464906,%MAX
PAT,P09,INI,FM,M2,61.332163939444854,%MAX
PAT,P09,INI,FM,M3,64.3752545331579,%MAX
PAT,P09,REL,FM,M1,59.0936686659411,%MAX
PAT,P09,REL,FM,M2,62.65860111712196,%MAX
PAT,P09,REL,FM,M3,66.11407583789446,%MAX
PAT,P10,INI,FM,M1,34.295915871671795,%MAX
PAT,P10,INI,FM,M2,34.64639378594647,%MAX
PAT,P10,INI,FM,M3,34.61916071043438,%MAX
PAT,P10,REL,FM,M1,40.84279896105305,%MAX
PAT,P10,REL,FM,M2,42.853672337961726,%MAX
PAT,P10,REL,FM,M3,42.819495002720274,%MAX
PAT,P11,INI,FM,M1,59.55736357294544,%MAX
PAT,P11,INI,FM,M2,58.665060689171746,%MAX
PAT,P11,INI,FM,M3,61.38344146061217,%MAX
PAT,P11,REL,FM,M1,50.91190627911942,%MAX
PAT,P11,REL,FM,M2,48.10893051701269,%MAX
PAT,P11,REL,FM,M3,50.062684744097055,%MAX
PAT,P12,INI,FM,M1,70.23757821360816,%MAX
PAT,P12,INI,FM,M2,69.76469634081705,%MAX
PAT,P12,INI,FM,M3,70.54713854640897,%MAX
PAT,P12,REL,FM,M1,68.76167731853897,%MAX
PAT,P12,REL,FM,M2,64.90066207458403,%MAX
PAT,P12,REL,FM,M3,61.956295273078894,%MAX
PAT,P14,INI,FM,M1,67.1856495742906,%MAX
PAT,P14,INI,FM,M2,71.48730453293832,%MAX
PAT,P14,INI,FM,M3,69.80023679324059,%MAX
PAT,P14,REL,FM,M1,65.26085834950884,%MAX
PAT,P14,REL,FM,M2,68.65137293931586,%MAX
PAT,P14,REL,FM,M3,61.24346368514025,%MAX
PAT,P17,INI,FM,M1,140.23939269828296,%MAX
PAT,P17,INI,FM,M2,127.301284038833,%MAX
PAT,P17,INI,FM,M3,119.13302521354626,%MAX
PAT,P17,REL,FM,M1,104.04178592639812,%MAX
PAT,P17,REL,FM,M2,129.34301066917226,%MAX
PAT,P17,REL,FM,M3,149.5565297047423,%MAX
PAT,P24,INI,FM,M1,52.234615425534486,%MAX
PAT,P24,INI,FM,M2,53.188310783136714,%MAX
PAT,P24,INI,FM,M3,158.779560474684,%MAX
PAT,P24,REL,FM,M1,55.390952168378774,%MAX
PAT,P24,REL,FM,M2,54.447513812606665,%MAX
PAT,P24,REL,FM,M3,53.56578014714328,%MAX
PAT,P26,INI,FM,M1,77.93021315205807,%MAX
PAT,P26,INI,FM,M2,80.9722403542933,%MAX
PAT,P26,INI,FM,M3,233.23689719970434,%MAX
PAT,P26,REL,FM,M1,93.52295400244084,%MAX
PAT,P26,REL,FM,M2,83.65837814352149,%MAX
PAT,P26,REL,FM,M3,115.68773765898945,%MAX
PAT,P27,INI,FM,M1,60.00025862498964,%MAX
PAT,P27,INI,FM,M2,63.57924874612763,%MAX
PAT,P27,INI,FM,M3,191.8224615127395,%MAX
PAT,P27,REL,FM,M1,63.96167416880363,%MAX
PAT,P27,REL,FM,M2,65.46649204132993,%MAX
PAT,P27,REL,FM,M3,138.351570611189,%MAX
PAT,P28,INI,FM,M1,67.23295740534684,%MAX
PAT,P28,INI,FM,M2,81.72788415635863,%MAX
PAT,P28,INI,FM,M3,177.0064584188042,%MAX
PAT,P28,REL,FM,M1,61.63020805069885,%MAX
PAT,P28,REL,FM,M2,62.372416266043416,%MAX
PAT,P28,REL,FM,M3,175.69991409773377,%MAX
PAT,P29,INI,FM,M1,68.39539008463797,%MAX
PAT,P29,INI,FM,M2,72.6722875649516,%MAX
PAT,P29,INI,FM,M3,125.32478226092226,%MAX
PAT,P29,REL,FM,M1,70.889620946815,%MAX
PAT,P29,REL,FM,M2,65.44186809766416,%MAX
PAT,P29,REL,FM,M3,142.64391038754266,%MAX
PAT,P30,INI,FM,M1,83.04874228356013,%MAX
PAT,P30,INI,FM,M2,80.07109976736201,%MAX
PAT,P30,INI,FM,M3,185.41088672708662,%MAX
PAT,P30,REL,FM,M1,91.38098207622026,%MAX
PAT,P30,REL,FM,M2,112.4714538536791,%MAX
PAT,P30,REL,FM,M3,106.79111837565296,%MAX
PAT,P32,INI,FM,M1,59.676904206476884,%MAX
PAT,P32,INI,FM,M2,62.508792798862295,%MAX
PAT,P32,INI,FM,M3,128.5630975839747,%MAX
PAT,P32,REL,FM,M1,52.410314928970855,%MAX
PAT,P32,REL,FM,M2,84.47076119230897,%MAX
PAT,P32,REL,FM,M3,155.50832937146842,%MAX
PAT,P33,INI,FM,M1,68.75377618696788,%MAX
PAT,P33,INI,FM,M2,70.55069355057306,%MAX
PAT,P33,INI,FM,M3,150.7519295212012,%MAX
PAT,P33,REL,FM,M1,79.62380523348463,%MAX
PAT,P33,REL,FM,M2,90.6602898967639,%MAX
PAT,P33,REL,FM,M3,152.42134821272097,%MAX
PAT,P34,INI,FM,M1,83.79163221066756,%MAX
PAT,P34,INI,FM,M2,85.01569898938112,%MAX
PAT,P34,INI,FM,M3,119.27809538762182,%MAX
PAT,P34,REL,FM,M1,70.19070188816521,%MAX
PAT,P34,REL,FM,M2,74.03855751485938,%MAX
PAT,P34,REL,FM,M3,122.73746021660489,%MAX
PAT,P36,INI,FM,M1,62.29309815171187,%MAX
PAT,P36,INI,FM,M2,84.98965294538071,%MAX
PAT,P36,INI,FM,M3,162.47380646756415,%MAX
PAT,P36,REL,FM,M1,53.569044528320866,%MAX
PAT,P36,REL,FM,M2,56.27903462923339,%MAX
PAT,P36,REL,FM,M3,159.43682481529706,%MAX
PAT,P41,INI,FM,M1,58.92123685741192,%MAX
PAT,P41,INI,FM,M2,55.7813345689903,%MAX
PAT,P41,INI,FM,M3,145.6817206175443,%MAX
PAT,P41,REL,FM,M1,65.9487740223461,%MAX
PAT,P41,REL,FM,M2,62.621520020927754,%MAX
PAT,P41,REL,FM,M3,133.29414487259956,%MAX
PAT,P42,INI,FM,M1,37.87961011259403,%MAX
PAT,P42,INI,FM,M2,40.498684878781,%MAX
PAT,P42,INI,FM,M3,47.023458129675305,%MAX
PAT,P43,INI,FM,M1,,%MAX
PAT,P43,INI,FM,M2,,%MAX
PAT,P43,INI,FM,M3,,%MAX
PAT,P43,REL,FM,M1,63.643841560203235,%MAX
PAT,P43,REL,FM,M2,63.4558943924021,%MAX
PAT,P43,REL,FM,M3,134.74960667736838,%MAX
PAT,P45,INI,FM,M1,64.86691378233407,%MAX
PAT,P45,INI,FM,M2,80.1418624117985,%MAX
PAT,P45,INI,FM,M3,147.4450746519449,%MAX
PAT,P45,REL,FM,M1,52.80259634064769,%MAX
PAT,P45,REL,FM,M2,51.10796245764275,%MAX
PAT,P45,REL,FM,M3,52.497389575523286,%MAX
PAT,P47,INI,FM,M1,74.78063178809505,%MAX
PAT,P47,INI,FM,M2,67.28559460919351,%MAX
PAT,P47,INI,FM,M3,73.37180172520353,%MAX
PAT,P47,REL,FM,M1,62.32143684702146,%MAX
PAT,P47,REL,FM,M2,81.36207425635065,%MAX
PAT,P47,REL,FM,M3,171.0974472815806,%MAX
PAT,P50,REL,FM,M1,68.06664438612937,%MAX
PAT,P50,REL,FM,M2,57.5858835407106,%MAX
PAT,P50,REL,FM,M3,51.432624468165955,%MAX
PAT,P51,INI,FM,M1,77.87381635381739,%MAX
PAT,P51,INI,FM,M2,76.45524508891847,%MAX
PAT,P51,INI,FM,M3,79.27868004087293,%MAX
PAT,P51,REL,FM,M1,133.57657664202,%MAX
PAT,P51,REL,FM,M2,141.82712468310987,%MAX
PAT,P51,REL,FM,M3,138.32088862817793,%MAX
PAT,P53,INI,FM,M1,89.40489143303185,%MAX
PAT,P53,INI,FM,M2,79.68745867848352,%MAX
PAT,P53,INI,FM,M3,70.60829497334079,%MAX
PAT,P53,REL,FM,M1,56.9691883166037,%MAX
PAT,P53,REL,FM,M2,54.26062739848612,%MAX
PAT,P53,REL,FM,M3,161.02874531910956,%MAX
PAT,P58,INI,FM,M1,127.00159112243956,%MAX
PAT,P58,INI,FM,M2,124.61717264668674,%MAX
PAT,P58,INI,FM,M3,132.60929410376917,%MAX
PAT,P58,REL,FM,M1,91.80454829230641,%MAX
PAT,P58,REL,FM,M2,98.08480965037054,%MAX
PAT,P58,REL,FM,M3,99.72735571069425,%MAX
PAT,P61,INI,FM,M1,134.0081708381452,%MAX
PAT,P61,INI,FM,M2,102.42335256306671,%MAX
PAT,P61,INI,FM,M3,160.65424664955532,%MAX
PAT,P61,REL,FM,M1,67.10866902023928,%MAX
PAT,P61,REL,FM,M2,147.27368955043747,%MAX
PAT,P61,REL,FM,M3,141.62260059295758,%MAX
PAT,P62,INI,FM,M1,102.98203955253834,%MAX
PAT,P62,INI,FM,M2,111.29116482270686,%MAX
PAT,P62,INI,FM,M3,107.748108286401,%MAX
PAT,P62,REL,FM,M1,,%MAX
PAT,P62,REL,FM,M2,,%MAX
PAT,P62,REL,FM,M3,,%MAX
PAT,P63,INI,FM,M1,89.51009527625229,%MAX
PAT,P63,INI,FM,M2,116.93981578971093,%MAX
PAT,P63,INI,FM,M3,127.18752537190923,%MAX
