event,time_sec,time_min
RHS,0.029999999329447746,0.0
RHS,0.9800000190734863,0.0
RHS,1.940000057220459,0.0
RTO,0.6000000238418579,0.0
RTO,1.5700000524520874,0.0
RTO,2.5399999618530273,0.0
LHS,0.5,0.0
LHS,1.4700000286102295,0.0
LHS,2.450000047683716,0.0
LTO,0.15000000596046448,0.0
LTO,1.090000033378601,0.0
LTO,2.069999933242798,0.0
