event,time_sec,time_min
RHS,0.6600000262260437,0.0
RHS,1.7599999904632568,0.0
RHS,2.869999885559082,0.0
RHS,3.950000047683716,0.0
RTO,0.2800000011920929,0.0
RTO,1.350000023841858,0.0
RTO,2.450000047683716,0.0
RTO,3.5399999618530273,0.0
LHS,0.15000000596046448,0.0
LHS,1.2100000381469727,0.0
LHS,2.309999942779541,0.0
LHS,3.4200000762939453,0.0
LTO,0.8299999833106995,0.0
LTO,1.909999966621399,0.0
LTO,3.0199999809265137,0.0
LTO,4.090000152587891,0.0
