event,time_sec,time_min
RHS,0.6600000262260437,0.0
RHS,1.5700000524520874,0.0
RHS,2.509999990463257,0.0
RTO,0.30000001192092896,0.0
RTO,1.2200000286102295,0.0
RTO,2.1500000953674316,0.0
LHS,0.2199999988079071,0.0
LHS,1.1200000047683716,0.0
LHS,2.0399999618530273,0.0
LTO,0.7699999809265137,0.0
LTO,1.6699999570846558,0.0
LTO,2.609999895095825,0.0
