event,time_sec,time_min
RHS,0.12999999523162842,0.0
RHS,1.190000057220459,0.0
RHS,2.25,0.0
RHS,3.299999952316284,0.0
RTO,0.800000011920929,0.0
RTO,1.8700000047683716,0.0
RTO,2.9000000953674316,0.0
RTO,3.9700000286102295,0.0
LHS,0.6600000262260437,0.0
LHS,1.7400000095367432,0.0
LHS,2.7799999713897705,0.0
LHS,3.8499999046325684,0.0
LTO,0.27000001072883606,0.0
LTO,1.3300000429153442,0.0
LTO,2.4100000858306885,0.0
LTO,3.440000057220459,0.0
