event,time_sec,time_min
RHS,0.6800000071525574,0.0
RHS,1.7799999713897705,0.0
RHS,2.869999885559082,0.0
RHS,3.950000047683716,0.0
RHS,5.03000020980835,0.0
RTO,0.28999999165534973,0.0
RTO,1.3700000047683716,0.0
RTO,2.4700000286102295,0.0
RTO,3.549999952316284,0.0
RTO,4.630000114440918,0.0
LHS,0.17000000178813934,0.0
LHS,1.2400000095367432,0.0
LHS,2.3299999237060547,0.0
LHS,3.430000066757202,0.0
LHS,4.5,0.0
LTO,0.8399999737739563,0.0
LTO,1.9199999570846558,0.0
LTO,3.0299999713897705,0.0
LTO,4.090000152587891,0.0
LTO,5.190000057220459,0.0
