event,time_sec,time_min
startMotion,0.10000000149011612,0.0
startMotion,9.010000228881836,0.0
startMotion,16.110000610351562,0.0
startMotion,23.31999969482422,0.0
startMotion,30.260000228881836,0.0
startMotion,37.099998474121094,0.0
startMotion,46.4900016784668,0.0
stopMotion,5.21999979019165,0.0
stopMotion,12.649999618530273,0.0
stopMotion,19.639999389648438,0.0
stopMotion,26.889999389648438,0.0
stopMotion,33.65999984741211,0.0
stopMotion,40.56999969482422,0.0
