event,time_sec,time_min
startMotion,0.10000000149011612,0.0
startMotion,6.409999847412109,0.0
startMotion,12.449999809265137,0.0
startMotion,18.719999313354492,0.0
startMotion,25.239999771118164,0.0
startMotion,31.760000228881836,0.0
startMotion,39.93000030517578,0.0
stopMotion,2.7799999713897705,0.0
stopMotion,9.819999694824219,0.0
stopMotion,15.3100004196167,0.0
stopMotion,22.190000534057617,0.0
stopMotion,28.299999237060547,0.0
stopMotion,35.099998474121094,0.0
