"","Biomarkers","Unit","MDC_intra","MDC_testretest","MDCp_intra","MDCp_testretest"
"1","Control_BMo1.csv","V","0.00704156339482777","0.0074730484438829","133.515587666642","141.697006573739"
"2","Control_BMo100.csv","%MAX","14.7099511914251","19.6623288741733","44.9665573377615","60.1053822143088"
"3","Control_BMo101.csv","%MAX","12.8053604458459","18.1570792304756","41.4166731642739","58.725860883548"
"4","Control_BMo102.csv","%MAX","14.5006539241583","17.1514959401444","61.4276462298498","72.6571388045213"
"5","Control_BMo103.csv","%MAX","17.405151356154","20.5074826874453","94.683572651292","111.560174755119"
"6","Control_BMo104.csv","%MAX","22.9032482201354","24.6573720453808","115.795702123033","124.664313160329"
"7","Control_BMo105.csv","%MAX","17.3456028930364","24.3246173616396","74.7553492103745","104.833211995654"
"8","Control_BMo106.csv","%MAX","19.3642786071202","23.0496575532437","92.912177857396","110.595076924352"
"9","Control_BMo107.csv","%MAX","15.1453068382288","21.1636728180992","90.0640079491729","125.853191175484"
"10","Control_BMo108.csv","%MAX","12.6482092689539","19.2928869292142","43.8737835578163","66.9226708175567"
"11","Control_BMo109.csv","%MAX","58.4544881549731","62.5261248671351","62.2127025941774","66.5461170477213"
"12","Control_BMo110.csv","%subMVIC","2.91220330051617","13.24817234758","25.6233449341522","116.565519223528"
"13","Control_BMo111.csv","%subMVIC","13.7703251520952","40.7396844272424","36.30291914149","107.402654133187"
"14","Control_BMo112.csv","%subMVIC","10.2261295556923","25.699863529186","40.993608342666","103.023351526872"
"15","Control_BMo113.csv","%subMVIC","4.40368527433815","14.7701892890099","25.067491826029","84.0776704522334"
"16","Control_BMo114.csv","V","0.0169479110481775","0.0197638400473633","84.325394595098","98.3362259791617"
"17","Control_BMo115.csv","V","0.0042752485849805","0.00910896738820954","37.5344918637769","79.9720660738422"
"18","Control_BMo117.csv","Hz","12.7617480660791","18.4452317863981","11.5455427489123","16.6873856936188"
"19","Control_BMo118.csv","Hz","13.1628503459998","19.8844795157844","14.3808110782314","21.7243937132779"
"20","Control_BMo15.csv","V","0.00472067922186045","0.00370979114538522","123.075451570436","96.7200267147884"
"21","Control_BMo22.csv","V","0.00611048732496287","0.00971237353006155","47.3963500987174","75.3345898026408"
"22","Control_BMo23.csv","V","0.00221142096668161","0.00298417282878807","59.9315275965766","80.873808712159"
"23","Control_BMo24.csv","V","0.00578991989526504","0.0110834556082243","56.0563191653562","107.306791159196"
"24","Control_BMo29.csv","Hz","15.7353578196882","58.3045531024118","21.9008000119723","81.1494960531278"
"25","Control_BMo34.csv","%MAX","1.83948507634617","4.91527915535638","35.6520254842257","95.2656044684709"
"26","Control_BMo35.csv","NAN","0.380134133867831","0.496692320503503","77.5934243715086","101.385417864889"
"27","Control_BMo36.csv","%SubMVIC","1.93579829709936","5.95115851945358","37.8877279483018","116.476946642702"
"28","Control_BMo37.csv","Hz","33.1674144777645","53.8419417681046","37.2918618014923","60.5373160119619"
"29","Control_BMo38.csv","Hz","15.0778687940822","62.4156906013963","16.4235217363986","67.9860970594658"
"30","Control_BMo40.csv","Hz","27.2517489533626","42.1285857969566","45.9829614729212","71.0852408381328"
"31","Control_BMo41.csv","NAN","0.238762929867838","1.77296180583392","17.5719785086294","130.482762822434"
"32","Control_BMo42.csv","NAN","9.0385995306795","11.186434813791","134.412575482019","166.352929862613"
"33","Control_BMo43.csv","NAN","2.48320620472405","2.49737040875306","156.675244536646","157.56891986884"
"34","Control_BMo44.csv","NAN","12.6111632931905","14.0196497739204","90.2393277197256","100.317769348661"
"35","Control_BMo51.csv","Hz","48.0983921841114","57.2136229290974","39.9257605140263","47.4921780849367"
"36","Control_BMo52.csv","Hz","23.9768630265245","43.9655549063845","29.948593810431","54.9157137063719"
"37","Control_BMo53.csv","Hz","45.5705837677611","59.2583531308541","52.7662188093042","68.6152989287302"
"38","Control_BMo67.csv","%subMVIC","2.76325873915659","13.8208070230589","17.1774104127523","85.9151085297908"
"39","Control_BMo68.csv","%subMVIC","1.89443044310579","5.64640952199796","28.7996295747162","85.8382017943591"
"40","Control_BMo69.csv","V","0.0100956259266943","0.0194096247060861","51.8018555953409","99.5930894711405"
"41","Control_BMo81.csv","V","0.00226530301677144","0.00423479267175208","46.5704198059233","87.0594666825714"
"42","Control_BMo82.csv","V","0.00564999127778112","0.0152028529693318","34.829594389454","93.718587596171"
"43","Control_BMo86.csv","s","0.917206866328921","1.08020700591231","103.149567646869","121.480649261752"
"44","Control_BMo87.csv","s","1.7425987113521","2.11880810145526","180.056040812175","218.928314076845"
"45","Control_BMo88.csv","s","3.55895217871166","3.99351969489546","251.223852112242","281.899657780995"
"46","Control_BMo91.csv","V","0.00163406383181055","0.00334845696126297","46.5383087796604","95.3644043549983"
"47","Control_BMo96.csv","V","0.012258483551278","0.0154895797922883","41.8173001315101","52.8395216566215"
"48","Control_BMo97.csv","V","0.00552942389387832","0.00818954325617289","67.7758380926497","100.381733872426"
"49","Control_BMo98.csv","V","0.0131693461892033","0.0246599780767566","49.0011084601363","91.7559796062159"
"50","Patient_BMo1.csv","V","0.00339084934008366","0.00488560990020802","132.347350363749","190.688957353522"
"51","Patient_BMo100.csv","%MAX","13.1767746543397","19.9888100077671","40.5116439956495","61.455065915136"
"52","Patient_BMo101.csv","%MAX","14.6674861075339","14.1619670545953","47.9756962981954","46.3222003699274"
"53","Patient_BMo102.csv","%MAX","15.8434665727011","26.4853840003441","69.8151333599197","116.709345621289"
"54","Patient_BMo103.csv","%MAX","15.3316556855528","18.208726423174","90.7615006462001","107.793402677358"
"55","Patient_BMo104.csv","%MAX","11.8844233279503","11.884423326814","76.8267685270663","76.8267685197211"
"56","Patient_BMo105.csv","%MAX","17.8415779420156","24.0953085971909","70.5714038197186","95.307699728099"
"57","Patient_BMo106.csv","%MAX","20.7637475675807","22.7490632567216","96.1059017054557","105.295021051752"
"58","Patient_BMo107.csv","%MAX","15.4850133615339","14.6362767578609","96.8363054212843","91.5286886271225"
"59","Patient_BMo108.csv","%MAX","10.3636125832902","12.1011960403954","37.9959665687807","44.3664442777876"
"60","Patient_BMo109.csv","%MAX","16.7772667796243","13.4248913822086","26.6678908974319","21.3392052110308"
"61","Patient_BMo110.csv","%subMVIC","3.01873170477668","15.6933697554047","22.2448698939402","115.643588946339"
"62","Patient_BMo111.csv","%subMVIC","14.1479897139752","34.3683439273597","32.4244263210268","78.7655248538683"
"63","Patient_BMo112.csv","%subMVIC","9.33615240080158","27.2864630899092","34.4873675610106","100.795085772256"
"64","Patient_BMo113.csv","%subMVIC","4.43913324167675","14.6965874325524","25.6300923156794","84.8532522262152"
"65","Patient_BMo114.csv","V","0.0137629584985078","0.0150947080988416","80.2454931838114","88.0103137700041"
"66","Patient_BMo115.csv","V","0.00324548342777662","0.0066034466491998","31.5090314626975","64.1100818605695"
"67","Patient_BMo117.csv","Hz","17.0758857281816","31.2884262613782","15.879051990825","29.095448120478"
"68","Patient_BMo118.csv","Hz","17.7184137866437","33.0775258645117","19.7994796911268","36.9625526005495"
"69","Patient_BMo15.csv","V","0.00600739499245241","0.00647031394945161","94.1854183639838","101.443175792681"
"70","Patient_BMo22.csv","V","0.00542168387331937","0.00711202220586696","42.1269888845246","55.261075233001"
"71","Patient_BMo23.csv","V","0.00284550536490144","0.00436934295983536","70.1272732656999","107.682140232601"
"72","Patient_BMo24.csv","V","0.00858027063899255","0.0116809061886526","82.5666557227333","112.403605945146"
"73","Patient_BMo29.csv","Hz","15.4586348472881","36.052425612038","19.7271214079575","46.0073340321378"
"74","Patient_BMo34.csv","%MAX","2.13869414106203","5.26892453733512","30.241200950795","74.5027550545409"
"75","Patient_BMo35.csv","NAN","0.398367164537475","0.422204874833366","78.7867766365605","83.5012624772546"
"76","Patient_BMo36.csv","%SubMVIC","2.06580498515699","5.83979946475095","26.547771446377","75.047578351691"
"77","Patient_BMo37.csv","Hz","28.7128008318551","48.6678198350553","29.7793747969693","50.4756486804165"
"78","Patient_BMo38.csv","Hz","13.5139825560663","32.5472823558687","13.8377042403641","33.3269386133671"
"79","Patient_BMo40.csv","Hz","25.7226852009605","43.962976577016","39.3393336068113","67.2353678630364"
"80","Patient_BMo41.csv","NAN","0.224259795172033","1.81407925397486","19.1506770727095","154.913393863238"
"81","Patient_BMo42.csv","NAN","4.7790562944418","4.94173463558031","129.857367714198","134.277692536262"
"82","Patient_BMo43.csv","NAN","1.84381393066665","1.95291658307122","152.332551255462","161.346413832971"
"83","Patient_BMo44.csv","NAN","10.1923422964745","10.8267240093549","118.897605541182","126.297912994228"
"84","Patient_BMo51.csv","Hz","21.5393832105901","37.0863738422828","16.6020189072088","28.5852511982179"
"85","Patient_BMo52.csv","Hz","25.6998933354125","30.9433886341452","28.8476255939317","34.7333460989641"
"86","Patient_BMo53.csv","Hz","21.498399366123","48.3088968305147","21.8556683246676","49.1117133083904"
"87","Patient_BMo67.csv","%subMVIC","1.52749958077195","9.06825519681203","10.0300438014748","59.5450224483927"
"88","Patient_BMo68.csv","%subMVIC","1.8769508686831","6.52316275451693","21.812296129683","75.8065435156926"
"89","Patient_BMo69.csv","V","0.00845658311995622","0.0126059301634171","45.452279198479","67.7541093390365"
"90","Patient_BMo81.csv","V","0.00337978887111704","0.00398364855260192","68.7943257589853","81.0856614680877"
"91","Patient_BMo82.csv","V","0.0115047736919125","0.0203133148218286","76.4845887972657","135.044423546473"
"92","Patient_BMo86.csv","s","1.95424075421765","2.06736120692154","172.418230403916","182.398591439577"
"93","Patient_BMo87.csv","s","7.84888778405402","9.07993705538983","457.110505501079","528.805447536088"
"94","Patient_BMo88.csv","s","11.7833867163951","10.3130727701659","389.054725043902","340.509039338577"
"95","Patient_BMo91.csv","V","0.001259540017986","0.0021881041956496","34.3138264932886","59.6108314516386"
"96","Patient_BMo96.csv","V","0.0187253821361267","0.0217972264951506","70.1782317138952","81.6907660723096"
"97","Patient_BMo97.csv","V","0.00303983546514618","0.00612028839403553","40.334437526043","81.2078129559955"
"98","Patient_BMo98.csv","V","0.0139873361760217","0.0239935946776331","61.3645398673225","105.263495395215"
