"","Biomarkers","Unit","MDC_intra","MDC_testretest","MDCp_intra","MDCp_testretest"
"1","Control_BMo1.csv","V","0.0173167800638445","0.0217626817912434","274.962856403204","345.556686996796"
"2","Control_BMo100.csv","%MAX","18.7343891650841","19.7694407120559","56.4651452070816","59.584773788594"
"3","Control_BMo101.csv","%MAX","31.3376679586349","32.2387581936987","86.9662438710809","89.4668904806451"
"4","Control_BMo102.csv","%MAX","56.1958803862934","43.3301683264417","152.421471851262","117.525483834044"
"5","Control_BMo103.csv","%MAX","63.7010104219882","62.8011858380398","180.760873663228","178.207490649981"
"6","Control_BMo104.csv","%MAX","77.5987323119892","67.8381785972356","209.257849070239","182.936897487267"
"7","Control_BMo105.csv","%MAX","19.8860905306428","24.867772172634","82.3648330832976","102.998118257398"
"8","Control_BMo106.csv","%MAX","71.6284257785037","65.3092459761878","188.588709246169","171.951097160453"
"9","Control_BMo107.csv","%MAX","39.2570998778864","39.6027332726882","164.267146896818","165.713412968763"
"10","Control_BMo108.csv","%MAX","26.1941171854227","27.3471887025765","83.3668359875385","87.0366647270223"
"11","Control_BMo109.csv","%MAX","136.991957884997","102.961664472407","123.262527707905","92.6427741877837"
"12","Control_BMo110.csv","%subMVIC","4.64860874725567","31.2438742002176","33.4645448190422","224.919343687711"
"13","Control_BMo111.csv","%subMVIC","38.4978851214878","139.172533177165","68.2520584912969","246.735940034483"
"14","Control_BMo112.csv","%subMVIC","15.783806801104","84.4552962139004","45.4741108671355","243.320863701845"
"15","Control_BMo113.csv","%subMVIC","16.3524188333669","42.2124867159467","72.785381210521","187.889753116825"
"16","Control_BMo114.csv","V","0.0316209254076756","0.0527938562030681","122.901474562414","205.194588442315"
"17","Control_BMo115.csv","V","0.0196615523756263","0.0328670521930475","118.31360726969","197.777847394248"
"18","Control_BMo117.csv","Hz","12.6749223094742","20.3190263695435","11.389064394574","18.2576819097977"
"19","Control_BMo118.csv","Hz","13.0642829027965","21.6975826536806","14.0584767023989","23.3487718005439"
"20","Control_BMo15.csv","V","0.0127639860798781","0.0176081416716613","220.687989228674","304.442934617309"
"21","Control_BMo22.csv","V","0.0288361046490267","0.0592870306007561","168.809422562469","347.072169523939"
"22","Control_BMo23.csv","V","0.00231672267919621","0.00446402509967588","55.7611503652662","107.444528019086"
"23","Control_BMo24.csv","V","0.0188246831954154","0.0714173306571175","109.648635300532","415.986434516299"
"24","Control_BMo29.csv","Hz","15.2564922848409","55.9726613854921","20.8024913514381","76.3196928002648"
"25","Control_BMo34.csv","%MAX","1.82029192522829","6.90345214982795","32.5343142213594","123.386297737081"
"26","Control_BMo35.csv","NAN","1.37801147521947","1.8464589779046","218.141257222793","292.297190621198"
"27","Control_BMo36.csv","%SubMVIC","1.95629765816365","6.01305114845754","37.2248521370049","114.417629116671"
"28","Control_BMo37.csv","Hz","34.1078754523873","55.3037175147985","38.5796052424692","62.5543386054738"
"29","Control_BMo38.csv","Hz","14.4519154287741","59.0484151536639","15.4707199520842","63.2111015981933"
"30","Control_BMo40.csv","Hz","28.0983353228131","42.265301666401","49.0936668992641","73.8463192772327"
"31","Control_BMo41.csv","NAN","0.241741971082383","1.83388947849395","17.6399608784342","133.819288852332"
"32","Control_BMo42.csv","NAN","32.2346499490186","36.4609530616114","366.817128346582","414.910728672175"
"33","Control_BMo43.csv","NAN","3.13229558796903","3.09767693635576","175.655563891073","173.714189394479"
"34","Control_BMo44.csv","NAN","12.6856697014097","13.999920902592","90.1139032498255","99.4498160062602"
"35","Control_BMo51.csv","Hz","47.3050233650215","60.7074456133394","40.1604008687395","51.5386142553234"
"36","Control_BMo52.csv","Hz","23.9955870467577","46.4677654130975","29.3252667082094","56.7887591755219"
"37","Control_BMo53.csv","Hz","45.5705837677611","59.2583531308541","52.7662188093042","68.6152989287302"
"38","Control_BMo67.csv","%subMVIC","2.76325873915659","13.8208070230589","17.1774104127523","85.9151085297908"
"39","Control_BMo68.csv","%subMVIC","2.8906166536736","50.907068526117","24.7802931753972","436.409331958294"
"40","Control_BMo69.csv","V","0.021957330603407","0.0394053538443882","98.1577196932879","176.157099737438"
"41","Control_BMo81.csv","V","0.00240382148600457","0.00414887373066899","46.2607861109892","79.8437660090103"
"42","Control_BMo82.csv","V","0.0312063395836559","0.0989752623875673","125.342921623822","397.542573773681"
"43","Control_BMo86.csv","s","3.28936205852698","3.28936205532234","313.31455895749","313.314558652246"
"44","Control_BMo87.csv","s","7.08649862436573","13.9248692325228","385.683149943974","757.861916418282"
"45","Control_BMo88.csv","s","7.47120795517904","13.7141714383582","283.861531390277","521.057067290247"
"46","Control_BMo91.csv","V","0.0199322484250124","0.0302788363070767","330.408820664272","501.920023370448"
"47","Control_BMo96.csv","V","0.0126670172967602","0.0169084203933595","42.2419533515692","56.3861790642453"
"48","Control_BMo97.csv","V","0.00746338240491585","0.0097332000006029","85.636015535189","111.680257186035"
"49","Control_BMo98.csv","V","0.0272046041657433","0.0522472984213352","89.1113330434303","171.141119417787"
"50","Patient_BMo1.csv","V","0.00901571798333974","0.0164952001947757","247.301437373566","452.463877582566"
"51","Patient_BMo100.csv","%MAX","15.509713355317","22.9174299211856","44.8432162137884","66.2611385185763"
"52","Patient_BMo101.csv","%MAX","30.6008993688905","27.4882789412241","87.2678424782688","78.391251437537"
"53","Patient_BMo102.csv","%MAX","43.6709883958849","42.6235341897348","126.462697984787","123.429474103421"
"54","Patient_BMo103.csv","%MAX","61.5377372498605","53.173268912383","203.013876815523","175.419375935564"
"55","Patient_BMo104.csv","%MAX","72.7060432941063","52.1181305159225","218.233235427609","156.436903063465"
"56","Patient_BMo105.csv","%MAX","22.1183656483816","28.0536593121626","82.1288226672035","104.167461893069"
"57","Patient_BMo106.csv","%MAX","77.4255989276888","60.9887690724633","226.86107895266","178.700302579456"
"58","Patient_BMo107.csv","%MAX","35.8922448326259","30.1875529404384","158.930655444767","133.67031227694"
"59","Patient_BMo108.csv","%MAX","22.4380846864796","18.7013533306206","71.6508190226004","59.7184341575028"
"60","Patient_BMo109.csv","%MAX","114.326879656749","89.5083377302213","115.440218808986","90.3799887115649"
"61","Patient_BMo110.csv","%subMVIC","69.2939626811806","133.445299930642","276.617018886785","532.705009541794"
"62","Patient_BMo111.csv","%subMVIC","20.4882549622052","62.1041992099047","40.2751792213344","122.082517920167"
"63","Patient_BMo112.csv","%subMVIC","15.918249929255","69.5984581464779","46.3913240445615","202.834145664542"
"64","Patient_BMo113.csv","%subMVIC","6.03801417878746","20.3753873943859","32.3153784691786","109.048825592181"
"65","Patient_BMo114.csv","V","0.0158008835562128","0.0363837586619829","78.656132765325","181.116818033459"
"66","Patient_BMo115.csv","V","0.00828367031130147","0.0268128498604455","64.1591055060197","207.672251365"
"67","Patient_BMo117.csv","Hz","17.0758857281816","31.2884262613782","15.879051990825","29.095448120478"
"68","Patient_BMo118.csv","Hz","17.6335236773756","32.9014281218392","19.8601526302412","37.05597339521"
"69","Patient_BMo15.csv","V","0.00927860458918468","0.0185499474414373","102.846810325895","205.613129401872"
"70","Patient_BMo22.csv","V","0.00941953608086986","0.0221675211792447","56.8958762520893","133.896248286721"
"71","Patient_BMo23.csv","V","0.00342417670845827","0.00462028838593424","75.7138751149757","102.161765478892"
"72","Patient_BMo24.csv","V","0.0265776504370316","0.0415060433421153","204.630550001403","319.569425356162"
"73","Patient_BMo29.csv","Hz","15.3099758961317","34.0460385725379","19.5021857073874","43.3685964855288"
"74","Patient_BMo34.csv","%MAX","2.13869414106203","5.26892453733512","30.241200950795","74.5027550545409"
"75","Patient_BMo35.csv","NAN","0.75156580382948","1.02208897792025","121.511667777069","165.249317745472"
"76","Patient_BMo36.csv","%SubMVIC","1.99775542399593","5.18847187925554","25.3843163915045","65.9268948488234"
"77","Patient_BMo37.csv","Hz","28.7128008318551","48.6678198350553","29.7793747969693","50.4756486804165"
"78","Patient_BMo38.csv","Hz","13.5964734329903","30.1647452242416","13.837137933991","30.6986765699678"
"79","Patient_BMo40.csv","Hz","25.7226852009605","43.962976577016","39.3393336068113","67.2353678630364"
"80","Patient_BMo41.csv","NAN","0.224259795172033","1.81407925397486","19.1506770727095","154.913393863238"
"81","Patient_BMo42.csv","NAN","6.80610256348433","9.84942600718","143.46352078729","207.612700446957"
"82","Patient_BMo43.csv","NAN","2.48325041139104","3.05301874129201","162.848005533254","200.212596600979"
"83","Patient_BMo44.csv","NAN","10.1571830740272","11.1343041431481","113.914593972127","124.873178555991"
"84","Patient_BMo51.csv","Hz","21.6339906535448","41.7962296469174","17.4263746053082","33.6672399734686"
"85","Patient_BMo52.csv","Hz","25.4902779284704","30.9872754369152","28.3274217547669","34.4362514522533"
"86","Patient_BMo53.csv","Hz","21.3226113866588","47.132081526481","21.9717433151862","48.5669404385528"
"87","Patient_BMo67.csv","%subMVIC","1.52658704595828","15.4253425181337","8.68120884613172","87.718954695423"
"88","Patient_BMo68.csv","%subMVIC","3.8641904734296","21.8241058796495","34.5806087277052","195.303743810112"
"89","Patient_BMo69.csv","V","0.0167199277305298","0.0506083718017035","75.963836409207","229.929586924065"
"90","Patient_BMo81.csv","V","0.00420706036911932","0.00731110296362192","74.0498037146915","128.685041785467"
"91","Patient_BMo82.csv","V","0.0226052845744136","0.0424280683046538","132.28453752496","248.286075553823"
"92","Patient_BMo86.csv","s","1.98340719544534","6.41521859082189","159.201702983476","514.928919797924"
"93","Patient_BMo87.csv","s","7.20661277849235","22.2617089548528","278.610051291464","860.645085893563"
"94","Patient_BMo88.csv","s","14.4968456201644","20.5741292753552","356.613445766071","506.110868995914"
"95","Patient_BMo91.csv","V","0.0013468942056393","0.00409412534276248","29.4497209756311","89.517683333107"
"96","Patient_BMo96.csv","V","0.028580447892006","0.0619031679093842","93.0538634491363","201.547888804078"
"97","Patient_BMo97.csv","V","0.00360905632733449","0.00967393752405961","42.8378649823055","114.825259546168"
"98","Patient_BMo98.csv","V","0.0141161758173123","0.024105879095679","61.74394493729","105.438759817881"
