event,time_sec,time_min
RHS,0.7200000286102295,0.0
RHS,1.8600000143051147,0.0
RHS,2.9700000286102295,0.0
RHS,4.090000152587891,0.0
RTO,0.3100000023841858,0.0
RTO,1.4600000381469727,0.0
RTO,2.569999933242798,0.0
RTO,3.6700000762939453,0.0
LHS,0.12999999523162842,0.0
LHS,1.2899999618530273,0.0
LHS,2.390000104904175,0.0
LHS,3.509999990463257,0.0
LTO,0.8999999761581421,0.0
LTO,2.0,0.0
LTO,3.119999885559082,0.0
LTO,4.230000019073486,0.0
