Group,Participant,Session,Operator,Measure,Value,Unit
CTR,P01,INI,FM,M1,2.654876307000785,%MAX
CTR,P01,INI,FM,M2,2.9557994969779817,%MAX
CTR,P01,INI,FM,M3,2.690581542363364,%MAX
CTR,P01,REL,FM,M1,2.8113640833773035,%MAX
CTR,P01,REL,FM,M2,3.780195295227908,%MAX
CTR,P01,REL,FM,M3,3.275167153354171,%MAX
CTR,P02,INI,FM,M1,8.556306651568901,%MAX
CTR,P02,INI,FM,M2,7.992139792664715,%MAX
CTR,P02,INI,FM,M3,7.338780048377895,%MAX
CTR,P03,INI,FM,M1,9.100399750982962,%MAX
CTR,P03,INI,FM,M2,11.530253464150851,%MAX
CTR,P03,INI,FM,M3,9.98199102074276,%MAX
CTR,P03,REL,FM,M1,9.151483220917871,%MAX
CTR,P03,REL,FM,M2,9.88308609894629,%MAX
CTR,P03,REL,FM,M3,8.964058175688493,%MAX
CTR,P05,INI,FM,M1,3.223739874091816,%MAX
CTR,P05,INI,FM,M2,4.295357073984377,%MAX
CTR,P05,INI,FM,M3,3.594424394579917,%MAX
CTR,P05,REL,FM,M1,5.438338852483149,%MAX
CTR,P05,REL,FM,M2,7.926665308719414,%MAX
CTR,P05,REL,FM,M3,6.669887879708195,%MAX
CTR,P06,INI,FM,M1,18.05820630305114,%MAX
CTR,P06,INI,FM,M2,19.000012328432994,%MAX
CTR,P06,INI,FM,M3,18.590443852437872,%MAX
CTR,P06,REL,FM,M1,12.899587728154188,%MAX
CTR,P06,REL,FM,M2,13.52418570857273,%MAX
CTR,P06,REL,FM,M3,12.8795936430245,%MAX
CTR,P07,INI,FM,M1,7.22005510191112,%MAX
CTR,P07,INI,FM,M2,7.755549116849533,%MAX
CTR,P07,INI,FM,M3,9.062626537250342,%MAX
CTR,P07,REL,FM,M1,6.118273210328582,%MAX
CTR,P07,REL,FM,M2,7.770773064706535,%MAX
CTR,P07,REL,FM,M3,8.595385976485758,%MAX
CTR,P08,INI,FM,M1,1.555955942162591,%MAX
CTR,P08,INI,FM,M2,1.3898399402119996,%MAX
CTR,P08,INI,FM,M3,0.9671580191061504,%MAX
CTR,P08,REL,FM,M1,5.554146785784534,%MAX
CTR,P08,REL,FM,M2,5.558678741545036,%MAX
CTR,P08,REL,FM,M3,4.903225298770071,%MAX
CTR,P13,INI,FM,M1,9.067339841579368,%MAX
CTR,P13,INI,FM,M2,9.481503717235,%MAX
CTR,P13,INI,FM,M3,9.24157732047233,%MAX
CTR,P13,REL,FM,M1,11.675037054203573,%MAX
CTR,P13,REL,FM,M2,11.340130474044548,%MAX
CTR,P13,REL,FM,M3,11.40699734408447,%MAX
CTR,P16,INI,FM,M1,7.180703887474773,%MAX
CTR,P16,INI,FM,M2,7.330509117477828,%MAX
CTR,P16,INI,FM,M3,6.466149506926261,%MAX
CTR,P16,REL,FM,M1,7.929289419321291,%MAX
CTR,P16,REL,FM,M2,8.418798464610907,%MAX
CTR,P16,REL,FM,M3,7.719240218853439,%MAX
CTR,P21,INI,FM,M1,4.281365862056972,%MAX
CTR,P21,INI,FM,M2,5.06212645647827,%MAX
CTR,P21,INI,FM,M3,5.174764323188109,%MAX
CTR,P21,REL,FM,M1,3.4067250703979544,%MAX
CTR,P21,REL,FM,M2,3.115164748532232,%MAX
CTR,P21,REL,FM,M3,3.845040527150438,%MAX
CTR,P22,INI,FM,M1,7.399720457670475,%MAX
CTR,P22,INI,FM,M2,8.66551924989933,%MAX
CTR,P22,INI,FM,M3,7.597544466287805,%MAX
CTR,P22,REL,FM,M1,8.05294101252728,%MAX
CTR,P22,REL,FM,M2,7.637938420203413,%MAX
CTR,P22,REL,FM,M3,7.735891532733072,%MAX
CTR,P23,INI,FM,M1,9.373641592365336,%MAX
CTR,P23,INI,FM,M2,10.351358345769489,%MAX
CTR,P23,INI,FM,M3,10.46818897781936,%MAX
CTR,P23,REL,FM,M1,8.169220459942988,%MAX
CTR,P23,REL,FM,M2,10.016484215585118,%MAX
CTR,P23,REL,FM,M3,8.408205519377628,%MAX
CTR,P25,INI,FM,M1,3.114413229972919,%MAX
CTR,P25,INI,FM,M2,2.81870359320908,%MAX
CTR,P25,INI,FM,M3,2.6954283175659284,%MAX
CTR,P25,REL,FM,M1,3.780075025113853,%MAX
CTR,P25,REL,FM,M2,3.8093397403024394,%MAX
CTR,P25,REL,FM,M3,4.311293207618958,%MAX
CTR,P35,INI,FM,M1,1.798047389587048,%MAX
CTR,P35,INI,FM,M2,3.3694194734304883,%MAX
CTR,P35,INI,FM,M3,2.662246387154687,%MAX
CTR,P35,REL,FM,M1,4.94589203952199,%MAX
CTR,P35,REL,FM,M2,4.97823236517759,%MAX
CTR,P35,REL,FM,M3,4.501127432849268,%MAX
CTR,P38,INI,FM,M1,1.3699729711977402,%MAX
CTR,P38,INI,FM,M2,1.6961904952559657,%MAX
CTR,P38,INI,FM,M3,1.1533170868714648,%MAX
CTR,P38,REL,FM,M1,6.794279666294687,%MAX
CTR,P38,REL,FM,M2,6.455661883097579,%MAX
CTR,P38,REL,FM,M3,6.320890867822465,%MAX
CTR,P39,INI,FM,M1,5.848436770559422,%MAX
CTR,P39,INI,FM,M2,5.553350806348054,%MAX
CTR,P39,INI,FM,M3,4.553445794979985,%MAX
CTR,P39,REL,FM,M1,6.091408274619331,%MAX
CTR,P39,REL,FM,M2,6.449725551343024,%MAX
CTR,P39,REL,FM,M3,6.306098032262383,%MAX
CTR,P40,INI,FM,M1,1.9948926035829293,%MAX
CTR,P40,INI,FM,M2,1.861871926322701,%MAX
CTR,P40,INI,FM,M3,2.0333640156025825,%MAX
CTR,P40,REL,FM,M1,5.466685634239566,%MAX
CTR,P40,REL,FM,M2,3.847481542549903,%MAX
CTR,P40,REL,FM,M3,4.12112810811962,%MAX
CTR,P44,INI,FM,M1,1.0765980725521198,%MAX
CTR,P44,INI,FM,M2,0.8311533955408639,%MAX
CTR,P44,INI,FM,M3,2.191643615063645,%MAX
CTR,P44,REL,FM,M1,6.211428715870701,%MAX
CTR,P44,REL,FM,M2,6.146171554243698,%MAX
CTR,P44,REL,FM,M3,5.594154842821449,%MAX
CTR,P46,INI,FM,M1,3.40919098504773,%MAX
CTR,P46,INI,FM,M2,3.5613048677324057,%MAX
CTR,P46,INI,FM,M3,3.466847459129369,%MAX
CTR,P46,REL,FM,M1,3.759283835940025,%MAX
CTR,P46,REL,FM,M2,3.935073029454788,%MAX
CTR,P46,REL,FM,M3,3.766643236604049,%MAX
CTR,P48,INI,FM,M1,6.733480458146492,%MAX
CTR,P48,INI,FM,M2,6.709000921870001,%MAX
CTR,P48,INI,FM,M3,5.385580333610344,%MAX
CTR,P48,REL,FM,M1,4.69319514882989,%MAX
CTR,P48,REL,FM,M2,4.703317044679834,%MAX
CTR,P48,REL,FM,M3,3.4118804361787527,%MAX
CTR,P49,INI,FM,M1,3.090110037789099,%MAX
CTR,P49,INI,FM,M2,3.494931705683457,%MAX
CTR,P49,INI,FM,M3,3.1638583385271124,%MAX
CTR,P49,REL,FM,M1,2.433383273229132,%MAX
CTR,P49,REL,FM,M2,2.965810049464774,%MAX
CTR,P49,REL,FM,M3,2.5189868768559527,%MAX
CTR,P52,INI,FM,M1,4.662679079051236,%MAX
CTR,P52,INI,FM,M2,6.140726156393832,%MAX
CTR,P52,INI,FM,M3,5.296006380819071,%MAX
CTR,P52,REL,FM,M1,4.576520453213749,%MAX
CTR,P52,REL,FM,M2,3.955854680005902,%MAX
CTR,P52,REL,FM,M3,2.9286950050327185,%MAX
CTR,P55,INI,FM,M1,0.4812981742361987,%MAX
CTR,P55,INI,FM,M2,0.5463172234438205,%MAX
CTR,P55,INI,FM,M3,0.6156249334192964,%MAX
CTR,P55,REL,FM,M1,6.354626407939929,%MAX
CTR,P55,REL,FM,M2,6.849073707164321,%MAX
CTR,P55,REL,FM,M3,6.038637810808289,%MAX
CTR,P56,INI,FM,M1,3.615129235472731,%MAX
CTR,P56,INI,FM,M2,3.406967104650867,%MAX
CTR,P56,INI,FM,M3,5.733430512022476,%MAX
CTR,P56,REL,FM,M1,5.677239991694554,%MAX
CTR,P56,REL,FM,M2,6.56852006236503,%MAX
CTR,P56,REL,FM,M3,5.635761096498631,%MAX
CTR,P57,INI,FM,M1,0.4509261785359124,%MAX
CTR,P57,INI,FM,M2,0.4655857384578893,%MAX
CTR,P57,INI,FM,M3,0.7973823604649485,%MAX
CTR,P57,REL,FM,M1,2.554534546057692,%MAX
CTR,P57,REL,FM,M2,2.014065582030015,%MAX
CTR,P57,REL,FM,M3,2.250376857174568,%MAX
CTR,P60,INI,FM,M1,6.596939272385779,%MAX
CTR,P60,INI,FM,M2,7.229366132462311,%MAX
CTR,P60,INI,FM,M3,6.016026702175881,%MAX
CTR,P60,REL,FM,M1,6.659233667429211,%MAX
CTR,P60,REL,FM,M2,7.485064352960886,%MAX
CTR,P60,REL,FM,M3,6.414906885592421,%MAX
CTR,P64,INI,FM,M1,5.221860267670847,%MAX
CTR,P64,INI,FM,M2,4.274057430652098,%MAX
CTR,P64,INI,FM,M3,4.173827753862705,%MAX
CTR,P64,REL,FM,M1,17.287703131500866,%MAX
CTR,P64,REL,FM,M2,17.70582695175038,%MAX
CTR,P64,REL,FM,M3,17.387672077550214,%MAX
CTR,P66,INI,FM,M1,1.475280935262463,%MAX
CTR,P66,INI,FM,M2,1.7479575513758985,%MAX
CTR,P66,INI,FM,M3,1.5515815940846065,%MAX
CTR,P66,REL,FM,M1,3.435634885950126,%MAX
CTR,P66,REL,FM,M2,4.085230033921149,%MAX
CTR,P66,REL,FM,M3,3.8880739388211145,%MAX
CTR,P67,INI,FM,M1,1.7977367994665865,%MAX
CTR,P67,INI,FM,M2,2.4070949967887745,%MAX
CTR,P67,INI,FM,M3,2.308896642688137,%MAX
CTR,P67,REL,FM,M1,0.9485024263352848,%MAX
CTR,P67,REL,FM,M2,0.8358921494723632,%MAX
CTR,P67,REL,FM,M3,0.9020780514339896,%MAX
CTR,P68,INI,FM,M1,5.058394796755386,%MAX
CTR,P68,INI,FM,M2,2.863268425099145,%MAX
CTR,P68,INI,FM,M3,2.5552903128044484,%MAX
CTR,P68,REL,FM,M1,7.364908806024384,%MAX
CTR,P68,REL,FM,M2,6.5560803830301015,%MAX
CTR,P68,REL,FM,M3,3.269866621753494,%MAX
