Group,Participant,Session,Operator,Measure,Value,Unit
CTR,P01,INI,FM,M1,117.06578897750887,Hz
CTR,P01,INI,FM,M2,108.25305140427892,Hz
CTR,P01,INI,FM,M3,105.32663804552412,Hz
CTR,P01,REL,FM,M1,116.56631705620262,Hz
CTR,P01,REL,FM,M2,111.77928618755942,Hz
CTR,P01,REL,FM,M3,107.51821696763498,Hz
CTR,P02,INI,FM,M1,102.00548152469058,Hz
CTR,P02,INI,FM,M2,100.40274159001252,Hz
CTR,P02,INI,FM,M3,92.12116871566634,Hz
CTR,P02,REL,FM,M1,99.42413093791453,Hz
CTR,P02,REL,FM,M2,97.25024163540289,Hz
CTR,P02,REL,FM,M3,99.32193543841836,Hz
CTR,P03,INI,FM,M1,92.83389227638725,Hz
CTR,P03,INI,FM,M2,91.40984311682274,Hz
CTR,P03,INI,FM,M3,91.00848293855194,Hz
CTR,P03,REL,FM,M1,76.50011816224371,Hz
CTR,P03,REL,FM,M2,78.95531395846076,Hz
CTR,P03,REL,FM,M3,75.38956687990725,Hz
CTR,P05,INI,FM,M1,121.38581055015214,Hz
CTR,P05,INI,FM,M2,119.34179856974129,Hz
CTR,P05,INI,FM,M3,115.78099008445402,Hz
CTR,P05,REL,FM,M1,127.03406918986704,Hz
CTR,P05,REL,FM,M2,118.75816544445728,Hz
CTR,P05,REL,FM,M3,116.5808929400189,Hz
CTR,P06,INI,FM,M1,122.9141964146488,Hz
CTR,P06,INI,FM,M2,120.99507799869444,Hz
CTR,P06,INI,FM,M3,116.78004330410027,Hz
CTR,P06,REL,FM,M1,113.56938177101736,Hz
CTR,P06,REL,FM,M2,108.16686435957332,Hz
CTR,P06,REL,FM,M3,106.62141056195156,Hz
CTR,P07,INI,FM,M1,143.10726486237016,Hz
CTR,P07,INI,FM,M2,142.68462541483126,Hz
CTR,P07,INI,FM,M3,136.74507610722588,Hz
CTR,P07,REL,FM,M1,150.1106199785518,Hz
CTR,P07,REL,FM,M2,143.53699452746216,Hz
CTR,P07,REL,FM,M3,140.07793830830462,Hz
CTR,P08,INI,FM,M1,118.48249800854072,Hz
CTR,P08,INI,FM,M2,115.7749012724798,Hz
CTR,P08,INI,FM,M3,112.28082895419502,Hz
CTR,P08,REL,FM,M1,98.72765627870602,Hz
CTR,P08,REL,FM,M2,99.91053411989122,Hz
CTR,P08,REL,FM,M3,97.23241223386432,Hz
CTR,P13,INI,FM,M1,107.68801746008673,Hz
CTR,P13,INI,FM,M2,106.85990833062296,Hz
CTR,P13,INI,FM,M3,105.90191714357292,Hz
CTR,P13,REL,FM,M1,111.33436319829494,Hz
CTR,P13,REL,FM,M2,111.286073407285,Hz
CTR,P13,REL,FM,M3,104.59262151846283,Hz
CTR,P16,INI,FM,M1,108.66047086779945,Hz
CTR,P16,INI,FM,M2,109.06051043365017,Hz
CTR,P16,INI,FM,M3,106.547946813323,Hz
CTR,P16,REL,FM,M1,107.87227884689132,Hz
CTR,P16,REL,FM,M2,109.31020581544892,Hz
CTR,P16,REL,FM,M3,108.34745540897312,Hz
CTR,P21,INI,FM,M1,101.22119055252674,Hz
CTR,P21,INI,FM,M2,101.51859584408795,Hz
CTR,P21,INI,FM,M3,98.8952881484704,Hz
CTR,P21,REL,FM,M1,102.41019082216415,Hz
CTR,P21,REL,FM,M2,97.58979958037447,Hz
CTR,P21,REL,FM,M3,91.7410389655597,Hz
CTR,P22,INI,FM,M1,85.80740482335874,Hz
CTR,P22,INI,FM,M2,88.88347997963547,Hz
CTR,P22,INI,FM,M3,86.2399781975731,Hz
CTR,P22,REL,FM,M1,90.3639603982128,Hz
CTR,P22,REL,FM,M2,88.4409066777947,Hz
CTR,P22,REL,FM,M3,86.06012957808906,Hz
CTR,P23,INI,FM,M1,74.97625539852339,Hz
CTR,P23,INI,FM,M2,95.0096092822612,Hz
CTR,P23,INI,FM,M3,79.96704679138587,Hz
CTR,P23,REL,FM,M1,90.00279467984824,Hz
CTR,P23,REL,FM,M2,88.68318291799928,Hz
CTR,P23,REL,FM,M3,81.33838526998731,Hz
CTR,P25,INI,FM,M1,119.73593309233704,Hz
CTR,P25,INI,FM,M2,125.18710121512794,Hz
CTR,P25,INI,FM,M3,119.16980966213856,Hz
CTR,P25,REL,FM,M1,125.82163845526124,Hz
CTR,P25,REL,FM,M2,123.00797032132895,Hz
CTR,P25,REL,FM,M3,120.0716074094134,Hz
CTR,P35,INI,FM,M1,114.66722768149552,Hz
CTR,P35,INI,FM,M2,113.87772730985994,Hz
CTR,P35,INI,FM,M3,109.53958189889472,Hz
CTR,P35,REL,FM,M1,112.26376862410945,Hz
CTR,P35,REL,FM,M2,106.96511242833164,Hz
CTR,P35,REL,FM,M3,100.22674935411068,Hz
CTR,P38,INI,FM,M1,111.68809772405449,Hz
CTR,P38,INI,FM,M2,107.50450088264373,Hz
CTR,P38,INI,FM,M3,103.1472457248048,Hz
CTR,P38,REL,FM,M1,112.32265002171316,Hz
CTR,P38,REL,FM,M2,108.69091334980476,Hz
CTR,P38,REL,FM,M3,104.6873052220697,Hz
CTR,P39,INI,FM,M1,126.69214321085632,Hz
CTR,P39,INI,FM,M2,127.63297233444412,Hz
CTR,P39,INI,FM,M3,124.98271242455208,Hz
CTR,P39,REL,FM,M1,93.88029240597128,Hz
CTR,P39,REL,FM,M2,86.66717575907211,Hz
CTR,P39,REL,FM,M3,109.22862083363836,Hz
CTR,P40,INI,FM,M1,134.13683713900937,Hz
CTR,P40,INI,FM,M2,130.13745524709358,Hz
CTR,P40,INI,FM,M3,124.42607536814552,Hz
CTR,P40,REL,FM,M1,138.09599979085397,Hz
CTR,P40,REL,FM,M2,128.5342886766894,Hz
CTR,P40,REL,FM,M3,127.24508246823116,Hz
CTR,P44,INI,FM,M1,148.07230043519365,Hz
CTR,P44,INI,FM,M2,140.8110450198243,Hz
CTR,P44,INI,FM,M3,140.1541645586072,Hz
CTR,P44,REL,FM,M1,144.50379531029282,Hz
CTR,P44,REL,FM,M2,144.87750913266942,Hz
CTR,P44,REL,FM,M3,138.56912696429592,Hz
CTR,P46,INI,FM,M1,122.04569985771444,Hz
CTR,P46,INI,FM,M2,120.3559394537741,Hz
CTR,P46,INI,FM,M3,116.79224817882856,Hz
CTR,P46,REL,FM,M1,118.3402652334325,Hz
CTR,P46,REL,FM,M2,114.0393620127321,Hz
CTR,P46,REL,FM,M3,110.79541435489716,Hz
CTR,P48,INI,FM,M1,156.76642518285928,Hz
CTR,P48,INI,FM,M2,157.15830276958212,Hz
CTR,P48,INI,FM,M3,153.8120131209294,Hz
CTR,P48,REL,FM,M1,134.7858601544263,Hz
CTR,P48,REL,FM,M2,129.41624351914365,Hz
CTR,P48,REL,FM,M3,127.03821846798456,Hz
CTR,P49,INI,FM,M1,121.9167166623401,Hz
CTR,P49,INI,FM,M2,114.8406838931464,Hz
CTR,P49,INI,FM,M3,106.7192636990544,Hz
CTR,P49,REL,FM,M1,109.36115821596842,Hz
CTR,P49,REL,FM,M2,119.36440846756274,Hz
CTR,P49,REL,FM,M3,118.63687913979996,Hz
CTR,P52,INI,FM,M1,128.16066500202024,Hz
CTR,P52,INI,FM,M2,120.99146878567656,Hz
CTR,P52,INI,FM,M3,117.49271951833984,Hz
CTR,P52,REL,FM,M1,131.39818484487125,Hz
CTR,P52,REL,FM,M2,126.92343567177846,Hz
CTR,P52,REL,FM,M3,125.61952153711604,Hz
CTR,P55,INI,FM,M1,115.26790902178028,Hz
CTR,P55,INI,FM,M2,112.50951054727943,Hz
CTR,P55,INI,FM,M3,109.85069730509876,Hz
CTR,P55,REL,FM,M1,105.35990758855964,Hz
CTR,P55,REL,FM,M2,103.64519750722567,Hz
CTR,P55,REL,FM,M3,101.19438556390088,Hz
CTR,P56,INI,FM,M1,83.5697759002328,Hz
CTR,P56,INI,FM,M2,80.47398608501412,Hz
CTR,P56,INI,FM,M3,80.63016902011894,Hz
CTR,P56,REL,FM,M1,87.09281540020673,Hz
CTR,P56,REL,FM,M2,81.42706303813624,Hz
CTR,P56,REL,FM,M3,80.56156429001891,Hz
CTR,P57,INI,FM,M1,101.28164920159998,Hz
CTR,P57,INI,FM,M2,102.31858404988516,Hz
CTR,P57,INI,FM,M3,99.36138835152722,Hz
CTR,P57,REL,FM,M1,111.23688811181084,Hz
CTR,P57,REL,FM,M2,94.55530639623618,Hz
CTR,P57,REL,FM,M3,109.51376806581789,Hz
CTR,P60,INI,FM,M1,118.06419092383496,Hz
CTR,P60,INI,FM,M2,117.32616153976,Hz
CTR,P60,INI,FM,M3,116.17243690947372,Hz
CTR,P60,REL,FM,M1,110.10671525130998,Hz
CTR,P60,REL,FM,M2,113.16292229559468,Hz
CTR,P60,REL,FM,M3,112.59344778132346,Hz
CTR,P64,INI,FM,M1,118.18958106326266,Hz
CTR,P64,INI,FM,M2,115.89355436108818,Hz
CTR,P64,INI,FM,M3,114.47426063345527,Hz
CTR,P64,REL,FM,M1,107.45053218377726,Hz
CTR,P64,REL,FM,M2,107.56815477477416,Hz
CTR,P64,REL,FM,M3,102.01438309973224,Hz
CTR,P66,INI,FM,M1,106.83120005359264,Hz
CTR,P66,INI,FM,M2,100.63594655203516,Hz
CTR,P66,INI,FM,M3,84.83505965934793,Hz
CTR,P66,REL,FM,M1,99.57104980720342,Hz
CTR,P66,REL,FM,M2,95.94733383138292,Hz
CTR,P66,REL,FM,M3,91.85027381355636,Hz
CTR,P67,INI,FM,M1,95.5941439530519,Hz
CTR,P67,INI,FM,M2,109.82432090818428,Hz
CTR,P67,INI,FM,M3,109.17383963463396,Hz
CTR,P67,REL,FM,M1,95.96632784314694,Hz
CTR,P67,REL,FM,M2,99.33093850043086,Hz
CTR,P67,REL,FM,M3,105.45300513427512,Hz
CTR,P68,INI,FM,M1,126.98966848175488,Hz
CTR,P68,INI,FM,M2,124.29835546333008,Hz
CTR,P68,INI,FM,M3,123.88164483268928,Hz
CTR,P68,REL,FM,M1,137.6163658647148,Hz
CTR,P68,REL,FM,M2,133.73458598525798,Hz
CTR,P68,REL,FM,M3,131.51355979034577,Hz
