Group,Participant,Session,Operator,Measure,Value,Unit
PAT,P09,INI,FM,M1,0.0084278817071551,V
PAT,P09,INI,FM,M2,0.0096817932882222,V
PAT,P09,INI,FM,M3,0.0100873950027343,V
PAT,P09,REL,FM,M1,0.0126725392637571,V
PAT,P09,REL,FM,M2,0.0156475034444117,V
PAT,P09,REL,FM,M3,0.0145149387921091,V
PAT,P10,INI,FM,M1,0.0118139038863065,V
PAT,P10,INI,FM,M2,0.0094950646121405,V
PAT,P10,INI,FM,M3,0.0076393969078912,V
PAT,P10,REL,FM,M1,0.0067058231155878,V
PAT,P10,REL,FM,M2,0.0044834126652712,V
PAT,P10,REL,FM,M3,,V
PAT,P11,INI,FM,M1,0.0099054792478465,V
PAT,P11,INI,FM,M2,0.0077902180187073,V
PAT,P11,INI,FM,M3,0.0086403988631377,V
PAT,P11,REL,FM,M1,0.0090192662644593,V
PAT,P11,REL,FM,M2,0.0117322832996267,V
PAT,P11,REL,FM,M3,0.0077637709118498,V
PAT,P12,INI,FM,M1,,V
PAT,P12,INI,FM,M2,,V
PAT,P12,INI,FM,M3,,V
PAT,P12,REL,FM,M1,,V
PAT,P12,REL,FM,M2,,V
PAT,P12,REL,FM,M3,,V
PAT,P14,INI,FM,M1,,V
PAT,P14,INI,FM,M2,,V
PAT,P14,INI,FM,M3,,V
PAT,P14,REL,FM,M1,,V
PAT,P14,REL,FM,M2,,V
PAT,P14,REL,FM,M3,,V
PAT,P17,INI,FM,M1,0.0103919800478953,V
PAT,P17,INI,FM,M2,0.0132804038348475,V
PAT,P17,INI,FM,M3,0.0123179982587237,V
PAT,P17,REL,FM,M1,0.0093594959307718,V
PAT,P17,REL,FM,M2,0.0124802525178218,V
PAT,P17,REL,FM,M3,0.0111379186007411,V
PAT,P24,INI,FM,M1,0.0103984954365452,V
PAT,P24,INI,FM,M2,0.0117456287084275,V
PAT,P24,INI,FM,M3,0.0110210255905272,V
PAT,P24,REL,FM,M1,0.0105121336638684,V
PAT,P24,REL,FM,M2,0.0092310887675059,V
PAT,P24,REL,FM,M3,0.0113363302165287,V
PAT,P26,INI,FM,M1,0.019657236776005,V
PAT,P26,INI,FM,M2,0.012512792702885,V
PAT,P26,INI,FM,M3,0.0114481650466647,V
PAT,P26,REL,FM,M1,0.009488338459789,V
PAT,P26,REL,FM,M2,0.010544534257052,V
PAT,P26,REL,FM,M3,0.0083415542569877,V
PAT,P27,INI,FM,M1,0.0163256175432707,V
PAT,P27,INI,FM,M2,0.0181347847673671,V
PAT,P27,INI,FM,M3,0.0204478150584286,V
PAT,P27,REL,FM,M1,0.0166975966288119,V
PAT,P27,REL,FM,M2,0.0197235598080872,V
PAT,P27,REL,FM,M3,0.0175213719711288,V
PAT,P28,INI,FM,M1,0.0073645104327994,V
PAT,P28,INI,FM,M2,0.0074845898009815,V
PAT,P28,INI,FM,M3,0.0060139570358382,V
PAT,P28,REL,FM,M1,0.0089277733435143,V
PAT,P28,REL,FM,M2,0.0087452021785154,V
PAT,P28,REL,FM,M3,0.0072923814883611,V
PAT,P29,INI,FM,M1,0.0206064263073981,V
PAT,P29,INI,FM,M2,0.0208677262216831,V
PAT,P29,INI,FM,M3,0.019514575436554,V
PAT,P29,REL,FM,M1,0.0214860555796464,V
PAT,P29,REL,FM,M2,0.0184435272228539,V
PAT,P29,REL,FM,M3,0.0143922435449341,V
PAT,P30,INI,FM,M1,0.0109167095716584,V
PAT,P30,INI,FM,M2,0.0078993302218743,V
PAT,P30,INI,FM,M3,0.008273996983287,V
PAT,P30,REL,FM,M1,0.0049833317596214,V
PAT,P30,REL,FM,M2,0.0046813933769399,V
PAT,P30,REL,FM,M3,0.0053837587212257,V
PAT,P32,INI,FM,M1,0.008485107619972,V
PAT,P32,INI,FM,M2,0.0092419904241231,V
PAT,P32,INI,FM,M3,0.0089888720969353,V
PAT,P32,REL,FM,M1,0.0098313797928877,V
PAT,P32,REL,FM,M2,0.0088273683445553,V
PAT,P32,REL,FM,M3,0.0091037632013917,V
PAT,P33,INI,FM,M1,0.0063619241210489,V
PAT,P33,INI,FM,M2,0.0062160458757253,V
PAT,P33,INI,FM,M3,0.0073610316696251,V
PAT,P33,REL,FM,M1,0.0069560088851778,V
PAT,P33,REL,FM,M2,0.0054377819805517,V
PAT,P33,REL,FM,M3,0.0053710565822175,V
PAT,P34,INI,FM,M1,0.0177749855700645,V
PAT,P34,INI,FM,M2,0.0118819128511857,V
PAT,P34,INI,FM,M3,,V
PAT,P34,REL,FM,M1,0.0121164547001918,V
PAT,P34,REL,FM,M2,0.0141105424273065,V
PAT,P34,REL,FM,M3,0.0098961737202365,V
PAT,P36,INI,FM,M1,0.014484410561026,V
PAT,P36,INI,FM,M2,0.0167581836157178,V
PAT,P36,INI,FM,M3,0.0136546386856739,V
PAT,P36,REL,FM,M1,0.0163265973688169,V
PAT,P36,REL,FM,M2,0.0170932157730056,V
PAT,P36,REL,FM,M3,0.0128025392615789,V
PAT,P41,INI,FM,M1,0.0234010866264052,V
PAT,P41,INI,FM,M2,0.0220516388156166,V
PAT,P41,INI,FM,M3,0.0177839306647199,V
PAT,P41,REL,FM,M1,0.022898671628741,V
PAT,P41,REL,FM,M2,0.0224915249475183,V
PAT,P41,REL,FM,M3,0.012901225169836,V
PAT,P42,INI,FM,M1,0.0176877100881057,V
PAT,P42,INI,FM,M2,0.0146379744756056,V
PAT,P42,INI,FM,M3,0.0141164760553681,V
PAT,P42,REL,FM,M1,0.0207132083038591,V
PAT,P42,REL,FM,M2,0.0176767207519756,V
PAT,P42,REL,FM,M3,,V
PAT,P43,INI,FM,M1,0.0110316664022474,V
PAT,P43,INI,FM,M2,0.0111562208649367,V
PAT,P43,INI,FM,M3,0.0084180261317582,V
PAT,P43,REL,FM,M1,0.0123994028179849,V
PAT,P43,REL,FM,M2,0.0156418968348945,V
PAT,P43,REL,FM,M3,0.0103884094282993,V
PAT,P45,INI,FM,M1,,V
PAT,P45,INI,FM,M2,,V
PAT,P45,INI,FM,M3,,V
PAT,P45,REL,FM,M1,0.0084944636813387,V
PAT,P45,REL,FM,M2,0.008706717083787,V
PAT,P45,REL,FM,M3,,V
PAT,P47,INI,FM,M1,0.010074739602886,V
PAT,P47,INI,FM,M2,0.0112161289414719,V
PAT,P47,INI,FM,M3,0.0074000172977151,V
PAT,P47,REL,FM,M1,0.0116363270774205,V
PAT,P47,REL,FM,M2,0.0099332245341085,V
PAT,P47,REL,FM,M3,0.0085056561422891,V
PAT,P50,INI,FM,M1,0.0267573314770773,V
PAT,P50,INI,FM,M2,0.0255092826969112,V
PAT,P50,INI,FM,M3,0.0214784316003161,V
PAT,P50,REL,FM,M1,0.0249080169540853,V
PAT,P50,REL,FM,M2,0.0243460555711088,V
PAT,P50,REL,FM,M3,0.0303915294160452,V
PAT,P51,INI,FM,M1,0.0076636652269894,V
PAT,P51,INI,FM,M2,0.0088275167367302,V
PAT,P51,INI,FM,M3,0.0081648476548215,V
PAT,P51,REL,FM,M1,0.0082539922512454,V
PAT,P51,REL,FM,M2,0.0095293376829277,V
PAT,P51,REL,FM,M3,0.0100917072858178,V
PAT,P53,INI,FM,M1,0.0108588510087158,V
PAT,P53,INI,FM,M2,0.0094308381913486,V
PAT,P53,INI,FM,M3,0.009118375647654,V
PAT,P53,REL,FM,M1,0.0125488055529417,V
PAT,P53,REL,FM,M2,0.0123529642113281,V
PAT,P53,REL,FM,M3,0.0115485117598152,V
PAT,P54,INI,FM,M1,0.0248750290581592,V
PAT,P54,INI,FM,M2,0.024742884475614,V
PAT,P54,INI,FM,M3,0.0258760435956878,V
PAT,P54,REL,FM,M1,0.0172516222720807,V
PAT,P54,REL,FM,M2,0.0188182123108943,V
PAT,P54,REL,FM,M3,0.0134600715214356,V
PAT,P58,INI,FM,M1,0.0046276292869487,V
PAT,P58,INI,FM,M2,0.0044945867399674,V
PAT,P58,INI,FM,M3,0.0043527749587241,V
PAT,P58,REL,FM,M1,,V
PAT,P58,REL,FM,M2,,V
PAT,P58,REL,FM,M3,,V
PAT,P61,INI,FM,M1,0.0314072292031699,V
PAT,P61,INI,FM,M2,0.0373781059167947,V
PAT,P61,INI,FM,M3,0.0380439589277441,V
PAT,P61,REL,FM,M1,0.0362820470673694,V
PAT,P61,REL,FM,M2,0.0346680522690243,V
PAT,P61,REL,FM,M3,0.037982235284287,V
PAT,P62,INI,FM,M1,0.0108598880798729,V
PAT,P62,INI,FM,M2,0.0111818152550645,V
PAT,P62,INI,FM,M3,0.0082543715068323,V
PAT,P62,REL,FM,M1,0.0102927226038102,V
PAT,P62,REL,FM,M2,0.0067053882761759,V
PAT,P62,REL,FM,M3,0.0078647403889539,V
PAT,P63,INI,FM,M1,,V
PAT,P63,INI,FM,M2,,V
PAT,P63,INI,FM,M3,,V
PAT,P63,REL,FM,M1,0.0140428771657639,V
PAT,P63,REL,FM,M2,0.0150394798573584,V
PAT,P63,REL,FM,M3,0.014977105260939,V
PAT,P65,INI,FM,M1,0.0214387427170919,V
PAT,P65,INI,FM,M2,0.0222154248392389,V
PAT,P65,INI,FM,M3,0.0240837476850478,V
PAT,P65,REL,FM,M1,0.0185765896231447,V
PAT,P65,REL,FM,M2,0.0190493308429692,V
PAT,P65,REL,FM,M3,0.0189480551845802,V
