event,time_sec,time_min
RHS,0.15000000596046448,0.0
RHS,1.5399999618530273,0.0
RHS,2.9100000858306885,0.0
RHS,4.230000019073486,0.0
RHS,5.539999961853027,0.0
RTO,1.0800000429153442,0.0
RTO,2.5,0.0
RTO,3.799999952316284,0.0
RTO,5.110000133514404,0.0
RTO,6.400000095367432,0.0
LHS,0.8600000143051147,0.0
LHS,2.25,0.0
LHS,3.5799999237060547,0.0
LHS,4.889999866485596,0.0
LHS,6.210000038146973,0.0
LTO,0.38999998569488525,0.0
LTO,1.7799999713897705,0.0
LTO,3.140000104904175,0.0
LTO,4.440000057220459,0.0
LTO,5.710000038146973,0.0
