event,time_sec,time_min
RHS,0.7900000214576721,0.0
RHS,2.140000104904175,0.0
RHS,3.4700000286102295,0.0
RHS,4.789999961853027,0.0
RHS,6.079999923706055,0.0
RTO,0.3499999940395355,0.0
RTO,1.7000000476837158,0.0
RTO,3.0399999618530273,0.0
RTO,4.369999885559082,0.0
RTO,5.670000076293945,0.0
LHS,0.12999999523162842,0.0
LHS,1.4900000095367432,0.0
LHS,2.7899999618530273,0.0
LHS,4.150000095367432,0.0
LHS,5.449999809265137,0.0
LTO,1.0399999618530273,0.0
LTO,2.3399999141693115,0.0
LTO,3.690000057220459,0.0
LTO,4.989999771118164,0.0
LTO,6.28000020980835,0.0
