event,time_sec,time_min
startMotion,0.10000000149011612,0.0
startMotion,10.199999809265137,0.0
startMotion,19.329999923706055,0.0
startMotion,30.81999969482422,0.0
stopMotion,5.619999885559082,0.0
stopMotion,14.390000343322754,0.0
stopMotion,23.59000015258789,0.0
