event,time_sec,time_min
startMotion,0.10000000149011612,0.0
startMotion,11.069999694824219,0.0
startMotion,20.459999084472656,0.0
startMotion,32.560001373291016,0.0
stopMotion,6.150000095367432,0.0
stopMotion,15.520000457763672,0.0
stopMotion,24.93000030517578,0.0
