event,time_sec,time_min
startMotion,0.10000000149011612,0.0
startMotion,10.890000343322754,0.0
startMotion,19.149999618530273,0.0
startMotion,27.34000015258789,0.0
startMotion,37.40999984741211,0.0
startMotion,45.470001220703125,0.0
startMotion,55.220001220703125,0.0
stopMotion,6.559999942779541,0.0
stopMotion,15.020000457763672,0.0
stopMotion,23.190000534057617,0.0
stopMotion,32.36000061035156,0.0
stopMotion,41.540000915527344,0.0
stopMotion,49.40999984741211,0.0
