event,time_sec,time_min
RHS,0.5699999928474426,0.0
RHS,1.5700000524520874,0.0
RHS,2.5799999237060547,0.0
RTO,0.14000000059604645,0.0
RTO,1.159999966621399,0.0
RTO,2.1700000762939453,0.0
LHS,0.05999999865889549,0.0
LHS,1.0700000524520874,0.0
LHS,2.0799999237060547,0.0
LTO,0.6499999761581421,0.0
LTO,1.659999966621399,0.0
LTO,2.680000066757202,0.0
