event,time_sec,time_min
RHS,0.5699999928474426,0.0
RHS,1.6100000143051147,0.0
RHS,2.640000104904175,0.0
RTO,0.14000000059604645,0.0
RTO,1.159999966621399,0.0
RTO,2.2100000381469727,0.0
LHS,0.07000000029802322,0.0
LHS,1.0800000429153442,0.0
LHS,2.119999885559082,0.0
LTO,0.6499999761581421,0.0
LTO,1.7100000381469727,0.0
LTO,2.7300000190734863,0.0
