event,time_sec,time_min
RHS,0.09000000357627869,0.0
RHS,1.090000033378601,0.0
RHS,2.130000114440918,0.0
RTO,0.699999988079071,0.0
RTO,1.7000000476837158,0.0
RTO,2.7100000381469727,0.0
LHS,0.5899999737739563,0.0
LHS,1.6200000047683716,0.0
LHS,2.630000114440918,0.0
LTO,0.20000000298023224,0.0
LTO,1.190000057220459,0.0
LTO,2.2100000381469727,0.0
