Group,Participant,Session,Operator,Measure,Value,Unit
CTR,P01,INI,FM,M1,100.39954024564568,Hz
CTR,P01,INI,FM,M2,101.42987695624976,Hz
CTR,P01,INI,FM,M3,97.12871064616644,Hz
CTR,P01,REL,FM,M1,77.53396396040657,Hz
CTR,P01,REL,FM,M2,80.61994410339747,Hz
CTR,P01,REL,FM,M3,80.57519129037665,Hz
CTR,P02,INI,FM,M1,104.78244075472006,Hz
CTR,P02,INI,FM,M2,102.65057350241663,Hz
CTR,P02,INI,FM,M3,105.79661551581016,Hz
CTR,P02,REL,FM,M1,100.3063327659298,Hz
CTR,P02,REL,FM,M2,105.359696749868,Hz
CTR,P02,REL,FM,M3,107.41014855942228,Hz
CTR,P03,INI,FM,M1,89.42810153581283,Hz
CTR,P03,INI,FM,M2,88.05385608761804,Hz
CTR,P03,INI,FM,M3,92.55160210835888,Hz
CTR,P03,REL,FM,M1,87.94610133681093,Hz
CTR,P03,REL,FM,M2,90.60221873202376,Hz
CTR,P03,REL,FM,M3,93.6374673035904,Hz
CTR,P05,INI,FM,M1,136.17754032590693,Hz
CTR,P05,INI,FM,M2,128.9863851415639,Hz
CTR,P05,INI,FM,M3,128.65038371446374,Hz
CTR,P05,REL,FM,M1,130.156107973772,Hz
CTR,P05,REL,FM,M2,133.37346834072838,Hz
CTR,P05,REL,FM,M3,133.6187483233778,Hz
CTR,P06,INI,FM,M1,105.83712765200562,Hz
CTR,P06,INI,FM,M2,109.13599107956298,Hz
CTR,P06,INI,FM,M3,108.74879941653316,Hz
CTR,P06,REL,FM,M1,102.7121412120322,Hz
CTR,P06,REL,FM,M2,106.6925483360314,Hz
CTR,P06,REL,FM,M3,108.47165485770248,Hz
CTR,P07,INI,FM,M1,89.61392145802297,Hz
CTR,P07,INI,FM,M2,100.27865783948472,Hz
CTR,P07,INI,FM,M3,99.26096920085948,Hz
CTR,P07,REL,FM,M1,126.49750625469666,Hz
CTR,P07,REL,FM,M2,130.12686384164346,Hz
CTR,P07,REL,FM,M3,134.03387964510284,Hz
CTR,P08,INI,FM,M1,39.563338184412615,Hz
CTR,P08,INI,FM,M2,42.490923963036,Hz
CTR,P08,INI,FM,M3,43.34224151970649,Hz
CTR,P08,REL,FM,M1,97.71931023118697,Hz
CTR,P08,REL,FM,M2,99.5255395651876,Hz
CTR,P08,REL,FM,M3,96.76509091271858,Hz
CTR,P13,INI,FM,M1,102.08069281253498,Hz
CTR,P13,INI,FM,M2,108.91769575735168,Hz
CTR,P13,INI,FM,M3,108.0803333547304,Hz
CTR,P13,REL,FM,M1,106.42932264012214,Hz
CTR,P13,REL,FM,M2,107.26615359488429,Hz
CTR,P13,REL,FM,M3,109.77695011877316,Hz
CTR,P16,INI,FM,M1,95.83913829367827,Hz
CTR,P16,INI,FM,M2,98.9554463765061,Hz
CTR,P16,INI,FM,M3,97.5658732065361,Hz
CTR,P16,REL,FM,M1,63.71744810388188,Hz
CTR,P16,REL,FM,M2,71.11268084277424,Hz
CTR,P16,REL,FM,M3,72.26332279690519,Hz
CTR,P21,INI,FM,M1,53.54716118890517,Hz
CTR,P21,INI,FM,M2,63.55965713891753,Hz
CTR,P21,INI,FM,M3,67.18222941690883,Hz
CTR,P21,REL,FM,M1,77.97773218999818,Hz
CTR,P21,REL,FM,M2,64.42268783002524,Hz
CTR,P21,REL,FM,M3,71.85228783172474,Hz
CTR,P22,INI,FM,M1,95.07142278417038,Hz
CTR,P22,INI,FM,M2,91.06800891790068,Hz
CTR,P22,INI,FM,M3,96.83989532803687,Hz
CTR,P22,REL,FM,M1,89.44012193374404,Hz
CTR,P22,REL,FM,M2,83.823886241682,Hz
CTR,P22,REL,FM,M3,61.39500550032619,Hz
CTR,P23,INI,FM,M1,50.67130052146587,Hz
CTR,P23,INI,FM,M2,77.05931520087121,Hz
CTR,P23,INI,FM,M3,55.23182239707705,Hz
CTR,P23,REL,FM,M1,88.0955910888566,Hz
CTR,P23,REL,FM,M2,97.72013184035237,Hz
CTR,P23,REL,FM,M3,92.8053418683059,Hz
CTR,P25,INI,FM,M1,47.31738569243737,Hz
CTR,P25,INI,FM,M2,33.89202265907473,Hz
CTR,P25,INI,FM,M3,38.32459922252461,Hz
CTR,P25,REL,FM,M1,131.05153380421842,Hz
CTR,P25,REL,FM,M2,131.21540437661037,Hz
CTR,P25,REL,FM,M3,124.7369824272365,Hz
CTR,P35,INI,FM,M1,112.89579456469238,Hz
CTR,P35,INI,FM,M2,111.70234696039482,Hz
CTR,P35,INI,FM,M3,107.93840459778303,Hz
CTR,P35,REL,FM,M1,105.27043503533636,Hz
CTR,P35,REL,FM,M2,109.9547156044804,Hz
CTR,P35,REL,FM,M3,108.18304533044308,Hz
CTR,P38,INI,FM,M1,29.97674558781616,Hz
CTR,P38,INI,FM,M2,32.274728510884245,Hz
CTR,P38,INI,FM,M3,33.47434218348073,Hz
CTR,P38,REL,FM,M1,113.7979173522826,Hz
CTR,P38,REL,FM,M2,100.605756506921,Hz
CTR,P38,REL,FM,M3,101.4217236450233,Hz
CTR,P39,INI,FM,M1,102.68512243591388,Hz
CTR,P39,INI,FM,M2,98.944838669831,Hz
CTR,P39,INI,FM,M3,101.4041881272782,Hz
CTR,P39,REL,FM,M1,99.75653030851248,Hz
CTR,P39,REL,FM,M2,95.52902794960583,Hz
CTR,P39,REL,FM,M3,97.66152403037708,Hz
CTR,P40,INI,FM,M1,68.1645486840497,Hz
CTR,P40,INI,FM,M2,62.217243937209325,Hz
CTR,P40,INI,FM,M3,72.76288619359198,Hz
CTR,P40,REL,FM,M1,115.63813147352562,Hz
CTR,P40,REL,FM,M2,115.29643262387904,Hz
CTR,P40,REL,FM,M3,121.62771376926796,Hz
CTR,P44,INI,FM,M1,42.82217411026345,Hz
CTR,P44,INI,FM,M2,47.01295383072231,Hz
CTR,P44,INI,FM,M3,44.2282617916832,Hz
CTR,P44,REL,FM,M1,112.97896325287394,Hz
CTR,P44,REL,FM,M2,115.0750616727342,Hz
CTR,P44,REL,FM,M3,113.07012197781371,Hz
CTR,P46,INI,FM,M1,37.32142471746617,Hz
CTR,P46,INI,FM,M2,64.186375188234,Hz
CTR,P46,INI,FM,M3,63.506463679523726,Hz
CTR,P46,REL,FM,M1,59.71100016383214,Hz
CTR,P46,REL,FM,M2,65.48626905438594,Hz
CTR,P46,REL,FM,M3,66.12260432924934,Hz
CTR,P48,INI,FM,M1,112.76547325231611,Hz
CTR,P48,INI,FM,M2,110.8531424362486,Hz
CTR,P48,INI,FM,M3,113.24534290205852,Hz
CTR,P48,REL,FM,M1,115.87179761515692,Hz
CTR,P48,REL,FM,M2,115.54952572552789,Hz
CTR,P48,REL,FM,M3,109.74676968465388,Hz
CTR,P49,INI,FM,M1,101.98449934355276,Hz
CTR,P49,INI,FM,M2,101.39388369334728,Hz
CTR,P49,INI,FM,M3,97.9675117497422,Hz
CTR,P49,REL,FM,M1,101.58201505070144,Hz
CTR,P49,REL,FM,M2,101.242313300047,Hz
CTR,P49,REL,FM,M3,100.94259493558523,Hz
CTR,P52,INI,FM,M1,108.8503364014178,Hz
CTR,P52,INI,FM,M2,105.4026513349567,Hz
CTR,P52,INI,FM,M3,114.1884464671882,Hz
CTR,P52,REL,FM,M1,116.6673648204417,Hz
CTR,P52,REL,FM,M2,116.8525772573093,Hz
CTR,P52,REL,FM,M3,116.6144247155616,Hz
CTR,P55,INI,FM,M1,71.25729075200285,Hz
CTR,P55,INI,FM,M2,62.3725026033402,Hz
CTR,P55,INI,FM,M3,46.88678564255332,Hz
CTR,P55,REL,FM,M1,91.44542468226682,Hz
CTR,P55,REL,FM,M2,87.17687529086524,Hz
CTR,P55,REL,FM,M3,91.71787380731162,Hz
CTR,P56,INI,FM,M1,71.01158312645967,Hz
CTR,P56,INI,FM,M2,83.64184672161267,Hz
CTR,P56,INI,FM,M3,85.15893659552172,Hz
CTR,P56,REL,FM,M1,79.07633529133649,Hz
CTR,P56,REL,FM,M2,77.22199491494551,Hz
CTR,P56,REL,FM,M3,81.36147781037296,Hz
CTR,P57,INI,FM,M1,69.43943477140309,Hz
CTR,P57,INI,FM,M2,72.86192547717859,Hz
CTR,P57,INI,FM,M3,60.38894343692458,Hz
CTR,P57,REL,FM,M1,87.40397718750967,Hz
CTR,P57,REL,FM,M2,76.36297867475538,Hz
CTR,P57,REL,FM,M3,84.76340586259487,Hz
CTR,P60,INI,FM,M1,105.63503100731144,Hz
CTR,P60,INI,FM,M2,104.40889219474325,Hz
CTR,P60,INI,FM,M3,103.93203738979744,Hz
CTR,P60,REL,FM,M1,106.3705838331568,Hz
CTR,P60,REL,FM,M2,98.8855014926909,Hz
CTR,P60,REL,FM,M3,107.10210377475754,Hz
CTR,P64,INI,FM,M1,86.39697837688527,Hz
CTR,P64,INI,FM,M2,89.14646763220748,Hz
CTR,P64,INI,FM,M3,92.17842331099844,Hz
CTR,P64,REL,FM,M1,88.23992850144276,Hz
CTR,P64,REL,FM,M2,89.08048420063837,Hz
CTR,P64,REL,FM,M3,87.7234598485398,Hz
CTR,P66,INI,FM,M1,67.84587309701419,Hz
CTR,P66,INI,FM,M2,45.63049573065795,Hz
CTR,P66,INI,FM,M3,53.580445042909886,Hz
CTR,P66,REL,FM,M1,67.45904818480408,Hz
CTR,P66,REL,FM,M2,82.24712507157129,Hz
CTR,P66,REL,FM,M3,79.76030673425716,Hz
CTR,P67,INI,FM,M1,102.7521413652818,Hz
CTR,P67,INI,FM,M2,94.35881971220154,Hz
CTR,P67,INI,FM,M3,105.39362930375268,Hz
CTR,P67,REL,FM,M1,107.11381615599667,Hz
CTR,P67,REL,FM,M2,99.90921160727008,Hz
CTR,P67,REL,FM,M3,96.48591945244172,Hz
CTR,P68,INI,FM,M1,116.15267071933958,Hz
CTR,P68,INI,FM,M2,113.92852545128736,Hz
CTR,P68,INI,FM,M3,113.15819960673907,Hz
CTR,P68,REL,FM,M1,124.2313778788075,Hz
CTR,P68,REL,FM,M2,118.4007018184193,Hz
CTR,P68,REL,FM,M3,121.3967228088542,Hz
