Group,Participant,Session,Operator,Measure,Value,Unit
CTR,P01,INI,FM,M1,32.48708727845163,%MAX
CTR,P01,INI,FM,M2,36.24697884923453,%MAX
CTR,P01,INI,FM,M3,41.329958813849125,%MAX
CTR,P01,REL,FM,M1,31.537821310704476,%MAX
CTR,P01,REL,FM,M2,23.853731104785354,%MAX
CTR,P01,REL,FM,M3,29.34331231160425,%MAX
CTR,P02,INI,FM,M1,33.8803108736988,%MAX
CTR,P02,INI,FM,M2,30.842503363528508,%MAX
CTR,P02,INI,FM,M3,32.30330860382674,%MAX
CTR,P02,REL,FM,M1,29.26832513161998,%MAX
CTR,P02,REL,FM,M2,24.951926989093177,%MAX
CTR,P02,REL,FM,M3,22.708386045007483,%MAX
CTR,P03,INI,FM,M1,28.34711212057169,%MAX
CTR,P03,INI,FM,M2,24.837821790048405,%MAX
CTR,P03,INI,FM,M3,23.077044323896327,%MAX
CTR,P03,REL,FM,M1,35.0193122558608,%MAX
CTR,P03,REL,FM,M2,39.473192884929205,%MAX
CTR,P03,REL,FM,M3,50.09066770551778,%MAX
CTR,P05,INI,FM,M1,31.068881766686374,%MAX
CTR,P05,INI,FM,M2,32.96088223825554,%MAX
CTR,P05,INI,FM,M3,30.910266477251366,%MAX
CTR,P05,REL,FM,M1,30.148107816019994,%MAX
CTR,P05,REL,FM,M2,32.7354457794535,%MAX
CTR,P05,REL,FM,M3,34.37341267076234,%MAX
CTR,P06,INI,FM,M1,37.70746063895498,%MAX
CTR,P06,INI,FM,M2,40.54592476279597,%MAX
CTR,P06,INI,FM,M3,41.1811138862622,%MAX
CTR,P06,REL,FM,M1,31.614406533133756,%MAX
CTR,P06,REL,FM,M2,30.041278975344458,%MAX
CTR,P06,REL,FM,M3,30.456867375658383,%MAX
CTR,P07,INI,FM,M1,20.49656577339692,%MAX
CTR,P07,INI,FM,M2,21.506446520892386,%MAX
CTR,P07,INI,FM,M3,26.280329714173973,%MAX
CTR,P07,REL,FM,M1,37.27153555255068,%MAX
CTR,P07,REL,FM,M2,32.37891813417624,%MAX
CTR,P07,REL,FM,M3,32.14801576236933,%MAX
CTR,P08,INI,FM,M1,15.477156592980615,%MAX
CTR,P08,INI,FM,M2,22.479133783304565,%MAX
CTR,P08,INI,FM,M3,20.949912554105023,%MAX
CTR,P08,REL,FM,M1,20.96576252234957,%MAX
CTR,P08,REL,FM,M2,18.561270674960998,%MAX
CTR,P08,REL,FM,M3,18.631909546375827,%MAX
CTR,P13,INI,FM,M1,34.24348712414681,%MAX
CTR,P13,INI,FM,M2,34.50032150410782,%MAX
CTR,P13,INI,FM,M3,33.97343468492782,%MAX
CTR,P13,REL,FM,M1,31.80804089823724,%MAX
CTR,P13,REL,FM,M2,29.954910044041487,%MAX
CTR,P13,REL,FM,M3,30.149401582113057,%MAX
CTR,P16,INI,FM,M1,,%MAX
CTR,P16,INI,FM,M2,,%MAX
CTR,P16,INI,FM,M3,,%MAX
CTR,P16,REL,FM,M1,27.541911474950123,%MAX
CTR,P16,REL,FM,M2,33.203434605627955,%MAX
CTR,P16,REL,FM,M3,26.853730515864925,%MAX
CTR,P21,REL,FM,M1,,%MAX
CTR,P21,REL,FM,M2,,%MAX
CTR,P21,REL,FM,M3,,%MAX
CTR,P22,INI,FM,M1,34.451523635730105,%MAX
CTR,P22,INI,FM,M2,29.20916620090646,%MAX
CTR,P22,INI,FM,M3,39.343650442232594,%MAX
CTR,P22,REL,FM,M1,37.900879642656996,%MAX
CTR,P22,REL,FM,M2,43.59077086191583,%MAX
CTR,P22,REL,FM,M3,42.63414112592064,%MAX
CTR,P23,REL,FM,M1,,%MAX
CTR,P23,REL,FM,M2,,%MAX
CTR,P23,REL,FM,M3,,%MAX
CTR,P25,INI,FM,M1,26.939638917962952,%MAX
CTR,P25,INI,FM,M2,38.7732325053952,%MAX
CTR,P25,INI,FM,M3,42.06110341286967,%MAX
CTR,P35,INI,FM,M1,,%MAX
CTR,P35,INI,FM,M2,,%MAX
CTR,P35,INI,FM,M3,,%MAX
CTR,P35,REL,FM,M1,,%MAX
CTR,P35,REL,FM,M2,,%MAX
CTR,P35,REL,FM,M3,,%MAX
CTR,P38,INI,FM,M1,24.651304593244163,%MAX
CTR,P38,INI,FM,M2,28.885907367047142,%MAX
CTR,P38,INI,FM,M3,29.8484104530975,%MAX
CTR,P38,REL,FM,M1,29.22284263415588,%MAX
CTR,P38,REL,FM,M2,29.335953274077742,%MAX
CTR,P38,REL,FM,M3,40.34557980738155,%MAX
CTR,P39,REL,FM,M1,32.71724815830159,%MAX
CTR,P39,REL,FM,M2,33.329553678010136,%MAX
CTR,P39,REL,FM,M3,27.461925858939026,%MAX
CTR,P40,INI,FM,M1,21.172704639032624,%MAX
CTR,P40,INI,FM,M2,24.211266242421075,%MAX
CTR,P40,INI,FM,M3,18.979094727524235,%MAX
CTR,P40,REL,FM,M1,,%MAX
CTR,P40,REL,FM,M2,,%MAX
CTR,P40,REL,FM,M3,,%MAX
CTR,P44,INI,FM,M1,29.62471858429572,%MAX
CTR,P44,INI,FM,M2,31.126816578408732,%MAX
CTR,P44,INI,FM,M3,37.23183974449127,%MAX
CTR,P44,REL,FM,M1,27.476096150019885,%MAX
CTR,P44,REL,FM,M2,31.293873101412846,%MAX
CTR,P44,REL,FM,M3,31.12120135959756,%MAX
CTR,P46,INI,FM,M1,38.887475199771565,%MAX
CTR,P46,INI,FM,M2,35.24600351824679,%MAX
CTR,P46,INI,FM,M3,36.8323284414232,%MAX
CTR,P46,REL,FM,M1,18.206441343203632,%MAX
CTR,P46,REL,FM,M2,12.37715575455132,%MAX
CTR,P46,REL,FM,M3,38.19819734681018,%MAX
CTR,P48,INI,FM,M1,32.40692511854664,%MAX
CTR,P48,INI,FM,M2,32.80287156101079,%MAX
CTR,P48,INI,FM,M3,41.71600471803325,%MAX
CTR,P48,REL,FM,M1,,%MAX
CTR,P48,REL,FM,M2,,%MAX
CTR,P48,REL,FM,M3,,%MAX
CTR,P49,REL,FM,M1,29.52366769910445,%MAX
CTR,P49,REL,FM,M2,33.98704807458545,%MAX
CTR,P49,REL,FM,M3,33.273458281115445,%MAX
CTR,P52,INI,FM,M1,,%MAX
CTR,P52,INI,FM,M2,,%MAX
CTR,P52,INI,FM,M3,,%MAX
CTR,P55,INI,FM,M1,30.56687765781473,%MAX
CTR,P55,INI,FM,M2,41.18166496785044,%MAX
CTR,P55,INI,FM,M3,41.431435984059384,%MAX
CTR,P55,REL,FM,M1,35.47308006487024,%MAX
CTR,P55,REL,FM,M2,38.56345229876308,%MAX
CTR,P55,REL,FM,M3,38.68532922533939,%MAX
CTR,P56,INI,FM,M1,28.43785943751059,%MAX
CTR,P56,INI,FM,M2,17.273835626718167,%MAX
CTR,P56,INI,FM,M3,31.440168118286476,%MAX
CTR,P56,REL,FM,M1,,%MAX
CTR,P56,REL,FM,M2,,%MAX
CTR,P56,REL,FM,M3,,%MAX
CTR,P57,INI,FM,M1,18.924488796706036,%MAX
CTR,P57,INI,FM,M2,34.95992277676299,%MAX
CTR,P57,INI,FM,M3,24.813382746063358,%MAX
CTR,P57,REL,FM,M1,25.806121217894084,%MAX
CTR,P57,REL,FM,M2,27.253272506377026,%MAX
CTR,P57,REL,FM,M3,25.132171238356136,%MAX
CTR,P60,INI,FM,M1,,%MAX
CTR,P60,INI,FM,M2,,%MAX
CTR,P60,INI,FM,M3,,%MAX
CTR,P66,INI,FM,M1,24.26542570317774,%MAX
CTR,P66,INI,FM,M2,34.06685667705002,%MAX
CTR,P66,INI,FM,M3,31.792164868230167,%MAX
CTR,P66,REL,FM,M1,,%MAX
CTR,P66,REL,FM,M2,,%MAX
CTR,P66,REL,FM,M3,,%MAX
