Group,Participant,Session,Operator,Measure,Value,Unit
PAT,P09,INI,FM,M1,0.0075050728967238,V
PAT,P09,INI,FM,M2,0.0064494701282601,V
PAT,P09,INI,FM,M3,0.0066494068987877,V
PAT,P09,REL,FM,M1,,V
PAT,P09,REL,FM,M2,,V
PAT,P09,REL,FM,M3,,V
PAT,P10,INI,FM,M1,0.0047444884212168,V
PAT,P10,INI,FM,M2,0.0050695740851128,V
PAT,P10,INI,FM,M3,0.0056236365684019,V
PAT,P10,REL,FM,M1,0.0055195540640478,V
PAT,P10,REL,FM,M2,0.0056264762375158,V
PAT,P10,REL,FM,M3,0.0070297133490338,V
PAT,P11,INI,FM,M1,0.0059470580841845,V
PAT,P11,INI,FM,M2,0.0049578317802032,V
PAT,P11,INI,FM,M3,0.0053141977495109,V
PAT,P11,REL,FM,M1,0.0056383099924393,V
PAT,P11,REL,FM,M2,0.0059717668675796,V
PAT,P11,REL,FM,M3,0.0057692059549228,V
PAT,P12,INI,FM,M1,0.0038726096988274,V
PAT,P12,INI,FM,M2,0.0033711841274808,V
PAT,P12,INI,FM,M3,0.0037040191418336,V
PAT,P12,REL,FM,M1,0.0041841168072202,V
PAT,P12,REL,FM,M2,0.0045946764241682,V
PAT,P12,REL,FM,M3,0.0047192683764547,V
PAT,P14,INI,FM,M1,0.0062264551262025,V
PAT,P14,INI,FM,M2,0.0067657474945576,V
PAT,P14,INI,FM,M3,0.0072999633476724,V
PAT,P14,REL,FM,M1,0.0051562644164524,V
PAT,P14,REL,FM,M2,0.0051532164893129,V
PAT,P14,REL,FM,M3,0.0055090738662198,V
PAT,P17,INI,FM,M1,0.0083916747588329,V
PAT,P17,INI,FM,M2,0.0093593567629672,V
PAT,P17,INI,FM,M3,0.0097733926029948,V
PAT,P17,REL,FM,M1,0.0047925781517996,V
PAT,P17,REL,FM,M2,0.0051207347764862,V
PAT,P17,REL,FM,M3,0.0054637256566623,V
PAT,P24,INI,FM,M1,0.0065558047203808,V
PAT,P24,INI,FM,M2,0.0070337186180524,V
PAT,P24,INI,FM,M3,0.0066732829901749,V
PAT,P24,REL,FM,M1,0.0062439195873571,V
PAT,P24,REL,FM,M2,0.006140720658866,V
PAT,P24,REL,FM,M3,0.0085132303413416,V
PAT,P26,INI,FM,M1,0.0109403571261696,V
PAT,P26,INI,FM,M2,0.0135118149679775,V
PAT,P26,INI,FM,M3,0.0156628110964078,V
PAT,P26,REL,FM,M1,0.0125431942214669,V
PAT,P26,REL,FM,M2,0.0149084786712683,V
PAT,P26,REL,FM,M3,0.0220036001192842,V
PAT,P27,INI,FM,M1,0.0078832370506362,V
PAT,P27,INI,FM,M2,0.0070428465949014,V
PAT,P27,INI,FM,M3,0.0069765849019796,V
PAT,P27,REL,FM,M1,0.0080011921413523,V
PAT,P27,REL,FM,M2,,V
PAT,P27,REL,FM,M3,0.0107243509286975,V
PAT,P28,INI,FM,M1,0.0048901187595361,V
PAT,P28,INI,FM,M2,0.0048207708087792,V
PAT,P28,INI,FM,M3,0.0049396858631622,V
PAT,P28,REL,FM,M1,0.0042989992772415,V
PAT,P28,REL,FM,M2,0.0046151108408572,V
PAT,P28,REL,FM,M3,0.0047300769038532,V
PAT,P29,INI,FM,M1,,V
PAT,P29,INI,FM,M2,,V
PAT,P29,INI,FM,M3,,V
PAT,P29,REL,FM,M1,,V
PAT,P29,REL,FM,M2,,V
PAT,P29,REL,FM,M3,,V
PAT,P30,INI,FM,M1,0.0039281004394483,V
PAT,P30,INI,FM,M2,0.0043103930680653,V
PAT,P30,INI,FM,M3,0.0047798747649517,V
PAT,P30,REL,FM,M1,0.0064983784146245,V
PAT,P30,REL,FM,M2,0.0065613787062109,V
PAT,P30,REL,FM,M3,0.0065686735508258,V
PAT,P32,INI,FM,M1,0.0063550753847816,V
PAT,P32,INI,FM,M2,0.0067096725332695,V
PAT,P32,INI,FM,M3,0.0066734236508149,V
PAT,P32,REL,FM,M1,0.0040435449094892,V
PAT,P32,REL,FM,M2,0.0043398134723513,V
PAT,P32,REL,FM,M3,0.0038416938301815,V
PAT,P33,INI,FM,M1,,V
PAT,P33,INI,FM,M2,,V
PAT,P33,INI,FM,M3,,V
PAT,P33,REL,FM,M1,0.0060801810534089,V
PAT,P33,REL,FM,M2,,V
PAT,P33,REL,FM,M3,,V
PAT,P34,INI,FM,M1,0.0061632747737623,V
PAT,P34,INI,FM,M2,0.0054499878784262,V
PAT,P34,INI,FM,M3,0.0057302878305631,V
PAT,P34,REL,FM,M1,0.0075812610362946,V
PAT,P34,REL,FM,M2,0.0083484867695081,V
PAT,P34,REL,FM,M3,0.008106677485889,V
PAT,P36,INI,FM,M1,0.0096819229146309,V
PAT,P36,INI,FM,M2,0.0096024918296441,V
PAT,P36,INI,FM,M3,0.016080136249367,V
PAT,P36,REL,FM,M1,0.0055207954747511,V
PAT,P36,REL,FM,M2,0.0055744836269938,V
PAT,P36,REL,FM,M3,0.0063859192923816,V
PAT,P41,INI,FM,M1,0.0082041268257003,V
PAT,P41,INI,FM,M2,0.0073907752930638,V
PAT,P41,INI,FM,M3,0.0076255367914262,V
PAT,P41,REL,FM,M1,0.0074957837487084,V
PAT,P41,REL,FM,M2,0.0069600129203535,V
PAT,P41,REL,FM,M3,0.0071115337945011,V
PAT,P42,INI,FM,M1,0.0085825658105578,V
PAT,P42,INI,FM,M2,0.0104905623020641,V
PAT,P42,INI,FM,M3,0.008846751846346,V
PAT,P42,REL,FM,M1,0.0086578513312361,V
PAT,P42,REL,FM,M2,0.0085115589308419,V
PAT,P42,REL,FM,M3,0.0092555446922141,V
PAT,P43,INI,FM,M1,0.0052304060126784,V
PAT,P43,INI,FM,M2,0.005941888974196,V
PAT,P43,INI,FM,M3,0.0056668261197074,V
PAT,P43,REL,FM,M1,0.0087152263374561,V
PAT,P43,REL,FM,M2,0.0078134566439124,V
PAT,P43,REL,FM,M3,0.0092771655891885,V
PAT,P45,INI,FM,M1,0.0044741738041274,V
PAT,P45,INI,FM,M2,0.0046403221936883,V
PAT,P45,INI,FM,M3,0.0043972418238808,V
PAT,P45,REL,FM,M1,0.0044827006106941,V
PAT,P45,REL,FM,M2,0.0044492909038491,V
PAT,P45,REL,FM,M3,0.0045055462775018,V
PAT,P47,INI,FM,M1,0.0104556020927057,V
PAT,P47,INI,FM,M2,0.0117955545338027,V
PAT,P47,INI,FM,M3,0.0126101144461077,V
PAT,P47,REL,FM,M1,0.0087146370401259,V
PAT,P47,REL,FM,M2,0.0088271273463912,V
PAT,P47,REL,FM,M3,0.0100079532231352,V
PAT,P50,INI,FM,M1,0.0132305235302105,V
PAT,P50,INI,FM,M2,0.0153384009295422,V
PAT,P50,INI,FM,M3,0.0157239611340123,V
PAT,P50,REL,FM,M1,0.0113435638688953,V
PAT,P50,REL,FM,M2,0.0123607768504585,V
PAT,P50,REL,FM,M3,0.0131286683854517,V
PAT,P51,INI,FM,M1,0.0128804037031512,V
PAT,P51,INI,FM,M2,,V
PAT,P51,INI,FM,M3,0.0109049564761635,V
PAT,P51,REL,FM,M1,0.0069238989212146,V
PAT,P51,REL,FM,M2,0.0055340004896211,V
PAT,P51,REL,FM,M3,0.0073492718445194,V
PAT,P53,INI,FM,M1,0.0069708856521152,V
PAT,P53,INI,FM,M2,0.0068524035790536,V
PAT,P53,INI,FM,M3,0.0067808740026605,V
PAT,P53,REL,FM,M1,0.0056726046875093,V
PAT,P53,REL,FM,M2,0.0055336616829645,V
PAT,P53,REL,FM,M3,0.0055821391313349,V
PAT,P54,INI,FM,M1,0.0057041152466722,V
PAT,P54,INI,FM,M2,0.0051277808674444,V
PAT,P54,INI,FM,M3,0.0060730606701087,V
PAT,P54,REL,FM,M1,0.0055423761217475,V
PAT,P54,REL,FM,M2,0.0056420211053894,V
PAT,P54,REL,FM,M3,0.0058430984899395,V
PAT,P58,INI,FM,M1,0.0034528818368321,V
PAT,P58,INI,FM,M2,0.0043823244015457,V
PAT,P58,INI,FM,M3,0.0047028435898349,V
PAT,P58,REL,FM,M1,0.0061380548583341,V
PAT,P58,REL,FM,M2,0.007457140177336,V
PAT,P58,REL,FM,M3,0.0078784909064955,V
PAT,P61,INI,FM,M1,0.0100970734679417,V
PAT,P61,INI,FM,M2,0.0096176837206577,V
PAT,P61,INI,FM,M3,0.0104631720595014,V
PAT,P61,REL,FM,M1,0.0091865817482401,V
PAT,P61,REL,FM,M2,0.00825955521228,V
PAT,P61,REL,FM,M3,0.009164482645989,V
PAT,P62,INI,FM,M1,,V
PAT,P62,INI,FM,M2,,V
PAT,P62,INI,FM,M3,,V
PAT,P62,REL,FM,M1,0.0058679193712092,V
PAT,P62,REL,FM,M2,0.0049345616138782,V
PAT,P62,REL,FM,M3,0.0058636998671179,V
PAT,P63,INI,FM,M1,0.0138821990137427,V
PAT,P63,INI,FM,M2,0.0149351840660732,V
PAT,P63,INI,FM,M3,0.0133087461794314,V
PAT,P63,REL,FM,M1,0.0048303332179583,V
PAT,P63,REL,FM,M2,0.0048978325696412,V
PAT,P63,REL,FM,M3,0.0053536979471315,V
PAT,P65,INI,FM,M1,,V
PAT,P65,INI,FM,M2,0.0130705625720338,V
PAT,P65,INI,FM,M3,0.0144808465774314,V
PAT,P65,REL,FM,M1,0.0095105142056971,V
PAT,P65,REL,FM,M2,0.0102012207896441,V
PAT,P65,REL,FM,M3,0.0108895854912855,V
