Group,Participant,Session,Operator,Measure,Value,Unit
PAT,P10,INI,FM,M1,0.8053333333333333,s
PAT,P10,INI,FM,M2,0.6516666666666667,s
PAT,P10,INI,FM,M3,0.6890000000000001,s
PAT,P10,REL,FM,M1,0.827,s
PAT,P10,REL,FM,M2,0.9470000000000001,s
PAT,P10,REL,FM,M3,0.86,s
PAT,P11,INI,FM,M1,1.4909999999999999,s
PAT,P11,INI,FM,M2,1.099,s
PAT,P11,INI,FM,M3,1.05925,s
PAT,P11,REL,FM,M1,1.0256666666666667,s
PAT,P11,REL,FM,M2,1.111,s
PAT,P11,REL,FM,M3,1.0423333333333333,s
PAT,P12,INI,FM,M1,1.0233333333333332,s
PAT,P12,INI,FM,M2,1.0413333333333332,s
PAT,P12,INI,FM,M3,0.9166666666666666,s
PAT,P12,REL,FM,M1,0.43100000000000005,s
PAT,P12,REL,FM,M2,1.1720000000000002,s
PAT,P12,REL,FM,M3,5.9995,s
PAT,P14,INI,FM,M1,0.5063333333333333,s
PAT,P14,INI,FM,M2,0.4713333333333333,s
PAT,P14,INI,FM,M3,0.512,s
PAT,P14,REL,FM,M1,0.751,s
PAT,P14,REL,FM,M2,0.858,s
PAT,P14,REL,FM,M3,0.5830000000000001,s
PAT,P17,INI,FM,M1,1.2106666666666668,s
PAT,P17,INI,FM,M2,1.1736666666666666,s
PAT,P17,INI,FM,M3,1.82,s
PAT,P17,REL,FM,M1,1.0795,s
PAT,P17,REL,FM,M2,1.4665,s
PAT,P17,REL,FM,M3,1.448,s
PAT,P24,INI,FM,M1,1.0919999999999999,s
PAT,P24,INI,FM,M2,1.3503333333333334,s
PAT,P24,INI,FM,M3,1.351,s
PAT,P24,REL,FM,M1,0.702,s
PAT,P24,REL,FM,M2,1.2226666666666666,s
PAT,P24,REL,FM,M3,1.4183333333333332,s
PAT,P26,INI,FM,M1,1.1143333333333334,s
PAT,P26,INI,FM,M2,1.5853333333333335,s
PAT,P26,INI,FM,M3,0.9776666666666668,s
PAT,P26,REL,FM,M1,3.2205,s
PAT,P26,REL,FM,M2,1.8325,s
PAT,P26,REL,FM,M3,2.7235,s
PAT,P27,INI,FM,M1,1.0446666666666669,s
PAT,P27,INI,FM,M2,1.1013333333333333,s
PAT,P27,INI,FM,M3,5.508333333333333,s
PAT,P27,REL,FM,M1,0.5956666666666667,s
PAT,P27,REL,FM,M2,0.9400000000000001,s
PAT,P27,REL,FM,M3,0.41100000000000003,s
PAT,P28,INI,FM,M1,2.2822500000000003,s
PAT,P28,INI,FM,M2,0.83375,s
PAT,P28,INI,FM,M3,0.723,s
PAT,P28,REL,FM,M1,1.5245000000000002,s
PAT,P28,REL,FM,M2,0.771,s
PAT,P28,REL,FM,M3,0.69125,s
PAT,P29,INI,FM,M1,1.3250000000000002,s
PAT,P29,INI,FM,M2,2.103666666666667,s
PAT,P29,INI,FM,M3,2.2563333333333335,s
PAT,P29,REL,FM,M1,,s
PAT,P29,REL,FM,M2,,s
PAT,P29,REL,FM,M3,,s
PAT,P30,INI,FM,M1,0.5106666666666667,s
PAT,P30,INI,FM,M2,0.706,s
PAT,P30,INI,FM,M3,0.7813333333333333,s
PAT,P30,REL,FM,M1,0.22299999999999998,s
PAT,P30,REL,FM,M2,0.3325,s
PAT,P30,REL,FM,M3,1.5334999999999999,s
PAT,P32,INI,FM,M1,0.8113333333333334,s
PAT,P32,INI,FM,M2,0.6779999999999999,s
PAT,P32,INI,FM,M3,0.6819999999999999,s
PAT,P32,REL,FM,M1,0.783,s
PAT,P32,REL,FM,M2,0.6323333333333333,s
PAT,P32,REL,FM,M3,0.5763333333333334,s
PAT,P33,INI,FM,M1,1.0286666666666666,s
PAT,P33,INI,FM,M2,1.1906666666666668,s
PAT,P33,INI,FM,M3,0.89,s
PAT,P33,REL,FM,M1,0.658,s
PAT,P33,REL,FM,M2,0.7433333333333333,s
PAT,P33,REL,FM,M3,0.9480000000000001,s
PAT,P34,INI,FM,M1,0.9015,s
PAT,P34,INI,FM,M2,3.8285,s
PAT,P34,INI,FM,M3,2.2085,s
PAT,P34,REL,FM,M1,1.16,s
PAT,P34,REL,FM,M2,1.3845,s
PAT,P34,REL,FM,M3,1.1400000000000001,s
PAT,P36,INI,FM,M1,1.6953333333333334,s
PAT,P36,INI,FM,M2,1.4976666666666667,s
PAT,P36,INI,FM,M3,1.2446666666666666,s
PAT,P36,REL,FM,M1,3.0656666666666665,s
PAT,P36,REL,FM,M2,1.8263333333333331,s
PAT,P36,REL,FM,M3,1.266,s
PAT,P41,INI,FM,M1,0.9369999999999999,s
PAT,P41,INI,FM,M2,1.0243333333333335,s
PAT,P41,INI,FM,M3,1.0686666666666669,s
PAT,P41,REL,FM,M1,1.0553333333333332,s
PAT,P41,REL,FM,M2,1.0293333333333334,s
PAT,P41,REL,FM,M3,1.2633333333333334,s
PAT,P42,INI,FM,M1,1.394,s
PAT,P42,INI,FM,M2,1.155,s
PAT,P42,INI,FM,M3,3.534,s
PAT,P42,REL,FM,M1,0.5656666666666667,s
PAT,P42,REL,FM,M2,1.1593333333333333,s
PAT,P42,REL,FM,M3,1.2063333333333333,s
PAT,P43,REL,FM,M1,1.236,s
PAT,P43,REL,FM,M2,1.095,s
PAT,P43,REL,FM,M3,1.5916666666666668,s
PAT,P45,INI,FM,M1,0.7606666666666667,s
PAT,P45,INI,FM,M2,0.684,s
PAT,P45,INI,FM,M3,0.574,s
PAT,P45,REL,FM,M1,0.612,s
PAT,P45,REL,FM,M2,0.6053333333333333,s
PAT,P45,REL,FM,M3,0.532,s
PAT,P47,INI,FM,M1,1.618666666666667,s
PAT,P47,INI,FM,M2,1.1668333333333334,s
PAT,P47,INI,FM,M3,1.5766666666666664,s
PAT,P47,REL,FM,M1,,s
PAT,P47,REL,FM,M2,,s
PAT,P47,REL,FM,M3,,s
PAT,P50,INI,FM,M1,0.38400000000000006,s
PAT,P50,INI,FM,M2,0.26966666666666667,s
PAT,P50,INI,FM,M3,0.5246666666666666,s
PAT,P50,REL,FM,M1,0.48866666666666664,s
PAT,P50,REL,FM,M2,0.379,s
PAT,P50,REL,FM,M3,0.38966666666666666,s
PAT,P51,INI,FM,M1,0.552,s
PAT,P51,INI,FM,M2,1.6737499999999998,s
PAT,P51,INI,FM,M3,1.0265,s
PAT,P51,REL,FM,M1,0.412,s
PAT,P51,REL,FM,M2,,s
PAT,P51,REL,FM,M3,,s
PAT,P53,INI,FM,M1,1.4433333333333334,s
PAT,P53,INI,FM,M2,1.5676666666666668,s
PAT,P53,INI,FM,M3,1.3243333333333334,s
PAT,P53,REL,FM,M1,1.508,s
PAT,P53,REL,FM,M2,1.5886666666666667,s
PAT,P53,REL,FM,M3,1.3163333333333334,s
PAT,P54,INI,FM,M1,1.174,s
PAT,P54,INI,FM,M2,0.435,s
PAT,P54,INI,FM,M3,0.151,s
PAT,P58,REL,FM,M1,0.39666666666666667,s
PAT,P58,REL,FM,M2,0.7246666666666667,s
PAT,P58,REL,FM,M3,0.855,s
PAT,P61,INI,FM,M1,0.2735,s
PAT,P61,INI,FM,M2,0.41200000000000003,s
PAT,P61,INI,FM,M3,0.371,s
PAT,P61,REL,FM,M1,0.32766666666666666,s
PAT,P61,REL,FM,M2,0.20966666666666667,s
PAT,P61,REL,FM,M3,0.25,s
PAT,P62,INI,FM,M1,0.3473333333333333,s
PAT,P62,INI,FM,M2,0.4696666666666667,s
PAT,P62,INI,FM,M3,0.617,s
PAT,P62,REL,FM,M1,0.8525,s
PAT,P62,REL,FM,M2,0.6715,s
PAT,P62,REL,FM,M3,0.387,s
PAT,P63,INI,FM,M1,0.98725,s
PAT,P63,INI,FM,M2,0.9835,s
PAT,P63,INI,FM,M3,1.28325,s
PAT,P63,REL,FM,M1,0.7273333333333333,s
PAT,P63,REL,FM,M2,2.9136666666666664,s
PAT,P63,REL,FM,M3,1.3473333333333333,s
PAT,P65,INI,FM,M1,1.694,s
PAT,P65,INI,FM,M2,1.397,s
PAT,P65,INI,FM,M3,1.1556666666666666,s
PAT,P65,REL,FM,M1,1.6153333333333333,s
PAT,P65,REL,FM,M2,1.5196666666666665,s
PAT,P65,REL,FM,M3,1.4046666666666667,s
