event,time_sec,time_min
RHS,0.5400000214576721,0.0
RHS,1.2699999809265137,0.0
RHS,2.009999990463257,0.0
RTO,0.20999999344348907,0.0
RTO,0.949999988079071,0.0
RTO,1.690000057220459,0.0
LHS,0.15000000596046448,0.0
LHS,0.8999999761581421,0.0
LHS,1.6399999856948853,0.0
LTO,0.5899999737739563,0.0
LTO,1.3200000524520874,0.0
LTO,2.049999952316284,0.0
