event,time_sec,time_min
RHS,0.550000011920929,0.0
RHS,1.2999999523162842,0.0
RHS,2.009999990463257,0.0
RTO,0.23000000417232513,0.0
RTO,0.9900000095367432,0.0
RTO,1.7000000476837158,0.0
LHS,0.17000000178813934,0.0
LHS,0.9300000071525574,0.0
LHS,1.649999976158142,0.0
LTO,0.6000000238418579,0.0
LTO,1.340000033378601,0.0
LTO,2.0399999618530273,0.0
