event,time_sec,time_min
RHS,0.6899999976158142,0.0
RHS,1.6200000047683716,0.0
RHS,2.5299999713897705,0.0
RHS,3.450000047683716,0.0
RTO,0.33000001311302185,0.0
RTO,1.25,0.0
RTO,2.1600000858306885,0.0
RTO,3.0799999237060547,0.0
LHS,0.25,0.0
LHS,1.159999966621399,0.0
LHS,2.069999933242798,0.0
LHS,2.9800000190734863,0.0
LTO,0.7799999713897705,0.0
LTO,1.7100000381469727,0.0
LTO,2.609999895095825,0.0
LTO,3.5399999618530273,0.0
