"","Biomarkers","Unit","Normality","P","AUC","Youden"
"1","BMo1.csv","V","0.00297300746043715","0.0275537866683125","66.8252080856124","41.3793103448276"
"2","BMo100.csv","%MAX","0.695624127567871","0.941465611436132","51.4444444444444","13.3333333333333"
"3","BMo101.csv","%MAX","0.956563402870087","0.226686341016935","59.5061728395062","20.3703703703704"
"4","BMo102.csv","%MAX","0.290179946546561","0.0506091023944725","61.2222222222222","30"
"5","BMo103.csv","%MAX","0.212576488438917","0.189936910845846","58.3950617283951","26.6666666666667"
"6","BMo104.csv","%MAX","0.00661338310896972","0.254408646904175","58.7356321839081","24.2528735632184"
"7","BMo105.csv","%MAX","0.105893173027433","0.203711765035746","60.4444444444444","26.6666666666667"
"8","BMo106.csv","%MAX","0.12447348553831","0.471880302516311","55.0617283950617","19.6296296296296"
"9","BMo107.csv","%MAX","0.0768693719817208","0.638170007277359","53.9080459770115","14.4827586206897"
"10","BMo108.csv","%MAX","0.172679348650073","0.687182201475479","54.0229885057471","18.8505747126437"
"11","BMo109.csv","%MAX","0.554568615268427","3.47358660976518e-05","79.5402298850575","49.1954022988506"
"12","BMo110.csv","%subMVIC","8.81871320107237e-05","0.260131706356526","58.8761174968071","26.0536398467433"
"13","BMo111.csv","%subMVIC","0.000779808192910259","0.42157660885701","56.2425683709869","20.6896551724138"
"14","BMo112.csv","%subMVIC","3.20496180841755e-06","0.455786627453199","55.7471264367816","22.6436781609195"
"15","BMo113.csv","%subMVIC","1.57330872172294e-06","0.795492719324522","52.1220159151194","21.6180371352785"
"16","BMo114.csv","V","0.000211165103038772","0.186040969736639","60.1149425287356","29.080459770115"
"17","BMo115.csv","V","2.1824680841107e-05","0.132130760611736","61.4942528735632","35.8620689655172"
"18","BMo117.csv","Hz","0.995351650304768","0.120524959736422","60.8045977011494","25.0574712643678"
"19","BMo118.csv","Hz","0.773014049383374","0.121724669073401","61.7241379310345","29.1954022988506"
"20","BMo119.csv","Hz","0.0426577365737857","0.815578973475373","51.8390804597701","11.7241379310345"
"21","BMo15.csv","V","3.53157561636224e-07","0.000895877632174616","75.1231527093596","43.9655172413793"
"22","BMo22.csv","V","3.38917292997739e-05","0.321426397015202","58.1360946745562","30.7692307692308"
"23","BMo23.csv","V","0.00132346695529331","0.397929894070035","56.9526627218935","26.9230769230769"
"24","BMo24.csv","V","0.00549489181236114","0.913069751699574","51.0476190476191","12.952380952381"
"25","BMo29.csv","Hz","0.0590581744204852","0.109961211588015","57.512315270936","25.2463054187192"
"26","BMo34.csv","%MAX","0.00616366335692494","0.00106272059639714","74.367816091954","42.8735632183908"
"27","BMo35.csv","NAN","1.73569687250823e-05","0.877276057684585","51.2755102040816","14.2857142857143"
"28","BMo36.csv","%SubMVIC","0.61474503728499","0.000130620814813358","78.448275862069","51.3546798029557"
"29","BMo37.csv","Hz","0.492422819360795","0.702154006274338","53.6904761904762","16.9047619047619"
"30","BMo38.csv","Hz","0.107364408391723","0.100933948107413","57.3891625615764","28.6945812807882"
"31","BMo40.csv","Hz","0.1667331415297","0.625942613382733","55.1190476190476","21.4285714285714"
"32","BMo41.csv","NAN","0.000385659447621568","0.637533694314397","53.6904761904762","17.8571428571429"
"33","BMo42.csv","NAN","0.00320226987632284","7.42953352852378e-05","79.3103448275862","55.1724137931034"
"34","BMo43.csv","NAN","2.36006572114542e-05","0.0165375237353652","68.2520808561237","44.8275862068966"
"35","BMo44.csv","NAN","0.0969567914537568","0.000353722550222799","76.2068965517241","45.632183908046"
"36","BMo51.csv","Hz","0.021564734257668","0.151062048590185","61.0714285714286","21.6666666666667"
"37","BMo52.csv","Hz","0.246376249589417","0.484173166265181","55.7669441141498","17.2413793103448"
"38","BMo53.csv","Hz","0.340654379681093","0.0735749755838864","62.4137931034483","26.0919540229885"
"39","BMo67.csv","%subMVIC","1.25705987205876e-05","0.701126633974583","52.9885057471264","15.4022988505747"
"40","BMo68.csv","%subMVIC","6.81848822127548e-05","0.154312070984421","61.6296296296296","22.962962962963"
"41","BMo69.csv","V","0.0589018913688693","0.198479816318733","60.3566529492455","22.2222222222222"
"42","BMo81.csv","V","5.91631096716858e-05","0.610319877373519","45.8994708994709","16.2698412698413"
"43","BMo82.csv","V","0.000440881139438082","0.549476396188547","44.9275362318841","12.0772946859903"
"44","BMo86.csv","s","0.178885435323033","0.238218204925852","57.9710144927536","18.8405797101449"
"45","BMo87.csv","s","7.96092384855652e-09","0.924439852340378","49.0942028985507","15.5797101449275"
"46","BMo88.csv","s","7.17281274246308e-08","0.164811113998815","61.9565217391304","27.536231884058"
"47","BMo91.csv","V","2.32365019217057e-05","0.230085149267932","59.35960591133","22.5369458128079"
"48","BMo96.csv","V","0.0001859837451886","0.113152475095854","62.1878715814507","24.1379310344828"
"49","BMo97.csv","V","7.13028738984006e-05","0.92401746135487","49.2222222222222","10"
"50","BMo98.csv","V","0.00030134795612277","0.176164253828736","60.7427055702918","24.4031830238727"
