Biomarkers,Participant,Session,Task,Error
15,P17,REL,Trunk_Forward,no values
15,P38,INI,Trunk_Forward,no values
15,P50,REL,Trunk_Forward,no values
15,P53,INI,Trunk_Forward,no values
15,P68,INI,Trunk_Forward,no values
