Biomarkers,Participant,Session,Task,Error
67,P06,INI,Posture_Sitting,no values
67,P10,INI,Posture_Sitting,no values
67,P16,REL,Posture_Sitting,no values
67,P24,INI,Posture_Sitting,no values
67,P61,INI,Posture_Sitting,no values
