Biomarkers,Participant,Session,Task,Error
104,P21,INI,Gait_Normal,no values
104,P22,REL,Gait_Normal,no values
104,P23,REL,Gait_Normal,no values
104,P24,INI,Gait_Normal,no values
104,P33,REL,Gait_Normal,no values
104,P42,REL,Gait_Normal,no values
104,P43,INI,Gait_Normal,no values
104,P50,INI,Gait_Normal,no values
104,P51,REL,Gait_Normal,no values
104,P57,INI,Gait_Normal,no values
104,P58,INI,Gait_Normal,no values
104,P61,INI,Gait_Normal,no values
104,P62,REL,Gait_Normal,no values
104,P63,REL,Gait_Normal,no values
104,P64,REL,Gait_Normal,no values
104,P67,INI,Gait_Normal,no values
104,P68,INI,Gait_Normal,no values
