event,time_sec,time_min
RHS,0.15000000596046448,0.0
RHS,1.2000000476837158,0.0
RHS,2.240000009536743,0.0
RTO,0.800000011920929,0.0
RTO,1.8600000143051147,0.0
RTO,2.869999885559082,0.0
LHS,0.6800000071525574,0.0
LHS,1.7400000095367432,0.0
LHS,2.759999990463257,0.0
LTO,0.2800000011920929,0.0
LTO,1.350000023841858,0.0
LTO,2.369999885559082,0.0
