event,time_sec,time_min
RHS,0.07000000029802322,0.0
RHS,1.1200000047683716,0.0
RHS,2.1600000858306885,0.0
RTO,0.7200000286102295,0.0
RTO,1.7699999809265137,0.0
RTO,2.799999952316284,0.0
LHS,0.6100000143051147,0.0
LHS,1.6299999952316284,0.0
LHS,2.680000066757202,0.0
LTO,0.20999999344348907,0.0
LTO,1.25,0.0
LTO,2.2799999713897705,0.0
