event,time_sec,time_min
RHS,0.14000000059604645,0.0
RHS,1.2100000381469727,0.0
RHS,2.299999952316284,0.0
RTO,0.8199999928474426,0.0
RTO,1.899999976158142,0.0
RTO,2.990000009536743,0.0
LHS,0.6899999976158142,0.0
LHS,1.7699999809265137,0.0
LHS,2.859999895095825,0.0
LTO,0.2800000011920929,0.0
LTO,1.3600000143051147,0.0
LTO,2.450000047683716,0.0
