event,time_sec,time_min
RHS,0.05000000074505806,0.0
RHS,1.0800000429153442,0.0
RHS,2.1500000953674316,0.0
RTO,0.699999988079071,0.0
RTO,1.7599999904632568,0.0
RTO,2.809999942779541,0.0
LHS,0.5799999833106995,0.0
LHS,1.6200000047683716,0.0
LHS,2.690000057220459,0.0
LTO,0.17000000178813934,0.0
LTO,1.2300000190734863,0.0
LTO,2.2899999618530273,0.0
