event,time_sec,time_min
startMotion,0.10000000149011612,0.0
startMotion,15.850000381469727,0.0
startMotion,30.100000381469727,0.0
startMotion,46.599998474121094,0.0
stopMotion,8.5,0.0
stopMotion,22.889999389648438,0.0
stopMotion,37.150001525878906,0.0
