event,time_sec,time_min
startMotion,0.10000000149011612,0.0
startMotion,10.119999885559082,0.0
startMotion,17.770000457763672,0.0
startMotion,26.030000686645508,0.0
startMotion,33.220001220703125,0.0
startMotion,41.619998931884766,0.0
startMotion,50.91999816894531,0.0
stopMotion,5.960000038146973,0.0
stopMotion,14.0600004196167,0.0
stopMotion,21.959999084472656,0.0
stopMotion,29.649999618530273,0.0
stopMotion,37.25,0.0
stopMotion,45.459999084472656,0.0
