event,time_sec,time_min
startMotion,0.10000000149011612,0.0
startMotion,7.480000019073486,0.0
startMotion,14.130000114440918,0.0
startMotion,20.040000915527344,0.0
startMotion,26.420000076293945,0.0
startMotion,32.380001068115234,0.0
startMotion,40.41999816894531,0.0
stopMotion,4.400000095367432,0.0
stopMotion,11.0,0.0
stopMotion,17.0,0.0
stopMotion,23.25,0.0
stopMotion,29.31999969482422,0.0
stopMotion,35.66999816894531,0.0
