event,time_sec,time_min
RHS,0.11999999731779099,0.0
RHS,1.2599999904632568,0.0
RHS,2.3399999141693115,0.0
RHS,3.4100000858306885,0.0
RTO,0.8500000238418579,0.0
RTO,1.9299999475479126,0.0
RTO,3.009999990463257,0.0
RTO,4.110000133514404,0.0
LHS,0.699999988079071,0.0
LHS,1.7899999618530273,0.0
LHS,2.859999895095825,0.0
LHS,3.9600000381469727,0.0
LTO,0.30000001192092896,0.0
LTO,1.409999966621399,0.0
LTO,2.5,0.0
LTO,3.559999942779541,0.0
