event,time_sec,time_min
RHS,0.10999999940395355,0.0
RHS,1.0800000429153442,0.0
RHS,2.0199999809265137,0.0
RTO,0.699999988079071,0.0
RTO,1.649999976158142,0.0
RTO,2.5999999046325684,0.0
LHS,0.6000000238418579,0.0
LHS,1.559999942779541,0.0
LHS,2.509999990463257,0.0
LTO,0.2199999988079071,0.0
LTO,1.190000057220459,0.0
LTO,2.130000114440918,0.0
