event,time_sec,time_min
startMotion,0.10000000149011612,0.0
startMotion,12.289999961853027,0.0
startMotion,23.010000228881836,0.0
startMotion,35.599998474121094,0.0
stopMotion,6.449999809265137,0.0
stopMotion,17.299999237060547,0.0
stopMotion,27.739999771118164,0.0
