event,time_sec,time_min
startMotion,0.10000000149011612,0.0
startMotion,14.170000076293945,0.0
startMotion,25.579999923706055,0.0
startMotion,35.81999969482422,0.0
startMotion,45.790000915527344,0.0
startMotion,55.95000076293945,0.0
startMotion,8.09000015258789,1.0
stopMotion,7.71999979019165,0.0
stopMotion,20.329999923706055,0.0
stopMotion,30.670000076293945,0.0
stopMotion,40.869998931884766,0.0
stopMotion,50.86000061035156,0.0
stopMotion,1.0399999618530273,1.0
