event,time_sec,time_min
startMotion,0.10000000149011612,0.0
startMotion,12.09000015258789,0.0
startMotion,20.920000076293945,0.0
startMotion,29.649999618530273,0.0
startMotion,36.90999984741211,0.0
stopMotion,6.019999980926514,0.0
stopMotion,17.260000228881836,0.0
stopMotion,24.670000076293945,0.0
stopMotion,34.400001525878906,0.0
