Biomarkers,Participant,Session,Task,Error
88,P43,INI,Perturbation_R_Shoulder,no values
88,P48,INI,Perturbation_R_Shoulder,no values
88,P54,REL,Perturbation_R_Shoulder,no values
88,P58,INI,Perturbation_R_Shoulder,no values
