,Biomarkers,Participant,Session,Task,Error
0,34,P02,REL,Trunk_Lateral,no values
1,34,P30,INI,Trunk_Lateral,no values
0,51,P02,REL,Trunk_Lateral,no values
1,51,P30,INI,Trunk_Lateral,no values
0,52,P02,REL,Trunk_Lateral,no values
1,52,P30,INI,Trunk_Lateral,no values
0,53,P02,REL,Trunk_Lateral,no values
1,53,P30,INI,Trunk_Lateral,no values
0,67,P61,INI,Posture_Sitting,no values
0,68,P61,INI,Posture_Sitting,no values
0,86,P43,INI,Perturbation_R_Shoulder,no values
1,86,P48,INI,Perturbation_R_Shoulder,no values
2,86,P54,REL,Perturbation_R_Shoulder,no values
3,86,P58,INI,Perturbation_R_Shoulder,no values
0,87,P43,INI,Perturbation_R_Shoulder,no values
1,87,P48,INI,Perturbation_R_Shoulder,no values
2,87,P54,REL,Perturbation_R_Shoulder,no values
3,87,P58,INI,Perturbation_R_Shoulder,no values
0,88,P43,INI,Perturbation_R_Shoulder,no values
1,88,P48,INI,Perturbation_R_Shoulder,no values
2,88,P54,REL,Perturbation_R_Shoulder,no values
3,88,P58,INI,Perturbation_R_Shoulder,no values
0,110,P47,INI,Gait_Normal,no values
0,111,P47,INI,Gait_Normal,no values
0,112,P61,INI,Gait_Normal,no values
0,113,P61,INI,Gait_Normal,no values
0,117,P61,INI,Endurance_Sorensen,no values
0,118,P61,INI,Endurance_Sorensen,no values
