"","Biomarkers","Unit","MDC_intra","MDC_testretest","MDCp_intra","MDCp_testretest"
"1","Control_BMo1.csv","V","0.0181116832663055","0.0225356914514724","275.602143842667","342.921460456259"
"2","Control_BMo100.csv","%MAX","18.7343891650841","19.7694407120559","56.4651452070816","59.584773788594"
"3","Control_BMo101.csv","%MAX","24.0507147873862","27.4423362384717","69.9055401032048","79.7635892905039"
"4","Control_BMo102.csv","%MAX","42.2117436274105","43.0685970755414","122.46412687029","124.950018244675"
"5","Control_BMo103.csv","%MAX","55.1748588279733","51.4455074220025","176.975832634689","165.013770850048"
"6","Control_BMo104.csv","%MAX","53.9762570933631","61.9835943426508","155.28110825175","178.316944176131"
"7","Control_BMo105.csv","%MAX","19.8860905306428","24.867772172634","82.3648330832976","102.998118257398"
"8","Control_BMo106.csv","%MAX","39.1002113474738","36.0689342317394","133.426521533268","123.082517053047"
"9","Control_BMo107.csv","%MAX","27.6713189557805","26.8785992300144","127.273671426564","123.627573093783"
"10","Control_BMo108.csv","%MAX","20.9942295474237","26.8082351221015","66.5781162750016","85.0158273755694"
"11","Control_BMo109.csv","%MAX","120.520891550898","96.2311539613772","109.523621457718","87.4502697688245"
"12","Control_BMo110.csv","%subMVIC","3.40624631440609","32.0162703191404","24.1672832969871","227.155115483918"
"13","Control_BMo111.csv","%subMVIC","18.2203895506152","72.4440048020863","39.4674608124197","156.922052224978"
"14","Control_BMo112.csv","%subMVIC","14.3428694516008","37.073199135851","46.3405759430658","119.78031354218"
"15","Control_BMo113.csv","%subMVIC","13.9159136140199","29.2556982718417","73.5840434595666","154.697178552928"
"16","Control_BMo114.csv","V","0.0287293970093335","0.0345738828286319","119.717226783855","144.071571361176"
"17","Control_BMo115.csv","V","0.0108808563354945","0.0121014904841028","80.1034108907027","89.0895564419715"
"18","Control_BMo117.csv","Hz","12.6749223094742","20.3190263695435","11.389064394574","18.2576819097977"
"19","Control_BMo118.csv","Hz","13.0642829027965","21.6975826536806","14.0584767023989","23.3487718005439"
"20","Control_BMo15.csv","V","0.0115446500696545","0.01139619699878","226.955997530991","224.037562187904"
"21","Control_BMo22.csv","V","0.0136880694213383","0.0218571151082796","95.1418856768514","151.922603754183"
"22","Control_BMo23.csv","V","0.00231672267919621","0.00446402509967588","55.7611503652662","107.444528019086"
"23","Control_BMo24.csv","V","0.00574812946683153","0.0130507581246986","53.1125590518557","120.588648110534"
"24","Control_BMo29.csv","Hz","15.7353578196882","58.3045531024118","21.9008000119723","81.1494960531278"
"25","Control_BMo34.csv","%MAX","1.82029192522829","6.90345214982795","32.5343142213594","123.386297737081"
"26","Control_BMo35.csv","NAN","0.707156519871054","0.710620311993451","125.59732314753","126.212523610635"
"27","Control_BMo36.csv","%SubMVIC","1.93579829709936","5.95115851945358","37.8877279483018","116.476946642702"
"28","Control_BMo37.csv","Hz","33.1674144777645","53.8419417681046","37.2918618014923","60.5373160119619"
"29","Control_BMo38.csv","Hz","15.0778687940822","62.4156906013963","16.4235217363986","67.9860970594658"
"30","Control_BMo40.csv","Hz","27.2517489533626","42.1285857969566","45.9829614729212","71.0852408381328"
"31","Control_BMo41.csv","NAN","0.238762929867838","1.77296180583392","17.5719785086294","130.482762822434"
"32","Control_BMo42.csv","NAN","10.5125216756166","13.3124466252447","141.992185171858","179.810652917523"
"33","Control_BMo43.csv","NAN","3.11129303225618","3.05181633677917","176.18957601842","172.821467116292"
"34","Control_BMo44.csv","NAN","12.6111632931905","14.0196497739204","90.2393277197256","100.317769348661"
"35","Control_BMo51.csv","Hz","47.3050233650215","60.7074456133394","40.1604008687395","51.5386142553234"
"36","Control_BMo52.csv","Hz","23.8266953925476","49.6588723396588","29.0261769557129","60.4954733421795"
"37","Control_BMo53.csv","Hz","45.5705837677611","59.2583531308541","52.7662188093042","68.6152989287302"
"38","Control_BMo67.csv","%subMVIC","2.76325873915659","13.8208070230589","17.1774104127523","85.9151085297908"
"39","Control_BMo68.csv","%subMVIC","1.98608773025187","12.8720038295605","25.8141428405885","167.303659571341"
"40","Control_BMo69.csv","V","0.0150670170775376","0.0293532741834826","70.8171556720182","137.964626749786"
"41","Control_BMo81.csv","V","0.00240382148600457","0.00414887373066899","46.2607861109892","79.8437660090103"
"42","Control_BMo82.csv","V","0.0105344842737302","0.0359405546009006","54.7313374650395","186.727187722692"
"43","Control_BMo86.csv","s","0.971688837805968","1.24185364603353","104.88484403291","134.046642204957"
"44","Control_BMo87.csv","s","2.70754649155887","2.21910103277903","228.823987009511","187.543795639522"
"45","Control_BMo88.csv","s","7.39071797628966","6.67151392162433","340.591748444853","307.448153025174"
"46","Control_BMo91.csv","V","0.00162041189418416","0.003458343529753","45.1155801101268","96.2873545454107"
"47","Control_BMo96.csv","V","0.0123905241601242","0.0167728345303226","41.0557519682072","55.576449017134"
"48","Control_BMo97.csv","V","0.00746338240491585","0.0097332000006029","85.636015535189","111.680257186035"
"49","Control_BMo98.csv","V","0.0265729794702293","0.0625282969589326","82.7190951422109","194.644494081707"
"50","Patient_BMo1.csv","V","0.00591227180675829","0.0063933630031201","196.119831255497","212.078421681114"
"51","Patient_BMo100.csv","%MAX","15.8314910889893","23.1236831704933","45.831988472809","66.9428024537765"
"52","Patient_BMo101.csv","%MAX","20.7103692600589","16.6899826908183","63.1643431551502","50.9026073219019"
"53","Patient_BMo102.csv","%MAX","40.1153447102892","39.8596166272684","131.840953474313","131.000491188893"
"54","Patient_BMo103.csv","%MAX","38.5127394599926","28.7293513856969","170.451363552315","127.151617525225"
"55","Patient_BMo104.csv","%MAX","49.7201666412306","39.4594700923229","192.825412776429","153.032242699317"
"56","Patient_BMo105.csv","%MAX","22.1300123849987","28.1598133196592","82.248893254704","104.659384708301"
"57","Patient_BMo106.csv","%MAX","41.9566844989192","29.5899864329049","163.006056385342","114.960156040162"
"58","Patient_BMo107.csv","%MAX","23.2352791088285","19.9377645172343","113.791700421102","97.6425596776917"
"59","Patient_BMo108.csv","%MAX","18.2840534041375","17.1473411000465","61.8169417457718","57.9738071447868"
"60","Patient_BMo109.csv","%MAX","100.707195087389","71.2686956264872","113.038317758046","79.9952124119598"
"61","Patient_BMo110.csv","%subMVIC","4.54909730850183","29.4633993462397","28.7087773888159","185.939784442102"
"62","Patient_BMo111.csv","%subMVIC","20.4882549622052","62.1041992099047","40.2751792213344","122.082517920167"
"63","Patient_BMo112.csv","%subMVIC","13.5326105070671","47.2637125706588","42.5022208541916","148.442368086934"
"64","Patient_BMo113.csv","%subMVIC","6.0199726624373","19.8369523566836","32.7387208547177","107.880298172461"
"65","Patient_BMo114.csv","V","0.0140272522579689","0.0188246797898446","75.9930346718879","101.983233611854"
"66","Patient_BMo115.csv","V","0.00451445532833375","0.0139492946633471","39.0926394863439","120.793032094147"
"67","Patient_BMo117.csv","Hz","17.0758857281816","31.2884262613782","15.879051990825","29.095448120478"
"68","Patient_BMo118.csv","Hz","17.6335236773756","32.9014281218392","19.8601526302412","37.05597339521"
"69","Patient_BMo15.csv","V","0.00616312334475373","0.012641749764376","72.6957226718642","149.112890258876"
"70","Patient_BMo22.csv","V","0.00870465337801305","0.0217689877707035","57.9052827044881","144.812129364865"
"71","Patient_BMo23.csv","V","0.00342417670845827","0.00462028838593424","75.7138751149757","102.161765478892"
"72","Patient_BMo24.csv","V","0.00850752886762036","0.0126747502491908","79.5017090051133","118.443830365222"
"73","Patient_BMo29.csv","Hz","15.4310155512819","33.9213973630604","19.5426042986341","42.9597419379147"
"74","Patient_BMo34.csv","%MAX","2.13869414106203","5.26892453733512","30.241200950795","74.5027550545409"
"75","Patient_BMo35.csv","NAN","0.648800931680628","0.849749685625815","113.380785556424","148.497454578264"
"76","Patient_BMo36.csv","%SubMVIC","2.06580498515699","5.83979946475095","26.547771446377","75.047578351691"
"77","Patient_BMo37.csv","Hz","28.7128008318551","48.6678198350553","29.7793747969693","50.4756486804165"
"78","Patient_BMo38.csv","Hz","13.66474520156","32.4125792207803","13.885510470456","32.9362312656404"
"79","Patient_BMo40.csv","Hz","25.7226852009605","43.962976577016","39.3393336068113","67.2353678630364"
"80","Patient_BMo41.csv","NAN","0.224259795172033","1.81407925397486","19.1506770727095","154.913393863238"
"81","Patient_BMo42.csv","NAN","6.80610256348433","9.84942600718","143.46352078729","207.612700446957"
"82","Patient_BMo43.csv","NAN","2.42535317037865","2.51248428996268","177.97717903398","184.371031714502"
"83","Patient_BMo44.csv","NAN","10.1571830740272","11.1343041431481","113.914593972127","124.873178555991"
"84","Patient_BMo51.csv","Hz","21.6339906535448","41.7962296469174","17.4263746053082","33.6672399734686"
"85","Patient_BMo52.csv","Hz","25.4902779284704","30.9872754369152","28.3274217547669","34.4362514522533"
"86","Patient_BMo53.csv","Hz","21.3226113866588","47.132081526481","21.9717433151862","48.5669404385528"
"87","Patient_BMo67.csv","%subMVIC","1.52658704595828","15.4253425181337","8.68120884613172","87.718954695423"
"88","Patient_BMo68.csv","%subMVIC","3.84059857349047","16.4685686054103","36.953498275248","158.457388844662"
"89","Patient_BMo69.csv","V","0.00839547878446279","0.0123913449735112","44.3032887858138","65.3896399359712"
"90","Patient_BMo81.csv","V","0.00392256039808992","0.00596178577121165","74.2954080356858","112.919435659729"
"91","Patient_BMo82.csv","V","0.0115047736919125","0.0203133148218286","76.4845887972657","135.044423546473"
"92","Patient_BMo86.csv","s","1.95424075421765","2.06736120692154","172.418230403916","182.398591439577"
"93","Patient_BMo87.csv","s","7.26482055160457","18.5151110819847","312.792037028658","797.18133022112"
"94","Patient_BMo88.csv","s","15.2370530874057","21.3941554392118","346.17496470788","486.059933088087"
"95","Patient_BMo91.csv","V","0.00133570756482121","0.00390959034081596","30.441812540305","89.1025995502521"
"96","Patient_BMo96.csv","V","0.0281139189643709","0.0397460620031992","98.0883665886324","138.672459900204"
"97","Patient_BMo97.csv","V","0.00360905632733449","0.00967393752405961","42.8378649823055","114.825259546168"
"98","Patient_BMo98.csv","V","0.0139873361760217","0.0239935946776331","61.3645398673225","105.263495395215"
