"","Biomarkers","Unit","ICC_intra","ICC_testretest","SEM_intra","SEM_testretest","SEMp_intra","SEMp_testretest"
"1","Control_BMo1.csv","V","0.446014247692393","0.142325018679039","0.00653412962056507","0.00813017359391013","99.4286453166838","123.715352093375"
"2","Control_BMo100.csv","%MAX","0.423020511072886","0.357504536105168","6.75878245919324","7.13219672844903","20.3708607533727","21.4963253068272"
"3","Control_BMo101.csv","%MAX","0.421795712498555","0.247221002239396","8.67674669313486","9.90033777848199","25.2197354334103","28.7762116730071"
"4","Control_BMo102.csv","%MAX","0.535709193106386","0.516668665582663","15.2286786554337","15.5378046164829","44.1812319194243","45.0780638827514"
"5","Control_BMo103.csv","%MAX","0.388987635261759","0.468794640699543","19.9053657287094","18.559932224327","63.8473527357775","59.5318144679756"
"6","Control_BMo104.csv","%MAX","0.521298415297666","0.368733348224687","19.4729476600947","22.3617448377574","56.0205737933545","64.3311838915333"
"7","Control_BMo105.csv","%MAX","0.558015524677917","0.30883466142602","7.17428033954444","8.9715154776896","29.7146591859683","37.1585040149287"
"8","Control_BMo106.csv","%MAX","0.515667526259872","0.587853136740276","14.1061349947071","13.0125448905278","48.1361215134217","44.4043277825094"
"9","Control_BMo107.csv","%MAX","0.493417493213559","0.522026595919323","9.98294759082053","9.69695907364219","45.9163653735876","44.6009669776784"
"10","Control_BMo108.csv","%MAX","0.478469273742364","0.149613288550047","7.57406228508689","9.67157390126598","24.0193048452449","30.6710551252296"
"11","Control_BMo109.csv","%MAX","0.410799564859592","0.624361779164025","43.4801733113718","34.717194656886","39.5127017514598","31.5493259031269"
"12","Control_BMo110.csv","%subMVIC","0.991628517933824","0.260408811965595","1.22886727923889","11.5504703321254","8.71880097048772","81.9504706836183"
"13","Control_BMo111.csv","%subMVIC","0.962184974563071","0.402202654269525","6.57334745260232","26.1355342101357","14.2386271309573","56.6125751255059"
"14","Control_BMo112.csv","%subMVIC","0.95091163135906","0.672035651344953","5.17445931168385","13.3748523006324","16.7182323946082","43.2129958971052"
"15","Control_BMo113.csv","%subMVIC","0.856039887058345","0.36373260753767","5.02042698106107","10.5545421614117","26.5468245496863","55.8099101965315"
"16","Control_BMo114.csv","V","0.695980397623218","0.559703861462907","0.0103646691044389","0.0124731770408545","43.1902361651589","51.9765230029026"
"17","Control_BMo115.csv","V","0.807996177895091","0.762501183953727","0.0039254731122167","0.00436583978763958","28.8988086923409","32.1407293331733"
"18","Control_BMo117.csv","Hz","0.930812615005043","0.822195768582876","4.5727160796132","7.33047006786352","4.10881870651712","6.58680137100251"
"19","Control_BMo118.csv","Hz","0.928553172751698","0.802923655574679","4.71318522036066","7.8278101172312","5.07185929052009","8.42350758803156"
"20","Control_BMo15.csv","V","0.314145935429395","0.331671370379649","0.0041649491585094","0.00411139192733424","81.8786351454701","80.8257548283519"
"21","Control_BMo22.csv","V","0.6078080101327","0","0.00493822791284719","0.00788536444399972","34.3242206821311","54.808930270459"
"22","Control_BMo23.csv","V","0.843102415172117","0.417465818338703","0.00083580118193281","0.00161048082620804","20.1168814030829","38.7626297773896"
"23","Control_BMo24.csv","V","0.884376157188435","0.403973186000227","0.00207374557404836","0.00470830590285704","19.1613523835398","43.5046177617739"
"24","Control_BMo29.csv","Hz","0.943428734583246","0.223310223085077","5.67682562178483","21.0344616697788","7.90112459279389","29.2762035454274"
"25","Control_BMo34.csv","%MAX","0.968696720806155","0.549763823683394","0.656704471463284","2.49054991262255","11.7373643914169","44.5139223649961"
"26","Control_BMo35.csv","NAN","0.47482564630222","0.469668230990247","0.255119984980154","0.256369612989525","45.3115912737227","45.5335363855854"
"27","Control_BMo36.csv","%SubMVIC","0.920602331292483","0.249603877916475","0.698375562698125","2.146992114807","13.6687088550996","42.0212442974278"
"28","Control_BMo37.csv","Hz","0.797861837215332","0.467319858863699","11.9657671896184","19.4244908859582","13.4537389606667","21.8399727892302"
"29","Control_BMo38.csv","Hz","0.950187475104399","0.146416136392878","5.43962411741662","22.51763167178","5.92509366876129","24.5272603352832"
"30","Control_BMo40.csv","Hz","0.780389538421564","0.475170755166835","9.83157983883473","15.198677907565","16.589216263542","25.6453346116952"
"31","Control_BMo41.csv","NAN","0.985931358675271","0.224258334326787","0.0861382075538348","0.639629242698936","6.33942100118171","47.074105316173"
"32","Control_BMo42.csv","NAN","0.529446859533654","0.245410727624685","3.79258947153012","4.8027149402523","51.2263454135288","64.8700673507963"
"33","Control_BMo43.csv","NAN","0.384270586372254","0.407586625397954","1.12245734763612","1.10100001360839","63.5636959066363","62.3485874145601"
"34","Control_BMo44.csv","NAN","0.632621741957406","0.545977389312626","4.54971381799278","5.05785174744875","32.5555308981292","36.1915178469112"
"35","Control_BMo51.csv","Hz","0.658880697287164","0.438207817578937","17.0661749008137","21.9013502355642","14.4886182599264","18.5935222616821"
"36","Control_BMo52.csv","Hz","0.838083114702091","0.2966714901234","8.59592749251871","17.9153700905356","10.4717380394415","21.8248772608904"
"37","Control_BMo53.csv","Hz","0.728496218798243","0.540901521277046","16.440443267762","21.3785629289663","19.0364036416491","24.7542567171669"
"38","Control_BMo67.csv","%subMVIC","0.989146857377716","0.728494137309536","0.996897445219701","4.98611549360999","6.19707315616406","30.9954876774456"
"39","Control_BMo68.csv","%subMVIC","0.986805891939758","0.44578854187552","0.716518419434948","4.64381693639869","9.31293645566239","60.357934796031"
"40","Control_BMo69.csv","V","0.797315995814887","0.230731380074718","0.00543570915703078","0.010589744502637","25.5486178571569","49.7733281319616"
"41","Control_BMo81.csv","V","0.892283957863007","0.679124619228157","0.000867223710977426","0.00149678405573611","16.6894467153576","28.8051369287975"
"42","Control_BMo82.csv","V","0.93772335305639","0.275116503632383","0.00380051289094781","0.0129662295295419","19.7453570739484","67.3653370768412"
"43","Control_BMo86.csv","s","0.625176338004798","0.387771693892897","0.350554982865243","0.448022007322218","37.8391757445734","48.3598416828632"
"44","Control_BMo87.csv","s","0.645448332435671","0.761832861894948","0.976798206407714","0.800582341028634","82.5525474043714","67.6599437072298"
"45","Control_BMo88.csv","s","0.434640178532286","0.539318816536618","2.66634020350599","2.40687384426583","122.874864766091","110.917690748663"
"46","Control_BMo91.csv","V","0.866794574060015","0.393253425472529","0.000584593999333141","0.00124766232732703","16.276292159712","34.7374700722312"
"47","Control_BMo96.csv","V","0.873931259559594","0.768984573794103","0.00447011411024466","0.00605111481434235","14.8116329711389","20.050246925655"
"48","Control_BMo97.csv","V","0.671895861715364","0.441977623536992","0.00269255525974712","0.00351143455258736","30.8947996422085","40.2907485616853"
"49","Control_BMo98.csv","V","0.850085457322067","0.169926669168489","0.00958670101006635","0.0225582565284222","29.8424658717717","70.2216539213264"
"50","Patient_BMo1.csv","V","0.448638241105902","0.355257075666982","0.00213296300345757","0.0023065256806599","70.7539094928179","76.5112704663551"
"51","Patient_BMo100.csv","%MAX","0.600501438621597","0.147713521158513","5.71150750271365","8.34230264074747","16.5347499206056","24.1508722279066"
"52","Patient_BMo101.csv","%MAX","0.417452308265012","0.621672793482414","7.47165435952298","6.02122445845088","22.7877221296943","18.3640708252004"
"53","Patient_BMo102.csv","%MAX","0.331840803118999","0.340332438847504","14.4723634052456","14.3801047003253","47.564098081524","47.2608855400179"
"54","Patient_BMo103.csv","%MAX","0.244039277104231","0.579329506775006","13.8941934868528","10.3646526448558","61.4935280767017","45.8723321382271"
"55","Patient_BMo104.csv","%MAX","0.238417853092139","0.520317249838242","17.9374831600711","14.2357443287292","69.5653862037285","55.2092533433024"
"56","Patient_BMo105.csv","%MAX","0.497091470248329","0.185698507990913","7.98381725774226","10.1591810996318","29.6728317170866","37.7578370622711"
"57","Patient_BMo106.csv","%MAX","0.259790219534131","0.631835400412682","15.1366612884134","10.6751428887372","58.8074937982408","41.4740336236032"
"58","Patient_BMo107.csv","%MAX","0.508504788716151","0.638110128833839","8.3825629697014","7.1929226999168","41.0524913318925","35.2263857553612"
"59","Patient_BMo108.csv","%MAX","0.234717482297853","0.326914237494622","6.59631538247073","6.18622508732739","22.3016217860454","20.9151388588163"
"60","Patient_BMo109.csv","%MAX","0.143375186528618","0.570990143001779","36.3320104900863","25.7115193692904","40.7806943982828","28.8597740606914"
"61","Patient_BMo110.csv","%subMVIC","0.983835932208193","0.321943452439878","1.64117222199955","10.6294742217007","10.3572301893912","67.0812665670283"
"62","Patient_BMo111.csv","%subMVIC","0.941791878308881","0.465170224329782","7.39152245839502","22.4052553068795","14.5300267045455","44.0435593294278"
"63","Patient_BMo112.csv","%subMVIC","0.944976760614119","0.328820542662037","4.88214319219566","17.0512712565126","15.3334737660649","53.5533699437044"
"64","Patient_BMo113.csv","%subMVIC","0.932500465205132","0.267071445200125","2.1718181082485","7.15655282116606","11.8111079202777","38.9198420378438"
"65","Patient_BMo114.csv","V","0.799542667082507","0.638979445830521","0.00506059448623678","0.00679135649646145","27.4159133364471","36.7923653338131"
"66","Patient_BMo115.csv","V","0.943380782549121","0.459422905823633","0.00162867447756558","0.00503246982103167","14.1034033037116","43.578353119314"
"67","Patient_BMo117.csv","Hz","0.866857402371448","0.552989231483071","6.16044622100195","11.2878869296305","5.72866599057454","10.496728912067"
"68","Patient_BMo118.csv","Hz","0.857096691070538","0.502499440903071","6.3616245757581","11.869807620242","7.16492275522622","13.3686377914394"
"69","Patient_BMo15.csv","V","0.907337211588178","0.610131609802037","0.00222346240324718","0.00456074846145596","26.2263461553734","53.7952734001922"
"70","Patient_BMo22.csv","V","0.899940679637069","0.374206489271623","0.00314036705687317","0.00785357085317934","20.8904173810549","52.2436931999793"
"71","Patient_BMo23.csv","V","0.844569148591729","0.71701523437688","0.0012353360053734","0.00166685573914875","27.3152012876075","36.8567740551604"
"72","Patient_BMo24.csv","V","0.767646264500413","0.484270923824081","0.00306925069052789","0.00457265400563711","28.6817334456302","42.7308345106927"
"73","Patient_BMo29.csv","Hz","0.917115692472741","0.59947395312166","5.56702843719719","12.237780664665","7.05036123551506","15.4985330828181"
"74","Patient_BMo34.csv","%MAX","0.93292717948191","0.592907438195304","0.771574045933112","1.90086340301523","10.9100807467001","26.8782669980338"
"75","Patient_BMo35.csv","NAN","0.559856668075654","0.244989098771552","0.234067111444654","0.306563145416913","40.9042460832679","53.5732434291998"
"76","Patient_BMo36.csv","%SubMVIC","0.945998397213854","0.56845719940892","0.74527791510892","2.10681724606886","9.5776067424101","27.0748222265864"
"77","Patient_BMo37.csv","Hz","0.844996343895596","0.554677530753753","10.3586817219712","17.5578293014963","10.7434682951187","18.2100374830165"
"78","Patient_BMo38.csv","Hz","0.928743070921105","0.59908601286686","4.92981326286194","11.6934462054898","5.00945847647767","11.882363507481"
"79","Patient_BMo40.csv","Hz","0.814887583889961","0.459274162064853","9.27994139588063","15.8604688054864","14.1924028371102","24.2564206895536"
"80","Patient_BMo41.csv","NAN","0.987817225302951","0.202820937335516","0.0809059295477809","0.65446313372217","6.90896613389114","55.8879139272031"
"81","Patient_BMo42.csv","NAN","0.71949012786772","0.412547149546894","2.45542922249537","3.553365265547","51.7571573477498","74.9001777278034"
"82","Patient_BMo43.csv","NAN","0.689304082015241","0.666579512943855","0.874991670177058","0.906425856661878","64.2086072404997","66.5153095814717"
"83","Patient_BMo44.csv","NAN","0.759072423437569","0.710488304920338","3.66439440275401","4.01690916500689","41.0968274866343","45.0503425230917"
"84","Patient_BMo51.csv","Hz","0.927317562671422","0.728712102081539","7.80486810982038","15.0787741894722","6.2868916606686","12.1460886168747"
"85","Patient_BMo52.csv","Hz","0.797370746834599","0.700553123600975","9.19609611099551","11.1792411183358","10.219648987922","12.4235239390476"
"86","Patient_BMo53.csv","Hz","0.934593439933362","0.680424287601539","7.69253219597548","17.0037828871489","7.92671872074404","17.5214351661142"
"87","Patient_BMo67.csv","%subMVIC","0.996638845710889","0.656825558501341","0.550744924626857","5.56498178402935","3.13190900203897","31.6462590325149"
"88","Patient_BMo68.csv","%subMVIC","0.967528856896731","0.402948970142607","1.38556800771964","5.94134517210282","13.3316679688741","57.1664766230481"
"89","Patient_BMo69.csv","V","0.858030381097397","0.69072744995388","0.00302882652030685","0.00447041023407734","15.983242821079","23.5905397030979"
"90","Patient_BMo81.csv","V","0.785380439184601","0.504227132251614","0.00141513727403224","0.00215082609530879","26.803462669926","40.7378054503839"
"91","Patient_BMo82.csv","V","0.761506484566109","0.256498218185574","0.00415056300692242","0.00732840951984295","27.5932507116384","48.7198100260916"
"92","Patient_BMo86.csv","s","0.253484796389689","0.164560027802196","0.705029025193068","0.745839351314401","62.2031122034661","65.8037147376528"
"93","Patient_BMo87.csv","s","0.84604381579365","0","2.62092034497091","6.67967377576202","112.845597185774","287.598124711565"
"94","Patient_BMo88.csv","s","0.519565369087622","0.0528415520211341","5.49705283847143","7.71834305552334","124.88911480712","175.355242219217"
"95","Patient_BMo91.csv","V","0.963804669129578","0.689906769251765","0.000481881569779208","0.00141045808247571","10.9824551422752","32.1454348792514"
"96","Patient_BMo96.csv","V","0.62717709866119","0.254842604857227","0.0101426238497121","0.0143391377387363","35.3872189644561","50.0286922241092"
"97","Patient_BMo97.csv","V","0.946725727981287","0.617230997806382","0.00130203479731757","0.00349005450205997","15.45456368395","41.4253671819393"
"98","Patient_BMo98.csv","V","0.837587590401316","0.522096930533977","0.0050461940106127","0.00865613954163051","22.1384093186612","37.975781329263"
