Group,Participant,Session,Operator,Measure,Value,Unit
CTR,P01,INI,FM,M1,0.0154001435632995,V
CTR,P01,INI,FM,M2,0.0172639743433371,V
CTR,P01,INI,FM,M3,0.0248765116589176,V
CTR,P01,REL,FM,M1,0.018995067147967,V
CTR,P01,REL,FM,M2,0.0183988360464778,V
CTR,P01,REL,FM,M3,0.019528697790392,V
CTR,P02,INI,FM,M1,0.0231433004356465,V
CTR,P02,INI,FM,M2,0.0244374519672458,V
CTR,P02,INI,FM,M3,0.0507114823413748,V
CTR,P02,REL,FM,M1,0.0185293751009709,V
CTR,P02,REL,FM,M2,0.0198614711920338,V
CTR,P02,REL,FM,M3,0.0204949896004722,V
CTR,P03,INI,FM,M1,0.0216136279083945,V
CTR,P03,INI,FM,M2,0.0220930062380712,V
CTR,P03,INI,FM,M3,0.0149399111103932,V
CTR,P03,REL,FM,M1,,V
CTR,P03,REL,FM,M2,,V
CTR,P03,REL,FM,M3,,V
CTR,P05,INI,FM,M1,0.0248636346283265,V
CTR,P05,INI,FM,M2,0.0183869754743398,V
CTR,P05,INI,FM,M3,0.0198461037491438,V
CTR,P05,REL,FM,M1,0.0264663184840087,V
CTR,P05,REL,FM,M2,0.0241470746089633,V
CTR,P05,REL,FM,M3,0.0231910352066259,V
CTR,P06,INI,FM,M1,0.041481825161491,V
CTR,P06,INI,FM,M2,0.0313755791285349,V
CTR,P06,INI,FM,M3,0.0410707650839899,V
CTR,P06,REL,FM,M1,0.0062120352178208,V
CTR,P06,REL,FM,M2,0.0075399416667482,V
CTR,P06,REL,FM,M3,0.0061803163338598,V
CTR,P07,INI,FM,M1,0.0338960633789876,V
CTR,P07,INI,FM,M2,0.0346683938419187,V
CTR,P07,INI,FM,M3,0.0350350774266218,V
CTR,P07,REL,FM,M1,0.0419638802813846,V
CTR,P07,REL,FM,M2,0.0438267016755755,V
CTR,P07,REL,FM,M3,0.0435325307058611,V
CTR,P08,INI,FM,M1,0.0233933274257017,V
CTR,P08,INI,FM,M2,0.0153492098285001,V
CTR,P08,INI,FM,M3,0.0174951529044085,V
CTR,P08,REL,FM,M1,0.0172688876590395,V
CTR,P08,REL,FM,M2,0.0111350523954384,V
CTR,P08,REL,FM,M3,0.0114458990853995,V
CTR,P13,INI,FM,M1,0.0163868814904662,V
CTR,P13,INI,FM,M2,0.0125229116611206,V
CTR,P13,INI,FM,M3,0.0115547347762027,V
CTR,P13,REL,FM,M1,0.0134607123209095,V
CTR,P13,REL,FM,M2,0.0106186263280286,V
CTR,P13,REL,FM,M3,0.0131878214206927,V
CTR,P16,INI,FM,M1,0.0133644871321942,V
CTR,P16,INI,FM,M2,0.0085746280301531,V
CTR,P16,INI,FM,M3,0.0079965642888136,V
CTR,P16,REL,FM,M1,,V
CTR,P16,REL,FM,M2,,V
CTR,P16,REL,FM,M3,,V
CTR,P21,INI,FM,M1,0.0307877361194654,V
CTR,P21,INI,FM,M2,0.0243859840790298,V
CTR,P21,INI,FM,M3,0.0213933946436221,V
CTR,P21,REL,FM,M1,0.0279448025289573,V
CTR,P21,REL,FM,M2,0.0586653822424211,V
CTR,P21,REL,FM,M3,0.028182825981681,V
CTR,P22,INI,FM,M1,0.0150675915303817,V
CTR,P22,INI,FM,M2,0.0182665484656995,V
CTR,P22,INI,FM,M3,0.015297213352445,V
CTR,P22,REL,FM,M1,0.0141861027266683,V
CTR,P22,REL,FM,M2,0.0147945031405417,V
CTR,P22,REL,FM,M3,0.014458664663291,V
CTR,P23,INI,FM,M1,0.0082889279665052,V
CTR,P23,INI,FM,M2,0.0078652295375553,V
CTR,P23,INI,FM,M3,0.0115017413175846,V
CTR,P23,REL,FM,M1,0.0082794959926773,V
CTR,P23,REL,FM,M2,0.0078820243970124,V
CTR,P23,REL,FM,M3,0.0071688016138165,V
CTR,P25,INI,FM,M1,0.0388899365686912,V
CTR,P25,INI,FM,M2,0.0386642532771198,V
CTR,P25,INI,FM,M3,0.0312609736454127,V
CTR,P25,REL,FM,M1,0.0369362110220907,V
CTR,P25,REL,FM,M2,0.0312791856667971,V
CTR,P25,REL,FM,M3,0.034880211727579,V
CTR,P35,INI,FM,M1,,V
CTR,P35,INI,FM,M2,,V
CTR,P35,INI,FM,M3,,V
CTR,P35,REL,FM,M1,0.0264541799700792,V
CTR,P35,REL,FM,M2,0.0233882463505163,V
CTR,P35,REL,FM,M3,0.0193487030245803,V
CTR,P38,INI,FM,M1,,V
CTR,P38,INI,FM,M2,,V
CTR,P38,INI,FM,M3,,V
CTR,P38,REL,FM,M1,0.0197410074153722,V
CTR,P38,REL,FM,M2,0.0191178858086165,V
CTR,P38,REL,FM,M3,0.0255666154724825,V
CTR,P39,INI,FM,M1,0.00957229554721,V
CTR,P39,INI,FM,M2,0.0096927115347267,V
CTR,P39,INI,FM,M3,0.0088793586978001,V
CTR,P39,REL,FM,M1,0.0115046845451485,V
CTR,P39,REL,FM,M2,0.0083887796225986,V
CTR,P39,REL,FM,M3,0.0106132466223091,V
CTR,P40,INI,FM,M1,0.0373554757535846,V
CTR,P40,INI,FM,M2,0.0279886050484378,V
CTR,P40,INI,FM,M3,0.0288669578401731,V
CTR,P40,REL,FM,M1,0.0255672847924652,V
CTR,P40,REL,FM,M2,0.0240836113830944,V
CTR,P40,REL,FM,M3,0.0241868367335176,V
CTR,P44,INI,FM,M1,0.0156843165067183,V
CTR,P44,INI,FM,M2,0.0166121371793707,V
CTR,P44,INI,FM,M3,0.0196188680307101,V
CTR,P44,REL,FM,M1,0.0197360223157797,V
CTR,P44,REL,FM,M2,0.0204469310635899,V
CTR,P44,REL,FM,M3,0.0167216019037254,V
CTR,P46,INI,FM,M1,0.0194513975780968,V
CTR,P46,INI,FM,M2,0.0185343220488205,V
CTR,P46,INI,FM,M3,0.0202033394695647,V
CTR,P46,REL,FM,M1,0.016266797570008,V
CTR,P46,REL,FM,M2,0.0137474336367889,V
CTR,P46,REL,FM,M3,0.0126348370828225,V
CTR,P48,INI,FM,M1,0.0294242330793923,V
CTR,P48,INI,FM,M2,0.0247257606474621,V
CTR,P48,INI,FM,M3,0.0397689294277654,V
CTR,P48,REL,FM,M1,0.0233475708805736,V
CTR,P48,REL,FM,M2,0.0250227712012603,V
CTR,P48,REL,FM,M3,0.0213289834894082,V
CTR,P49,INI,FM,M1,0.0284790046551636,V
CTR,P49,INI,FM,M2,,V
CTR,P49,INI,FM,M3,0.0260773465443417,V
CTR,P49,REL,FM,M1,0.016192629351443,V
CTR,P49,REL,FM,M2,0.0175194705104693,V
CTR,P49,REL,FM,M3,0.0155775705472209,V
CTR,P52,INI,FM,M1,0.0233234838364756,V
CTR,P52,INI,FM,M2,0.0222724180203924,V
CTR,P52,INI,FM,M3,0.0228811004099864,V
CTR,P52,REL,FM,M1,0.0232647991310868,V
CTR,P52,REL,FM,M2,0.0233633915339986,V
CTR,P52,REL,FM,M3,0.0243672910231191,V
CTR,P55,INI,FM,M1,0.0140074049650737,V
CTR,P55,INI,FM,M2,0.0094643254810715,V
CTR,P55,INI,FM,M3,0.0091516453660315,V
CTR,P55,REL,FM,M1,0.0164625454289974,V
CTR,P55,REL,FM,M2,0.0171618797091826,V
CTR,P55,REL,FM,M3,0.0151412051366807,V
CTR,P56,INI,FM,M1,0.0238076893109757,V
CTR,P56,INI,FM,M2,0.0173538141430308,V
CTR,P56,INI,FM,M3,0.013499007013764,V
CTR,P56,REL,FM,M1,0.0143945581176631,V
CTR,P56,REL,FM,M2,0.0175446893693503,V
CTR,P56,REL,FM,M3,0.014345581065943,V
CTR,P57,INI,FM,M1,0.0348700554847424,V
CTR,P57,INI,FM,M2,0.0243273014109163,V
CTR,P57,INI,FM,M3,0.0220312827093272,V
CTR,P57,REL,FM,M1,0.0112778470388714,V
CTR,P57,REL,FM,M2,0.0109327727156525,V
CTR,P57,REL,FM,M3,0.0111214138766878,V
CTR,P60,INI,FM,M1,0.0156956575613071,V
CTR,P60,INI,FM,M2,0.0134312729533137,V
CTR,P60,INI,FM,M3,0.0143055413265301,V
CTR,P60,REL,FM,M1,,V
CTR,P60,REL,FM,M2,0.0191833977520001,V
CTR,P60,REL,FM,M3,0.0223100426960603,V
CTR,P64,INI,FM,M1,0.0133504771694349,V
CTR,P64,INI,FM,M2,0.0123329717177607,V
CTR,P64,INI,FM,M3,0.0139746779063857,V
CTR,P64,REL,FM,M1,0.01458689552105,V
CTR,P64,REL,FM,M2,0.0145701358305235,V
CTR,P64,REL,FM,M3,0.0150436131415135,V
CTR,P66,INI,FM,M1,0.0138106183534014,V
CTR,P66,INI,FM,M2,0.0178702458453491,V
CTR,P66,INI,FM,M3,0.0150922966909888,V
CTR,P66,REL,FM,M1,0.0211484541854078,V
CTR,P66,REL,FM,M2,0.0168297978033076,V
CTR,P66,REL,FM,M3,0.0148728004530769,V
CTR,P67,INI,FM,M1,0.0266928356566604,V
CTR,P67,INI,FM,M2,0.0234650994257126,V
CTR,P67,INI,FM,M3,0.0222689164315353,V
CTR,P67,REL,FM,M1,0.0132657853234044,V
CTR,P67,REL,FM,M2,0.0178656131970732,V
CTR,P67,REL,FM,M3,0.0154533921858966,V
CTR,P68,INI,FM,M1,,V
CTR,P68,INI,FM,M2,,V
CTR,P68,INI,FM,M3,,V
CTR,P68,REL,FM,M1,0.0217644720663384,V
CTR,P68,REL,FM,M2,0.0185643644350617,V
CTR,P68,REL,FM,M3,0.0182673179965318,V
