Group,Participant,Session,Operator,Measure,Value,Unit
CTR,P01,INI,FM,M1,115.08905732482587,Hz
CTR,P01,INI,FM,M2,115.37767959000182,Hz
CTR,P01,INI,FM,M3,109.75612317428993,Hz
CTR,P01,REL,FM,M1,153.78160186477825,Hz
CTR,P01,REL,FM,M2,59.32375427547154,Hz
CTR,P01,REL,FM,M3,111.24682406238402,Hz
CTR,P02,INI,FM,M1,116.76026154409983,Hz
CTR,P02,INI,FM,M2,114.16193427269764,Hz
CTR,P02,INI,FM,M3,122.724410658516,Hz
CTR,P03,INI,FM,M1,117.74162532397608,Hz
CTR,P03,INI,FM,M2,107.91046783288444,Hz
CTR,P03,INI,FM,M3,125.6831113158669,Hz
CTR,P03,REL,FM,M1,123.86734526433833,Hz
CTR,P03,REL,FM,M2,113.34038718672343,Hz
CTR,P03,REL,FM,M3,114.53132113896854,Hz
CTR,P05,INI,FM,M1,156.60378264747996,Hz
CTR,P05,INI,FM,M2,156.58743105171754,Hz
CTR,P05,INI,FM,M3,153.09918145213308,Hz
CTR,P05,REL,FM,M1,163.21308928148449,Hz
CTR,P05,REL,FM,M2,171.9733390979667,Hz
CTR,P05,REL,FM,M3,167.27688381126757,Hz
CTR,P06,INI,FM,M1,111.43079354574547,Hz
CTR,P06,INI,FM,M2,111.90153707010656,Hz
CTR,P06,INI,FM,M3,113.56344044568704,Hz
CTR,P06,REL,FM,M1,121.69621555227852,Hz
CTR,P06,REL,FM,M2,117.85233998298725,Hz
CTR,P06,REL,FM,M3,121.61871149051608,Hz
CTR,P07,INI,FM,M1,131.0357457441999,Hz
CTR,P07,INI,FM,M2,128.4331031583717,Hz
CTR,P07,INI,FM,M3,134.70133913141203,Hz
CTR,P07,REL,FM,M1,133.20703143881428,Hz
CTR,P07,REL,FM,M2,136.38673818714986,Hz
CTR,P07,REL,FM,M3,135.3315286304347,Hz
CTR,P08,INI,FM,M1,78.18244018837558,Hz
CTR,P08,INI,FM,M2,50.04708829059314,Hz
CTR,P08,INI,FM,M3,105.26210557731098,Hz
CTR,P08,REL,FM,M1,138.32831589450714,Hz
CTR,P08,REL,FM,M2,134.9898979955361,Hz
CTR,P08,REL,FM,M3,142.9719692674717,Hz
CTR,P13,INI,FM,M1,91.83800659211704,Hz
CTR,P13,INI,FM,M2,95.41228137438117,Hz
CTR,P13,INI,FM,M3,92.26156832696772,Hz
CTR,P13,REL,FM,M1,129.89776594546257,Hz
CTR,P13,REL,FM,M2,128.07176236593617,Hz
CTR,P13,REL,FM,M3,120.24742951377324,Hz
CTR,P16,INI,FM,M1,146.8549752038708,Hz
CTR,P16,INI,FM,M2,145.74604749110463,Hz
CTR,P16,INI,FM,M3,140.97599180364188,Hz
CTR,P16,REL,FM,M1,153.93468592006053,Hz
CTR,P16,REL,FM,M2,153.26687869413573,Hz
CTR,P16,REL,FM,M3,150.74946381888907,Hz
CTR,P21,INI,FM,M1,122.86138800699756,Hz
CTR,P21,INI,FM,M2,154.21201361018433,Hz
CTR,P21,INI,FM,M3,109.55715292359687,Hz
CTR,P21,REL,FM,M1,118.457052393376,Hz
CTR,P21,REL,FM,M2,117.92507710906564,Hz
CTR,P21,REL,FM,M3,125.04359141299052,Hz
CTR,P22,INI,FM,M1,133.3580020071072,Hz
CTR,P22,INI,FM,M2,122.4755840515063,Hz
CTR,P22,INI,FM,M3,130.3552154949456,Hz
CTR,P22,REL,FM,M1,140.39740928269552,Hz
CTR,P22,REL,FM,M2,135.8985721121413,Hz
CTR,P22,REL,FM,M3,135.20928136107722,Hz
CTR,P23,INI,FM,M1,117.04893007342946,Hz
CTR,P23,INI,FM,M2,113.6028865763174,Hz
CTR,P23,INI,FM,M3,110.9245678368946,Hz
CTR,P23,REL,FM,M1,135.7443878486818,Hz
CTR,P23,REL,FM,M2,128.37473493351413,Hz
CTR,P23,REL,FM,M3,128.02741040619335,Hz
CTR,P25,INI,FM,M1,118.34558680084278,Hz
CTR,P25,INI,FM,M2,153.4734476748841,Hz
CTR,P25,INI,FM,M3,148.13009221597852,Hz
CTR,P25,REL,FM,M1,141.7322277574185,Hz
CTR,P25,REL,FM,M2,144.98859554484972,Hz
CTR,P25,REL,FM,M3,130.74772513732518,Hz
CTR,P35,INI,FM,M1,159.46064875087427,Hz
CTR,P35,INI,FM,M2,133.79883199764677,Hz
CTR,P35,INI,FM,M3,154.74844128073977,Hz
CTR,P35,REL,FM,M1,130.1719546998022,Hz
CTR,P35,REL,FM,M2,124.44551483559144,Hz
CTR,P35,REL,FM,M3,130.1838317048537,Hz
CTR,P38,INI,FM,M1,136.12894515209163,Hz
CTR,P38,INI,FM,M2,72.93113654928696,Hz
CTR,P38,INI,FM,M3,48.44763368655301,Hz
CTR,P38,REL,FM,M1,111.6091646072952,Hz
CTR,P38,REL,FM,M2,109.99715698329454,Hz
CTR,P38,REL,FM,M3,118.50572363987004,Hz
CTR,P39,INI,FM,M1,104.6632878506488,Hz
CTR,P39,INI,FM,M2,108.80716804917438,Hz
CTR,P39,INI,FM,M3,112.06757398191507,Hz
CTR,P39,REL,FM,M1,112.9723090200592,Hz
CTR,P39,REL,FM,M2,102.45047979774232,Hz
CTR,P39,REL,FM,M3,105.5587054919112,Hz
CTR,P40,INI,FM,M1,129.22359889644375,Hz
CTR,P40,INI,FM,M2,112.8444857961818,Hz
CTR,P40,INI,FM,M3,120.51735619501656,Hz
CTR,P40,REL,FM,M1,136.72479860833897,Hz
CTR,P40,REL,FM,M2,125.48605692104144,Hz
CTR,P40,REL,FM,M3,117.7710116017458,Hz
CTR,P44,INI,FM,M1,208.70561350801063,Hz
CTR,P44,INI,FM,M2,38.393678338528375,Hz
CTR,P44,INI,FM,M3,109.58237165426875,Hz
CTR,P44,REL,FM,M1,142.19393208719663,Hz
CTR,P44,REL,FM,M2,143.40526795155705,Hz
CTR,P44,REL,FM,M3,144.52781192998046,Hz
CTR,P46,INI,FM,M1,118.34370729242892,Hz
CTR,P46,INI,FM,M2,115.16011840424306,Hz
CTR,P46,INI,FM,M3,104.01934119746365,Hz
CTR,P46,REL,FM,M1,61.53993581973503,Hz
CTR,P46,REL,FM,M2,66.6610636412002,Hz
CTR,P46,REL,FM,M3,71.5865723408451,Hz
CTR,P48,INI,FM,M1,134.125883909651,Hz
CTR,P48,INI,FM,M2,139.11673494506582,Hz
CTR,P48,INI,FM,M3,136.15329156187553,Hz
CTR,P48,REL,FM,M1,134.4811355086583,Hz
CTR,P48,REL,FM,M2,139.50539221853234,Hz
CTR,P48,REL,FM,M3,134.67343173326236,Hz
CTR,P49,INI,FM,M1,149.52134252166366,Hz
CTR,P49,INI,FM,M2,134.5242120350761,Hz
CTR,P49,INI,FM,M3,139.53790728414373,Hz
CTR,P49,REL,FM,M1,132.5925917625837,Hz
CTR,P49,REL,FM,M2,119.92731491455216,Hz
CTR,P49,REL,FM,M3,116.59318410104872,Hz
CTR,P52,INI,FM,M1,133.03546202258696,Hz
CTR,P52,INI,FM,M2,137.8895029908376,Hz
CTR,P52,INI,FM,M3,137.11113176781134,Hz
CTR,P52,REL,FM,M1,119.81375444373374,Hz
CTR,P52,REL,FM,M2,115.77763592132608,Hz
CTR,P52,REL,FM,M3,121.9810199744136,Hz
CTR,P55,INI,FM,M1,42.69375263460373,Hz
CTR,P55,INI,FM,M2,40.1456122487695,Hz
CTR,P55,INI,FM,M3,44.30710752016232,Hz
CTR,P55,REL,FM,M1,91.2398741271396,Hz
CTR,P55,REL,FM,M2,92.30366288067182,Hz
CTR,P55,REL,FM,M3,100.90703346462256,Hz
CTR,P56,INI,FM,M1,89.91570731972264,Hz
CTR,P56,INI,FM,M2,92.86353276568164,Hz
CTR,P56,INI,FM,M3,53.60510350435304,Hz
CTR,P56,REL,FM,M1,90.09460278094257,Hz
CTR,P56,REL,FM,M2,81.94578327897645,Hz
CTR,P56,REL,FM,M3,99.67641361477136,Hz
CTR,P57,INI,FM,M1,37.378996071950986,Hz
CTR,P57,INI,FM,M2,38.9576234015553,Hz
CTR,P57,INI,FM,M3,45.08878759290938,Hz
CTR,P57,REL,FM,M1,74.9360332342409,Hz
CTR,P57,REL,FM,M2,99.3351342488116,Hz
CTR,P57,REL,FM,M3,77.5077098502797,Hz
CTR,P60,INI,FM,M1,126.05964259469772,Hz
CTR,P60,INI,FM,M2,134.46683410052998,Hz
CTR,P60,INI,FM,M3,139.0369807991657,Hz
CTR,P60,REL,FM,M1,113.12451779109736,Hz
CTR,P60,REL,FM,M2,114.3917118078014,Hz
CTR,P60,REL,FM,M3,117.6915534794711,Hz
CTR,P64,INI,FM,M1,136.95301158427387,Hz
CTR,P64,INI,FM,M2,152.87693283453643,Hz
CTR,P64,INI,FM,M3,152.83207978733458,Hz
CTR,P64,REL,FM,M1,149.4546954586146,Hz
CTR,P64,REL,FM,M2,151.1345723354225,Hz
CTR,P64,REL,FM,M3,147.7245642793411,Hz
CTR,P66,INI,FM,M1,88.50566364456505,Hz
CTR,P66,INI,FM,M2,104.32157905631496,Hz
CTR,P66,INI,FM,M3,107.91710372860072,Hz
CTR,P66,REL,FM,M1,107.00842476341695,Hz
CTR,P66,REL,FM,M2,86.9158818199019,Hz
CTR,P66,REL,FM,M3,108.31161536835678,Hz
CTR,P67,INI,FM,M1,115.10822900623882,Hz
CTR,P67,INI,FM,M2,113.140526966835,Hz
CTR,P67,INI,FM,M3,115.07441990794187,Hz
CTR,P67,REL,FM,M1,126.33434206377235,Hz
CTR,P67,REL,FM,M2,63.74034517858247,Hz
CTR,P67,REL,FM,M3,54.78560273498883,Hz
CTR,P68,INI,FM,M1,111.58454886179152,Hz
CTR,P68,INI,FM,M2,99.79941968902344,Hz
CTR,P68,INI,FM,M3,111.71703157628302,Hz
CTR,P68,REL,FM,M1,133.3868536590726,Hz
CTR,P68,REL,FM,M2,135.98023504246257,Hz
CTR,P68,REL,FM,M3,113.4531301098659,Hz
