Group,Participant,Session,Operator,Measure,Value,Unit
CTR,P01,INI,FM,M1,56.873293571219676,%MAX
CTR,P01,INI,FM,M2,60.874577300513636,%MAX
CTR,P01,INI,FM,M3,63.15796190875011,%MAX
CTR,P01,REL,FM,M1,62.44559852368612,%MAX
CTR,P01,REL,FM,M2,71.71137761491131,%MAX
CTR,P01,REL,FM,M3,68.77958979695764,%MAX
CTR,P02,INI,FM,M1,78.20649809143525,%MAX
CTR,P02,INI,FM,M2,83.66752717148913,%MAX
CTR,P02,INI,FM,M3,90.7511190244283,%MAX
CTR,P02,REL,FM,M1,48.69579629466738,%MAX
CTR,P02,REL,FM,M2,43.68073894427721,%MAX
CTR,P02,REL,FM,M3,50.183543208110265,%MAX
CTR,P03,INI,FM,M1,72.49941364993168,%MAX
CTR,P03,INI,FM,M2,68.26723245868625,%MAX
CTR,P03,INI,FM,M3,71.57884707847586,%MAX
CTR,P03,REL,FM,M1,55.81547987747707,%MAX
CTR,P03,REL,FM,M2,59.92755354030882,%MAX
CTR,P03,REL,FM,M3,60.991014621127896,%MAX
CTR,P05,INI,FM,M1,58.47570229029885,%MAX
CTR,P05,INI,FM,M2,64.17746290068773,%MAX
CTR,P05,INI,FM,M3,61.012151386151636,%MAX
CTR,P05,REL,FM,M1,52.924975078711114,%MAX
CTR,P05,REL,FM,M2,51.33425264556143,%MAX
CTR,P05,REL,FM,M3,52.135837863996485,%MAX
CTR,P06,INI,FM,M1,47.872879895792366,%MAX
CTR,P06,INI,FM,M2,44.09575520332293,%MAX
CTR,P06,INI,FM,M3,45.239270804273524,%MAX
CTR,P06,REL,FM,M1,51.9163491448738,%MAX
CTR,P06,REL,FM,M2,52.91295715681274,%MAX
CTR,P06,REL,FM,M3,55.062344438783384,%MAX
CTR,P07,INI,FM,M1,77.33721179057453,%MAX
CTR,P07,INI,FM,M2,77.53777901216547,%MAX
CTR,P07,INI,FM,M3,73.9504187100511,%MAX
CTR,P07,REL,FM,M1,76.6500243192035,%MAX
CTR,P07,REL,FM,M2,72.28557817543219,%MAX
CTR,P07,REL,FM,M3,76.28157746202606,%MAX
CTR,P08,INI,FM,M1,52.28155473043306,%MAX
CTR,P08,INI,FM,M2,64.81658144867191,%MAX
CTR,P08,INI,FM,M3,58.21926346726559,%MAX
CTR,P08,REL,FM,M1,54.98044357193554,%MAX
CTR,P08,REL,FM,M2,61.05287312635191,%MAX
CTR,P08,REL,FM,M3,55.283225695126205,%MAX
CTR,P13,INI,FM,M1,74.87338977399338,%MAX
CTR,P13,INI,FM,M2,74.85065307182677,%MAX
CTR,P13,INI,FM,M3,69.50001990606351,%MAX
CTR,P13,REL,FM,M1,61.688600059788506,%MAX
CTR,P13,REL,FM,M2,66.83202924197545,%MAX
CTR,P13,REL,FM,M3,63.270108837065294,%MAX
CTR,P16,INI,FM,M1,145.99692233236652,%MAX
CTR,P16,INI,FM,M2,154.711655288796,%MAX
CTR,P16,INI,FM,M3,146.82986668366522,%MAX
CTR,P16,REL,FM,M1,129.72145144465225,%MAX
CTR,P16,REL,FM,M2,124.86293855656471,%MAX
CTR,P16,REL,FM,M3,132.0648211527297,%MAX
CTR,P21,INI,FM,M1,147.23797538429054,%MAX
CTR,P21,INI,FM,M2,158.1385716275059,%MAX
CTR,P21,INI,FM,M3,152.67406458081555,%MAX
CTR,P21,REL,FM,M1,118.88083310997435,%MAX
CTR,P21,REL,FM,M2,150.87393984190683,%MAX
CTR,P21,REL,FM,M3,174.66578721996677,%MAX
CTR,P22,INI,FM,M1,132.64254019703094,%MAX
CTR,P22,INI,FM,M2,98.28404015766108,%MAX
CTR,P22,INI,FM,M3,132.29748207304402,%MAX
CTR,P22,REL,FM,M1,107.54732737091,%MAX
CTR,P22,REL,FM,M2,145.4687561786793,%MAX
CTR,P22,REL,FM,M3,156.62106914705492,%MAX
CTR,P23,INI,FM,M1,93.50647111264672,%MAX
CTR,P23,INI,FM,M2,89.86068266219331,%MAX
CTR,P23,INI,FM,M3,113.2013922773982,%MAX
CTR,P23,REL,FM,M1,100.92972870814481,%MAX
CTR,P23,REL,FM,M2,191.18274698901504,%MAX
CTR,P23,REL,FM,M3,185.9769551455716,%MAX
CTR,P25,INI,FM,M1,127.31701963005659,%MAX
CTR,P25,INI,FM,M2,197.50574310951438,%MAX
CTR,P25,INI,FM,M3,210.07083898593274,%MAX
CTR,P25,REL,FM,M1,46.19698982698378,%MAX
CTR,P25,REL,FM,M2,160.0338384096239,%MAX
CTR,P25,REL,FM,M3,204.64477194490996,%MAX
CTR,P35,INI,FM,M1,149.41314124853392,%MAX
CTR,P35,INI,FM,M2,55.530701228461496,%MAX
CTR,P35,INI,FM,M3,246.85754202719116,%MAX
CTR,P35,REL,FM,M1,50.63933108325083,%MAX
CTR,P35,REL,FM,M2,51.59063792255262,%MAX
CTR,P35,REL,FM,M3,201.31450050156036,%MAX
CTR,P38,INI,FM,M1,68.99221552551721,%MAX
CTR,P38,INI,FM,M2,66.20462128207915,%MAX
CTR,P38,INI,FM,M3,65.21789009090907,%MAX
CTR,P38,REL,FM,M1,41.48158040202811,%MAX
CTR,P38,REL,FM,M2,43.775690799289755,%MAX
CTR,P38,REL,FM,M3,124.3788001158223,%MAX
CTR,P39,INI,FM,M1,65.21128349365303,%MAX
CTR,P39,INI,FM,M2,60.514370189178514,%MAX
CTR,P39,INI,FM,M3,138.06590086293227,%MAX
CTR,P39,REL,FM,M1,102.16937734733789,%MAX
CTR,P39,REL,FM,M2,95.38225853208614,%MAX
CTR,P39,REL,FM,M3,101.36867912747962,%MAX
CTR,P40,INI,FM,M1,72.77933377728121,%MAX
CTR,P40,INI,FM,M2,79.91934675472119,%MAX
CTR,P40,INI,FM,M3,184.08597605925925,%MAX
CTR,P40,REL,FM,M1,60.44844098732408,%MAX
CTR,P40,REL,FM,M2,62.981103021979465,%MAX
CTR,P40,REL,FM,M3,186.3425697309922,%MAX
CTR,P44,INI,FM,M1,49.7911737891319,%MAX
CTR,P44,INI,FM,M2,55.694466288263826,%MAX
CTR,P44,INI,FM,M3,159.90606871790797,%MAX
CTR,P44,REL,FM,M1,44.783618105733396,%MAX
CTR,P44,REL,FM,M2,44.18053836898665,%MAX
CTR,P44,REL,FM,M3,181.06448614743377,%MAX
CTR,P46,INI,FM,M1,52.728451086321414,%MAX
CTR,P46,INI,FM,M2,55.442004128655206,%MAX
CTR,P46,INI,FM,M3,59.37728731214709,%MAX
CTR,P46,REL,FM,M1,51.21653448528465,%MAX
CTR,P46,REL,FM,M2,49.02394359943094,%MAX
CTR,P46,REL,FM,M3,139.84272845979544,%MAX
CTR,P48,INI,FM,M1,66.69672812946271,%MAX
CTR,P48,INI,FM,M2,70.98597595028798,%MAX
CTR,P48,INI,FM,M3,244.01569957808186,%MAX
CTR,P48,REL,FM,M1,93.54186457106782,%MAX
CTR,P48,REL,FM,M2,65.93566551527066,%MAX
CTR,P48,REL,FM,M3,147.17283747794937,%MAX
CTR,P49,INI,FM,M1,56.37154214828365,%MAX
CTR,P49,INI,FM,M2,53.53257489341006,%MAX
CTR,P49,INI,FM,M3,171.66586903117997,%MAX
CTR,P49,REL,FM,M1,62.34457871978421,%MAX
CTR,P49,REL,FM,M2,77.52411370003668,%MAX
CTR,P49,REL,FM,M3,165.9397394921579,%MAX
CTR,P52,INI,FM,M1,138.21717425923148,%MAX
CTR,P52,INI,FM,M2,147.52761742647434,%MAX
CTR,P52,INI,FM,M3,131.03029025805048,%MAX
CTR,P52,REL,FM,M1,156.62042944465713,%MAX
CTR,P52,REL,FM,M2,153.18995539557935,%MAX
CTR,P52,REL,FM,M3,145.66991415702927,%MAX
CTR,P55,INI,FM,M1,149.907197283439,%MAX
CTR,P55,INI,FM,M2,223.4485689884911,%MAX
CTR,P55,INI,FM,M3,185.54586546270068,%MAX
CTR,P55,REL,FM,M1,,%MAX
CTR,P55,REL,FM,M2,,%MAX
CTR,P55,REL,FM,M3,,%MAX
CTR,P56,INI,FM,M1,111.85949455932555,%MAX
CTR,P56,INI,FM,M2,146.9724731973568,%MAX
CTR,P56,INI,FM,M3,141.2774972093545,%MAX
CTR,P56,REL,FM,M1,127.54213607892778,%MAX
CTR,P56,REL,FM,M2,115.1612211953577,%MAX
CTR,P56,REL,FM,M3,112.47491652707559,%MAX
CTR,P57,INI,FM,M1,103.17757577305298,%MAX
CTR,P57,INI,FM,M2,107.75635830081164,%MAX
CTR,P57,INI,FM,M3,155.60065924948037,%MAX
CTR,P57,REL,FM,M1,117.23319866167913,%MAX
CTR,P57,REL,FM,M2,122.26640280840896,%MAX
CTR,P57,REL,FM,M3,183.77972161562278,%MAX
CTR,P60,INI,FM,M1,140.38395650454663,%MAX
CTR,P60,INI,FM,M2,133.51921647985822,%MAX
CTR,P60,INI,FM,M3,123.47810018053742,%MAX
CTR,P60,REL,FM,M1,81.53098755251757,%MAX
CTR,P60,REL,FM,M2,119.02579502391238,%MAX
CTR,P60,REL,FM,M3,131.98179384135616,%MAX
CTR,P64,INI,FM,M1,138.81774245016618,%MAX
CTR,P64,INI,FM,M2,178.08465463304617,%MAX
CTR,P64,INI,FM,M3,202.43195920164715,%MAX
CTR,P64,REL,FM,M1,145.31522788588353,%MAX
CTR,P64,REL,FM,M2,143.6419720199622,%MAX
CTR,P64,REL,FM,M3,155.05411051349387,%MAX
CTR,P66,INI,FM,M1,125.50438774410203,%MAX
CTR,P66,INI,FM,M2,162.28701604092635,%MAX
CTR,P66,INI,FM,M3,185.76424258111263,%MAX
CTR,P66,REL,FM,M1,65.1249371007226,%MAX
CTR,P66,REL,FM,M2,60.72540707194872,%MAX
CTR,P66,REL,FM,M3,64.58134255004664,%MAX
CTR,P67,INI,FM,M1,138.55879765463155,%MAX
CTR,P67,INI,FM,M2,295.8667128211905,%MAX
CTR,P67,INI,FM,M3,244.98424658110002,%MAX
CTR,P67,REL,FM,M1,139.85327683519307,%MAX
CTR,P67,REL,FM,M2,121.43947846937766,%MAX
CTR,P67,REL,FM,M3,120.92268160946237,%MAX
CTR,P68,INI,FM,M1,31.951416164112157,%MAX
CTR,P68,INI,FM,M2,203.3463715051172,%MAX
CTR,P68,INI,FM,M3,245.9292177374842,%MAX
CTR,P68,REL,FM,M1,135.15735615052407,%MAX
CTR,P68,REL,FM,M2,147.4943314558535,%MAX
CTR,P68,REL,FM,M3,131.77958093211302,%MAX
