Group,Participant,Session,Operator,Measure,Value,Unit
PAT,P09,INI,FM,M1,23.89399537174296,%subMVIC
PAT,P09,INI,FM,M2,25.273891807583368,%subMVIC
PAT,P09,INI,FM,M3,26.91005526291003,%subMVIC
PAT,P09,REL,FM,M1,8.027828856590563,%subMVIC
PAT,P09,REL,FM,M2,8.511325766720153,%subMVIC
PAT,P09,REL,FM,M3,8.718894817338747,%subMVIC
PAT,P10,REL,FM,M1,7.709994500259078,%subMVIC
PAT,P10,REL,FM,M2,7.672785768152322,%subMVIC
PAT,P10,REL,FM,M3,7.862906322354681,%subMVIC
PAT,P11,INI,FM,M1,3.8674299975069295,%subMVIC
PAT,P11,INI,FM,M2,3.713496091189578,%subMVIC
PAT,P11,INI,FM,M3,3.759358526558855,%subMVIC
PAT,P11,REL,FM,M1,4.029276447609328,%subMVIC
PAT,P11,REL,FM,M2,4.274925211826879,%subMVIC
PAT,P11,REL,FM,M3,3.988423057309288,%subMVIC
PAT,P12,INI,FM,M1,25.42099171427824,%subMVIC
PAT,P12,INI,FM,M2,24.415946254000357,%subMVIC
PAT,P12,INI,FM,M3,25.44722313307357,%subMVIC
PAT,P12,REL,FM,M1,14.29854263760696,%subMVIC
PAT,P12,REL,FM,M2,14.160705710455533,%subMVIC
PAT,P12,REL,FM,M3,15.238041784810726,%subMVIC
PAT,P14,INI,FM,M1,8.067154701635111,%subMVIC
PAT,P14,INI,FM,M2,7.265076835543448,%subMVIC
PAT,P14,INI,FM,M3,7.255734637197672,%subMVIC
PAT,P14,REL,FM,M1,9.07356451610127,%subMVIC
PAT,P14,REL,FM,M2,8.928022206482568,%subMVIC
PAT,P14,REL,FM,M3,8.80757789837046,%subMVIC
PAT,P17,INI,FM,M1,12.832217416304935,%subMVIC
PAT,P17,INI,FM,M2,13.21831046559316,%subMVIC
PAT,P17,INI,FM,M3,13.688696682454912,%subMVIC
PAT,P17,REL,FM,M1,9.813405469315908,%subMVIC
PAT,P17,REL,FM,M2,11.094585317299032,%subMVIC
PAT,P17,REL,FM,M3,11.272671097606333,%subMVIC
PAT,P24,INI,FM,M1,8.536933766886253,%subMVIC
PAT,P24,INI,FM,M2,8.598007448385399,%subMVIC
PAT,P24,INI,FM,M3,8.54599311845165,%subMVIC
PAT,P24,REL,FM,M1,6.000931712217506,%subMVIC
PAT,P24,REL,FM,M2,6.11389150542753,%subMVIC
PAT,P24,REL,FM,M3,6.080964454746083,%subMVIC
PAT,P26,INI,FM,M1,16.296556445414897,%subMVIC
PAT,P26,INI,FM,M2,18.176344813680828,%subMVIC
PAT,P26,INI,FM,M3,16.73536166909947,%subMVIC
PAT,P26,REL,FM,M1,16.29240407353943,%subMVIC
PAT,P26,REL,FM,M2,15.647915002814672,%subMVIC
PAT,P26,REL,FM,M3,15.875623679011614,%subMVIC
PAT,P27,INI,FM,M1,5.482306285115806,%subMVIC
PAT,P27,INI,FM,M2,5.342707491296292,%subMVIC
PAT,P27,INI,FM,M3,5.809236250964281,%subMVIC
PAT,P27,REL,FM,M1,7.32826721492886,%subMVIC
PAT,P27,REL,FM,M2,6.421515958329579,%subMVIC
PAT,P27,REL,FM,M3,6.010272922089582,%subMVIC
PAT,P28,INI,FM,M1,13.903968565156562,%subMVIC
PAT,P28,INI,FM,M2,15.37904054384434,%subMVIC
PAT,P28,INI,FM,M3,15.51261707000102,%subMVIC
PAT,P28,REL,FM,M1,9.760414793867882,%subMVIC
PAT,P28,REL,FM,M2,10.048759099959542,%subMVIC
PAT,P28,REL,FM,M3,9.624968097836748,%subMVIC
PAT,P29,INI,FM,M1,1.8483418506429807,%subMVIC
PAT,P29,INI,FM,M2,2.0370461924361445,%subMVIC
PAT,P29,INI,FM,M3,2.1490161390385003,%subMVIC
PAT,P29,REL,FM,M1,3.131249759844975,%subMVIC
PAT,P29,REL,FM,M2,2.9794276159862227,%subMVIC
PAT,P29,REL,FM,M3,1.7633574862345671,%subMVIC
PAT,P30,INI,FM,M1,,%subMVIC
PAT,P30,INI,FM,M2,,%subMVIC
PAT,P30,INI,FM,M3,,%subMVIC
PAT,P30,REL,FM,M1,16.17558486751108,%subMVIC
PAT,P30,REL,FM,M2,16.28432979272872,%subMVIC
PAT,P30,REL,FM,M3,16.0102451692127,%subMVIC
PAT,P32,INI,FM,M1,6.718113883475627,%subMVIC
PAT,P32,INI,FM,M2,6.8915534311388855,%subMVIC
PAT,P32,INI,FM,M3,7.137954805771935,%subMVIC
PAT,P32,REL,FM,M1,14.981850192651436,%subMVIC
PAT,P32,REL,FM,M2,15.21175557447488,%subMVIC
PAT,P32,REL,FM,M3,15.202775393028428,%subMVIC
PAT,P33,INI,FM,M1,24.175769548026786,%subMVIC
PAT,P33,INI,FM,M2,24.79940823249935,%subMVIC
PAT,P33,INI,FM,M3,26.06904092480558,%subMVIC
PAT,P33,REL,FM,M1,29.97979971175564,%subMVIC
PAT,P33,REL,FM,M2,32.8023529709365,%subMVIC
PAT,P33,REL,FM,M3,32.84683307870057,%subMVIC
PAT,P34,INI,FM,M1,10.557731153571538,%subMVIC
PAT,P34,INI,FM,M2,10.485480590963824,%subMVIC
PAT,P34,INI,FM,M3,10.733327306777232,%subMVIC
PAT,P34,REL,FM,M1,7.579527334172739,%subMVIC
PAT,P34,REL,FM,M2,7.481952962180046,%subMVIC
PAT,P34,REL,FM,M3,7.404059959288355,%subMVIC
PAT,P36,INI,FM,M1,2.787101978795719,%subMVIC
PAT,P36,INI,FM,M2,2.7597148553105977,%subMVIC
PAT,P36,INI,FM,M3,2.799392148301449,%subMVIC
PAT,P36,REL,FM,M1,2.7738959156933296,%subMVIC
PAT,P36,REL,FM,M2,2.774858435340012,%subMVIC
PAT,P36,REL,FM,M3,2.796953872728243,%subMVIC
PAT,P41,INI,FM,M1,3.045902724748586,%subMVIC
PAT,P41,INI,FM,M2,3.1191974440884374,%subMVIC
PAT,P41,INI,FM,M3,3.1156803759052414,%subMVIC
PAT,P41,REL,FM,M1,3.759166416231011,%subMVIC
PAT,P41,REL,FM,M2,3.894441771425548,%subMVIC
PAT,P41,REL,FM,M3,4.022141064037556,%subMVIC
PAT,P42,INI,FM,M1,5.080964600286364,%subMVIC
PAT,P42,INI,FM,M2,4.795628216580661,%subMVIC
PAT,P42,INI,FM,M3,4.695658595746902,%subMVIC
PAT,P42,REL,FM,M1,3.515295814583908,%subMVIC
PAT,P42,REL,FM,M2,3.536341170178731,%subMVIC
PAT,P42,REL,FM,M3,3.547613372369915,%subMVIC
PAT,P43,INI,FM,M1,2.7822170147069456,%subMVIC
PAT,P43,INI,FM,M2,2.721244352684247,%subMVIC
PAT,P43,INI,FM,M3,2.7439144738879877,%subMVIC
PAT,P43,REL,FM,M1,4.50548520662022,%subMVIC
PAT,P43,REL,FM,M2,4.416699578219278,%subMVIC
PAT,P43,REL,FM,M3,4.380003971063158,%subMVIC
PAT,P45,INI,FM,M1,6.496034310119582,%subMVIC
PAT,P45,INI,FM,M2,6.5393977137508585,%subMVIC
PAT,P45,INI,FM,M3,6.424392837335567,%subMVIC
PAT,P45,REL,FM,M1,7.0694929526954935,%subMVIC
PAT,P45,REL,FM,M2,6.894675273134994,%subMVIC
PAT,P45,REL,FM,M3,6.956294290110793,%subMVIC
PAT,P47,INI,FM,M1,2.463306265685941,%subMVIC
PAT,P47,INI,FM,M2,2.300214858152331,%subMVIC
PAT,P47,INI,FM,M3,2.4617772836772778,%subMVIC
PAT,P47,REL,FM,M1,2.918309183926443,%subMVIC
PAT,P47,REL,FM,M2,2.5721678360072997,%subMVIC
PAT,P47,REL,FM,M3,2.5252771521719835,%subMVIC
PAT,P50,INI,FM,M1,12.66541891967764,%subMVIC
PAT,P50,INI,FM,M2,12.574097322895405,%subMVIC
PAT,P50,INI,FM,M3,8.688645715278732,%subMVIC
PAT,P50,REL,FM,M1,8.347938479400636,%subMVIC
PAT,P50,REL,FM,M2,6.709507219169618,%subMVIC
PAT,P50,REL,FM,M3,6.6709095444618,%subMVIC
PAT,P51,INI,FM,M1,9.20653056562354,%subMVIC
PAT,P51,INI,FM,M2,9.275141057555384,%subMVIC
PAT,P51,INI,FM,M3,9.702178748074145,%subMVIC
PAT,P51,REL,FM,M1,10.10761788156198,%subMVIC
PAT,P51,REL,FM,M2,10.331492143748896,%subMVIC
PAT,P51,REL,FM,M3,10.278843323787283,%subMVIC
PAT,P53,INI,FM,M1,5.998133998640262,%subMVIC
PAT,P53,INI,FM,M2,6.039266055272739,%subMVIC
PAT,P53,INI,FM,M3,5.9801777525518505,%subMVIC
PAT,P53,REL,FM,M1,12.598624046944536,%subMVIC
PAT,P53,REL,FM,M2,12.598175693070973,%subMVIC
PAT,P53,REL,FM,M3,12.550131362639863,%subMVIC
PAT,P54,INI,FM,M1,7.103436645634973,%subMVIC
PAT,P54,INI,FM,M2,6.9816767889065,%subMVIC
PAT,P54,INI,FM,M3,7.03596167922241,%subMVIC
PAT,P54,REL,FM,M1,7.087876770897061,%subMVIC
PAT,P54,REL,FM,M2,7.038640191609384,%subMVIC
PAT,P54,REL,FM,M3,7.097049347594281,%subMVIC
PAT,P58,INI,FM,M1,8.653384813936299,%subMVIC
PAT,P58,INI,FM,M2,8.525404186463634,%subMVIC
PAT,P58,INI,FM,M3,8.600398296898607,%subMVIC
PAT,P58,REL,FM,M1,35.80906420685273,%subMVIC
PAT,P58,REL,FM,M2,22.104080773905373,%subMVIC
PAT,P58,REL,FM,M3,18.77376431048861,%subMVIC
PAT,P61,REL,FM,M1,13.274182098357745,%subMVIC
PAT,P61,REL,FM,M2,13.141308828523748,%subMVIC
PAT,P61,REL,FM,M3,15.455639421467042,%subMVIC
PAT,P62,INI,FM,M1,11.879971483479734,%subMVIC
PAT,P62,INI,FM,M2,12.385693736349564,%subMVIC
PAT,P62,INI,FM,M3,11.347700631020048,%subMVIC
PAT,P62,REL,FM,M1,11.084314701892527,%subMVIC
PAT,P62,REL,FM,M2,11.207965296379696,%subMVIC
PAT,P62,REL,FM,M3,11.713150509538089,%subMVIC
PAT,P63,INI,FM,M1,16.41927416677979,%subMVIC
PAT,P63,INI,FM,M2,12.384327179493969,%subMVIC
PAT,P63,INI,FM,M3,10.77793893191629,%subMVIC
PAT,P63,REL,FM,M1,8.849929536386766,%subMVIC
PAT,P63,REL,FM,M2,7.364323889370607,%subMVIC
PAT,P63,REL,FM,M3,6.471096802098388,%subMVIC
PAT,P65,INI,FM,M1,9.199735511882706,%subMVIC
PAT,P65,INI,FM,M2,9.038225920664182,%subMVIC
PAT,P65,INI,FM,M3,8.907289935221435,%subMVIC
PAT,P65,REL,FM,M1,14.142715449227278,%subMVIC
PAT,P65,REL,FM,M2,12.852232452485326,%subMVIC
PAT,P65,REL,FM,M3,13.377648122927727,%subMVIC
