Group,Participant,Session,Operator,Measure,Value,Unit
CTR,P01,INI,FM,M1,0.022936498601231,V
CTR,P01,INI,FM,M2,0.0231245726818197,V
CTR,P01,INI,FM,M3,0.0220757971172634,V
CTR,P01,REL,FM,M1,0.0198948144932182,V
CTR,P01,REL,FM,M2,0.0174431125384989,V
CTR,P01,REL,FM,M3,0.0178607504385037,V
CTR,P02,INI,FM,M1,0.0304685521731204,V
CTR,P02,INI,FM,M2,0.0310063426535352,V
CTR,P02,INI,FM,M3,0.0312537350674614,V
CTR,P02,REL,FM,M1,0.0271593214837259,V
CTR,P02,REL,FM,M2,0.0413363095134108,V
CTR,P02,REL,FM,M3,0.0348946232457203,V
CTR,P03,INI,FM,M1,0.0221202730030493,V
CTR,P03,INI,FM,M2,0.0229586361337184,V
CTR,P03,INI,FM,M3,0.0242607919734427,V
CTR,P03,REL,FM,M1,,V
CTR,P03,REL,FM,M2,,V
CTR,P03,REL,FM,M3,,V
CTR,P05,INI,FM,M1,0.0272473077625066,V
CTR,P05,INI,FM,M2,0.0279636788076619,V
CTR,P05,INI,FM,M3,0.0296843849022091,V
CTR,P05,REL,FM,M1,0.0377524269915054,V
CTR,P05,REL,FM,M2,0.0346430111897225,V
CTR,P05,REL,FM,M3,0.0365834086946211,V
CTR,P06,INI,FM,M1,0.0141038541157831,V
CTR,P06,INI,FM,M2,0.0113595946850364,V
CTR,P06,INI,FM,M3,0.0146582743496221,V
CTR,P06,REL,FM,M1,0.0085894378292537,V
CTR,P06,REL,FM,M2,0.0087812926416685,V
CTR,P06,REL,FM,M3,0.0089997283332535,V
CTR,P07,INI,FM,M1,0.0719042235327891,V
CTR,P07,INI,FM,M2,0.0757839408248129,V
CTR,P07,INI,FM,M3,0.0847716096797491,V
CTR,P07,REL,FM,M1,0.0538850535059169,V
CTR,P07,REL,FM,M2,0.0582199389011011,V
CTR,P07,REL,FM,M3,0.0629208743498211,V
CTR,P08,INI,FM,M1,0.0280976744951002,V
CTR,P08,INI,FM,M2,0.0158902472256255,V
CTR,P08,INI,FM,M3,0.0248889091716386,V
CTR,P08,REL,FM,M1,0.0229799443241618,V
CTR,P08,REL,FM,M2,0.0243630654063427,V
CTR,P08,REL,FM,M3,0.0237258805513179,V
CTR,P13,INI,FM,M1,0.0261159681814912,V
CTR,P13,INI,FM,M2,0.024686493322975,V
CTR,P13,INI,FM,M3,0.0269771306266874,V
CTR,P13,REL,FM,M1,0.0259722152750345,V
CTR,P13,REL,FM,M2,0.0265358807768353,V
CTR,P13,REL,FM,M3,0.0265687748220249,V
CTR,P16,INI,FM,M1,0.0151111882278489,V
CTR,P16,INI,FM,M2,0.0145867664885415,V
CTR,P16,INI,FM,M3,0.0158246338757018,V
CTR,P16,REL,FM,M1,0.0129188811185062,V
CTR,P16,REL,FM,M2,0.0127624057535749,V
CTR,P16,REL,FM,M3,0.0127132745586537,V
CTR,P21,INI,FM,M1,0.0330215242943836,V
CTR,P21,INI,FM,M2,0.0370105268234296,V
CTR,P21,INI,FM,M3,0.0397716946710568,V
CTR,P21,REL,FM,M1,,V
CTR,P21,REL,FM,M2,,V
CTR,P21,REL,FM,M3,,V
CTR,P22,INI,FM,M1,0.0206926417035495,V
CTR,P22,INI,FM,M2,0.0200379931087758,V
CTR,P22,INI,FM,M3,0.0186891171511218,V
CTR,P22,REL,FM,M1,,V
CTR,P22,REL,FM,M2,0.017600095972436,V
CTR,P22,REL,FM,M3,,V
CTR,P23,INI,FM,M1,0.0154296151128533,V
CTR,P23,INI,FM,M2,0.0201492730705954,V
CTR,P23,INI,FM,M3,0.0635853013446161,V
CTR,P23,REL,FM,M1,0.0127435266221577,V
CTR,P23,REL,FM,M2,0.0138599670821271,V
CTR,P23,REL,FM,M3,0.0132948233720557,V
CTR,P25,INI,FM,M1,0.0457268350433579,V
CTR,P25,INI,FM,M2,0.045559293837158,V
CTR,P25,INI,FM,M3,0.0475284925569574,V
CTR,P25,REL,FM,M1,0.0378877603400888,V
CTR,P25,REL,FM,M2,0.0353118005469713,V
CTR,P25,REL,FM,M3,0.0372764805714191,V
CTR,P35,INI,FM,M1,0.0419941103857309,V
CTR,P35,INI,FM,M2,0.038014681042083,V
CTR,P35,INI,FM,M3,0.0378992144871769,V
CTR,P35,REL,FM,M1,0.0403359985912602,V
CTR,P35,REL,FM,M2,0.0337103112807378,V
CTR,P35,REL,FM,M3,0.0344581354332193,V
CTR,P38,REL,FM,M1,0.0409531117506304,V
CTR,P38,REL,FM,M2,0.0402059684520167,V
CTR,P38,REL,FM,M3,0.0417989669308433,V
CTR,P39,INI,FM,M1,0.0118285314139257,V
CTR,P39,INI,FM,M2,0.0105233897335611,V
CTR,P39,INI,FM,M3,0.0121820403102494,V
CTR,P39,REL,FM,M1,0.0161449349741793,V
CTR,P39,REL,FM,M2,0.015926182193627,V
CTR,P39,REL,FM,M3,0.0171967087260248,V
CTR,P40,INI,FM,M1,0.0323209514396654,V
CTR,P40,INI,FM,M2,0.0305994452937746,V
CTR,P40,INI,FM,M3,0.0366286591548473,V
CTR,P40,REL,FM,M1,0.0237781678153495,V
CTR,P40,REL,FM,M2,0.0240293748676976,V
CTR,P40,REL,FM,M3,0.0241882709809625,V
CTR,P44,INI,FM,M1,0.0431729006316898,V
CTR,P44,INI,FM,M2,0.0458432190132212,V
CTR,P44,INI,FM,M3,0.0446582664772055,V
CTR,P44,REL,FM,M1,0.0325695492302977,V
CTR,P44,REL,FM,M2,0.0364633058245816,V
CTR,P44,REL,FM,M3,0.0376935788389458,V
CTR,P46,INI,FM,M1,0.031816429349604,V
CTR,P46,INI,FM,M2,0.0336825732187003,V
CTR,P46,INI,FM,M3,0.0330474829445655,V
CTR,P46,REL,FM,M1,0.0265218934773555,V
CTR,P46,REL,FM,M2,0.0282161552980269,V
CTR,P46,REL,FM,M3,0.0300362808687379,V
CTR,P48,INI,FM,M1,0.0446524631126463,V
CTR,P48,INI,FM,M2,0.0421857067091306,V
CTR,P48,INI,FM,M3,0.0402405228180431,V
CTR,P48,REL,FM,M1,0.042892676407705,V
CTR,P48,REL,FM,M2,0.0389243008812976,V
CTR,P48,REL,FM,M3,0.043462345912402,V
CTR,P49,INI,FM,M1,0.0368085281511439,V
CTR,P49,INI,FM,M2,0.0364506537428492,V
CTR,P49,INI,FM,M3,0.0379727709779746,V
CTR,P49,REL,FM,M1,0.0329274411587474,V
CTR,P49,REL,FM,M2,0.030993268674662,V
CTR,P49,REL,FM,M3,0.0376706881457554,V
CTR,P52,INI,FM,M1,0.0317513676906478,V
CTR,P52,INI,FM,M2,0.0322798834980617,V
CTR,P52,INI,FM,M3,0.03233632502533,V
CTR,P52,REL,FM,M1,0.0278518296107356,V
CTR,P52,REL,FM,M2,0.032752538196366,V
CTR,P52,REL,FM,M3,0.0348709375536118,V
CTR,P55,INI,FM,M1,0.0231577799342674,V
CTR,P55,INI,FM,M2,0.0280886108342776,V
CTR,P55,INI,FM,M3,0.0281790143635287,V
CTR,P55,REL,FM,M1,0.021980752480749,V
CTR,P55,REL,FM,M2,0.0240649709931929,V
CTR,P55,REL,FM,M3,0.024642781998926,V
CTR,P56,INI,FM,M1,0.0243091105364722,V
CTR,P56,INI,FM,M2,0.023198610048616,V
CTR,P56,INI,FM,M3,0.0252363471212803,V
CTR,P56,REL,FM,M1,0.0254250208733903,V
CTR,P56,REL,FM,M2,0.0270062848853506,V
CTR,P56,REL,FM,M3,0.0265604519828544,V
CTR,P57,INI,FM,M1,0.0189088183893951,V
CTR,P57,INI,FM,M2,0.0191165952736572,V
CTR,P57,INI,FM,M3,0.0208400813074281,V
CTR,P57,REL,FM,M1,0.0207954767525838,V
CTR,P57,REL,FM,M2,0.0186517711566894,V
CTR,P57,REL,FM,M3,0.0224543536900885,V
CTR,P60,INI,FM,M1,0.0214045955815316,V
CTR,P60,INI,FM,M2,,V
CTR,P60,INI,FM,M3,,V
CTR,P60,REL,FM,M1,0.0274665603792873,V
CTR,P60,REL,FM,M2,0.0260145114823784,V
CTR,P60,REL,FM,M3,0.0266064843981705,V
CTR,P64,INI,FM,M1,0.0255171260856818,V
CTR,P64,INI,FM,M2,0.0258750851752225,V
CTR,P64,INI,FM,M3,0.0263246095100213,V
CTR,P64,REL,FM,M1,0.0278086036355601,V
CTR,P64,REL,FM,M2,0.0278648492028021,V
CTR,P64,REL,FM,M3,0.0300520910295546,V
CTR,P66,INI,FM,M1,0.0227221961608368,V
CTR,P66,INI,FM,M2,0.0222474001622913,V
CTR,P66,INI,FM,M3,0.0243618833018191,V
CTR,P66,REL,FM,M1,0.0262689130614461,V
CTR,P66,REL,FM,M2,0.026067657170341,V
CTR,P66,REL,FM,M3,0.0282987724927625,V
CTR,P67,INI,FM,M1,0.0433052000229344,V
CTR,P67,INI,FM,M2,0.042931388809835,V
CTR,P67,INI,FM,M3,0.0446954803389591,V
CTR,P67,REL,FM,M1,0.0538190956465154,V
CTR,P67,REL,FM,M2,0.0446359290865468,V
CTR,P67,REL,FM,M3,0.0457234934032832,V
CTR,P68,INI,FM,M1,0.0368076204945788,V
CTR,P68,INI,FM,M2,0.0364874357722927,V
CTR,P68,INI,FM,M3,0.0525087896623753,V
CTR,P68,REL,FM,M1,0.0333759711113244,V
CTR,P68,REL,FM,M2,0.0334530324032896,V
CTR,P68,REL,FM,M3,0.0367516814422869,V
