Group,Participant,Session,Operator,Measure,Value,Unit
CTR,P01,INI,FM,M1,0.5764,s
CTR,P01,INI,FM,M2,0.5424,s
CTR,P01,INI,FM,M3,0.96,s
CTR,P01,REL,FM,M1,1.33175,s
CTR,P01,REL,FM,M2,2.0145,s
CTR,P01,REL,FM,M3,1.9505,s
CTR,P02,INI,FM,M1,0.728,s
CTR,P02,INI,FM,M2,1.762,s
CTR,P02,INI,FM,M3,1.707,s
CTR,P02,REL,FM,M1,1.3213333333333335,s
CTR,P02,REL,FM,M2,1.382,s
CTR,P02,REL,FM,M3,1.8183333333333334,s
CTR,P03,REL,FM,M1,2.061,s
CTR,P03,REL,FM,M2,8.068,s
CTR,P03,REL,FM,M3,11.272,s
CTR,P05,INI,FM,M1,1.3815,s
CTR,P05,INI,FM,M2,0.398,s
CTR,P05,INI,FM,M3,0.88275,s
CTR,P05,REL,FM,M1,1.4643333333333333,s
CTR,P05,REL,FM,M2,1.1370000000000002,s
CTR,P05,REL,FM,M3,0.738,s
CTR,P06,INI,FM,M1,0.48,s
CTR,P06,INI,FM,M2,0.4185,s
CTR,P06,INI,FM,M3,0.51975,s
CTR,P06,REL,FM,M1,0.4235,s
CTR,P06,REL,FM,M2,0.46033333333333326,s
CTR,P06,REL,FM,M3,0.36433333333333334,s
CTR,P07,INI,FM,M1,2.338,s
CTR,P07,INI,FM,M2,3.2264999999999997,s
CTR,P07,INI,FM,M3,9.8065,s
CTR,P07,REL,FM,M1,0.275,s
CTR,P07,REL,FM,M2,3.981,s
CTR,P07,REL,FM,M3,9.279,s
CTR,P08,INI,FM,M1,,s
CTR,P08,INI,FM,M2,,s
CTR,P08,INI,FM,M3,,s
CTR,P08,REL,FM,M1,0.38600000000000007,s
CTR,P08,REL,FM,M2,0.32975,s
CTR,P08,REL,FM,M3,0.39999999999999997,s
CTR,P13,INI,FM,M1,1.24475,s
CTR,P13,INI,FM,M2,1.46475,s
CTR,P13,INI,FM,M3,0.8410000000000001,s
CTR,P13,REL,FM,M1,1.248,s
CTR,P13,REL,FM,M2,0.855,s
CTR,P13,REL,FM,M3,1.5670000000000002,s
CTR,P16,INI,FM,M1,0.3393333333333333,s
CTR,P16,INI,FM,M2,0.3566666666666667,s
CTR,P16,INI,FM,M3,0.36766666666666664,s
CTR,P16,REL,FM,M1,0.391,s
CTR,P16,REL,FM,M2,0.38149999999999995,s
CTR,P16,REL,FM,M3,0.40349999999999997,s
CTR,P21,INI,FM,M1,,s
CTR,P21,INI,FM,M2,,s
CTR,P21,INI,FM,M3,,s
CTR,P21,REL,FM,M1,4.226,s
CTR,P21,REL,FM,M2,13.544,s
CTR,P21,REL,FM,M3,,s
CTR,P22,INI,FM,M1,1.8356666666666666,s
CTR,P22,INI,FM,M2,1.191,s
CTR,P22,INI,FM,M3,3.109666666666666,s
CTR,P22,REL,FM,M1,0.28575,s
CTR,P22,REL,FM,M2,0.307,s
CTR,P22,REL,FM,M3,0.39925,s
CTR,P23,INI,FM,M1,3.02,s
CTR,P23,INI,FM,M2,2.1263333333333336,s
CTR,P23,INI,FM,M3,1.798,s
CTR,P23,REL,FM,M1,2.912333333333333,s
CTR,P23,REL,FM,M2,1.5090000000000001,s
CTR,P23,REL,FM,M3,2.316333333333333,s
CTR,P25,INI,FM,M1,0.48666666666666664,s
CTR,P25,INI,FM,M2,1.1873333333333334,s
CTR,P25,INI,FM,M3,0.37833333333333335,s
CTR,P25,REL,FM,M1,0.208,s
CTR,P25,REL,FM,M2,4.512,s
CTR,P25,REL,FM,M3,11.358,s
CTR,P35,INI,FM,M1,1.0250000000000001,s
CTR,P35,INI,FM,M2,1.8013333333333332,s
CTR,P35,INI,FM,M3,6.3326666666666656,s
CTR,P35,REL,FM,M1,0.42700000000000005,s
CTR,P35,REL,FM,M2,1.6936666666666669,s
CTR,P35,REL,FM,M3,1.1696666666666669,s
CTR,P38,INI,FM,M1,0.8946666666666667,s
CTR,P38,INI,FM,M2,1.2116666666666667,s
CTR,P38,INI,FM,M3,1.2256666666666667,s
CTR,P38,REL,FM,M1,0.493,s
CTR,P38,REL,FM,M2,0.712,s
CTR,P38,REL,FM,M3,0.942,s
CTR,P40,INI,FM,M1,0.3554285714285714,s
CTR,P40,INI,FM,M2,0.4041428571428572,s
CTR,P40,INI,FM,M3,0.4275714285714286,s
CTR,P40,REL,FM,M1,0.2786666666666667,s
CTR,P40,REL,FM,M2,0.30633333333333335,s
CTR,P40,REL,FM,M3,0.212,s
CTR,P44,INI,FM,M1,0.5415,s
CTR,P44,INI,FM,M2,0.766,s
CTR,P44,INI,FM,M3,0.5555,s
CTR,P44,REL,FM,M1,0.30574999999999997,s
CTR,P44,REL,FM,M2,0.3945,s
CTR,P44,REL,FM,M3,0.50675,s
CTR,P46,INI,FM,M1,1.0326666666666668,s
CTR,P46,INI,FM,M2,2.004666666666667,s
CTR,P46,INI,FM,M3,2.0273333333333334,s
CTR,P46,REL,FM,M1,0.4643333333333333,s
CTR,P46,REL,FM,M2,0.5579999999999999,s
CTR,P46,REL,FM,M3,0.38800000000000007,s
CTR,P48,REL,FM,M1,0.4805,s
CTR,P48,REL,FM,M2,3.1304999999999996,s
CTR,P48,REL,FM,M3,3.716,s
CTR,P49,INI,FM,M1,1.2349999999999999,s
CTR,P49,INI,FM,M2,0.9768000000000001,s
CTR,P49,INI,FM,M3,0.6256,s
CTR,P49,REL,FM,M1,0.777,s
CTR,P49,REL,FM,M2,0.7981666666666666,s
CTR,P49,REL,FM,M3,0.5953333333333334,s
CTR,P52,INI,FM,M1,0.579,s
CTR,P52,INI,FM,M2,0.72,s
CTR,P52,INI,FM,M3,1.316,s
CTR,P52,REL,FM,M1,1.396,s
CTR,P52,REL,FM,M2,0.511,s
CTR,P52,REL,FM,M3,,s
CTR,P55,INI,FM,M1,1.5994,s
CTR,P55,INI,FM,M2,1.8918,s
CTR,P55,INI,FM,M3,1.8923999999999999,s
CTR,P55,REL,FM,M1,1.3738333333333335,s
CTR,P55,REL,FM,M2,2.172333333333333,s
CTR,P55,REL,FM,M3,1.523,s
CTR,P56,INI,FM,M1,0.8403333333333333,s
CTR,P56,INI,FM,M2,1.1713333333333333,s
CTR,P56,INI,FM,M3,2.472,s
CTR,P56,REL,FM,M1,0.5438,s
CTR,P56,REL,FM,M2,0.9102,s
CTR,P56,REL,FM,M3,0.6222000000000001,s
CTR,P57,INI,FM,M1,9.437,s
CTR,P57,INI,FM,M2,5.952,s
CTR,P57,INI,FM,M3,14.91,s
CTR,P57,REL,FM,M1,0.8065,s
CTR,P57,REL,FM,M2,5.916,s
CTR,P57,REL,FM,M3,2.9219999999999997,s
CTR,P60,INI,FM,M1,0.30233333333333334,s
CTR,P60,INI,FM,M2,0.3233333333333333,s
CTR,P60,INI,FM,M3,0.30033333333333334,s
CTR,P60,REL,FM,M1,,s
CTR,P60,REL,FM,M2,,s
CTR,P60,REL,FM,M3,,s
CTR,P64,INI,FM,M1,0.9289999999999999,s
CTR,P64,INI,FM,M2,1.2816666666666665,s
CTR,P64,INI,FM,M3,2.159333333333333,s
CTR,P64,REL,FM,M1,0.395,s
CTR,P64,REL,FM,M2,2.198,s
CTR,P64,REL,FM,M3,1.733,s
CTR,P66,REL,FM,M1,0.9623333333333334,s
CTR,P66,REL,FM,M2,0.7376666666666667,s
CTR,P66,REL,FM,M3,2.319666666666667,s
CTR,P67,INI,FM,M1,2.7664999999999997,s
CTR,P67,INI,FM,M2,3.3625,s
CTR,P67,INI,FM,M3,4.1205,s
CTR,P67,REL,FM,M1,3.654,s
CTR,P67,REL,FM,M2,1.63,s
CTR,P67,REL,FM,M3,2.284,s
CTR,P68,INI,FM,M1,2.245,s
CTR,P68,INI,FM,M2,8.75,s
CTR,P68,INI,FM,M3,16.075,s
