Group,Participant,Session,Operator,Measure,Value,Unit
CTR,P01,INI,FM,M1,10.411213324654437,%subMVIC
CTR,P01,INI,FM,M2,9.08629062111916,%subMVIC
CTR,P01,INI,FM,M3,7.133240160267556,%subMVIC
CTR,P01,REL,FM,M1,11.26406829494469,%subMVIC
CTR,P01,REL,FM,M2,9.759486978109484,%subMVIC
CTR,P01,REL,FM,M3,9.392415640118758,%subMVIC
CTR,P02,INI,FM,M1,3.5948292494181286,%subMVIC
CTR,P02,INI,FM,M2,3.645747608290176,%subMVIC
CTR,P02,INI,FM,M3,3.778422650997852,%subMVIC
CTR,P02,REL,FM,M1,4.478366515006703,%subMVIC
CTR,P02,REL,FM,M2,4.586060689046445,%subMVIC
CTR,P02,REL,FM,M3,4.651223159560519,%subMVIC
CTR,P03,INI,FM,M1,10.217390941611823,%subMVIC
CTR,P03,INI,FM,M2,15.83657022443149,%subMVIC
CTR,P03,INI,FM,M3,8.655848508930028,%subMVIC
CTR,P03,REL,FM,M1,13.771956161215686,%subMVIC
CTR,P03,REL,FM,M2,14.213338490658826,%subMVIC
CTR,P03,REL,FM,M3,14.405945013634902,%subMVIC
CTR,P05,INI,FM,M1,2.4227961858120795,%subMVIC
CTR,P05,INI,FM,M2,2.4460457305658125,%subMVIC
CTR,P05,INI,FM,M3,2.4149276550406213,%subMVIC
CTR,P05,REL,FM,M1,2.144086763830607,%subMVIC
CTR,P05,REL,FM,M2,2.155808599922646,%subMVIC
CTR,P05,REL,FM,M3,2.175867422402713,%subMVIC
CTR,P06,INI,FM,M1,21.63100835609934,%subMVIC
CTR,P06,INI,FM,M2,22.395473547893296,%subMVIC
CTR,P06,INI,FM,M3,24.1418311248282,%subMVIC
CTR,P06,REL,FM,M1,24.21754384888085,%subMVIC
CTR,P06,REL,FM,M2,24.18329851495569,%subMVIC
CTR,P06,REL,FM,M3,24.015343521269426,%subMVIC
CTR,P07,INI,FM,M1,4.666502724128066,%subMVIC
CTR,P07,INI,FM,M2,4.391245222752883,%subMVIC
CTR,P07,INI,FM,M3,4.509166981744935,%subMVIC
CTR,P07,REL,FM,M1,2.8176819158670128,%subMVIC
CTR,P07,REL,FM,M2,2.792974826995945,%subMVIC
CTR,P07,REL,FM,M3,2.815217695184325,%subMVIC
CTR,P08,INI,FM,M1,,%subMVIC
CTR,P08,INI,FM,M2,,%subMVIC
CTR,P08,INI,FM,M3,,%subMVIC
CTR,P08,REL,FM,M1,7.284809425724814,%subMVIC
CTR,P08,REL,FM,M2,7.121570203869386,%subMVIC
CTR,P08,REL,FM,M3,7.310743290914595,%subMVIC
CTR,P13,INI,FM,M1,15.71394677526342,%subMVIC
CTR,P13,INI,FM,M2,15.239330791710936,%subMVIC
CTR,P13,INI,FM,M3,14.332217128569129,%subMVIC
CTR,P13,REL,FM,M1,12.370945144005946,%subMVIC
CTR,P13,REL,FM,M2,12.35985965776774,%subMVIC
CTR,P13,REL,FM,M3,12.228038655034366,%subMVIC
CTR,P16,INI,FM,M1,8.347091229851687,%subMVIC
CTR,P16,INI,FM,M2,8.27905535353081,%subMVIC
CTR,P16,INI,FM,M3,8.326142295441485,%subMVIC
CTR,P16,REL,FM,M1,11.941812293118533,%subMVIC
CTR,P16,REL,FM,M2,11.8077700414389,%subMVIC
CTR,P16,REL,FM,M3,12.01364621190495,%subMVIC
CTR,P21,INI,FM,M1,,%subMVIC
CTR,P21,INI,FM,M2,,%subMVIC
CTR,P21,INI,FM,M3,,%subMVIC
CTR,P21,REL,FM,M1,4.238595855246855,%subMVIC
CTR,P21,REL,FM,M2,4.133644773931577,%subMVIC
CTR,P21,REL,FM,M3,4.515591620729377,%subMVIC
CTR,P22,INI,FM,M1,14.216015555563075,%subMVIC
CTR,P22,INI,FM,M2,14.339271223666676,%subMVIC
CTR,P22,INI,FM,M3,14.303952572477735,%subMVIC
CTR,P22,REL,FM,M1,10.718072762047974,%subMVIC
CTR,P22,REL,FM,M2,11.873272632576974,%subMVIC
CTR,P22,REL,FM,M3,12.38584215793021,%subMVIC
CTR,P23,INI,FM,M1,6.543919867285749,%subMVIC
CTR,P23,INI,FM,M2,6.090085439587679,%subMVIC
CTR,P23,INI,FM,M3,6.053339814862328,%subMVIC
CTR,P23,REL,FM,M1,7.024185333979226,%subMVIC
CTR,P23,REL,FM,M2,6.808316268059979,%subMVIC
CTR,P23,REL,FM,M3,6.987535123744335,%subMVIC
CTR,P25,INI,FM,M1,,%subMVIC
CTR,P25,INI,FM,M2,,%subMVIC
CTR,P25,INI,FM,M3,,%subMVIC
CTR,P25,REL,FM,M1,5.501965824212139,%subMVIC
CTR,P25,REL,FM,M2,5.416101412848411,%subMVIC
CTR,P25,REL,FM,M3,3.1567462531823542,%subMVIC
CTR,P35,INI,FM,M1,3.4374808293134045,%subMVIC
CTR,P35,INI,FM,M2,3.428111428960233,%subMVIC
CTR,P35,INI,FM,M3,3.4022216852905545,%subMVIC
CTR,P35,REL,FM,M1,3.904294836859461,%subMVIC
CTR,P35,REL,FM,M2,3.943550480247066,%subMVIC
CTR,P35,REL,FM,M3,3.9308988693398623,%subMVIC
CTR,P38,INI,FM,M1,13.611024196431725,%subMVIC
CTR,P38,INI,FM,M2,12.74634862433054,%subMVIC
CTR,P38,INI,FM,M3,12.199245606153603,%subMVIC
CTR,P38,REL,FM,M1,8.99539191519237,%subMVIC
CTR,P38,REL,FM,M2,9.01498678714899,%subMVIC
CTR,P38,REL,FM,M3,9.278054329817946,%subMVIC
CTR,P39,INI,FM,M1,4.895404286874276,%subMVIC
CTR,P39,INI,FM,M2,4.9051852906266245,%subMVIC
CTR,P39,INI,FM,M3,4.724550337531671,%subMVIC
CTR,P39,REL,FM,M1,6.98441355507497,%subMVIC
CTR,P39,REL,FM,M2,6.957914102323217,%subMVIC
CTR,P39,REL,FM,M3,7.087627232264783,%subMVIC
CTR,P40,INI,FM,M1,2.9864862008203943,%subMVIC
CTR,P40,INI,FM,M2,3.114597759093638,%subMVIC
CTR,P40,INI,FM,M3,3.0798211210049966,%subMVIC
CTR,P40,REL,FM,M1,2.924290777213266,%subMVIC
CTR,P40,REL,FM,M2,2.85618822212912,%subMVIC
CTR,P40,REL,FM,M3,2.7794048071624307,%subMVIC
CTR,P44,INI,FM,M1,,%subMVIC
CTR,P44,INI,FM,M2,,%subMVIC
CTR,P44,INI,FM,M3,,%subMVIC
CTR,P44,REL,FM,M1,6.105243670894018,%subMVIC
CTR,P44,REL,FM,M2,6.0788620386348375,%subMVIC
CTR,P44,REL,FM,M3,6.096906387629241,%subMVIC
CTR,P46,INI,FM,M1,8.717754724336327,%subMVIC
CTR,P46,INI,FM,M2,8.57756555582169,%subMVIC
CTR,P46,INI,FM,M3,8.65301977083502,%subMVIC
CTR,P46,REL,FM,M1,4.370267781933003,%subMVIC
CTR,P46,REL,FM,M2,4.39619333749984,%subMVIC
CTR,P46,REL,FM,M3,4.280625896476825,%subMVIC
CTR,P48,INI,FM,M1,9.459559895140076,%subMVIC
CTR,P48,INI,FM,M2,8.339999794269122,%subMVIC
CTR,P48,INI,FM,M3,7.557849598168172,%subMVIC
CTR,P48,REL,FM,M1,4.639590796062805,%subMVIC
CTR,P48,REL,FM,M2,4.43476118539908,%subMVIC
CTR,P48,REL,FM,M3,4.362188970290351,%subMVIC
CTR,P49,INI,FM,M1,5.744056805736121,%subMVIC
CTR,P49,INI,FM,M2,6.789140893755316,%subMVIC
CTR,P49,INI,FM,M3,7.781163397610762,%subMVIC
CTR,P49,REL,FM,M1,14.26444333883386,%subMVIC
CTR,P49,REL,FM,M2,14.92308538171497,%subMVIC
CTR,P49,REL,FM,M3,15.601644164402046,%subMVIC
CTR,P52,INI,FM,M1,1.5759322182914688,%subMVIC
CTR,P52,INI,FM,M2,1.5797074040781662,%subMVIC
CTR,P52,INI,FM,M3,1.6007508363698717,%subMVIC
CTR,P52,REL,FM,M1,1.859170349061026,%subMVIC
CTR,P52,REL,FM,M2,1.885308175451099,%subMVIC
CTR,P52,REL,FM,M3,1.8685620954180608,%subMVIC
CTR,P55,INI,FM,M1,5.665015855695494,%subMVIC
CTR,P55,INI,FM,M2,5.868536207883871,%subMVIC
CTR,P55,INI,FM,M3,5.606053735100974,%subMVIC
CTR,P55,REL,FM,M1,6.561423618516958,%subMVIC
CTR,P55,REL,FM,M2,6.485574225228695,%subMVIC
CTR,P55,REL,FM,M3,6.785934728833403,%subMVIC
CTR,P56,INI,FM,M1,8.908065508240433,%subMVIC
CTR,P56,INI,FM,M2,9.484022167421015,%subMVIC
CTR,P56,INI,FM,M3,9.214338857698255,%subMVIC
CTR,P56,REL,FM,M1,14.705604929945212,%subMVIC
CTR,P56,REL,FM,M2,14.79777120751471,%subMVIC
CTR,P56,REL,FM,M3,14.03901771307385,%subMVIC
CTR,P57,INI,FM,M1,,%subMVIC
CTR,P57,INI,FM,M2,,%subMVIC
CTR,P57,INI,FM,M3,,%subMVIC
CTR,P57,REL,FM,M1,4.639427895473234,%subMVIC
CTR,P57,REL,FM,M2,4.417535282592259,%subMVIC
CTR,P57,REL,FM,M3,4.440503996849279,%subMVIC
CTR,P60,INI,FM,M1,2.902123355713489,%subMVIC
CTR,P60,INI,FM,M2,2.938131017686937,%subMVIC
CTR,P60,INI,FM,M3,3.0032155929467117,%subMVIC
CTR,P60,REL,FM,M1,3.531321516708492,%subMVIC
CTR,P60,REL,FM,M2,3.634591192532106,%subMVIC
CTR,P60,REL,FM,M3,3.677947714120466,%subMVIC
CTR,P64,INI,FM,M1,2.306856776748946,%subMVIC
CTR,P64,INI,FM,M2,2.321669059320808,%subMVIC
CTR,P64,INI,FM,M3,2.2809777755027527,%subMVIC
CTR,P64,REL,FM,M1,2.227042886957085,%subMVIC
CTR,P64,REL,FM,M2,2.234195390925941,%subMVIC
CTR,P64,REL,FM,M3,2.2159411425215465,%subMVIC
CTR,P66,INI,FM,M1,6.022362064772116,%subMVIC
CTR,P66,INI,FM,M2,5.936870772632114,%subMVIC
CTR,P66,INI,FM,M3,5.73805572552428,%subMVIC
CTR,P66,REL,FM,M1,5.580185810095172,%subMVIC
CTR,P66,REL,FM,M2,5.699801806208448,%subMVIC
CTR,P66,REL,FM,M3,5.308894802522304,%subMVIC
CTR,P67,INI,FM,M1,3.7650944351756994,%subMVIC
CTR,P67,INI,FM,M2,3.859532819346933,%subMVIC
CTR,P67,INI,FM,M3,3.695209891908113,%subMVIC
CTR,P67,REL,FM,M1,3.0028806992931507,%subMVIC
CTR,P67,REL,FM,M2,2.300284713462478,%subMVIC
CTR,P67,REL,FM,M3,2.834740760371921,%subMVIC
CTR,P68,INI,FM,M1,3.857121326921014,%subMVIC
CTR,P68,INI,FM,M2,3.842205706302111,%subMVIC
CTR,P68,INI,FM,M3,3.7329444242908703,%subMVIC
CTR,P68,REL,FM,M1,3.2247475117944866,%subMVIC
CTR,P68,REL,FM,M2,3.1080839677697814,%subMVIC
CTR,P68,REL,FM,M3,3.146052830960055,%subMVIC
