Group,Participant,Session,Operator,Measure,Value,Unit
CTR,P01,INI,FM,M1,69.13619671084145,Hz
CTR,P01,INI,FM,M2,35.013850415512465,Hz
CTR,P01,INI,FM,M3,55.1321450522434,Hz
CTR,P01,REL,FM,M1,39.322931659853765,Hz
CTR,P01,REL,FM,M2,59.98330229272365,Hz
CTR,P01,REL,FM,M3,57.2352373929321,Hz
CTR,P02,INI,FM,M1,58.97877223178428,Hz
CTR,P02,INI,FM,M2,61.17863932254161,Hz
CTR,P02,INI,FM,M3,62.503095438561736,Hz
CTR,P02,REL,FM,M1,31.381372490970453,Hz
CTR,P02,REL,FM,M2,42.84549275453233,Hz
CTR,P02,REL,FM,M3,63.97906342223954,Hz
CTR,P03,INI,FM,M1,81.2888637648389,Hz
CTR,P03,INI,FM,M2,86.10271903323262,Hz
CTR,P03,INI,FM,M3,87.99407114624505,Hz
CTR,P03,REL,FM,M1,66.66666666666666,Hz
CTR,P03,REL,FM,M2,71.3915857605178,Hz
CTR,P03,REL,FM,M3,65.6633221850613,Hz
CTR,P05,INI,FM,M1,66.95351717843405,Hz
CTR,P05,INI,FM,M2,56.894049346879534,Hz
CTR,P05,INI,FM,M3,67.20142602495542,Hz
CTR,P05,REL,FM,M1,73.31378299120233,Hz
CTR,P05,REL,FM,M2,65.85655422864725,Hz
CTR,P05,REL,FM,M3,35.23107836570664,Hz
CTR,P06,INI,FM,M1,115.52169962960372,Hz
CTR,P06,INI,FM,M2,106.11072966731165,Hz
CTR,P06,INI,FM,M3,92.82178217821782,Hz
CTR,P06,REL,FM,M1,65.14285714285714,Hz
CTR,P06,REL,FM,M2,56.21052631578947,Hz
CTR,P06,REL,FM,M3,57.1549790896418,Hz
CTR,P07,INI,FM,M1,92.98140371925614,Hz
CTR,P07,INI,FM,M2,94.5865556216538,Hz
CTR,P07,INI,FM,M3,93.42105263157896,Hz
CTR,P07,REL,FM,M1,84.83967033728096,Hz
CTR,P07,REL,FM,M2,85.22771658464183,Hz
CTR,P07,REL,FM,M3,82.19457475015297,Hz
CTR,P08,INI,FM,M1,50.98674691822444,Hz
CTR,P08,INI,FM,M2,56.96369636963696,Hz
CTR,P08,INI,FM,M3,69.92726647958305,Hz
CTR,P08,REL,FM,M1,39.31149361465852,Hz
CTR,P08,REL,FM,M2,42.20159325827901,Hz
CTR,P08,REL,FM,M3,44.63533771264949,Hz
CTR,P13,INI,FM,M1,32.467532467532465,Hz
CTR,P13,INI,FM,M2,31.54602323503128,Hz
CTR,P13,INI,FM,M3,26.407613005551152,Hz
CTR,P13,REL,FM,M1,28.48676678564213,Hz
CTR,P13,REL,FM,M2,24.37246963562753,Hz
CTR,P13,REL,FM,M3,26.24564281320484,Hz
CTR,P16,INI,FM,M1,95.58086022774204,Hz
CTR,P16,INI,FM,M2,94.93202889482966,Hz
CTR,P16,INI,FM,M3,98.97660818713452,Hz
CTR,P16,REL,FM,M1,73.16588243090993,Hz
CTR,P16,REL,FM,M2,75.43822297920657,Hz
CTR,P16,REL,FM,M3,96.62622970607762,Hz
CTR,P21,INI,FM,M1,64.60265154417964,Hz
CTR,P21,INI,FM,M2,62.0608899297424,Hz
CTR,P21,INI,FM,M3,67.63405887749146,Hz
CTR,P21,REL,FM,M1,76.86072218128224,Hz
CTR,P21,REL,FM,M2,74.12587412587412,Hz
CTR,P21,REL,FM,M3,54.91132332878581,Hz
CTR,P22,INI,FM,M1,54.46153846153847,Hz
CTR,P22,INI,FM,M2,54.39515831426674,Hz
CTR,P22,INI,FM,M3,52.75883446993181,Hz
CTR,P22,REL,FM,M1,63.39855529840803,Hz
CTR,P22,REL,FM,M2,62.96666923254561,Hz
CTR,P22,REL,FM,M3,61.920752182672935,Hz
CTR,P23,INI,FM,M1,80.36086051353227,Hz
CTR,P23,INI,FM,M2,86.3190964170843,Hz
CTR,P23,INI,FM,M3,94.16763758481255,Hz
CTR,P23,REL,FM,M1,66.90140845070421,Hz
CTR,P23,REL,FM,M2,90.13418853911725,Hz
CTR,P23,REL,FM,M3,80.89186515485883,Hz
CTR,P25,INI,FM,M1,81.96625605697939,Hz
CTR,P25,INI,FM,M2,56.534090909090914,Hz
CTR,P25,INI,FM,M3,43.25852836772758,Hz
CTR,P25,REL,FM,M1,61.908030199039125,Hz
CTR,P25,REL,FM,M2,63.05882352941176,Hz
CTR,P25,REL,FM,M3,61.36653895274585,Hz
CTR,P35,INI,FM,M1,35.65217391304348,Hz
CTR,P35,INI,FM,M2,68.50618458610847,Hz
CTR,P35,INI,FM,M3,77.63157894736841,Hz
CTR,P35,REL,FM,M1,33.88796933530795,Hz
CTR,P35,REL,FM,M2,26.79671457905544,Hz
CTR,P35,REL,FM,M3,48.54681587633846,Hz
CTR,P38,INI,FM,M1,51.66078247712372,Hz
CTR,P38,INI,FM,M2,32.891660171473106,Hz
CTR,P38,INI,FM,M3,37.53481894150418,Hz
CTR,P38,REL,FM,M1,38.09523809523809,Hz
CTR,P38,REL,FM,M2,36.59919028340081,Hz
CTR,P38,REL,FM,M3,36.937716262975776,Hz
CTR,P39,INI,FM,M1,30.789015810575684,Hz
CTR,P39,INI,FM,M2,33.389875903937146,Hz
CTR,P39,INI,FM,M3,25.397618452827047,Hz
CTR,P39,REL,FM,M1,37.913486005089055,Hz
CTR,P39,REL,FM,M2,36.57448706512043,Hz
CTR,P39,REL,FM,M3,36.19744058500914,Hz
CTR,P40,INI,FM,M1,34.92552645095019,Hz
CTR,P40,INI,FM,M2,38.02690582959641,Hz
CTR,P40,INI,FM,M3,30.23758099352052,Hz
CTR,P40,REL,FM,M1,36.21766280107047,Hz
CTR,P40,REL,FM,M2,37.93136229679627,Hz
CTR,P40,REL,FM,M3,57.25471005627599,Hz
CTR,P44,INI,FM,M1,36.80294950292975,Hz
CTR,P44,INI,FM,M2,54.11013567438148,Hz
CTR,P44,INI,FM,M3,40.77603812117087,Hz
CTR,P44,REL,FM,M1,44.42724458204334,Hz
CTR,P44,REL,FM,M2,58.3754096908495,Hz
CTR,P44,REL,FM,M3,86.02654176424669,Hz
CTR,P46,INI,FM,M1,44.58981878336717,Hz
CTR,P46,INI,FM,M2,63.55541909732882,Hz
CTR,P46,INI,FM,M3,56.86635944700461,Hz
CTR,P46,REL,FM,M1,27.63157894736842,Hz
CTR,P46,REL,FM,M2,54.22512923304146,Hz
CTR,P46,REL,FM,M3,45.45032928299786,Hz
CTR,P48,INI,FM,M1,80.3921568627451,Hz
CTR,P48,INI,FM,M2,78.95886103589832,Hz
CTR,P48,INI,FM,M3,80.47914818101154,Hz
CTR,P48,REL,FM,M1,65.53069511903814,Hz
CTR,P48,REL,FM,M2,63.763875742190855,Hz
CTR,P48,REL,FM,M3,66.7521436012501,Hz
CTR,P49,INI,FM,M1,73.35496568966435,Hz
CTR,P49,INI,FM,M2,68.67383512544802,Hz
CTR,P49,INI,FM,M3,63.34426229508197,Hz
CTR,P49,REL,FM,M1,27.068761922063764,Hz
CTR,P49,REL,FM,M2,34.67297084318361,Hz
CTR,P49,REL,FM,M3,24.09541461842211,Hz
CTR,P52,INI,FM,M1,72.69838868295635,Hz
CTR,P52,INI,FM,M2,56.928774438032896,Hz
CTR,P52,INI,FM,M3,73.46767422334173,Hz
CTR,P52,REL,FM,M1,70.55643582812937,Hz
CTR,P52,REL,FM,M2,77.46913580246913,Hz
CTR,P52,REL,FM,M3,102.099533437014,Hz
CTR,P55,INI,FM,M1,95.03891050583658,Hz
CTR,P55,INI,FM,M2,84.4526218951242,Hz
CTR,P55,INI,FM,M3,70.46490428441203,Hz
CTR,P55,REL,FM,M1,47.83010156971376,Hz
CTR,P55,REL,FM,M2,78.34602829162132,Hz
CTR,P55,REL,FM,M3,82.82591725214677,Hz
CTR,P56,INI,FM,M1,56.16447681938866,Hz
CTR,P56,INI,FM,M2,59.89180834621329,Hz
CTR,P56,INI,FM,M3,61.01449275362319,Hz
CTR,P56,REL,FM,M1,56.17977528089887,Hz
CTR,P56,REL,FM,M2,54.11764705882352,Hz
CTR,P56,REL,FM,M3,55.067369654364384,Hz
CTR,P57,INI,FM,M1,28.54111405835544,Hz
CTR,P57,INI,FM,M2,32.54490485505958,Hz
CTR,P57,INI,FM,M3,36.7073844453993,Hz
CTR,P57,REL,FM,M1,70.95625635808749,Hz
CTR,P57,REL,FM,M2,72.78145695364239,Hz
CTR,P57,REL,FM,M3,76.16279069767442,Hz
CTR,P60,INI,FM,M1,62.074186222558666,Hz
CTR,P60,INI,FM,M2,67.7846425419241,Hz
CTR,P60,INI,FM,M3,64.76502221183073,Hz
CTR,P60,REL,FM,M1,51.98487712665406,Hz
CTR,P60,REL,FM,M2,56.380863258860686,Hz
CTR,P60,REL,FM,M3,42.06098843322818,Hz
CTR,P64,INI,FM,M1,58.30640919678413,Hz
CTR,P64,INI,FM,M2,55.570542217426485,Hz
CTR,P64,INI,FM,M3,58.62966175195143,Hz
CTR,P64,REL,FM,M1,53.09352517985612,Hz
CTR,P64,REL,FM,M2,54.7945205479452,Hz
CTR,P64,REL,FM,M3,57.73584905660377,Hz
CTR,P66,INI,FM,M1,99.95581520938684,Hz
CTR,P66,INI,FM,M2,99.87005754594392,Hz
CTR,P66,INI,FM,M3,99.90504273077116,Hz
CTR,P66,REL,FM,M1,68.30932963155763,Hz
CTR,P66,REL,FM,M2,70.55961070559611,Hz
CTR,P66,REL,FM,M3,80.4937709767336,Hz
CTR,P67,INI,FM,M1,30.373134328358205,Hz
CTR,P67,INI,FM,M2,77.35159817351598,Hz
CTR,P67,INI,FM,M3,40.35512510088781,Hz
CTR,P67,REL,FM,M1,31.54395643256241,Hz
CTR,P67,REL,FM,M2,28.177777777777777,Hz
CTR,P67,REL,FM,M3,25.365781927799425,Hz
CTR,P68,INI,FM,M1,29.393670107321075,Hz
CTR,P68,INI,FM,M2,34.227636200582914,Hz
CTR,P68,INI,FM,M3,47.21591300158304,Hz
CTR,P68,REL,FM,M1,44.128646222887056,Hz
CTR,P68,REL,FM,M2,46.02057390362751,Hz
CTR,P68,REL,FM,M3,46.72454617205999,Hz
