Group,Participant,Session,Operator,Measure,Value,Unit
PAT,P09,INI,FM,M1,9.532214535714058,%subMVIC
PAT,P09,INI,FM,M2,9.357044683390795,%subMVIC
PAT,P09,INI,FM,M3,9.388936114727558,%subMVIC
PAT,P09,REL,FM,M1,14.499197931599898,%subMVIC
PAT,P09,REL,FM,M2,15.02810939885185,%subMVIC
PAT,P09,REL,FM,M3,14.418600944738456,%subMVIC
PAT,P10,INI,FM,M1,5.994815543534933,%subMVIC
PAT,P10,INI,FM,M2,5.916823394267071,%subMVIC
PAT,P10,INI,FM,M3,5.8454909912277015,%subMVIC
PAT,P10,REL,FM,M1,7.399283149696552,%subMVIC
PAT,P10,REL,FM,M2,7.601873092188192,%subMVIC
PAT,P10,REL,FM,M3,8.174908078661758,%subMVIC
PAT,P11,INI,FM,M1,14.033504734473132,%subMVIC
PAT,P11,INI,FM,M2,14.181499670831945,%subMVIC
PAT,P11,INI,FM,M3,13.50267813949854,%subMVIC
PAT,P11,REL,FM,M1,14.845497209140971,%subMVIC
PAT,P11,REL,FM,M2,13.14831033932841,%subMVIC
PAT,P11,REL,FM,M3,13.74806967609706,%subMVIC
PAT,P12,INI,FM,M1,11.819449312623524,%subMVIC
PAT,P12,INI,FM,M2,12.47199846888206,%subMVIC
PAT,P12,INI,FM,M3,11.875248722690738,%subMVIC
PAT,P12,REL,FM,M1,12.520872449217341,%subMVIC
PAT,P12,REL,FM,M2,12.530335170614274,%subMVIC
PAT,P12,REL,FM,M3,12.536995333499384,%subMVIC
PAT,P14,INI,FM,M1,15.188920565853184,%subMVIC
PAT,P14,INI,FM,M2,15.458620381235276,%subMVIC
PAT,P14,INI,FM,M3,16.351941937161424,%subMVIC
PAT,P14,REL,FM,M1,11.464627109712499,%subMVIC
PAT,P14,REL,FM,M2,11.707302437496567,%subMVIC
PAT,P14,REL,FM,M3,11.645442010863224,%subMVIC
PAT,P17,INI,FM,M1,22.055497516450377,%subMVIC
PAT,P17,INI,FM,M2,23.88318505956624,%subMVIC
PAT,P17,INI,FM,M3,25.62533806536147,%subMVIC
PAT,P17,REL,FM,M1,11.772543997037058,%subMVIC
PAT,P17,REL,FM,M2,11.445137037755703,%subMVIC
PAT,P17,REL,FM,M3,11.135402072541407,%subMVIC
PAT,P24,INI,FM,M1,15.301050728623975,%subMVIC
PAT,P24,INI,FM,M2,15.167447756531866,%subMVIC
PAT,P24,INI,FM,M3,15.103343660684867,%subMVIC
PAT,P24,REL,FM,M1,12.716776651251275,%subMVIC
PAT,P24,REL,FM,M2,13.014380410103346,%subMVIC
PAT,P24,REL,FM,M3,12.685051609653323,%subMVIC
PAT,P26,INI,FM,M1,26.82454756792674,%subMVIC
PAT,P26,INI,FM,M2,21.935573220776288,%subMVIC
PAT,P26,INI,FM,M3,24.61929554654795,%subMVIC
PAT,P26,REL,FM,M1,16.706026863438762,%subMVIC
PAT,P26,REL,FM,M2,13.817398941562143,%subMVIC
PAT,P26,REL,FM,M3,15.90619094794384,%subMVIC
PAT,P27,INI,FM,M1,21.222639517539065,%subMVIC
PAT,P27,INI,FM,M2,21.098759784075007,%subMVIC
PAT,P27,INI,FM,M3,24.910248776518966,%subMVIC
PAT,P27,REL,FM,M1,9.073308094627453,%subMVIC
PAT,P27,REL,FM,M2,11.045085071019232,%subMVIC
PAT,P27,REL,FM,M3,11.543803721301844,%subMVIC
PAT,P28,INI,FM,M1,8.871513255339728,%subMVIC
PAT,P28,INI,FM,M2,9.200863906309994,%subMVIC
PAT,P28,INI,FM,M3,9.199126138458748,%subMVIC
PAT,P28,REL,FM,M1,10.950107318596674,%subMVIC
PAT,P28,REL,FM,M2,10.733343855960749,%subMVIC
PAT,P28,REL,FM,M3,10.953313595219315,%subMVIC
PAT,P29,INI,FM,M1,3.064236663564596,%subMVIC
PAT,P29,INI,FM,M2,3.0597072296008756,%subMVIC
PAT,P29,INI,FM,M3,2.9839826327348895,%subMVIC
PAT,P29,REL,FM,M1,2.716678186624355,%subMVIC
PAT,P29,REL,FM,M2,2.56174080007276,%subMVIC
PAT,P29,REL,FM,M3,2.629286198361772,%subMVIC
PAT,P30,INI,FM,M1,56.24360163951962,%subMVIC
PAT,P30,INI,FM,M2,55.460247578905495,%subMVIC
PAT,P30,INI,FM,M3,55.43479059515477,%subMVIC
PAT,P30,REL,FM,M1,33.97179357231099,%subMVIC
PAT,P30,REL,FM,M2,33.87119782066149,%subMVIC
PAT,P30,REL,FM,M3,34.320145587724625,%subMVIC
PAT,P32,INI,FM,M1,18.28123891147314,%subMVIC
PAT,P32,INI,FM,M2,17.66635901215711,%subMVIC
PAT,P32,INI,FM,M3,18.250657132041844,%subMVIC
PAT,P33,INI,FM,M1,9.719481820055973,%subMVIC
PAT,P33,INI,FM,M2,9.725482471801383,%subMVIC
PAT,P33,INI,FM,M3,9.741763630389107,%subMVIC
PAT,P33,REL,FM,M1,13.055505520074911,%subMVIC
PAT,P33,REL,FM,M2,13.585623698456658,%subMVIC
PAT,P33,REL,FM,M3,12.78439189608876,%subMVIC
PAT,P34,INI,FM,M1,14.322896624077906,%subMVIC
PAT,P34,INI,FM,M2,13.609386381372722,%subMVIC
PAT,P34,INI,FM,M3,13.758242013832488,%subMVIC
PAT,P34,REL,FM,M1,8.502672154305678,%subMVIC
PAT,P34,REL,FM,M2,7.8692769415509565,%subMVIC
PAT,P34,REL,FM,M3,7.751418475206783,%subMVIC
PAT,P36,INI,FM,M1,39.71619999651713,%subMVIC
PAT,P36,INI,FM,M2,42.18163333163757,%subMVIC
PAT,P36,INI,FM,M3,25.060890505321126,%subMVIC
PAT,P36,REL,FM,M1,9.310836266177501,%subMVIC
PAT,P36,REL,FM,M2,6.574541744460803,%subMVIC
PAT,P36,REL,FM,M3,7.73022342531931,%subMVIC
PAT,P41,INI,FM,M1,2.9300680791222926,%subMVIC
PAT,P41,INI,FM,M2,3.3585500811817774,%subMVIC
PAT,P41,INI,FM,M3,4.191451870625153,%subMVIC
PAT,P41,REL,FM,M1,5.421742161218501,%subMVIC
PAT,P41,REL,FM,M2,6.136583779243936,%subMVIC
PAT,P41,REL,FM,M3,5.337892841158145,%subMVIC
PAT,P42,INI,FM,M1,,%subMVIC
PAT,P42,INI,FM,M2,,%subMVIC
PAT,P42,INI,FM,M3,,%subMVIC
PAT,P42,REL,FM,M1,5.5263733907135295,%subMVIC
PAT,P42,REL,FM,M2,4.804245514333162,%subMVIC
PAT,P42,REL,FM,M3,5.1487673546230655,%subMVIC
PAT,P43,INI,FM,M1,17.14571060250407,%subMVIC
PAT,P43,INI,FM,M2,10.372697751241386,%subMVIC
PAT,P43,INI,FM,M3,10.660466775581124,%subMVIC
PAT,P43,REL,FM,M1,9.813410404831645,%subMVIC
PAT,P43,REL,FM,M2,9.557912397967353,%subMVIC
PAT,P43,REL,FM,M3,9.735450615311212,%subMVIC
PAT,P45,INI,FM,M1,17.216511827078186,%subMVIC
PAT,P45,INI,FM,M2,17.816981672344937,%subMVIC
PAT,P45,INI,FM,M3,16.663164872428162,%subMVIC
PAT,P45,REL,FM,M1,28.597998017714918,%subMVIC
PAT,P45,REL,FM,M2,31.068444577481056,%subMVIC
PAT,P45,REL,FM,M3,32.348487730277455,%subMVIC
PAT,P47,REL,FM,M1,,%subMVIC
PAT,P47,REL,FM,M2,,%subMVIC
PAT,P47,REL,FM,M3,,%subMVIC
PAT,P50,INI,FM,M1,9.735291871405463,%subMVIC
PAT,P50,INI,FM,M2,9.563701564795261,%subMVIC
PAT,P50,INI,FM,M3,10.214414602887038,%subMVIC
PAT,P50,REL,FM,M1,4.509756840051113,%subMVIC
PAT,P50,REL,FM,M2,4.626731908502657,%subMVIC
PAT,P50,REL,FM,M3,4.556841829185467,%subMVIC
PAT,P51,INI,FM,M1,15.408721053303404,%subMVIC
PAT,P51,INI,FM,M2,15.402412687329841,%subMVIC
PAT,P51,INI,FM,M3,15.690349383724714,%subMVIC
PAT,P51,REL,FM,M1,16.235472422730414,%subMVIC
PAT,P51,REL,FM,M2,13.793038096867209,%subMVIC
PAT,P51,REL,FM,M3,14.184780384342462,%subMVIC
PAT,P53,INI,FM,M1,16.792864056229504,%subMVIC
PAT,P53,INI,FM,M2,17.143709805859164,%subMVIC
PAT,P53,INI,FM,M3,16.906364606185612,%subMVIC
PAT,P54,INI,FM,M1,6.610142711886441,%subMVIC
PAT,P54,INI,FM,M2,7.124259172059455,%subMVIC
PAT,P54,INI,FM,M3,7.312256430996899,%subMVIC
PAT,P54,REL,FM,M1,5.2135258524360175,%subMVIC
PAT,P54,REL,FM,M2,5.215336202103122,%subMVIC
PAT,P54,REL,FM,M3,5.2215460507286195,%subMVIC
PAT,P58,INI,FM,M1,22.447722188864258,%subMVIC
PAT,P58,INI,FM,M2,22.429140650507836,%subMVIC
PAT,P58,INI,FM,M3,22.120016885309173,%subMVIC
PAT,P58,REL,FM,M1,32.45045749472821,%subMVIC
PAT,P58,REL,FM,M2,35.11956356846558,%subMVIC
PAT,P58,REL,FM,M3,32.791472330501485,%subMVIC
PAT,P61,INI,FM,M1,34.08829830875431,%subMVIC
PAT,P61,INI,FM,M2,33.59038720978208,%subMVIC
PAT,P61,INI,FM,M3,34.07715116434834,%subMVIC
PAT,P61,REL,FM,M1,19.91422806934092,%subMVIC
PAT,P61,REL,FM,M2,19.446894778027374,%subMVIC
PAT,P61,REL,FM,M3,19.274788072899977,%subMVIC
PAT,P62,INI,FM,M1,3.043903892572757,%subMVIC
PAT,P62,INI,FM,M2,3.1225881189441766,%subMVIC
PAT,P62,INI,FM,M3,3.2507436216539367,%subMVIC
PAT,P62,REL,FM,M1,20.190581076209487,%subMVIC
PAT,P62,REL,FM,M2,20.590368970958888,%subMVIC
PAT,P62,REL,FM,M3,26.147090230757755,%subMVIC
PAT,P63,INI,FM,M1,,%subMVIC
PAT,P63,INI,FM,M2,,%subMVIC
PAT,P63,INI,FM,M3,,%subMVIC
PAT,P63,REL,FM,M1,16.781570108543878,%subMVIC
PAT,P63,REL,FM,M2,13.923256015902634,%subMVIC
PAT,P63,REL,FM,M3,13.401674345866391,%subMVIC
PAT,P65,INI,FM,M1,7.3774895044575635,%subMVIC
PAT,P65,INI,FM,M2,5.951851715245642,%subMVIC
PAT,P65,INI,FM,M3,5.931449399446806,%subMVIC
PAT,P65,REL,FM,M1,6.810566154625942,%subMVIC
PAT,P65,REL,FM,M2,6.984058498197684,%subMVIC
PAT,P65,REL,FM,M3,8.296713070740646,%subMVIC
