event,time_sec,time_min
RHS,0.7400000095367432,0.0
RHS,1.8700000047683716,0.0
RHS,3.0,0.0
RHS,4.119999885559082,0.0
RTO,0.33000001311302185,0.0
RTO,1.4500000476837158,0.0
RTO,2.5799999237060547,0.0
RTO,3.700000047683716,0.0
LHS,0.18000000715255737,0.0
LHS,1.309999942779541,0.0
LHS,2.430000066757202,0.0
LHS,3.559999942779541,0.0
LTO,0.8899999856948853,0.0
LTO,2.0,0.0
LTO,3.140000104904175,0.0
LTO,4.239999771118164,0.0
