event,time_sec,time_min
RHS,0.07000000029802322,0.0
RHS,0.9700000286102295,0.0
RHS,1.8899999856948853,0.0
RTO,0.5899999737739563,0.0
RTO,1.5099999904632568,0.0
LHS,0.5199999809265137,0.0
LHS,1.440000057220459,0.0
LTO,0.15000000596046448,0.0
LTO,1.0399999618530273,0.0
LTO,1.9700000286102295,0.0
