event,time_sec,time_min
startMotion,0.10000000149011612,0.0
startMotion,15.529999732971191,0.0
startMotion,29.0,0.0
startMotion,41.599998474121094,0.0
startMotion,53.27000045776367,0.0
startMotion,4.550000190734863,1.0
startMotion,16.260000228881836,1.0
stopMotion,8.739999771118164,0.0
stopMotion,22.40999984741211,0.0
stopMotion,35.209999084472656,0.0
stopMotion,47.4900016784668,0.0
stopMotion,59.09000015258789,0.0
stopMotion,9.520000457763672,1.0
