event,time_sec,time_min
startMotion,0.10000000149011612,0.0
startMotion,10.680000305175781,0.0
startMotion,19.799999237060547,0.0
startMotion,29.709999084472656,0.0
startMotion,39.02000045776367,0.0
startMotion,48.040000915527344,0.0
startMotion,59.150001525878906,0.0
stopMotion,6.039999961853027,0.0
stopMotion,15.210000038146973,0.0
stopMotion,24.8700008392334,0.0
stopMotion,34.29999923706055,0.0
stopMotion,43.54999923706055,0.0
stopMotion,52.36000061035156,0.0
