event,time_sec,time_min
startMotion,0.10000000149011612,0.0
startMotion,7.869999885559082,0.0
startMotion,14.180000305175781,0.0
startMotion,20.809999465942383,0.0
startMotion,27.520000457763672,0.0
startMotion,33.79999923706055,0.0
startMotion,41.59000015258789,0.0
stopMotion,4.440000057220459,0.0
stopMotion,11.350000381469727,0.0
stopMotion,16.979999542236328,0.0
stopMotion,24.649999618530273,0.0
stopMotion,30.34000015258789,0.0
stopMotion,37.25,0.0
