Group,Participant,Session,Operator,Measure,Value,Unit
CTR,P01,INI,FM,M1,0.0020033878106538,V
CTR,P01,INI,FM,M2,0.0019056323381588,V
CTR,P01,INI,FM,M3,0.0029173276575156,V
CTR,P01,REL,FM,M1,0.0020101794405754,V
CTR,P01,REL,FM,M2,0.0029596735807607,V
CTR,P01,REL,FM,M3,0.0021526708142243,V
CTR,P02,INI,FM,M1,0.0020664760570372,V
CTR,P02,INI,FM,M2,0.0020835792737488,V
CTR,P02,INI,FM,M3,0.0021102820783581,V
CTR,P02,REL,FM,M1,0.0025617628147012,V
CTR,P02,REL,FM,M2,0.0022266363696197,V
CTR,P02,REL,FM,M3,0.0027236739427479,V
CTR,P03,INI,FM,M1,0.0022679482717313,V
CTR,P03,INI,FM,M2,0.0022961797829214,V
CTR,P03,INI,FM,M3,0.0022367813770271,V
CTR,P03,REL,FM,M1,0.0484875449029041,V
CTR,P03,REL,FM,M2,0.0290000745528868,V
CTR,P03,REL,FM,M3,0.01936328075435,V
CTR,P05,INI,FM,M1,0.0029155680709868,V
CTR,P05,INI,FM,M2,0.002746357385667,V
CTR,P05,INI,FM,M3,0.0027332253492797,V
CTR,P05,REL,FM,M1,0.0339526218271619,V
CTR,P05,REL,FM,M2,0.0032064847978435,V
CTR,P05,REL,FM,M3,0.0026258552883836,V
CTR,P06,INI,FM,M1,0.0028613550717072,V
CTR,P06,INI,FM,M2,0.0026058540426072,V
CTR,P06,INI,FM,M3,0.0018812740853119,V
CTR,P06,REL,FM,M1,0.0037824360112225,V
CTR,P06,REL,FM,M2,0.0037051505440763,V
CTR,P06,REL,FM,M3,0.0034225380798326,V
CTR,P07,INI,FM,M1,0.0149293235420878,V
CTR,P07,INI,FM,M2,0.0111157765387977,V
CTR,P07,INI,FM,M3,0.009030974512607,V
CTR,P07,REL,FM,M1,0.0107994325093034,V
CTR,P07,REL,FM,M2,0.0049751162113953,V
CTR,P07,REL,FM,M3,0.0042155786516213,V
CTR,P08,INI,FM,M1,0.0020918773767055,V
CTR,P08,INI,FM,M2,0.0025212578091886,V
CTR,P08,INI,FM,M3,0.0026903147733123,V
CTR,P08,REL,FM,M1,0.0021774272316468,V
CTR,P08,REL,FM,M2,0.0022446017421224,V
CTR,P08,REL,FM,M3,0.0023296146520739,V
CTR,P13,INI,FM,M1,0.0131335342163179,V
CTR,P13,INI,FM,M2,0.0090699549472764,V
CTR,P13,INI,FM,M3,0.0072817163372664,V
CTR,P13,REL,FM,M1,0.0121471721038446,V
CTR,P13,REL,FM,M2,0.0109457496194235,V
CTR,P13,REL,FM,M3,0.0091980161075107,V
CTR,P16,INI,FM,M1,0.0020212941630821,V
CTR,P16,INI,FM,M2,0.0020275688300449,V
CTR,P16,INI,FM,M3,0.0021164432631331,V
CTR,P16,REL,FM,M1,0.0020423869752341,V
CTR,P16,REL,FM,M2,0.0020420997059657,V
CTR,P16,REL,FM,M3,0.0019969791924144,V
CTR,P21,INI,FM,M1,0.0075484748068159,V
CTR,P21,INI,FM,M2,0.0040765443362863,V
CTR,P21,INI,FM,M3,0.0066141069423053,V
CTR,P21,REL,FM,M1,0.0411918276740888,V
CTR,P21,REL,FM,M2,0.0060607181829057,V
CTR,P21,REL,FM,M3,0.0063042342889376,V
CTR,P22,INI,FM,M1,0.0024276667637379,V
CTR,P22,INI,FM,M2,0.0023094571757237,V
CTR,P22,INI,FM,M3,0.0022680176217558,V
CTR,P22,REL,FM,M1,0.0031509884859394,V
CTR,P22,REL,FM,M2,0.0028380536893472,V
CTR,P22,REL,FM,M3,0.0028727651164613,V
CTR,P23,INI,FM,M1,0.0033770107031708,V
CTR,P23,INI,FM,M2,0.0030077407285412,V
CTR,P23,INI,FM,M3,0.0033045024745842,V
CTR,P23,REL,FM,M1,0.003063145695387,V
CTR,P23,REL,FM,M2,0.0033279738238752,V
CTR,P23,REL,FM,M3,0.0031557378389481,V
CTR,P25,INI,FM,M1,0.0130367724582253,V
CTR,P25,INI,FM,M2,0.0037824878956964,V
CTR,P25,INI,FM,M3,0.0027616871948997,V
CTR,P25,REL,FM,M1,0.0169527556988374,V
CTR,P25,REL,FM,M2,0.0119662016580469,V
CTR,P25,REL,FM,M3,0.00369603693628,V
CTR,P35,INI,FM,M1,0.0032240161315405,V
CTR,P35,INI,FM,M2,0.0022915105862004,V
CTR,P35,INI,FM,M3,0.0035020331857789,V
CTR,P35,REL,FM,M1,0.0024341163893373,V
CTR,P35,REL,FM,M2,0.0023441923119637,V
CTR,P35,REL,FM,M3,0.0024431581825921,V
CTR,P38,INI,FM,M1,,V
CTR,P38,INI,FM,M2,,V
CTR,P38,INI,FM,M3,,V
CTR,P38,REL,FM,M1,,V
CTR,P38,REL,FM,M2,,V
CTR,P38,REL,FM,M3,,V
CTR,P39,INI,FM,M1,0.0021002303700728,V
CTR,P39,INI,FM,M2,0.0026541229447546,V
CTR,P39,INI,FM,M3,0.0027218508305132,V
CTR,P39,REL,FM,M1,0.0088966935007483,V
CTR,P39,REL,FM,M2,0.0044399910009335,V
CTR,P39,REL,FM,M3,0.0036787764223196,V
CTR,P40,INI,FM,M1,0.0031436294477008,V
CTR,P40,INI,FM,M2,0.0032872435996699,V
CTR,P40,INI,FM,M3,0.003672644400326,V
CTR,P40,REL,FM,M1,0.0054588481582128,V
CTR,P40,REL,FM,M2,0.0031929199846344,V
CTR,P40,REL,FM,M3,0.0034769127066438,V
CTR,P44,INI,FM,M1,0.0028040487213315,V
CTR,P44,INI,FM,M2,0.0026326049210991,V
CTR,P44,INI,FM,M3,0.0025712391437322,V
CTR,P44,REL,FM,M1,0.0026816849242237,V
CTR,P44,REL,FM,M2,0.0027055345085006,V
CTR,P44,REL,FM,M3,0.0029137314380425,V
CTR,P46,INI,FM,M1,0.0091215529622748,V
CTR,P46,INI,FM,M2,0.0051998074926782,V
CTR,P46,INI,FM,M3,0.0081047912511219,V
CTR,P46,REL,FM,M1,0.022339886615658,V
CTR,P46,REL,FM,M2,0.0141944614816804,V
CTR,P46,REL,FM,M3,0.0117082028797776,V
CTR,P48,INI,FM,M1,0.0035582095732177,V
CTR,P48,INI,FM,M2,0.0036072243963419,V
CTR,P48,INI,FM,M3,0.0046553282949539,V
CTR,P48,REL,FM,M1,0.0032607335771269,V
CTR,P48,REL,FM,M2,0.0027901473667211,V
CTR,P48,REL,FM,M3,0.0024607366881765,V
CTR,P49,INI,FM,M1,0.0037985831969127,V
CTR,P49,INI,FM,M2,0.003223120855161,V
CTR,P49,INI,FM,M3,0.0031358283044012,V
CTR,P49,REL,FM,M1,0.0034893174588202,V
CTR,P49,REL,FM,M2,0.003511436065911,V
CTR,P49,REL,FM,M3,0.003586935780096,V
CTR,P52,INI,FM,M1,0.002795613176839,V
CTR,P52,INI,FM,M2,0.0027064398655345,V
CTR,P52,INI,FM,M3,0.00274878463097,V
CTR,P52,REL,FM,M1,0.0044431253013618,V
CTR,P52,REL,FM,M2,0.0025946145706667,V
CTR,P52,REL,FM,M3,0.0025674159669218,V
CTR,P55,INI,FM,M1,0.0055636848594251,V
CTR,P55,INI,FM,M2,0.0023945531498297,V
CTR,P55,INI,FM,M3,0.0024418759604554,V
CTR,P55,REL,FM,M1,0.0038809000386035,V
CTR,P55,REL,FM,M2,0.0033826602978598,V
CTR,P55,REL,FM,M3,0.0035771493989576,V
CTR,P56,INI,FM,M1,0.0037422770509194,V
CTR,P56,INI,FM,M2,0.0033976141489723,V
CTR,P56,INI,FM,M3,0.0027858826286188,V
CTR,P56,REL,FM,M1,0.0071059396801481,V
CTR,P56,REL,FM,M2,0.005314052105914,V
CTR,P56,REL,FM,M3,0.0038208815609804,V
CTR,P57,INI,FM,M1,0.0324003355288566,V
CTR,P57,INI,FM,M2,0.0183520503313444,V
CTR,P57,INI,FM,M3,0.0211779021105595,V
CTR,P57,REL,FM,M1,0.0067082540379094,V
CTR,P57,REL,FM,M2,0.0060340117949707,V
CTR,P57,REL,FM,M3,0.0035838237503446,V
CTR,P60,INI,FM,M1,0.0069401029717739,V
CTR,P60,INI,FM,M2,0.0034844389342086,V
CTR,P60,INI,FM,M3,0.0032496737838621,V
CTR,P60,REL,FM,M1,0.0068486170385001,V
CTR,P60,REL,FM,M2,0.0050247665907619,V
CTR,P60,REL,FM,M3,0.0040768666868609,V
CTR,P64,INI,FM,M1,0.0032432864649326,V
CTR,P64,INI,FM,M2,0.002735980377653,V
CTR,P64,INI,FM,M3,0.0022113812064868,V
CTR,P64,REL,FM,M1,0.0021155443391479,V
CTR,P64,REL,FM,M2,0.0020651481348555,V
CTR,P64,REL,FM,M3,0.0020949165307644,V
CTR,P66,INI,FM,M1,0.0042290856630622,V
CTR,P66,INI,FM,M2,0.0028604774791288,V
CTR,P66,INI,FM,M3,0.0036362203682371,V
CTR,P66,REL,FM,M1,0.0099459182262224,V
CTR,P66,REL,FM,M2,0.0031579163842667,V
CTR,P66,REL,FM,M3,0.0061949308424005,V
CTR,P67,INI,FM,M1,0.0029998971486426,V
CTR,P67,INI,FM,M2,0.0042512720751774,V
CTR,P67,INI,FM,M3,0.0029172096782469,V
CTR,P67,REL,FM,M1,0.0034145926351339,V
CTR,P67,REL,FM,M2,0.0060790282764242,V
CTR,P67,REL,FM,M3,0.0096696681626117,V
CTR,P68,INI,FM,M1,0.0149046682922129,V
CTR,P68,INI,FM,M2,0.0090736721732811,V
CTR,P68,INI,FM,M3,0.0082094302232566,V
CTR,P68,REL,FM,M1,0.0108569462520035,V
CTR,P68,REL,FM,M2,0.0106003210981205,V
CTR,P68,REL,FM,M3,0.0046873347504267,V
