Group,Participant,Session,Operator,Measure,Value,Unit
PAT,P09,INI,FM,M1,27.398627884523,%MAX
PAT,P09,INI,FM,M2,26.70400979431572,%MAX
PAT,P09,INI,FM,M3,26.798399293949018,%MAX
PAT,P09,REL,FM,M1,28.67917047292952,%MAX
PAT,P09,REL,FM,M2,27.860340767481205,%MAX
PAT,P09,REL,FM,M3,29.07023543631,%MAX
PAT,P10,INI,FM,M1,26.91741161836204,%MAX
PAT,P10,INI,FM,M2,30.236975366143902,%MAX
PAT,P10,INI,FM,M3,29.870265256384283,%MAX
PAT,P10,REL,FM,M1,31.515236921289848,%MAX
PAT,P10,REL,FM,M2,32.08020520003413,%MAX
PAT,P10,REL,FM,M3,30.495987699590255,%MAX
PAT,P11,INI,FM,M1,27.386832801088314,%MAX
PAT,P11,INI,FM,M2,25.395931109596148,%MAX
PAT,P11,INI,FM,M3,23.595026232266136,%MAX
PAT,P11,REL,FM,M1,26.728264438457966,%MAX
PAT,P11,REL,FM,M2,26.174781322889643,%MAX
PAT,P11,REL,FM,M3,26.13908966110125,%MAX
PAT,P12,INI,FM,M1,23.220004978210497,%MAX
PAT,P12,INI,FM,M2,26.428538287227646,%MAX
PAT,P12,INI,FM,M3,26.57139282602307,%MAX
PAT,P12,REL,FM,M1,23.232397871580044,%MAX
PAT,P12,REL,FM,M2,24.535641134391614,%MAX
PAT,P12,REL,FM,M3,30.24576000247512,%MAX
PAT,P14,INI,FM,M1,32.127470832728044,%MAX
PAT,P14,INI,FM,M2,33.37221589420575,%MAX
PAT,P14,INI,FM,M3,30.87246423200173,%MAX
PAT,P14,REL,FM,M1,33.06734035688372,%MAX
PAT,P14,REL,FM,M2,30.16127978130358,%MAX
PAT,P14,REL,FM,M3,34.96595569379308,%MAX
PAT,P17,INI,FM,M1,42.27657326002041,%MAX
PAT,P17,INI,FM,M2,30.943104224860765,%MAX
PAT,P17,INI,FM,M3,29.392834692977992,%MAX
PAT,P17,REL,FM,M1,29.512223052850164,%MAX
PAT,P17,REL,FM,M2,23.50776296816922,%MAX
PAT,P17,REL,FM,M3,32.69566918862411,%MAX
PAT,P24,INI,FM,M1,27.651782906030377,%MAX
PAT,P24,INI,FM,M2,30.41243240354479,%MAX
PAT,P24,INI,FM,M3,25.675248372303706,%MAX
PAT,P24,REL,FM,M1,34.89316730376363,%MAX
PAT,P24,REL,FM,M2,31.841960947004036,%MAX
PAT,P24,REL,FM,M3,37.48112122020245,%MAX
PAT,P26,INI,FM,M1,39.806589788945466,%MAX
PAT,P26,INI,FM,M2,43.55558742481678,%MAX
PAT,P26,INI,FM,M3,35.29347975095478,%MAX
PAT,P26,REL,FM,M1,36.88864824460207,%MAX
PAT,P26,REL,FM,M2,25.294826884124987,%MAX
PAT,P26,REL,FM,M3,22.97488006083812,%MAX
PAT,P27,INI,FM,M1,27.94757624209299,%MAX
PAT,P27,INI,FM,M2,27.18546283251411,%MAX
PAT,P27,INI,FM,M3,45.90333293527312,%MAX
PAT,P27,REL,FM,M1,27.12169468127956,%MAX
PAT,P27,REL,FM,M2,24.948077400114332,%MAX
PAT,P27,REL,FM,M3,36.70385816436394,%MAX
PAT,P28,INI,FM,M1,24.83009285901522,%MAX
PAT,P28,INI,FM,M2,29.074373459963198,%MAX
PAT,P28,INI,FM,M3,40.0610645598702,%MAX
PAT,P28,REL,FM,M1,26.635807454184928,%MAX
PAT,P28,REL,FM,M2,23.50767095705849,%MAX
PAT,P28,REL,FM,M3,44.78884353055634,%MAX
PAT,P29,INI,FM,M1,31.87050197644856,%MAX
PAT,P29,INI,FM,M2,35.31502842098301,%MAX
PAT,P29,INI,FM,M3,45.72008387065846,%MAX
PAT,P29,REL,FM,M1,36.76367690781985,%MAX
PAT,P29,REL,FM,M2,28.80477906668125,%MAX
PAT,P29,REL,FM,M3,46.91578721074208,%MAX
PAT,P30,INI,FM,M1,43.609508281408544,%MAX
PAT,P30,INI,FM,M2,37.87875946748284,%MAX
PAT,P30,INI,FM,M3,39.5972714684452,%MAX
PAT,P30,REL,FM,M1,44.2870884936819,%MAX
PAT,P30,REL,FM,M2,47.19643844366388,%MAX
PAT,P30,REL,FM,M3,43.021951012433604,%MAX
PAT,P32,INI,FM,M1,23.50984913034754,%MAX
PAT,P32,INI,FM,M2,25.581861387759506,%MAX
PAT,P32,INI,FM,M3,50.57411959552864,%MAX
PAT,P32,REL,FM,M1,30.93514020308615,%MAX
PAT,P32,REL,FM,M2,33.19034147877538,%MAX
PAT,P32,REL,FM,M3,61.22316202162847,%MAX
PAT,P33,INI,FM,M1,28.260166782204447,%MAX
PAT,P33,INI,FM,M2,31.190648607460435,%MAX
PAT,P33,INI,FM,M3,42.744736073381176,%MAX
PAT,P33,REL,FM,M1,35.426646016063955,%MAX
PAT,P33,REL,FM,M2,38.87523978478032,%MAX
PAT,P33,REL,FM,M3,48.798417868146075,%MAX
PAT,P34,INI,FM,M1,37.16687865674304,%MAX
PAT,P34,INI,FM,M2,33.75440334509257,%MAX
PAT,P34,INI,FM,M3,48.71707466261262,%MAX
PAT,P34,REL,FM,M1,31.623323399231136,%MAX
PAT,P34,REL,FM,M2,31.280859061114565,%MAX
PAT,P34,REL,FM,M3,44.84061982798876,%MAX
PAT,P36,INI,FM,M1,18.56488097494649,%MAX
PAT,P36,INI,FM,M2,22.046872395299182,%MAX
PAT,P36,INI,FM,M3,43.51304696651236,%MAX
PAT,P36,REL,FM,M1,16.72585660266688,%MAX
PAT,P36,REL,FM,M2,15.917473170170574,%MAX
PAT,P36,REL,FM,M3,36.703461847118426,%MAX
PAT,P41,INI,FM,M1,23.565241283710268,%MAX
PAT,P41,INI,FM,M2,25.87539712957462,%MAX
PAT,P41,INI,FM,M3,49.31081988330384,%MAX
PAT,P41,REL,FM,M1,23.483499468868484,%MAX
PAT,P41,REL,FM,M2,24.76294279067313,%MAX
PAT,P41,REL,FM,M3,40.55296837968621,%MAX
PAT,P42,INI,FM,M1,29.31476914267201,%MAX
PAT,P42,INI,FM,M2,23.044010011353652,%MAX
PAT,P42,INI,FM,M3,22.173593721167816,%MAX
PAT,P42,REL,FM,M1,22.97787977069739,%MAX
PAT,P42,REL,FM,M2,23.755988433751984,%MAX
PAT,P42,REL,FM,M3,35.43578624442842,%MAX
PAT,P43,INI,FM,M1,24.507677996924322,%MAX
PAT,P43,INI,FM,M2,25.18557129720201,%MAX
PAT,P43,INI,FM,M3,42.861174810601824,%MAX
PAT,P43,REL,FM,M1,27.049198741241007,%MAX
PAT,P43,REL,FM,M2,26.12884736670454,%MAX
PAT,P43,REL,FM,M3,37.127418760695214,%MAX
PAT,P45,INI,FM,M1,29.20848056578805,%MAX
PAT,P45,INI,FM,M2,35.90043292487721,%MAX
PAT,P45,INI,FM,M3,39.57539427036651,%MAX
PAT,P45,REL,FM,M1,25.645378450304072,%MAX
PAT,P45,REL,FM,M2,25.940406507050902,%MAX
PAT,P45,REL,FM,M3,23.071473144978007,%MAX
PAT,P47,INI,FM,M1,20.07124311085747,%MAX
PAT,P47,INI,FM,M2,21.298537091675847,%MAX
PAT,P47,INI,FM,M3,22.671322091038224,%MAX
PAT,P47,REL,FM,M1,22.758035786551403,%MAX
PAT,P47,REL,FM,M2,29.595211678876616,%MAX
PAT,P47,REL,FM,M3,38.684517114227084,%MAX
PAT,P50,INI,FM,M1,28.03321578824081,%MAX
PAT,P50,INI,FM,M2,26.946713945316173,%MAX
PAT,P50,INI,FM,M3,51.842840483353434,%MAX
PAT,P50,REL,FM,M1,25.622213979025855,%MAX
PAT,P50,REL,FM,M2,24.13343051810428,%MAX
PAT,P50,REL,FM,M3,22.57404841946378,%MAX
PAT,P51,INI,FM,M1,37.62504108148462,%MAX
PAT,P51,INI,FM,M2,29.17176471489771,%MAX
PAT,P51,INI,FM,M3,32.09484964601739,%MAX
PAT,P51,REL,FM,M1,42.903413902933096,%MAX
PAT,P51,REL,FM,M2,38.72342464975204,%MAX
PAT,P51,REL,FM,M3,40.44220883142777,%MAX
PAT,P53,INI,FM,M1,25.525474095757556,%MAX
PAT,P53,INI,FM,M2,24.309297317120283,%MAX
PAT,P53,INI,FM,M3,20.9589490913068,%MAX
PAT,P53,REL,FM,M1,21.66731156749657,%MAX
PAT,P53,REL,FM,M2,21.7548552922469,%MAX
PAT,P53,REL,FM,M3,35.02563109163096,%MAX
PAT,P54,INI,FM,M1,33.36131677849785,%MAX
PAT,P54,INI,FM,M2,40.20412538521638,%MAX
PAT,P54,INI,FM,M3,94.18340902184673,%MAX
PAT,P54,REL,FM,M1,58.01246007374652,%MAX
PAT,P54,REL,FM,M2,62.678245569528414,%MAX
PAT,P54,REL,FM,M3,74.07684315991617,%MAX
PAT,P58,INI,FM,M1,33.420742929117516,%MAX
PAT,P58,INI,FM,M2,30.19099212338178,%MAX
PAT,P58,INI,FM,M3,25.965729990065082,%MAX
PAT,P58,REL,FM,M1,18.14635837598171,%MAX
PAT,P58,REL,FM,M2,29.231925471778204,%MAX
PAT,P58,REL,FM,M3,31.565203672208504,%MAX
PAT,P61,INI,FM,M1,33.39152572431399,%MAX
PAT,P61,INI,FM,M2,31.258014688183486,%MAX
PAT,P61,INI,FM,M3,38.82672430111657,%MAX
PAT,P61,REL,FM,M1,27.86815652426186,%MAX
PAT,P61,REL,FM,M2,54.46622793168194,%MAX
PAT,P61,REL,FM,M3,53.72418191049463,%MAX
PAT,P62,INI,FM,M1,65.26504454892745,%MAX
PAT,P62,INI,FM,M2,47.218496383467084,%MAX
PAT,P62,INI,FM,M3,52.79305172902236,%MAX
PAT,P62,REL,FM,M1,44.14291209604139,%MAX
PAT,P62,REL,FM,M2,61.86299456299137,%MAX
PAT,P62,REL,FM,M3,54.8219470855232,%MAX
PAT,P63,INI,FM,M1,29.127488509884163,%MAX
PAT,P63,INI,FM,M2,39.84790617514364,%MAX
PAT,P63,INI,FM,M3,36.184711168061455,%MAX
PAT,P63,REL,FM,M1,36.028214588654734,%MAX
PAT,P63,REL,FM,M2,51.390328872677344,%MAX
PAT,P63,REL,FM,M3,53.60102316767698,%MAX
PAT,P65,INI,FM,M1,59.8368802533648,%MAX
PAT,P65,INI,FM,M2,51.15199520675748,%MAX
PAT,P65,INI,FM,M3,52.495285222523606,%MAX
PAT,P65,REL,FM,M1,75.73991718093406,%MAX
PAT,P65,REL,FM,M2,45.8535603188672,%MAX
PAT,P65,REL,FM,M3,150.1679772654701,%MAX
