Group,Participant,Session,Operator,Measure,Value,Unit
PAT,P09,INI,FM,M1,0.0016558969539977,V
PAT,P09,INI,FM,M2,0.000666465915926,V
PAT,P09,INI,FM,M3,0.0004085024150704,V
PAT,P09,REL,FM,M1,0.0020999007760942,V
PAT,P09,REL,FM,M2,0.0027492010175377,V
PAT,P09,REL,FM,M3,0.002978800969709,V
PAT,P10,INI,FM,M1,0.001760191712087,V
PAT,P10,INI,FM,M2,0.0003425417427167,V
PAT,P10,INI,FM,M3,0.0006682131699545,V
PAT,P10,REL,FM,M1,0.0020913432638178,V
PAT,P10,REL,FM,M2,0.0011468593638915,V
PAT,P10,REL,FM,M3,0.0010632960794832,V
PAT,P11,INI,FM,M1,0.0002594118853787,V
PAT,P11,INI,FM,M2,0.0002338566377552,V
PAT,P11,INI,FM,M3,0.0007744747509846,V
PAT,P11,REL,FM,M1,0.0015684139055938,V
PAT,P11,REL,FM,M2,0.0029919307918651,V
PAT,P11,REL,FM,M3,0.0022463264460854,V
PAT,P12,INI,FM,M1,0.0005707001398774,V
PAT,P12,INI,FM,M2,0.0011156017193941,V
PAT,P12,INI,FM,M3,0.0017291583502543,V
PAT,P12,REL,FM,M1,0.0016085495643319,V
PAT,P12,REL,FM,M2,0.0023781153799889,V
PAT,P12,REL,FM,M3,0.0024586473764911,V
PAT,P14,INI,FM,M1,0.0013430489111217,V
PAT,P14,INI,FM,M2,0.0012757630987238,V
PAT,P14,INI,FM,M3,0.0008771689100787,V
PAT,P14,REL,FM,M1,0.0042747895519079,V
PAT,P14,REL,FM,M2,0.003718072950282,V
PAT,P14,REL,FM,M3,0.0068318602319377,V
PAT,P17,INI,FM,M1,0.0057155894759962,V
PAT,P17,INI,FM,M2,0.0051743949423006,V
PAT,P17,INI,FM,M3,0.013371998944841,V
PAT,P17,REL,FM,M1,0.002057667766533,V
PAT,P17,REL,FM,M2,0.0032538046369392,V
PAT,P17,REL,FM,M3,0.0078200717611883,V
PAT,P24,INI,FM,M1,0.0042329298115799,V
PAT,P24,INI,FM,M2,0.0027834964614162,V
PAT,P24,INI,FM,M3,0.0029266953165311,V
PAT,P24,REL,FM,M1,0.0014474880392895,V
PAT,P24,REL,FM,M2,0.0045832010947251,V
PAT,P24,REL,FM,M3,0.0076409412991608,V
PAT,P26,INI,FM,M1,0.0015676218771732,V
PAT,P26,INI,FM,M2,0.0038844983212173,V
PAT,P26,INI,FM,M3,0.0026604086389125,V
PAT,P26,REL,FM,M1,0.0012715069351264,V
PAT,P26,REL,FM,M2,0.0024233566993159,V
PAT,P26,REL,FM,M3,0.0020674115240181,V
PAT,P27,INI,FM,M1,0.0010519285327381,V
PAT,P27,INI,FM,M2,0.0032001186806076,V
PAT,P27,INI,FM,M3,0.003912220451051,V
PAT,P27,REL,FM,M1,0.0020870289683617,V
PAT,P27,REL,FM,M2,0.0023273329284513,V
PAT,P27,REL,FM,M3,0.0045531265271354,V
PAT,P28,INI,FM,M1,0.0013156557052835,V
PAT,P28,INI,FM,M2,0.00103559197889,V
PAT,P28,INI,FM,M3,0.0034309987792202,V
PAT,P28,REL,FM,M1,0.0011323190233568,V
PAT,P28,REL,FM,M2,0.0023812090506003,V
PAT,P28,REL,FM,M3,0.0025102237424361,V
PAT,P29,INI,FM,M1,0.0055132588221091,V
PAT,P29,INI,FM,M2,0.0055552407762453,V
PAT,P29,INI,FM,M3,0.0270484584614173,V
PAT,P29,REL,FM,M1,0.0103012557170385,V
PAT,P29,REL,FM,M2,0.00621912216666,V
PAT,P29,REL,FM,M3,0.007773292367008,V
PAT,P30,INI,FM,M1,0.0008483438804866,V
PAT,P30,INI,FM,M2,0.001174793961368,V
PAT,P30,INI,FM,M3,0.0010788652145478,V
PAT,P30,REL,FM,M1,0.0033576845916811,V
PAT,P30,REL,FM,M2,0.0062524048745509,V
PAT,P30,REL,FM,M3,0.00472935283728,V
PAT,P32,INI,FM,M1,0.0013517934220151,V
PAT,P32,INI,FM,M2,0.0014365091027528,V
PAT,P32,INI,FM,M3,0.0010882463339594,V
PAT,P32,REL,FM,M1,0.0033577013080185,V
PAT,P32,REL,FM,M2,0.0062036164661597,V
PAT,P32,REL,FM,M3,0.0054653141385479,V
PAT,P33,INI,FM,M1,0.0015800046342977,V
PAT,P33,INI,FM,M2,0.0021515783518307,V
PAT,P33,INI,FM,M3,0.0012047223173969,V
PAT,P33,REL,FM,M1,0.000889829168916,V
PAT,P33,REL,FM,M2,0.0031010487912749,V
PAT,P33,REL,FM,M3,0.0030967634299809,V
PAT,P34,INI,FM,M1,0.0010306550474761,V
PAT,P34,INI,FM,M2,0.0007969630947895,V
PAT,P34,INI,FM,M3,0.0007534442526814,V
PAT,P34,REL,FM,M1,0.0025511365088202,V
PAT,P34,REL,FM,M2,0.0016325999986998,V
PAT,P34,REL,FM,M3,0.0025846110335809,V
PAT,P36,INI,FM,M1,0.0051214986010876,V
PAT,P36,INI,FM,M2,0.0018836952958241,V
PAT,P36,INI,FM,M3,0.0034485698276007,V
PAT,P36,REL,FM,M1,0.0051969460506463,V
PAT,P36,REL,FM,M2,0.0021608022856053,V
PAT,P36,REL,FM,M3,0.0030594915592597,V
PAT,P41,INI,FM,M1,0.0033193959701334,V
PAT,P41,INI,FM,M2,0.0011568122853326,V
PAT,P41,INI,FM,M3,0.0007383583875129,V
PAT,P41,REL,FM,M1,0.0066094603076861,V
PAT,P41,REL,FM,M2,0.0023398783758706,V
PAT,P41,REL,FM,M3,0.0035134752599812,V
PAT,P42,INI,FM,M1,0.0035072641258258,V
PAT,P42,INI,FM,M2,0.0059889788121963,V
PAT,P42,INI,FM,M3,0.0061614760216191,V
PAT,P42,REL,FM,M1,0.0054952217617437,V
PAT,P42,REL,FM,M2,0.0040583159690674,V
PAT,P42,REL,FM,M3,0.0043792245470213,V
PAT,P43,INI,FM,M1,0.0006341768750019,V
PAT,P43,INI,FM,M2,0.0026030668798685,V
PAT,P43,INI,FM,M3,0.0051256242614489,V
PAT,P43,REL,FM,M1,0.0025292165129908,V
PAT,P43,REL,FM,M2,0.0012461174260144,V
PAT,P43,REL,FM,M3,0.0030085648080309,V
PAT,P45,INI,FM,M1,0.0023756878882795,V
PAT,P45,INI,FM,M2,0.0025534808030989,V
PAT,P45,INI,FM,M3,0.0022667990166052,V
PAT,P45,REL,FM,M1,0.0008502480496973,V
PAT,P45,REL,FM,M2,0.0006667250268325,V
PAT,P45,REL,FM,M3,0.0012178668441123,V
PAT,P47,INI,FM,M1,0.0016692736515495,V
PAT,P47,INI,FM,M2,0.0017726506491375,V
PAT,P47,INI,FM,M3,0.0015414812378586,V
PAT,P47,REL,FM,M1,0.0017149164906603,V
PAT,P47,REL,FM,M2,0.0032957726367935,V
PAT,P47,REL,FM,M3,0.0032056631892838,V
PAT,P50,INI,FM,M1,0.0011575912158606,V
PAT,P50,INI,FM,M2,0.000249177277746,V
PAT,P50,INI,FM,M3,,V
PAT,P50,REL,FM,M1,0.004556420736533,V
PAT,P50,REL,FM,M2,0.0079327636883594,V
PAT,P50,REL,FM,M3,0.004468221466214,V
PAT,P51,INI,FM,M1,0.000607035391892,V
PAT,P51,INI,FM,M2,0.0011358063438005,V
PAT,P51,INI,FM,M3,0.0008722351692137,V
PAT,P51,REL,FM,M1,0.00069760842237,V
PAT,P51,REL,FM,M2,0.0016017633309066,V
PAT,P51,REL,FM,M3,0.0049033189356072,V
PAT,P53,INI,FM,M1,0.0004181910325029,V
PAT,P53,INI,FM,M2,0.0010247940734819,V
PAT,P53,INI,FM,M3,,V
PAT,P53,REL,FM,M1,0.0013621442389883,V
PAT,P53,REL,FM,M2,0.0014558878323084,V
PAT,P53,REL,FM,M3,0.003535849502237,V
PAT,P54,INI,FM,M1,0.000183720409496,V
PAT,P54,INI,FM,M2,0.001205065471081,V
PAT,P54,INI,FM,M3,0.0009934419749987,V
PAT,P54,REL,FM,M1,0.0004531916532913,V
PAT,P54,REL,FM,M2,0.00088110935764,V
PAT,P54,REL,FM,M3,0.0003393417627089,V
PAT,P58,INI,FM,M1,0.0004052802328553,V
PAT,P58,INI,FM,M2,0.0012348045407834,V
PAT,P58,INI,FM,M3,0.0007441611009527,V
PAT,P58,REL,FM,M1,0.0560876721922947,V
PAT,P58,REL,FM,M2,0.019300489452129,V
PAT,P58,REL,FM,M3,0.0459767341715787,V
PAT,P61,INI,FM,M1,0.0018850111763916,V
PAT,P61,INI,FM,M2,0.0018025297831777,V
PAT,P61,INI,FM,M3,0.0016524474287966,V
PAT,P61,REL,FM,M1,0.0034614360637525,V
PAT,P61,REL,FM,M2,0.0033901350750249,V
PAT,P61,REL,FM,M3,0.0058057864195129,V
PAT,P62,INI,FM,M1,0.0060379824550656,V
PAT,P62,INI,FM,M2,0.0076518634728798,V
PAT,P62,INI,FM,M3,0.0095768374442965,V
PAT,P62,REL,FM,M1,0.0051903249528034,V
PAT,P62,REL,FM,M2,0.0048022651641687,V
PAT,P62,REL,FM,M3,0.0057757692172959,V
PAT,P63,INI,FM,M1,0.007650509611133,V
PAT,P63,INI,FM,M2,0.0065156215438252,V
PAT,P63,INI,FM,M3,0.0038499513986204,V
PAT,P63,REL,FM,M1,0.0007912275742547,V
PAT,P63,REL,FM,M2,0.0026491490623806,V
PAT,P63,REL,FM,M3,0.003179409589433,V
PAT,P65,INI,FM,M1,0.0037260806334635,V
PAT,P65,INI,FM,M2,0.002093610998661,V
PAT,P65,INI,FM,M3,0.0039264414072452,V
PAT,P65,REL,FM,M1,0.0031774765303165,V
PAT,P65,REL,FM,M2,0.0029322486463511,V
PAT,P65,REL,FM,M3,0.0033630788179579,V
