Group,Participant,Session,Operator,Measure,Value,Unit
PAT,P09,INI,FM,M1,20.030696329353045,%MAX
PAT,P09,INI,FM,M2,15.566082200515135,%MAX
PAT,P09,INI,FM,M3,20.918928927361762,%MAX
PAT,P09,REL,FM,M1,12.218962156290523,%MAX
PAT,P09,REL,FM,M2,13.144586302914483,%MAX
PAT,P09,REL,FM,M3,11.64836405560849,%MAX
PAT,P10,INI,FM,M1,6.806455610603315,%MAX
PAT,P10,INI,FM,M2,7.421187035058288,%MAX
PAT,P10,INI,FM,M3,8.063023785747141,%MAX
PAT,P10,REL,FM,M1,9.117519480300064,%MAX
PAT,P10,REL,FM,M2,9.219225523512003,%MAX
PAT,P10,REL,FM,M3,8.186474517878844,%MAX
PAT,P11,INI,FM,M1,14.344169619636533,%MAX
PAT,P11,INI,FM,M2,11.416921723717238,%MAX
PAT,P11,INI,FM,M3,11.161751630928586,%MAX
PAT,P11,REL,FM,M1,9.676204633361863,%MAX
PAT,P11,REL,FM,M2,10.66766191650347,%MAX
PAT,P11,REL,FM,M3,8.66492100311637,%MAX
PAT,P12,INI,FM,M1,10.925796645631968,%MAX
PAT,P12,INI,FM,M2,11.902566958479213,%MAX
PAT,P12,INI,FM,M3,13.038198029147773,%MAX
PAT,P12,REL,FM,M1,13.546122345812861,%MAX
PAT,P12,REL,FM,M2,16.568781619004472,%MAX
PAT,P12,REL,FM,M3,20.86730248662065,%MAX
PAT,P14,INI,FM,M1,18.04548589904508,%MAX
PAT,P14,INI,FM,M2,20.00002753259964,%MAX
PAT,P14,INI,FM,M3,18.057437521239304,%MAX
PAT,P14,REL,FM,M1,17.0364401394757,%MAX
PAT,P14,REL,FM,M2,14.627799106582142,%MAX
PAT,P14,REL,FM,M3,16.49222077001148,%MAX
PAT,P17,INI,FM,M1,42.9617843881653,%MAX
PAT,P17,INI,FM,M2,35.492680489051246,%MAX
PAT,P17,INI,FM,M3,26.33101255019645,%MAX
PAT,P17,REL,FM,M1,29.41473133106286,%MAX
PAT,P17,REL,FM,M2,18.854927082353004,%MAX
PAT,P17,REL,FM,M3,34.72412453813467,%MAX
PAT,P24,INI,FM,M1,14.000270380664775,%MAX
PAT,P24,INI,FM,M2,13.619144670660905,%MAX
PAT,P24,INI,FM,M3,18.220268288834824,%MAX
PAT,P24,REL,FM,M1,18.83020813350942,%MAX
PAT,P24,REL,FM,M2,15.476847327433166,%MAX
PAT,P24,REL,FM,M3,27.715867951489265,%MAX
PAT,P26,INI,FM,M1,35.73075901291356,%MAX
PAT,P26,INI,FM,M2,33.15523399936168,%MAX
PAT,P26,INI,FM,M3,34.484405758453576,%MAX
PAT,P26,REL,FM,M1,20.582577465152408,%MAX
PAT,P26,REL,FM,M2,18.204635838533733,%MAX
PAT,P26,REL,FM,M3,19.756628436025633,%MAX
PAT,P27,INI,FM,M1,7.095371774822327,%MAX
PAT,P27,INI,FM,M2,7.960061513849035,%MAX
PAT,P27,INI,FM,M3,56.79032263955099,%MAX
PAT,P27,REL,FM,M1,9.739129505866554,%MAX
PAT,P27,REL,FM,M2,7.385850268690355,%MAX
PAT,P27,REL,FM,M3,40.0332482555703,%MAX
PAT,P28,INI,FM,M1,11.904242242057041,%MAX
PAT,P28,INI,FM,M2,18.43476243300492,%MAX
PAT,P28,INI,FM,M3,36.39199320972682,%MAX
PAT,P28,REL,FM,M1,10.725215476697937,%MAX
PAT,P28,REL,FM,M2,8.589729480109655,%MAX
PAT,P28,REL,FM,M3,86.48081661561702,%MAX
PAT,P29,INI,FM,M1,16.457229075176055,%MAX
PAT,P29,INI,FM,M2,20.757429083736504,%MAX
PAT,P29,INI,FM,M3,47.14996450928712,%MAX
PAT,P29,REL,FM,M1,17.330591113967493,%MAX
PAT,P29,REL,FM,M2,11.564321457756401,%MAX
PAT,P29,REL,FM,M3,58.322507442271636,%MAX
PAT,P30,INI,FM,M1,40.280607616938404,%MAX
PAT,P30,INI,FM,M2,28.211740813878627,%MAX
PAT,P30,INI,FM,M3,37.471455792912636,%MAX
PAT,P30,REL,FM,M1,29.17904686738074,%MAX
PAT,P30,REL,FM,M2,42.97545111109452,%MAX
PAT,P30,REL,FM,M3,37.73985267160234,%MAX
PAT,P32,INI,FM,M1,7.7437451862590825,%MAX
PAT,P32,INI,FM,M2,8.511140005770022,%MAX
PAT,P32,INI,FM,M3,61.63685800414631,%MAX
PAT,P32,REL,FM,M1,9.825450433558215,%MAX
PAT,P32,REL,FM,M2,23.088837567018437,%MAX
PAT,P32,REL,FM,M3,93.22648110807434,%MAX
PAT,P33,INI,FM,M1,16.010007502507438,%MAX
PAT,P33,INI,FM,M2,18.165627682455753,%MAX
PAT,P33,INI,FM,M3,45.568098815375286,%MAX
PAT,P33,REL,FM,M1,16.21832575218594,%MAX
PAT,P33,REL,FM,M2,24.299306863666523,%MAX
PAT,P33,REL,FM,M3,60.48502593407849,%MAX
PAT,P34,INI,FM,M1,24.535336415042025,%MAX
PAT,P34,INI,FM,M2,23.514883908164716,%MAX
PAT,P34,INI,FM,M3,49.613328065465836,%MAX
PAT,P34,REL,FM,M1,17.096787280260422,%MAX
PAT,P34,REL,FM,M2,17.330137775419306,%MAX
PAT,P34,REL,FM,M3,48.478158463577294,%MAX
PAT,P36,INI,FM,M1,4.742988181198286,%MAX
PAT,P36,INI,FM,M2,9.287907122100657,%MAX
PAT,P36,INI,FM,M3,31.387370944275343,%MAX
PAT,P36,REL,FM,M1,3.8957535885662815,%MAX
PAT,P36,REL,FM,M2,3.296647406826382,%MAX
PAT,P36,REL,FM,M3,21.32667891311306,%MAX
PAT,P41,INI,FM,M1,8.410472359320918,%MAX
PAT,P41,INI,FM,M2,9.319963185194958,%MAX
PAT,P41,INI,FM,M3,75.68176556844068,%MAX
PAT,P41,REL,FM,M1,7.047725694209673,%MAX
PAT,P41,REL,FM,M2,7.182464739996602,%MAX
PAT,P41,REL,FM,M3,63.592580844415274,%MAX
PAT,P42,INI,FM,M1,15.654379387136997,%MAX
PAT,P42,INI,FM,M2,9.008171369650531,%MAX
PAT,P42,INI,FM,M3,8.295577757603413,%MAX
PAT,P42,REL,FM,M1,8.21496552338566,%MAX
PAT,P42,REL,FM,M2,8.257158963398568,%MAX
PAT,P42,REL,FM,M3,45.20052067109833,%MAX
PAT,P43,INI,FM,M1,6.043864276282914,%MAX
PAT,P43,INI,FM,M2,13.22815211504567,%MAX
PAT,P43,INI,FM,M3,60.471534242069694,%MAX
PAT,P43,REL,FM,M1,6.631137593028958,%MAX
PAT,P43,REL,FM,M2,6.5543178599145495,%MAX
PAT,P43,REL,FM,M3,48.28877756167318,%MAX
PAT,P45,INI,FM,M1,15.0877081363899,%MAX
PAT,P45,INI,FM,M2,26.82289529498159,%MAX
PAT,P45,INI,FM,M3,49.71568395106583,%MAX
PAT,P45,REL,FM,M1,9.442297382598877,%MAX
PAT,P45,REL,FM,M2,9.38955861118561,%MAX
PAT,P45,REL,FM,M3,8.290595459252755,%MAX
PAT,P47,INI,FM,M1,7.759128948443413,%MAX
PAT,P47,INI,FM,M2,7.781572485504225,%MAX
PAT,P47,INI,FM,M3,7.962318105781746,%MAX
PAT,P47,REL,FM,M1,8.810324722670863,%MAX
PAT,P47,REL,FM,M2,24.950391402206222,%MAX
PAT,P47,REL,FM,M3,61.924490027824255,%MAX
PAT,P50,INI,FM,M1,13.671847305997906,%MAX
PAT,P50,INI,FM,M2,18.165746117468284,%MAX
PAT,P50,INI,FM,M3,68.6642657402539,%MAX
PAT,P50,REL,FM,M1,9.623770711243662,%MAX
PAT,P50,REL,FM,M2,7.323498555914121,%MAX
PAT,P50,REL,FM,M3,7.796568785207586,%MAX
PAT,P51,INI,FM,M1,22.750534228102975,%MAX
PAT,P51,INI,FM,M2,16.041390367546907,%MAX
PAT,P51,INI,FM,M3,19.243562590642245,%MAX
PAT,P51,REL,FM,M1,48.50236653967588,%MAX
PAT,P51,REL,FM,M2,38.236460442739066,%MAX
PAT,P51,REL,FM,M3,44.57039649665612,%MAX
PAT,P53,INI,FM,M1,14.430797639508754,%MAX
PAT,P53,INI,FM,M2,11.300261755934857,%MAX
PAT,P53,INI,FM,M3,8.376934986220368,%MAX
PAT,P53,REL,FM,M1,10.050232292320652,%MAX
PAT,P53,REL,FM,M2,9.182931257754696,%MAX
PAT,P53,REL,FM,M3,30.659955956620138,%MAX
PAT,P54,INI,FM,M1,32.63854712186432,%MAX
PAT,P54,INI,FM,M2,38.7035331254153,%MAX
PAT,P54,INI,FM,M3,93.5464009171551,%MAX
PAT,P54,REL,FM,M1,71.09678953729852,%MAX
PAT,P54,REL,FM,M2,72.36127659585603,%MAX
PAT,P54,REL,FM,M3,88.80390676743114,%MAX
PAT,P58,INI,FM,M1,31.366116988719437,%MAX
PAT,P58,INI,FM,M2,27.13829060454424,%MAX
PAT,P58,INI,FM,M3,22.30833493102318,%MAX
PAT,P58,REL,FM,M1,12.208374878420585,%MAX
PAT,P58,REL,FM,M2,22.87451952556836,%MAX
PAT,P58,REL,FM,M3,36.681146822057556,%MAX
PAT,P61,INI,FM,M1,31.712604453361458,%MAX
PAT,P61,INI,FM,M2,25.934574187096562,%MAX
PAT,P61,INI,FM,M3,44.67778106307316,%MAX
PAT,P61,REL,FM,M1,14.82939565786843,%MAX
PAT,P61,REL,FM,M2,79.38420670876167,%MAX
PAT,P61,REL,FM,M3,71.49687418276234,%MAX
PAT,P62,INI,FM,M1,99.90917823657153,%MAX
PAT,P62,INI,FM,M2,64.5965104475915,%MAX
PAT,P62,INI,FM,M3,71.66370346665212,%MAX
PAT,P62,REL,FM,M1,51.44143803268726,%MAX
PAT,P62,REL,FM,M2,95.84919390819235,%MAX
PAT,P62,REL,FM,M3,76.92589628910567,%MAX
PAT,P63,INI,FM,M1,31.42263505514708,%MAX
PAT,P63,INI,FM,M2,48.14857796290975,%MAX
PAT,P63,INI,FM,M3,51.7636606995215,%MAX
PAT,P63,REL,FM,M1,40.4564552842083,%MAX
PAT,P63,REL,FM,M2,74.91715463725437,%MAX
PAT,P63,REL,FM,M3,88.23749800194102,%MAX
PAT,P65,INI,FM,M1,76.92905787799604,%MAX
PAT,P65,INI,FM,M2,76.3950531509055,%MAX
PAT,P65,INI,FM,M3,61.21074743807873,%MAX
PAT,P65,REL,FM,M1,103.04914204757434,%MAX
PAT,P65,REL,FM,M2,55.017206659654505,%MAX
PAT,P65,REL,FM,M3,241.67410719195485,%MAX
