Group,Participant,Session,Operator,Measure,Value,Unit
PAT,P09,INI,FM,M1,119.6478220574606,Hz
PAT,P09,INI,FM,M2,119.15517030887558,Hz
PAT,P09,INI,FM,M3,121.82111400570648,Hz
PAT,P09,REL,FM,M1,129.76791120080728,Hz
PAT,P09,REL,FM,M2,140.66093693257474,Hz
PAT,P09,REL,FM,M3,142.87449884582674,Hz
PAT,P10,INI,FM,M1,154.84154929577466,Hz
PAT,P10,INI,FM,M2,138.03269900830875,Hz
PAT,P10,INI,FM,M3,166.45021645021646,Hz
PAT,P10,REL,FM,M1,154.01987353206866,Hz
PAT,P10,REL,FM,M2,152.40174672489084,Hz
PAT,P10,REL,FM,M3,139.84287317620652,Hz
PAT,P11,INI,FM,M1,118.05259417199714,Hz
PAT,P11,INI,FM,M2,126.953125,Hz
PAT,P11,INI,FM,M3,123.72047244094487,Hz
PAT,P11,REL,FM,M1,126.18328298086608,Hz
PAT,P11,REL,FM,M2,120.7318494347978,Hz
PAT,P11,REL,FM,M3,115.27173363019938,Hz
PAT,P12,INI,FM,M1,96.52628343067936,Hz
PAT,P12,INI,FM,M2,100.38560411311052,Hz
PAT,P12,INI,FM,M3,107.9671404355196,Hz
PAT,P12,REL,FM,M1,43.56721627151281,Hz
PAT,P12,REL,FM,M2,33.959879955773175,Hz
PAT,P12,REL,FM,M3,33.328142033951096,Hz
PAT,P14,INI,FM,M1,94.19710944876172,Hz
PAT,P14,INI,FM,M2,79.69737796662866,Hz
PAT,P14,INI,FM,M3,77.26787620064033,Hz
PAT,P14,REL,FM,M1,88.37161396642291,Hz
PAT,P14,REL,FM,M2,88.08705612829324,Hz
PAT,P14,REL,FM,M3,88.92857142857142,Hz
PAT,P17,INI,FM,M1,127.58514250437288,Hz
PAT,P17,INI,FM,M2,121.36838133568104,Hz
PAT,P17,INI,FM,M3,129.01078418319796,Hz
PAT,P17,REL,FM,M1,68.9419795221843,Hz
PAT,P17,REL,FM,M2,93.84594847149911,Hz
PAT,P17,REL,FM,M3,73.40254423161281,Hz
PAT,P24,INI,FM,M1,110.54131054131057,Hz
PAT,P24,INI,FM,M2,119.44444444444446,Hz
PAT,P24,INI,FM,M3,109.81366459627328,Hz
PAT,P24,REL,FM,M1,81.99283022336613,Hz
PAT,P24,REL,FM,M2,90.2621722846442,Hz
PAT,P24,REL,FM,M3,85.83157109093172,Hz
PAT,P26,INI,FM,M1,28.76984126984127,Hz
PAT,P26,INI,FM,M2,58.525345622119815,Hz
PAT,P26,INI,FM,M3,60.57213930348258,Hz
PAT,P26,REL,FM,M1,35.22167487684729,Hz
PAT,P26,REL,FM,M2,29.957203994293863,Hz
PAT,P26,REL,FM,M3,33.917197452229296,Hz
PAT,P27,INI,FM,M1,68.37686567164178,Hz
PAT,P27,INI,FM,M2,65.17558951523125,Hz
PAT,P27,INI,FM,M3,66.22889305816135,Hz
PAT,P27,REL,FM,M1,91.81338028169014,Hz
PAT,P27,REL,FM,M2,83.0574488802337,Hz
PAT,P27,REL,FM,M3,82.88699622442707,Hz
PAT,P28,INI,FM,M1,76.4283717028614,Hz
PAT,P28,INI,FM,M2,86.1410969359939,Hz
PAT,P28,INI,FM,M3,87.87578460521969,Hz
PAT,P28,REL,FM,M1,125.51020408163264,Hz
PAT,P28,REL,FM,M2,109.79498861047836,Hz
PAT,P28,REL,FM,M3,101.00628930817612,Hz
PAT,P29,INI,FM,M1,116.94444444444444,Hz
PAT,P29,INI,FM,M2,108.82128448369863,Hz
PAT,P29,INI,FM,M3,,Hz
PAT,P29,REL,FM,M1,116.86046511627907,Hz
PAT,P29,REL,FM,M2,105.02763885232956,Hz
PAT,P29,REL,FM,M3,106.64961636828644,Hz
PAT,P30,REL,FM,M1,151.23331985442783,Hz
PAT,P30,REL,FM,M2,143.21784261467246,Hz
PAT,P30,REL,FM,M3,138.8245672069688,Hz
PAT,P32,INI,FM,M1,128.21009787770132,Hz
PAT,P32,INI,FM,M2,120.5616034184556,Hz
PAT,P32,INI,FM,M3,118.5096768692983,Hz
PAT,P32,REL,FM,M1,116.80044284528094,Hz
PAT,P32,REL,FM,M2,122.18225419664267,Hz
PAT,P32,REL,FM,M3,125.55644332838716,Hz
PAT,P33,INI,FM,M1,95.95426561125768,Hz
PAT,P33,INI,FM,M2,95.3235258940318,Hz
PAT,P33,INI,FM,M3,93.3420365535248,Hz
PAT,P33,REL,FM,M1,88.23144390627046,Hz
PAT,P33,REL,FM,M2,76.98986975397973,Hz
PAT,P33,REL,FM,M3,100.010461345329,Hz
PAT,P34,INI,FM,M1,62.88079089550524,Hz
PAT,P34,INI,FM,M2,57.6857435430652,Hz
PAT,P34,INI,FM,M3,55.10078338174456,Hz
PAT,P34,REL,FM,M1,111.9193689745837,Hz
PAT,P34,REL,FM,M2,97.48571428571428,Hz
PAT,P34,REL,FM,M3,90.72188536780688,Hz
PAT,P36,INI,FM,M1,132.68251273344654,Hz
PAT,P36,INI,FM,M2,124.02040054733176,Hz
PAT,P36,INI,FM,M3,117.52988047808763,Hz
PAT,P36,REL,FM,M1,133.93881453154876,Hz
PAT,P36,REL,FM,M2,138.65404125803178,Hz
PAT,P36,REL,FM,M3,112.39157372986368,Hz
PAT,P41,INI,FM,M1,80.51700391990677,Hz
PAT,P41,INI,FM,M2,84.63687150837988,Hz
PAT,P41,INI,FM,M3,96.61266568483065,Hz
PAT,P41,REL,FM,M1,110.03270387171642,Hz
PAT,P41,REL,FM,M2,103.33292033205304,Hz
PAT,P41,REL,FM,M3,101.60855230292736,Hz
PAT,P42,INI,FM,M1,104.83162518301611,Hz
PAT,P42,INI,FM,M2,105.62770562770564,Hz
PAT,P42,INI,FM,M3,104.58422174840084,Hz
PAT,P42,REL,FM,M1,120.0,Hz
PAT,P42,REL,FM,M2,119.84446604638244,Hz
PAT,P42,REL,FM,M3,115.14890871949252,Hz
PAT,P43,INI,FM,M1,92.2705314009662,Hz
PAT,P43,INI,FM,M2,103.16389263757684,Hz
PAT,P43,INI,FM,M3,108.43201597945496,Hz
PAT,P43,REL,FM,M1,99.88663559642272,Hz
PAT,P43,REL,FM,M2,93.06539285126009,Hz
PAT,P43,REL,FM,M3,86.13409896976862,Hz
PAT,P45,INI,FM,M1,109.39663699307616,Hz
PAT,P45,INI,FM,M2,106.39342250582892,Hz
PAT,P45,INI,FM,M3,139.51271186440678,Hz
PAT,P45,REL,FM,M1,138.63049095607235,Hz
PAT,P45,REL,FM,M2,136.24220837043634,Hz
PAT,P45,REL,FM,M3,136.08040201005025,Hz
PAT,P47,INI,FM,M1,90.49723138878012,Hz
PAT,P47,INI,FM,M2,88.84838819911151,Hz
PAT,P47,INI,FM,M3,81.61248888449758,Hz
PAT,P47,REL,FM,M1,107.8558225508318,Hz
PAT,P47,REL,FM,M2,95.28404293812568,Hz
PAT,P47,REL,FM,M3,96.05110336817654,Hz
PAT,P50,INI,FM,M1,138.12218500981638,Hz
PAT,P50,INI,FM,M2,141.46000698567934,Hz
PAT,P50,INI,FM,M3,139.04255319148936,Hz
PAT,P50,REL,FM,M1,122.6019565493584,Hz
PAT,P50,REL,FM,M2,98.4896560477218,Hz
PAT,P50,REL,FM,M3,117.18838286812068,Hz
PAT,P51,INI,FM,M1,89.57270165282962,Hz
PAT,P51,INI,FM,M2,92.24720233894546,Hz
PAT,P51,INI,FM,M3,83.01967953543392,Hz
PAT,P51,REL,FM,M1,88.32735323307122,Hz
PAT,P51,REL,FM,M2,85.38812785388127,Hz
PAT,P51,REL,FM,M3,84.38095238095238,Hz
PAT,P53,INI,FM,M1,89.6629213483146,Hz
PAT,P53,INI,FM,M2,91.2133891213389,Hz
PAT,P53,INI,FM,M3,,Hz
PAT,P53,REL,FM,M1,73.00106391685081,Hz
PAT,P53,REL,FM,M2,66.63101604278074,Hz
PAT,P53,REL,FM,M3,51.605995717344754,Hz
PAT,P54,INI,FM,M1,93.56430657669452,Hz
PAT,P54,INI,FM,M2,89.37402002171028,Hz
PAT,P54,INI,FM,M3,78.8983997022702,Hz
PAT,P54,REL,FM,M1,77.09178638008554,Hz
PAT,P54,REL,FM,M2,74.90196078431373,Hz
PAT,P54,REL,FM,M3,70.06621207629212,Hz
PAT,P58,INI,FM,M1,23.217371703358623,Hz
PAT,P58,INI,FM,M2,21.310946076848563,Hz
PAT,P58,INI,FM,M3,19.616634906400627,Hz
PAT,P58,REL,FM,M1,30.45240442545734,Hz
PAT,P58,REL,FM,M2,32.456912819222545,Hz
PAT,P58,REL,FM,M3,35.547240411599624,Hz
PAT,P61,INI,FM,M1,60.8040657046919,Hz
PAT,P61,INI,FM,M2,72.07799320845658,Hz
PAT,P61,INI,FM,M3,58.83010848898333,Hz
PAT,P61,REL,FM,M1,67.8646934460888,Hz
PAT,P61,REL,FM,M2,70.31687381032359,Hz
PAT,P61,REL,FM,M3,76.45968489341983,Hz
PAT,P62,INI,FM,M1,115.98105673693009,Hz
PAT,P62,INI,FM,M2,111.81120403253522,Hz
PAT,P62,INI,FM,M3,106.76156583629894,Hz
PAT,P62,REL,FM,M1,103.60531309297912,Hz
PAT,P62,REL,FM,M2,101.6489988221437,Hz
PAT,P62,REL,FM,M3,99.47916666666669,Hz
PAT,P63,INI,FM,M1,98.98580121703856,Hz
PAT,P63,INI,FM,M2,81.21591831999072,Hz
PAT,P63,INI,FM,M3,76.07709750566893,Hz
PAT,P63,REL,FM,M1,114.4925593243062,Hz
PAT,P63,REL,FM,M2,107.3911193077032,Hz
PAT,P63,REL,FM,M3,110.22727272727272,Hz
PAT,P65,INI,FM,M1,83.58475807352777,Hz
PAT,P65,INI,FM,M2,96.00470035252644,Hz
PAT,P65,INI,FM,M3,87.80709736123748,Hz
PAT,P65,REL,FM,M1,106.26930461641204,Hz
PAT,P65,REL,FM,M2,88.96034297963558,Hz
PAT,P65,REL,FM,M3,81.45956607495069,Hz
