Group,Participant,Session,Operator,Measure,Value,Unit
PAT,P09,INI,FM,M1,97.83531026015996,Hz
PAT,P09,INI,FM,M2,67.97706797706797,Hz
PAT,P09,INI,FM,M3,88.54308854308854,Hz
PAT,P09,REL,FM,M1,100.47413053425076,Hz
PAT,P09,REL,FM,M2,99.1900991900992,Hz
PAT,P09,REL,FM,M3,96.55109655109656,Hz
PAT,P10,INI,FM,M1,91.28075059938789,Hz
PAT,P10,INI,FM,M2,88.2700882700883,Hz
PAT,P10,INI,FM,M3,90.54509054509056,Hz
PAT,P10,REL,FM,M1,92.19202806377156,Hz
PAT,P10,REL,FM,M2,87.45108745108746,Hz
PAT,P10,REL,FM,M3,90.36309036309036,Hz
PAT,P11,INI,FM,M1,84.45647323402835,Hz
PAT,P11,INI,FM,M2,85.08508508508508,Hz
PAT,P11,INI,FM,M3,82.992082992083,Hz
PAT,P11,REL,FM,M1,87.91429432711999,Hz
PAT,P11,REL,FM,M2,89.36208936208938,Hz
PAT,P11,REL,FM,M3,91.8190918190918,Hz
PAT,P12,INI,FM,M1,76.81155376546158,Hz
PAT,P12,INI,FM,M2,78.71507871507872,Hz
PAT,P12,INI,FM,M3,74.62007462007462,Hz
PAT,P12,REL,FM,M1,74.5365514904593,Hz
PAT,P12,REL,FM,M2,80.62608062608064,Hz
PAT,P12,REL,FM,M3,79.53407953407954,Hz
PAT,P14,INI,FM,M1,91.00793269129944,Hz
PAT,P14,INI,FM,M2,91.81909181909182,Hz
PAT,P14,INI,FM,M3,87.81508781508784,Hz
PAT,P14,REL,FM,M1,81.26909930517145,Hz
PAT,P14,REL,FM,M2,83.53808353808355,Hz
PAT,P14,REL,FM,M3,80.53508053508054,Hz
PAT,P17,INI,FM,M1,112.94132536617506,Hz
PAT,P17,INI,FM,M2,118.30011830011831,Hz
PAT,P17,INI,FM,M3,93.91209391209392,Hz
PAT,P17,REL,FM,M1,98.28958125551316,Hz
PAT,P17,REL,FM,M2,120.84812084812089,Hz
PAT,P17,REL,FM,M3,107.92610792610796,Hz
PAT,P24,INI,FM,M1,108.209685363994,Hz
PAT,P24,INI,FM,M2,103.55810355810355,Hz
PAT,P24,INI,FM,M3,98.91709891709893,Hz
PAT,P24,REL,FM,M1,50.05460917284564,Hz
PAT,P24,REL,FM,M2,52.05205205205205,Hz
PAT,P24,REL,FM,M3,50.323050323050325,Hz
PAT,P26,INI,FM,M1,80.26864539890593,Hz
PAT,P26,INI,FM,M2,74.52907452907453,Hz
PAT,P26,INI,FM,M3,71.34407134407134,Hz
PAT,P26,REL,FM,M1,77.99455494846276,Hz
PAT,P26,REL,FM,M2,77.07707707707709,Hz
PAT,P26,REL,FM,M3,70.43407043407042,Hz
PAT,P27,INI,FM,M1,90.55274987138716,Hz
PAT,P27,INI,FM,M2,87.26908726908728,Hz
PAT,P27,INI,FM,M3,80.35308035308036,Hz
PAT,P27,REL,FM,M1,90.462843969858,Hz
PAT,P27,REL,FM,M2,76.07607607607609,Hz
PAT,P27,REL,FM,M3,45.04504504504504,Hz
PAT,P28,INI,FM,M1,100.56257751648536,Hz
PAT,P28,INI,FM,M2,98.37109837109838,Hz
PAT,P28,INI,FM,M3,96.46009646009648,Hz
PAT,P28,REL,FM,M1,112.03150682108598,Hz
PAT,P28,REL,FM,M2,103.1941031941032,Hz
PAT,P28,REL,FM,M3,103.74010374010372,Hz
PAT,P29,INI,FM,M1,83.90937849855686,Hz
PAT,P29,INI,FM,M2,80.80808080808082,Hz
PAT,P29,INI,FM,M3,76.07607607607609,Hz
PAT,P29,REL,FM,M1,88.73165386191438,Hz
PAT,P29,REL,FM,M2,80.8990808990809,Hz
PAT,P29,REL,FM,M3,78.8060788060788,Hz
PAT,P30,INI,FM,M1,91.73593341930015,Hz
PAT,P30,INI,FM,M2,94.36709436709438,Hz
PAT,P30,INI,FM,M3,94.18509418509416,Hz
PAT,P30,REL,FM,M1,97.19685070386473,Hz
PAT,P30,REL,FM,M2,95.82309582309584,Hz
PAT,P30,REL,FM,M3,81.0810810810811,Hz
PAT,P32,INI,FM,M1,94.28503015677366,Hz
PAT,P32,INI,FM,M2,86.26808626808628,Hz
PAT,P32,INI,FM,M3,80.990080990081,Hz
PAT,P32,REL,FM,M1,121.13133355618324,Hz
PAT,P32,REL,FM,M2,113.47711347711348,Hz
PAT,P32,REL,FM,M3,106.83410683410683,Hz
PAT,P33,INI,FM,M1,43.41087307019171,Hz
PAT,P33,INI,FM,M2,50.414050414050415,Hz
PAT,P33,INI,FM,M3,50.5960505960506,Hz
PAT,P33,REL,FM,M1,67.2547205613338,Hz
PAT,P33,REL,FM,M2,67.7950677950678,Hz
PAT,P33,REL,FM,M3,57.7850577850578,Hz
PAT,P34,INI,FM,M1,87.45929387211953,Hz
PAT,P34,INI,FM,M2,84.53908453908456,Hz
PAT,P34,INI,FM,M3,81.62708162708165,Hz
PAT,P34,REL,FM,M1,82.18074149937878,Hz
PAT,P34,REL,FM,M2,82.71908271908273,Hz
PAT,P34,REL,FM,M3,82.53708253708254,Hz
PAT,P36,INI,FM,M1,83.18083067582067,Hz
PAT,P36,INI,FM,M2,85.26708526708529,Hz
PAT,P36,INI,FM,M3,79.98907998908,Hz
PAT,P36,REL,FM,M1,98.47066961295418,Hz
PAT,P36,REL,FM,M2,97.64309764309768,Hz
PAT,P36,REL,FM,M3,101.3741013741014,Hz
PAT,P41,INI,FM,M1,81.81765295993752,Hz
PAT,P41,INI,FM,M2,79.35207935207936,Hz
PAT,P41,INI,FM,M3,82.35508235508236,Hz
PAT,P41,REL,FM,M1,84.00037858955695,Hz
PAT,P41,REL,FM,M2,79.53407953407954,Hz
PAT,P41,REL,FM,M3,83.993083993084,Hz
PAT,P42,INI,FM,M1,107.75304362478713,Hz
PAT,P42,INI,FM,M2,101.82910182910184,Hz
PAT,P42,INI,FM,M3,102.46610246610248,Hz
PAT,P42,REL,FM,M1,102.38549717507634,Hz
PAT,P42,REL,FM,M2,105.1961051961052,Hz
PAT,P42,REL,FM,M3,104.2861042861043,Hz
PAT,P43,INI,FM,M1,104.6588581658722,Hz
PAT,P43,INI,FM,M2,103.64910364910368,Hz
PAT,P43,INI,FM,M3,99.91809991809993,Hz
PAT,P43,REL,FM,M1,116.6737880164734,Hz
PAT,P43,REL,FM,M2,109.29110929110932,Hz
PAT,P43,REL,FM,M3,110.01911001911004,Hz
PAT,P45,INI,FM,M1,67.71026811106971,Hz
PAT,P45,INI,FM,M2,64.88306488306488,Hz
PAT,P45,INI,FM,M3,65.52006552006554,Hz
PAT,P45,REL,FM,M1,80.90436948152379,Hz
PAT,P45,REL,FM,M2,85.08508508508508,Hz
PAT,P45,REL,FM,M3,82.44608244608246,Hz
PAT,P47,INI,FM,M1,126.77425102274802,Hz
PAT,P47,INI,FM,M2,119.93811993811995,Hz
PAT,P47,INI,FM,M3,115.47911547911548,Hz
PAT,P47,REL,FM,M1,93.19321142968438,Hz
PAT,P47,REL,FM,M2,89.54408954408956,Hz
PAT,P47,REL,FM,M3,89.27108927108928,Hz
PAT,P50,INI,FM,M1,99.83567097795554,Hz
PAT,P50,INI,FM,M2,93.54809354809356,Hz
PAT,P50,INI,FM,M3,80.990080990081,Hz
PAT,P50,REL,FM,M1,95.1953957965982,Hz
PAT,P50,REL,FM,M2,91.09109109109112,Hz
PAT,P50,REL,FM,M3,91.91009191009192,Hz
PAT,P51,INI,FM,M1,67.97980345074534,Hz
PAT,P51,INI,FM,M2,57.23905723905723,Hz
PAT,P51,INI,FM,M3,66.79406679406681,Hz
PAT,P51,REL,FM,M1,57.69934627650059,Hz
PAT,P51,REL,FM,M2,44.68104468104468,Hz
PAT,P51,REL,FM,M3,59.05905905905907,Hz
PAT,P53,INI,FM,M1,110.12086963990772,Hz
PAT,P53,INI,FM,M2,109.10910910910911,Hz
PAT,P53,INI,FM,M3,109.74610974610977,Hz
PAT,P53,REL,FM,M1,108.2082264446994,Hz
PAT,P53,REL,FM,M2,104.46810446810449,Hz
PAT,P53,REL,FM,M3,106.47010647010649,Hz
PAT,P54,INI,FM,M1,99.29076462142596,Hz
PAT,P54,INI,FM,M2,97.27909727909729,Hz
PAT,P54,INI,FM,M3,92.91109291109292,Hz
PAT,P54,REL,FM,M1,92.55529896812465,Hz
PAT,P54,REL,FM,M2,93.36609336609337,Hz
PAT,P54,REL,FM,M3,92.1830921830922,Hz
PAT,P58,INI,FM,M1,99.29131171616142,Hz
PAT,P58,INI,FM,M2,71.07107107107107,Hz
PAT,P58,INI,FM,M3,65.88406588406589,Hz
PAT,P58,REL,FM,M1,97.6518511588652,Hz
PAT,P58,REL,FM,M2,99.8270998270998,Hz
PAT,P58,REL,FM,M3,93.54809354809356,Hz
PAT,P61,REL,FM,M1,75.35573467437196,Hz
PAT,P61,REL,FM,M2,75.71207571207573,Hz
PAT,P61,REL,FM,M3,80.35308035308036,Hz
PAT,P62,INI,FM,M1,74.35382184881183,Hz
PAT,P62,INI,FM,M2,75.25707525707527,Hz
PAT,P62,INI,FM,M3,75.25707525707526,Hz
PAT,P62,REL,FM,M1,79.81455676846458,Hz
PAT,P62,REL,FM,M2,71.07107107107107,Hz
PAT,P62,REL,FM,M3,84.72108472108472,Hz
PAT,P63,INI,FM,M1,85.36082083176272,Hz
PAT,P63,INI,FM,M2,92.36509236509238,Hz
PAT,P63,INI,FM,M3,110.74711074711075,Hz
PAT,P63,REL,FM,M1,114.39732682217654,Hz
PAT,P63,REL,FM,M2,115.47911547911548,Hz
PAT,P63,REL,FM,M3,113.20411320411324,Hz
PAT,P65,INI,FM,M1,91.73575105438834,Hz
PAT,P65,INI,FM,M2,98.09809809809808,Hz
PAT,P65,INI,FM,M3,96.73309673309672,Hz
PAT,P65,REL,FM,M1,113.48769064199928,Hz
PAT,P65,REL,FM,M2,117.20811720811724,Hz
PAT,P65,REL,FM,M3,110.83811083811086,Hz
