Group,Participant,Session,Operator,Measure,Value,Unit
PAT,P09,INI,FM,M1,52.60085235565415,Hz
PAT,P09,INI,FM,M2,53.56265356265356,Hz
PAT,P09,INI,FM,M3,45.914922349763664,Hz
PAT,P09,REL,FM,M1,44.91456468673719,Hz
PAT,P09,REL,FM,M2,52.16637781629115,Hz
PAT,P09,REL,FM,M3,53.222302679217954,Hz
PAT,P10,INI,FM,M1,57.91106514994829,Hz
PAT,P10,INI,FM,M2,56.93430656934307,Hz
PAT,P10,INI,FM,M3,56.33232016210739,Hz
PAT,P10,REL,FM,M1,51.52471083070452,Hz
PAT,P10,REL,FM,M2,44.9859943977591,Hz
PAT,P10,REL,FM,M3,45.45040946314831,Hz
PAT,P11,INI,FM,M1,47.23228142783238,Hz
PAT,P11,INI,FM,M2,59.14285714285714,Hz
PAT,P11,INI,FM,M3,53.2258064516129,Hz
PAT,P11,REL,FM,M1,70.24442902305498,Hz
PAT,P11,REL,FM,M2,71.09004739336493,Hz
PAT,P11,REL,FM,M3,72.85245901639345,Hz
PAT,P12,INI,FM,M1,49.07306434023991,Hz
PAT,P12,INI,FM,M2,51.52054884886865,Hz
PAT,P12,INI,FM,M3,52.8580208973571,Hz
PAT,P12,REL,FM,M1,71.71344165435745,Hz
PAT,P12,REL,FM,M2,69.69528204312196,Hz
PAT,P12,REL,FM,M3,69.7749196141479,Hz
PAT,P14,INI,FM,M1,44.01315789473684,Hz
PAT,P14,INI,FM,M2,32.103497843794926,Hz
PAT,P14,INI,FM,M3,39.490822972172886,Hz
PAT,P14,REL,FM,M1,83.63350579605736,Hz
PAT,P14,REL,FM,M2,34.658298465829844,Hz
PAT,P14,REL,FM,M3,30.454644333260823,Hz
PAT,P17,INI,FM,M1,70.15057573073516,Hz
PAT,P17,INI,FM,M2,62.54268709142355,Hz
PAT,P17,INI,FM,M3,64.49869381136834,Hz
PAT,P17,REL,FM,M1,85.31717747683534,Hz
PAT,P17,REL,FM,M2,84.32708688245314,Hz
PAT,P17,REL,FM,M3,67.04089815557337,Hz
PAT,P24,INI,FM,M1,60.75778078484439,Hz
PAT,P24,INI,FM,M2,63.03854875283447,Hz
PAT,P24,INI,FM,M3,65.11130423156628,Hz
PAT,P24,REL,FM,M1,63.1095406360424,Hz
PAT,P24,REL,FM,M2,68.22003362959404,Hz
PAT,P24,REL,FM,M3,66.91734115097826,Hz
PAT,P26,INI,FM,M1,33.33333333333333,Hz
PAT,P26,INI,FM,M2,35.52532123960695,Hz
PAT,P26,INI,FM,M3,36.472819216182046,Hz
PAT,P26,REL,FM,M1,31.32616487455197,Hz
PAT,P26,REL,FM,M2,36.35944346221847,Hz
PAT,P26,REL,FM,M3,34.43455227724229,Hz
PAT,P27,INI,FM,M1,68.56591018831482,Hz
PAT,P27,INI,FM,M2,67.66138855054811,Hz
PAT,P27,INI,FM,M3,67.27777777777777,Hz
PAT,P27,REL,FM,M1,66.179918279858,Hz
PAT,P27,REL,FM,M2,70.48312375909994,Hz
PAT,P27,REL,FM,M3,61.35637031494456,Hz
PAT,P28,INI,FM,M1,63.2887310546008,Hz
PAT,P28,INI,FM,M2,66.33380884450784,Hz
PAT,P28,INI,FM,M3,72.45019049403535,Hz
PAT,P28,REL,FM,M1,68.78142653175243,Hz
PAT,P28,REL,FM,M2,72.96849087893865,Hz
PAT,P28,REL,FM,M3,73.94847998096257,Hz
PAT,P29,INI,FM,M1,77.49576988155668,Hz
PAT,P29,INI,FM,M2,73.9234238217349,Hz
PAT,P29,INI,FM,M3,70.56646991454497,Hz
PAT,P29,REL,FM,M1,69.38943894389439,Hz
PAT,P29,REL,FM,M2,71.57320186636149,Hz
PAT,P29,REL,FM,M3,72.67957719311781,Hz
PAT,P30,INI,FM,M1,88.8214904679376,Hz
PAT,P30,INI,FM,M2,90.56226723589788,Hz
PAT,P30,INI,FM,M3,84.48108632395731,Hz
PAT,P30,REL,FM,M1,71.91489361702128,Hz
PAT,P30,REL,FM,M2,85.24896089575029,Hz
PAT,P30,REL,FM,M3,99.84338292873925,Hz
PAT,P32,INI,FM,M1,86.60313901345292,Hz
PAT,P32,INI,FM,M2,88.7111545271384,Hz
PAT,P32,INI,FM,M3,83.63784003248071,Hz
PAT,P32,REL,FM,M1,30.568561872909697,Hz
PAT,P32,REL,FM,M2,61.54446177847114,Hz
PAT,P32,REL,FM,M3,46.96627463198068,Hz
PAT,P33,INI,FM,M1,40.897663866576735,Hz
PAT,P33,INI,FM,M2,38.095238095238095,Hz
PAT,P33,INI,FM,M3,36.18090452261306,Hz
PAT,P33,REL,FM,M1,33.31350386674599,Hz
PAT,P33,REL,FM,M2,25.729748913139915,Hz
PAT,P33,REL,FM,M3,36.45793018035452,Hz
PAT,P34,INI,FM,M1,44.23584268973557,Hz
PAT,P34,INI,FM,M2,57.71076079506511,Hz
PAT,P34,INI,FM,M3,47.25092117621559,Hz
PAT,P34,REL,FM,M1,69.36936936936937,Hz
PAT,P34,REL,FM,M2,64.48942042318308,Hz
PAT,P34,REL,FM,M3,63.81031613976706,Hz
PAT,P36,INI,FM,M1,67.37204410733635,Hz
PAT,P36,INI,FM,M2,74.8075577326802,Hz
PAT,P36,INI,FM,M3,68.42649473876286,Hz
PAT,P36,REL,FM,M1,64.26109872288669,Hz
PAT,P36,REL,FM,M2,63.68784423241021,Hz
PAT,P36,REL,FM,M3,63.29787234042553,Hz
PAT,P41,INI,FM,M1,61.01249178172255,Hz
PAT,P41,INI,FM,M2,80.98516573213145,Hz
PAT,P41,INI,FM,M3,77.07166312536218,Hz
PAT,P41,REL,FM,M1,77.80859916782246,Hz
PAT,P41,REL,FM,M2,79.82731554160125,Hz
PAT,P41,REL,FM,M3,76.42533611330792,Hz
PAT,P42,INI,FM,M1,72.7418065547562,Hz
PAT,P42,INI,FM,M2,68.24121575839706,Hz
PAT,P42,INI,FM,M3,70.02457002457002,Hz
PAT,P42,REL,FM,M1,54.3505781078572,Hz
PAT,P42,REL,FM,M2,42.996108949416346,Hz
PAT,P42,REL,FM,M3,47.840419237596144,Hz
PAT,P43,INI,FM,M1,29.62962962962963,Hz
PAT,P43,INI,FM,M2,31.5028901734104,Hz
PAT,P43,INI,FM,M3,77.8584392014519,Hz
PAT,P43,REL,FM,M1,58.723404255319146,Hz
PAT,P43,REL,FM,M2,71.22774133083412,Hz
PAT,P43,REL,FM,M3,74.66621311335999,Hz
PAT,P45,INI,FM,M1,86.496624156039,Hz
PAT,P45,INI,FM,M2,93.04923103359395,Hz
PAT,P45,INI,FM,M3,97.49792262948944,Hz
PAT,P45,REL,FM,M1,93.88233174159836,Hz
PAT,P45,REL,FM,M2,95.3343701399689,Hz
PAT,P45,REL,FM,M3,85.5338254318545,Hz
PAT,P47,INI,FM,M1,32.73010650272751,Hz
PAT,P47,INI,FM,M2,33.43988197688714,Hz
PAT,P47,INI,FM,M3,26.91148643913379,Hz
PAT,P47,REL,FM,M1,61.58940397350994,Hz
PAT,P47,REL,FM,M2,59.69717426945704,Hz
PAT,P47,REL,FM,M3,55.63703024747937,Hz
PAT,P50,INI,FM,M1,35.984777120464216,Hz
PAT,P50,INI,FM,M2,40.268065268065264,Hz
PAT,P50,INI,FM,M3,42.37751199077166,Hz
PAT,P50,REL,FM,M1,39.842431063590325,Hz
PAT,P50,REL,FM,M2,53.71260901458962,Hz
PAT,P50,REL,FM,M3,37.11963168117402,Hz
PAT,P51,INI,FM,M1,75.80110497237568,Hz
PAT,P51,INI,FM,M2,77.87850667428081,Hz
PAT,P51,INI,FM,M3,81.35935822121155,Hz
PAT,P51,REL,FM,M1,96.1229946524064,Hz
PAT,P51,REL,FM,M2,95.13604779531138,Hz
PAT,P51,REL,FM,M3,96.1133069828722,Hz
PAT,P53,INI,FM,M1,92.8878413974768,Hz
PAT,P53,INI,FM,M2,94.66359912462823,Hz
PAT,P53,INI,FM,M3,99.20802286892544,Hz
PAT,P53,REL,FM,M1,114.92100643651258,Hz
PAT,P53,REL,FM,M2,131.85279187817258,Hz
PAT,P53,REL,FM,M3,114.04198681105936,Hz
PAT,P54,INI,FM,M1,69.51444682868406,Hz
PAT,P54,INI,FM,M2,66.64315937940762,Hz
PAT,P54,INI,FM,M3,70.20048414126994,Hz
PAT,P54,REL,FM,M1,48.58701041150223,Hz
PAT,P54,REL,FM,M2,37.55223880597015,Hz
PAT,P54,REL,FM,M3,30.363932645301468,Hz
PAT,P58,INI,FM,M1,92.93729372937293,Hz
PAT,P58,INI,FM,M2,102.9955385595921,Hz
PAT,P58,INI,FM,M3,94.8088690045398,Hz
PAT,P58,REL,FM,M1,92.7319922128488,Hz
PAT,P58,REL,FM,M2,97.30751062824751,Hz
PAT,P58,REL,FM,M3,101.37551581843192,Hz
PAT,P61,INI,FM,M1,43.042071197411,Hz
PAT,P61,INI,FM,M2,61.51249155975691,Hz
PAT,P61,INI,FM,M3,68.13663473703235,Hz
PAT,P61,REL,FM,M1,99.19243005139082,Hz
PAT,P61,REL,FM,M2,106.44362763483608,Hz
PAT,P61,REL,FM,M3,109.73807924781732,Hz
PAT,P62,INI,FM,M1,76.74635652236341,Hz
PAT,P62,INI,FM,M2,56.52892561983471,Hz
PAT,P62,INI,FM,M3,35.31179564237415,Hz
PAT,P62,REL,FM,M1,77.79449508806088,Hz
PAT,P62,REL,FM,M2,35.73035730357304,Hz
PAT,P62,REL,FM,M3,92.82371294851797,Hz
PAT,P63,INI,FM,M1,33.12900337488808,Hz
PAT,P63,INI,FM,M2,66.37998436278342,Hz
PAT,P63,INI,FM,M3,34.68164794007491,Hz
PAT,P63,REL,FM,M1,97.94344473007712,Hz
PAT,P63,REL,FM,M2,87.94788273615636,Hz
PAT,P63,REL,FM,M3,101.36559435432132,Hz
PAT,P65,INI,FM,M1,63.55748373101952,Hz
PAT,P65,INI,FM,M2,65.17857142857143,Hz
PAT,P65,INI,FM,M3,67.09760827407885,Hz
PAT,P65,REL,FM,M1,79.61867192636423,Hz
PAT,P65,REL,FM,M2,60.60825488776248,Hz
PAT,P65,REL,FM,M3,70.04876812971057,Hz
