Group,Participant,Session,Operator,Measure,Value,Unit
CTR,P01,INI,FM,M1,0.00273725301396,V
CTR,P01,INI,FM,M2,0.0031235418765988,V
CTR,P01,INI,FM,M3,0.0041032527960877,V
CTR,P01,REL,FM,M1,0.0044901485815315,V
CTR,P01,REL,FM,M2,0.0030608349930859,V
CTR,P01,REL,FM,M3,0.0061918072572086,V
CTR,P02,INI,FM,M1,0.0040961283399828,V
CTR,P02,INI,FM,M2,0.0047239881570132,V
CTR,P02,INI,FM,M3,0.0044628585125835,V
CTR,P02,REL,FM,M1,0.0033007857814551,V
CTR,P02,REL,FM,M2,0.0030755468753078,V
CTR,P02,REL,FM,M3,0.0027048029946493,V
CTR,P03,INI,FM,M1,0.0033294263665767,V
CTR,P03,INI,FM,M2,0.0029368935022468,V
CTR,P03,INI,FM,M3,0.0028056820955212,V
CTR,P03,REL,FM,M1,0.0033655373096546,V
CTR,P03,REL,FM,M2,0.0033852848479634,V
CTR,P03,REL,FM,M3,0.0036988313835916,V
CTR,P05,INI,FM,M1,,V
CTR,P05,INI,FM,M2,0.0041851386096869,V
CTR,P05,INI,FM,M3,0.0043724935697636,V
CTR,P05,REL,FM,M1,0.0029063225423358,V
CTR,P05,REL,FM,M2,0.0027488246049802,V
CTR,P05,REL,FM,M3,0.0043159991897239,V
CTR,P06,INI,FM,M1,,V
CTR,P06,INI,FM,M2,,V
CTR,P06,INI,FM,M3,0.0017443998215208,V
CTR,P06,REL,FM,M1,,V
CTR,P06,REL,FM,M2,,V
CTR,P06,REL,FM,M3,,V
CTR,P07,INI,FM,M1,0.0045830736462233,V
CTR,P07,INI,FM,M2,0.0036651500338545,V
CTR,P07,INI,FM,M3,0.0040238052037913,V
CTR,P07,REL,FM,M1,0.0026927576646482,V
CTR,P07,REL,FM,M2,0.0028961460248443,V
CTR,P07,REL,FM,M3,0.0027497243303455,V
CTR,P08,INI,FM,M1,0.0041276069510381,V
CTR,P08,INI,FM,M2,0.0037289504848708,V
CTR,P08,INI,FM,M3,0.0036727552333807,V
CTR,P08,REL,FM,M1,,V
CTR,P08,REL,FM,M2,0.0042139917481615,V
CTR,P08,REL,FM,M3,0.0035394002507812,V
CTR,P13,INI,FM,M1,0.0030582300268198,V
CTR,P13,INI,FM,M2,0.0038268362703478,V
CTR,P13,INI,FM,M3,0.0030490343805812,V
CTR,P13,REL,FM,M1,0.0028644328212701,V
CTR,P13,REL,FM,M2,0.0026847182976529,V
CTR,P13,REL,FM,M3,0.0022609613943789,V
CTR,P16,INI,FM,M1,0.0022844597935502,V
CTR,P16,INI,FM,M2,0.0022093454719965,V
CTR,P16,INI,FM,M3,0.0019234373372626,V
CTR,P16,REL,FM,M1,,V
CTR,P16,REL,FM,M2,,V
CTR,P16,REL,FM,M3,0.0050952561860037,V
CTR,P21,INI,FM,M1,0.0024200499744119,V
CTR,P21,INI,FM,M2,0.0025316044040848,V
CTR,P21,INI,FM,M3,0.0023547715304298,V
CTR,P21,REL,FM,M1,0.0043458412356163,V
CTR,P21,REL,FM,M2,0.0062946076582859,V
CTR,P21,REL,FM,M3,0.006550381233589,V
CTR,P22,INI,FM,M1,0.0040515859546533,V
CTR,P22,INI,FM,M2,0.0028142586344572,V
CTR,P22,INI,FM,M3,0.0037371293913864,V
CTR,P22,REL,FM,M1,0.002442722598905,V
CTR,P22,REL,FM,M2,0.0024929453668275,V
CTR,P22,REL,FM,M3,0.0023099178826079,V
CTR,P23,INI,FM,M1,0.0023716808417521,V
CTR,P23,INI,FM,M2,0.0022845815795889,V
CTR,P23,INI,FM,M3,0.0020132769150502,V
CTR,P23,REL,FM,M1,0.0039763738957715,V
CTR,P23,REL,FM,M2,0.0037909195292318,V
CTR,P23,REL,FM,M3,0.0032726142591041,V
CTR,P25,INI,FM,M1,0.0087841057296821,V
CTR,P25,INI,FM,M2,0.0067042025080919,V
CTR,P25,INI,FM,M3,0.0090397028745578,V
CTR,P25,REL,FM,M1,0.0033181129867225,V
CTR,P25,REL,FM,M2,0.007341888697394,V
CTR,P25,REL,FM,M3,0.0094626961575667,V
CTR,P35,INI,FM,M1,,V
CTR,P35,INI,FM,M2,,V
CTR,P35,INI,FM,M3,,V
CTR,P35,REL,FM,M1,,V
CTR,P35,REL,FM,M2,,V
CTR,P35,REL,FM,M3,,V
CTR,P38,INI,FM,M1,0.0041090744858973,V
CTR,P38,INI,FM,M2,0.0039536966842092,V
CTR,P38,INI,FM,M3,0.0038824481309885,V
CTR,P38,REL,FM,M1,0.0044961551225902,V
CTR,P38,REL,FM,M2,0.0041314210676298,V
CTR,P38,REL,FM,M3,0.0035347358363771,V
CTR,P39,INI,FM,M1,0.002768001811055,V
CTR,P39,INI,FM,M2,0.0046988146136685,V
CTR,P39,INI,FM,M3,0.0034033358370231,V
CTR,P39,REL,FM,M1,0.0033626013745588,V
CTR,P39,REL,FM,M2,0.0032779479517913,V
CTR,P39,REL,FM,M3,0.0025720794250781,V
CTR,P40,INI,FM,M1,,V
CTR,P40,INI,FM,M2,,V
CTR,P40,INI,FM,M3,,V
CTR,P40,REL,FM,M1,0.0082365888297812,V
CTR,P40,REL,FM,M2,0.007041930194343,V
CTR,P40,REL,FM,M3,0.0111285279308883,V
CTR,P44,INI,FM,M1,0.0084609988641784,V
CTR,P44,INI,FM,M2,0.0085042755577758,V
CTR,P44,INI,FM,M3,0.008120156832285,V
CTR,P44,REL,FM,M1,,V
CTR,P44,REL,FM,M2,,V
CTR,P44,REL,FM,M3,0.0026163738893307,V
CTR,P46,INI,FM,M1,0.0037599270462429,V
CTR,P46,INI,FM,M2,0.002990654379328,V
CTR,P46,INI,FM,M3,0.0034248268637315,V
CTR,P46,REL,FM,M1,0.0029038929343817,V
CTR,P46,REL,FM,M2,0.00207175203477,V
CTR,P46,REL,FM,M3,,V
CTR,P48,INI,FM,M1,0.0064907617923453,V
CTR,P48,INI,FM,M2,0.004118651385978,V
CTR,P48,INI,FM,M3,0.0042425026053823,V
CTR,P48,REL,FM,M1,0.0032316951036262,V
CTR,P48,REL,FM,M2,0.0032190492667522,V
CTR,P48,REL,FM,M3,0.0039831790313089,V
CTR,P49,INI,FM,M1,,V
CTR,P49,INI,FM,M2,,V
CTR,P49,INI,FM,M3,,V
CTR,P49,REL,FM,M1,0.0043783815131392,V
CTR,P49,REL,FM,M2,0.0042931524955208,V
CTR,P49,REL,FM,M3,0.0038530034482004,V
CTR,P52,INI,FM,M1,0.0058632499761225,V
CTR,P52,INI,FM,M2,0.0049640268458338,V
CTR,P52,INI,FM,M3,0.004370020555305,V
CTR,P52,REL,FM,M1,0.0037611849628437,V
CTR,P52,REL,FM,M2,0.0044334506325957,V
CTR,P52,REL,FM,M3,0.0032408022841572,V
CTR,P55,INI,FM,M1,0.001852537691693,V
CTR,P55,INI,FM,M2,0.0017556448346637,V
CTR,P55,INI,FM,M3,,V
CTR,P55,REL,FM,M1,0.0037087390524203,V
CTR,P55,REL,FM,M2,0.0030982417153448,V
CTR,P55,REL,FM,M3,0.0030412999800506,V
CTR,P56,INI,FM,M1,0.004416881877279,V
CTR,P56,INI,FM,M2,0.0041568022623858,V
CTR,P56,INI,FM,M3,0.0032092299937109,V
CTR,P56,REL,FM,M1,0.0034316274290582,V
CTR,P56,REL,FM,M2,0.0035266918376137,V
CTR,P56,REL,FM,M3,,V
CTR,P57,INI,FM,M1,0.0018398777478971,V
CTR,P57,INI,FM,M2,0.0018927692863236,V
CTR,P57,INI,FM,M3,0.0020032236916364,V
CTR,P57,REL,FM,M1,0.0019367905114581,V
CTR,P57,REL,FM,M2,0.0019186533440811,V
CTR,P57,REL,FM,M3,0.0021725266869669,V
CTR,P60,INI,FM,M1,0.0041228698531731,V
CTR,P60,INI,FM,M2,0.00348812179003,V
CTR,P60,INI,FM,M3,,V
CTR,P60,REL,FM,M1,0.003475119197834,V
CTR,P60,REL,FM,M2,0.0028298675748827,V
CTR,P60,REL,FM,M3,0.0031018511894254,V
CTR,P64,INI,FM,M1,0.006041435127607,V
CTR,P64,INI,FM,M2,0.006158742420292,V
CTR,P64,INI,FM,M3,0.0079981905682628,V
CTR,P64,REL,FM,M1,0.0046326919085571,V
CTR,P64,REL,FM,M2,0.0078580560383505,V
CTR,P64,REL,FM,M3,0.0070904720041774,V
CTR,P66,INI,FM,M1,0.0039028265621819,V
CTR,P66,INI,FM,M2,0.0040101075552854,V
CTR,P66,INI,FM,M3,0.0032969739876385,V
CTR,P66,REL,FM,M1,0.0028074156949859,V
CTR,P66,REL,FM,M2,0.0030511018023552,V
CTR,P66,REL,FM,M3,0.0025511750916556,V
CTR,P67,INI,FM,M1,0.0038163407704506,V
CTR,P67,INI,FM,M2,0.0034846532440057,V
CTR,P67,INI,FM,M3,0.0033661720679938,V
CTR,P67,REL,FM,M1,0.0033294123891049,V
CTR,P67,REL,FM,M2,0.0036505374462852,V
CTR,P67,REL,FM,M3,0.0046797113989027,V
CTR,P68,INI,FM,M1,,V
CTR,P68,INI,FM,M2,,V
CTR,P68,INI,FM,M3,,V
CTR,P68,REL,FM,M1,0.0065140631094602,V
CTR,P68,REL,FM,M2,0.0048535087878548,V
CTR,P68,REL,FM,M3,0.0046100473337828,V
