Group,Participant,Session,Operator,Measure,Value,Unit
PAT,P09,INI,FM,M1,20.030696329353045,%MAX
PAT,P09,INI,FM,M2,15.566082200515135,%MAX
PAT,P09,INI,FM,M3,20.918928927361762,%MAX
PAT,P09,REL,FM,M1,12.218962156290523,%MAX
PAT,P09,REL,FM,M2,13.144586302914483,%MAX
PAT,P09,REL,FM,M3,11.64836405560849,%MAX
PAT,P10,INI,FM,M1,6.806455610603315,%MAX
PAT,P10,INI,FM,M2,7.421187035058288,%MAX
PAT,P10,INI,FM,M3,8.063023785747141,%MAX
PAT,P10,REL,FM,M1,9.117519480300064,%MAX
PAT,P10,REL,FM,M2,9.219225523512003,%MAX
PAT,P10,REL,FM,M3,8.186474517878844,%MAX
PAT,P11,INI,FM,M1,14.344169619636533,%MAX
PAT,P11,INI,FM,M2,11.416921723717238,%MAX
PAT,P11,INI,FM,M3,11.161751630928586,%MAX
PAT,P11,REL,FM,M1,9.676204633361863,%MAX
PAT,P11,REL,FM,M2,10.66766191650347,%MAX
PAT,P11,REL,FM,M3,8.66492100311637,%MAX
PAT,P12,INI,FM,M1,10.925796645631968,%MAX
PAT,P12,INI,FM,M2,11.902566958479213,%MAX
PAT,P12,INI,FM,M3,13.038198029147773,%MAX
PAT,P12,REL,FM,M1,13.546122345812861,%MAX
PAT,P12,REL,FM,M2,16.568781619004472,%MAX
PAT,P12,REL,FM,M3,20.86730248662065,%MAX
PAT,P14,INI,FM,M1,18.04548589904508,%MAX
PAT,P14,INI,FM,M2,20.00002753259964,%MAX
PAT,P14,INI,FM,M3,18.057437521239304,%MAX
PAT,P14,REL,FM,M1,17.0364401394757,%MAX
PAT,P14,REL,FM,M2,14.627799106582142,%MAX
PAT,P14,REL,FM,M3,16.49222077001148,%MAX
PAT,P17,INI,FM,M1,42.9617843881653,%MAX
PAT,P17,INI,FM,M2,35.492680489051246,%MAX
PAT,P17,INI,FM,M3,26.33101255019645,%MAX
PAT,P17,REL,FM,M1,29.41473133106286,%MAX
PAT,P17,REL,FM,M2,18.854927082353004,%MAX
PAT,P17,REL,FM,M3,34.72412453813467,%MAX
PAT,P24,INI,FM,M1,14.000270380664775,%MAX
PAT,P24,INI,FM,M2,13.619144670660905,%MAX
PAT,P24,INI,FM,M3,18.220268288834824,%MAX
PAT,P24,REL,FM,M1,18.83020813350942,%MAX
PAT,P24,REL,FM,M2,15.476847327433166,%MAX
PAT,P24,REL,FM,M3,27.715867951489265,%MAX
PAT,P26,INI,FM,M1,35.73075901291356,%MAX
PAT,P26,INI,FM,M2,33.15523399936168,%MAX
PAT,P26,INI,FM,M3,34.484405758453576,%MAX
PAT,P26,REL,FM,M1,20.582577465152408,%MAX
PAT,P26,REL,FM,M2,18.204635838533733,%MAX
PAT,P26,REL,FM,M3,19.756628436025633,%MAX
PAT,P27,INI,FM,M1,,%MAX
PAT,P27,INI,FM,M2,,%MAX
PAT,P27,INI,FM,M3,,%MAX
PAT,P27,REL,FM,M1,9.739129505866554,%MAX
PAT,P27,REL,FM,M2,7.385850268690355,%MAX
PAT,P27,REL,FM,M3,40.0332482555703,%MAX
PAT,P28,INI,FM,M1,11.904242242057041,%MAX
PAT,P28,INI,FM,M2,18.43476243300492,%MAX
PAT,P28,INI,FM,M3,36.39199320972682,%MAX
PAT,P28,REL,FM,M1,,%MAX
PAT,P28,REL,FM,M2,,%MAX
PAT,P28,REL,FM,M3,,%MAX
PAT,P29,INI,FM,M1,16.457229075176055,%MAX
PAT,P29,INI,FM,M2,20.757429083736504,%MAX
PAT,P29,INI,FM,M3,47.14996450928712,%MAX
PAT,P29,REL,FM,M1,,%MAX
PAT,P29,REL,FM,M2,,%MAX
PAT,P29,REL,FM,M3,,%MAX
PAT,P30,INI,FM,M1,40.280607616938404,%MAX
PAT,P30,INI,FM,M2,28.211740813878627,%MAX
PAT,P30,INI,FM,M3,37.471455792912636,%MAX
PAT,P30,REL,FM,M1,29.17904686738074,%MAX
PAT,P30,REL,FM,M2,42.97545111109452,%MAX
PAT,P30,REL,FM,M3,37.73985267160234,%MAX
PAT,P33,INI,FM,M1,16.010007502507438,%MAX
PAT,P33,INI,FM,M2,18.165627682455753,%MAX
PAT,P33,INI,FM,M3,45.568098815375286,%MAX
PAT,P33,REL,FM,M1,,%MAX
PAT,P33,REL,FM,M2,,%MAX
PAT,P33,REL,FM,M3,,%MAX
PAT,P34,INI,FM,M1,,%MAX
PAT,P34,INI,FM,M2,,%MAX
PAT,P34,INI,FM,M3,,%MAX
PAT,P34,REL,FM,M1,,%MAX
PAT,P34,REL,FM,M2,,%MAX
PAT,P34,REL,FM,M3,,%MAX
PAT,P36,INI,FM,M1,4.742988181198286,%MAX
PAT,P36,INI,FM,M2,9.287907122100657,%MAX
PAT,P36,INI,FM,M3,31.387370944275343,%MAX
PAT,P36,REL,FM,M1,3.8957535885662815,%MAX
PAT,P36,REL,FM,M2,3.296647406826382,%MAX
PAT,P36,REL,FM,M3,21.32667891311306,%MAX
PAT,P42,INI,FM,M1,15.654379387136997,%MAX
PAT,P42,INI,FM,M2,9.008171369650531,%MAX
PAT,P42,INI,FM,M3,8.295577757603413,%MAX
PAT,P42,REL,FM,M1,8.21496552338566,%MAX
PAT,P42,REL,FM,M2,8.257158963398568,%MAX
PAT,P42,REL,FM,M3,45.20052067109833,%MAX
PAT,P43,REL,FM,M1,,%MAX
PAT,P43,REL,FM,M2,,%MAX
PAT,P43,REL,FM,M3,,%MAX
PAT,P45,INI,FM,M1,15.0877081363899,%MAX
PAT,P45,INI,FM,M2,26.82289529498159,%MAX
PAT,P45,INI,FM,M3,49.71568395106583,%MAX
PAT,P45,REL,FM,M1,9.442297382598877,%MAX
PAT,P45,REL,FM,M2,9.38955861118561,%MAX
PAT,P45,REL,FM,M3,8.290595459252755,%MAX
PAT,P47,INI,FM,M1,7.759128948443413,%MAX
PAT,P47,INI,FM,M2,7.781572485504225,%MAX
PAT,P47,INI,FM,M3,7.962318105781746,%MAX
PAT,P47,REL,FM,M1,,%MAX
PAT,P47,REL,FM,M2,,%MAX
PAT,P47,REL,FM,M3,,%MAX
PAT,P50,REL,FM,M1,9.623770711243662,%MAX
PAT,P50,REL,FM,M2,7.323498555914121,%MAX
PAT,P50,REL,FM,M3,7.796568785207586,%MAX
PAT,P51,INI,FM,M1,22.750534228102975,%MAX
PAT,P51,INI,FM,M2,16.041390367546907,%MAX
PAT,P51,INI,FM,M3,19.243562590642245,%MAX
PAT,P51,REL,FM,M1,48.50236653967588,%MAX
PAT,P51,REL,FM,M2,38.236460442739066,%MAX
PAT,P51,REL,FM,M3,44.57039649665612,%MAX
PAT,P53,INI,FM,M1,14.430797639508754,%MAX
PAT,P53,INI,FM,M2,11.300261755934857,%MAX
PAT,P53,INI,FM,M3,8.376934986220368,%MAX
PAT,P53,REL,FM,M1,10.050232292320652,%MAX
PAT,P53,REL,FM,M2,9.182931257754696,%MAX
PAT,P53,REL,FM,M3,30.659955956620138,%MAX
PAT,P58,INI,FM,M1,31.366116988719437,%MAX
PAT,P58,INI,FM,M2,27.13829060454424,%MAX
PAT,P58,INI,FM,M3,22.30833493102318,%MAX
PAT,P58,REL,FM,M1,12.208374878420585,%MAX
PAT,P58,REL,FM,M2,22.87451952556836,%MAX
PAT,P58,REL,FM,M3,36.681146822057556,%MAX
PAT,P61,INI,FM,M1,31.712604453361458,%MAX
PAT,P61,INI,FM,M2,25.934574187096562,%MAX
PAT,P61,INI,FM,M3,44.67778106307316,%MAX
PAT,P61,REL,FM,M1,,%MAX
PAT,P61,REL,FM,M2,,%MAX
PAT,P61,REL,FM,M3,,%MAX
