Group,Participant,Session,Operator,Measure,Value,Unit
PAT,P09,INI,FM,M1,0.006287256600582,V
PAT,P09,INI,FM,M2,0.0025309655565826,V
PAT,P09,INI,FM,M3,0.0020439355587243,V
PAT,P09,REL,FM,M1,0.0054738156485136,V
PAT,P09,REL,FM,M2,0.0031969154180437,V
PAT,P09,REL,FM,M3,0.0026127499984345,V
PAT,P10,INI,FM,M1,0.0070713961703271,V
PAT,P10,INI,FM,M2,0.0027363084715506,V
PAT,P10,INI,FM,M3,0.0026204122874814,V
PAT,P10,REL,FM,M1,0.0128404190549208,V
PAT,P10,REL,FM,M2,0.0042326301513449,V
PAT,P10,REL,FM,M3,0.0029293287891507,V
PAT,P11,INI,FM,M1,0.0026105013127432,V
PAT,P11,INI,FM,M2,0.0028152514418286,V
PAT,P11,INI,FM,M3,0.0026659440441324,V
PAT,P11,REL,FM,M1,0.0024397477742024,V
PAT,P11,REL,FM,M2,0.0027607937721167,V
PAT,P11,REL,FM,M3,0.0023519926118415,V
PAT,P12,INI,FM,M1,0.005898556559854,V
PAT,P12,INI,FM,M2,0.0059775332343691,V
PAT,P12,INI,FM,M3,0.0061824327102458,V
PAT,P12,REL,FM,M1,0.0078241183176244,V
PAT,P12,REL,FM,M2,0.0079129682189467,V
PAT,P12,REL,FM,M3,0.0070154913903425,V
PAT,P14,INI,FM,M1,0.0069694775970331,V
PAT,P14,INI,FM,M2,0.0056508304743933,V
PAT,P14,INI,FM,M3,0.0053713791816166,V
PAT,P14,REL,FM,M1,0.0125734835312416,V
PAT,P14,REL,FM,M2,0.0079836656232589,V
PAT,P14,REL,FM,M3,0.0068759432220741,V
PAT,P17,INI,FM,M1,0.0027341754788233,V
PAT,P17,INI,FM,M2,0.0026850793307798,V
PAT,P17,INI,FM,M3,0.004850402444097,V
PAT,P17,REL,FM,M1,0.0186186487060338,V
PAT,P17,REL,FM,M2,0.0177942392126632,V
PAT,P17,REL,FM,M3,0.0169607315191334,V
PAT,P24,INI,FM,M1,0.0150038779623771,V
PAT,P24,INI,FM,M2,0.0063673289638203,V
PAT,P24,INI,FM,M3,0.0037758534905221,V
PAT,P24,REL,FM,M1,0.0177287448378803,V
PAT,P24,REL,FM,M2,0.0112293329650281,V
PAT,P24,REL,FM,M3,0.010266669726961,V
PAT,P26,INI,FM,M1,0.0034497424160422,V
PAT,P26,INI,FM,M2,0.0031649963863859,V
PAT,P26,INI,FM,M3,0.0028962031418247,V
PAT,P26,REL,FM,M1,0.0054382646239169,V
PAT,P26,REL,FM,M2,0.0034471496596816,V
PAT,P26,REL,FM,M3,0.0035940640593902,V
PAT,P27,INI,FM,M1,0.0120548967839536,V
PAT,P27,INI,FM,M2,0.0135076725237893,V
PAT,P27,INI,FM,M3,0.0070361976929295,V
PAT,P27,REL,FM,M1,0.0116800288656611,V
PAT,P27,REL,FM,M2,0.0093564762421991,V
PAT,P27,REL,FM,M3,0.0121590386478969,V
PAT,P28,INI,FM,M1,0.00921358928161,V
PAT,P28,INI,FM,M2,0.0071661445432868,V
PAT,P28,INI,FM,M3,0.0060990270238634,V
PAT,P28,REL,FM,M1,0.0131351342212765,V
PAT,P28,REL,FM,M2,0.0121796802409556,V
PAT,P28,REL,FM,M3,0.0089090956947691,V
PAT,P29,INI,FM,M1,0.0125805793608123,V
PAT,P29,INI,FM,M2,0.0060155026962277,V
PAT,P29,INI,FM,M3,0.0091387902642803,V
PAT,P29,REL,FM,M1,0.0071621208931739,V
PAT,P29,REL,FM,M2,0.0035343769884169,V
PAT,P29,REL,FM,M3,0.0037249592172878,V
PAT,P30,INI,FM,M1,0.0055173925414379,V
PAT,P30,INI,FM,M2,0.0057729441817709,V
PAT,P30,INI,FM,M3,0.006093437622894,V
PAT,P30,REL,FM,M1,0.0106586098988218,V
PAT,P30,REL,FM,M2,0.0076185620869444,V
PAT,P30,REL,FM,M3,0.0068344784353488,V
PAT,P32,INI,FM,M1,0.0046143303751051,V
PAT,P32,INI,FM,M2,0.0053881394490831,V
PAT,P32,INI,FM,M3,0.0035500595305931,V
PAT,P32,REL,FM,M1,0.008750734442999,V
PAT,P32,REL,FM,M2,0.0088784477933243,V
PAT,P32,REL,FM,M3,0.0035842012920533,V
PAT,P33,INI,FM,M1,0.008464907296623,V
PAT,P33,INI,FM,M2,0.0076783650320762,V
PAT,P33,INI,FM,M3,0.0074990718378644,V
PAT,P33,REL,FM,M1,0.006567726922751,V
PAT,P33,REL,FM,M2,0.0069555610728695,V
PAT,P33,REL,FM,M3,0.0072279311881068,V
PAT,P34,INI,FM,M1,0.002899520067237,V
PAT,P34,INI,FM,M2,0.0032331712210998,V
PAT,P34,INI,FM,M3,0.0032798333882756,V
PAT,P34,REL,FM,M1,0.0024217709485924,V
PAT,P34,REL,FM,M2,0.0026531601562606,V
PAT,P34,REL,FM,M3,0.0025710278563258,V
PAT,P36,INI,FM,M1,0.0259167848380891,V
PAT,P36,INI,FM,M2,0.0220353147659269,V
PAT,P36,INI,FM,M3,0.0214010608280532,V
PAT,P41,INI,FM,M1,0.0071653254247863,V
PAT,P41,INI,FM,M2,0.0035900049295233,V
PAT,P41,INI,FM,M3,0.0024443996167167,V
PAT,P41,REL,FM,M1,0.0099187971551283,V
PAT,P41,REL,FM,M2,0.0048741858814663,V
PAT,P41,REL,FM,M3,0.0037100718426251,V
PAT,P42,INI,FM,M1,0.0076397375757547,V
PAT,P42,INI,FM,M2,0.0069101037379651,V
PAT,P42,INI,FM,M3,0.0062647493452356,V
PAT,P42,REL,FM,M1,0.0082954910012693,V
PAT,P42,REL,FM,M2,0.0044922934430639,V
PAT,P42,REL,FM,M3,0.0044350563859898,V
PAT,P43,INI,FM,M1,0.0036837536137987,V
PAT,P43,INI,FM,M2,0.0026809922999376,V
PAT,P43,INI,FM,M3,0.0027379394990433,V
PAT,P43,REL,FM,M1,0.0035190739296223,V
PAT,P43,REL,FM,M2,0.0034214217885839,V
PAT,P43,REL,FM,M3,0.0033309192678779,V
PAT,P45,INI,FM,M1,0.0046639758453923,V
PAT,P45,INI,FM,M2,0.0033371421529128,V
PAT,P45,INI,FM,M3,0.0026343286871032,V
PAT,P45,REL,FM,M1,0.0026258061143627,V
PAT,P45,REL,FM,M2,0.0022360723828773,V
PAT,P45,REL,FM,M3,0.0021753808897222,V
PAT,P47,INI,FM,M1,0.0146843004130846,V
PAT,P47,INI,FM,M2,0.0196139759819356,V
PAT,P47,INI,FM,M3,0.015441615052516,V
PAT,P47,REL,FM,M1,0.011716711775109,V
PAT,P47,REL,FM,M2,0.0112997691684338,V
PAT,P47,REL,FM,M3,0.0116585196826229,V
PAT,P50,INI,FM,M1,0.0095527606594508,V
PAT,P50,INI,FM,M2,0.0067232627155216,V
PAT,P50,INI,FM,M3,,V
PAT,P50,REL,FM,M1,,V
PAT,P50,REL,FM,M2,,V
PAT,P50,REL,FM,M3,,V
PAT,P51,INI,FM,M1,0.0093724511740031,V
PAT,P51,INI,FM,M2,0.0078096218165986,V
PAT,P51,INI,FM,M3,0.0081606537334328,V
PAT,P51,REL,FM,M1,0.0087905235113652,V
PAT,P51,REL,FM,M2,0.0077478713356364,V
PAT,P51,REL,FM,M3,0.009955080784071,V
PAT,P53,INI,FM,M1,0.017224701767392,V
PAT,P53,INI,FM,M2,0.0183030158615196,V
PAT,P53,INI,FM,M3,,V
PAT,P53,REL,FM,M1,0.0172811357426006,V
PAT,P53,REL,FM,M2,0.0159815056804205,V
PAT,P53,REL,FM,M3,0.01504140193006,V
PAT,P54,INI,FM,M1,0.0026369947410296,V
PAT,P54,INI,FM,M2,0.0025745783106692,V
PAT,P54,INI,FM,M3,0.0026651687303521,V
PAT,P54,REL,FM,M1,0.0029229835821674,V
PAT,P54,REL,FM,M2,0.002984721307971,V
PAT,P54,REL,FM,M3,0.0031468612805451,V
PAT,P58,INI,FM,M1,0.0053967108090606,V
PAT,P58,INI,FM,M2,0.0061561465538674,V
PAT,P58,INI,FM,M3,0.0058908719787278,V
PAT,P58,REL,FM,M1,,V
PAT,P58,REL,FM,M2,,V
PAT,P58,REL,FM,M3,,V
PAT,P61,INI,FM,M1,0.0026600528663475,V
PAT,P61,INI,FM,M2,0.0024002657631241,V
PAT,P61,INI,FM,M3,0.0045590129219044,V
PAT,P61,REL,FM,M1,0.0027075926566834,V
PAT,P61,REL,FM,M2,0.0024884938018504,V
PAT,P61,REL,FM,M3,0.002505960312514,V
PAT,P62,INI,FM,M1,,V
PAT,P62,INI,FM,M2,,V
PAT,P62,INI,FM,M3,,V
PAT,P62,REL,FM,M1,0.0207922981004434,V
PAT,P62,REL,FM,M2,0.0178492339537013,V
PAT,P62,REL,FM,M3,0.0191320073330214,V
PAT,P63,INI,FM,M1,0.0168240061511313,V
PAT,P63,INI,FM,M2,0.0064656676472691,V
PAT,P63,INI,FM,M3,0.0082111643316345,V
PAT,P63,REL,FM,M1,0.0026769157108275,V
PAT,P63,REL,FM,M2,0.0020345408616924,V
PAT,P63,REL,FM,M3,0.0027787574486691,V
PAT,P65,INI,FM,M1,0.0079339181301293,V
PAT,P65,INI,FM,M2,0.0030856030571838,V
PAT,P65,INI,FM,M3,0.0032326125321416,V
PAT,P65,REL,FM,M1,0.0104362409452465,V
PAT,P65,REL,FM,M2,0.0051662323061099,V
PAT,P65,REL,FM,M3,0.0040158944559544,V
