Group,Participant,Session,Operator,Measure,Value,Unit
CTR,P01,INI,FM,MEAN,24.61682646324135,%subMVIC
CTR,P02,INI,FM,MEAN,9.336712704182863,%subMVIC
CTR,P03,INI,FM,MEAN,23.40580482541027,%subMVIC
CTR,P05,INI,FM,MEAN,11.609222383168202,%subMVIC
CTR,P06,INI,FM,MEAN,40.29941540220192,%subMVIC
CTR,P07,INI,FM,MEAN,8.048262019631245,%subMVIC
CTR,P08,INI,FM,MEAN,32.617511101703336,%subMVIC
PAT,P09,INI,FM,MEAN,10.941206373764166,%subMVIC
PAT,P10,INI,FM,MEAN,41.82712557445699,%subMVIC
PAT,P11,INI,FM,MEAN,10.378517410278423,%subMVIC
PAT,P12,INI,FM,MEAN,40.04127733316327,%subMVIC
CTR,P13,INI,FM,MEAN,26.819374407946157,%subMVIC
PAT,P14,INI,FM,MEAN,16.41367718655794,%subMVIC
CTR,P16,INI,FM,MEAN,36.44052517122461,%subMVIC
PAT,P17,INI,FM,MEAN,14.295486491867967,%subMVIC
CTR,P21,INI,FM,MEAN,12.538400322651762,%subMVIC
CTR,P22,INI,FM,MEAN,25.519927653428383,%subMVIC
CTR,P23,INI,FM,MEAN,16.074648625609967,%subMVIC
PAT,P24,INI,FM,MEAN,46.015966443336445,%subMVIC
CTR,P25,INI,FM,MEAN,19.21104413333368,%subMVIC
PAT,P26,INI,FM,MEAN,17.82092771131129,%subMVIC
PAT,P27,INI,FM,MEAN,16.152601362809033,%subMVIC
PAT,P28,INI,FM,MEAN,15.49382810203818,%subMVIC
PAT,P29,INI,FM,MEAN,9.170114298537944,%subMVIC
PAT,P30,INI,FM,MEAN,13.639043255579018,%subMVIC
PAT,P32,INI,FM,MEAN,8.651007671594696,%subMVIC
PAT,P33,INI,FM,MEAN,6.717380816156175,%subMVIC
PAT,P34,INI,FM,MEAN,20.463188576391687,%subMVIC
CTR,P35,INI,FM,MEAN,13.370192330129736,%subMVIC
PAT,P36,INI,FM,MEAN,9.562126122205052,%subMVIC
CTR,P38,INI,FM,MEAN,20.43731940428631,%subMVIC
CTR,P39,INI,FM,MEAN,12.432146226584186,%subMVIC
CTR,P40,INI,FM,MEAN,18.12204039269988,%subMVIC
PAT,P41,INI,FM,MEAN,18.292382169059398,%subMVIC
PAT,P42,INI,FM,MEAN,23.886351925643908,%subMVIC
PAT,P43,INI,FM,MEAN,10.023343008995884,%subMVIC
CTR,P44,INI,FM,MEAN,26.68256344084225,%subMVIC
PAT,P45,INI,FM,MEAN,13.935481016175489,%subMVIC
CTR,P46,INI,FM,MEAN,11.755880126849329,%subMVIC
PAT,P47,INI,FM,MEAN,21.5425320302232,%subMVIC
CTR,P48,INI,FM,MEAN,8.769457838859973,%subMVIC
CTR,P49,INI,FM,MEAN,18.494478610270143,%subMVIC
PAT,P50,INI,FM,MEAN,18.386666850031787,%subMVIC
PAT,P51,INI,FM,MEAN,9.35399893240274,%subMVIC
CTR,P52,INI,FM,MEAN,3.9031541755713968,%subMVIC
PAT,P53,INI,FM,MEAN,10.087512782216724,%subMVIC
PAT,P54,INI,FM,MEAN,44.60730170717024,%subMVIC
CTR,P55,INI,FM,MEAN,11.53815909240836,%subMVIC
CTR,P56,INI,FM,MEAN,13.297555426352185,%subMVIC
CTR,P57,INI,FM,MEAN,7.278034062772089,%subMVIC
PAT,P58,INI,FM,MEAN,24.280399321601667,%subMVIC
CTR,P60,INI,FM,MEAN,6.199391549696902,%subMVIC
PAT,P62,INI,FM,MEAN,6.457617404302972,%subMVIC
PAT,P63,INI,FM,MEAN,10.49575229881113,%subMVIC
CTR,P64,INI,FM,MEAN,7.260237529156465,%subMVIC
PAT,P65,INI,FM,MEAN,20.903068780925413,%subMVIC
CTR,P66,INI,FM,MEAN,13.624838097987018,%subMVIC
CTR,P67,INI,FM,MEAN,6.948828191053033,%subMVIC
CTR,P68,INI,FM,MEAN,14.466530875276687,%subMVIC
