BM,subject,P_C,session,task,repetition,channel,value
BMu119,1,C,INI,Endurance_Sorensen,1,L_LES,29.744267061974625
BMu119,1,C,INI,Endurance_Sorensen,1,R_LES,9.135394222754302
BMu119,1,C,REL,Endurance_Sorensen,1,L_LES,23.184286679449407
BMu119,1,C,REL,Endurance_Sorensen,1,R_LES,9.76530454583718
BMu119,2,C,INI,Endurance_Sorensen,1,L_LES,11.9454911369598
BMu119,2,C,INI,Endurance_Sorensen,1,R_LES,10.914814863498652
BMu119,2,C,REL,Endurance_Sorensen,1,L_LES,7.848045921169221
BMu119,2,C,REL,Endurance_Sorensen,1,R_LES,11.276646348649885
BMu119,3,C,INI,Endurance_Sorensen,1,L_LES,8.435518467194429
BMu119,3,C,INI,Endurance_Sorensen,1,R_LES,16.742465829846566
BMu119,3,C,REL,Endurance_Sorensen,1,L_LES,11.508436788176871
BMu119,3,C,REL,Endurance_Sorensen,1,R_LES,22.03786153252257
BMu119,5,C,INI,Endurance_Sorensen,1,L_LES,17.414114882338925
BMu119,5,C,INI,Endurance_Sorensen,1,R_LES,16.165502495919938
BMu119,5,C,REL,Endurance_Sorensen,1,L_LES,19.41663564306936
BMu119,5,C,REL,Endurance_Sorensen,1,R_LES,12.132423559902936
BMu119,6,C,INI,Endurance_Sorensen,1,L_LES,9.812618674563161
BMu119,6,C,INI,Endurance_Sorensen,1,R_LES,10.382320140227073
BMu119,6,C,REL,Endurance_Sorensen,1,L_LES,13.416459597101962
BMu119,6,C,REL,Endurance_Sorensen,1,R_LES,10.886327738231321
BMu119,7,C,INI,Endurance_Sorensen,1,L_LES,12.52994206157859
BMu119,7,C,INI,Endurance_Sorensen,1,R_LES,9.704137511494839
BMu119,7,C,REL,Endurance_Sorensen,1,L_LES,14.403396913239703
BMu119,7,C,REL,Endurance_Sorensen,1,R_LES,6.715653918836483
BMu119,8,C,INI,Endurance_Sorensen,1,L_LES,13.871217368099046
BMu119,8,C,INI,Endurance_Sorensen,1,R_LES,6.873781433693241
BMu119,8,C,REL,Endurance_Sorensen,1,L_LES,12.66918607803409
BMu119,8,C,REL,Endurance_Sorensen,1,R_LES,8.759844922045497
BMu119,9,P,INI,Endurance_Sorensen,1,L_LES,16.96614525787861
BMu119,9,P,INI,Endurance_Sorensen,1,R_LES,18.81286291922386
BMu119,9,P,REL,Endurance_Sorensen,1,L_LES,14.913395423766456
BMu119,9,P,REL,Endurance_Sorensen,1,R_LES,15.004552431723702
BMu119,10,P,INI,Endurance_Sorensen,1,L_LES,26.229185828154094
BMu119,10,P,INI,Endurance_Sorensen,1,R_LES,15.051026966113925
BMu119,10,P,REL,Endurance_Sorensen,1,L_LES,20.328436840226924
BMu119,10,P,REL,Endurance_Sorensen,1,R_LES,16.206432997351104
BMu119,11,P,INI,Endurance_Sorensen,1,L_LES,19.63232815044861
BMu119,11,P,INI,Endurance_Sorensen,1,R_LES,39.2456109227381
BMu119,11,P,REL,Endurance_Sorensen,1,L_LES,8.842267891010247
BMu119,11,P,REL,Endurance_Sorensen,1,R_LES,0.9501016231274674
BMu119,12,P,INI,Endurance_Sorensen,1,L_LES,12.394728008285764
BMu119,12,P,INI,Endurance_Sorensen,1,R_LES,9.98476730509342
BMu119,12,P,REL,Endurance_Sorensen,1,L_LES,14.844933831655165
BMu119,12,P,REL,Endurance_Sorensen,1,R_LES,7.276366457202806
BMu119,13,C,INI,Endurance_Sorensen,1,L_LES,13.039052054478026
BMu119,13,C,INI,Endurance_Sorensen,1,R_LES,16.420297418910128
BMu119,13,C,REL,Endurance_Sorensen,1,L_LES,14.509186691408896
BMu119,13,C,REL,Endurance_Sorensen,1,R_LES,11.432041533235585
BMu119,14,P,INI,Endurance_Sorensen,1,L_LES,15.846890068566994
BMu119,14,P,INI,Endurance_Sorensen,1,R_LES,17.341610070969217
BMu119,14,P,REL,Endurance_Sorensen,1,L_LES,13.457452189442563
BMu119,14,P,REL,Endurance_Sorensen,1,R_LES,16.586133961123924
BMu119,16,C,INI,Endurance_Sorensen,1,L_LES,14.202167906919442
BMu119,16,C,INI,Endurance_Sorensen,1,R_LES,11.404140605113
BMu119,16,C,REL,Endurance_Sorensen,1,L_LES,11.485489978968564
BMu119,16,C,REL,Endurance_Sorensen,1,R_LES,7.811558447410244
BMu119,17,P,INI,Endurance_Sorensen,1,L_LES,12.84676678400251
BMu119,17,P,INI,Endurance_Sorensen,1,R_LES,-5.190322451348103
BMu119,17,P,REL,Endurance_Sorensen,1,L_LES,-0.00025929563180949143
BMu119,17,P,REL,Endurance_Sorensen,1,R_LES,6.333633671476192
BMu119,21,C,INI,Endurance_Sorensen,1,L_LES,15.494195903638074
BMu119,21,C,INI,Endurance_Sorensen,1,R_LES,9.95808127426589
BMu119,21,C,REL,Endurance_Sorensen,1,L_LES,18.336947377099452
BMu119,21,C,REL,Endurance_Sorensen,1,R_LES,14.85717216230028
BMu119,22,C,INI,Endurance_Sorensen,1,L_LES,13.41775748129945
BMu119,22,C,INI,Endurance_Sorensen,1,R_LES,12.850604622777867
BMu119,22,C,REL,Endurance_Sorensen,1,L_LES,14.291938946788392
BMu119,22,C,REL,Endurance_Sorensen,1,R_LES,8.695829922952619
BMu119,23,C,INI,Endurance_Sorensen,1,L_LES,1.4434581331006489
BMu119,23,C,INI,Endurance_Sorensen,1,R_LES,13.969901305159157
BMu119,23,C,REL,Endurance_Sorensen,1,L_LES,3.539195237307148
BMu119,23,C,REL,Endurance_Sorensen,1,R_LES,7.782900488329689
BMu119,24,P,INI,Endurance_Sorensen,1,L_LES,14.988326577162098
BMu119,24,P,INI,Endurance_Sorensen,1,R_LES,13.33021588836341
BMu119,24,P,REL,Endurance_Sorensen,1,L_LES,7.460987490776341
BMu119,24,P,REL,Endurance_Sorensen,1,R_LES,0.9278357653281802
BMu119,25,C,INI,Endurance_Sorensen,1,L_LES,19.81175095951125
BMu119,25,C,INI,Endurance_Sorensen,1,R_LES,18.10435448728651
BMu119,25,C,REL,Endurance_Sorensen,1,L_LES,23.615588410964005
BMu119,25,C,REL,Endurance_Sorensen,1,R_LES,13.211067794415035
BMu119,26,P,INI,Endurance_Sorensen,1,L_LES,21.661261224560842
BMu119,26,P,INI,Endurance_Sorensen,1,R_LES,16.215913821756107
BMu119,26,P,REL,Endurance_Sorensen,1,L_LES,19.541203028459037
BMu119,26,P,REL,Endurance_Sorensen,1,R_LES,14.446965932158545
BMu119,27,P,INI,Endurance_Sorensen,1,L_LES,25.582151455837064
BMu119,27,P,INI,Endurance_Sorensen,1,R_LES,19.429766180584714
BMu119,27,P,REL,Endurance_Sorensen,1,L_LES,29.364396136502968
BMu119,27,P,REL,Endurance_Sorensen,1,R_LES,22.87940756414331
BMu119,28,P,INI,Endurance_Sorensen,1,L_LES,15.489313469245948
BMu119,28,P,INI,Endurance_Sorensen,1,R_LES,15.030727815077599
BMu119,28,P,REL,Endurance_Sorensen,1,L_LES,17.677647543136374
BMu119,28,P,REL,Endurance_Sorensen,1,R_LES,15.540587677883211
BMu119,29,P,INI,Endurance_Sorensen,1,L_LES,34.99823703316543
BMu119,29,P,INI,Endurance_Sorensen,1,R_LES,22.705161651426383
BMu119,29,P,REL,Endurance_Sorensen,1,L_LES,24.357628726834253
BMu119,29,P,REL,Endurance_Sorensen,1,R_LES,23.308761114318038
BMu119,30,P,INI,Endurance_Sorensen,1,L_LES,10.495603606266098
BMu119,30,P,INI,Endurance_Sorensen,1,R_LES,9.664949602301338
BMu119,30,P,REL,Endurance_Sorensen,1,L_LES,15.72801199228465
BMu119,30,P,REL,Endurance_Sorensen,1,R_LES,8.056406242815271
BMu119,32,P,INI,Endurance_Sorensen,1,L_LES,21.80598629623166
BMu119,32,P,INI,Endurance_Sorensen,1,R_LES,20.60409275668069
BMu119,32,P,REL,Endurance_Sorensen,1,L_LES,18.74992094940399
BMu119,32,P,REL,Endurance_Sorensen,1,R_LES,15.390160892238647
BMu119,33,P,INI,Endurance_Sorensen,1,L_LES,-6.7496725326108145
BMu119,33,P,INI,Endurance_Sorensen,1,R_LES,-1.8059147329838445
BMu119,33,P,REL,Endurance_Sorensen,1,L_LES,3.840065376785076
BMu119,33,P,REL,Endurance_Sorensen,1,R_LES,-1.2844068545868108
BMu119,34,P,INI,Endurance_Sorensen,1,L_LES,20.01579611472954
BMu119,34,P,INI,Endurance_Sorensen,1,R_LES,16.997822172303515
BMu119,34,P,REL,Endurance_Sorensen,1,L_LES,17.266622554197344
BMu119,34,P,REL,Endurance_Sorensen,1,R_LES,19.793513312901585
BMu119,35,C,INI,Endurance_Sorensen,1,L_LES,9.426098532402435
BMu119,35,C,INI,Endurance_Sorensen,1,R_LES,10.366440731030918
BMu119,35,C,REL,Endurance_Sorensen,1,L_LES,13.032634874598413
BMu119,35,C,REL,Endurance_Sorensen,1,R_LES,12.968281576312641
BMu119,36,P,INI,Endurance_Sorensen,1,L_LES,10.31690411559373
BMu119,36,P,INI,Endurance_Sorensen,1,R_LES,12.317532546082315
BMu119,36,P,REL,Endurance_Sorensen,1,L_LES,13.787562920212192
BMu119,36,P,REL,Endurance_Sorensen,1,R_LES,8.60639254769747
BMu119,38,C,INI,Endurance_Sorensen,1,L_LES,18.343413423083934
BMu119,38,C,INI,Endurance_Sorensen,1,R_LES,-3.0770216899963945
BMu119,38,C,REL,Endurance_Sorensen,1,L_LES,18.930848050259048
BMu119,38,C,REL,Endurance_Sorensen,1,R_LES,15.487634206266979
BMu119,39,C,INI,Endurance_Sorensen,1,L_LES,16.01828959993235
BMu119,39,C,INI,Endurance_Sorensen,1,R_LES,19.470776556122843
BMu119,39,C,REL,Endurance_Sorensen,1,L_LES,6.743667007390836
BMu119,39,C,REL,Endurance_Sorensen,1,R_LES,14.3538427239789
BMu119,40,C,INI,Endurance_Sorensen,1,L_LES,22.448741781535514
BMu119,40,C,INI,Endurance_Sorensen,1,R_LES,16.393005993786986
BMu119,40,C,REL,Endurance_Sorensen,1,L_LES,22.599137452615697
BMu119,40,C,REL,Endurance_Sorensen,1,R_LES,21.333748193458216
BMu119,41,P,INI,Endurance_Sorensen,1,L_LES,13.987989662108403
BMu119,41,P,INI,Endurance_Sorensen,1,R_LES,10.693279097039555
BMu119,41,P,REL,Endurance_Sorensen,1,L_LES,11.81502972403614
BMu119,41,P,REL,Endurance_Sorensen,1,R_LES,7.514880031179542
BMu119,42,P,INI,Endurance_Sorensen,1,L_LES,15.247958948190659
BMu119,42,P,INI,Endurance_Sorensen,1,R_LES,17.31488309524002
BMu119,42,P,REL,Endurance_Sorensen,1,L_LES,12.068538496560645
BMu119,42,P,REL,Endurance_Sorensen,1,R_LES,13.86976451490028
BMu119,43,P,INI,Endurance_Sorensen,1,L_LES,15.239797120926056
BMu119,43,P,INI,Endurance_Sorensen,1,R_LES,10.215711146342537
BMu119,43,P,REL,Endurance_Sorensen,1,L_LES,20.83084814034826
BMu119,43,P,REL,Endurance_Sorensen,1,R_LES,9.537875261496653
BMu119,44,C,INI,Endurance_Sorensen,1,L_LES,15.595888479912203
BMu119,44,C,INI,Endurance_Sorensen,1,R_LES,20.86048203277857
BMu119,44,C,REL,Endurance_Sorensen,1,L_LES,13.750891279362103
BMu119,44,C,REL,Endurance_Sorensen,1,R_LES,17.319658920083544
BMu119,45,P,INI,Endurance_Sorensen,1,L_LES,9.903928354653598
BMu119,45,P,INI,Endurance_Sorensen,1,R_LES,9.519835937329692
BMu119,45,P,REL,Endurance_Sorensen,1,L_LES,9.311620062624964
BMu119,45,P,REL,Endurance_Sorensen,1,R_LES,11.602579280814139
BMu119,46,C,INI,Endurance_Sorensen,1,L_LES,11.832222203317203
BMu119,46,C,INI,Endurance_Sorensen,1,R_LES,6.474091115246468
BMu119,46,C,REL,Endurance_Sorensen,1,L_LES,15.184496908370502
BMu119,46,C,REL,Endurance_Sorensen,1,R_LES,9.620667286053388
BMu119,47,P,INI,Endurance_Sorensen,1,L_LES,12.39787364945329
BMu119,47,P,INI,Endurance_Sorensen,1,R_LES,17.699369101819535
BMu119,47,P,REL,Endurance_Sorensen,1,L_LES,13.060983460835653
BMu119,47,P,REL,Endurance_Sorensen,1,R_LES,13.97635584996908
BMu119,48,C,INI,Endurance_Sorensen,1,L_LES,13.389115742181492
BMu119,48,C,INI,Endurance_Sorensen,1,R_LES,14.620190219286235
BMu119,48,C,REL,Endurance_Sorensen,1,L_LES,17.280552813437545
BMu119,48,C,REL,Endurance_Sorensen,1,R_LES,17.4349636431611
BMu119,49,C,INI,Endurance_Sorensen,1,L_LES,22.820523160318313
BMu119,49,C,INI,Endurance_Sorensen,1,R_LES,20.193908651466163
BMu119,49,C,REL,Endurance_Sorensen,1,L_LES,19.423261543693584
BMu119,49,C,REL,Endurance_Sorensen,1,R_LES,19.86331263849646
BMu119,50,P,INI,Endurance_Sorensen,1,L_LES,35.36965944159663
BMu119,50,P,INI,Endurance_Sorensen,1,R_LES,31.496095692710806
BMu119,50,P,REL,Endurance_Sorensen,1,L_LES,33.39568522937008
BMu119,50,P,REL,Endurance_Sorensen,1,R_LES,33.20879153494501
BMu119,51,P,INI,Endurance_Sorensen,1,L_LES,11.344199468822904
BMu119,51,P,INI,Endurance_Sorensen,1,R_LES,15.068331589328963
BMu119,51,P,REL,Endurance_Sorensen,1,L_LES,13.779229722205372
BMu119,51,P,REL,Endurance_Sorensen,1,R_LES,17.744278473297943
BMu119,52,C,INI,Endurance_Sorensen,1,L_LES,24.065607311184092
BMu119,52,C,INI,Endurance_Sorensen,1,R_LES,20.799063622960645
BMu119,52,C,REL,Endurance_Sorensen,1,L_LES,11.91441443089257
BMu119,52,C,REL,Endurance_Sorensen,1,R_LES,8.29340493101788
BMu119,53,P,INI,Endurance_Sorensen,1,L_LES,3.469955330451027
BMu119,53,P,INI,Endurance_Sorensen,1,R_LES,17.57296445518193
BMu119,53,P,REL,Endurance_Sorensen,1,L_LES,8.903742254125673
BMu119,53,P,REL,Endurance_Sorensen,1,R_LES,9.499211385855167
BMu119,54,P,INI,Endurance_Sorensen,1,L_LES,12.553816425456308
BMu119,54,P,INI,Endurance_Sorensen,1,R_LES,15.413203212806023
BMu119,54,P,REL,Endurance_Sorensen,1,L_LES,6.725105121171152
BMu119,54,P,REL,Endurance_Sorensen,1,R_LES,14.177372221083827
BMu119,55,C,INI,Endurance_Sorensen,1,L_LES,18.32314696557666
BMu119,55,C,INI,Endurance_Sorensen,1,R_LES,14.531743593366958
BMu119,55,C,REL,Endurance_Sorensen,1,L_LES,12.227202782694523
BMu119,55,C,REL,Endurance_Sorensen,1,R_LES,11.371119423527455
BMu119,56,C,INI,Endurance_Sorensen,1,L_LES,14.75402672668708
BMu119,56,C,INI,Endurance_Sorensen,1,R_LES,12.893915937955214
BMu119,56,C,REL,Endurance_Sorensen,1,L_LES,17.244340977989108
BMu119,56,C,REL,Endurance_Sorensen,1,R_LES,11.756051301603799
BMu119,57,C,INI,Endurance_Sorensen,1,L_LES,12.668347236752254
BMu119,57,C,INI,Endurance_Sorensen,1,R_LES,16.76236373948859
BMu119,57,C,REL,Endurance_Sorensen,1,L_LES,17.530735233399213
BMu119,57,C,REL,Endurance_Sorensen,1,R_LES,22.491638430009125
BMu119,58,P,INI,Endurance_Sorensen,1,L_LES,17.447316093954235
BMu119,58,P,INI,Endurance_Sorensen,1,R_LES,21.467192002445866
BMu119,58,P,REL,Endurance_Sorensen,1,L_LES,9.582186517689097
BMu119,58,P,REL,Endurance_Sorensen,1,R_LES,8.373312788743377
BMu119,60,C,INI,Endurance_Sorensen,1,L_LES,11.950709346991115
BMu119,60,C,INI,Endurance_Sorensen,1,R_LES,15.605168642729286
BMu119,60,C,REL,Endurance_Sorensen,1,L_LES,2.703159802580117
BMu119,60,C,REL,Endurance_Sorensen,1,R_LES,1.1963173111342933
BMu119,61,P,REL,Endurance_Sorensen,1,L_LES,-3.7943708060498027
BMu119,61,P,REL,Endurance_Sorensen,1,R_LES,-10.911128597825103
BMu119,62,P,INI,Endurance_Sorensen,1,L_LES,8.180246130131865
BMu119,62,P,INI,Endurance_Sorensen,1,R_LES,3.587339057834578
BMu119,62,P,REL,Endurance_Sorensen,1,L_LES,8.93963629738576
BMu119,62,P,REL,Endurance_Sorensen,1,R_LES,0.145242048566989
BMu119,63,P,INI,Endurance_Sorensen,1,L_LES,1.064162841890354
BMu119,63,P,INI,Endurance_Sorensen,1,R_LES,7.749137486083209
BMu119,63,P,REL,Endurance_Sorensen,1,L_LES,7.16803915443078
BMu119,63,P,REL,Endurance_Sorensen,1,R_LES,9.1277597618143
BMu119,64,C,INI,Endurance_Sorensen,1,L_LES,10.01586483463125
BMu119,64,C,INI,Endurance_Sorensen,1,R_LES,11.021223530421283
BMu119,64,C,REL,Endurance_Sorensen,1,L_LES,10.213252599464251
BMu119,64,C,REL,Endurance_Sorensen,1,R_LES,10.962629252529767
BMu119,65,P,INI,Endurance_Sorensen,1,L_LES,8.409741396216692
BMu119,65,P,INI,Endurance_Sorensen,1,R_LES,10.089038588772699
BMu119,65,P,REL,Endurance_Sorensen,1,L_LES,15.464998765130343
BMu119,65,P,REL,Endurance_Sorensen,1,R_LES,10.157712589823749
BMu119,66,C,INI,Endurance_Sorensen,1,L_LES,15.925361795395274
BMu119,66,C,INI,Endurance_Sorensen,1,R_LES,11.158949625631903
BMu119,66,C,REL,Endurance_Sorensen,1,L_LES,7.253658478296234
BMu119,66,C,REL,Endurance_Sorensen,1,R_LES,9.542106745259652
BMu119,67,C,INI,Endurance_Sorensen,1,L_LES,5.14834109475244
BMu119,67,C,INI,Endurance_Sorensen,1,R_LES,11.379592792700224
BMu119,67,C,REL,Endurance_Sorensen,1,L_LES,9.659745320643658
BMu119,67,C,REL,Endurance_Sorensen,1,R_LES,13.511298653674219
BMu119,68,C,INI,Endurance_Sorensen,1,L_LES,7.491821643436573
BMu119,68,C,INI,Endurance_Sorensen,1,R_LES,14.768951069271
BMu119,68,C,REL,Endurance_Sorensen,1,L_LES,11.038961195472666
BMu119,68,C,REL,Endurance_Sorensen,1,R_LES,12.934629193477464
