BM,subject,P_C,session,task,repetition,channel,value
BMu1,1,C,INI,Trunk_Forward,1,L_LES,0.002886921952363133
BMu1,1,C,INI,Trunk_Forward,1,R_LES,0.002166527674373925
BMu1,1,C,REL,Trunk_Forward,1,L_LES,0.002694069403635544
BMu1,1,C,REL,Trunk_Forward,1,R_LES,0.0023875143458035332
BMu1,2,C,INI,Trunk_Forward,1,L_LES,0.000580589080832975
BMu1,2,C,INI,Trunk_Forward,1,R_LES,0.0005930209460152199
BMu1,2,C,REL,Trunk_Forward,1,L_LES,0.0008020333558047464
BMu1,2,C,REL,Trunk_Forward,1,R_LES,0.0006688838582351932
BMu1,3,C,INI,Trunk_Forward,1,L_LES,0.00036571704610012306
BMu1,3,C,INI,Trunk_Forward,1,R_LES,0.0003659869693576798
BMu1,3,C,REL,Trunk_Forward,1,L_LES,0.03625138779089894
BMu1,3,C,REL,Trunk_Forward,1,R_LES,0.0009122225602079711
BMu1,5,C,INI,Trunk_Forward,1,L_LES,0.004612412357049268
BMu1,5,C,INI,Trunk_Forward,1,R_LES,0.0019001743471461277
BMu1,5,C,REL,Trunk_Forward,1,L_LES,0.008790373401731454
BMu1,5,C,REL,Trunk_Forward,1,R_LES,0.003491143170597331
BMu1,6,C,INI,Trunk_Forward,1,L_LES,0.00042404772643144374
BMu1,6,C,INI,Trunk_Forward,1,R_LES,0.00039441762685866463
BMu1,6,C,REL,Trunk_Forward,1,L_LES,0.0009043150214044245
BMu1,6,C,REL,Trunk_Forward,1,R_LES,0.0007607290164338914
BMu1,7,C,INI,Trunk_Forward,1,L_LES,0.009599816158741977
BMu1,7,C,INI,Trunk_Forward,1,R_LES,0.003099683926577942
BMu1,7,C,REL,Trunk_Forward,1,L_LES,0.005671072191979911
BMu1,7,C,REL,Trunk_Forward,1,R_LES,0.005857585042772786
BMu1,8,C,INI,Trunk_Forward,1,L_LES,0.0009254229376364521
BMu1,8,C,INI,Trunk_Forward,1,R_LES,0.0004537834799211487
BMu1,8,C,REL,Trunk_Forward,1,L_LES,0.0016723895863817112
BMu1,8,C,REL,Trunk_Forward,1,R_LES,0.0007364913843026094
BMu1,9,P,INI,Trunk_Forward,1,L_LES,0.0009102884283314058
BMu1,9,P,INI,Trunk_Forward,1,R_LES,0.0013602290065904635
BMu1,9,P,REL,Trunk_Forward,1,L_LES,0.0026093009211136924
BMu1,9,P,REL,Trunk_Forward,1,R_LES,0.002262676887679451
BMu1,10,P,INI,Trunk_Forward,1,L_LES,0.0009236488749194348
BMu1,10,P,INI,Trunk_Forward,1,R_LES,0.0006773374784027779
BMu1,10,P,REL,Trunk_Forward,1,L_LES,0.001433832902397511
BMu1,10,P,REL,Trunk_Forward,1,R_LES,0.0014508305125307801
BMu1,11,P,INI,Trunk_Forward,1,L_LES,0.00042258109137288045
BMu1,11,P,INI,Trunk_Forward,1,R_LES,0.0009512896329206638
BMu1,11,P,REL,Trunk_Forward,1,L_LES,0.0022688903811814765
BMu1,11,P,REL,Trunk_Forward,1,R_LES,0.0009964322446852274
BMu1,12,P,INI,Trunk_Forward,1,L_LES,0.0011384867365086685
BMu1,12,P,INI,Trunk_Forward,1,R_LES,0.0010636061266479297
BMu1,12,P,REL,Trunk_Forward,1,L_LES,0.0021484374402706823
BMu1,12,P,REL,Trunk_Forward,1,R_LES,0.0021870713815664643
BMu1,13,C,INI,Trunk_Forward,1,L_LES,0.006765508910026877
BMu1,13,C,INI,Trunk_Forward,1,R_LES,0.00766015830842592
BMu1,13,C,REL,Trunk_Forward,1,L_LES,0.007438837452598474
BMu1,13,C,REL,Trunk_Forward,1,R_LES,0.005438166226574851
BMu1,14,P,INI,Trunk_Forward,1,L_LES,0.0011653269733081222
BMu1,14,P,INI,Trunk_Forward,1,R_LES,0.001688490547905777
BMu1,14,P,REL,Trunk_Forward,1,L_LES,0.00494157424470928
BMu1,14,P,REL,Trunk_Forward,1,R_LES,0.0020394504018981453
BMu1,16,C,INI,Trunk_Forward,1,L_LES,0.0007518259864542314
BMu1,16,C,INI,Trunk_Forward,1,R_LES,0.0006083789088382586
BMu1,16,C,REL,Trunk_Forward,1,L_LES,0.0006328692618156709
BMu1,16,C,REL,Trunk_Forward,1,R_LES,0.0005235939671792034
BMu1,17,P,INI,Trunk_Forward,1,L_LES,0.008087327787712656
BMu1,17,P,INI,Trunk_Forward,1,R_LES,0.007326472756306399
BMu1,17,P,REL,Trunk_Forward,1,L_LES,0.004377181388220198
BMu1,17,P,REL,Trunk_Forward,1,R_LES,0.004017216558160129
BMu1,21,C,INI,Trunk_Forward,1,L_LES,0.008632325012806566
BMu1,21,C,INI,Trunk_Forward,1,R_LES,0.003959612890188998
BMu1,21,C,REL,Trunk_Forward,1,L_LES,0.033682625794561785
BMu1,21,C,REL,Trunk_Forward,1,R_LES,0.0035029674297547262
BMu1,22,C,INI,Trunk_Forward,1,L_LES,0.0017267847197110166
BMu1,22,C,INI,Trunk_Forward,1,R_LES,0.0023924993004606388
BMu1,22,C,REL,Trunk_Forward,1,L_LES,0.0006968836370199794
BMu1,22,C,REL,Trunk_Forward,1,R_LES,0.003467637406148962
BMu1,23,C,INI,Trunk_Forward,1,L_LES,0.000802667924269784
BMu1,23,C,INI,Trunk_Forward,1,R_LES,0.000748961630207108
BMu1,23,C,REL,Trunk_Forward,1,L_LES,0.0014608543463587602
BMu1,23,C,REL,Trunk_Forward,1,R_LES,0.0008560711235465792
BMu1,24,P,INI,Trunk_Forward,1,L_LES,0.003314373863175788
BMu1,24,P,INI,Trunk_Forward,1,R_LES,0.001303279992311444
BMu1,24,P,REL,Trunk_Forward,1,L_LES,0.004557210144391849
BMu1,24,P,REL,Trunk_Forward,1,R_LES,0.0015289992291473294
BMu1,25,C,INI,Trunk_Forward,1,L_LES,0.008608649725030955
BMu1,25,C,INI,Trunk_Forward,1,R_LES,0.0038788559372909593
BMu1,25,C,REL,Trunk_Forward,1,L_LES,0.008379975989878349
BMu1,25,C,REL,Trunk_Forward,1,R_LES,0.00451612455496652
BMu1,26,P,INI,Trunk_Forward,1,L_LES,0.0027041762791010482
BMu1,26,P,INI,Trunk_Forward,1,R_LES,0.0014512824686631835
BMu1,26,P,REL,Trunk_Forward,1,L_LES,0.0019207583861535413
BMu1,26,P,REL,Trunk_Forward,1,R_LES,0.0009030413982840433
BMu1,27,P,INI,Trunk_Forward,1,L_LES,0.0027214225547989475
BMu1,27,P,INI,Trunk_Forward,1,R_LES,0.001811093155264591
BMu1,27,P,REL,Trunk_Forward,1,L_LES,0.002989162807982845
BMu1,27,P,REL,Trunk_Forward,1,R_LES,0.002887272133202511
BMu1,28,P,INI,Trunk_Forward,1,L_LES,0.001927415487797916
BMu1,28,P,INI,Trunk_Forward,1,R_LES,0.0023326810597944394
BMu1,28,P,REL,Trunk_Forward,1,L_LES,0.0020079172721311433
BMu1,28,P,REL,Trunk_Forward,1,R_LES,0.0025782556900100138
BMu1,29,P,INI,Trunk_Forward,1,L_LES,0.012705652686590602
BMu1,29,P,INI,Trunk_Forward,1,R_LES,0.01104067235941108
BMu1,29,P,REL,Trunk_Forward,1,L_LES,0.0080978900835689
BMu1,29,P,REL,Trunk_Forward,1,R_LES,0.00592528013084048
BMu1,30,P,INI,Trunk_Forward,1,L_LES,0.0010340010188008453
BMu1,30,P,INI,Trunk_Forward,1,R_LES,0.0011450118428219266
BMu1,30,P,REL,Trunk_Forward,1,L_LES,0.004779814101170708
BMu1,30,P,REL,Trunk_Forward,1,R_LES,0.0011639816101031005
BMu1,32,P,INI,Trunk_Forward,1,L_LES,0.0012921829529091327
BMu1,32,P,INI,Trunk_Forward,1,R_LES,0.0008286714438929115
BMu1,32,P,REL,Trunk_Forward,1,L_LES,0.005532818715135495
BMu1,32,P,REL,Trunk_Forward,1,R_LES,0.003242858680906271
BMu1,33,P,INI,Trunk_Forward,1,L_LES,0.001708131288300826
BMu1,33,P,INI,Trunk_Forward,1,R_LES,0.00157545316772542
BMu1,33,P,REL,Trunk_Forward,1,L_LES,0.0023625471300573165
BMu1,33,P,REL,Trunk_Forward,1,R_LES,0.004344937627214819
BMu1,34,P,INI,Trunk_Forward,1,L_LES,0.0008603541316490633
BMu1,34,P,INI,Trunk_Forward,1,R_LES,0.0007467828595553555
BMu1,34,P,REL,Trunk_Forward,1,L_LES,0.0022561158470336758
BMu1,34,P,REL,Trunk_Forward,1,R_LES,0.0022488164582179417
BMu1,35,C,INI,Trunk_Forward,1,L_LES,0.006100734554335286
BMu1,35,C,INI,Trunk_Forward,1,R_LES,0.0041522682744600465
BMu1,35,C,REL,Trunk_Forward,1,L_LES,0.007082574578982537
BMu1,35,C,REL,Trunk_Forward,1,R_LES,0.004816337328384443
BMu1,36,P,INI,Trunk_Forward,1,L_LES,0.0034845879081708557
BMu1,36,P,INI,Trunk_Forward,1,R_LES,0.005007134010372204
BMu1,36,P,REL,Trunk_Forward,1,L_LES,0.0034724132985038333
BMu1,36,P,REL,Trunk_Forward,1,R_LES,0.004161001531225616
BMu1,38,C,INI,Trunk_Forward,1,L_LES,0.08785452372894031
BMu1,38,C,INI,Trunk_Forward,1,R_LES,0.019983686474588338
BMu1,38,C,REL,Trunk_Forward,1,L_LES,0.022452984125619826
BMu1,38,C,REL,Trunk_Forward,1,R_LES,0.0013355393675068229
BMu1,39,C,INI,Trunk_Forward,1,L_LES,0.004072308801828425
BMu1,39,C,INI,Trunk_Forward,1,R_LES,0.0035324827629420034
BMu1,39,C,REL,Trunk_Forward,1,L_LES,0.005323739629589816
BMu1,39,C,REL,Trunk_Forward,1,R_LES,0.0038922215336441193
BMu1,40,C,INI,Trunk_Forward,1,L_LES,0.00887126019964968
BMu1,40,C,INI,Trunk_Forward,1,R_LES,0.008655291627679378
BMu1,40,C,REL,Trunk_Forward,1,L_LES,0.007727401865064663
BMu1,40,C,REL,Trunk_Forward,1,R_LES,0.008182479050753727
BMu1,41,P,INI,Trunk_Forward,1,L_LES,0.001738188880993036
BMu1,41,P,INI,Trunk_Forward,1,R_LES,0.0007425448887375726
BMu1,41,P,REL,Trunk_Forward,1,L_LES,0.004154271314512645
BMu1,41,P,REL,Trunk_Forward,1,R_LES,0.0031645333457519438
BMu1,42,P,INI,Trunk_Forward,1,L_LES,0.005219239653213773
BMu1,42,P,INI,Trunk_Forward,1,R_LES,0.00774817740796762
BMu1,42,P,REL,Trunk_Forward,1,L_LES,0.004644254092610844
BMu1,42,P,REL,Trunk_Forward,1,R_LES,0.006594317617352488
BMu1,43,P,INI,Trunk_Forward,1,L_LES,0.00278762267210648
BMu1,43,P,INI,Trunk_Forward,1,R_LES,0.0017528608621980898
BMu1,43,P,REL,Trunk_Forward,1,L_LES,0.002261299582345404
BMu1,43,P,REL,Trunk_Forward,1,R_LES,0.0027932623513934204
BMu1,44,C,INI,Trunk_Forward,1,L_LES,0.0012912992233736142
BMu1,44,C,INI,Trunk_Forward,1,R_LES,0.0019315393065715044
BMu1,44,C,REL,Trunk_Forward,1,L_LES,0.003812391376444123
BMu1,44,C,REL,Trunk_Forward,1,R_LES,0.0043796214368801885
BMu1,45,P,INI,Trunk_Forward,1,L_LES,0.002398655902661292
BMu1,45,P,INI,Trunk_Forward,1,R_LES,0.002643682106365943
BMu1,45,P,REL,Trunk_Forward,1,L_LES,0.0009116133068807391
BMu1,45,P,REL,Trunk_Forward,1,R_LES,0.0005402950905550916
BMu1,46,C,INI,Trunk_Forward,1,L_LES,0.011468819473393663
BMu1,46,C,INI,Trunk_Forward,1,R_LES,0.011104742180920895
BMu1,46,C,REL,Trunk_Forward,1,L_LES,0.017137100535568644
BMu1,46,C,REL,Trunk_Forward,1,R_LES,0.010254528364660403
BMu1,47,P,INI,Trunk_Forward,1,L_LES,0.0016611351795152492
BMu1,47,P,INI,Trunk_Forward,1,R_LES,0.0017385576851690005
BMu1,47,P,REL,Trunk_Forward,1,L_LES,0.00273878410557927
BMu1,47,P,REL,Trunk_Forward,1,R_LES,0.002124603176300577
BMu1,48,C,INI,Trunk_Forward,1,L_LES,0.01135827719578298
BMu1,48,C,INI,Trunk_Forward,1,R_LES,0.01009213042265434
BMu1,48,C,REL,Trunk_Forward,1,L_LES,0.008150540133587762
BMu1,48,C,REL,Trunk_Forward,1,R_LES,0.006362276297216619
BMu1,49,C,INI,Trunk_Forward,1,L_LES,0.0016326485077155454
BMu1,49,C,INI,Trunk_Forward,1,R_LES,0.0019052441424816328
BMu1,49,C,REL,Trunk_Forward,1,L_LES,0.0030925902625093464
BMu1,49,C,REL,Trunk_Forward,1,R_LES,0.003891067172666802
BMu1,50,P,INI,Trunk_Forward,1,L_LES,0.0007033842468033729
BMu1,50,P,INI,Trunk_Forward,1,R_LES,0.0025501791835360757
BMu1,50,P,REL,Trunk_Forward,1,L_LES,0.005652468630368882
BMu1,50,P,REL,Trunk_Forward,1,R_LES,0.006621869820834118
BMu1,51,P,INI,Trunk_Forward,1,L_LES,0.0008716923016354461
BMu1,51,P,INI,Trunk_Forward,1,R_LES,0.0011559046044088397
BMu1,51,P,REL,Trunk_Forward,1,L_LES,0.0024008968962946436
BMu1,51,P,REL,Trunk_Forward,1,R_LES,0.0011566390075659246
BMu1,52,C,INI,Trunk_Forward,1,L_LES,0.003186078791588945
BMu1,52,C,INI,Trunk_Forward,1,R_LES,0.0024088376003642592
BMu1,52,C,REL,Trunk_Forward,1,L_LES,0.009606541067993036
BMu1,52,C,REL,Trunk_Forward,1,R_LES,0.00812860753160144
BMu1,53,P,INI,Trunk_Forward,1,L_LES,0.0007214925529924789
BMu1,53,P,INI,Trunk_Forward,1,R_LES,0.0016703036339054183
BMu1,53,P,REL,Trunk_Forward,1,L_LES,0.002117960524511289
BMu1,53,P,REL,Trunk_Forward,1,R_LES,0.0020575513949555326
BMu1,54,P,INI,Trunk_Forward,1,L_LES,0.0007940759518585967
BMu1,54,P,INI,Trunk_Forward,1,R_LES,0.0005692012910168743
BMu1,54,P,REL,Trunk_Forward,1,L_LES,0.000557880924546754
BMu1,54,P,REL,Trunk_Forward,1,R_LES,0.000391107476157072
BMu1,55,C,INI,Trunk_Forward,1,L_LES,0.0044471029768938354
BMu1,55,C,INI,Trunk_Forward,1,R_LES,0.004523614166861957
BMu1,55,C,REL,Trunk_Forward,1,L_LES,0.005252326094586462
BMu1,55,C,REL,Trunk_Forward,1,R_LES,0.004941930545538623
BMu1,56,C,INI,Trunk_Forward,1,L_LES,0.0016486523469784204
BMu1,56,C,INI,Trunk_Forward,1,R_LES,0.0025984148887186484
BMu1,56,C,REL,Trunk_Forward,1,L_LES,0.0037621926933431257
BMu1,56,C,REL,Trunk_Forward,1,R_LES,0.0043140023178893224
BMu1,57,C,INI,Trunk_Forward,1,L_LES,0.00986024723701539
BMu1,57,C,INI,Trunk_Forward,1,R_LES,0.0002626936779721682
BMu1,57,C,REL,Trunk_Forward,1,L_LES,0.0053822236293674525
BMu1,57,C,REL,Trunk_Forward,1,R_LES,0.000453174966782461
BMu1,58,P,INI,Trunk_Forward,1,L_LES,0.000794748624863842
BMu1,58,P,INI,Trunk_Forward,1,R_LES,0.0005083053158512268
BMu1,58,P,REL,Trunk_Forward,1,L_LES,0.040454965272000855
BMu1,58,P,REL,Trunk_Forward,1,R_LES,0.0026864264702338623
BMu1,60,C,INI,Trunk_Forward,1,L_LES,0.004664188201003885
BMu1,60,C,INI,Trunk_Forward,1,R_LES,0.0032589385060254306
BMu1,60,C,REL,Trunk_Forward,1,L_LES,0.01024413966908201
BMu1,60,C,REL,Trunk_Forward,1,R_LES,0.007308615460775191
BMu1,61,P,INI,Trunk_Forward,1,L_LES,0.0017799961294553358
BMu1,61,P,INI,Trunk_Forward,1,R_LES,0.0014600383045336902
BMu1,61,P,REL,Trunk_Forward,1,L_LES,0.004219119186096808
BMu1,61,P,REL,Trunk_Forward,1,R_LES,0.003324513429213397
BMu1,62,P,INI,Trunk_Forward,1,L_LES,0.007755561124080661
BMu1,62,P,INI,Trunk_Forward,1,R_LES,0.0036322359057224148
BMu1,62,P,REL,Trunk_Forward,1,L_LES,0.00525611977808938
BMu1,62,P,REL,Trunk_Forward,1,R_LES,0.0026042072324329335
BMu1,63,P,INI,Trunk_Forward,1,L_LES,0.006005360851192951
BMu1,63,P,INI,Trunk_Forward,1,R_LES,0.004288006678332123
BMu1,63,P,REL,Trunk_Forward,1,L_LES,0.0022065954086894907
BMu1,63,P,REL,Trunk_Forward,1,R_LES,0.0023107055181651633
BMu1,64,C,INI,Trunk_Forward,1,L_LES,0.005129235876503921
BMu1,64,C,INI,Trunk_Forward,1,R_LES,0.007096101006231465
BMu1,64,C,REL,Trunk_Forward,1,L_LES,0.004299367749622889
BMu1,64,C,REL,Trunk_Forward,1,R_LES,0.00584133084355979
BMu1,65,P,INI,Trunk_Forward,1,L_LES,0.003248711013123276
BMu1,65,P,INI,Trunk_Forward,1,R_LES,0.0016969096055632286
BMu1,65,P,REL,Trunk_Forward,1,L_LES,0.0031576013315418885
BMu1,65,P,REL,Trunk_Forward,1,R_LES,0.001635121577268438
BMu1,66,C,INI,Trunk_Forward,1,L_LES,0.000907508665101918
BMu1,66,C,INI,Trunk_Forward,1,R_LES,0.0007807171586354885
BMu1,66,C,REL,Trunk_Forward,1,L_LES,0.002557230614831458
BMu1,66,C,REL,Trunk_Forward,1,R_LES,0.001684990178296549
BMu1,67,C,INI,Trunk_Forward,1,L_LES,0.007979102417388036
BMu1,67,C,INI,Trunk_Forward,1,R_LES,0.011925421086512499
BMu1,67,C,REL,Trunk_Forward,1,L_LES,0.011462614743405021
BMu1,67,C,REL,Trunk_Forward,1,R_LES,0.013864741306088413
BMu1,68,C,INI,Trunk_Forward,1,L_LES,0.010420774580141692
BMu1,68,C,INI,Trunk_Forward,1,R_LES,0.013447711601408951
BMu1,68,C,REL,Trunk_Forward,1,L_LES,0.011793637390762543
BMu1,68,C,REL,Trunk_Forward,1,R_LES,0.01357254943491346
