BM,subject,P_C,session,task,repetition,channel,value
BMu117,1,C,INI,Endurance_Sorensen,1,L_LES,110.21515947577065
BMu117,1,C,INI,Endurance_Sorensen,1,R_LES,90.19369128498192
BMu117,1,C,REL,Endurance_Sorensen,1,L_LES,111.95460673713234
BMu117,1,C,REL,Endurance_Sorensen,1,R_LES,104.58070496855015
BMu117,2,C,INI,Endurance_Sorensen,1,L_LES,98.17646394345648
BMu117,2,C,INI,Endurance_Sorensen,1,R_LES,111.87601706200608
BMu117,2,C,REL,Endurance_Sorensen,1,L_LES,98.66543600391192
BMu117,2,C,REL,Endurance_Sorensen,1,R_LES,98.32425606483532
BMu117,3,C,INI,Endurance_Sorensen,1,L_LES,91.75073944392064
BMu117,3,C,INI,Endurance_Sorensen,1,R_LES,89.58143222458136
BMu117,3,C,REL,Endurance_Sorensen,1,L_LES,76.9483330002039
BMu117,3,C,REL,Endurance_Sorensen,1,R_LES,92.57065247050275
BMu117,5,C,INI,Endurance_Sorensen,1,L_LES,118.83619973478248
BMu117,5,C,INI,Endurance_Sorensen,1,R_LES,115.13630976761756
BMu117,5,C,REL,Endurance_Sorensen,1,L_LES,120.79104252478108
BMu117,5,C,REL,Endurance_Sorensen,1,R_LES,113.51274226382168
BMu117,6,C,INI,Endurance_Sorensen,1,L_LES,120.22977257248117
BMu117,6,C,INI,Endurance_Sorensen,1,R_LES,112.24242793374026
BMu117,6,C,REL,Endurance_Sorensen,1,L_LES,109.45255223084742
BMu117,6,C,REL,Endurance_Sorensen,1,R_LES,104.78183780023255
BMu117,7,C,INI,Endurance_Sorensen,1,L_LES,140.8456554614758
BMu117,7,C,INI,Endurance_Sorensen,1,R_LES,111.76151637463704
BMu117,7,C,REL,Endurance_Sorensen,1,L_LES,144.57518427143953
BMu117,7,C,REL,Endurance_Sorensen,1,R_LES,96.3266601875044
BMu117,8,C,INI,Endurance_Sorensen,1,L_LES,115.51274274507186
BMu117,8,C,INI,Endurance_Sorensen,1,R_LES,95.58170212122063
BMu117,8,C,REL,Endurance_Sorensen,1,L_LES,98.62353421082052
BMu117,8,C,REL,Endurance_Sorensen,1,R_LES,97.93591050001326
BMu117,9,P,INI,Endurance_Sorensen,1,L_LES,103.81579561286257
BMu117,9,P,INI,Endurance_Sorensen,1,R_LES,114.1550997080888
BMu117,9,P,REL,Endurance_Sorensen,1,L_LES,119.80908894984354
BMu117,9,P,REL,Endurance_Sorensen,1,R_LES,119.33469231887206
BMu117,10,P,INI,Endurance_Sorensen,1,L_LES,113.18435720812512
BMu117,10,P,INI,Endurance_Sorensen,1,R_LES,101.73962045335281
BMu117,10,P,REL,Endurance_Sorensen,1,L_LES,116.04004026552933
BMu117,10,P,REL,Endurance_Sorensen,1,R_LES,108.14488678023336
BMu117,11,P,INI,Endurance_Sorensen,1,L_LES,102.89331358010848
BMu117,11,P,INI,Endurance_Sorensen,1,R_LES,92.84345560119412
BMu117,11,P,REL,Endurance_Sorensen,1,L_LES,108.74534103416214
BMu117,11,P,REL,Endurance_Sorensen,1,R_LES,102.16420775514489
BMu117,12,P,INI,Endurance_Sorensen,1,L_LES,93.43756050518597
BMu117,12,P,INI,Endurance_Sorensen,1,R_LES,78.88422727041068
BMu117,12,P,REL,Endurance_Sorensen,1,L_LES,93.30406458949962
BMu117,12,P,REL,Endurance_Sorensen,1,R_LES,78.16901354246906
BMu117,13,C,INI,Endurance_Sorensen,1,L_LES,106.81661431142753
BMu117,13,C,INI,Endurance_Sorensen,1,R_LES,102.11695062443827
BMu117,13,C,REL,Endurance_Sorensen,1,L_LES,109.07101937468092
BMu117,13,C,REL,Endurance_Sorensen,1,R_LES,98.61592444504748
BMu117,14,P,INI,Endurance_Sorensen,1,L_LES,107.09078424125265
BMu117,14,P,INI,Endurance_Sorensen,1,R_LES,88.22231216838749
BMu117,14,P,REL,Endurance_Sorensen,1,L_LES,101.76005515576271
BMu117,14,P,REL,Endurance_Sorensen,1,R_LES,93.86736852130548
BMu117,16,C,INI,Endurance_Sorensen,1,L_LES,108.0896427049242
BMu117,16,C,INI,Endurance_Sorensen,1,R_LES,99.943321187303
BMu117,16,C,REL,Endurance_Sorensen,1,L_LES,108.50998002377112
BMu117,16,C,REL,Endurance_Sorensen,1,R_LES,90.0538889309056
BMu117,17,P,INI,Endurance_Sorensen,1,L_LES,126.90975473232264
BMu117,17,P,INI,Endurance_Sorensen,1,R_LES,111.82383819425873
BMu117,17,P,REL,Endurance_Sorensen,1,L_LES,126.03665377540517
BMu117,17,P,REL,Endurance_Sorensen,1,R_LES,115.45543809419235
BMu117,21,C,INI,Endurance_Sorensen,1,L_LES,100.5450248483617
BMu117,21,C,INI,Endurance_Sorensen,1,R_LES,88.79013757614219
BMu117,21,C,REL,Endurance_Sorensen,1,L_LES,97.24700978936612
BMu117,21,C,REL,Endurance_Sorensen,1,R_LES,102.29047571249983
BMu117,22,C,INI,Endurance_Sorensen,1,L_LES,86.97695433352244
BMu117,22,C,INI,Endurance_Sorensen,1,R_LES,86.55935986693926
BMu117,22,C,REL,Endurance_Sorensen,1,L_LES,88.28833221803218
BMu117,22,C,REL,Endurance_Sorensen,1,R_LES,85.28641184804593
BMu117,23,C,INI,Endurance_Sorensen,1,L_LES,83.31763715739015
BMu117,23,C,INI,Endurance_Sorensen,1,R_LES,102.19076939614432
BMu117,23,C,REL,Endurance_Sorensen,1,L_LES,86.67478762261162
BMu117,23,C,REL,Endurance_Sorensen,1,R_LES,71.23906337768214
BMu117,24,P,INI,Endurance_Sorensen,1,L_LES,121.87258921969782
BMu117,24,P,INI,Endurance_Sorensen,1,R_LES,119.21556099282925
BMu117,24,P,REL,Endurance_Sorensen,1,L_LES,87.44669342727987
BMu117,24,P,REL,Endurance_Sorensen,1,R_LES,57.10357197644046
BMu117,25,C,INI,Endurance_Sorensen,1,L_LES,121.36428132320118
BMu117,25,C,INI,Endurance_Sorensen,1,R_LES,105.93260615206282
BMu117,25,C,REL,Endurance_Sorensen,1,L_LES,122.9670720620012
BMu117,25,C,REL,Endurance_Sorensen,1,R_LES,99.39520328976619
BMu117,26,P,INI,Endurance_Sorensen,1,L_LES,96.63620700736953
BMu117,26,P,INI,Endurance_Sorensen,1,R_LES,86.04545026632758
BMu117,26,P,REL,Endurance_Sorensen,1,L_LES,94.897454465122
BMu117,26,P,REL,Endurance_Sorensen,1,R_LES,89.33306117947548
BMu117,27,P,INI,Endurance_Sorensen,1,L_LES,102.23658476763903
BMu117,27,P,INI,Endurance_Sorensen,1,R_LES,96.93923517378478
BMu117,27,P,REL,Endurance_Sorensen,1,L_LES,85.54643285789064
BMu117,27,P,REL,Endurance_Sorensen,1,R_LES,91.18867487922171
BMu117,28,P,INI,Endurance_Sorensen,1,L_LES,121.90327399490754
BMu117,28,P,INI,Endurance_Sorensen,1,R_LES,101.94189753877556
BMu117,28,P,REL,Endurance_Sorensen,1,L_LES,127.23582008144321
BMu117,28,P,REL,Endurance_Sorensen,1,R_LES,103.33968057238418
BMu117,29,P,INI,Endurance_Sorensen,1,L_LES,99.6893064434525
BMu117,29,P,INI,Endurance_Sorensen,1,R_LES,104.13899619999542
BMu117,29,P,REL,Endurance_Sorensen,1,L_LES,105.99055598467866
BMu117,29,P,REL,Endurance_Sorensen,1,R_LES,109.04419412233999
BMu117,30,P,INI,Endurance_Sorensen,1,L_LES,111.11575309135611
BMu117,30,P,INI,Endurance_Sorensen,1,R_LES,105.94659344052542
BMu117,30,P,REL,Endurance_Sorensen,1,L_LES,110.45010584322529
BMu117,30,P,REL,Endurance_Sorensen,1,R_LES,112.21139938813853
BMu117,32,P,INI,Endurance_Sorensen,1,L_LES,104.29108891584946
BMu117,32,P,INI,Endurance_Sorensen,1,R_LES,114.32385348604443
BMu117,32,P,REL,Endurance_Sorensen,1,L_LES,135.21939477162803
BMu117,32,P,REL,Endurance_Sorensen,1,R_LES,151.69692677964144
BMu117,33,P,INI,Endurance_Sorensen,1,L_LES,66.28103067786496
BMu117,33,P,INI,Endurance_Sorensen,1,R_LES,68.62395201457922
BMu117,33,P,REL,Endurance_Sorensen,1,L_LES,82.61820055793315
BMu117,33,P,REL,Endurance_Sorensen,1,R_LES,80.95062847131759
BMu117,34,P,INI,Endurance_Sorensen,1,L_LES,104.21134265600331
BMu117,34,P,INI,Endurance_Sorensen,1,R_LES,98.49372435505639
BMu117,34,P,REL,Endurance_Sorensen,1,L_LES,103.60000781382341
BMu117,34,P,REL,Endurance_Sorensen,1,R_LES,98.54077276770498
BMu117,35,C,INI,Endurance_Sorensen,1,L_LES,112.69484563008338
BMu117,35,C,INI,Endurance_Sorensen,1,R_LES,107.30222361196343
BMu117,35,C,REL,Endurance_Sorensen,1,L_LES,106.48521013551725
BMu117,35,C,REL,Endurance_Sorensen,1,R_LES,117.25137766361951
BMu117,36,P,INI,Endurance_Sorensen,1,L_LES,98.4358601555925
BMu117,36,P,INI,Endurance_Sorensen,1,R_LES,96.02528183687816
BMu117,36,P,REL,Endurance_Sorensen,1,L_LES,119.98403764710231
BMu117,36,P,REL,Endurance_Sorensen,1,R_LES,112.25224184882047
BMu117,38,C,INI,Endurance_Sorensen,1,L_LES,107.44661477716767
BMu117,38,C,INI,Endurance_Sorensen,1,R_LES,67.37148443272316
BMu117,38,C,REL,Endurance_Sorensen,1,L_LES,108.56695619786255
BMu117,38,C,REL,Endurance_Sorensen,1,R_LES,104.42309436756454
BMu117,39,C,INI,Endurance_Sorensen,1,L_LES,126.4359426566175
BMu117,39,C,INI,Endurance_Sorensen,1,R_LES,118.42853069907358
BMu117,39,C,REL,Endurance_Sorensen,1,L_LES,96.59202966622725
BMu117,39,C,REL,Endurance_Sorensen,1,R_LES,112.80190950041151
BMu117,40,C,INI,Endurance_Sorensen,1,L_LES,129.56678925141617
BMu117,40,C,INI,Endurance_Sorensen,1,R_LES,97.92333628306487
BMu117,40,C,REL,Endurance_Sorensen,1,L_LES,131.2917903119248
BMu117,40,C,REL,Endurance_Sorensen,1,R_LES,122.03091393747827
BMu117,41,P,INI,Endurance_Sorensen,1,L_LES,95.26822576117655
BMu117,41,P,INI,Endurance_Sorensen,1,R_LES,87.75492786123708
BMu117,41,P,REL,Endurance_Sorensen,1,L_LES,98.2580232333313
BMu117,41,P,REL,Endurance_Sorensen,1,R_LES,82.10700640311735
BMu117,42,P,INI,Endurance_Sorensen,1,L_LES,123.87763297342813
BMu117,42,P,INI,Endurance_Sorensen,1,R_LES,108.03305486767754
BMu117,42,P,REL,Endurance_Sorensen,1,L_LES,121.8687859954441
BMu117,42,P,REL,Endurance_Sorensen,1,R_LES,102.86276980102203
BMu117,43,P,INI,Endurance_Sorensen,1,L_LES,125.99658206110648
BMu117,43,P,INI,Endurance_Sorensen,1,R_LES,105.11389778534884
BMu117,43,P,REL,Endurance_Sorensen,1,L_LES,131.29613138819605
BMu117,43,P,REL,Endurance_Sorensen,1,R_LES,102.15704468654816
BMu117,44,C,INI,Endurance_Sorensen,1,L_LES,143.01250333787505
BMu117,44,C,INI,Endurance_Sorensen,1,R_LES,127.74290973816973
BMu117,44,C,REL,Endurance_Sorensen,1,L_LES,142.6501438024194
BMu117,44,C,REL,Endurance_Sorensen,1,R_LES,119.56002414840687
BMu117,45,P,INI,Endurance_Sorensen,1,L_LES,85.01421310098165
BMu117,45,P,INI,Endurance_Sorensen,1,R_LES,80.55881328170135
BMu117,45,P,REL,Endurance_Sorensen,1,L_LES,105.55712835219417
BMu117,45,P,REL,Endurance_Sorensen,1,R_LES,89.2155102384689
BMu117,46,C,INI,Endurance_Sorensen,1,L_LES,119.7312958301057
BMu117,46,C,INI,Endurance_Sorensen,1,R_LES,97.4073964250493
BMu117,46,C,REL,Endurance_Sorensen,1,L_LES,114.39168053368725
BMu117,46,C,REL,Endurance_Sorensen,1,R_LES,97.40566787849356
BMu117,47,P,INI,Endurance_Sorensen,1,L_LES,140.44478673209724
BMu117,47,P,INI,Endurance_Sorensen,1,R_LES,128.873318111956
BMu117,47,P,REL,Endurance_Sorensen,1,L_LES,108.92036066989967
BMu117,47,P,REL,Endurance_Sorensen,1,R_LES,95.63959660472777
BMu117,48,C,INI,Endurance_Sorensen,1,L_LES,155.91224702445695
BMu117,48,C,INI,Endurance_Sorensen,1,R_LES,135.17543251096805
BMu117,48,C,REL,Endurance_Sorensen,1,L_LES,130.4134407138515
BMu117,48,C,REL,Endurance_Sorensen,1,R_LES,132.39512234820506
BMu117,49,C,INI,Endurance_Sorensen,1,L_LES,114.49222141818029
BMu117,49,C,INI,Endurance_Sorensen,1,R_LES,106.16841856619313
BMu117,49,C,REL,Endurance_Sorensen,1,L_LES,115.78748194111039
BMu117,49,C,REL,Endurance_Sorensen,1,R_LES,107.27065492213143
BMu117,50,P,INI,Endurance_Sorensen,1,L_LES,113.45113500284829
BMu117,50,P,INI,Endurance_Sorensen,1,R_LES,106.77873465359853
BMu117,50,P,REL,Endurance_Sorensen,1,L_LES,116.42278790246034
BMu117,50,P,REL,Endurance_Sorensen,1,R_LES,111.6399787186444
BMu117,51,P,INI,Endurance_Sorensen,1,L_LES,81.96287021536942
BMu117,51,P,INI,Endurance_Sorensen,1,R_LES,84.42712109307
BMu117,51,P,REL,Endurance_Sorensen,1,L_LES,71.14202489985061
BMu117,51,P,REL,Endurance_Sorensen,1,R_LES,78.97612186797545
BMu117,52,C,INI,Endurance_Sorensen,1,L_LES,122.21495110201221
BMu117,52,C,INI,Endurance_Sorensen,1,R_LES,109.78401998874351
BMu117,52,C,REL,Endurance_Sorensen,1,L_LES,127.98038068458858
BMu117,52,C,REL,Endurance_Sorensen,1,R_LES,110.95754461720908
BMu117,53,P,INI,Endurance_Sorensen,1,L_LES,121.43132005693839
BMu117,53,P,INI,Endurance_Sorensen,1,R_LES,100.37985742508658
BMu117,53,P,REL,Endurance_Sorensen,1,L_LES,119.91049479034757
BMu117,53,P,REL,Endurance_Sorensen,1,R_LES,101.2518590722322
BMu117,54,P,INI,Endurance_Sorensen,1,L_LES,116.63873631875761
BMu117,54,P,INI,Endurance_Sorensen,1,R_LES,115.55438922973657
BMu117,54,P,REL,Endurance_Sorensen,1,L_LES,110.94606653131655
BMu117,54,P,REL,Endurance_Sorensen,1,R_LES,116.20022234333517
BMu117,55,C,INI,Endurance_Sorensen,1,L_LES,112.54270562471949
BMu117,55,C,INI,Endurance_Sorensen,1,R_LES,112.16657903585853
BMu117,55,C,REL,Endurance_Sorensen,1,L_LES,103.3998302198954
BMu117,55,C,REL,Endurance_Sorensen,1,R_LES,100.62171981408774
BMu117,56,C,INI,Endurance_Sorensen,1,L_LES,81.55797700178863
BMu117,56,C,INI,Endurance_Sorensen,1,R_LES,82.03941722747207
BMu117,56,C,REL,Endurance_Sorensen,1,L_LES,83.02714757612063
BMu117,56,C,REL,Endurance_Sorensen,1,R_LES,84.58526730327736
BMu117,57,C,INI,Endurance_Sorensen,1,L_LES,100.98720720100413
BMu117,57,C,INI,Endurance_Sorensen,1,R_LES,102.94793357923224
BMu117,57,C,REL,Endurance_Sorensen,1,L_LES,105.10198752462162
BMu117,57,C,REL,Endurance_Sorensen,1,R_LES,103.82276055532846
BMu117,58,P,INI,Endurance_Sorensen,1,L_LES,90.83127334045355
BMu117,58,P,INI,Endurance_Sorensen,1,R_LES,101.19250627700347
BMu117,58,P,REL,Endurance_Sorensen,1,L_LES,108.1900673659997
BMu117,58,P,REL,Endurance_Sorensen,1,R_LES,94.21940052017162
BMu117,60,C,INI,Endurance_Sorensen,1,L_LES,117.18759645768957
BMu117,60,C,INI,Endurance_Sorensen,1,R_LES,96.94001287678888
BMu117,60,C,REL,Endurance_Sorensen,1,L_LES,111.95436177607604
BMu117,60,C,REL,Endurance_Sorensen,1,R_LES,97.45551976136655
BMu117,61,P,REL,Endurance_Sorensen,1,L_LES,90.80181613570649
BMu117,61,P,REL,Endurance_Sorensen,1,R_LES,74.98638705959233
BMu117,62,P,INI,Endurance_Sorensen,1,L_LES,88.50874421461602
BMu117,62,P,INI,Endurance_Sorensen,1,R_LES,88.88123285029253
BMu117,62,P,REL,Endurance_Sorensen,1,L_LES,97.02119174904259
BMu117,62,P,REL,Endurance_Sorensen,1,R_LES,96.8337007003015
BMu117,63,P,INI,Endurance_Sorensen,1,L_LES,111.93422215563349
BMu117,63,P,INI,Endurance_Sorensen,1,R_LES,121.69618733186617
BMu117,63,P,REL,Endurance_Sorensen,1,L_LES,130.57847217572547
BMu117,63,P,REL,Endurance_Sorensen,1,R_LES,118.10182514488999
BMu117,64,C,INI,Endurance_Sorensen,1,L_LES,116.18579868593537
BMu117,64,C,INI,Endurance_Sorensen,1,R_LES,107.70261138229569
BMu117,64,C,REL,Endurance_Sorensen,1,L_LES,105.67769001942789
BMu117,64,C,REL,Endurance_Sorensen,1,R_LES,95.29125419427794
BMu117,65,P,INI,Endurance_Sorensen,1,L_LES,112.2266969508212
BMu117,65,P,INI,Endurance_Sorensen,1,R_LES,92.20479455045411
BMu117,65,P,REL,Endurance_Sorensen,1,L_LES,133.50565387559362
BMu117,65,P,REL,Endurance_Sorensen,1,R_LES,107.46628909185608
BMu117,66,C,INI,Endurance_Sorensen,1,L_LES,97.43406875499193
BMu117,66,C,INI,Endurance_Sorensen,1,R_LES,78.36710842847454
BMu117,66,C,REL,Endurance_Sorensen,1,L_LES,95.78955248404755
BMu117,66,C,REL,Endurance_Sorensen,1,R_LES,98.95726465198298
BMu117,67,C,INI,Endurance_Sorensen,1,L_LES,104.86410149862337
BMu117,67,C,INI,Endurance_Sorensen,1,R_LES,118.54692843327433
BMu117,67,C,REL,Endurance_Sorensen,1,L_LES,100.25009049261764
BMu117,67,C,REL,Endurance_Sorensen,1,R_LES,97.53491629618316
BMu117,68,C,INI,Endurance_Sorensen,1,L_LES,125.05655625925807
BMu117,68,C,INI,Endurance_Sorensen,1,R_LES,134.7764489287762
BMu117,68,C,REL,Endurance_Sorensen,1,L_LES,134.28817054677285
BMu117,68,C,REL,Endurance_Sorensen,1,R_LES,143.01912681720103
