BM,subject,P_C,session,task,repetition,channel,value
BMu118,1,C,INI,Endurance_Sorensen,1,L_LES,81.05105321646668
BMu118,1,C,INI,Endurance_Sorensen,1,R_LES,77.0232142829746
BMu118,1,C,REL,Endurance_Sorensen,1,L_LES,90.52456295853145
BMu118,1,C,REL,Endurance_Sorensen,1,R_LES,88.04165092907344
BMu118,2,C,INI,Endurance_Sorensen,1,L_LES,82.14551840073982
BMu118,2,C,INI,Endurance_Sorensen,1,R_LES,89.03724491059901
BMu118,2,C,REL,Endurance_Sorensen,1,L_LES,75.86418307150787
BMu118,2,C,REL,Endurance_Sorensen,1,R_LES,82.01461767793256
BMu118,3,C,INI,Endurance_Sorensen,1,L_LES,66.63347575464256
BMu118,3,C,INI,Endurance_Sorensen,1,R_LES,63.75634145354378
BMu118,3,C,REL,Endurance_Sorensen,1,L_LES,53.04426177169435
BMu118,3,C,REL,Endurance_Sorensen,1,R_LES,75.55262159135904
BMu118,5,C,INI,Endurance_Sorensen,1,L_LES,101.0691316461117
BMu118,5,C,INI,Endurance_Sorensen,1,R_LES,95.58863325760043
BMu118,5,C,REL,Endurance_Sorensen,1,L_LES,94.92643475100803
BMu118,5,C,REL,Endurance_Sorensen,1,R_LES,97.86649202973308
BMu118,6,C,INI,Endurance_Sorensen,1,L_LES,98.83431120821217
BMu118,6,C,INI,Endurance_Sorensen,1,R_LES,78.42512741501207
BMu118,6,C,REL,Endurance_Sorensen,1,L_LES,89.36993553670219
BMu118,6,C,REL,Endurance_Sorensen,1,R_LES,82.4360080364879
BMu118,7,C,INI,Endurance_Sorensen,1,L_LES,113.58762347451204
BMu118,7,C,INI,Endurance_Sorensen,1,R_LES,88.13948550496086
BMu118,7,C,REL,Endurance_Sorensen,1,L_LES,114.96483029387915
BMu118,7,C,REL,Endurance_Sorensen,1,R_LES,78.59432005032912
BMu118,8,C,INI,Endurance_Sorensen,1,L_LES,97.30427378897686
BMu118,8,C,INI,Endurance_Sorensen,1,R_LES,75.26229397855073
BMu118,8,C,REL,Endurance_Sorensen,1,L_LES,82.91766356418417
BMu118,8,C,REL,Endurance_Sorensen,1,R_LES,82.18044188611354
BMu118,9,P,INI,Endurance_Sorensen,1,L_LES,68.28844609759673
BMu118,9,P,INI,Endurance_Sorensen,1,R_LES,86.15878507327986
BMu118,9,P,REL,Endurance_Sorensen,1,L_LES,100.55363927214557
BMu118,9,P,REL,Endurance_Sorensen,1,R_LES,99.739186778029
BMu118,10,P,INI,Endurance_Sorensen,1,L_LES,91.12704137313673
BMu118,10,P,INI,Endurance_Sorensen,1,R_LES,82.37612374254925
BMu118,10,P,REL,Endurance_Sorensen,1,L_LES,92.49488468812757
BMu118,10,P,REL,Endurance_Sorensen,1,R_LES,84.66648011052102
BMu118,11,P,INI,Endurance_Sorensen,1,L_LES,85.87639197306736
BMu118,11,P,INI,Endurance_Sorensen,1,R_LES,74.21205817316068
BMu118,11,P,REL,Endurance_Sorensen,1,L_LES,90.20251285711238
BMu118,11,P,REL,Endurance_Sorensen,1,R_LES,82.31476234397387
BMu118,12,P,INI,Endurance_Sorensen,1,L_LES,76.50768846665261
BMu118,12,P,INI,Endurance_Sorensen,1,R_LES,66.22789595347625
BMu118,12,P,REL,Endurance_Sorensen,1,L_LES,81.98409158217196
BMu118,12,P,REL,Endurance_Sorensen,1,R_LES,67.93776775780375
BMu118,13,C,INI,Endurance_Sorensen,1,L_LES,82.25414464351226
BMu118,13,C,INI,Endurance_Sorensen,1,R_LES,73.3888409326009
BMu118,13,C,REL,Endurance_Sorensen,1,L_LES,91.27797029355659
BMu118,13,C,REL,Endurance_Sorensen,1,R_LES,80.17362141214474
BMu118,14,P,INI,Endurance_Sorensen,1,L_LES,89.07039704574888
BMu118,14,P,INI,Endurance_Sorensen,1,R_LES,69.95851145826461
BMu118,14,P,REL,Endurance_Sorensen,1,L_LES,87.14366619978276
BMu118,14,P,REL,Endurance_Sorensen,1,R_LES,79.94207797927892
BMu118,16,C,INI,Endurance_Sorensen,1,L_LES,93.46256135086448
BMu118,16,C,INI,Endurance_Sorensen,1,R_LES,83.53437480274363
BMu118,16,C,REL,Endurance_Sorensen,1,L_LES,86.77097237932064
BMu118,16,C,REL,Endurance_Sorensen,1,R_LES,72.4268829887699
BMu118,17,P,INI,Endurance_Sorensen,1,L_LES,93.47475742946648
BMu118,17,P,INI,Endurance_Sorensen,1,R_LES,90.43816236752649
BMu118,17,P,REL,Endurance_Sorensen,1,L_LES,104.60462293506211
BMu118,17,P,REL,Endurance_Sorensen,1,R_LES,91.29079447268438
BMu118,21,C,INI,Endurance_Sorensen,1,L_LES,80.66496773334843
BMu118,21,C,INI,Endurance_Sorensen,1,R_LES,71.86558534606682
BMu118,21,C,REL,Endurance_Sorensen,1,L_LES,76.38505743667321
BMu118,21,C,REL,Endurance_Sorensen,1,R_LES,80.84489170011196
BMu118,22,C,INI,Endurance_Sorensen,1,L_LES,65.93220689270292
BMu118,22,C,INI,Endurance_Sorensen,1,R_LES,65.54496529714369
BMu118,22,C,REL,Endurance_Sorensen,1,L_LES,61.329983420565284
BMu118,22,C,REL,Endurance_Sorensen,1,R_LES,61.28337269609015
BMu118,23,C,INI,Endurance_Sorensen,1,L_LES,68.74045972256815
BMu118,23,C,INI,Endurance_Sorensen,1,R_LES,78.06197455227715
BMu118,23,C,REL,Endurance_Sorensen,1,L_LES,64.06552851950339
BMu118,23,C,REL,Endurance_Sorensen,1,R_LES,54.79196034756565
BMu118,24,P,INI,Endurance_Sorensen,1,L_LES,105.37413525698221
BMu118,24,P,INI,Endurance_Sorensen,1,R_LES,103.8357034475458
BMu118,24,P,REL,Endurance_Sorensen,1,L_LES,37.16471632456691
BMu118,24,P,REL,Endurance_Sorensen,1,R_LES,46.91039118581573
BMu118,25,C,INI,Endurance_Sorensen,1,L_LES,101.24787088272895
BMu118,25,C,INI,Endurance_Sorensen,1,R_LES,86.59140446054091
BMu118,25,C,REL,Endurance_Sorensen,1,L_LES,100.19184055821616
BMu118,25,C,REL,Endurance_Sorensen,1,R_LES,79.35473632477007
BMu118,26,P,INI,Endurance_Sorensen,1,L_LES,74.82877902654411
BMu118,26,P,INI,Endurance_Sorensen,1,R_LES,67.22996485974123
BMu118,26,P,REL,Endurance_Sorensen,1,L_LES,71.0661140432329
BMu118,26,P,REL,Endurance_Sorensen,1,R_LES,67.44181592069157
BMu118,27,P,INI,Endurance_Sorensen,1,L_LES,83.14170499233485
BMu118,27,P,INI,Endurance_Sorensen,1,R_LES,77.72509072068748
BMu118,27,P,REL,Endurance_Sorensen,1,L_LES,59.6298250609796
BMu118,27,P,REL,Endurance_Sorensen,1,R_LES,71.90933906242007
BMu118,28,P,INI,Endurance_Sorensen,1,L_LES,100.74256062558402
BMu118,28,P,INI,Endurance_Sorensen,1,R_LES,80.22645792591803
BMu118,28,P,REL,Endurance_Sorensen,1,L_LES,103.41933296488186
BMu118,28,P,REL,Endurance_Sorensen,1,R_LES,78.76985511797282
BMu118,29,P,INI,Endurance_Sorensen,1,L_LES,79.18569895851857
BMu118,29,P,INI,Endurance_Sorensen,1,R_LES,89.3010338024561
BMu118,29,P,REL,Endurance_Sorensen,1,L_LES,80.85408273941997
BMu118,29,P,REL,Endurance_Sorensen,1,R_LES,97.89161524528737
BMu118,30,P,INI,Endurance_Sorensen,1,L_LES,95.69760924662359
BMu118,30,P,INI,Endurance_Sorensen,1,R_LES,91.49549400464734
BMu118,30,P,REL,Endurance_Sorensen,1,L_LES,89.18269256201671
BMu118,30,P,REL,Endurance_Sorensen,1,R_LES,98.65963315273453
BMu118,32,P,INI,Endurance_Sorensen,1,L_LES,80.47385466016783
BMu118,32,P,INI,Endurance_Sorensen,1,R_LES,94.7115254572347
BMu118,32,P,REL,Endurance_Sorensen,1,L_LES,111.24134620080592
BMu118,32,P,REL,Endurance_Sorensen,1,R_LES,131.96377621557102
BMu118,33,P,INI,Endurance_Sorensen,1,L_LES,54.04888474236867
BMu118,33,P,INI,Endurance_Sorensen,1,R_LES,56.23083828876632
BMu118,33,P,REL,Endurance_Sorensen,1,L_LES,64.16097425676153
BMu118,33,P,REL,Endurance_Sorensen,1,R_LES,62.95806645122589
BMu118,34,P,INI,Endurance_Sorensen,1,L_LES,81.84868076889673
BMu118,34,P,INI,Endurance_Sorensen,1,R_LES,79.199513632627
BMu118,34,P,REL,Endurance_Sorensen,1,L_LES,84.019060184237
BMu118,34,P,REL,Endurance_Sorensen,1,R_LES,78.02826952075814
BMu118,35,C,INI,Endurance_Sorensen,1,L_LES,87.79553823748526
BMu118,35,C,INI,Endurance_Sorensen,1,R_LES,83.33652050317565
BMu118,35,C,REL,Endurance_Sorensen,1,L_LES,81.4445063421355
BMu118,35,C,REL,Endurance_Sorensen,1,R_LES,81.09909047547607
BMu118,36,P,INI,Endurance_Sorensen,1,L_LES,85.20379257481835
BMu118,36,P,INI,Endurance_Sorensen,1,R_LES,83.19136487167974
BMu118,36,P,REL,Endurance_Sorensen,1,L_LES,103.26391297422897
BMu118,36,P,REL,Endurance_Sorensen,1,R_LES,98.28466068572885
BMu118,38,C,INI,Endurance_Sorensen,1,L_LES,91.94663924357985
BMu118,38,C,INI,Endurance_Sorensen,1,R_LES,49.83483303339331
BMu118,38,C,REL,Endurance_Sorensen,1,L_LES,95.80049064876692
BMu118,38,C,REL,Endurance_Sorensen,1,R_LES,83.8403327119133
BMu118,39,C,INI,Endurance_Sorensen,1,L_LES,107.76307173044133
BMu118,39,C,INI,Endurance_Sorensen,1,R_LES,104.3603742850731
BMu118,39,C,REL,Endurance_Sorensen,1,L_LES,76.77047008180782
BMu118,39,C,REL,Endurance_Sorensen,1,R_LES,90.87006774469279
BMu118,40,C,INI,Endurance_Sorensen,1,L_LES,100.10611199921723
BMu118,40,C,INI,Endurance_Sorensen,1,R_LES,78.62176203217672
BMu118,40,C,REL,Endurance_Sorensen,1,L_LES,104.74156126629079
BMu118,40,C,REL,Endurance_Sorensen,1,R_LES,99.21946645153727
BMu118,41,P,INI,Endurance_Sorensen,1,L_LES,82.07308017145567
BMu118,41,P,INI,Endurance_Sorensen,1,R_LES,72.03579332249026
BMu118,41,P,REL,Endurance_Sorensen,1,L_LES,84.27359372997367
BMu118,41,P,REL,Endurance_Sorensen,1,R_LES,69.53796884573768
BMu118,42,P,INI,Endurance_Sorensen,1,L_LES,104.81273248491362
BMu118,42,P,INI,Endurance_Sorensen,1,R_LES,91.0324693104402
BMu118,42,P,REL,Endurance_Sorensen,1,L_LES,105.30251233217923
BMu118,42,P,REL,Endurance_Sorensen,1,R_LES,85.11400574215864
BMu118,43,P,INI,Endurance_Sorensen,1,L_LES,103.22595440670419
BMu118,43,P,INI,Endurance_Sorensen,1,R_LES,88.45168592036119
BMu118,43,P,REL,Endurance_Sorensen,1,L_LES,111.82585285877833
BMu118,43,P,REL,Endurance_Sorensen,1,R_LES,88.43137032970763
BMu118,44,C,INI,Endurance_Sorensen,1,L_LES,128.34169799703423
BMu118,44,C,INI,Endurance_Sorensen,1,R_LES,111.17043917949084
BMu118,44,C,REL,Endurance_Sorensen,1,L_LES,125.28932769066455
BMu118,44,C,REL,Endurance_Sorensen,1,R_LES,103.10750895831316
BMu118,45,P,INI,Endurance_Sorensen,1,L_LES,65.17744372420341
BMu118,45,P,INI,Endurance_Sorensen,1,R_LES,69.38187100758203
BMu118,45,P,REL,Endurance_Sorensen,1,L_LES,84.10385031161537
BMu118,45,P,REL,Endurance_Sorensen,1,R_LES,76.0996056859268
BMu118,46,C,INI,Endurance_Sorensen,1,L_LES,96.57508274255513
BMu118,46,C,INI,Endurance_Sorensen,1,R_LES,78.86764893010702
BMu118,46,C,REL,Endurance_Sorensen,1,L_LES,78.1741326153374
BMu118,46,C,REL,Endurance_Sorensen,1,R_LES,73.73609356840618
BMu118,47,P,INI,Endurance_Sorensen,1,L_LES,118.31772279590973
BMu118,47,P,INI,Endurance_Sorensen,1,R_LES,95.32745166902738
BMu118,47,P,REL,Endurance_Sorensen,1,L_LES,91.7400028240229
BMu118,47,P,REL,Endurance_Sorensen,1,R_LES,75.67317121283389
BMu118,48,C,INI,Endurance_Sorensen,1,L_LES,134.48495026092547
BMu118,48,C,INI,Endurance_Sorensen,1,R_LES,115.69459745042019
BMu118,48,C,REL,Endurance_Sorensen,1,L_LES,110.49482467011042
BMu118,48,C,REL,Endurance_Sorensen,1,R_LES,109.43973004782316
BMu118,49,C,INI,Endurance_Sorensen,1,L_LES,91.0942382951981
BMu118,49,C,INI,Endurance_Sorensen,1,R_LES,87.32554441492653
BMu118,49,C,REL,Endurance_Sorensen,1,L_LES,99.27224692856701
BMu118,49,C,REL,Endurance_Sorensen,1,R_LES,85.0341742675087
BMu118,50,P,INI,Endurance_Sorensen,1,L_LES,88.42500207441503
BMu118,50,P,INI,Endurance_Sorensen,1,R_LES,86.70000693738803
BMu118,50,P,REL,Endurance_Sorensen,1,L_LES,94.8256725466501
BMu118,50,P,REL,Endurance_Sorensen,1,R_LES,84.84886873556965
BMu118,51,P,INI,Endurance_Sorensen,1,L_LES,69.23973683007196
BMu118,51,P,INI,Endurance_Sorensen,1,R_LES,57.08355440702549
BMu118,51,P,REL,Endurance_Sorensen,1,L_LES,53.22489878682087
BMu118,51,P,REL,Endurance_Sorensen,1,R_LES,55.06316950579821
BMu118,52,C,INI,Endurance_Sorensen,1,L_LES,99.86897610182837
BMu118,52,C,INI,Endurance_Sorensen,1,R_LES,87.72352141331056
BMu118,52,C,REL,Endurance_Sorensen,1,L_LES,104.96613842009279
BMu118,52,C,REL,Endurance_Sorensen,1,R_LES,90.25595055356844
BMu118,53,P,INI,Endurance_Sorensen,1,L_LES,109.12709233045165
BMu118,53,P,INI,Endurance_Sorensen,1,R_LES,86.27884812647861
BMu118,53,P,REL,Endurance_Sorensen,1,L_LES,108.6001408571041
BMu118,53,P,REL,Endurance_Sorensen,1,R_LES,87.10730000943502
BMu118,54,P,INI,Endurance_Sorensen,1,L_LES,95.95139557946996
BMu118,54,P,INI,Endurance_Sorensen,1,R_LES,91.15162826020654
BMu118,54,P,REL,Endurance_Sorensen,1,L_LES,91.15129699142977
BMu118,54,P,REL,Endurance_Sorensen,1,R_LES,83.05126087098148
BMu118,55,C,INI,Endurance_Sorensen,1,L_LES,98.0509026399848
BMu118,55,C,INI,Endurance_Sorensen,1,R_LES,100.04444332578703
BMu118,55,C,REL,Endurance_Sorensen,1,L_LES,85.95264965790452
BMu118,55,C,REL,Endurance_Sorensen,1,R_LES,81.69665014206126
BMu118,56,C,INI,Endurance_Sorensen,1,L_LES,64.09244009520565
BMu118,56,C,INI,Endurance_Sorensen,1,R_LES,65.45406839246377
BMu118,56,C,REL,Endurance_Sorensen,1,L_LES,66.18797339740249
BMu118,56,C,REL,Endurance_Sorensen,1,R_LES,69.93701399449965
BMu118,57,C,INI,Endurance_Sorensen,1,L_LES,84.22398919114684
BMu118,57,C,INI,Endurance_Sorensen,1,R_LES,84.8716173366428
BMu118,57,C,REL,Endurance_Sorensen,1,L_LES,87.83366358224418
BMu118,57,C,REL,Endurance_Sorensen,1,R_LES,88.09116621557578
BMu118,58,P,INI,Endurance_Sorensen,1,L_LES,58.40954043911879
BMu118,58,P,INI,Endurance_Sorensen,1,R_LES,82.57890978984553
BMu118,58,P,REL,Endurance_Sorensen,1,L_LES,83.19889345899351
BMu118,58,P,REL,Endurance_Sorensen,1,R_LES,68.2353438446696
BMu118,60,C,INI,Endurance_Sorensen,1,L_LES,95.9296343997988
BMu118,60,C,INI,Endurance_Sorensen,1,R_LES,60.6865922641243
BMu118,60,C,REL,Endurance_Sorensen,1,L_LES,98.16570847321218
BMu118,60,C,REL,Endurance_Sorensen,1,R_LES,77.08073292173862
BMu118,61,P,REL,Endurance_Sorensen,1,L_LES,82.11975372313029
BMu118,61,P,REL,Endurance_Sorensen,1,R_LES,65.23160592896032
BMu118,62,P,INI,Endurance_Sorensen,1,L_LES,76.30629262618655
BMu118,62,P,INI,Endurance_Sorensen,1,R_LES,77.2682100627038
BMu118,62,P,REL,Endurance_Sorensen,1,L_LES,79.48234528918391
BMu118,62,P,REL,Endurance_Sorensen,1,R_LES,80.10595683061189
BMu118,63,P,INI,Endurance_Sorensen,1,L_LES,104.74883123958459
BMu118,63,P,INI,Endurance_Sorensen,1,R_LES,103.81792905202386
BMu118,63,P,REL,Endurance_Sorensen,1,L_LES,115.11199052179228
BMu118,63,P,REL,Endurance_Sorensen,1,R_LES,106.84144824781811
BMu118,64,C,INI,Endurance_Sorensen,1,L_LES,96.92312045376977
BMu118,64,C,INI,Endurance_Sorensen,1,R_LES,82.63960387791546
BMu118,64,C,REL,Endurance_Sorensen,1,L_LES,86.9895274676408
BMu118,64,C,REL,Endurance_Sorensen,1,R_LES,77.66031868253215
BMu118,65,P,INI,Endurance_Sorensen,1,L_LES,98.36117667093848
BMu118,65,P,INI,Endurance_Sorensen,1,R_LES,72.56448174366285
BMu118,65,P,REL,Endurance_Sorensen,1,L_LES,112.56260470637777
BMu118,65,P,REL,Endurance_Sorensen,1,R_LES,86.4049412339754
BMu118,66,C,INI,Endurance_Sorensen,1,L_LES,61.42675215461006
BMu118,66,C,INI,Endurance_Sorensen,1,R_LES,59.100748743919695
BMu118,66,C,REL,Endurance_Sorensen,1,L_LES,72.27609687693014
BMu118,66,C,REL,Endurance_Sorensen,1,R_LES,70.00784982065436
BMu118,67,C,INI,Endurance_Sorensen,1,L_LES,82.52074918881081
BMu118,67,C,INI,Endurance_Sorensen,1,R_LES,97.42089851912016
BMu118,67,C,REL,Endurance_Sorensen,1,L_LES,84.60501408409289
BMu118,67,C,REL,Endurance_Sorensen,1,R_LES,76.01168583388383
BMu118,68,C,INI,Endurance_Sorensen,1,L_LES,112.85739502510808
BMu118,68,C,INI,Endurance_Sorensen,1,R_LES,113.64018511996333
BMu118,68,C,REL,Endurance_Sorensen,1,L_LES,119.33853712911692
BMu118,68,C,REL,Endurance_Sorensen,1,R_LES,108.832659501836
