BM,subject,P_C,session,task,repetition,channel,value
BMu117,1,C,INI,Endurance_Sorensen,1,L_LES,117.19788752371174
BMu117,1,C,INI,Endurance_Sorensen,1,R_LES,93.12298501977263
BMu117,1,C,REL,Endurance_Sorensen,1,L_LES,116.5663170562026
BMu117,1,C,REL,Endurance_Sorensen,1,R_LES,105.67623598627588
BMu117,2,C,INI,Endurance_Sorensen,1,L_LES,102.00548152469058
BMu117,2,C,INI,Endurance_Sorensen,1,R_LES,114.69944168830179
BMu117,2,C,REL,Endurance_Sorensen,1,L_LES,104.12460884995583
BMu117,2,C,REL,Endurance_Sorensen,1,R_LES,101.49350805269133
BMu117,3,C,INI,Endurance_Sorensen,1,L_LES,92.83389227638726
BMu117,3,C,INI,Endurance_Sorensen,1,R_LES,93.21193586983732
BMu117,3,C,REL,Endurance_Sorensen,1,L_LES,76.50011816224371
BMu117,3,C,REL,Endurance_Sorensen,1,R_LES,94.4605584939778
BMu117,5,C,INI,Endurance_Sorensen,1,L_LES,121.38581055015214
BMu117,5,C,INI,Endurance_Sorensen,1,R_LES,117.69481685981333
BMu117,5,C,REL,Endurance_Sorensen,1,L_LES,127.03406918986705
BMu117,5,C,REL,Endurance_Sorensen,1,R_LES,114.91143843815371
BMu117,6,C,INI,Endurance_Sorensen,1,L_LES,122.9141964146488
BMu117,6,C,INI,Endurance_Sorensen,1,R_LES,114.37425294562345
BMu117,6,C,REL,Endurance_Sorensen,1,L_LES,113.56938177101735
BMu117,6,C,REL,Endurance_Sorensen,1,R_LES,106.69154298410614
BMu117,7,C,INI,Endurance_Sorensen,1,L_LES,143.10726486237016
BMu117,7,C,INI,Endurance_Sorensen,1,R_LES,114.79334921707112
BMu117,7,C,REL,Endurance_Sorensen,1,L_LES,145.99349552658614
BMu117,7,C,REL,Endurance_Sorensen,1,R_LES,104.61286101755928
BMu117,8,C,INI,Endurance_Sorensen,1,L_LES,118.4824980085407
BMu117,8,C,INI,Endurance_Sorensen,1,R_LES,98.2225145318618
BMu117,8,C,REL,Endurance_Sorensen,1,L_LES,98.72765627870604
BMu117,8,C,REL,Endurance_Sorensen,1,R_LES,96.7328927748873
BMu117,9,P,INI,Endurance_Sorensen,1,L_LES,116.97813303961567
BMu117,9,P,INI,Endurance_Sorensen,1,R_LES,117.27211083281435
BMu117,9,P,REL,Endurance_Sorensen,1,L_LES,121.7293185181
BMu117,9,P,REL,Endurance_Sorensen,1,R_LES,122.22501009078734
BMu117,10,P,INI,Endurance_Sorensen,1,L_LES,114.70314520976825
BMu117,10,P,INI,Endurance_Sorensen,1,R_LES,106.5413144510872
BMu117,10,P,REL,Endurance_Sorensen,1,L_LES,118.71698527455837
BMu117,10,P,REL,Endurance_Sorensen,1,R_LES,112.36000862328478
BMu117,11,P,INI,Endurance_Sorensen,1,L_LES,104.82012526256061
BMu117,11,P,INI,Endurance_Sorensen,1,R_LES,96.71720048968949
BMu117,11,P,REL,Endurance_Sorensen,1,L_LES,106.59480711589032
BMu117,11,P,REL,Endurance_Sorensen,1,R_LES,99.51832643350916
BMu117,12,P,INI,Endurance_Sorensen,1,L_LES,94.426907655565
BMu117,12,P,INI,Endurance_Sorensen,1,R_LES,78.20467853567257
BMu117,12,P,REL,Endurance_Sorensen,1,L_LES,91.08590434517886
BMu117,12,P,REL,Endurance_Sorensen,1,R_LES,75.41264508980512
BMu117,13,C,INI,Endurance_Sorensen,1,L_LES,107.68801746008671
BMu117,13,C,INI,Endurance_Sorensen,1,R_LES,106.56519927277019
BMu117,13,C,REL,Endurance_Sorensen,1,L_LES,111.33436319829494
BMu117,13,C,REL,Endurance_Sorensen,1,R_LES,100.60229889099033
BMu117,14,P,INI,Endurance_Sorensen,1,L_LES,101.59087417029981
BMu117,14,P,INI,Endurance_Sorensen,1,R_LES,82.22506458426061
BMu117,14,P,REL,Endurance_Sorensen,1,L_LES,101.8284367581356
BMu117,14,P,REL,Endurance_Sorensen,1,R_LES,91.8611659462939
BMu117,16,C,INI,Endurance_Sorensen,1,L_LES,108.66047086779945
BMu117,16,C,INI,Endurance_Sorensen,1,R_LES,102.28186907386666
BMu117,16,C,REL,Endurance_Sorensen,1,L_LES,107.87227884689132
BMu117,16,C,REL,Endurance_Sorensen,1,R_LES,88.93365000675715
BMu117,17,P,INI,Endurance_Sorensen,1,L_LES,132.99710245231051
BMu117,17,P,INI,Endurance_Sorensen,1,R_LES,100.21764372888953
BMu117,17,P,REL,Endurance_Sorensen,1,L_LES,118.57430457654536
BMu117,17,P,REL,Endurance_Sorensen,1,R_LES,120.4530225282902
BMu117,21,C,INI,Endurance_Sorensen,1,L_LES,101.22119055252674
BMu117,21,C,INI,Endurance_Sorensen,1,R_LES,89.66637271578051
BMu117,21,C,REL,Endurance_Sorensen,1,L_LES,102.41019082216417
BMu117,21,C,REL,Endurance_Sorensen,1,R_LES,101.75583705083797
BMu117,22,C,INI,Endurance_Sorensen,1,L_LES,85.80740482335874
BMu117,22,C,INI,Endurance_Sorensen,1,R_LES,88.13309565231751
BMu117,22,C,REL,Endurance_Sorensen,1,L_LES,90.36396039821282
BMu117,22,C,REL,Endurance_Sorensen,1,R_LES,75.50769575235289
BMu117,23,C,INI,Endurance_Sorensen,1,L_LES,74.97625539852339
BMu117,23,C,INI,Endurance_Sorensen,1,R_LES,106.28484944845799
BMu117,23,C,REL,Endurance_Sorensen,1,L_LES,102.95896068148808
BMu117,23,C,REL,Endurance_Sorensen,1,R_LES,88.1742950580066
BMu117,24,P,INI,Endurance_Sorensen,1,L_LES,125.15165977677962
BMu117,24,P,INI,Endurance_Sorensen,1,R_LES,119.99897740637981
BMu117,24,P,REL,Endurance_Sorensen,1,L_LES,86.64026188637355
BMu117,24,P,REL,Endurance_Sorensen,1,R_LES,57.28573315526333
BMu117,25,C,INI,Endurance_Sorensen,1,L_LES,119.11073236332322
BMu117,25,C,INI,Endurance_Sorensen,1,R_LES,109.250466715343
BMu117,25,C,REL,Endurance_Sorensen,1,L_LES,125.82163845526124
BMu117,25,C,REL,Endurance_Sorensen,1,R_LES,102.52492634025806
BMu117,26,P,INI,Endurance_Sorensen,1,L_LES,104.08523639560008
BMu117,26,P,INI,Endurance_Sorensen,1,R_LES,89.85637869750441
BMu117,26,P,REL,Endurance_Sorensen,1,L_LES,98.43597760137192
BMu117,26,P,REL,Endurance_Sorensen,1,R_LES,95.02108872704349
BMu117,27,P,INI,Endurance_Sorensen,1,L_LES,106.21796329708735
BMu117,27,P,INI,Endurance_Sorensen,1,R_LES,96.69429701881222
BMu117,27,P,REL,Endurance_Sorensen,1,L_LES,104.11444003208258
BMu117,27,P,REL,Endurance_Sorensen,1,R_LES,98.56055154814375
BMu117,28,P,INI,Endurance_Sorensen,1,L_LES,121.4265820359115
BMu117,28,P,INI,Endurance_Sorensen,1,R_LES,103.05031348970019
BMu117,28,P,REL,Endurance_Sorensen,1,L_LES,127.96368713630959
BMu117,28,P,REL,Endurance_Sorensen,1,R_LES,103.31490390249805
BMu117,29,P,INI,Endurance_Sorensen,1,L_LES,103.9286543905965
BMu117,29,P,INI,Endurance_Sorensen,1,R_LES,109.20467187014529
BMu117,29,P,REL,Endurance_Sorensen,1,L_LES,111.92672268805322
BMu117,29,P,REL,Endurance_Sorensen,1,R_LES,113.57765640517724
BMu117,30,P,INI,Endurance_Sorensen,1,L_LES,111.011969109266
BMu117,30,P,INI,Endurance_Sorensen,1,R_LES,102.83746986797497
BMu117,30,P,REL,Endurance_Sorensen,1,L_LES,114.33263755187173
BMu117,30,P,REL,Endurance_Sorensen,1,R_LES,88.60383523468724
BMu117,32,P,INI,Endurance_Sorensen,1,L_LES,100.00735632156744
BMu117,32,P,INI,Endurance_Sorensen,1,R_LES,92.85583971252095
BMu117,32,P,REL,Endurance_Sorensen,1,L_LES,87.46242353330696
BMu117,32,P,REL,Endurance_Sorensen,1,R_LES,108.94163256283042
BMu117,33,P,INI,Endurance_Sorensen,1,L_LES,62.49890458133539
BMu117,33,P,INI,Endurance_Sorensen,1,R_LES,64.69878035063844
BMu117,33,P,REL,Endurance_Sorensen,1,L_LES,84.5119754988517
BMu117,33,P,REL,Endurance_Sorensen,1,R_LES,83.04928007694639
BMu117,34,P,INI,Endurance_Sorensen,1,L_LES,108.65956503928537
BMu117,34,P,INI,Endurance_Sorensen,1,R_LES,102.37428375448357
BMu117,34,P,REL,Endurance_Sorensen,1,L_LES,104.49027064880612
BMu117,34,P,REL,Endurance_Sorensen,1,R_LES,100.39655934307271
BMu117,35,C,INI,Endurance_Sorensen,1,L_LES,113.749002975666
BMu117,35,C,INI,Endurance_Sorensen,1,R_LES,99.40790361241415
BMu117,35,C,REL,Endurance_Sorensen,1,L_LES,112.26376862410943
BMu117,35,C,REL,Endurance_Sorensen,1,R_LES,121.42042695020729
BMu117,36,P,INI,Endurance_Sorensen,1,L_LES,105.41200483846606
BMu117,36,P,INI,Endurance_Sorensen,1,R_LES,99.60828130786025
BMu117,36,P,REL,Endurance_Sorensen,1,L_LES,111.90313696278157
BMu117,36,P,REL,Endurance_Sorensen,1,R_LES,111.26119397168804
BMu117,38,C,INI,Endurance_Sorensen,1,L_LES,111.68809772405449
BMu117,38,C,INI,Endurance_Sorensen,1,R_LES,68.26844670609323
BMu117,38,C,REL,Endurance_Sorensen,1,L_LES,112.32265002171312
BMu117,38,C,REL,Endurance_Sorensen,1,R_LES,110.33303120010568
BMu117,39,C,INI,Endurance_Sorensen,1,L_LES,132.56039097521918
BMu117,39,C,INI,Endurance_Sorensen,1,R_LES,121.92821030981705
BMu117,39,C,REL,Endurance_Sorensen,1,L_LES,93.88029240597129
BMu117,39,C,REL,Endurance_Sorensen,1,R_LES,113.37138020906936
BMu117,40,C,INI,Endurance_Sorensen,1,L_LES,134.13683713900937
BMu117,40,C,INI,Endurance_Sorensen,1,R_LES,102.61089041614945
BMu117,40,C,REL,Endurance_Sorensen,1,L_LES,138.09599979085397
BMu117,40,C,REL,Endurance_Sorensen,1,R_LES,126.98617707678008
BMu117,41,P,INI,Endurance_Sorensen,1,L_LES,95.29210743710463
BMu117,41,P,INI,Endurance_Sorensen,1,R_LES,89.70059321730395
BMu117,41,P,REL,Endurance_Sorensen,1,L_LES,100.3960057175827
BMu117,41,P,REL,Endurance_Sorensen,1,R_LES,81.93006515810079
BMu117,42,P,INI,Endurance_Sorensen,1,L_LES,127.02103335544872
BMu117,42,P,INI,Endurance_Sorensen,1,R_LES,109.57013981604946
BMu117,42,P,REL,Endurance_Sorensen,1,L_LES,121.34075907442643
BMu117,42,P,REL,Endurance_Sorensen,1,R_LES,106.5558966430026
BMu117,43,P,INI,Endurance_Sorensen,1,L_LES,128.79759994471485
BMu117,43,P,INI,Endurance_Sorensen,1,R_LES,106.36319765543277
BMu117,43,P,REL,Endurance_Sorensen,1,L_LES,135.11130313397487
BMu117,43,P,REL,Endurance_Sorensen,1,R_LES,102.58586048564074
BMu117,44,C,INI,Endurance_Sorensen,1,L_LES,126.46257033413012
BMu117,44,C,INI,Endurance_Sorensen,1,R_LES,89.03630772479825
BMu117,44,C,REL,Endurance_Sorensen,1,L_LES,144.50379531029282
BMu117,44,C,REL,Endurance_Sorensen,1,R_LES,124.28971075208887
BMu117,45,P,INI,Endurance_Sorensen,1,L_LES,80.95626494010071
BMu117,45,P,INI,Endurance_Sorensen,1,R_LES,69.17997086512463
BMu117,45,P,REL,Endurance_Sorensen,1,L_LES,102.74611064591296
BMu117,45,P,REL,Endurance_Sorensen,1,R_LES,87.14627976241712
BMu117,46,C,INI,Endurance_Sorensen,1,L_LES,122.97605927038836
BMu117,46,C,INI,Endurance_Sorensen,1,R_LES,99.83597137406477
BMu117,46,C,REL,Endurance_Sorensen,1,L_LES,118.34026523343253
BMu117,46,C,REL,Endurance_Sorensen,1,R_LES,98.73267076383163
BMu117,47,P,INI,Endurance_Sorensen,1,L_LES,144.28886246907692
BMu117,47,P,INI,Endurance_Sorensen,1,R_LES,138.51929619782766
BMu117,47,P,REL,Endurance_Sorensen,1,L_LES,111.71909966751356
BMu117,47,P,REL,Endurance_Sorensen,1,R_LES,99.90909486311612
BMu117,48,C,INI,Endurance_Sorensen,1,L_LES,156.76642518285928
BMu117,48,C,INI,Endurance_Sorensen,1,R_LES,139.21351460471774
BMu117,48,C,REL,Endurance_Sorensen,1,L_LES,134.7858601544263
BMu117,48,C,REL,Endurance_Sorensen,1,R_LES,136.34330299277858
BMu117,49,C,INI,Endurance_Sorensen,1,L_LES,121.91671666234011
BMu117,49,C,INI,Endurance_Sorensen,1,R_LES,112.6384901521314
BMu117,49,C,REL,Endurance_Sorensen,1,L_LES,109.36115821596842
BMu117,49,C,REL,Endurance_Sorensen,1,R_LES,109.31620691604559
BMu117,50,P,INI,Endurance_Sorensen,1,L_LES,123.34808540589901
BMu117,50,P,INI,Endurance_Sorensen,1,R_LES,110.8680617415795
BMu117,50,P,REL,Endurance_Sorensen,1,L_LES,107.21897641301416
BMu117,50,P,REL,Endurance_Sorensen,1,R_LES,118.88074741505199
BMu117,51,P,INI,Endurance_Sorensen,1,L_LES,77.43572401989633
BMu117,51,P,INI,Endurance_Sorensen,1,R_LES,84.23738337528653
BMu117,51,P,REL,Endurance_Sorensen,1,L_LES,74.39320138714328
BMu117,51,P,REL,Endurance_Sorensen,1,R_LES,92.15100362629286
BMu117,52,C,INI,Endurance_Sorensen,1,L_LES,95.18374261683044
BMu117,52,C,INI,Endurance_Sorensen,1,R_LES,104.04299643485689
BMu117,52,C,REL,Endurance_Sorensen,1,L_LES,131.39818484487125
BMu117,52,C,REL,Endurance_Sorensen,1,R_LES,114.30388118421702
BMu117,53,P,INI,Endurance_Sorensen,1,L_LES,107.72943547829941
BMu117,53,P,INI,Endurance_Sorensen,1,R_LES,87.83687995395994
BMu117,53,P,REL,Endurance_Sorensen,1,L_LES,99.58734312085052
BMu117,53,P,REL,Endurance_Sorensen,1,R_LES,107.03090945945833
BMu117,54,P,INI,Endurance_Sorensen,1,L_LES,120.35569882174354
BMu117,54,P,INI,Endurance_Sorensen,1,R_LES,117.38758049599731
BMu117,54,P,REL,Endurance_Sorensen,1,L_LES,113.47348152959522
BMu117,54,P,REL,Endurance_Sorensen,1,R_LES,120.81916636735683
BMu117,55,C,INI,Endurance_Sorensen,1,L_LES,115.26790902178027
BMu117,55,C,INI,Endurance_Sorensen,1,R_LES,114.33474982513657
BMu117,55,C,REL,Endurance_Sorensen,1,L_LES,105.23753039905824
BMu117,55,C,REL,Endurance_Sorensen,1,R_LES,104.55364066879307
BMu117,56,C,INI,Endurance_Sorensen,1,L_LES,67.57766526799978
BMu117,56,C,INI,Endurance_Sorensen,1,R_LES,75.7814652843777
BMu117,56,C,REL,Endurance_Sorensen,1,L_LES,83.87393703057113
BMu117,56,C,REL,Endurance_Sorensen,1,R_LES,84.68279590061793
BMu117,57,C,INI,Endurance_Sorensen,1,L_LES,101.28164920159998
BMu117,57,C,INI,Endurance_Sorensen,1,R_LES,104.62911015376507
BMu117,57,C,REL,Endurance_Sorensen,1,L_LES,111.9753008117706
BMu117,57,C,REL,Endurance_Sorensen,1,R_LES,94.53353968115024
BMu117,58,P,INI,Endurance_Sorensen,1,L_LES,110.6721985455085
BMu117,58,P,INI,Endurance_Sorensen,1,R_LES,105.86368726481213
BMu117,58,P,REL,Endurance_Sorensen,1,L_LES,110.53865816985439
BMu117,58,P,REL,Endurance_Sorensen,1,R_LES,94.74521543431406
BMu117,60,C,INI,Endurance_Sorensen,1,L_LES,116.40592372016941
BMu117,60,C,INI,Endurance_Sorensen,1,R_LES,102.91574713202931
BMu117,60,C,REL,Endurance_Sorensen,1,L_LES,110.10671525130998
BMu117,60,C,REL,Endurance_Sorensen,1,R_LES,94.6136123427992
BMu117,61,P,REL,Endurance_Sorensen,1,L_LES,83.50480421135411
BMu117,61,P,REL,Endurance_Sorensen,1,R_LES,90.27692041730218
BMu117,62,P,INI,Endurance_Sorensen,1,L_LES,87.29089877473353
BMu117,62,P,INI,Endurance_Sorensen,1,R_LES,86.7664220649393
BMu117,62,P,REL,Endurance_Sorensen,1,L_LES,99.34904304839138
BMu117,62,P,REL,Endurance_Sorensen,1,R_LES,95.3236720524838
BMu117,63,P,INI,Endurance_Sorensen,1,L_LES,100.83802165359388
BMu117,63,P,INI,Endurance_Sorensen,1,R_LES,118.44094151334929
BMu117,63,P,REL,Endurance_Sorensen,1,L_LES,130.5418863025502
BMu117,63,P,REL,Endurance_Sorensen,1,R_LES,119.34086113067502
BMu117,64,C,INI,Endurance_Sorensen,1,L_LES,118.18958106326264
BMu117,64,C,INI,Endurance_Sorensen,1,R_LES,109.21406872983268
BMu117,64,C,REL,Endurance_Sorensen,1,L_LES,107.45053218377726
BMu117,64,C,REL,Endurance_Sorensen,1,R_LES,97.95963994064368
BMu117,65,P,INI,Endurance_Sorensen,1,L_LES,111.94537810376687
BMu117,65,P,INI,Endurance_Sorensen,1,R_LES,96.75167514539366
BMu117,65,P,REL,Endurance_Sorensen,1,L_LES,133.67221493906524
BMu117,65,P,REL,Endurance_Sorensen,1,R_LES,108.1280888994067
BMu117,66,C,INI,Endurance_Sorensen,1,L_LES,106.83120005359265
BMu117,66,C,INI,Endurance_Sorensen,1,R_LES,96.10403342466012
BMu117,66,C,REL,Endurance_Sorensen,1,L_LES,99.57104980720342
BMu117,66,C,REL,Endurance_Sorensen,1,R_LES,102.80314041260685
BMu117,67,C,INI,Endurance_Sorensen,1,L_LES,95.5941439530519
BMu117,67,C,INI,Endurance_Sorensen,1,R_LES,120.18807243627629
BMu117,67,C,REL,Endurance_Sorensen,1,L_LES,95.96632784314697
BMu117,67,C,REL,Endurance_Sorensen,1,R_LES,103.21519337174817
BMu117,68,C,INI,Endurance_Sorensen,1,L_LES,126.9896684817549
BMu117,68,C,INI,Endurance_Sorensen,1,R_LES,139.05750107225387
BMu117,68,C,REL,Endurance_Sorensen,1,L_LES,137.6163658647148
BMu117,68,C,REL,Endurance_Sorensen,1,R_LES,144.16526841325333
