BM,subject,P_C,session,task,repetition,channel,value
BMu109,1,C,INI,Gait_Normal,1,L_LES,54.32668310664636
BMu109,1,C,INI,Gait_Normal,1,R_LES,65.88464300052647
BMu109,1,C,INI,Gait_Normal,3,R_LES,72.20813730827325
BMu109,1,C,INI,Gait_Normal,4,R_LES,66.21963128340607
BMu109,1,C,INI,Gait_Normal,5,R_LES,67.92277929130586
BMu109,1,C,INI,Gait_Normal,6,R_LES,72.33584110618771
BMu109,1,C,INI,Gait_Normal,7,R_LES,74.66658933442802
BMu109,1,C,INI,Gait_Normal,8,R_LES,72.40528822571041
BMu109,1,C,INI,Gait_Normal,9,L_LES,67.79705355850163
BMu109,1,C,INI,Gait_Normal,9,R_LES,70.63162719241397
BMu109,1,C,INI,Gait_Normal,10,L_LES,66.21108325184008
BMu109,1,C,INI,Gait_Normal,10,R_LES,68.40062020695832
BMu109,1,C,REL,Gait_Normal,1,L_LES,54.010432080232015
BMu109,1,C,REL,Gait_Normal,10,L_LES,63.29096071011549
BMu109,1,C,REL,Gait_Normal,10,R_LES,79.5124338290424
BMu109,2,C,INI,Gait_Normal,4,L_LES,85.83870414015419
BMu109,2,C,INI,Gait_Normal,6,L_LES,89.2937463654344
BMu109,2,C,INI,Gait_Normal,7,L_LES,91.16795152188168
BMu109,2,C,INI,Gait_Normal,8,L_LES,90.04670042087378
BMu109,2,C,INI,Gait_Normal,9,L_LES,91.03870513052944
BMu109,2,C,REL,Gait_Normal,1,R_LES,61.93662913393611
BMu109,2,C,REL,Gait_Normal,2,R_LES,54.608015676971604
BMu109,2,C,REL,Gait_Normal,3,L_LES,54.28630095729002
BMu109,2,C,REL,Gait_Normal,3,R_LES,65.90349800812267
BMu109,2,C,REL,Gait_Normal,4,L_LES,42.82479016078495
BMu109,2,C,REL,Gait_Normal,4,R_LES,55.12434144212382
BMu109,2,C,REL,Gait_Normal,5,R_LES,60.966133756357806
BMu109,2,C,REL,Gait_Normal,6,R_LES,61.55986039787725
BMu109,2,C,REL,Gait_Normal,7,L_LES,46.85437165388964
BMu109,2,C,REL,Gait_Normal,7,R_LES,60.91145457528708
BMu109,2,C,REL,Gait_Normal,8,L_LES,51.352498240929364
BMu109,2,C,REL,Gait_Normal,9,L_LES,50.71644910972145
BMu109,2,C,REL,Gait_Normal,9,R_LES,65.59748819045538
BMu109,3,C,INI,Gait_Normal,1,R_LES,70.74605366034505
BMu109,3,C,INI,Gait_Normal,2,R_LES,70.91898695350366
BMu109,3,C,INI,Gait_Normal,4,L_LES,65.36864011152306
BMu109,3,C,INI,Gait_Normal,8,R_LES,73.99617317219605
BMu109,3,C,INI,Gait_Normal,9,L_LES,73.06039017698868
BMu109,3,C,INI,Gait_Normal,10,L_LES,71.87309830899257
BMu109,3,C,INI,Gait_Normal,10,R_LES,77.12428358463961
BMu109,3,C,REL,Gait_Normal,2,R_LES,75.21482582705582
BMu109,3,C,REL,Gait_Normal,3,R_LES,74.31172979343978
BMu109,3,C,REL,Gait_Normal,4,R_LES,74.21713256620332
BMu109,3,C,REL,Gait_Normal,6,R_LES,77.49886064547897
BMu109,3,C,REL,Gait_Normal,7,R_LES,74.13717532037316
BMu109,3,C,REL,Gait_Normal,10,L_LES,66.79172357164347
BMu109,3,C,REL,Gait_Normal,10,R_LES,78.61005867337671
BMu109,5,C,INI,Gait_Normal,1,L_LES,57.078358203071126
BMu109,5,C,INI,Gait_Normal,1,R_LES,74.81089763727097
BMu109,5,C,INI,Gait_Normal,2,L_LES,59.87304637752658
BMu109,5,C,INI,Gait_Normal,2,R_LES,71.05882884838692
BMu109,5,C,INI,Gait_Normal,3,L_LES,72.21502444822666
BMu109,5,C,INI,Gait_Normal,3,R_LES,73.77113530629528
BMu109,5,C,INI,Gait_Normal,4,L_LES,56.952259041469176
BMu109,5,C,INI,Gait_Normal,4,R_LES,76.70502343079228
BMu109,5,C,INI,Gait_Normal,5,L_LES,62.83291634500146
BMu109,5,C,INI,Gait_Normal,5,R_LES,76.00720300670369
BMu109,5,C,INI,Gait_Normal,6,L_LES,71.37293055485165
BMu109,5,C,INI,Gait_Normal,6,R_LES,72.11831376596967
BMu109,5,C,INI,Gait_Normal,7,L_LES,52.30312477773383
BMu109,5,C,INI,Gait_Normal,7,R_LES,73.90676515473102
BMu109,5,C,INI,Gait_Normal,8,L_LES,58.5356660124404
BMu109,5,C,INI,Gait_Normal,8,R_LES,75.49314362468209
BMu109,5,C,REL,Gait_Normal,1,L_LES,53.76339488102267
BMu109,5,C,REL,Gait_Normal,1,R_LES,65.27254042211582
BMu109,5,C,REL,Gait_Normal,2,L_LES,55.2397230268154
BMu109,5,C,REL,Gait_Normal,2,R_LES,64.1983702779951
BMu109,5,C,REL,Gait_Normal,3,L_LES,49.771807328295246
BMu109,5,C,REL,Gait_Normal,3,R_LES,68.08943876766423
BMu109,5,C,REL,Gait_Normal,4,L_LES,53.87965673468076
BMu109,5,C,REL,Gait_Normal,4,R_LES,72.2634369470013
BMu109,5,C,REL,Gait_Normal,5,L_LES,50.97365467885779
BMu109,5,C,REL,Gait_Normal,5,R_LES,69.98348148646137
BMu109,5,C,REL,Gait_Normal,6,L_LES,49.14944652314578
BMu109,5,C,REL,Gait_Normal,6,R_LES,68.60095086398613
BMu109,5,C,REL,Gait_Normal,7,L_LES,54.9439241983976
BMu109,5,C,REL,Gait_Normal,7,R_LES,69.59052353634542
BMu109,5,C,REL,Gait_Normal,8,L_LES,49.40568935906136
BMu109,5,C,REL,Gait_Normal,8,R_LES,72.51773495697877
BMu109,5,C,REL,Gait_Normal,9,L_LES,52.05790003453051
BMu109,5,C,REL,Gait_Normal,9,R_LES,71.70332440138095
BMu109,6,C,INI,Gait_Normal,1,L_LES,53.6439668988713
BMu109,6,C,INI,Gait_Normal,2,L_LES,39.76053899805914
BMu109,6,C,INI,Gait_Normal,3,L_LES,49.38312482315464
BMu109,6,C,REL,Gait_Normal,1,L_LES,49.76431636244111
BMu109,6,C,REL,Gait_Normal,1,R_LES,77.60916247618913
BMu109,6,C,REL,Gait_Normal,2,L_LES,49.3017900118222
BMu109,6,C,REL,Gait_Normal,2,R_LES,73.98204340186682
BMu109,6,C,REL,Gait_Normal,3,L_LES,53.39119073944477
BMu109,6,C,REL,Gait_Normal,3,R_LES,74.86977493463692
BMu109,6,C,REL,Gait_Normal,4,L_LES,57.84019416953998
BMu109,6,C,REL,Gait_Normal,4,R_LES,73.68497368335767
BMu109,6,C,REL,Gait_Normal,5,L_LES,53.99883983165638
BMu109,6,C,REL,Gait_Normal,5,R_LES,72.61240740478513
BMu109,6,C,REL,Gait_Normal,6,L_LES,48.671336529753326
BMu109,6,C,REL,Gait_Normal,6,R_LES,78.75582042117932
BMu109,6,C,REL,Gait_Normal,7,L_LES,53.934904411245114
BMu109,6,C,REL,Gait_Normal,7,R_LES,72.12122266968237
BMu109,6,C,REL,Gait_Normal,8,L_LES,56.85575740348023
BMu109,6,C,REL,Gait_Normal,8,R_LES,74.65400774538278
BMu109,6,C,REL,Gait_Normal,9,L_LES,52.20830445689904
BMu109,6,C,REL,Gait_Normal,9,R_LES,73.80650058183576
BMu109,6,C,REL,Gait_Normal,10,L_LES,54.638331508117986
BMu109,6,C,REL,Gait_Normal,10,R_LES,81.71422522329738
BMu109,6,C,REL,Gait_Normal,11,L_LES,55.970463164255754
BMu109,6,C,REL,Gait_Normal,11,R_LES,73.09968026763056
BMu109,7,C,INI,Gait_Normal,3,R_LES,71.99566005753775
BMu109,7,C,INI,Gait_Normal,4,L_LES,75.12459345198492
BMu109,7,C,INI,Gait_Normal,4,R_LES,83.00372943890024
BMu109,7,C,INI,Gait_Normal,5,R_LES,75.41621394623154
BMu109,7,C,INI,Gait_Normal,6,R_LES,65.81836957873182
BMu109,7,C,INI,Gait_Normal,7,R_LES,66.97168259947945
BMu109,7,C,REL,Gait_Normal,2,R_LES,71.99090597101365
BMu109,7,C,REL,Gait_Normal,4,L_LES,75.4732263033036
BMu109,7,C,REL,Gait_Normal,4,R_LES,83.92410126944954
BMu109,7,C,REL,Gait_Normal,5,R_LES,78.2731690045835
BMu109,7,C,REL,Gait_Normal,6,R_LES,73.46436201908746
BMu109,7,C,REL,Gait_Normal,7,R_LES,82.32421630015433
BMu109,8,C,INI,Gait_Normal,1,L_LES,53.06444602538888
BMu109,8,C,INI,Gait_Normal,2,L_LES,58.39898065955727
BMu109,8,C,INI,Gait_Normal,3,L_LES,64.14528742885979
BMu109,8,C,INI,Gait_Normal,4,L_LES,62.65804273395731
BMu109,8,C,INI,Gait_Normal,5,R_LES,69.76229324804996
BMu109,8,C,INI,Gait_Normal,6,L_LES,49.67669718246564
BMu109,8,C,INI,Gait_Normal,6,R_LES,61.51856349275613
BMu109,8,C,REL,Gait_Normal,1,L_LES,61.458691156301605
BMu109,8,C,REL,Gait_Normal,1,R_LES,61.913934911183674
BMu109,8,C,REL,Gait_Normal,2,L_LES,54.59798407836091
BMu109,8,C,REL,Gait_Normal,2,R_LES,59.1868582296651
BMu109,8,C,REL,Gait_Normal,3,L_LES,59.132857903029596
BMu109,8,C,REL,Gait_Normal,3,R_LES,60.794841442713185
BMu109,8,C,REL,Gait_Normal,4,L_LES,48.31378210588264
BMu109,8,C,REL,Gait_Normal,4,R_LES,54.76704479033939
BMu109,8,C,REL,Gait_Normal,5,L_LES,63.81504417096494
BMu109,8,C,REL,Gait_Normal,5,R_LES,57.86283752785578
BMu109,9,P,INI,Gait_Normal,1,L_LES,56.15583955556756
BMu109,9,P,INI,Gait_Normal,1,R_LES,76.68318060405433
BMu109,9,P,INI,Gait_Normal,2,L_LES,55.13853750736225
BMu109,9,P,INI,Gait_Normal,2,R_LES,74.0138193200091
BMu109,9,P,INI,Gait_Normal,3,L_LES,67.73285589414395
BMu109,9,P,INI,Gait_Normal,4,L_LES,54.93147198474576
BMu109,9,P,INI,Gait_Normal,4,R_LES,81.36398730324545
BMu109,9,P,INI,Gait_Normal,5,L_LES,71.53097674529998
BMu109,9,P,INI,Gait_Normal,5,R_LES,82.04593936296978
BMu109,9,P,INI,Gait_Normal,6,L_LES,57.21953232101584
BMu109,9,P,INI,Gait_Normal,6,R_LES,81.77530347575991
BMu109,9,P,REL,Gait_Normal,1,L_LES,55.12759115273081
BMu109,9,P,REL,Gait_Normal,1,R_LES,65.67547119229002
BMu109,9,P,REL,Gait_Normal,2,L_LES,65.43920994086334
BMu109,9,P,REL,Gait_Normal,2,R_LES,81.86683475712933
BMu109,9,P,REL,Gait_Normal,3,L_LES,54.63475734624378
BMu109,9,P,REL,Gait_Normal,3,R_LES,65.56505361539469
BMu109,9,P,REL,Gait_Normal,4,L_LES,60.90502192834438
BMu109,9,P,REL,Gait_Normal,4,R_LES,80.6168155129862
BMu109,9,P,REL,Gait_Normal,5,L_LES,65.99759157044504
BMu109,9,P,REL,Gait_Normal,5,R_LES,79.20662067430995
BMu109,9,P,REL,Gait_Normal,6,L_LES,63.40923208983843
BMu109,9,P,REL,Gait_Normal,6,R_LES,67.69307749995625
BMu109,9,P,REL,Gait_Normal,7,L_LES,70.72075120570697
BMu109,9,P,REL,Gait_Normal,7,R_LES,74.99640791449137
BMu109,9,P,REL,Gait_Normal,8,L_LES,64.74276642171397
BMu109,9,P,REL,Gait_Normal,8,R_LES,64.1298054645789
BMu109,10,P,INI,Gait_Normal,1,L_LES,37.81050808201864
BMu109,10,P,INI,Gait_Normal,1,R_LES,44.155820048921655
BMu109,10,P,INI,Gait_Normal,2,L_LES,30.310864174153192
BMu109,10,P,INI,Gait_Normal,2,R_LES,38.1340169327581
BMu109,10,P,INI,Gait_Normal,3,L_LES,38.18167658272489
BMu109,10,P,INI,Gait_Normal,3,R_LES,45.12401505469732
BMu109,10,P,INI,Gait_Normal,4,L_LES,33.397131651791156
BMu109,10,P,INI,Gait_Normal,4,R_LES,34.37632495067623
BMu109,10,P,INI,Gait_Normal,5,L_LES,32.78348621637771
BMu109,10,P,INI,Gait_Normal,5,R_LES,33.308970517534505
BMu109,10,P,INI,Gait_Normal,6,L_LES,36.00698776061686
BMu109,10,P,INI,Gait_Normal,6,R_LES,32.389171813193705
BMu109,10,P,INI,Gait_Normal,7,L_LES,34.56305707984933
BMu109,10,P,INI,Gait_Normal,7,R_LES,39.47491707699831
BMu109,10,P,REL,Gait_Normal,1,L_LES,41.08692346275598
BMu109,10,P,REL,Gait_Normal,1,R_LES,38.21888756635527
BMu109,10,P,REL,Gait_Normal,2,L_LES,40.39386361548546
BMu109,10,P,REL,Gait_Normal,2,R_LES,41.67400148146752
BMu109,10,P,REL,Gait_Normal,3,L_LES,44.36125899975826
BMu109,10,P,REL,Gait_Normal,3,R_LES,39.00371754593891
BMu109,10,P,REL,Gait_Normal,4,L_LES,43.04792113137336
BMu109,10,P,REL,Gait_Normal,4,R_LES,38.55735910342624
BMu109,10,P,REL,Gait_Normal,5,L_LES,41.848936119030945
BMu109,10,P,REL,Gait_Normal,5,R_LES,44.69621767487936
BMu109,10,P,REL,Gait_Normal,6,L_LES,42.26698794428776
BMu109,10,P,REL,Gait_Normal,6,R_LES,42.948427295283146
BMu109,10,P,REL,Gait_Normal,7,L_LES,42.19803009802332
BMu109,10,P,REL,Gait_Normal,7,R_LES,44.06264405530726
BMu109,11,P,INI,Gait_Normal,1,L_LES,57.69605138079877
BMu109,11,P,INI,Gait_Normal,1,R_LES,68.04067231687286
BMu109,11,P,INI,Gait_Normal,2,L_LES,61.41867576509211
BMu109,11,P,INI,Gait_Normal,2,R_LES,70.7895191838888
BMu109,11,P,INI,Gait_Normal,3,L_LES,60.5788036004917
BMu109,11,P,INI,Gait_Normal,3,R_LES,64.68909300020896
BMu109,11,P,INI,Gait_Normal,4,L_LES,56.751317777851796
BMu109,11,P,INI,Gait_Normal,4,R_LES,65.42877298877029
BMu109,11,P,INI,Gait_Normal,5,L_LES,59.319734338112916
BMu109,11,P,INI,Gait_Normal,5,R_LES,55.52693949074194
BMu109,11,P,INI,Gait_Normal,6,L_LES,63.447148583111414
BMu109,11,P,INI,Gait_Normal,6,R_LES,63.37082246182161
BMu109,11,P,REL,Gait_Normal,1,L_LES,51.41812845378495
BMu109,11,P,REL,Gait_Normal,1,R_LES,52.191243309025026
BMu109,11,P,REL,Gait_Normal,2,L_LES,50.405684104453904
BMu109,11,P,REL,Gait_Normal,2,R_LES,48.72872723572717
BMu109,11,P,REL,Gait_Normal,3,L_LES,47.50064224618074
BMu109,11,P,REL,Gait_Normal,3,R_LES,51.45506798994325
BMu109,11,P,REL,Gait_Normal,4,L_LES,48.71721878784464
BMu109,11,P,REL,Gait_Normal,4,R_LES,52.463873689404515
BMu109,11,P,REL,Gait_Normal,5,L_LES,50.83470398181453
BMu109,11,P,REL,Gait_Normal,5,R_LES,45.96775724913939
BMu109,11,P,REL,Gait_Normal,6,L_LES,49.29066550637959
BMu109,11,P,REL,Gait_Normal,6,R_LES,56.01760583155027
BMu109,12,P,INI,Gait_Normal,1,L_LES,66.13077305080758
BMu109,12,P,INI,Gait_Normal,1,R_LES,69.1252863713957
BMu109,12,P,INI,Gait_Normal,2,L_LES,71.1865417888427
BMu109,12,P,INI,Gait_Normal,2,R_LES,77.61399996713632
BMu109,12,P,INI,Gait_Normal,3,L_LES,73.7557701747783
BMu109,12,P,INI,Gait_Normal,3,R_LES,76.2912931433075
BMu109,12,P,INI,Gait_Normal,4,L_LES,70.91562940463213
BMu109,12,P,INI,Gait_Normal,4,R_LES,75.2553967188778
BMu109,12,P,INI,Gait_Normal,5,L_LES,70.64427227486676
BMu109,12,P,INI,Gait_Normal,5,R_LES,79.23976527196261
BMu109,12,P,INI,Gait_Normal,6,L_LES,69.23965662906029
BMu109,12,P,INI,Gait_Normal,6,R_LES,64.95267539955917
BMu109,12,P,INI,Gait_Normal,7,L_LES,67.58915480771593
BMu109,12,P,INI,Gait_Normal,7,R_LES,69.66243662774143
BMu109,12,P,INI,Gait_Normal,8,L_LES,71.77624692943535
BMu109,12,P,INI,Gait_Normal,8,R_LES,72.95954357875218
BMu109,12,P,INI,Gait_Normal,9,L_LES,64.48816837360717
BMu109,12,P,INI,Gait_Normal,9,R_LES,67.3717189199982
BMu109,12,P,INI,Gait_Normal,10,L_LES,76.10516356903442
BMu109,12,P,INI,Gait_Normal,10,R_LES,74.91745318712964
BMu109,12,P,REL,Gait_Normal,1,L_LES,61.2700968012407
BMu109,12,P,REL,Gait_Normal,1,R_LES,65.22708669969812
BMu109,12,P,REL,Gait_Normal,2,L_LES,76.25325783583725
BMu109,12,P,REL,Gait_Normal,2,R_LES,74.73348488891037
BMu109,12,P,REL,Gait_Normal,3,L_LES,64.1270171236821
BMu109,12,P,REL,Gait_Normal,4,L_LES,65.67430702548597
BMu109,12,P,REL,Gait_Normal,5,L_LES,67.38719917297733
BMu109,12,P,REL,Gait_Normal,6,L_LES,56.52539137318047
BMu109,12,P,REL,Gait_Normal,6,R_LES,70.43289757059226
BMu109,13,C,INI,Gait_Normal,1,L_LES,76.7813870022685
BMu109,13,C,INI,Gait_Normal,1,R_LES,61.02784107034571
BMu109,13,C,INI,Gait_Normal,2,L_LES,72.57297691379613
BMu109,13,C,INI,Gait_Normal,2,R_LES,61.490600245699454
BMu109,13,C,INI,Gait_Normal,3,L_LES,75.2658054059155
BMu109,13,C,INI,Gait_Normal,3,R_LES,54.38722813678826
BMu109,13,C,INI,Gait_Normal,4,L_LES,76.90495568231348
BMu109,13,C,INI,Gait_Normal,4,R_LES,61.5810900804411
BMu109,13,C,INI,Gait_Normal,5,L_LES,70.23119670871314
BMu109,13,C,INI,Gait_Normal,5,R_LES,56.413336750104314
BMu109,13,C,INI,Gait_Normal,6,L_LES,77.41580682445363
BMu109,13,C,INI,Gait_Normal,6,R_LES,62.834622344198685
BMu109,13,C,INI,Gait_Normal,7,L_LES,70.61483071071164
BMu109,13,C,INI,Gait_Normal,7,R_LES,61.2363649253517
BMu109,13,C,INI,Gait_Normal,8,L_LES,68.71360253413867
BMu109,13,C,INI,Gait_Normal,8,R_LES,64.76172369296665
BMu109,13,C,INI,Gait_Normal,9,L_LES,69.17162647334023
BMu109,13,C,INI,Gait_Normal,9,R_LES,67.92329189619005
BMu109,13,C,REL,Gait_Normal,1,L_LES,58.255383458785104
BMu109,13,C,REL,Gait_Normal,1,R_LES,57.194758382498215
BMu109,13,C,REL,Gait_Normal,2,R_LES,55.07320988696136
BMu109,13,C,REL,Gait_Normal,3,R_LES,59.11508204106996
BMu109,13,C,REL,Gait_Normal,5,R_LES,57.58477736594606
BMu109,13,C,REL,Gait_Normal,6,R_LES,58.26252220541565
BMu109,13,C,REL,Gait_Normal,7,R_LES,67.83732568959306
BMu109,13,C,REL,Gait_Normal,8,R_LES,61.71916223869808
BMu109,13,C,REL,Gait_Normal,9,R_LES,56.176572770612665
BMu109,14,P,INI,Gait_Normal,1,L_LES,57.01231526849969
BMu109,14,P,INI,Gait_Normal,1,R_LES,74.12602709459294
BMu109,14,P,INI,Gait_Normal,2,L_LES,73.91817535898458
BMu109,14,P,INI,Gait_Normal,2,R_LES,81.18402987539697
BMu109,14,P,INI,Gait_Normal,3,L_LES,66.77726931543299
BMu109,14,P,INI,Gait_Normal,3,R_LES,83.57145408386127
BMu109,14,P,INI,Gait_Normal,4,L_LES,70.38934671953182
BMu109,14,P,INI,Gait_Normal,4,R_LES,82.19668373351034
BMu109,14,P,INI,Gait_Normal,5,L_LES,74.03055860481216
BMu109,14,P,INI,Gait_Normal,5,R_LES,89.616168748752
BMu109,14,P,INI,Gait_Normal,6,L_LES,75.69093456983582
BMu109,14,P,INI,Gait_Normal,6,R_LES,85.82262312171447
BMu109,14,P,INI,Gait_Normal,7,L_LES,68.61884559733177
BMu109,14,P,INI,Gait_Normal,7,R_LES,84.71603779798018
BMu109,14,P,REL,Gait_Normal,1,R_LES,72.86700890674211
BMu109,14,P,REL,Gait_Normal,2,R_LES,70.56007312968718
BMu109,14,P,REL,Gait_Normal,3,R_LES,72.76990090226839
BMu109,14,P,REL,Gait_Normal,4,R_LES,78.48722157338005
BMu109,14,P,REL,Gait_Normal,5,R_LES,81.3192206407764
BMu109,14,P,REL,Gait_Normal,7,R_LES,61.856420145043266
BMu109,14,P,REL,Gait_Normal,8,R_LES,70.42711446936961
BMu109,14,P,REL,Gait_Normal,9,R_LES,69.94848787330866
BMu109,14,P,REL,Gait_Normal,10,L_LES,62.127035713338024
BMu109,14,P,REL,Gait_Normal,10,R_LES,72.2771117484953
BMu109,16,C,INI,Gait_Normal,1,L_LES,61.49311188138004
BMu109,16,C,INI,Gait_Normal,2,L_LES,230.500732783353
BMu109,16,C,INI,Gait_Normal,2,R_LES,181.20523062235392
BMu109,16,C,INI,Gait_Normal,3,L_LES,69.18186079040451
BMu109,16,C,INI,Gait_Normal,3,R_LES,75.70135298003575
BMu109,16,C,INI,Gait_Normal,4,L_LES,240.24144978718752
BMu109,16,C,INI,Gait_Normal,4,R_LES,177.10512041287438
BMu109,16,C,INI,Gait_Normal,5,L_LES,62.85703039026085
BMu109,16,C,INI,Gait_Normal,5,R_LES,71.14476279815743
BMu109,16,C,INI,Gait_Normal,6,L_LES,230.80270297706957
BMu109,16,C,INI,Gait_Normal,6,R_LES,197.81512133432753
BMu109,16,C,REL,Gait_Normal,1,L_LES,50.34411797765708
BMu109,16,C,REL,Gait_Normal,1,R_LES,73.17884432258153
BMu109,16,C,REL,Gait_Normal,2,L_LES,209.0987849116474
BMu109,16,C,REL,Gait_Normal,2,R_LES,190.360674298308
BMu109,16,C,REL,Gait_Normal,3,L_LES,61.80238907504178
BMu109,16,C,REL,Gait_Normal,3,R_LES,75.75904486682502
BMu109,16,C,REL,Gait_Normal,4,L_LES,187.9234880380877
BMu109,16,C,REL,Gait_Normal,4,R_LES,153.6725643404172
BMu109,16,C,REL,Gait_Normal,5,L_LES,56.515857992446946
BMu109,16,C,REL,Gait_Normal,5,R_LES,72.95582326850702
BMu109,16,C,REL,Gait_Normal,6,L_LES,207.6137843130125
BMu109,16,C,REL,Gait_Normal,6,R_LES,163.38917958528202
BMu109,17,P,INI,Gait_Normal,1,L_LES,96.08456541186222
BMu109,17,P,INI,Gait_Normal,1,R_LES,92.26264456714925
BMu109,17,P,INI,Gait_Normal,2,L_LES,151.91835354845696
BMu109,17,P,INI,Gait_Normal,2,R_LES,157.75227383510617
BMu109,17,P,INI,Gait_Normal,3,L_LES,191.94905354736582
BMu109,17,P,INI,Gait_Normal,3,R_LES,155.37383489233136
BMu109,17,P,INI,Gait_Normal,4,L_LES,85.58875813508034
BMu109,17,P,INI,Gait_Normal,4,R_LES,85.16127694936466
BMu109,17,P,INI,Gait_Normal,5,L_LES,154.5390165866871
BMu109,17,P,INI,Gait_Normal,5,R_LES,172.5920086203172
BMu109,17,P,INI,Gait_Normal,6,L_LES,92.52106114968133
BMu109,17,P,INI,Gait_Normal,6,R_LES,90.06909646784113
BMu109,17,P,INI,Gait_Normal,7,L_LES,168.31683839165174
BMu109,17,P,INI,Gait_Normal,7,R_LES,157.43964714963383
BMu109,17,P,INI,Gait_Normal,8,L_LES,87.14482519846172
BMu109,17,P,INI,Gait_Normal,8,R_LES,96.85120173436228
BMu109,17,P,INI,Gait_Normal,9,L_LES,170.97718934006102
BMu109,17,P,INI,Gait_Normal,9,R_LES,160.72517911975459
BMu109,17,P,INI,Gait_Normal,10,L_LES,89.8726785262325
BMu109,17,P,INI,Gait_Normal,10,R_LES,89.12059468881255
BMu109,17,P,REL,Gait_Normal,1,L_LES,72.19399398397441
BMu109,17,P,REL,Gait_Normal,1,R_LES,88.24638480931254
BMu109,17,P,REL,Gait_Normal,2,L_LES,156.20335690366085
BMu109,17,P,REL,Gait_Normal,3,L_LES,71.9753758449307
BMu109,17,P,REL,Gait_Normal,4,L_LES,187.21290284085433
BMu109,17,P,REL,Gait_Normal,5,L_LES,73.78154806968216
BMu109,17,P,REL,Gait_Normal,6,L_LES,194.58334164761052
BMu109,17,P,REL,Gait_Normal,7,L_LES,79.10445023348336
BMu109,17,P,REL,Gait_Normal,8,L_LES,186.1219006099709
BMu109,21,C,INI,Gait_Normal,1,L_LES,54.672894677680006
BMu109,21,C,INI,Gait_Normal,1,R_LES,65.8434591067117
BMu109,21,C,INI,Gait_Normal,2,L_LES,239.8030560909011
BMu109,21,C,INI,Gait_Normal,2,R_LES,189.9196555539239
BMu109,21,C,INI,Gait_Normal,3,L_LES,52.92402397236265
BMu109,21,C,INI,Gait_Normal,3,R_LES,57.09656776843127
BMu109,21,C,INI,Gait_Normal,4,L_LES,263.3531192826492
BMu109,21,C,INI,Gait_Normal,4,R_LES,197.80090221078092
BMu109,21,C,INI,Gait_Normal,5,L_LES,46.41657033524867
BMu109,21,C,INI,Gait_Normal,5,R_LES,56.7657624537759
BMu109,21,C,INI,Gait_Normal,6,L_LES,258.9315588263825
BMu109,21,C,INI,Gait_Normal,6,R_LES,211.8950198242214
BMu109,22,C,INI,Gait_Normal,1,L_LES,157.41084648503613
BMu109,22,C,INI,Gait_Normal,2,L_LES,87.86115870044726
BMu109,22,C,INI,Gait_Normal,3,L_LES,152.65561540560938
BMu109,22,C,INI,Gait_Normal,4,L_LES,74.92203564947164
BMu109,22,C,INI,Gait_Normal,5,L_LES,147.3842727764823
BMu109,22,C,INI,Gait_Normal,6,L_LES,72.54581204702929
BMu109,22,C,INI,Gait_Normal,7,L_LES,168.08977481421798
BMu109,22,C,INI,Gait_Normal,8,L_LES,73.40155567633111
BMu109,22,C,INI,Gait_Normal,9,L_LES,155.401115728583
BMu109,22,C,REL,Gait_Normal,1,L_LES,77.64718956341896
BMu109,22,C,REL,Gait_Normal,1,R_LES,72.56359968875722
BMu109,22,C,REL,Gait_Normal,2,L_LES,77.41317591489381
BMu109,22,C,REL,Gait_Normal,2,R_LES,71.74186691001654
BMu109,22,C,REL,Gait_Normal,3,L_LES,194.7618881744971
BMu109,22,C,REL,Gait_Normal,3,R_LES,197.31500676391792
BMu109,22,C,REL,Gait_Normal,4,L_LES,199.15709884690932
BMu109,22,C,REL,Gait_Normal,4,R_LES,209.68485763950264
BMu109,22,C,REL,Gait_Normal,5,L_LES,77.29755326479896
BMu109,22,C,REL,Gait_Normal,5,R_LES,76.5748354113928
BMu109,22,C,REL,Gait_Normal,6,L_LES,187.36884888375428
BMu109,22,C,REL,Gait_Normal,6,R_LES,187.99776309046737
BMu109,22,C,REL,Gait_Normal,7,L_LES,76.99937712851124
BMu109,22,C,REL,Gait_Normal,7,R_LES,75.85925503464418
BMu109,22,C,REL,Gait_Normal,8,L_LES,201.72060874760086
BMu109,22,C,REL,Gait_Normal,8,R_LES,210.30354704414776
BMu109,23,C,INI,Gait_Normal,1,R_LES,77.7562300263591
BMu109,23,C,INI,Gait_Normal,3,R_LES,82.5147505137631
BMu109,23,C,INI,Gait_Normal,4,R_LES,147.28544586728512
BMu109,23,C,INI,Gait_Normal,6,R_LES,161.83466968395564
BMu109,23,C,INI,Gait_Normal,7,R_LES,76.75752167996994
BMu109,23,C,REL,Gait_Normal,1,R_LES,65.82256617574033
BMu109,23,C,REL,Gait_Normal,2,L_LES,165.12782021787527
BMu109,23,C,REL,Gait_Normal,2,R_LES,203.96045588879056
BMu109,23,C,REL,Gait_Normal,3,L_LES,222.8398425374387
BMu109,23,C,REL,Gait_Normal,3,R_LES,207.66868275479416
BMu109,23,C,REL,Gait_Normal,4,L_LES,172.8187585267793
BMu109,23,C,REL,Gait_Normal,4,R_LES,242.53203099358555
BMu109,24,P,INI,Gait_Normal,1,R_LES,73.98156811288327
BMu109,24,P,INI,Gait_Normal,2,L_LES,53.158528713980445
BMu109,24,P,INI,Gait_Normal,2,R_LES,79.33047913166902
BMu109,24,P,INI,Gait_Normal,3,L_LES,50.675310544838545
BMu109,24,P,INI,Gait_Normal,3,R_LES,69.53119706243564
BMu109,24,P,INI,Gait_Normal,4,L_LES,55.12164774210978
BMu109,24,P,INI,Gait_Normal,4,R_LES,68.12377705476393
BMu109,24,P,INI,Gait_Normal,5,L_LES,51.81847190241471
BMu109,24,P,INI,Gait_Normal,5,R_LES,66.37960457544779
BMu109,24,P,INI,Gait_Normal,6,L_LES,215.6458318942546
BMu109,24,P,INI,Gait_Normal,6,R_LES,191.8603916841272
BMu109,24,P,INI,Gait_Normal,7,L_LES,50.76684451909269
BMu109,24,P,INI,Gait_Normal,7,R_LES,62.51399475260831
BMu109,24,P,INI,Gait_Normal,8,L_LES,241.84826844215436
BMu109,24,P,INI,Gait_Normal,8,R_LES,194.40689249575166
BMu109,24,P,REL,Gait_Normal,1,R_LES,64.99266570723712
BMu109,24,P,REL,Gait_Normal,2,R_LES,64.35154092856284
BMu109,24,P,REL,Gait_Normal,3,R_LES,65.12201360870228
BMu109,24,P,REL,Gait_Normal,4,R_LES,68.87085944480886
BMu109,24,P,REL,Gait_Normal,5,R_LES,65.38824416527207
BMu109,25,C,INI,Gait_Normal,1,L_LES,40.29521590008394
BMu109,25,C,INI,Gait_Normal,1,R_LES,79.52390904852928
BMu109,25,C,INI,Gait_Normal,2,L_LES,44.44197987505306
BMu109,25,C,INI,Gait_Normal,2,R_LES,66.09443870532213
BMu109,25,C,INI,Gait_Normal,3,R_LES,209.26189385057782
BMu109,25,C,INI,Gait_Normal,4,L_LES,40.619755713346414
BMu109,25,C,INI,Gait_Normal,5,L_LES,285.77131223500027
BMu109,25,C,INI,Gait_Normal,6,L_LES,316.5773304004087
BMu109,25,C,INI,Gait_Normal,7,L_LES,47.65070799910373
BMu109,25,C,INI,Gait_Normal,8,L_LES,307.2965388190251
BMu109,25,C,INI,Gait_Normal,8,R_LES,216.3143049013986
BMu109,25,C,INI,Gait_Normal,9,L_LES,42.729846925115815
BMu109,25,C,INI,Gait_Normal,9,R_LES,57.263322735614246
BMu109,25,C,INI,Gait_Normal,10,L_LES,329.1608371143429
BMu109,25,C,INI,Gait_Normal,10,R_LES,210.53015509996354
BMu109,25,C,REL,Gait_Normal,1,L_LES,52.96861982225022
BMu109,25,C,REL,Gait_Normal,1,R_LES,84.43971764356105
BMu109,25,C,REL,Gait_Normal,2,L_LES,39.42107712162106
BMu109,25,C,REL,Gait_Normal,3,L_LES,42.69114068614558
BMu109,25,C,REL,Gait_Normal,4,L_LES,276.55598227035057
BMu109,25,C,REL,Gait_Normal,4,R_LES,170.3988119372412
BMu109,25,C,REL,Gait_Normal,5,L_LES,45.34907682110201
BMu109,25,C,REL,Gait_Normal,5,R_LES,87.66990233491936
BMu109,25,C,REL,Gait_Normal,6,L_LES,311.6914537339724
BMu109,25,C,REL,Gait_Normal,6,R_LES,155.10869593397746
BMu109,25,C,REL,Gait_Normal,7,L_LES,44.434687343455984
BMu109,25,C,REL,Gait_Normal,7,R_LES,85.97645214694985
BMu109,25,C,REL,Gait_Normal,8,L_LES,282.55622935181594
BMu109,26,P,INI,Gait_Normal,1,L_LES,64.1576586095752
BMu109,26,P,INI,Gait_Normal,1,R_LES,78.37079262814106
BMu109,26,P,INI,Gait_Normal,2,L_LES,90.45683212109583
BMu109,26,P,INI,Gait_Normal,2,R_LES,83.05526536855646
BMu109,26,P,INI,Gait_Normal,3,L_LES,75.79826299036289
BMu109,26,P,INI,Gait_Normal,3,R_LES,83.84024431732719
BMu109,26,P,INI,Gait_Normal,4,L_LES,77.40029368139102
BMu109,26,P,INI,Gait_Normal,4,R_LES,83.75487855768647
BMu109,26,P,INI,Gait_Normal,5,R_LES,84.62964978848105
BMu109,26,P,INI,Gait_Normal,6,R_LES,117.38269083097005
BMu109,26,P,INI,Gait_Normal,7,R_LES,138.64140460988472
BMu109,26,P,REL,Gait_Normal,3,R_LES,79.29097654957839
BMu109,26,P,REL,Gait_Normal,4,R_LES,83.66695364960556
BMu109,26,P,REL,Gait_Normal,5,R_LES,85.91980726790361
BMu109,26,P,REL,Gait_Normal,8,R_LES,79.71517067434422
BMu109,27,P,INI,Gait_Normal,1,L_LES,63.182848259944016
BMu109,27,P,INI,Gait_Normal,1,R_LES,60.96640848855473
BMu109,27,P,INI,Gait_Normal,2,L_LES,54.45119617656885
BMu109,27,P,INI,Gait_Normal,3,L_LES,62.36673143845608
BMu109,27,P,INI,Gait_Normal,3,R_LES,67.01691911452613
BMu109,27,P,INI,Gait_Normal,4,L_LES,64.58316514883917
BMu109,27,P,INI,Gait_Normal,4,R_LES,56.39379620001937
BMu109,27,P,INI,Gait_Normal,5,L_LES,64.50038121776987
BMu109,27,P,INI,Gait_Normal,5,R_LES,64.03894975746029
BMu109,27,P,INI,Gait_Normal,6,L_LES,61.65419987177386
BMu109,27,P,INI,Gait_Normal,6,R_LES,54.64926591699759
BMu109,27,P,INI,Gait_Normal,7,L_LES,264.39711739652176
BMu109,27,P,INI,Gait_Normal,7,R_LES,231.70698490430857
BMu109,27,P,INI,Gait_Normal,8,L_LES,66.6313535565201
BMu109,27,P,INI,Gait_Normal,8,R_LES,61.528715446267704
BMu109,27,P,INI,Gait_Normal,9,L_LES,244.43891358517658
BMu109,27,P,INI,Gait_Normal,9,R_LES,249.36674024444753
BMu109,27,P,REL,Gait_Normal,1,L_LES,60.243837466934146
BMu109,27,P,REL,Gait_Normal,1,R_LES,70.66441291387535
BMu109,27,P,REL,Gait_Normal,2,L_LES,67.22580262894611
BMu109,27,P,REL,Gait_Normal,2,R_LES,71.55408422278846
BMu109,27,P,REL,Gait_Normal,3,L_LES,65.34753345087957
BMu109,27,P,REL,Gait_Normal,3,R_LES,62.71182953700342
BMu109,27,P,REL,Gait_Normal,4,L_LES,65.62117018710019
BMu109,27,P,REL,Gait_Normal,4,R_LES,74.91214713455928
BMu109,27,P,REL,Gait_Normal,5,L_LES,64.6857413487424
BMu109,27,P,REL,Gait_Normal,5,R_LES,65.32927993757123
BMu109,27,P,REL,Gait_Normal,6,L_LES,63.77582286715821
BMu109,27,P,REL,Gait_Normal,6,R_LES,66.92577173452939
BMu109,27,P,REL,Gait_Normal,7,L_LES,237.91947796665863
BMu109,27,P,REL,Gait_Normal,7,R_LES,257.7020773168611
BMu109,28,P,INI,Gait_Normal,1,L_LES,66.82495620466581
BMu109,28,P,INI,Gait_Normal,1,R_LES,62.24299001005901
BMu109,28,P,INI,Gait_Normal,2,L_LES,67.28689544488316
BMu109,28,P,INI,Gait_Normal,2,R_LES,55.807000872222574
BMu109,28,P,INI,Gait_Normal,3,L_LES,64.14142942918441
BMu109,28,P,INI,Gait_Normal,3,R_LES,52.28208771987206
BMu109,28,P,INI,Gait_Normal,4,L_LES,59.513385247740246
BMu109,28,P,INI,Gait_Normal,4,R_LES,59.418649499497604
BMu109,28,P,INI,Gait_Normal,5,L_LES,66.28009220626744
BMu109,28,P,INI,Gait_Normal,5,R_LES,61.823074689475106
BMu109,28,P,INI,Gait_Normal,6,L_LES,243.78341829005228
BMu109,28,P,INI,Gait_Normal,6,R_LES,291.14639689475604
BMu109,28,P,INI,Gait_Normal,7,L_LES,61.941758400797006
BMu109,28,P,INI,Gait_Normal,7,R_LES,55.220980633237424
BMu109,28,P,INI,Gait_Normal,8,L_LES,239.4741980577688
BMu109,28,P,INI,Gait_Normal,8,R_LES,279.84667534847193
BMu109,28,P,REL,Gait_Normal,1,L_LES,61.44971487833853
BMu109,28,P,REL,Gait_Normal,1,R_LES,57.55038462559495
BMu109,28,P,REL,Gait_Normal,2,L_LES,62.591595963528015
BMu109,28,P,REL,Gait_Normal,2,R_LES,53.42926763289427
BMu109,28,P,REL,Gait_Normal,3,L_LES,60.84931331023
BMu109,28,P,REL,Gait_Normal,3,R_LES,53.61101045991092
BMu109,28,P,REL,Gait_Normal,4,L_LES,55.431139271918674
BMu109,28,P,REL,Gait_Normal,4,R_LES,53.43655154025034
BMu109,28,P,REL,Gait_Normal,5,L_LES,63.428961803534
BMu109,28,P,REL,Gait_Normal,5,R_LES,59.5801655476542
BMu109,28,P,REL,Gait_Normal,6,L_LES,68.25714772267754
BMu109,28,P,REL,Gait_Normal,6,R_LES,55.751134916793795
BMu109,28,P,REL,Gait_Normal,7,R_LES,279.4386944521773
BMu109,28,P,REL,Gait_Normal,8,R_LES,50.58041858936923
BMu109,28,P,REL,Gait_Normal,9,L_LES,231.71535808652018
BMu109,28,P,REL,Gait_Normal,9,R_LES,263.5994960142204
BMu109,29,P,INI,Gait_Normal,1,L_LES,64.625745574036
BMu109,29,P,INI,Gait_Normal,1,R_LES,70.43672408582974
BMu109,29,P,INI,Gait_Normal,2,L_LES,71.14582525204371
BMu109,29,P,INI,Gait_Normal,2,R_LES,66.67717156509075
BMu109,29,P,INI,Gait_Normal,3,L_LES,72.5307045371967
BMu109,29,P,INI,Gait_Normal,4,L_LES,72.85130295459807
BMu109,29,P,INI,Gait_Normal,5,L_LES,73.76144433746077
BMu109,29,P,INI,Gait_Normal,5,R_LES,79.8060994668738
BMu109,29,P,INI,Gait_Normal,6,L_LES,76.37737636874279
BMu109,29,P,INI,Gait_Normal,6,R_LES,75.77832083524838
BMu109,29,P,INI,Gait_Normal,7,L_LES,190.29000743378296
BMu109,29,P,REL,Gait_Normal,1,L_LES,77.43175717310588
BMu109,29,P,REL,Gait_Normal,1,R_LES,70.48918127017892
BMu109,29,P,REL,Gait_Normal,2,L_LES,64.34748472052412
BMu109,29,P,REL,Gait_Normal,4,R_LES,73.13241536576648
BMu109,29,P,REL,Gait_Normal,5,L_LES,61.760045867706744
BMu109,30,P,INI,Gait_Normal,1,L_LES,83.9293078042815
BMu109,30,P,INI,Gait_Normal,1,R_LES,94.0481616472842
BMu109,30,P,INI,Gait_Normal,2,L_LES,82.22643728494236
BMu109,30,P,INI,Gait_Normal,2,R_LES,95.4518416455735
BMu109,30,P,INI,Gait_Normal,3,L_LES,82.99048176145651
BMu109,30,P,INI,Gait_Normal,3,R_LES,90.55651528755861
BMu109,30,P,INI,Gait_Normal,4,L_LES,77.27712944900556
BMu109,30,P,INI,Gait_Normal,4,R_LES,97.62180499727543
BMu109,30,P,INI,Gait_Normal,5,L_LES,84.76850591406655
BMu109,30,P,INI,Gait_Normal,5,R_LES,92.78336566364653
BMu109,30,P,INI,Gait_Normal,6,L_LES,78.16766393901398
BMu109,30,P,INI,Gait_Normal,6,R_LES,88.57788069646558
BMu109,30,P,INI,Gait_Normal,7,L_LES,189.89339382521678
BMu109,30,P,INI,Gait_Normal,7,R_LES,158.96365038310503
BMu109,30,P,INI,Gait_Normal,8,L_LES,183.63417310740337
BMu109,30,P,INI,Gait_Normal,8,R_LES,135.317801579552
BMu109,30,P,INI,Gait_Normal,9,L_LES,182.7050932486397
BMu109,30,P,INI,Gait_Normal,9,R_LES,151.62864283480886
BMu109,30,P,REL,Gait_Normal,1,R_LES,97.67912843979202
BMu109,30,P,REL,Gait_Normal,2,R_LES,96.59775805123529
BMu109,30,P,REL,Gait_Normal,3,L_LES,92.95942785276809
BMu109,30,P,REL,Gait_Normal,3,R_LES,97.13728786497279
BMu109,30,P,REL,Gait_Normal,4,L_LES,92.22942768992112
BMu109,30,P,REL,Gait_Normal,4,R_LES,99.6784247960942
BMu109,30,P,REL,Gait_Normal,5,L_LES,92.15387878964964
BMu109,30,P,REL,Gait_Normal,5,R_LES,97.38534637020507
BMu109,30,P,REL,Gait_Normal,6,L_LES,153.03105508146652
BMu109,30,P,REL,Gait_Normal,6,R_LES,149.0040888566592
BMu109,30,P,REL,Gait_Normal,7,L_LES,90.13460420795367
BMu109,30,P,REL,Gait_Normal,7,R_LES,90.57153359102291
BMu109,30,P,REL,Gait_Normal,8,L_LES,141.52731071582653
BMu109,30,P,REL,Gait_Normal,8,R_LES,147.3998425883208
BMu109,30,P,REL,Gait_Normal,9,L_LES,88.71144020317861
BMu109,30,P,REL,Gait_Normal,9,R_LES,88.15830916772832
BMu109,32,P,INI,Gait_Normal,1,L_LES,58.40572343977099
BMu109,32,P,INI,Gait_Normal,1,R_LES,80.9125440524799
BMu109,32,P,INI,Gait_Normal,2,L_LES,62.198398142777044
BMu109,32,P,INI,Gait_Normal,2,R_LES,81.53333470235917
BMu109,32,P,INI,Gait_Normal,3,L_LES,58.39227260805959
BMu109,32,P,INI,Gait_Normal,3,R_LES,76.97279035408009
BMu109,32,P,INI,Gait_Normal,4,L_LES,66.30441206619534
BMu109,32,P,INI,Gait_Normal,4,R_LES,79.35909320616264
BMu109,32,P,INI,Gait_Normal,5,L_LES,60.70302737780481
BMu109,32,P,INI,Gait_Normal,5,R_LES,81.99662219120681
BMu109,32,P,INI,Gait_Normal,6,L_LES,63.480968286182424
BMu109,32,P,INI,Gait_Normal,6,R_LES,80.96236533920005
BMu109,32,P,INI,Gait_Normal,7,L_LES,215.5957187876089
BMu109,32,P,INI,Gait_Normal,7,R_LES,168.1244225003842
BMu109,32,P,REL,Gait_Normal,1,L_LES,53.832631574273165
BMu109,32,P,REL,Gait_Normal,3,L_LES,61.72526809682744
BMu109,32,P,REL,Gait_Normal,4,L_LES,67.0349506946074
BMu109,32,P,REL,Gait_Normal,5,L_LES,71.27016694416595
BMu109,32,P,REL,Gait_Normal,6,L_LES,199.12589935258347
BMu109,32,P,REL,Gait_Normal,7,L_LES,68.78546059972867
BMu109,32,P,REL,Gait_Normal,7,R_LES,59.239472780076575
BMu109,32,P,REL,Gait_Normal,8,L_LES,210.68235112711264
BMu109,32,P,REL,Gait_Normal,8,R_LES,223.01517563689754
BMu109,33,P,INI,Gait_Normal,1,L_LES,71.95351431733128
BMu109,33,P,INI,Gait_Normal,1,R_LES,64.15200080207643
BMu109,33,P,INI,Gait_Normal,2,L_LES,65.55403805660448
BMu109,33,P,INI,Gait_Normal,2,R_LES,59.01650184347252
BMu109,33,P,INI,Gait_Normal,3,L_LES,65.31679792706034
BMu109,33,P,INI,Gait_Normal,3,R_LES,63.91099242524246
BMu109,33,P,INI,Gait_Normal,4,L_LES,75.78458917408575
BMu109,33,P,INI,Gait_Normal,5,L_LES,66.42052309982425
BMu109,33,P,INI,Gait_Normal,6,L_LES,235.08333594257815
BMu109,33,P,REL,Gait_Normal,1,L_LES,81.49007179683217
BMu109,33,P,REL,Gait_Normal,2,L_LES,80.02703654728857
BMu109,33,P,REL,Gait_Normal,3,L_LES,78.92382669220295
BMu109,33,P,REL,Gait_Normal,3,R_LES,72.08126860282692
BMu109,33,P,REL,Gait_Normal,4,L_LES,80.12525780582158
BMu109,33,P,REL,Gait_Normal,4,R_LES,75.31216605128105
BMu109,33,P,REL,Gait_Normal,5,L_LES,81.88591806009207
BMu109,33,P,REL,Gait_Normal,5,R_LES,76.61394358105417
BMu109,33,P,REL,Gait_Normal,6,L_LES,185.28220647696844
BMu109,33,P,REL,Gait_Normal,6,R_LES,201.91144515194583
BMu109,33,P,REL,Gait_Normal,7,L_LES,76.2628643927436
BMu109,33,P,REL,Gait_Normal,7,R_LES,69.48849804532576
BMu109,33,P,REL,Gait_Normal,8,L_LES,196.55066714263594
BMu109,33,P,REL,Gait_Normal,8,R_LES,205.16929452033165
BMu109,34,P,INI,Gait_Normal,1,L_LES,80.87581543495371
BMu109,34,P,INI,Gait_Normal,1,R_LES,86.644847849891
BMu109,34,P,INI,Gait_Normal,2,L_LES,88.44546463920746
BMu109,34,P,INI,Gait_Normal,2,R_LES,84.19976085021081
BMu109,34,P,INI,Gait_Normal,3,L_LES,80.47532352776902
BMu109,34,P,INI,Gait_Normal,3,R_LES,85.07018373285396
BMu109,34,P,INI,Gait_Normal,4,L_LES,86.39396798905123
BMu109,34,P,INI,Gait_Normal,4,R_LES,86.5095409457421
BMu109,34,P,INI,Gait_Normal,5,L_LES,83.58537690397148
BMu109,34,P,INI,Gait_Normal,5,R_LES,84.27410684867296
BMu109,34,P,INI,Gait_Normal,6,L_LES,90.60871370590746
BMu109,34,P,INI,Gait_Normal,6,R_LES,86.53801696529077
BMu109,34,P,INI,Gait_Normal,7,L_LES,180.19478879504842
BMu109,34,P,INI,Gait_Normal,7,R_LES,142.13559294981437
BMu109,34,P,INI,Gait_Normal,8,L_LES,77.64835323787922
BMu109,34,P,INI,Gait_Normal,8,R_LES,87.52142990452315
BMu109,34,P,REL,Gait_Normal,1,L_LES,63.75221751018708
BMu109,34,P,REL,Gait_Normal,1,R_LES,63.423126945002025
BMu109,34,P,REL,Gait_Normal,2,L_LES,73.69145030299678
BMu109,34,P,REL,Gait_Normal,2,R_LES,75.039208466082
BMu109,34,P,REL,Gait_Normal,3,L_LES,70.79952139166312
BMu109,34,P,REL,Gait_Normal,3,R_LES,77.26352619136047
BMu109,34,P,REL,Gait_Normal,4,L_LES,76.07307938596504
BMu109,34,P,REL,Gait_Normal,4,R_LES,75.91149387125134
BMu109,34,P,REL,Gait_Normal,5,L_LES,81.00687721825518
BMu109,34,P,REL,Gait_Normal,5,R_LES,73.21493994676808
BMu109,34,P,REL,Gait_Normal,6,L_LES,75.91100385230929
BMu109,34,P,REL,Gait_Normal,6,R_LES,70.4115944895657
BMu109,34,P,REL,Gait_Normal,7,L_LES,181.68819611775896
BMu109,34,P,REL,Gait_Normal,7,R_LES,189.1966392434131
BMu109,35,C,INI,Gait_Normal,3,L_LES,50.6324540503439
BMu109,35,C,INI,Gait_Normal,5,L_LES,56.210320489363994
BMu109,35,C,INI,Gait_Normal,6,L_LES,56.79561282063034
BMu109,35,C,INI,Gait_Normal,8,L_LES,52.618274170904364
BMu109,35,C,INI,Gait_Normal,8,R_LES,65.45715508899025
BMu109,35,C,INI,Gait_Normal,9,L_LES,342.37565628623105
BMu109,35,C,INI,Gait_Normal,9,R_LES,289.6420351978131
BMu109,35,C,INI,Gait_Normal,10,L_LES,47.86077430127796
BMu109,35,C,INI,Gait_Normal,10,R_LES,53.63277738684918
BMu109,35,C,REL,Gait_Normal,1,R_LES,57.196422045786115
BMu109,35,C,REL,Gait_Normal,2,L_LES,48.69992273652915
BMu109,35,C,REL,Gait_Normal,2,R_LES,61.291142794420495
BMu109,35,C,REL,Gait_Normal,3,L_LES,51.222870115378804
BMu109,35,C,REL,Gait_Normal,3,R_LES,57.3501417643187
BMu109,35,C,REL,Gait_Normal,4,L_LES,51.95840572972642
BMu109,35,C,REL,Gait_Normal,5,L_LES,52.10271025748083
BMu109,35,C,REL,Gait_Normal,6,L_LES,350.52629074563987
BMu109,35,C,REL,Gait_Normal,6,R_LES,356.9594285932887
BMu109,36,P,INI,Gait_Normal,1,L_LES,57.904321909835936
BMu109,36,P,INI,Gait_Normal,1,R_LES,55.96861698601464
BMu109,36,P,INI,Gait_Normal,2,L_LES,65.35952769922001
BMu109,36,P,INI,Gait_Normal,2,R_LES,67.7883037681304
BMu109,36,P,INI,Gait_Normal,3,L_LES,62.21416029265114
BMu109,36,P,INI,Gait_Normal,3,R_LES,60.79672930737536
BMu109,36,P,INI,Gait_Normal,4,L_LES,57.87014860561305
BMu109,36,P,INI,Gait_Normal,4,R_LES,63.87788880301167
BMu109,36,P,INI,Gait_Normal,5,L_LES,67.49555637236507
BMu109,36,P,INI,Gait_Normal,5,R_LES,67.17401094230968
BMu109,36,P,INI,Gait_Normal,6,L_LES,236.78880329348544
BMu109,36,P,INI,Gait_Normal,6,R_LES,274.324489022887
BMu109,36,P,INI,Gait_Normal,7,L_LES,62.2899338422412
BMu109,36,P,INI,Gait_Normal,7,R_LES,53.96803656752209
BMu109,36,P,INI,Gait_Normal,8,L_LES,216.0950348236728
BMu109,36,P,INI,Gait_Normal,8,R_LES,268.0059112422102
BMu109,36,P,REL,Gait_Normal,1,L_LES,52.983174727776685
BMu109,36,P,REL,Gait_Normal,1,R_LES,56.14626155534455
BMu109,36,P,REL,Gait_Normal,2,L_LES,54.154914328865054
BMu109,36,P,REL,Gait_Normal,2,R_LES,67.55118777391932
BMu109,36,P,REL,Gait_Normal,3,L_LES,56.34781350023613
BMu109,36,P,REL,Gait_Normal,3,R_LES,55.50024518357302
BMu109,36,P,REL,Gait_Normal,4,L_LES,56.21025575823066
BMu109,36,P,REL,Gait_Normal,4,R_LES,54.048356905107596
BMu109,36,P,REL,Gait_Normal,5,L_LES,54.17051283372782
BMu109,36,P,REL,Gait_Normal,5,R_LES,52.15990438699688
BMu109,36,P,REL,Gait_Normal,6,L_LES,264.7031367968663
BMu109,36,P,REL,Gait_Normal,6,R_LES,275.2485520872021
BMu109,38,C,REL,Gait_Normal,1,R_LES,72.9104511379824
BMu109,38,C,REL,Gait_Normal,2,R_LES,78.59502568733596
BMu109,38,C,REL,Gait_Normal,3,R_LES,76.77746766977552
BMu109,38,C,REL,Gait_Normal,4,R_LES,76.9642031912122
BMu109,38,C,REL,Gait_Normal,5,R_LES,73.89080434783244
BMu109,38,C,REL,Gait_Normal,6,R_LES,65.41696343454655
BMu109,38,C,REL,Gait_Normal,7,R_LES,205.24916055216855
BMu109,39,C,INI,Gait_Normal,1,R_LES,50.529426366655606
BMu109,39,C,INI,Gait_Normal,2,R_LES,55.90785649342837
BMu109,39,C,INI,Gait_Normal,3,R_LES,61.79255089513624
BMu109,39,C,INI,Gait_Normal,4,R_LES,56.85256228601083
BMu109,39,C,INI,Gait_Normal,5,R_LES,58.13511578933184
BMu109,39,C,INI,Gait_Normal,6,R_LES,227.369512103357
BMu109,40,C,INI,Gait_Normal,2,R_LES,63.29382669771959
BMu109,40,C,INI,Gait_Normal,3,R_LES,60.31261032877186
BMu109,40,C,INI,Gait_Normal,4,R_LES,64.15277672799961
BMu109,40,C,INI,Gait_Normal,5,R_LES,67.27065911464906
BMu109,40,C,INI,Gait_Normal,6,L_LES,290.5980015942271
BMu109,40,C,INI,Gait_Normal,6,R_LES,272.2506067031118
BMu109,40,C,REL,Gait_Normal,1,L_LES,62.84391417951604
BMu109,40,C,REL,Gait_Normal,1,R_LES,67.04188930211224
BMu109,40,C,REL,Gait_Normal,2,L_LES,58.05296779513211
BMu109,40,C,REL,Gait_Normal,2,R_LES,63.8805296405615
BMu109,40,C,REL,Gait_Normal,3,L_LES,68.14377730918366
BMu109,40,C,REL,Gait_Normal,3,R_LES,71.14550741484847
BMu109,40,C,REL,Gait_Normal,4,L_LES,57.81842873477527
BMu109,40,C,REL,Gait_Normal,4,R_LES,63.198010791277476
BMu109,40,C,REL,Gait_Normal,5,L_LES,67.03675389651757
BMu109,40,C,REL,Gait_Normal,5,R_LES,70.85137464367652
BMu109,40,C,REL,Gait_Normal,6,L_LES,305.64838556546687
BMu109,40,C,REL,Gait_Normal,6,R_LES,295.0014451278109
BMu109,41,P,INI,Gait_Normal,1,L_LES,63.29046755371157
BMu109,41,P,INI,Gait_Normal,1,R_LES,71.01487871725077
BMu109,41,P,INI,Gait_Normal,2,L_LES,54.552006161112274
BMu109,41,P,INI,Gait_Normal,2,R_LES,52.06077081152568
BMu109,41,P,INI,Gait_Normal,3,L_LES,55.504802564916666
BMu109,41,P,INI,Gait_Normal,3,R_LES,60.53239667495476
BMu109,41,P,INI,Gait_Normal,4,L_LES,56.057866573063954
BMu109,41,P,INI,Gait_Normal,4,R_LES,61.392122849843815
BMu109,41,P,INI,Gait_Normal,5,L_LES,53.81670424989357
BMu109,41,P,INI,Gait_Normal,5,R_LES,51.020258391396965
BMu109,41,P,INI,Gait_Normal,6,L_LES,237.546736985195
BMu109,41,P,INI,Gait_Normal,6,R_LES,284.67010972316353
BMu109,41,P,REL,Gait_Normal,1,L_LES,64.46088127211307
BMu109,41,P,REL,Gait_Normal,1,R_LES,50.94499458292629
BMu109,41,P,REL,Gait_Normal,2,L_LES,68.45619295824173
BMu109,41,P,REL,Gait_Normal,2,R_LES,60.430183974689584
BMu109,41,P,REL,Gait_Normal,3,L_LES,61.87609119852831
BMu109,41,P,REL,Gait_Normal,3,R_LES,56.688215044494136
BMu109,41,P,REL,Gait_Normal,4,L_LES,66.43758785655734
BMu109,41,P,REL,Gait_Normal,4,R_LES,60.25686707789284
BMu109,41,P,REL,Gait_Normal,5,L_LES,60.78610881775015
BMu109,41,P,REL,Gait_Normal,5,R_LES,51.61047149881324
BMu109,41,P,REL,Gait_Normal,6,L_LES,54.77440865659145
BMu109,41,P,REL,Gait_Normal,6,R_LES,41.60789622822899
BMu109,41,P,REL,Gait_Normal,7,L_LES,234.22575337725593
BMu109,41,P,REL,Gait_Normal,7,R_LES,280.5919376150385
BMu109,42,P,INI,Gait_Normal,1,R_LES,60.7418969337106
BMu109,42,P,INI,Gait_Normal,2,R_LES,67.36489816881198
BMu109,42,P,INI,Gait_Normal,3,R_LES,53.53138604066876
BMu109,42,P,INI,Gait_Normal,4,R_LES,58.03521335269412
BMu109,42,P,INI,Gait_Normal,5,R_LES,60.107831183786
BMu109,42,P,INI,Gait_Normal,6,R_LES,46.6966333505459
BMu109,42,P,REL,Gait_Normal,1,L_LES,57.44729245770227
BMu109,42,P,REL,Gait_Normal,1,R_LES,62.932423686727894
BMu109,42,P,REL,Gait_Normal,2,R_LES,50.282157281493404
BMu109,42,P,REL,Gait_Normal,3,L_LES,55.18995446228889
BMu109,42,P,REL,Gait_Normal,3,R_LES,52.154013656739636
BMu109,42,P,REL,Gait_Normal,4,L_LES,60.29931222789162
BMu109,42,P,REL,Gait_Normal,4,R_LES,53.685370687524404
BMu109,42,P,REL,Gait_Normal,5,L_LES,62.832514058186014
BMu109,42,P,REL,Gait_Normal,5,R_LES,60.139351278625746
BMu109,42,P,REL,Gait_Normal,6,L_LES,308.47882532122054
BMu109,42,P,REL,Gait_Normal,6,R_LES,335.0979784922253
BMu109,43,P,INI,Gait_Normal,1,L_LES,50.05132971442373
BMu109,43,P,INI,Gait_Normal,1,R_LES,65.12268234182646
BMu109,43,P,INI,Gait_Normal,2,L_LES,50.75693724450655
BMu109,43,P,INI,Gait_Normal,2,R_LES,63.031064414069284
BMu109,43,P,INI,Gait_Normal,3,L_LES,55.967739879979575
BMu109,43,P,INI,Gait_Normal,3,R_LES,62.50942167775033
BMu109,43,P,INI,Gait_Normal,4,R_LES,66.94394278382882
BMu109,43,P,INI,Gait_Normal,5,L_LES,48.53391406328999
BMu109,43,P,INI,Gait_Normal,5,R_LES,52.474520419187535
BMu109,43,P,INI,Gait_Normal,6,L_LES,309.30551772629354
BMu109,43,P,INI,Gait_Normal,6,R_LES,246.9853075607359
BMu109,43,P,INI,Gait_Normal,7,L_LES,43.520192962444874
BMu109,43,P,INI,Gait_Normal,7,R_LES,59.63771309010438
BMu109,43,P,INI,Gait_Normal,8,L_LES,261.8968571135188
BMu109,43,P,INI,Gait_Normal,8,R_LES,238.33934682126346
BMu109,43,P,REL,Gait_Normal,1,L_LES,64.75552945062243
BMu109,43,P,REL,Gait_Normal,1,R_LES,56.86272697538948
BMu109,43,P,REL,Gait_Normal,2,L_LES,65.29655223464802
BMu109,43,P,REL,Gait_Normal,2,R_LES,65.30420091314625
BMu109,43,P,REL,Gait_Normal,3,L_LES,63.434790740814755
BMu109,43,P,REL,Gait_Normal,3,R_LES,59.71684080940971
BMu109,43,P,REL,Gait_Normal,4,L_LES,60.019614942712245
BMu109,43,P,REL,Gait_Normal,4,R_LES,63.44138057294585
BMu109,43,P,REL,Gait_Normal,5,R_LES,60.75734654954987
BMu109,43,P,REL,Gait_Normal,6,L_LES,64.44252113778843
BMu109,43,P,REL,Gait_Normal,6,R_LES,55.603174707402765
BMu109,43,P,REL,Gait_Normal,7,L_LES,229.15706881481492
BMu109,43,P,REL,Gait_Normal,7,R_LES,221.85616785400944
BMu109,44,C,INI,Gait_Normal,1,R_LES,43.959943273782415
BMu109,44,C,INI,Gait_Normal,2,L_LES,44.28612076248674
BMu109,44,C,INI,Gait_Normal,2,R_LES,36.56230942414498
BMu109,44,C,INI,Gait_Normal,3,L_LES,63.796019671417014
BMu109,44,C,INI,Gait_Normal,3,R_LES,61.852611823314646
BMu109,44,C,INI,Gait_Normal,4,L_LES,58.25262786973536
BMu109,44,C,INI,Gait_Normal,4,R_LES,45.947581573273474
BMu109,44,C,INI,Gait_Normal,5,L_LES,50.34242120937043
BMu109,44,C,INI,Gait_Normal,5,R_LES,43.982050396375826
BMu109,44,C,INI,Gait_Normal,6,L_LES,37.72874995081554
BMu109,44,C,INI,Gait_Normal,6,R_LES,46.45126327166755
BMu109,44,C,INI,Gait_Normal,7,L_LES,320.1576383937367
BMu109,44,C,INI,Gait_Normal,7,R_LES,268.7996067911401
BMu109,44,C,REL,Gait_Normal,1,L_LES,47.52623416073669
BMu109,44,C,REL,Gait_Normal,1,R_LES,36.161138055481636
BMu109,44,C,REL,Gait_Normal,2,L_LES,36.028232440252296
BMu109,44,C,REL,Gait_Normal,2,R_LES,29.629091949382268
BMu109,44,C,REL,Gait_Normal,3,L_LES,48.684192156407526
BMu109,44,C,REL,Gait_Normal,3,R_LES,36.67940775182887
BMu109,44,C,REL,Gait_Normal,4,L_LES,39.90151636327553
BMu109,44,C,REL,Gait_Normal,4,R_LES,30.131998922125238
BMu109,44,C,REL,Gait_Normal,5,L_LES,53.211963196431576
BMu109,44,C,REL,Gait_Normal,5,R_LES,43.104688578185204
BMu109,44,C,REL,Gait_Normal,6,L_LES,365.8948406442724
BMu109,44,C,REL,Gait_Normal,6,R_LES,364.437823780712
BMu109,44,C,REL,Gait_Normal,7,L_LES,38.81985382364946
BMu109,44,C,REL,Gait_Normal,7,R_LES,27.770116873705586
BMu109,45,P,INI,Gait_Normal,1,L_LES,67.00826652923972
BMu109,45,P,INI,Gait_Normal,2,L_LES,63.632721863702194
BMu109,45,P,INI,Gait_Normal,3,L_LES,65.23759093204934
BMu109,45,P,INI,Gait_Normal,4,L_LES,63.579232295990316
BMu109,45,P,INI,Gait_Normal,5,L_LES,62.20952878995965
BMu109,45,P,INI,Gait_Normal,6,L_LES,178.7262107154925
BMu109,45,P,INI,Gait_Normal,7,L_LES,70.98281388621054
BMu109,45,P,INI,Gait_Normal,8,L_LES,208.50057057689568
BMu109,45,P,REL,Gait_Normal,1,L_LES,48.06079599625847
BMu109,45,P,REL,Gait_Normal,2,L_LES,55.55493806433327
BMu109,45,P,REL,Gait_Normal,3,L_LES,50.37626844954577
BMu109,45,P,REL,Gait_Normal,4,L_LES,53.25422035703692
BMu109,45,P,REL,Gait_Normal,5,L_LES,53.43369108918177
BMu109,45,P,REL,Gait_Normal,6,L_LES,199.4729952450018
BMu109,46,C,INI,Gait_Normal,1,L_LES,55.186877693214115
BMu109,46,C,INI,Gait_Normal,1,R_LES,56.37300200911079
BMu109,46,C,INI,Gait_Normal,2,L_LES,51.77838131124048
BMu109,46,C,INI,Gait_Normal,2,R_LES,58.22770249866249
BMu109,46,C,INI,Gait_Normal,3,L_LES,54.25392444409369
BMu109,46,C,INI,Gait_Normal,3,R_LES,54.033824580011434
BMu109,46,C,INI,Gait_Normal,4,L_LES,59.44037141123147
BMu109,46,C,INI,Gait_Normal,4,R_LES,59.547487188050866
BMu109,46,C,INI,Gait_Normal,5,L_LES,58.58668268542642
BMu109,46,C,INI,Gait_Normal,5,R_LES,62.347450132702306
BMu109,46,C,INI,Gait_Normal,6,L_LES,234.06009778545288
BMu109,46,C,INI,Gait_Normal,6,R_LES,203.46581278113678
BMu109,46,C,REL,Gait_Normal,1,L_LES,54.72452509003468
BMu109,46,C,REL,Gait_Normal,1,R_LES,52.92688252360975
BMu109,46,C,REL,Gait_Normal,2,L_LES,47.70854388053461
BMu109,46,C,REL,Gait_Normal,2,R_LES,58.25902083244423
BMu109,46,C,REL,Gait_Normal,3,L_LES,49.86896817478996
BMu109,46,C,REL,Gait_Normal,3,R_LES,63.916160372754206
BMu109,46,C,REL,Gait_Normal,4,L_LES,48.17891902407192
BMu109,46,C,REL,Gait_Normal,4,R_LES,52.62808234719122
BMu109,46,C,REL,Gait_Normal,5,L_LES,48.876535409892234
BMu109,46,C,REL,Gait_Normal,5,R_LES,57.29412254819628
BMu109,46,C,REL,Gait_Normal,6,L_LES,230.80892150969862
BMu109,46,C,REL,Gait_Normal,6,R_LES,211.91312142060542
BMu109,47,P,INI,Gait_Normal,1,L_LES,75.32689311771016
BMu109,47,P,INI,Gait_Normal,1,R_LES,54.4507140716595
BMu109,47,P,INI,Gait_Normal,2,L_LES,64.85355443123048
BMu109,47,P,INI,Gait_Normal,2,R_LES,58.39399075666117
BMu109,47,P,INI,Gait_Normal,3,L_LES,71.76565906069631
BMu109,47,P,INI,Gait_Normal,3,R_LES,59.82263032983597
BMu109,47,P,INI,Gait_Normal,4,L_LES,72.04608714172015
BMu109,47,P,INI,Gait_Normal,4,R_LES,59.88029940188064
BMu109,47,P,INI,Gait_Normal,5,L_LES,75.07118645279634
BMu109,47,P,INI,Gait_Normal,5,R_LES,52.261266096777184
BMu109,47,P,INI,Gait_Normal,6,L_LES,162.0905208147824
BMu109,47,P,INI,Gait_Normal,6,R_LES,211.95296648092557
BMu109,47,P,REL,Gait_Normal,1,L_LES,64.83828291650595
BMu109,47,P,REL,Gait_Normal,1,R_LES,63.18246975619991
BMu109,47,P,REL,Gait_Normal,2,R_LES,63.85729746700114
BMu109,47,P,REL,Gait_Normal,3,L_LES,57.59710873198059
BMu109,47,P,REL,Gait_Normal,3,R_LES,54.079639786366755
BMu109,47,P,REL,Gait_Normal,4,R_LES,58.62862051723008
BMu109,47,P,REL,Gait_Normal,5,R_LES,55.77092920244299
BMu109,47,P,REL,Gait_Normal,6,L_LES,236.20425281748444
BMu109,47,P,REL,Gait_Normal,6,R_LES,232.40535339247467
BMu109,47,P,REL,Gait_Normal,7,L_LES,53.90826835748454
BMu109,47,P,REL,Gait_Normal,7,R_LES,49.74442846849997
BMu109,47,P,REL,Gait_Normal,8,L_LES,230.1540924806653
BMu109,47,P,REL,Gait_Normal,8,R_LES,216.09545355775086
BMu109,48,C,INI,Gait_Normal,1,L_LES,66.71969715382333
BMu109,48,C,INI,Gait_Normal,1,R_LES,68.95810775284232
BMu109,48,C,INI,Gait_Normal,2,L_LES,69.28621663910067
BMu109,48,C,INI,Gait_Normal,2,R_LES,70.08666851609473
BMu109,48,C,INI,Gait_Normal,3,L_LES,68.18214938903674
BMu109,48,C,INI,Gait_Normal,3,R_LES,74.80586088635897
BMu109,48,C,INI,Gait_Normal,4,L_LES,70.21546267263447
BMu109,48,C,INI,Gait_Normal,4,R_LES,69.05291857722553
BMu109,48,C,INI,Gait_Normal,5,L_LES,72.97614639215645
BMu109,48,C,INI,Gait_Normal,5,R_LES,70.86922349516387
BMu109,48,C,INI,Gait_Normal,6,L_LES,63.62587132683239
BMu109,48,C,INI,Gait_Normal,6,R_LES,56.49360394065201
BMu109,48,C,INI,Gait_Normal,7,L_LES,312.85554369521606
BMu109,48,C,INI,Gait_Normal,7,R_LES,276.8529180417523
BMu109,48,C,INI,Gait_Normal,8,L_LES,294.00132248542013
BMu109,48,C,INI,Gait_Normal,8,R_LES,305.56057989991876
BMu109,48,C,REL,Gait_Normal,1,L_LES,62.76670668591123
BMu109,48,C,REL,Gait_Normal,1,R_LES,71.10639607664159
BMu109,48,C,REL,Gait_Normal,2,R_LES,275.22839334947673
BMu109,48,C,REL,Gait_Normal,3,L_LES,63.58905346173566
BMu109,48,C,REL,Gait_Normal,3,R_LES,73.51936101396643
BMu109,48,C,REL,Gait_Normal,4,L_LES,66.19328657072828
BMu109,48,C,REL,Gait_Normal,4,R_LES,69.63441872383424
BMu109,48,C,REL,Gait_Normal,5,L_LES,64.8085805070289
BMu109,48,C,REL,Gait_Normal,6,L_LES,67.03694380881447
BMu109,48,C,REL,Gait_Normal,7,R_LES,278.0445272466789
BMu109,48,C,REL,Gait_Normal,8,L_LES,54.875884480231306
BMu109,48,C,REL,Gait_Normal,8,R_LES,52.972213304786116
BMu109,48,C,REL,Gait_Normal,9,L_LES,248.86886211635147
BMu109,48,C,REL,Gait_Normal,9,R_LES,289.07922048115853
BMu109,49,C,INI,Gait_Normal,1,L_LES,55.21112298741526
BMu109,49,C,INI,Gait_Normal,1,R_LES,61.684381353036464
BMu109,49,C,INI,Gait_Normal,2,L_LES,57.965514961804935
BMu109,49,C,INI,Gait_Normal,2,R_LES,60.17029136199665
BMu109,49,C,INI,Gait_Normal,3,L_LES,57.54508434853974
BMu109,49,C,INI,Gait_Normal,3,R_LES,66.00305180919501
BMu109,49,C,INI,Gait_Normal,4,L_LES,55.4764815627856
BMu109,49,C,INI,Gait_Normal,4,R_LES,56.92132552385144
BMu109,49,C,INI,Gait_Normal,5,L_LES,49.29739024314739
BMu109,49,C,INI,Gait_Normal,5,R_LES,57.97145696823335
BMu109,49,C,INI,Gait_Normal,6,L_LES,45.79602559463751
BMu109,49,C,INI,Gait_Normal,6,R_LES,51.041177253665204
BMu109,49,C,INI,Gait_Normal,7,L_LES,335.7050144717082
BMu109,49,C,INI,Gait_Normal,7,R_LES,326.91032604027095
BMu109,49,C,REL,Gait_Normal,1,L_LES,60.50066271024318
BMu109,49,C,REL,Gait_Normal,1,R_LES,57.21217772373072
BMu109,49,C,REL,Gait_Normal,2,L_LES,64.6621034135785
BMu109,49,C,REL,Gait_Normal,2,R_LES,64.4445039706103
BMu109,49,C,REL,Gait_Normal,3,L_LES,61.63428591623182
BMu109,49,C,REL,Gait_Normal,3,R_LES,64.06106498016887
BMu109,49,C,REL,Gait_Normal,4,L_LES,61.17102788219851
BMu109,49,C,REL,Gait_Normal,4,R_LES,62.086835260219374
BMu109,49,C,REL,Gait_Normal,5,L_LES,64.04742775279131
BMu109,49,C,REL,Gait_Normal,5,R_LES,54.93035551987172
BMu109,49,C,REL,Gait_Normal,6,L_LES,219.69555945269568
BMu109,49,C,REL,Gait_Normal,6,R_LES,242.93282762079957
BMu109,49,C,REL,Gait_Normal,7,L_LES,53.97130630686831
BMu109,49,C,REL,Gait_Normal,7,R_LES,56.449576796517306
BMu109,49,C,REL,Gait_Normal,8,L_LES,229.80677833066952
BMu109,50,P,INI,Gait_Normal,1,L_LES,63.77742235217229
BMu109,50,P,INI,Gait_Normal,2,L_LES,62.87443962061843
BMu109,50,P,INI,Gait_Normal,2,R_LES,79.75464239474884
BMu109,50,P,INI,Gait_Normal,3,L_LES,61.269399570737924
BMu109,50,P,INI,Gait_Normal,4,L_LES,65.8347250213853
BMu109,50,P,INI,Gait_Normal,5,L_LES,52.65527178257397
BMu109,50,P,INI,Gait_Normal,6,L_LES,347.5705356422464
BMu109,50,P,REL,Gait_Normal,2,L_LES,62.04989931282932
BMu109,50,P,REL,Gait_Normal,2,R_LES,76.26433154394057
BMu109,50,P,REL,Gait_Normal,3,L_LES,53.486173350990605
BMu109,50,P,REL,Gait_Normal,3,R_LES,63.83002598678377
BMu109,50,P,REL,Gait_Normal,4,L_LES,59.865990115805744
BMu109,50,P,REL,Gait_Normal,4,R_LES,70.12466047570467
BMu109,50,P,REL,Gait_Normal,5,L_LES,48.82118548039409
BMu109,50,P,REL,Gait_Normal,5,R_LES,66.31262869216107
BMu109,51,P,INI,Gait_Normal,1,L_LES,81.01633252841613
BMu109,51,P,INI,Gait_Normal,1,R_LES,84.40544591888083
BMu109,51,P,INI,Gait_Normal,2,L_LES,74.73130017921868
BMu109,51,P,INI,Gait_Normal,2,R_LES,82.48624942272299
BMu109,51,P,INI,Gait_Normal,3,L_LES,74.43882184929659
BMu109,51,P,INI,Gait_Normal,3,R_LES,85.39907916462461
BMu109,51,P,INI,Gait_Normal,4,L_LES,78.47166832854037
BMu109,51,P,INI,Gait_Normal,4,R_LES,84.235541724493
BMu109,51,P,INI,Gait_Normal,5,L_LES,75.36326612981566
BMu109,51,P,INI,Gait_Normal,5,R_LES,83.26005979289538
BMu109,51,P,INI,Gait_Normal,6,L_LES,83.19409395193018
BMu109,51,P,INI,Gait_Normal,6,R_LES,78.25481335260496
BMu109,51,P,REL,Gait_Normal,1,L_LES,74.8479199860354
BMu109,51,P,REL,Gait_Normal,1,R_LES,73.76723615490799
BMu109,51,P,REL,Gait_Normal,2,R_LES,184.93102280566117
BMu109,51,P,REL,Gait_Normal,3,R_LES,72.70302481044881
BMu109,51,P,REL,Gait_Normal,4,L_LES,234.44452227963924
BMu109,51,P,REL,Gait_Normal,4,R_LES,183.59959270532332
BMu109,51,P,REL,Gait_Normal,5,R_LES,81.57228283481956
BMu109,51,P,REL,Gait_Normal,6,L_LES,213.32447286953243
BMu109,51,P,REL,Gait_Normal,6,R_LES,190.68916476258846
BMu109,52,C,INI,Gait_Normal,1,L_LES,44.02813395034482
BMu109,52,C,INI,Gait_Normal,1,R_LES,58.62403944058391
BMu109,52,C,INI,Gait_Normal,2,L_LES,232.40621456811814
BMu109,52,C,INI,Gait_Normal,2,R_LES,204.89027636379308
BMu109,52,C,INI,Gait_Normal,3,L_LES,54.874351942506735
BMu109,52,C,INI,Gait_Normal,3,R_LES,66.04248017272086
BMu109,52,C,INI,Gait_Normal,4,L_LES,240.18088291044194
BMu109,52,C,INI,Gait_Normal,4,R_LES,199.44346545010288
BMu109,52,C,INI,Gait_Normal,5,L_LES,53.45250659917108
BMu109,52,C,INI,Gait_Normal,5,R_LES,66.71659631386841
BMu109,52,C,INI,Gait_Normal,6,L_LES,208.60807391692984
BMu109,52,C,INI,Gait_Normal,6,R_LES,172.91072106510796
BMu109,52,C,REL,Gait_Normal,1,L_LES,50.75916422792649
BMu109,52,C,REL,Gait_Normal,1,R_LES,61.865239854801786
BMu109,52,C,REL,Gait_Normal,2,L_LES,262.48169466138773
BMu109,52,C,REL,Gait_Normal,2,R_LES,189.2452110883446
BMu109,52,C,REL,Gait_Normal,3,L_LES,53.57912233463622
BMu109,52,C,REL,Gait_Normal,3,R_LES,70.77715906928034
BMu109,52,C,REL,Gait_Normal,4,L_LES,252.80078845652247
BMu109,52,C,REL,Gait_Normal,4,R_LES,182.72300347619637
BMu109,52,C,REL,Gait_Normal,5,L_LES,53.7374366866148
BMu109,52,C,REL,Gait_Normal,5,R_LES,66.5877579625056
BMu109,52,C,REL,Gait_Normal,6,L_LES,237.60239162744378
BMu109,52,C,REL,Gait_Normal,6,R_LES,240.55824809567002
BMu109,53,P,INI,Gait_Normal,1,L_LES,85.28974897253951
BMu109,53,P,INI,Gait_Normal,1,R_LES,86.9234047633852
BMu109,53,P,INI,Gait_Normal,2,L_LES,96.37853310460672
BMu109,53,P,INI,Gait_Normal,2,R_LES,89.5966194397181
BMu109,53,P,INI,Gait_Normal,3,L_LES,74.34501617522326
BMu109,53,P,INI,Gait_Normal,3,R_LES,67.18272022527258
BMu109,53,P,INI,Gait_Normal,4,L_LES,77.43108687535407
BMu109,53,P,INI,Gait_Normal,4,R_LES,71.08439602823776
BMu109,53,P,INI,Gait_Normal,5,L_LES,66.05669001370335
BMu109,53,P,INI,Gait_Normal,5,R_LES,66.68983609954743
BMu109,53,P,INI,Gait_Normal,6,L_LES,245.1445417267436
BMu109,53,P,INI,Gait_Normal,6,R_LES,222.4729628739169
BMu109,53,P,REL,Gait_Normal,1,L_LES,52.88280737938211
BMu109,53,P,REL,Gait_Normal,1,R_LES,59.65324590613027
BMu109,53,P,REL,Gait_Normal,2,L_LES,61.0555692538253
BMu109,53,P,REL,Gait_Normal,2,R_LES,66.0617085543558
BMu109,53,P,REL,Gait_Normal,3,L_LES,54.341207025635875
BMu109,53,P,REL,Gait_Normal,3,R_LES,59.927167005109204
BMu109,53,P,REL,Gait_Normal,4,L_LES,54.180047771336355
BMu109,53,P,REL,Gait_Normal,4,R_LES,55.0406647018327
BMu109,53,P,REL,Gait_Normal,5,L_LES,50.62594702885514
BMu109,53,P,REL,Gait_Normal,5,R_LES,61.723567532828675
BMu109,53,P,REL,Gait_Normal,6,L_LES,271.431543609364
BMu109,53,P,REL,Gait_Normal,6,R_LES,252.90585973022027
BMu109,54,P,INI,Gait_Normal,1,L_LES,60.36726470221808
BMu109,54,P,INI,Gait_Normal,1,R_LES,57.007189752929484
BMu109,54,P,INI,Gait_Normal,2,L_LES,225.75565751064684
BMu109,54,P,INI,Gait_Normal,2,R_LES,220.11085113334343
BMu109,54,P,INI,Gait_Normal,3,L_LES,43.472999083078854
BMu109,54,P,INI,Gait_Normal,3,R_LES,49.423847590153116
BMu109,54,P,INI,Gait_Normal,4,L_LES,254.7529957061066
BMu109,54,P,INI,Gait_Normal,4,R_LES,242.02022296255117
BMu109,54,P,INI,Gait_Normal,5,L_LES,275.53802555641505
BMu109,54,P,INI,Gait_Normal,5,R_LES,276.14095908637086
BMu109,54,P,REL,Gait_Normal,1,L_LES,53.77894482082897
BMu109,54,P,REL,Gait_Normal,1,R_LES,58.58466085410932
BMu109,54,P,REL,Gait_Normal,2,L_LES,248.58625848149802
BMu109,54,P,REL,Gait_Normal,2,R_LES,235.64418203395053
BMu109,54,P,REL,Gait_Normal,3,L_LES,52.19592690825353
BMu109,54,P,REL,Gait_Normal,3,R_LES,54.74130245516195
BMu109,54,P,REL,Gait_Normal,4,L_LES,248.14033178546723
BMu109,54,P,REL,Gait_Normal,4,R_LES,274.95825013325356
BMu109,54,P,REL,Gait_Normal,5,L_LES,51.66623029397564
BMu109,54,P,REL,Gait_Normal,5,R_LES,58.12766649155688
BMu109,54,P,REL,Gait_Normal,6,L_LES,279.13492315633283
BMu109,54,P,REL,Gait_Normal,6,R_LES,258.80841130327855
BMu109,54,P,REL,Gait_Normal,7,L_LES,54.97358326739924
BMu109,54,P,REL,Gait_Normal,7,R_LES,58.69493615996635
BMu109,54,P,REL,Gait_Normal,8,L_LES,270.6011127493302
BMu109,55,C,INI,Gait_Normal,1,L_LES,43.62083209015943
BMu109,55,C,INI,Gait_Normal,1,R_LES,52.397766906311766
BMu109,55,C,INI,Gait_Normal,2,R_LES,271.84532956173274
BMu109,55,C,INI,Gait_Normal,3,L_LES,47.806990531025924
BMu109,55,C,INI,Gait_Normal,3,R_LES,45.05061719252016
BMu109,55,C,INI,Gait_Normal,4,R_LES,332.51750153457135
BMu109,55,C,INI,Gait_Normal,7,R_LES,308.69439760815584
BMu109,55,C,REL,Gait_Normal,1,R_LES,45.40075427318947
BMu109,55,C,REL,Gait_Normal,2,R_LES,343.92600370152576
BMu109,55,C,REL,Gait_Normal,3,R_LES,44.65673938869045
BMu109,55,C,REL,Gait_Normal,4,R_LES,322.72438465589175
BMu109,55,C,REL,Gait_Normal,5,L_LES,39.90102750864299
BMu109,55,C,REL,Gait_Normal,5,R_LES,36.73838446551342
BMu109,55,C,REL,Gait_Normal,6,R_LES,341.8541340612592
BMu109,55,C,REL,Gait_Normal,7,R_LES,315.8688057498079
BMu109,56,C,INI,Gait_Normal,1,R_LES,85.82430336883857
BMu109,56,C,INI,Gait_Normal,2,L_LES,187.4589919733689
BMu109,56,C,INI,Gait_Normal,2,R_LES,150.96417317446262
BMu109,56,C,INI,Gait_Normal,3,L_LES,65.74074730319236
BMu109,56,C,INI,Gait_Normal,3,R_LES,79.96849325914692
BMu109,56,C,INI,Gait_Normal,4,L_LES,205.84143288337933
BMu109,56,C,INI,Gait_Normal,4,R_LES,202.82204909703762
BMu109,56,C,INI,Gait_Normal,5,L_LES,157.31175806393497
BMu109,56,C,INI,Gait_Normal,5,R_LES,142.61974953023173
BMu109,56,C,INI,Gait_Normal,6,R_LES,81.45716974894364
BMu109,56,C,INI,Gait_Normal,7,L_LES,195.0826632394574
BMu109,56,C,INI,Gait_Normal,7,R_LES,182.32738063796916
BMu109,56,C,REL,Gait_Normal,1,L_LES,89.52919986700986
BMu109,56,C,REL,Gait_Normal,1,R_LES,71.68478555393203
BMu109,56,C,REL,Gait_Normal,2,L_LES,165.5550722908457
BMu109,56,C,REL,Gait_Normal,2,R_LES,197.2708067168298
BMu109,56,C,REL,Gait_Normal,3,L_LES,81.91687468513837
BMu109,56,C,REL,Gait_Normal,3,R_LES,65.5472350983241
BMu109,56,C,REL,Gait_Normal,4,L_LES,176.3357434019324
BMu109,56,C,REL,Gait_Normal,4,R_LES,184.87791758786062
BMu109,56,C,REL,Gait_Normal,5,R_LES,67.83853656377096
BMu109,56,C,REL,Gait_Normal,6,L_LES,144.8207053681618
BMu109,56,C,REL,Gait_Normal,6,R_LES,175.47470497795675
BMu109,56,C,REL,Gait_Normal,7,R_LES,67.44553505075895
BMu109,56,C,REL,Gait_Normal,8,R_LES,187.29492989130492
BMu109,57,C,INI,Gait_Normal,1,L_LES,46.43446550628829
BMu109,57,C,INI,Gait_Normal,1,R_LES,61.13325471516308
BMu109,57,C,INI,Gait_Normal,2,R_LES,228.30576359910947
BMu109,57,C,INI,Gait_Normal,3,L_LES,57.45285917658183
BMu109,57,C,INI,Gait_Normal,3,R_LES,66.67090659725318
BMu109,57,C,INI,Gait_Normal,4,L_LES,151.26841265785177
BMu109,57,C,INI,Gait_Normal,4,R_LES,214.2457467268846
BMu109,57,C,INI,Gait_Normal,5,L_LES,67.60976625836045
BMu109,57,C,INI,Gait_Normal,5,R_LES,70.24936142826827
BMu109,57,C,INI,Gait_Normal,6,L_LES,142.83962825474606
BMu109,57,C,INI,Gait_Normal,6,R_LES,227.00132622833289
BMu109,57,C,INI,Gait_Normal,7,L_LES,84.80580555923636
BMu109,57,C,INI,Gait_Normal,7,R_LES,56.80316733669061
BMu109,57,C,INI,Gait_Normal,8,R_LES,223.79100768183386
BMu109,57,C,REL,Gait_Normal,1,L_LES,49.624484709035606
BMu109,57,C,REL,Gait_Normal,1,R_LES,59.492869797584866
BMu109,57,C,REL,Gait_Normal,2,R_LES,249.65293184147413
BMu109,57,C,REL,Gait_Normal,3,R_LES,61.87509075899637
BMu109,57,C,REL,Gait_Normal,4,R_LES,238.75967451522146
BMu109,57,C,REL,Gait_Normal,5,R_LES,61.348406745866164
BMu109,57,C,REL,Gait_Normal,6,R_LES,63.90137160639396
BMu109,57,C,REL,Gait_Normal,7,R_LES,238.64981763346358
BMu109,57,C,REL,Gait_Normal,8,R_LES,59.03242308871605
BMu109,57,C,REL,Gait_Normal,9,R_LES,240.0661119814524
BMu109,58,P,INI,Gait_Normal,1,L_LES,73.36529744915113
BMu109,58,P,INI,Gait_Normal,1,R_LES,79.87876990056503
BMu109,58,P,INI,Gait_Normal,2,L_LES,180.63788479572804
BMu109,58,P,INI,Gait_Normal,2,R_LES,196.3626361175922
BMu109,58,P,INI,Gait_Normal,3,L_LES,65.79967157789297
BMu109,58,P,INI,Gait_Normal,3,R_LES,72.36826691821825
BMu109,58,P,INI,Gait_Normal,4,L_LES,183.4346737154805
BMu109,58,P,INI,Gait_Normal,4,R_LES,197.13798764525646
BMu109,58,P,INI,Gait_Normal,5,L_LES,67.07608345582655
BMu109,58,P,INI,Gait_Normal,5,R_LES,76.59783445312797
BMu109,58,P,INI,Gait_Normal,6,L_LES,198.14250475171184
BMu109,58,P,INI,Gait_Normal,6,R_LES,199.6194960204833
BMu109,58,P,REL,Gait_Normal,2,R_LES,73.70408502872458
BMu109,58,P,REL,Gait_Normal,3,R_LES,175.34215544108935
BMu109,58,P,REL,Gait_Normal,4,R_LES,65.82049370709657
BMu109,58,P,REL,Gait_Normal,5,R_LES,155.41132457738016
BMu109,58,P,REL,Gait_Normal,6,R_LES,72.05924965295327
BMu109,58,P,REL,Gait_Normal,7,R_LES,170.406381744413
BMu109,58,P,REL,Gait_Normal,8,R_LES,74.08243648021445
BMu109,58,P,REL,Gait_Normal,9,R_LES,122.73100057908212
BMu109,60,C,INI,Gait_Normal,1,L_LES,84.15228796367995
BMu109,60,C,INI,Gait_Normal,1,R_LES,66.01688510421819
BMu109,60,C,INI,Gait_Normal,2,L_LES,196.61562504541337
BMu109,60,C,INI,Gait_Normal,2,R_LES,171.6602743678035
BMu109,60,C,INI,Gait_Normal,3,L_LES,54.44725204063766
BMu109,60,C,INI,Gait_Normal,3,R_LES,67.721545740738
BMu109,60,C,INI,Gait_Normal,4,L_LES,212.59118091907877
BMu109,60,C,INI,Gait_Normal,4,R_LES,254.05504076808577
BMu109,60,C,INI,Gait_Normal,5,L_LES,50.79303764127462
BMu109,60,C,INI,Gait_Normal,5,R_LES,69.26890128718662
BMu109,60,C,INI,Gait_Normal,6,L_LES,196.16316271980023
BMu109,60,C,INI,Gait_Normal,6,R_LES,204.08364938568442
BMu109,60,C,REL,Gait_Normal,1,L_LES,81.09087494679785
BMu109,60,C,REL,Gait_Normal,1,R_LES,77.04742288452671
BMu109,60,C,REL,Gait_Normal,2,L_LES,81.9711001582373
BMu109,60,C,REL,Gait_Normal,2,R_LES,80.32650126993762
BMu109,60,C,REL,Gait_Normal,3,L_LES,77.78619328543276
BMu109,60,C,REL,Gait_Normal,3,R_LES,83.0160171943386
BMu109,60,C,REL,Gait_Normal,4,L_LES,160.26539676239193
BMu109,60,C,REL,Gait_Normal,4,R_LES,142.60322510179526
BMu109,60,C,REL,Gait_Normal,5,L_LES,79.03210562220715
BMu109,60,C,REL,Gait_Normal,5,R_LES,79.39576682128524
BMu109,60,C,REL,Gait_Normal,6,L_LES,184.93148206050515
BMu109,60,C,REL,Gait_Normal,6,R_LES,159.39928638580804
BMu109,61,P,INI,Gait_Normal,1,L_LES,58.483299204810315
BMu109,61,P,INI,Gait_Normal,2,L_LES,253.77756346825922
BMu109,61,P,INI,Gait_Normal,3,L_LES,66.76720683197668
BMu109,61,P,INI,Gait_Normal,3,R_LES,64.32849805531458
BMu109,61,P,INI,Gait_Normal,4,L_LES,229.03323118494882
BMu109,61,P,INI,Gait_Normal,4,R_LES,174.26656059993917
BMu109,61,P,INI,Gait_Normal,5,L_LES,60.34137285129662
BMu109,61,P,INI,Gait_Normal,5,R_LES,61.10274022446735
BMu109,61,P,INI,Gait_Normal,6,L_LES,59.03599412624491
BMu109,61,P,INI,Gait_Normal,7,L_LES,260.1817951635953
BMu109,61,P,INI,Gait_Normal,7,R_LES,171.69283081300918
BMu109,61,P,INI,Gait_Normal,8,L_LES,65.39119194947803
BMu109,61,P,INI,Gait_Normal,8,R_LES,67.40418863545842
BMu109,61,P,INI,Gait_Normal,9,L_LES,243.12971015333756
BMu109,61,P,INI,Gait_Normal,9,R_LES,158.73582956467135
BMu109,61,P,REL,Gait_Normal,1,L_LES,67.90185112348206
BMu109,61,P,REL,Gait_Normal,1,R_LES,79.55768726569042
BMu109,61,P,REL,Gait_Normal,2,L_LES,66.31548691699648
BMu109,61,P,REL,Gait_Normal,2,R_LES,83.64764341427453
BMu109,61,P,REL,Gait_Normal,3,L_LES,234.14868203434122
BMu109,61,P,REL,Gait_Normal,4,L_LES,66.66082852316623
BMu109,61,P,REL,Gait_Normal,4,R_LES,89.0451398860459
BMu109,61,P,REL,Gait_Normal,5,L_LES,211.96165390403183
BMu109,61,P,REL,Gait_Normal,5,R_LES,158.24780349898322
BMu109,61,P,REL,Gait_Normal,6,L_LES,61.89863266303996
BMu109,61,P,REL,Gait_Normal,6,R_LES,89.22204585186596
BMu109,61,P,REL,Gait_Normal,7,L_LES,250.9862654687482
BMu109,61,P,REL,Gait_Normal,7,R_LES,158.52769341634092
BMu109,62,P,INI,Gait_Normal,1,L_LES,77.38418125445314
BMu109,62,P,INI,Gait_Normal,1,R_LES,59.58824376688748
BMu109,62,P,INI,Gait_Normal,2,R_LES,221.68883385405618
BMu109,62,P,INI,Gait_Normal,3,R_LES,64.97497604089466
BMu109,62,P,INI,Gait_Normal,4,R_LES,234.257548063859
BMu109,62,P,INI,Gait_Normal,5,R_LES,59.334608186145736
BMu109,62,P,INI,Gait_Normal,6,R_LES,68.00377170616764
BMu109,62,P,INI,Gait_Normal,7,R_LES,210.21909691685718
BMu109,62,P,REL,Gait_Normal,2,L_LES,249.18616366238993
BMu109,62,P,REL,Gait_Normal,2,R_LES,219.52897333922616
BMu109,62,P,REL,Gait_Normal,3,L_LES,56.045995699909156
BMu109,62,P,REL,Gait_Normal,3,R_LES,73.19553776634235
BMu109,62,P,REL,Gait_Normal,4,L_LES,289.27053147536
BMu109,62,P,REL,Gait_Normal,4,R_LES,230.34477383092238
BMu109,62,P,REL,Gait_Normal,5,L_LES,286.5275561128969
BMu109,62,P,REL,Gait_Normal,5,R_LES,210.52641321184305
BMu109,62,P,REL,Gait_Normal,6,L_LES,59.19233723328683
BMu109,62,P,REL,Gait_Normal,6,R_LES,67.48947558007083
BMu109,62,P,REL,Gait_Normal,7,L_LES,302.8571135202972
BMu109,62,P,REL,Gait_Normal,7,R_LES,256.8444780353353
BMu109,63,P,INI,Gait_Normal,1,L_LES,74.45752707362544
BMu109,63,P,REL,Gait_Normal,1,R_LES,51.717629544377274
BMu109,63,P,REL,Gait_Normal,2,L_LES,284.51321811340074
BMu109,63,P,REL,Gait_Normal,2,R_LES,228.30146098286963
BMu109,63,P,REL,Gait_Normal,3,L_LES,52.86326606875198
BMu109,63,P,REL,Gait_Normal,3,R_LES,59.491807436482674
BMu109,63,P,REL,Gait_Normal,5,L_LES,55.65400081708031
BMu109,63,P,REL,Gait_Normal,6,L_LES,277.9033834961177
BMu109,63,P,REL,Gait_Normal,7,L_LES,56.52469040528644
BMu109,63,P,REL,Gait_Normal,7,R_LES,61.56922926953246
BMu109,63,P,REL,Gait_Normal,8,R_LES,291.44105911414056
BMu109,64,C,INI,Gait_Normal,1,L_LES,44.09855450575274
BMu109,64,C,INI,Gait_Normal,1,R_LES,38.333073304118884
BMu109,64,C,INI,Gait_Normal,2,L_LES,291.17296824621263
BMu109,64,C,INI,Gait_Normal,3,L_LES,49.454007951331626
BMu109,64,C,INI,Gait_Normal,4,L_LES,310.2045152563514
BMu109,64,C,INI,Gait_Normal,5,L_LES,45.63719098731567
BMu109,64,C,INI,Gait_Normal,5,R_LES,46.17115128533661
BMu109,64,C,INI,Gait_Normal,6,L_LES,279.38313271779174
BMu109,64,C,INI,Gait_Normal,6,R_LES,293.5451452171312
BMu109,64,C,INI,Gait_Normal,7,L_LES,50.41883706339249
BMu109,64,C,INI,Gait_Normal,8,L_LES,314.5224100314769
BMu109,64,C,REL,Gait_Normal,1,L_LES,44.43667529120119
BMu109,64,C,REL,Gait_Normal,1,R_LES,45.58002233284171
BMu109,64,C,REL,Gait_Normal,2,L_LES,296.6330567779071
BMu109,64,C,REL,Gait_Normal,2,R_LES,320.2489159507427
BMu109,64,C,REL,Gait_Normal,3,L_LES,36.64506732308254
BMu109,64,C,REL,Gait_Normal,3,R_LES,41.696059068104184
BMu109,64,C,REL,Gait_Normal,4,L_LES,304.1373290652816
BMu109,64,C,REL,Gait_Normal,4,R_LES,297.6909169304243
BMu109,64,C,REL,Gait_Normal,5,L_LES,47.13019857734332
BMu109,64,C,REL,Gait_Normal,6,L_LES,316.93997841771966
BMu109,65,P,INI,Gait_Normal,1,R_LES,46.71139838095081
BMu109,65,P,INI,Gait_Normal,2,L_LES,356.401372895803
BMu109,65,P,INI,Gait_Normal,2,R_LES,313.9022713574833
BMu109,65,P,INI,Gait_Normal,3,L_LES,35.696014147890025
BMu109,65,P,INI,Gait_Normal,3,R_LES,54.06318414105523
BMu109,65,P,INI,Gait_Normal,4,L_LES,318.40740021672025
BMu109,65,P,INI,Gait_Normal,5,R_LES,37.79956000369799
BMu109,65,P,INI,Gait_Normal,6,L_LES,351.4249312959229
BMu109,65,P,REL,Gait_Normal,1,L_LES,49.52562115933314
BMu109,65,P,REL,Gait_Normal,1,R_LES,54.83461395482205
BMu109,65,P,REL,Gait_Normal,2,L_LES,311.15038820097703
BMu109,65,P,REL,Gait_Normal,2,R_LES,292.8188884572992
BMu109,65,P,REL,Gait_Normal,3,L_LES,42.434349098002755
BMu109,65,P,REL,Gait_Normal,3,R_LES,51.30525591419588
BMu109,65,P,REL,Gait_Normal,4,L_LES,297.33268142064594
BMu109,65,P,REL,Gait_Normal,4,R_LES,264.10360405426695
BMu109,65,P,REL,Gait_Normal,5,L_LES,49.076933450242926
BMu109,65,P,REL,Gait_Normal,5,R_LES,48.35869477833764
BMu109,66,C,INI,Gait_Normal,1,L_LES,60.51346613531259
BMu109,66,C,INI,Gait_Normal,2,L_LES,235.48943448032824
BMu109,66,C,INI,Gait_Normal,2,R_LES,266.56973881073174
BMu109,66,C,INI,Gait_Normal,3,L_LES,56.88226010593666
BMu109,66,C,INI,Gait_Normal,3,R_LES,56.86080941720288
BMu109,66,C,INI,Gait_Normal,4,L_LES,269.39153946968355
BMu109,66,C,INI,Gait_Normal,4,R_LES,304.9981162685901
BMu109,66,C,INI,Gait_Normal,5,L_LES,65.18444893387094
BMu109,66,C,INI,Gait_Normal,5,R_LES,53.08084168232275
BMu109,66,C,INI,Gait_Normal,6,L_LES,257.10731126866335
BMu109,66,C,INI,Gait_Normal,6,R_LES,310.327650910615
BMu109,66,C,INI,Gait_Normal,7,L_LES,66.61192701705993
BMu109,66,C,INI,Gait_Normal,7,R_LES,56.02898830226576
BMu109,66,C,INI,Gait_Normal,8,L_LES,251.6346695655208
BMu109,66,C,INI,Gait_Normal,8,R_LES,286.8267042800478
BMu109,66,C,REL,Gait_Normal,1,L_LES,65.1249371007226
BMu109,66,C,REL,Gait_Normal,1,R_LES,61.21083298408598
BMu109,66,C,REL,Gait_Normal,2,L_LES,60.72540707194872
BMu109,66,C,REL,Gait_Normal,2,R_LES,56.77716868095797
BMu109,66,C,REL,Gait_Normal,3,L_LES,64.58134255004664
BMu109,66,C,REL,Gait_Normal,3,R_LES,52.93455543481843
BMu109,66,C,REL,Gait_Normal,4,L_LES,283.5972604439361
BMu109,67,C,INI,Gait_Normal,1,L_LES,39.306434526341114
BMu109,67,C,INI,Gait_Normal,1,R_LES,22.73529064355854
BMu109,67,C,INI,Gait_Normal,2,L_LES,299.2920952117504
BMu109,67,C,INI,Gait_Normal,3,L_LES,313.0397359756415
BMu109,67,C,INI,Gait_Normal,4,L_LES,38.88179121258244
BMu109,67,C,INI,Gait_Normal,5,L_LES,348.0354742653588
BMu109,67,C,INI,Gait_Normal,6,L_LES,47.70661644608349
BMu109,67,C,INI,Gait_Normal,7,L_LES,367.51857785766975
BMu109,68,C,INI,Gait_Normal,1,R_LES,35.9756386783205
BMu109,68,C,INI,Gait_Normal,2,L_LES,28.577341430903697
BMu109,68,C,INI,Gait_Normal,2,R_LES,27.96400931131522
BMu109,68,C,INI,Gait_Normal,3,L_LES,374.25953473594456
BMu109,68,C,INI,Gait_Normal,4,L_LES,32.43320827428976
BMu109,68,C,INI,Gait_Normal,5,L_LES,354.85659761316674
BMu109,68,C,INI,Gait_Normal,6,L_LES,27.746852529909937
BMu109,68,C,INI,Gait_Normal,7,L_LES,355.1842030693758
BMu109,68,C,INI,Gait_Normal,7,R_LES,343.4337147893582
BMu109,68,C,REL,Gait_Normal,1,L_LES,33.51049758764542
