BM,subject,P_C,session,task,repetition,channel,value
BMu100,1,C,INI,Gait_Normal,1,L_ESI,0.32022742737747734
BMu100,1,C,INI,Gait_Normal,1,R_ESI,0.36895076846338193
BMu100,1,C,INI,Gait_Normal,2,L_ESI,0.3020915718085272
BMu100,1,C,INI,Gait_Normal,2,R_ESI,0.4061351611674243
BMu100,1,C,INI,Gait_Normal,3,L_ESI,0.32001570751824077
BMu100,1,C,INI,Gait_Normal,3,R_ESI,0.4048513846253252
BMu100,1,C,INI,Gait_Normal,4,L_ESI,0.31862448017670575
BMu100,1,C,INI,Gait_Normal,4,R_ESI,0.38827633061225986
BMu100,1,C,INI,Gait_Normal,5,L_ESI,0.3200987821764457
BMu100,1,C,INI,Gait_Normal,5,R_ESI,0.4005223561919465
BMu100,1,C,INI,Gait_Normal,6,L_ESI,0.31608219235421187
BMu100,1,C,INI,Gait_Normal,6,R_ESI,0.4237481822897455
BMu100,1,C,INI,Gait_Normal,7,L_ESI,0.2954285118448735
BMu100,1,C,INI,Gait_Normal,7,R_ESI,0.4003004622336135
BMu100,1,C,INI,Gait_Normal,8,L_ESI,0.3024631549888645
BMu100,1,C,INI,Gait_Normal,8,R_ESI,0.41953025659748694
BMu100,1,C,INI,Gait_Normal,9,L_ESI,0.3141093399290696
BMu100,1,C,INI,Gait_Normal,9,R_ESI,0.40390027767118175
BMu100,1,C,INI,Gait_Normal,10,L_ESI,0.33219842614105066
BMu100,1,C,INI,Gait_Normal,10,R_ESI,0.39859091234376864
BMu100,1,C,REL,Gait_Normal,1,L_ESI,0.33202089625193987
BMu100,1,C,REL,Gait_Normal,1,R_ESI,0.5041034106294444
BMu100,1,C,REL,Gait_Normal,2,L_ESI,0.28524282847287985
BMu100,1,C,REL,Gait_Normal,2,R_ESI,1.0487406092259064
BMu100,1,C,REL,Gait_Normal,3,L_ESI,0.3491635933908052
BMu100,1,C,REL,Gait_Normal,3,R_ESI,0.6488061079244913
BMu100,1,C,REL,Gait_Normal,4,L_ESI,0.3568582103890229
BMu100,1,C,REL,Gait_Normal,4,R_ESI,0.5693388549178835
BMu100,1,C,REL,Gait_Normal,5,L_ESI,0.3944011715452222
BMu100,1,C,REL,Gait_Normal,5,R_ESI,0.6082971837225908
BMu100,1,C,REL,Gait_Normal,6,L_ESI,0.32105881180981055
BMu100,1,C,REL,Gait_Normal,6,R_ESI,0.5828922032972862
BMu100,1,C,REL,Gait_Normal,7,L_ESI,0.2958007259213393
BMu100,1,C,REL,Gait_Normal,7,R_ESI,0.5908205418452457
BMu100,1,C,REL,Gait_Normal,8,L_ESI,0.2927584114591405
BMu100,1,C,REL,Gait_Normal,8,R_ESI,1.1488944639958607
BMu100,1,C,REL,Gait_Normal,9,L_ESI,0.37063018221355604
BMu100,1,C,REL,Gait_Normal,9,R_ESI,0.6172313646182228
BMu100,1,C,REL,Gait_Normal,10,L_ESI,0.29508603382051934
BMu100,1,C,REL,Gait_Normal,10,R_ESI,1.3191661282991265
BMu100,2,C,INI,Gait_Normal,1,L_ESI,0.32683383166377533
BMu100,2,C,INI,Gait_Normal,1,R_ESI,0.5762598286473197
BMu100,2,C,INI,Gait_Normal,2,L_ESI,0.41786290070004356
BMu100,2,C,INI,Gait_Normal,2,R_ESI,0.733486032156129
BMu100,2,C,INI,Gait_Normal,3,L_ESI,0.2524138366239479
BMu100,2,C,INI,Gait_Normal,3,R_ESI,0.6298597566018996
BMu100,2,C,INI,Gait_Normal,4,L_ESI,0.2689360781315079
BMu100,2,C,INI,Gait_Normal,4,R_ESI,0.5179147889001722
BMu100,2,C,INI,Gait_Normal,5,L_ESI,0.38532654299313523
BMu100,2,C,INI,Gait_Normal,5,R_ESI,0.7750146740390188
BMu100,2,C,INI,Gait_Normal,6,L_ESI,0.3654897243412408
BMu100,2,C,INI,Gait_Normal,6,R_ESI,0.6551458879780205
BMu100,2,C,INI,Gait_Normal,7,L_ESI,0.3735048149088911
BMu100,2,C,INI,Gait_Normal,7,R_ESI,0.765549916371943
BMu100,2,C,INI,Gait_Normal,8,L_ESI,0.2793111512948745
BMu100,2,C,INI,Gait_Normal,8,R_ESI,0.6222140830044389
BMu100,2,C,INI,Gait_Normal,9,L_ESI,0.41478262545692385
BMu100,2,C,INI,Gait_Normal,9,R_ESI,0.6931726324034272
BMu100,2,C,INI,Gait_Normal,10,L_ESI,
BMu100,2,C,INI,Gait_Normal,10,R_ESI,
BMu100,2,C,REL,Gait_Normal,1,L_ESI,0.5227748655723214
BMu100,2,C,REL,Gait_Normal,1,R_ESI,0.5189964329073358
BMu100,2,C,REL,Gait_Normal,2,L_ESI,0.5078677982539912
BMu100,2,C,REL,Gait_Normal,2,R_ESI,0.5107826772601554
BMu100,2,C,REL,Gait_Normal,3,L_ESI,0.4294060949589855
BMu100,2,C,REL,Gait_Normal,3,R_ESI,0.4957965015585228
BMu100,2,C,REL,Gait_Normal,4,L_ESI,0.5156669756035833
BMu100,2,C,REL,Gait_Normal,4,R_ESI,0.5234373908624977
BMu100,2,C,REL,Gait_Normal,5,L_ESI,0.5589553026977034
BMu100,2,C,REL,Gait_Normal,5,R_ESI,0.6102851191108806
BMu100,2,C,REL,Gait_Normal,6,L_ESI,0.5297016409768914
BMu100,2,C,REL,Gait_Normal,6,R_ESI,0.5573936212150443
BMu100,2,C,REL,Gait_Normal,7,L_ESI,0.45192790501722513
BMu100,2,C,REL,Gait_Normal,7,R_ESI,0.49023033056066156
BMu100,2,C,REL,Gait_Normal,8,L_ESI,0.5118907036100131
BMu100,2,C,REL,Gait_Normal,8,R_ESI,0.505839335829493
BMu100,2,C,REL,Gait_Normal,9,L_ESI,0.5982646248878474
BMu100,2,C,REL,Gait_Normal,9,R_ESI,0.463243626253403
BMu100,3,C,INI,Gait_Normal,1,L_ESI,0.49605078350284304
BMu100,3,C,INI,Gait_Normal,1,R_ESI,0.6455038361052021
BMu100,3,C,INI,Gait_Normal,2,L_ESI,0.46462701242462245
BMu100,3,C,INI,Gait_Normal,2,R_ESI,0.6587060891340393
BMu100,3,C,INI,Gait_Normal,3,L_ESI,0.4900908728272316
BMu100,3,C,INI,Gait_Normal,3,R_ESI,0.5677139448967896
BMu100,3,C,INI,Gait_Normal,4,L_ESI,0.7089174773771549
BMu100,3,C,INI,Gait_Normal,4,R_ESI,0.8515252156757542
BMu100,3,C,INI,Gait_Normal,5,L_ESI,0.4867496722183524
BMu100,3,C,INI,Gait_Normal,5,R_ESI,0.6409118433665325
BMu100,3,C,INI,Gait_Normal,6,L_ESI,0.6635380299610931
BMu100,3,C,INI,Gait_Normal,6,R_ESI,0.6918750010647192
BMu100,3,C,INI,Gait_Normal,7,L_ESI,0.6906857180084496
BMu100,3,C,INI,Gait_Normal,7,R_ESI,0.7552165712060466
BMu100,3,C,INI,Gait_Normal,8,L_ESI,0.5836871489249372
BMu100,3,C,INI,Gait_Normal,8,R_ESI,0.6289077775073092
BMu100,3,C,INI,Gait_Normal,9,L_ESI,0.6348868534679368
BMu100,3,C,INI,Gait_Normal,9,R_ESI,0.69419635999781
BMu100,3,C,INI,Gait_Normal,10,L_ESI,0.4422365473928155
BMu100,3,C,INI,Gait_Normal,10,R_ESI,0.6097925707715139
BMu100,3,C,REL,Gait_Normal,1,L_ESI,0.4828317828422075
BMu100,3,C,REL,Gait_Normal,1,R_ESI,0.608796419350137
BMu100,3,C,REL,Gait_Normal,2,L_ESI,0.3421508598018939
BMu100,3,C,REL,Gait_Normal,2,R_ESI,0.5335334126622456
BMu100,3,C,REL,Gait_Normal,3,L_ESI,0.437762397250152
BMu100,3,C,REL,Gait_Normal,3,R_ESI,0.6057890426251031
BMu100,3,C,REL,Gait_Normal,4,L_ESI,0.3730963840112413
BMu100,3,C,REL,Gait_Normal,4,R_ESI,0.5550736663650984
BMu100,3,C,REL,Gait_Normal,5,L_ESI,0.37854012175966234
BMu100,3,C,REL,Gait_Normal,5,R_ESI,0.6076850092869583
BMu100,3,C,REL,Gait_Normal,6,L_ESI,0.34221544004618615
BMu100,3,C,REL,Gait_Normal,6,R_ESI,0.5309817079065705
BMu100,3,C,REL,Gait_Normal,7,L_ESI,0.46456184483521623
BMu100,3,C,REL,Gait_Normal,7,R_ESI,0.6463746027883328
BMu100,3,C,REL,Gait_Normal,8,L_ESI,0.382669527184769
BMu100,3,C,REL,Gait_Normal,8,R_ESI,0.5643926950452918
BMu100,3,C,REL,Gait_Normal,9,L_ESI,0.6377088633901853
BMu100,3,C,REL,Gait_Normal,9,R_ESI,0.6640533186073951
BMu100,3,C,REL,Gait_Normal,10,L_ESI,0.30023476550774175
BMu100,3,C,REL,Gait_Normal,10,R_ESI,0.510282848695736
BMu100,5,C,INI,Gait_Normal,1,L_ESI,0.16450912185590613
BMu100,5,C,INI,Gait_Normal,1,R_ESI,0.20734864478695147
BMu100,5,C,INI,Gait_Normal,2,L_ESI,0.2198138980695851
BMu100,5,C,INI,Gait_Normal,2,R_ESI,0.2905698498628855
BMu100,5,C,INI,Gait_Normal,3,L_ESI,0.14433613784665184
BMu100,5,C,INI,Gait_Normal,3,R_ESI,0.29354111532316385
BMu100,5,C,INI,Gait_Normal,4,L_ESI,0.1927289057019941
BMu100,5,C,INI,Gait_Normal,4,R_ESI,0.29544065443083817
BMu100,5,C,INI,Gait_Normal,5,L_ESI,0.16867048438938936
BMu100,5,C,INI,Gait_Normal,5,R_ESI,0.2924274352411294
BMu100,5,C,INI,Gait_Normal,6,L_ESI,0.2099732918694892
BMu100,5,C,INI,Gait_Normal,6,R_ESI,0.38177478183546126
BMu100,5,C,INI,Gait_Normal,7,L_ESI,0.17075478614698605
BMu100,5,C,INI,Gait_Normal,7,R_ESI,0.3098086201967655
BMu100,5,C,INI,Gait_Normal,8,L_ESI,0.17116133345070345
BMu100,5,C,INI,Gait_Normal,8,R_ESI,0.3226856884768703
BMu100,5,C,REL,Gait_Normal,1,L_ESI,0.2501582866956778
BMu100,5,C,REL,Gait_Normal,1,R_ESI,0.545819335075328
BMu100,5,C,REL,Gait_Normal,2,L_ESI,0.2635901725788625
BMu100,5,C,REL,Gait_Normal,2,R_ESI,0.6243648196657308
BMu100,5,C,REL,Gait_Normal,3,L_ESI,0.23057743850910414
BMu100,5,C,REL,Gait_Normal,3,R_ESI,0.6407340784433806
BMu100,5,C,REL,Gait_Normal,4,L_ESI,0.29177402028252325
BMu100,5,C,REL,Gait_Normal,4,R_ESI,0.7775039229633127
BMu100,5,C,REL,Gait_Normal,5,L_ESI,0.2325566623319343
BMu100,5,C,REL,Gait_Normal,5,R_ESI,0.5521831770204528
BMu100,5,C,REL,Gait_Normal,6,L_ESI,0.3699792270480045
BMu100,5,C,REL,Gait_Normal,6,R_ESI,0.908230971766915
BMu100,5,C,REL,Gait_Normal,7,L_ESI,0.2609291192730835
BMu100,5,C,REL,Gait_Normal,7,R_ESI,0.7190966344606111
BMu100,5,C,REL,Gait_Normal,8,L_ESI,0.27925326953205715
BMu100,5,C,REL,Gait_Normal,8,R_ESI,0.6148644645620229
BMu100,5,C,REL,Gait_Normal,9,L_ESI,0.28602883853107247
BMu100,5,C,REL,Gait_Normal,9,R_ESI,0.6159037454748033
BMu100,6,C,INI,Gait_Normal,1,L_ESI,0.652194802207343
BMu100,6,C,INI,Gait_Normal,1,R_ESI,0.591626095236102
BMu100,6,C,INI,Gait_Normal,2,L_ESI,0.7483714798386099
BMu100,6,C,INI,Gait_Normal,2,R_ESI,0.5792608461446523
BMu100,6,C,INI,Gait_Normal,3,L_ESI,0.6848399317988302
BMu100,6,C,INI,Gait_Normal,3,R_ESI,0.6022449726383741
BMu100,6,C,INI,Gait_Normal,4,L_ESI,0.6166748548632358
BMu100,6,C,INI,Gait_Normal,4,R_ESI,0.5522450581595448
BMu100,6,C,INI,Gait_Normal,5,L_ESI,0.5952172145509608
BMu100,6,C,INI,Gait_Normal,5,R_ESI,0.6517866000421586
BMu100,6,C,INI,Gait_Normal,6,L_ESI,0.6941611209717283
BMu100,6,C,INI,Gait_Normal,6,R_ESI,0.6167310608866092
BMu100,6,C,INI,Gait_Normal,7,L_ESI,0.5405781009666591
BMu100,6,C,INI,Gait_Normal,7,R_ESI,0.5935366375895053
BMu100,6,C,REL,Gait_Normal,1,L_ESI,0.5358705096286905
BMu100,6,C,REL,Gait_Normal,1,R_ESI,0.9955256786056299
BMu100,6,C,REL,Gait_Normal,2,L_ESI,0.6212012734294681
BMu100,6,C,REL,Gait_Normal,2,R_ESI,0.9847794246781875
BMu100,6,C,REL,Gait_Normal,3,L_ESI,0.6134218254280974
BMu100,6,C,REL,Gait_Normal,3,R_ESI,1.0683302766481881
BMu100,6,C,REL,Gait_Normal,4,L_ESI,0.5288572755982623
BMu100,6,C,REL,Gait_Normal,4,R_ESI,0.8625948903092786
BMu100,6,C,REL,Gait_Normal,5,L_ESI,0.5622287493520972
BMu100,6,C,REL,Gait_Normal,5,R_ESI,0.8454731508699986
BMu100,6,C,REL,Gait_Normal,6,L_ESI,0.6179353366094293
BMu100,6,C,REL,Gait_Normal,6,R_ESI,1.0328050862694216
BMu100,6,C,REL,Gait_Normal,7,L_ESI,0.6829861541040028
BMu100,6,C,REL,Gait_Normal,7,R_ESI,0.7894822389944509
BMu100,6,C,REL,Gait_Normal,8,L_ESI,0.6735295392406474
BMu100,6,C,REL,Gait_Normal,8,R_ESI,0.8675185978268986
BMu100,6,C,REL,Gait_Normal,9,L_ESI,0.6824784327046688
BMu100,6,C,REL,Gait_Normal,9,R_ESI,1.0949300861362075
BMu100,6,C,REL,Gait_Normal,10,L_ESI,0.7077603563758179
BMu100,6,C,REL,Gait_Normal,10,R_ESI,1.063824327018052
BMu100,6,C,REL,Gait_Normal,11,L_ESI,0.6001436672069116
BMu100,6,C,REL,Gait_Normal,11,R_ESI,1.0341788108316652
BMu100,7,C,INI,Gait_Normal,1,L_ESI,0.6392693143565691
BMu100,7,C,INI,Gait_Normal,1,R_ESI,0.4429623353173883
BMu100,7,C,INI,Gait_Normal,2,L_ESI,0.5013571835698145
BMu100,7,C,INI,Gait_Normal,2,R_ESI,0.2440130001499239
BMu100,7,C,INI,Gait_Normal,3,L_ESI,0.6375869555419884
BMu100,7,C,INI,Gait_Normal,3,R_ESI,0.45934170012209624
BMu100,7,C,INI,Gait_Normal,4,L_ESI,0.5986154646331541
BMu100,7,C,INI,Gait_Normal,4,R_ESI,0.5189918066437021
BMu100,7,C,INI,Gait_Normal,5,L_ESI,0.6548452745009734
BMu100,7,C,INI,Gait_Normal,5,R_ESI,0.8099790692672881
BMu100,7,C,INI,Gait_Normal,6,L_ESI,0.6693806070139411
BMu100,7,C,INI,Gait_Normal,6,R_ESI,0.4416253965779923
BMu100,7,C,INI,Gait_Normal,7,L_ESI,0.5589816359873246
BMu100,7,C,INI,Gait_Normal,7,R_ESI,0.43913004319054094
BMu100,7,C,REL,Gait_Normal,1,L_ESI,0.47504866097481385
BMu100,7,C,REL,Gait_Normal,1,R_ESI,0.46572501792475857
BMu100,7,C,REL,Gait_Normal,2,L_ESI,0.3827449855418217
BMu100,7,C,REL,Gait_Normal,2,R_ESI,0.3690823027611409
BMu100,7,C,REL,Gait_Normal,3,L_ESI,0.47862788203202794
BMu100,7,C,REL,Gait_Normal,3,R_ESI,0.5873877569812822
BMu100,7,C,REL,Gait_Normal,4,L_ESI,0.5006086913923529
BMu100,7,C,REL,Gait_Normal,4,R_ESI,0.5343692548912472
BMu100,7,C,REL,Gait_Normal,5,L_ESI,0.42852706928004825
BMu100,7,C,REL,Gait_Normal,5,R_ESI,0.9149342262741031
BMu100,7,C,REL,Gait_Normal,6,L_ESI,0.5455252369508621
BMu100,7,C,REL,Gait_Normal,6,R_ESI,0.4510175887866759
BMu100,7,C,REL,Gait_Normal,7,L_ESI,0.4465160364310672
BMu100,7,C,REL,Gait_Normal,7,R_ESI,0.5950853145304357
BMu100,7,C,REL,Gait_Normal,8,L_ESI,0.5082191395693433
BMu100,7,C,REL,Gait_Normal,8,R_ESI,0.7454473593948565
BMu100,7,C,REL,Gait_Normal,9,L_ESI,0.418709066349813
BMu100,7,C,REL,Gait_Normal,9,R_ESI,0.5782639540453524
BMu100,8,C,INI,Gait_Normal,1,L_ESI,0.4564573556837989
BMu100,8,C,INI,Gait_Normal,1,R_ESI,0.9518712355408827
BMu100,8,C,INI,Gait_Normal,2,L_ESI,0.44517849896077016
BMu100,8,C,INI,Gait_Normal,2,R_ESI,0.883801863265805
BMu100,8,C,INI,Gait_Normal,3,L_ESI,0.4332659073392904
BMu100,8,C,INI,Gait_Normal,3,R_ESI,0.842214156443652
BMu100,8,C,INI,Gait_Normal,4,L_ESI,0.4241237215946122
BMu100,8,C,INI,Gait_Normal,4,R_ESI,0.8270592632972242
BMu100,8,C,INI,Gait_Normal,5,L_ESI,0.5375267373137127
BMu100,8,C,INI,Gait_Normal,5,R_ESI,1.5790720730833432
BMu100,8,C,INI,Gait_Normal,6,L_ESI,0.44754722015642523
BMu100,8,C,INI,Gait_Normal,6,R_ESI,0.8428383435495179
BMu100,8,C,REL,Gait_Normal,1,L_ESI,5.2657767797095305
BMu100,8,C,REL,Gait_Normal,1,R_ESI,0.49110230673249083
BMu100,8,C,REL,Gait_Normal,2,L_ESI,3.803274031625566
BMu100,8,C,REL,Gait_Normal,2,R_ESI,0.5259697764607857
BMu100,8,C,REL,Gait_Normal,3,L_ESI,4.767721017932321
BMu100,8,C,REL,Gait_Normal,3,R_ESI,0.5406556418124701
BMu100,8,C,REL,Gait_Normal,4,L_ESI,4.762366756568518
BMu100,8,C,REL,Gait_Normal,4,R_ESI,0.5253526401897225
BMu100,8,C,REL,Gait_Normal,5,L_ESI,7.71423651683975
BMu100,8,C,REL,Gait_Normal,5,R_ESI,0.4782836592300183
BMu100,9,P,INI,Gait_Normal,1,L_ESI,0.2205167952099629
BMu100,9,P,INI,Gait_Normal,1,R_ESI,0.3433657506269984
BMu100,9,P,INI,Gait_Normal,2,L_ESI,0.2155679977908632
BMu100,9,P,INI,Gait_Normal,2,R_ESI,0.3424365427372684
BMu100,9,P,INI,Gait_Normal,3,L_ESI,0.20843383198953244
BMu100,9,P,INI,Gait_Normal,3,R_ESI,0.3410652524978695
BMu100,9,P,INI,Gait_Normal,4,L_ESI,0.2084818257668114
BMu100,9,P,INI,Gait_Normal,4,R_ESI,0.34007866637586776
BMu100,9,P,INI,Gait_Normal,5,L_ESI,0.19607355252978867
BMu100,9,P,INI,Gait_Normal,5,R_ESI,0.33233906552196585
BMu100,9,P,INI,Gait_Normal,6,L_ESI,0.18392965511204296
BMu100,9,P,INI,Gait_Normal,6,R_ESI,0.32979768338571397
BMu100,9,P,REL,Gait_Normal,1,L_ESI,0.282497643609994
BMu100,9,P,REL,Gait_Normal,1,R_ESI,0.2902655650605233
BMu100,9,P,REL,Gait_Normal,2,L_ESI,0.31726347068778427
BMu100,9,P,REL,Gait_Normal,2,R_ESI,0.3282809244414708
BMu100,9,P,REL,Gait_Normal,3,L_ESI,0.26874500275185903
BMu100,9,P,REL,Gait_Normal,3,R_ESI,0.3104583011788134
BMu100,9,P,REL,Gait_Normal,4,L_ESI,0.21090792040988005
BMu100,9,P,REL,Gait_Normal,4,R_ESI,0.2746923532774854
BMu100,9,P,REL,Gait_Normal,5,L_ESI,0.25328799393412144
BMu100,9,P,REL,Gait_Normal,5,R_ESI,0.322579723206478
BMu100,9,P,REL,Gait_Normal,6,L_ESI,0.23004141555516522
BMu100,9,P,REL,Gait_Normal,6,R_ESI,0.27987389243265065
BMu100,9,P,REL,Gait_Normal,7,L_ESI,0.30701974220200406
BMu100,9,P,REL,Gait_Normal,7,R_ESI,0.3530008575354409
BMu100,9,P,REL,Gait_Normal,8,L_ESI,0.28357394150795434
BMu100,9,P,REL,Gait_Normal,8,R_ESI,0.30439250406425183
BMu100,10,P,INI,Gait_Normal,1,L_ESI,1.980906543664181
BMu100,10,P,INI,Gait_Normal,1,R_ESI,0.8280945087663247
BMu100,10,P,INI,Gait_Normal,2,L_ESI,1.2613163371144622
BMu100,10,P,INI,Gait_Normal,2,R_ESI,0.9341192729781501
BMu100,10,P,INI,Gait_Normal,3,L_ESI,0.7019300016103432
BMu100,10,P,INI,Gait_Normal,3,R_ESI,0.6326373159778071
BMu100,10,P,INI,Gait_Normal,4,L_ESI,0.9324237344400054
BMu100,10,P,INI,Gait_Normal,4,R_ESI,0.6066923413074041
BMu100,10,P,INI,Gait_Normal,5,L_ESI,0.957223571130552
BMu100,10,P,INI,Gait_Normal,5,R_ESI,0.7520656443288389
BMu100,10,P,INI,Gait_Normal,6,L_ESI,0.9491825642650604
BMu100,10,P,INI,Gait_Normal,6,R_ESI,0.6539432295919012
BMu100,10,P,INI,Gait_Normal,7,L_ESI,1.1077503212924782
BMu100,10,P,INI,Gait_Normal,7,R_ESI,0.6511111867833653
BMu100,10,P,REL,Gait_Normal,1,L_ESI,0.2329977901782384
BMu100,10,P,REL,Gait_Normal,1,R_ESI,2.2632833117360724
BMu100,10,P,REL,Gait_Normal,2,L_ESI,0.24391829925002764
BMu100,10,P,REL,Gait_Normal,2,R_ESI,2.0409544672277575
BMu100,10,P,REL,Gait_Normal,3,L_ESI,0.25225147490228367
BMu100,10,P,REL,Gait_Normal,3,R_ESI,1.9166739563207422
BMu100,10,P,REL,Gait_Normal,4,L_ESI,0.26005514376222966
BMu100,10,P,REL,Gait_Normal,4,R_ESI,3.433553257363125
BMu100,10,P,REL,Gait_Normal,5,L_ESI,0.23802798077828094
BMu100,10,P,REL,Gait_Normal,5,R_ESI,3.481102768519752
BMu100,10,P,REL,Gait_Normal,6,L_ESI,0.22223070297197334
BMu100,10,P,REL,Gait_Normal,6,R_ESI,3.2664406670113557
BMu100,10,P,REL,Gait_Normal,7,L_ESI,0.2244836314430885
BMu100,10,P,REL,Gait_Normal,7,R_ESI,3.012513194191854
BMu100,11,P,INI,Gait_Normal,1,L_ESI,0.1583474152435347
BMu100,11,P,INI,Gait_Normal,1,R_ESI,0.2796099429336706
BMu100,11,P,INI,Gait_Normal,2,L_ESI,0.17080328699866162
BMu100,11,P,INI,Gait_Normal,2,R_ESI,0.3249346335693946
BMu100,11,P,INI,Gait_Normal,3,L_ESI,0.15599752490778196
BMu100,11,P,INI,Gait_Normal,3,R_ESI,0.30285359439651766
BMu100,11,P,INI,Gait_Normal,4,L_ESI,0.1642044219186948
BMu100,11,P,INI,Gait_Normal,4,R_ESI,0.3106742251789803
BMu100,11,P,INI,Gait_Normal,5,L_ESI,0.15736806687376534
BMu100,11,P,INI,Gait_Normal,5,R_ESI,0.3481293808695513
BMu100,11,P,INI,Gait_Normal,6,L_ESI,0.14958586423262446
BMu100,11,P,INI,Gait_Normal,6,R_ESI,0.28968900896995947
BMu100,11,P,REL,Gait_Normal,1,L_ESI,0.36855103928078864
BMu100,11,P,REL,Gait_Normal,1,R_ESI,0.38729228636925583
BMu100,11,P,REL,Gait_Normal,2,L_ESI,0.32512429290743267
BMu100,11,P,REL,Gait_Normal,2,R_ESI,0.48145969510715475
BMu100,11,P,REL,Gait_Normal,3,L_ESI,0.3697062470589234
BMu100,11,P,REL,Gait_Normal,3,R_ESI,0.6821821379149893
BMu100,11,P,REL,Gait_Normal,4,L_ESI,0.3656498209623526
BMu100,11,P,REL,Gait_Normal,4,R_ESI,0.4635170404091724
BMu100,11,P,REL,Gait_Normal,5,L_ESI,0.3251651470013955
BMu100,11,P,REL,Gait_Normal,5,R_ESI,0.38202290335072925
BMu100,11,P,REL,Gait_Normal,6,L_ESI,0.3545841229111973
BMu100,11,P,REL,Gait_Normal,6,R_ESI,0.4997369474089936
BMu100,12,P,INI,Gait_Normal,1,L_ESI,0.5281988364527253
BMu100,12,P,INI,Gait_Normal,1,R_ESI,0.559384702763952
BMu100,12,P,INI,Gait_Normal,2,L_ESI,0.5182390597483167
BMu100,12,P,INI,Gait_Normal,2,R_ESI,0.601230622369833
BMu100,12,P,INI,Gait_Normal,3,L_ESI,0.5185566244993095
BMu100,12,P,INI,Gait_Normal,3,R_ESI,0.52215499393993
BMu100,12,P,INI,Gait_Normal,4,L_ESI,0.5230024380675381
BMu100,12,P,INI,Gait_Normal,4,R_ESI,0.5257170824327325
BMu100,12,P,INI,Gait_Normal,5,L_ESI,0.5563001625836258
BMu100,12,P,INI,Gait_Normal,5,R_ESI,0.546336630183235
BMu100,12,P,INI,Gait_Normal,6,L_ESI,0.5398962317275969
BMu100,12,P,INI,Gait_Normal,6,R_ESI,0.5293622717554693
BMu100,12,P,INI,Gait_Normal,7,L_ESI,0.5230843261970457
BMu100,12,P,INI,Gait_Normal,7,R_ESI,0.5668356331905322
BMu100,12,P,INI,Gait_Normal,8,L_ESI,0.5248005857984759
BMu100,12,P,INI,Gait_Normal,8,R_ESI,0.5631210432965097
BMu100,12,P,INI,Gait_Normal,9,L_ESI,0.5347116981451282
BMu100,12,P,INI,Gait_Normal,9,R_ESI,0.5053773007439664
BMu100,12,P,INI,Gait_Normal,10,L_ESI,0.5362922479055258
BMu100,12,P,INI,Gait_Normal,10,R_ESI,0.5054331248690663
BMu100,12,P,REL,Gait_Normal,1,L_ESI,0.32672366466370445
BMu100,12,P,REL,Gait_Normal,1,R_ESI,0.2405192949663272
BMu100,12,P,REL,Gait_Normal,2,L_ESI,0.33601888517524786
BMu100,12,P,REL,Gait_Normal,2,R_ESI,0.24059245810761376
BMu100,12,P,REL,Gait_Normal,3,L_ESI,0.3493166826021037
BMu100,12,P,REL,Gait_Normal,3,R_ESI,0.24219164118415226
BMu100,12,P,REL,Gait_Normal,4,L_ESI,0.3423606665311875
BMu100,12,P,REL,Gait_Normal,4,R_ESI,0.2501709067577304
BMu100,12,P,REL,Gait_Normal,5,L_ESI,0.3435881582051237
BMu100,12,P,REL,Gait_Normal,5,R_ESI,0.23919775448379577
BMu100,12,P,REL,Gait_Normal,6,L_ESI,0.3470955749506328
BMu100,12,P,REL,Gait_Normal,6,R_ESI,0.24707770509702742
BMu100,13,C,INI,Gait_Normal,1,L_ESI,0.5224835817357774
BMu100,13,C,INI,Gait_Normal,1,R_ESI,0.27800995131792144
BMu100,13,C,INI,Gait_Normal,2,L_ESI,0.5096731906208553
BMu100,13,C,INI,Gait_Normal,2,R_ESI,0.2728727200512652
BMu100,13,C,INI,Gait_Normal,3,L_ESI,0.4823316561250872
BMu100,13,C,INI,Gait_Normal,3,R_ESI,0.26369442511827274
BMu100,13,C,INI,Gait_Normal,4,L_ESI,0.5694451913435512
BMu100,13,C,INI,Gait_Normal,4,R_ESI,0.28306747254617676
BMu100,13,C,INI,Gait_Normal,5,L_ESI,0.5300029873711903
BMu100,13,C,INI,Gait_Normal,5,R_ESI,0.27464776906689775
BMu100,13,C,INI,Gait_Normal,6,L_ESI,0.5657874967503673
BMu100,13,C,INI,Gait_Normal,6,R_ESI,0.2783819248411465
BMu100,13,C,INI,Gait_Normal,7,L_ESI,0.49790514520993984
BMu100,13,C,INI,Gait_Normal,7,R_ESI,0.27351050322991927
BMu100,13,C,INI,Gait_Normal,8,L_ESI,0.6062849995876148
BMu100,13,C,INI,Gait_Normal,8,R_ESI,0.3392518058275426
BMu100,13,C,INI,Gait_Normal,9,L_ESI,0.6235437246319543
BMu100,13,C,INI,Gait_Normal,9,R_ESI,0.29368336588875216
BMu100,13,C,REL,Gait_Normal,1,L_ESI,0.3136584757222124
BMu100,13,C,REL,Gait_Normal,1,R_ESI,0.3955395503322198
BMu100,13,C,REL,Gait_Normal,2,L_ESI,0.34788824748752395
BMu100,13,C,REL,Gait_Normal,2,R_ESI,0.3773720834421686
BMu100,13,C,REL,Gait_Normal,3,L_ESI,0.3473146910052247
BMu100,13,C,REL,Gait_Normal,3,R_ESI,0.41891823743690515
BMu100,13,C,REL,Gait_Normal,4,L_ESI,0.356884155650749
BMu100,13,C,REL,Gait_Normal,4,R_ESI,0.40959840985491497
BMu100,13,C,REL,Gait_Normal,5,L_ESI,0.38913460905398706
BMu100,13,C,REL,Gait_Normal,5,R_ESI,0.4097361631773036
BMu100,13,C,REL,Gait_Normal,6,L_ESI,0.44856613736756
BMu100,13,C,REL,Gait_Normal,6,R_ESI,0.44645186246019725
BMu100,13,C,REL,Gait_Normal,7,L_ESI,0.3826364125322279
BMu100,13,C,REL,Gait_Normal,7,R_ESI,0.4435956997385117
BMu100,13,C,REL,Gait_Normal,8,L_ESI,0.35162358880049815
BMu100,13,C,REL,Gait_Normal,8,R_ESI,0.3694097436054828
BMu100,13,C,REL,Gait_Normal,9,L_ESI,0.35312643650401077
BMu100,13,C,REL,Gait_Normal,9,R_ESI,0.3723656145811571
BMu100,14,P,INI,Gait_Normal,1,L_ESI,0.4169769019832424
BMu100,14,P,INI,Gait_Normal,1,R_ESI,0.5956659987530494
BMu100,14,P,INI,Gait_Normal,2,L_ESI,0.4817281010355485
BMu100,14,P,INI,Gait_Normal,2,R_ESI,0.622154557791749
BMu100,14,P,INI,Gait_Normal,3,L_ESI,0.4167086035046612
BMu100,14,P,INI,Gait_Normal,3,R_ESI,0.6709501110354443
BMu100,14,P,INI,Gait_Normal,4,L_ESI,0.41955171470363983
BMu100,14,P,INI,Gait_Normal,4,R_ESI,0.7125148953475448
BMu100,14,P,INI,Gait_Normal,5,L_ESI,0.4562279940759133
BMu100,14,P,INI,Gait_Normal,5,R_ESI,0.7002581997354809
BMu100,14,P,INI,Gait_Normal,6,L_ESI,0.4162933831745445
BMu100,14,P,INI,Gait_Normal,6,R_ESI,0.6794328989881083
BMu100,14,P,INI,Gait_Normal,7,L_ESI,0.47334188605692473
BMu100,14,P,INI,Gait_Normal,7,R_ESI,0.7725392450114926
BMu100,14,P,REL,Gait_Normal,1,L_ESI,0.8233156305051623
BMu100,14,P,REL,Gait_Normal,1,R_ESI,0.9445949947228115
BMu100,14,P,REL,Gait_Normal,2,L_ESI,1.213532468164977
BMu100,14,P,REL,Gait_Normal,2,R_ESI,1.1631806264930977
BMu100,14,P,REL,Gait_Normal,3,L_ESI,0.9004724008589928
BMu100,14,P,REL,Gait_Normal,3,R_ESI,0.8997828898703005
BMu100,14,P,REL,Gait_Normal,4,L_ESI,0.9807044302405127
BMu100,14,P,REL,Gait_Normal,4,R_ESI,0.846700382534471
BMu100,14,P,REL,Gait_Normal,5,L_ESI,1.3405470790477363
BMu100,14,P,REL,Gait_Normal,5,R_ESI,1.2261902290008222
BMu100,14,P,REL,Gait_Normal,6,L_ESI,1.24719746837019
BMu100,14,P,REL,Gait_Normal,6,R_ESI,1.0911724920536428
BMu100,14,P,REL,Gait_Normal,7,L_ESI,1.170179534991563
BMu100,14,P,REL,Gait_Normal,7,R_ESI,1.028017788538879
BMu100,14,P,REL,Gait_Normal,8,L_ESI,1.0853483841022855
BMu100,14,P,REL,Gait_Normal,8,R_ESI,1.1041026225509014
BMu100,14,P,REL,Gait_Normal,9,L_ESI,0.878319132425497
BMu100,14,P,REL,Gait_Normal,9,R_ESI,0.9304281437987433
BMu100,14,P,REL,Gait_Normal,10,L_ESI,1.3851268924275946
BMu100,14,P,REL,Gait_Normal,10,R_ESI,1.181399314841929
BMu100,16,C,INI,Gait_Normal,1,L_ESI,0.4232238507824346
BMu100,16,C,INI,Gait_Normal,1,R_ESI,1.190433491010782
BMu100,16,C,INI,Gait_Normal,2,L_ESI,0.4376406365816883
BMu100,16,C,INI,Gait_Normal,2,R_ESI,0.8283781889252722
BMu100,16,C,INI,Gait_Normal,3,L_ESI,0.43773470358743877
BMu100,16,C,INI,Gait_Normal,3,R_ESI,0.6254298983858492
BMu100,16,C,INI,Gait_Normal,4,L_ESI,0.4199410873745246
BMu100,16,C,INI,Gait_Normal,4,R_ESI,0.8655931024382265
BMu100,16,C,INI,Gait_Normal,5,L_ESI,0.4307349406625319
BMu100,16,C,INI,Gait_Normal,5,R_ESI,0.6340129208370123
BMu100,16,C,INI,Gait_Normal,6,L_ESI,0.4109425580411174
BMu100,16,C,INI,Gait_Normal,6,R_ESI,0.661871185298773
BMu100,16,C,REL,Gait_Normal,1,L_ESI,0.4643365271369612
BMu100,16,C,REL,Gait_Normal,1,R_ESI,0.6751504958476616
BMu100,16,C,REL,Gait_Normal,2,L_ESI,0.5139214510658753
BMu100,16,C,REL,Gait_Normal,2,R_ESI,0.6471232168003359
BMu100,16,C,REL,Gait_Normal,3,L_ESI,0.46411147971240335
BMu100,16,C,REL,Gait_Normal,3,R_ESI,0.6775566843304327
BMu100,16,C,REL,Gait_Normal,4,L_ESI,0.4701504768830083
BMu100,16,C,REL,Gait_Normal,4,R_ESI,0.6808441794780026
BMu100,16,C,REL,Gait_Normal,5,L_ESI,0.4628544500514682
BMu100,16,C,REL,Gait_Normal,5,R_ESI,0.7543125118857644
BMu100,16,C,REL,Gait_Normal,6,L_ESI,0.4564960994141832
BMu100,16,C,REL,Gait_Normal,6,R_ESI,0.7589185736305297
BMu100,17,P,INI,Gait_Normal,1,L_ESI,0.35029365114985395
BMu100,17,P,INI,Gait_Normal,1,R_ESI,24.61244209402879
BMu100,17,P,INI,Gait_Normal,2,L_ESI,0.327749354259657
BMu100,17,P,INI,Gait_Normal,2,R_ESI,16.10705349712009
BMu100,17,P,INI,Gait_Normal,3,L_ESI,0.2874476977925193
BMu100,17,P,INI,Gait_Normal,3,R_ESI,14.84028774236638
BMu100,17,P,INI,Gait_Normal,4,L_ESI,0.3864913460000993
BMu100,17,P,INI,Gait_Normal,4,R_ESI,16.006738946322002
BMu100,17,P,INI,Gait_Normal,5,L_ESI,0.32904468419695626
BMu100,17,P,INI,Gait_Normal,5,R_ESI,16.728798827585454
BMu100,17,P,INI,Gait_Normal,6,L_ESI,0.3594992982184693
BMu100,17,P,INI,Gait_Normal,6,R_ESI,17.32628011188764
BMu100,17,P,INI,Gait_Normal,7,L_ESI,0.40528220013663807
BMu100,17,P,INI,Gait_Normal,7,R_ESI,18.67635572305837
BMu100,17,P,INI,Gait_Normal,8,L_ESI,0.36972802761201534
BMu100,17,P,INI,Gait_Normal,8,R_ESI,17.460387197844558
BMu100,17,P,INI,Gait_Normal,9,L_ESI,0.3724221947084559
BMu100,17,P,INI,Gait_Normal,9,R_ESI,15.784052154069007
BMu100,17,P,INI,Gait_Normal,10,L_ESI,0.35341829588818235
BMu100,17,P,INI,Gait_Normal,10,R_ESI,24.899354403320796
BMu100,17,P,REL,Gait_Normal,1,L_ESI,0.18230115374124742
BMu100,17,P,REL,Gait_Normal,1,R_ESI,0.18259739879202552
BMu100,17,P,REL,Gait_Normal,2,L_ESI,0.16390765091714907
BMu100,17,P,REL,Gait_Normal,2,R_ESI,0.17074185243263493
BMu100,17,P,REL,Gait_Normal,3,L_ESI,0.1804186740140931
BMu100,17,P,REL,Gait_Normal,3,R_ESI,0.18181277350630973
BMu100,17,P,REL,Gait_Normal,4,L_ESI,0.1634405102784751
BMu100,17,P,REL,Gait_Normal,4,R_ESI,0.17328032851667222
BMu100,17,P,REL,Gait_Normal,5,L_ESI,0.18303302385173434
BMu100,17,P,REL,Gait_Normal,5,R_ESI,0.18846011338106503
BMu100,17,P,REL,Gait_Normal,6,L_ESI,0.177395075009945
BMu100,17,P,REL,Gait_Normal,6,R_ESI,0.17099179289819677
BMu100,17,P,REL,Gait_Normal,7,L_ESI,0.18837573453467193
BMu100,17,P,REL,Gait_Normal,7,R_ESI,0.18108147246755957
BMu100,17,P,REL,Gait_Normal,8,L_ESI,0.1759497800257137
BMu100,17,P,REL,Gait_Normal,8,R_ESI,0.1858302054655482
BMu100,21,C,INI,Gait_Normal,1,L_ESI,0.1672342135626991
BMu100,21,C,INI,Gait_Normal,1,R_ESI,0.22463308490712838
BMu100,21,C,INI,Gait_Normal,2,L_ESI,0.15538527840200939
BMu100,21,C,INI,Gait_Normal,2,R_ESI,0.21807359055974485
BMu100,21,C,INI,Gait_Normal,3,L_ESI,0.16487951342777546
BMu100,21,C,INI,Gait_Normal,3,R_ESI,0.22352242026540714
BMu100,21,C,INI,Gait_Normal,4,L_ESI,0.1681225420957856
BMu100,21,C,INI,Gait_Normal,4,R_ESI,0.22807375183026424
BMu100,21,C,INI,Gait_Normal,5,L_ESI,0.16651629103170376
BMu100,21,C,INI,Gait_Normal,5,R_ESI,0.25887948413138034
BMu100,21,C,INI,Gait_Normal,6,L_ESI,0.15625390651340645
BMu100,21,C,INI,Gait_Normal,6,R_ESI,0.22273735402944772
BMu100,21,C,REL,Gait_Normal,1,L_ESI,1.129997530864279
BMu100,21,C,REL,Gait_Normal,1,R_ESI,0.7084417369494357
BMu100,21,C,REL,Gait_Normal,2,L_ESI,0.5860739930556517
BMu100,21,C,REL,Gait_Normal,2,R_ESI,0.4094960649343459
BMu100,21,C,REL,Gait_Normal,3,L_ESI,0.6574847523465964
BMu100,21,C,REL,Gait_Normal,3,R_ESI,0.6125550396406401
BMu100,21,C,REL,Gait_Normal,4,L_ESI,0.46530803870613974
BMu100,21,C,REL,Gait_Normal,4,R_ESI,0.3642056108538976
BMu100,21,C,REL,Gait_Normal,5,L_ESI,0.6531748740892915
BMu100,21,C,REL,Gait_Normal,5,R_ESI,0.4317638776236556
BMu100,21,C,REL,Gait_Normal,6,L_ESI,0.7208441847246286
BMu100,21,C,REL,Gait_Normal,6,R_ESI,0.40177010164360166
BMu100,21,C,REL,Gait_Normal,7,L_ESI,0.8489562185873766
BMu100,21,C,REL,Gait_Normal,7,R_ESI,0.5138484314081699
BMu100,21,C,REL,Gait_Normal,8,L_ESI,0.7773594037673379
BMu100,21,C,REL,Gait_Normal,8,R_ESI,0.37508013559955605
BMu100,22,C,INI,Gait_Normal,1,L_ESI,0.32395459093291346
BMu100,22,C,INI,Gait_Normal,1,R_ESI,0.2995710733842141
BMu100,22,C,INI,Gait_Normal,2,L_ESI,0.3311747405402409
BMu100,22,C,INI,Gait_Normal,2,R_ESI,0.29270688807093115
BMu100,22,C,INI,Gait_Normal,3,L_ESI,0.30435523070450404
BMu100,22,C,INI,Gait_Normal,3,R_ESI,0.27246115115093633
BMu100,22,C,INI,Gait_Normal,4,L_ESI,0.33688942965117397
BMu100,22,C,INI,Gait_Normal,4,R_ESI,0.28195261421420054
BMu100,22,C,INI,Gait_Normal,5,L_ESI,0.3083245609344874
BMu100,22,C,INI,Gait_Normal,5,R_ESI,0.28289090235357467
BMu100,22,C,INI,Gait_Normal,6,L_ESI,0.34469398241950566
BMu100,22,C,INI,Gait_Normal,6,R_ESI,0.2850105107593503
BMu100,22,C,INI,Gait_Normal,7,L_ESI,0.3240678862161423
BMu100,22,C,INI,Gait_Normal,7,R_ESI,0.2897386851916171
BMu100,22,C,INI,Gait_Normal,8,L_ESI,0.3622590542728066
BMu100,22,C,INI,Gait_Normal,8,R_ESI,0.27893009083692744
BMu100,22,C,INI,Gait_Normal,9,L_ESI,0.2878533763674411
BMu100,22,C,INI,Gait_Normal,9,R_ESI,0.2845463650414541
BMu100,22,C,REL,Gait_Normal,1,L_ESI,0.7115383057454836
BMu100,22,C,REL,Gait_Normal,1,R_ESI,0.4135034021025308
BMu100,22,C,REL,Gait_Normal,2,L_ESI,0.6700502302456623
BMu100,22,C,REL,Gait_Normal,2,R_ESI,0.409016233099498
BMu100,22,C,REL,Gait_Normal,3,L_ESI,0.609726608729744
BMu100,22,C,REL,Gait_Normal,3,R_ESI,0.3788327772586062
BMu100,22,C,REL,Gait_Normal,4,L_ESI,0.7402164066384733
BMu100,22,C,REL,Gait_Normal,4,R_ESI,0.46249184502501145
BMu100,22,C,REL,Gait_Normal,5,L_ESI,0.8904195142565247
BMu100,22,C,REL,Gait_Normal,5,R_ESI,0.4258057395421586
BMu100,22,C,REL,Gait_Normal,6,L_ESI,0.7575729945146797
BMu100,22,C,REL,Gait_Normal,6,R_ESI,0.37813311388540183
BMu100,22,C,REL,Gait_Normal,7,L_ESI,1.0378306550163605
BMu100,22,C,REL,Gait_Normal,7,R_ESI,0.38498604422722044
BMu100,22,C,REL,Gait_Normal,8,L_ESI,0.7804082843942686
BMu100,22,C,REL,Gait_Normal,8,R_ESI,0.38509241119760035
BMu100,23,C,INI,Gait_Normal,1,L_ESI,0.3617099400304567
BMu100,23,C,INI,Gait_Normal,1,R_ESI,4.324607804254627
BMu100,23,C,INI,Gait_Normal,2,L_ESI,0.41805161115917294
BMu100,23,C,INI,Gait_Normal,2,R_ESI,5.873887901030659
BMu100,23,C,INI,Gait_Normal,3,L_ESI,0.3309856243401829
BMu100,23,C,INI,Gait_Normal,3,R_ESI,8.456331377611162
BMu100,23,C,INI,Gait_Normal,4,L_ESI,0.33536543883160475
BMu100,23,C,INI,Gait_Normal,4,R_ESI,7.470194175597825
BMu100,23,C,INI,Gait_Normal,5,L_ESI,0.3643016526381205
BMu100,23,C,INI,Gait_Normal,5,R_ESI,6.628293248013745
BMu100,23,C,INI,Gait_Normal,6,L_ESI,0.3352285255239648
BMu100,23,C,INI,Gait_Normal,6,R_ESI,6.311389934817876
BMu100,23,C,INI,Gait_Normal,7,L_ESI,0.3454034875822787
BMu100,23,C,INI,Gait_Normal,7,R_ESI,6.308676289434563
BMu100,23,C,REL,Gait_Normal,1,L_ESI,0.21632263072379523
BMu100,23,C,REL,Gait_Normal,1,R_ESI,0.16511790379306743
BMu100,23,C,REL,Gait_Normal,2,L_ESI,0.194490369846264
BMu100,23,C,REL,Gait_Normal,2,R_ESI,0.1767610171700226
BMu100,23,C,REL,Gait_Normal,3,L_ESI,0.19837167996671082
BMu100,23,C,REL,Gait_Normal,3,R_ESI,0.19030325253822533
BMu100,23,C,REL,Gait_Normal,4,L_ESI,0.21824648372134528
BMu100,23,C,REL,Gait_Normal,4,R_ESI,0.18812193418638903
BMu100,24,P,INI,Gait_Normal,1,L_ESI,0.9094922618739263
BMu100,24,P,INI,Gait_Normal,1,R_ESI,0.5969349369744972
BMu100,24,P,INI,Gait_Normal,2,L_ESI,0.7671508372729483
BMu100,24,P,INI,Gait_Normal,2,R_ESI,0.5174281752989959
BMu100,24,P,INI,Gait_Normal,3,L_ESI,0.8437167653138568
BMu100,24,P,INI,Gait_Normal,3,R_ESI,0.6028149802886325
BMu100,24,P,INI,Gait_Normal,4,L_ESI,0.7728272294894217
BMu100,24,P,INI,Gait_Normal,4,R_ESI,0.5330624355364706
BMu100,24,P,INI,Gait_Normal,5,L_ESI,0.7673565378095047
BMu100,24,P,INI,Gait_Normal,5,R_ESI,0.6340586170279757
BMu100,24,P,INI,Gait_Normal,6,L_ESI,0.8046227254378394
BMu100,24,P,INI,Gait_Normal,6,R_ESI,0.6840343742133488
BMu100,24,P,INI,Gait_Normal,7,L_ESI,0.7616469650926759
BMu100,24,P,INI,Gait_Normal,7,R_ESI,0.6408067455740155
BMu100,24,P,INI,Gait_Normal,8,L_ESI,0.7721194578655259
BMu100,24,P,INI,Gait_Normal,8,R_ESI,0.7841921980448362
BMu100,24,P,REL,Gait_Normal,1,L_ESI,0.42647777267548165
BMu100,24,P,REL,Gait_Normal,1,R_ESI,0.5420677528317498
BMu100,24,P,REL,Gait_Normal,2,L_ESI,0.38180064303518124
BMu100,24,P,REL,Gait_Normal,2,R_ESI,0.5722821017185542
BMu100,24,P,REL,Gait_Normal,3,L_ESI,0.37946066501149045
BMu100,24,P,REL,Gait_Normal,3,R_ESI,0.6058383741268534
BMu100,24,P,REL,Gait_Normal,4,L_ESI,0.42758112415512023
BMu100,24,P,REL,Gait_Normal,4,R_ESI,0.5941580887333074
BMu100,24,P,REL,Gait_Normal,5,L_ESI,0.4182485174198319
BMu100,24,P,REL,Gait_Normal,5,R_ESI,0.6023399838518638
BMu100,25,C,INI,Gait_Normal,1,L_ESI,0.6600250306508705
BMu100,25,C,INI,Gait_Normal,1,R_ESI,0.49127931864889823
BMu100,25,C,INI,Gait_Normal,2,L_ESI,1.073406833844464
BMu100,25,C,INI,Gait_Normal,2,R_ESI,0.6125688215312328
BMu100,25,C,INI,Gait_Normal,3,L_ESI,0.8184421366889545
BMu100,25,C,INI,Gait_Normal,3,R_ESI,0.8269933128850918
BMu100,25,C,INI,Gait_Normal,4,L_ESI,0.8362381281854406
BMu100,25,C,INI,Gait_Normal,4,R_ESI,0.7509868093625283
BMu100,25,C,INI,Gait_Normal,5,L_ESI,0.8451271501156737
BMu100,25,C,INI,Gait_Normal,5,R_ESI,0.566287687663773
BMu100,25,C,INI,Gait_Normal,6,L_ESI,0.7300941990261096
BMu100,25,C,INI,Gait_Normal,6,R_ESI,0.5583589983118417
BMu100,25,C,INI,Gait_Normal,7,L_ESI,0.9336990276427701
BMu100,25,C,INI,Gait_Normal,7,R_ESI,0.7534741302357896
BMu100,25,C,INI,Gait_Normal,8,L_ESI,0.8357299328639618
BMu100,25,C,INI,Gait_Normal,8,R_ESI,0.6364488922447635
BMu100,25,C,INI,Gait_Normal,9,L_ESI,0.7362455054161384
BMu100,25,C,INI,Gait_Normal,9,R_ESI,0.6801871572443877
BMu100,25,C,INI,Gait_Normal,10,L_ESI,0.8721148985941909
BMu100,25,C,INI,Gait_Normal,10,R_ESI,0.5518374037074617
BMu100,25,C,REL,Gait_Normal,1,L_ESI,1.3755968054251724
BMu100,25,C,REL,Gait_Normal,1,R_ESI,1.0213006041639707
BMu100,25,C,REL,Gait_Normal,2,L_ESI,1.1182426216692656
BMu100,25,C,REL,Gait_Normal,2,R_ESI,1.0213629384427483
BMu100,25,C,REL,Gait_Normal,3,L_ESI,1.4203950004453028
BMu100,25,C,REL,Gait_Normal,3,R_ESI,0.8917273427178762
BMu100,25,C,REL,Gait_Normal,4,L_ESI,1.2097757335076464
BMu100,25,C,REL,Gait_Normal,4,R_ESI,0.6312294835099923
BMu100,25,C,REL,Gait_Normal,5,L_ESI,1.1743275715240495
BMu100,25,C,REL,Gait_Normal,5,R_ESI,0.708478750890142
BMu100,25,C,REL,Gait_Normal,6,L_ESI,1.0530574685481928
BMu100,25,C,REL,Gait_Normal,6,R_ESI,0.6280053796769601
BMu100,25,C,REL,Gait_Normal,7,L_ESI,1.3574946736320819
BMu100,25,C,REL,Gait_Normal,7,R_ESI,0.7276202080702548
BMu100,25,C,REL,Gait_Normal,8,L_ESI,1.3584380513843903
BMu100,25,C,REL,Gait_Normal,8,R_ESI,0.558642868060523
BMu100,26,P,INI,Gait_Normal,1,L_ESI,0.2542174482395078
BMu100,26,P,INI,Gait_Normal,1,R_ESI,0.7243419775645816
BMu100,26,P,INI,Gait_Normal,2,L_ESI,0.20341105174011123
BMu100,26,P,INI,Gait_Normal,2,R_ESI,0.8233701260828683
BMu100,26,P,INI,Gait_Normal,3,L_ESI,0.21310364400266027
BMu100,26,P,INI,Gait_Normal,3,R_ESI,0.9632542413784971
BMu100,26,P,INI,Gait_Normal,4,L_ESI,0.22175243383069843
BMu100,26,P,INI,Gait_Normal,4,R_ESI,0.7751839724799758
BMu100,26,P,INI,Gait_Normal,5,L_ESI,0.2357706329048358
BMu100,26,P,INI,Gait_Normal,5,R_ESI,0.8710001396554622
BMu100,26,P,INI,Gait_Normal,6,L_ESI,0.23606818139040922
BMu100,26,P,INI,Gait_Normal,6,R_ESI,0.9488419537554519
BMu100,26,P,INI,Gait_Normal,7,L_ESI,0.21983729749865408
BMu100,26,P,INI,Gait_Normal,7,R_ESI,0.84818714357003
BMu100,26,P,REL,Gait_Normal,1,L_ESI,0.44522440149602077
BMu100,26,P,REL,Gait_Normal,1,R_ESI,4.328386167071149
BMu100,26,P,REL,Gait_Normal,2,L_ESI,0.3697411507342325
BMu100,26,P,REL,Gait_Normal,2,R_ESI,4.315282953128876
BMu100,26,P,REL,Gait_Normal,3,L_ESI,0.38199416049858526
BMu100,26,P,REL,Gait_Normal,3,R_ESI,4.220704810952381
BMu100,26,P,REL,Gait_Normal,4,L_ESI,0.40886888436060725
BMu100,26,P,REL,Gait_Normal,4,R_ESI,5.4756642215388505
BMu100,26,P,REL,Gait_Normal,5,L_ESI,0.4056007071517558
BMu100,26,P,REL,Gait_Normal,5,R_ESI,6.675548039974662
BMu100,26,P,REL,Gait_Normal,6,L_ESI,0.41219512381787976
BMu100,26,P,REL,Gait_Normal,6,R_ESI,7.067587811287159
BMu100,26,P,REL,Gait_Normal,7,L_ESI,0.40817487294593996
BMu100,26,P,REL,Gait_Normal,7,R_ESI,9.74920555698334
BMu100,26,P,REL,Gait_Normal,8,L_ESI,0.4111429868935379
BMu100,26,P,REL,Gait_Normal,8,R_ESI,6.650163914405485
BMu100,27,P,INI,Gait_Normal,1,L_ESI,0.2779724821030614
BMu100,27,P,INI,Gait_Normal,1,R_ESI,0.4008239666265066
BMu100,27,P,INI,Gait_Normal,2,L_ESI,0.2840065506551186
BMu100,27,P,INI,Gait_Normal,2,R_ESI,0.40837702763433753
BMu100,27,P,INI,Gait_Normal,3,L_ESI,0.28118287851283635
BMu100,27,P,INI,Gait_Normal,3,R_ESI,0.3880164891536188
BMu100,27,P,INI,Gait_Normal,4,L_ESI,0.32933682736034986
BMu100,27,P,INI,Gait_Normal,4,R_ESI,0.49006182436126283
BMu100,27,P,INI,Gait_Normal,5,L_ESI,0.26688843283270886
BMu100,27,P,INI,Gait_Normal,5,R_ESI,0.3702923410225029
BMu100,27,P,INI,Gait_Normal,6,L_ESI,0.31058353440027137
BMu100,27,P,INI,Gait_Normal,6,R_ESI,0.4022543834186402
BMu100,27,P,INI,Gait_Normal,7,L_ESI,0.29166828507649717
BMu100,27,P,INI,Gait_Normal,7,R_ESI,0.3771422219410107
BMu100,27,P,INI,Gait_Normal,8,L_ESI,0.29851783802894266
BMu100,27,P,INI,Gait_Normal,8,R_ESI,0.3934043393859299
BMu100,27,P,INI,Gait_Normal,9,L_ESI,0.324759424758337
BMu100,27,P,INI,Gait_Normal,9,R_ESI,0.38809799704093134
BMu100,27,P,REL,Gait_Normal,1,L_ESI,16.45273843010857
BMu100,27,P,REL,Gait_Normal,1,R_ESI,0.4835618457805966
BMu100,27,P,REL,Gait_Normal,2,L_ESI,0.3648312309625232
BMu100,27,P,REL,Gait_Normal,2,R_ESI,0.5568355401743273
BMu100,27,P,REL,Gait_Normal,3,L_ESI,0.2890989846936329
BMu100,27,P,REL,Gait_Normal,3,R_ESI,0.4491957761477788
BMu100,27,P,REL,Gait_Normal,4,L_ESI,0.33845651865671894
BMu100,27,P,REL,Gait_Normal,4,R_ESI,0.5646935560340733
BMu100,27,P,REL,Gait_Normal,5,L_ESI,0.32885006007963136
BMu100,27,P,REL,Gait_Normal,5,R_ESI,0.5462417129882137
BMu100,27,P,REL,Gait_Normal,6,L_ESI,0.2922117575615726
BMu100,27,P,REL,Gait_Normal,6,R_ESI,0.5130776171093284
BMu100,27,P,REL,Gait_Normal,7,L_ESI,0.278776205590164
BMu100,27,P,REL,Gait_Normal,7,R_ESI,0.5044355543987532
BMu100,28,P,INI,Gait_Normal,1,L_ESI,0.30978484831885944
BMu100,28,P,INI,Gait_Normal,1,R_ESI,0.5801813639925881
BMu100,28,P,INI,Gait_Normal,2,L_ESI,0.4091907473669186
BMu100,28,P,INI,Gait_Normal,2,R_ESI,0.8455078538417853
BMu100,28,P,INI,Gait_Normal,3,L_ESI,0.3573693505172786
BMu100,28,P,INI,Gait_Normal,3,R_ESI,0.8092903380629316
BMu100,28,P,INI,Gait_Normal,4,L_ESI,0.3576344373759879
BMu100,28,P,INI,Gait_Normal,4,R_ESI,0.8487959461025222
BMu100,28,P,INI,Gait_Normal,5,L_ESI,0.3262495498102731
BMu100,28,P,INI,Gait_Normal,5,R_ESI,0.846888341229295
BMu100,28,P,INI,Gait_Normal,6,L_ESI,0.38367640102899014
BMu100,28,P,INI,Gait_Normal,6,R_ESI,0.8853826145398321
BMu100,28,P,INI,Gait_Normal,7,L_ESI,0.35944269879820245
BMu100,28,P,INI,Gait_Normal,7,R_ESI,1.606880826753698
BMu100,28,P,INI,Gait_Normal,8,L_ESI,0.33317238308977914
BMu100,28,P,INI,Gait_Normal,8,R_ESI,1.2304879251198917
BMu100,28,P,REL,Gait_Normal,1,L_ESI,0.6065184611808548
BMu100,28,P,REL,Gait_Normal,1,R_ESI,0.3680389618985864
BMu100,28,P,REL,Gait_Normal,2,L_ESI,0.49884416622009686
BMu100,28,P,REL,Gait_Normal,2,R_ESI,0.3530366992460827
BMu100,28,P,REL,Gait_Normal,3,L_ESI,0.6371360433643973
BMu100,28,P,REL,Gait_Normal,3,R_ESI,0.379534343301233
BMu100,28,P,REL,Gait_Normal,4,L_ESI,0.5511154152696708
BMu100,28,P,REL,Gait_Normal,4,R_ESI,0.38976994380628754
BMu100,28,P,REL,Gait_Normal,5,L_ESI,1.0713423535059696
BMu100,28,P,REL,Gait_Normal,5,R_ESI,0.43857429635815315
BMu100,28,P,REL,Gait_Normal,6,L_ESI,0.5391188582231886
BMu100,28,P,REL,Gait_Normal,6,R_ESI,0.3613811631822437
BMu100,28,P,REL,Gait_Normal,7,L_ESI,0.6456421418676944
BMu100,28,P,REL,Gait_Normal,7,R_ESI,0.38628649859635017
BMu100,28,P,REL,Gait_Normal,8,L_ESI,0.7200398709748642
BMu100,28,P,REL,Gait_Normal,8,R_ESI,0.397018912594125
BMu100,28,P,REL,Gait_Normal,9,L_ESI,0.549614229068685
BMu100,28,P,REL,Gait_Normal,9,R_ESI,0.40111259848408237
BMu100,29,P,INI,Gait_Normal,1,L_ESI,0.2985247977611843
BMu100,29,P,INI,Gait_Normal,1,R_ESI,0.3088822154370225
BMu100,29,P,INI,Gait_Normal,2,L_ESI,0.28939826679379155
BMu100,29,P,INI,Gait_Normal,2,R_ESI,0.3166218580784747
BMu100,29,P,INI,Gait_Normal,3,L_ESI,0.2899810096045556
BMu100,29,P,INI,Gait_Normal,3,R_ESI,0.35322296932676495
BMu100,29,P,INI,Gait_Normal,4,L_ESI,0.30351645965248203
BMu100,29,P,INI,Gait_Normal,4,R_ESI,0.3989626380254256
BMu100,29,P,INI,Gait_Normal,5,L_ESI,0.31280021569012867
BMu100,29,P,INI,Gait_Normal,5,R_ESI,0.38286575806532186
BMu100,29,P,INI,Gait_Normal,6,L_ESI,0.2592376145269769
BMu100,29,P,INI,Gait_Normal,6,R_ESI,0.32743538974378783
BMu100,29,P,INI,Gait_Normal,7,L_ESI,0.2703034871416225
BMu100,29,P,INI,Gait_Normal,7,R_ESI,0.3142598034695635
BMu100,29,P,REL,Gait_Normal,1,L_ESI,0.3523570887937866
BMu100,29,P,REL,Gait_Normal,1,R_ESI,0.05578189612615531
BMu100,29,P,REL,Gait_Normal,2,L_ESI,0.3710712906637524
BMu100,29,P,REL,Gait_Normal,2,R_ESI,0.06717047646815856
BMu100,29,P,REL,Gait_Normal,3,L_ESI,0.3197664290480831
BMu100,29,P,REL,Gait_Normal,3,R_ESI,0.04945313313152222
BMu100,29,P,REL,Gait_Normal,4,L_ESI,0.2957806017393488
BMu100,29,P,REL,Gait_Normal,4,R_ESI,0.052283707742411534
BMu100,29,P,REL,Gait_Normal,5,L_ESI,0.25411442331542755
BMu100,29,P,REL,Gait_Normal,5,R_ESI,0.05670805170042709
BMu100,29,P,REL,Gait_Normal,6,L_ESI,0.2935926451544199
BMu100,29,P,REL,Gait_Normal,6,R_ESI,0.05597442918975742
BMu100,30,P,INI,Gait_Normal,1,L_ESI,0.3081017336216306
BMu100,30,P,INI,Gait_Normal,1,R_ESI,0.3059499931941067
BMu100,30,P,INI,Gait_Normal,2,L_ESI,0.33668703216862245
BMu100,30,P,INI,Gait_Normal,2,R_ESI,0.3337727603755632
BMu100,30,P,INI,Gait_Normal,3,L_ESI,0.3296170470940257
BMu100,30,P,INI,Gait_Normal,3,R_ESI,0.31213044334071854
BMu100,30,P,INI,Gait_Normal,4,L_ESI,0.2973850218584458
BMu100,30,P,INI,Gait_Normal,4,R_ESI,0.3638576136477048
BMu100,30,P,INI,Gait_Normal,5,L_ESI,0.3978700854675011
BMu100,30,P,INI,Gait_Normal,5,R_ESI,0.3574261920843062
BMu100,30,P,INI,Gait_Normal,6,L_ESI,0.3655438944338612
BMu100,30,P,INI,Gait_Normal,6,R_ESI,0.3377824121097371
BMu100,30,P,INI,Gait_Normal,7,L_ESI,0.28404226549195183
BMu100,30,P,INI,Gait_Normal,7,R_ESI,0.29907382818159156
BMu100,30,P,INI,Gait_Normal,8,L_ESI,0.3022914570358534
BMu100,30,P,INI,Gait_Normal,8,R_ESI,0.32022235033342933
BMu100,30,P,INI,Gait_Normal,9,L_ESI,0.3432385657646826
BMu100,30,P,INI,Gait_Normal,9,R_ESI,0.28500404608227936
BMu100,30,P,REL,Gait_Normal,1,L_ESI,0.33921452332191726
BMu100,30,P,REL,Gait_Normal,1,R_ESI,0.4167345197658505
BMu100,30,P,REL,Gait_Normal,2,L_ESI,0.3288192845239367
BMu100,30,P,REL,Gait_Normal,2,R_ESI,0.43011362313346435
BMu100,30,P,REL,Gait_Normal,3,L_ESI,0.34819812316791804
BMu100,30,P,REL,Gait_Normal,3,R_ESI,0.4380857147059598
BMu100,30,P,REL,Gait_Normal,4,L_ESI,0.40147453590000115
BMu100,30,P,REL,Gait_Normal,4,R_ESI,0.4132826739377054
BMu100,30,P,REL,Gait_Normal,5,L_ESI,0.3917865080526759
BMu100,30,P,REL,Gait_Normal,5,R_ESI,0.46128311625774243
BMu100,30,P,REL,Gait_Normal,6,L_ESI,0.3033011759438993
BMu100,30,P,REL,Gait_Normal,6,R_ESI,0.37010493225918406
BMu100,30,P,REL,Gait_Normal,7,L_ESI,0.3178368128302046
BMu100,30,P,REL,Gait_Normal,7,R_ESI,0.4222089429182379
BMu100,30,P,REL,Gait_Normal,8,L_ESI,0.3577320840034524
BMu100,30,P,REL,Gait_Normal,8,R_ESI,0.4094490593369513
BMu100,30,P,REL,Gait_Normal,9,L_ESI,0.3875393763480634
BMu100,30,P,REL,Gait_Normal,9,R_ESI,0.42536577417230514
BMu100,32,P,INI,Gait_Normal,1,L_ESI,0.12922345432155055
BMu100,32,P,INI,Gait_Normal,1,R_ESI,0.2992956412060793
BMu100,32,P,INI,Gait_Normal,2,L_ESI,0.12302368940406129
BMu100,32,P,INI,Gait_Normal,2,R_ESI,0.29730345158466626
BMu100,32,P,INI,Gait_Normal,3,L_ESI,0.12275477880060803
BMu100,32,P,INI,Gait_Normal,3,R_ESI,0.3295259865934832
BMu100,32,P,INI,Gait_Normal,4,L_ESI,0.11956025380852059
BMu100,32,P,INI,Gait_Normal,4,R_ESI,0.2891946987029424
BMu100,32,P,INI,Gait_Normal,5,L_ESI,0.1258955019382131
BMu100,32,P,INI,Gait_Normal,5,R_ESI,0.28902221455355664
BMu100,32,P,INI,Gait_Normal,6,L_ESI,0.11999794579431407
BMu100,32,P,INI,Gait_Normal,6,R_ESI,0.2921708765974571
BMu100,32,P,INI,Gait_Normal,7,L_ESI,0.1200550839860239
BMu100,32,P,INI,Gait_Normal,7,R_ESI,0.2986450325777719
BMu100,32,P,REL,Gait_Normal,1,L_ESI,0.2466748466690879
BMu100,32,P,REL,Gait_Normal,1,R_ESI,0.4012981478949074
BMu100,32,P,REL,Gait_Normal,2,L_ESI,0.22764916435254642
BMu100,32,P,REL,Gait_Normal,2,R_ESI,0.44587834565659196
BMu100,32,P,REL,Gait_Normal,3,L_ESI,0.22503799539029182
BMu100,32,P,REL,Gait_Normal,3,R_ESI,0.40156778715238944
BMu100,32,P,REL,Gait_Normal,4,L_ESI,0.19475019500454663
BMu100,32,P,REL,Gait_Normal,4,R_ESI,0.3987443529615553
BMu100,32,P,REL,Gait_Normal,5,L_ESI,0.2034541745785786
BMu100,32,P,REL,Gait_Normal,5,R_ESI,0.39519105505640684
BMu100,32,P,REL,Gait_Normal,6,L_ESI,0.20928660963218468
BMu100,32,P,REL,Gait_Normal,6,R_ESI,0.3746275995245741
BMu100,32,P,REL,Gait_Normal,7,L_ESI,0.2076510174018886
BMu100,32,P,REL,Gait_Normal,7,R_ESI,0.41531596755167205
BMu100,32,P,REL,Gait_Normal,8,L_ESI,0.1998587835799803
BMu100,32,P,REL,Gait_Normal,8,R_ESI,0.434013726796519
BMu100,33,P,INI,Gait_Normal,1,L_ESI,0.18924853892340102
BMu100,33,P,INI,Gait_Normal,1,R_ESI,0.1701169685207249
BMu100,33,P,INI,Gait_Normal,2,L_ESI,0.17682754304709905
BMu100,33,P,INI,Gait_Normal,2,R_ESI,0.16674637024542047
BMu100,33,P,INI,Gait_Normal,3,L_ESI,0.20671228169308797
BMu100,33,P,INI,Gait_Normal,3,R_ESI,0.13328032990588926
BMu100,33,P,INI,Gait_Normal,4,L_ESI,0.21537336153953765
BMu100,33,P,INI,Gait_Normal,4,R_ESI,0.1403144028353074
BMu100,33,P,INI,Gait_Normal,5,L_ESI,0.21874880816882017
BMu100,33,P,INI,Gait_Normal,5,R_ESI,0.12628080101390257
BMu100,33,P,INI,Gait_Normal,6,L_ESI,0.20141742870968662
BMu100,33,P,INI,Gait_Normal,6,R_ESI,0.1284358461540958
BMu100,33,P,REL,Gait_Normal,1,L_ESI,0.804479826507202
BMu100,33,P,REL,Gait_Normal,1,R_ESI,25.672848792014477
BMu100,33,P,REL,Gait_Normal,2,L_ESI,0.5603966623058565
BMu100,33,P,REL,Gait_Normal,2,R_ESI,20.281445927624926
BMu100,33,P,REL,Gait_Normal,3,L_ESI,0.7477406690940093
BMu100,33,P,REL,Gait_Normal,3,R_ESI,23.09923665939279
BMu100,33,P,REL,Gait_Normal,4,L_ESI,0.8506624360427549
BMu100,33,P,REL,Gait_Normal,4,R_ESI,22.18450543292177
BMu100,33,P,REL,Gait_Normal,5,L_ESI,0.7356637977751213
BMu100,33,P,REL,Gait_Normal,5,R_ESI,18.36458383384891
BMu100,33,P,REL,Gait_Normal,6,L_ESI,0.8597476006900434
BMu100,33,P,REL,Gait_Normal,6,R_ESI,18.240163336221315
BMu100,33,P,REL,Gait_Normal,7,L_ESI,0.8745275824085367
BMu100,33,P,REL,Gait_Normal,7,R_ESI,14.116375450500238
BMu100,33,P,REL,Gait_Normal,8,L_ESI,0.521227783258587
BMu100,33,P,REL,Gait_Normal,8,R_ESI,14.066936661142904
BMu100,34,P,INI,Gait_Normal,1,L_ESI,0.2700140698147957
BMu100,34,P,INI,Gait_Normal,1,R_ESI,0.26595766764885137
BMu100,34,P,INI,Gait_Normal,2,L_ESI,0.2422904185355009
BMu100,34,P,INI,Gait_Normal,2,R_ESI,0.3008000246395075
BMu100,34,P,INI,Gait_Normal,3,L_ESI,0.28211094683787064
BMu100,34,P,INI,Gait_Normal,3,R_ESI,0.28360299763964864
BMu100,34,P,INI,Gait_Normal,4,L_ESI,0.27559403138672983
BMu100,34,P,INI,Gait_Normal,4,R_ESI,0.29032444830060294
BMu100,34,P,INI,Gait_Normal,5,L_ESI,0.2382794568149412
BMu100,34,P,INI,Gait_Normal,5,R_ESI,0.25489473631479137
BMu100,34,P,INI,Gait_Normal,6,L_ESI,0.25233823324702903
BMu100,34,P,INI,Gait_Normal,6,R_ESI,0.2631249855228237
BMu100,34,P,INI,Gait_Normal,7,L_ESI,0.23956660919027248
BMu100,34,P,INI,Gait_Normal,7,R_ESI,0.2643614148586908
BMu100,34,P,INI,Gait_Normal,8,L_ESI,0.2361258143391752
BMu100,34,P,INI,Gait_Normal,8,R_ESI,0.24800868867455375
BMu100,34,P,REL,Gait_Normal,1,L_ESI,0.2804769957216771
BMu100,34,P,REL,Gait_Normal,1,R_ESI,0.4667846907019723
BMu100,34,P,REL,Gait_Normal,2,L_ESI,0.24365959990661537
BMu100,34,P,REL,Gait_Normal,2,R_ESI,0.44267881896043715
BMu100,34,P,REL,Gait_Normal,3,L_ESI,0.23766398260821794
BMu100,34,P,REL,Gait_Normal,3,R_ESI,0.4124824487189076
BMu100,34,P,REL,Gait_Normal,4,L_ESI,0.23034198115882007
BMu100,34,P,REL,Gait_Normal,4,R_ESI,0.39494397115555047
BMu100,34,P,REL,Gait_Normal,5,L_ESI,0.2359606521884904
BMu100,34,P,REL,Gait_Normal,5,R_ESI,0.38189697242318843
BMu100,34,P,REL,Gait_Normal,6,L_ESI,0.25415269881726166
BMu100,34,P,REL,Gait_Normal,6,R_ESI,0.38060799851668436
BMu100,34,P,REL,Gait_Normal,7,L_ESI,0.2371781405726171
BMu100,34,P,REL,Gait_Normal,7,R_ESI,0.40594947275885
BMu100,35,C,INI,Gait_Normal,1,L_ESI,0.3060742380697503
BMu100,35,C,INI,Gait_Normal,1,R_ESI,0.22837402182622366
BMu100,35,C,INI,Gait_Normal,2,L_ESI,0.18515439079468454
BMu100,35,C,INI,Gait_Normal,2,R_ESI,0.20199040720948544
BMu100,35,C,INI,Gait_Normal,3,L_ESI,0.2823098742209398
BMu100,35,C,INI,Gait_Normal,3,R_ESI,0.2118184412867453
BMu100,35,C,INI,Gait_Normal,4,L_ESI,0.2416735190322028
BMu100,35,C,INI,Gait_Normal,4,R_ESI,0.1903409020570157
BMu100,35,C,INI,Gait_Normal,5,L_ESI,0.2363332123401658
BMu100,35,C,INI,Gait_Normal,5,R_ESI,0.1764565322586019
BMu100,35,C,INI,Gait_Normal,6,L_ESI,0.2583138435773234
BMu100,35,C,INI,Gait_Normal,6,R_ESI,0.29473814072863774
BMu100,35,C,INI,Gait_Normal,7,L_ESI,0.20262741826150832
BMu100,35,C,INI,Gait_Normal,7,R_ESI,0.19338860516188686
BMu100,35,C,INI,Gait_Normal,8,L_ESI,0.2233810432545439
BMu100,35,C,INI,Gait_Normal,8,R_ESI,0.1913616775314663
BMu100,35,C,INI,Gait_Normal,9,L_ESI,0.206127703200808
BMu100,35,C,INI,Gait_Normal,9,R_ESI,0.20008033344450685
BMu100,35,C,INI,Gait_Normal,10,L_ESI,0.20436732118668277
BMu100,35,C,INI,Gait_Normal,10,R_ESI,0.21504173514366312
BMu100,35,C,REL,Gait_Normal,1,L_ESI,0.22115685830930235
BMu100,35,C,REL,Gait_Normal,1,R_ESI,0.27866886715470923
BMu100,35,C,REL,Gait_Normal,2,L_ESI,0.19023021074369537
BMu100,35,C,REL,Gait_Normal,2,R_ESI,0.2772101339354392
BMu100,35,C,REL,Gait_Normal,3,L_ESI,0.18944306409352887
BMu100,35,C,REL,Gait_Normal,3,R_ESI,0.26184987754931505
BMu100,35,C,REL,Gait_Normal,4,L_ESI,0.19077981603813443
BMu100,35,C,REL,Gait_Normal,4,R_ESI,0.24458961346983257
BMu100,35,C,REL,Gait_Normal,5,L_ESI,0.21601373842954694
BMu100,35,C,REL,Gait_Normal,5,R_ESI,0.27374887742082193
BMu100,35,C,REL,Gait_Normal,6,L_ESI,0.23353978438965703
BMu100,35,C,REL,Gait_Normal,6,R_ESI,0.2851502853907644
BMu100,36,P,INI,Gait_Normal,1,L_ESI,0.35925937973205196
BMu100,36,P,INI,Gait_Normal,1,R_ESI,0.12158332046446622
BMu100,36,P,INI,Gait_Normal,2,L_ESI,0.31271957259461736
BMu100,36,P,INI,Gait_Normal,2,R_ESI,0.1266490205185632
BMu100,36,P,INI,Gait_Normal,3,L_ESI,0.2972546389046342
BMu100,36,P,INI,Gait_Normal,3,R_ESI,0.11342080352729429
BMu100,36,P,INI,Gait_Normal,4,L_ESI,0.2677528977388572
BMu100,36,P,INI,Gait_Normal,4,R_ESI,0.10213369079223394
BMu100,36,P,INI,Gait_Normal,5,L_ESI,0.2707920439263661
BMu100,36,P,INI,Gait_Normal,5,R_ESI,0.1283259506639398
BMu100,36,P,INI,Gait_Normal,6,L_ESI,0.2260233700625428
BMu100,36,P,INI,Gait_Normal,6,R_ESI,0.10088956832520847
BMu100,36,P,INI,Gait_Normal,7,L_ESI,0.23393335006573443
BMu100,36,P,INI,Gait_Normal,7,R_ESI,0.09640999857583515
BMu100,36,P,INI,Gait_Normal,8,L_ESI,0.21683491736192115
BMu100,36,P,INI,Gait_Normal,8,R_ESI,0.12483056924372653
BMu100,36,P,REL,Gait_Normal,1,L_ESI,0.2044435018082799
BMu100,36,P,REL,Gait_Normal,1,R_ESI,0.10033501547230961
BMu100,36,P,REL,Gait_Normal,2,L_ESI,0.1959329207873827
BMu100,36,P,REL,Gait_Normal,2,R_ESI,0.10380381170424764
BMu100,36,P,REL,Gait_Normal,3,L_ESI,0.1982925870461342
BMu100,36,P,REL,Gait_Normal,3,R_ESI,0.09963464445079002
BMu100,36,P,REL,Gait_Normal,4,L_ESI,0.2049570142020901
BMu100,36,P,REL,Gait_Normal,4,R_ESI,0.11203345271938381
BMu100,36,P,REL,Gait_Normal,5,L_ESI,0.19951646939054737
BMu100,36,P,REL,Gait_Normal,5,R_ESI,0.11609800434863661
BMu100,36,P,REL,Gait_Normal,6,L_ESI,0.16237168887892703
BMu100,36,P,REL,Gait_Normal,6,R_ESI,0.08196435006161197
BMu100,38,C,INI,Gait_Normal,1,L_ESI,0.39743666725827914
BMu100,38,C,INI,Gait_Normal,1,R_ESI,0.4647550012899116
BMu100,38,C,INI,Gait_Normal,2,L_ESI,0.3896855916528226
BMu100,38,C,INI,Gait_Normal,2,R_ESI,0.46167655061684904
BMu100,38,C,INI,Gait_Normal,3,L_ESI,0.37479716262976553
BMu100,38,C,INI,Gait_Normal,3,R_ESI,0.46516740294160913
BMu100,38,C,INI,Gait_Normal,4,L_ESI,0.3764235302931735
BMu100,38,C,INI,Gait_Normal,4,R_ESI,0.3957843290351904
BMu100,38,C,INI,Gait_Normal,5,L_ESI,0.3272647448589269
BMu100,38,C,INI,Gait_Normal,5,R_ESI,0.4228522677872227
BMu100,38,C,INI,Gait_Normal,6,L_ESI,0.44346073083835974
BMu100,38,C,INI,Gait_Normal,6,R_ESI,0.44741581089935445
BMu100,38,C,REL,Gait_Normal,1,L_ESI,0.3883093773863189
BMu100,38,C,REL,Gait_Normal,1,R_ESI,0.4320960881336191
BMu100,38,C,REL,Gait_Normal,2,L_ESI,0.352427898990648
BMu100,38,C,REL,Gait_Normal,2,R_ESI,0.3650373216290972
BMu100,38,C,REL,Gait_Normal,3,L_ESI,0.349857346491079
BMu100,38,C,REL,Gait_Normal,3,R_ESI,0.35084037337943713
BMu100,38,C,REL,Gait_Normal,4,L_ESI,0.3366316482157981
BMu100,38,C,REL,Gait_Normal,4,R_ESI,0.3689268084413892
BMu100,38,C,REL,Gait_Normal,5,L_ESI,0.29561463418140055
BMu100,38,C,REL,Gait_Normal,5,R_ESI,0.3475397809584558
BMu100,38,C,REL,Gait_Normal,6,L_ESI,0.3712888560226027
BMu100,38,C,REL,Gait_Normal,6,R_ESI,0.3658944640284025
BMu100,38,C,REL,Gait_Normal,7,L_ESI,0.33711076176545146
BMu100,38,C,REL,Gait_Normal,7,R_ESI,0.3652151065490341
BMu100,39,C,INI,Gait_Normal,1,L_ESI,0.2738762066078215
BMu100,39,C,INI,Gait_Normal,1,R_ESI,0.21871706097282648
BMu100,39,C,INI,Gait_Normal,2,L_ESI,0.20926043422785565
BMu100,39,C,INI,Gait_Normal,2,R_ESI,0.1508115328613466
BMu100,39,C,INI,Gait_Normal,3,L_ESI,0.21174539631270464
BMu100,39,C,INI,Gait_Normal,3,R_ESI,0.15157293870518998
BMu100,39,C,INI,Gait_Normal,4,L_ESI,0.21100169676124367
BMu100,39,C,INI,Gait_Normal,4,R_ESI,0.1483644407019349
BMu100,39,C,INI,Gait_Normal,5,L_ESI,0.2517170252283055
BMu100,39,C,INI,Gait_Normal,5,R_ESI,0.19361329682121362
BMu100,39,C,INI,Gait_Normal,6,L_ESI,0.20544893323360336
BMu100,39,C,INI,Gait_Normal,6,R_ESI,0.1554382108912015
BMu100,39,C,REL,Gait_Normal,1,L_ESI,0.28509803582017273
BMu100,39,C,REL,Gait_Normal,1,R_ESI,0.2158953938518601
BMu100,39,C,REL,Gait_Normal,2,L_ESI,0.275067545842613
BMu100,39,C,REL,Gait_Normal,2,R_ESI,0.2133515763558859
BMu100,39,C,REL,Gait_Normal,3,L_ESI,0.26574713550004697
BMu100,39,C,REL,Gait_Normal,3,R_ESI,0.21165564893083277
BMu100,39,C,REL,Gait_Normal,4,L_ESI,0.3118280449308705
BMu100,39,C,REL,Gait_Normal,4,R_ESI,0.2382276414405401
BMu100,40,C,INI,Gait_Normal,1,L_ESI,0.11006971430338985
BMu100,40,C,INI,Gait_Normal,1,R_ESI,0.19922731304362865
BMu100,40,C,INI,Gait_Normal,2,L_ESI,0.10568369887493322
BMu100,40,C,INI,Gait_Normal,2,R_ESI,0.22288789890493999
BMu100,40,C,INI,Gait_Normal,3,L_ESI,0.11195401394456879
BMu100,40,C,INI,Gait_Normal,3,R_ESI,0.20772014102999573
BMu100,40,C,INI,Gait_Normal,4,L_ESI,0.11304442654716479
BMu100,40,C,INI,Gait_Normal,4,R_ESI,0.25022491050086715
BMu100,40,C,INI,Gait_Normal,5,L_ESI,0.13374214554183006
BMu100,40,C,INI,Gait_Normal,5,R_ESI,0.19331106184927704
BMu100,40,C,INI,Gait_Normal,6,L_ESI,0.1140576811013711
BMu100,40,C,INI,Gait_Normal,6,R_ESI,0.2117855060190855
BMu100,40,C,REL,Gait_Normal,1,L_ESI,0.09907183909092716
BMu100,40,C,REL,Gait_Normal,1,R_ESI,0.10643949362060261
BMu100,40,C,REL,Gait_Normal,2,L_ESI,0.07730302866106642
BMu100,40,C,REL,Gait_Normal,2,R_ESI,0.114503212487391
BMu100,40,C,REL,Gait_Normal,3,L_ESI,0.11181355945375004
BMu100,40,C,REL,Gait_Normal,3,R_ESI,0.11175978842799306
BMu100,40,C,REL,Gait_Normal,4,L_ESI,0.11677116306011052
BMu100,40,C,REL,Gait_Normal,4,R_ESI,0.11400375770540792
BMu100,40,C,REL,Gait_Normal,5,L_ESI,0.08307997306762793
BMu100,40,C,REL,Gait_Normal,5,R_ESI,0.11263703751635516
BMu100,40,C,REL,Gait_Normal,6,L_ESI,0.09752405065764809
BMu100,40,C,REL,Gait_Normal,6,R_ESI,0.11842654916430102
BMu100,41,P,INI,Gait_Normal,1,L_ESI,0.2666948487410218
BMu100,41,P,INI,Gait_Normal,1,R_ESI,0.0764625581446133
BMu100,41,P,INI,Gait_Normal,2,L_ESI,0.25968459837763425
BMu100,41,P,INI,Gait_Normal,2,R_ESI,0.08391984763742612
BMu100,41,P,INI,Gait_Normal,3,L_ESI,0.2653544234458773
BMu100,41,P,INI,Gait_Normal,3,R_ESI,0.15512296412522228
BMu100,41,P,INI,Gait_Normal,4,L_ESI,0.28489390509455903
BMu100,41,P,INI,Gait_Normal,4,R_ESI,0.15750397346965223
BMu100,41,P,INI,Gait_Normal,5,L_ESI,0.28414197749124614
BMu100,41,P,INI,Gait_Normal,5,R_ESI,0.0868638099724348
BMu100,41,P,INI,Gait_Normal,6,L_ESI,0.26463621801151255
BMu100,41,P,INI,Gait_Normal,6,R_ESI,0.09435839394688415
BMu100,41,P,REL,Gait_Normal,1,L_ESI,0.21387373129529288
BMu100,41,P,REL,Gait_Normal,1,R_ESI,0.0819985997857253
BMu100,41,P,REL,Gait_Normal,2,L_ESI,0.22437268721202067
BMu100,41,P,REL,Gait_Normal,2,R_ESI,0.09956760078333605
BMu100,41,P,REL,Gait_Normal,3,L_ESI,0.20288884389137637
BMu100,41,P,REL,Gait_Normal,3,R_ESI,0.09075450830345533
BMu100,41,P,REL,Gait_Normal,4,L_ESI,0.2127281307921978
BMu100,41,P,REL,Gait_Normal,4,R_ESI,0.09158658405420768
BMu100,41,P,REL,Gait_Normal,5,L_ESI,0.19750638366953122
BMu100,41,P,REL,Gait_Normal,5,R_ESI,0.08106903799079256
BMu100,41,P,REL,Gait_Normal,6,L_ESI,0.20404322682784648
BMu100,41,P,REL,Gait_Normal,6,R_ESI,0.08007859046142873
BMu100,41,P,REL,Gait_Normal,7,L_ESI,0.2143527711845362
BMu100,41,P,REL,Gait_Normal,7,R_ESI,0.0821562100113236
BMu100,42,P,INI,Gait_Normal,1,L_ESI,0.49179566806858643
BMu100,42,P,INI,Gait_Normal,1,R_ESI,0.2740978375631914
BMu100,42,P,INI,Gait_Normal,2,L_ESI,0.4734012675293527
BMu100,42,P,INI,Gait_Normal,2,R_ESI,0.4242965717302562
BMu100,42,P,INI,Gait_Normal,3,L_ESI,0.41198242923883654
BMu100,42,P,INI,Gait_Normal,3,R_ESI,0.31302023183087174
BMu100,42,P,INI,Gait_Normal,4,L_ESI,0.4118698432320982
BMu100,42,P,INI,Gait_Normal,4,R_ESI,0.3322024480398243
BMu100,42,P,INI,Gait_Normal,5,L_ESI,0.40863841551216146
BMu100,42,P,INI,Gait_Normal,5,R_ESI,0.29182047173881326
BMu100,42,P,INI,Gait_Normal,6,L_ESI,0.4010655308467516
BMu100,42,P,INI,Gait_Normal,6,R_ESI,0.30503836794790895
BMu100,42,P,REL,Gait_Normal,1,L_ESI,0.4827129167542152
BMu100,42,P,REL,Gait_Normal,1,R_ESI,0.2234419871575645
BMu100,42,P,REL,Gait_Normal,2,L_ESI,0.4600051087033448
BMu100,42,P,REL,Gait_Normal,2,R_ESI,0.23196760840971473
BMu100,42,P,REL,Gait_Normal,3,L_ESI,0.4417974024179879
BMu100,42,P,REL,Gait_Normal,3,R_ESI,0.22898211790874248
BMu100,42,P,REL,Gait_Normal,4,L_ESI,0.3766764898435597
BMu100,42,P,REL,Gait_Normal,4,R_ESI,0.23719173621461784
BMu100,42,P,REL,Gait_Normal,5,L_ESI,0.5388652070087053
BMu100,42,P,REL,Gait_Normal,5,R_ESI,0.21816076542058727
BMu100,42,P,REL,Gait_Normal,6,L_ESI,0.4380300577059271
BMu100,42,P,REL,Gait_Normal,6,R_ESI,0.22614000243498608
BMu100,43,P,INI,Gait_Normal,1,L_ESI,0.25508441860320014
BMu100,43,P,INI,Gait_Normal,1,R_ESI,0.47818067822353355
BMu100,43,P,INI,Gait_Normal,2,L_ESI,0.32374064524004414
BMu100,43,P,INI,Gait_Normal,2,R_ESI,0.5004921382768469
BMu100,43,P,INI,Gait_Normal,3,L_ESI,0.2920575717531154
BMu100,43,P,INI,Gait_Normal,3,R_ESI,0.6020164116402995
BMu100,43,P,INI,Gait_Normal,4,L_ESI,0.324726361368152
BMu100,43,P,INI,Gait_Normal,4,R_ESI,0.5028926299972006
BMu100,43,P,INI,Gait_Normal,5,L_ESI,0.4593513394962134
BMu100,43,P,INI,Gait_Normal,5,R_ESI,0.879448469902874
BMu100,43,P,INI,Gait_Normal,6,L_ESI,0.2768692925723739
BMu100,43,P,INI,Gait_Normal,6,R_ESI,0.49511324041502175
BMu100,43,P,INI,Gait_Normal,7,L_ESI,0.405056683473966
BMu100,43,P,INI,Gait_Normal,7,R_ESI,0.6197236171841286
BMu100,43,P,INI,Gait_Normal,8,L_ESI,0.4376374138417332
BMu100,43,P,INI,Gait_Normal,8,R_ESI,0.5437863193393816
BMu100,43,P,REL,Gait_Normal,1,L_ESI,0.29409123926703673
BMu100,43,P,REL,Gait_Normal,1,R_ESI,0.4762148934180818
BMu100,43,P,REL,Gait_Normal,2,L_ESI,0.5511290243184489
BMu100,43,P,REL,Gait_Normal,2,R_ESI,0.6755468191669977
BMu100,43,P,REL,Gait_Normal,3,L_ESI,0.37855211995754806
BMu100,43,P,REL,Gait_Normal,3,R_ESI,0.5546221160342132
BMu100,43,P,REL,Gait_Normal,4,L_ESI,0.3403780119679088
BMu100,43,P,REL,Gait_Normal,4,R_ESI,0.4589738852796475
BMu100,43,P,REL,Gait_Normal,5,L_ESI,0.42492041156582333
BMu100,43,P,REL,Gait_Normal,5,R_ESI,0.7163037770918083
BMu100,43,P,REL,Gait_Normal,6,L_ESI,0.29975058426356394
BMu100,43,P,REL,Gait_Normal,6,R_ESI,0.5376754208991067
BMu100,43,P,REL,Gait_Normal,7,L_ESI,0.3298989244557029
BMu100,43,P,REL,Gait_Normal,7,R_ESI,0.654009170252076
BMu100,44,C,INI,Gait_Normal,1,L_ESI,0.32701664748300435
BMu100,44,C,INI,Gait_Normal,1,R_ESI,0.19450712432333242
BMu100,44,C,INI,Gait_Normal,2,L_ESI,0.32583511066931903
BMu100,44,C,INI,Gait_Normal,2,R_ESI,0.18999450437649043
BMu100,44,C,INI,Gait_Normal,3,L_ESI,0.29925117605773244
BMu100,44,C,INI,Gait_Normal,3,R_ESI,0.2955289844729431
BMu100,44,C,INI,Gait_Normal,4,L_ESI,0.2615638290820899
BMu100,44,C,INI,Gait_Normal,4,R_ESI,0.19613903392102292
BMu100,44,C,INI,Gait_Normal,5,L_ESI,0.2108777907252554
BMu100,44,C,INI,Gait_Normal,5,R_ESI,0.22210175103563803
BMu100,44,C,INI,Gait_Normal,6,L_ESI,0.2414637765033555
BMu100,44,C,INI,Gait_Normal,6,R_ESI,0.21998341943324695
BMu100,44,C,INI,Gait_Normal,7,L_ESI,0.19601780118687587
BMu100,44,C,INI,Gait_Normal,7,R_ESI,0.20581652201236775
BMu100,44,C,REL,Gait_Normal,1,L_ESI,0.21228985847121262
BMu100,44,C,REL,Gait_Normal,1,R_ESI,0.2522235326272027
BMu100,44,C,REL,Gait_Normal,2,L_ESI,0.2337142603346758
BMu100,44,C,REL,Gait_Normal,2,R_ESI,0.19684819157937797
BMu100,44,C,REL,Gait_Normal,3,L_ESI,0.231576248552414
BMu100,44,C,REL,Gait_Normal,3,R_ESI,0.23624255534980068
BMu100,44,C,REL,Gait_Normal,4,L_ESI,0.2292678859069784
BMu100,44,C,REL,Gait_Normal,4,R_ESI,0.3684056610291741
BMu100,44,C,REL,Gait_Normal,5,L_ESI,0.22288263506682818
BMu100,44,C,REL,Gait_Normal,5,R_ESI,0.34181561380002395
BMu100,44,C,REL,Gait_Normal,6,L_ESI,0.22122477234412286
BMu100,44,C,REL,Gait_Normal,6,R_ESI,0.24823891804342338
BMu100,44,C,REL,Gait_Normal,7,L_ESI,0.22942799032556235
BMu100,44,C,REL,Gait_Normal,7,R_ESI,0.2817804956269028
BMu100,45,P,INI,Gait_Normal,1,L_ESI,0.4287529829447585
BMu100,45,P,INI,Gait_Normal,1,R_ESI,0.49025415783206433
BMu100,45,P,INI,Gait_Normal,2,L_ESI,0.5513634294518056
BMu100,45,P,INI,Gait_Normal,2,R_ESI,0.2705621607478317
BMu100,45,P,INI,Gait_Normal,3,L_ESI,0.35558081315447837
BMu100,45,P,INI,Gait_Normal,3,R_ESI,0.26556055377539245
BMu100,45,P,INI,Gait_Normal,4,L_ESI,0.3267962602121371
BMu100,45,P,INI,Gait_Normal,4,R_ESI,0.27912950028263483
BMu100,45,P,INI,Gait_Normal,5,L_ESI,0.3113486028425077
BMu100,45,P,INI,Gait_Normal,5,R_ESI,0.2779774706298219
BMu100,45,P,INI,Gait_Normal,6,L_ESI,0.3589530802959658
BMu100,45,P,INI,Gait_Normal,6,R_ESI,0.4041454777873322
BMu100,45,P,INI,Gait_Normal,7,L_ESI,0.3289709280669259
BMu100,45,P,INI,Gait_Normal,7,R_ESI,0.4038432517623732
BMu100,45,P,INI,Gait_Normal,8,L_ESI,0.33424012799153324
BMu100,45,P,INI,Gait_Normal,8,R_ESI,0.36737606196679845
BMu100,45,P,REL,Gait_Normal,1,L_ESI,0.2258263471822252
BMu100,45,P,REL,Gait_Normal,1,R_ESI,0.3290261684272562
BMu100,45,P,REL,Gait_Normal,2,L_ESI,0.21436745936816304
BMu100,45,P,REL,Gait_Normal,2,R_ESI,0.32178067020117046
BMu100,45,P,REL,Gait_Normal,3,L_ESI,0.2298786446675649
BMu100,45,P,REL,Gait_Normal,3,R_ESI,0.31085678955525237
BMu100,45,P,REL,Gait_Normal,4,L_ESI,0.22538296686308737
BMu100,45,P,REL,Gait_Normal,4,R_ESI,0.3168081758588469
BMu100,45,P,REL,Gait_Normal,5,L_ESI,0.23206918287603973
BMu100,45,P,REL,Gait_Normal,5,R_ESI,0.3501946714761421
BMu100,45,P,REL,Gait_Normal,6,L_ESI,0.2790818782233999
BMu100,45,P,REL,Gait_Normal,6,R_ESI,0.35544349946726606
BMu100,46,C,INI,Gait_Normal,1,L_ESI,0.16611716538172197
BMu100,46,C,INI,Gait_Normal,1,R_ESI,0.2090973892566739
BMu100,46,C,INI,Gait_Normal,2,L_ESI,0.16694962105798603
BMu100,46,C,INI,Gait_Normal,2,R_ESI,0.2360957309949184
BMu100,46,C,INI,Gait_Normal,3,L_ESI,0.1690392603515162
BMu100,46,C,INI,Gait_Normal,3,R_ESI,0.21647172415171112
BMu100,46,C,INI,Gait_Normal,4,L_ESI,0.17166111915673934
BMu100,46,C,INI,Gait_Normal,4,R_ESI,0.20716640430830693
BMu100,46,C,INI,Gait_Normal,5,L_ESI,0.16904060539902857
BMu100,46,C,INI,Gait_Normal,5,R_ESI,0.26926476810259103
BMu100,46,C,INI,Gait_Normal,6,L_ESI,0.20141685638233695
BMu100,46,C,INI,Gait_Normal,6,R_ESI,0.2473303281370694
BMu100,46,C,REL,Gait_Normal,1,L_ESI,0.13830797598411662
BMu100,46,C,REL,Gait_Normal,1,R_ESI,0.11048714862263757
BMu100,46,C,REL,Gait_Normal,2,L_ESI,0.1363373555308982
BMu100,46,C,REL,Gait_Normal,2,R_ESI,0.13172527378453305
BMu100,46,C,REL,Gait_Normal,3,L_ESI,0.1317315809761002
BMu100,46,C,REL,Gait_Normal,3,R_ESI,0.15193127614672366
BMu100,46,C,REL,Gait_Normal,4,L_ESI,0.11977196169729436
BMu100,46,C,REL,Gait_Normal,4,R_ESI,0.11526111757070316
BMu100,46,C,REL,Gait_Normal,5,L_ESI,0.14495856750455235
BMu100,46,C,REL,Gait_Normal,5,R_ESI,0.1628418264150495
BMu100,46,C,REL,Gait_Normal,6,L_ESI,0.1342261392226889
BMu100,46,C,REL,Gait_Normal,6,R_ESI,0.15021342680908714
BMu100,47,P,INI,Gait_Normal,1,L_ESI,0.28657676712373076
BMu100,47,P,INI,Gait_Normal,1,R_ESI,2.9395329833647
BMu100,47,P,INI,Gait_Normal,2,L_ESI,0.3804125483372343
BMu100,47,P,INI,Gait_Normal,2,R_ESI,2.330536217510716
BMu100,47,P,INI,Gait_Normal,3,L_ESI,0.3190907447051123
BMu100,47,P,INI,Gait_Normal,3,R_ESI,2.551890570101999
BMu100,47,P,INI,Gait_Normal,4,L_ESI,0.39262445715000477
BMu100,47,P,INI,Gait_Normal,4,R_ESI,2.250964284298238
BMu100,47,P,INI,Gait_Normal,5,L_ESI,0.3409885920532374
BMu100,47,P,INI,Gait_Normal,5,R_ESI,2.051264717500662
BMu100,47,P,INI,Gait_Normal,6,L_ESI,0.3111558607965125
BMu100,47,P,INI,Gait_Normal,6,R_ESI,1.6045986383338262
BMu100,47,P,REL,Gait_Normal,1,L_ESI,0.2562264186472785
BMu100,47,P,REL,Gait_Normal,1,R_ESI,0.41985829785801076
BMu100,47,P,REL,Gait_Normal,2,L_ESI,0.2893553902290465
BMu100,47,P,REL,Gait_Normal,2,R_ESI,0.43710739303692786
BMu100,47,P,REL,Gait_Normal,3,L_ESI,0.2990775449001421
BMu100,47,P,REL,Gait_Normal,3,R_ESI,0.4983032690702888
BMu100,47,P,REL,Gait_Normal,4,L_ESI,0.23284834054267187
BMu100,47,P,REL,Gait_Normal,4,R_ESI,0.5136635984978796
BMu100,47,P,REL,Gait_Normal,5,L_ESI,0.23318590073393122
BMu100,47,P,REL,Gait_Normal,5,R_ESI,0.4300951189035393
BMu100,47,P,REL,Gait_Normal,6,L_ESI,0.2275353283756875
BMu100,47,P,REL,Gait_Normal,6,R_ESI,0.477657354219873
BMu100,47,P,REL,Gait_Normal,7,L_ESI,0.3247376282046307
BMu100,47,P,REL,Gait_Normal,7,R_ESI,0.4505081904294343
BMu100,47,P,REL,Gait_Normal,8,L_ESI,0.23843779875810667
BMu100,47,P,REL,Gait_Normal,8,R_ESI,0.469120070493193
BMu100,48,C,INI,Gait_Normal,1,L_ESI,0.18898081485210252
BMu100,48,C,INI,Gait_Normal,1,R_ESI,0.31240163931544057
BMu100,48,C,INI,Gait_Normal,2,L_ESI,0.16271552755582452
BMu100,48,C,INI,Gait_Normal,2,R_ESI,0.3023157055979206
BMu100,48,C,INI,Gait_Normal,3,L_ESI,0.17902121722298123
BMu100,48,C,INI,Gait_Normal,3,R_ESI,0.2839565432729612
BMu100,48,C,INI,Gait_Normal,4,L_ESI,0.18861544547478878
BMu100,48,C,INI,Gait_Normal,4,R_ESI,0.3393811306630327
BMu100,48,C,INI,Gait_Normal,5,L_ESI,0.19624213799955958
BMu100,48,C,INI,Gait_Normal,5,R_ESI,0.3070308294018247
BMu100,48,C,INI,Gait_Normal,6,L_ESI,0.20650340697437888
BMu100,48,C,INI,Gait_Normal,6,R_ESI,0.3423164220291712
BMu100,48,C,INI,Gait_Normal,7,L_ESI,0.17339095129430807
BMu100,48,C,INI,Gait_Normal,7,R_ESI,0.3542906237335764
BMu100,48,C,INI,Gait_Normal,8,L_ESI,0.1844255965751893
BMu100,48,C,INI,Gait_Normal,8,R_ESI,0.3270595719752497
BMu100,48,C,REL,Gait_Normal,1,L_ESI,0.2805464586574286
BMu100,48,C,REL,Gait_Normal,1,R_ESI,0.36403136652593576
BMu100,48,C,REL,Gait_Normal,2,L_ESI,0.275110416588043
BMu100,48,C,REL,Gait_Normal,2,R_ESI,0.4491453570872594
BMu100,48,C,REL,Gait_Normal,3,L_ESI,0.27063093011589706
BMu100,48,C,REL,Gait_Normal,3,R_ESI,0.3037689800069514
BMu100,48,C,REL,Gait_Normal,4,L_ESI,0.23492754543020503
BMu100,48,C,REL,Gait_Normal,4,R_ESI,0.3434047741466569
BMu100,48,C,REL,Gait_Normal,5,L_ESI,0.2878272442894745
BMu100,48,C,REL,Gait_Normal,5,R_ESI,0.301245651894515
BMu100,48,C,REL,Gait_Normal,6,L_ESI,0.2745633673551357
BMu100,48,C,REL,Gait_Normal,6,R_ESI,0.4015982122854294
BMu100,48,C,REL,Gait_Normal,7,L_ESI,0.22639222147980667
BMu100,48,C,REL,Gait_Normal,7,R_ESI,0.462724277258343
BMu100,48,C,REL,Gait_Normal,8,L_ESI,0.2835314990063187
BMu100,48,C,REL,Gait_Normal,8,R_ESI,0.3085934680088954
BMu100,48,C,REL,Gait_Normal,9,L_ESI,0.23692603891572941
BMu100,48,C,REL,Gait_Normal,9,R_ESI,0.3537335350471098
BMu100,49,C,INI,Gait_Normal,1,L_ESI,0.5247437377136411
BMu100,49,C,INI,Gait_Normal,1,R_ESI,0.5545780451586839
BMu100,49,C,INI,Gait_Normal,2,L_ESI,0.4236954656049812
BMu100,49,C,INI,Gait_Normal,2,R_ESI,0.3189284109874076
BMu100,49,C,INI,Gait_Normal,3,L_ESI,0.4609807038629636
BMu100,49,C,INI,Gait_Normal,3,R_ESI,0.40406283635112117
BMu100,49,C,INI,Gait_Normal,4,L_ESI,0.56444023402709
BMu100,49,C,INI,Gait_Normal,4,R_ESI,0.3689424341624072
BMu100,49,C,INI,Gait_Normal,5,L_ESI,0.527474597025628
BMu100,49,C,INI,Gait_Normal,5,R_ESI,0.37779055259531025
BMu100,49,C,INI,Gait_Normal,6,L_ESI,0.4992288013415223
BMu100,49,C,INI,Gait_Normal,6,R_ESI,0.4257427357602778
BMu100,49,C,INI,Gait_Normal,7,L_ESI,0.4208906790203235
BMu100,49,C,INI,Gait_Normal,7,R_ESI,0.3135760367494202
BMu100,49,C,REL,Gait_Normal,1,L_ESI,0.07624622081214694
BMu100,49,C,REL,Gait_Normal,1,R_ESI,0.3181379760460333
BMu100,49,C,REL,Gait_Normal,2,L_ESI,0.07049782479638828
BMu100,49,C,REL,Gait_Normal,2,R_ESI,0.3468212229398069
BMu100,49,C,REL,Gait_Normal,3,L_ESI,0.08619507491860168
BMu100,49,C,REL,Gait_Normal,3,R_ESI,0.4330192745075787
BMu100,49,C,REL,Gait_Normal,4,L_ESI,0.08407537018392802
BMu100,49,C,REL,Gait_Normal,4,R_ESI,0.4266559093472604
BMu100,49,C,REL,Gait_Normal,5,L_ESI,0.07866271293889768
BMu100,49,C,REL,Gait_Normal,5,R_ESI,0.36345677996560116
BMu100,49,C,REL,Gait_Normal,6,L_ESI,0.09255184795525695
BMu100,49,C,REL,Gait_Normal,6,R_ESI,0.36376722242498055
BMu100,49,C,REL,Gait_Normal,7,L_ESI,0.0789527538259825
BMu100,49,C,REL,Gait_Normal,7,R_ESI,0.44046232503236915
BMu100,49,C,REL,Gait_Normal,8,L_ESI,0.11059178994254691
BMu100,49,C,REL,Gait_Normal,8,R_ESI,0.31071690669519547
BMu100,50,P,INI,Gait_Normal,1,L_ESI,0.2685298810758375
BMu100,50,P,INI,Gait_Normal,1,R_ESI,0.43496015578507885
BMu100,50,P,INI,Gait_Normal,2,L_ESI,0.32542599107115533
BMu100,50,P,INI,Gait_Normal,2,R_ESI,0.46633175897622126
BMu100,50,P,INI,Gait_Normal,3,L_ESI,0.32367659632958773
BMu100,50,P,INI,Gait_Normal,3,R_ESI,0.48222202153813143
BMu100,50,P,INI,Gait_Normal,4,L_ESI,0.32108598016094236
BMu100,50,P,INI,Gait_Normal,4,R_ESI,0.46258036341300457
BMu100,50,P,INI,Gait_Normal,5,L_ESI,0.35035995417222265
BMu100,50,P,INI,Gait_Normal,5,R_ESI,0.4831753607985972
BMu100,50,P,INI,Gait_Normal,6,L_ESI,0.2808994346029226
BMu100,50,P,INI,Gait_Normal,6,R_ESI,0.4201608175189926
BMu100,50,P,REL,Gait_Normal,1,L_ESI,0.28949775266027367
BMu100,50,P,REL,Gait_Normal,1,R_ESI,0.3954002789131617
BMu100,50,P,REL,Gait_Normal,2,L_ESI,0.33174613537039616
BMu100,50,P,REL,Gait_Normal,2,R_ESI,0.38567139532774886
BMu100,50,P,REL,Gait_Normal,3,L_ESI,0.30621734817230245
BMu100,50,P,REL,Gait_Normal,3,R_ESI,0.441878766293502
BMu100,50,P,REL,Gait_Normal,4,L_ESI,0.2950101346571167
BMu100,50,P,REL,Gait_Normal,4,R_ESI,0.4037257254770039
BMu100,50,P,REL,Gait_Normal,5,L_ESI,0.28213405551041987
BMu100,50,P,REL,Gait_Normal,5,R_ESI,0.3759109495863206
BMu100,51,P,INI,Gait_Normal,1,L_ESI,0.17555933401810633
BMu100,51,P,INI,Gait_Normal,1,R_ESI,0.2698831402169556
BMu100,51,P,INI,Gait_Normal,2,L_ESI,0.18573705936888196
BMu100,51,P,INI,Gait_Normal,2,R_ESI,0.2801218863096339
BMu100,51,P,INI,Gait_Normal,3,L_ESI,0.18258766055686035
BMu100,51,P,INI,Gait_Normal,3,R_ESI,0.30765103606272254
BMu100,51,P,INI,Gait_Normal,4,L_ESI,0.1895167621100473
BMu100,51,P,INI,Gait_Normal,4,R_ESI,0.2673439614377257
BMu100,51,P,INI,Gait_Normal,5,L_ESI,0.18467412405707942
BMu100,51,P,INI,Gait_Normal,5,R_ESI,0.27197357001270067
BMu100,51,P,INI,Gait_Normal,6,L_ESI,0.18121496724612152
BMu100,51,P,INI,Gait_Normal,6,R_ESI,0.2756429906172863
BMu100,51,P,REL,Gait_Normal,1,L_ESI,0.12640821330449017
BMu100,51,P,REL,Gait_Normal,1,R_ESI,0.20266012514292822
BMu100,51,P,REL,Gait_Normal,2,L_ESI,0.11631497778474092
BMu100,51,P,REL,Gait_Normal,2,R_ESI,0.2722782195541082
BMu100,51,P,REL,Gait_Normal,3,L_ESI,0.12835659913336728
BMu100,51,P,REL,Gait_Normal,3,R_ESI,0.3657584538763781
BMu100,51,P,REL,Gait_Normal,4,L_ESI,0.12941465031405294
BMu100,51,P,REL,Gait_Normal,4,R_ESI,0.5304473644820517
BMu100,51,P,REL,Gait_Normal,5,L_ESI,0.1251917603256177
BMu100,51,P,REL,Gait_Normal,5,R_ESI,0.604661157094193
BMu100,51,P,REL,Gait_Normal,6,L_ESI,0.12018473390415467
BMu100,51,P,REL,Gait_Normal,6,R_ESI,1.0014029871274528
BMu100,52,C,INI,Gait_Normal,1,L_ESI,0.10286495123165573
BMu100,52,C,INI,Gait_Normal,1,R_ESI,0.2212007737145202
BMu100,52,C,INI,Gait_Normal,2,L_ESI,0.08017438353650319
BMu100,52,C,INI,Gait_Normal,2,R_ESI,0.1995487252182111
BMu100,52,C,INI,Gait_Normal,3,L_ESI,0.09046081833356638
BMu100,52,C,INI,Gait_Normal,3,R_ESI,0.20878810808518863
BMu100,52,C,INI,Gait_Normal,4,L_ESI,0.07937901102243029
BMu100,52,C,INI,Gait_Normal,4,R_ESI,0.20027360506575176
BMu100,52,C,INI,Gait_Normal,5,L_ESI,0.0996540001425541
BMu100,52,C,INI,Gait_Normal,5,R_ESI,0.2271485610825813
BMu100,52,C,INI,Gait_Normal,6,L_ESI,0.08943709619351232
BMu100,52,C,INI,Gait_Normal,6,R_ESI,0.17724662226611554
BMu100,52,C,REL,Gait_Normal,1,L_ESI,0.13524207752814313
BMu100,52,C,REL,Gait_Normal,1,R_ESI,0.2907369478162939
BMu100,52,C,REL,Gait_Normal,2,L_ESI,0.11987577962601706
BMu100,52,C,REL,Gait_Normal,2,R_ESI,0.2651677445242576
BMu100,52,C,REL,Gait_Normal,3,L_ESI,0.12939085977458387
BMu100,52,C,REL,Gait_Normal,3,R_ESI,0.262618095895111
BMu100,52,C,REL,Gait_Normal,4,L_ESI,0.11336132999914625
BMu100,52,C,REL,Gait_Normal,4,R_ESI,0.24759980767507336
BMu100,52,C,REL,Gait_Normal,5,L_ESI,0.13537079351182563
BMu100,52,C,REL,Gait_Normal,5,R_ESI,0.2591017913241883
BMu100,52,C,REL,Gait_Normal,6,L_ESI,0.12226687179079404
BMu100,52,C,REL,Gait_Normal,6,R_ESI,0.24416858307544695
BMu100,53,P,INI,Gait_Normal,1,L_ESI,0.169805171104642
BMu100,53,P,INI,Gait_Normal,1,R_ESI,0.17552250944223693
BMu100,53,P,INI,Gait_Normal,2,L_ESI,0.21083557843857284
BMu100,53,P,INI,Gait_Normal,2,R_ESI,0.18440898606619482
BMu100,53,P,INI,Gait_Normal,3,L_ESI,0.2041797073316651
BMu100,53,P,INI,Gait_Normal,3,R_ESI,0.19144423858032447
BMu100,53,P,INI,Gait_Normal,4,L_ESI,0.19367711635139917
BMu100,53,P,INI,Gait_Normal,4,R_ESI,0.1995217825625714
BMu100,53,P,INI,Gait_Normal,5,L_ESI,0.20746049361424687
BMu100,53,P,INI,Gait_Normal,5,R_ESI,0.20524483815522018
BMu100,53,P,INI,Gait_Normal,6,L_ESI,0.21098376655624845
BMu100,53,P,INI,Gait_Normal,6,R_ESI,0.20632140005250993
BMu100,53,P,REL,Gait_Normal,1,L_ESI,0.21756841938012417
BMu100,53,P,REL,Gait_Normal,1,R_ESI,0.20472956725203595
BMu100,53,P,REL,Gait_Normal,2,L_ESI,0.24435414250079232
BMu100,53,P,REL,Gait_Normal,2,R_ESI,0.20674468231097623
BMu100,53,P,REL,Gait_Normal,3,L_ESI,0.1989309674458781
BMu100,53,P,REL,Gait_Normal,3,R_ESI,0.21596611895271675
BMu100,53,P,REL,Gait_Normal,4,L_ESI,0.208203546538502
BMu100,53,P,REL,Gait_Normal,4,R_ESI,0.18651856949708698
BMu100,53,P,REL,Gait_Normal,5,L_ESI,0.23774171003973077
BMu100,53,P,REL,Gait_Normal,5,R_ESI,0.21351305783925004
BMu100,53,P,REL,Gait_Normal,6,L_ESI,0.19764173107723915
BMu100,53,P,REL,Gait_Normal,6,R_ESI,0.19544881869890726
BMu100,54,P,INI,Gait_Normal,1,L_ESI,0.5190775417514509
BMu100,54,P,INI,Gait_Normal,1,R_ESI,0.5186724870040658
BMu100,54,P,INI,Gait_Normal,2,L_ESI,0.6174305793574651
BMu100,54,P,INI,Gait_Normal,2,R_ESI,0.5484676183606191
BMu100,54,P,INI,Gait_Normal,3,L_ESI,0.543984884823698
BMu100,54,P,INI,Gait_Normal,3,R_ESI,0.525986874910151
BMu100,54,P,INI,Gait_Normal,4,L_ESI,0.6155449296846663
BMu100,54,P,INI,Gait_Normal,4,R_ESI,0.5825159477593743
BMu100,54,P,INI,Gait_Normal,5,L_ESI,0.7570187221099306
BMu100,54,P,INI,Gait_Normal,5,R_ESI,0.7418891259804917
BMu100,54,P,REL,Gait_Normal,1,L_ESI,0.8635904699913887
BMu100,54,P,REL,Gait_Normal,1,R_ESI,0.7069413343165646
BMu100,54,P,REL,Gait_Normal,2,L_ESI,0.7195344239281045
BMu100,54,P,REL,Gait_Normal,2,R_ESI,0.637133561080643
BMu100,54,P,REL,Gait_Normal,3,L_ESI,0.667835344038413
BMu100,54,P,REL,Gait_Normal,3,R_ESI,0.6126474223458637
BMu100,54,P,REL,Gait_Normal,4,L_ESI,0.5952539667314545
BMu100,54,P,REL,Gait_Normal,4,R_ESI,0.598959031258008
BMu100,54,P,REL,Gait_Normal,5,L_ESI,0.6872555171681306
BMu100,54,P,REL,Gait_Normal,5,R_ESI,0.6694108900368266
BMu100,54,P,REL,Gait_Normal,6,L_ESI,0.5493762762103572
BMu100,54,P,REL,Gait_Normal,6,R_ESI,0.6784890703806375
BMu100,54,P,REL,Gait_Normal,7,L_ESI,0.6547328720681295
BMu100,54,P,REL,Gait_Normal,7,R_ESI,0.6560609227962731
BMu100,54,P,REL,Gait_Normal,8,L_ESI,0.6294441511685825
BMu100,54,P,REL,Gait_Normal,8,R_ESI,0.6208588492337358
BMu100,55,C,INI,Gait_Normal,1,L_ESI,0.26419856060652186
BMu100,55,C,INI,Gait_Normal,1,R_ESI,0.37544733943327685
BMu100,55,C,INI,Gait_Normal,2,L_ESI,0.274835489381497
BMu100,55,C,INI,Gait_Normal,2,R_ESI,0.36571993214097276
BMu100,55,C,INI,Gait_Normal,3,L_ESI,0.28047789533740913
BMu100,55,C,INI,Gait_Normal,3,R_ESI,0.40588834441990773
BMu100,55,C,INI,Gait_Normal,4,L_ESI,0.27425419216671837
BMu100,55,C,INI,Gait_Normal,4,R_ESI,0.3861812868779859
BMu100,55,C,INI,Gait_Normal,5,L_ESI,0.2824881760288042
BMu100,55,C,INI,Gait_Normal,5,R_ESI,0.39049453982332033
BMu100,55,C,INI,Gait_Normal,6,L_ESI,0.31487803666530917
BMu100,55,C,INI,Gait_Normal,6,R_ESI,0.3946084005383514
BMu100,55,C,INI,Gait_Normal,7,L_ESI,0.25206838649383617
BMu100,55,C,INI,Gait_Normal,7,R_ESI,0.3764889333508858
BMu100,55,C,REL,Gait_Normal,1,L_ESI,0.3001892843488196
BMu100,55,C,REL,Gait_Normal,1,R_ESI,0.27451776657726895
BMu100,55,C,REL,Gait_Normal,2,L_ESI,0.24997780682520113
BMu100,55,C,REL,Gait_Normal,2,R_ESI,0.2847356356293076
BMu100,55,C,REL,Gait_Normal,3,L_ESI,0.22126507396602232
BMu100,55,C,REL,Gait_Normal,3,R_ESI,0.2833896511749451
BMu100,55,C,REL,Gait_Normal,4,L_ESI,0.23819181464884656
BMu100,55,C,REL,Gait_Normal,4,R_ESI,0.27548224344116284
BMu100,55,C,REL,Gait_Normal,5,L_ESI,0.259360093774972
BMu100,55,C,REL,Gait_Normal,5,R_ESI,0.3046770134286481
BMu100,55,C,REL,Gait_Normal,6,L_ESI,0.23021534283477008
BMu100,55,C,REL,Gait_Normal,6,R_ESI,0.3302891177917024
BMu100,55,C,REL,Gait_Normal,7,L_ESI,0.2570978412293972
BMu100,55,C,REL,Gait_Normal,7,R_ESI,0.282683816065956
BMu100,56,C,INI,Gait_Normal,1,L_ESI,0.42914600006840525
BMu100,56,C,INI,Gait_Normal,1,R_ESI,0.12743757994731378
BMu100,56,C,INI,Gait_Normal,2,L_ESI,0.5326482017447617
BMu100,56,C,INI,Gait_Normal,2,R_ESI,0.1215261372531447
BMu100,56,C,INI,Gait_Normal,3,L_ESI,0.47021902572360125
BMu100,56,C,INI,Gait_Normal,3,R_ESI,0.1568071067815086
BMu100,56,C,INI,Gait_Normal,4,L_ESI,0.5067234947044904
BMu100,56,C,INI,Gait_Normal,4,R_ESI,0.13071172463297465
BMu100,56,C,INI,Gait_Normal,5,L_ESI,0.5964691168983067
BMu100,56,C,INI,Gait_Normal,5,R_ESI,0.22058667519746245
BMu100,56,C,INI,Gait_Normal,6,L_ESI,0.6651600831368218
BMu100,56,C,INI,Gait_Normal,6,R_ESI,0.1863988342019704
BMu100,56,C,INI,Gait_Normal,7,L_ESI,0.45912623689490034
BMu100,56,C,INI,Gait_Normal,7,R_ESI,0.14278178919144763
BMu100,56,C,REL,Gait_Normal,1,L_ESI,0.3541970952511175
BMu100,56,C,REL,Gait_Normal,1,R_ESI,0.9363131173317853
BMu100,56,C,REL,Gait_Normal,2,L_ESI,0.301730228027867
BMu100,56,C,REL,Gait_Normal,2,R_ESI,0.8566678390538186
BMu100,56,C,REL,Gait_Normal,3,L_ESI,0.3823928424903919
BMu100,56,C,REL,Gait_Normal,3,R_ESI,1.2438477552487905
BMu100,56,C,REL,Gait_Normal,4,L_ESI,0.38512949287390236
BMu100,56,C,REL,Gait_Normal,4,R_ESI,0.9888339891230224
BMu100,56,C,REL,Gait_Normal,5,L_ESI,0.4041868146162704
BMu100,56,C,REL,Gait_Normal,5,R_ESI,1.0829633573087722
BMu100,56,C,REL,Gait_Normal,6,L_ESI,0.3360485241441367
BMu100,56,C,REL,Gait_Normal,6,R_ESI,0.8697881222556187
BMu100,56,C,REL,Gait_Normal,7,L_ESI,0.3557269780397247
BMu100,56,C,REL,Gait_Normal,7,R_ESI,1.1844430609714216
BMu100,56,C,REL,Gait_Normal,8,L_ESI,0.26953822099752267
BMu100,56,C,REL,Gait_Normal,8,R_ESI,1.0200939786518723
BMu100,57,C,INI,Gait_Normal,1,L_ESI,0.11454039997005823
BMu100,57,C,INI,Gait_Normal,1,R_ESI,0.14775958444900014
BMu100,57,C,INI,Gait_Normal,2,L_ESI,0.12276914903727439
BMu100,57,C,INI,Gait_Normal,2,R_ESI,0.15983050152678882
BMu100,57,C,INI,Gait_Normal,3,L_ESI,0.12267628342481711
BMu100,57,C,INI,Gait_Normal,3,R_ESI,0.15461474034677422
BMu100,57,C,INI,Gait_Normal,4,L_ESI,0.12023257902047624
BMu100,57,C,INI,Gait_Normal,4,R_ESI,0.14784114135166918
BMu100,57,C,INI,Gait_Normal,5,L_ESI,0.12581672421672077
BMu100,57,C,INI,Gait_Normal,5,R_ESI,0.17003495387288456
BMu100,57,C,INI,Gait_Normal,6,L_ESI,0.12221778249988169
BMu100,57,C,INI,Gait_Normal,6,R_ESI,0.16383230657198602
BMu100,57,C,INI,Gait_Normal,7,L_ESI,0.12975284207911422
BMu100,57,C,INI,Gait_Normal,7,R_ESI,0.1760694571003251
BMu100,57,C,INI,Gait_Normal,8,L_ESI,0.12909892371164725
BMu100,57,C,INI,Gait_Normal,8,R_ESI,0.161951741219258
BMu100,57,C,REL,Gait_Normal,1,L_ESI,0.2226925147603157
BMu100,57,C,REL,Gait_Normal,1,R_ESI,0.25057440453942453
BMu100,57,C,REL,Gait_Normal,2,L_ESI,0.22273357398057203
BMu100,57,C,REL,Gait_Normal,2,R_ESI,0.25384135672685976
BMu100,57,C,REL,Gait_Normal,3,L_ESI,0.22192821149013517
BMu100,57,C,REL,Gait_Normal,3,R_ESI,0.2593258523983116
BMu100,57,C,REL,Gait_Normal,4,L_ESI,0.21312892573652129
BMu100,57,C,REL,Gait_Normal,4,R_ESI,0.24894284406570308
BMu100,57,C,REL,Gait_Normal,5,L_ESI,0.21792339581444833
BMu100,57,C,REL,Gait_Normal,5,R_ESI,0.25187836619175846
BMu100,57,C,REL,Gait_Normal,6,L_ESI,0.24521429642967552
BMu100,57,C,REL,Gait_Normal,6,R_ESI,0.2658430882777704
BMu100,57,C,REL,Gait_Normal,7,L_ESI,0.2075777390598331
BMu100,57,C,REL,Gait_Normal,7,R_ESI,0.28039996703745657
BMu100,57,C,REL,Gait_Normal,8,L_ESI,0.23892251537828582
BMu100,57,C,REL,Gait_Normal,8,R_ESI,0.30146090603256065
BMu100,57,C,REL,Gait_Normal,9,L_ESI,0.23128808266438763
BMu100,57,C,REL,Gait_Normal,9,R_ESI,0.2913155877157355
BMu100,58,P,INI,Gait_Normal,1,L_ESI,0.3001456524412965
BMu100,58,P,INI,Gait_Normal,1,R_ESI,0.20728338809039779
BMu100,58,P,INI,Gait_Normal,2,L_ESI,0.3028152863622816
BMu100,58,P,INI,Gait_Normal,2,R_ESI,0.20566944825488698
BMu100,58,P,INI,Gait_Normal,3,L_ESI,0.33923317190097885
BMu100,58,P,INI,Gait_Normal,3,R_ESI,0.2579533662287045
BMu100,58,P,INI,Gait_Normal,4,L_ESI,0.28573845093584493
BMu100,58,P,INI,Gait_Normal,4,R_ESI,0.21204260471397973
BMu100,58,P,INI,Gait_Normal,5,L_ESI,0.29298196530256915
BMu100,58,P,INI,Gait_Normal,5,R_ESI,0.20447353579456826
BMu100,58,P,INI,Gait_Normal,6,L_ESI,0.29348789490113764
BMu100,58,P,INI,Gait_Normal,6,R_ESI,0.19705217968037103
BMu100,58,P,REL,Gait_Normal,1,L_ESI,0.3804968509522001
BMu100,58,P,REL,Gait_Normal,1,R_ESI,0.1904469979028732
BMu100,58,P,REL,Gait_Normal,2,L_ESI,0.4081597575904943
BMu100,58,P,REL,Gait_Normal,2,R_ESI,0.2211556630442142
BMu100,58,P,REL,Gait_Normal,3,L_ESI,0.3895346872327474
BMu100,58,P,REL,Gait_Normal,3,R_ESI,0.27349189652669315
BMu100,58,P,REL,Gait_Normal,4,L_ESI,0.39697392463386755
BMu100,58,P,REL,Gait_Normal,4,R_ESI,0.22306247200338222
BMu100,58,P,REL,Gait_Normal,5,L_ESI,0.3595070663690374
BMu100,58,P,REL,Gait_Normal,5,R_ESI,0.1717441408571776
BMu100,58,P,REL,Gait_Normal,6,L_ESI,0.33096631845759744
BMu100,58,P,REL,Gait_Normal,6,R_ESI,0.21050628926054682
BMu100,58,P,REL,Gait_Normal,7,L_ESI,0.36773516199732764
BMu100,58,P,REL,Gait_Normal,7,R_ESI,0.20014952641520362
BMu100,58,P,REL,Gait_Normal,8,L_ESI,0.3245737276708558
BMu100,58,P,REL,Gait_Normal,8,R_ESI,0.2067787655240769
BMu100,58,P,REL,Gait_Normal,9,L_ESI,0.357180877842433
BMu100,58,P,REL,Gait_Normal,9,R_ESI,0.17923413072568972
BMu100,60,C,INI,Gait_Normal,1,L_ESI,0.13110959292647378
BMu100,60,C,INI,Gait_Normal,1,R_ESI,0.23561774083748532
BMu100,60,C,INI,Gait_Normal,2,L_ESI,0.11639904276412472
BMu100,60,C,INI,Gait_Normal,2,R_ESI,0.21406909800801635
BMu100,60,C,INI,Gait_Normal,3,L_ESI,0.12056340502012326
BMu100,60,C,INI,Gait_Normal,3,R_ESI,0.17312110133110684
BMu100,60,C,INI,Gait_Normal,4,L_ESI,0.12066868760986978
BMu100,60,C,INI,Gait_Normal,4,R_ESI,0.17394277040835482
BMu100,60,C,INI,Gait_Normal,5,L_ESI,0.10602688176747055
BMu100,60,C,INI,Gait_Normal,5,R_ESI,0.14860211749099966
BMu100,60,C,INI,Gait_Normal,6,L_ESI,0.1327521466524071
BMu100,60,C,INI,Gait_Normal,6,R_ESI,0.19046485664178806
BMu100,60,C,REL,Gait_Normal,1,L_ESI,0.2678477385785917
BMu100,60,C,REL,Gait_Normal,1,R_ESI,0.20438445611204756
BMu100,60,C,REL,Gait_Normal,2,L_ESI,0.25163885017200843
BMu100,60,C,REL,Gait_Normal,2,R_ESI,0.24501680065471795
BMu100,60,C,REL,Gait_Normal,3,L_ESI,0.2576177904463277
BMu100,60,C,REL,Gait_Normal,3,R_ESI,0.3384682499749798
BMu100,60,C,REL,Gait_Normal,4,L_ESI,0.2682149797783613
BMu100,60,C,REL,Gait_Normal,4,R_ESI,0.24317483209194213
BMu100,60,C,REL,Gait_Normal,5,L_ESI,0.2941201873214973
BMu100,60,C,REL,Gait_Normal,5,R_ESI,0.2899868001807952
BMu100,60,C,REL,Gait_Normal,6,L_ESI,0.21220727690703398
BMu100,60,C,REL,Gait_Normal,6,R_ESI,0.24208896083986065
BMu100,61,P,REL,Gait_Normal,1,L_ESI,0.16290917007831643
BMu100,61,P,REL,Gait_Normal,1,R_ESI,0.05155538618037373
BMu100,61,P,REL,Gait_Normal,2,L_ESI,0.17090487065183088
BMu100,61,P,REL,Gait_Normal,2,R_ESI,0.055206477467810496
BMu100,61,P,REL,Gait_Normal,3,L_ESI,0.1648770664707948
BMu100,61,P,REL,Gait_Normal,3,R_ESI,0.053797113173142515
BMu100,61,P,REL,Gait_Normal,4,L_ESI,0.18229894992816564
BMu100,61,P,REL,Gait_Normal,4,R_ESI,0.055914056180727006
BMu100,61,P,REL,Gait_Normal,5,L_ESI,0.1594023066525507
BMu100,61,P,REL,Gait_Normal,5,R_ESI,0.0528550649029519
BMu100,61,P,REL,Gait_Normal,6,L_ESI,0.16947011672308776
BMu100,61,P,REL,Gait_Normal,6,R_ESI,0.05502512985945154
BMu100,61,P,REL,Gait_Normal,7,L_ESI,0.16980661010689357
BMu100,61,P,REL,Gait_Normal,7,R_ESI,0.05422814129742085
BMu100,62,P,INI,Gait_Normal,1,L_ESI,0.2116676408805144
BMu100,62,P,INI,Gait_Normal,1,R_ESI,0.21770366780090536
BMu100,62,P,INI,Gait_Normal,2,L_ESI,0.1510802337847206
BMu100,62,P,INI,Gait_Normal,2,R_ESI,0.2016913824171617
BMu100,62,P,INI,Gait_Normal,3,L_ESI,0.14435351378459754
BMu100,62,P,INI,Gait_Normal,3,R_ESI,0.21712528279072718
BMu100,62,P,INI,Gait_Normal,4,L_ESI,0.13687121602259006
BMu100,62,P,INI,Gait_Normal,4,R_ESI,0.2070647172267294
BMu100,62,P,INI,Gait_Normal,5,L_ESI,0.1447468059111102
BMu100,62,P,INI,Gait_Normal,5,R_ESI,0.20984381720622836
BMu100,62,P,INI,Gait_Normal,6,L_ESI,0.14230435972405855
BMu100,62,P,INI,Gait_Normal,6,R_ESI,0.22058337678590004
BMu100,62,P,INI,Gait_Normal,7,L_ESI,0.18611813485885528
BMu100,62,P,INI,Gait_Normal,7,R_ESI,0.21071391838193176
BMu100,62,P,REL,Gait_Normal,1,L_ESI,0.24996017479504773
BMu100,62,P,REL,Gait_Normal,1,R_ESI,0.1373621723473255
BMu100,62,P,REL,Gait_Normal,2,L_ESI,0.2591226698920015
BMu100,62,P,REL,Gait_Normal,2,R_ESI,0.1269305338548481
BMu100,62,P,REL,Gait_Normal,3,L_ESI,0.2704327320661644
BMu100,62,P,REL,Gait_Normal,3,R_ESI,0.19104887425887992
BMu100,62,P,REL,Gait_Normal,4,L_ESI,0.2253958174916372
BMu100,62,P,REL,Gait_Normal,4,R_ESI,0.13295616054494683
BMu100,62,P,REL,Gait_Normal,5,L_ESI,0.24153661496147563
BMu100,62,P,REL,Gait_Normal,5,R_ESI,0.12830406893753735
BMu100,62,P,REL,Gait_Normal,6,L_ESI,0.2569006389578035
BMu100,62,P,REL,Gait_Normal,6,R_ESI,0.13390578752960275
BMu100,62,P,REL,Gait_Normal,7,L_ESI,0.24677984725432367
BMu100,62,P,REL,Gait_Normal,7,R_ESI,0.18438367726459348
BMu100,63,P,INI,Gait_Normal,1,L_ESI,0.301250306837967
BMu100,63,P,INI,Gait_Normal,1,R_ESI,0.6567919591811403
BMu100,63,P,INI,Gait_Normal,2,L_ESI,0.3242186515532072
BMu100,63,P,INI,Gait_Normal,2,R_ESI,0.4418779636357471
BMu100,63,P,INI,Gait_Normal,3,L_ESI,0.3476860748801605
BMu100,63,P,INI,Gait_Normal,3,R_ESI,0.417100791080746
BMu100,63,P,INI,Gait_Normal,4,L_ESI,0.4404513304156908
BMu100,63,P,INI,Gait_Normal,4,R_ESI,0.42242114562868593
BMu100,63,P,INI,Gait_Normal,5,L_ESI,0.6211407539053401
BMu100,63,P,INI,Gait_Normal,5,R_ESI,0.4628781115780389
BMu100,63,P,INI,Gait_Normal,6,L_ESI,0.4296235888007412
BMu100,63,P,INI,Gait_Normal,6,R_ESI,0.361863595634425
BMu100,63,P,INI,Gait_Normal,7,L_ESI,0.5768310826442123
BMu100,63,P,INI,Gait_Normal,7,R_ESI,0.5465926336022688
BMu100,63,P,INI,Gait_Normal,8,L_ESI,0.5545406487359451
BMu100,63,P,INI,Gait_Normal,8,R_ESI,0.41631695416134074
BMu100,63,P,REL,Gait_Normal,1,L_ESI,0.25859031988870373
BMu100,63,P,REL,Gait_Normal,1,R_ESI,0.2946938969027083
BMu100,63,P,REL,Gait_Normal,2,L_ESI,0.31285654147834546
BMu100,63,P,REL,Gait_Normal,2,R_ESI,0.33526032515316645
BMu100,63,P,REL,Gait_Normal,3,L_ESI,0.3828987145063478
BMu100,63,P,REL,Gait_Normal,3,R_ESI,0.3035613035487704
BMu100,63,P,REL,Gait_Normal,4,L_ESI,0.28732635945314533
BMu100,63,P,REL,Gait_Normal,4,R_ESI,0.3725676549861062
BMu100,63,P,REL,Gait_Normal,5,L_ESI,0.3904998285488508
BMu100,63,P,REL,Gait_Normal,5,R_ESI,0.3379559348576405
BMu100,63,P,REL,Gait_Normal,6,L_ESI,0.3033043139153084
BMu100,63,P,REL,Gait_Normal,6,R_ESI,0.30317849567740174
BMu100,63,P,REL,Gait_Normal,7,L_ESI,0.4618645569223387
BMu100,63,P,REL,Gait_Normal,7,R_ESI,0.3928453319407782
BMu100,63,P,REL,Gait_Normal,8,L_ESI,0.35246318441192526
BMu100,63,P,REL,Gait_Normal,8,R_ESI,0.3279926397227191
BMu100,64,C,INI,Gait_Normal,1,L_ESI,0.22479832992983773
BMu100,64,C,INI,Gait_Normal,1,R_ESI,0.273657967535965
BMu100,64,C,INI,Gait_Normal,2,L_ESI,0.25062915134873526
BMu100,64,C,INI,Gait_Normal,2,R_ESI,0.2923176347595248
BMu100,64,C,INI,Gait_Normal,3,L_ESI,0.28789711380546285
BMu100,64,C,INI,Gait_Normal,3,R_ESI,0.2745451135507241
BMu100,64,C,INI,Gait_Normal,4,L_ESI,0.24925591765373792
BMu100,64,C,INI,Gait_Normal,4,R_ESI,0.2561775701182034
BMu100,64,C,INI,Gait_Normal,5,L_ESI,0.43439059700410576
BMu100,64,C,INI,Gait_Normal,5,R_ESI,0.530732614613873
BMu100,64,C,INI,Gait_Normal,6,L_ESI,0.24064124680224586
BMu100,64,C,INI,Gait_Normal,6,R_ESI,0.3933956705930224
BMu100,64,C,INI,Gait_Normal,7,L_ESI,0.20255616306512436
BMu100,64,C,INI,Gait_Normal,7,R_ESI,0.2875759052167241
BMu100,64,C,INI,Gait_Normal,8,L_ESI,0.22032980292418639
BMu100,64,C,INI,Gait_Normal,8,R_ESI,0.27347110214789
BMu100,64,C,REL,Gait_Normal,1,L_ESI,0.17051117725239062
BMu100,64,C,REL,Gait_Normal,1,R_ESI,0.2039518709921695
BMu100,64,C,REL,Gait_Normal,2,L_ESI,0.17707898204760156
BMu100,64,C,REL,Gait_Normal,2,R_ESI,0.22511881222785352
BMu100,64,C,REL,Gait_Normal,3,L_ESI,0.1818620247870053
BMu100,64,C,REL,Gait_Normal,3,R_ESI,0.22171516434523122
BMu100,64,C,REL,Gait_Normal,4,L_ESI,0.14736707144676794
BMu100,64,C,REL,Gait_Normal,4,R_ESI,0.21720807413140575
BMu100,64,C,REL,Gait_Normal,5,L_ESI,0.17974856545119508
BMu100,64,C,REL,Gait_Normal,5,R_ESI,0.2439895239133342
BMu100,64,C,REL,Gait_Normal,6,L_ESI,0.1546003481133415
BMu100,64,C,REL,Gait_Normal,6,R_ESI,0.19967865328309084
BMu100,65,P,INI,Gait_Normal,1,L_ESI,0.30864764559807156
BMu100,65,P,INI,Gait_Normal,1,R_ESI,0.27717246979806975
BMu100,65,P,INI,Gait_Normal,2,L_ESI,0.26301140606655476
BMu100,65,P,INI,Gait_Normal,2,R_ESI,0.2228963228981849
BMu100,65,P,INI,Gait_Normal,3,L_ESI,0.3230154025154925
BMu100,65,P,INI,Gait_Normal,3,R_ESI,0.27222363617393813
BMu100,65,P,INI,Gait_Normal,4,L_ESI,0.3519755597192624
BMu100,65,P,INI,Gait_Normal,4,R_ESI,0.2873290212470839
BMu100,65,P,INI,Gait_Normal,5,L_ESI,0.3394960888405408
BMu100,65,P,INI,Gait_Normal,5,R_ESI,0.23804940922816473
BMu100,65,P,INI,Gait_Normal,6,L_ESI,0.2634219499871101
BMu100,65,P,INI,Gait_Normal,6,R_ESI,0.2113950299929308
BMu100,65,P,REL,Gait_Normal,1,L_ESI,0.23167783169637401
BMu100,65,P,REL,Gait_Normal,1,R_ESI,0.27538686464953754
BMu100,65,P,REL,Gait_Normal,2,L_ESI,0.25593964942685976
BMu100,65,P,REL,Gait_Normal,2,R_ESI,0.2602436250891627
BMu100,65,P,REL,Gait_Normal,3,L_ESI,0.2824985757409085
BMu100,65,P,REL,Gait_Normal,3,R_ESI,0.3163239985731979
BMu100,65,P,REL,Gait_Normal,4,L_ESI,0.25076904102717956
BMu100,65,P,REL,Gait_Normal,4,R_ESI,0.2786530816682217
BMu100,65,P,REL,Gait_Normal,5,L_ESI,0.3148261278943433
BMu100,65,P,REL,Gait_Normal,5,R_ESI,0.34530557516185867
BMu100,65,P,REL,Gait_Normal,6,L_ESI,0.29066859498628234
BMu100,65,P,REL,Gait_Normal,6,R_ESI,0.29384602227776796
BMu100,66,C,INI,Gait_Normal,1,L_ESI,0.261294999246239
BMu100,66,C,INI,Gait_Normal,1,R_ESI,0.3133212126961494
BMu100,66,C,INI,Gait_Normal,2,L_ESI,0.1993669278999984
BMu100,66,C,INI,Gait_Normal,2,R_ESI,0.26197412001033515
BMu100,66,C,INI,Gait_Normal,3,L_ESI,0.23526804857316175
BMu100,66,C,INI,Gait_Normal,3,R_ESI,0.2757015373795295
BMu100,66,C,INI,Gait_Normal,4,L_ESI,0.24270578668149434
BMu100,66,C,INI,Gait_Normal,4,R_ESI,0.3055428374830548
BMu100,66,C,INI,Gait_Normal,5,L_ESI,0.26221066911769864
BMu100,66,C,INI,Gait_Normal,5,R_ESI,0.33520549723106635
BMu100,66,C,INI,Gait_Normal,6,L_ESI,0.270603188897041
BMu100,66,C,INI,Gait_Normal,6,R_ESI,0.3001078048052969
BMu100,66,C,INI,Gait_Normal,7,L_ESI,0.26604895341126295
BMu100,66,C,INI,Gait_Normal,7,R_ESI,0.3317602839646131
BMu100,66,C,INI,Gait_Normal,8,L_ESI,0.2587238876584731
BMu100,66,C,INI,Gait_Normal,8,R_ESI,0.2886617342703653
BMu100,66,C,REL,Gait_Normal,1,L_ESI,0.21347712730738624
BMu100,66,C,REL,Gait_Normal,1,R_ESI,0.37215890339483426
BMu100,66,C,REL,Gait_Normal,2,L_ESI,0.25830647690318487
BMu100,66,C,REL,Gait_Normal,2,R_ESI,0.4112375425344393
BMu100,66,C,REL,Gait_Normal,3,L_ESI,0.2742866657402354
BMu100,66,C,REL,Gait_Normal,3,R_ESI,0.4158540859170916
BMu100,66,C,REL,Gait_Normal,4,L_ESI,0.24465338575684864
BMu100,66,C,REL,Gait_Normal,4,R_ESI,0.40891101978055716
BMu100,67,C,INI,Gait_Normal,1,L_ESI,0.19330135445059832
BMu100,67,C,INI,Gait_Normal,1,R_ESI,0.23164257251575157
BMu100,67,C,INI,Gait_Normal,2,L_ESI,0.14344310245125513
BMu100,67,C,INI,Gait_Normal,2,R_ESI,0.21482423994117406
BMu100,67,C,INI,Gait_Normal,3,L_ESI,0.2030485052648361
BMu100,67,C,INI,Gait_Normal,3,R_ESI,0.27456002000946467
BMu100,67,C,INI,Gait_Normal,4,L_ESI,0.14821665176458768
BMu100,67,C,INI,Gait_Normal,4,R_ESI,0.22399721142512655
BMu100,67,C,INI,Gait_Normal,5,L_ESI,0.21305463721463042
BMu100,67,C,INI,Gait_Normal,5,R_ESI,0.21810290864459853
BMu100,67,C,INI,Gait_Normal,6,L_ESI,0.18369413530903303
BMu100,67,C,INI,Gait_Normal,6,R_ESI,0.19760571766611754
BMu100,67,C,INI,Gait_Normal,7,L_ESI,0.2285964821207049
BMu100,67,C,INI,Gait_Normal,7,R_ESI,0.22736480773677542
BMu100,67,C,REL,Gait_Normal,1,L_ESI,0.18777840164931053
BMu100,67,C,REL,Gait_Normal,1,R_ESI,0.20797497728836203
BMu100,67,C,REL,Gait_Normal,2,L_ESI,0.18815466411612786
BMu100,67,C,REL,Gait_Normal,2,R_ESI,0.25955631361477993
BMu100,67,C,REL,Gait_Normal,3,L_ESI,0.23752224441656158
BMu100,67,C,REL,Gait_Normal,3,R_ESI,0.2591243101875488
BMu100,67,C,REL,Gait_Normal,4,L_ESI,0.2359997470744516
BMu100,67,C,REL,Gait_Normal,4,R_ESI,0.2549212668143931
BMu100,67,C,REL,Gait_Normal,5,L_ESI,0.24268571560472196
BMu100,67,C,REL,Gait_Normal,5,R_ESI,0.27104221759237845
BMu100,67,C,REL,Gait_Normal,6,L_ESI,0.21350524198061546
BMu100,67,C,REL,Gait_Normal,6,R_ESI,0.2397975542605905
BMu100,67,C,REL,Gait_Normal,7,L_ESI,0.2228251005051457
BMu100,67,C,REL,Gait_Normal,7,R_ESI,0.2630219326460228
BMu100,68,C,INI,Gait_Normal,1,L_ESI,0.5072524881025297
BMu100,68,C,INI,Gait_Normal,1,R_ESI,0.4897768417594411
BMu100,68,C,INI,Gait_Normal,2,L_ESI,0.5182083445345131
BMu100,68,C,INI,Gait_Normal,2,R_ESI,0.5161959534256726
BMu100,68,C,INI,Gait_Normal,3,L_ESI,0.38060751518490415
BMu100,68,C,INI,Gait_Normal,3,R_ESI,0.41266286083027576
BMu100,68,C,INI,Gait_Normal,4,L_ESI,0.40559629462322766
BMu100,68,C,INI,Gait_Normal,4,R_ESI,0.4169175539568221
BMu100,68,C,INI,Gait_Normal,5,L_ESI,0.42906491774305133
BMu100,68,C,INI,Gait_Normal,5,R_ESI,0.42253519674069295
BMu100,68,C,INI,Gait_Normal,6,L_ESI,0.40221998922556496
BMu100,68,C,INI,Gait_Normal,6,R_ESI,0.5343544609019445
BMu100,68,C,INI,Gait_Normal,7,L_ESI,0.396619549913114
BMu100,68,C,INI,Gait_Normal,7,R_ESI,0.3960270075035517
BMu100,68,C,REL,Gait_Normal,1,L_ESI,0.5248529188765653
BMu100,68,C,REL,Gait_Normal,1,R_ESI,0.4734601932931562
BMu100,68,C,REL,Gait_Normal,2,L_ESI,0.3785008024074521
BMu100,68,C,REL,Gait_Normal,2,R_ESI,0.41210109934413275
BMu100,68,C,REL,Gait_Normal,3,L_ESI,0.4294463903822656
BMu100,68,C,REL,Gait_Normal,3,R_ESI,0.41120148357230435
BMu100,68,C,REL,Gait_Normal,4,L_ESI,0.44426199014829804
BMu100,68,C,REL,Gait_Normal,4,R_ESI,0.42043742240531107
BMu100,68,C,REL,Gait_Normal,5,L_ESI,0.3891770839949699
BMu100,68,C,REL,Gait_Normal,5,R_ESI,0.4219457035139793
BMu100,68,C,REL,Gait_Normal,6,L_ESI,0.4076811594015429
BMu100,68,C,REL,Gait_Normal,6,R_ESI,0.3688456295201892
