BM,subject,P_C,session,task,repetition,channel,value
BMu104,1,C,INI,Gait_Normal,1,L_LES,11.030731571490628
BMu104,1,C,INI,Gait_Normal,1,R_LES,10.897510864934889
BMu104,1,C,INI,Gait_Normal,2,L_LES,11.175796981222055
BMu104,1,C,INI,Gait_Normal,2,R_LES,12.03721000592915
BMu104,1,C,INI,Gait_Normal,3,L_LES,10.733673342480055
BMu104,1,C,INI,Gait_Normal,3,R_LES,14.606325689655954
BMu104,1,C,INI,Gait_Normal,4,L_LES,7.724609944759988
BMu104,1,C,INI,Gait_Normal,4,R_LES,17.83677377021678
BMu104,1,C,INI,Gait_Normal,5,L_LES,11.819275302682007
BMu104,1,C,INI,Gait_Normal,5,R_LES,11.66253738198987
BMu104,1,C,INI,Gait_Normal,6,L_LES,8.539302755644187
BMu104,1,C,INI,Gait_Normal,6,R_LES,16.186919106166354
BMu104,1,C,INI,Gait_Normal,7,L_LES,10.932849719810177
BMu104,1,C,INI,Gait_Normal,7,R_LES,21.979929680033035
BMu104,1,C,INI,Gait_Normal,8,L_LES,12.707769197592048
BMu104,1,C,INI,Gait_Normal,8,R_LES,21.053403759435493
BMu104,1,C,INI,Gait_Normal,9,L_LES,13.788577238676481
BMu104,1,C,INI,Gait_Normal,9,R_LES,15.219296642211916
BMu104,1,C,INI,Gait_Normal,10,L_LES,13.599824049970001
BMu104,1,C,INI,Gait_Normal,10,R_LES,12.954591694812706
BMu104,1,C,REL,Gait_Normal,1,L_LES,8.75309110053068
BMu104,1,C,REL,Gait_Normal,1,R_LES,12.51554231393124
BMu104,1,C,REL,Gait_Normal,2,L_LES,9.145344302127635
BMu104,1,C,REL,Gait_Normal,2,R_LES,26.216347477658974
BMu104,1,C,REL,Gait_Normal,3,L_LES,7.110718538933099
BMu104,1,C,REL,Gait_Normal,3,R_LES,25.903073275034043
BMu104,1,C,REL,Gait_Normal,4,L_LES,7.279402696202748
BMu104,1,C,REL,Gait_Normal,4,R_LES,9.613159557674498
BMu104,1,C,REL,Gait_Normal,5,L_LES,19.771765438985017
BMu104,1,C,REL,Gait_Normal,5,R_LES,17.537427552188323
BMu104,1,C,REL,Gait_Normal,6,L_LES,16.641572089060272
BMu104,1,C,REL,Gait_Normal,6,R_LES,14.033076260951782
BMu104,1,C,REL,Gait_Normal,7,L_LES,6.364992278617829
BMu104,1,C,REL,Gait_Normal,7,R_LES,14.910322491262642
BMu104,1,C,REL,Gait_Normal,8,L_LES,10.456243671941477
BMu104,1,C,REL,Gait_Normal,8,R_LES,23.531618945936586
BMu104,1,C,REL,Gait_Normal,9,L_LES,7.544527645985226
BMu104,1,C,REL,Gait_Normal,9,R_LES,13.39643554441129
BMu104,1,C,REL,Gait_Normal,10,L_LES,5.698748599787276
BMu104,1,C,REL,Gait_Normal,10,R_LES,21.64440557363399
BMu104,2,C,INI,Gait_Normal,1,L_LES,12.247081642170215
BMu104,2,C,INI,Gait_Normal,1,R_LES,8.3758628177422
BMu104,2,C,INI,Gait_Normal,2,L_LES,6.727230721456267
BMu104,2,C,INI,Gait_Normal,2,R_LES,8.349282974915834
BMu104,2,C,INI,Gait_Normal,3,L_LES,2.5280702121388066
BMu104,2,C,INI,Gait_Normal,3,R_LES,25.529006051575283
BMu104,2,C,INI,Gait_Normal,4,L_LES,16.656334319109366
BMu104,2,C,INI,Gait_Normal,4,R_LES,17.20689667585926
BMu104,2,C,INI,Gait_Normal,5,L_LES,15.675691655448832
BMu104,2,C,INI,Gait_Normal,5,R_LES,17.052978454237017
BMu104,2,C,INI,Gait_Normal,6,L_LES,34.06809556473801
BMu104,2,C,INI,Gait_Normal,6,R_LES,11.796540417467105
BMu104,2,C,INI,Gait_Normal,7,L_LES,37.81989355527771
BMu104,2,C,INI,Gait_Normal,7,R_LES,13.596675463089367
BMu104,2,C,INI,Gait_Normal,8,L_LES,33.819075469101755
BMu104,2,C,INI,Gait_Normal,8,R_LES,8.72495203792201
BMu104,2,C,INI,Gait_Normal,9,L_LES,35.69384455634551
BMu104,2,C,INI,Gait_Normal,9,R_LES,13.270060893925868
BMu104,2,C,INI,Gait_Normal,10,L_LES,25.334618319014442
BMu104,2,C,INI,Gait_Normal,10,R_LES,12.111737922403643
BMu104,2,C,REL,Gait_Normal,1,L_LES,9.359718050211509
BMu104,2,C,REL,Gait_Normal,1,R_LES,12.725459051706887
BMu104,2,C,REL,Gait_Normal,2,L_LES,10.003795616180456
BMu104,2,C,REL,Gait_Normal,2,R_LES,11.12701447393251
BMu104,2,C,REL,Gait_Normal,3,L_LES,15.006830618481038
BMu104,2,C,REL,Gait_Normal,3,R_LES,19.70019062166043
BMu104,2,C,REL,Gait_Normal,4,L_LES,9.901690874217067
BMu104,2,C,REL,Gait_Normal,4,R_LES,10.964045006895068
BMu104,2,C,REL,Gait_Normal,5,L_LES,11.174070908918514
BMu104,2,C,REL,Gait_Normal,5,R_LES,13.451676677278627
BMu104,2,C,REL,Gait_Normal,6,L_LES,9.3269956947705
BMu104,2,C,REL,Gait_Normal,6,R_LES,14.053282264885032
BMu104,2,C,REL,Gait_Normal,7,L_LES,12.345370187570389
BMu104,2,C,REL,Gait_Normal,7,R_LES,9.994850481492088
BMu104,2,C,REL,Gait_Normal,8,L_LES,9.92909927445078
BMu104,2,C,REL,Gait_Normal,8,R_LES,13.698048096232014
BMu104,2,C,REL,Gait_Normal,9,L_LES,10.364503754916102
BMu104,2,C,REL,Gait_Normal,9,R_LES,16.728415373296116
BMu104,3,C,INI,Gait_Normal,1,L_LES,24.401028061439817
BMu104,3,C,INI,Gait_Normal,1,R_LES,17.33827979873052
BMu104,3,C,INI,Gait_Normal,2,L_LES,22.416762271844178
BMu104,3,C,INI,Gait_Normal,2,R_LES,20.173989599567115
BMu104,3,C,INI,Gait_Normal,3,L_LES,26.56776024423073
BMu104,3,C,INI,Gait_Normal,3,R_LES,18.615004182948397
BMu104,3,C,INI,Gait_Normal,4,L_LES,15.85257452114397
BMu104,3,C,INI,Gait_Normal,4,R_LES,20.04838004333836
BMu104,3,C,INI,Gait_Normal,5,L_LES,27.952213341486225
BMu104,3,C,INI,Gait_Normal,5,R_LES,23.243666078972325
BMu104,3,C,INI,Gait_Normal,6,L_LES,19.6401355178127
BMu104,3,C,INI,Gait_Normal,6,R_LES,14.984551537959788
BMu104,3,C,INI,Gait_Normal,7,L_LES,15.834197898882891
BMu104,3,C,INI,Gait_Normal,7,R_LES,15.608549284348483
BMu104,3,C,INI,Gait_Normal,8,L_LES,22.593324910386695
BMu104,3,C,INI,Gait_Normal,8,R_LES,20.392652140396347
BMu104,3,C,INI,Gait_Normal,9,L_LES,19.326980081668086
BMu104,3,C,INI,Gait_Normal,9,R_LES,18.47607682900725
BMu104,3,C,INI,Gait_Normal,10,L_LES,22.87461740238828
BMu104,3,C,INI,Gait_Normal,10,R_LES,24.953308585484354
BMu104,3,C,REL,Gait_Normal,1,L_LES,9.752585865447715
BMu104,3,C,REL,Gait_Normal,1,R_LES,12.96289953418606
BMu104,3,C,REL,Gait_Normal,2,L_LES,10.300441389362652
BMu104,3,C,REL,Gait_Normal,2,R_LES,19.43930671621174
BMu104,3,C,REL,Gait_Normal,3,L_LES,7.079286484054929
BMu104,3,C,REL,Gait_Normal,3,R_LES,16.94144360238586
BMu104,3,C,REL,Gait_Normal,4,L_LES,10.137869119535594
BMu104,3,C,REL,Gait_Normal,4,R_LES,22.490075206782848
BMu104,3,C,REL,Gait_Normal,5,L_LES,12.09793489014907
BMu104,3,C,REL,Gait_Normal,5,R_LES,21.907230598603718
BMu104,3,C,REL,Gait_Normal,6,L_LES,10.08462581487107
BMu104,3,C,REL,Gait_Normal,6,R_LES,21.05900189686143
BMu104,3,C,REL,Gait_Normal,7,L_LES,14.62974637806329
BMu104,3,C,REL,Gait_Normal,7,R_LES,24.15932104147504
BMu104,3,C,REL,Gait_Normal,8,L_LES,8.433512668522157
BMu104,3,C,REL,Gait_Normal,8,R_LES,17.32860993185251
BMu104,3,C,REL,Gait_Normal,9,L_LES,11.603498042728411
BMu104,3,C,REL,Gait_Normal,9,R_LES,18.521961113244775
BMu104,3,C,REL,Gait_Normal,10,L_LES,11.476374589500276
BMu104,3,C,REL,Gait_Normal,10,R_LES,27.43686632195304
BMu104,5,C,INI,Gait_Normal,1,L_LES,9.502572770188781
BMu104,5,C,INI,Gait_Normal,1,R_LES,30.300255064317938
BMu104,5,C,INI,Gait_Normal,2,L_LES,22.882929370517402
BMu104,5,C,INI,Gait_Normal,2,R_LES,16.359327564699
BMu104,5,C,INI,Gait_Normal,3,L_LES,24.933529495673852
BMu104,5,C,INI,Gait_Normal,3,R_LES,16.784073426804486
BMu104,5,C,INI,Gait_Normal,4,L_LES,12.635737904860797
BMu104,5,C,INI,Gait_Normal,4,R_LES,28.878780159624768
BMu104,5,C,INI,Gait_Normal,5,L_LES,21.508673181345735
BMu104,5,C,INI,Gait_Normal,5,R_LES,19.842928186555678
BMu104,5,C,INI,Gait_Normal,6,L_LES,19.62498794059311
BMu104,5,C,INI,Gait_Normal,6,R_LES,14.367593280546428
BMu104,5,C,INI,Gait_Normal,7,L_LES,7.183876179153253
BMu104,5,C,INI,Gait_Normal,7,R_LES,17.555061257716602
BMu104,5,C,INI,Gait_Normal,8,L_LES,13.151770774889597
BMu104,5,C,INI,Gait_Normal,8,R_LES,17.815080724598644
BMu104,5,C,REL,Gait_Normal,1,L_LES,11.170536303039123
BMu104,5,C,REL,Gait_Normal,1,R_LES,13.136108346090094
BMu104,5,C,REL,Gait_Normal,2,L_LES,7.773473540072375
BMu104,5,C,REL,Gait_Normal,2,R_LES,14.503213491911723
BMu104,5,C,REL,Gait_Normal,3,L_LES,7.689047744845843
BMu104,5,C,REL,Gait_Normal,3,R_LES,22.43905794124366
BMu104,5,C,REL,Gait_Normal,4,L_LES,9.59930660103713
BMu104,5,C,REL,Gait_Normal,4,R_LES,23.33577613827144
BMu104,5,C,REL,Gait_Normal,5,L_LES,8.720521115592707
BMu104,5,C,REL,Gait_Normal,5,R_LES,14.717607931743425
BMu104,5,C,REL,Gait_Normal,6,L_LES,8.718186409827618
BMu104,5,C,REL,Gait_Normal,6,R_LES,13.300794616531997
BMu104,5,C,REL,Gait_Normal,7,L_LES,8.708408512989964
BMu104,5,C,REL,Gait_Normal,7,R_LES,18.446113388564452
BMu104,5,C,REL,Gait_Normal,8,L_LES,8.110276430970492
BMu104,5,C,REL,Gait_Normal,8,R_LES,17.77063212777114
BMu104,5,C,REL,Gait_Normal,9,L_LES,9.522570983609473
BMu104,5,C,REL,Gait_Normal,9,R_LES,18.437989123249633
BMu104,6,C,INI,Gait_Normal,1,L_LES,10.001942378090767
BMu104,6,C,INI,Gait_Normal,1,R_LES,8.110352813866731
BMu104,6,C,INI,Gait_Normal,2,L_LES,3.409152765343474
BMu104,6,C,INI,Gait_Normal,2,R_LES,12.264613096891415
BMu104,6,C,INI,Gait_Normal,3,L_LES,7.9409342509894465
BMu104,6,C,INI,Gait_Normal,3,R_LES,16.925685500869474
BMu104,6,C,INI,Gait_Normal,4,L_LES,5.625681747127206
BMu104,6,C,INI,Gait_Normal,4,R_LES,15.443627999047587
BMu104,6,C,INI,Gait_Normal,5,L_LES,2.973114407060338
BMu104,6,C,INI,Gait_Normal,5,R_LES,22.1416397154444
BMu104,6,C,INI,Gait_Normal,6,L_LES,12.377602849856363
BMu104,6,C,INI,Gait_Normal,6,R_LES,7.987962868628974
BMu104,6,C,INI,Gait_Normal,7,L_LES,6.094918740566098
BMu104,6,C,INI,Gait_Normal,7,R_LES,16.229424733270477
BMu104,6,C,REL,Gait_Normal,1,L_LES,11.044022616692535
BMu104,6,C,REL,Gait_Normal,1,R_LES,15.81308906943744
BMu104,6,C,REL,Gait_Normal,2,L_LES,9.86862215880029
BMu104,6,C,REL,Gait_Normal,2,R_LES,16.77834721210003
BMu104,6,C,REL,Gait_Normal,3,L_LES,12.122936297601058
BMu104,6,C,REL,Gait_Normal,3,R_LES,28.449369560221054
BMu104,6,C,REL,Gait_Normal,4,L_LES,14.586514233333098
BMu104,6,C,REL,Gait_Normal,4,R_LES,20.928664221433603
BMu104,6,C,REL,Gait_Normal,5,L_LES,12.82885603274731
BMu104,6,C,REL,Gait_Normal,5,R_LES,12.933917624635688
BMu104,6,C,REL,Gait_Normal,6,L_LES,10.805689237239543
BMu104,6,C,REL,Gait_Normal,6,R_LES,19.37405767460801
BMu104,6,C,REL,Gait_Normal,7,L_LES,12.809620910261232
BMu104,6,C,REL,Gait_Normal,7,R_LES,22.673790283194858
BMu104,6,C,REL,Gait_Normal,8,L_LES,13.29943541048803
BMu104,6,C,REL,Gait_Normal,8,R_LES,17.709934413365048
BMu104,6,C,REL,Gait_Normal,9,L_LES,9.95306908340964
BMu104,6,C,REL,Gait_Normal,9,R_LES,17.354876510076476
BMu104,6,C,REL,Gait_Normal,10,L_LES,11.634822831194358
BMu104,6,C,REL,Gait_Normal,10,R_LES,20.998758001660672
BMu104,6,C,REL,Gait_Normal,11,L_LES,12.823841277073738
BMu104,6,C,REL,Gait_Normal,11,R_LES,16.170532225288643
BMu104,7,C,INI,Gait_Normal,1,L_LES,23.678487618023773
BMu104,7,C,INI,Gait_Normal,1,R_LES,16.0765195572592
BMu104,7,C,INI,Gait_Normal,2,L_LES,23.59859782491468
BMu104,7,C,INI,Gait_Normal,2,R_LES,27.49208660716477
BMu104,7,C,INI,Gait_Normal,3,L_LES,38.372576466743155
BMu104,7,C,INI,Gait_Normal,3,R_LES,22.196526638730816
BMu104,7,C,INI,Gait_Normal,4,L_LES,23.905130391191445
BMu104,7,C,INI,Gait_Normal,4,R_LES,26.807666301691647
BMu104,7,C,INI,Gait_Normal,5,L_LES,26.621965948954816
BMu104,7,C,INI,Gait_Normal,5,R_LES,31.214259399246316
BMu104,7,C,INI,Gait_Normal,6,L_LES,25.570526964586215
BMu104,7,C,INI,Gait_Normal,6,R_LES,26.154786711750987
BMu104,7,C,INI,Gait_Normal,7,L_LES,22.168901287311638
BMu104,7,C,INI,Gait_Normal,7,R_LES,27.357530108592044
BMu104,7,C,REL,Gait_Normal,1,L_LES,26.95061240246623
BMu104,7,C,REL,Gait_Normal,1,R_LES,20.408028859481544
BMu104,7,C,REL,Gait_Normal,2,L_LES,20.787231821525275
BMu104,7,C,REL,Gait_Normal,2,R_LES,24.0876914983292
BMu104,7,C,REL,Gait_Normal,3,L_LES,26.072834651586604
BMu104,7,C,REL,Gait_Normal,3,R_LES,25.396516094875274
BMu104,7,C,REL,Gait_Normal,4,L_LES,20.26050085920572
BMu104,7,C,REL,Gait_Normal,4,R_LES,35.8592047898735
BMu104,7,C,REL,Gait_Normal,5,L_LES,22.52306251993376
BMu104,7,C,REL,Gait_Normal,5,R_LES,28.01062918394465
BMu104,7,C,REL,Gait_Normal,6,L_LES,16.621503066878063
BMu104,7,C,REL,Gait_Normal,6,R_LES,25.8780995644508
BMu104,7,C,REL,Gait_Normal,7,L_LES,19.08385375291228
BMu104,7,C,REL,Gait_Normal,7,R_LES,27.056027665274286
BMu104,7,C,REL,Gait_Normal,8,L_LES,21.07625697498504
BMu104,7,C,REL,Gait_Normal,8,R_LES,32.274125098124294
BMu104,7,C,REL,Gait_Normal,9,L_LES,18.969092016734574
BMu104,7,C,REL,Gait_Normal,9,R_LES,23.15625038619149
BMu104,8,C,INI,Gait_Normal,1,L_LES,11.678576947120678
BMu104,8,C,INI,Gait_Normal,1,R_LES,12.841397899045978
BMu104,8,C,INI,Gait_Normal,2,L_LES,12.302016816033865
BMu104,8,C,INI,Gait_Normal,2,R_LES,22.98882579494323
BMu104,8,C,INI,Gait_Normal,3,L_LES,13.940547601637057
BMu104,8,C,INI,Gait_Normal,3,R_LES,11.12607701495183
BMu104,8,C,INI,Gait_Normal,4,L_LES,12.825603403174126
BMu104,8,C,INI,Gait_Normal,4,R_LES,11.461085490471131
BMu104,8,C,INI,Gait_Normal,5,L_LES,16.992515141886045
BMu104,8,C,INI,Gait_Normal,5,R_LES,23.85805379644523
BMu104,8,C,INI,Gait_Normal,6,L_LES,9.846364396442029
BMu104,8,C,INI,Gait_Normal,6,R_LES,22.169901034429365
BMu104,8,C,REL,Gait_Normal,1,L_LES,11.41813044973487
BMu104,8,C,REL,Gait_Normal,1,R_LES,10.88754975361095
BMu104,8,C,REL,Gait_Normal,2,L_LES,11.077339859033762
BMu104,8,C,REL,Gait_Normal,2,R_LES,8.789776458834519
BMu104,8,C,REL,Gait_Normal,3,L_LES,13.32779982389812
BMu104,8,C,REL,Gait_Normal,3,R_LES,10.770193640726184
BMu104,8,C,REL,Gait_Normal,4,L_LES,10.619867832470916
BMu104,8,C,REL,Gait_Normal,4,R_LES,8.640470153178002
BMu104,8,C,REL,Gait_Normal,5,L_LES,13.528019748903667
BMu104,8,C,REL,Gait_Normal,5,R_LES,8.805883449464302
BMu104,9,P,INI,Gait_Normal,1,L_LES,12.36494844524562
BMu104,9,P,INI,Gait_Normal,1,R_LES,10.458465280757155
BMu104,9,P,INI,Gait_Normal,2,L_LES,16.30842662387789
BMu104,9,P,INI,Gait_Normal,2,R_LES,7.068487530339531
BMu104,9,P,INI,Gait_Normal,3,L_LES,17.206054521203203
BMu104,9,P,INI,Gait_Normal,3,R_LES,8.511405717790014
BMu104,9,P,INI,Gait_Normal,4,L_LES,10.545725704585385
BMu104,9,P,INI,Gait_Normal,4,R_LES,10.828590393957294
BMu104,9,P,INI,Gait_Normal,5,L_LES,12.787697255237308
BMu104,9,P,INI,Gait_Normal,5,R_LES,9.68096262521533
BMu104,9,P,INI,Gait_Normal,6,L_LES,10.335414688582205
BMu104,9,P,INI,Gait_Normal,6,R_LES,7.920695866396393
BMu104,9,P,REL,Gait_Normal,1,L_LES,12.810656972343747
BMu104,9,P,REL,Gait_Normal,1,R_LES,10.025956729192316
BMu104,9,P,REL,Gait_Normal,2,L_LES,15.558638935720216
BMu104,9,P,REL,Gait_Normal,2,R_LES,12.520020506067688
BMu104,9,P,REL,Gait_Normal,3,L_LES,12.989095442009965
BMu104,9,P,REL,Gait_Normal,3,R_LES,8.260874280112436
BMu104,9,P,REL,Gait_Normal,4,L_LES,13.388115837385778
BMu104,9,P,REL,Gait_Normal,4,R_LES,10.158178207231838
BMu104,9,P,REL,Gait_Normal,5,L_LES,13.877807331792217
BMu104,9,P,REL,Gait_Normal,5,R_LES,11.84322807688612
BMu104,9,P,REL,Gait_Normal,6,L_LES,11.43781896235059
BMu104,9,P,REL,Gait_Normal,6,R_LES,11.75336542024058
BMu104,9,P,REL,Gait_Normal,7,L_LES,21.403567810221805
BMu104,9,P,REL,Gait_Normal,7,R_LES,13.005863847470135
BMu104,9,P,REL,Gait_Normal,8,L_LES,9.962986586382105
BMu104,9,P,REL,Gait_Normal,8,R_LES,7.657335060226612
BMu104,10,P,INI,Gait_Normal,1,L_LES,5.654660740323178
BMu104,10,P,INI,Gait_Normal,1,R_LES,8.000852489432571
BMu104,10,P,INI,Gait_Normal,2,L_LES,5.178950576360865
BMu104,10,P,INI,Gait_Normal,2,R_LES,7.312247168175887
BMu104,10,P,INI,Gait_Normal,3,L_LES,7.042763270406839
BMu104,10,P,INI,Gait_Normal,3,R_LES,9.038781629203484
BMu104,10,P,INI,Gait_Normal,4,L_LES,4.965605557101856
BMu104,10,P,INI,Gait_Normal,4,R_LES,7.994912082597604
BMu104,10,P,INI,Gait_Normal,5,L_LES,4.809835797003528
BMu104,10,P,INI,Gait_Normal,5,R_LES,6.353174132377003
BMu104,10,P,INI,Gait_Normal,6,L_LES,5.0305467021293335
BMu104,10,P,INI,Gait_Normal,6,R_LES,5.986777780347603
BMu104,10,P,INI,Gait_Normal,7,L_LES,5.5983020924003375
BMu104,10,P,INI,Gait_Normal,7,R_LES,9.104209087320175
BMu104,10,P,REL,Gait_Normal,1,L_LES,5.637538265377428
BMu104,10,P,REL,Gait_Normal,1,R_LES,10.764950389037384
BMu104,10,P,REL,Gait_Normal,2,L_LES,7.260884092785574
BMu104,10,P,REL,Gait_Normal,2,R_LES,7.9799185849550796
BMu104,10,P,REL,Gait_Normal,3,L_LES,6.3699486891304105
BMu104,10,P,REL,Gait_Normal,3,R_LES,8.22137981951476
BMu104,10,P,REL,Gait_Normal,4,L_LES,5.892746533473876
BMu104,10,P,REL,Gait_Normal,4,R_LES,7.643957727288399
BMu104,10,P,REL,Gait_Normal,5,L_LES,7.27862072287299
BMu104,10,P,REL,Gait_Normal,5,R_LES,11.250294735908437
BMu104,10,P,REL,Gait_Normal,6,L_LES,6.77983444989247
BMu104,10,P,REL,Gait_Normal,6,R_LES,10.42813366487098
BMu104,10,P,REL,Gait_Normal,7,L_LES,8.715872653721519
BMu104,10,P,REL,Gait_Normal,7,R_LES,10.106075284175542
BMu104,11,P,INI,Gait_Normal,1,L_LES,9.999544113523603
BMu104,11,P,INI,Gait_Normal,1,R_LES,17.452694665790112
BMu104,11,P,INI,Gait_Normal,2,L_LES,13.292172976126839
BMu104,11,P,INI,Gait_Normal,2,R_LES,15.005945249870093
BMu104,11,P,INI,Gait_Normal,3,L_LES,9.652725484411734
BMu104,11,P,INI,Gait_Normal,3,R_LES,13.79991913361727
BMu104,11,P,INI,Gait_Normal,4,L_LES,11.529201001488017
BMu104,11,P,INI,Gait_Normal,4,R_LES,12.896021488586003
BMu104,11,P,INI,Gait_Normal,5,L_LES,12.720967261266226
BMu104,11,P,INI,Gait_Normal,5,R_LES,9.273856271378342
BMu104,11,P,INI,Gait_Normal,6,L_LES,13.124937517078354
BMu104,11,P,INI,Gait_Normal,6,R_LES,13.108652213667732
BMu104,11,P,REL,Gait_Normal,1,L_LES,12.601497149338702
BMu104,11,P,REL,Gait_Normal,1,R_LES,8.410250983940317
BMu104,11,P,REL,Gait_Normal,2,L_LES,8.353091248892737
BMu104,11,P,REL,Gait_Normal,2,R_LES,9.184909439899565
BMu104,11,P,REL,Gait_Normal,3,L_LES,8.103014256339467
BMu104,11,P,REL,Gait_Normal,3,R_LES,7.95738219423192
BMu104,11,P,REL,Gait_Normal,4,L_LES,5.709835748499527
BMu104,11,P,REL,Gait_Normal,4,R_LES,8.931027600233902
BMu104,11,P,REL,Gait_Normal,5,L_LES,12.097689799613093
BMu104,11,P,REL,Gait_Normal,5,R_LES,6.52270429545167
BMu104,11,P,REL,Gait_Normal,6,L_LES,6.67410734841905
BMu104,11,P,REL,Gait_Normal,6,R_LES,8.552436828990427
BMu104,12,P,INI,Gait_Normal,1,L_LES,16.99740647378224
BMu104,12,P,INI,Gait_Normal,1,R_LES,14.650973612464607
BMu104,12,P,INI,Gait_Normal,2,L_LES,22.64163027225379
BMu104,12,P,INI,Gait_Normal,2,R_LES,20.08595988207822
BMu104,12,P,INI,Gait_Normal,3,L_LES,25.399935174468567
BMu104,12,P,INI,Gait_Normal,3,R_LES,23.18666146726593
BMu104,12,P,INI,Gait_Normal,4,L_LES,19.265464110450484
BMu104,12,P,INI,Gait_Normal,4,R_LES,20.997752579742237
BMu104,12,P,INI,Gait_Normal,5,L_LES,26.01211125721261
BMu104,12,P,INI,Gait_Normal,5,R_LES,27.38218782850074
BMu104,12,P,INI,Gait_Normal,6,L_LES,20.262991246336703
BMu104,12,P,INI,Gait_Normal,6,R_LES,17.394868910523872
BMu104,12,P,INI,Gait_Normal,7,L_LES,19.993497765258475
BMu104,12,P,INI,Gait_Normal,7,R_LES,23.84022903020729
BMu104,12,P,INI,Gait_Normal,8,L_LES,24.63585102099565
BMu104,12,P,INI,Gait_Normal,8,R_LES,27.798775664098276
BMu104,12,P,INI,Gait_Normal,9,L_LES,13.985460508543223
BMu104,12,P,INI,Gait_Normal,9,R_LES,17.22535099963415
BMu104,12,P,INI,Gait_Normal,10,L_LES,24.556755995585334
BMu104,12,P,INI,Gait_Normal,10,R_LES,23.203156027845743
BMu104,12,P,REL,Gait_Normal,1,L_LES,12.70320157542319
BMu104,12,P,REL,Gait_Normal,1,R_LES,12.987475563967545
BMu104,12,P,REL,Gait_Normal,2,L_LES,21.98626979940473
BMu104,12,P,REL,Gait_Normal,2,R_LES,18.566513798800784
BMu104,12,P,REL,Gait_Normal,3,L_LES,20.091459898815373
BMu104,12,P,REL,Gait_Normal,3,R_LES,17.36644634256154
BMu104,12,P,REL,Gait_Normal,4,L_LES,26.21687999109369
BMu104,12,P,REL,Gait_Normal,4,R_LES,13.154202333364266
BMu104,12,P,REL,Gait_Normal,5,L_LES,17.86915799089506
BMu104,12,P,REL,Gait_Normal,5,R_LES,12.783332320335433
BMu104,12,P,REL,Gait_Normal,6,L_LES,13.232805224151024
BMu104,12,P,REL,Gait_Normal,6,R_LES,14.08640957221413
BMu104,13,C,INI,Gait_Normal,1,L_LES,22.74388791489701
BMu104,13,C,INI,Gait_Normal,1,R_LES,13.025695557320113
BMu104,13,C,INI,Gait_Normal,2,L_LES,16.91962056868394
BMu104,13,C,INI,Gait_Normal,2,R_LES,13.579868136101702
BMu104,13,C,INI,Gait_Normal,3,L_LES,24.37136210490239
BMu104,13,C,INI,Gait_Normal,3,R_LES,18.5616295253403
BMu104,13,C,INI,Gait_Normal,4,L_LES,23.74779314854137
BMu104,13,C,INI,Gait_Normal,4,R_LES,15.905707911069475
BMu104,13,C,INI,Gait_Normal,5,L_LES,20.304543024790394
BMu104,13,C,INI,Gait_Normal,5,R_LES,13.272886705679534
BMu104,13,C,INI,Gait_Normal,6,L_LES,28.3339999370966
BMu104,13,C,INI,Gait_Normal,6,R_LES,15.34051698085917
BMu104,13,C,INI,Gait_Normal,7,L_LES,23.37347697649846
BMu104,13,C,INI,Gait_Normal,7,R_LES,14.285674427948013
BMu104,13,C,INI,Gait_Normal,8,L_LES,21.784548462380386
BMu104,13,C,INI,Gait_Normal,8,R_LES,17.00816865080415
BMu104,13,C,INI,Gait_Normal,9,L_LES,19.70652243766025
BMu104,13,C,INI,Gait_Normal,9,R_LES,21.4657709217704
BMu104,13,C,REL,Gait_Normal,1,L_LES,11.1744120533878
BMu104,13,C,REL,Gait_Normal,1,R_LES,13.975411871605209
BMu104,13,C,REL,Gait_Normal,2,L_LES,13.458696010440885
BMu104,13,C,REL,Gait_Normal,2,R_LES,12.029064175334947
BMu104,13,C,REL,Gait_Normal,3,L_LES,12.364127643855706
BMu104,13,C,REL,Gait_Normal,3,R_LES,15.883603132093025
BMu104,13,C,REL,Gait_Normal,4,L_LES,12.823525286043301
BMu104,13,C,REL,Gait_Normal,4,R_LES,14.496594466340632
BMu104,13,C,REL,Gait_Normal,5,L_LES,11.66998823254224
BMu104,13,C,REL,Gait_Normal,5,R_LES,18.396106349881208
BMu104,13,C,REL,Gait_Normal,6,L_LES,15.735123466452375
BMu104,13,C,REL,Gait_Normal,6,R_LES,18.941984927484853
BMu104,13,C,REL,Gait_Normal,7,L_LES,12.388652041932694
BMu104,13,C,REL,Gait_Normal,7,R_LES,16.717153542461748
BMu104,13,C,REL,Gait_Normal,8,L_LES,14.973107894474968
BMu104,13,C,REL,Gait_Normal,8,R_LES,15.783235567103503
BMu104,13,C,REL,Gait_Normal,9,L_LES,10.28627470437917
BMu104,13,C,REL,Gait_Normal,9,R_LES,19.444627756814032
BMu104,14,P,INI,Gait_Normal,1,L_LES,15.25259671983967
BMu104,14,P,INI,Gait_Normal,1,R_LES,21.595512317981886
BMu104,14,P,INI,Gait_Normal,2,L_LES,21.98448766610466
BMu104,14,P,INI,Gait_Normal,2,R_LES,26.622708005221508
BMu104,14,P,INI,Gait_Normal,3,L_LES,20.61848424087578
BMu104,14,P,INI,Gait_Normal,3,R_LES,23.663097397377697
BMu104,14,P,INI,Gait_Normal,4,L_LES,20.639429785659097
BMu104,14,P,INI,Gait_Normal,4,R_LES,32.43098889806805
BMu104,14,P,INI,Gait_Normal,5,L_LES,25.55872963429423
BMu104,14,P,INI,Gait_Normal,5,R_LES,34.06176941869372
BMu104,14,P,INI,Gait_Normal,6,L_LES,29.88498400992449
BMu104,14,P,INI,Gait_Normal,6,R_LES,32.167243091326895
BMu104,14,P,INI,Gait_Normal,7,L_LES,16.82771027957473
BMu104,14,P,INI,Gait_Normal,7,R_LES,28.07290423521301
BMu104,14,P,REL,Gait_Normal,1,L_LES,10.020881382739121
BMu104,14,P,REL,Gait_Normal,1,R_LES,20.665146265463076
BMu104,14,P,REL,Gait_Normal,2,L_LES,10.85845229221361
BMu104,14,P,REL,Gait_Normal,2,R_LES,16.500855613447552
BMu104,14,P,REL,Gait_Normal,3,L_LES,16.01546234908757
BMu104,14,P,REL,Gait_Normal,3,R_LES,18.59171894770473
BMu104,14,P,REL,Gait_Normal,4,L_LES,16.643929941456438
BMu104,14,P,REL,Gait_Normal,4,R_LES,21.23676226973449
BMu104,14,P,REL,Gait_Normal,5,L_LES,15.90288991957462
BMu104,14,P,REL,Gait_Normal,5,R_LES,16.90173839936412
BMu104,14,P,REL,Gait_Normal,6,L_LES,9.14703191814814
BMu104,14,P,REL,Gait_Normal,6,R_LES,19.19559822283038
BMu104,14,P,REL,Gait_Normal,7,L_LES,15.439728878810438
BMu104,14,P,REL,Gait_Normal,7,R_LES,15.037913257857172
BMu104,14,P,REL,Gait_Normal,8,L_LES,9.567206700659895
BMu104,14,P,REL,Gait_Normal,8,R_LES,22.842050541391526
BMu104,14,P,REL,Gait_Normal,9,L_LES,9.201752014400075
BMu104,14,P,REL,Gait_Normal,9,R_LES,19.834488299147445
BMu104,14,P,REL,Gait_Normal,10,L_LES,8.28590377491773
BMu104,14,P,REL,Gait_Normal,10,R_LES,13.899916829253781
BMu104,16,C,INI,Gait_Normal,1,L_LES,14.068485144411925
BMu104,16,C,INI,Gait_Normal,1,R_LES,16.9662226013589
BMu104,16,C,INI,Gait_Normal,2,L_LES,65.20916617680238
BMu104,16,C,INI,Gait_Normal,2,R_LES,59.40464077851229
BMu104,16,C,INI,Gait_Normal,3,L_LES,14.79909966839968
BMu104,16,C,INI,Gait_Normal,3,R_LES,21.606895155524857
BMu104,16,C,INI,Gait_Normal,4,L_LES,52.74256439474426
BMu104,16,C,INI,Gait_Normal,4,R_LES,89.55956985132538
BMu104,16,C,INI,Gait_Normal,5,L_LES,12.801337029359434
BMu104,16,C,INI,Gait_Normal,5,R_LES,21.330541590901454
BMu104,16,C,INI,Gait_Normal,6,L_LES,87.57135833515943
BMu104,16,C,INI,Gait_Normal,6,R_LES,40.697430633422584
BMu104,16,C,REL,Gait_Normal,1,L_LES,10.1898343480483
BMu104,16,C,REL,Gait_Normal,1,R_LES,19.614708035688615
BMu104,16,C,REL,Gait_Normal,2,L_LES,78.02014609418944
BMu104,16,C,REL,Gait_Normal,2,R_LES,110.7062946662925
BMu104,16,C,REL,Gait_Normal,3,L_LES,17.263358561066077
BMu104,16,C,REL,Gait_Normal,3,R_LES,18.840206130718425
BMu104,16,C,REL,Gait_Normal,4,L_LES,70.15280798356393
BMu104,16,C,REL,Gait_Normal,4,R_LES,83.35300931832528
BMu104,16,C,REL,Gait_Normal,5,L_LES,13.157315499661527
BMu104,16,C,REL,Gait_Normal,5,R_LES,17.17860636924268
BMu104,16,C,REL,Gait_Normal,6,L_LES,70.76867703550971
BMu104,16,C,REL,Gait_Normal,6,R_LES,91.7003073502479
BMu104,17,P,INI,Gait_Normal,1,L_LES,31.25186358777924
BMu104,17,P,INI,Gait_Normal,1,R_LES,16.896209097449265
BMu104,17,P,INI,Gait_Normal,2,L_LES,31.131330260279764
BMu104,17,P,INI,Gait_Normal,2,R_LES,30.286679691447034
BMu104,17,P,INI,Gait_Normal,3,L_LES,38.75816474436986
BMu104,17,P,INI,Gait_Normal,3,R_LES,32.41359221016928
BMu104,17,P,INI,Gait_Normal,4,L_LES,22.027038074501053
BMu104,17,P,INI,Gait_Normal,4,R_LES,13.92463884563151
BMu104,17,P,INI,Gait_Normal,5,L_LES,33.40994938269414
BMu104,17,P,INI,Gait_Normal,5,R_LES,37.3242045249428
BMu104,17,P,INI,Gait_Normal,6,L_LES,21.689079704254492
BMu104,17,P,INI,Gait_Normal,6,R_LES,23.31389743183305
BMu104,17,P,INI,Gait_Normal,7,L_LES,32.70923839078495
BMu104,17,P,INI,Gait_Normal,7,R_LES,37.638375840478034
BMu104,17,P,INI,Gait_Normal,8,L_LES,25.28774015113307
BMu104,17,P,INI,Gait_Normal,8,R_LES,22.94965793699457
BMu104,17,P,INI,Gait_Normal,9,L_LES,30.198082048699018
BMu104,17,P,INI,Gait_Normal,9,R_LES,41.61574062371139
BMu104,17,P,INI,Gait_Normal,10,L_LES,26.339776541778406
BMu104,17,P,INI,Gait_Normal,10,R_LES,17.03850984105184
BMu104,17,P,REL,Gait_Normal,1,L_LES,6.579190522870115
BMu104,17,P,REL,Gait_Normal,1,R_LES,20.568556499373074
BMu104,17,P,REL,Gait_Normal,2,L_LES,53.80158941336137
BMu104,17,P,REL,Gait_Normal,2,R_LES,17.26538583257978
BMu104,17,P,REL,Gait_Normal,3,L_LES,17.03212698343835
BMu104,17,P,REL,Gait_Normal,3,R_LES,5.563104733657193
BMu104,17,P,REL,Gait_Normal,4,L_LES,61.63332065922076
BMu104,17,P,REL,Gait_Normal,4,R_LES,39.44162370574924
BMu104,17,P,REL,Gait_Normal,5,L_LES,15.155992278789281
BMu104,17,P,REL,Gait_Normal,5,R_LES,11.057826670142266
BMu104,17,P,REL,Gait_Normal,6,L_LES,40.82771702749003
BMu104,17,P,REL,Gait_Normal,6,R_LES,69.28597208813258
BMu104,17,P,REL,Gait_Normal,7,L_LES,16.57744119140912
BMu104,17,P,REL,Gait_Normal,7,R_LES,6.935854928385588
BMu104,17,P,REL,Gait_Normal,8,L_LES,40.02756472627044
BMu104,17,P,REL,Gait_Normal,8,R_LES,68.37374615365194
BMu104,21,C,INI,Gait_Normal,1,L_LES,7.807004152511165
BMu104,21,C,INI,Gait_Normal,1,R_LES,10.234681220435574
BMu104,21,C,INI,Gait_Normal,2,L_LES,207.01913648728723
BMu104,21,C,INI,Gait_Normal,2,R_LES,167.87568546471817
BMu104,21,C,INI,Gait_Normal,3,L_LES,8.163488915598759
BMu104,21,C,INI,Gait_Normal,3,R_LES,8.211643015819753
BMu104,21,C,INI,Gait_Normal,4,L_LES,158.8878935584939
BMu104,21,C,INI,Gait_Normal,4,R_LES,164.048372019029
BMu104,21,C,INI,Gait_Normal,5,L_LES,6.646227303528571
BMu104,21,C,INI,Gait_Normal,5,R_LES,6.075284351231083
BMu104,21,C,INI,Gait_Normal,6,L_LES,162.5800194103663
BMu104,21,C,INI,Gait_Normal,6,R_LES,188.732237275993
BMu104,21,C,REL,Gait_Normal,1,L_LES,5.615833318692863
BMu104,21,C,REL,Gait_Normal,1,R_LES,12.393782788323335
BMu104,21,C,REL,Gait_Normal,2,L_LES,60.61080364941998
BMu104,21,C,REL,Gait_Normal,2,R_LES,105.53119172263638
BMu104,21,C,REL,Gait_Normal,3,L_LES,4.074232737209805
BMu104,21,C,REL,Gait_Normal,3,R_LES,8.695961289263751
BMu104,21,C,REL,Gait_Normal,4,L_LES,63.67315999787681
BMu104,21,C,REL,Gait_Normal,4,R_LES,81.42529598435557
BMu104,21,C,REL,Gait_Normal,5,L_LES,7.415407105017032
BMu104,21,C,REL,Gait_Normal,5,R_LES,14.724891153284462
BMu104,21,C,REL,Gait_Normal,6,L_LES,56.62137376782767
BMu104,21,C,REL,Gait_Normal,6,R_LES,123.45824672838157
BMu104,21,C,REL,Gait_Normal,7,L_LES,5.276679357359348
BMu104,21,C,REL,Gait_Normal,7,R_LES,11.943643296430388
BMu104,21,C,REL,Gait_Normal,8,L_LES,38.676890658324666
BMu104,21,C,REL,Gait_Normal,8,R_LES,177.47575232342817
BMu104,22,C,INI,Gait_Normal,1,L_LES,69.38809622860407
BMu104,22,C,INI,Gait_Normal,1,R_LES,11.783235630367676
BMu104,22,C,INI,Gait_Normal,2,L_LES,19.46186094443233
BMu104,22,C,INI,Gait_Normal,2,R_LES,55.30168928497379
BMu104,22,C,INI,Gait_Normal,3,L_LES,45.600714962086705
BMu104,22,C,INI,Gait_Normal,3,R_LES,13.845948093650014
BMu104,22,C,INI,Gait_Normal,4,L_LES,18.11983155652982
BMu104,22,C,INI,Gait_Normal,4,R_LES,56.583973454577766
BMu104,22,C,INI,Gait_Normal,5,L_LES,70.07164090022528
BMu104,22,C,INI,Gait_Normal,5,R_LES,8.147884010812675
BMu104,22,C,INI,Gait_Normal,6,L_LES,22.06089185591843
BMu104,22,C,INI,Gait_Normal,6,R_LES,16.30979962841315
BMu104,22,C,INI,Gait_Normal,7,L_LES,56.282728706104265
BMu104,22,C,INI,Gait_Normal,7,R_LES,23.930553851174864
BMu104,22,C,INI,Gait_Normal,8,L_LES,17.267385350042723
BMu104,22,C,INI,Gait_Normal,8,R_LES,8.26888209403497
BMu104,22,C,INI,Gait_Normal,9,L_LES,61.905721767610885
BMu104,22,C,INI,Gait_Normal,9,R_LES,30.41708187501781
BMu104,22,C,REL,Gait_Normal,1,L_LES,23.076332106657745
BMu104,22,C,REL,Gait_Normal,1,R_LES,12.78076783167082
BMu104,22,C,REL,Gait_Normal,2,L_LES,20.914134614679053
BMu104,22,C,REL,Gait_Normal,2,R_LES,14.756233713001816
BMu104,22,C,REL,Gait_Normal,3,L_LES,139.03512972658228
BMu104,22,C,REL,Gait_Normal,3,R_LES,132.0896216019612
BMu104,22,C,REL,Gait_Normal,4,L_LES,105.40434401120798
BMu104,22,C,REL,Gait_Normal,4,R_LES,108.19518401528157
BMu104,22,C,REL,Gait_Normal,5,L_LES,24.453774486092748
BMu104,22,C,REL,Gait_Normal,5,R_LES,19.449241501092544
BMu104,22,C,REL,Gait_Normal,6,L_LES,78.93828297395787
BMu104,22,C,REL,Gait_Normal,6,R_LES,132.04063609398406
BMu104,22,C,REL,Gait_Normal,7,L_LES,24.198573681848245
BMu104,22,C,REL,Gait_Normal,7,R_LES,18.252490632895906
BMu104,22,C,REL,Gait_Normal,8,L_LES,109.2923637255268
BMu104,22,C,REL,Gait_Normal,8,R_LES,124.08534866685655
BMu104,23,C,INI,Gait_Normal,1,L_LES,11.226518223595912
BMu104,23,C,INI,Gait_Normal,1,R_LES,31.95592823707073
BMu104,23,C,INI,Gait_Normal,2,L_LES,26.449435962562134
BMu104,23,C,INI,Gait_Normal,2,R_LES,61.06963492379771
BMu104,23,C,INI,Gait_Normal,3,L_LES,32.90894418019854
BMu104,23,C,INI,Gait_Normal,3,R_LES,28.953444332979593
BMu104,23,C,INI,Gait_Normal,4,L_LES,24.487258585573954
BMu104,23,C,INI,Gait_Normal,4,R_LES,71.37153662679276
BMu104,23,C,INI,Gait_Normal,5,L_LES,22.87371395021732
BMu104,23,C,INI,Gait_Normal,5,R_LES,31.223058280861828
BMu104,23,C,INI,Gait_Normal,6,L_LES,54.66424041448331
BMu104,23,C,INI,Gait_Normal,6,R_LES,59.21916471276529
BMu104,23,C,INI,Gait_Normal,7,L_LES,26.70432561418579
BMu104,23,C,INI,Gait_Normal,7,R_LES,27.361502573994933
BMu104,23,C,REL,Gait_Normal,1,L_LES,20.72350792196351
BMu104,23,C,REL,Gait_Normal,1,R_LES,15.566550926265943
BMu104,23,C,REL,Gait_Normal,2,L_LES,78.63465840036733
BMu104,23,C,REL,Gait_Normal,2,R_LES,73.53576899097985
BMu104,23,C,REL,Gait_Normal,3,L_LES,89.4809441010452
BMu104,23,C,REL,Gait_Normal,3,R_LES,67.82877398091208
BMu104,23,C,REL,Gait_Normal,4,L_LES,75.68720650130498
BMu104,23,C,REL,Gait_Normal,4,R_LES,67.91806824695138
BMu104,24,P,INI,Gait_Normal,1,L_LES,14.236110206675912
BMu104,24,P,INI,Gait_Normal,1,R_LES,31.41662975413393
BMu104,24,P,INI,Gait_Normal,2,L_LES,13.35344532756166
BMu104,24,P,INI,Gait_Normal,2,R_LES,37.120998314899175
BMu104,24,P,INI,Gait_Normal,3,L_LES,13.338646974955207
BMu104,24,P,INI,Gait_Normal,3,R_LES,26.21100976092651
BMu104,24,P,INI,Gait_Normal,4,L_LES,13.293832072278548
BMu104,24,P,INI,Gait_Normal,4,R_LES,23.275053979614455
BMu104,24,P,INI,Gait_Normal,5,L_LES,15.62492669537648
BMu104,24,P,INI,Gait_Normal,5,R_LES,24.7446715473426
BMu104,24,P,INI,Gait_Normal,6,L_LES,104.481173006394
BMu104,24,P,INI,Gait_Normal,6,R_LES,67.14175173215806
BMu104,24,P,INI,Gait_Normal,7,L_LES,9.551255696174843
BMu104,24,P,INI,Gait_Normal,7,R_LES,20.109235791553033
BMu104,24,P,INI,Gait_Normal,8,L_LES,100.61888214809113
BMu104,24,P,INI,Gait_Normal,8,R_LES,74.15841523251848
BMu104,24,P,REL,Gait_Normal,1,L_LES,10.061231851600672
BMu104,24,P,REL,Gait_Normal,1,R_LES,21.70154904908918
BMu104,24,P,REL,Gait_Normal,2,L_LES,10.618662114085652
BMu104,24,P,REL,Gait_Normal,2,R_LES,18.5108393425421
BMu104,24,P,REL,Gait_Normal,3,L_LES,12.916359696630266
BMu104,24,P,REL,Gait_Normal,3,R_LES,21.48154803023883
BMu104,24,P,REL,Gait_Normal,4,L_LES,11.535851944073556
BMu104,24,P,REL,Gait_Normal,4,R_LES,20.918412854267558
BMu104,24,P,REL,Gait_Normal,5,L_LES,11.33140389422445
BMu104,24,P,REL,Gait_Normal,5,R_LES,20.0616901259183
BMu104,25,C,INI,Gait_Normal,1,L_LES,8.211828075817198
BMu104,25,C,INI,Gait_Normal,1,R_LES,22.661945916995208
BMu104,25,C,INI,Gait_Normal,2,L_LES,8.956405730582699
BMu104,25,C,INI,Gait_Normal,2,R_LES,23.246425525330153
BMu104,25,C,INI,Gait_Normal,3,L_LES,136.46915337289306
BMu104,25,C,INI,Gait_Normal,3,R_LES,88.79589820043816
BMu104,25,C,INI,Gait_Normal,4,L_LES,9.526284883364049
BMu104,25,C,INI,Gait_Normal,4,R_LES,13.389025561364637
BMu104,25,C,INI,Gait_Normal,5,L_LES,132.20790183478312
BMu104,25,C,INI,Gait_Normal,5,R_LES,92.38974666771568
BMu104,25,C,INI,Gait_Normal,6,L_LES,137.41510410299634
BMu104,25,C,INI,Gait_Normal,6,R_LES,83.86692840537002
BMu104,25,C,INI,Gait_Normal,7,L_LES,7.20958040044968
BMu104,25,C,INI,Gait_Normal,7,R_LES,20.385492564377536
BMu104,25,C,INI,Gait_Normal,8,L_LES,132.6801129374606
BMu104,25,C,INI,Gait_Normal,8,R_LES,92.82558572959778
BMu104,25,C,INI,Gait_Normal,9,L_LES,9.095360585041776
BMu104,25,C,INI,Gait_Normal,9,R_LES,16.667602445634223
BMu104,25,C,INI,Gait_Normal,10,L_LES,86.95175279684288
BMu104,25,C,INI,Gait_Normal,10,R_LES,104.49333259104895
BMu104,25,C,REL,Gait_Normal,1,L_LES,10.73248539009395
BMu104,25,C,REL,Gait_Normal,1,R_LES,28.63130549266009
BMu104,25,C,REL,Gait_Normal,2,L_LES,8.310188395351297
BMu104,25,C,REL,Gait_Normal,2,R_LES,23.968414863130832
BMu104,25,C,REL,Gait_Normal,3,L_LES,6.431085895719206
BMu104,25,C,REL,Gait_Normal,3,R_LES,28.42277476320266
BMu104,25,C,REL,Gait_Normal,4,L_LES,92.9937117079758
BMu104,25,C,REL,Gait_Normal,4,R_LES,70.77267297888818
BMu104,25,C,REL,Gait_Normal,5,L_LES,7.456903436762854
BMu104,25,C,REL,Gait_Normal,5,R_LES,33.6151978374841
BMu104,25,C,REL,Gait_Normal,6,L_LES,86.1379628857007
BMu104,25,C,REL,Gait_Normal,6,R_LES,64.59883252884569
BMu104,25,C,REL,Gait_Normal,7,L_LES,10.22919542989289
BMu104,25,C,REL,Gait_Normal,7,R_LES,25.194231092512545
BMu104,25,C,REL,Gait_Normal,8,L_LES,111.66341042850581
BMu104,25,C,REL,Gait_Normal,8,R_LES,66.1294926527115
BMu104,26,P,INI,Gait_Normal,1,L_LES,13.28850659791556
BMu104,26,P,INI,Gait_Normal,1,R_LES,18.920394729594683
BMu104,26,P,INI,Gait_Normal,2,L_LES,24.920216727891454
BMu104,26,P,INI,Gait_Normal,2,R_LES,24.47076861445209
BMu104,26,P,INI,Gait_Normal,3,L_LES,15.143988551946395
BMu104,26,P,INI,Gait_Normal,3,R_LES,19.962515526154817
BMu104,26,P,INI,Gait_Normal,4,L_LES,14.8880919439157
BMu104,26,P,INI,Gait_Normal,4,R_LES,22.449502632619186
BMu104,26,P,INI,Gait_Normal,5,L_LES,16.010057545223052
BMu104,26,P,INI,Gait_Normal,5,R_LES,28.393221127498343
BMu104,26,P,INI,Gait_Normal,6,L_LES,28.63122598539293
BMu104,26,P,INI,Gait_Normal,6,R_LES,35.581211976951984
BMu104,26,P,INI,Gait_Normal,7,L_LES,29.609435993772394
BMu104,26,P,INI,Gait_Normal,7,R_LES,84.78517525555206
BMu104,26,P,REL,Gait_Normal,1,L_LES,41.13821019534372
BMu104,26,P,REL,Gait_Normal,1,R_LES,14.796423504597179
BMu104,26,P,REL,Gait_Normal,2,L_LES,14.589289289600618
BMu104,26,P,REL,Gait_Normal,2,R_LES,19.53952438262775
BMu104,26,P,REL,Gait_Normal,3,L_LES,24.21078817996294
BMu104,26,P,REL,Gait_Normal,3,R_LES,23.785833249717427
BMu104,26,P,REL,Gait_Normal,4,L_LES,9.38134182893013
BMu104,26,P,REL,Gait_Normal,4,R_LES,24.59376364311961
BMu104,26,P,REL,Gait_Normal,5,L_LES,42.964025977159594
BMu104,26,P,REL,Gait_Normal,5,R_LES,25.92979063485335
BMu104,26,P,REL,Gait_Normal,6,L_LES,25.664831815308013
BMu104,26,P,REL,Gait_Normal,6,R_LES,66.41802108129507
BMu104,26,P,REL,Gait_Normal,7,L_LES,40.65847267480064
BMu104,26,P,REL,Gait_Normal,7,R_LES,41.930307432526845
BMu104,26,P,REL,Gait_Normal,8,L_LES,26.61477134529398
BMu104,26,P,REL,Gait_Normal,8,R_LES,18.344967866020266
BMu104,27,P,INI,Gait_Normal,1,L_LES,13.465592267688848
BMu104,27,P,INI,Gait_Normal,1,R_LES,11.957902912809928
BMu104,27,P,INI,Gait_Normal,2,L_LES,9.964108117572145
BMu104,27,P,INI,Gait_Normal,2,R_LES,11.584399898371007
BMu104,27,P,INI,Gait_Normal,3,L_LES,14.961690676185023
BMu104,27,P,INI,Gait_Normal,3,R_LES,11.594571601634764
BMu104,27,P,INI,Gait_Normal,4,L_LES,14.032177199364268
BMu104,27,P,INI,Gait_Normal,4,R_LES,11.39913017758958
BMu104,27,P,INI,Gait_Normal,5,L_LES,15.75170848129504
BMu104,27,P,INI,Gait_Normal,5,R_LES,15.301196594844232
BMu104,27,P,INI,Gait_Normal,6,L_LES,12.447827930694306
BMu104,27,P,INI,Gait_Normal,6,R_LES,11.159396093902405
BMu104,27,P,INI,Gait_Normal,7,L_LES,87.2998401019197
BMu104,27,P,INI,Gait_Normal,7,R_LES,154.68476527456636
BMu104,27,P,INI,Gait_Normal,8,L_LES,11.755006872733697
BMu104,27,P,INI,Gait_Normal,8,R_LES,13.637816181175513
BMu104,27,P,INI,Gait_Normal,9,L_LES,128.28601388953018
BMu104,27,P,INI,Gait_Normal,9,R_LES,153.35159040599473
BMu104,27,P,REL,Gait_Normal,1,L_LES,12.767117534519153
BMu104,27,P,REL,Gait_Normal,1,R_LES,19.814485107090775
BMu104,27,P,REL,Gait_Normal,2,L_LES,14.462907343565867
BMu104,27,P,REL,Gait_Normal,2,R_LES,14.75212683743327
BMu104,27,P,REL,Gait_Normal,3,L_LES,13.540520169943699
BMu104,27,P,REL,Gait_Normal,3,R_LES,14.215792035810688
BMu104,27,P,REL,Gait_Normal,4,L_LES,15.295750342298636
BMu104,27,P,REL,Gait_Normal,4,R_LES,17.770220964684384
BMu104,27,P,REL,Gait_Normal,5,L_LES,14.643979787092906
BMu104,27,P,REL,Gait_Normal,5,R_LES,10.847070827131683
BMu104,27,P,REL,Gait_Normal,6,L_LES,15.311997397001797
BMu104,27,P,REL,Gait_Normal,6,R_LES,17.13365776242235
BMu104,27,P,REL,Gait_Normal,7,L_LES,118.962951003998
BMu104,27,P,REL,Gait_Normal,7,R_LES,163.16269193961114
BMu104,28,P,INI,Gait_Normal,1,L_LES,15.698552909827546
BMu104,28,P,INI,Gait_Normal,1,R_LES,10.243043801026843
BMu104,28,P,INI,Gait_Normal,2,L_LES,17.379446515879362
BMu104,28,P,INI,Gait_Normal,2,R_LES,10.561123691777539
BMu104,28,P,INI,Gait_Normal,3,L_LES,16.21755202184068
BMu104,28,P,INI,Gait_Normal,3,R_LES,8.181771635701466
BMu104,28,P,INI,Gait_Normal,4,L_LES,11.317547448063719
BMu104,28,P,INI,Gait_Normal,4,R_LES,11.290233475990604
BMu104,28,P,INI,Gait_Normal,5,L_LES,17.117668794091305
BMu104,28,P,INI,Gait_Normal,5,R_LES,13.419002824084385
BMu104,28,P,INI,Gait_Normal,6,L_LES,84.08083020202147
BMu104,28,P,INI,Gait_Normal,6,R_LES,191.70779467341464
BMu104,28,P,INI,Gait_Normal,7,L_LES,14.299399155241959
BMu104,28,P,INI,Gait_Normal,7,R_LES,12.375861157686671
BMu104,28,P,INI,Gait_Normal,8,L_LES,84.43358044261441
BMu104,28,P,INI,Gait_Normal,8,R_LES,132.1935458164498
BMu104,28,P,REL,Gait_Normal,1,L_LES,13.191469120240672
BMu104,28,P,REL,Gait_Normal,1,R_LES,11.090399006883096
BMu104,28,P,REL,Gait_Normal,2,L_LES,10.119467366320158
BMu104,28,P,REL,Gait_Normal,2,R_LES,11.442805207785833
BMu104,28,P,REL,Gait_Normal,3,L_LES,8.555142963696445
BMu104,28,P,REL,Gait_Normal,3,R_LES,8.13703997222445
BMu104,28,P,REL,Gait_Normal,4,L_LES,11.003660593543653
BMu104,28,P,REL,Gait_Normal,4,R_LES,9.650603453316199
BMu104,28,P,REL,Gait_Normal,5,L_LES,10.460250986778817
BMu104,28,P,REL,Gait_Normal,5,R_LES,13.323108038628302
BMu104,28,P,REL,Gait_Normal,6,L_LES,11.514199317002635
BMu104,28,P,REL,Gait_Normal,6,R_LES,10.500726663536666
BMu104,28,P,REL,Gait_Normal,7,L_LES,130.8316373185618
BMu104,28,P,REL,Gait_Normal,7,R_LES,150.12459944337502
BMu104,28,P,REL,Gait_Normal,8,L_LES,6.997138704027683
BMu104,28,P,REL,Gait_Normal,8,R_LES,8.576194470171139
BMu104,28,P,REL,Gait_Normal,9,L_LES,107.65262387668803
BMu104,28,P,REL,Gait_Normal,9,R_LES,97.29705141404193
BMu104,29,P,INI,Gait_Normal,1,L_LES,12.402731962806573
BMu104,29,P,INI,Gait_Normal,1,R_LES,14.359523350818002
BMu104,29,P,INI,Gait_Normal,2,L_LES,11.829852568555296
BMu104,29,P,INI,Gait_Normal,2,R_LES,13.425864546080113
BMu104,29,P,INI,Gait_Normal,3,L_LES,19.587852657734096
BMu104,29,P,INI,Gait_Normal,3,R_LES,18.298744913446175
BMu104,29,P,INI,Gait_Normal,4,L_LES,15.744911743217216
BMu104,29,P,INI,Gait_Normal,4,R_LES,19.814648533893553
BMu104,29,P,INI,Gait_Normal,5,L_LES,17.976829189662787
BMu104,29,P,INI,Gait_Normal,5,R_LES,18.862815519389347
BMu104,29,P,INI,Gait_Normal,6,L_LES,18.856962521188045
BMu104,29,P,INI,Gait_Normal,6,R_LES,21.649151430995822
BMu104,29,P,INI,Gait_Normal,7,L_LES,101.2814000055822
BMu104,29,P,INI,Gait_Normal,7,R_LES,86.79231090939716
BMu104,29,P,REL,Gait_Normal,1,L_LES,15.874380627232972
BMu104,29,P,REL,Gait_Normal,1,R_LES,16.103791944435798
BMu104,29,P,REL,Gait_Normal,2,L_LES,15.09456333435203
BMu104,29,P,REL,Gait_Normal,2,R_LES,18.95943997281158
BMu104,29,P,REL,Gait_Normal,3,L_LES,17.136968787583974
BMu104,29,P,REL,Gait_Normal,3,R_LES,12.051430431849939
BMu104,29,P,REL,Gait_Normal,4,L_LES,17.676320879696217
BMu104,29,P,REL,Gait_Normal,4,R_LES,15.342010767214504
BMu104,29,P,REL,Gait_Normal,5,L_LES,14.937202656367377
BMu104,29,P,REL,Gait_Normal,5,R_LES,21.366882227947098
BMu104,29,P,REL,Gait_Normal,6,L_LES,103.01340926559217
BMu104,29,P,REL,Gait_Normal,6,R_LES,74.97385778669242
BMu104,30,P,INI,Gait_Normal,1,L_LES,23.141305648409915
BMu104,30,P,INI,Gait_Normal,1,R_LES,31.867714691884764
BMu104,30,P,INI,Gait_Normal,2,L_LES,28.36122136790936
BMu104,30,P,INI,Gait_Normal,2,R_LES,43.25180645449433
BMu104,30,P,INI,Gait_Normal,3,L_LES,22.216185841694685
BMu104,30,P,INI,Gait_Normal,3,R_LES,33.42679361714403
BMu104,30,P,INI,Gait_Normal,4,L_LES,26.27313871337734
BMu104,30,P,INI,Gait_Normal,4,R_LES,49.013708913728344
BMu104,30,P,INI,Gait_Normal,5,L_LES,33.221497153543794
BMu104,30,P,INI,Gait_Normal,5,R_LES,37.98528872982554
BMu104,30,P,INI,Gait_Normal,6,L_LES,24.45289090040381
BMu104,30,P,INI,Gait_Normal,6,R_LES,36.58367401193538
BMu104,30,P,INI,Gait_Normal,7,L_LES,78.926374398427
BMu104,30,P,INI,Gait_Normal,7,R_LES,38.86930596483724
BMu104,30,P,INI,Gait_Normal,8,L_LES,56.31316382164038
BMu104,30,P,INI,Gait_Normal,8,R_LES,28.690334348882704
BMu104,30,P,INI,Gait_Normal,9,L_LES,65.21611200082847
BMu104,30,P,INI,Gait_Normal,9,R_LES,42.7339915192996
BMu104,30,P,REL,Gait_Normal,1,L_LES,24.098351823217733
BMu104,30,P,REL,Gait_Normal,1,R_LES,44.081623141683124
BMu104,30,P,REL,Gait_Normal,2,L_LES,23.659441187968167
BMu104,30,P,REL,Gait_Normal,2,R_LES,69.73988419999633
BMu104,30,P,REL,Gait_Normal,3,L_LES,31.679823402466766
BMu104,30,P,REL,Gait_Normal,3,R_LES,49.46062201768571
BMu104,30,P,REL,Gait_Normal,4,L_LES,36.029881759337364
BMu104,30,P,REL,Gait_Normal,4,R_LES,52.10458687928333
BMu104,30,P,REL,Gait_Normal,5,L_LES,36.15387692142211
BMu104,30,P,REL,Gait_Normal,5,R_LES,42.854500439062825
BMu104,30,P,REL,Gait_Normal,6,L_LES,72.12841412823748
BMu104,30,P,REL,Gait_Normal,6,R_LES,38.72648880545266
BMu104,30,P,REL,Gait_Normal,7,L_LES,34.96975962702568
BMu104,30,P,REL,Gait_Normal,7,R_LES,37.44680916545947
BMu104,30,P,REL,Gait_Normal,8,L_LES,48.60590645012096
BMu104,30,P,REL,Gait_Normal,8,R_LES,30.46493015560518
BMu104,30,P,REL,Gait_Normal,9,L_LES,23.00073596322236
BMu104,30,P,REL,Gait_Normal,9,R_LES,27.69213107188765
BMu104,32,P,INI,Gait_Normal,1,L_LES,12.489221070086924
BMu104,32,P,INI,Gait_Normal,1,R_LES,16.675401226194108
BMu104,32,P,INI,Gait_Normal,2,L_LES,12.464662650613084
BMu104,32,P,INI,Gait_Normal,2,R_LES,23.0616155444047
BMu104,32,P,INI,Gait_Normal,3,L_LES,13.10849363772617
BMu104,32,P,INI,Gait_Normal,3,R_LES,18.198387766359716
BMu104,32,P,INI,Gait_Normal,4,L_LES,13.806843120909804
BMu104,32,P,INI,Gait_Normal,4,R_LES,13.146982539455124
BMu104,32,P,INI,Gait_Normal,5,L_LES,12.307346364993434
BMu104,32,P,INI,Gait_Normal,5,R_LES,16.355232977192948
BMu104,32,P,INI,Gait_Normal,6,L_LES,17.46329265586346
BMu104,32,P,INI,Gait_Normal,6,R_LES,21.908234760345344
BMu104,32,P,INI,Gait_Normal,7,L_LES,131.08393169893387
BMu104,32,P,INI,Gait_Normal,7,R_LES,108.42459307172933
BMu104,32,P,REL,Gait_Normal,1,L_LES,11.45159819709883
BMu104,32,P,REL,Gait_Normal,1,R_LES,14.924940352183567
BMu104,32,P,REL,Gait_Normal,2,L_LES,6.218792508563217
BMu104,32,P,REL,Gait_Normal,2,R_LES,3.9153477222111395
BMu104,32,P,REL,Gait_Normal,3,L_LES,15.805193752844232
BMu104,32,P,REL,Gait_Normal,3,R_LES,8.356386428979047
BMu104,32,P,REL,Gait_Normal,4,L_LES,14.384174062649766
BMu104,32,P,REL,Gait_Normal,4,R_LES,6.908658257650824
BMu104,32,P,REL,Gait_Normal,5,L_LES,17.286254525741956
BMu104,32,P,REL,Gait_Normal,5,R_LES,13.833348384972895
BMu104,32,P,REL,Gait_Normal,6,L_LES,89.92186531343174
BMu104,32,P,REL,Gait_Normal,6,R_LES,97.92689546614105
BMu104,32,P,REL,Gait_Normal,7,L_LES,16.559885984973945
BMu104,32,P,REL,Gait_Normal,7,R_LES,11.278852530026104
BMu104,32,P,REL,Gait_Normal,8,L_LES,78.1121229796062
BMu104,32,P,REL,Gait_Normal,8,R_LES,116.83482747545261
BMu104,33,P,INI,Gait_Normal,1,L_LES,17.763154509743906
BMu104,33,P,INI,Gait_Normal,1,R_LES,16.330236366160264
BMu104,33,P,INI,Gait_Normal,2,L_LES,17.679308253769797
BMu104,33,P,INI,Gait_Normal,2,R_LES,13.744837507372488
BMu104,33,P,INI,Gait_Normal,3,L_LES,15.33047698701687
BMu104,33,P,INI,Gait_Normal,3,R_LES,14.772148124191729
BMu104,33,P,INI,Gait_Normal,4,L_LES,20.430788590244212
BMu104,33,P,INI,Gait_Normal,4,R_LES,16.796748220420604
BMu104,33,P,INI,Gait_Normal,5,L_LES,18.159410845740624
BMu104,33,P,INI,Gait_Normal,5,R_LES,20.476375000997102
BMu104,33,P,INI,Gait_Normal,6,L_LES,75.8903844586132
BMu104,33,P,INI,Gait_Normal,6,R_LES,48.8985419804647
BMu104,33,P,REL,Gait_Normal,1,L_LES,25.88207721510353
BMu104,33,P,REL,Gait_Normal,1,R_LES,24.441490563428857
BMu104,33,P,REL,Gait_Normal,2,L_LES,32.32472685434984
BMu104,33,P,REL,Gait_Normal,2,R_LES,28.140601972861752
BMu104,33,P,REL,Gait_Normal,3,L_LES,21.890479472173688
BMu104,33,P,REL,Gait_Normal,3,R_LES,19.483965817758477
BMu104,33,P,REL,Gait_Normal,4,L_LES,30.039140909459853
BMu104,33,P,REL,Gait_Normal,4,R_LES,22.28612608484797
BMu104,33,P,REL,Gait_Normal,5,L_LES,21.69562777838282
BMu104,33,P,REL,Gait_Normal,5,R_LES,23.67676756891354
BMu104,33,P,REL,Gait_Normal,6,L_LES,95.31294601712226
BMu104,33,P,REL,Gait_Normal,6,R_LES,73.97701082955633
BMu104,33,P,REL,Gait_Normal,7,L_LES,17.223741819783736
BMu104,33,P,REL,Gait_Normal,7,R_LES,15.665361466570133
BMu104,33,P,REL,Gait_Normal,8,L_LES,56.64808031383434
BMu104,33,P,REL,Gait_Normal,8,R_LES,60.34025522301698
BMu104,34,P,INI,Gait_Normal,1,L_LES,20.353400007498887
BMu104,34,P,INI,Gait_Normal,1,R_LES,21.695414529124356
BMu104,34,P,INI,Gait_Normal,2,L_LES,24.668634725976133
BMu104,34,P,INI,Gait_Normal,2,R_LES,26.90951893351381
BMu104,34,P,INI,Gait_Normal,3,L_LES,19.745102575406612
BMu104,34,P,INI,Gait_Normal,3,R_LES,27.91362551686386
BMu104,34,P,INI,Gait_Normal,4,L_LES,32.21924395390123
BMu104,34,P,INI,Gait_Normal,4,R_LES,27.765825258930036
BMu104,34,P,INI,Gait_Normal,5,L_LES,22.76407723131337
BMu104,34,P,INI,Gait_Normal,5,R_LES,27.373638059778322
BMu104,34,P,INI,Gait_Normal,6,L_LES,22.12670557029016
BMu104,34,P,INI,Gait_Normal,6,R_LES,24.481581774888195
BMu104,34,P,INI,Gait_Normal,7,L_LES,69.23364989729941
BMu104,34,P,INI,Gait_Normal,7,R_LES,83.10713976930334
BMu104,34,P,INI,Gait_Normal,8,L_LES,16.84685339710813
BMu104,34,P,INI,Gait_Normal,8,R_LES,34.229196612486895
BMu104,34,P,REL,Gait_Normal,1,L_LES,13.255797577986748
BMu104,34,P,REL,Gait_Normal,1,R_LES,12.32686446625268
BMu104,34,P,REL,Gait_Normal,2,L_LES,12.407895511610457
BMu104,34,P,REL,Gait_Normal,2,R_LES,17.16921682465502
BMu104,34,P,REL,Gait_Normal,3,L_LES,17.027718364375602
BMu104,34,P,REL,Gait_Normal,3,R_LES,16.646302457854294
BMu104,34,P,REL,Gait_Normal,4,L_LES,14.225748151778424
BMu104,34,P,REL,Gait_Normal,4,R_LES,17.286963766288107
BMu104,34,P,REL,Gait_Normal,5,L_LES,26.315915429754902
BMu104,34,P,REL,Gait_Normal,5,R_LES,15.343055217926763
BMu104,34,P,REL,Gait_Normal,6,L_LES,15.990469917322867
BMu104,34,P,REL,Gait_Normal,6,R_LES,14.95177342041692
BMu104,34,P,REL,Gait_Normal,7,L_LES,87.15182803405013
BMu104,34,P,REL,Gait_Normal,7,R_LES,84.10762839269496
BMu104,35,C,INI,Gait_Normal,1,L_LES,9.988984374482486
BMu104,35,C,INI,Gait_Normal,1,R_LES,8.723907812264429
BMu104,35,C,INI,Gait_Normal,2,L_LES,88.5924071845283
BMu104,35,C,INI,Gait_Normal,2,R_LES,75.72872989335853
BMu104,35,C,INI,Gait_Normal,3,L_LES,10.044419610762096
BMu104,35,C,INI,Gait_Normal,3,R_LES,9.484378436908251
BMu104,35,C,INI,Gait_Normal,4,L_LES,13.029951123858423
BMu104,35,C,INI,Gait_Normal,4,R_LES,14.572880976249962
BMu104,35,C,INI,Gait_Normal,5,L_LES,9.841734153502614
BMu104,35,C,INI,Gait_Normal,5,R_LES,11.835028240101845
BMu104,35,C,INI,Gait_Normal,6,L_LES,11.635005009539345
BMu104,35,C,INI,Gait_Normal,6,R_LES,14.866427308115334
BMu104,35,C,INI,Gait_Normal,7,L_LES,123.20588944229272
BMu104,35,C,INI,Gait_Normal,7,R_LES,85.2344366601418
BMu104,35,C,INI,Gait_Normal,8,L_LES,7.311806870816442
BMu104,35,C,INI,Gait_Normal,8,R_LES,12.864842202405685
BMu104,35,C,INI,Gait_Normal,9,L_LES,73.54929920275006
BMu104,35,C,INI,Gait_Normal,9,R_LES,76.08995285417622
BMu104,35,C,INI,Gait_Normal,10,L_LES,5.297441538190948
BMu104,35,C,INI,Gait_Normal,10,R_LES,8.245036111484238
BMu104,35,C,REL,Gait_Normal,1,L_LES,13.071308887457466
BMu104,35,C,REL,Gait_Normal,1,R_LES,14.224552670843549
BMu104,35,C,REL,Gait_Normal,2,L_LES,14.42756141653703
BMu104,35,C,REL,Gait_Normal,2,R_LES,11.551557573559382
BMu104,35,C,REL,Gait_Normal,3,L_LES,11.294583572158743
BMu104,35,C,REL,Gait_Normal,3,R_LES,10.939893023037262
BMu104,35,C,REL,Gait_Normal,4,L_LES,10.606084922531581
BMu104,35,C,REL,Gait_Normal,4,R_LES,11.064117759774536
BMu104,35,C,REL,Gait_Normal,5,L_LES,10.344426287519997
BMu104,35,C,REL,Gait_Normal,5,R_LES,9.419106322036168
BMu104,35,C,REL,Gait_Normal,6,L_LES,80.75435781118613
BMu104,35,C,REL,Gait_Normal,6,R_LES,86.32877283143813
BMu104,36,P,INI,Gait_Normal,1,L_LES,15.872984223792516
BMu104,36,P,INI,Gait_Normal,1,R_LES,10.181411796398322
BMu104,36,P,INI,Gait_Normal,2,L_LES,17.148607282551144
BMu104,36,P,INI,Gait_Normal,2,R_LES,13.926815929953063
BMu104,36,P,INI,Gait_Normal,3,L_LES,14.401529013319688
BMu104,36,P,INI,Gait_Normal,3,R_LES,11.231076564121304
BMu104,36,P,INI,Gait_Normal,4,L_LES,13.217749098278066
BMu104,36,P,INI,Gait_Normal,4,R_LES,13.554724203533715
BMu104,36,P,INI,Gait_Normal,5,L_LES,11.905430614623905
BMu104,36,P,INI,Gait_Normal,5,R_LES,11.323274996738123
BMu104,36,P,INI,Gait_Normal,6,L_LES,68.33257064762257
BMu104,36,P,INI,Gait_Normal,6,R_LES,148.838810592585
BMu104,36,P,INI,Gait_Normal,7,L_LES,12.928347203656866
BMu104,36,P,INI,Gait_Normal,7,R_LES,9.94334807728732
BMu104,36,P,INI,Gait_Normal,8,L_LES,50.32722717047935
BMu104,36,P,INI,Gait_Normal,8,R_LES,71.36363857629631
BMu104,36,P,REL,Gait_Normal,1,L_LES,10.179222761105494
BMu104,36,P,REL,Gait_Normal,1,R_LES,12.104114282003867
BMu104,36,P,REL,Gait_Normal,2,L_LES,8.768002883100634
BMu104,36,P,REL,Gait_Normal,2,R_LES,17.25618763834212
BMu104,36,P,REL,Gait_Normal,3,L_LES,10.788738462015223
BMu104,36,P,REL,Gait_Normal,3,R_LES,13.130736030150949
BMu104,36,P,REL,Gait_Normal,4,L_LES,10.803727652919974
BMu104,36,P,REL,Gait_Normal,4,R_LES,13.32420375739519
BMu104,36,P,REL,Gait_Normal,5,L_LES,8.978129481520227
BMu104,36,P,REL,Gait_Normal,5,R_LES,11.61024020611784
BMu104,36,P,REL,Gait_Normal,6,L_LES,78.71750408880678
BMu104,36,P,REL,Gait_Normal,6,R_LES,80.4887656227494
BMu104,38,C,INI,Gait_Normal,1,L_LES,8.811887821668025
BMu104,38,C,INI,Gait_Normal,1,R_LES,24.634897670343513
BMu104,38,C,INI,Gait_Normal,2,L_LES,30.54830652551739
BMu104,38,C,INI,Gait_Normal,2,R_LES,39.72746450790539
BMu104,38,C,INI,Gait_Normal,3,L_LES,19.670809934043056
BMu104,38,C,INI,Gait_Normal,3,R_LES,24.01933127825116
BMu104,38,C,INI,Gait_Normal,4,L_LES,19.36527593688411
BMu104,38,C,INI,Gait_Normal,4,R_LES,22.79718142690479
BMu104,38,C,INI,Gait_Normal,5,L_LES,20.403171198414523
BMu104,38,C,INI,Gait_Normal,5,R_LES,20.990451463530263
BMu104,38,C,INI,Gait_Normal,6,L_LES,28.90367498014369
BMu104,38,C,INI,Gait_Normal,6,R_LES,27.56819543463098
BMu104,38,C,REL,Gait_Normal,1,L_LES,2.283466179780567
BMu104,38,C,REL,Gait_Normal,1,R_LES,12.33750594427395
BMu104,38,C,REL,Gait_Normal,2,L_LES,3.3048616275325315
BMu104,38,C,REL,Gait_Normal,2,R_LES,22.533580590450416
BMu104,38,C,REL,Gait_Normal,3,L_LES,4.8245490441547805
BMu104,38,C,REL,Gait_Normal,3,R_LES,17.788820815317255
BMu104,38,C,REL,Gait_Normal,4,L_LES,4.61411767498217
BMu104,38,C,REL,Gait_Normal,4,R_LES,14.947268150843348
BMu104,38,C,REL,Gait_Normal,5,L_LES,4.4302629784710845
BMu104,38,C,REL,Gait_Normal,5,R_LES,11.759927559603849
BMu104,38,C,REL,Gait_Normal,6,L_LES,3.4716536627677126
BMu104,38,C,REL,Gait_Normal,6,R_LES,13.349386666440058
BMu104,38,C,REL,Gait_Normal,7,L_LES,63.66260454343327
BMu104,38,C,REL,Gait_Normal,7,R_LES,72.16765545228353
BMu104,39,C,INI,Gait_Normal,1,L_LES,10.924801095091803
BMu104,39,C,INI,Gait_Normal,1,R_LES,10.285267620754011
BMu104,39,C,INI,Gait_Normal,2,L_LES,7.424719048144891
BMu104,39,C,INI,Gait_Normal,2,R_LES,7.610174844451991
BMu104,39,C,INI,Gait_Normal,3,L_LES,2.22808523817528
BMu104,39,C,INI,Gait_Normal,3,R_LES,13.065240587702833
BMu104,39,C,INI,Gait_Normal,4,L_LES,2.8494315806246533
BMu104,39,C,INI,Gait_Normal,4,R_LES,11.044852690959832
BMu104,39,C,INI,Gait_Normal,5,L_LES,5.521747791774042
BMu104,39,C,INI,Gait_Normal,5,R_LES,9.29772275272456
BMu104,39,C,INI,Gait_Normal,6,L_LES,70.75588870230604
BMu104,39,C,INI,Gait_Normal,6,R_LES,75.73233284893237
BMu104,39,C,REL,Gait_Normal,1,L_LES,20.42447471726507
BMu104,39,C,REL,Gait_Normal,1,R_LES,30.76882232269824
BMu104,39,C,REL,Gait_Normal,2,L_LES,10.702636427314067
BMu104,39,C,REL,Gait_Normal,2,R_LES,31.748092768497717
BMu104,39,C,REL,Gait_Normal,3,L_LES,8.535104320378565
BMu104,39,C,REL,Gait_Normal,3,R_LES,2.277180171047249
BMu104,39,C,REL,Gait_Normal,4,L_LES,20.68053982427919
BMu104,39,C,REL,Gait_Normal,4,R_LES,6.603033641276559
BMu104,40,C,INI,Gait_Normal,1,L_LES,12.609019111674069
BMu104,40,C,INI,Gait_Normal,1,R_LES,6.670322585960657
BMu104,40,C,INI,Gait_Normal,2,L_LES,7.148974298342107
BMu104,40,C,INI,Gait_Normal,2,R_LES,7.434405203758336
BMu104,40,C,INI,Gait_Normal,3,L_LES,10.51653252526502
BMu104,40,C,INI,Gait_Normal,3,R_LES,6.133428423727879
BMu104,40,C,INI,Gait_Normal,4,L_LES,16.876610694714067
BMu104,40,C,INI,Gait_Normal,4,R_LES,8.259450200229498
BMu104,40,C,INI,Gait_Normal,5,L_LES,13.068621378328384
BMu104,40,C,INI,Gait_Normal,5,R_LES,6.208405233781957
BMu104,40,C,INI,Gait_Normal,6,L_LES,78.66342856359853
BMu104,40,C,INI,Gait_Normal,6,R_LES,109.47244839072924
BMu104,40,C,REL,Gait_Normal,1,L_LES,17.713497317980025
BMu104,40,C,REL,Gait_Normal,1,R_LES,11.776400661310209
BMu104,40,C,REL,Gait_Normal,2,L_LES,15.100863154326088
BMu104,40,C,REL,Gait_Normal,2,R_LES,12.189714838147784
BMu104,40,C,REL,Gait_Normal,3,L_LES,17.437131042005785
BMu104,40,C,REL,Gait_Normal,3,R_LES,13.94863736824761
BMu104,40,C,REL,Gait_Normal,4,L_LES,17.741664699356072
BMu104,40,C,REL,Gait_Normal,4,R_LES,8.361931418881289
BMu104,40,C,REL,Gait_Normal,5,L_LES,20.731688050243367
BMu104,40,C,REL,Gait_Normal,5,R_LES,11.072362295300868
BMu104,40,C,REL,Gait_Normal,6,L_LES,56.131868463815614
BMu104,40,C,REL,Gait_Normal,6,R_LES,75.34868059584487
BMu104,41,P,INI,Gait_Normal,1,L_LES,14.029568355374384
BMu104,41,P,INI,Gait_Normal,1,R_LES,13.669660702816163
BMu104,41,P,INI,Gait_Normal,2,L_LES,13.57314768741616
BMu104,41,P,INI,Gait_Normal,2,R_LES,10.429965822919252
BMu104,41,P,INI,Gait_Normal,3,L_LES,13.524375347443595
BMu104,41,P,INI,Gait_Normal,3,R_LES,10.23224694731688
BMu104,41,P,INI,Gait_Normal,4,L_LES,13.755887639562204
BMu104,41,P,INI,Gait_Normal,4,R_LES,13.564501229411341
BMu104,41,P,INI,Gait_Normal,5,L_LES,11.699348154498349
BMu104,41,P,INI,Gait_Normal,5,R_LES,8.042504857435908
BMu104,41,P,INI,Gait_Normal,6,L_LES,57.095664925412436
BMu104,41,P,INI,Gait_Normal,6,R_LES,104.31993644179894
BMu104,41,P,REL,Gait_Normal,1,L_LES,22.00882832362999
BMu104,41,P,REL,Gait_Normal,1,R_LES,7.67880988281196
BMu104,41,P,REL,Gait_Normal,2,L_LES,22.584886732912057
BMu104,41,P,REL,Gait_Normal,2,R_LES,12.55522916298158
BMu104,41,P,REL,Gait_Normal,3,L_LES,18.346570369182977
BMu104,41,P,REL,Gait_Normal,3,R_LES,12.820122577317811
BMu104,41,P,REL,Gait_Normal,4,L_LES,21.051822620266616
BMu104,41,P,REL,Gait_Normal,4,R_LES,12.773237006721963
BMu104,41,P,REL,Gait_Normal,5,L_LES,18.818392394515254
BMu104,41,P,REL,Gait_Normal,5,R_LES,12.975862040464714
BMu104,41,P,REL,Gait_Normal,6,L_LES,16.922164615868635
BMu104,41,P,REL,Gait_Normal,6,R_LES,6.165201525944003
BMu104,41,P,REL,Gait_Normal,7,L_LES,90.50214461114173
BMu104,41,P,REL,Gait_Normal,7,R_LES,111.54713172510012
BMu104,42,P,INI,Gait_Normal,1,L_LES,3.5563319705971743
BMu104,42,P,INI,Gait_Normal,1,R_LES,15.195127697373511
BMu104,42,P,INI,Gait_Normal,2,L_LES,4.873957941918573
BMu104,42,P,INI,Gait_Normal,2,R_LES,20.15100037536828
BMu104,42,P,INI,Gait_Normal,3,L_LES,4.3580785817866365
BMu104,42,P,INI,Gait_Normal,3,R_LES,17.61837287772216
BMu104,42,P,INI,Gait_Normal,4,L_LES,5.663163095663659
BMu104,42,P,INI,Gait_Normal,4,R_LES,17.81120723091808
BMu104,42,P,INI,Gait_Normal,5,L_LES,5.651286168762953
BMu104,42,P,INI,Gait_Normal,5,R_LES,17.808618381406685
BMu104,42,P,INI,Gait_Normal,6,L_LES,4.915748276374564
BMu104,42,P,INI,Gait_Normal,6,R_LES,10.704874890175628
BMu104,42,P,REL,Gait_Normal,1,L_LES,21.48622994453229
BMu104,42,P,REL,Gait_Normal,1,R_LES,14.022336080353575
BMu104,42,P,REL,Gait_Normal,2,L_LES,11.12037836005886
BMu104,42,P,REL,Gait_Normal,2,R_LES,12.67678978621014
BMu104,42,P,REL,Gait_Normal,3,L_LES,12.680994553117028
BMu104,42,P,REL,Gait_Normal,3,R_LES,13.39786044606263
BMu104,42,P,REL,Gait_Normal,4,L_LES,16.128211425406697
BMu104,42,P,REL,Gait_Normal,4,R_LES,11.402401432544433
BMu104,42,P,REL,Gait_Normal,5,L_LES,14.436794401301102
BMu104,42,P,REL,Gait_Normal,5,R_LES,13.213302940923613
BMu104,42,P,REL,Gait_Normal,6,L_LES,36.63513742701148
BMu104,42,P,REL,Gait_Normal,6,R_LES,72.74517971566414
BMu104,43,P,INI,Gait_Normal,1,L_LES,5.1873309612083585
BMu104,43,P,INI,Gait_Normal,1,R_LES,11.90045229257734
BMu104,43,P,INI,Gait_Normal,2,L_LES,9.764953238354762
BMu104,43,P,INI,Gait_Normal,2,R_LES,10.309686550818938
BMu104,43,P,INI,Gait_Normal,3,L_LES,11.977107508726924
BMu104,43,P,INI,Gait_Normal,3,R_LES,11.83879827142221
BMu104,43,P,INI,Gait_Normal,4,L_LES,7.613619706678107
BMu104,43,P,INI,Gait_Normal,4,R_LES,9.610517139274428
BMu104,43,P,INI,Gait_Normal,5,L_LES,6.117493026737432
BMu104,43,P,INI,Gait_Normal,5,R_LES,8.98790123144694
BMu104,43,P,INI,Gait_Normal,6,L_LES,124.87576038369959
BMu104,43,P,INI,Gait_Normal,6,R_LES,147.01634297854736
BMu104,43,P,INI,Gait_Normal,7,L_LES,5.6180393914103055
BMu104,43,P,INI,Gait_Normal,7,R_LES,10.215124629201432
BMu104,43,P,INI,Gait_Normal,8,L_LES,157.45613453171887
BMu104,43,P,INI,Gait_Normal,8,R_LES,178.41136940660277
BMu104,43,P,REL,Gait_Normal,1,L_LES,13.152491924847228
BMu104,43,P,REL,Gait_Normal,1,R_LES,10.131027916648097
BMu104,43,P,REL,Gait_Normal,2,L_LES,13.077949826015992
BMu104,43,P,REL,Gait_Normal,2,R_LES,15.533201418437114
BMu104,43,P,REL,Gait_Normal,3,L_LES,16.789487015808483
BMu104,43,P,REL,Gait_Normal,3,R_LES,11.777580196409627
BMu104,43,P,REL,Gait_Normal,4,L_LES,11.700713554849374
BMu104,43,P,REL,Gait_Normal,4,R_LES,13.835304363976718
BMu104,43,P,REL,Gait_Normal,5,L_LES,17.013368522184983
BMu104,43,P,REL,Gait_Normal,5,R_LES,9.814256404702043
BMu104,43,P,REL,Gait_Normal,6,L_LES,13.145415843473014
BMu104,43,P,REL,Gait_Normal,6,R_LES,8.9480567289505
BMu104,43,P,REL,Gait_Normal,7,L_LES,95.79488971933296
BMu104,43,P,REL,Gait_Normal,7,R_LES,136.51148744758115
BMu104,44,C,INI,Gait_Normal,1,L_LES,7.350123627333972
BMu104,44,C,INI,Gait_Normal,1,R_LES,6.779083270006842
BMu104,44,C,INI,Gait_Normal,2,L_LES,6.501643438859739
BMu104,44,C,INI,Gait_Normal,2,R_LES,5.550818623551923
BMu104,44,C,INI,Gait_Normal,3,L_LES,12.710849694954529
BMu104,44,C,INI,Gait_Normal,3,R_LES,11.57774020188546
BMu104,44,C,INI,Gait_Normal,4,L_LES,9.851855239587184
BMu104,44,C,INI,Gait_Normal,4,R_LES,8.300502023434003
BMu104,44,C,INI,Gait_Normal,5,L_LES,7.360757759747882
BMu104,44,C,INI,Gait_Normal,5,R_LES,6.795487872150481
BMu104,44,C,INI,Gait_Normal,6,L_LES,6.764278257795408
BMu104,44,C,INI,Gait_Normal,6,R_LES,6.669710925454477
BMu104,44,C,INI,Gait_Normal,7,L_LES,128.33385729189223
BMu104,44,C,INI,Gait_Normal,7,R_LES,158.82931200300703
BMu104,44,C,REL,Gait_Normal,1,L_LES,9.702310684706553
BMu104,44,C,REL,Gait_Normal,1,R_LES,5.881166014071275
BMu104,44,C,REL,Gait_Normal,2,L_LES,4.812634689743822
BMu104,44,C,REL,Gait_Normal,2,R_LES,5.17447715100211
BMu104,44,C,REL,Gait_Normal,3,L_LES,9.577343064848064
BMu104,44,C,REL,Gait_Normal,3,R_LES,5.510008225717161
BMu104,44,C,REL,Gait_Normal,4,L_LES,8.224299493718885
BMu104,44,C,REL,Gait_Normal,4,R_LES,3.861061245776496
BMu104,44,C,REL,Gait_Normal,5,L_LES,9.173001958126553
BMu104,44,C,REL,Gait_Normal,5,R_LES,9.76938889082129
BMu104,44,C,REL,Gait_Normal,6,L_LES,258.9012259866829
BMu104,44,C,REL,Gait_Normal,6,R_LES,134.10242236097358
BMu104,44,C,REL,Gait_Normal,7,L_LES,4.257880717680899
BMu104,44,C,REL,Gait_Normal,7,R_LES,5.003014856852534
BMu104,45,P,INI,Gait_Normal,1,L_LES,9.945587777167233
BMu104,45,P,INI,Gait_Normal,1,R_LES,12.513449073947088
BMu104,45,P,INI,Gait_Normal,2,L_LES,11.001661121587373
BMu104,45,P,INI,Gait_Normal,2,R_LES,15.496808578984586
BMu104,45,P,INI,Gait_Normal,3,L_LES,9.727734890226985
BMu104,45,P,INI,Gait_Normal,3,R_LES,10.52969714516348
BMu104,45,P,INI,Gait_Normal,4,L_LES,10.312976166188143
BMu104,45,P,INI,Gait_Normal,4,R_LES,12.103429069475407
BMu104,45,P,INI,Gait_Normal,5,L_LES,10.675390054497784
BMu104,45,P,INI,Gait_Normal,5,R_LES,21.972097701487503
BMu104,45,P,INI,Gait_Normal,6,L_LES,94.99193110734231
BMu104,45,P,INI,Gait_Normal,6,R_LES,38.18758161133036
BMu104,45,P,INI,Gait_Normal,7,L_LES,14.37376435336552
BMu104,45,P,INI,Gait_Normal,7,R_LES,11.655719304546292
BMu104,45,P,INI,Gait_Normal,8,L_LES,92.57510347334997
BMu104,45,P,INI,Gait_Normal,8,R_LES,50.594467870021425
BMu104,45,P,REL,Gait_Normal,1,L_LES,4.314422090085502
BMu104,45,P,REL,Gait_Normal,1,R_LES,5.507159718077304
BMu104,45,P,REL,Gait_Normal,2,L_LES,5.316337607411857
BMu104,45,P,REL,Gait_Normal,2,R_LES,9.714451892602415
BMu104,45,P,REL,Gait_Normal,3,L_LES,5.42658168373379
BMu104,45,P,REL,Gait_Normal,3,R_LES,8.974795097309633
BMu104,45,P,REL,Gait_Normal,4,L_LES,5.4721621147145285
BMu104,45,P,REL,Gait_Normal,4,R_LES,8.19323691461802
BMu104,45,P,REL,Gait_Normal,5,L_LES,7.6731913356570605
BMu104,45,P,REL,Gait_Normal,5,R_LES,5.24652909621202
BMu104,45,P,REL,Gait_Normal,6,L_LES,107.50689412238744
BMu104,45,P,REL,Gait_Normal,6,R_LES,206.56307801002336
BMu104,46,C,INI,Gait_Normal,1,L_LES,8.029746388708464
BMu104,46,C,INI,Gait_Normal,1,R_LES,6.300392881754682
BMu104,46,C,INI,Gait_Normal,2,L_LES,5.687306990430989
BMu104,46,C,INI,Gait_Normal,2,R_LES,7.087339442136697
BMu104,46,C,INI,Gait_Normal,3,L_LES,5.649983883604309
BMu104,46,C,INI,Gait_Normal,3,R_LES,8.715540592256183
BMu104,46,C,INI,Gait_Normal,4,L_LES,6.009727126162343
BMu104,46,C,INI,Gait_Normal,4,R_LES,8.344685307301898
BMu104,46,C,INI,Gait_Normal,5,L_LES,7.421595395143386
BMu104,46,C,INI,Gait_Normal,5,R_LES,8.599136222615453
BMu104,46,C,INI,Gait_Normal,6,L_LES,176.18981985702703
BMu104,46,C,INI,Gait_Normal,6,R_LES,147.45067694010172
BMu104,46,C,REL,Gait_Normal,1,L_LES,8.888284709620127
BMu104,46,C,REL,Gait_Normal,1,R_LES,8.995826694047361
BMu104,46,C,REL,Gait_Normal,2,L_LES,5.879489851048129
BMu104,46,C,REL,Gait_Normal,2,R_LES,12.66814913806013
BMu104,46,C,REL,Gait_Normal,3,L_LES,6.867568701232784
BMu104,46,C,REL,Gait_Normal,3,R_LES,13.288991468736413
BMu104,46,C,REL,Gait_Normal,4,L_LES,7.653199467617023
BMu104,46,C,REL,Gait_Normal,4,R_LES,8.141412565548965
BMu104,46,C,REL,Gait_Normal,5,L_LES,7.517368708132682
BMu104,46,C,REL,Gait_Normal,5,R_LES,12.732133357505987
BMu104,46,C,REL,Gait_Normal,6,L_LES,165.36657640293708
BMu104,46,C,REL,Gait_Normal,6,R_LES,91.003359123618
BMu104,47,P,INI,Gait_Normal,1,L_LES,12.126970288673924
BMu104,47,P,INI,Gait_Normal,1,R_LES,11.339803330280716
BMu104,47,P,INI,Gait_Normal,2,L_LES,10.89579686158626
BMu104,47,P,INI,Gait_Normal,2,R_LES,7.745630883272678
BMu104,47,P,INI,Gait_Normal,3,L_LES,13.837176397905967
BMu104,47,P,INI,Gait_Normal,3,R_LES,10.152119107541827
BMu104,47,P,INI,Gait_Normal,4,L_LES,11.362094682653677
BMu104,47,P,INI,Gait_Normal,4,R_LES,9.632151889518566
BMu104,47,P,INI,Gait_Normal,5,L_LES,7.658408816733223
BMu104,47,P,INI,Gait_Normal,5,R_LES,10.317646176643162
BMu104,47,P,INI,Gait_Normal,6,L_LES,64.3641720469238
BMu104,47,P,INI,Gait_Normal,6,R_LES,156.14857423170216
BMu104,47,P,REL,Gait_Normal,1,L_LES,14.639484656740674
BMu104,47,P,REL,Gait_Normal,1,R_LES,11.106129922260124
BMu104,47,P,REL,Gait_Normal,2,L_LES,15.718814644543015
BMu104,47,P,REL,Gait_Normal,2,R_LES,13.496568441927845
BMu104,47,P,REL,Gait_Normal,3,L_LES,13.133207942287179
BMu104,47,P,REL,Gait_Normal,3,R_LES,10.14454725828935
BMu104,47,P,REL,Gait_Normal,4,L_LES,13.152821693414177
BMu104,47,P,REL,Gait_Normal,4,R_LES,12.659588882233201
BMu104,47,P,REL,Gait_Normal,5,L_LES,11.112867234016237
BMu104,47,P,REL,Gait_Normal,5,R_LES,12.120972414265736
BMu104,47,P,REL,Gait_Normal,6,L_LES,155.03455306697623
BMu104,47,P,REL,Gait_Normal,6,R_LES,132.0359498981706
BMu104,47,P,REL,Gait_Normal,7,L_LES,13.595024274692994
BMu104,47,P,REL,Gait_Normal,7,R_LES,7.7267949029766
BMu104,47,P,REL,Gait_Normal,8,L_LES,109.27480450199671
BMu104,47,P,REL,Gait_Normal,8,R_LES,150.26595684127162
BMu104,48,C,INI,Gait_Normal,1,L_LES,15.855355610566253
BMu104,48,C,INI,Gait_Normal,1,R_LES,20.42551106896548
BMu104,48,C,INI,Gait_Normal,2,L_LES,13.748551088951572
BMu104,48,C,INI,Gait_Normal,2,R_LES,18.049296053870073
BMu104,48,C,INI,Gait_Normal,3,L_LES,20.24393195997033
BMu104,48,C,INI,Gait_Normal,3,R_LES,21.154855681466188
BMu104,48,C,INI,Gait_Normal,4,L_LES,12.889516865319878
BMu104,48,C,INI,Gait_Normal,4,R_LES,22.296966113430653
BMu104,48,C,INI,Gait_Normal,5,L_LES,17.79395037433656
BMu104,48,C,INI,Gait_Normal,5,R_LES,20.627928506818943
BMu104,48,C,INI,Gait_Normal,6,L_LES,13.375466876328005
BMu104,48,C,INI,Gait_Normal,6,R_LES,16.051927693990436
BMu104,48,C,INI,Gait_Normal,7,L_LES,85.47790406830086
BMu104,48,C,INI,Gait_Normal,7,R_LES,71.67798725383017
BMu104,48,C,INI,Gait_Normal,8,L_LES,64.89604696332496
BMu104,48,C,INI,Gait_Normal,8,R_LES,74.1924152617425
BMu104,48,C,REL,Gait_Normal,1,L_LES,12.474715212577811
BMu104,48,C,REL,Gait_Normal,1,R_LES,19.898546077240503
BMu104,48,C,REL,Gait_Normal,2,L_LES,100.91503105252262
BMu104,48,C,REL,Gait_Normal,2,R_LES,85.08169546783571
BMu104,48,C,REL,Gait_Normal,3,L_LES,13.384562885566035
BMu104,48,C,REL,Gait_Normal,3,R_LES,16.88041601713758
BMu104,48,C,REL,Gait_Normal,4,L_LES,14.358462460973684
BMu104,48,C,REL,Gait_Normal,4,R_LES,19.55772477038222
BMu104,48,C,REL,Gait_Normal,5,L_LES,19.49177307118056
BMu104,48,C,REL,Gait_Normal,5,R_LES,15.47247702791012
BMu104,48,C,REL,Gait_Normal,6,L_LES,14.52544282862331
BMu104,48,C,REL,Gait_Normal,6,R_LES,19.026124402086616
BMu104,48,C,REL,Gait_Normal,7,L_LES,110.13731205778402
BMu104,48,C,REL,Gait_Normal,7,R_LES,94.64394760817045
BMu104,48,C,REL,Gait_Normal,8,L_LES,10.696029329355282
BMu104,48,C,REL,Gait_Normal,8,R_LES,12.839890958424455
BMu104,48,C,REL,Gait_Normal,9,L_LES,91.54446896898823
BMu104,48,C,REL,Gait_Normal,9,R_LES,148.27393261021416
BMu104,49,C,INI,Gait_Normal,1,L_LES,8.806761331351703
BMu104,49,C,INI,Gait_Normal,1,R_LES,12.028179470143824
BMu104,49,C,INI,Gait_Normal,2,L_LES,14.944988218363203
BMu104,49,C,INI,Gait_Normal,2,R_LES,15.506441926170083
BMu104,49,C,INI,Gait_Normal,3,L_LES,10.254109005056861
BMu104,49,C,INI,Gait_Normal,3,R_LES,15.110497798493768
BMu104,49,C,INI,Gait_Normal,4,L_LES,12.017217666630208
BMu104,49,C,INI,Gait_Normal,4,R_LES,16.020982421490523
BMu104,49,C,INI,Gait_Normal,5,L_LES,10.632589093525942
BMu104,49,C,INI,Gait_Normal,5,R_LES,13.052782898284605
BMu104,49,C,INI,Gait_Normal,6,L_LES,6.939114771866767
BMu104,49,C,INI,Gait_Normal,6,R_LES,11.404214477818355
BMu104,49,C,INI,Gait_Normal,7,L_LES,84.96479345335118
BMu104,49,C,INI,Gait_Normal,7,R_LES,70.31142413485864
BMu104,49,C,REL,Gait_Normal,1,L_LES,9.609621104774085
BMu104,49,C,REL,Gait_Normal,1,R_LES,9.563637062607521
BMu104,49,C,REL,Gait_Normal,2,L_LES,10.003580557992326
BMu104,49,C,REL,Gait_Normal,2,R_LES,10.171361285898545
BMu104,49,C,REL,Gait_Normal,3,L_LES,15.129862010398188
BMu104,49,C,REL,Gait_Normal,3,R_LES,11.075881751984461
BMu104,49,C,REL,Gait_Normal,4,L_LES,14.442143341747538
BMu104,49,C,REL,Gait_Normal,4,R_LES,10.425940614956948
BMu104,49,C,REL,Gait_Normal,5,L_LES,15.555716661711525
BMu104,49,C,REL,Gait_Normal,5,R_LES,10.416327218536516
BMu104,49,C,REL,Gait_Normal,6,L_LES,75.45382198701597
BMu104,49,C,REL,Gait_Normal,6,R_LES,137.80714434553136
BMu104,49,C,REL,Gait_Normal,7,L_LES,7.267037186522362
BMu104,49,C,REL,Gait_Normal,7,R_LES,11.310376944796708
BMu104,49,C,REL,Gait_Normal,8,L_LES,111.03232940978357
BMu104,49,C,REL,Gait_Normal,8,R_LES,76.16596473274642
BMu104,50,P,INI,Gait_Normal,1,L_LES,13.331818804418383
BMu104,50,P,INI,Gait_Normal,1,R_LES,11.842716912870237
BMu104,50,P,INI,Gait_Normal,2,L_LES,17.61905191845961
BMu104,50,P,INI,Gait_Normal,2,R_LES,13.630124264963266
BMu104,50,P,INI,Gait_Normal,3,L_LES,14.496900010604769
BMu104,50,P,INI,Gait_Normal,3,R_LES,9.778938533747496
BMu104,50,P,INI,Gait_Normal,4,L_LES,22.28380375429571
BMu104,50,P,INI,Gait_Normal,4,R_LES,12.993000336641927
BMu104,50,P,INI,Gait_Normal,5,L_LES,14.222495369003232
BMu104,50,P,INI,Gait_Normal,5,R_LES,10.492657894425065
BMu104,50,P,INI,Gait_Normal,6,L_LES,90.17809832262736
BMu104,50,P,INI,Gait_Normal,6,R_LES,59.51893729823284
BMu104,50,P,REL,Gait_Normal,1,L_LES,15.503343397557058
BMu104,50,P,REL,Gait_Normal,1,R_LES,8.866994429956172
BMu104,50,P,REL,Gait_Normal,2,L_LES,14.972129169965031
BMu104,50,P,REL,Gait_Normal,2,R_LES,8.872106661865939
BMu104,50,P,REL,Gait_Normal,3,L_LES,14.217513625111021
BMu104,50,P,REL,Gait_Normal,3,R_LES,8.223108199018807
BMu104,50,P,REL,Gait_Normal,4,L_LES,13.277433040971207
BMu104,50,P,REL,Gait_Normal,4,R_LES,8.528862991262036
BMu104,50,P,REL,Gait_Normal,5,L_LES,13.207267319024965
BMu104,50,P,REL,Gait_Normal,5,R_LES,7.625266566219048
BMu104,51,P,INI,Gait_Normal,1,L_LES,27.350072452093503
BMu104,51,P,INI,Gait_Normal,1,R_LES,24.28535821965723
BMu104,51,P,INI,Gait_Normal,2,L_LES,20.174795831747776
BMu104,51,P,INI,Gait_Normal,2,R_LES,25.33183913284825
BMu104,51,P,INI,Gait_Normal,3,L_LES,16.155392330448343
BMu104,51,P,INI,Gait_Normal,3,R_LES,26.746624967565353
BMu104,51,P,INI,Gait_Normal,4,L_LES,17.423732938161397
BMu104,51,P,INI,Gait_Normal,4,R_LES,25.260702733872535
BMu104,51,P,INI,Gait_Normal,5,L_LES,17.15170389291724
BMu104,51,P,INI,Gait_Normal,5,R_LES,22.48163060374982
BMu104,51,P,INI,Gait_Normal,6,L_LES,20.567759411494674
BMu104,51,P,INI,Gait_Normal,6,R_LES,22.225215420804464
BMu104,51,P,REL,Gait_Normal,1,L_LES,8.032058684706165
BMu104,51,P,REL,Gait_Normal,1,R_LES,17.18462684751412
BMu104,51,P,REL,Gait_Normal,2,L_LES,54.49948251444391
BMu104,51,P,REL,Gait_Normal,2,R_LES,88.90668888234478
BMu104,51,P,REL,Gait_Normal,3,L_LES,7.645821395365841
BMu104,51,P,REL,Gait_Normal,3,R_LES,19.195441990491833
BMu104,51,P,REL,Gait_Normal,4,L_LES,89.77007038767148
BMu104,51,P,REL,Gait_Normal,4,R_LES,106.32173325105025
BMu104,51,P,REL,Gait_Normal,5,L_LES,13.686745334496
BMu104,51,P,REL,Gait_Normal,5,R_LES,21.80518998662618
BMu104,51,P,REL,Gait_Normal,6,L_LES,80.18407850775509
BMu104,51,P,REL,Gait_Normal,6,R_LES,97.84128354162047
BMu104,52,C,INI,Gait_Normal,1,L_LES,5.770517750805823
BMu104,52,C,INI,Gait_Normal,1,R_LES,7.440064491797163
BMu104,52,C,INI,Gait_Normal,2,L_LES,113.20862097994642
BMu104,52,C,INI,Gait_Normal,2,R_LES,107.0701070393088
BMu104,52,C,INI,Gait_Normal,3,L_LES,10.495052567181418
BMu104,52,C,INI,Gait_Normal,3,R_LES,7.612531196310157
BMu104,52,C,INI,Gait_Normal,4,L_LES,134.26364765061908
BMu104,52,C,INI,Gait_Normal,4,R_LES,86.37843678028756
BMu104,52,C,INI,Gait_Normal,5,L_LES,8.936233000957106
BMu104,52,C,INI,Gait_Normal,5,R_LES,9.804768355508891
BMu104,52,C,INI,Gait_Normal,6,L_LES,99.02872404833505
BMu104,52,C,INI,Gait_Normal,6,R_LES,98.5699768332712
BMu104,52,C,REL,Gait_Normal,1,L_LES,7.261044273117254
BMu104,52,C,REL,Gait_Normal,1,R_LES,7.670086686755486
BMu104,52,C,REL,Gait_Normal,2,L_LES,152.75806190645383
BMu104,52,C,REL,Gait_Normal,2,R_LES,107.71281983174167
BMu104,52,C,REL,Gait_Normal,3,L_LES,5.414175693035246
BMu104,52,C,REL,Gait_Normal,3,R_LES,7.785647586600317
BMu104,52,C,REL,Gait_Normal,4,L_LES,198.48803566297207
BMu104,52,C,REL,Gait_Normal,4,R_LES,112.41828592182004
BMu104,52,C,REL,Gait_Normal,5,L_LES,6.1008637032123305
BMu104,52,C,REL,Gait_Normal,5,R_LES,10.97507319023609
BMu104,52,C,REL,Gait_Normal,6,L_LES,134.78550818623953
BMu104,52,C,REL,Gait_Normal,6,R_LES,161.53405680467895
BMu104,53,P,INI,Gait_Normal,1,L_LES,14.241394454015843
BMu104,53,P,INI,Gait_Normal,1,R_LES,17.77480639307793
BMu104,53,P,INI,Gait_Normal,2,L_LES,17.59182143088178
BMu104,53,P,INI,Gait_Normal,2,R_LES,21.051432787791533
BMu104,53,P,INI,Gait_Normal,3,L_LES,8.631041612422374
BMu104,53,P,INI,Gait_Normal,3,R_LES,15.353503190424304
BMu104,53,P,INI,Gait_Normal,4,L_LES,16.232051154597638
BMu104,53,P,INI,Gait_Normal,4,R_LES,15.61472758147677
BMu104,53,P,INI,Gait_Normal,5,L_LES,11.599306645534647
BMu104,53,P,INI,Gait_Normal,5,R_LES,14.673816909807064
BMu104,53,P,INI,Gait_Normal,6,L_LES,76.07736363243107
BMu104,53,P,INI,Gait_Normal,6,R_LES,87.10698039943577
BMu104,53,P,REL,Gait_Normal,1,L_LES,11.857387590800329
BMu104,53,P,REL,Gait_Normal,1,R_LES,10.057820427063152
BMu104,53,P,REL,Gait_Normal,2,L_LES,10.163592192576095
BMu104,53,P,REL,Gait_Normal,2,R_LES,13.020494223998103
BMu104,53,P,REL,Gait_Normal,3,L_LES,10.122990526512183
BMu104,53,P,REL,Gait_Normal,3,R_LES,11.679304596623027
BMu104,53,P,REL,Gait_Normal,4,L_LES,8.723134367191898
BMu104,53,P,REL,Gait_Normal,4,R_LES,9.099913717313312
BMu104,53,P,REL,Gait_Normal,5,L_LES,9.89276138189332
BMu104,53,P,REL,Gait_Normal,5,R_LES,12.209090263032317
BMu104,53,P,REL,Gait_Normal,6,L_LES,178.41093257778013
BMu104,53,P,REL,Gait_Normal,6,R_LES,91.49641607879964
BMu104,54,P,INI,Gait_Normal,1,L_LES,7.4467090947997905
BMu104,54,P,INI,Gait_Normal,1,R_LES,11.433852310917334
BMu104,54,P,INI,Gait_Normal,2,L_LES,244.22459493670934
BMu104,54,P,INI,Gait_Normal,2,R_LES,165.5950046099825
BMu104,54,P,INI,Gait_Normal,3,L_LES,5.095482738245735
BMu104,54,P,INI,Gait_Normal,3,R_LES,8.828298626628278
BMu104,54,P,INI,Gait_Normal,4,L_LES,253.7730626940205
BMu104,54,P,INI,Gait_Normal,4,R_LES,148.47467836937184
BMu104,54,P,INI,Gait_Normal,5,L_LES,202.83826787611494
BMu104,54,P,INI,Gait_Normal,5,R_LES,138.14833704482686
BMu104,54,P,REL,Gait_Normal,1,L_LES,6.399917974018712
BMu104,54,P,REL,Gait_Normal,1,R_LES,13.171961920422632
BMu104,54,P,REL,Gait_Normal,2,L_LES,180.56195734628523
BMu104,54,P,REL,Gait_Normal,2,R_LES,154.78725017991817
BMu104,54,P,REL,Gait_Normal,3,L_LES,6.668830687551601
BMu104,54,P,REL,Gait_Normal,3,R_LES,8.60941946771172
BMu104,54,P,REL,Gait_Normal,4,L_LES,251.566863357042
BMu104,54,P,REL,Gait_Normal,4,R_LES,159.0975822858955
BMu104,54,P,REL,Gait_Normal,5,L_LES,6.469422827888295
BMu104,54,P,REL,Gait_Normal,5,R_LES,12.811329931432404
BMu104,54,P,REL,Gait_Normal,6,L_LES,164.26622301763024
BMu104,54,P,REL,Gait_Normal,6,R_LES,165.55869349610538
BMu104,54,P,REL,Gait_Normal,7,L_LES,7.818575786238343
BMu104,54,P,REL,Gait_Normal,7,R_LES,11.617144632947362
BMu104,54,P,REL,Gait_Normal,8,L_LES,156.2699378424331
BMu104,54,P,REL,Gait_Normal,8,R_LES,184.6374168428791
BMu104,55,C,INI,Gait_Normal,1,L_LES,7.668854815850901
BMu104,55,C,INI,Gait_Normal,1,R_LES,11.817981896097214
BMu104,55,C,INI,Gait_Normal,2,L_LES,86.15058860537064
BMu104,55,C,INI,Gait_Normal,2,R_LES,73.06845653407244
BMu104,55,C,INI,Gait_Normal,3,L_LES,9.529524748878893
BMu104,55,C,INI,Gait_Normal,3,R_LES,8.99534682291601
BMu104,55,C,INI,Gait_Normal,4,L_LES,75.06526251726937
BMu104,55,C,INI,Gait_Normal,4,R_LES,120.25928785219685
BMu104,55,C,INI,Gait_Normal,5,L_LES,104.01853856306349
BMu104,55,C,INI,Gait_Normal,5,R_LES,135.87891849110815
BMu104,55,C,INI,Gait_Normal,6,L_LES,3.228971430139728
BMu104,55,C,INI,Gait_Normal,6,R_LES,8.579785777510144
BMu104,55,C,INI,Gait_Normal,7,L_LES,114.08232082786967
BMu104,55,C,INI,Gait_Normal,7,R_LES,91.60920541427407
BMu104,55,C,REL,Gait_Normal,1,L_LES,4.8646853549842
BMu104,55,C,REL,Gait_Normal,1,R_LES,10.38069060982865
BMu104,55,C,REL,Gait_Normal,2,L_LES,99.51057443060085
BMu104,55,C,REL,Gait_Normal,2,R_LES,88.84943003793788
BMu104,55,C,REL,Gait_Normal,3,L_LES,7.681930703855993
BMu104,55,C,REL,Gait_Normal,3,R_LES,8.494582591134138
BMu104,55,C,REL,Gait_Normal,4,L_LES,229.9298687479102
BMu104,55,C,REL,Gait_Normal,4,R_LES,296.49480230622135
BMu104,55,C,REL,Gait_Normal,5,L_LES,8.393453379023947
BMu104,55,C,REL,Gait_Normal,5,R_LES,7.7071116919877705
BMu104,55,C,REL,Gait_Normal,6,L_LES,411.8021065788712
BMu104,55,C,REL,Gait_Normal,6,R_LES,87.24263677555498
BMu104,55,C,REL,Gait_Normal,7,L_LES,200.36649071439052
BMu104,55,C,REL,Gait_Normal,7,R_LES,147.46981500904585
BMu104,56,C,INI,Gait_Normal,1,L_LES,17.315419091755906
BMu104,56,C,INI,Gait_Normal,1,R_LES,18.530177765776465
BMu104,56,C,INI,Gait_Normal,2,L_LES,97.72675880662737
BMu104,56,C,INI,Gait_Normal,2,R_LES,91.39062561111683
BMu104,56,C,INI,Gait_Normal,3,L_LES,14.271982895505163
BMu104,56,C,INI,Gait_Normal,3,R_LES,15.986609376436087
BMu104,56,C,INI,Gait_Normal,4,L_LES,106.29413851898822
BMu104,56,C,INI,Gait_Normal,4,R_LES,71.45984799008993
BMu104,56,C,INI,Gait_Normal,5,L_LES,78.18531819006468
BMu104,56,C,INI,Gait_Normal,5,R_LES,69.09469150139306
BMu104,56,C,INI,Gait_Normal,6,L_LES,26.12952298695701
BMu104,56,C,INI,Gait_Normal,6,R_LES,19.10471735279002
BMu104,56,C,INI,Gait_Normal,7,L_LES,79.027382610337
BMu104,56,C,INI,Gait_Normal,7,R_LES,87.97753260317849
BMu104,56,C,REL,Gait_Normal,1,L_LES,46.033769235321955
BMu104,56,C,REL,Gait_Normal,1,R_LES,15.950072885882989
BMu104,56,C,REL,Gait_Normal,2,L_LES,83.57660676603669
BMu104,56,C,REL,Gait_Normal,2,R_LES,70.44021265078443
BMu104,56,C,REL,Gait_Normal,3,L_LES,36.417031496892385
BMu104,56,C,REL,Gait_Normal,3,R_LES,9.235980195919689
BMu104,56,C,REL,Gait_Normal,4,L_LES,61.26026553705338
BMu104,56,C,REL,Gait_Normal,4,R_LES,87.266609675037
BMu104,56,C,REL,Gait_Normal,5,L_LES,118.69071073480421
BMu104,56,C,REL,Gait_Normal,5,R_LES,10.23700938644218
BMu104,56,C,REL,Gait_Normal,6,L_LES,101.96770642820493
BMu104,56,C,REL,Gait_Normal,6,R_LES,101.83210221667042
BMu104,56,C,REL,Gait_Normal,7,L_LES,46.567872886501824
BMu104,56,C,REL,Gait_Normal,7,R_LES,13.96809406914242
BMu104,56,C,REL,Gait_Normal,8,L_LES,40.44678451757699
BMu104,56,C,REL,Gait_Normal,8,R_LES,67.54636873202342
BMu104,57,C,INI,Gait_Normal,1,L_LES,8.32508109782065
BMu104,57,C,INI,Gait_Normal,1,R_LES,10.88875573419155
BMu104,57,C,INI,Gait_Normal,2,L_LES,46.92400948303583
BMu104,57,C,INI,Gait_Normal,2,R_LES,94.49905402107717
BMu104,57,C,INI,Gait_Normal,3,L_LES,9.84267586853527
BMu104,57,C,INI,Gait_Normal,3,R_LES,11.983739017066585
BMu104,57,C,INI,Gait_Normal,4,L_LES,54.022557972619914
BMu104,57,C,INI,Gait_Normal,4,R_LES,80.95998594195297
BMu104,57,C,INI,Gait_Normal,5,L_LES,16.20709630163676
BMu104,57,C,INI,Gait_Normal,5,R_LES,17.599293995181853
BMu104,57,C,INI,Gait_Normal,6,L_LES,67.71143549832297
BMu104,57,C,INI,Gait_Normal,6,R_LES,107.61974065557378
BMu104,57,C,INI,Gait_Normal,7,L_LES,29.990628525013086
BMu104,57,C,INI,Gait_Normal,7,R_LES,11.584164748122202
BMu104,57,C,INI,Gait_Normal,8,L_LES,81.45674697739642
BMu104,57,C,INI,Gait_Normal,8,R_LES,115.48539192691945
BMu104,57,C,REL,Gait_Normal,1,L_LES,7.499789338499028
BMu104,57,C,REL,Gait_Normal,1,R_LES,9.62411686453852
BMu104,57,C,REL,Gait_Normal,2,L_LES,89.73107927237798
BMu104,57,C,REL,Gait_Normal,2,R_LES,105.06269746667975
BMu104,57,C,REL,Gait_Normal,3,L_LES,2.8029028130935045
BMu104,57,C,REL,Gait_Normal,3,R_LES,11.915540389035439
BMu104,57,C,REL,Gait_Normal,4,L_LES,83.06853710233273
BMu104,57,C,REL,Gait_Normal,4,R_LES,115.38088218238772
BMu104,57,C,REL,Gait_Normal,5,L_LES,5.809576563846225
BMu104,57,C,REL,Gait_Normal,5,R_LES,10.326452598174301
BMu104,57,C,REL,Gait_Normal,6,L_LES,6.209669736171027
BMu104,57,C,REL,Gait_Normal,6,R_LES,11.00006380339863
BMu104,57,C,REL,Gait_Normal,7,L_LES,77.64730885411997
BMu104,57,C,REL,Gait_Normal,7,R_LES,84.03412688946301
BMu104,57,C,REL,Gait_Normal,8,L_LES,3.7889485787127337
BMu104,57,C,REL,Gait_Normal,8,R_LES,11.254734795935804
BMu104,57,C,REL,Gait_Normal,9,L_LES,46.99596660125893
BMu104,57,C,REL,Gait_Normal,9,R_LES,100.50484204151488
BMu104,58,P,INI,Gait_Normal,1,L_LES,14.324721685395248
BMu104,58,P,INI,Gait_Normal,1,R_LES,19.744163416298605
BMu104,58,P,INI,Gait_Normal,2,L_LES,68.52193880030254
BMu104,58,P,INI,Gait_Normal,2,R_LES,104.99585289380416
BMu104,58,P,INI,Gait_Normal,3,L_LES,10.705134176182627
BMu104,58,P,INI,Gait_Normal,3,R_LES,15.90090712684161
BMu104,58,P,INI,Gait_Normal,4,L_LES,92.65560837553807
BMu104,58,P,INI,Gait_Normal,4,R_LES,108.41214455933681
BMu104,58,P,INI,Gait_Normal,5,L_LES,15.430995578364351
BMu104,58,P,INI,Gait_Normal,5,R_LES,20.273255098955534
BMu104,58,P,INI,Gait_Normal,6,L_LES,92.69382856903206
BMu104,58,P,INI,Gait_Normal,6,R_LES,95.23762348230291
BMu104,58,P,REL,Gait_Normal,1,L_LES,36.71020369790144
BMu104,58,P,REL,Gait_Normal,1,R_LES,6.698059861105475
BMu104,58,P,REL,Gait_Normal,2,L_LES,11.931746225018621
BMu104,58,P,REL,Gait_Normal,2,R_LES,18.139906405020994
BMu104,58,P,REL,Gait_Normal,3,L_LES,53.680548860882745
BMu104,58,P,REL,Gait_Normal,3,R_LES,70.69731118731981
BMu104,58,P,REL,Gait_Normal,4,L_LES,13.245142163484028
BMu104,58,P,REL,Gait_Normal,4,R_LES,19.380901699204138
BMu104,58,P,REL,Gait_Normal,5,L_LES,52.68901575233509
BMu104,58,P,REL,Gait_Normal,5,R_LES,86.5830909807712
BMu104,58,P,REL,Gait_Normal,6,L_LES,9.265830246635227
BMu104,58,P,REL,Gait_Normal,6,R_LES,21.343252634044575
BMu104,58,P,REL,Gait_Normal,7,L_LES,76.1493558747771
BMu104,58,P,REL,Gait_Normal,7,R_LES,79.90668706993304
BMu104,58,P,REL,Gait_Normal,8,L_LES,8.738113319579035
BMu104,58,P,REL,Gait_Normal,8,R_LES,15.251340811655652
BMu104,58,P,REL,Gait_Normal,9,L_LES,69.99994221580998
BMu104,58,P,REL,Gait_Normal,9,R_LES,35.504738456525494
BMu104,60,C,INI,Gait_Normal,1,L_LES,25.176115509949884
BMu104,60,C,INI,Gait_Normal,1,R_LES,15.945042799959586
BMu104,60,C,INI,Gait_Normal,2,L_LES,70.06933874121775
BMu104,60,C,INI,Gait_Normal,2,R_LES,79.841593027988
BMu104,60,C,INI,Gait_Normal,3,L_LES,11.180439801000642
BMu104,60,C,INI,Gait_Normal,3,R_LES,16.547517418228104
BMu104,60,C,INI,Gait_Normal,4,L_LES,60.40592493156497
BMu104,60,C,INI,Gait_Normal,4,R_LES,116.96515439171787
BMu104,60,C,INI,Gait_Normal,5,L_LES,13.890123536727932
BMu104,60,C,INI,Gait_Normal,5,R_LES,18.052376538383225
BMu104,60,C,INI,Gait_Normal,6,L_LES,50.7572328801221
BMu104,60,C,INI,Gait_Normal,6,R_LES,134.72715085313425
BMu104,60,C,REL,Gait_Normal,1,L_LES,20.46835084805962
BMu104,60,C,REL,Gait_Normal,1,R_LES,15.982241310847545
BMu104,60,C,REL,Gait_Normal,2,L_LES,17.885838979351924
BMu104,60,C,REL,Gait_Normal,2,R_LES,22.25002742774305
BMu104,60,C,REL,Gait_Normal,3,L_LES,21.68814252453045
BMu104,60,C,REL,Gait_Normal,3,R_LES,27.056486885056703
BMu104,60,C,REL,Gait_Normal,4,L_LES,52.39103409220627
BMu104,60,C,REL,Gait_Normal,4,R_LES,77.82470280672683
BMu104,60,C,REL,Gait_Normal,5,L_LES,21.772679721794223
BMu104,60,C,REL,Gait_Normal,5,R_LES,20.9657665683669
BMu104,60,C,REL,Gait_Normal,6,L_LES,89.87691768635031
BMu104,60,C,REL,Gait_Normal,6,R_LES,83.33145135825836
BMu104,61,P,INI,Gait_Normal,1,L_LES,13.933467312983446
BMu104,61,P,INI,Gait_Normal,1,R_LES,12.904158840304248
BMu104,61,P,INI,Gait_Normal,2,L_LES,64.81754969216993
BMu104,61,P,INI,Gait_Normal,2,R_LES,51.66805643685873
BMu104,61,P,INI,Gait_Normal,3,L_LES,14.043913514107732
BMu104,61,P,INI,Gait_Normal,3,R_LES,8.883287556372805
BMu104,61,P,INI,Gait_Normal,4,L_LES,69.0335928150348
BMu104,61,P,INI,Gait_Normal,4,R_LES,91.92366362280997
BMu104,61,P,INI,Gait_Normal,5,L_LES,16.21980978367268
BMu104,61,P,INI,Gait_Normal,5,R_LES,10.848151800979096
BMu104,61,P,INI,Gait_Normal,6,L_LES,13.933306090416869
BMu104,61,P,INI,Gait_Normal,6,R_LES,13.869067261288167
BMu104,61,P,INI,Gait_Normal,7,L_LES,84.4406338734223
BMu104,61,P,INI,Gait_Normal,7,R_LES,64.3004296220167
BMu104,61,P,INI,Gait_Normal,8,L_LES,17.125713252623925
BMu104,61,P,INI,Gait_Normal,8,R_LES,13.207728820979552
BMu104,61,P,INI,Gait_Normal,9,L_LES,56.530956554334885
BMu104,61,P,INI,Gait_Normal,9,R_LES,58.8038227809948
BMu104,61,P,REL,Gait_Normal,1,L_LES,14.634785554852373
BMu104,61,P,REL,Gait_Normal,1,R_LES,17.0511880526762
BMu104,61,P,REL,Gait_Normal,2,L_LES,22.693715802945682
BMu104,61,P,REL,Gait_Normal,2,R_LES,19.008325872104127
BMu104,61,P,REL,Gait_Normal,3,L_LES,68.84078764808503
BMu104,61,P,REL,Gait_Normal,3,R_LES,44.181203080615184
BMu104,61,P,REL,Gait_Normal,4,L_LES,16.302887434774764
BMu104,61,P,REL,Gait_Normal,4,R_LES,21.018040411449327
BMu104,61,P,REL,Gait_Normal,5,L_LES,62.092624512894325
BMu104,61,P,REL,Gait_Normal,5,R_LES,41.827854189143125
BMu104,61,P,REL,Gait_Normal,6,L_LES,21.65035412001678
BMu104,61,P,REL,Gait_Normal,6,R_LES,21.842225949389967
BMu104,61,P,REL,Gait_Normal,7,L_LES,90.55740289466638
BMu104,61,P,REL,Gait_Normal,7,R_LES,34.65611340791269
BMu104,62,P,INI,Gait_Normal,1,L_LES,24.451259954856376
BMu104,62,P,INI,Gait_Normal,1,R_LES,12.146385611103486
BMu104,62,P,INI,Gait_Normal,2,L_LES,44.40374682449914
BMu104,62,P,INI,Gait_Normal,2,R_LES,60.66709656016559
BMu104,62,P,INI,Gait_Normal,3,L_LES,9.898247099955002
BMu104,62,P,INI,Gait_Normal,3,R_LES,12.558522763801891
BMu104,62,P,INI,Gait_Normal,4,L_LES,33.82924593256345
BMu104,62,P,INI,Gait_Normal,4,R_LES,52.013562811864695
BMu104,62,P,INI,Gait_Normal,5,L_LES,12.773530231289595
BMu104,62,P,INI,Gait_Normal,5,R_LES,12.60834111791312
BMu104,62,P,INI,Gait_Normal,6,L_LES,33.3485798866782
BMu104,62,P,INI,Gait_Normal,6,R_LES,13.377483313363456
BMu104,62,P,INI,Gait_Normal,7,L_LES,40.878763142067406
BMu104,62,P,INI,Gait_Normal,7,R_LES,57.452003584954504
BMu104,62,P,REL,Gait_Normal,1,L_LES,19.529007620855147
BMu104,62,P,REL,Gait_Normal,1,R_LES,11.724593784635132
BMu104,62,P,REL,Gait_Normal,2,L_LES,68.46155637120613
BMu104,62,P,REL,Gait_Normal,2,R_LES,70.34582474274353
BMu104,62,P,REL,Gait_Normal,3,L_LES,16.234079879516614
BMu104,62,P,REL,Gait_Normal,3,R_LES,17.163321027164464
BMu104,62,P,REL,Gait_Normal,4,L_LES,53.65887323948229
BMu104,62,P,REL,Gait_Normal,4,R_LES,76.54140136916013
BMu104,62,P,REL,Gait_Normal,5,L_LES,68.14746083567327
BMu104,62,P,REL,Gait_Normal,5,R_LES,85.57588042744561
BMu104,62,P,REL,Gait_Normal,6,L_LES,14.129247989188888
BMu104,62,P,REL,Gait_Normal,6,R_LES,18.526537126595493
BMu104,62,P,REL,Gait_Normal,7,L_LES,114.17468335934514
BMu104,62,P,REL,Gait_Normal,7,R_LES,74.7277587364411
BMu104,63,P,INI,Gait_Normal,1,L_LES,21.829293423275576
BMu104,63,P,INI,Gait_Normal,1,R_LES,58.751191737273714
BMu104,63,P,INI,Gait_Normal,2,L_LES,49.19683471138143
BMu104,63,P,INI,Gait_Normal,2,R_LES,52.5472349885525
BMu104,63,P,INI,Gait_Normal,3,L_LES,30.10816627740616
BMu104,63,P,INI,Gait_Normal,3,R_LES,39.743360325855974
BMu104,63,P,INI,Gait_Normal,4,L_LES,98.76136696829363
BMu104,63,P,INI,Gait_Normal,4,R_LES,37.5686548091822
BMu104,63,P,INI,Gait_Normal,5,L_LES,17.674791774397367
BMu104,63,P,INI,Gait_Normal,5,R_LES,39.74913741887131
BMu104,63,P,INI,Gait_Normal,6,L_LES,53.523483713398115
BMu104,63,P,INI,Gait_Normal,6,R_LES,79.55917706897637
BMu104,63,P,INI,Gait_Normal,7,L_LES,30.93213057432213
BMu104,63,P,INI,Gait_Normal,7,R_LES,34.330222265246256
BMu104,63,P,INI,Gait_Normal,8,L_LES,72.49466889847334
BMu104,63,P,INI,Gait_Normal,8,R_LES,34.37881025159375
BMu104,63,P,REL,Gait_Normal,1,L_LES,8.950691904720204
BMu104,63,P,REL,Gait_Normal,1,R_LES,7.915842636600732
BMu104,63,P,REL,Gait_Normal,2,L_LES,118.33363960759054
BMu104,63,P,REL,Gait_Normal,2,R_LES,139.49805704869027
BMu104,63,P,REL,Gait_Normal,3,L_LES,8.170293494175835
BMu104,63,P,REL,Gait_Normal,3,R_LES,10.11699277862254
BMu104,63,P,REL,Gait_Normal,4,L_LES,162.63987306904264
BMu104,63,P,REL,Gait_Normal,4,R_LES,100.29580553480724
BMu104,63,P,REL,Gait_Normal,5,L_LES,9.471262405244856
BMu104,63,P,REL,Gait_Normal,5,R_LES,6.927420686427028
BMu104,63,P,REL,Gait_Normal,6,L_LES,97.50919416967822
BMu104,63,P,REL,Gait_Normal,6,R_LES,84.46098918418545
BMu104,63,P,REL,Gait_Normal,7,L_LES,11.018993941517012
BMu104,63,P,REL,Gait_Normal,7,R_LES,13.600990276223166
BMu104,63,P,REL,Gait_Normal,8,L_LES,90.54293420512073
BMu104,63,P,REL,Gait_Normal,8,R_LES,127.77748055436585
BMu104,64,C,INI,Gait_Normal,1,L_LES,9.22381833184599
BMu104,64,C,INI,Gait_Normal,1,R_LES,6.584962353220769
BMu104,64,C,INI,Gait_Normal,2,L_LES,62.31520993145389
BMu104,64,C,INI,Gait_Normal,2,R_LES,62.93343186636122
BMu104,64,C,INI,Gait_Normal,3,L_LES,8.47282089114398
BMu104,64,C,INI,Gait_Normal,3,R_LES,4.28283031886945
BMu104,64,C,INI,Gait_Normal,4,L_LES,89.5701903071412
BMu104,64,C,INI,Gait_Normal,4,R_LES,55.38633423180339
BMu104,64,C,INI,Gait_Normal,5,L_LES,7.26184621168358
BMu104,64,C,INI,Gait_Normal,5,R_LES,9.81888505834429
BMu104,64,C,INI,Gait_Normal,6,L_LES,84.46870362123461
BMu104,64,C,INI,Gait_Normal,6,R_LES,88.57074093991295
BMu104,64,C,INI,Gait_Normal,7,L_LES,8.322430476097917
BMu104,64,C,INI,Gait_Normal,7,R_LES,5.241339453811421
BMu104,64,C,INI,Gait_Normal,8,L_LES,94.20270574513275
BMu104,64,C,INI,Gait_Normal,8,R_LES,97.17096098043943
BMu104,64,C,REL,Gait_Normal,1,L_LES,6.496729700581132
BMu104,64,C,REL,Gait_Normal,1,R_LES,9.11258028229265
BMu104,64,C,REL,Gait_Normal,2,L_LES,73.87070171539945
BMu104,64,C,REL,Gait_Normal,2,R_LES,60.115212431008494
BMu104,64,C,REL,Gait_Normal,3,L_LES,5.062508191466196
BMu104,64,C,REL,Gait_Normal,3,R_LES,8.209435168513158
BMu104,64,C,REL,Gait_Normal,4,L_LES,80.2007441969498
BMu104,64,C,REL,Gait_Normal,4,R_LES,81.34473818814962
BMu104,64,C,REL,Gait_Normal,5,L_LES,8.189898142881392
BMu104,64,C,REL,Gait_Normal,5,R_LES,11.106069457644344
BMu104,64,C,REL,Gait_Normal,6,L_LES,43.3002413592722
BMu104,64,C,REL,Gait_Normal,6,R_LES,60.317822763098455
BMu104,65,P,INI,Gait_Normal,1,L_LES,8.931747363402685
BMu104,65,P,INI,Gait_Normal,1,R_LES,9.178201392006399
BMu104,65,P,INI,Gait_Normal,2,L_LES,58.02719476896116
BMu104,65,P,INI,Gait_Normal,2,R_LES,72.3878802800623
BMu104,65,P,INI,Gait_Normal,3,L_LES,4.640770154666282
BMu104,65,P,INI,Gait_Normal,3,R_LES,10.32206425173415
BMu104,65,P,INI,Gait_Normal,4,L_LES,87.35231675885825
BMu104,65,P,INI,Gait_Normal,4,R_LES,79.0586878044008
BMu104,65,P,INI,Gait_Normal,5,L_LES,8.151508723153643
BMu104,65,P,INI,Gait_Normal,5,R_LES,5.577382904737242
BMu104,65,P,INI,Gait_Normal,6,L_LES,49.89925898954566
BMu104,65,P,INI,Gait_Normal,6,R_LES,194.09895394267267
BMu104,65,P,REL,Gait_Normal,1,L_LES,8.107576253655644
BMu104,65,P,REL,Gait_Normal,1,R_LES,11.737929032279844
BMu104,65,P,REL,Gait_Normal,2,L_LES,61.96343209305662
BMu104,65,P,REL,Gait_Normal,2,R_LES,98.91594925412271
BMu104,65,P,REL,Gait_Normal,3,L_LES,7.888802992656948
BMu104,65,P,REL,Gait_Normal,3,R_LES,5.536094223896092
BMu104,65,P,REL,Gait_Normal,4,L_LES,86.7997236748731
BMu104,65,P,REL,Gait_Normal,4,R_LES,68.74863654860893
BMu104,65,P,REL,Gait_Normal,5,L_LES,9.172833288958545
BMu104,65,P,REL,Gait_Normal,5,R_LES,7.97864016128474
BMu104,65,P,REL,Gait_Normal,6,L_LES,73.99788785131793
BMu104,65,P,REL,Gait_Normal,6,R_LES,58.222602895570105
BMu104,66,C,INI,Gait_Normal,1,L_LES,12.169388435861038
BMu104,66,C,INI,Gait_Normal,1,R_LES,16.116581577305837
BMu104,66,C,INI,Gait_Normal,2,L_LES,78.95013343622466
BMu104,66,C,INI,Gait_Normal,2,R_LES,79.44361875954833
BMu104,66,C,INI,Gait_Normal,3,L_LES,11.48007281131182
BMu104,66,C,INI,Gait_Normal,3,R_LES,15.02011581051136
BMu104,66,C,INI,Gait_Normal,4,L_LES,128.3324002296353
BMu104,66,C,INI,Gait_Normal,4,R_LES,56.85711901314469
BMu104,66,C,INI,Gait_Normal,5,L_LES,17.524001317394383
BMu104,66,C,INI,Gait_Normal,5,R_LES,14.21009906981523
BMu104,66,C,INI,Gait_Normal,6,L_LES,131.942203928627
BMu104,66,C,INI,Gait_Normal,6,R_LES,37.851017083738014
BMu104,66,C,INI,Gait_Normal,7,L_LES,14.190297805514232
BMu104,66,C,INI,Gait_Normal,7,R_LES,12.49887561513229
BMu104,66,C,INI,Gait_Normal,8,L_LES,106.23456113882995
BMu104,66,C,INI,Gait_Normal,8,R_LES,55.02948748616921
BMu104,66,C,REL,Gait_Normal,1,L_LES,13.614721329463078
BMu104,66,C,REL,Gait_Normal,1,R_LES,12.336123432472505
BMu104,66,C,REL,Gait_Normal,2,L_LES,9.960212196887634
BMu104,66,C,REL,Gait_Normal,2,R_LES,17.154920033508002
BMu104,66,C,REL,Gait_Normal,3,L_LES,14.804826906019171
BMu104,66,C,REL,Gait_Normal,3,R_LES,12.447345245984176
BMu104,66,C,REL,Gait_Normal,4,L_LES,69.73034066405444
BMu104,66,C,REL,Gait_Normal,4,R_LES,52.434844419017665
BMu104,67,C,INI,Gait_Normal,1,L_LES,4.04151068767192
BMu104,67,C,INI,Gait_Normal,1,R_LES,8.938354831834525
BMu104,67,C,INI,Gait_Normal,2,L_LES,148.4162002374466
BMu104,67,C,INI,Gait_Normal,2,R_LES,51.13790604511478
BMu104,67,C,INI,Gait_Normal,3,L_LES,73.35524980091215
BMu104,67,C,INI,Gait_Normal,3,R_LES,53.386838996822476
BMu104,67,C,INI,Gait_Normal,4,L_LES,3.6609026195348093
BMu104,67,C,INI,Gait_Normal,4,R_LES,6.041477576182925
BMu104,67,C,INI,Gait_Normal,5,L_LES,115.5004275638862
BMu104,67,C,INI,Gait_Normal,5,R_LES,46.0473711915333
BMu104,67,C,INI,Gait_Normal,6,L_LES,5.226632540699886
BMu104,67,C,INI,Gait_Normal,6,R_LES,7.975397712496354
BMu104,67,C,INI,Gait_Normal,7,L_LES,132.90099873671338
BMu104,67,C,INI,Gait_Normal,7,R_LES,68.8422965389853
BMu104,67,C,REL,Gait_Normal,1,L_LES,9.095031021336204
BMu104,67,C,REL,Gait_Normal,1,R_LES,3.8344123945552506
BMu104,67,C,REL,Gait_Normal,2,L_LES,27.53833724965345
BMu104,67,C,REL,Gait_Normal,2,R_LES,28.773027446449273
BMu104,67,C,REL,Gait_Normal,3,L_LES,31.389870101616157
BMu104,67,C,REL,Gait_Normal,3,R_LES,24.30282910315579
BMu104,67,C,REL,Gait_Normal,4,L_LES,8.794264283401056
BMu104,67,C,REL,Gait_Normal,4,R_LES,37.488019123629776
BMu104,67,C,REL,Gait_Normal,5,L_LES,33.22062590811506
BMu104,67,C,REL,Gait_Normal,5,R_LES,46.391886619953915
BMu104,67,C,REL,Gait_Normal,6,L_LES,11.71448911998795
BMu104,67,C,REL,Gait_Normal,6,R_LES,17.42791730323475
BMu104,67,C,REL,Gait_Normal,7,L_LES,48.39818112396632
BMu104,67,C,REL,Gait_Normal,7,R_LES,29.60338121528922
BMu104,68,C,INI,Gait_Normal,1,L_LES,8.64630803012915
BMu104,68,C,INI,Gait_Normal,1,R_LES,8.054239991781301
BMu104,68,C,INI,Gait_Normal,2,L_LES,7.507886907724413
BMu104,68,C,INI,Gait_Normal,2,R_LES,6.581681720538259
BMu104,68,C,INI,Gait_Normal,3,L_LES,50.5945200008955
BMu104,68,C,INI,Gait_Normal,3,R_LES,273.9256763838809
BMu104,68,C,INI,Gait_Normal,4,L_LES,8.67497898300295
BMu104,68,C,INI,Gait_Normal,4,R_LES,4.169329136761323
BMu104,68,C,INI,Gait_Normal,5,L_LES,54.07366169233649
BMu104,68,C,INI,Gait_Normal,5,R_LES,104.82820529909147
BMu104,68,C,INI,Gait_Normal,6,L_LES,5.851856526213145
BMu104,68,C,INI,Gait_Normal,6,R_LES,7.910729182647237
BMu104,68,C,INI,Gait_Normal,7,L_LES,59.55093770443915
BMu104,68,C,INI,Gait_Normal,7,R_LES,108.64498920661596
BMu104,68,C,REL,Gait_Normal,1,L_LES,8.040605223421634
BMu104,68,C,REL,Gait_Normal,1,R_LES,24.178272249607584
BMu104,68,C,REL,Gait_Normal,2,L_LES,86.32613669550497
BMu104,68,C,REL,Gait_Normal,2,R_LES,38.501760216284396
BMu104,68,C,REL,Gait_Normal,3,L_LES,6.280615980990934
BMu104,68,C,REL,Gait_Normal,3,R_LES,13.47146087292542
BMu104,68,C,REL,Gait_Normal,4,L_LES,83.05510684504728
BMu104,68,C,REL,Gait_Normal,4,R_LES,88.01508654428719
BMu104,68,C,REL,Gait_Normal,5,L_LES,5.699714111220531
BMu104,68,C,REL,Gait_Normal,5,R_LES,15.944387065750583
BMu104,68,C,REL,Gait_Normal,6,L_LES,78.34673906645034
BMu104,68,C,REL,Gait_Normal,6,R_LES,42.30114354740009
