BM,subject,P_C,session,task,repetition,channel,value
BMu101,1,C,INI,Gait_Normal,1,L_MTF,0.09512257485583106
BMu101,1,C,INI,Gait_Normal,1,R_MTF,0.26014099325927886
BMu101,1,C,INI,Gait_Normal,2,L_MTF,0.08104797555999353
BMu101,1,C,INI,Gait_Normal,2,R_MTF,1.2068518158425794
BMu101,1,C,INI,Gait_Normal,3,L_MTF,0.08245293220453018
BMu101,1,C,INI,Gait_Normal,3,R_MTF,0.25497120616027663
BMu101,1,C,INI,Gait_Normal,4,L_MTF,0.0867473312708246
BMu101,1,C,INI,Gait_Normal,4,R_MTF,0.4236681126398856
BMu101,1,C,INI,Gait_Normal,5,L_MTF,0.11999903228507308
BMu101,1,C,INI,Gait_Normal,5,R_MTF,0.4763503286600541
BMu101,1,C,INI,Gait_Normal,6,L_MTF,0.08850564583095369
BMu101,1,C,INI,Gait_Normal,6,R_MTF,0.374542444195409
BMu101,1,C,INI,Gait_Normal,7,L_MTF,0.08718985151147671
BMu101,1,C,INI,Gait_Normal,7,R_MTF,0.6639729498195857
BMu101,1,C,INI,Gait_Normal,8,L_MTF,0.08742097008526525
BMu101,1,C,INI,Gait_Normal,8,R_MTF,0.5110725453511704
BMu101,1,C,INI,Gait_Normal,9,L_MTF,0.12200050126752776
BMu101,1,C,INI,Gait_Normal,9,R_MTF,0.5032323191491948
BMu101,1,C,INI,Gait_Normal,10,L_MTF,0.15747780053933602
BMu101,1,C,INI,Gait_Normal,10,R_MTF,1.1601420630777035
BMu101,1,C,REL,Gait_Normal,1,L_MTF,0.19842295401591709
BMu101,1,C,REL,Gait_Normal,1,R_MTF,0.24331235751194044
BMu101,1,C,REL,Gait_Normal,2,L_MTF,0.10694979070799848
BMu101,1,C,REL,Gait_Normal,2,R_MTF,0.9426157507746371
BMu101,1,C,REL,Gait_Normal,3,L_MTF,0.19300692481783369
BMu101,1,C,REL,Gait_Normal,3,R_MTF,0.3861172885548467
BMu101,1,C,REL,Gait_Normal,4,L_MTF,0.2434430053930341
BMu101,1,C,REL,Gait_Normal,4,R_MTF,0.7925468524333268
BMu101,1,C,REL,Gait_Normal,5,L_MTF,0.2658383367445806
BMu101,1,C,REL,Gait_Normal,5,R_MTF,1.1278461935452995
BMu101,1,C,REL,Gait_Normal,6,L_MTF,0.15648084227523607
BMu101,1,C,REL,Gait_Normal,6,R_MTF,0.9275884182363816
BMu101,1,C,REL,Gait_Normal,7,L_MTF,0.18430218669075782
BMu101,1,C,REL,Gait_Normal,7,R_MTF,0.8447465645821592
BMu101,1,C,REL,Gait_Normal,8,L_MTF,0.121058044935767
BMu101,1,C,REL,Gait_Normal,8,R_MTF,0.637424053891595
BMu101,1,C,REL,Gait_Normal,9,L_MTF,0.19655440554873763
BMu101,1,C,REL,Gait_Normal,9,R_MTF,0.81581940221865
BMu101,1,C,REL,Gait_Normal,10,L_MTF,0.12606267422339074
BMu101,1,C,REL,Gait_Normal,10,R_MTF,0.599598094750668
BMu101,2,C,INI,Gait_Normal,1,L_MTF,0.2999208876355971
BMu101,2,C,INI,Gait_Normal,1,R_MTF,0.2917836804552508
BMu101,2,C,INI,Gait_Normal,2,L_MTF,0.407754491551207
BMu101,2,C,INI,Gait_Normal,2,R_MTF,0.49861575793431545
BMu101,2,C,INI,Gait_Normal,3,L_MTF,0.28076062775531896
BMu101,2,C,INI,Gait_Normal,3,R_MTF,0.29073762782752405
BMu101,2,C,INI,Gait_Normal,4,L_MTF,0.2627421603014222
BMu101,2,C,INI,Gait_Normal,4,R_MTF,0.32124311175164066
BMu101,2,C,INI,Gait_Normal,5,L_MTF,0.4767769936467238
BMu101,2,C,INI,Gait_Normal,5,R_MTF,0.41546610657108396
BMu101,2,C,INI,Gait_Normal,6,L_MTF,0.4002273416905569
BMu101,2,C,INI,Gait_Normal,6,R_MTF,0.4047880744883982
BMu101,2,C,INI,Gait_Normal,7,L_MTF,0.48333282194949934
BMu101,2,C,INI,Gait_Normal,7,R_MTF,0.5185740542545452
BMu101,2,C,INI,Gait_Normal,8,L_MTF,0.3043595319562519
BMu101,2,C,INI,Gait_Normal,8,R_MTF,0.45493243913072723
BMu101,2,C,INI,Gait_Normal,9,L_MTF,0.4075424993525536
BMu101,2,C,INI,Gait_Normal,9,R_MTF,0.44537898284008487
BMu101,2,C,INI,Gait_Normal,10,L_MTF,
BMu101,2,C,INI,Gait_Normal,10,R_MTF,
BMu101,2,C,REL,Gait_Normal,1,L_MTF,0.2255846529474324
BMu101,2,C,REL,Gait_Normal,1,R_MTF,0.2447502212588569
BMu101,2,C,REL,Gait_Normal,2,L_MTF,0.2655882694804575
BMu101,2,C,REL,Gait_Normal,2,R_MTF,0.4005788977773606
BMu101,2,C,REL,Gait_Normal,3,L_MTF,0.19772316872404785
BMu101,2,C,REL,Gait_Normal,3,R_MTF,0.224821420170046
BMu101,2,C,REL,Gait_Normal,4,L_MTF,0.24856978622733283
BMu101,2,C,REL,Gait_Normal,4,R_MTF,0.3208473885507903
BMu101,2,C,REL,Gait_Normal,5,L_MTF,0.3992790083603479
BMu101,2,C,REL,Gait_Normal,5,R_MTF,0.46677794344803897
BMu101,2,C,REL,Gait_Normal,6,L_MTF,0.34572872350623474
BMu101,2,C,REL,Gait_Normal,6,R_MTF,0.45143021951917683
BMu101,2,C,REL,Gait_Normal,7,L_MTF,0.24931759271914017
BMu101,2,C,REL,Gait_Normal,7,R_MTF,0.35341599553032965
BMu101,2,C,REL,Gait_Normal,8,L_MTF,0.2650216443269894
BMu101,2,C,REL,Gait_Normal,8,R_MTF,0.3521819191292089
BMu101,2,C,REL,Gait_Normal,9,L_MTF,0.2248470067386722
BMu101,2,C,REL,Gait_Normal,9,R_MTF,0.24971373223538204
BMu101,3,C,INI,Gait_Normal,1,L_MTF,0.43219418242662216
BMu101,3,C,INI,Gait_Normal,1,R_MTF,0.32503349292965594
BMu101,3,C,INI,Gait_Normal,2,L_MTF,0.3037574288895242
BMu101,3,C,INI,Gait_Normal,2,R_MTF,0.29834351370311846
BMu101,3,C,INI,Gait_Normal,3,L_MTF,0.27702365031434006
BMu101,3,C,INI,Gait_Normal,3,R_MTF,0.281552511611145
BMu101,3,C,INI,Gait_Normal,4,L_MTF,0.5462808060743876
BMu101,3,C,INI,Gait_Normal,4,R_MTF,0.45671989549109265
BMu101,3,C,INI,Gait_Normal,5,L_MTF,0.35998879033881875
BMu101,3,C,INI,Gait_Normal,5,R_MTF,0.37025664638301975
BMu101,3,C,INI,Gait_Normal,6,L_MTF,0.47974478536541626
BMu101,3,C,INI,Gait_Normal,6,R_MTF,0.3614001413258072
BMu101,3,C,INI,Gait_Normal,7,L_MTF,0.5069667367216413
BMu101,3,C,INI,Gait_Normal,7,R_MTF,0.41745430980990805
BMu101,3,C,INI,Gait_Normal,8,L_MTF,0.37995411257714506
BMu101,3,C,INI,Gait_Normal,8,R_MTF,0.38159785284013314
BMu101,3,C,INI,Gait_Normal,9,L_MTF,0.3948789749230252
BMu101,3,C,INI,Gait_Normal,9,R_MTF,0.37056642997107064
BMu101,3,C,INI,Gait_Normal,10,L_MTF,0.25045592671589234
BMu101,3,C,INI,Gait_Normal,10,R_MTF,0.2593759134619751
BMu101,3,C,REL,Gait_Normal,1,L_MTF,0.5255562332486121
BMu101,3,C,REL,Gait_Normal,1,R_MTF,0.4262772581132657
BMu101,3,C,REL,Gait_Normal,2,L_MTF,0.323833845534356
BMu101,3,C,REL,Gait_Normal,2,R_MTF,0.2711407411757396
BMu101,3,C,REL,Gait_Normal,3,L_MTF,0.4716358769396436
BMu101,3,C,REL,Gait_Normal,3,R_MTF,0.38688351408046706
BMu101,3,C,REL,Gait_Normal,4,L_MTF,0.42947119260846006
BMu101,3,C,REL,Gait_Normal,4,R_MTF,0.31070898870271557
BMu101,3,C,REL,Gait_Normal,5,L_MTF,0.4733280389672805
BMu101,3,C,REL,Gait_Normal,5,R_MTF,0.3639450587589564
BMu101,3,C,REL,Gait_Normal,6,L_MTF,0.38979885433250117
BMu101,3,C,REL,Gait_Normal,6,R_MTF,0.3008450366787212
BMu101,3,C,REL,Gait_Normal,7,L_MTF,0.5403542144944822
BMu101,3,C,REL,Gait_Normal,7,R_MTF,0.4080409629327441
BMu101,3,C,REL,Gait_Normal,8,L_MTF,0.4621348997559056
BMu101,3,C,REL,Gait_Normal,8,R_MTF,0.36096174122526026
BMu101,3,C,REL,Gait_Normal,9,L_MTF,0.6191292889628732
BMu101,3,C,REL,Gait_Normal,9,R_MTF,0.49990464958442044
BMu101,3,C,REL,Gait_Normal,10,L_MTF,0.34908549751230694
BMu101,3,C,REL,Gait_Normal,10,R_MTF,0.34819544128546703
BMu101,5,C,INI,Gait_Normal,1,L_MTF,0.16323616741415273
BMu101,5,C,INI,Gait_Normal,1,R_MTF,0.23315691632542382
BMu101,5,C,INI,Gait_Normal,2,L_MTF,0.18972335262244375
BMu101,5,C,INI,Gait_Normal,2,R_MTF,0.26012868259320326
BMu101,5,C,INI,Gait_Normal,3,L_MTF,0.093705864274993
BMu101,5,C,INI,Gait_Normal,3,R_MTF,0.1905545880766379
BMu101,5,C,INI,Gait_Normal,4,L_MTF,0.1465681809974845
BMu101,5,C,INI,Gait_Normal,4,R_MTF,0.23210222935824087
BMu101,5,C,INI,Gait_Normal,5,L_MTF,0.13217826458581824
BMu101,5,C,INI,Gait_Normal,5,R_MTF,0.2162027575010147
BMu101,5,C,INI,Gait_Normal,6,L_MTF,0.16466691497030123
BMu101,5,C,INI,Gait_Normal,6,R_MTF,0.2568277822632248
BMu101,5,C,INI,Gait_Normal,7,L_MTF,0.12014322556520689
BMu101,5,C,INI,Gait_Normal,7,R_MTF,0.1828784670186464
BMu101,5,C,INI,Gait_Normal,8,L_MTF,0.12395464500341837
BMu101,5,C,INI,Gait_Normal,8,R_MTF,0.1962733490200711
BMu101,5,C,REL,Gait_Normal,1,L_MTF,0.11904590217190732
BMu101,5,C,REL,Gait_Normal,1,R_MTF,0.20746023461772137
BMu101,5,C,REL,Gait_Normal,2,L_MTF,0.13930141576001065
BMu101,5,C,REL,Gait_Normal,2,R_MTF,0.2528612757835938
BMu101,5,C,REL,Gait_Normal,3,L_MTF,0.11066823988564585
BMu101,5,C,REL,Gait_Normal,3,R_MTF,0.20294751084993856
BMu101,5,C,REL,Gait_Normal,4,L_MTF,0.18081739948377484
BMu101,5,C,REL,Gait_Normal,4,R_MTF,0.27931167235251203
BMu101,5,C,REL,Gait_Normal,5,L_MTF,0.12390196817895179
BMu101,5,C,REL,Gait_Normal,5,R_MTF,0.21346558441317423
BMu101,5,C,REL,Gait_Normal,6,L_MTF,0.24354987236361966
BMu101,5,C,REL,Gait_Normal,6,R_MTF,0.36438383818244086
BMu101,5,C,REL,Gait_Normal,7,L_MTF,0.12834306569773238
BMu101,5,C,REL,Gait_Normal,7,R_MTF,0.26286513593328303
BMu101,5,C,REL,Gait_Normal,8,L_MTF,0.16093702139842186
BMu101,5,C,REL,Gait_Normal,8,R_MTF,0.27616143887246786
BMu101,5,C,REL,Gait_Normal,9,L_MTF,0.16976223954590028
BMu101,5,C,REL,Gait_Normal,9,R_MTF,0.25844621302407544
BMu101,6,C,INI,Gait_Normal,1,L_MTF,0.4372586389652791
BMu101,6,C,INI,Gait_Normal,1,R_MTF,0.5220556806225642
BMu101,6,C,INI,Gait_Normal,2,L_MTF,0.39696143678651435
BMu101,6,C,INI,Gait_Normal,2,R_MTF,0.4366465037305489
BMu101,6,C,INI,Gait_Normal,3,L_MTF,0.43130201873131196
BMu101,6,C,INI,Gait_Normal,3,R_MTF,0.4846736799489082
BMu101,6,C,INI,Gait_Normal,4,L_MTF,0.3625416716963536
BMu101,6,C,INI,Gait_Normal,4,R_MTF,0.4292662283843444
BMu101,6,C,INI,Gait_Normal,5,L_MTF,0.3860901942868508
BMu101,6,C,INI,Gait_Normal,5,R_MTF,0.4492796649832676
BMu101,6,C,INI,Gait_Normal,6,L_MTF,0.40729419829443164
BMu101,6,C,INI,Gait_Normal,6,R_MTF,0.49947678287764236
BMu101,6,C,INI,Gait_Normal,7,L_MTF,0.3627914147347851
BMu101,6,C,INI,Gait_Normal,7,R_MTF,0.43309184342677143
BMu101,6,C,REL,Gait_Normal,1,L_MTF,0.35626242083126397
BMu101,6,C,REL,Gait_Normal,1,R_MTF,0.3399449618343874
BMu101,6,C,REL,Gait_Normal,2,L_MTF,0.34492732202147947
BMu101,6,C,REL,Gait_Normal,2,R_MTF,0.34191637509320716
BMu101,6,C,REL,Gait_Normal,3,L_MTF,0.40496303974929243
BMu101,6,C,REL,Gait_Normal,3,R_MTF,0.4404883268018627
BMu101,6,C,REL,Gait_Normal,4,L_MTF,0.3551653981286721
BMu101,6,C,REL,Gait_Normal,4,R_MTF,0.36669853090458493
BMu101,6,C,REL,Gait_Normal,5,L_MTF,0.33643784790892384
BMu101,6,C,REL,Gait_Normal,5,R_MTF,0.3218072427558244
BMu101,6,C,REL,Gait_Normal,6,L_MTF,0.3306477817317436
BMu101,6,C,REL,Gait_Normal,6,R_MTF,0.29073375242648036
BMu101,6,C,REL,Gait_Normal,7,L_MTF,0.3460236480869078
BMu101,6,C,REL,Gait_Normal,7,R_MTF,0.32044514983582806
BMu101,6,C,REL,Gait_Normal,8,L_MTF,0.46373900812035507
BMu101,6,C,REL,Gait_Normal,8,R_MTF,0.468363305504663
BMu101,6,C,REL,Gait_Normal,9,L_MTF,0.35740218784883
BMu101,6,C,REL,Gait_Normal,9,R_MTF,0.32620290532928736
BMu101,6,C,REL,Gait_Normal,10,L_MTF,0.3946614697267576
BMu101,6,C,REL,Gait_Normal,10,R_MTF,0.3867258877786885
BMu101,6,C,REL,Gait_Normal,11,L_MTF,0.3766917589586987
BMu101,6,C,REL,Gait_Normal,11,R_MTF,0.3546509260871672
BMu101,7,C,INI,Gait_Normal,1,L_MTF,1.115503195669284
BMu101,7,C,INI,Gait_Normal,1,R_MTF,0.8788960310888214
BMu101,7,C,INI,Gait_Normal,2,L_MTF,1.0430780808636488
BMu101,7,C,INI,Gait_Normal,2,R_MTF,0.8290134170366886
BMu101,7,C,INI,Gait_Normal,3,L_MTF,1.3963954711018636
BMu101,7,C,INI,Gait_Normal,3,R_MTF,0.9003172826564504
BMu101,7,C,INI,Gait_Normal,4,L_MTF,1.4640091240402386
BMu101,7,C,INI,Gait_Normal,4,R_MTF,0.9422798220854833
BMu101,7,C,INI,Gait_Normal,5,L_MTF,2.3353685739329486
BMu101,7,C,INI,Gait_Normal,5,R_MTF,1.0177016665654905
BMu101,7,C,INI,Gait_Normal,6,L_MTF,1.3380993939236767
BMu101,7,C,INI,Gait_Normal,6,R_MTF,0.9386021156089881
BMu101,7,C,INI,Gait_Normal,7,L_MTF,1.4004217440079358
BMu101,7,C,INI,Gait_Normal,7,R_MTF,0.827652066635795
BMu101,7,C,REL,Gait_Normal,1,L_MTF,0.670426048197401
BMu101,7,C,REL,Gait_Normal,1,R_MTF,0.7498184232063018
BMu101,7,C,REL,Gait_Normal,2,L_MTF,0.6005828145471935
BMu101,7,C,REL,Gait_Normal,2,R_MTF,0.6664019638867275
BMu101,7,C,REL,Gait_Normal,3,L_MTF,0.7495817199614541
BMu101,7,C,REL,Gait_Normal,3,R_MTF,0.8625322891288173
BMu101,7,C,REL,Gait_Normal,4,L_MTF,0.7236919641030642
BMu101,7,C,REL,Gait_Normal,4,R_MTF,0.7537024902646183
BMu101,7,C,REL,Gait_Normal,5,L_MTF,0.5275341518207709
BMu101,7,C,REL,Gait_Normal,5,R_MTF,0.5486912055047871
BMu101,7,C,REL,Gait_Normal,6,L_MTF,0.7674376045785932
BMu101,7,C,REL,Gait_Normal,6,R_MTF,0.7488692126963444
BMu101,7,C,REL,Gait_Normal,7,L_MTF,0.7709704484507472
BMu101,7,C,REL,Gait_Normal,7,R_MTF,0.802432728178656
BMu101,7,C,REL,Gait_Normal,8,L_MTF,0.5368358187878477
BMu101,7,C,REL,Gait_Normal,8,R_MTF,0.6737217566582551
BMu101,7,C,REL,Gait_Normal,9,L_MTF,0.601512823156953
BMu101,7,C,REL,Gait_Normal,9,R_MTF,0.7076278145477218
BMu101,8,C,INI,Gait_Normal,1,L_MTF,0.34095869261624184
BMu101,8,C,INI,Gait_Normal,1,R_MTF,0.24607392073372264
BMu101,8,C,INI,Gait_Normal,2,L_MTF,0.5549713306366763
BMu101,8,C,INI,Gait_Normal,2,R_MTF,0.2829134553435326
BMu101,8,C,INI,Gait_Normal,3,L_MTF,0.42962248298765043
BMu101,8,C,INI,Gait_Normal,3,R_MTF,0.19851571853747663
BMu101,8,C,INI,Gait_Normal,4,L_MTF,0.39809748680885493
BMu101,8,C,INI,Gait_Normal,4,R_MTF,0.2179975890569118
BMu101,8,C,INI,Gait_Normal,5,L_MTF,0.505602932694604
BMu101,8,C,INI,Gait_Normal,5,R_MTF,0.23762945277839134
BMu101,8,C,INI,Gait_Normal,6,L_MTF,0.5361879056100808
BMu101,8,C,INI,Gait_Normal,6,R_MTF,0.23993166720787681
BMu101,8,C,REL,Gait_Normal,1,L_MTF,0.31779873975215794
BMu101,8,C,REL,Gait_Normal,1,R_MTF,1.3041324925187856
BMu101,8,C,REL,Gait_Normal,2,L_MTF,0.2621366492175038
BMu101,8,C,REL,Gait_Normal,2,R_MTF,1.0089041353936095
BMu101,8,C,REL,Gait_Normal,3,L_MTF,0.3253316150218959
BMu101,8,C,REL,Gait_Normal,3,R_MTF,1.018426832383846
BMu101,8,C,REL,Gait_Normal,4,L_MTF,0.3048713816953507
BMu101,8,C,REL,Gait_Normal,4,R_MTF,1.0834687119296105
BMu101,8,C,REL,Gait_Normal,5,L_MTF,0.24491703138770882
BMu101,8,C,REL,Gait_Normal,5,R_MTF,1.2138286080753786
BMu101,9,P,INI,Gait_Normal,1,L_MTF,0.277779987589673
BMu101,9,P,INI,Gait_Normal,1,R_MTF,0.2525945600038433
BMu101,9,P,INI,Gait_Normal,2,L_MTF,0.2982810391464778
BMu101,9,P,INI,Gait_Normal,2,R_MTF,0.2950247337984391
BMu101,9,P,INI,Gait_Normal,3,L_MTF,0.3012597340595395
BMu101,9,P,INI,Gait_Normal,3,R_MTF,0.2816596303288974
BMu101,9,P,INI,Gait_Normal,4,L_MTF,0.28413839783679545
BMu101,9,P,INI,Gait_Normal,4,R_MTF,0.2884202619777286
BMu101,9,P,INI,Gait_Normal,5,L_MTF,0.29145992614883126
BMu101,9,P,INI,Gait_Normal,5,R_MTF,0.30481547385886615
BMu101,9,P,INI,Gait_Normal,6,L_MTF,0.2271194698985277
BMu101,9,P,INI,Gait_Normal,6,R_MTF,0.25902004096114967
BMu101,9,P,REL,Gait_Normal,1,L_MTF,0.22469296258006086
BMu101,9,P,REL,Gait_Normal,1,R_MTF,0.2739209789104964
BMu101,9,P,REL,Gait_Normal,2,L_MTF,0.25790362187048693
BMu101,9,P,REL,Gait_Normal,2,R_MTF,0.3634547494781905
BMu101,9,P,REL,Gait_Normal,3,L_MTF,0.2380510401408115
BMu101,9,P,REL,Gait_Normal,3,R_MTF,0.3632376690522878
BMu101,9,P,REL,Gait_Normal,4,L_MTF,0.1338172422649022
BMu101,9,P,REL,Gait_Normal,4,R_MTF,0.199107900515595
BMu101,9,P,REL,Gait_Normal,5,L_MTF,0.1920544336347748
BMu101,9,P,REL,Gait_Normal,5,R_MTF,0.25021123003307894
BMu101,9,P,REL,Gait_Normal,6,L_MTF,0.19121056905112244
BMu101,9,P,REL,Gait_Normal,6,R_MTF,0.2428795291855407
BMu101,9,P,REL,Gait_Normal,7,L_MTF,0.2796220334078415
BMu101,9,P,REL,Gait_Normal,7,R_MTF,0.36261695476106154
BMu101,9,P,REL,Gait_Normal,8,L_MTF,0.23039676839357093
BMu101,9,P,REL,Gait_Normal,8,R_MTF,0.3524428881610843
BMu101,10,P,INI,Gait_Normal,1,L_MTF,0.2967835488391469
BMu101,10,P,INI,Gait_Normal,1,R_MTF,0.3932878852864643
BMu101,10,P,INI,Gait_Normal,2,L_MTF,0.27396364449970023
BMu101,10,P,INI,Gait_Normal,2,R_MTF,0.4061156095466688
BMu101,10,P,INI,Gait_Normal,3,L_MTF,0.1819490815489982
BMu101,10,P,INI,Gait_Normal,3,R_MTF,0.26623396595176335
BMu101,10,P,INI,Gait_Normal,4,L_MTF,0.17407036860190547
BMu101,10,P,INI,Gait_Normal,4,R_MTF,0.25160954443107464
BMu101,10,P,INI,Gait_Normal,5,L_MTF,0.23640291501512467
BMu101,10,P,INI,Gait_Normal,5,R_MTF,0.3596961599131959
BMu101,10,P,INI,Gait_Normal,6,L_MTF,0.16699048409801182
BMu101,10,P,INI,Gait_Normal,6,R_MTF,0.2495257338807406
BMu101,10,P,INI,Gait_Normal,7,L_MTF,0.17755623767473483
BMu101,10,P,INI,Gait_Normal,7,R_MTF,0.2625702078188579
BMu101,10,P,REL,Gait_Normal,1,L_MTF,0.2782636658263356
BMu101,10,P,REL,Gait_Normal,1,R_MTF,0.29867990342597417
BMu101,10,P,REL,Gait_Normal,2,L_MTF,0.34776975524015685
BMu101,10,P,REL,Gait_Normal,2,R_MTF,0.37218609755312193
BMu101,10,P,REL,Gait_Normal,3,L_MTF,0.3409879678522018
BMu101,10,P,REL,Gait_Normal,3,R_MTF,0.33992475922251214
BMu101,10,P,REL,Gait_Normal,4,L_MTF,0.34365841700693145
BMu101,10,P,REL,Gait_Normal,4,R_MTF,0.3455293604032395
BMu101,10,P,REL,Gait_Normal,5,L_MTF,0.2553188381728489
BMu101,10,P,REL,Gait_Normal,5,R_MTF,0.315661963239155
BMu101,10,P,REL,Gait_Normal,6,L_MTF,0.2954354598184932
BMu101,10,P,REL,Gait_Normal,6,R_MTF,0.30643282564378643
BMu101,10,P,REL,Gait_Normal,7,L_MTF,0.27019721488333337
BMu101,10,P,REL,Gait_Normal,7,R_MTF,0.29021360141226044
BMu101,11,P,INI,Gait_Normal,1,L_MTF,0.08509242890208313
BMu101,11,P,INI,Gait_Normal,1,R_MTF,2.158483562449412
BMu101,11,P,INI,Gait_Normal,2,L_MTF,0.12269676413326162
BMu101,11,P,INI,Gait_Normal,2,R_MTF,2.7154701442944833
BMu101,11,P,INI,Gait_Normal,3,L_MTF,0.10044007868332944
BMu101,11,P,INI,Gait_Normal,3,R_MTF,3.020035409581117
BMu101,11,P,INI,Gait_Normal,4,L_MTF,0.10157335891226416
BMu101,11,P,INI,Gait_Normal,4,R_MTF,1.7811950883343677
BMu101,11,P,INI,Gait_Normal,5,L_MTF,0.09083465463026819
BMu101,11,P,INI,Gait_Normal,5,R_MTF,2.1671030641379745
BMu101,11,P,INI,Gait_Normal,6,L_MTF,0.11760964110344148
BMu101,11,P,INI,Gait_Normal,6,R_MTF,1.5470821521367952
BMu101,11,P,REL,Gait_Normal,1,L_MTF,0.15325573770642972
BMu101,11,P,REL,Gait_Normal,1,R_MTF,0.5368757988495666
BMu101,11,P,REL,Gait_Normal,2,L_MTF,0.10457907200414758
BMu101,11,P,REL,Gait_Normal,2,R_MTF,0.38628678446219517
BMu101,11,P,REL,Gait_Normal,3,L_MTF,0.1162438742815131
BMu101,11,P,REL,Gait_Normal,3,R_MTF,0.4359848333486666
BMu101,11,P,REL,Gait_Normal,4,L_MTF,0.1408175801672558
BMu101,11,P,REL,Gait_Normal,4,R_MTF,0.5058932114963991
BMu101,11,P,REL,Gait_Normal,5,L_MTF,0.13060127108181166
BMu101,11,P,REL,Gait_Normal,5,R_MTF,0.4281746082230152
BMu101,11,P,REL,Gait_Normal,6,L_MTF,0.1440312059963652
BMu101,11,P,REL,Gait_Normal,6,R_MTF,0.5847528817595408
BMu101,12,P,INI,Gait_Normal,1,L_MTF,0.43951810722376106
BMu101,12,P,INI,Gait_Normal,1,R_MTF,0.3282198770879152
BMu101,12,P,INI,Gait_Normal,2,L_MTF,0.22453267563578913
BMu101,12,P,INI,Gait_Normal,2,R_MTF,0.26231477753739446
BMu101,12,P,INI,Gait_Normal,3,L_MTF,0.32207326037060996
BMu101,12,P,INI,Gait_Normal,3,R_MTF,0.2426383629224825
BMu101,12,P,INI,Gait_Normal,4,L_MTF,0.2317046549893147
BMu101,12,P,INI,Gait_Normal,4,R_MTF,0.20746956052303336
BMu101,12,P,INI,Gait_Normal,5,L_MTF,0.533688258329502
BMu101,12,P,INI,Gait_Normal,5,R_MTF,0.43474895202469016
BMu101,12,P,INI,Gait_Normal,6,L_MTF,0.45584788736075565
BMu101,12,P,INI,Gait_Normal,6,R_MTF,0.3406516797845273
BMu101,12,P,INI,Gait_Normal,7,L_MTF,0.30376393063514356
BMu101,12,P,INI,Gait_Normal,7,R_MTF,0.24728126522022728
BMu101,12,P,INI,Gait_Normal,8,L_MTF,0.31527649780079786
BMu101,12,P,INI,Gait_Normal,8,R_MTF,0.27266346814217407
BMu101,12,P,INI,Gait_Normal,9,L_MTF,0.49711546183078686
BMu101,12,P,INI,Gait_Normal,9,R_MTF,0.4201491901655578
BMu101,12,P,INI,Gait_Normal,10,L_MTF,0.502336907547611
BMu101,12,P,INI,Gait_Normal,10,R_MTF,0.4670717474203556
BMu101,12,P,REL,Gait_Normal,1,L_MTF,0.20007523157948137
BMu101,12,P,REL,Gait_Normal,1,R_MTF,1.25209657401283
BMu101,12,P,REL,Gait_Normal,2,L_MTF,0.17925780466731686
BMu101,12,P,REL,Gait_Normal,2,R_MTF,1.2181018021537067
BMu101,12,P,REL,Gait_Normal,3,L_MTF,0.2781581270873711
BMu101,12,P,REL,Gait_Normal,3,R_MTF,1.445042012250955
BMu101,12,P,REL,Gait_Normal,4,L_MTF,0.23759556042468052
BMu101,12,P,REL,Gait_Normal,4,R_MTF,1.4383729312933908
BMu101,12,P,REL,Gait_Normal,5,L_MTF,0.24147533597811485
BMu101,12,P,REL,Gait_Normal,5,R_MTF,1.2735195958428367
BMu101,12,P,REL,Gait_Normal,6,L_MTF,0.28396864253173404
BMu101,12,P,REL,Gait_Normal,6,R_MTF,1.4527851775354028
BMu101,13,C,INI,Gait_Normal,1,L_MTF,0.16636640894858015
BMu101,13,C,INI,Gait_Normal,1,R_MTF,0.15669178517441332
BMu101,13,C,INI,Gait_Normal,2,L_MTF,0.19701311219430873
BMu101,13,C,INI,Gait_Normal,2,R_MTF,0.15720486995940874
BMu101,13,C,INI,Gait_Normal,3,L_MTF,0.17395101323486153
BMu101,13,C,INI,Gait_Normal,3,R_MTF,0.13691634304071046
BMu101,13,C,INI,Gait_Normal,4,L_MTF,0.21472737627704327
BMu101,13,C,INI,Gait_Normal,4,R_MTF,0.1770255208567724
BMu101,13,C,INI,Gait_Normal,5,L_MTF,0.17044635439147415
BMu101,13,C,INI,Gait_Normal,5,R_MTF,0.12942776786847734
BMu101,13,C,INI,Gait_Normal,6,L_MTF,0.19890800003136785
BMu101,13,C,INI,Gait_Normal,6,R_MTF,0.16284485523301825
BMu101,13,C,INI,Gait_Normal,7,L_MTF,0.1870440109163053
BMu101,13,C,INI,Gait_Normal,7,R_MTF,0.14769889776022474
BMu101,13,C,INI,Gait_Normal,8,L_MTF,0.2568562815287412
BMu101,13,C,INI,Gait_Normal,8,R_MTF,0.2509464392978654
BMu101,13,C,INI,Gait_Normal,9,L_MTF,0.22540639769252835
BMu101,13,C,INI,Gait_Normal,9,R_MTF,0.20574336351932876
BMu101,13,C,REL,Gait_Normal,1,L_MTF,0.1607090989903096
BMu101,13,C,REL,Gait_Normal,1,R_MTF,0.13896135377671134
BMu101,13,C,REL,Gait_Normal,2,L_MTF,0.18294278650284232
BMu101,13,C,REL,Gait_Normal,2,R_MTF,0.15104411255465056
BMu101,13,C,REL,Gait_Normal,3,L_MTF,0.15932037637928392
BMu101,13,C,REL,Gait_Normal,3,R_MTF,0.14510460875293546
BMu101,13,C,REL,Gait_Normal,4,L_MTF,0.18284095458962776
BMu101,13,C,REL,Gait_Normal,4,R_MTF,0.16700065577164838
BMu101,13,C,REL,Gait_Normal,5,L_MTF,0.2006663563046163
BMu101,13,C,REL,Gait_Normal,5,R_MTF,0.1603815176062088
BMu101,13,C,REL,Gait_Normal,6,L_MTF,0.23939651982044943
BMu101,13,C,REL,Gait_Normal,6,R_MTF,0.19072140958947856
BMu101,13,C,REL,Gait_Normal,7,L_MTF,0.19896685237412717
BMu101,13,C,REL,Gait_Normal,7,R_MTF,0.18407691555650907
BMu101,13,C,REL,Gait_Normal,8,L_MTF,0.17539546211798154
BMu101,13,C,REL,Gait_Normal,8,R_MTF,0.1498567033064361
BMu101,13,C,REL,Gait_Normal,9,L_MTF,0.17404528470357092
BMu101,13,C,REL,Gait_Normal,9,R_MTF,0.1433424304716614
BMu101,14,P,INI,Gait_Normal,1,L_MTF,0.1983823930408951
BMu101,14,P,INI,Gait_Normal,1,R_MTF,0.22851732221563925
BMu101,14,P,INI,Gait_Normal,2,L_MTF,0.18206300487588103
BMu101,14,P,INI,Gait_Normal,2,R_MTF,0.23629383995980735
BMu101,14,P,INI,Gait_Normal,3,L_MTF,0.18368527350199004
BMu101,14,P,INI,Gait_Normal,3,R_MTF,0.22607806307764655
BMu101,14,P,INI,Gait_Normal,4,L_MTF,0.19193177441862116
BMu101,14,P,INI,Gait_Normal,4,R_MTF,0.252197136897335
BMu101,14,P,INI,Gait_Normal,5,L_MTF,0.22661727272901577
BMu101,14,P,INI,Gait_Normal,5,R_MTF,0.2541501032456824
BMu101,14,P,INI,Gait_Normal,6,L_MTF,0.17974830987650328
BMu101,14,P,INI,Gait_Normal,6,R_MTF,0.2551261991319587
BMu101,14,P,INI,Gait_Normal,7,L_MTF,0.2343447489964219
BMu101,14,P,INI,Gait_Normal,7,R_MTF,0.24774384633188107
BMu101,14,P,REL,Gait_Normal,1,L_MTF,0.34002695794807386
BMu101,14,P,REL,Gait_Normal,1,R_MTF,0.4011555476623056
BMu101,14,P,REL,Gait_Normal,2,L_MTF,0.43280291935039283
BMu101,14,P,REL,Gait_Normal,2,R_MTF,0.4965311489833417
BMu101,14,P,REL,Gait_Normal,3,L_MTF,0.3462681887914183
BMu101,14,P,REL,Gait_Normal,3,R_MTF,0.38701153882552414
BMu101,14,P,REL,Gait_Normal,4,L_MTF,0.37361504659466793
BMu101,14,P,REL,Gait_Normal,4,R_MTF,0.5127825517114082
BMu101,14,P,REL,Gait_Normal,5,L_MTF,0.38609403972131107
BMu101,14,P,REL,Gait_Normal,5,R_MTF,0.4594200720760144
BMu101,14,P,REL,Gait_Normal,6,L_MTF,0.40452902794698103
BMu101,14,P,REL,Gait_Normal,6,R_MTF,0.4471692310164544
BMu101,14,P,REL,Gait_Normal,7,L_MTF,0.38104057631082977
BMu101,14,P,REL,Gait_Normal,7,R_MTF,0.429685953465905
BMu101,14,P,REL,Gait_Normal,8,L_MTF,0.46005866024635395
BMu101,14,P,REL,Gait_Normal,8,R_MTF,0.4559527782062358
BMu101,14,P,REL,Gait_Normal,9,L_MTF,0.4123633992582005
BMu101,14,P,REL,Gait_Normal,9,R_MTF,0.47812977924387984
BMu101,14,P,REL,Gait_Normal,10,L_MTF,0.41852722131580505
BMu101,14,P,REL,Gait_Normal,10,R_MTF,0.4155242597493398
BMu101,16,C,INI,Gait_Normal,1,L_MTF,0.148656628042594
BMu101,16,C,INI,Gait_Normal,1,R_MTF,1.1168594614583354
BMu101,16,C,INI,Gait_Normal,2,L_MTF,0.1385918634917261
BMu101,16,C,INI,Gait_Normal,2,R_MTF,0.8643340825050331
BMu101,16,C,INI,Gait_Normal,3,L_MTF,0.1464619973581872
BMu101,16,C,INI,Gait_Normal,3,R_MTF,0.6231937573793521
BMu101,16,C,INI,Gait_Normal,4,L_MTF,0.13588582372666
BMu101,16,C,INI,Gait_Normal,4,R_MTF,0.8143380987066174
BMu101,16,C,INI,Gait_Normal,5,L_MTF,0.145130197383053
BMu101,16,C,INI,Gait_Normal,5,R_MTF,0.7019404894144148
BMu101,16,C,INI,Gait_Normal,6,L_MTF,0.13608766961096233
BMu101,16,C,INI,Gait_Normal,6,R_MTF,1.077286119775626
BMu101,16,C,REL,Gait_Normal,1,L_MTF,0.3398691336660718
BMu101,16,C,REL,Gait_Normal,1,R_MTF,0.20566416269994883
BMu101,16,C,REL,Gait_Normal,2,L_MTF,0.26552502857266225
BMu101,16,C,REL,Gait_Normal,2,R_MTF,0.20194615624804454
BMu101,16,C,REL,Gait_Normal,3,L_MTF,0.28842446872604127
BMu101,16,C,REL,Gait_Normal,3,R_MTF,0.20337595998532954
BMu101,16,C,REL,Gait_Normal,4,L_MTF,0.28537081678005877
BMu101,16,C,REL,Gait_Normal,4,R_MTF,0.2084540119149295
BMu101,16,C,REL,Gait_Normal,5,L_MTF,0.47056577635256996
BMu101,16,C,REL,Gait_Normal,5,R_MTF,0.20415096490515272
BMu101,16,C,REL,Gait_Normal,6,L_MTF,0.27175649049197786
BMu101,16,C,REL,Gait_Normal,6,R_MTF,0.19429786172580002
BMu101,17,P,INI,Gait_Normal,1,L_MTF,2.4921461709036836
BMu101,17,P,INI,Gait_Normal,1,R_MTF,0.29408285216061253
BMu101,17,P,INI,Gait_Normal,2,L_MTF,0.2420755952613611
BMu101,17,P,INI,Gait_Normal,2,R_MTF,0.23272277353055468
BMu101,17,P,INI,Gait_Normal,3,L_MTF,0.3744289767912327
BMu101,17,P,INI,Gait_Normal,3,R_MTF,0.41735529208506267
BMu101,17,P,INI,Gait_Normal,4,L_MTF,0.31452647206324214
BMu101,17,P,INI,Gait_Normal,4,R_MTF,0.268171734487058
BMu101,17,P,INI,Gait_Normal,5,L_MTF,0.2769163707508839
BMu101,17,P,INI,Gait_Normal,5,R_MTF,0.23210756419546844
BMu101,17,P,INI,Gait_Normal,6,L_MTF,0.3140919500269695
BMu101,17,P,INI,Gait_Normal,6,R_MTF,0.2549479544320785
BMu101,17,P,INI,Gait_Normal,7,L_MTF,0.2882704312785705
BMu101,17,P,INI,Gait_Normal,7,R_MTF,0.22485035516233165
BMu101,17,P,INI,Gait_Normal,8,L_MTF,0.3000753058711112
BMu101,17,P,INI,Gait_Normal,8,R_MTF,0.25251232998963086
BMu101,17,P,INI,Gait_Normal,9,L_MTF,0.2667295446085132
BMu101,17,P,INI,Gait_Normal,9,R_MTF,0.21814284369376066
BMu101,17,P,INI,Gait_Normal,10,L_MTF,0.26362304416710114
BMu101,17,P,INI,Gait_Normal,10,R_MTF,0.2218529018106317
BMu101,17,P,REL,Gait_Normal,1,L_MTF,0.21611143918758055
BMu101,17,P,REL,Gait_Normal,1,R_MTF,0.8094097638962654
BMu101,17,P,REL,Gait_Normal,2,L_MTF,0.19357060601001042
BMu101,17,P,REL,Gait_Normal,2,R_MTF,0.8280431631146787
BMu101,17,P,REL,Gait_Normal,3,L_MTF,0.2285369603929571
BMu101,17,P,REL,Gait_Normal,3,R_MTF,0.823803527724722
BMu101,17,P,REL,Gait_Normal,4,L_MTF,0.21100725417584087
BMu101,17,P,REL,Gait_Normal,4,R_MTF,0.8242759596011132
BMu101,17,P,REL,Gait_Normal,5,L_MTF,0.20609220342329046
BMu101,17,P,REL,Gait_Normal,5,R_MTF,0.8309113097018099
BMu101,17,P,REL,Gait_Normal,6,L_MTF,0.1986302385627591
BMu101,17,P,REL,Gait_Normal,6,R_MTF,0.8161250750759289
BMu101,17,P,REL,Gait_Normal,7,L_MTF,0.1766340366840604
BMu101,17,P,REL,Gait_Normal,7,R_MTF,0.8230727099638031
BMu101,17,P,REL,Gait_Normal,8,L_MTF,0.19532965511386613
BMu101,17,P,REL,Gait_Normal,8,R_MTF,0.8078456807593571
BMu101,21,C,INI,Gait_Normal,1,L_MTF,0.15085845253007502
BMu101,21,C,INI,Gait_Normal,1,R_MTF,0.22514141581557864
BMu101,21,C,INI,Gait_Normal,2,L_MTF,0.15066620424742302
BMu101,21,C,INI,Gait_Normal,2,R_MTF,0.17310498684649386
BMu101,21,C,INI,Gait_Normal,3,L_MTF,0.18742637531506412
BMu101,21,C,INI,Gait_Normal,3,R_MTF,0.29508548443946414
BMu101,21,C,INI,Gait_Normal,4,L_MTF,0.15054362077915726
BMu101,21,C,INI,Gait_Normal,4,R_MTF,0.1594225497198622
BMu101,21,C,INI,Gait_Normal,5,L_MTF,0.1868472903022098
BMu101,21,C,INI,Gait_Normal,5,R_MTF,0.2651007111203758
BMu101,21,C,INI,Gait_Normal,6,L_MTF,0.14043754276554943
BMu101,21,C,INI,Gait_Normal,6,R_MTF,0.22559607225977604
BMu101,21,C,REL,Gait_Normal,1,L_MTF,0.15971606866154586
BMu101,21,C,REL,Gait_Normal,1,R_MTF,0.6871072823812531
BMu101,21,C,REL,Gait_Normal,2,L_MTF,0.1542732538371361
BMu101,21,C,REL,Gait_Normal,2,R_MTF,0.866159693861691
BMu101,21,C,REL,Gait_Normal,3,L_MTF,0.15058577838279708
BMu101,21,C,REL,Gait_Normal,3,R_MTF,1.2558131190359718
BMu101,21,C,REL,Gait_Normal,4,L_MTF,0.14530744643732735
BMu101,21,C,REL,Gait_Normal,4,R_MTF,0.7089177028862754
BMu101,21,C,REL,Gait_Normal,5,L_MTF,0.1882465647834889
BMu101,21,C,REL,Gait_Normal,5,R_MTF,1.12283966600143
BMu101,21,C,REL,Gait_Normal,6,L_MTF,0.1337864821230633
BMu101,21,C,REL,Gait_Normal,6,R_MTF,0.7889548285089661
BMu101,21,C,REL,Gait_Normal,7,L_MTF,0.1715566628969766
BMu101,21,C,REL,Gait_Normal,7,R_MTF,0.7196293400329812
BMu101,21,C,REL,Gait_Normal,8,L_MTF,0.14306179374385683
BMu101,21,C,REL,Gait_Normal,8,R_MTF,0.6787488080806344
BMu101,22,C,INI,Gait_Normal,1,L_MTF,0.11601181201180366
BMu101,22,C,INI,Gait_Normal,1,R_MTF,0.9681385487956012
BMu101,22,C,INI,Gait_Normal,2,L_MTF,0.11907046083542938
BMu101,22,C,INI,Gait_Normal,2,R_MTF,0.9918232771606091
BMu101,22,C,INI,Gait_Normal,3,L_MTF,0.1246544713304223
BMu101,22,C,INI,Gait_Normal,3,R_MTF,0.8973013965329298
BMu101,22,C,INI,Gait_Normal,4,L_MTF,0.1291945722846617
BMu101,22,C,INI,Gait_Normal,4,R_MTF,0.972799738550492
BMu101,22,C,INI,Gait_Normal,5,L_MTF,0.11234337597504311
BMu101,22,C,INI,Gait_Normal,5,R_MTF,0.9279631441221591
BMu101,22,C,INI,Gait_Normal,6,L_MTF,0.12056569722527753
BMu101,22,C,INI,Gait_Normal,6,R_MTF,1.003211552503317
BMu101,22,C,INI,Gait_Normal,7,L_MTF,0.11970618324753261
BMu101,22,C,INI,Gait_Normal,7,R_MTF,0.957146187781372
BMu101,22,C,INI,Gait_Normal,8,L_MTF,0.11377551133728088
BMu101,22,C,INI,Gait_Normal,8,R_MTF,1.0391552633196375
BMu101,22,C,INI,Gait_Normal,9,L_MTF,0.11751194151835466
BMu101,22,C,INI,Gait_Normal,9,R_MTF,0.8961309950266445
BMu101,22,C,REL,Gait_Normal,1,L_MTF,31.453300375201156
BMu101,22,C,REL,Gait_Normal,1,R_MTF,0.4338623140586954
BMu101,22,C,REL,Gait_Normal,2,L_MTF,28.6545805287163
BMu101,22,C,REL,Gait_Normal,2,R_MTF,0.5508786958769307
BMu101,22,C,REL,Gait_Normal,3,L_MTF,21.717412236549652
BMu101,22,C,REL,Gait_Normal,3,R_MTF,0.4627527260343851
BMu101,22,C,REL,Gait_Normal,4,L_MTF,22.825246079571148
BMu101,22,C,REL,Gait_Normal,4,R_MTF,0.6298252999621776
BMu101,22,C,REL,Gait_Normal,5,L_MTF,31.90893961606899
BMu101,22,C,REL,Gait_Normal,5,R_MTF,0.49308406760949075
BMu101,22,C,REL,Gait_Normal,6,L_MTF,22.840734669649077
BMu101,22,C,REL,Gait_Normal,6,R_MTF,0.5382898418914032
BMu101,22,C,REL,Gait_Normal,7,L_MTF,31.28724608988469
BMu101,22,C,REL,Gait_Normal,7,R_MTF,0.556568486330417
BMu101,22,C,REL,Gait_Normal,8,L_MTF,24.617108023226375
BMu101,22,C,REL,Gait_Normal,8,R_MTF,0.4160011433572259
BMu101,23,C,INI,Gait_Normal,1,L_MTF,0.21957787656209993
BMu101,23,C,INI,Gait_Normal,1,R_MTF,0.23489421349628503
BMu101,23,C,INI,Gait_Normal,2,L_MTF,0.22329864068304725
BMu101,23,C,INI,Gait_Normal,2,R_MTF,0.20323906829035798
BMu101,23,C,INI,Gait_Normal,3,L_MTF,0.2176027090126179
BMu101,23,C,INI,Gait_Normal,3,R_MTF,0.22009607044053262
BMu101,23,C,INI,Gait_Normal,4,L_MTF,0.21919353968729757
BMu101,23,C,INI,Gait_Normal,4,R_MTF,0.2094568820779703
BMu101,23,C,INI,Gait_Normal,5,L_MTF,0.24570997141796416
BMu101,23,C,INI,Gait_Normal,5,R_MTF,0.23159031226011084
BMu101,23,C,INI,Gait_Normal,6,L_MTF,0.21724049230792855
BMu101,23,C,INI,Gait_Normal,6,R_MTF,0.22838984352225386
BMu101,23,C,INI,Gait_Normal,7,L_MTF,0.24057012876688819
BMu101,23,C,INI,Gait_Normal,7,R_MTF,0.2338347936255777
BMu101,23,C,REL,Gait_Normal,1,L_MTF,0.28408739632649876
BMu101,23,C,REL,Gait_Normal,1,R_MTF,0.2392413162275281
BMu101,23,C,REL,Gait_Normal,2,L_MTF,0.2843795801495695
BMu101,23,C,REL,Gait_Normal,2,R_MTF,0.23814114520755936
BMu101,23,C,REL,Gait_Normal,3,L_MTF,0.26950531235237735
BMu101,23,C,REL,Gait_Normal,3,R_MTF,0.2079924777686681
BMu101,23,C,REL,Gait_Normal,4,L_MTF,0.2773300569518311
BMu101,23,C,REL,Gait_Normal,4,R_MTF,0.2425127170076201
BMu101,24,P,INI,Gait_Normal,1,L_MTF,0.29648186440110424
BMu101,24,P,INI,Gait_Normal,1,R_MTF,0.42544199373877456
BMu101,24,P,INI,Gait_Normal,2,L_MTF,0.19192521093895998
BMu101,24,P,INI,Gait_Normal,2,R_MTF,0.260033447062776
BMu101,24,P,INI,Gait_Normal,3,L_MTF,0.33605136238126193
BMu101,24,P,INI,Gait_Normal,3,R_MTF,0.3680313176114791
BMu101,24,P,INI,Gait_Normal,4,L_MTF,0.21891753633549874
BMu101,24,P,INI,Gait_Normal,4,R_MTF,0.27236041185101406
BMu101,24,P,INI,Gait_Normal,5,L_MTF,0.19650314359337526
BMu101,24,P,INI,Gait_Normal,5,R_MTF,0.264665513486065
BMu101,24,P,INI,Gait_Normal,6,L_MTF,0.21790060333475844
BMu101,24,P,INI,Gait_Normal,6,R_MTF,0.2480738007277478
BMu101,24,P,INI,Gait_Normal,7,L_MTF,0.21510266803990205
BMu101,24,P,INI,Gait_Normal,7,R_MTF,0.28433409116990255
BMu101,24,P,INI,Gait_Normal,8,L_MTF,0.21119738550964728
BMu101,24,P,INI,Gait_Normal,8,R_MTF,0.27360010571771615
BMu101,24,P,REL,Gait_Normal,1,L_MTF,0.16938714850553546
BMu101,24,P,REL,Gait_Normal,1,R_MTF,0.19707557876785023
BMu101,24,P,REL,Gait_Normal,2,L_MTF,0.1994823837861567
BMu101,24,P,REL,Gait_Normal,2,R_MTF,0.2046176269045056
BMu101,24,P,REL,Gait_Normal,3,L_MTF,0.17786832373873881
BMu101,24,P,REL,Gait_Normal,3,R_MTF,0.20697220251319234
BMu101,24,P,REL,Gait_Normal,4,L_MTF,0.20804715570796772
BMu101,24,P,REL,Gait_Normal,4,R_MTF,0.22188801226041543
BMu101,24,P,REL,Gait_Normal,5,L_MTF,0.22479949018859183
BMu101,24,P,REL,Gait_Normal,5,R_MTF,0.22409831527595828
BMu101,25,C,INI,Gait_Normal,1,L_MTF,3.421016145554638
BMu101,25,C,INI,Gait_Normal,1,R_MTF,0.11498163705055908
BMu101,25,C,INI,Gait_Normal,2,L_MTF,2.314325614856964
BMu101,25,C,INI,Gait_Normal,2,R_MTF,0.11102127680557898
BMu101,25,C,INI,Gait_Normal,3,L_MTF,2.4420796013823787
BMu101,25,C,INI,Gait_Normal,3,R_MTF,0.11240346607653677
BMu101,25,C,INI,Gait_Normal,4,L_MTF,3.343665543116423
BMu101,25,C,INI,Gait_Normal,4,R_MTF,0.10660527581433249
BMu101,25,C,INI,Gait_Normal,5,L_MTF,2.546502885712493
BMu101,25,C,INI,Gait_Normal,5,R_MTF,0.07932883248242292
BMu101,25,C,INI,Gait_Normal,6,L_MTF,2.1913238858109545
BMu101,25,C,INI,Gait_Normal,6,R_MTF,0.11033710455307227
BMu101,25,C,INI,Gait_Normal,7,L_MTF,2.3039349366692194
BMu101,25,C,INI,Gait_Normal,7,R_MTF,0.09309380772539326
BMu101,25,C,INI,Gait_Normal,8,L_MTF,2.387583814281332
BMu101,25,C,INI,Gait_Normal,8,R_MTF,0.08784331929033112
BMu101,25,C,INI,Gait_Normal,9,L_MTF,2.291474722953582
BMu101,25,C,INI,Gait_Normal,9,R_MTF,0.11005113201980761
BMu101,25,C,INI,Gait_Normal,10,L_MTF,2.238408538928119
BMu101,25,C,INI,Gait_Normal,10,R_MTF,0.11301358686379563
BMu101,25,C,REL,Gait_Normal,1,L_MTF,0.09838092207755102
BMu101,25,C,REL,Gait_Normal,1,R_MTF,0.10427214720020817
BMu101,25,C,REL,Gait_Normal,2,L_MTF,0.11617269962443261
BMu101,25,C,REL,Gait_Normal,2,R_MTF,0.1196241758929476
BMu101,25,C,REL,Gait_Normal,3,L_MTF,0.11082750163159422
BMu101,25,C,REL,Gait_Normal,3,R_MTF,0.10258557177906676
BMu101,25,C,REL,Gait_Normal,4,L_MTF,0.08223874392327203
BMu101,25,C,REL,Gait_Normal,4,R_MTF,0.08986840244155592
BMu101,25,C,REL,Gait_Normal,5,L_MTF,0.09429249791584715
BMu101,25,C,REL,Gait_Normal,5,R_MTF,0.08928323696505402
BMu101,25,C,REL,Gait_Normal,6,L_MTF,0.11068381574499027
BMu101,25,C,REL,Gait_Normal,6,R_MTF,0.10305326759767415
BMu101,25,C,REL,Gait_Normal,7,L_MTF,0.12422159756277486
BMu101,25,C,REL,Gait_Normal,7,R_MTF,0.108169603650282
BMu101,25,C,REL,Gait_Normal,8,L_MTF,0.0884147901258972
BMu101,25,C,REL,Gait_Normal,8,R_MTF,0.08845677010013042
BMu101,26,P,INI,Gait_Normal,1,L_MTF,0.26599362023408557
BMu101,26,P,INI,Gait_Normal,1,R_MTF,13.030235086365844
BMu101,26,P,INI,Gait_Normal,2,L_MTF,0.24681604639605872
BMu101,26,P,INI,Gait_Normal,2,R_MTF,8.000598232841938
BMu101,26,P,INI,Gait_Normal,3,L_MTF,0.23176369391755217
BMu101,26,P,INI,Gait_Normal,3,R_MTF,6.709163486224644
BMu101,26,P,INI,Gait_Normal,4,L_MTF,0.2521721730700858
BMu101,26,P,INI,Gait_Normal,4,R_MTF,8.199136225382341
BMu101,26,P,INI,Gait_Normal,5,L_MTF,0.24933098597804756
BMu101,26,P,INI,Gait_Normal,5,R_MTF,7.018237945938225
BMu101,26,P,INI,Gait_Normal,6,L_MTF,0.2645802644834851
BMu101,26,P,INI,Gait_Normal,6,R_MTF,7.903794653363931
BMu101,26,P,INI,Gait_Normal,7,L_MTF,0.2710835194819852
BMu101,26,P,INI,Gait_Normal,7,R_MTF,6.605304357864621
BMu101,26,P,REL,Gait_Normal,1,L_MTF,0.19384628554375896
BMu101,26,P,REL,Gait_Normal,1,R_MTF,0.18788196047277195
BMu101,26,P,REL,Gait_Normal,2,L_MTF,0.21901265326766486
BMu101,26,P,REL,Gait_Normal,2,R_MTF,0.21132937248953798
BMu101,26,P,REL,Gait_Normal,3,L_MTF,0.22219480442475623
BMu101,26,P,REL,Gait_Normal,3,R_MTF,0.20178667297515787
BMu101,26,P,REL,Gait_Normal,4,L_MTF,0.26659614483205235
BMu101,26,P,REL,Gait_Normal,4,R_MTF,0.17227159129848643
BMu101,26,P,REL,Gait_Normal,5,L_MTF,0.23923065146801947
BMu101,26,P,REL,Gait_Normal,5,R_MTF,0.1779356256235133
BMu101,26,P,REL,Gait_Normal,6,L_MTF,0.22268050683456733
BMu101,26,P,REL,Gait_Normal,6,R_MTF,0.186089520782211
BMu101,26,P,REL,Gait_Normal,7,L_MTF,0.4504966917004243
BMu101,26,P,REL,Gait_Normal,7,R_MTF,0.18390612927300565
BMu101,26,P,REL,Gait_Normal,8,L_MTF,0.5192825470678656
BMu101,26,P,REL,Gait_Normal,8,R_MTF,0.18121034428843194
BMu101,27,P,INI,Gait_Normal,1,L_MTF,0.20858383085599355
BMu101,27,P,INI,Gait_Normal,1,R_MTF,0.26846689873530444
BMu101,27,P,INI,Gait_Normal,2,L_MTF,0.2515352288826957
BMu101,27,P,INI,Gait_Normal,2,R_MTF,0.31690015611232575
BMu101,27,P,INI,Gait_Normal,3,L_MTF,0.23447923590401867
BMu101,27,P,INI,Gait_Normal,3,R_MTF,0.26587625093480777
BMu101,27,P,INI,Gait_Normal,4,L_MTF,0.351123586967619
BMu101,27,P,INI,Gait_Normal,4,R_MTF,0.4043717441581183
BMu101,27,P,INI,Gait_Normal,5,L_MTF,0.18891582869458654
BMu101,27,P,INI,Gait_Normal,5,R_MTF,0.23651060290956927
BMu101,27,P,INI,Gait_Normal,6,L_MTF,0.21947386663308452
BMu101,27,P,INI,Gait_Normal,6,R_MTF,0.2699698312565411
BMu101,27,P,INI,Gait_Normal,7,L_MTF,0.2315243928799119
BMu101,27,P,INI,Gait_Normal,7,R_MTF,0.27233394747311424
BMu101,27,P,INI,Gait_Normal,8,L_MTF,0.22044221394519467
BMu101,27,P,INI,Gait_Normal,8,R_MTF,0.3178103632690094
BMu101,27,P,INI,Gait_Normal,9,L_MTF,0.23265595250218088
BMu101,27,P,INI,Gait_Normal,9,R_MTF,0.2751082801756199
BMu101,27,P,REL,Gait_Normal,1,L_MTF,0.21751043164868034
BMu101,27,P,REL,Gait_Normal,1,R_MTF,0.21000530886074123
BMu101,27,P,REL,Gait_Normal,2,L_MTF,0.39389753503881125
BMu101,27,P,REL,Gait_Normal,2,R_MTF,0.3489873018543494
BMu101,27,P,REL,Gait_Normal,3,L_MTF,0.21613314538785713
BMu101,27,P,REL,Gait_Normal,3,R_MTF,0.21943130182548476
BMu101,27,P,REL,Gait_Normal,4,L_MTF,0.3226175279872872
BMu101,27,P,REL,Gait_Normal,4,R_MTF,0.30543416071545965
BMu101,27,P,REL,Gait_Normal,5,L_MTF,0.326533306704811
BMu101,27,P,REL,Gait_Normal,5,R_MTF,0.31824688310187504
BMu101,27,P,REL,Gait_Normal,6,L_MTF,0.24849775870433746
BMu101,27,P,REL,Gait_Normal,6,R_MTF,0.24357068465995527
BMu101,27,P,REL,Gait_Normal,7,L_MTF,0.1996249100216052
BMu101,27,P,REL,Gait_Normal,7,R_MTF,0.2176739060288535
BMu101,28,P,INI,Gait_Normal,1,L_MTF,0.196037362595505
BMu101,28,P,INI,Gait_Normal,1,R_MTF,0.2724697520675161
BMu101,28,P,INI,Gait_Normal,2,L_MTF,0.3261210604850508
BMu101,28,P,INI,Gait_Normal,2,R_MTF,0.46702829300718124
BMu101,28,P,INI,Gait_Normal,3,L_MTF,0.246821283519942
BMu101,28,P,INI,Gait_Normal,3,R_MTF,0.30388095865042514
BMu101,28,P,INI,Gait_Normal,4,L_MTF,0.2504457724566545
BMu101,28,P,INI,Gait_Normal,4,R_MTF,0.3376034279478426
BMu101,28,P,INI,Gait_Normal,5,L_MTF,0.2754389454761365
BMu101,28,P,INI,Gait_Normal,5,R_MTF,0.3447890197452878
BMu101,28,P,INI,Gait_Normal,6,L_MTF,0.21666564886512885
BMu101,28,P,INI,Gait_Normal,6,R_MTF,0.3497940518024241
BMu101,28,P,INI,Gait_Normal,7,L_MTF,0.24809457435366725
BMu101,28,P,INI,Gait_Normal,7,R_MTF,0.33840116066655196
BMu101,28,P,INI,Gait_Normal,8,L_MTF,0.21061068101309663
BMu101,28,P,INI,Gait_Normal,8,R_MTF,0.2778827633874232
BMu101,28,P,REL,Gait_Normal,1,L_MTF,0.2637875372467691
BMu101,28,P,REL,Gait_Normal,1,R_MTF,0.3102607840543612
BMu101,28,P,REL,Gait_Normal,2,L_MTF,0.19301145722230384
BMu101,28,P,REL,Gait_Normal,2,R_MTF,0.2671598332261406
BMu101,28,P,REL,Gait_Normal,3,L_MTF,0.21425347387478802
BMu101,28,P,REL,Gait_Normal,3,R_MTF,0.23858296720124514
BMu101,28,P,REL,Gait_Normal,4,L_MTF,0.20042537346159375
BMu101,28,P,REL,Gait_Normal,4,R_MTF,0.23602003892628787
BMu101,28,P,REL,Gait_Normal,5,L_MTF,0.377273297720268
BMu101,28,P,REL,Gait_Normal,5,R_MTF,0.399783419450529
BMu101,28,P,REL,Gait_Normal,6,L_MTF,0.2483662040051112
BMu101,28,P,REL,Gait_Normal,6,R_MTF,0.28021408188366176
BMu101,28,P,REL,Gait_Normal,7,L_MTF,0.22269500811720436
BMu101,28,P,REL,Gait_Normal,7,R_MTF,0.2685665830521386
BMu101,28,P,REL,Gait_Normal,8,L_MTF,0.27614081463552614
BMu101,28,P,REL,Gait_Normal,8,R_MTF,0.2800059495935826
BMu101,28,P,REL,Gait_Normal,9,L_MTF,0.2468998533611636
BMu101,28,P,REL,Gait_Normal,9,R_MTF,0.2904170377946302
BMu101,29,P,INI,Gait_Normal,1,L_MTF,0.20567128017240047
BMu101,29,P,INI,Gait_Normal,1,R_MTF,0.15588148584035724
BMu101,29,P,INI,Gait_Normal,2,L_MTF,0.21628454105515715
BMu101,29,P,INI,Gait_Normal,2,R_MTF,0.16290580641755525
BMu101,29,P,INI,Gait_Normal,3,L_MTF,0.20835720810816458
BMu101,29,P,INI,Gait_Normal,3,R_MTF,0.19104981290564557
BMu101,29,P,INI,Gait_Normal,4,L_MTF,0.22997251264522459
BMu101,29,P,INI,Gait_Normal,4,R_MTF,0.18542515391582146
BMu101,29,P,INI,Gait_Normal,5,L_MTF,0.23070339294841835
BMu101,29,P,INI,Gait_Normal,5,R_MTF,0.18486567251760225
BMu101,29,P,INI,Gait_Normal,6,L_MTF,0.21807217209882726
BMu101,29,P,INI,Gait_Normal,6,R_MTF,0.1547167035615853
BMu101,29,P,INI,Gait_Normal,7,L_MTF,0.18599711760224422
BMu101,29,P,INI,Gait_Normal,7,R_MTF,0.14583301208630362
BMu101,29,P,REL,Gait_Normal,1,L_MTF,0.22492902838033965
BMu101,29,P,REL,Gait_Normal,1,R_MTF,0.14673792682990963
BMu101,29,P,REL,Gait_Normal,2,L_MTF,0.19911639500222497
BMu101,29,P,REL,Gait_Normal,2,R_MTF,0.17331471314824823
BMu101,29,P,REL,Gait_Normal,3,L_MTF,0.2034004707101357
BMu101,29,P,REL,Gait_Normal,3,R_MTF,0.14623445725758086
BMu101,29,P,REL,Gait_Normal,4,L_MTF,0.1380525676209923
BMu101,29,P,REL,Gait_Normal,4,R_MTF,0.11521869226726271
BMu101,29,P,REL,Gait_Normal,5,L_MTF,0.18668749428899192
BMu101,29,P,REL,Gait_Normal,5,R_MTF,0.1394968184560904
BMu101,29,P,REL,Gait_Normal,6,L_MTF,0.15716084271700337
BMu101,29,P,REL,Gait_Normal,6,R_MTF,0.15703222614968904
BMu101,30,P,INI,Gait_Normal,1,L_MTF,0.27930862401223516
BMu101,30,P,INI,Gait_Normal,1,R_MTF,0.32709581346007943
BMu101,30,P,INI,Gait_Normal,2,L_MTF,0.29982185766730846
BMu101,30,P,INI,Gait_Normal,2,R_MTF,0.266683846266895
BMu101,30,P,INI,Gait_Normal,3,L_MTF,0.25800219913461225
BMu101,30,P,INI,Gait_Normal,3,R_MTF,0.4732288097265278
BMu101,30,P,INI,Gait_Normal,4,L_MTF,0.23713762843801875
BMu101,30,P,INI,Gait_Normal,4,R_MTF,0.2949323448343362
BMu101,30,P,INI,Gait_Normal,5,L_MTF,0.26615616973125106
BMu101,30,P,INI,Gait_Normal,5,R_MTF,0.43883867390282916
BMu101,30,P,INI,Gait_Normal,6,L_MTF,0.2445855844366429
BMu101,30,P,INI,Gait_Normal,6,R_MTF,0.34581644936456946
BMu101,30,P,INI,Gait_Normal,7,L_MTF,0.2558087567975543
BMu101,30,P,INI,Gait_Normal,7,R_MTF,0.28312597791099225
BMu101,30,P,INI,Gait_Normal,8,L_MTF,0.22784817873091257
BMu101,30,P,INI,Gait_Normal,8,R_MTF,0.33929336827658024
BMu101,30,P,INI,Gait_Normal,9,L_MTF,0.31747475285236487
BMu101,30,P,INI,Gait_Normal,9,R_MTF,0.001745086634267334
BMu101,30,P,REL,Gait_Normal,1,L_MTF,0.47904762148867697
BMu101,30,P,REL,Gait_Normal,1,R_MTF,0.48330590271596013
BMu101,30,P,REL,Gait_Normal,2,L_MTF,0.44009206824902586
BMu101,30,P,REL,Gait_Normal,2,R_MTF,0.45261094644646466
BMu101,30,P,REL,Gait_Normal,3,L_MTF,0.3996185703329813
BMu101,30,P,REL,Gait_Normal,3,R_MTF,0.4469389870837613
BMu101,30,P,REL,Gait_Normal,4,L_MTF,0.4428250863701262
BMu101,30,P,REL,Gait_Normal,4,R_MTF,0.4282945214048053
BMu101,30,P,REL,Gait_Normal,5,L_MTF,0.43798133675443723
BMu101,30,P,REL,Gait_Normal,5,R_MTF,0.4746444762225044
BMu101,30,P,REL,Gait_Normal,6,L_MTF,0.38843864458416116
BMu101,30,P,REL,Gait_Normal,6,R_MTF,0.42553768572849426
BMu101,30,P,REL,Gait_Normal,7,L_MTF,0.4568672957230618
BMu101,30,P,REL,Gait_Normal,7,R_MTF,0.4511490025783285
BMu101,30,P,REL,Gait_Normal,8,L_MTF,0.3668392210224584
BMu101,30,P,REL,Gait_Normal,8,R_MTF,0.4260994857042202
BMu101,30,P,REL,Gait_Normal,9,L_MTF,0.4410740432261992
BMu101,30,P,REL,Gait_Normal,9,R_MTF,0.44752655618721066
BMu101,32,P,INI,Gait_Normal,1,L_MTF,0.1753703751993073
BMu101,32,P,INI,Gait_Normal,1,R_MTF,0.16513118436178134
BMu101,32,P,INI,Gait_Normal,2,L_MTF,0.1666241227340323
BMu101,32,P,INI,Gait_Normal,2,R_MTF,0.17262807453307435
BMu101,32,P,INI,Gait_Normal,3,L_MTF,0.21989950022778046
BMu101,32,P,INI,Gait_Normal,3,R_MTF,0.19426915162566902
BMu101,32,P,INI,Gait_Normal,4,L_MTF,0.1631436436124444
BMu101,32,P,INI,Gait_Normal,4,R_MTF,0.13833806179359923
BMu101,32,P,INI,Gait_Normal,5,L_MTF,0.16354707715785843
BMu101,32,P,INI,Gait_Normal,5,R_MTF,0.13907321613768878
BMu101,32,P,INI,Gait_Normal,6,L_MTF,0.14938127291555103
BMu101,32,P,INI,Gait_Normal,6,R_MTF,0.1446892304781367
BMu101,32,P,INI,Gait_Normal,7,L_MTF,0.16711995757712894
BMu101,32,P,INI,Gait_Normal,7,R_MTF,0.1573914905135496
BMu101,32,P,REL,Gait_Normal,1,L_MTF,0.157490422546071
BMu101,32,P,REL,Gait_Normal,1,R_MTF,0.2511458230807018
BMu101,32,P,REL,Gait_Normal,2,L_MTF,0.15129930400881106
BMu101,32,P,REL,Gait_Normal,2,R_MTF,0.26688301685778804
BMu101,32,P,REL,Gait_Normal,3,L_MTF,0.14912156968096527
BMu101,32,P,REL,Gait_Normal,3,R_MTF,0.2065129333342373
BMu101,32,P,REL,Gait_Normal,4,L_MTF,0.16768027295707177
BMu101,32,P,REL,Gait_Normal,4,R_MTF,0.21663883034867268
BMu101,32,P,REL,Gait_Normal,5,L_MTF,0.16134146723577553
BMu101,32,P,REL,Gait_Normal,5,R_MTF,0.24396704073690126
BMu101,32,P,REL,Gait_Normal,6,L_MTF,0.16461869246789282
BMu101,32,P,REL,Gait_Normal,6,R_MTF,0.20154776530857363
BMu101,32,P,REL,Gait_Normal,7,L_MTF,0.16902840926479112
BMu101,32,P,REL,Gait_Normal,7,R_MTF,0.23870054855301084
BMu101,32,P,REL,Gait_Normal,8,L_MTF,0.1312553643306128
BMu101,32,P,REL,Gait_Normal,8,R_MTF,0.1970784219590002
BMu101,33,P,INI,Gait_Normal,1,L_MTF,0.3654190470960715
BMu101,33,P,INI,Gait_Normal,1,R_MTF,0.41491228446687906
BMu101,33,P,INI,Gait_Normal,2,L_MTF,0.2541836703466307
BMu101,33,P,INI,Gait_Normal,2,R_MTF,0.33150688426640923
BMu101,33,P,INI,Gait_Normal,3,L_MTF,0.2688753689322026
BMu101,33,P,INI,Gait_Normal,3,R_MTF,0.29047357356210946
BMu101,33,P,INI,Gait_Normal,4,L_MTF,0.2762910085578946
BMu101,33,P,INI,Gait_Normal,4,R_MTF,0.30411845925415276
BMu101,33,P,INI,Gait_Normal,5,L_MTF,0.30616528289384676
BMu101,33,P,INI,Gait_Normal,5,R_MTF,0.29543063630640504
BMu101,33,P,INI,Gait_Normal,6,L_MTF,0.25936427170305226
BMu101,33,P,INI,Gait_Normal,6,R_MTF,0.2791983555455159
BMu101,33,P,REL,Gait_Normal,1,L_MTF,0.34984861712404375
BMu101,33,P,REL,Gait_Normal,1,R_MTF,0.9821098976657506
BMu101,33,P,REL,Gait_Normal,2,L_MTF,0.31161188439801973
BMu101,33,P,REL,Gait_Normal,2,R_MTF,0.7862221943538602
BMu101,33,P,REL,Gait_Normal,3,L_MTF,0.3728150192315669
BMu101,33,P,REL,Gait_Normal,3,R_MTF,0.487736340266129
BMu101,33,P,REL,Gait_Normal,4,L_MTF,0.3363687006280498
BMu101,33,P,REL,Gait_Normal,4,R_MTF,0.6540640184132409
BMu101,33,P,REL,Gait_Normal,5,L_MTF,0.3201154303103386
BMu101,33,P,REL,Gait_Normal,5,R_MTF,0.471073146825359
BMu101,33,P,REL,Gait_Normal,6,L_MTF,0.2936179972586832
BMu101,33,P,REL,Gait_Normal,6,R_MTF,0.5077364434720318
BMu101,33,P,REL,Gait_Normal,7,L_MTF,0.28625979057600387
BMu101,33,P,REL,Gait_Normal,7,R_MTF,0.5240194158319158
BMu101,33,P,REL,Gait_Normal,8,L_MTF,0.3158855363427241
BMu101,33,P,REL,Gait_Normal,8,R_MTF,0.49982822420064216
BMu101,34,P,INI,Gait_Normal,1,L_MTF,0.15006991882871143
BMu101,34,P,INI,Gait_Normal,1,R_MTF,0.9689810011201252
BMu101,34,P,INI,Gait_Normal,2,L_MTF,0.1523269406489957
BMu101,34,P,INI,Gait_Normal,2,R_MTF,0.25629674064074465
BMu101,34,P,INI,Gait_Normal,3,L_MTF,0.1420655311056573
BMu101,34,P,INI,Gait_Normal,3,R_MTF,0.2713605411785635
BMu101,34,P,INI,Gait_Normal,4,L_MTF,0.14788300511643265
BMu101,34,P,INI,Gait_Normal,4,R_MTF,0.2525359055755669
BMu101,34,P,INI,Gait_Normal,5,L_MTF,0.13840698353729242
BMu101,34,P,INI,Gait_Normal,5,R_MTF,0.21410734717645422
BMu101,34,P,INI,Gait_Normal,6,L_MTF,0.13864971215504449
BMu101,34,P,INI,Gait_Normal,6,R_MTF,0.22429680982417013
BMu101,34,P,INI,Gait_Normal,7,L_MTF,0.13643519228816417
BMu101,34,P,INI,Gait_Normal,7,R_MTF,0.21209174419144228
BMu101,34,P,INI,Gait_Normal,8,L_MTF,0.1396009227507187
BMu101,34,P,INI,Gait_Normal,8,R_MTF,0.20828433596760798
BMu101,34,P,REL,Gait_Normal,1,L_MTF,0.18479694329332338
BMu101,34,P,REL,Gait_Normal,1,R_MTF,4.776530231281991
BMu101,34,P,REL,Gait_Normal,2,L_MTF,0.12225918441834392
BMu101,34,P,REL,Gait_Normal,2,R_MTF,0.29562759595066185
BMu101,34,P,REL,Gait_Normal,3,L_MTF,0.14054187777005933
BMu101,34,P,REL,Gait_Normal,3,R_MTF,0.24501755222341473
BMu101,34,P,REL,Gait_Normal,4,L_MTF,0.1308337822388669
BMu101,34,P,REL,Gait_Normal,4,R_MTF,0.21785206681083383
BMu101,34,P,REL,Gait_Normal,5,L_MTF,0.12648006468631384
BMu101,34,P,REL,Gait_Normal,5,R_MTF,0.21395045391707837
BMu101,34,P,REL,Gait_Normal,6,L_MTF,0.12618797647568045
BMu101,34,P,REL,Gait_Normal,6,R_MTF,0.21336536919651694
BMu101,34,P,REL,Gait_Normal,7,L_MTF,0.12682427336182645
BMu101,34,P,REL,Gait_Normal,7,R_MTF,0.2010988807239934
BMu101,35,C,INI,Gait_Normal,1,L_MTF,0.1489013919268423
BMu101,35,C,INI,Gait_Normal,1,R_MTF,0.20196060316454248
BMu101,35,C,INI,Gait_Normal,2,L_MTF,0.12700595826696987
BMu101,35,C,INI,Gait_Normal,2,R_MTF,0.16425586898074
BMu101,35,C,INI,Gait_Normal,3,L_MTF,0.19159734082843408
BMu101,35,C,INI,Gait_Normal,3,R_MTF,0.19388880490648894
BMu101,35,C,INI,Gait_Normal,4,L_MTF,0.12343049544310149
BMu101,35,C,INI,Gait_Normal,4,R_MTF,0.17062604657376182
BMu101,35,C,INI,Gait_Normal,5,L_MTF,0.12240049160604673
BMu101,35,C,INI,Gait_Normal,5,R_MTF,0.15026886986102772
BMu101,35,C,INI,Gait_Normal,6,L_MTF,0.20760914295947766
BMu101,35,C,INI,Gait_Normal,6,R_MTF,0.24608914880336727
BMu101,35,C,INI,Gait_Normal,7,L_MTF,0.11881808146868349
BMu101,35,C,INI,Gait_Normal,7,R_MTF,0.15476679077898228
BMu101,35,C,INI,Gait_Normal,8,L_MTF,0.11841127913556752
BMu101,35,C,INI,Gait_Normal,8,R_MTF,0.1705716959853839
BMu101,35,C,INI,Gait_Normal,9,L_MTF,0.1142199175795104
BMu101,35,C,INI,Gait_Normal,9,R_MTF,0.15889138824325244
BMu101,35,C,INI,Gait_Normal,10,L_MTF,0.14179556457839187
BMu101,35,C,INI,Gait_Normal,10,R_MTF,0.18012689237242335
BMu101,35,C,REL,Gait_Normal,1,L_MTF,0.12724322098192622
BMu101,35,C,REL,Gait_Normal,1,R_MTF,0.19883964389525144
BMu101,35,C,REL,Gait_Normal,2,L_MTF,0.11182808273388482
BMu101,35,C,REL,Gait_Normal,2,R_MTF,0.15983321763436106
BMu101,35,C,REL,Gait_Normal,3,L_MTF,0.13171708966429177
BMu101,35,C,REL,Gait_Normal,3,R_MTF,0.1449052448687591
BMu101,35,C,REL,Gait_Normal,4,L_MTF,0.11462548812415273
BMu101,35,C,REL,Gait_Normal,4,R_MTF,0.16008248206862652
BMu101,35,C,REL,Gait_Normal,5,L_MTF,0.12285857022070475
BMu101,35,C,REL,Gait_Normal,5,R_MTF,0.1849258854418955
BMu101,35,C,REL,Gait_Normal,6,L_MTF,0.1289257780489977
BMu101,35,C,REL,Gait_Normal,6,R_MTF,0.1635735558081788
BMu101,36,P,INI,Gait_Normal,1,L_MTF,0.18754990905197433
BMu101,36,P,INI,Gait_Normal,1,R_MTF,0.13963251677872401
BMu101,36,P,INI,Gait_Normal,2,L_MTF,0.23798961247939854
BMu101,36,P,INI,Gait_Normal,2,R_MTF,0.17917530662226824
BMu101,36,P,INI,Gait_Normal,3,L_MTF,0.1973911817184004
BMu101,36,P,INI,Gait_Normal,3,R_MTF,0.1461614809255443
BMu101,36,P,INI,Gait_Normal,4,L_MTF,0.13590759610202247
BMu101,36,P,INI,Gait_Normal,4,R_MTF,0.13845574443722317
BMu101,36,P,INI,Gait_Normal,5,L_MTF,0.19215854134955287
BMu101,36,P,INI,Gait_Normal,5,R_MTF,0.12068483744369642
BMu101,36,P,INI,Gait_Normal,6,L_MTF,0.1300320794325987
BMu101,36,P,INI,Gait_Normal,6,R_MTF,0.11462413060641856
BMu101,36,P,INI,Gait_Normal,7,L_MTF,0.14396851661558688
BMu101,36,P,INI,Gait_Normal,7,R_MTF,0.1090322692265659
BMu101,36,P,INI,Gait_Normal,8,L_MTF,0.15585445079693172
BMu101,36,P,INI,Gait_Normal,8,R_MTF,0.12865857921788407
BMu101,36,P,REL,Gait_Normal,1,L_MTF,0.1352942209022184
BMu101,36,P,REL,Gait_Normal,1,R_MTF,0.14312388413519936
BMu101,36,P,REL,Gait_Normal,2,L_MTF,0.15633875575671374
BMu101,36,P,REL,Gait_Normal,2,R_MTF,0.13935094789189958
BMu101,36,P,REL,Gait_Normal,3,L_MTF,0.1579852502675545
BMu101,36,P,REL,Gait_Normal,3,R_MTF,0.15023234744839573
BMu101,36,P,REL,Gait_Normal,4,L_MTF,0.15166311826318843
BMu101,36,P,REL,Gait_Normal,4,R_MTF,0.18199229810368292
BMu101,36,P,REL,Gait_Normal,5,L_MTF,0.139215880480175
BMu101,36,P,REL,Gait_Normal,5,R_MTF,0.15323878528111973
BMu101,36,P,REL,Gait_Normal,6,L_MTF,0.11811972357173738
BMu101,36,P,REL,Gait_Normal,6,R_MTF,0.11597834223628434
BMu101,38,C,INI,Gait_Normal,1,L_MTF,1.4466160904172387
BMu101,38,C,INI,Gait_Normal,1,R_MTF,0.11534284454964853
BMu101,38,C,INI,Gait_Normal,2,L_MTF,1.7616861153740517
BMu101,38,C,INI,Gait_Normal,2,R_MTF,0.10160717728346395
BMu101,38,C,INI,Gait_Normal,3,L_MTF,1.085984930114457
BMu101,38,C,INI,Gait_Normal,3,R_MTF,0.12435514379754138
BMu101,38,C,INI,Gait_Normal,4,L_MTF,0.8961713224882902
BMu101,38,C,INI,Gait_Normal,4,R_MTF,0.11641346131118831
BMu101,38,C,INI,Gait_Normal,5,L_MTF,0.7531912253311724
BMu101,38,C,INI,Gait_Normal,5,R_MTF,0.10411835437847934
BMu101,38,C,INI,Gait_Normal,6,L_MTF,0.7831075422799548
BMu101,38,C,INI,Gait_Normal,6,R_MTF,0.10017755847867806
BMu101,38,C,REL,Gait_Normal,1,L_MTF,0.14682289488005432
BMu101,38,C,REL,Gait_Normal,1,R_MTF,0.12605266239883905
BMu101,38,C,REL,Gait_Normal,2,L_MTF,0.11212218520253987
BMu101,38,C,REL,Gait_Normal,2,R_MTF,0.11373895067584426
BMu101,38,C,REL,Gait_Normal,3,L_MTF,0.10372060495114259
BMu101,38,C,REL,Gait_Normal,3,R_MTF,0.1111947864930477
BMu101,38,C,REL,Gait_Normal,4,L_MTF,0.11801784471705856
BMu101,38,C,REL,Gait_Normal,4,R_MTF,0.11650244621189343
BMu101,38,C,REL,Gait_Normal,5,L_MTF,0.11702234285394769
BMu101,38,C,REL,Gait_Normal,5,R_MTF,0.11297037234446644
BMu101,38,C,REL,Gait_Normal,6,L_MTF,0.10721199428332086
BMu101,38,C,REL,Gait_Normal,6,R_MTF,0.11790720775480963
BMu101,38,C,REL,Gait_Normal,7,L_MTF,0.13026932492033114
BMu101,38,C,REL,Gait_Normal,7,R_MTF,0.13178600570303203
BMu101,39,C,INI,Gait_Normal,1,L_MTF,0.1862339138965178
BMu101,39,C,INI,Gait_Normal,1,R_MTF,6.589201867730595
BMu101,39,C,INI,Gait_Normal,2,L_MTF,0.20575723963502365
BMu101,39,C,INI,Gait_Normal,2,R_MTF,0.1750437766137275
BMu101,39,C,INI,Gait_Normal,3,L_MTF,0.173727409691524
BMu101,39,C,INI,Gait_Normal,3,R_MTF,0.18643933610737243
BMu101,39,C,INI,Gait_Normal,4,L_MTF,0.17975969278403472
BMu101,39,C,INI,Gait_Normal,4,R_MTF,0.1993361324818934
BMu101,39,C,INI,Gait_Normal,5,L_MTF,0.19227213468704604
BMu101,39,C,INI,Gait_Normal,5,R_MTF,0.1617824817717152
BMu101,39,C,INI,Gait_Normal,6,L_MTF,0.1755044298604499
BMu101,39,C,INI,Gait_Normal,6,R_MTF,0.17055257540661703
BMu101,39,C,REL,Gait_Normal,1,L_MTF,0.21747680621883902
BMu101,39,C,REL,Gait_Normal,1,R_MTF,0.23087120879157633
BMu101,39,C,REL,Gait_Normal,2,L_MTF,0.2618140598102075
BMu101,39,C,REL,Gait_Normal,2,R_MTF,0.26881194228908695
BMu101,39,C,REL,Gait_Normal,3,L_MTF,0.21352326317898174
BMu101,39,C,REL,Gait_Normal,3,R_MTF,0.22827003941214974
BMu101,39,C,REL,Gait_Normal,4,L_MTF,0.268629234446151
BMu101,39,C,REL,Gait_Normal,4,R_MTF,0.2730028829809178
BMu101,40,C,INI,Gait_Normal,1,L_MTF,0.07749316976839817
BMu101,40,C,INI,Gait_Normal,1,R_MTF,0.11212183864353013
BMu101,40,C,INI,Gait_Normal,2,L_MTF,0.07742206564434388
BMu101,40,C,INI,Gait_Normal,2,R_MTF,0.11530552840221338
BMu101,40,C,INI,Gait_Normal,3,L_MTF,0.07559423861383603
BMu101,40,C,INI,Gait_Normal,3,R_MTF,0.10692667853987597
BMu101,40,C,INI,Gait_Normal,4,L_MTF,0.07638459565241135
BMu101,40,C,INI,Gait_Normal,4,R_MTF,0.12284335399627717
BMu101,40,C,INI,Gait_Normal,5,L_MTF,0.08013243904120614
BMu101,40,C,INI,Gait_Normal,5,R_MTF,0.08560163024943794
BMu101,40,C,INI,Gait_Normal,6,L_MTF,0.1911738593359197
BMu101,40,C,INI,Gait_Normal,6,R_MTF,0.09608637353981875
BMu101,40,C,REL,Gait_Normal,1,L_MTF,0.09287647726971632
BMu101,40,C,REL,Gait_Normal,1,R_MTF,0.06390643469743362
BMu101,40,C,REL,Gait_Normal,2,L_MTF,0.07323241719851772
BMu101,40,C,REL,Gait_Normal,2,R_MTF,0.09390498030641331
BMu101,40,C,REL,Gait_Normal,3,L_MTF,0.09005751216099638
BMu101,40,C,REL,Gait_Normal,3,R_MTF,0.10597670856262371
BMu101,40,C,REL,Gait_Normal,4,L_MTF,0.09734229423675089
BMu101,40,C,REL,Gait_Normal,4,R_MTF,0.1002739701919807
BMu101,40,C,REL,Gait_Normal,5,L_MTF,0.09887609139323299
BMu101,40,C,REL,Gait_Normal,5,R_MTF,0.10855166032235271
BMu101,40,C,REL,Gait_Normal,6,L_MTF,0.12174327111547038
BMu101,40,C,REL,Gait_Normal,6,R_MTF,0.10039531059785949
BMu101,41,P,INI,Gait_Normal,1,L_MTF,0.2635030615099825
BMu101,41,P,INI,Gait_Normal,1,R_MTF,0.27268559662643455
BMu101,41,P,INI,Gait_Normal,2,L_MTF,0.2504034818767403
BMu101,41,P,INI,Gait_Normal,2,R_MTF,0.27166588714852463
BMu101,41,P,INI,Gait_Normal,3,L_MTF,0.29488844899042116
BMu101,41,P,INI,Gait_Normal,3,R_MTF,0.29690924308695266
BMu101,41,P,INI,Gait_Normal,4,L_MTF,0.35083299429204823
BMu101,41,P,INI,Gait_Normal,4,R_MTF,0.40570919657253585
BMu101,41,P,INI,Gait_Normal,5,L_MTF,0.25826532586718004
BMu101,41,P,INI,Gait_Normal,5,R_MTF,0.285543915886834
BMu101,41,P,INI,Gait_Normal,6,L_MTF,0.26492341164082395
BMu101,41,P,INI,Gait_Normal,6,R_MTF,0.24799615064385017
BMu101,41,P,REL,Gait_Normal,1,L_MTF,0.1644942423969978
BMu101,41,P,REL,Gait_Normal,1,R_MTF,0.20834476957672543
BMu101,41,P,REL,Gait_Normal,2,L_MTF,0.18088194636356958
BMu101,41,P,REL,Gait_Normal,2,R_MTF,0.3091897053948686
BMu101,41,P,REL,Gait_Normal,3,L_MTF,0.159095680007626
BMu101,41,P,REL,Gait_Normal,3,R_MTF,0.2072806707088665
BMu101,41,P,REL,Gait_Normal,4,L_MTF,0.17938407024881683
BMu101,41,P,REL,Gait_Normal,4,R_MTF,0.2314378328646478
BMu101,41,P,REL,Gait_Normal,5,L_MTF,0.16720277823157068
BMu101,41,P,REL,Gait_Normal,5,R_MTF,0.2696001104046015
BMu101,41,P,REL,Gait_Normal,6,L_MTF,0.18340938117317185
BMu101,41,P,REL,Gait_Normal,6,R_MTF,0.24839383771220333
BMu101,41,P,REL,Gait_Normal,7,L_MTF,0.17568998122784027
BMu101,41,P,REL,Gait_Normal,7,R_MTF,0.23354877525098527
BMu101,42,P,INI,Gait_Normal,1,L_MTF,0.17290218304856816
BMu101,42,P,INI,Gait_Normal,1,R_MTF,0.14320742033352485
BMu101,42,P,INI,Gait_Normal,2,L_MTF,0.20203622407278274
BMu101,42,P,INI,Gait_Normal,2,R_MTF,0.17012872814008181
BMu101,42,P,INI,Gait_Normal,3,L_MTF,0.15141629291339972
BMu101,42,P,INI,Gait_Normal,3,R_MTF,0.13024158998220917
BMu101,42,P,INI,Gait_Normal,4,L_MTF,0.14773241516947333
BMu101,42,P,INI,Gait_Normal,4,R_MTF,0.13161535182554449
BMu101,42,P,INI,Gait_Normal,5,L_MTF,0.14584393849315183
BMu101,42,P,INI,Gait_Normal,5,R_MTF,0.12120130141405856
BMu101,42,P,INI,Gait_Normal,6,L_MTF,0.14961968869140482
BMu101,42,P,INI,Gait_Normal,6,R_MTF,0.11795766353102148
BMu101,42,P,REL,Gait_Normal,1,L_MTF,0.16759894630437852
BMu101,42,P,REL,Gait_Normal,1,R_MTF,0.13663051300981477
BMu101,42,P,REL,Gait_Normal,2,L_MTF,0.1501432715790164
BMu101,42,P,REL,Gait_Normal,2,R_MTF,0.11953535117127301
BMu101,42,P,REL,Gait_Normal,3,L_MTF,0.15796650993929603
BMu101,42,P,REL,Gait_Normal,3,R_MTF,0.15227823440525803
BMu101,42,P,REL,Gait_Normal,4,L_MTF,0.1463163887869858
BMu101,42,P,REL,Gait_Normal,4,R_MTF,0.11942498736354701
BMu101,42,P,REL,Gait_Normal,5,L_MTF,0.1482136787548473
BMu101,42,P,REL,Gait_Normal,5,R_MTF,0.13525550613344756
BMu101,42,P,REL,Gait_Normal,6,L_MTF,0.15856394668983967
BMu101,42,P,REL,Gait_Normal,6,R_MTF,0.1228583937941518
BMu101,43,P,INI,Gait_Normal,1,L_MTF,0.24370409518760985
BMu101,43,P,INI,Gait_Normal,1,R_MTF,0.21163302104399948
BMu101,43,P,INI,Gait_Normal,2,L_MTF,0.17373005627981855
BMu101,43,P,INI,Gait_Normal,2,R_MTF,0.19910906395011885
BMu101,43,P,INI,Gait_Normal,3,L_MTF,0.23387337304778766
BMu101,43,P,INI,Gait_Normal,3,R_MTF,0.2609107203259049
BMu101,43,P,INI,Gait_Normal,4,L_MTF,0.2793424377821858
BMu101,43,P,INI,Gait_Normal,4,R_MTF,0.2974580743435537
BMu101,43,P,INI,Gait_Normal,5,L_MTF,0.39828623458784024
BMu101,43,P,INI,Gait_Normal,5,R_MTF,0.4275443384205641
BMu101,43,P,INI,Gait_Normal,6,L_MTF,0.2549746311190416
BMu101,43,P,INI,Gait_Normal,6,R_MTF,0.29698125129798725
BMu101,43,P,INI,Gait_Normal,7,L_MTF,0.21555159043241479
BMu101,43,P,INI,Gait_Normal,7,R_MTF,0.2495097499664141
BMu101,43,P,INI,Gait_Normal,8,L_MTF,0.20242160521087213
BMu101,43,P,INI,Gait_Normal,8,R_MTF,0.27764271898218446
BMu101,43,P,REL,Gait_Normal,1,L_MTF,0.2002711802822762
BMu101,43,P,REL,Gait_Normal,1,R_MTF,0.3769341716912698
BMu101,43,P,REL,Gait_Normal,2,L_MTF,0.26366708028301383
BMu101,43,P,REL,Gait_Normal,2,R_MTF,0.38252344017294915
BMu101,43,P,REL,Gait_Normal,3,L_MTF,0.2901306082947803
BMu101,43,P,REL,Gait_Normal,3,R_MTF,0.47021627109420056
BMu101,43,P,REL,Gait_Normal,4,L_MTF,0.3062126974465127
BMu101,43,P,REL,Gait_Normal,4,R_MTF,0.5946868182355908
BMu101,43,P,REL,Gait_Normal,5,L_MTF,0.24750353679463025
BMu101,43,P,REL,Gait_Normal,5,R_MTF,0.4245663830862249
BMu101,43,P,REL,Gait_Normal,6,L_MTF,0.33764871177386824
BMu101,43,P,REL,Gait_Normal,6,R_MTF,0.39797946730388833
BMu101,43,P,REL,Gait_Normal,7,L_MTF,0.29995142952612314
BMu101,43,P,REL,Gait_Normal,7,R_MTF,0.46743997324796593
BMu101,44,C,INI,Gait_Normal,1,L_MTF,6.260691531360931
BMu101,44,C,INI,Gait_Normal,1,R_MTF,0.24360867623985302
BMu101,44,C,INI,Gait_Normal,2,L_MTF,7.95911940526297
BMu101,44,C,INI,Gait_Normal,2,R_MTF,0.2274249766997467
BMu101,44,C,INI,Gait_Normal,3,L_MTF,0.5786103085865274
BMu101,44,C,INI,Gait_Normal,3,R_MTF,0.1797190241001075
BMu101,44,C,INI,Gait_Normal,4,L_MTF,0.025782068665880203
BMu101,44,C,INI,Gait_Normal,4,R_MTF,0.17903161624357758
BMu101,44,C,INI,Gait_Normal,5,L_MTF,9.909857175827847
BMu101,44,C,INI,Gait_Normal,5,R_MTF,0.17602134853089538
BMu101,44,C,INI,Gait_Normal,6,L_MTF,0.025325255986178605
BMu101,44,C,INI,Gait_Normal,6,R_MTF,0.17546081452584314
BMu101,44,C,INI,Gait_Normal,7,L_MTF,0.02458155728847977
BMu101,44,C,INI,Gait_Normal,7,R_MTF,0.1522694847220641
BMu101,44,C,REL,Gait_Normal,1,L_MTF,0.13472362672587002
BMu101,44,C,REL,Gait_Normal,1,R_MTF,0.16392079409469276
BMu101,44,C,REL,Gait_Normal,2,L_MTF,0.12191039633636029
BMu101,44,C,REL,Gait_Normal,2,R_MTF,0.15456355352641116
BMu101,44,C,REL,Gait_Normal,3,L_MTF,0.11361662983282121
BMu101,44,C,REL,Gait_Normal,3,R_MTF,0.1334635629886395
BMu101,44,C,REL,Gait_Normal,4,L_MTF,0.11981896035870881
BMu101,44,C,REL,Gait_Normal,4,R_MTF,0.1555414168506923
BMu101,44,C,REL,Gait_Normal,5,L_MTF,0.10564862734163842
BMu101,44,C,REL,Gait_Normal,5,R_MTF,0.1399206464916228
BMu101,44,C,REL,Gait_Normal,6,L_MTF,0.11262702205138347
BMu101,44,C,REL,Gait_Normal,6,R_MTF,0.12394564035321522
BMu101,44,C,REL,Gait_Normal,7,L_MTF,0.12910448066937916
BMu101,44,C,REL,Gait_Normal,7,R_MTF,0.14952381777670373
BMu101,45,P,INI,Gait_Normal,1,L_MTF,0.20996891221480396
BMu101,45,P,INI,Gait_Normal,1,R_MTF,0.32556574901330454
BMu101,45,P,INI,Gait_Normal,2,L_MTF,0.19971215949475582
BMu101,45,P,INI,Gait_Normal,2,R_MTF,0.20852213055187538
BMu101,45,P,INI,Gait_Normal,3,L_MTF,0.18941268005180376
BMu101,45,P,INI,Gait_Normal,3,R_MTF,0.22151123811081827
BMu101,45,P,INI,Gait_Normal,4,L_MTF,0.1843337907209328
BMu101,45,P,INI,Gait_Normal,4,R_MTF,0.21851997914078877
BMu101,45,P,INI,Gait_Normal,5,L_MTF,0.17348137411072642
BMu101,45,P,INI,Gait_Normal,5,R_MTF,0.2230917033837372
BMu101,45,P,INI,Gait_Normal,6,L_MTF,0.18018350830379237
BMu101,45,P,INI,Gait_Normal,6,R_MTF,0.2190638709853797
BMu101,45,P,INI,Gait_Normal,7,L_MTF,0.1850270602641626
BMu101,45,P,INI,Gait_Normal,7,R_MTF,0.22863127250336093
BMu101,45,P,INI,Gait_Normal,8,L_MTF,0.16622835587003695
BMu101,45,P,INI,Gait_Normal,8,R_MTF,0.21063530029210978
BMu101,45,P,REL,Gait_Normal,1,L_MTF,0.16776791511498476
BMu101,45,P,REL,Gait_Normal,1,R_MTF,0.23640789936309944
BMu101,45,P,REL,Gait_Normal,2,L_MTF,0.1632941499383861
BMu101,45,P,REL,Gait_Normal,2,R_MTF,0.2932383273008962
BMu101,45,P,REL,Gait_Normal,3,L_MTF,0.16058442767737138
BMu101,45,P,REL,Gait_Normal,3,R_MTF,0.23757850021013083
BMu101,45,P,REL,Gait_Normal,4,L_MTF,0.15791080858182924
BMu101,45,P,REL,Gait_Normal,4,R_MTF,0.22396743571667488
BMu101,45,P,REL,Gait_Normal,5,L_MTF,0.18660395352237935
BMu101,45,P,REL,Gait_Normal,5,R_MTF,0.22926141596183036
BMu101,45,P,REL,Gait_Normal,6,L_MTF,0.18677181372054596
BMu101,45,P,REL,Gait_Normal,6,R_MTF,0.2337518948379877
BMu101,46,C,INI,Gait_Normal,1,L_MTF,9.928481896506042
BMu101,46,C,INI,Gait_Normal,1,R_MTF,0.10072755066294252
BMu101,46,C,INI,Gait_Normal,2,L_MTF,9.7839948904343
BMu101,46,C,INI,Gait_Normal,2,R_MTF,0.12044253362554184
BMu101,46,C,INI,Gait_Normal,3,L_MTF,10.329964998509695
BMu101,46,C,INI,Gait_Normal,3,R_MTF,0.1054120047630811
BMu101,46,C,INI,Gait_Normal,4,L_MTF,8.749020022884158
BMu101,46,C,INI,Gait_Normal,4,R_MTF,0.10618409164155662
BMu101,46,C,INI,Gait_Normal,5,L_MTF,10.523193801964453
BMu101,46,C,INI,Gait_Normal,5,R_MTF,0.10923921536596848
BMu101,46,C,INI,Gait_Normal,6,L_MTF,11.469910632264408
BMu101,46,C,INI,Gait_Normal,6,R_MTF,0.10698449526047976
BMu101,46,C,REL,Gait_Normal,1,L_MTF,0.10200865353797113
BMu101,46,C,REL,Gait_Normal,1,R_MTF,0.10560176655934532
BMu101,46,C,REL,Gait_Normal,2,L_MTF,0.1091675029815593
BMu101,46,C,REL,Gait_Normal,2,R_MTF,0.09559732860203433
BMu101,46,C,REL,Gait_Normal,3,L_MTF,0.10474271099891712
BMu101,46,C,REL,Gait_Normal,3,R_MTF,0.0937663676634314
BMu101,46,C,REL,Gait_Normal,4,L_MTF,0.11115048708054352
BMu101,46,C,REL,Gait_Normal,4,R_MTF,0.07961599042464534
BMu101,46,C,REL,Gait_Normal,5,L_MTF,0.0960430152237522
BMu101,46,C,REL,Gait_Normal,5,R_MTF,0.10470299482420926
BMu101,46,C,REL,Gait_Normal,6,L_MTF,0.10879167002565238
BMu101,46,C,REL,Gait_Normal,6,R_MTF,0.10936371607740791
BMu101,47,P,INI,Gait_Normal,1,L_MTF,0.0485359860812456
BMu101,47,P,INI,Gait_Normal,1,R_MTF,0.07164275305461247
BMu101,47,P,INI,Gait_Normal,2,L_MTF,0.05393870152103634
BMu101,47,P,INI,Gait_Normal,2,R_MTF,0.08538264883886666
BMu101,47,P,INI,Gait_Normal,3,L_MTF,0.0489844013388596
BMu101,47,P,INI,Gait_Normal,3,R_MTF,0.08074893543816787
BMu101,47,P,INI,Gait_Normal,4,L_MTF,0.06078630654663025
BMu101,47,P,INI,Gait_Normal,4,R_MTF,0.07715696655352562
BMu101,47,P,INI,Gait_Normal,5,L_MTF,0.050441287508520005
BMu101,47,P,INI,Gait_Normal,5,R_MTF,0.10570281689335885
BMu101,47,P,INI,Gait_Normal,6,L_MTF,0.04433597748564252
BMu101,47,P,INI,Gait_Normal,6,R_MTF,0.10236337625627279
BMu101,47,P,REL,Gait_Normal,1,L_MTF,0.06731985289531915
BMu101,47,P,REL,Gait_Normal,1,R_MTF,0.10445731977845156
BMu101,47,P,REL,Gait_Normal,2,L_MTF,0.06484643948846298
BMu101,47,P,REL,Gait_Normal,2,R_MTF,0.06503592369302703
BMu101,47,P,REL,Gait_Normal,3,L_MTF,0.06391590401568988
BMu101,47,P,REL,Gait_Normal,3,R_MTF,0.09147790181376088
BMu101,47,P,REL,Gait_Normal,4,L_MTF,0.06873106538801099
BMu101,47,P,REL,Gait_Normal,4,R_MTF,0.0944887662296664
BMu101,47,P,REL,Gait_Normal,5,L_MTF,0.0665959818743501
BMu101,47,P,REL,Gait_Normal,5,R_MTF,0.09867602557913573
BMu101,47,P,REL,Gait_Normal,6,L_MTF,0.0697650429469302
BMu101,47,P,REL,Gait_Normal,6,R_MTF,0.09936331478653394
BMu101,47,P,REL,Gait_Normal,7,L_MTF,0.07546856487302517
BMu101,47,P,REL,Gait_Normal,7,R_MTF,0.09053312673761309
BMu101,47,P,REL,Gait_Normal,8,L_MTF,0.06396302692617269
BMu101,47,P,REL,Gait_Normal,8,R_MTF,0.09171685601919351
BMu101,48,C,INI,Gait_Normal,1,L_MTF,0.21757008221498128
BMu101,48,C,INI,Gait_Normal,1,R_MTF,0.2693561854388073
BMu101,48,C,INI,Gait_Normal,2,L_MTF,0.21327107287498637
BMu101,48,C,INI,Gait_Normal,2,R_MTF,0.29320260693856776
BMu101,48,C,INI,Gait_Normal,3,L_MTF,0.22345688447477552
BMu101,48,C,INI,Gait_Normal,3,R_MTF,0.32906678547746
BMu101,48,C,INI,Gait_Normal,4,L_MTF,0.1844242985267438
BMu101,48,C,INI,Gait_Normal,4,R_MTF,0.23954919953760342
BMu101,48,C,INI,Gait_Normal,5,L_MTF,0.21234856032727958
BMu101,48,C,INI,Gait_Normal,5,R_MTF,0.2726390918831045
BMu101,48,C,INI,Gait_Normal,6,L_MTF,0.21104446963276188
BMu101,48,C,INI,Gait_Normal,6,R_MTF,0.31980693927646425
BMu101,48,C,INI,Gait_Normal,7,L_MTF,0.18920869156751516
BMu101,48,C,INI,Gait_Normal,7,R_MTF,0.24800271371513757
BMu101,48,C,INI,Gait_Normal,8,L_MTF,0.21720796341309456
BMu101,48,C,INI,Gait_Normal,8,R_MTF,0.25372216201985864
BMu101,48,C,REL,Gait_Normal,1,L_MTF,0.1772058496283724
BMu101,48,C,REL,Gait_Normal,1,R_MTF,0.33168322091240454
BMu101,48,C,REL,Gait_Normal,2,L_MTF,0.19395718147008256
BMu101,48,C,REL,Gait_Normal,2,R_MTF,0.24989153780522788
BMu101,48,C,REL,Gait_Normal,3,L_MTF,0.16739916171449146
BMu101,48,C,REL,Gait_Normal,3,R_MTF,0.27533078384218795
BMu101,48,C,REL,Gait_Normal,4,L_MTF,0.19363073487895735
BMu101,48,C,REL,Gait_Normal,4,R_MTF,0.33452763675570313
BMu101,48,C,REL,Gait_Normal,5,L_MTF,0.17217023826744957
BMu101,48,C,REL,Gait_Normal,5,R_MTF,0.30269677968786013
BMu101,48,C,REL,Gait_Normal,6,L_MTF,0.16149100101605654
BMu101,48,C,REL,Gait_Normal,6,R_MTF,0.31151965715136987
BMu101,48,C,REL,Gait_Normal,7,L_MTF,0.1439683228423781
BMu101,48,C,REL,Gait_Normal,7,R_MTF,0.2548311278571783
BMu101,48,C,REL,Gait_Normal,8,L_MTF,0.15902461672897328
BMu101,48,C,REL,Gait_Normal,8,R_MTF,0.30047199475751285
BMu101,48,C,REL,Gait_Normal,9,L_MTF,0.16639354395363537
BMu101,48,C,REL,Gait_Normal,9,R_MTF,0.28889412066862247
BMu101,49,C,INI,Gait_Normal,1,L_MTF,0.15387735113284914
BMu101,49,C,INI,Gait_Normal,1,R_MTF,0.22772199155281805
BMu101,49,C,INI,Gait_Normal,2,L_MTF,0.15197784756832802
BMu101,49,C,INI,Gait_Normal,2,R_MTF,0.22530989220067535
BMu101,49,C,INI,Gait_Normal,3,L_MTF,0.13123082567697972
BMu101,49,C,INI,Gait_Normal,3,R_MTF,0.1896191661420017
BMu101,49,C,INI,Gait_Normal,4,L_MTF,0.13288493117485575
BMu101,49,C,INI,Gait_Normal,4,R_MTF,0.1988348650875835
BMu101,49,C,INI,Gait_Normal,5,L_MTF,0.12650901830051078
BMu101,49,C,INI,Gait_Normal,5,R_MTF,0.19798767281772567
BMu101,49,C,INI,Gait_Normal,6,L_MTF,0.14951754741119788
BMu101,49,C,INI,Gait_Normal,6,R_MTF,0.25574551741894874
BMu101,49,C,INI,Gait_Normal,7,L_MTF,0.11063353184701726
BMu101,49,C,INI,Gait_Normal,7,R_MTF,0.2051678183391126
BMu101,49,C,REL,Gait_Normal,1,L_MTF,0.18445501388924637
BMu101,49,C,REL,Gait_Normal,1,R_MTF,0.22872190742069035
BMu101,49,C,REL,Gait_Normal,2,L_MTF,0.169126195111771
BMu101,49,C,REL,Gait_Normal,2,R_MTF,0.21443109688698833
BMu101,49,C,REL,Gait_Normal,3,L_MTF,0.16029630367587797
BMu101,49,C,REL,Gait_Normal,3,R_MTF,0.22413713875358798
BMu101,49,C,REL,Gait_Normal,4,L_MTF,0.17944353515992362
BMu101,49,C,REL,Gait_Normal,4,R_MTF,0.21577672501118358
BMu101,49,C,REL,Gait_Normal,5,L_MTF,0.19213155578317245
BMu101,49,C,REL,Gait_Normal,5,R_MTF,0.2202746595164032
BMu101,49,C,REL,Gait_Normal,6,L_MTF,0.15195906888275504
BMu101,49,C,REL,Gait_Normal,6,R_MTF,0.18531849412995793
BMu101,49,C,REL,Gait_Normal,7,L_MTF,0.19251364551043615
BMu101,49,C,REL,Gait_Normal,7,R_MTF,0.1849520947850873
BMu101,49,C,REL,Gait_Normal,8,L_MTF,0.14525006401543974
BMu101,49,C,REL,Gait_Normal,8,R_MTF,0.19280146406747914
BMu101,50,P,INI,Gait_Normal,1,L_MTF,0.23383145995228052
BMu101,50,P,INI,Gait_Normal,1,R_MTF,0.2457708958933964
BMu101,50,P,INI,Gait_Normal,2,L_MTF,0.17976071745507216
BMu101,50,P,INI,Gait_Normal,2,R_MTF,0.21569301012536837
BMu101,50,P,INI,Gait_Normal,3,L_MTF,0.2478857891760561
BMu101,50,P,INI,Gait_Normal,3,R_MTF,0.264467356158044
BMu101,50,P,INI,Gait_Normal,4,L_MTF,0.28839166786269216
BMu101,50,P,INI,Gait_Normal,4,R_MTF,0.25979035603651823
BMu101,50,P,INI,Gait_Normal,5,L_MTF,0.19916434845040698
BMu101,50,P,INI,Gait_Normal,5,R_MTF,0.29970808911728625
BMu101,50,P,INI,Gait_Normal,6,L_MTF,0.1550397036554985
BMu101,50,P,INI,Gait_Normal,6,R_MTF,0.23714216257401152
BMu101,50,P,REL,Gait_Normal,1,L_MTF,0.1331298175698272
BMu101,50,P,REL,Gait_Normal,1,R_MTF,0.18694463785388712
BMu101,50,P,REL,Gait_Normal,2,L_MTF,0.20073691337755406
BMu101,50,P,REL,Gait_Normal,2,R_MTF,0.20699103224344892
BMu101,50,P,REL,Gait_Normal,3,L_MTF,0.15627459927629553
BMu101,50,P,REL,Gait_Normal,3,R_MTF,0.20112179143908807
BMu101,50,P,REL,Gait_Normal,4,L_MTF,0.12094085308014042
BMu101,50,P,REL,Gait_Normal,4,R_MTF,0.204845147738403
BMu101,50,P,REL,Gait_Normal,5,L_MTF,0.15706239088241777
BMu101,50,P,REL,Gait_Normal,5,R_MTF,0.18393921617441697
BMu101,51,P,INI,Gait_Normal,1,L_MTF,0.16883086162171035
BMu101,51,P,INI,Gait_Normal,1,R_MTF,0.144955890738588
BMu101,51,P,INI,Gait_Normal,2,L_MTF,0.16436995796432055
BMu101,51,P,INI,Gait_Normal,2,R_MTF,0.1590888970646818
BMu101,51,P,INI,Gait_Normal,3,L_MTF,0.17331066725600905
BMu101,51,P,INI,Gait_Normal,3,R_MTF,0.14201879696594122
BMu101,51,P,INI,Gait_Normal,4,L_MTF,0.18191021997898008
BMu101,51,P,INI,Gait_Normal,4,R_MTF,0.14683865099728846
BMu101,51,P,INI,Gait_Normal,5,L_MTF,0.15153868720414584
BMu101,51,P,INI,Gait_Normal,5,R_MTF,0.13323138465425133
BMu101,51,P,INI,Gait_Normal,6,L_MTF,0.1656549295860201
BMu101,51,P,INI,Gait_Normal,6,R_MTF,0.14970730842751526
BMu101,51,P,REL,Gait_Normal,1,L_MTF,0.17256905418811438
BMu101,51,P,REL,Gait_Normal,1,R_MTF,0.14980238802310833
BMu101,51,P,REL,Gait_Normal,2,L_MTF,0.17462414620918013
BMu101,51,P,REL,Gait_Normal,2,R_MTF,0.15538724064573242
BMu101,51,P,REL,Gait_Normal,3,L_MTF,0.17116101538923956
BMu101,51,P,REL,Gait_Normal,3,R_MTF,0.15282723515663243
BMu101,51,P,REL,Gait_Normal,4,L_MTF,0.15893620530696345
BMu101,51,P,REL,Gait_Normal,4,R_MTF,0.16000595451050978
BMu101,51,P,REL,Gait_Normal,5,L_MTF,0.1476157847479532
BMu101,51,P,REL,Gait_Normal,5,R_MTF,0.13781718448576655
BMu101,51,P,REL,Gait_Normal,6,L_MTF,0.14830680105092012
BMu101,51,P,REL,Gait_Normal,6,R_MTF,0.14315229248522862
BMu101,52,C,INI,Gait_Normal,1,L_MTF,0.14000056613817846
BMu101,52,C,INI,Gait_Normal,1,R_MTF,0.18198943701402945
BMu101,52,C,INI,Gait_Normal,2,L_MTF,0.12016888391217427
BMu101,52,C,INI,Gait_Normal,2,R_MTF,0.13671294124332564
BMu101,52,C,INI,Gait_Normal,3,L_MTF,0.12750920154894754
BMu101,52,C,INI,Gait_Normal,3,R_MTF,0.13637602687557984
BMu101,52,C,INI,Gait_Normal,4,L_MTF,0.12299613673138492
BMu101,52,C,INI,Gait_Normal,4,R_MTF,0.13793304964791145
BMu101,52,C,INI,Gait_Normal,5,L_MTF,0.1396392883020043
BMu101,52,C,INI,Gait_Normal,5,R_MTF,0.12530369034828434
BMu101,52,C,INI,Gait_Normal,6,L_MTF,0.11088452677500697
BMu101,52,C,INI,Gait_Normal,6,R_MTF,0.15381438327977162
BMu101,52,C,REL,Gait_Normal,1,L_MTF,0.2053541085372711
BMu101,52,C,REL,Gait_Normal,1,R_MTF,0.19852186650291734
BMu101,52,C,REL,Gait_Normal,2,L_MTF,0.17990939279229928
BMu101,52,C,REL,Gait_Normal,2,R_MTF,0.17749575490009412
BMu101,52,C,REL,Gait_Normal,3,L_MTF,0.16720178700367028
BMu101,52,C,REL,Gait_Normal,3,R_MTF,0.19060484929877922
BMu101,52,C,REL,Gait_Normal,4,L_MTF,0.16169930484478243
BMu101,52,C,REL,Gait_Normal,4,R_MTF,0.17260172502629395
BMu101,52,C,REL,Gait_Normal,5,L_MTF,0.17131724427533468
BMu101,52,C,REL,Gait_Normal,5,R_MTF,0.18844007055192669
BMu101,52,C,REL,Gait_Normal,6,L_MTF,0.18362443879737192
BMu101,52,C,REL,Gait_Normal,6,R_MTF,0.14936825465402215
BMu101,53,P,INI,Gait_Normal,1,L_MTF,0.12260773081606303
BMu101,53,P,INI,Gait_Normal,1,R_MTF,0.11851701931135172
BMu101,53,P,INI,Gait_Normal,2,L_MTF,0.1645009582275215
BMu101,53,P,INI,Gait_Normal,2,R_MTF,0.15563214912836287
BMu101,53,P,INI,Gait_Normal,3,L_MTF,0.115163788263045
BMu101,53,P,INI,Gait_Normal,3,R_MTF,0.13585052604811654
BMu101,53,P,INI,Gait_Normal,4,L_MTF,0.1321701533741849
BMu101,53,P,INI,Gait_Normal,4,R_MTF,0.14076387970112295
BMu101,53,P,INI,Gait_Normal,5,L_MTF,0.13604092447697166
BMu101,53,P,INI,Gait_Normal,5,R_MTF,0.15387399030602136
BMu101,53,P,INI,Gait_Normal,6,L_MTF,0.12312605513027045
BMu101,53,P,INI,Gait_Normal,6,R_MTF,0.1626183293359224
BMu101,53,P,REL,Gait_Normal,1,L_MTF,0.3181623711618791
BMu101,53,P,REL,Gait_Normal,1,R_MTF,0.18445759246948237
BMu101,53,P,REL,Gait_Normal,2,L_MTF,0.2955363941758372
BMu101,53,P,REL,Gait_Normal,2,R_MTF,0.1943364061364771
BMu101,53,P,REL,Gait_Normal,3,L_MTF,0.31035084916299455
BMu101,53,P,REL,Gait_Normal,3,R_MTF,0.21249371314075574
BMu101,53,P,REL,Gait_Normal,4,L_MTF,0.2881009101922634
BMu101,53,P,REL,Gait_Normal,4,R_MTF,0.2019207279426168
BMu101,53,P,REL,Gait_Normal,5,L_MTF,0.3078670101544304
BMu101,53,P,REL,Gait_Normal,5,R_MTF,0.19653786719352526
BMu101,53,P,REL,Gait_Normal,6,L_MTF,0.264223154673472
BMu101,53,P,REL,Gait_Normal,6,R_MTF,0.20707468489982683
BMu101,54,P,INI,Gait_Normal,1,L_MTF,0.14487661268112406
BMu101,54,P,INI,Gait_Normal,1,R_MTF,0.16479990362208816
BMu101,54,P,INI,Gait_Normal,2,L_MTF,0.11800286618648048
BMu101,54,P,INI,Gait_Normal,2,R_MTF,0.1372346845825957
BMu101,54,P,INI,Gait_Normal,3,L_MTF,0.14905635972064696
BMu101,54,P,INI,Gait_Normal,3,R_MTF,0.16532806696169824
BMu101,54,P,INI,Gait_Normal,4,L_MTF,0.11247374971594194
BMu101,54,P,INI,Gait_Normal,4,R_MTF,0.1678962494736392
BMu101,54,P,INI,Gait_Normal,5,L_MTF,0.1805444895554286
BMu101,54,P,INI,Gait_Normal,5,R_MTF,0.17654778595715678
BMu101,54,P,REL,Gait_Normal,1,L_MTF,0.09669912759618994
BMu101,54,P,REL,Gait_Normal,1,R_MTF,0.09228096027753784
BMu101,54,P,REL,Gait_Normal,2,L_MTF,0.10710130334543123
BMu101,54,P,REL,Gait_Normal,2,R_MTF,0.11002094205143405
BMu101,54,P,REL,Gait_Normal,3,L_MTF,0.11935620520205643
BMu101,54,P,REL,Gait_Normal,3,R_MTF,0.11536743160640395
BMu101,54,P,REL,Gait_Normal,4,L_MTF,0.1059115463892389
BMu101,54,P,REL,Gait_Normal,4,R_MTF,0.10746348007164784
BMu101,54,P,REL,Gait_Normal,5,L_MTF,0.10582596192305198
BMu101,54,P,REL,Gait_Normal,5,R_MTF,0.11668418391876485
BMu101,54,P,REL,Gait_Normal,6,L_MTF,0.10246462593313238
BMu101,54,P,REL,Gait_Normal,6,R_MTF,0.10526372429685525
BMu101,54,P,REL,Gait_Normal,7,L_MTF,0.09845792342996958
BMu101,54,P,REL,Gait_Normal,7,R_MTF,0.11064589989455609
BMu101,54,P,REL,Gait_Normal,8,L_MTF,0.1045069430338561
BMu101,54,P,REL,Gait_Normal,8,R_MTF,0.10855437965027452
BMu101,55,C,INI,Gait_Normal,1,L_MTF,0.28558024185271536
BMu101,55,C,INI,Gait_Normal,1,R_MTF,0.1556331138952362
BMu101,55,C,INI,Gait_Normal,2,L_MTF,0.24743851940472736
BMu101,55,C,INI,Gait_Normal,2,R_MTF,0.14777722182339514
BMu101,55,C,INI,Gait_Normal,3,L_MTF,0.2832917024143077
BMu101,55,C,INI,Gait_Normal,3,R_MTF,0.14972780696664922
BMu101,55,C,INI,Gait_Normal,4,L_MTF,0.2602682130208059
BMu101,55,C,INI,Gait_Normal,4,R_MTF,0.15857187561114472
BMu101,55,C,INI,Gait_Normal,5,L_MTF,0.30192306301225785
BMu101,55,C,INI,Gait_Normal,5,R_MTF,0.15978096897028363
BMu101,55,C,INI,Gait_Normal,6,L_MTF,0.2713183934311944
BMu101,55,C,INI,Gait_Normal,6,R_MTF,0.15565534576357098
BMu101,55,C,INI,Gait_Normal,7,L_MTF,0.2541318081384822
BMu101,55,C,INI,Gait_Normal,7,R_MTF,0.15000465710596764
BMu101,55,C,REL,Gait_Normal,1,L_MTF,0.26536832883048733
BMu101,55,C,REL,Gait_Normal,1,R_MTF,0.15709661327998517
BMu101,55,C,REL,Gait_Normal,2,L_MTF,0.2575465242893763
BMu101,55,C,REL,Gait_Normal,2,R_MTF,0.14740940812562472
BMu101,55,C,REL,Gait_Normal,3,L_MTF,0.2389332155183416
BMu101,55,C,REL,Gait_Normal,3,R_MTF,0.14441451352788934
BMu101,55,C,REL,Gait_Normal,4,L_MTF,0.24188648141585964
BMu101,55,C,REL,Gait_Normal,4,R_MTF,0.139665400066983
BMu101,55,C,REL,Gait_Normal,5,L_MTF,0.2632533657072907
BMu101,55,C,REL,Gait_Normal,5,R_MTF,0.15576717698703843
BMu101,55,C,REL,Gait_Normal,6,L_MTF,0.22980715672926152
BMu101,55,C,REL,Gait_Normal,6,R_MTF,0.14115613999393822
BMu101,55,C,REL,Gait_Normal,7,L_MTF,0.22285565963307272
BMu101,55,C,REL,Gait_Normal,7,R_MTF,0.14506280473013666
BMu101,56,C,INI,Gait_Normal,1,L_MTF,0.11408761775765659
BMu101,56,C,INI,Gait_Normal,1,R_MTF,0.17705109201420619
BMu101,56,C,INI,Gait_Normal,2,L_MTF,0.6495360254620658
BMu101,56,C,INI,Gait_Normal,2,R_MTF,0.1783496585309512
BMu101,56,C,INI,Gait_Normal,3,L_MTF,1.277932339656525
BMu101,56,C,INI,Gait_Normal,3,R_MTF,0.19754625042261964
BMu101,56,C,INI,Gait_Normal,4,L_MTF,1.0000300376049727
BMu101,56,C,INI,Gait_Normal,4,R_MTF,0.16822707801071546
BMu101,56,C,INI,Gait_Normal,5,L_MTF,0.19219804671589358
BMu101,56,C,INI,Gait_Normal,5,R_MTF,0.19398810085305068
BMu101,56,C,INI,Gait_Normal,6,L_MTF,0.5540673078317228
BMu101,56,C,INI,Gait_Normal,6,R_MTF,0.23899152642063182
BMu101,56,C,INI,Gait_Normal,7,L_MTF,0.17079014652362912
BMu101,56,C,INI,Gait_Normal,7,R_MTF,0.2214283052761732
BMu101,56,C,REL,Gait_Normal,1,L_MTF,0.12111716443687533
BMu101,56,C,REL,Gait_Normal,1,R_MTF,0.16634540065374964
BMu101,56,C,REL,Gait_Normal,2,L_MTF,0.10171023968446845
BMu101,56,C,REL,Gait_Normal,2,R_MTF,0.13898595984478568
BMu101,56,C,REL,Gait_Normal,3,L_MTF,0.12774453478285985
BMu101,56,C,REL,Gait_Normal,3,R_MTF,0.15662495977833713
BMu101,56,C,REL,Gait_Normal,4,L_MTF,0.09970935159081622
BMu101,56,C,REL,Gait_Normal,4,R_MTF,0.14829666852397227
BMu101,56,C,REL,Gait_Normal,5,L_MTF,0.11661499055338143
BMu101,56,C,REL,Gait_Normal,5,R_MTF,0.14798178727103958
BMu101,56,C,REL,Gait_Normal,6,L_MTF,0.0933141136761888
BMu101,56,C,REL,Gait_Normal,6,R_MTF,0.1401506175402675
BMu101,56,C,REL,Gait_Normal,7,L_MTF,0.14441817600929344
BMu101,56,C,REL,Gait_Normal,7,R_MTF,0.1482734946565171
BMu101,56,C,REL,Gait_Normal,8,L_MTF,0.10230899443218683
BMu101,56,C,REL,Gait_Normal,8,R_MTF,0.1525008093896002
BMu101,57,C,INI,Gait_Normal,1,L_MTF,0.7934256998093238
BMu101,57,C,INI,Gait_Normal,1,R_MTF,0.7887009023618287
BMu101,57,C,INI,Gait_Normal,2,L_MTF,3.163935428504973
BMu101,57,C,INI,Gait_Normal,2,R_MTF,0.7781029446806261
BMu101,57,C,INI,Gait_Normal,3,L_MTF,0.8457846330775419
BMu101,57,C,INI,Gait_Normal,3,R_MTF,0.7760982528880472
BMu101,57,C,INI,Gait_Normal,4,L_MTF,0.7489412806803971
BMu101,57,C,INI,Gait_Normal,4,R_MTF,0.9934654265238002
BMu101,57,C,INI,Gait_Normal,5,L_MTF,1.8120196199328127
BMu101,57,C,INI,Gait_Normal,5,R_MTF,0.8390611326056895
BMu101,57,C,INI,Gait_Normal,6,L_MTF,3.8137940296571458
BMu101,57,C,INI,Gait_Normal,6,R_MTF,0.774944011826476
BMu101,57,C,INI,Gait_Normal,7,L_MTF,4.168916335641154
BMu101,57,C,INI,Gait_Normal,7,R_MTF,0.8311190120681741
BMu101,57,C,INI,Gait_Normal,8,L_MTF,3.0043429475893144
BMu101,57,C,INI,Gait_Normal,8,R_MTF,0.9370369179896246
BMu101,57,C,REL,Gait_Normal,1,L_MTF,0.3164907512415807
BMu101,57,C,REL,Gait_Normal,1,R_MTF,0.23696127382405097
BMu101,57,C,REL,Gait_Normal,2,L_MTF,0.28243205160577645
BMu101,57,C,REL,Gait_Normal,2,R_MTF,0.8719172748296803
BMu101,57,C,REL,Gait_Normal,3,L_MTF,0.3907180060418847
BMu101,57,C,REL,Gait_Normal,3,R_MTF,0.4794994351700324
BMu101,57,C,REL,Gait_Normal,4,L_MTF,0.4320220807522175
BMu101,57,C,REL,Gait_Normal,4,R_MTF,0.3514270590968078
BMu101,57,C,REL,Gait_Normal,5,L_MTF,0.4004204808675864
BMu101,57,C,REL,Gait_Normal,5,R_MTF,0.3768007589729492
BMu101,57,C,REL,Gait_Normal,6,L_MTF,0.47836385886097216
BMu101,57,C,REL,Gait_Normal,6,R_MTF,0.3355982538853797
BMu101,57,C,REL,Gait_Normal,7,L_MTF,0.34706858256558987
BMu101,57,C,REL,Gait_Normal,7,R_MTF,0.2962532021174356
BMu101,57,C,REL,Gait_Normal,8,L_MTF,0.49338221376430963
BMu101,57,C,REL,Gait_Normal,8,R_MTF,0.34476364355274486
BMu101,57,C,REL,Gait_Normal,9,L_MTF,0.3819100275617087
BMu101,57,C,REL,Gait_Normal,9,R_MTF,0.3618631497961268
BMu101,58,P,INI,Gait_Normal,1,L_MTF,0.043690701357985466
BMu101,58,P,INI,Gait_Normal,1,R_MTF,0.18822064595062074
BMu101,58,P,INI,Gait_Normal,2,L_MTF,0.0474757500330753
BMu101,58,P,INI,Gait_Normal,2,R_MTF,0.19021790193155852
BMu101,58,P,INI,Gait_Normal,3,L_MTF,0.051331542527084995
BMu101,58,P,INI,Gait_Normal,3,R_MTF,0.22294930030625135
BMu101,58,P,INI,Gait_Normal,4,L_MTF,0.0474434181954703
BMu101,58,P,INI,Gait_Normal,4,R_MTF,0.16929518473272373
BMu101,58,P,INI,Gait_Normal,5,L_MTF,0.05055694583030679
BMu101,58,P,INI,Gait_Normal,5,R_MTF,0.18885651248127658
BMu101,58,P,INI,Gait_Normal,6,L_MTF,0.04946056386191892
BMu101,58,P,INI,Gait_Normal,6,R_MTF,0.16842378154958815
BMu101,58,P,REL,Gait_Normal,1,L_MTF,0.3209984060417562
BMu101,58,P,REL,Gait_Normal,1,R_MTF,0.2620983987582045
BMu101,58,P,REL,Gait_Normal,2,L_MTF,0.46694988529374504
BMu101,58,P,REL,Gait_Normal,2,R_MTF,0.3254860356807096
BMu101,58,P,REL,Gait_Normal,3,L_MTF,0.3702138502261734
BMu101,58,P,REL,Gait_Normal,3,R_MTF,0.2673257598631588
BMu101,58,P,REL,Gait_Normal,4,L_MTF,0.3600404516315591
BMu101,58,P,REL,Gait_Normal,4,R_MTF,0.3043874092556051
BMu101,58,P,REL,Gait_Normal,5,L_MTF,0.3147414298732297
BMu101,58,P,REL,Gait_Normal,5,R_MTF,0.24772922712944143
BMu101,58,P,REL,Gait_Normal,6,L_MTF,0.3430525432096314
BMu101,58,P,REL,Gait_Normal,6,R_MTF,0.2800592167235789
BMu101,58,P,REL,Gait_Normal,7,L_MTF,0.3205479484575347
BMu101,58,P,REL,Gait_Normal,7,R_MTF,0.2295131912949098
BMu101,58,P,REL,Gait_Normal,8,L_MTF,0.4430236739779196
BMu101,58,P,REL,Gait_Normal,8,R_MTF,0.20218648330348482
BMu101,58,P,REL,Gait_Normal,9,L_MTF,0.2988109603184068
BMu101,58,P,REL,Gait_Normal,9,R_MTF,0.1807412645034394
BMu101,60,C,INI,Gait_Normal,1,L_MTF,0.09882070360537798
BMu101,60,C,INI,Gait_Normal,1,R_MTF,0.13099984399420644
BMu101,60,C,INI,Gait_Normal,2,L_MTF,0.0721976390523817
BMu101,60,C,INI,Gait_Normal,2,R_MTF,0.11200456897515994
BMu101,60,C,INI,Gait_Normal,3,L_MTF,0.05024357284385183
BMu101,60,C,INI,Gait_Normal,3,R_MTF,0.08062740230299549
BMu101,60,C,INI,Gait_Normal,4,L_MTF,0.07574110032663146
BMu101,60,C,INI,Gait_Normal,4,R_MTF,0.10251090115815203
BMu101,60,C,INI,Gait_Normal,5,L_MTF,0.0478517719703714
BMu101,60,C,INI,Gait_Normal,5,R_MTF,0.07707264079402242
BMu101,60,C,INI,Gait_Normal,6,L_MTF,0.082337957863074
BMu101,60,C,INI,Gait_Normal,6,R_MTF,0.12043331550944363
BMu101,60,C,REL,Gait_Normal,1,L_MTF,0.05958645810279863
BMu101,60,C,REL,Gait_Normal,1,R_MTF,0.08202644656782739
BMu101,60,C,REL,Gait_Normal,2,L_MTF,0.07271933473127572
BMu101,60,C,REL,Gait_Normal,2,R_MTF,0.1081737892593011
BMu101,60,C,REL,Gait_Normal,3,L_MTF,0.09903538912522523
BMu101,60,C,REL,Gait_Normal,3,R_MTF,0.11161180888458505
BMu101,60,C,REL,Gait_Normal,4,L_MTF,0.05449924008845356
BMu101,60,C,REL,Gait_Normal,4,R_MTF,0.06973865031189504
BMu101,60,C,REL,Gait_Normal,5,L_MTF,0.08403655326005133
BMu101,60,C,REL,Gait_Normal,5,R_MTF,0.10443769035252067
BMu101,60,C,REL,Gait_Normal,6,L_MTF,0.06630664162755116
BMu101,60,C,REL,Gait_Normal,6,R_MTF,0.11658495125329804
BMu101,61,P,REL,Gait_Normal,1,L_MTF,0.25717125163582105
BMu101,61,P,REL,Gait_Normal,1,R_MTF,0.2767133843095714
BMu101,61,P,REL,Gait_Normal,2,L_MTF,0.27588325659726837
BMu101,61,P,REL,Gait_Normal,2,R_MTF,0.4127047299053957
BMu101,61,P,REL,Gait_Normal,3,L_MTF,0.2725091571673271
BMu101,61,P,REL,Gait_Normal,3,R_MTF,0.37013803888044633
BMu101,61,P,REL,Gait_Normal,4,L_MTF,0.29533615715451234
BMu101,61,P,REL,Gait_Normal,4,R_MTF,0.3570896068816256
BMu101,61,P,REL,Gait_Normal,5,L_MTF,0.265120283992609
BMu101,61,P,REL,Gait_Normal,5,R_MTF,0.3300137362551629
BMu101,61,P,REL,Gait_Normal,6,L_MTF,0.3133294616891669
BMu101,61,P,REL,Gait_Normal,6,R_MTF,0.39285964722104283
BMu101,61,P,REL,Gait_Normal,7,L_MTF,0.2924829773258803
BMu101,61,P,REL,Gait_Normal,7,R_MTF,0.322128422037717
BMu101,62,P,INI,Gait_Normal,1,L_MTF,0.16522454523571828
BMu101,62,P,INI,Gait_Normal,1,R_MTF,0.20562351692009626
BMu101,62,P,INI,Gait_Normal,2,L_MTF,0.13709375208786345
BMu101,62,P,INI,Gait_Normal,2,R_MTF,0.2330559688892696
BMu101,62,P,INI,Gait_Normal,3,L_MTF,0.16487120236722644
BMu101,62,P,INI,Gait_Normal,3,R_MTF,0.23904406307875106
BMu101,62,P,INI,Gait_Normal,4,L_MTF,0.14854304976676583
BMu101,62,P,INI,Gait_Normal,4,R_MTF,0.2068245770321593
BMu101,62,P,INI,Gait_Normal,5,L_MTF,0.15014284105910233
BMu101,62,P,INI,Gait_Normal,5,R_MTF,0.21341311248195063
BMu101,62,P,INI,Gait_Normal,6,L_MTF,0.14798827790783056
BMu101,62,P,INI,Gait_Normal,6,R_MTF,0.24527043634775633
BMu101,62,P,INI,Gait_Normal,7,L_MTF,0.1521373816489749
BMu101,62,P,INI,Gait_Normal,7,R_MTF,0.21481530882870278
BMu101,62,P,REL,Gait_Normal,1,L_MTF,0.2077960256770631
BMu101,62,P,REL,Gait_Normal,1,R_MTF,0.23919183705556832
BMu101,62,P,REL,Gait_Normal,2,L_MTF,0.1757931837550927
BMu101,62,P,REL,Gait_Normal,2,R_MTF,0.24999936937776646
BMu101,62,P,REL,Gait_Normal,3,L_MTF,0.22337026467297996
BMu101,62,P,REL,Gait_Normal,3,R_MTF,0.2530397984082873
BMu101,62,P,REL,Gait_Normal,4,L_MTF,0.15011954066636835
BMu101,62,P,REL,Gait_Normal,4,R_MTF,0.2067197941350574
BMu101,62,P,REL,Gait_Normal,5,L_MTF,0.17941256892103463
BMu101,62,P,REL,Gait_Normal,5,R_MTF,0.22145113674479103
BMu101,62,P,REL,Gait_Normal,6,L_MTF,0.21632943760788118
BMu101,62,P,REL,Gait_Normal,6,R_MTF,0.23734179631045227
BMu101,62,P,REL,Gait_Normal,7,L_MTF,0.19808997035624984
BMu101,62,P,REL,Gait_Normal,7,R_MTF,0.2649722825957234
BMu101,63,P,INI,Gait_Normal,1,L_MTF,0.29242404549304896
BMu101,63,P,INI,Gait_Normal,1,R_MTF,0.11297673973776928
BMu101,63,P,INI,Gait_Normal,2,L_MTF,0.2681539060984642
BMu101,63,P,INI,Gait_Normal,2,R_MTF,0.11967949195781485
BMu101,63,P,INI,Gait_Normal,3,L_MTF,0.2292685727025832
BMu101,63,P,INI,Gait_Normal,3,R_MTF,0.12147125734360588
BMu101,63,P,INI,Gait_Normal,4,L_MTF,0.2424795302442404
BMu101,63,P,INI,Gait_Normal,4,R_MTF,0.10314060969803683
BMu101,63,P,INI,Gait_Normal,5,L_MTF,0.2409047894808789
BMu101,63,P,INI,Gait_Normal,5,R_MTF,0.13494863726432102
BMu101,63,P,INI,Gait_Normal,6,L_MTF,0.2332209155005389
BMu101,63,P,INI,Gait_Normal,6,R_MTF,0.09972887527999326
BMu101,63,P,INI,Gait_Normal,7,L_MTF,0.2569368084262964
BMu101,63,P,INI,Gait_Normal,7,R_MTF,0.12056997726033254
BMu101,63,P,INI,Gait_Normal,8,L_MTF,0.2066535609586222
BMu101,63,P,INI,Gait_Normal,8,R_MTF,0.09397123040777726
BMu101,63,P,REL,Gait_Normal,1,L_MTF,0.21434750608323003
BMu101,63,P,REL,Gait_Normal,1,R_MTF,0.13418003202583353
BMu101,63,P,REL,Gait_Normal,2,L_MTF,0.2154300837874275
BMu101,63,P,REL,Gait_Normal,2,R_MTF,0.12035567887321327
BMu101,63,P,REL,Gait_Normal,3,L_MTF,0.2434975479634866
BMu101,63,P,REL,Gait_Normal,3,R_MTF,0.12295718993725166
BMu101,63,P,REL,Gait_Normal,4,L_MTF,0.19529646414874272
BMu101,63,P,REL,Gait_Normal,4,R_MTF,0.13229616430900074
BMu101,63,P,REL,Gait_Normal,5,L_MTF,0.18671588485083607
BMu101,63,P,REL,Gait_Normal,5,R_MTF,0.12098897318864675
BMu101,63,P,REL,Gait_Normal,6,L_MTF,0.19915898310597055
BMu101,63,P,REL,Gait_Normal,6,R_MTF,0.11054300645474785
BMu101,63,P,REL,Gait_Normal,7,L_MTF,0.21711307373217287
BMu101,63,P,REL,Gait_Normal,7,R_MTF,0.14243670221697657
BMu101,63,P,REL,Gait_Normal,8,L_MTF,0.1884345051736887
BMu101,63,P,REL,Gait_Normal,8,R_MTF,0.1284124214390274
BMu101,64,C,INI,Gait_Normal,1,L_MTF,0.0939228174668832
BMu101,64,C,INI,Gait_Normal,1,R_MTF,0.12382752186641259
BMu101,64,C,INI,Gait_Normal,2,L_MTF,0.0884235725046008
BMu101,64,C,INI,Gait_Normal,2,R_MTF,0.1216459960954267
BMu101,64,C,INI,Gait_Normal,3,L_MTF,0.1073460255947236
BMu101,64,C,INI,Gait_Normal,3,R_MTF,0.13012719078891563
BMu101,64,C,INI,Gait_Normal,4,L_MTF,0.10219844997169396
BMu101,64,C,INI,Gait_Normal,4,R_MTF,0.1500489352691748
BMu101,64,C,INI,Gait_Normal,5,L_MTF,0.11990251935167262
BMu101,64,C,INI,Gait_Normal,5,R_MTF,0.1430223594816419
BMu101,64,C,INI,Gait_Normal,6,L_MTF,0.07994701565169825
BMu101,64,C,INI,Gait_Normal,6,R_MTF,0.11601460707795523
BMu101,64,C,INI,Gait_Normal,7,L_MTF,0.10448077808335904
BMu101,64,C,INI,Gait_Normal,7,R_MTF,0.12129369291573248
BMu101,64,C,INI,Gait_Normal,8,L_MTF,0.09390366292771642
BMu101,64,C,INI,Gait_Normal,8,R_MTF,0.121489143862915
BMu101,64,C,REL,Gait_Normal,1,L_MTF,0.10274013424365587
BMu101,64,C,REL,Gait_Normal,1,R_MTF,0.1611911728814095
BMu101,64,C,REL,Gait_Normal,2,L_MTF,0.0880267501559707
BMu101,64,C,REL,Gait_Normal,2,R_MTF,0.14234431707561768
BMu101,64,C,REL,Gait_Normal,3,L_MTF,0.10500438565736321
BMu101,64,C,REL,Gait_Normal,3,R_MTF,0.18148687573338537
BMu101,64,C,REL,Gait_Normal,4,L_MTF,0.10118291899354526
BMu101,64,C,REL,Gait_Normal,4,R_MTF,0.17002301035583073
BMu101,64,C,REL,Gait_Normal,5,L_MTF,0.08797186085428431
BMu101,64,C,REL,Gait_Normal,5,R_MTF,0.15000990595144328
BMu101,64,C,REL,Gait_Normal,6,L_MTF,0.09089061254529066
BMu101,64,C,REL,Gait_Normal,6,R_MTF,0.17006962086217747
BMu101,65,P,INI,Gait_Normal,1,L_MTF,0.16518085287559078
BMu101,65,P,INI,Gait_Normal,1,R_MTF,0.16640535205797463
BMu101,65,P,INI,Gait_Normal,2,L_MTF,0.13635985353349367
BMu101,65,P,INI,Gait_Normal,2,R_MTF,0.12912703802501646
BMu101,65,P,INI,Gait_Normal,3,L_MTF,0.16226330348301304
BMu101,65,P,INI,Gait_Normal,3,R_MTF,0.18059017627313584
BMu101,65,P,INI,Gait_Normal,4,L_MTF,0.20131371904344286
BMu101,65,P,INI,Gait_Normal,4,R_MTF,0.15593831044934575
BMu101,65,P,INI,Gait_Normal,5,L_MTF,0.16110770207344388
BMu101,65,P,INI,Gait_Normal,5,R_MTF,0.1608510292247775
BMu101,65,P,INI,Gait_Normal,6,L_MTF,0.1408792962040406
BMu101,65,P,INI,Gait_Normal,6,R_MTF,0.1300111503009614
BMu101,65,P,REL,Gait_Normal,1,L_MTF,0.15907951399029868
BMu101,65,P,REL,Gait_Normal,1,R_MTF,0.1555693434561224
BMu101,65,P,REL,Gait_Normal,2,L_MTF,0.15937317990031125
BMu101,65,P,REL,Gait_Normal,2,R_MTF,0.16403520329775378
BMu101,65,P,REL,Gait_Normal,3,L_MTF,0.18074284666711002
BMu101,65,P,REL,Gait_Normal,3,R_MTF,0.19043701358150042
BMu101,65,P,REL,Gait_Normal,4,L_MTF,0.17138465494346894
BMu101,65,P,REL,Gait_Normal,4,R_MTF,0.15330114331877642
BMu101,65,P,REL,Gait_Normal,5,L_MTF,0.21133776773669538
BMu101,65,P,REL,Gait_Normal,5,R_MTF,0.20351770851616813
BMu101,65,P,REL,Gait_Normal,6,L_MTF,0.14168992649150608
BMu101,65,P,REL,Gait_Normal,6,R_MTF,0.18079370520477472
BMu101,66,C,INI,Gait_Normal,1,L_MTF,1.613336310895015
BMu101,66,C,INI,Gait_Normal,1,R_MTF,0.1603792264433154
BMu101,66,C,INI,Gait_Normal,2,L_MTF,0.6344519380761929
BMu101,66,C,INI,Gait_Normal,2,R_MTF,0.14836009265456426
BMu101,66,C,INI,Gait_Normal,3,L_MTF,0.45899292241404094
BMu101,66,C,INI,Gait_Normal,3,R_MTF,0.143563189437696
BMu101,66,C,INI,Gait_Normal,4,L_MTF,0.362256937540856
BMu101,66,C,INI,Gait_Normal,4,R_MTF,0.1500068052568741
BMu101,66,C,INI,Gait_Normal,5,L_MTF,0.3930938816042853
BMu101,66,C,INI,Gait_Normal,5,R_MTF,0.17203034506056455
BMu101,66,C,INI,Gait_Normal,6,L_MTF,0.31847706154332406
BMu101,66,C,INI,Gait_Normal,6,R_MTF,0.15931668723092976
BMu101,66,C,INI,Gait_Normal,7,L_MTF,0.3005601820045835
BMu101,66,C,INI,Gait_Normal,7,R_MTF,0.15980142280392914
BMu101,66,C,INI,Gait_Normal,8,L_MTF,0.26303868634530253
BMu101,66,C,INI,Gait_Normal,8,R_MTF,0.15486555627604867
BMu101,66,C,REL,Gait_Normal,1,L_MTF,0.1000978531234507
BMu101,66,C,REL,Gait_Normal,1,R_MTF,0.2823916064798637
BMu101,66,C,REL,Gait_Normal,2,L_MTF,0.11184409497405541
BMu101,66,C,REL,Gait_Normal,2,R_MTF,0.2823631490947797
BMu101,66,C,REL,Gait_Normal,3,L_MTF,0.11186086776385729
BMu101,66,C,REL,Gait_Normal,3,R_MTF,0.2631677877891147
BMu101,66,C,REL,Gait_Normal,4,L_MTF,0.12158751991138989
BMu101,66,C,REL,Gait_Normal,4,R_MTF,0.1839218067387487
BMu101,67,C,INI,Gait_Normal,1,L_MTF,0.3513253032270033
BMu101,67,C,INI,Gait_Normal,1,R_MTF,0.6007141262365576
BMu101,67,C,INI,Gait_Normal,2,L_MTF,0.191879748568827
BMu101,67,C,INI,Gait_Normal,2,R_MTF,0.35449179696721406
BMu101,67,C,INI,Gait_Normal,3,L_MTF,0.29102805830613465
BMu101,67,C,INI,Gait_Normal,3,R_MTF,0.3865491790233967
BMu101,67,C,INI,Gait_Normal,4,L_MTF,0.27980841631013575
BMu101,67,C,INI,Gait_Normal,4,R_MTF,0.4681105200585117
BMu101,67,C,INI,Gait_Normal,5,L_MTF,0.28522966782681425
BMu101,67,C,INI,Gait_Normal,5,R_MTF,0.5443459624440261
BMu101,67,C,INI,Gait_Normal,6,L_MTF,0.32724315306201124
BMu101,67,C,INI,Gait_Normal,6,R_MTF,0.40776563561450097
BMu101,67,C,INI,Gait_Normal,7,L_MTF,0.211422084659094
BMu101,67,C,INI,Gait_Normal,7,R_MTF,0.2583878566516792
BMu101,67,C,REL,Gait_Normal,1,L_MTF,0.09648677766417942
BMu101,67,C,REL,Gait_Normal,1,R_MTF,0.14869539527669778
BMu101,67,C,REL,Gait_Normal,2,L_MTF,0.15227708370073098
BMu101,67,C,REL,Gait_Normal,2,R_MTF,0.22419417093725824
BMu101,67,C,REL,Gait_Normal,3,L_MTF,0.15520919836373612
BMu101,67,C,REL,Gait_Normal,3,R_MTF,0.2725137700143863
BMu101,67,C,REL,Gait_Normal,4,L_MTF,0.19674111183544607
BMu101,67,C,REL,Gait_Normal,4,R_MTF,0.27372405649513376
BMu101,67,C,REL,Gait_Normal,5,L_MTF,0.1931982845115202
BMu101,67,C,REL,Gait_Normal,5,R_MTF,0.2891956551208899
BMu101,67,C,REL,Gait_Normal,6,L_MTF,0.19639826893573475
BMu101,67,C,REL,Gait_Normal,6,R_MTF,0.26648725189857747
BMu101,67,C,REL,Gait_Normal,7,L_MTF,0.16803319116504936
BMu101,67,C,REL,Gait_Normal,7,R_MTF,0.21383423870227783
BMu101,68,C,INI,Gait_Normal,1,L_MTF,0.2726376123384456
BMu101,68,C,INI,Gait_Normal,1,R_MTF,0.35598351889672397
BMu101,68,C,INI,Gait_Normal,2,L_MTF,0.2717673639715451
BMu101,68,C,INI,Gait_Normal,2,R_MTF,0.3478786900081318
BMu101,68,C,INI,Gait_Normal,3,L_MTF,0.24864937149835034
BMu101,68,C,INI,Gait_Normal,3,R_MTF,0.2706467287835579
BMu101,68,C,INI,Gait_Normal,4,L_MTF,0.29546685160448455
BMu101,68,C,INI,Gait_Normal,4,R_MTF,0.3565047643685018
BMu101,68,C,INI,Gait_Normal,5,L_MTF,0.2762631019148778
BMu101,68,C,INI,Gait_Normal,5,R_MTF,0.3415174231716822
BMu101,68,C,INI,Gait_Normal,6,L_MTF,0.3005086435725425
BMu101,68,C,INI,Gait_Normal,6,R_MTF,0.43320748436118095
BMu101,68,C,INI,Gait_Normal,7,L_MTF,0.31052648284432954
BMu101,68,C,INI,Gait_Normal,7,R_MTF,0.3464470231362546
BMu101,68,C,REL,Gait_Normal,1,L_MTF,0.23885449277556736
BMu101,68,C,REL,Gait_Normal,1,R_MTF,0.3059192538375385
BMu101,68,C,REL,Gait_Normal,2,L_MTF,0.2260470087992194
BMu101,68,C,REL,Gait_Normal,2,R_MTF,0.264199767164202
BMu101,68,C,REL,Gait_Normal,3,L_MTF,0.2198815012365153
BMu101,68,C,REL,Gait_Normal,3,R_MTF,0.2929022697497331
BMu101,68,C,REL,Gait_Normal,4,L_MTF,0.19765404806918016
BMu101,68,C,REL,Gait_Normal,4,R_MTF,0.3368794349104829
BMu101,68,C,REL,Gait_Normal,5,L_MTF,0.20595137693670734
BMu101,68,C,REL,Gait_Normal,5,R_MTF,0.29779531104498314
BMu101,68,C,REL,Gait_Normal,6,L_MTF,0.21844118504070406
BMu101,68,C,REL,Gait_Normal,6,R_MTF,0.34012606594384537
