BM,subject,P_C,session,task,repetition,channel,value
BMu108,1,C,INI,Gait_Normal,1,L_LES,26.19240882903013
BMu108,1,C,INI,Gait_Normal,1,R_LES,21.250616478950846
BMu108,1,C,INI,Gait_Normal,3,R_LES,23.228326539089387
BMu108,1,C,INI,Gait_Normal,4,R_LES,29.174817936210893
BMu108,1,C,INI,Gait_Normal,5,R_LES,29.325160031297575
BMu108,1,C,INI,Gait_Normal,6,R_LES,25.75603444042465
BMu108,1,C,INI,Gait_Normal,7,R_LES,26.022090363368484
BMu108,1,C,INI,Gait_Normal,8,R_LES,29.92767483250075
BMu108,1,C,INI,Gait_Normal,9,L_LES,28.451960346925272
BMu108,1,C,INI,Gait_Normal,9,R_LES,27.233277040139477
BMu108,1,C,INI,Gait_Normal,10,L_LES,34.94633515774562
BMu108,1,C,INI,Gait_Normal,10,R_LES,36.232604321803265
BMu108,1,C,REL,Gait_Normal,1,L_LES,19.63809592949169
BMu108,1,C,REL,Gait_Normal,10,L_LES,46.69835850879099
BMu108,1,C,REL,Gait_Normal,10,R_LES,62.1495465366112
BMu108,2,C,INI,Gait_Normal,4,L_LES,7.064621068889803
BMu108,2,C,INI,Gait_Normal,6,L_LES,3.7715586086397472
BMu108,2,C,INI,Gait_Normal,7,L_LES,3.406951586523626
BMu108,2,C,INI,Gait_Normal,8,L_LES,3.4407062891742393
BMu108,2,C,INI,Gait_Normal,9,L_LES,3.2134414457763114
BMu108,2,C,REL,Gait_Normal,1,R_LES,34.83723183407458
BMu108,2,C,REL,Gait_Normal,2,R_LES,39.39652429497589
BMu108,2,C,REL,Gait_Normal,3,L_LES,44.24996760744443
BMu108,2,C,REL,Gait_Normal,3,R_LES,40.27345471236664
BMu108,2,C,REL,Gait_Normal,4,L_LES,39.05915729800118
BMu108,2,C,REL,Gait_Normal,4,R_LES,37.06574185905954
BMu108,2,C,REL,Gait_Normal,5,R_LES,45.91911205724695
BMu108,2,C,REL,Gait_Normal,6,R_LES,41.32446772422047
BMu108,2,C,REL,Gait_Normal,7,L_LES,44.33922029836761
BMu108,2,C,REL,Gait_Normal,7,R_LES,40.90034206192276
BMu108,2,C,REL,Gait_Normal,8,L_LES,35.48072802193845
BMu108,2,C,REL,Gait_Normal,9,L_LES,43.76672254279791
BMu108,2,C,REL,Gait_Normal,9,R_LES,37.91405823663249
BMu108,3,C,INI,Gait_Normal,1,R_LES,44.22816451171603
BMu108,3,C,INI,Gait_Normal,2,R_LES,46.452098869666905
BMu108,3,C,INI,Gait_Normal,4,L_LES,45.55015569781394
BMu108,3,C,INI,Gait_Normal,8,R_LES,41.28241470186054
BMu108,3,C,INI,Gait_Normal,9,L_LES,39.22902777306784
BMu108,3,C,INI,Gait_Normal,10,L_LES,36.70237402297589
BMu108,3,C,INI,Gait_Normal,10,R_LES,41.64839406049086
BMu108,3,C,REL,Gait_Normal,2,R_LES,46.12363769012751
BMu108,3,C,REL,Gait_Normal,3,R_LES,42.70484525938795
BMu108,3,C,REL,Gait_Normal,4,R_LES,45.684360683172756
BMu108,3,C,REL,Gait_Normal,6,R_LES,42.16045223606464
BMu108,3,C,REL,Gait_Normal,7,R_LES,51.87212795587308
BMu108,3,C,REL,Gait_Normal,10,L_LES,4871.290297324322
BMu108,3,C,REL,Gait_Normal,10,R_LES,54.346178195557826
BMu108,5,C,INI,Gait_Normal,1,L_LES,14.673258877055732
BMu108,5,C,INI,Gait_Normal,1,R_LES,16.322012327046384
BMu108,5,C,INI,Gait_Normal,2,L_LES,12.99597288637669
BMu108,5,C,INI,Gait_Normal,2,R_LES,18.224534559533776
BMu108,5,C,INI,Gait_Normal,3,L_LES,10.172380471752822
BMu108,5,C,INI,Gait_Normal,3,R_LES,18.458197866808412
BMu108,5,C,INI,Gait_Normal,4,L_LES,14.963371332186393
BMu108,5,C,INI,Gait_Normal,4,R_LES,17.93289100326531
BMu108,5,C,INI,Gait_Normal,5,L_LES,13.033475647422392
BMu108,5,C,INI,Gait_Normal,5,R_LES,18.550672083220977
BMu108,5,C,INI,Gait_Normal,6,L_LES,11.195125041753856
BMu108,5,C,INI,Gait_Normal,6,R_LES,18.059269170500194
BMu108,5,C,INI,Gait_Normal,7,L_LES,14.361100917990878
BMu108,5,C,INI,Gait_Normal,7,R_LES,17.631107506028584
BMu108,5,C,INI,Gait_Normal,8,L_LES,14.266693303321336
BMu108,5,C,INI,Gait_Normal,8,R_LES,17.66756345062823
BMu108,5,C,REL,Gait_Normal,1,L_LES,26.22995365556964
BMu108,5,C,REL,Gait_Normal,1,R_LES,21.57376134403295
BMu108,5,C,REL,Gait_Normal,2,L_LES,26.501028308816775
BMu108,5,C,REL,Gait_Normal,2,R_LES,26.36419598912381
BMu108,5,C,REL,Gait_Normal,3,L_LES,30.014708435274397
BMu108,5,C,REL,Gait_Normal,3,R_LES,24.19880597787426
BMu108,5,C,REL,Gait_Normal,4,L_LES,28.113338209101148
BMu108,5,C,REL,Gait_Normal,4,R_LES,17.448639782611433
BMu108,5,C,REL,Gait_Normal,5,L_LES,24.273842869488277
BMu108,5,C,REL,Gait_Normal,5,R_LES,18.827765681910332
BMu108,5,C,REL,Gait_Normal,6,L_LES,30.332730365752628
BMu108,5,C,REL,Gait_Normal,6,R_LES,25.16858230600523
BMu108,5,C,REL,Gait_Normal,7,L_LES,23.019291504868818
BMu108,5,C,REL,Gait_Normal,7,R_LES,20.234222821439104
BMu108,5,C,REL,Gait_Normal,8,L_LES,30.64290205605043
BMu108,5,C,REL,Gait_Normal,8,R_LES,20.05868725493722
BMu108,5,C,REL,Gait_Normal,9,L_LES,25.30543060396749
BMu108,5,C,REL,Gait_Normal,9,R_LES,18.99009497120638
BMu108,6,C,INI,Gait_Normal,1,L_LES,58.623821972072164
BMu108,6,C,INI,Gait_Normal,2,L_LES,83.93389079467083
BMu108,6,C,INI,Gait_Normal,3,L_LES,63.01910195862629
BMu108,6,C,REL,Gait_Normal,1,L_LES,73.46136569690438
BMu108,6,C,REL,Gait_Normal,1,R_LES,33.73104288254515
BMu108,6,C,REL,Gait_Normal,2,L_LES,85.6680927545147
BMu108,6,C,REL,Gait_Normal,2,R_LES,34.298071541309156
BMu108,6,C,REL,Gait_Normal,3,L_LES,79.4024698631801
BMu108,6,C,REL,Gait_Normal,3,R_LES,34.91860709148544
BMu108,6,C,REL,Gait_Normal,4,L_LES,69.39257438324397
BMu108,6,C,REL,Gait_Normal,4,R_LES,36.200588994261665
BMu108,6,C,REL,Gait_Normal,5,L_LES,72.62217382899681
BMu108,6,C,REL,Gait_Normal,5,R_LES,35.60032560726029
BMu108,6,C,REL,Gait_Normal,6,L_LES,81.37837030668872
BMu108,6,C,REL,Gait_Normal,6,R_LES,33.12736521832612
BMu108,6,C,REL,Gait_Normal,7,L_LES,78.88252740167346
BMu108,6,C,REL,Gait_Normal,7,R_LES,38.658368339175674
BMu108,6,C,REL,Gait_Normal,8,L_LES,79.0875909996024
BMu108,6,C,REL,Gait_Normal,8,R_LES,36.76457751287974
BMu108,6,C,REL,Gait_Normal,9,L_LES,80.18284201252729
BMu108,6,C,REL,Gait_Normal,9,R_LES,38.03635329110438
BMu108,6,C,REL,Gait_Normal,10,L_LES,81.01675683181108
BMu108,6,C,REL,Gait_Normal,10,R_LES,31.7129131088569
BMu108,6,C,REL,Gait_Normal,11,L_LES,78.22696721908235
BMu108,6,C,REL,Gait_Normal,11,R_LES,36.847397369111484
BMu108,7,C,INI,Gait_Normal,3,R_LES,63.65183245210428
BMu108,7,C,INI,Gait_Normal,4,L_LES,49.95262299741395
BMu108,7,C,INI,Gait_Normal,4,R_LES,62.0184332507367
BMu108,7,C,INI,Gait_Normal,5,R_LES,82.82163072862708
BMu108,7,C,INI,Gait_Normal,6,R_LES,83.51739730444028
BMu108,7,C,INI,Gait_Normal,7,R_LES,58.96764757675237
BMu108,7,C,REL,Gait_Normal,2,R_LES,36.32436160838789
BMu108,7,C,REL,Gait_Normal,4,L_LES,54.394921130479425
BMu108,7,C,REL,Gait_Normal,4,R_LES,41.25747516188837
BMu108,7,C,REL,Gait_Normal,5,R_LES,50.544977878129835
BMu108,7,C,REL,Gait_Normal,6,R_LES,52.34825772620593
BMu108,7,C,REL,Gait_Normal,7,R_LES,49.553252293246544
BMu108,8,C,INI,Gait_Normal,1,L_LES,20.674314458852386
BMu108,8,C,INI,Gait_Normal,2,L_LES,22.50837391561428
BMu108,8,C,INI,Gait_Normal,3,L_LES,23.643752552907568
BMu108,8,C,INI,Gait_Normal,4,L_LES,20.890083421976726
BMu108,8,C,INI,Gait_Normal,5,R_LES,19.515485109283475
BMu108,8,C,INI,Gait_Normal,6,L_LES,22.45075260532083
BMu108,8,C,INI,Gait_Normal,6,R_LES,19.765227179842263
BMu108,8,C,REL,Gait_Normal,1,L_LES,23.022398323099242
BMu108,8,C,REL,Gait_Normal,1,R_LES,25.8357154194823
BMu108,8,C,REL,Gait_Normal,2,L_LES,18.07703671056553
BMu108,8,C,REL,Gait_Normal,2,R_LES,21.224805875413086
BMu108,8,C,REL,Gait_Normal,3,L_LES,26.486513880867705
BMu108,8,C,REL,Gait_Normal,3,R_LES,29.529448119696085
BMu108,8,C,REL,Gait_Normal,4,L_LES,21.044189816882152
BMu108,8,C,REL,Gait_Normal,4,R_LES,26.52680848867747
BMu108,8,C,REL,Gait_Normal,5,L_LES,19.594633748387967
BMu108,8,C,REL,Gait_Normal,5,R_LES,22.599352203087847
BMu108,9,P,INI,Gait_Normal,1,L_LES,33.058235887060874
BMu108,9,P,INI,Gait_Normal,1,R_LES,13.377966315964967
BMu108,9,P,INI,Gait_Normal,2,L_LES,31.329293242702477
BMu108,9,P,INI,Gait_Normal,2,R_LES,18.303939542215733
BMu108,9,P,INI,Gait_Normal,3,L_LES,29.717893394218105
BMu108,9,P,INI,Gait_Normal,4,L_LES,31.655053837296617
BMu108,9,P,INI,Gait_Normal,4,R_LES,16.554151115182012
BMu108,9,P,INI,Gait_Normal,5,L_LES,27.909340125355005
BMu108,9,P,INI,Gait_Normal,5,R_LES,16.90467021077136
BMu108,9,P,INI,Gait_Normal,6,L_LES,24.887678809855093
BMu108,9,P,INI,Gait_Normal,6,R_LES,14.83812458176691
BMu108,9,P,REL,Gait_Normal,1,L_LES,40.179975826587615
BMu108,9,P,REL,Gait_Normal,1,R_LES,23.98947216161901
BMu108,9,P,REL,Gait_Normal,2,L_LES,38.007558072014696
BMu108,9,P,REL,Gait_Normal,2,R_LES,22.47215813774011
BMu108,9,P,REL,Gait_Normal,3,L_LES,40.714579480252375
BMu108,9,P,REL,Gait_Normal,3,R_LES,25.67719468612508
BMu108,9,P,REL,Gait_Normal,4,L_LES,25.97184547581233
BMu108,9,P,REL,Gait_Normal,4,R_LES,20.957721213579305
BMu108,9,P,REL,Gait_Normal,5,L_LES,35.707170124834676
BMu108,9,P,REL,Gait_Normal,5,R_LES,29.13777958630804
BMu108,9,P,REL,Gait_Normal,6,L_LES,39.57354987563852
BMu108,9,P,REL,Gait_Normal,6,R_LES,25.191257877985606
BMu108,9,P,REL,Gait_Normal,7,L_LES,37.24920255863543
BMu108,9,P,REL,Gait_Normal,7,R_LES,30.251565208470538
BMu108,9,P,REL,Gait_Normal,8,L_LES,35.94241639010483
BMu108,9,P,REL,Gait_Normal,8,R_LES,27.866041638892835
BMu108,10,P,INI,Gait_Normal,1,L_LES,48.089439938940856
BMu108,10,P,INI,Gait_Normal,1,R_LES,45.45882171678538
BMu108,10,P,INI,Gait_Normal,2,L_LES,49.7400113271832
BMu108,10,P,INI,Gait_Normal,2,R_LES,46.619116963949054
BMu108,10,P,INI,Gait_Normal,3,L_LES,52.349365439868166
BMu108,10,P,INI,Gait_Normal,3,R_LES,56.905835428228144
BMu108,10,P,INI,Gait_Normal,4,L_LES,47.685021467621155
BMu108,10,P,INI,Gait_Normal,4,R_LES,48.51716511978815
BMu108,10,P,INI,Gait_Normal,5,L_LES,49.32762634830401
BMu108,10,P,INI,Gait_Normal,5,R_LES,53.41158441451341
BMu108,10,P,INI,Gait_Normal,6,L_LES,45.399888317437885
BMu108,10,P,INI,Gait_Normal,6,R_LES,48.793557384432255
BMu108,10,P,INI,Gait_Normal,7,L_LES,49.612017136262196
BMu108,10,P,INI,Gait_Normal,7,R_LES,49.679657062741825
BMu108,10,P,REL,Gait_Normal,1,L_LES,42.11372638119761
BMu108,10,P,REL,Gait_Normal,1,R_LES,41.367116948336566
BMu108,10,P,REL,Gait_Normal,2,L_LES,33.47491933676117
BMu108,10,P,REL,Gait_Normal,2,R_LES,37.964580588047376
BMu108,10,P,REL,Gait_Normal,3,L_LES,35.86263550409361
BMu108,10,P,REL,Gait_Normal,3,R_LES,40.875870518511874
BMu108,10,P,REL,Gait_Normal,4,L_LES,40.06782595155533
BMu108,10,P,REL,Gait_Normal,4,R_LES,46.669186642770704
BMu108,10,P,REL,Gait_Normal,5,L_LES,39.57483705542551
BMu108,10,P,REL,Gait_Normal,5,R_LES,46.534433307819484
BMu108,10,P,REL,Gait_Normal,6,L_LES,40.580861358918575
BMu108,10,P,REL,Gait_Normal,6,R_LES,43.27060960631619
BMu108,10,P,REL,Gait_Normal,7,L_LES,38.42190776676684
BMu108,10,P,REL,Gait_Normal,7,R_LES,42.903756211220504
BMu108,11,P,INI,Gait_Normal,1,L_LES,11.500057523661008
BMu108,11,P,INI,Gait_Normal,1,R_LES,24.504477784130035
BMu108,11,P,INI,Gait_Normal,2,L_LES,12.070307116245404
BMu108,11,P,INI,Gait_Normal,2,R_LES,26.30435749433504
BMu108,11,P,INI,Gait_Normal,3,L_LES,10.791523801644587
BMu108,11,P,INI,Gait_Normal,3,R_LES,23.46265007166058
BMu108,11,P,INI,Gait_Normal,4,L_LES,12.554098868953732
BMu108,11,P,INI,Gait_Normal,4,R_LES,28.927672095708175
BMu108,11,P,INI,Gait_Normal,5,L_LES,11.525487051483255
BMu108,11,P,INI,Gait_Normal,5,R_LES,29.055791771584467
BMu108,11,P,INI,Gait_Normal,6,L_LES,11.777969258879521
BMu108,11,P,INI,Gait_Normal,6,R_LES,27.386307465778568
BMu108,11,P,REL,Gait_Normal,1,L_LES,12.234369367063104
BMu108,11,P,REL,Gait_Normal,1,R_LES,22.25880021328631
BMu108,11,P,REL,Gait_Normal,2,L_LES,13.474148060633283
BMu108,11,P,REL,Gait_Normal,2,R_LES,28.827842676152358
BMu108,11,P,REL,Gait_Normal,3,L_LES,15.735616711519024
BMu108,11,P,REL,Gait_Normal,3,R_LES,32.441877891735835
BMu108,11,P,REL,Gait_Normal,4,L_LES,13.302136662822946
BMu108,11,P,REL,Gait_Normal,4,R_LES,28.383379089572696
BMu108,11,P,REL,Gait_Normal,5,L_LES,14.752346805023047
BMu108,11,P,REL,Gait_Normal,5,R_LES,29.87256978607211
BMu108,11,P,REL,Gait_Normal,6,L_LES,13.966312851520355
BMu108,11,P,REL,Gait_Normal,6,R_LES,25.872218541817546
BMu108,12,P,INI,Gait_Normal,1,L_LES,41.34875303048927
BMu108,12,P,INI,Gait_Normal,1,R_LES,35.905622952850855
BMu108,12,P,INI,Gait_Normal,2,L_LES,46.22668980761305
BMu108,12,P,INI,Gait_Normal,2,R_LES,43.026493145261554
BMu108,12,P,INI,Gait_Normal,3,L_LES,36.409130797600795
BMu108,12,P,INI,Gait_Normal,3,R_LES,32.92552825233705
BMu108,12,P,INI,Gait_Normal,4,L_LES,40.900085351514214
BMu108,12,P,INI,Gait_Normal,4,R_LES,38.240871088888696
BMu108,12,P,INI,Gait_Normal,5,L_LES,53.1862254401432
BMu108,12,P,INI,Gait_Normal,5,R_LES,53.43824947984317
BMu108,12,P,INI,Gait_Normal,6,L_LES,52.711429735713544
BMu108,12,P,INI,Gait_Normal,6,R_LES,52.56419159421794
BMu108,12,P,INI,Gait_Normal,7,L_LES,55.01592288407672
BMu108,12,P,INI,Gait_Normal,7,R_LES,50.00705445022794
BMu108,12,P,INI,Gait_Normal,8,L_LES,62.303856049389736
BMu108,12,P,INI,Gait_Normal,8,R_LES,58.561554310682
BMu108,12,P,INI,Gait_Normal,9,L_LES,57.6458551286071
BMu108,12,P,INI,Gait_Normal,9,R_LES,49.81222072658451
BMu108,12,P,INI,Gait_Normal,10,L_LES,48.669566106145396
BMu108,12,P,INI,Gait_Normal,10,R_LES,47.73469640602716
BMu108,12,P,REL,Gait_Normal,1,L_LES,32.692666072390026
BMu108,12,P,REL,Gait_Normal,1,R_LES,35.809022667997205
BMu108,12,P,REL,Gait_Normal,2,L_LES,33.59065683800454
BMu108,12,P,REL,Gait_Normal,2,R_LES,37.47669427938967
BMu108,12,P,REL,Gait_Normal,3,L_LES,39.1025835010089
BMu108,12,P,REL,Gait_Normal,4,L_LES,36.84843685993203
BMu108,12,P,REL,Gait_Normal,5,L_LES,37.36566673870634
BMu108,12,P,REL,Gait_Normal,6,L_LES,41.2630761202853
BMu108,12,P,REL,Gait_Normal,6,R_LES,40.92718886668499
BMu108,13,C,INI,Gait_Normal,1,L_LES,34.043588222743466
BMu108,13,C,INI,Gait_Normal,1,R_LES,22.58753279662487
BMu108,13,C,INI,Gait_Normal,2,L_LES,33.82650897167621
BMu108,13,C,INI,Gait_Normal,2,R_LES,23.402742427581156
BMu108,13,C,INI,Gait_Normal,3,L_LES,40.27136184804156
BMu108,13,C,INI,Gait_Normal,3,R_LES,28.738488276773342
BMu108,13,C,INI,Gait_Normal,4,L_LES,39.50720286034636
BMu108,13,C,INI,Gait_Normal,4,R_LES,26.357178227962535
BMu108,13,C,INI,Gait_Normal,5,L_LES,40.56068024207213
BMu108,13,C,INI,Gait_Normal,5,R_LES,25.406366376893956
BMu108,13,C,INI,Gait_Normal,6,L_LES,38.24196401996248
BMu108,13,C,INI,Gait_Normal,6,R_LES,23.50065702848659
BMu108,13,C,INI,Gait_Normal,7,L_LES,39.3503716133159
BMu108,13,C,INI,Gait_Normal,7,R_LES,27.976601980439455
BMu108,13,C,INI,Gait_Normal,8,L_LES,44.90425353405365
BMu108,13,C,INI,Gait_Normal,8,R_LES,26.12698442481319
BMu108,13,C,INI,Gait_Normal,9,L_LES,40.143251280252166
BMu108,13,C,INI,Gait_Normal,9,R_LES,23.41647300273397
BMu108,13,C,REL,Gait_Normal,1,L_LES,31.931363680004846
BMu108,13,C,REL,Gait_Normal,1,R_LES,28.663443356018686
BMu108,13,C,REL,Gait_Normal,2,R_LES,30.250685457748204
BMu108,13,C,REL,Gait_Normal,3,R_LES,36.239667271174945
BMu108,13,C,REL,Gait_Normal,5,R_LES,37.699645594534985
BMu108,13,C,REL,Gait_Normal,6,R_LES,37.40644464740529
BMu108,13,C,REL,Gait_Normal,7,R_LES,33.64347262935248
BMu108,13,C,REL,Gait_Normal,8,R_LES,31.315541133786827
BMu108,13,C,REL,Gait_Normal,9,R_LES,34.30128884988509
BMu108,14,P,INI,Gait_Normal,1,L_LES,32.43065497535276
BMu108,14,P,INI,Gait_Normal,1,R_LES,26.515244974672537
BMu108,14,P,INI,Gait_Normal,2,L_LES,26.458838632832656
BMu108,14,P,INI,Gait_Normal,2,R_LES,27.90038907653366
BMu108,14,P,INI,Gait_Normal,3,L_LES,28.452163990697624
BMu108,14,P,INI,Gait_Normal,3,R_LES,25.550049490172242
BMu108,14,P,INI,Gait_Normal,4,L_LES,34.60555961410356
BMu108,14,P,INI,Gait_Normal,4,R_LES,30.91109523988078
BMu108,14,P,INI,Gait_Normal,5,L_LES,42.45647676881462
BMu108,14,P,INI,Gait_Normal,5,R_LES,27.615975131419564
BMu108,14,P,INI,Gait_Normal,6,L_LES,31.504267443649287
BMu108,14,P,INI,Gait_Normal,6,R_LES,27.21114801522836
BMu108,14,P,INI,Gait_Normal,7,L_LES,45.452698930385075
BMu108,14,P,INI,Gait_Normal,7,R_LES,30.463873691489898
BMu108,14,P,REL,Gait_Normal,1,R_LES,39.902503117209875
BMu108,14,P,REL,Gait_Normal,2,R_LES,48.12544589485905
BMu108,14,P,REL,Gait_Normal,3,R_LES,47.235137157696585
BMu108,14,P,REL,Gait_Normal,4,R_LES,44.60731647802072
BMu108,14,P,REL,Gait_Normal,5,R_LES,49.35779024693659
BMu108,14,P,REL,Gait_Normal,7,R_LES,52.03279333000657
BMu108,14,P,REL,Gait_Normal,8,R_LES,50.969840623270926
BMu108,14,P,REL,Gait_Normal,9,R_LES,47.149702456084064
BMu108,14,P,REL,Gait_Normal,10,L_LES,2618.766630523111
BMu108,14,P,REL,Gait_Normal,10,R_LES,48.096065429455884
BMu108,16,C,INI,Gait_Normal,1,L_LES,22.931865376307936
BMu108,16,C,INI,Gait_Normal,2,L_LES,26.47946215298229
BMu108,16,C,INI,Gait_Normal,2,R_LES,47.291675512457005
BMu108,16,C,INI,Gait_Normal,3,L_LES,18.53140511740213
BMu108,16,C,INI,Gait_Normal,3,R_LES,30.508584563935788
BMu108,16,C,INI,Gait_Normal,4,L_LES,27.710239150677413
BMu108,16,C,INI,Gait_Normal,4,R_LES,40.58517517867428
BMu108,16,C,INI,Gait_Normal,5,L_LES,21.113573250769317
BMu108,16,C,INI,Gait_Normal,5,R_LES,33.436688590449684
BMu108,16,C,INI,Gait_Normal,6,L_LES,27.223105503727368
BMu108,16,C,INI,Gait_Normal,6,R_LES,57.39360241868301
BMu108,16,C,REL,Gait_Normal,1,L_LES,34.74786918584139
BMu108,16,C,REL,Gait_Normal,1,R_LES,25.85745218421256
BMu108,16,C,REL,Gait_Normal,2,L_LES,33.339011326062746
BMu108,16,C,REL,Gait_Normal,2,R_LES,32.53822994724527
BMu108,16,C,REL,Gait_Normal,3,L_LES,26.475058454959377
BMu108,16,C,REL,Gait_Normal,3,R_LES,24.182411275377802
BMu108,16,C,REL,Gait_Normal,4,L_LES,26.95683808343112
BMu108,16,C,REL,Gait_Normal,4,R_LES,28.121289584756983
BMu108,16,C,REL,Gait_Normal,5,L_LES,35.05065031506441
BMu108,16,C,REL,Gait_Normal,5,R_LES,27.07628435394089
BMu108,16,C,REL,Gait_Normal,6,L_LES,28.016147367562255
BMu108,16,C,REL,Gait_Normal,6,R_LES,27.622166120262403
BMu108,17,P,INI,Gait_Normal,1,L_LES,26.204221761166853
BMu108,17,P,INI,Gait_Normal,1,R_LES,17.96385371119085
BMu108,17,P,INI,Gait_Normal,2,L_LES,29.765381838736587
BMu108,17,P,INI,Gait_Normal,2,R_LES,21.890911766457616
BMu108,17,P,INI,Gait_Normal,3,L_LES,39.21456079684163
BMu108,17,P,INI,Gait_Normal,3,R_LES,18.975902349482
BMu108,17,P,INI,Gait_Normal,4,L_LES,28.548476326563534
BMu108,17,P,INI,Gait_Normal,4,R_LES,18.392965339403254
BMu108,17,P,INI,Gait_Normal,5,L_LES,33.04662838974288
BMu108,17,P,INI,Gait_Normal,5,R_LES,21.914678788036998
BMu108,17,P,INI,Gait_Normal,6,L_LES,27.93811147535656
BMu108,17,P,INI,Gait_Normal,6,R_LES,18.425851111153317
BMu108,17,P,INI,Gait_Normal,7,L_LES,41.63086450236863
BMu108,17,P,INI,Gait_Normal,7,R_LES,24.40782872678272
BMu108,17,P,INI,Gait_Normal,8,L_LES,29.21184048005759
BMu108,17,P,INI,Gait_Normal,8,R_LES,16.578151055143802
BMu108,17,P,INI,Gait_Normal,9,L_LES,31.967795593217943
BMu108,17,P,INI,Gait_Normal,9,R_LES,20.675375462449
BMu108,17,P,INI,Gait_Normal,10,L_LES,25.8700705040164
BMu108,17,P,INI,Gait_Normal,10,R_LES,17.26761576695755
BMu108,17,P,REL,Gait_Normal,1,L_LES,51.526760086013944
BMu108,17,P,REL,Gait_Normal,1,R_LES,25.775322777631647
BMu108,17,P,REL,Gait_Normal,2,L_LES,39.412788535123916
BMu108,17,P,REL,Gait_Normal,3,L_LES,41.32903434671798
BMu108,17,P,REL,Gait_Normal,4,L_LES,38.06976037472827
BMu108,17,P,REL,Gait_Normal,5,L_LES,34.81800394555629
BMu108,17,P,REL,Gait_Normal,6,L_LES,33.81847433774211
BMu108,17,P,REL,Gait_Normal,7,L_LES,26.76443080746279
BMu108,17,P,REL,Gait_Normal,8,L_LES,33.27469316216375
BMu108,21,C,INI,Gait_Normal,1,L_LES,15.394393383588628
BMu108,21,C,INI,Gait_Normal,1,R_LES,17.19747350626306
BMu108,21,C,INI,Gait_Normal,2,L_LES,17.12394597247392
BMu108,21,C,INI,Gait_Normal,2,R_LES,15.762404281383382
BMu108,21,C,INI,Gait_Normal,3,L_LES,16.813812996656157
BMu108,21,C,INI,Gait_Normal,3,R_LES,19.39084392462528
BMu108,21,C,INI,Gait_Normal,4,L_LES,19.446414241756518
BMu108,21,C,INI,Gait_Normal,4,R_LES,15.417964580483291
BMu108,21,C,INI,Gait_Normal,5,L_LES,18.873887130878344
BMu108,21,C,INI,Gait_Normal,5,R_LES,18.212135208913732
BMu108,21,C,INI,Gait_Normal,6,L_LES,18.777021567535797
BMu108,21,C,INI,Gait_Normal,6,R_LES,18.516195643188656
BMu108,22,C,INI,Gait_Normal,1,L_LES,24.64276652470268
BMu108,22,C,INI,Gait_Normal,2,L_LES,28.409089936275944
BMu108,22,C,INI,Gait_Normal,3,L_LES,24.862977843649716
BMu108,22,C,INI,Gait_Normal,4,L_LES,25.37016854202786
BMu108,22,C,INI,Gait_Normal,5,L_LES,26.051607286259173
BMu108,22,C,INI,Gait_Normal,6,L_LES,30.903463965559606
BMu108,22,C,INI,Gait_Normal,7,L_LES,28.604687246606748
BMu108,22,C,INI,Gait_Normal,8,L_LES,26.506228904363212
BMu108,22,C,INI,Gait_Normal,9,L_LES,28.077348025421518
BMu108,22,C,REL,Gait_Normal,1,L_LES,23.96404134002687
BMu108,22,C,REL,Gait_Normal,1,R_LES,20.706726612833467
BMu108,22,C,REL,Gait_Normal,2,L_LES,23.452469264219204
BMu108,22,C,REL,Gait_Normal,2,R_LES,20.375261434449172
BMu108,22,C,REL,Gait_Normal,3,L_LES,29.073881878831823
BMu108,22,C,REL,Gait_Normal,3,R_LES,22.16297196232964
BMu108,22,C,REL,Gait_Normal,4,L_LES,29.51257364548826
BMu108,22,C,REL,Gait_Normal,4,R_LES,22.19014431951356
BMu108,22,C,REL,Gait_Normal,5,L_LES,25.3804955575379
BMu108,22,C,REL,Gait_Normal,5,R_LES,19.551865308355243
BMu108,22,C,REL,Gait_Normal,6,L_LES,28.21839114099546
BMu108,22,C,REL,Gait_Normal,6,R_LES,21.445184336143573
BMu108,22,C,REL,Gait_Normal,7,L_LES,25.271223718734614
BMu108,22,C,REL,Gait_Normal,7,R_LES,19.263168615978753
BMu108,22,C,REL,Gait_Normal,8,L_LES,28.265152740564407
BMu108,22,C,REL,Gait_Normal,8,R_LES,23.849694560390443
BMu108,23,C,INI,Gait_Normal,1,R_LES,44.26695084413982
BMu108,23,C,INI,Gait_Normal,3,R_LES,58.77770142034291
BMu108,23,C,INI,Gait_Normal,4,R_LES,63.757190873824584
BMu108,23,C,INI,Gait_Normal,6,R_LES,58.19120477914405
BMu108,23,C,INI,Gait_Normal,7,R_LES,60.89765818502889
BMu108,23,C,REL,Gait_Normal,1,R_LES,27.948381393651363
BMu108,23,C,REL,Gait_Normal,2,L_LES,45.67121527263237
BMu108,23,C,REL,Gait_Normal,2,R_LES,37.30893629990269
BMu108,23,C,REL,Gait_Normal,3,L_LES,44.039225786751736
BMu108,23,C,REL,Gait_Normal,3,R_LES,36.822417042718
BMu108,23,C,REL,Gait_Normal,4,L_LES,52.64618987143651
BMu108,23,C,REL,Gait_Normal,4,R_LES,38.04320429719896
BMu108,24,P,INI,Gait_Normal,1,R_LES,35.97132359586351
BMu108,24,P,INI,Gait_Normal,2,L_LES,58.14360556876377
BMu108,24,P,INI,Gait_Normal,2,R_LES,34.702256540674
BMu108,24,P,INI,Gait_Normal,3,L_LES,59.54065277588861
BMu108,24,P,INI,Gait_Normal,3,R_LES,38.47120213882938
BMu108,24,P,INI,Gait_Normal,4,L_LES,54.82847467840921
BMu108,24,P,INI,Gait_Normal,4,R_LES,37.671396821412635
BMu108,24,P,INI,Gait_Normal,5,L_LES,57.575420838682
BMu108,24,P,INI,Gait_Normal,5,R_LES,37.54947692217708
BMu108,24,P,INI,Gait_Normal,6,L_LES,50.71542340093094
BMu108,24,P,INI,Gait_Normal,6,R_LES,37.011279403492125
BMu108,24,P,INI,Gait_Normal,7,L_LES,53.35157704306545
BMu108,24,P,INI,Gait_Normal,7,R_LES,33.36278485188449
BMu108,24,P,INI,Gait_Normal,8,L_LES,55.71767580112837
BMu108,24,P,INI,Gait_Normal,8,R_LES,38.3721291014028
BMu108,24,P,REL,Gait_Normal,1,R_LES,13.529564010445782
BMu108,24,P,REL,Gait_Normal,2,R_LES,13.041226543023301
BMu108,24,P,REL,Gait_Normal,3,R_LES,14.892623914685236
BMu108,24,P,REL,Gait_Normal,4,R_LES,13.25862913797915
BMu108,24,P,REL,Gait_Normal,5,R_LES,13.70641448203176
BMu108,25,C,INI,Gait_Normal,1,L_LES,20.80709841770199
BMu108,25,C,INI,Gait_Normal,1,R_LES,41.74626725498634
BMu108,25,C,INI,Gait_Normal,2,L_LES,24.90464691951554
BMu108,25,C,INI,Gait_Normal,2,R_LES,77.98949305574142
BMu108,25,C,INI,Gait_Normal,3,R_LES,88.08200411295174
BMu108,25,C,INI,Gait_Normal,4,L_LES,27.40276159241213
BMu108,25,C,INI,Gait_Normal,5,L_LES,30.570928951186314
BMu108,25,C,INI,Gait_Normal,6,L_LES,26.61160686014757
BMu108,25,C,INI,Gait_Normal,7,L_LES,26.300826970024968
BMu108,25,C,INI,Gait_Normal,8,L_LES,27.797551594363885
BMu108,25,C,INI,Gait_Normal,8,R_LES,88.33072535653513
BMu108,25,C,INI,Gait_Normal,9,L_LES,20.986120557606473
BMu108,25,C,INI,Gait_Normal,9,R_LES,89.17361430889605
BMu108,25,C,INI,Gait_Normal,10,L_LES,26.85193066355013
BMu108,25,C,INI,Gait_Normal,10,R_LES,88.59337761909364
BMu108,25,C,REL,Gait_Normal,1,L_LES,20.496647611706578
BMu108,25,C,REL,Gait_Normal,1,R_LES,44.05304879456531
BMu108,25,C,REL,Gait_Normal,2,L_LES,30.128162402915493
BMu108,25,C,REL,Gait_Normal,3,L_LES,22.302154451968438
BMu108,25,C,REL,Gait_Normal,4,L_LES,21.397558697782472
BMu108,25,C,REL,Gait_Normal,4,R_LES,44.06478022122841
BMu108,25,C,REL,Gait_Normal,5,L_LES,21.96966793469869
BMu108,25,C,REL,Gait_Normal,5,R_LES,39.24457267507146
BMu108,25,C,REL,Gait_Normal,6,L_LES,29.439284915398872
BMu108,25,C,REL,Gait_Normal,6,R_LES,40.387213878503864
BMu108,25,C,REL,Gait_Normal,7,L_LES,23.758795740564295
BMu108,25,C,REL,Gait_Normal,7,R_LES,40.14535017354228
BMu108,25,C,REL,Gait_Normal,8,L_LES,25.81172646917337
BMu108,26,P,INI,Gait_Normal,1,L_LES,31.20850959740585
BMu108,26,P,INI,Gait_Normal,1,R_LES,35.31204865764895
BMu108,26,P,INI,Gait_Normal,2,L_LES,17.870411841432798
BMu108,26,P,INI,Gait_Normal,2,R_LES,34.70105745013984
BMu108,26,P,INI,Gait_Normal,3,L_LES,21.352481514405813
BMu108,26,P,INI,Gait_Normal,3,R_LES,33.943143906782076
BMu108,26,P,INI,Gait_Normal,4,L_LES,28.757990920970837
BMu108,26,P,INI,Gait_Normal,4,R_LES,38.1312020518987
BMu108,26,P,INI,Gait_Normal,5,R_LES,47.5797930066367
BMu108,26,P,INI,Gait_Normal,6,R_LES,42.90552272728264
BMu108,26,P,INI,Gait_Normal,7,R_LES,47.35985125463301
BMu108,26,P,REL,Gait_Normal,3,R_LES,41.40806115121385
BMu108,26,P,REL,Gait_Normal,4,R_LES,43.674982963108896
BMu108,26,P,REL,Gait_Normal,5,R_LES,50.43507360793152
BMu108,26,P,REL,Gait_Normal,8,R_LES,48.4440138527068
BMu108,27,P,INI,Gait_Normal,1,L_LES,17.981329939415236
BMu108,27,P,INI,Gait_Normal,1,R_LES,30.983449928273064
BMu108,27,P,INI,Gait_Normal,2,L_LES,23.245405570732
BMu108,27,P,INI,Gait_Normal,3,L_LES,18.23986922460783
BMu108,27,P,INI,Gait_Normal,3,R_LES,25.734700289136715
BMu108,27,P,INI,Gait_Normal,4,L_LES,17.305797049520027
BMu108,27,P,INI,Gait_Normal,4,R_LES,32.34474371881773
BMu108,27,P,INI,Gait_Normal,5,L_LES,18.87036026420424
BMu108,27,P,INI,Gait_Normal,5,R_LES,29.86582361398061
BMu108,27,P,INI,Gait_Normal,6,L_LES,16.80899009955738
BMu108,27,P,INI,Gait_Normal,6,R_LES,30.435702295587316
BMu108,27,P,INI,Gait_Normal,7,L_LES,21.798367105637126
BMu108,27,P,INI,Gait_Normal,7,R_LES,33.26931287538017
BMu108,27,P,INI,Gait_Normal,8,L_LES,16.808399594610165
BMu108,27,P,INI,Gait_Normal,8,R_LES,31.068825677484664
BMu108,27,P,INI,Gait_Normal,9,L_LES,20.343761731669392
BMu108,27,P,INI,Gait_Normal,9,R_LES,37.017817916148836
BMu108,27,P,REL,Gait_Normal,1,L_LES,18.50897237499125
BMu108,27,P,REL,Gait_Normal,1,R_LES,16.048728974412366
BMu108,27,P,REL,Gait_Normal,2,L_LES,17.606157420727136
BMu108,27,P,REL,Gait_Normal,2,R_LES,17.000419978307075
BMu108,27,P,REL,Gait_Normal,3,L_LES,17.970888463392587
BMu108,27,P,REL,Gait_Normal,3,R_LES,19.923453287089696
BMu108,27,P,REL,Gait_Normal,4,L_LES,16.6873146326845
BMu108,27,P,REL,Gait_Normal,4,R_LES,15.496735103533334
BMu108,27,P,REL,Gait_Normal,5,L_LES,16.949400453146744
BMu108,27,P,REL,Gait_Normal,5,R_LES,18.73719447279608
BMu108,27,P,REL,Gait_Normal,6,L_LES,17.92829397883427
BMu108,27,P,REL,Gait_Normal,6,R_LES,17.874290079397085
BMu108,27,P,REL,Gait_Normal,7,L_LES,17.499831603341395
BMu108,27,P,REL,Gait_Normal,7,R_LES,26.505898836941565
BMu108,28,P,INI,Gait_Normal,1,L_LES,27.311991621236746
BMu108,28,P,INI,Gait_Normal,1,R_LES,23.68440381848987
BMu108,28,P,INI,Gait_Normal,2,L_LES,33.121328357795015
BMu108,28,P,INI,Gait_Normal,2,R_LES,34.11529670409503
BMu108,28,P,INI,Gait_Normal,3,L_LES,40.196784302396225
BMu108,28,P,INI,Gait_Normal,3,R_LES,37.49509098975586
BMu108,28,P,INI,Gait_Normal,4,L_LES,35.333772217008494
BMu108,28,P,INI,Gait_Normal,4,R_LES,30.646183792621837
BMu108,28,P,INI,Gait_Normal,5,L_LES,48.96106010072461
BMu108,28,P,INI,Gait_Normal,5,R_LES,37.55305031942935
BMu108,28,P,INI,Gait_Normal,6,L_LES,46.108955542903054
BMu108,28,P,INI,Gait_Normal,6,R_LES,43.726944633445136
BMu108,28,P,INI,Gait_Normal,7,L_LES,38.47535505841376
BMu108,28,P,INI,Gait_Normal,7,R_LES,33.92755570611013
BMu108,28,P,INI,Gait_Normal,8,L_LES,44.18406932429584
BMu108,28,P,INI,Gait_Normal,8,R_LES,36.759376124278525
BMu108,28,P,REL,Gait_Normal,1,L_LES,43.80756656016212
BMu108,28,P,REL,Gait_Normal,1,R_LES,28.10550775331785
BMu108,28,P,REL,Gait_Normal,2,L_LES,49.610664707044094
BMu108,28,P,REL,Gait_Normal,2,R_LES,34.445643726344315
BMu108,28,P,REL,Gait_Normal,3,L_LES,59.71009676991477
BMu108,28,P,REL,Gait_Normal,3,R_LES,33.937703146778894
BMu108,28,P,REL,Gait_Normal,4,L_LES,61.55211427446713
BMu108,28,P,REL,Gait_Normal,4,R_LES,34.73338244685923
BMu108,28,P,REL,Gait_Normal,5,L_LES,54.28070813077533
BMu108,28,P,REL,Gait_Normal,5,R_LES,35.798272290843926
BMu108,28,P,REL,Gait_Normal,6,L_LES,53.7394328721712
BMu108,28,P,REL,Gait_Normal,6,R_LES,34.34073716303306
BMu108,28,P,REL,Gait_Normal,7,R_LES,36.16810238531255
BMu108,28,P,REL,Gait_Normal,8,R_LES,34.2928978101545
BMu108,28,P,REL,Gait_Normal,9,L_LES,56.56068988371546
BMu108,28,P,REL,Gait_Normal,9,R_LES,33.91947910295671
BMu108,29,P,INI,Gait_Normal,1,L_LES,14.28949321793929
BMu108,29,P,INI,Gait_Normal,1,R_LES,18.705449834567663
BMu108,29,P,INI,Gait_Normal,2,L_LES,16.4786336163381
BMu108,29,P,INI,Gait_Normal,2,R_LES,19.483443547443027
BMu108,29,P,INI,Gait_Normal,3,L_LES,17.732074776155542
BMu108,29,P,INI,Gait_Normal,4,L_LES,17.485266682938846
BMu108,29,P,INI,Gait_Normal,5,L_LES,20.275548229745223
BMu108,29,P,INI,Gait_Normal,5,R_LES,28.164286086120416
BMu108,29,P,INI,Gait_Normal,6,L_LES,16.006017163986808
BMu108,29,P,INI,Gait_Normal,6,R_LES,25.190217311483224
BMu108,29,P,INI,Gait_Normal,7,L_LES,18.382402818477356
BMu108,29,P,REL,Gait_Normal,1,L_LES,17.881378972819636
BMu108,29,P,REL,Gait_Normal,1,R_LES,23.403278538505674
BMu108,29,P,REL,Gait_Normal,2,L_LES,20.143207235278883
BMu108,29,P,REL,Gait_Normal,4,R_LES,23.744870014072017
BMu108,29,P,REL,Gait_Normal,5,L_LES,18.34582214303492
BMu108,30,P,INI,Gait_Normal,1,L_LES,63.985914688778315
BMu108,30,P,INI,Gait_Normal,1,R_LES,46.088337330354655
BMu108,30,P,INI,Gait_Normal,2,L_LES,68.66759150653415
BMu108,30,P,INI,Gait_Normal,2,R_LES,49.25198204209695
BMu108,30,P,INI,Gait_Normal,3,L_LES,75.41669544519523
BMu108,30,P,INI,Gait_Normal,3,R_LES,47.42043402569923
BMu108,30,P,INI,Gait_Normal,4,L_LES,76.12705902717084
BMu108,30,P,INI,Gait_Normal,4,R_LES,46.25119497117273
BMu108,30,P,INI,Gait_Normal,5,L_LES,74.95631585353982
BMu108,30,P,INI,Gait_Normal,5,R_LES,49.16798761894925
BMu108,30,P,INI,Gait_Normal,6,L_LES,79.34864055947497
BMu108,30,P,INI,Gait_Normal,6,R_LES,51.552178243975156
BMu108,30,P,INI,Gait_Normal,7,L_LES,83.22075036398759
BMu108,30,P,INI,Gait_Normal,7,R_LES,51.49732882476186
BMu108,30,P,INI,Gait_Normal,8,L_LES,81.53319659296962
BMu108,30,P,INI,Gait_Normal,8,R_LES,48.65208490653239
BMu108,30,P,INI,Gait_Normal,9,L_LES,82.87310620445335
BMu108,30,P,INI,Gait_Normal,9,R_LES,48.106965510020125
BMu108,30,P,REL,Gait_Normal,1,R_LES,41.897929133059044
BMu108,30,P,REL,Gait_Normal,2,R_LES,42.32229752065903
BMu108,30,P,REL,Gait_Normal,3,L_LES,135.529448544831
BMu108,30,P,REL,Gait_Normal,3,R_LES,42.74752323964166
BMu108,30,P,REL,Gait_Normal,4,L_LES,138.44623177111995
BMu108,30,P,REL,Gait_Normal,4,R_LES,38.66133582685448
BMu108,30,P,REL,Gait_Normal,5,L_LES,142.04060749619217
BMu108,30,P,REL,Gait_Normal,5,R_LES,43.96130896063544
BMu108,30,P,REL,Gait_Normal,6,L_LES,139.24818211143267
BMu108,30,P,REL,Gait_Normal,6,R_LES,47.89860100665294
BMu108,30,P,REL,Gait_Normal,7,L_LES,137.05521020978767
BMu108,30,P,REL,Gait_Normal,7,R_LES,47.6735617511186
BMu108,30,P,REL,Gait_Normal,8,L_LES,151.4226553833534
BMu108,30,P,REL,Gait_Normal,8,R_LES,46.90926515114244
BMu108,30,P,REL,Gait_Normal,9,L_LES,146.44775054386514
BMu108,30,P,REL,Gait_Normal,9,R_LES,46.48856674805751
BMu108,32,P,INI,Gait_Normal,1,L_LES,26.044211522800325
BMu108,32,P,INI,Gait_Normal,1,R_LES,33.20938365542329
BMu108,32,P,INI,Gait_Normal,2,L_LES,24.844680089126907
BMu108,32,P,INI,Gait_Normal,2,R_LES,35.02777501872239
BMu108,32,P,INI,Gait_Normal,3,L_LES,27.76179825990884
BMu108,32,P,INI,Gait_Normal,3,R_LES,38.71196179582109
BMu108,32,P,INI,Gait_Normal,4,L_LES,21.1928145858489
BMu108,32,P,INI,Gait_Normal,4,R_LES,33.37664876946321
BMu108,32,P,INI,Gait_Normal,5,L_LES,22.378596172146832
BMu108,32,P,INI,Gait_Normal,5,R_LES,35.028842990675166
BMu108,32,P,INI,Gait_Normal,6,L_LES,19.945815336499262
BMu108,32,P,INI,Gait_Normal,6,R_LES,32.05343711878821
BMu108,32,P,INI,Gait_Normal,7,L_LES,24.50882251829979
BMu108,32,P,INI,Gait_Normal,7,R_LES,39.53417782173874
BMu108,32,P,REL,Gait_Normal,1,L_LES,83.70866953130643
BMu108,32,P,REL,Gait_Normal,3,L_LES,88.6050043798377
BMu108,32,P,REL,Gait_Normal,4,L_LES,82.70912109280299
BMu108,32,P,REL,Gait_Normal,5,L_LES,120.96189299732343
BMu108,32,P,REL,Gait_Normal,6,L_LES,124.87624885595682
BMu108,32,P,REL,Gait_Normal,7,L_LES,97.78120363562618
BMu108,32,P,REL,Gait_Normal,7,R_LES,99.24097937677469
BMu108,32,P,REL,Gait_Normal,8,L_LES,87.19131257071983
BMu108,32,P,REL,Gait_Normal,8,R_LES,82.01151050048897
BMu108,33,P,INI,Gait_Normal,1,L_LES,35.10246819705633
BMu108,33,P,INI,Gait_Normal,1,R_LES,28.766041553507524
BMu108,33,P,INI,Gait_Normal,2,L_LES,33.522431189937336
BMu108,33,P,INI,Gait_Normal,2,R_LES,29.505082199792472
BMu108,33,P,INI,Gait_Normal,3,L_LES,31.207374631773092
BMu108,33,P,INI,Gait_Normal,3,R_LES,27.55003997840295
BMu108,33,P,INI,Gait_Normal,4,L_LES,35.518259071871036
BMu108,33,P,INI,Gait_Normal,5,L_LES,33.66778275022458
BMu108,33,P,INI,Gait_Normal,6,L_LES,42.744935291189144
BMu108,33,P,REL,Gait_Normal,1,L_LES,52.63011192334997
BMu108,33,P,REL,Gait_Normal,2,L_LES,45.704189801986395
BMu108,33,P,REL,Gait_Normal,3,L_LES,52.28783353060183
BMu108,33,P,REL,Gait_Normal,3,R_LES,53.906451175107755
BMu108,33,P,REL,Gait_Normal,4,L_LES,60.76000149387829
BMu108,33,P,REL,Gait_Normal,4,R_LES,82.15319002943835
BMu108,33,P,REL,Gait_Normal,5,L_LES,57.01477257881211
BMu108,33,P,REL,Gait_Normal,5,R_LES,61.433316798411475
BMu108,33,P,REL,Gait_Normal,6,L_LES,59.83363221429437
BMu108,33,P,REL,Gait_Normal,6,R_LES,60.121093920757566
BMu108,33,P,REL,Gait_Normal,7,L_LES,55.02470849953926
BMu108,33,P,REL,Gait_Normal,7,R_LES,54.60232636868117
BMu108,33,P,REL,Gait_Normal,8,L_LES,66.45642254620286
BMu108,33,P,REL,Gait_Normal,8,R_LES,62.749285012186675
BMu108,34,P,INI,Gait_Normal,1,L_LES,15.100993554602995
BMu108,34,P,INI,Gait_Normal,1,R_LES,19.280123624034047
BMu108,34,P,INI,Gait_Normal,2,L_LES,13.097426566279793
BMu108,34,P,INI,Gait_Normal,2,R_LES,19.973307552439024
BMu108,34,P,INI,Gait_Normal,3,L_LES,14.712027334027303
BMu108,34,P,INI,Gait_Normal,3,R_LES,18.3455880063882
BMu108,34,P,INI,Gait_Normal,4,L_LES,12.798028456212004
BMu108,34,P,INI,Gait_Normal,4,R_LES,17.980216606662335
BMu108,34,P,INI,Gait_Normal,5,L_LES,12.809599229203727
BMu108,34,P,INI,Gait_Normal,5,R_LES,16.817155786597155
BMu108,34,P,INI,Gait_Normal,6,L_LES,11.85713344552787
BMu108,34,P,INI,Gait_Normal,6,R_LES,18.484702098141145
BMu108,34,P,INI,Gait_Normal,7,L_LES,17.191330286005634
BMu108,34,P,INI,Gait_Normal,7,R_LES,18.252656647351692
BMu108,34,P,INI,Gait_Normal,8,L_LES,14.7428401714405
BMu108,34,P,INI,Gait_Normal,8,R_LES,19.081480795183904
BMu108,34,P,REL,Gait_Normal,1,L_LES,15.400170202650392
BMu108,34,P,REL,Gait_Normal,1,R_LES,25.164051036179277
BMu108,34,P,REL,Gait_Normal,2,L_LES,13.257664457177333
BMu108,34,P,REL,Gait_Normal,2,R_LES,19.201035658324365
BMu108,34,P,REL,Gait_Normal,3,L_LES,13.005264939529546
BMu108,34,P,REL,Gait_Normal,3,R_LES,22.058455853579222
BMu108,34,P,REL,Gait_Normal,4,L_LES,12.908495462256722
BMu108,34,P,REL,Gait_Normal,4,R_LES,20.85514325773417
BMu108,34,P,REL,Gait_Normal,5,L_LES,12.990700456404596
BMu108,34,P,REL,Gait_Normal,5,R_LES,20.28587698755875
BMu108,34,P,REL,Gait_Normal,6,L_LES,11.526095245949703
BMu108,34,P,REL,Gait_Normal,6,R_LES,20.609796080616174
BMu108,34,P,REL,Gait_Normal,7,L_LES,14.965012973686918
BMu108,34,P,REL,Gait_Normal,7,R_LES,24.813423856634056
BMu108,35,C,INI,Gait_Normal,3,L_LES,21.041168174495226
BMu108,35,C,INI,Gait_Normal,5,L_LES,18.578745652254337
BMu108,35,C,INI,Gait_Normal,6,L_LES,19.88815456848899
BMu108,35,C,INI,Gait_Normal,8,L_LES,14.322616475648822
BMu108,35,C,INI,Gait_Normal,8,R_LES,23.853909060477687
BMu108,35,C,INI,Gait_Normal,9,L_LES,21.21866932767308
BMu108,35,C,INI,Gait_Normal,9,R_LES,34.62251409956821
BMu108,35,C,INI,Gait_Normal,10,L_LES,14.741214327665848
BMu108,35,C,INI,Gait_Normal,10,R_LES,23.244673645251815
BMu108,35,C,REL,Gait_Normal,1,R_LES,18.552708424643956
BMu108,35,C,REL,Gait_Normal,2,L_LES,12.53403269953346
BMu108,35,C,REL,Gait_Normal,2,R_LES,13.414248876799745
BMu108,35,C,REL,Gait_Normal,3,L_LES,15.322307826431105
BMu108,35,C,REL,Gait_Normal,3,R_LES,16.553992356594637
BMu108,35,C,REL,Gait_Normal,4,L_LES,15.056407926571277
BMu108,35,C,REL,Gait_Normal,5,L_LES,14.233984064204414
BMu108,35,C,REL,Gait_Normal,6,L_LES,19.522007568490142
BMu108,35,C,REL,Gait_Normal,6,R_LES,23.621143185708206
BMu108,36,P,INI,Gait_Normal,1,L_LES,26.463865777295315
BMu108,36,P,INI,Gait_Normal,1,R_LES,24.373414419090313
BMu108,36,P,INI,Gait_Normal,2,L_LES,22.202209912859434
BMu108,36,P,INI,Gait_Normal,2,R_LES,16.932928137689586
BMu108,36,P,INI,Gait_Normal,3,L_LES,28.071088373893787
BMu108,36,P,INI,Gait_Normal,3,R_LES,23.94367728868286
BMu108,36,P,INI,Gait_Normal,4,L_LES,24.078312731463416
BMu108,36,P,INI,Gait_Normal,4,R_LES,19.550279704875628
BMu108,36,P,INI,Gait_Normal,5,L_LES,29.87381713211668
BMu108,36,P,INI,Gait_Normal,5,R_LES,21.650403839333098
BMu108,36,P,INI,Gait_Normal,6,L_LES,29.000020322780284
BMu108,36,P,INI,Gait_Normal,6,R_LES,23.9811225621323
BMu108,36,P,INI,Gait_Normal,7,L_LES,21.377418722375214
BMu108,36,P,INI,Gait_Normal,7,R_LES,18.673145861116918
BMu108,36,P,INI,Gait_Normal,8,L_LES,28.658609772921313
BMu108,36,P,INI,Gait_Normal,8,R_LES,20.481066340834662
BMu108,36,P,REL,Gait_Normal,1,L_LES,32.64488659377333
BMu108,36,P,REL,Gait_Normal,1,R_LES,26.73177142056561
BMu108,36,P,REL,Gait_Normal,2,L_LES,34.29149366447217
BMu108,36,P,REL,Gait_Normal,2,R_LES,24.104499358942466
BMu108,36,P,REL,Gait_Normal,3,L_LES,36.28900216325352
BMu108,36,P,REL,Gait_Normal,3,R_LES,21.315820650249467
BMu108,36,P,REL,Gait_Normal,4,L_LES,36.20477240789571
BMu108,36,P,REL,Gait_Normal,4,R_LES,28.43883053943594
BMu108,36,P,REL,Gait_Normal,5,L_LES,38.649651236776855
BMu108,36,P,REL,Gait_Normal,5,R_LES,26.40346671149187
BMu108,36,P,REL,Gait_Normal,6,L_LES,34.986007559542685
BMu108,36,P,REL,Gait_Normal,6,R_LES,24.48586165068753
BMu108,38,C,REL,Gait_Normal,1,R_LES,25.0560498727174
BMu108,38,C,REL,Gait_Normal,2,R_LES,21.120289437326644
BMu108,38,C,REL,Gait_Normal,3,R_LES,22.25215738306316
BMu108,38,C,REL,Gait_Normal,4,R_LES,21.90108809151268
BMu108,38,C,REL,Gait_Normal,5,R_LES,23.37142989357191
BMu108,38,C,REL,Gait_Normal,6,R_LES,24.676494873103152
BMu108,38,C,REL,Gait_Normal,7,R_LES,25.164423841238605
BMu108,39,C,INI,Gait_Normal,1,R_LES,21.709446825598075
BMu108,39,C,INI,Gait_Normal,2,R_LES,22.221851844592575
BMu108,39,C,INI,Gait_Normal,3,R_LES,26.453220740736995
BMu108,39,C,INI,Gait_Normal,4,R_LES,24.19650609966172
BMu108,39,C,INI,Gait_Normal,5,R_LES,29.423844326207625
BMu108,39,C,INI,Gait_Normal,6,R_LES,31.671005021545053
BMu108,40,C,INI,Gait_Normal,2,R_LES,18.131403316551864
BMu108,40,C,INI,Gait_Normal,3,R_LES,15.945839549310373
BMu108,40,C,INI,Gait_Normal,4,R_LES,16.876683312731025
BMu108,40,C,INI,Gait_Normal,5,R_LES,14.949875002428323
BMu108,40,C,INI,Gait_Normal,6,L_LES,16.20286586390998
BMu108,40,C,INI,Gait_Normal,6,R_LES,21.382742118447016
BMu108,40,C,REL,Gait_Normal,1,L_LES,11.904186469646007
BMu108,40,C,REL,Gait_Normal,1,R_LES,15.201684417167092
BMu108,40,C,REL,Gait_Normal,2,L_LES,12.009664942643104
BMu108,40,C,REL,Gait_Normal,2,R_LES,16.883109336952373
BMu108,40,C,REL,Gait_Normal,3,L_LES,12.861481087545014
BMu108,40,C,REL,Gait_Normal,3,R_LES,14.873207725660244
BMu108,40,C,REL,Gait_Normal,4,L_LES,11.992889602008995
BMu108,40,C,REL,Gait_Normal,4,R_LES,16.10051720024909
BMu108,40,C,REL,Gait_Normal,5,L_LES,12.539551618031581
BMu108,40,C,REL,Gait_Normal,5,R_LES,15.468280550726258
BMu108,40,C,REL,Gait_Normal,6,L_LES,17.385972938828406
BMu108,40,C,REL,Gait_Normal,6,R_LES,22.177221667163536
BMu108,41,P,INI,Gait_Normal,1,L_LES,11.978972005437853
BMu108,41,P,INI,Gait_Normal,1,R_LES,15.346761436111803
BMu108,41,P,INI,Gait_Normal,2,L_LES,16.33887716580872
BMu108,41,P,INI,Gait_Normal,2,R_LES,18.77389010689589
BMu108,41,P,INI,Gait_Normal,3,L_LES,18.617146103354163
BMu108,41,P,INI,Gait_Normal,3,R_LES,17.719242281085275
BMu108,41,P,INI,Gait_Normal,4,L_LES,17.65687756921977
BMu108,41,P,INI,Gait_Normal,4,R_LES,18.70574135942763
BMu108,41,P,INI,Gait_Normal,5,L_LES,19.68012087771141
BMu108,41,P,INI,Gait_Normal,5,R_LES,21.094259706826787
BMu108,41,P,INI,Gait_Normal,6,L_LES,19.529187866785986
BMu108,41,P,INI,Gait_Normal,6,R_LES,23.153471174692573
BMu108,41,P,REL,Gait_Normal,1,L_LES,16.808242726678113
BMu108,41,P,REL,Gait_Normal,1,R_LES,19.18218051850984
BMu108,41,P,REL,Gait_Normal,2,L_LES,18.78555411391229
BMu108,41,P,REL,Gait_Normal,2,R_LES,19.40412795790043
BMu108,41,P,REL,Gait_Normal,3,L_LES,21.86314140973377
BMu108,41,P,REL,Gait_Normal,3,R_LES,19.351557245766312
BMu108,41,P,REL,Gait_Normal,4,L_LES,21.062485239980717
BMu108,41,P,REL,Gait_Normal,4,R_LES,17.75084289437994
BMu108,41,P,REL,Gait_Normal,5,L_LES,22.278888552599465
BMu108,41,P,REL,Gait_Normal,5,R_LES,22.5049368803717
BMu108,41,P,REL,Gait_Normal,6,L_LES,18.743441662425237
BMu108,41,P,REL,Gait_Normal,6,R_LES,18.86638023044118
BMu108,41,P,REL,Gait_Normal,7,L_LES,20.662119880111494
BMu108,41,P,REL,Gait_Normal,7,R_LES,20.0278527409749
BMu108,42,P,INI,Gait_Normal,1,R_LES,25.361607001090572
BMu108,42,P,INI,Gait_Normal,2,R_LES,26.530894349310568
BMu108,42,P,INI,Gait_Normal,3,R_LES,22.90190671183464
BMu108,42,P,INI,Gait_Normal,4,R_LES,23.64449234659611
BMu108,42,P,INI,Gait_Normal,5,R_LES,23.35814265127314
BMu108,42,P,INI,Gait_Normal,6,R_LES,25.976795017545044
BMu108,42,P,REL,Gait_Normal,1,L_LES,22.860089700107448
BMu108,42,P,REL,Gait_Normal,1,R_LES,25.565956249686767
BMu108,42,P,REL,Gait_Normal,2,R_LES,29.022252527379973
BMu108,42,P,REL,Gait_Normal,3,L_LES,26.71371100143139
BMu108,42,P,REL,Gait_Normal,3,R_LES,32.12161643329737
BMu108,42,P,REL,Gait_Normal,4,L_LES,21.16349596279369
BMu108,42,P,REL,Gait_Normal,4,R_LES,27.91110036382653
BMu108,42,P,REL,Gait_Normal,5,L_LES,22.23989501318057
BMu108,42,P,REL,Gait_Normal,5,R_LES,26.672622642866532
BMu108,42,P,REL,Gait_Normal,6,L_LES,26.147804689448922
BMu108,42,P,REL,Gait_Normal,6,R_LES,37.29980026232128
BMu108,43,P,INI,Gait_Normal,1,L_LES,18.613508039612825
BMu108,43,P,INI,Gait_Normal,1,R_LES,20.241020843827144
BMu108,43,P,INI,Gait_Normal,2,L_LES,18.47459718336339
BMu108,43,P,INI,Gait_Normal,2,R_LES,21.261560779062467
BMu108,43,P,INI,Gait_Normal,3,L_LES,17.839028694689215
BMu108,43,P,INI,Gait_Normal,3,R_LES,20.415906542672783
BMu108,43,P,INI,Gait_Normal,4,R_LES,18.397740109109858
BMu108,43,P,INI,Gait_Normal,5,L_LES,19.124212493781933
BMu108,43,P,INI,Gait_Normal,5,R_LES,22.694131153534016
BMu108,43,P,INI,Gait_Normal,6,L_LES,26.924819234352423
BMu108,43,P,INI,Gait_Normal,6,R_LES,22.985898468310022
BMu108,43,P,INI,Gait_Normal,7,L_LES,23.866157635320633
BMu108,43,P,INI,Gait_Normal,7,R_LES,19.20989569382715
BMu108,43,P,INI,Gait_Normal,8,L_LES,25.313657808783272
BMu108,43,P,INI,Gait_Normal,8,R_LES,36.92053021678927
BMu108,43,P,REL,Gait_Normal,1,L_LES,47.947737170399286
BMu108,43,P,REL,Gait_Normal,1,R_LES,23.77592908155491
BMu108,43,P,REL,Gait_Normal,2,L_LES,39.90948172335624
BMu108,43,P,REL,Gait_Normal,2,R_LES,24.59781487792652
BMu108,43,P,REL,Gait_Normal,3,L_LES,40.908440710622834
BMu108,43,P,REL,Gait_Normal,3,R_LES,25.30641289526622
BMu108,43,P,REL,Gait_Normal,4,L_LES,35.25380405377466
BMu108,43,P,REL,Gait_Normal,4,R_LES,21.797898557181316
BMu108,43,P,REL,Gait_Normal,5,R_LES,23.267028289214707
BMu108,43,P,REL,Gait_Normal,6,L_LES,35.75287440393446
BMu108,43,P,REL,Gait_Normal,6,R_LES,24.43505498247403
BMu108,43,P,REL,Gait_Normal,7,L_LES,45.202730108280385
BMu108,43,P,REL,Gait_Normal,7,R_LES,31.491701446149317
BMu108,44,C,INI,Gait_Normal,1,R_LES,19.53097949855706
BMu108,44,C,INI,Gait_Normal,2,L_LES,16.66262282408591
BMu108,44,C,INI,Gait_Normal,2,R_LES,20.319265118140457
BMu108,44,C,INI,Gait_Normal,3,L_LES,9.231696655355654
BMu108,44,C,INI,Gait_Normal,3,R_LES,9.388478059810737
BMu108,44,C,INI,Gait_Normal,4,L_LES,10.359400357196156
BMu108,44,C,INI,Gait_Normal,4,R_LES,14.618996232055023
BMu108,44,C,INI,Gait_Normal,5,L_LES,13.16617414868387
BMu108,44,C,INI,Gait_Normal,5,R_LES,13.780091725777817
BMu108,44,C,INI,Gait_Normal,6,L_LES,14.495802607369049
BMu108,44,C,INI,Gait_Normal,6,R_LES,13.264512508194622
BMu108,44,C,INI,Gait_Normal,7,L_LES,13.770417592808892
BMu108,44,C,INI,Gait_Normal,7,R_LES,10.797151247978036
BMu108,44,C,REL,Gait_Normal,1,L_LES,16.318696002753878
BMu108,44,C,REL,Gait_Normal,1,R_LES,20.358810230089606
BMu108,44,C,REL,Gait_Normal,2,L_LES,19.320135917569704
BMu108,44,C,REL,Gait_Normal,2,R_LES,20.173848882521902
BMu108,44,C,REL,Gait_Normal,3,L_LES,15.682046778655073
BMu108,44,C,REL,Gait_Normal,3,R_LES,19.634110267788582
BMu108,44,C,REL,Gait_Normal,4,L_LES,19.09245840252555
BMu108,44,C,REL,Gait_Normal,4,R_LES,21.65655038059729
BMu108,44,C,REL,Gait_Normal,5,L_LES,13.310148734487244
BMu108,44,C,REL,Gait_Normal,5,R_LES,16.89685302749267
BMu108,44,C,REL,Gait_Normal,6,L_LES,22.042212430152386
BMu108,44,C,REL,Gait_Normal,6,R_LES,24.33578718183304
BMu108,44,C,REL,Gait_Normal,7,L_LES,16.948837584854306
BMu108,44,C,REL,Gait_Normal,7,R_LES,20.68612160959833
BMu108,45,P,INI,Gait_Normal,1,L_LES,36.20717537478364
BMu108,45,P,INI,Gait_Normal,2,L_LES,45.92533080486445
BMu108,45,P,INI,Gait_Normal,3,L_LES,34.79598247035356
BMu108,45,P,INI,Gait_Normal,4,L_LES,32.09734859191986
BMu108,45,P,INI,Gait_Normal,5,L_LES,34.327191174887126
BMu108,45,P,INI,Gait_Normal,6,L_LES,33.53529329198961
BMu108,45,P,INI,Gait_Normal,7,L_LES,30.68556367734573
BMu108,45,P,INI,Gait_Normal,8,L_LES,37.496713417124894
BMu108,45,P,REL,Gait_Normal,1,L_LES,65.26210652781789
BMu108,45,P,REL,Gait_Normal,2,L_LES,61.2822637557955
BMu108,45,P,REL,Gait_Normal,3,L_LES,65.29528246677933
BMu108,45,P,REL,Gait_Normal,4,L_LES,52.63891335003785
BMu108,45,P,REL,Gait_Normal,5,L_LES,46.962309379346806
BMu108,45,P,REL,Gait_Normal,6,L_LES,39.72437514760686
BMu108,46,C,INI,Gait_Normal,1,L_LES,9.23600394710361
BMu108,46,C,INI,Gait_Normal,1,R_LES,14.97614896238647
BMu108,46,C,INI,Gait_Normal,2,L_LES,10.98199563604386
BMu108,46,C,INI,Gait_Normal,2,R_LES,15.94742030129592
BMu108,46,C,INI,Gait_Normal,3,L_LES,11.090058478803138
BMu108,46,C,INI,Gait_Normal,3,R_LES,17.43309189385043
BMu108,46,C,INI,Gait_Normal,4,L_LES,10.961620697987618
BMu108,46,C,INI,Gait_Normal,4,R_LES,15.569166496511398
BMu108,46,C,INI,Gait_Normal,5,L_LES,9.850813558550728
BMu108,46,C,INI,Gait_Normal,5,R_LES,16.341087310742775
BMu108,46,C,INI,Gait_Normal,6,L_LES,10.926865400821882
BMu108,46,C,INI,Gait_Normal,6,R_LES,19.76678679991735
BMu108,46,C,REL,Gait_Normal,1,L_LES,7.233551624820116
BMu108,46,C,REL,Gait_Normal,1,R_LES,12.284704232863282
BMu108,46,C,REL,Gait_Normal,2,L_LES,9.335477176113429
BMu108,46,C,REL,Gait_Normal,2,R_LES,12.179961918479746
BMu108,46,C,REL,Gait_Normal,3,L_LES,8.418851969088854
BMu108,46,C,REL,Gait_Normal,3,R_LES,11.453519917545327
BMu108,46,C,REL,Gait_Normal,4,L_LES,7.830203768015572
BMu108,46,C,REL,Gait_Normal,4,R_LES,11.717068032685267
BMu108,46,C,REL,Gait_Normal,5,L_LES,8.841940540212162
BMu108,46,C,REL,Gait_Normal,5,R_LES,13.721509498997934
BMu108,46,C,REL,Gait_Normal,6,L_LES,9.859000520729142
BMu108,46,C,REL,Gait_Normal,6,R_LES,15.18553011057306
BMu108,47,P,INI,Gait_Normal,1,L_LES,33.80786359695117
BMu108,47,P,INI,Gait_Normal,1,R_LES,66.67406523400591
BMu108,47,P,INI,Gait_Normal,2,L_LES,38.1705072814289
BMu108,47,P,INI,Gait_Normal,2,R_LES,60.21090828077211
BMu108,47,P,INI,Gait_Normal,3,L_LES,33.80591064636705
BMu108,47,P,INI,Gait_Normal,3,R_LES,45.16830747566482
BMu108,47,P,INI,Gait_Normal,4,L_LES,39.73096513605221
BMu108,47,P,INI,Gait_Normal,4,R_LES,49.53496149876466
BMu108,47,P,INI,Gait_Normal,5,L_LES,50.95610322678983
BMu108,47,P,INI,Gait_Normal,5,R_LES,48.07530845120405
BMu108,47,P,INI,Gait_Normal,6,L_LES,33.019476209731025
BMu108,47,P,INI,Gait_Normal,6,R_LES,51.468744642537835
BMu108,47,P,REL,Gait_Normal,1,L_LES,20.287599015962943
BMu108,47,P,REL,Gait_Normal,1,R_LES,29.885690402040524
BMu108,47,P,REL,Gait_Normal,2,R_LES,24.97761492695322
BMu108,47,P,REL,Gait_Normal,3,L_LES,29.785732115786743
BMu108,47,P,REL,Gait_Normal,3,R_LES,28.560502177992376
BMu108,47,P,REL,Gait_Normal,4,R_LES,27.94778398121906
BMu108,47,P,REL,Gait_Normal,5,R_LES,27.18582992092359
BMu108,47,P,REL,Gait_Normal,6,L_LES,26.35117202230653
BMu108,47,P,REL,Gait_Normal,6,R_LES,25.08500077141891
BMu108,47,P,REL,Gait_Normal,7,L_LES,21.244074082849536
BMu108,47,P,REL,Gait_Normal,7,R_LES,27.016420444226743
BMu108,47,P,REL,Gait_Normal,8,L_LES,22.850974361653332
BMu108,47,P,REL,Gait_Normal,8,R_LES,26.25634393150517
BMu108,48,C,INI,Gait_Normal,1,L_LES,51.72643600110472
BMu108,48,C,INI,Gait_Normal,1,R_LES,46.54649360136822
BMu108,48,C,INI,Gait_Normal,2,L_LES,46.1628074721479
BMu108,48,C,INI,Gait_Normal,2,R_LES,42.23548406552806
BMu108,48,C,INI,Gait_Normal,3,L_LES,39.834566028688776
BMu108,48,C,INI,Gait_Normal,3,R_LES,39.30523535428554
BMu108,48,C,INI,Gait_Normal,4,L_LES,36.07639630269701
BMu108,48,C,INI,Gait_Normal,4,R_LES,39.79501416961802
BMu108,48,C,INI,Gait_Normal,5,L_LES,42.780185073271156
BMu108,48,C,INI,Gait_Normal,5,R_LES,45.660603747906855
BMu108,48,C,INI,Gait_Normal,6,L_LES,39.93815445271388
BMu108,48,C,INI,Gait_Normal,6,R_LES,44.51403576053883
BMu108,48,C,INI,Gait_Normal,7,L_LES,40.68118468157062
BMu108,48,C,INI,Gait_Normal,7,R_LES,48.667507735692475
BMu108,48,C,INI,Gait_Normal,8,L_LES,50.61748013219875
BMu108,48,C,INI,Gait_Normal,8,R_LES,54.73954118215033
BMu108,48,C,REL,Gait_Normal,1,L_LES,30.256124886808678
BMu108,48,C,REL,Gait_Normal,1,R_LES,36.36644936887952
BMu108,48,C,REL,Gait_Normal,2,R_LES,41.892998570288704
BMu108,48,C,REL,Gait_Normal,3,L_LES,27.854390175127183
BMu108,48,C,REL,Gait_Normal,3,R_LES,32.21974183705171
BMu108,48,C,REL,Gait_Normal,4,L_LES,28.465312113119968
BMu108,48,C,REL,Gait_Normal,4,R_LES,35.91003614220521
BMu108,48,C,REL,Gait_Normal,5,L_LES,31.012833305659246
BMu108,48,C,REL,Gait_Normal,6,L_LES,30.416872313329815
BMu108,48,C,REL,Gait_Normal,7,R_LES,36.108886390170895
BMu108,48,C,REL,Gait_Normal,8,L_LES,30.63382393530211
BMu108,48,C,REL,Gait_Normal,8,R_LES,33.89079170319677
BMu108,48,C,REL,Gait_Normal,9,L_LES,30.849636304403628
BMu108,48,C,REL,Gait_Normal,9,R_LES,45.90364577843098
BMu108,49,C,INI,Gait_Normal,1,L_LES,22.90704035161853
BMu108,49,C,INI,Gait_Normal,1,R_LES,29.166726835310076
BMu108,49,C,INI,Gait_Normal,2,L_LES,20.939325779365895
BMu108,49,C,INI,Gait_Normal,2,R_LES,24.169087856182383
BMu108,49,C,INI,Gait_Normal,3,L_LES,21.344997284773598
BMu108,49,C,INI,Gait_Normal,3,R_LES,21.78383938523164
BMu108,49,C,INI,Gait_Normal,4,L_LES,22.911033460801434
BMu108,49,C,INI,Gait_Normal,4,R_LES,23.090776767246897
BMu108,49,C,INI,Gait_Normal,5,L_LES,21.81308958344707
BMu108,49,C,INI,Gait_Normal,5,R_LES,21.2716588497466
BMu108,49,C,INI,Gait_Normal,6,L_LES,22.779489606242603
BMu108,49,C,INI,Gait_Normal,6,R_LES,23.46462193255822
BMu108,49,C,INI,Gait_Normal,7,L_LES,26.957706061076014
BMu108,49,C,INI,Gait_Normal,7,R_LES,32.2189477531277
BMu108,49,C,REL,Gait_Normal,1,L_LES,16.264567182135064
BMu108,49,C,REL,Gait_Normal,1,R_LES,20.196448434474927
BMu108,49,C,REL,Gait_Normal,2,L_LES,15.53379641738944
BMu108,49,C,REL,Gait_Normal,2,R_LES,23.254659668056604
BMu108,49,C,REL,Gait_Normal,3,L_LES,15.722066575789869
BMu108,49,C,REL,Gait_Normal,3,R_LES,21.312209076722624
BMu108,49,C,REL,Gait_Normal,4,L_LES,18.52677383091125
BMu108,49,C,REL,Gait_Normal,4,R_LES,23.251515224786743
BMu108,49,C,REL,Gait_Normal,5,L_LES,19.737541029492387
BMu108,49,C,REL,Gait_Normal,5,R_LES,20.679968201617793
BMu108,49,C,REL,Gait_Normal,6,L_LES,19.77859558336789
BMu108,49,C,REL,Gait_Normal,6,R_LES,26.583626103885248
BMu108,49,C,REL,Gait_Normal,7,L_LES,18.127324305789106
BMu108,49,C,REL,Gait_Normal,7,R_LES,26.877938541255407
BMu108,49,C,REL,Gait_Normal,8,L_LES,18.026910018851012
BMu108,50,P,INI,Gait_Normal,1,L_LES,19.396552792171992
BMu108,50,P,INI,Gait_Normal,2,L_LES,21.295634332592677
BMu108,50,P,INI,Gait_Normal,2,R_LES,23.519066270409922
BMu108,50,P,INI,Gait_Normal,3,L_LES,21.376981906286446
BMu108,50,P,INI,Gait_Normal,4,L_LES,21.753426896931277
BMu108,50,P,INI,Gait_Normal,5,L_LES,24.041572539793965
BMu108,50,P,INI,Gait_Normal,6,L_LES,25.598320180840876
BMu108,50,P,REL,Gait_Normal,2,L_LES,20.364386949366775
BMu108,50,P,REL,Gait_Normal,2,R_LES,20.52120609192865
BMu108,50,P,REL,Gait_Normal,3,L_LES,17.263927015060133
BMu108,50,P,REL,Gait_Normal,3,R_LES,26.90054286933447
BMu108,50,P,REL,Gait_Normal,4,L_LES,17.71665916058953
BMu108,50,P,REL,Gait_Normal,4,R_LES,24.954040458029766
BMu108,50,P,REL,Gait_Normal,5,L_LES,16.27812369549554
BMu108,50,P,REL,Gait_Normal,5,R_LES,20.284602642862897
BMu108,51,P,INI,Gait_Normal,1,L_LES,18.973004672218803
BMu108,51,P,INI,Gait_Normal,1,R_LES,15.108728054067427
BMu108,51,P,INI,Gait_Normal,2,L_LES,20.5246891758436
BMu108,51,P,INI,Gait_Normal,2,R_LES,15.377895623834492
BMu108,51,P,INI,Gait_Normal,3,L_LES,18.753363203289513
BMu108,51,P,INI,Gait_Normal,3,R_LES,13.77182578583601
BMu108,51,P,INI,Gait_Normal,4,L_LES,21.16919462786002
BMu108,51,P,INI,Gait_Normal,4,R_LES,17.40859770021983
BMu108,51,P,INI,Gait_Normal,5,L_LES,17.84665945822645
BMu108,51,P,INI,Gait_Normal,5,R_LES,14.502233923980322
BMu108,51,P,INI,Gait_Normal,6,L_LES,17.849104115402515
BMu108,51,P,INI,Gait_Normal,6,R_LES,15.700261793095185
BMu108,51,P,REL,Gait_Normal,1,L_LES,32.96974502448775
BMu108,51,P,REL,Gait_Normal,1,R_LES,19.860804873480287
BMu108,51,P,REL,Gait_Normal,2,R_LES,22.471146928852193
BMu108,51,P,REL,Gait_Normal,3,R_LES,18.910948869533264
BMu108,51,P,REL,Gait_Normal,4,L_LES,50.284492097902046
BMu108,51,P,REL,Gait_Normal,4,R_LES,21.468387100444744
BMu108,51,P,REL,Gait_Normal,5,R_LES,17.295532813015935
BMu108,51,P,REL,Gait_Normal,6,L_LES,40.91008857503608
BMu108,51,P,REL,Gait_Normal,6,R_LES,21.020485288270276
BMu108,52,C,INI,Gait_Normal,1,L_LES,21.082441310179004
BMu108,52,C,INI,Gait_Normal,1,R_LES,26.055519355229816
BMu108,52,C,INI,Gait_Normal,2,L_LES,23.745095310223064
BMu108,52,C,INI,Gait_Normal,2,R_LES,28.410968708048483
BMu108,52,C,INI,Gait_Normal,3,L_LES,17.914435055405775
BMu108,52,C,INI,Gait_Normal,3,R_LES,20.932261243655358
BMu108,52,C,INI,Gait_Normal,4,L_LES,20.823061403584333
BMu108,52,C,INI,Gait_Normal,4,R_LES,23.64473538087113
BMu108,52,C,INI,Gait_Normal,5,L_LES,19.59670945971757
BMu108,52,C,INI,Gait_Normal,5,R_LES,23.226607705616473
BMu108,52,C,INI,Gait_Normal,6,L_LES,20.62968153462693
BMu108,52,C,INI,Gait_Normal,6,R_LES,20.29774369812803
BMu108,52,C,REL,Gait_Normal,1,L_LES,19.81338939990194
BMu108,52,C,REL,Gait_Normal,1,R_LES,19.745205340420817
BMu108,52,C,REL,Gait_Normal,2,L_LES,21.037392692514878
BMu108,52,C,REL,Gait_Normal,2,R_LES,18.34906246089985
BMu108,52,C,REL,Gait_Normal,3,L_LES,17.76738519674892
BMu108,52,C,REL,Gait_Normal,3,R_LES,17.51753698238005
BMu108,52,C,REL,Gait_Normal,4,L_LES,18.80464396564508
BMu108,52,C,REL,Gait_Normal,4,R_LES,18.314738454760484
BMu108,52,C,REL,Gait_Normal,5,L_LES,17.196890149119277
BMu108,52,C,REL,Gait_Normal,5,R_LES,18.73813319397376
BMu108,52,C,REL,Gait_Normal,6,L_LES,22.55524342584688
BMu108,52,C,REL,Gait_Normal,6,R_LES,21.608875900625776
BMu108,53,P,INI,Gait_Normal,1,L_LES,21.34961859838224
BMu108,53,P,INI,Gait_Normal,1,R_LES,21.4568064025697
BMu108,53,P,INI,Gait_Normal,2,L_LES,23.346921993800667
BMu108,53,P,INI,Gait_Normal,2,R_LES,20.548558130669164
BMu108,53,P,INI,Gait_Normal,3,L_LES,28.499220325480923
BMu108,53,P,INI,Gait_Normal,3,R_LES,26.35493584966881
BMu108,53,P,INI,Gait_Normal,4,L_LES,27.562327528236228
BMu108,53,P,INI,Gait_Normal,4,R_LES,30.68377561975025
BMu108,53,P,INI,Gait_Normal,5,L_LES,32.32357055853179
BMu108,53,P,INI,Gait_Normal,5,R_LES,31.188138881497796
BMu108,53,P,INI,Gait_Normal,6,L_LES,38.91605753713087
BMu108,53,P,INI,Gait_Normal,6,R_LES,38.11345020013653
BMu108,53,P,REL,Gait_Normal,1,L_LES,31.01910069794222
BMu108,53,P,REL,Gait_Normal,1,R_LES,36.10143480008852
BMu108,53,P,REL,Gait_Normal,2,L_LES,30.748569123100523
BMu108,53,P,REL,Gait_Normal,2,R_LES,34.42632220000156
BMu108,53,P,REL,Gait_Normal,3,L_LES,36.937734564768306
BMu108,53,P,REL,Gait_Normal,3,R_LES,43.55291849033127
BMu108,53,P,REL,Gait_Normal,4,L_LES,34.673458933965684
BMu108,53,P,REL,Gait_Normal,4,R_LES,36.63419785417171
BMu108,53,P,REL,Gait_Normal,5,L_LES,35.679075542751065
BMu108,53,P,REL,Gait_Normal,5,R_LES,40.289816993712414
BMu108,53,P,REL,Gait_Normal,6,L_LES,42.30808633557276
BMu108,53,P,REL,Gait_Normal,6,R_LES,47.572806973591355
BMu108,54,P,INI,Gait_Normal,1,L_LES,10.989251909966592
BMu108,54,P,INI,Gait_Normal,1,R_LES,17.698969146719083
BMu108,54,P,INI,Gait_Normal,2,L_LES,14.130468475516452
BMu108,54,P,INI,Gait_Normal,2,R_LES,20.077143353796956
BMu108,54,P,INI,Gait_Normal,3,L_LES,16.82600709173531
BMu108,54,P,INI,Gait_Normal,3,R_LES,24.162386558012457
BMu108,54,P,INI,Gait_Normal,4,L_LES,16.63246937509352
BMu108,54,P,INI,Gait_Normal,4,R_LES,26.74086055345407
BMu108,54,P,INI,Gait_Normal,5,L_LES,28.57902554712147
BMu108,54,P,INI,Gait_Normal,5,R_LES,34.07717103624933
BMu108,54,P,REL,Gait_Normal,1,L_LES,13.35259707875666
BMu108,54,P,REL,Gait_Normal,1,R_LES,19.251843240405815
BMu108,54,P,REL,Gait_Normal,2,L_LES,14.812553995267564
BMu108,54,P,REL,Gait_Normal,2,R_LES,18.930131271680818
BMu108,54,P,REL,Gait_Normal,3,L_LES,14.756823821781493
BMu108,54,P,REL,Gait_Normal,3,R_LES,18.595280993636454
BMu108,54,P,REL,Gait_Normal,4,L_LES,15.728782213121475
BMu108,54,P,REL,Gait_Normal,4,R_LES,24.21280579630677
BMu108,54,P,REL,Gait_Normal,5,L_LES,14.136552170614332
BMu108,54,P,REL,Gait_Normal,5,R_LES,20.935034293543364
BMu108,54,P,REL,Gait_Normal,6,L_LES,17.56959961285484
BMu108,54,P,REL,Gait_Normal,6,R_LES,22.085879356304122
BMu108,54,P,REL,Gait_Normal,7,L_LES,13.38229172992491
BMu108,54,P,REL,Gait_Normal,7,R_LES,17.921709760684255
BMu108,54,P,REL,Gait_Normal,8,L_LES,17.145056778823033
BMu108,55,C,INI,Gait_Normal,1,L_LES,53.51851853139009
BMu108,55,C,INI,Gait_Normal,1,R_LES,20.126382264744315
BMu108,55,C,INI,Gait_Normal,2,R_LES,25.20955015456653
BMu108,55,C,INI,Gait_Normal,3,L_LES,51.54757801636891
BMu108,55,C,INI,Gait_Normal,3,R_LES,22.883748004575153
BMu108,55,C,INI,Gait_Normal,4,R_LES,35.93679746639515
BMu108,55,C,INI,Gait_Normal,7,R_LES,37.98318894204004
BMu108,55,C,REL,Gait_Normal,1,R_LES,46.79609181740697
BMu108,55,C,REL,Gait_Normal,2,R_LES,46.94711425923102
BMu108,55,C,REL,Gait_Normal,3,R_LES,29.95606914748328
BMu108,55,C,REL,Gait_Normal,4,R_LES,43.11700457404367
BMu108,55,C,REL,Gait_Normal,5,L_LES,49.33076263949922
BMu108,55,C,REL,Gait_Normal,5,R_LES,47.52128707041348
BMu108,55,C,REL,Gait_Normal,6,R_LES,62.47135951642744
BMu108,55,C,REL,Gait_Normal,7,R_LES,54.385984636517236
BMu108,56,C,INI,Gait_Normal,1,R_LES,33.71375767193869
BMu108,56,C,INI,Gait_Normal,2,L_LES,24.22508472216623
BMu108,56,C,INI,Gait_Normal,2,R_LES,36.62001576042884
BMu108,56,C,INI,Gait_Normal,3,L_LES,26.704426055495883
BMu108,56,C,INI,Gait_Normal,3,R_LES,37.61495945059327
BMu108,56,C,INI,Gait_Normal,4,L_LES,33.772052607584754
BMu108,56,C,INI,Gait_Normal,4,R_LES,41.814090000451166
BMu108,56,C,INI,Gait_Normal,5,L_LES,30.011648027768608
BMu108,56,C,INI,Gait_Normal,5,R_LES,46.750437099177105
BMu108,56,C,INI,Gait_Normal,6,R_LES,56.291708102480385
BMu108,56,C,INI,Gait_Normal,7,L_LES,34.31122121013312
BMu108,56,C,INI,Gait_Normal,7,R_LES,40.827641593252295
BMu108,56,C,REL,Gait_Normal,1,L_LES,48.10627902989154
BMu108,56,C,REL,Gait_Normal,1,R_LES,29.14972099030945
BMu108,56,C,REL,Gait_Normal,2,L_LES,30.417488854830196
BMu108,56,C,REL,Gait_Normal,2,R_LES,23.75854497565032
BMu108,56,C,REL,Gait_Normal,3,L_LES,42.1345899260648
BMu108,56,C,REL,Gait_Normal,3,R_LES,35.96969820554183
BMu108,56,C,REL,Gait_Normal,4,L_LES,29.466372430222645
BMu108,56,C,REL,Gait_Normal,4,R_LES,26.0289235308568
BMu108,56,C,REL,Gait_Normal,5,R_LES,28.297292560251314
BMu108,56,C,REL,Gait_Normal,6,L_LES,25.574723910514027
BMu108,56,C,REL,Gait_Normal,6,R_LES,24.43890017834109
BMu108,56,C,REL,Gait_Normal,7,R_LES,32.8109819329301
BMu108,56,C,REL,Gait_Normal,8,R_LES,29.069703530461062
BMu108,57,C,INI,Gait_Normal,1,L_LES,35.86123210582161
BMu108,57,C,INI,Gait_Normal,1,R_LES,17.78611471378299
BMu108,57,C,INI,Gait_Normal,2,R_LES,18.05872988581488
BMu108,57,C,INI,Gait_Normal,3,L_LES,163.33729860751308
BMu108,57,C,INI,Gait_Normal,3,R_LES,14.521655790328273
BMu108,57,C,INI,Gait_Normal,4,L_LES,147.50942825310605
BMu108,57,C,INI,Gait_Normal,4,R_LES,17.540281113208703
BMu108,57,C,INI,Gait_Normal,5,L_LES,116.95914969100222
BMu108,57,C,INI,Gait_Normal,5,R_LES,16.17886201528675
BMu108,57,C,INI,Gait_Normal,6,L_LES,83.91567912377351
BMu108,57,C,INI,Gait_Normal,6,R_LES,20.476667839642797
BMu108,57,C,INI,Gait_Normal,7,L_LES,74.47536402214656
BMu108,57,C,INI,Gait_Normal,7,R_LES,20.906987254447085
BMu108,57,C,INI,Gait_Normal,8,R_LES,23.193250821698882
BMu108,57,C,REL,Gait_Normal,1,L_LES,28.23368164651845
BMu108,57,C,REL,Gait_Normal,1,R_LES,19.511723044093447
BMu108,57,C,REL,Gait_Normal,2,R_LES,25.93241459047577
BMu108,57,C,REL,Gait_Normal,3,R_LES,20.23312165090451
BMu108,57,C,REL,Gait_Normal,4,R_LES,23.436180653619818
BMu108,57,C,REL,Gait_Normal,5,R_LES,22.27077725450776
BMu108,57,C,REL,Gait_Normal,6,R_LES,20.264715149360242
BMu108,57,C,REL,Gait_Normal,7,R_LES,26.923929235614565
BMu108,57,C,REL,Gait_Normal,8,R_LES,25.173902573057035
BMu108,57,C,REL,Gait_Normal,9,R_LES,25.94262956725456
BMu108,58,P,INI,Gait_Normal,1,L_LES,28.99389863022886
BMu108,58,P,INI,Gait_Normal,1,R_LES,20.262716803792532
BMu108,58,P,INI,Gait_Normal,2,L_LES,35.763930428021375
BMu108,58,P,INI,Gait_Normal,2,R_LES,24.260699503136532
BMu108,58,P,INI,Gait_Normal,3,L_LES,49.27071780318934
BMu108,58,P,INI,Gait_Normal,3,R_LES,23.6455658849344
BMu108,58,P,INI,Gait_Normal,4,L_LES,48.61498689499814
BMu108,58,P,INI,Gait_Normal,4,R_LES,27.143917024651206
BMu108,58,P,INI,Gait_Normal,5,L_LES,63.125040268791565
BMu108,58,P,INI,Gait_Normal,5,R_LES,20.272757058882014
BMu108,58,P,INI,Gait_Normal,6,L_LES,69.61205254629026
BMu108,58,P,INI,Gait_Normal,6,R_LES,26.30960291750095
BMu108,58,P,REL,Gait_Normal,2,R_LES,77.71656615449555
BMu108,58,P,REL,Gait_Normal,3,R_LES,68.03047456050592
BMu108,58,P,REL,Gait_Normal,4,R_LES,71.09603098251775
BMu108,58,P,REL,Gait_Normal,5,R_LES,56.471721300915895
BMu108,58,P,REL,Gait_Normal,6,R_LES,72.87779192672818
BMu108,58,P,REL,Gait_Normal,7,R_LES,69.42049245572599
BMu108,58,P,REL,Gait_Normal,8,R_LES,69.93950884998304
BMu108,58,P,REL,Gait_Normal,9,R_LES,66.72675884397341
BMu108,60,C,INI,Gait_Normal,1,L_LES,25.545520942207407
BMu108,60,C,INI,Gait_Normal,1,R_LES,34.05985987576323
BMu108,60,C,INI,Gait_Normal,2,L_LES,28.56855921224472
BMu108,60,C,INI,Gait_Normal,2,R_LES,26.251261765757807
BMu108,60,C,INI,Gait_Normal,3,L_LES,32.609499310998636
BMu108,60,C,INI,Gait_Normal,3,R_LES,24.15780731021289
BMu108,60,C,INI,Gait_Normal,4,L_LES,30.71770548020469
BMu108,60,C,INI,Gait_Normal,4,R_LES,35.64845117664131
BMu108,60,C,INI,Gait_Normal,5,L_LES,30.830380400099482
BMu108,60,C,INI,Gait_Normal,5,R_LES,21.00401062455931
BMu108,60,C,INI,Gait_Normal,6,L_LES,33.049081377388035
BMu108,60,C,INI,Gait_Normal,6,R_LES,37.97083084610902
BMu108,60,C,REL,Gait_Normal,1,L_LES,30.580058025138687
BMu108,60,C,REL,Gait_Normal,1,R_LES,22.781013787889425
BMu108,60,C,REL,Gait_Normal,2,L_LES,37.650017876235616
BMu108,60,C,REL,Gait_Normal,2,R_LES,24.075054372064557
BMu108,60,C,REL,Gait_Normal,3,L_LES,44.62577939166269
BMu108,60,C,REL,Gait_Normal,3,R_LES,26.738257167090257
BMu108,60,C,REL,Gait_Normal,4,L_LES,35.96487521765578
BMu108,60,C,REL,Gait_Normal,4,R_LES,24.141531251531905
BMu108,60,C,REL,Gait_Normal,5,L_LES,37.92479841254296
BMu108,60,C,REL,Gait_Normal,5,R_LES,28.62778348051326
BMu108,60,C,REL,Gait_Normal,6,L_LES,31.96010555582065
BMu108,60,C,REL,Gait_Normal,6,R_LES,24.598141740920976
BMu108,61,P,REL,Gait_Normal,1,L_LES,52.78179091297335
BMu108,61,P,REL,Gait_Normal,1,R_LES,33.5660450713973
BMu108,61,P,REL,Gait_Normal,2,L_LES,46.8929570877992
BMu108,61,P,REL,Gait_Normal,2,R_LES,36.03159212252453
BMu108,61,P,REL,Gait_Normal,3,L_LES,55.230578794475704
BMu108,61,P,REL,Gait_Normal,4,L_LES,51.03687502807086
BMu108,61,P,REL,Gait_Normal,4,R_LES,41.90172953568816
BMu108,61,P,REL,Gait_Normal,5,L_LES,52.73147339488905
BMu108,61,P,REL,Gait_Normal,5,R_LES,38.92143736279134
BMu108,61,P,REL,Gait_Normal,6,L_LES,56.215299615102644
BMu108,61,P,REL,Gait_Normal,6,R_LES,38.222379872478776
BMu108,61,P,REL,Gait_Normal,7,L_LES,69.74803360528722
BMu108,61,P,REL,Gait_Normal,7,R_LES,49.2910374079211
BMu108,62,P,INI,Gait_Normal,1,L_LES,61.31898124641423
BMu108,62,P,INI,Gait_Normal,1,R_LES,23.108803659906204
BMu108,62,P,INI,Gait_Normal,2,R_LES,40.29532657373821
BMu108,62,P,INI,Gait_Normal,3,R_LES,25.70596402027608
BMu108,62,P,INI,Gait_Normal,4,R_LES,28.98576475424493
BMu108,62,P,INI,Gait_Normal,5,R_LES,25.80961595307772
BMu108,62,P,INI,Gait_Normal,6,R_LES,29.953936317888274
BMu108,62,P,INI,Gait_Normal,7,R_LES,33.5960804929372
BMu108,62,P,REL,Gait_Normal,2,L_LES,50.925683471324646
BMu108,62,P,REL,Gait_Normal,2,R_LES,31.334914044108658
BMu108,62,P,REL,Gait_Normal,3,L_LES,40.99891195872606
BMu108,62,P,REL,Gait_Normal,3,R_LES,28.917056324515656
BMu108,62,P,REL,Gait_Normal,4,L_LES,41.84634616961886
BMu108,62,P,REL,Gait_Normal,4,R_LES,29.78874997356786
BMu108,62,P,REL,Gait_Normal,5,L_LES,45.36711500221545
BMu108,62,P,REL,Gait_Normal,5,R_LES,33.67945215721849
BMu108,62,P,REL,Gait_Normal,6,L_LES,38.74660793524355
BMu108,62,P,REL,Gait_Normal,6,R_LES,29.91259582297197
BMu108,62,P,REL,Gait_Normal,7,L_LES,55.110192751224275
BMu108,62,P,REL,Gait_Normal,7,R_LES,37.9901062256235
BMu108,63,P,INI,Gait_Normal,1,L_LES,64.13565714832596
BMu108,63,P,REL,Gait_Normal,1,R_LES,22.776626984987487
BMu108,63,P,REL,Gait_Normal,2,L_LES,44.5700515094133
BMu108,63,P,REL,Gait_Normal,2,R_LES,27.483988927629184
BMu108,63,P,REL,Gait_Normal,3,L_LES,35.05263650664501
BMu108,63,P,REL,Gait_Normal,3,R_LES,29.611983275410978
BMu108,63,P,REL,Gait_Normal,5,L_LES,34.40697517188191
BMu108,63,P,REL,Gait_Normal,6,L_LES,55.611131254316774
BMu108,63,P,REL,Gait_Normal,7,L_LES,56.678366778334535
BMu108,63,P,REL,Gait_Normal,7,R_LES,35.627381064953624
BMu108,63,P,REL,Gait_Normal,8,R_LES,30.513673240343334
BMu108,64,C,INI,Gait_Normal,1,L_LES,10.959213789004677
BMu108,64,C,INI,Gait_Normal,1,R_LES,19.057638500629377
BMu108,64,C,INI,Gait_Normal,2,L_LES,13.094363570420088
BMu108,64,C,INI,Gait_Normal,3,L_LES,9.33892703853011
BMu108,64,C,INI,Gait_Normal,4,L_LES,15.563032097592403
BMu108,64,C,INI,Gait_Normal,5,L_LES,11.566992956603968
BMu108,64,C,INI,Gait_Normal,5,R_LES,24.45871424367051
BMu108,64,C,INI,Gait_Normal,6,L_LES,12.392249339705032
BMu108,64,C,INI,Gait_Normal,6,R_LES,25.537172114638793
BMu108,64,C,INI,Gait_Normal,7,L_LES,9.547748275554989
BMu108,64,C,INI,Gait_Normal,8,L_LES,15.124144592795906
BMu108,64,C,REL,Gait_Normal,1,L_LES,10.838618404900615
BMu108,64,C,REL,Gait_Normal,1,R_LES,18.475454166728316
BMu108,64,C,REL,Gait_Normal,2,L_LES,12.795028814229397
BMu108,64,C,REL,Gait_Normal,2,R_LES,26.64044144616172
BMu108,64,C,REL,Gait_Normal,3,L_LES,14.586778212314853
BMu108,64,C,REL,Gait_Normal,3,R_LES,21.627397991532586
BMu108,64,C,REL,Gait_Normal,4,L_LES,13.343953322156665
BMu108,64,C,REL,Gait_Normal,4,R_LES,20.111284519136824
BMu108,64,C,REL,Gait_Normal,5,L_LES,12.714782523708315
BMu108,64,C,REL,Gait_Normal,6,L_LES,15.433325607305752
BMu108,65,P,INI,Gait_Normal,1,R_LES,36.64930746363762
BMu108,65,P,INI,Gait_Normal,2,L_LES,28.54553195601137
BMu108,65,P,INI,Gait_Normal,2,R_LES,30.124512426578534
BMu108,65,P,INI,Gait_Normal,3,L_LES,31.409383313413752
BMu108,65,P,INI,Gait_Normal,3,R_LES,32.6655661407783
BMu108,65,P,INI,Gait_Normal,4,L_LES,36.67289872376567
BMu108,65,P,INI,Gait_Normal,5,R_LES,38.32839549581227
BMu108,65,P,INI,Gait_Normal,6,L_LES,31.943939972483747
BMu108,65,P,REL,Gait_Normal,1,L_LES,21.63344742950635
BMu108,65,P,REL,Gait_Normal,1,R_LES,28.85711069300036
BMu108,65,P,REL,Gait_Normal,2,L_LES,26.562369252576506
BMu108,65,P,REL,Gait_Normal,2,R_LES,39.0026773951166
BMu108,65,P,REL,Gait_Normal,3,L_LES,24.448933567407074
BMu108,65,P,REL,Gait_Normal,3,R_LES,30.282355197839202
BMu108,65,P,REL,Gait_Normal,4,L_LES,24.061451300280673
BMu108,65,P,REL,Gait_Normal,4,R_LES,31.620542743879433
BMu108,65,P,REL,Gait_Normal,5,L_LES,22.236628048549413
BMu108,65,P,REL,Gait_Normal,5,R_LES,27.270537448280464
BMu108,66,C,INI,Gait_Normal,1,L_LES,14.208559969548224
BMu108,66,C,INI,Gait_Normal,2,L_LES,14.70543318787035
BMu108,66,C,INI,Gait_Normal,2,R_LES,26.830680717645407
BMu108,66,C,INI,Gait_Normal,3,L_LES,14.480508878805244
BMu108,66,C,INI,Gait_Normal,3,R_LES,22.233926964804123
BMu108,66,C,INI,Gait_Normal,4,L_LES,17.65525749699052
BMu108,66,C,INI,Gait_Normal,4,R_LES,31.789648232203962
BMu108,66,C,INI,Gait_Normal,5,L_LES,13.516533357962194
BMu108,66,C,INI,Gait_Normal,5,R_LES,25.46223687774251
BMu108,66,C,INI,Gait_Normal,6,L_LES,16.788829790529118
BMu108,66,C,INI,Gait_Normal,6,R_LES,31.640521283377463
BMu108,66,C,INI,Gait_Normal,7,L_LES,14.007430374811692
BMu108,66,C,INI,Gait_Normal,7,R_LES,25.335211054046738
BMu108,66,C,INI,Gait_Normal,8,L_LES,15.750887809084354
BMu108,66,C,INI,Gait_Normal,8,R_LES,30.32051418900599
BMu108,66,C,REL,Gait_Normal,1,L_LES,10.443105557288968
BMu108,66,C,REL,Gait_Normal,1,R_LES,31.793753392759683
BMu108,66,C,REL,Gait_Normal,2,L_LES,14.398742683512046
BMu108,66,C,REL,Gait_Normal,2,R_LES,40.32213085714982
BMu108,66,C,REL,Gait_Normal,3,L_LES,13.065922473939558
BMu108,66,C,REL,Gait_Normal,3,R_LES,32.72023585570074
BMu108,66,C,REL,Gait_Normal,4,L_LES,21.43207452972075
BMu108,67,C,INI,Gait_Normal,1,L_LES,24.808208639366896
BMu108,67,C,INI,Gait_Normal,1,R_LES,138.28356788108908
BMu108,67,C,INI,Gait_Normal,2,L_LES,26.83319748565738
BMu108,67,C,INI,Gait_Normal,3,L_LES,37.28461013554673
BMu108,67,C,INI,Gait_Normal,4,L_LES,32.43015149933126
BMu108,67,C,INI,Gait_Normal,5,L_LES,40.926788023704844
BMu108,67,C,INI,Gait_Normal,6,L_LES,28.70455704521188
BMu108,67,C,INI,Gait_Normal,7,L_LES,38.939494229417406
BMu108,68,C,INI,Gait_Normal,1,R_LES,47.35684239229452
BMu108,68,C,INI,Gait_Normal,2,L_LES,52.47557619903375
BMu108,68,C,INI,Gait_Normal,2,R_LES,51.23861658857691
BMu108,68,C,INI,Gait_Normal,3,L_LES,57.25586668373766
BMu108,68,C,INI,Gait_Normal,4,L_LES,58.75528591871134
BMu108,68,C,INI,Gait_Normal,5,L_LES,62.20990534169925
BMu108,68,C,INI,Gait_Normal,6,L_LES,56.87863727340009
BMu108,68,C,INI,Gait_Normal,7,L_LES,67.09169604441293
BMu108,68,C,INI,Gait_Normal,7,R_LES,60.773491707677266
BMu108,68,C,REL,Gait_Normal,1,L_LES,56.51416283027336
