BM,subject,P_C,session,task,repetition,channel,value
BMu117,1,C,INI,Endurance_Sorensen,1,L_LES,117.85807991464968
BMu117,1,C,INI,Endurance_Sorensen,1,R_LES,93.33780747668594
BMu117,1,C,REL,Endurance_Sorensen,1,L_LES,117.8154489845048
BMu117,1,C,REL,Endurance_Sorensen,1,R_LES,105.35091784745167
BMu117,2,C,INI,Endurance_Sorensen,1,L_LES,101.37069244905601
BMu117,2,C,INI,Endurance_Sorensen,1,R_LES,115.07187615741127
BMu117,2,C,REL,Endurance_Sorensen,1,L_LES,104.96271461778677
BMu117,2,C,REL,Endurance_Sorensen,1,R_LES,101.07977180555132
BMu117,3,C,INI,Endurance_Sorensen,1,L_LES,91.28721162523414
BMu117,3,C,INI,Endurance_Sorensen,1,R_LES,92.75674442522698
BMu117,3,C,REL,Endurance_Sorensen,1,L_LES,75.42590951707605
BMu117,3,C,REL,Endurance_Sorensen,1,R_LES,94.25720224913393
BMu117,5,C,INI,Endurance_Sorensen,1,L_LES,122.97750814900319
BMu117,5,C,INI,Endurance_Sorensen,1,R_LES,118.36590966480357
BMu117,5,C,REL,Endurance_Sorensen,1,L_LES,126.64174464013423
BMu117,5,C,REL,Endurance_Sorensen,1,R_LES,115.62482455535728
BMu117,6,C,INI,Endurance_Sorensen,1,L_LES,123.44539916703783
BMu117,6,C,INI,Endurance_Sorensen,1,R_LES,115.25795333225969
BMu117,6,C,REL,Endurance_Sorensen,1,L_LES,112.07792161517537
BMu117,6,C,REL,Endurance_Sorensen,1,R_LES,107.46038306396653
BMu117,7,C,INI,Endurance_Sorensen,1,L_LES,144.06266907896827
BMu117,7,C,INI,Endurance_Sorensen,1,R_LES,115.36477533534998
BMu117,7,C,REL,Endurance_Sorensen,1,L_LES,146.04787705357418
BMu117,7,C,REL,Endurance_Sorensen,1,R_LES,104.15186926693946
BMu117,8,C,INI,Endurance_Sorensen,1,L_LES,118.57750035951399
BMu117,8,C,INI,Endurance_Sorensen,1,R_LES,97.9398339308359
BMu117,8,C,REL,Endurance_Sorensen,1,L_LES,98.11313522454302
BMu117,8,C,REL,Endurance_Sorensen,1,R_LES,95.54615190662565
BMu117,9,P,INI,Endurance_Sorensen,1,L_LES,117.39674154504551
BMu117,9,P,INI,Endurance_Sorensen,1,R_LES,117.31633577853935
BMu117,9,P,REL,Endurance_Sorensen,1,L_LES,119.5146450212102
BMu117,9,P,REL,Endurance_Sorensen,1,R_LES,122.31858780306995
BMu117,10,P,INI,Endurance_Sorensen,1,L_LES,114.42206004579769
BMu117,10,P,INI,Endurance_Sorensen,1,R_LES,107.69576674104988
BMu117,10,P,REL,Endurance_Sorensen,1,L_LES,118.72478972165635
BMu117,10,P,REL,Endurance_Sorensen,1,R_LES,111.24703865972259
BMu117,11,P,INI,Endurance_Sorensen,1,L_LES,104.98700765481762
BMu117,11,P,INI,Endurance_Sorensen,1,R_LES,96.26420212089548
BMu117,11,P,REL,Endurance_Sorensen,1,L_LES,106.9028447341504
BMu117,11,P,REL,Endurance_Sorensen,1,R_LES,99.61255487277391
BMu117,12,P,INI,Endurance_Sorensen,1,L_LES,94.06922521378861
BMu117,12,P,INI,Endurance_Sorensen,1,R_LES,78.10098473573447
BMu117,12,P,REL,Endurance_Sorensen,1,L_LES,91.19248995884773
BMu117,12,P,REL,Endurance_Sorensen,1,R_LES,75.60755900179662
BMu117,13,C,INI,Endurance_Sorensen,1,L_LES,107.84403395582636
BMu117,13,C,INI,Endurance_Sorensen,1,R_LES,107.24794148999575
BMu117,13,C,REL,Endurance_Sorensen,1,L_LES,111.19401482716958
BMu117,13,C,REL,Endurance_Sorensen,1,R_LES,101.19404079066584
BMu117,14,P,INI,Endurance_Sorensen,1,L_LES,100.78321708204982
BMu117,14,P,INI,Endurance_Sorensen,1,R_LES,81.3300954533799
BMu117,14,P,REL,Endurance_Sorensen,1,L_LES,100.7090317386148
BMu117,14,P,REL,Endurance_Sorensen,1,R_LES,92.14168178621333
BMu117,16,C,INI,Endurance_Sorensen,1,L_LES,109.51104599187238
BMu117,16,C,INI,Endurance_Sorensen,1,R_LES,101.10095054802218
BMu117,16,C,REL,Endurance_Sorensen,1,L_LES,107.83480241046192
BMu117,16,C,REL,Endurance_Sorensen,1,R_LES,90.39843622016515
BMu117,17,P,INI,Endurance_Sorensen,1,L_LES,133.10440576846517
BMu117,17,P,INI,Endurance_Sorensen,1,R_LES,106.88807515403154
BMu117,17,P,REL,Endurance_Sorensen,1,L_LES,117.93065938159727
BMu117,17,P,REL,Endurance_Sorensen,1,R_LES,121.50030585484728
BMu117,21,C,INI,Endurance_Sorensen,1,L_LES,101.0660002043909
BMu117,21,C,INI,Endurance_Sorensen,1,R_LES,90.13826659682526
BMu117,21,C,REL,Endurance_Sorensen,1,L_LES,103.54642700451522
BMu117,21,C,REL,Endurance_Sorensen,1,R_LES,102.10603467924685
BMu117,22,C,INI,Endurance_Sorensen,1,L_LES,86.13909306786567
BMu117,22,C,INI,Endurance_Sorensen,1,R_LES,87.99290069105808
BMu117,22,C,REL,Endurance_Sorensen,1,L_LES,89.65879019395896
BMu117,22,C,REL,Endurance_Sorensen,1,R_LES,77.3750305551902
BMu117,23,C,INI,Endurance_Sorensen,1,L_LES,81.17515671895096
BMu117,23,C,INI,Endurance_Sorensen,1,R_LES,106.26348701644943
BMu117,23,C,REL,Endurance_Sorensen,1,L_LES,105.85829189312327
BMu117,23,C,REL,Endurance_Sorensen,1,R_LES,89.27244791842291
BMu117,24,P,INI,Endurance_Sorensen,1,L_LES,125.26871736234551
BMu117,24,P,INI,Endurance_Sorensen,1,R_LES,119.46609472186789
BMu117,24,P,REL,Endurance_Sorensen,1,L_LES,86.89900384144802
BMu117,24,P,REL,Endurance_Sorensen,1,R_LES,57.15419095475438
BMu117,25,C,INI,Endurance_Sorensen,1,L_LES,118.1480128921285
BMu117,25,C,INI,Endurance_Sorensen,1,R_LES,109.7135382774468
BMu117,25,C,REL,Endurance_Sorensen,1,L_LES,125.89704466196325
BMu117,25,C,REL,Endurance_Sorensen,1,R_LES,103.40538959765631
BMu117,26,P,INI,Endurance_Sorensen,1,L_LES,103.01355891321492
BMu117,26,P,INI,Endurance_Sorensen,1,R_LES,90.14914828134039
BMu117,26,P,REL,Endurance_Sorensen,1,L_LES,99.06778579367102
BMu117,26,P,REL,Endurance_Sorensen,1,R_LES,94.4367241712721
BMu117,27,P,INI,Endurance_Sorensen,1,L_LES,105.74702257077378
BMu117,27,P,INI,Endurance_Sorensen,1,R_LES,96.755510615699
BMu117,27,P,REL,Endurance_Sorensen,1,L_LES,103.2558968306812
BMu117,27,P,REL,Endurance_Sorensen,1,R_LES,99.18743053669263
BMu117,28,P,INI,Endurance_Sorensen,1,L_LES,120.7842920313392
BMu117,28,P,INI,Endurance_Sorensen,1,R_LES,101.80612139813174
BMu117,28,P,REL,Endurance_Sorensen,1,L_LES,128.42083390080543
BMu117,28,P,REL,Endurance_Sorensen,1,R_LES,102.02717944709893
BMu117,29,P,INI,Endurance_Sorensen,1,L_LES,103.88810134254172
BMu117,29,P,INI,Endurance_Sorensen,1,R_LES,109.44788443496867
BMu117,29,P,REL,Endurance_Sorensen,1,L_LES,110.455623127037
BMu117,29,P,REL,Endurance_Sorensen,1,R_LES,112.09814955260117
BMu117,30,P,INI,Endurance_Sorensen,1,L_LES,110.74348471319463
BMu117,30,P,INI,Endurance_Sorensen,1,R_LES,102.78182785690437
BMu117,30,P,REL,Endurance_Sorensen,1,L_LES,113.64097452286207
BMu117,30,P,REL,Endurance_Sorensen,1,R_LES,88.83207399249908
BMu117,32,P,INI,Endurance_Sorensen,1,L_LES,101.1513194548485
BMu117,32,P,INI,Endurance_Sorensen,1,R_LES,95.20793313068907
BMu117,32,P,REL,Endurance_Sorensen,1,L_LES,89.56397493944279
BMu117,32,P,REL,Endurance_Sorensen,1,R_LES,108.16748302089371
BMu117,33,P,INI,Endurance_Sorensen,1,L_LES,62.853266414957666
BMu117,33,P,INI,Endurance_Sorensen,1,R_LES,65.86976740129433
BMu117,33,P,REL,Endurance_Sorensen,1,L_LES,84.47970338206261
BMu117,33,P,REL,Endurance_Sorensen,1,R_LES,86.39925312124993
BMu117,34,P,INI,Endurance_Sorensen,1,L_LES,108.20102967514028
BMu117,34,P,INI,Endurance_Sorensen,1,R_LES,102.14908992462352
BMu117,34,P,REL,Endurance_Sorensen,1,L_LES,105.22782163631669
BMu117,34,P,REL,Endurance_Sorensen,1,R_LES,101.1391148773837
BMu117,35,C,INI,Endurance_Sorensen,1,L_LES,112.32914909787856
BMu117,35,C,INI,Endurance_Sorensen,1,R_LES,98.20451016176516
BMu117,35,C,REL,Endurance_Sorensen,1,L_LES,111.10926223948827
BMu117,35,C,REL,Endurance_Sorensen,1,R_LES,120.8235115276587
BMu117,36,P,INI,Endurance_Sorensen,1,L_LES,106.41566328332374
BMu117,36,P,INI,Endurance_Sorensen,1,R_LES,101.62577661929389
BMu117,36,P,REL,Endurance_Sorensen,1,L_LES,112.44208238171164
BMu117,36,P,REL,Endurance_Sorensen,1,R_LES,110.44901119650314
BMu117,38,C,INI,Endurance_Sorensen,1,L_LES,112.06781998535462
BMu117,38,C,INI,Endurance_Sorensen,1,R_LES,68.37900996764475
BMu117,38,C,REL,Endurance_Sorensen,1,L_LES,112.57351499610354
BMu117,38,C,REL,Endurance_Sorensen,1,R_LES,111.1583922309896
BMu117,39,C,INI,Endurance_Sorensen,1,L_LES,133.3161111857668
BMu117,39,C,INI,Endurance_Sorensen,1,R_LES,119.86323704972924
BMu117,39,C,REL,Endurance_Sorensen,1,L_LES,90.39180315728409
BMu117,39,C,REL,Endurance_Sorensen,1,R_LES,113.51959586789543
BMu117,40,C,INI,Endurance_Sorensen,1,L_LES,134.2271893872517
BMu117,40,C,INI,Endurance_Sorensen,1,R_LES,103.33132907328458
BMu117,40,C,REL,Endurance_Sorensen,1,L_LES,139.96076165085944
BMu117,40,C,REL,Endurance_Sorensen,1,R_LES,128.5787208973509
BMu117,41,P,INI,Endurance_Sorensen,1,L_LES,94.87071621699928
BMu117,41,P,INI,Endurance_Sorensen,1,R_LES,89.05326506787233
BMu117,41,P,REL,Endurance_Sorensen,1,L_LES,99.70211173755824
BMu117,41,P,REL,Endurance_Sorensen,1,R_LES,81.79191435911012
BMu117,42,P,INI,Endurance_Sorensen,1,L_LES,126.66191001564287
BMu117,42,P,INI,Endurance_Sorensen,1,R_LES,109.78004592835906
BMu117,42,P,REL,Endurance_Sorensen,1,L_LES,121.05636542170804
BMu117,42,P,REL,Endurance_Sorensen,1,R_LES,106.65536801351755
BMu117,43,P,INI,Endurance_Sorensen,1,L_LES,130.49988325655028
BMu117,43,P,INI,Endurance_Sorensen,1,R_LES,106.4876671843096
BMu117,43,P,REL,Endurance_Sorensen,1,L_LES,135.90690563701398
BMu117,43,P,REL,Endurance_Sorensen,1,R_LES,102.99134099815893
BMu117,44,C,INI,Endurance_Sorensen,1,L_LES,122.72086330286474
BMu117,44,C,INI,Endurance_Sorensen,1,R_LES,88.99972046792097
BMu117,44,C,REL,Endurance_Sorensen,1,L_LES,143.88836866726317
BMu117,44,C,REL,Endurance_Sorensen,1,R_LES,124.65531881923557
BMu117,45,P,INI,Endurance_Sorensen,1,L_LES,81.46197948859098
BMu117,45,P,INI,Endurance_Sorensen,1,R_LES,69.5780398639587
BMu117,45,P,REL,Endurance_Sorensen,1,L_LES,105.06956056340246
BMu117,45,P,REL,Endurance_Sorensen,1,R_LES,86.26377739196964
BMu117,46,C,INI,Endurance_Sorensen,1,L_LES,124.73228659246892
BMu117,46,C,INI,Endurance_Sorensen,1,R_LES,99.29220661352191
BMu117,46,C,REL,Endurance_Sorensen,1,L_LES,119.72911484662917
BMu117,46,C,REL,Endurance_Sorensen,1,R_LES,99.20328754052362
BMu117,47,P,INI,Endurance_Sorensen,1,L_LES,144.26990421959493
BMu117,47,P,INI,Endurance_Sorensen,1,R_LES,139.56773277130452
BMu117,47,P,REL,Endurance_Sorensen,1,L_LES,111.73718980856088
BMu117,47,P,REL,Endurance_Sorensen,1,R_LES,101.65358422631483
BMu117,48,C,INI,Endurance_Sorensen,1,L_LES,156.5288763475003
BMu117,48,C,INI,Endurance_Sorensen,1,R_LES,139.53717065561906
BMu117,48,C,REL,Endurance_Sorensen,1,L_LES,134.11372898529152
BMu117,48,C,REL,Endurance_Sorensen,1,R_LES,136.10446530536498
BMu117,49,C,INI,Endurance_Sorensen,1,L_LES,120.49998205370602
BMu117,49,C,INI,Endurance_Sorensen,1,R_LES,112.88032971902263
BMu117,49,C,REL,Endurance_Sorensen,1,L_LES,108.52385327103117
BMu117,49,C,REL,Endurance_Sorensen,1,R_LES,109.54545094272822
BMu117,50,P,INI,Endurance_Sorensen,1,L_LES,122.45700366820046
BMu117,50,P,INI,Endurance_Sorensen,1,R_LES,110.11975872774505
BMu117,50,P,REL,Endurance_Sorensen,1,L_LES,107.04569126067132
BMu117,50,P,REL,Endurance_Sorensen,1,R_LES,119.45452222149196
BMu117,51,P,INI,Endurance_Sorensen,1,L_LES,80.50004595912259
BMu117,51,P,INI,Endurance_Sorensen,1,R_LES,83.76908543098399
BMu117,51,P,REL,Endurance_Sorensen,1,L_LES,76.23237389102768
BMu117,51,P,REL,Endurance_Sorensen,1,R_LES,92.9388235792011
BMu117,52,C,INI,Endurance_Sorensen,1,L_LES,97.10435504417765
BMu117,52,C,INI,Endurance_Sorensen,1,R_LES,104.61909832937509
BMu117,52,C,REL,Endurance_Sorensen,1,L_LES,131.00255952792932
BMu117,52,C,REL,Endurance_Sorensen,1,R_LES,113.41292707253022
BMu117,53,P,INI,Endurance_Sorensen,1,L_LES,107.31894719983664
BMu117,53,P,INI,Endurance_Sorensen,1,R_LES,88.4755581220503
BMu117,53,P,REL,Endurance_Sorensen,1,L_LES,97.9652133431034
BMu117,53,P,REL,Endurance_Sorensen,1,R_LES,109.3643304856728
BMu117,54,P,INI,Endurance_Sorensen,1,L_LES,120.1756443260099
BMu117,54,P,INI,Endurance_Sorensen,1,R_LES,116.61414758710157
BMu117,54,P,REL,Endurance_Sorensen,1,L_LES,113.17110504100583
BMu117,54,P,REL,Endurance_Sorensen,1,R_LES,119.60771317274947
BMu117,55,C,INI,Endurance_Sorensen,1,L_LES,114.8198896218828
BMu117,55,C,INI,Endurance_Sorensen,1,R_LES,113.49198246253182
BMu117,55,C,REL,Endurance_Sorensen,1,L_LES,103.36368322198672
BMu117,55,C,REL,Endurance_Sorensen,1,R_LES,105.29100727574404
BMu117,56,C,INI,Endurance_Sorensen,1,L_LES,69.72891883961323
BMu117,56,C,INI,Endurance_Sorensen,1,R_LES,77.62242673268383
BMu117,56,C,REL,Endurance_Sorensen,1,L_LES,83.61049010920274
BMu117,56,C,REL,Endurance_Sorensen,1,R_LES,84.93073437254897
BMu117,57,C,INI,Endurance_Sorensen,1,L_LES,101.22386896060148
BMu117,57,C,INI,Endurance_Sorensen,1,R_LES,105.13172220761234
BMu117,57,C,REL,Endurance_Sorensen,1,L_LES,112.82280212706132
BMu117,57,C,REL,Endurance_Sorensen,1,R_LES,94.77577723737535
BMu117,58,P,INI,Endurance_Sorensen,1,L_LES,111.5319711760544
BMu117,58,P,INI,Endurance_Sorensen,1,R_LES,105.11430137782298
BMu117,58,P,REL,Endurance_Sorensen,1,L_LES,109.8414791763374
BMu117,58,P,REL,Endurance_Sorensen,1,R_LES,94.93956951512865
BMu117,60,C,INI,Endurance_Sorensen,1,L_LES,117.02101880902468
BMu117,60,C,INI,Endurance_Sorensen,1,R_LES,101.42322443712646
BMu117,60,C,REL,Endurance_Sorensen,1,L_LES,110.08608449678421
BMu117,60,C,REL,Endurance_Sorensen,1,R_LES,91.30102012241815
BMu117,61,P,REL,Endurance_Sorensen,1,L_LES,83.51214032356924
BMu117,61,P,REL,Endurance_Sorensen,1,R_LES,92.28860007576355
BMu117,62,P,INI,Endurance_Sorensen,1,L_LES,88.8059885702854
BMu117,62,P,INI,Endurance_Sorensen,1,R_LES,86.84567534348224
BMu117,62,P,REL,Endurance_Sorensen,1,L_LES,98.91627392030546
BMu117,62,P,REL,Endurance_Sorensen,1,R_LES,95.0716999562184
BMu117,63,P,INI,Endurance_Sorensen,1,L_LES,105.67028972132717
BMu117,63,P,INI,Endurance_Sorensen,1,R_LES,117.86983500751286
BMu117,63,P,REL,Endurance_Sorensen,1,L_LES,129.67360005400243
BMu117,63,P,REL,Endurance_Sorensen,1,R_LES,119.44404975306158
BMu117,64,C,INI,Endurance_Sorensen,1,L_LES,118.32160587130755
BMu117,64,C,INI,Endurance_Sorensen,1,R_LES,109.26775128622062
BMu117,64,C,REL,Endurance_Sorensen,1,L_LES,108.29072430619189
BMu117,64,C,REL,Endurance_Sorensen,1,R_LES,96.9007225139531
BMu117,65,P,INI,Endurance_Sorensen,1,L_LES,111.89138884043395
BMu117,65,P,INI,Endurance_Sorensen,1,R_LES,97.76265086287437
BMu117,65,P,REL,Endurance_Sorensen,1,L_LES,132.7920503962299
BMu117,65,P,REL,Endurance_Sorensen,1,R_LES,108.04955633337681
BMu117,66,C,INI,Endurance_Sorensen,1,L_LES,106.86823321795238
BMu117,66,C,INI,Endurance_Sorensen,1,R_LES,97.73794636168728
BMu117,66,C,REL,Endurance_Sorensen,1,L_LES,101.54728457475225
BMu117,66,C,REL,Endurance_Sorensen,1,R_LES,103.45935358507035
BMu117,67,C,INI,Endurance_Sorensen,1,L_LES,101.20146850809091
BMu117,67,C,INI,Endurance_Sorensen,1,R_LES,120.05110236630298
BMu117,67,C,REL,Endurance_Sorensen,1,L_LES,99.21470049959049
BMu117,67,C,REL,Endurance_Sorensen,1,R_LES,104.01086243418082
BMu117,68,C,INI,Endurance_Sorensen,1,L_LES,127.45713844312901
BMu117,68,C,INI,Endurance_Sorensen,1,R_LES,138.4989336872792
BMu117,68,C,REL,Endurance_Sorensen,1,L_LES,135.85725955120623
BMu117,68,C,REL,Endurance_Sorensen,1,R_LES,144.14461334931931
