BM,subject,P_C,session,task,repetition,channel,value
BMu106,1,C,INI,Gait_Normal,1,L_MTF,22.73387390948686
BMu106,1,C,INI,Gait_Normal,1,R_MTF,46.62223754708816
BMu106,1,C,INI,Gait_Normal,2,L_MTF,17.457086962903738
BMu106,1,C,INI,Gait_Normal,2,R_MTF,193.19379251683685
BMu106,1,C,INI,Gait_Normal,3,L_MTF,25.142758038314494
BMu106,1,C,INI,Gait_Normal,3,R_MTF,34.51107909409156
BMu106,1,C,INI,Gait_Normal,4,L_MTF,24.97186733433126
BMu106,1,C,INI,Gait_Normal,4,R_MTF,70.890925887202
BMu106,1,C,INI,Gait_Normal,5,L_MTF,17.854397775079544
BMu106,1,C,INI,Gait_Normal,5,R_MTF,70.96807910048737
BMu106,1,C,INI,Gait_Normal,6,L_MTF,30.178797589036474
BMu106,1,C,INI,Gait_Normal,6,R_MTF,37.96224647517409
BMu106,1,C,INI,Gait_Normal,7,L_MTF,29.681377134444848
BMu106,1,C,INI,Gait_Normal,7,R_MTF,45.41598998761815
BMu106,1,C,INI,Gait_Normal,8,L_MTF,30.315267972025183
BMu106,1,C,INI,Gait_Normal,8,R_MTF,77.35779715226057
BMu106,1,C,INI,Gait_Normal,9,L_MTF,22.801033822795972
BMu106,1,C,INI,Gait_Normal,9,R_MTF,60.75875275229367
BMu106,1,C,INI,Gait_Normal,10,L_MTF,25.105724110044104
BMu106,1,C,INI,Gait_Normal,10,R_MTF,91.07849582029723
BMu106,1,C,REL,Gait_Normal,1,L_MTF,17.304660609457866
BMu106,1,C,REL,Gait_Normal,1,R_MTF,29.859180625619768
BMu106,1,C,REL,Gait_Normal,2,L_MTF,22.010393271544586
BMu106,1,C,REL,Gait_Normal,2,R_MTF,2.06953099399501
BMu106,1,C,REL,Gait_Normal,3,L_MTF,13.692737355613017
BMu106,1,C,REL,Gait_Normal,3,R_MTF,25.405152070884878
BMu106,1,C,REL,Gait_Normal,4,L_MTF,16.108648086536952
BMu106,1,C,REL,Gait_Normal,4,R_MTF,8.853287128686839
BMu106,1,C,REL,Gait_Normal,5,L_MTF,6.978408116302823
BMu106,1,C,REL,Gait_Normal,5,R_MTF,8.33248746447703
BMu106,1,C,REL,Gait_Normal,6,L_MTF,7.012086773489412
BMu106,1,C,REL,Gait_Normal,6,R_MTF,7.143848397988599
BMu106,1,C,REL,Gait_Normal,7,L_MTF,7.317603201214987
BMu106,1,C,REL,Gait_Normal,7,R_MTF,14.632379402391507
BMu106,1,C,REL,Gait_Normal,8,L_MTF,16.733060914301884
BMu106,1,C,REL,Gait_Normal,8,R_MTF,2.506171272978383
BMu106,1,C,REL,Gait_Normal,9,L_MTF,19.016229582988768
BMu106,1,C,REL,Gait_Normal,9,R_MTF,7.212230175965094
BMu106,1,C,REL,Gait_Normal,10,L_MTF,14.582406758696346
BMu106,1,C,REL,Gait_Normal,10,R_MTF,2.778251621700364
BMu106,2,C,INI,Gait_Normal,1,L_MTF,15.03154970404973
BMu106,2,C,INI,Gait_Normal,1,R_MTF,12.005528867284577
BMu106,2,C,INI,Gait_Normal,2,L_MTF,8.966908496255387
BMu106,2,C,INI,Gait_Normal,2,R_MTF,11.307816420189752
BMu106,2,C,INI,Gait_Normal,3,L_MTF,18.947316029135052
BMu106,2,C,INI,Gait_Normal,3,R_MTF,13.882934576244626
BMu106,2,C,INI,Gait_Normal,4,L_MTF,13.351310697429815
BMu106,2,C,INI,Gait_Normal,4,R_MTF,10.979628268887565
BMu106,2,C,INI,Gait_Normal,5,L_MTF,8.800876438520092
BMu106,2,C,INI,Gait_Normal,5,R_MTF,15.807259418265849
BMu106,2,C,INI,Gait_Normal,6,L_MTF,14.578731655880238
BMu106,2,C,INI,Gait_Normal,6,R_MTF,11.675157731269026
BMu106,2,C,INI,Gait_Normal,7,L_MTF,9.735021220124871
BMu106,2,C,INI,Gait_Normal,7,R_MTF,12.02809218447131
BMu106,2,C,INI,Gait_Normal,8,L_MTF,15.799380349672916
BMu106,2,C,INI,Gait_Normal,8,R_MTF,12.894274646812574
BMu106,2,C,INI,Gait_Normal,9,L_MTF,9.792024874143936
BMu106,2,C,INI,Gait_Normal,9,R_MTF,13.02903202385926
BMu106,2,C,INI,Gait_Normal,10,L_MTF,18.6354711851365
BMu106,2,C,INI,Gait_Normal,10,R_MTF,10.13773416631789
BMu106,2,C,REL,Gait_Normal,1,L_MTF,13.32076934239982
BMu106,2,C,REL,Gait_Normal,1,R_MTF,9.980487166261485
BMu106,2,C,REL,Gait_Normal,2,L_MTF,11.339848029526584
BMu106,2,C,REL,Gait_Normal,2,R_MTF,11.468467658473534
BMu106,2,C,REL,Gait_Normal,3,L_MTF,10.46148037050973
BMu106,2,C,REL,Gait_Normal,3,R_MTF,11.041277746037302
BMu106,2,C,REL,Gait_Normal,4,L_MTF,11.346218728139974
BMu106,2,C,REL,Gait_Normal,4,R_MTF,9.02754210037854
BMu106,2,C,REL,Gait_Normal,5,L_MTF,6.578136433836682
BMu106,2,C,REL,Gait_Normal,5,R_MTF,14.249312591574723
BMu106,2,C,REL,Gait_Normal,6,L_MTF,6.815044699974931
BMu106,2,C,REL,Gait_Normal,6,R_MTF,14.659849950663812
BMu106,2,C,REL,Gait_Normal,7,L_MTF,5.204689562128856
BMu106,2,C,REL,Gait_Normal,7,R_MTF,13.381979353003453
BMu106,2,C,REL,Gait_Normal,8,L_MTF,7.897713225738161
BMu106,2,C,REL,Gait_Normal,8,R_MTF,12.21087502172234
BMu106,2,C,REL,Gait_Normal,9,L_MTF,7.464057678680536
BMu106,2,C,REL,Gait_Normal,9,R_MTF,12.599286095187736
BMu106,3,C,INI,Gait_Normal,1,L_MTF,15.91186388961343
BMu106,3,C,INI,Gait_Normal,1,R_MTF,34.35210341535065
BMu106,3,C,INI,Gait_Normal,2,L_MTF,12.072855134954986
BMu106,3,C,INI,Gait_Normal,2,R_MTF,29.20597380825596
BMu106,3,C,INI,Gait_Normal,3,L_MTF,19.62920652477935
BMu106,3,C,INI,Gait_Normal,3,R_MTF,31.160280230349375
BMu106,3,C,INI,Gait_Normal,4,L_MTF,13.104153667520514
BMu106,3,C,INI,Gait_Normal,4,R_MTF,22.691267432441204
BMu106,3,C,INI,Gait_Normal,5,L_MTF,14.784459615039635
BMu106,3,C,INI,Gait_Normal,5,R_MTF,34.19762245517748
BMu106,3,C,INI,Gait_Normal,6,L_MTF,10.317483303755168
BMu106,3,C,INI,Gait_Normal,6,R_MTF,29.3590962648525
BMu106,3,C,INI,Gait_Normal,7,L_MTF,10.86258396961191
BMu106,3,C,INI,Gait_Normal,7,R_MTF,33.05664104115147
BMu106,3,C,INI,Gait_Normal,8,L_MTF,9.588495614774244
BMu106,3,C,INI,Gait_Normal,8,R_MTF,19.406886424303387
BMu106,3,C,INI,Gait_Normal,9,L_MTF,10.323375934512
BMu106,3,C,INI,Gait_Normal,9,R_MTF,41.614421058007274
BMu106,3,C,INI,Gait_Normal,10,L_MTF,12.82134023721241
BMu106,3,C,INI,Gait_Normal,10,R_MTF,41.05944005049302
BMu106,3,C,REL,Gait_Normal,1,L_MTF,31.12317387999707
BMu106,3,C,REL,Gait_Normal,1,R_MTF,11.428622391418314
BMu106,3,C,REL,Gait_Normal,2,L_MTF,26.799715966872252
BMu106,3,C,REL,Gait_Normal,2,R_MTF,15.79870842017128
BMu106,3,C,REL,Gait_Normal,3,L_MTF,21.164645861821253
BMu106,3,C,REL,Gait_Normal,3,R_MTF,12.532231070613406
BMu106,3,C,REL,Gait_Normal,4,L_MTF,29.2981580547624
BMu106,3,C,REL,Gait_Normal,4,R_MTF,11.647975985344223
BMu106,3,C,REL,Gait_Normal,5,L_MTF,29.197212694170002
BMu106,3,C,REL,Gait_Normal,5,R_MTF,15.289617002996929
BMu106,3,C,REL,Gait_Normal,6,L_MTF,30.599218201858733
BMu106,3,C,REL,Gait_Normal,6,R_MTF,15.213611483544534
BMu106,3,C,REL,Gait_Normal,7,L_MTF,31.715419211747246
BMu106,3,C,REL,Gait_Normal,7,R_MTF,20.20557762780118
BMu106,3,C,REL,Gait_Normal,8,L_MTF,28.913124598889038
BMu106,3,C,REL,Gait_Normal,8,R_MTF,15.003920225052568
BMu106,3,C,REL,Gait_Normal,9,L_MTF,35.070572378429375
BMu106,3,C,REL,Gait_Normal,9,R_MTF,14.728483317562288
BMu106,3,C,REL,Gait_Normal,10,L_MTF,24.90349312159885
BMu106,3,C,REL,Gait_Normal,10,R_MTF,19.54881651261258
BMu106,5,C,INI,Gait_Normal,1,L_MTF,21.152924202233937
BMu106,5,C,INI,Gait_Normal,1,R_MTF,20.075088280869483
BMu106,5,C,INI,Gait_Normal,2,L_MTF,15.747525759420654
BMu106,5,C,INI,Gait_Normal,2,R_MTF,19.394902857194882
BMu106,5,C,INI,Gait_Normal,3,L_MTF,22.440329305520084
BMu106,5,C,INI,Gait_Normal,3,R_MTF,18.177366607612488
BMu106,5,C,INI,Gait_Normal,4,L_MTF,19.066780743850565
BMu106,5,C,INI,Gait_Normal,4,R_MTF,17.14894892241406
BMu106,5,C,INI,Gait_Normal,5,L_MTF,18.87837671117568
BMu106,5,C,INI,Gait_Normal,5,R_MTF,22.862265860850705
BMu106,5,C,INI,Gait_Normal,6,L_MTF,17.933796417016524
BMu106,5,C,INI,Gait_Normal,6,R_MTF,15.537458436214829
BMu106,5,C,INI,Gait_Normal,7,L_MTF,19.23299101724569
BMu106,5,C,INI,Gait_Normal,7,R_MTF,17.24293053042014
BMu106,5,C,INI,Gait_Normal,8,L_MTF,15.321061987314414
BMu106,5,C,INI,Gait_Normal,8,R_MTF,13.22400001690169
BMu106,5,C,REL,Gait_Normal,1,L_MTF,19.198573874777683
BMu106,5,C,REL,Gait_Normal,1,R_MTF,13.1422361549344
BMu106,5,C,REL,Gait_Normal,2,L_MTF,22.09371790451335
BMu106,5,C,REL,Gait_Normal,2,R_MTF,15.945728035397945
BMu106,5,C,REL,Gait_Normal,3,L_MTF,16.03438538079273
BMu106,5,C,REL,Gait_Normal,3,R_MTF,15.420353124590727
BMu106,5,C,REL,Gait_Normal,4,L_MTF,20.088783491134834
BMu106,5,C,REL,Gait_Normal,4,R_MTF,15.654965577434151
BMu106,5,C,REL,Gait_Normal,5,L_MTF,19.061115202592937
BMu106,5,C,REL,Gait_Normal,5,R_MTF,13.613804410269479
BMu106,5,C,REL,Gait_Normal,6,L_MTF,16.99613445946601
BMu106,5,C,REL,Gait_Normal,6,R_MTF,13.618978270108656
BMu106,5,C,REL,Gait_Normal,7,L_MTF,22.193789395851287
BMu106,5,C,REL,Gait_Normal,7,R_MTF,14.337888082125657
BMu106,5,C,REL,Gait_Normal,8,L_MTF,22.958571806146654
BMu106,5,C,REL,Gait_Normal,8,R_MTF,18.899294645006293
BMu106,5,C,REL,Gait_Normal,9,L_MTF,23.225193333565194
BMu106,5,C,REL,Gait_Normal,9,R_MTF,16.765810292792594
BMu106,6,C,INI,Gait_Normal,1,L_MTF,32.601602768492235
BMu106,6,C,INI,Gait_Normal,1,R_MTF,36.63524473032905
BMu106,6,C,INI,Gait_Normal,2,L_MTF,25.70777719814106
BMu106,6,C,INI,Gait_Normal,2,R_MTF,38.026494806942814
BMu106,6,C,INI,Gait_Normal,3,L_MTF,24.42860568774251
BMu106,6,C,INI,Gait_Normal,3,R_MTF,31.350797616456973
BMu106,6,C,INI,Gait_Normal,4,L_MTF,30.062948726671657
BMu106,6,C,INI,Gait_Normal,4,R_MTF,31.937053109344237
BMu106,6,C,INI,Gait_Normal,5,L_MTF,34.216834275426194
BMu106,6,C,INI,Gait_Normal,5,R_MTF,30.19188699332118
BMu106,6,C,INI,Gait_Normal,6,L_MTF,28.23658530718559
BMu106,6,C,INI,Gait_Normal,6,R_MTF,32.97290753610688
BMu106,6,C,INI,Gait_Normal,7,L_MTF,31.297270232858
BMu106,6,C,INI,Gait_Normal,7,R_MTF,34.047359876088656
BMu106,6,C,REL,Gait_Normal,1,L_MTF,19.18243172823694
BMu106,6,C,REL,Gait_Normal,1,R_MTF,26.390306888149894
BMu106,6,C,REL,Gait_Normal,2,L_MTF,22.187685769883917
BMu106,6,C,REL,Gait_Normal,2,R_MTF,26.230502988876896
BMu106,6,C,REL,Gait_Normal,3,L_MTF,20.76694438743306
BMu106,6,C,REL,Gait_Normal,3,R_MTF,19.792061380262663
BMu106,6,C,REL,Gait_Normal,4,L_MTF,19.139505013829233
BMu106,6,C,REL,Gait_Normal,4,R_MTF,36.418176833097824
BMu106,6,C,REL,Gait_Normal,5,L_MTF,14.824813376875534
BMu106,6,C,REL,Gait_Normal,5,R_MTF,30.549684334015826
BMu106,6,C,REL,Gait_Normal,6,L_MTF,17.807704783974327
BMu106,6,C,REL,Gait_Normal,6,R_MTF,25.950340622406287
BMu106,6,C,REL,Gait_Normal,7,L_MTF,22.23679644683953
BMu106,6,C,REL,Gait_Normal,7,R_MTF,29.798322021603735
BMu106,6,C,REL,Gait_Normal,8,L_MTF,18.155695600553795
BMu106,6,C,REL,Gait_Normal,8,R_MTF,30.1240176458134
BMu106,6,C,REL,Gait_Normal,9,L_MTF,20.86879298101879
BMu106,6,C,REL,Gait_Normal,9,R_MTF,24.422060156431826
BMu106,6,C,REL,Gait_Normal,10,L_MTF,17.248439134750488
BMu106,6,C,REL,Gait_Normal,10,R_MTF,26.90717896404306
BMu106,6,C,REL,Gait_Normal,11,L_MTF,14.683574584582656
BMu106,6,C,REL,Gait_Normal,11,R_MTF,27.51296009456999
BMu106,7,C,INI,Gait_Normal,1,L_MTF,6.8574348603384765
BMu106,7,C,INI,Gait_Normal,1,R_MTF,22.054569463036295
BMu106,7,C,INI,Gait_Normal,2,L_MTF,8.888615573098514
BMu106,7,C,INI,Gait_Normal,2,R_MTF,28.378095549738596
BMu106,7,C,INI,Gait_Normal,3,L_MTF,11.80557144153724
BMu106,7,C,INI,Gait_Normal,3,R_MTF,38.28848491440421
BMu106,7,C,INI,Gait_Normal,4,L_MTF,7.172443678187899
BMu106,7,C,INI,Gait_Normal,4,R_MTF,25.43353868675665
BMu106,7,C,INI,Gait_Normal,5,L_MTF,11.879793564585132
BMu106,7,C,INI,Gait_Normal,5,R_MTF,27.877564983203172
BMu106,7,C,INI,Gait_Normal,6,L_MTF,18.689852786013226
BMu106,7,C,INI,Gait_Normal,6,R_MTF,29.976696814077062
BMu106,7,C,INI,Gait_Normal,7,L_MTF,11.40885273954291
BMu106,7,C,INI,Gait_Normal,7,R_MTF,27.28510894159689
BMu106,7,C,REL,Gait_Normal,1,L_MTF,17.944141770460497
BMu106,7,C,REL,Gait_Normal,1,R_MTF,22.927490237795396
BMu106,7,C,REL,Gait_Normal,2,L_MTF,20.08776296395894
BMu106,7,C,REL,Gait_Normal,2,R_MTF,23.105031783836232
BMu106,7,C,REL,Gait_Normal,3,L_MTF,20.687501913539638
BMu106,7,C,REL,Gait_Normal,3,R_MTF,23.11836349999088
BMu106,7,C,REL,Gait_Normal,4,L_MTF,20.615728772409774
BMu106,7,C,REL,Gait_Normal,4,R_MTF,29.42017430435012
BMu106,7,C,REL,Gait_Normal,5,L_MTF,14.719153716529064
BMu106,7,C,REL,Gait_Normal,5,R_MTF,28.860176307505274
BMu106,7,C,REL,Gait_Normal,6,L_MTF,19.736334347379405
BMu106,7,C,REL,Gait_Normal,6,R_MTF,21.071678184911235
BMu106,7,C,REL,Gait_Normal,7,L_MTF,16.585191093991057
BMu106,7,C,REL,Gait_Normal,7,R_MTF,28.954113777869743
BMu106,7,C,REL,Gait_Normal,8,L_MTF,21.191730073458917
BMu106,7,C,REL,Gait_Normal,8,R_MTF,28.02800167089228
BMu106,7,C,REL,Gait_Normal,9,L_MTF,15.37769324025087
BMu106,7,C,REL,Gait_Normal,9,R_MTF,20.612197104190063
BMu106,8,C,INI,Gait_Normal,1,L_MTF,22.09043078203124
BMu106,8,C,INI,Gait_Normal,1,R_MTF,14.333902180227717
BMu106,8,C,INI,Gait_Normal,2,L_MTF,10.904672493175068
BMu106,8,C,INI,Gait_Normal,2,R_MTF,14.06723520586296
BMu106,8,C,INI,Gait_Normal,3,L_MTF,13.626607354383362
BMu106,8,C,INI,Gait_Normal,3,R_MTF,15.776512584480557
BMu106,8,C,INI,Gait_Normal,4,L_MTF,18.555765921811883
BMu106,8,C,INI,Gait_Normal,4,R_MTF,12.042904921335648
BMu106,8,C,INI,Gait_Normal,5,L_MTF,23.85925291708287
BMu106,8,C,INI,Gait_Normal,5,R_MTF,13.149316717978138
BMu106,8,C,INI,Gait_Normal,6,L_MTF,13.952906670562204
BMu106,8,C,INI,Gait_Normal,6,R_MTF,16.67171810462249
BMu106,8,C,REL,Gait_Normal,1,L_MTF,10.773475849159993
BMu106,8,C,REL,Gait_Normal,1,R_MTF,9.080563933080448
BMu106,8,C,REL,Gait_Normal,2,L_MTF,7.045977213721031
BMu106,8,C,REL,Gait_Normal,2,R_MTF,9.938837338551181
BMu106,8,C,REL,Gait_Normal,3,L_MTF,10.140889177329662
BMu106,8,C,REL,Gait_Normal,3,R_MTF,15.472556768722612
BMu106,8,C,REL,Gait_Normal,4,L_MTF,7.641898401589641
BMu106,8,C,REL,Gait_Normal,4,R_MTF,6.986129245531663
BMu106,8,C,REL,Gait_Normal,5,L_MTF,10.496309634436294
BMu106,8,C,REL,Gait_Normal,5,R_MTF,8.991889573644531
BMu106,9,P,INI,Gait_Normal,1,L_MTF,14.895182643548614
BMu106,9,P,INI,Gait_Normal,1,R_MTF,37.58252978820004
BMu106,9,P,INI,Gait_Normal,2,L_MTF,13.16832556586989
BMu106,9,P,INI,Gait_Normal,2,R_MTF,44.87373575769442
BMu106,9,P,INI,Gait_Normal,3,L_MTF,10.569869554277332
BMu106,9,P,INI,Gait_Normal,3,R_MTF,37.22867816641191
BMu106,9,P,INI,Gait_Normal,4,L_MTF,12.074471733879443
BMu106,9,P,INI,Gait_Normal,4,R_MTF,42.09583587344154
BMu106,9,P,INI,Gait_Normal,5,L_MTF,13.273071457807433
BMu106,9,P,INI,Gait_Normal,5,R_MTF,39.469478994300616
BMu106,9,P,INI,Gait_Normal,6,L_MTF,13.628079805734204
BMu106,9,P,INI,Gait_Normal,6,R_MTF,36.467682608031645
BMu106,9,P,REL,Gait_Normal,1,L_MTF,12.010171370151582
BMu106,9,P,REL,Gait_Normal,1,R_MTF,16.5560219463578
BMu106,9,P,REL,Gait_Normal,2,L_MTF,18.62912495855188
BMu106,9,P,REL,Gait_Normal,2,R_MTF,30.009955165328716
BMu106,9,P,REL,Gait_Normal,3,L_MTF,13.846478323647709
BMu106,9,P,REL,Gait_Normal,3,R_MTF,24.207423476913313
BMu106,9,P,REL,Gait_Normal,4,L_MTF,12.827841877456756
BMu106,9,P,REL,Gait_Normal,4,R_MTF,20.940731687089226
BMu106,9,P,REL,Gait_Normal,5,L_MTF,20.11829249839173
BMu106,9,P,REL,Gait_Normal,5,R_MTF,25.42076373872709
BMu106,9,P,REL,Gait_Normal,6,L_MTF,18.545452299406257
BMu106,9,P,REL,Gait_Normal,6,R_MTF,23.96122777133057
BMu106,9,P,REL,Gait_Normal,7,L_MTF,15.423298997277604
BMu106,9,P,REL,Gait_Normal,7,R_MTF,24.960452759862278
BMu106,9,P,REL,Gait_Normal,8,L_MTF,17.687165313517983
BMu106,9,P,REL,Gait_Normal,8,R_MTF,14.807790053623826
BMu106,10,P,INI,Gait_Normal,1,L_MTF,6.462789430838174
BMu106,10,P,INI,Gait_Normal,1,R_MTF,14.00179160921708
BMu106,10,P,INI,Gait_Normal,2,L_MTF,14.515450794107792
BMu106,10,P,INI,Gait_Normal,2,R_MTF,10.87365378674983
BMu106,10,P,INI,Gait_Normal,3,L_MTF,14.786565478519032
BMu106,10,P,INI,Gait_Normal,3,R_MTF,13.464482664000116
BMu106,10,P,INI,Gait_Normal,4,L_MTF,12.460252512828317
BMu106,10,P,INI,Gait_Normal,4,R_MTF,8.95732560370831
BMu106,10,P,INI,Gait_Normal,5,L_MTF,11.705372331872658
BMu106,10,P,INI,Gait_Normal,5,R_MTF,11.211731131722237
BMu106,10,P,INI,Gait_Normal,6,L_MTF,12.971719752846388
BMu106,10,P,INI,Gait_Normal,6,R_MTF,9.142324647540576
BMu106,10,P,INI,Gait_Normal,7,L_MTF,13.367709884695136
BMu106,10,P,INI,Gait_Normal,7,R_MTF,12.581964308780218
BMu106,10,P,REL,Gait_Normal,1,L_MTF,14.902654604165008
BMu106,10,P,REL,Gait_Normal,1,R_MTF,7.38023687293672
BMu106,10,P,REL,Gait_Normal,2,L_MTF,11.333242092715844
BMu106,10,P,REL,Gait_Normal,2,R_MTF,5.904686720877627
BMu106,10,P,REL,Gait_Normal,3,L_MTF,15.44835435137917
BMu106,10,P,REL,Gait_Normal,3,R_MTF,9.182823885230839
BMu106,10,P,REL,Gait_Normal,4,L_MTF,13.81201890192774
BMu106,10,P,REL,Gait_Normal,4,R_MTF,8.353804091801313
BMu106,10,P,REL,Gait_Normal,5,L_MTF,15.59891946883174
BMu106,10,P,REL,Gait_Normal,5,R_MTF,14.039714795334085
BMu106,10,P,REL,Gait_Normal,6,L_MTF,12.51730051958463
BMu106,10,P,REL,Gait_Normal,6,R_MTF,9.022529400965016
BMu106,10,P,REL,Gait_Normal,7,L_MTF,10.441764188103477
BMu106,10,P,REL,Gait_Normal,7,R_MTF,8.869546189120841
BMu106,11,P,INI,Gait_Normal,1,L_MTF,17.62794495642357
BMu106,11,P,INI,Gait_Normal,1,R_MTF,1.8108156830545452
BMu106,11,P,INI,Gait_Normal,2,L_MTF,17.459161841658442
BMu106,11,P,INI,Gait_Normal,2,R_MTF,14.233237319750513
BMu106,11,P,INI,Gait_Normal,3,L_MTF,15.663776035104032
BMu106,11,P,INI,Gait_Normal,3,R_MTF,10.657422888818676
BMu106,11,P,INI,Gait_Normal,4,L_MTF,14.858650468567983
BMu106,11,P,INI,Gait_Normal,4,R_MTF,15.309345249163172
BMu106,11,P,INI,Gait_Normal,5,L_MTF,16.427865334586254
BMu106,11,P,INI,Gait_Normal,5,R_MTF,5.514437900337445
BMu106,11,P,INI,Gait_Normal,6,L_MTF,14.23320664096222
BMu106,11,P,INI,Gait_Normal,6,R_MTF,5.3279282208234715
BMu106,11,P,REL,Gait_Normal,1,L_MTF,16.54909045437736
BMu106,11,P,REL,Gait_Normal,1,R_MTF,13.166186246419377
BMu106,11,P,REL,Gait_Normal,2,L_MTF,15.23069581513693
BMu106,11,P,REL,Gait_Normal,2,R_MTF,8.340790314003584
BMu106,11,P,REL,Gait_Normal,3,L_MTF,13.531140106395226
BMu106,11,P,REL,Gait_Normal,3,R_MTF,9.101876198902929
BMu106,11,P,REL,Gait_Normal,4,L_MTF,12.275582622395419
BMu106,11,P,REL,Gait_Normal,4,R_MTF,9.950919660985505
BMu106,11,P,REL,Gait_Normal,5,L_MTF,10.342843661299682
BMu106,11,P,REL,Gait_Normal,5,R_MTF,5.791231526679344
BMu106,11,P,REL,Gait_Normal,6,L_MTF,11.320208858202713
BMu106,11,P,REL,Gait_Normal,6,R_MTF,6.317912368585094
BMu106,12,P,INI,Gait_Normal,1,L_MTF,13.628707219842381
BMu106,12,P,INI,Gait_Normal,1,R_MTF,23.965488998127615
BMu106,12,P,INI,Gait_Normal,2,L_MTF,11.52511333062012
BMu106,12,P,INI,Gait_Normal,2,R_MTF,24.90321498954861
BMu106,12,P,INI,Gait_Normal,3,L_MTF,15.763600066474277
BMu106,12,P,INI,Gait_Normal,3,R_MTF,24.618218567753058
BMu106,12,P,INI,Gait_Normal,4,L_MTF,12.394708485388643
BMu106,12,P,INI,Gait_Normal,4,R_MTF,27.935301663160544
BMu106,12,P,INI,Gait_Normal,5,L_MTF,25.429655779833325
BMu106,12,P,INI,Gait_Normal,5,R_MTF,28.30276174038849
BMu106,12,P,INI,Gait_Normal,6,L_MTF,12.705475875865726
BMu106,12,P,INI,Gait_Normal,6,R_MTF,20.74142769923629
BMu106,12,P,INI,Gait_Normal,7,L_MTF,18.804947806522364
BMu106,12,P,INI,Gait_Normal,7,R_MTF,18.48033712365124
BMu106,12,P,INI,Gait_Normal,8,L_MTF,29.988719023994435
BMu106,12,P,INI,Gait_Normal,8,R_MTF,28.872069831578802
BMu106,12,P,INI,Gait_Normal,9,L_MTF,21.68349207738183
BMu106,12,P,INI,Gait_Normal,9,R_MTF,18.424784249694923
BMu106,12,P,INI,Gait_Normal,10,L_MTF,20.245130988862428
BMu106,12,P,INI,Gait_Normal,10,R_MTF,29.856456187622797
BMu106,12,P,REL,Gait_Normal,1,L_MTF,15.538468402288622
BMu106,12,P,REL,Gait_Normal,1,R_MTF,15.687938215994858
BMu106,12,P,REL,Gait_Normal,2,L_MTF,18.45166218732794
BMu106,12,P,REL,Gait_Normal,2,R_MTF,15.119706773645675
BMu106,12,P,REL,Gait_Normal,3,L_MTF,12.852078437560806
BMu106,12,P,REL,Gait_Normal,3,R_MTF,10.859630044233352
BMu106,12,P,REL,Gait_Normal,4,L_MTF,12.396730907831639
BMu106,12,P,REL,Gait_Normal,4,R_MTF,10.462236311477456
BMu106,12,P,REL,Gait_Normal,5,L_MTF,15.582598488019578
BMu106,12,P,REL,Gait_Normal,5,R_MTF,12.569813452056074
BMu106,12,P,REL,Gait_Normal,6,L_MTF,22.727889479093133
BMu106,12,P,REL,Gait_Normal,6,R_MTF,10.586268909733727
BMu106,13,C,INI,Gait_Normal,1,L_MTF,25.41513233032886
BMu106,13,C,INI,Gait_Normal,1,R_MTF,23.069531730369054
BMu106,13,C,INI,Gait_Normal,2,L_MTF,30.585874924220093
BMu106,13,C,INI,Gait_Normal,2,R_MTF,27.190183616182953
BMu106,13,C,INI,Gait_Normal,3,L_MTF,23.828607833776154
BMu106,13,C,INI,Gait_Normal,3,R_MTF,32.018732655369035
BMu106,13,C,INI,Gait_Normal,4,L_MTF,29.240116772236437
BMu106,13,C,INI,Gait_Normal,4,R_MTF,26.410488498142538
BMu106,13,C,INI,Gait_Normal,5,L_MTF,24.669968176513844
BMu106,13,C,INI,Gait_Normal,5,R_MTF,29.066488061788142
BMu106,13,C,INI,Gait_Normal,6,L_MTF,30.96484329242272
BMu106,13,C,INI,Gait_Normal,6,R_MTF,37.17800391409064
BMu106,13,C,INI,Gait_Normal,7,L_MTF,29.22736074433977
BMu106,13,C,INI,Gait_Normal,7,R_MTF,30.951691547147657
BMu106,13,C,INI,Gait_Normal,8,L_MTF,29.162115635305987
BMu106,13,C,INI,Gait_Normal,8,R_MTF,26.7840795643493
BMu106,13,C,INI,Gait_Normal,9,L_MTF,27.119484078520134
BMu106,13,C,INI,Gait_Normal,9,R_MTF,34.75823595787684
BMu106,13,C,REL,Gait_Normal,1,L_MTF,26.574911514243254
BMu106,13,C,REL,Gait_Normal,1,R_MTF,26.496521622430297
BMu106,13,C,REL,Gait_Normal,2,L_MTF,21.808800082379925
BMu106,13,C,REL,Gait_Normal,2,R_MTF,28.55324406180041
BMu106,13,C,REL,Gait_Normal,3,L_MTF,19.65121816230349
BMu106,13,C,REL,Gait_Normal,3,R_MTF,31.349239235416796
BMu106,13,C,REL,Gait_Normal,4,L_MTF,20.398510943364677
BMu106,13,C,REL,Gait_Normal,4,R_MTF,30.13077626392891
BMu106,13,C,REL,Gait_Normal,5,L_MTF,18.132778235881805
BMu106,13,C,REL,Gait_Normal,5,R_MTF,27.728297353509642
BMu106,13,C,REL,Gait_Normal,6,L_MTF,21.332734170137694
BMu106,13,C,REL,Gait_Normal,6,R_MTF,35.601817650430476
BMu106,13,C,REL,Gait_Normal,7,L_MTF,22.626156168693463
BMu106,13,C,REL,Gait_Normal,7,R_MTF,35.33170266984575
BMu106,13,C,REL,Gait_Normal,8,L_MTF,19.562591018892963
BMu106,13,C,REL,Gait_Normal,8,R_MTF,31.653750509286922
BMu106,13,C,REL,Gait_Normal,9,L_MTF,19.41354565643433
BMu106,13,C,REL,Gait_Normal,9,R_MTF,29.09049098217917
BMu106,14,P,INI,Gait_Normal,1,L_MTF,22.017533354494464
BMu106,14,P,INI,Gait_Normal,1,R_MTF,49.247632027758016
BMu106,14,P,INI,Gait_Normal,2,L_MTF,24.436236166078764
BMu106,14,P,INI,Gait_Normal,2,R_MTF,39.93607104151849
BMu106,14,P,INI,Gait_Normal,3,L_MTF,25.74904128959603
BMu106,14,P,INI,Gait_Normal,3,R_MTF,36.24678729391904
BMu106,14,P,INI,Gait_Normal,4,L_MTF,33.195221029903635
BMu106,14,P,INI,Gait_Normal,4,R_MTF,42.650124419784675
BMu106,14,P,INI,Gait_Normal,5,L_MTF,32.66819604254587
BMu106,14,P,INI,Gait_Normal,5,R_MTF,37.972906764405955
BMu106,14,P,INI,Gait_Normal,6,L_MTF,30.100109758616494
BMu106,14,P,INI,Gait_Normal,6,R_MTF,47.71186927096321
BMu106,14,P,INI,Gait_Normal,7,L_MTF,26.501275391668745
BMu106,14,P,INI,Gait_Normal,7,R_MTF,33.22844065764949
BMu106,14,P,REL,Gait_Normal,1,L_MTF,16.62063846508519
BMu106,14,P,REL,Gait_Normal,1,R_MTF,40.126118363966924
BMu106,14,P,REL,Gait_Normal,2,L_MTF,25.037185767409582
BMu106,14,P,REL,Gait_Normal,2,R_MTF,27.511143259436473
BMu106,14,P,REL,Gait_Normal,3,L_MTF,22.18006647684372
BMu106,14,P,REL,Gait_Normal,3,R_MTF,31.118659801557847
BMu106,14,P,REL,Gait_Normal,4,L_MTF,19.20508313857204
BMu106,14,P,REL,Gait_Normal,4,R_MTF,33.400955535032594
BMu106,14,P,REL,Gait_Normal,5,L_MTF,16.035928366911666
BMu106,14,P,REL,Gait_Normal,5,R_MTF,28.58300639763413
BMu106,14,P,REL,Gait_Normal,6,L_MTF,18.454468463684204
BMu106,14,P,REL,Gait_Normal,6,R_MTF,31.436094155496196
BMu106,14,P,REL,Gait_Normal,7,L_MTF,20.606070405058905
BMu106,14,P,REL,Gait_Normal,7,R_MTF,21.554251586600707
BMu106,14,P,REL,Gait_Normal,8,L_MTF,23.714813523944564
BMu106,14,P,REL,Gait_Normal,8,R_MTF,25.699782473631174
BMu106,14,P,REL,Gait_Normal,9,L_MTF,24.908147096442462
BMu106,14,P,REL,Gait_Normal,9,R_MTF,30.36094039111407
BMu106,14,P,REL,Gait_Normal,10,L_MTF,17.405214712318276
BMu106,14,P,REL,Gait_Normal,10,R_MTF,26.157699519786185
BMu106,16,C,INI,Gait_Normal,1,L_MTF,16.055169866035925
BMu106,16,C,INI,Gait_Normal,1,R_MTF,5.464598679651157
BMu106,16,C,INI,Gait_Normal,2,L_MTF,95.85132947706835
BMu106,16,C,INI,Gait_Normal,2,R_MTF,64.66986124528952
BMu106,16,C,INI,Gait_Normal,3,L_MTF,16.9885526512847
BMu106,16,C,INI,Gait_Normal,3,R_MTF,4.656561245343491
BMu106,16,C,INI,Gait_Normal,4,L_MTF,100.40313310454738
BMu106,16,C,INI,Gait_Normal,4,R_MTF,48.823202103787686
BMu106,16,C,INI,Gait_Normal,5,L_MTF,17.946903315158135
BMu106,16,C,INI,Gait_Normal,5,R_MTF,4.425307730576022
BMu106,16,C,INI,Gait_Normal,6,L_MTF,65.61472423019067
BMu106,16,C,INI,Gait_Normal,6,R_MTF,65.10858566952655
BMu106,16,C,REL,Gait_Normal,1,L_MTF,8.10133083804408
BMu106,16,C,REL,Gait_Normal,1,R_MTF,21.99903058821404
BMu106,16,C,REL,Gait_Normal,2,L_MTF,90.45139596395938
BMu106,16,C,REL,Gait_Normal,2,R_MTF,64.26622388666196
BMu106,16,C,REL,Gait_Normal,3,L_MTF,8.026515385183382
BMu106,16,C,REL,Gait_Normal,3,R_MTF,24.259227843444577
BMu106,16,C,REL,Gait_Normal,4,L_MTF,154.04469826251983
BMu106,16,C,REL,Gait_Normal,4,R_MTF,77.76178636685526
BMu106,16,C,REL,Gait_Normal,5,L_MTF,6.074453139463854
BMu106,16,C,REL,Gait_Normal,5,R_MTF,20.80735179935895
BMu106,16,C,REL,Gait_Normal,6,L_MTF,102.21727087949742
BMu106,16,C,REL,Gait_Normal,6,R_MTF,70.18249884624709
BMu106,17,P,INI,Gait_Normal,1,L_MTF,9.617886046295034
BMu106,17,P,INI,Gait_Normal,1,R_MTF,6.340596885738485
BMu106,17,P,INI,Gait_Normal,2,L_MTF,67.52323323293686
BMu106,17,P,INI,Gait_Normal,2,R_MTF,83.05856179823104
BMu106,17,P,INI,Gait_Normal,3,L_MTF,79.77513328266699
BMu106,17,P,INI,Gait_Normal,3,R_MTF,66.50000677596057
BMu106,17,P,INI,Gait_Normal,4,L_MTF,12.602890084638041
BMu106,17,P,INI,Gait_Normal,4,R_MTF,11.725443849784176
BMu106,17,P,INI,Gait_Normal,5,L_MTF,57.68800377690152
BMu106,17,P,INI,Gait_Normal,5,R_MTF,76.0407493108934
BMu106,17,P,INI,Gait_Normal,6,L_MTF,10.60299046506055
BMu106,17,P,INI,Gait_Normal,6,R_MTF,9.211122594625618
BMu106,17,P,INI,Gait_Normal,7,L_MTF,51.96678157901694
BMu106,17,P,INI,Gait_Normal,7,R_MTF,70.91174178068657
BMu106,17,P,INI,Gait_Normal,8,L_MTF,11.753651383137322
BMu106,17,P,INI,Gait_Normal,8,R_MTF,7.528252784499335
BMu106,17,P,INI,Gait_Normal,9,L_MTF,64.78878963715047
BMu106,17,P,INI,Gait_Normal,9,R_MTF,81.17003607072695
BMu106,17,P,INI,Gait_Normal,10,L_MTF,15.024005002870908
BMu106,17,P,INI,Gait_Normal,10,R_MTF,10.815958113066348
BMu106,17,P,REL,Gait_Normal,1,L_MTF,28.775271417482067
BMu106,17,P,REL,Gait_Normal,1,R_MTF,44.92234253103233
BMu106,17,P,REL,Gait_Normal,2,L_MTF,30.052662750024563
BMu106,17,P,REL,Gait_Normal,2,R_MTF,62.43623981612717
BMu106,17,P,REL,Gait_Normal,3,L_MTF,36.909764358579004
BMu106,17,P,REL,Gait_Normal,3,R_MTF,44.46777854227747
BMu106,17,P,REL,Gait_Normal,4,L_MTF,15.888338080107353
BMu106,17,P,REL,Gait_Normal,4,R_MTF,61.426159622265814
BMu106,17,P,REL,Gait_Normal,5,L_MTF,25.060017378893598
BMu106,17,P,REL,Gait_Normal,5,R_MTF,36.78707206185112
BMu106,17,P,REL,Gait_Normal,6,L_MTF,25.379908440588142
BMu106,17,P,REL,Gait_Normal,6,R_MTF,68.36713100013186
BMu106,17,P,REL,Gait_Normal,7,L_MTF,28.99583706972772
BMu106,17,P,REL,Gait_Normal,7,R_MTF,50.79449206756497
BMu106,17,P,REL,Gait_Normal,8,L_MTF,32.88678656067854
BMu106,17,P,REL,Gait_Normal,8,R_MTF,74.99142206416934
BMu106,21,C,INI,Gait_Normal,1,L_MTF,5.5710271891944565
BMu106,21,C,INI,Gait_Normal,1,R_MTF,3.3630394576828464
BMu106,21,C,INI,Gait_Normal,2,L_MTF,78.19483784741222
BMu106,21,C,INI,Gait_Normal,2,R_MTF,125.36766161045728
BMu106,21,C,INI,Gait_Normal,3,L_MTF,4.129679061641941
BMu106,21,C,INI,Gait_Normal,3,R_MTF,1.9024455953691066
BMu106,21,C,INI,Gait_Normal,4,L_MTF,80.35458059606553
BMu106,21,C,INI,Gait_Normal,4,R_MTF,134.56177369778948
BMu106,21,C,INI,Gait_Normal,5,L_MTF,5.742635034856958
BMu106,21,C,INI,Gait_Normal,5,R_MTF,3.0904123389892844
BMu106,21,C,INI,Gait_Normal,6,L_MTF,104.44526641163796
BMu106,21,C,INI,Gait_Normal,6,R_MTF,87.77491068324929
BMu106,21,C,REL,Gait_Normal,1,L_MTF,10.380571822437606
BMu106,21,C,REL,Gait_Normal,1,R_MTF,4.672437323879773
BMu106,21,C,REL,Gait_Normal,2,L_MTF,115.33540458371687
BMu106,21,C,REL,Gait_Normal,2,R_MTF,26.012971073475725
BMu106,21,C,REL,Gait_Normal,3,L_MTF,7.835975065144864
BMu106,21,C,REL,Gait_Normal,3,R_MTF,3.940695386265964
BMu106,21,C,REL,Gait_Normal,4,L_MTF,107.337688954361
BMu106,21,C,REL,Gait_Normal,4,R_MTF,26.687899622936218
BMu106,21,C,REL,Gait_Normal,5,L_MTF,11.28458757805727
BMu106,21,C,REL,Gait_Normal,5,R_MTF,2.1567614853546497
BMu106,21,C,REL,Gait_Normal,6,L_MTF,102.5111195840747
BMu106,21,C,REL,Gait_Normal,6,R_MTF,93.50813739679481
BMu106,21,C,REL,Gait_Normal,7,L_MTF,12.501159047598957
BMu106,21,C,REL,Gait_Normal,7,R_MTF,3.421920742022737
BMu106,21,C,REL,Gait_Normal,8,L_MTF,102.95088566570635
BMu106,21,C,REL,Gait_Normal,8,R_MTF,30.14374625272183
BMu106,22,C,INI,Gait_Normal,1,L_MTF,23.921035064467148
BMu106,22,C,INI,Gait_Normal,1,R_MTF,71.9019256253985
BMu106,22,C,INI,Gait_Normal,2,L_MTF,24.256889261122502
BMu106,22,C,INI,Gait_Normal,2,R_MTF,21.347654978518964
BMu106,22,C,INI,Gait_Normal,3,L_MTF,30.667548982400007
BMu106,22,C,INI,Gait_Normal,3,R_MTF,94.12093209513725
BMu106,22,C,INI,Gait_Normal,4,L_MTF,17.757320056591862
BMu106,22,C,INI,Gait_Normal,4,R_MTF,22.94976965872033
BMu106,22,C,INI,Gait_Normal,5,L_MTF,25.367399818616022
BMu106,22,C,INI,Gait_Normal,5,R_MTF,74.56022370576802
BMu106,22,C,INI,Gait_Normal,6,L_MTF,23.35608051474727
BMu106,22,C,INI,Gait_Normal,6,R_MTF,23.05985485094682
BMu106,22,C,INI,Gait_Normal,7,L_MTF,36.930620102890835
BMu106,22,C,INI,Gait_Normal,7,R_MTF,72.79568934202388
BMu106,22,C,INI,Gait_Normal,8,L_MTF,23.51647900779804
BMu106,22,C,INI,Gait_Normal,8,R_MTF,24.45506509012353
BMu106,22,C,INI,Gait_Normal,9,L_MTF,30.051848365025247
BMu106,22,C,INI,Gait_Normal,9,R_MTF,80.31579106941658
BMu106,22,C,REL,Gait_Normal,1,L_MTF,24.701888870425115
BMu106,22,C,REL,Gait_Normal,1,R_MTF,7.497315107474698
BMu106,22,C,REL,Gait_Normal,2,L_MTF,24.49593477566389
BMu106,22,C,REL,Gait_Normal,2,R_MTF,7.039547776909801
BMu106,22,C,REL,Gait_Normal,3,L_MTF,76.82155810967328
BMu106,22,C,REL,Gait_Normal,3,R_MTF,17.921441492537426
BMu106,22,C,REL,Gait_Normal,4,L_MTF,67.75839005697225
BMu106,22,C,REL,Gait_Normal,4,R_MTF,17.75150796972082
BMu106,22,C,REL,Gait_Normal,5,L_MTF,30.22455898387515
BMu106,22,C,REL,Gait_Normal,5,R_MTF,9.143717825809626
BMu106,22,C,REL,Gait_Normal,6,L_MTF,79.06460626811815
BMu106,22,C,REL,Gait_Normal,6,R_MTF,28.67061760812904
BMu106,22,C,REL,Gait_Normal,7,L_MTF,28.458259383260632
BMu106,22,C,REL,Gait_Normal,7,R_MTF,10.220957106721919
BMu106,22,C,REL,Gait_Normal,8,L_MTF,65.71928095229133
BMu106,22,C,REL,Gait_Normal,8,R_MTF,32.30465522724476
BMu106,23,C,INI,Gait_Normal,1,L_MTF,9.22145133023146
BMu106,23,C,INI,Gait_Normal,1,R_MTF,9.939256181597441
BMu106,23,C,INI,Gait_Normal,2,L_MTF,57.16042375035701
BMu106,23,C,INI,Gait_Normal,2,R_MTF,59.60653649210505
BMu106,23,C,INI,Gait_Normal,3,L_MTF,9.661729741667669
BMu106,23,C,INI,Gait_Normal,3,R_MTF,10.950148788819124
BMu106,23,C,INI,Gait_Normal,4,L_MTF,51.84450154820648
BMu106,23,C,INI,Gait_Normal,4,R_MTF,55.22320381970996
BMu106,23,C,INI,Gait_Normal,5,L_MTF,10.613931559471476
BMu106,23,C,INI,Gait_Normal,5,R_MTF,11.730259726175866
BMu106,23,C,INI,Gait_Normal,6,L_MTF,44.42488886311655
BMu106,23,C,INI,Gait_Normal,6,R_MTF,47.377116938674874
BMu106,23,C,INI,Gait_Normal,7,L_MTF,8.902267461728187
BMu106,23,C,INI,Gait_Normal,7,R_MTF,13.699112588017746
BMu106,23,C,REL,Gait_Normal,1,L_MTF,11.724990235798817
BMu106,23,C,REL,Gait_Normal,1,R_MTF,18.51299510834137
BMu106,23,C,REL,Gait_Normal,2,L_MTF,40.91532588059763
BMu106,23,C,REL,Gait_Normal,2,R_MTF,60.07475409624577
BMu106,23,C,REL,Gait_Normal,3,L_MTF,82.68580003130523
BMu106,23,C,REL,Gait_Normal,3,R_MTF,71.1450238417016
BMu106,23,C,REL,Gait_Normal,4,L_MTF,51.97692561710483
BMu106,23,C,REL,Gait_Normal,4,R_MTF,71.66091387321181
BMu106,24,P,INI,Gait_Normal,1,L_MTF,16.13190855933798
BMu106,24,P,INI,Gait_Normal,1,R_MTF,21.21466949327896
BMu106,24,P,INI,Gait_Normal,2,L_MTF,16.982707437613943
BMu106,24,P,INI,Gait_Normal,2,R_MTF,25.484794333102545
BMu106,24,P,INI,Gait_Normal,3,L_MTF,26.16089247046807
BMu106,24,P,INI,Gait_Normal,3,R_MTF,19.285264188791672
BMu106,24,P,INI,Gait_Normal,4,L_MTF,19.81527181304517
BMu106,24,P,INI,Gait_Normal,4,R_MTF,18.467146007726832
BMu106,24,P,INI,Gait_Normal,5,L_MTF,17.016418186797488
BMu106,24,P,INI,Gait_Normal,5,R_MTF,20.349238564041553
BMu106,24,P,INI,Gait_Normal,6,L_MTF,19.828018101501897
BMu106,24,P,INI,Gait_Normal,6,R_MTF,91.1661756590672
BMu106,24,P,INI,Gait_Normal,7,L_MTF,31.8563846818351
BMu106,24,P,INI,Gait_Normal,7,R_MTF,18.889665757300623
BMu106,24,P,INI,Gait_Normal,8,L_MTF,24.094405813032793
BMu106,24,P,INI,Gait_Normal,8,R_MTF,80.36908040779392
BMu106,24,P,REL,Gait_Normal,1,L_MTF,28.651012382140443
BMu106,24,P,REL,Gait_Normal,1,R_MTF,31.235414001003548
BMu106,24,P,REL,Gait_Normal,2,L_MTF,13.980671929555388
BMu106,24,P,REL,Gait_Normal,2,R_MTF,27.858805090549186
BMu106,24,P,REL,Gait_Normal,3,L_MTF,24.370449773351183
BMu106,24,P,REL,Gait_Normal,3,R_MTF,30.68104889318111
BMu106,24,P,REL,Gait_Normal,4,L_MTF,23.55715799917774
BMu106,24,P,REL,Gait_Normal,4,R_MTF,21.081883128465698
BMu106,24,P,REL,Gait_Normal,5,L_MTF,26.3451986718811
BMu106,24,P,REL,Gait_Normal,5,R_MTF,26.65013367081973
BMu106,25,C,INI,Gait_Normal,1,L_MTF,3.9477181959086933
BMu106,25,C,INI,Gait_Normal,1,R_MTF,16.441094072916798
BMu106,25,C,INI,Gait_Normal,2,L_MTF,5.463489724092463
BMu106,25,C,INI,Gait_Normal,2,R_MTF,14.433660280814813
BMu106,25,C,INI,Gait_Normal,3,L_MTF,72.27809546838017
BMu106,25,C,INI,Gait_Normal,3,R_MTF,103.96669993529251
BMu106,25,C,INI,Gait_Normal,4,L_MTF,5.03186014263752
BMu106,25,C,INI,Gait_Normal,4,R_MTF,13.748412393159441
BMu106,25,C,INI,Gait_Normal,5,L_MTF,97.88222604495806
BMu106,25,C,INI,Gait_Normal,5,R_MTF,80.20214352998856
BMu106,25,C,INI,Gait_Normal,6,L_MTF,125.64339227086545
BMu106,25,C,INI,Gait_Normal,6,R_MTF,84.90582498041456
BMu106,25,C,INI,Gait_Normal,7,L_MTF,5.03228375810966
BMu106,25,C,INI,Gait_Normal,7,R_MTF,15.545701760106148
BMu106,25,C,INI,Gait_Normal,8,L_MTF,103.81751065356262
BMu106,25,C,INI,Gait_Normal,8,R_MTF,75.54841907117111
BMu106,25,C,INI,Gait_Normal,9,L_MTF,5.379019052486232
BMu106,25,C,INI,Gait_Normal,9,R_MTF,16.282018630671775
BMu106,25,C,INI,Gait_Normal,10,L_MTF,92.29382279393717
BMu106,25,C,INI,Gait_Normal,10,R_MTF,65.52516278257404
BMu106,25,C,REL,Gait_Normal,1,L_MTF,13.841461794343228
BMu106,25,C,REL,Gait_Normal,1,R_MTF,11.717021510121045
BMu106,25,C,REL,Gait_Normal,2,L_MTF,9.377206842087213
BMu106,25,C,REL,Gait_Normal,2,R_MTF,11.050412202201114
BMu106,25,C,REL,Gait_Normal,3,L_MTF,10.483234742171286
BMu106,25,C,REL,Gait_Normal,3,R_MTF,13.231960476820362
BMu106,25,C,REL,Gait_Normal,4,L_MTF,74.92426305856728
BMu106,25,C,REL,Gait_Normal,4,R_MTF,57.7451554573866
BMu106,25,C,REL,Gait_Normal,5,L_MTF,11.099773283397145
BMu106,25,C,REL,Gait_Normal,5,R_MTF,18.17102415685269
BMu106,25,C,REL,Gait_Normal,6,L_MTF,111.37896712143791
BMu106,25,C,REL,Gait_Normal,6,R_MTF,48.810132984628645
BMu106,25,C,REL,Gait_Normal,7,L_MTF,12.986300713924141
BMu106,25,C,REL,Gait_Normal,7,R_MTF,12.936993271436592
BMu106,25,C,REL,Gait_Normal,8,L_MTF,78.23131203300204
BMu106,25,C,REL,Gait_Normal,8,R_MTF,77.00670990817673
BMu106,26,P,INI,Gait_Normal,1,L_MTF,27.284231234968285
BMu106,26,P,INI,Gait_Normal,1,R_MTF,8.762122242459249
BMu106,26,P,INI,Gait_Normal,2,L_MTF,32.832662417428686
BMu106,26,P,INI,Gait_Normal,2,R_MTF,7.311559247083686
BMu106,26,P,INI,Gait_Normal,3,L_MTF,32.64136121914994
BMu106,26,P,INI,Gait_Normal,3,R_MTF,11.312925841054435
BMu106,26,P,INI,Gait_Normal,4,L_MTF,38.941011222331696
BMu106,26,P,INI,Gait_Normal,4,R_MTF,14.616622618785074
BMu106,26,P,INI,Gait_Normal,5,L_MTF,33.10571572847812
BMu106,26,P,INI,Gait_Normal,5,R_MTF,4.92097317786978
BMu106,26,P,INI,Gait_Normal,6,L_MTF,64.84874784273822
BMu106,26,P,INI,Gait_Normal,6,R_MTF,87.54967539066372
BMu106,26,P,INI,Gait_Normal,7,L_MTF,44.72111003752732
BMu106,26,P,INI,Gait_Normal,7,R_MTF,144.26722703992166
BMu106,26,P,REL,Gait_Normal,1,L_MTF,21.370917845300568
BMu106,26,P,REL,Gait_Normal,1,R_MTF,32.32891860051052
BMu106,26,P,REL,Gait_Normal,2,L_MTF,31.615202052359116
BMu106,26,P,REL,Gait_Normal,2,R_MTF,25.569522912795847
BMu106,26,P,REL,Gait_Normal,3,L_MTF,25.077073394011702
BMu106,26,P,REL,Gait_Normal,3,R_MTF,27.676175400717515
BMu106,26,P,REL,Gait_Normal,4,L_MTF,22.432606520967408
BMu106,26,P,REL,Gait_Normal,4,R_MTF,35.738436469015355
BMu106,26,P,REL,Gait_Normal,5,L_MTF,13.449268377830347
BMu106,26,P,REL,Gait_Normal,5,R_MTF,31.29949427509259
BMu106,26,P,REL,Gait_Normal,6,L_MTF,86.1318364056592
BMu106,26,P,REL,Gait_Normal,6,R_MTF,63.00349884141839
BMu106,26,P,REL,Gait_Normal,7,L_MTF,37.17345158707738
BMu106,26,P,REL,Gait_Normal,7,R_MTF,70.75177060402231
BMu106,26,P,REL,Gait_Normal,8,L_MTF,1.9102239215783228
BMu106,26,P,REL,Gait_Normal,8,R_MTF,32.753456311803475
BMu106,27,P,INI,Gait_Normal,1,L_MTF,14.195132694876119
BMu106,27,P,INI,Gait_Normal,1,R_MTF,24.83198246247565
BMu106,27,P,INI,Gait_Normal,2,L_MTF,14.122000257907626
BMu106,27,P,INI,Gait_Normal,2,R_MTF,23.036404605972336
BMu106,27,P,INI,Gait_Normal,3,L_MTF,13.819830964956829
BMu106,27,P,INI,Gait_Normal,3,R_MTF,27.622631310034564
BMu106,27,P,INI,Gait_Normal,4,L_MTF,19.938037075692264
BMu106,27,P,INI,Gait_Normal,4,R_MTF,18.910241188263292
BMu106,27,P,INI,Gait_Normal,5,L_MTF,16.817253207611188
BMu106,27,P,INI,Gait_Normal,5,R_MTF,24.77409409396549
BMu106,27,P,INI,Gait_Normal,6,L_MTF,11.391532791136534
BMu106,27,P,INI,Gait_Normal,6,R_MTF,20.057862984113658
BMu106,27,P,INI,Gait_Normal,7,L_MTF,87.95477572186145
BMu106,27,P,INI,Gait_Normal,7,R_MTF,64.82188047326757
BMu106,27,P,INI,Gait_Normal,8,L_MTF,12.422461057519817
BMu106,27,P,INI,Gait_Normal,8,R_MTF,21.13370089414119
BMu106,27,P,INI,Gait_Normal,9,L_MTF,70.87415533160289
BMu106,27,P,INI,Gait_Normal,9,R_MTF,63.3909358053553
BMu106,27,P,REL,Gait_Normal,1,L_MTF,11.533774582161747
BMu106,27,P,REL,Gait_Normal,1,R_MTF,21.744451330251614
BMu106,27,P,REL,Gait_Normal,2,L_MTF,14.413688478372862
BMu106,27,P,REL,Gait_Normal,2,R_MTF,18.44688242733129
BMu106,27,P,REL,Gait_Normal,3,L_MTF,11.75016224786771
BMu106,27,P,REL,Gait_Normal,3,R_MTF,17.68525387593929
BMu106,27,P,REL,Gait_Normal,4,L_MTF,9.644754214331202
BMu106,27,P,REL,Gait_Normal,4,R_MTF,21.71141882317407
BMu106,27,P,REL,Gait_Normal,5,L_MTF,10.182972808545122
BMu106,27,P,REL,Gait_Normal,5,R_MTF,21.917338869214092
BMu106,27,P,REL,Gait_Normal,6,L_MTF,6.460971609080181
BMu106,27,P,REL,Gait_Normal,6,R_MTF,19.266124198901725
BMu106,27,P,REL,Gait_Normal,7,L_MTF,68.34943509261974
BMu106,27,P,REL,Gait_Normal,7,R_MTF,78.3169163699319
BMu106,28,P,INI,Gait_Normal,1,L_MTF,6.325842126600843
BMu106,28,P,INI,Gait_Normal,1,R_MTF,10.349686712166868
BMu106,28,P,INI,Gait_Normal,2,L_MTF,8.257908216235183
BMu106,28,P,INI,Gait_Normal,2,R_MTF,9.640067512245125
BMu106,28,P,INI,Gait_Normal,3,L_MTF,7.916660594416889
BMu106,28,P,INI,Gait_Normal,3,R_MTF,8.18741490423206
BMu106,28,P,INI,Gait_Normal,4,L_MTF,7.526164625873264
BMu106,28,P,INI,Gait_Normal,4,R_MTF,7.261456128553862
BMu106,28,P,INI,Gait_Normal,5,L_MTF,11.377041715933371
BMu106,28,P,INI,Gait_Normal,5,R_MTF,9.281079431577826
BMu106,28,P,INI,Gait_Normal,6,L_MTF,118.84215262876363
BMu106,28,P,INI,Gait_Normal,6,R_MTF,77.05491179525218
BMu106,28,P,INI,Gait_Normal,7,L_MTF,12.280608863830382
BMu106,28,P,INI,Gait_Normal,7,R_MTF,10.214910900718191
BMu106,28,P,INI,Gait_Normal,8,L_MTF,79.85185342740016
BMu106,28,P,INI,Gait_Normal,8,R_MTF,73.05969972690446
BMu106,28,P,REL,Gait_Normal,1,L_MTF,9.512662815011765
BMu106,28,P,REL,Gait_Normal,1,R_MTF,21.16424931907897
BMu106,28,P,REL,Gait_Normal,2,L_MTF,9.798723992881285
BMu106,28,P,REL,Gait_Normal,2,R_MTF,16.731424902915396
BMu106,28,P,REL,Gait_Normal,3,L_MTF,7.658169069708424
BMu106,28,P,REL,Gait_Normal,3,R_MTF,22.770291050776397
BMu106,28,P,REL,Gait_Normal,4,L_MTF,7.353902224168384
BMu106,28,P,REL,Gait_Normal,4,R_MTF,22.160709071804032
BMu106,28,P,REL,Gait_Normal,5,L_MTF,9.746536161482586
BMu106,28,P,REL,Gait_Normal,5,R_MTF,23.619869997769374
BMu106,28,P,REL,Gait_Normal,6,L_MTF,6.029286575091142
BMu106,28,P,REL,Gait_Normal,6,R_MTF,16.931578585960224
BMu106,28,P,REL,Gait_Normal,7,L_MTF,79.56487830435623
BMu106,28,P,REL,Gait_Normal,7,R_MTF,62.98910559550087
BMu106,28,P,REL,Gait_Normal,8,L_MTF,5.868581966389723
BMu106,28,P,REL,Gait_Normal,8,R_MTF,16.153134927106375
BMu106,28,P,REL,Gait_Normal,9,L_MTF,66.97225886825856
BMu106,28,P,REL,Gait_Normal,9,R_MTF,72.32196230039314
BMu106,29,P,INI,Gait_Normal,1,L_MTF,23.68148889250488
BMu106,29,P,INI,Gait_Normal,1,R_MTF,16.865812142076486
BMu106,29,P,INI,Gait_Normal,2,L_MTF,23.71209637470475
BMu106,29,P,INI,Gait_Normal,2,R_MTF,16.244880828747757
BMu106,29,P,INI,Gait_Normal,3,L_MTF,28.97201465722056
BMu106,29,P,INI,Gait_Normal,3,R_MTF,23.445857035813667
BMu106,29,P,INI,Gait_Normal,4,L_MTF,28.667380436733843
BMu106,29,P,INI,Gait_Normal,4,R_MTF,14.896129980569857
BMu106,29,P,INI,Gait_Normal,5,L_MTF,31.452845439291963
BMu106,29,P,INI,Gait_Normal,5,R_MTF,23.88850806705971
BMu106,29,P,INI,Gait_Normal,6,L_MTF,34.05900384593597
BMu106,29,P,INI,Gait_Normal,6,R_MTF,19.053689016982297
BMu106,29,P,INI,Gait_Normal,7,L_MTF,71.88301413506382
BMu106,29,P,INI,Gait_Normal,7,R_MTF,73.24899676937432
BMu106,29,P,REL,Gait_Normal,1,L_MTF,27.409516328503624
BMu106,29,P,REL,Gait_Normal,1,R_MTF,15.749174600608956
BMu106,29,P,REL,Gait_Normal,2,L_MTF,19.309651538647824
BMu106,29,P,REL,Gait_Normal,2,R_MTF,13.892037688315124
BMu106,29,P,REL,Gait_Normal,3,L_MTF,14.079994249879226
BMu106,29,P,REL,Gait_Normal,3,R_MTF,16.058129212081255
BMu106,29,P,REL,Gait_Normal,4,L_MTF,12.313511980653756
BMu106,29,P,REL,Gait_Normal,4,R_MTF,18.936837114853773
BMu106,29,P,REL,Gait_Normal,5,L_MTF,18.647686270003714
BMu106,29,P,REL,Gait_Normal,5,R_MTF,18.140099928595475
BMu106,29,P,REL,Gait_Normal,6,L_MTF,74.94063941654619
BMu106,29,P,REL,Gait_Normal,6,R_MTF,73.89295164624885
BMu106,30,P,INI,Gait_Normal,1,L_MTF,47.26746275615068
BMu106,30,P,INI,Gait_Normal,1,R_MTF,11.886888212928678
BMu106,30,P,INI,Gait_Normal,2,L_MTF,18.728261958337455
BMu106,30,P,INI,Gait_Normal,2,R_MTF,12.239930779335577
BMu106,30,P,INI,Gait_Normal,3,L_MTF,26.46259963185938
BMu106,30,P,INI,Gait_Normal,3,R_MTF,14.145821697833025
BMu106,30,P,INI,Gait_Normal,4,L_MTF,22.3312775945665
BMu106,30,P,INI,Gait_Normal,4,R_MTF,14.903427662772934
BMu106,30,P,INI,Gait_Normal,5,L_MTF,24.336750395661305
BMu106,30,P,INI,Gait_Normal,5,R_MTF,15.194077374111426
BMu106,30,P,INI,Gait_Normal,6,L_MTF,21.213992081530566
BMu106,30,P,INI,Gait_Normal,6,R_MTF,19.53448224253067
BMu106,30,P,INI,Gait_Normal,7,L_MTF,99.21303778006313
BMu106,30,P,INI,Gait_Normal,7,R_MTF,41.978231805216105
BMu106,30,P,INI,Gait_Normal,8,L_MTF,106.5255127018219
BMu106,30,P,INI,Gait_Normal,8,R_MTF,29.01582320875182
BMu106,30,P,INI,Gait_Normal,9,L_MTF,57.797967787178365
BMu106,30,P,INI,Gait_Normal,9,R_MTF,101.53384536788542
BMu106,30,P,REL,Gait_Normal,1,L_MTF,41.7732317066629
BMu106,30,P,REL,Gait_Normal,1,R_MTF,39.18460698672667
BMu106,30,P,REL,Gait_Normal,2,L_MTF,47.21037147824785
BMu106,30,P,REL,Gait_Normal,2,R_MTF,40.98194863984809
BMu106,30,P,REL,Gait_Normal,3,L_MTF,48.07335602510822
BMu106,30,P,REL,Gait_Normal,3,R_MTF,40.02977388199531
BMu106,30,P,REL,Gait_Normal,4,L_MTF,47.666322515186906
BMu106,30,P,REL,Gait_Normal,4,R_MTF,41.93465584934171
BMu106,30,P,REL,Gait_Normal,5,L_MTF,44.18395265660356
BMu106,30,P,REL,Gait_Normal,5,R_MTF,43.918929881924385
BMu106,30,P,REL,Gait_Normal,6,L_MTF,55.49339972255351
BMu106,30,P,REL,Gait_Normal,6,R_MTF,80.89826700837935
BMu106,30,P,REL,Gait_Normal,7,L_MTF,34.74305867967104
BMu106,30,P,REL,Gait_Normal,7,R_MTF,39.3800839502903
BMu106,30,P,REL,Gait_Normal,8,L_MTF,56.18757789950055
BMu106,30,P,REL,Gait_Normal,8,R_MTF,71.77511562911197
BMu106,30,P,REL,Gait_Normal,9,L_MTF,37.24967392709141
BMu106,30,P,REL,Gait_Normal,9,R_MTF,50.0890551316841
BMu106,32,P,INI,Gait_Normal,1,L_MTF,8.771268089878594
BMu106,32,P,INI,Gait_Normal,1,R_MTF,12.143573474716398
BMu106,32,P,INI,Gait_Normal,2,L_MTF,8.075132139294327
BMu106,32,P,INI,Gait_Normal,2,R_MTF,14.290566193442116
BMu106,32,P,INI,Gait_Normal,3,L_MTF,11.338450293925952
BMu106,32,P,INI,Gait_Normal,3,R_MTF,10.47416486394024
BMu106,32,P,INI,Gait_Normal,4,L_MTF,7.42291896247017
BMu106,32,P,INI,Gait_Normal,4,R_MTF,12.45435132303883
BMu106,32,P,INI,Gait_Normal,5,L_MTF,9.253058744749872
BMu106,32,P,INI,Gait_Normal,5,R_MTF,14.568673577277316
BMu106,32,P,INI,Gait_Normal,6,L_MTF,8.943359789994565
BMu106,32,P,INI,Gait_Normal,6,R_MTF,10.401660410792939
BMu106,32,P,INI,Gait_Normal,7,L_MTF,170.61491761685062
BMu106,32,P,INI,Gait_Normal,7,R_MTF,143.04469280365828
BMu106,32,P,REL,Gait_Normal,1,L_MTF,7.897393678975035
BMu106,32,P,REL,Gait_Normal,1,R_MTF,16.465473203906257
BMu106,32,P,REL,Gait_Normal,2,L_MTF,25.336594609718748
BMu106,32,P,REL,Gait_Normal,2,R_MTF,24.88008905960374
BMu106,32,P,REL,Gait_Normal,3,L_MTF,7.876115894553966
BMu106,32,P,REL,Gait_Normal,3,R_MTF,17.27203827013417
BMu106,32,P,REL,Gait_Normal,4,L_MTF,10.629379457591103
BMu106,32,P,REL,Gait_Normal,4,R_MTF,15.056756626789529
BMu106,32,P,REL,Gait_Normal,5,L_MTF,8.711969157697999
BMu106,32,P,REL,Gait_Normal,5,R_MTF,15.609446156626195
BMu106,32,P,REL,Gait_Normal,6,L_MTF,139.60904415810336
BMu106,32,P,REL,Gait_Normal,6,R_MTF,75.66503608293516
BMu106,32,P,REL,Gait_Normal,7,L_MTF,5.064028327764389
BMu106,32,P,REL,Gait_Normal,7,R_MTF,14.069135173494562
BMu106,32,P,REL,Gait_Normal,8,L_MTF,93.33812841870615
BMu106,32,P,REL,Gait_Normal,8,R_MTF,88.32050403074727
BMu106,33,P,INI,Gait_Normal,1,L_MTF,16.9472740115527
BMu106,33,P,INI,Gait_Normal,1,R_MTF,6.83339239411343
BMu106,33,P,INI,Gait_Normal,2,L_MTF,14.880312909185859
BMu106,33,P,INI,Gait_Normal,2,R_MTF,10.790968383816914
BMu106,33,P,INI,Gait_Normal,3,L_MTF,17.524941201173664
BMu106,33,P,INI,Gait_Normal,3,R_MTF,21.451939864502673
BMu106,33,P,INI,Gait_Normal,4,L_MTF,24.008554259115478
BMu106,33,P,INI,Gait_Normal,4,R_MTF,18.708776267974123
BMu106,33,P,INI,Gait_Normal,5,L_MTF,16.519230328084763
BMu106,33,P,INI,Gait_Normal,5,R_MTF,17.916802260924
BMu106,33,P,INI,Gait_Normal,6,L_MTF,64.30638086865028
BMu106,33,P,INI,Gait_Normal,6,R_MTF,56.92247910956336
BMu106,33,P,REL,Gait_Normal,1,L_MTF,19.331067223001583
BMu106,33,P,REL,Gait_Normal,1,R_MTF,7.801468820999752
BMu106,33,P,REL,Gait_Normal,2,L_MTF,20.99520925695235
BMu106,33,P,REL,Gait_Normal,2,R_MTF,6.916345184104623
BMu106,33,P,REL,Gait_Normal,3,L_MTF,23.647555920306598
BMu106,33,P,REL,Gait_Normal,3,R_MTF,11.635406080145849
BMu106,33,P,REL,Gait_Normal,4,L_MTF,25.979894528157327
BMu106,33,P,REL,Gait_Normal,4,R_MTF,9.745769004635559
BMu106,33,P,REL,Gait_Normal,5,L_MTF,24.730449950640242
BMu106,33,P,REL,Gait_Normal,5,R_MTF,11.519882910733926
BMu106,33,P,REL,Gait_Normal,6,L_MTF,77.80102025926577
BMu106,33,P,REL,Gait_Normal,6,R_MTF,56.00354753782579
BMu106,33,P,REL,Gait_Normal,7,L_MTF,17.72212656925177
BMu106,33,P,REL,Gait_Normal,7,R_MTF,12.29155232829282
BMu106,33,P,REL,Gait_Normal,8,L_MTF,63.15569506748414
BMu106,33,P,REL,Gait_Normal,8,R_MTF,53.43320317722506
BMu106,34,P,INI,Gait_Normal,1,L_MTF,26.792391723272942
BMu106,34,P,INI,Gait_Normal,1,R_MTF,34.05148951361349
BMu106,34,P,INI,Gait_Normal,2,L_MTF,23.96991470409468
BMu106,34,P,INI,Gait_Normal,2,R_MTF,22.99516465081098
BMu106,34,P,INI,Gait_Normal,3,L_MTF,25.75874039325039
BMu106,34,P,INI,Gait_Normal,3,R_MTF,23.496624796810384
BMu106,34,P,INI,Gait_Normal,4,L_MTF,23.575024455132343
BMu106,34,P,INI,Gait_Normal,4,R_MTF,23.230973597238844
BMu106,34,P,INI,Gait_Normal,5,L_MTF,26.65111120543316
BMu106,34,P,INI,Gait_Normal,5,R_MTF,22.20817772073981
BMu106,34,P,INI,Gait_Normal,6,L_MTF,26.002876552096595
BMu106,34,P,INI,Gait_Normal,6,R_MTF,20.008451398714357
BMu106,34,P,INI,Gait_Normal,7,L_MTF,99.08302183889387
BMu106,34,P,INI,Gait_Normal,7,R_MTF,97.24863777068148
BMu106,34,P,INI,Gait_Normal,8,L_MTF,18.736997178182225
BMu106,34,P,INI,Gait_Normal,8,R_MTF,23.03360545022122
BMu106,34,P,REL,Gait_Normal,1,L_MTF,20.176872959904273
BMu106,34,P,REL,Gait_Normal,1,R_MTF,5.230630202614799
BMu106,34,P,REL,Gait_Normal,2,L_MTF,18.67289841972725
BMu106,34,P,REL,Gait_Normal,2,R_MTF,9.404521865521396
BMu106,34,P,REL,Gait_Normal,3,L_MTF,21.10563012008365
BMu106,34,P,REL,Gait_Normal,3,R_MTF,10.32568183211599
BMu106,34,P,REL,Gait_Normal,4,L_MTF,18.409796237820586
BMu106,34,P,REL,Gait_Normal,4,R_MTF,8.646384964988641
BMu106,34,P,REL,Gait_Normal,5,L_MTF,23.82705933925081
BMu106,34,P,REL,Gait_Normal,5,R_MTF,11.646200990494812
BMu106,34,P,REL,Gait_Normal,6,L_MTF,18.423018652464947
BMu106,34,P,REL,Gait_Normal,6,R_MTF,9.95348812175756
BMu106,34,P,REL,Gait_Normal,7,L_MTF,102.86189918889781
BMu106,34,P,REL,Gait_Normal,7,R_MTF,136.1738431730589
BMu106,35,C,INI,Gait_Normal,1,L_MTF,19.50276862328949
BMu106,35,C,INI,Gait_Normal,1,R_MTF,27.391711459751185
BMu106,35,C,INI,Gait_Normal,2,L_MTF,56.20139178473055
BMu106,35,C,INI,Gait_Normal,2,R_MTF,53.20330625173193
BMu106,35,C,INI,Gait_Normal,3,L_MTF,10.71200796363034
BMu106,35,C,INI,Gait_Normal,3,R_MTF,23.008668487788917
BMu106,35,C,INI,Gait_Normal,4,L_MTF,10.722481810978104
BMu106,35,C,INI,Gait_Normal,4,R_MTF,20.094178143621996
BMu106,35,C,INI,Gait_Normal,5,L_MTF,17.158678290618884
BMu106,35,C,INI,Gait_Normal,5,R_MTF,19.037332581810087
BMu106,35,C,INI,Gait_Normal,6,L_MTF,14.694358395495938
BMu106,35,C,INI,Gait_Normal,6,R_MTF,21.530205548159238
BMu106,35,C,INI,Gait_Normal,7,L_MTF,66.58252492269027
BMu106,35,C,INI,Gait_Normal,7,R_MTF,63.934178877694336
BMu106,35,C,INI,Gait_Normal,8,L_MTF,7.404283694126862
BMu106,35,C,INI,Gait_Normal,8,R_MTF,22.67713756566544
BMu106,35,C,INI,Gait_Normal,9,L_MTF,61.014049714739585
BMu106,35,C,INI,Gait_Normal,9,R_MTF,59.47011156758441
BMu106,35,C,INI,Gait_Normal,10,L_MTF,8.616303597271832
BMu106,35,C,INI,Gait_Normal,10,R_MTF,17.997334599915373
BMu106,35,C,REL,Gait_Normal,1,L_MTF,15.358130579228856
BMu106,35,C,REL,Gait_Normal,1,R_MTF,16.349122266599995
BMu106,35,C,REL,Gait_Normal,2,L_MTF,11.75937677679144
BMu106,35,C,REL,Gait_Normal,2,R_MTF,20.40991123695838
BMu106,35,C,REL,Gait_Normal,3,L_MTF,14.155287188689309
BMu106,35,C,REL,Gait_Normal,3,R_MTF,20.896925179273822
BMu106,35,C,REL,Gait_Normal,4,L_MTF,11.844069629820645
BMu106,35,C,REL,Gait_Normal,4,R_MTF,20.11989632498956
BMu106,35,C,REL,Gait_Normal,5,L_MTF,15.649198212726628
BMu106,35,C,REL,Gait_Normal,5,R_MTF,18.847615995221
BMu106,35,C,REL,Gait_Normal,6,L_MTF,65.77496037379194
BMu106,35,C,REL,Gait_Normal,6,R_MTF,56.856971090919814
BMu106,36,P,INI,Gait_Normal,1,L_MTF,8.649053328135606
BMu106,36,P,INI,Gait_Normal,1,R_MTF,12.349952933903506
BMu106,36,P,INI,Gait_Normal,2,L_MTF,7.1867751953152545
BMu106,36,P,INI,Gait_Normal,2,R_MTF,18.465110970235404
BMu106,36,P,INI,Gait_Normal,3,L_MTF,8.100778268009845
BMu106,36,P,INI,Gait_Normal,3,R_MTF,12.081101112529439
BMu106,36,P,INI,Gait_Normal,4,L_MTF,10.246760743262815
BMu106,36,P,INI,Gait_Normal,4,R_MTF,11.201102475817867
BMu106,36,P,INI,Gait_Normal,5,L_MTF,14.968883282870125
BMu106,36,P,INI,Gait_Normal,5,R_MTF,11.463265592893594
BMu106,36,P,INI,Gait_Normal,6,L_MTF,115.4872424101806
BMu106,36,P,INI,Gait_Normal,6,R_MTF,166.76301879106668
BMu106,36,P,INI,Gait_Normal,7,L_MTF,7.66981654601419
BMu106,36,P,INI,Gait_Normal,7,R_MTF,9.442431821466483
BMu106,36,P,INI,Gait_Normal,8,L_MTF,80.29826024213327
BMu106,36,P,INI,Gait_Normal,8,R_MTF,106.80068471041486
BMu106,36,P,REL,Gait_Normal,1,L_MTF,8.806355539648692
BMu106,36,P,REL,Gait_Normal,1,R_MTF,15.759513073479233
BMu106,36,P,REL,Gait_Normal,2,L_MTF,10.831561556644424
BMu106,36,P,REL,Gait_Normal,2,R_MTF,14.396248050008545
BMu106,36,P,REL,Gait_Normal,3,L_MTF,7.602763356412659
BMu106,36,P,REL,Gait_Normal,3,R_MTF,11.288007838693487
BMu106,36,P,REL,Gait_Normal,4,L_MTF,8.136216828391142
BMu106,36,P,REL,Gait_Normal,4,R_MTF,13.377196498033337
BMu106,36,P,REL,Gait_Normal,5,L_MTF,11.0603084585812
BMu106,36,P,REL,Gait_Normal,5,R_MTF,9.557622612249773
BMu106,36,P,REL,Gait_Normal,6,L_MTF,157.40995750076252
BMu106,36,P,REL,Gait_Normal,6,R_MTF,113.84623953093944
BMu106,38,C,INI,Gait_Normal,1,L_MTF,19.98072838400205
BMu106,38,C,INI,Gait_Normal,1,R_MTF,19.214700795047925
BMu106,38,C,INI,Gait_Normal,2,L_MTF,16.400882439822333
BMu106,38,C,INI,Gait_Normal,2,R_MTF,20.54635831182637
BMu106,38,C,INI,Gait_Normal,3,L_MTF,18.88557301978787
BMu106,38,C,INI,Gait_Normal,3,R_MTF,15.98387492983257
BMu106,38,C,INI,Gait_Normal,4,L_MTF,15.892407693069176
BMu106,38,C,INI,Gait_Normal,4,R_MTF,18.767643719752233
BMu106,38,C,INI,Gait_Normal,5,L_MTF,13.669732196309266
BMu106,38,C,INI,Gait_Normal,5,R_MTF,17.178504988867164
BMu106,38,C,INI,Gait_Normal,6,L_MTF,15.684997951611132
BMu106,38,C,INI,Gait_Normal,6,R_MTF,18.999181027835803
BMu106,38,C,REL,Gait_Normal,1,L_MTF,17.00082396650467
BMu106,38,C,REL,Gait_Normal,1,R_MTF,26.970645409860758
BMu106,38,C,REL,Gait_Normal,2,L_MTF,16.254591530253148
BMu106,38,C,REL,Gait_Normal,2,R_MTF,22.027533130424146
BMu106,38,C,REL,Gait_Normal,3,L_MTF,17.159133798923456
BMu106,38,C,REL,Gait_Normal,3,R_MTF,27.17996393582807
BMu106,38,C,REL,Gait_Normal,4,L_MTF,17.873035769622316
BMu106,38,C,REL,Gait_Normal,4,R_MTF,21.108467001570553
BMu106,38,C,REL,Gait_Normal,5,L_MTF,19.345336638902502
BMu106,38,C,REL,Gait_Normal,5,R_MTF,27.65722047547866
BMu106,38,C,REL,Gait_Normal,6,L_MTF,14.886778745956875
BMu106,38,C,REL,Gait_Normal,6,R_MTF,25.019937031297296
BMu106,38,C,REL,Gait_Normal,7,L_MTF,57.770067835430616
BMu106,38,C,REL,Gait_Normal,7,R_MTF,39.90842271424981
BMu106,39,C,INI,Gait_Normal,1,L_MTF,18.521641596209598
BMu106,39,C,INI,Gait_Normal,1,R_MTF,4.21908372431494
BMu106,39,C,INI,Gait_Normal,2,L_MTF,13.177254672255195
BMu106,39,C,INI,Gait_Normal,2,R_MTF,22.225657421390245
BMu106,39,C,INI,Gait_Normal,3,L_MTF,17.334691248360638
BMu106,39,C,INI,Gait_Normal,3,R_MTF,26.867316640909454
BMu106,39,C,INI,Gait_Normal,4,L_MTF,15.66255027520714
BMu106,39,C,INI,Gait_Normal,4,R_MTF,19.122503560597007
BMu106,39,C,INI,Gait_Normal,5,L_MTF,15.796215517818313
BMu106,39,C,INI,Gait_Normal,5,R_MTF,30.19424473509919
BMu106,39,C,INI,Gait_Normal,6,L_MTF,70.11674057630961
BMu106,39,C,INI,Gait_Normal,6,R_MTF,76.00267469619885
BMu106,39,C,REL,Gait_Normal,1,L_MTF,17.992187000339303
BMu106,39,C,REL,Gait_Normal,1,R_MTF,19.805954720506467
BMu106,39,C,REL,Gait_Normal,2,L_MTF,22.24116773225281
BMu106,39,C,REL,Gait_Normal,2,R_MTF,23.5797829714038
BMu106,39,C,REL,Gait_Normal,3,L_MTF,16.695691090018904
BMu106,39,C,REL,Gait_Normal,3,R_MTF,27.877406450229664
BMu106,39,C,REL,Gait_Normal,4,L_MTF,18.030736166380027
BMu106,39,C,REL,Gait_Normal,4,R_MTF,25.42234619424352
BMu106,40,C,INI,Gait_Normal,1,L_MTF,9.077353230859135
BMu106,40,C,INI,Gait_Normal,1,R_MTF,14.69002772258825
BMu106,40,C,INI,Gait_Normal,2,L_MTF,10.137716135243544
BMu106,40,C,INI,Gait_Normal,2,R_MTF,18.963289438551655
BMu106,40,C,INI,Gait_Normal,3,L_MTF,15.537553195754102
BMu106,40,C,INI,Gait_Normal,3,R_MTF,18.28531895679299
BMu106,40,C,INI,Gait_Normal,4,L_MTF,13.572891712415704
BMu106,40,C,INI,Gait_Normal,4,R_MTF,18.349869864258363
BMu106,40,C,INI,Gait_Normal,5,L_MTF,12.050048151337656
BMu106,40,C,INI,Gait_Normal,5,R_MTF,19.578974883299203
BMu106,40,C,INI,Gait_Normal,6,L_MTF,17.49585041539278
BMu106,40,C,INI,Gait_Normal,6,R_MTF,104.82873554278657
BMu106,40,C,REL,Gait_Normal,1,L_MTF,10.839143122279365
BMu106,40,C,REL,Gait_Normal,1,R_MTF,20.461593082554934
BMu106,40,C,REL,Gait_Normal,2,L_MTF,10.724017381189231
BMu106,40,C,REL,Gait_Normal,2,R_MTF,14.321437260230448
BMu106,40,C,REL,Gait_Normal,3,L_MTF,12.01507510423348
BMu106,40,C,REL,Gait_Normal,3,R_MTF,16.603609077851278
BMu106,40,C,REL,Gait_Normal,4,L_MTF,9.997961034266782
BMu106,40,C,REL,Gait_Normal,4,R_MTF,18.736405159937593
BMu106,40,C,REL,Gait_Normal,5,L_MTF,10.622111197158173
BMu106,40,C,REL,Gait_Normal,5,R_MTF,13.278038598609262
BMu106,40,C,REL,Gait_Normal,6,L_MTF,52.670916597789
BMu106,40,C,REL,Gait_Normal,6,R_MTF,80.31702628947866
BMu106,41,P,INI,Gait_Normal,1,L_MTF,12.74635015282845
BMu106,41,P,INI,Gait_Normal,1,R_MTF,12.89634739848042
BMu106,41,P,INI,Gait_Normal,2,L_MTF,10.620800328405444
BMu106,41,P,INI,Gait_Normal,2,R_MTF,7.835585915124995
BMu106,41,P,INI,Gait_Normal,3,L_MTF,11.977592297229773
BMu106,41,P,INI,Gait_Normal,3,R_MTF,11.462817243495778
BMu106,41,P,INI,Gait_Normal,4,L_MTF,14.143683311595506
BMu106,41,P,INI,Gait_Normal,4,R_MTF,10.6311258696446
BMu106,41,P,INI,Gait_Normal,5,L_MTF,13.285450283013253
BMu106,41,P,INI,Gait_Normal,5,R_MTF,10.953677911456474
BMu106,41,P,INI,Gait_Normal,6,L_MTF,118.07611287106974
BMu106,41,P,INI,Gait_Normal,6,R_MTF,69.74662935480913
BMu106,41,P,REL,Gait_Normal,1,L_MTF,9.642906429578886
BMu106,41,P,REL,Gait_Normal,1,R_MTF,9.622849372815587
BMu106,41,P,REL,Gait_Normal,2,L_MTF,11.254505857250807
BMu106,41,P,REL,Gait_Normal,2,R_MTF,10.143431538661282
BMu106,41,P,REL,Gait_Normal,3,L_MTF,10.14662766454133
BMu106,41,P,REL,Gait_Normal,3,R_MTF,9.3019510917397
BMu106,41,P,REL,Gait_Normal,4,L_MTF,12.465200950327384
BMu106,41,P,REL,Gait_Normal,4,R_MTF,14.261182166817719
BMu106,41,P,REL,Gait_Normal,5,L_MTF,8.709575960915139
BMu106,41,P,REL,Gait_Normal,5,R_MTF,10.242628757723168
BMu106,41,P,REL,Gait_Normal,6,L_MTF,6.791104437606492
BMu106,41,P,REL,Gait_Normal,6,R_MTF,5.592164323467927
BMu106,41,P,REL,Gait_Normal,7,L_MTF,63.3019329884682
BMu106,41,P,REL,Gait_Normal,7,R_MTF,61.314227357508834
BMu106,42,P,INI,Gait_Normal,1,L_MTF,33.14921307130042
BMu106,42,P,INI,Gait_Normal,1,R_MTF,17.49089190860543
BMu106,42,P,INI,Gait_Normal,2,L_MTF,36.430028374121605
BMu106,42,P,INI,Gait_Normal,2,R_MTF,15.310923235044827
BMu106,42,P,INI,Gait_Normal,3,L_MTF,22.23347167088661
BMu106,42,P,INI,Gait_Normal,3,R_MTF,14.642419354063417
BMu106,42,P,INI,Gait_Normal,4,L_MTF,21.718604279343634
BMu106,42,P,INI,Gait_Normal,4,R_MTF,13.597739044842637
BMu106,42,P,INI,Gait_Normal,5,L_MTF,18.772560585811803
BMu106,42,P,INI,Gait_Normal,5,R_MTF,14.165023409699316
BMu106,42,P,INI,Gait_Normal,6,L_MTF,15.606591997302345
BMu106,42,P,INI,Gait_Normal,6,R_MTF,12.451862562467163
BMu106,42,P,REL,Gait_Normal,1,L_MTF,17.315449263317248
BMu106,42,P,REL,Gait_Normal,1,R_MTF,16.956364502720593
BMu106,42,P,REL,Gait_Normal,2,L_MTF,15.780388409737002
BMu106,42,P,REL,Gait_Normal,2,R_MTF,14.266977920553831
BMu106,42,P,REL,Gait_Normal,3,L_MTF,20.662948942137913
BMu106,42,P,REL,Gait_Normal,3,R_MTF,11.502119269863721
BMu106,42,P,REL,Gait_Normal,4,L_MTF,13.190084379563888
BMu106,42,P,REL,Gait_Normal,4,R_MTF,13.01154205356095
BMu106,42,P,REL,Gait_Normal,5,L_MTF,11.918109362956098
BMu106,42,P,REL,Gait_Normal,5,R_MTF,19.441413546363243
BMu106,42,P,REL,Gait_Normal,6,L_MTF,53.66931741538276
BMu106,42,P,REL,Gait_Normal,6,R_MTF,61.21480043401556
BMu106,43,P,INI,Gait_Normal,1,L_MTF,8.67432099841879
BMu106,43,P,INI,Gait_Normal,1,R_MTF,8.828608151474517
BMu106,43,P,INI,Gait_Normal,2,L_MTF,21.64686683806434
BMu106,43,P,INI,Gait_Normal,2,R_MTF,9.756646060305757
BMu106,43,P,INI,Gait_Normal,3,L_MTF,13.038384583556574
BMu106,43,P,INI,Gait_Normal,3,R_MTF,10.646103162560204
BMu106,43,P,INI,Gait_Normal,4,L_MTF,12.19873170572392
BMu106,43,P,INI,Gait_Normal,4,R_MTF,17.299645598506338
BMu106,43,P,INI,Gait_Normal,5,L_MTF,13.71024994017
BMu106,43,P,INI,Gait_Normal,5,R_MTF,11.110292722315204
BMu106,43,P,INI,Gait_Normal,6,L_MTF,65.59426675965369
BMu106,43,P,INI,Gait_Normal,6,R_MTF,48.285923422950276
BMu106,43,P,INI,Gait_Normal,7,L_MTF,12.426297461964518
BMu106,43,P,INI,Gait_Normal,7,R_MTF,10.007104135457878
BMu106,43,P,INI,Gait_Normal,8,L_MTF,52.34144663360886
BMu106,43,P,INI,Gait_Normal,8,R_MTF,46.37636520808271
BMu106,43,P,REL,Gait_Normal,1,L_MTF,7.575757120362537
BMu106,43,P,REL,Gait_Normal,1,R_MTF,14.767946777424559
BMu106,43,P,REL,Gait_Normal,2,L_MTF,8.21201518602834
BMu106,43,P,REL,Gait_Normal,2,R_MTF,12.467618512605021
BMu106,43,P,REL,Gait_Normal,3,L_MTF,7.1587449313122855
BMu106,43,P,REL,Gait_Normal,3,R_MTF,11.137816211105864
BMu106,43,P,REL,Gait_Normal,4,L_MTF,6.984307349255993
BMu106,43,P,REL,Gait_Normal,4,R_MTF,4.906100359758404
BMu106,43,P,REL,Gait_Normal,5,L_MTF,10.366404431965968
BMu106,43,P,REL,Gait_Normal,5,R_MTF,10.485739832982702
BMu106,43,P,REL,Gait_Normal,6,L_MTF,5.875656654136954
BMu106,43,P,REL,Gait_Normal,6,R_MTF,12.07463860633708
BMu106,43,P,REL,Gait_Normal,7,L_MTF,78.6590830662376
BMu106,43,P,REL,Gait_Normal,7,R_MTF,123.41133140453829
BMu106,44,C,INI,Gait_Normal,1,L_MTF,7.2861234043089675
BMu106,44,C,INI,Gait_Normal,1,R_MTF,14.740391247397884
BMu106,44,C,INI,Gait_Normal,2,L_MTF,7.133726647173578
BMu106,44,C,INI,Gait_Normal,2,R_MTF,16.385313789450983
BMu106,44,C,INI,Gait_Normal,3,L_MTF,22.840994100943437
BMu106,44,C,INI,Gait_Normal,3,R_MTF,16.386628266301887
BMu106,44,C,INI,Gait_Normal,4,L_MTF,28.264124440593946
BMu106,44,C,INI,Gait_Normal,4,R_MTF,19.19424018994645
BMu106,44,C,INI,Gait_Normal,5,L_MTF,7.797131459145082
BMu106,44,C,INI,Gait_Normal,5,R_MTF,21.26157160419388
BMu106,44,C,INI,Gait_Normal,6,L_MTF,23.868197385583578
BMu106,44,C,INI,Gait_Normal,6,R_MTF,23.307376007975478
BMu106,44,C,INI,Gait_Normal,7,L_MTF,71.10423833747302
BMu106,44,C,INI,Gait_Normal,7,R_MTF,137.53628895647796
BMu106,44,C,REL,Gait_Normal,1,L_MTF,11.797495378702859
BMu106,44,C,REL,Gait_Normal,1,R_MTF,12.372202314409943
BMu106,44,C,REL,Gait_Normal,2,L_MTF,13.243403000495721
BMu106,44,C,REL,Gait_Normal,2,R_MTF,15.984950424411583
BMu106,44,C,REL,Gait_Normal,3,L_MTF,14.341157961626031
BMu106,44,C,REL,Gait_Normal,3,R_MTF,13.010292848824513
BMu106,44,C,REL,Gait_Normal,4,L_MTF,14.690456729499788
BMu106,44,C,REL,Gait_Normal,4,R_MTF,18.82264536213749
BMu106,44,C,REL,Gait_Normal,5,L_MTF,16.115455879539436
BMu106,44,C,REL,Gait_Normal,5,R_MTF,15.414595212723176
BMu106,44,C,REL,Gait_Normal,6,L_MTF,62.44527034702773
BMu106,44,C,REL,Gait_Normal,6,R_MTF,65.75275571304977
BMu106,44,C,REL,Gait_Normal,7,L_MTF,10.307300826545895
BMu106,44,C,REL,Gait_Normal,7,R_MTF,13.440098500958916
BMu106,45,P,INI,Gait_Normal,1,L_MTF,11.894344581266822
BMu106,45,P,INI,Gait_Normal,1,R_MTF,16.061767358737328
BMu106,45,P,INI,Gait_Normal,2,L_MTF,16.320556413237036
BMu106,45,P,INI,Gait_Normal,2,R_MTF,21.252926957503387
BMu106,45,P,INI,Gait_Normal,3,L_MTF,19.136840972596804
BMu106,45,P,INI,Gait_Normal,3,R_MTF,23.770996990117464
BMu106,45,P,INI,Gait_Normal,4,L_MTF,15.39170149026929
BMu106,45,P,INI,Gait_Normal,4,R_MTF,18.764047416410964
BMu106,45,P,INI,Gait_Normal,5,L_MTF,18.94113987816076
BMu106,45,P,INI,Gait_Normal,5,R_MTF,18.93864971493609
BMu106,45,P,INI,Gait_Normal,6,L_MTF,65.29960618404914
BMu106,45,P,INI,Gait_Normal,6,R_MTF,79.30948824697487
BMu106,45,P,INI,Gait_Normal,7,L_MTF,17.271724909696047
BMu106,45,P,INI,Gait_Normal,7,R_MTF,21.007005677095243
BMu106,45,P,INI,Gait_Normal,8,L_MTF,52.7273027145269
BMu106,45,P,INI,Gait_Normal,8,R_MTF,72.94751464210971
BMu106,45,P,REL,Gait_Normal,1,L_MTF,10.725996219368717
BMu106,45,P,REL,Gait_Normal,1,R_MTF,16.5546233203805
BMu106,45,P,REL,Gait_Normal,2,L_MTF,10.846924714493717
BMu106,45,P,REL,Gait_Normal,2,R_MTF,11.876062302123515
BMu106,45,P,REL,Gait_Normal,3,L_MTF,12.301381069850029
BMu106,45,P,REL,Gait_Normal,3,R_MTF,15.352568595610968
BMu106,45,P,REL,Gait_Normal,4,L_MTF,9.014204324276298
BMu106,45,P,REL,Gait_Normal,4,R_MTF,17.61461463342227
BMu106,45,P,REL,Gait_Normal,5,L_MTF,8.039329338038579
BMu106,45,P,REL,Gait_Normal,5,R_MTF,15.317573682289366
BMu106,45,P,REL,Gait_Normal,6,L_MTF,77.29339145083544
BMu106,45,P,REL,Gait_Normal,6,R_MTF,97.12245991474306
BMu106,46,C,INI,Gait_Normal,1,L_MTF,33.64363931510729
BMu106,46,C,INI,Gait_Normal,1,R_MTF,15.707224958283401
BMu106,46,C,INI,Gait_Normal,2,L_MTF,24.44421042807821
BMu106,46,C,INI,Gait_Normal,2,R_MTF,12.252039299529528
BMu106,46,C,INI,Gait_Normal,3,L_MTF,27.837189830558444
BMu106,46,C,INI,Gait_Normal,3,R_MTF,13.647260105210568
BMu106,46,C,INI,Gait_Normal,4,L_MTF,30.483105985254806
BMu106,46,C,INI,Gait_Normal,4,R_MTF,15.696308348374764
BMu106,46,C,INI,Gait_Normal,5,L_MTF,28.077342629990465
BMu106,46,C,INI,Gait_Normal,5,R_MTF,14.619893596442118
BMu106,46,C,INI,Gait_Normal,6,L_MTF,73.60747278582927
BMu106,46,C,INI,Gait_Normal,6,R_MTF,104.60890419904314
BMu106,46,C,REL,Gait_Normal,1,L_MTF,6.091302121605326
BMu106,46,C,REL,Gait_Normal,1,R_MTF,13.837976773373748
BMu106,46,C,REL,Gait_Normal,2,L_MTF,5.397590605091933
BMu106,46,C,REL,Gait_Normal,2,R_MTF,12.330411959130709
BMu106,46,C,REL,Gait_Normal,3,L_MTF,4.071231157554208
BMu106,46,C,REL,Gait_Normal,3,R_MTF,13.343337739892352
BMu106,46,C,REL,Gait_Normal,4,L_MTF,2.385736340455228
BMu106,46,C,REL,Gait_Normal,4,R_MTF,14.353085748390866
BMu106,46,C,REL,Gait_Normal,5,L_MTF,7.803641430398058
BMu106,46,C,REL,Gait_Normal,5,R_MTF,12.833451429299433
BMu106,46,C,REL,Gait_Normal,6,L_MTF,80.97115438010613
BMu106,46,C,REL,Gait_Normal,6,R_MTF,67.66208752265341
BMu106,47,P,INI,Gait_Normal,1,L_MTF,8.861607777722016
BMu106,47,P,INI,Gait_Normal,1,R_MTF,13.706039704365887
BMu106,47,P,INI,Gait_Normal,2,L_MTF,4.639371825748643
BMu106,47,P,INI,Gait_Normal,2,R_MTF,26.439562210808802
BMu106,47,P,INI,Gait_Normal,3,L_MTF,11.396612486682752
BMu106,47,P,INI,Gait_Normal,3,R_MTF,17.785535751550782
BMu106,47,P,INI,Gait_Normal,4,L_MTF,14.279546413636655
BMu106,47,P,INI,Gait_Normal,4,R_MTF,11.725767948361456
BMu106,47,P,INI,Gait_Normal,5,L_MTF,7.541672811563511
BMu106,47,P,INI,Gait_Normal,5,R_MTF,24.082284008367736
BMu106,47,P,INI,Gait_Normal,6,L_MTF,98.28175201098857
BMu106,47,P,INI,Gait_Normal,6,R_MTF,52.60696076121085
BMu106,47,P,REL,Gait_Normal,1,L_MTF,7.555011508849282
BMu106,47,P,REL,Gait_Normal,1,R_MTF,6.53742345806109
BMu106,47,P,REL,Gait_Normal,2,L_MTF,7.928114378137996
BMu106,47,P,REL,Gait_Normal,2,R_MTF,17.460976659025732
BMu106,47,P,REL,Gait_Normal,3,L_MTF,8.799312493552463
BMu106,47,P,REL,Gait_Normal,3,R_MTF,8.461648600971966
BMu106,47,P,REL,Gait_Normal,4,L_MTF,7.339373833205182
BMu106,47,P,REL,Gait_Normal,4,R_MTF,7.31598787706786
BMu106,47,P,REL,Gait_Normal,5,L_MTF,6.634107557619832
BMu106,47,P,REL,Gait_Normal,5,R_MTF,6.026831308914009
BMu106,47,P,REL,Gait_Normal,6,L_MTF,156.93028628888
BMu106,47,P,REL,Gait_Normal,6,R_MTF,92.8538003124879
BMu106,47,P,REL,Gait_Normal,7,L_MTF,6.2284978120414225
BMu106,47,P,REL,Gait_Normal,7,R_MTF,8.831668149538793
BMu106,47,P,REL,Gait_Normal,8,L_MTF,125.45177792471888
BMu106,47,P,REL,Gait_Normal,8,R_MTF,70.4899972142859
BMu106,48,C,INI,Gait_Normal,1,L_MTF,24.624521067593882
BMu106,48,C,INI,Gait_Normal,1,R_MTF,21.715750027568504
BMu106,48,C,INI,Gait_Normal,2,L_MTF,19.44643426472033
BMu106,48,C,INI,Gait_Normal,2,R_MTF,24.55475277814392
BMu106,48,C,INI,Gait_Normal,3,L_MTF,19.010069318972736
BMu106,48,C,INI,Gait_Normal,3,R_MTF,27.63773165054556
BMu106,48,C,INI,Gait_Normal,4,L_MTF,21.140671573278226
BMu106,48,C,INI,Gait_Normal,4,R_MTF,21.58201710747558
BMu106,48,C,INI,Gait_Normal,5,L_MTF,22.210294601237855
BMu106,48,C,INI,Gait_Normal,5,R_MTF,21.444839715056816
BMu106,48,C,INI,Gait_Normal,6,L_MTF,28.5204051996851
BMu106,48,C,INI,Gait_Normal,6,R_MTF,13.904110252915002
BMu106,48,C,INI,Gait_Normal,7,L_MTF,43.16909219262827
BMu106,48,C,INI,Gait_Normal,7,R_MTF,56.51964136892581
BMu106,48,C,INI,Gait_Normal,8,L_MTF,50.83672771291193
BMu106,48,C,INI,Gait_Normal,8,R_MTF,57.37211972081629
BMu106,48,C,REL,Gait_Normal,1,L_MTF,21.541155325573676
BMu106,48,C,REL,Gait_Normal,1,R_MTF,25.85548975088789
BMu106,48,C,REL,Gait_Normal,2,L_MTF,58.56395051779682
BMu106,48,C,REL,Gait_Normal,2,R_MTF,45.962970057011006
BMu106,48,C,REL,Gait_Normal,3,L_MTF,22.208828592815138
BMu106,48,C,REL,Gait_Normal,3,R_MTF,24.87671471998711
BMu106,48,C,REL,Gait_Normal,4,L_MTF,26.268902110631128
BMu106,48,C,REL,Gait_Normal,4,R_MTF,24.17582974117471
BMu106,48,C,REL,Gait_Normal,5,L_MTF,23.094133275949776
BMu106,48,C,REL,Gait_Normal,5,R_MTF,28.740228656768213
BMu106,48,C,REL,Gait_Normal,6,L_MTF,15.81622143869309
BMu106,48,C,REL,Gait_Normal,6,R_MTF,24.811518069736422
BMu106,48,C,REL,Gait_Normal,7,L_MTF,46.47886624585792
BMu106,48,C,REL,Gait_Normal,7,R_MTF,39.867544509547805
BMu106,48,C,REL,Gait_Normal,8,L_MTF,15.428698036374344
BMu106,48,C,REL,Gait_Normal,8,R_MTF,19.13814385684668
BMu106,48,C,REL,Gait_Normal,9,L_MTF,109.99723612954499
BMu106,48,C,REL,Gait_Normal,9,R_MTF,47.74253653731813
BMu106,49,C,INI,Gait_Normal,1,L_MTF,9.738042933157704
BMu106,49,C,INI,Gait_Normal,1,R_MTF,14.376008345705717
BMu106,49,C,INI,Gait_Normal,2,L_MTF,11.058713216551716
BMu106,49,C,INI,Gait_Normal,2,R_MTF,16.38869623286847
BMu106,49,C,INI,Gait_Normal,3,L_MTF,10.53839927016733
BMu106,49,C,INI,Gait_Normal,3,R_MTF,15.117841082558293
BMu106,49,C,INI,Gait_Normal,4,L_MTF,9.163855990758918
BMu106,49,C,INI,Gait_Normal,4,R_MTF,12.12924807121615
BMu106,49,C,INI,Gait_Normal,5,L_MTF,10.996915005557685
BMu106,49,C,INI,Gait_Normal,5,R_MTF,10.732483585830238
BMu106,49,C,INI,Gait_Normal,6,L_MTF,8.122895253619152
BMu106,49,C,INI,Gait_Normal,6,R_MTF,8.402957963791728
BMu106,49,C,INI,Gait_Normal,7,L_MTF,84.12474741525065
BMu106,49,C,INI,Gait_Normal,7,R_MTF,63.8772936628025
BMu106,49,C,REL,Gait_Normal,1,L_MTF,12.4142591401529
BMu106,49,C,REL,Gait_Normal,1,R_MTF,15.708522378125208
BMu106,49,C,REL,Gait_Normal,2,L_MTF,14.060649225327492
BMu106,49,C,REL,Gait_Normal,2,R_MTF,11.659881768535278
BMu106,49,C,REL,Gait_Normal,3,L_MTF,17.00669376472933
BMu106,49,C,REL,Gait_Normal,3,R_MTF,16.939861677557342
BMu106,49,C,REL,Gait_Normal,4,L_MTF,13.041799022251618
BMu106,49,C,REL,Gait_Normal,4,R_MTF,12.857692356270128
BMu106,49,C,REL,Gait_Normal,5,L_MTF,15.87934402035957
BMu106,49,C,REL,Gait_Normal,5,R_MTF,13.216117244384574
BMu106,49,C,REL,Gait_Normal,6,L_MTF,101.46702829132019
BMu106,49,C,REL,Gait_Normal,6,R_MTF,93.93361464592309
BMu106,49,C,REL,Gait_Normal,7,L_MTF,12.654127622378235
BMu106,49,C,REL,Gait_Normal,7,R_MTF,14.647656002177097
BMu106,49,C,REL,Gait_Normal,8,L_MTF,91.64148914486292
BMu106,49,C,REL,Gait_Normal,8,R_MTF,82.92123779119659
BMu106,50,P,INI,Gait_Normal,1,L_MTF,23.4423666952473
BMu106,50,P,INI,Gait_Normal,1,R_MTF,27.464067433205113
BMu106,50,P,INI,Gait_Normal,2,L_MTF,22.84517565948322
BMu106,50,P,INI,Gait_Normal,2,R_MTF,25.76614300611034
BMu106,50,P,INI,Gait_Normal,3,L_MTF,19.417757253020543
BMu106,50,P,INI,Gait_Normal,3,R_MTF,26.448608021181684
BMu106,50,P,INI,Gait_Normal,4,L_MTF,18.59257372154152
BMu106,50,P,INI,Gait_Normal,4,R_MTF,29.162579144857613
BMu106,50,P,INI,Gait_Normal,5,L_MTF,11.18166931165699
BMu106,50,P,INI,Gait_Normal,5,R_MTF,28.580294274438135
BMu106,50,P,INI,Gait_Normal,6,L_MTF,51.71939140097436
BMu106,50,P,INI,Gait_Normal,6,R_MTF,43.40929596641415
BMu106,50,P,REL,Gait_Normal,1,L_MTF,11.889707803602352
BMu106,50,P,REL,Gait_Normal,1,R_MTF,22.63135389245953
BMu106,50,P,REL,Gait_Normal,2,L_MTF,21.78306238158544
BMu106,50,P,REL,Gait_Normal,2,R_MTF,23.286946668786022
BMu106,50,P,REL,Gait_Normal,3,L_MTF,13.087976023893056
BMu106,50,P,REL,Gait_Normal,3,R_MTF,24.532203046855066
BMu106,50,P,REL,Gait_Normal,4,L_MTF,11.879703681916546
BMu106,50,P,REL,Gait_Normal,4,R_MTF,25.71918098545881
BMu106,50,P,REL,Gait_Normal,5,L_MTF,8.519233108517648
BMu106,50,P,REL,Gait_Normal,5,R_MTF,25.088184574191924
BMu106,51,P,INI,Gait_Normal,1,L_MTF,26.00844938203236
BMu106,51,P,INI,Gait_Normal,1,R_MTF,18.08598825991016
BMu106,51,P,INI,Gait_Normal,2,L_MTF,19.692951633453006
BMu106,51,P,INI,Gait_Normal,2,R_MTF,13.910957388880128
BMu106,51,P,INI,Gait_Normal,3,L_MTF,18.502302444892344
BMu106,51,P,INI,Gait_Normal,3,R_MTF,20.95435879905081
BMu106,51,P,INI,Gait_Normal,4,L_MTF,19.492316622388977
BMu106,51,P,INI,Gait_Normal,4,R_MTF,21.857999771423263
BMu106,51,P,INI,Gait_Normal,5,L_MTF,19.80226432963388
BMu106,51,P,INI,Gait_Normal,5,R_MTF,13.878804673101309
BMu106,51,P,INI,Gait_Normal,6,L_MTF,22.131840528659414
BMu106,51,P,INI,Gait_Normal,6,R_MTF,21.59074786423228
BMu106,51,P,REL,Gait_Normal,1,L_MTF,25.481128699765186
BMu106,51,P,REL,Gait_Normal,1,R_MTF,20.060974216105198
BMu106,51,P,REL,Gait_Normal,2,L_MTF,63.2099031811731
BMu106,51,P,REL,Gait_Normal,2,R_MTF,103.47932340827327
BMu106,51,P,REL,Gait_Normal,3,L_MTF,23.438731701185954
BMu106,51,P,REL,Gait_Normal,3,R_MTF,20.587267993579925
BMu106,51,P,REL,Gait_Normal,4,L_MTF,68.29278683770984
BMu106,51,P,REL,Gait_Normal,4,R_MTF,92.18703560090059
BMu106,51,P,REL,Gait_Normal,5,L_MTF,29.14744333484141
BMu106,51,P,REL,Gait_Normal,5,R_MTF,24.00270820438444
BMu106,51,P,REL,Gait_Normal,6,L_MTF,55.133705668147016
BMu106,51,P,REL,Gait_Normal,6,R_MTF,87.98744044336135
BMu106,52,C,INI,Gait_Normal,1,L_MTF,8.707623776486823
BMu106,52,C,INI,Gait_Normal,1,R_MTF,13.971031916757429
BMu106,52,C,INI,Gait_Normal,2,L_MTF,194.58376461826083
BMu106,52,C,INI,Gait_Normal,2,R_MTF,121.69754842330791
BMu106,52,C,INI,Gait_Normal,3,L_MTF,7.811703205249963
BMu106,52,C,INI,Gait_Normal,3,R_MTF,12.296432117448138
BMu106,52,C,INI,Gait_Normal,4,L_MTF,146.57170536652234
BMu106,52,C,INI,Gait_Normal,4,R_MTF,94.81761098652764
BMu106,52,C,INI,Gait_Normal,5,L_MTF,5.868140640365389
BMu106,52,C,INI,Gait_Normal,5,R_MTF,11.030763483643074
BMu106,52,C,INI,Gait_Normal,6,L_MTF,240.21329710744436
BMu106,52,C,INI,Gait_Normal,6,R_MTF,89.95532584185821
BMu106,52,C,REL,Gait_Normal,1,L_MTF,6.651692882044712
BMu106,52,C,REL,Gait_Normal,1,R_MTF,16.765393252460573
BMu106,52,C,REL,Gait_Normal,2,L_MTF,216.91202764072162
BMu106,52,C,REL,Gait_Normal,2,R_MTF,99.57665998658796
BMu106,52,C,REL,Gait_Normal,3,L_MTF,3.956151017760016
BMu106,52,C,REL,Gait_Normal,3,R_MTF,15.455542360805678
BMu106,52,C,REL,Gait_Normal,4,L_MTF,109.54993331062241
BMu106,52,C,REL,Gait_Normal,4,R_MTF,146.33705170223723
BMu106,52,C,REL,Gait_Normal,5,L_MTF,2.940316022875906
BMu106,52,C,REL,Gait_Normal,5,R_MTF,14.55272015923129
BMu106,52,C,REL,Gait_Normal,6,L_MTF,132.49681125956943
BMu106,52,C,REL,Gait_Normal,6,R_MTF,125.08737800360404
BMu106,53,P,INI,Gait_Normal,1,L_MTF,25.080826486297727
BMu106,53,P,INI,Gait_Normal,1,R_MTF,19.53158732935855
BMu106,53,P,INI,Gait_Normal,2,L_MTF,36.573550688886165
BMu106,53,P,INI,Gait_Normal,2,R_MTF,22.524084963623725
BMu106,53,P,INI,Gait_Normal,3,L_MTF,21.133655721227566
BMu106,53,P,INI,Gait_Normal,3,R_MTF,10.575286950641946
BMu106,53,P,INI,Gait_Normal,4,L_MTF,18.119889425286274
BMu106,53,P,INI,Gait_Normal,4,R_MTF,16.79423679593628
BMu106,53,P,INI,Gait_Normal,5,L_MTF,15.33971969815601
BMu106,53,P,INI,Gait_Normal,5,R_MTF,13.389587348401996
BMu106,53,P,INI,Gait_Normal,6,L_MTF,136.53533388853958
BMu106,53,P,INI,Gait_Normal,6,R_MTF,102.17303505243088
BMu106,53,P,REL,Gait_Normal,1,L_MTF,11.638402552806252
BMu106,53,P,REL,Gait_Normal,1,R_MTF,13.914139506852585
BMu106,53,P,REL,Gait_Normal,2,L_MTF,11.793873882889402
BMu106,53,P,REL,Gait_Normal,2,R_MTF,11.914484776753016
BMu106,53,P,REL,Gait_Normal,3,L_MTF,11.659969934348078
BMu106,53,P,REL,Gait_Normal,3,R_MTF,11.241604813737887
BMu106,53,P,REL,Gait_Normal,4,L_MTF,9.883915648937178
BMu106,53,P,REL,Gait_Normal,4,R_MTF,11.459314576254501
BMu106,53,P,REL,Gait_Normal,5,L_MTF,16.13891463394275
BMu106,53,P,REL,Gait_Normal,5,R_MTF,12.279932599198206
BMu106,53,P,REL,Gait_Normal,6,L_MTF,73.8188425408303
BMu106,53,P,REL,Gait_Normal,6,R_MTF,178.07545828779848
BMu106,54,P,INI,Gait_Normal,1,L_MTF,10.5565660970369
BMu106,54,P,INI,Gait_Normal,1,R_MTF,9.362918482945535
BMu106,54,P,INI,Gait_Normal,2,L_MTF,134.53393092382458
BMu106,54,P,INI,Gait_Normal,2,R_MTF,147.38281960628052
BMu106,54,P,INI,Gait_Normal,3,L_MTF,11.216643596746582
BMu106,54,P,INI,Gait_Normal,3,R_MTF,7.901466890663936
BMu106,54,P,INI,Gait_Normal,4,L_MTF,136.85421910048495
BMu106,54,P,INI,Gait_Normal,4,R_MTF,158.39350004301417
BMu106,54,P,INI,Gait_Normal,5,L_MTF,180.2166653349835
BMu106,54,P,INI,Gait_Normal,5,R_MTF,148.14374331348284
BMu106,54,P,REL,Gait_Normal,1,L_MTF,19.728674924776833
BMu106,54,P,REL,Gait_Normal,1,R_MTF,7.92316825025186
BMu106,54,P,REL,Gait_Normal,2,L_MTF,168.59676270910106
BMu106,54,P,REL,Gait_Normal,2,R_MTF,232.1364904069955
BMu106,54,P,REL,Gait_Normal,3,L_MTF,12.51044067114589
BMu106,54,P,REL,Gait_Normal,3,R_MTF,6.3218726475445255
BMu106,54,P,REL,Gait_Normal,4,L_MTF,129.88750472349187
BMu106,54,P,REL,Gait_Normal,4,R_MTF,325.3760853959689
BMu106,54,P,REL,Gait_Normal,5,L_MTF,15.873795440756886
BMu106,54,P,REL,Gait_Normal,5,R_MTF,5.891276392053786
BMu106,54,P,REL,Gait_Normal,6,L_MTF,161.94693283255913
BMu106,54,P,REL,Gait_Normal,6,R_MTF,231.72745696081893
BMu106,54,P,REL,Gait_Normal,7,L_MTF,16.68356949609465
BMu106,54,P,REL,Gait_Normal,7,R_MTF,5.934790329952609
BMu106,54,P,REL,Gait_Normal,8,L_MTF,176.4622858033517
BMu106,54,P,REL,Gait_Normal,8,R_MTF,226.05284303263517
BMu106,55,C,INI,Gait_Normal,1,L_MTF,8.028190411275745
BMu106,55,C,INI,Gait_Normal,1,R_MTF,18.331704473877892
BMu106,55,C,INI,Gait_Normal,2,L_MTF,78.15792806969071
BMu106,55,C,INI,Gait_Normal,2,R_MTF,97.7933596998141
BMu106,55,C,INI,Gait_Normal,3,L_MTF,11.052224347870863
BMu106,55,C,INI,Gait_Normal,3,R_MTF,16.863765011201117
BMu106,55,C,INI,Gait_Normal,4,L_MTF,100.16631849741914
BMu106,55,C,INI,Gait_Normal,4,R_MTF,95.55268535200675
BMu106,55,C,INI,Gait_Normal,5,L_MTF,81.54786126743622
BMu106,55,C,INI,Gait_Normal,5,R_MTF,67.40738570919028
BMu106,55,C,INI,Gait_Normal,6,L_MTF,15.145136880436201
BMu106,55,C,INI,Gait_Normal,6,R_MTF,15.797675567985147
BMu106,55,C,INI,Gait_Normal,7,L_MTF,84.0264111144114
BMu106,55,C,INI,Gait_Normal,7,R_MTF,88.75721542623063
BMu106,55,C,REL,Gait_Normal,1,L_MTF,20.801544128216577
BMu106,55,C,REL,Gait_Normal,1,R_MTF,16.875076337385988
BMu106,55,C,REL,Gait_Normal,2,L_MTF,56.022844932559444
BMu106,55,C,REL,Gait_Normal,2,R_MTF,73.02866321669393
BMu106,55,C,REL,Gait_Normal,3,L_MTF,21.829109242183325
BMu106,55,C,REL,Gait_Normal,3,R_MTF,14.681819082906731
BMu106,55,C,REL,Gait_Normal,4,L_MTF,130.0153721038837
BMu106,55,C,REL,Gait_Normal,4,R_MTF,92.24995989528774
BMu106,55,C,REL,Gait_Normal,5,L_MTF,14.814740275875828
BMu106,55,C,REL,Gait_Normal,5,R_MTF,17.489540545567205
BMu106,55,C,REL,Gait_Normal,6,L_MTF,78.30781531650466
BMu106,55,C,REL,Gait_Normal,6,R_MTF,74.08095591132142
BMu106,55,C,REL,Gait_Normal,7,L_MTF,87.3580140141267
BMu106,55,C,REL,Gait_Normal,7,R_MTF,75.06854421932624
BMu106,56,C,INI,Gait_Normal,1,L_MTF,13.092366348745138
BMu106,56,C,INI,Gait_Normal,1,R_MTF,36.64261750923688
BMu106,56,C,INI,Gait_Normal,2,L_MTF,14.01343476441462
BMu106,56,C,INI,Gait_Normal,2,R_MTF,82.09789681132071
BMu106,56,C,INI,Gait_Normal,3,L_MTF,21.056151611624912
BMu106,56,C,INI,Gait_Normal,3,R_MTF,30.093396574771816
BMu106,56,C,INI,Gait_Normal,4,L_MTF,16.636494916992635
BMu106,56,C,INI,Gait_Normal,4,R_MTF,74.81253051863284
BMu106,56,C,INI,Gait_Normal,5,L_MTF,69.77246839257302
BMu106,56,C,INI,Gait_Normal,5,R_MTF,74.8640186996051
BMu106,56,C,INI,Gait_Normal,6,L_MTF,17.3719553412293
BMu106,56,C,INI,Gait_Normal,6,R_MTF,23.894008200453246
BMu106,56,C,INI,Gait_Normal,7,L_MTF,41.752823274588756
BMu106,56,C,INI,Gait_Normal,7,R_MTF,78.96639743970408
BMu106,56,C,REL,Gait_Normal,1,L_MTF,9.887102549161513
BMu106,56,C,REL,Gait_Normal,1,R_MTF,13.498350722845505
BMu106,56,C,REL,Gait_Normal,2,L_MTF,107.9191307854735
BMu106,56,C,REL,Gait_Normal,2,R_MTF,105.55514867184253
BMu106,56,C,REL,Gait_Normal,3,L_MTF,12.890473425919412
BMu106,56,C,REL,Gait_Normal,3,R_MTF,15.43223375726096
BMu106,56,C,REL,Gait_Normal,4,L_MTF,80.74900062025965
BMu106,56,C,REL,Gait_Normal,4,R_MTF,40.973584419728425
BMu106,56,C,REL,Gait_Normal,5,L_MTF,10.741544419540334
BMu106,56,C,REL,Gait_Normal,5,R_MTF,15.72582167401849
BMu106,56,C,REL,Gait_Normal,6,L_MTF,109.01756928515722
BMu106,56,C,REL,Gait_Normal,6,R_MTF,51.62330102761359
BMu106,56,C,REL,Gait_Normal,7,L_MTF,8.972492750426994
BMu106,56,C,REL,Gait_Normal,7,R_MTF,11.240308389843195
BMu106,56,C,REL,Gait_Normal,8,L_MTF,103.6438276091961
BMu106,56,C,REL,Gait_Normal,8,R_MTF,28.151911306661493
BMu106,57,C,INI,Gait_Normal,1,L_MTF,6.359467984762155
BMu106,57,C,INI,Gait_Normal,1,R_MTF,9.055473331080192
BMu106,57,C,INI,Gait_Normal,2,L_MTF,17.192725474229796
BMu106,57,C,INI,Gait_Normal,2,R_MTF,26.051385946497252
BMu106,57,C,INI,Gait_Normal,3,L_MTF,4.197503122415036
BMu106,57,C,INI,Gait_Normal,3,R_MTF,7.44092185273359
BMu106,57,C,INI,Gait_Normal,4,L_MTF,75.86993229505065
BMu106,57,C,INI,Gait_Normal,4,R_MTF,12.197714841701742
BMu106,57,C,INI,Gait_Normal,5,L_MTF,5.43543945842633
BMu106,57,C,INI,Gait_Normal,5,R_MTF,7.604469549722172
BMu106,57,C,INI,Gait_Normal,6,L_MTF,17.592208632504658
BMu106,57,C,INI,Gait_Normal,6,R_MTF,17.968858921754965
BMu106,57,C,INI,Gait_Normal,7,L_MTF,2.54194416817413
BMu106,57,C,INI,Gait_Normal,7,R_MTF,14.56297430614313
BMu106,57,C,INI,Gait_Normal,8,L_MTF,34.52835602959807
BMu106,57,C,INI,Gait_Normal,8,R_MTF,16.225086362240503
BMu106,57,C,REL,Gait_Normal,1,L_MTF,9.861574869129633
BMu106,57,C,REL,Gait_Normal,1,R_MTF,11.398100040770155
BMu106,57,C,REL,Gait_Normal,2,L_MTF,44.155097897864614
BMu106,57,C,REL,Gait_Normal,2,R_MTF,37.104189977755524
BMu106,57,C,REL,Gait_Normal,3,L_MTF,9.953524592618436
BMu106,57,C,REL,Gait_Normal,3,R_MTF,9.480375752475977
BMu106,57,C,REL,Gait_Normal,4,L_MTF,38.027314933009905
BMu106,57,C,REL,Gait_Normal,4,R_MTF,121.83096100297693
BMu106,57,C,REL,Gait_Normal,5,L_MTF,10.34679352606586
BMu106,57,C,REL,Gait_Normal,5,R_MTF,11.344961191850055
BMu106,57,C,REL,Gait_Normal,6,L_MTF,10.305634361004719
BMu106,57,C,REL,Gait_Normal,6,R_MTF,8.87329067288751
BMu106,57,C,REL,Gait_Normal,7,L_MTF,27.94867431055351
BMu106,57,C,REL,Gait_Normal,7,R_MTF,51.13041204381625
BMu106,57,C,REL,Gait_Normal,8,L_MTF,6.970897763236193
BMu106,57,C,REL,Gait_Normal,8,R_MTF,9.863441125374228
BMu106,57,C,REL,Gait_Normal,9,L_MTF,42.67345919607067
BMu106,57,C,REL,Gait_Normal,9,R_MTF,46.455450534515094
BMu106,58,P,INI,Gait_Normal,1,L_MTF,30.152354931420884
BMu106,58,P,INI,Gait_Normal,1,R_MTF,23.597262040333256
BMu106,58,P,INI,Gait_Normal,2,L_MTF,35.86138171421136
BMu106,58,P,INI,Gait_Normal,2,R_MTF,95.22258709787795
BMu106,58,P,INI,Gait_Normal,3,L_MTF,22.2201714051029
BMu106,58,P,INI,Gait_Normal,3,R_MTF,32.0256248556202
BMu106,58,P,INI,Gait_Normal,4,L_MTF,29.6222055232233
BMu106,58,P,INI,Gait_Normal,4,R_MTF,72.34324804530642
BMu106,58,P,INI,Gait_Normal,5,L_MTF,29.44801208049061
BMu106,58,P,INI,Gait_Normal,5,R_MTF,30.08959526913781
BMu106,58,P,INI,Gait_Normal,6,L_MTF,20.918521790484704
BMu106,58,P,INI,Gait_Normal,6,R_MTF,86.9969410111934
BMu106,58,P,REL,Gait_Normal,1,L_MTF,8.977137643137189
BMu106,58,P,REL,Gait_Normal,1,R_MTF,14.590015435943904
BMu106,58,P,REL,Gait_Normal,2,L_MTF,17.54597449589334
BMu106,58,P,REL,Gait_Normal,2,R_MTF,12.703925985074216
BMu106,58,P,REL,Gait_Normal,3,L_MTF,33.03838297961546
BMu106,58,P,REL,Gait_Normal,3,R_MTF,83.05682068399058
BMu106,58,P,REL,Gait_Normal,4,L_MTF,25.7401451369706
BMu106,58,P,REL,Gait_Normal,4,R_MTF,17.005069427507372
BMu106,58,P,REL,Gait_Normal,5,L_MTF,27.13549956097099
BMu106,58,P,REL,Gait_Normal,5,R_MTF,16.927917966280788
BMu106,58,P,REL,Gait_Normal,6,L_MTF,43.21344288511549
BMu106,58,P,REL,Gait_Normal,6,R_MTF,17.428860249733706
BMu106,58,P,REL,Gait_Normal,7,L_MTF,25.46192380803285
BMu106,58,P,REL,Gait_Normal,7,R_MTF,85.02738960289697
BMu106,58,P,REL,Gait_Normal,8,L_MTF,16.742871906353145
BMu106,58,P,REL,Gait_Normal,8,R_MTF,23.18832419899577
BMu106,58,P,REL,Gait_Normal,9,L_MTF,32.18385117860593
BMu106,58,P,REL,Gait_Normal,9,R_MTF,41.06523075445198
BMu106,60,C,INI,Gait_Normal,1,L_MTF,13.449018177174064
BMu106,60,C,INI,Gait_Normal,1,R_MTF,15.9144064762917
BMu106,60,C,INI,Gait_Normal,2,L_MTF,59.843566267862826
BMu106,60,C,INI,Gait_Normal,2,R_MTF,58.45644390844173
BMu106,60,C,INI,Gait_Normal,3,L_MTF,15.619837697516108
BMu106,60,C,INI,Gait_Normal,3,R_MTF,20.005802483735547
BMu106,60,C,INI,Gait_Normal,4,L_MTF,61.633342645615116
BMu106,60,C,INI,Gait_Normal,4,R_MTF,57.68298217856828
BMu106,60,C,INI,Gait_Normal,5,L_MTF,20.67013399828059
BMu106,60,C,INI,Gait_Normal,5,R_MTF,20.947924326171517
BMu106,60,C,INI,Gait_Normal,6,L_MTF,61.613536828805294
BMu106,60,C,INI,Gait_Normal,6,R_MTF,45.440060317495316
BMu106,60,C,REL,Gait_Normal,1,L_MTF,20.823292916221902
BMu106,60,C,REL,Gait_Normal,1,R_MTF,19.84399776088646
BMu106,60,C,REL,Gait_Normal,2,L_MTF,23.1429430164948
BMu106,60,C,REL,Gait_Normal,2,R_MTF,20.615644170977056
BMu106,60,C,REL,Gait_Normal,3,L_MTF,15.557770806219022
BMu106,60,C,REL,Gait_Normal,3,R_MTF,20.036317727627686
BMu106,60,C,REL,Gait_Normal,4,L_MTF,56.813417306076445
BMu106,60,C,REL,Gait_Normal,4,R_MTF,53.991872044119134
BMu106,60,C,REL,Gait_Normal,5,L_MTF,12.040493024777025
BMu106,60,C,REL,Gait_Normal,5,R_MTF,20.645559268852516
BMu106,60,C,REL,Gait_Normal,6,L_MTF,45.67628262137918
BMu106,60,C,REL,Gait_Normal,6,R_MTF,62.85405442090934
BMu106,61,P,INI,Gait_Normal,1,L_MTF,14.952293120005004
BMu106,61,P,INI,Gait_Normal,1,R_MTF,40.963642329574405
BMu106,61,P,INI,Gait_Normal,2,L_MTF,52.52601207329743
BMu106,61,P,INI,Gait_Normal,2,R_MTF,44.41694340909973
BMu106,61,P,INI,Gait_Normal,3,L_MTF,22.48327613574783
BMu106,61,P,INI,Gait_Normal,3,R_MTF,27.721645630953468
BMu106,61,P,INI,Gait_Normal,4,L_MTF,70.17431893389102
BMu106,61,P,INI,Gait_Normal,4,R_MTF,58.14986051416128
BMu106,61,P,INI,Gait_Normal,5,L_MTF,17.318277023959187
BMu106,61,P,INI,Gait_Normal,5,R_MTF,26.21006392733652
BMu106,61,P,INI,Gait_Normal,6,L_MTF,16.405485896369225
BMu106,61,P,INI,Gait_Normal,6,R_MTF,24.866462920873822
BMu106,61,P,INI,Gait_Normal,7,L_MTF,55.67053015687605
BMu106,61,P,INI,Gait_Normal,7,R_MTF,70.36383254227148
BMu106,61,P,INI,Gait_Normal,8,L_MTF,19.213302766682375
BMu106,61,P,INI,Gait_Normal,8,R_MTF,27.075390544594185
BMu106,61,P,INI,Gait_Normal,9,L_MTF,63.55652973783753
BMu106,61,P,INI,Gait_Normal,9,R_MTF,34.54522974551196
BMu106,61,P,REL,Gait_Normal,1,L_MTF,16.61378024399503
BMu106,61,P,REL,Gait_Normal,1,R_MTF,26.89344630687301
BMu106,61,P,REL,Gait_Normal,2,L_MTF,12.771940684587777
BMu106,61,P,REL,Gait_Normal,2,R_MTF,19.507550947876872
BMu106,61,P,REL,Gait_Normal,3,L_MTF,75.66340430800936
BMu106,61,P,REL,Gait_Normal,3,R_MTF,68.71656163358328
BMu106,61,P,REL,Gait_Normal,4,L_MTF,18.626251385857103
BMu106,61,P,REL,Gait_Normal,4,R_MTF,18.139510636233197
BMu106,61,P,REL,Gait_Normal,5,L_MTF,72.63475523440816
BMu106,61,P,REL,Gait_Normal,5,R_MTF,25.381338100543207
BMu106,61,P,REL,Gait_Normal,6,L_MTF,15.906249013649036
BMu106,61,P,REL,Gait_Normal,6,R_MTF,17.12003224036153
BMu106,61,P,REL,Gait_Normal,7,L_MTF,81.70423076215616
BMu106,61,P,REL,Gait_Normal,7,R_MTF,41.90103347583836
BMu106,62,P,INI,Gait_Normal,1,L_MTF,10.12727127230734
BMu106,62,P,INI,Gait_Normal,1,R_MTF,16.49758792204465
BMu106,62,P,INI,Gait_Normal,2,L_MTF,74.39261766431815
BMu106,62,P,INI,Gait_Normal,2,R_MTF,102.49844663026627
BMu106,62,P,INI,Gait_Normal,3,L_MTF,12.492971789562477
BMu106,62,P,INI,Gait_Normal,3,R_MTF,13.407311500528454
BMu106,62,P,INI,Gait_Normal,4,L_MTF,68.51237016558548
BMu106,62,P,INI,Gait_Normal,4,R_MTF,52.1302007103571
BMu106,62,P,INI,Gait_Normal,5,L_MTF,9.963989345132362
BMu106,62,P,INI,Gait_Normal,5,R_MTF,10.286743176439296
BMu106,62,P,INI,Gait_Normal,6,L_MTF,17.29802154936721
BMu106,62,P,INI,Gait_Normal,6,R_MTF,11.41056446046806
BMu106,62,P,INI,Gait_Normal,7,L_MTF,73.91306078587546
BMu106,62,P,INI,Gait_Normal,7,R_MTF,45.431616948522255
BMu106,62,P,REL,Gait_Normal,1,L_MTF,14.705586985744702
BMu106,62,P,REL,Gait_Normal,1,R_MTF,11.122658287846534
BMu106,62,P,REL,Gait_Normal,2,L_MTF,72.21007577334821
BMu106,62,P,REL,Gait_Normal,2,R_MTF,64.77075932773086
BMu106,62,P,REL,Gait_Normal,3,L_MTF,12.03986213950073
BMu106,62,P,REL,Gait_Normal,3,R_MTF,14.212317080856094
BMu106,62,P,REL,Gait_Normal,4,L_MTF,65.60923564506389
BMu106,62,P,REL,Gait_Normal,4,R_MTF,68.67121034609916
BMu106,62,P,REL,Gait_Normal,5,L_MTF,87.4351803529676
BMu106,62,P,REL,Gait_Normal,5,R_MTF,43.36397060476634
BMu106,62,P,REL,Gait_Normal,6,L_MTF,14.764780622937012
BMu106,62,P,REL,Gait_Normal,6,R_MTF,13.67756425965985
BMu106,62,P,REL,Gait_Normal,7,L_MTF,68.96694055020393
BMu106,62,P,REL,Gait_Normal,7,R_MTF,74.9646358948527
BMu106,63,P,INI,Gait_Normal,1,L_MTF,16.321425252386415
BMu106,63,P,INI,Gait_Normal,1,R_MTF,14.277694826028787
BMu106,63,P,INI,Gait_Normal,2,L_MTF,34.25110037590331
BMu106,63,P,INI,Gait_Normal,2,R_MTF,46.574735281714474
BMu106,63,P,INI,Gait_Normal,3,L_MTF,9.024479608805132
BMu106,63,P,INI,Gait_Normal,3,R_MTF,25.861648140206814
BMu106,63,P,INI,Gait_Normal,4,L_MTF,47.040056215357566
BMu106,63,P,INI,Gait_Normal,4,R_MTF,57.53585209966491
BMu106,63,P,INI,Gait_Normal,5,L_MTF,16.549293477387902
BMu106,63,P,INI,Gait_Normal,5,R_MTF,21.283306959815192
BMu106,63,P,INI,Gait_Normal,6,L_MTF,53.425585260982245
BMu106,63,P,INI,Gait_Normal,6,R_MTF,66.67681749048327
BMu106,63,P,INI,Gait_Normal,7,L_MTF,9.701996950127711
BMu106,63,P,INI,Gait_Normal,7,R_MTF,20.388273462014784
BMu106,63,P,INI,Gait_Normal,8,L_MTF,36.787549558965246
BMu106,63,P,INI,Gait_Normal,8,R_MTF,72.24938574280382
BMu106,63,P,REL,Gait_Normal,1,L_MTF,6.586233355683265
BMu106,63,P,REL,Gait_Normal,1,R_MTF,9.177350282435885
BMu106,63,P,REL,Gait_Normal,2,L_MTF,87.52418261784885
BMu106,63,P,REL,Gait_Normal,2,R_MTF,105.27839488789964
BMu106,63,P,REL,Gait_Normal,3,L_MTF,9.359486465105954
BMu106,63,P,REL,Gait_Normal,3,R_MTF,9.155235364029172
BMu106,63,P,REL,Gait_Normal,4,L_MTF,81.48655327812877
BMu106,63,P,REL,Gait_Normal,4,R_MTF,100.58903429959106
BMu106,63,P,REL,Gait_Normal,5,L_MTF,5.885296274166656
BMu106,63,P,REL,Gait_Normal,5,R_MTF,9.515715250786746
BMu106,63,P,REL,Gait_Normal,6,L_MTF,42.35084803750513
BMu106,63,P,REL,Gait_Normal,6,R_MTF,47.04291010662711
BMu106,63,P,REL,Gait_Normal,7,L_MTF,6.378472914287706
BMu106,63,P,REL,Gait_Normal,7,R_MTF,7.266231958826828
BMu106,63,P,REL,Gait_Normal,8,L_MTF,69.0414574061183
BMu106,63,P,REL,Gait_Normal,8,R_MTF,75.63927305621702
BMu106,64,C,INI,Gait_Normal,1,L_MTF,7.9597119398158505
BMu106,64,C,INI,Gait_Normal,1,R_MTF,6.976200398334237
BMu106,64,C,INI,Gait_Normal,2,L_MTF,54.05543665156995
BMu106,64,C,INI,Gait_Normal,2,R_MTF,80.4987847455918
BMu106,64,C,INI,Gait_Normal,3,L_MTF,5.991229518589766
BMu106,64,C,INI,Gait_Normal,3,R_MTF,4.854467423233933
BMu106,64,C,INI,Gait_Normal,4,L_MTF,43.60699969244948
BMu106,64,C,INI,Gait_Normal,4,R_MTF,100.74652707916063
BMu106,64,C,INI,Gait_Normal,5,L_MTF,7.31640274022412
BMu106,64,C,INI,Gait_Normal,5,R_MTF,7.456660506457133
BMu106,64,C,INI,Gait_Normal,6,L_MTF,147.98184993146475
BMu106,64,C,INI,Gait_Normal,6,R_MTF,106.14123458026852
BMu106,64,C,INI,Gait_Normal,7,L_MTF,7.148971270409562
BMu106,64,C,INI,Gait_Normal,7,R_MTF,5.871138235933699
BMu106,64,C,INI,Gait_Normal,8,L_MTF,220.71472813763648
BMu106,64,C,INI,Gait_Normal,8,R_MTF,68.49868581672875
BMu106,64,C,REL,Gait_Normal,1,L_MTF,5.363023822022372
BMu106,64,C,REL,Gait_Normal,1,R_MTF,6.162188420808039
BMu106,64,C,REL,Gait_Normal,2,L_MTF,38.133850744707274
BMu106,64,C,REL,Gait_Normal,2,R_MTF,59.65327096381328
BMu106,64,C,REL,Gait_Normal,3,L_MTF,5.623352781507956
BMu106,64,C,REL,Gait_Normal,3,R_MTF,5.64923819571938
BMu106,64,C,REL,Gait_Normal,4,L_MTF,157.27863629273122
BMu106,64,C,REL,Gait_Normal,4,R_MTF,75.44370672169391
BMu106,64,C,REL,Gait_Normal,5,L_MTF,7.84853362525279
BMu106,64,C,REL,Gait_Normal,5,R_MTF,7.048110688974975
BMu106,64,C,REL,Gait_Normal,6,L_MTF,105.53599580034438
BMu106,64,C,REL,Gait_Normal,6,R_MTF,61.453425459462856
BMu106,65,P,INI,Gait_Normal,1,L_MTF,5.260201817606904
BMu106,65,P,INI,Gait_Normal,1,R_MTF,7.000509191315542
BMu106,65,P,INI,Gait_Normal,2,L_MTF,133.5444205703403
BMu106,65,P,INI,Gait_Normal,2,R_MTF,66.26956128153729
BMu106,65,P,INI,Gait_Normal,3,L_MTF,4.322352445727114
BMu106,65,P,INI,Gait_Normal,3,R_MTF,3.3993208245243913
BMu106,65,P,INI,Gait_Normal,4,L_MTF,60.482200421701236
BMu106,65,P,INI,Gait_Normal,4,R_MTF,62.98563058766697
BMu106,65,P,INI,Gait_Normal,5,L_MTF,4.471258248328879
BMu106,65,P,INI,Gait_Normal,5,R_MTF,6.778298329499485
BMu106,65,P,INI,Gait_Normal,6,L_MTF,348.8918752962327
BMu106,65,P,INI,Gait_Normal,6,R_MTF,56.226852568279774
BMu106,65,P,REL,Gait_Normal,1,L_MTF,4.63921253217717
BMu106,65,P,REL,Gait_Normal,1,R_MTF,5.89856088690704
BMu106,65,P,REL,Gait_Normal,2,L_MTF,137.77370502130708
BMu106,65,P,REL,Gait_Normal,2,R_MTF,81.44220376915727
BMu106,65,P,REL,Gait_Normal,3,L_MTF,2.894874754594975
BMu106,65,P,REL,Gait_Normal,3,R_MTF,7.393079241896266
BMu106,65,P,REL,Gait_Normal,4,L_MTF,70.7649022821734
BMu106,65,P,REL,Gait_Normal,4,R_MTF,150.64414721320944
BMu106,65,P,REL,Gait_Normal,5,L_MTF,4.742038660325377
BMu106,65,P,REL,Gait_Normal,5,R_MTF,8.039870644691298
BMu106,65,P,REL,Gait_Normal,6,L_MTF,83.97969343438632
BMu106,65,P,REL,Gait_Normal,6,R_MTF,95.90347764020402
BMu106,66,C,INI,Gait_Normal,1,L_MTF,2.460327993633271
BMu106,66,C,INI,Gait_Normal,1,R_MTF,14.053966369005016
BMu106,66,C,INI,Gait_Normal,2,L_MTF,86.55759350803865
BMu106,66,C,INI,Gait_Normal,2,R_MTF,110.50777376892881
BMu106,66,C,INI,Gait_Normal,3,L_MTF,4.279650337115647
BMu106,66,C,INI,Gait_Normal,3,R_MTF,8.962421791467591
BMu106,66,C,INI,Gait_Normal,4,L_MTF,86.44669475603212
BMu106,66,C,INI,Gait_Normal,4,R_MTF,113.4803380891656
BMu106,66,C,INI,Gait_Normal,5,L_MTF,4.381440068440042
BMu106,66,C,INI,Gait_Normal,5,R_MTF,11.596834365939728
BMu106,66,C,INI,Gait_Normal,6,L_MTF,77.76777205480714
BMu106,66,C,INI,Gait_Normal,6,R_MTF,94.37554446738223
BMu106,66,C,INI,Gait_Normal,7,L_MTF,8.667100697033863
BMu106,66,C,INI,Gait_Normal,7,R_MTF,15.153251924587183
BMu106,66,C,INI,Gait_Normal,8,L_MTF,57.89068292906368
BMu106,66,C,INI,Gait_Normal,8,R_MTF,93.46128976834963
BMu106,66,C,REL,Gait_Normal,1,L_MTF,6.683711466455089
BMu106,66,C,REL,Gait_Normal,1,R_MTF,16.27858712749969
BMu106,66,C,REL,Gait_Normal,2,L_MTF,6.680299638420245
BMu106,66,C,REL,Gait_Normal,2,R_MTF,19.95057623804692
BMu106,66,C,REL,Gait_Normal,3,L_MTF,8.500502834012611
BMu106,66,C,REL,Gait_Normal,3,R_MTF,28.673929911118005
BMu106,66,C,REL,Gait_Normal,4,L_MTF,88.06953380601205
BMu106,66,C,REL,Gait_Normal,4,R_MTF,9.843212418591888
BMu106,67,C,INI,Gait_Normal,1,L_MTF,4.499656362866222
BMu106,67,C,INI,Gait_Normal,1,R_MTF,14.142903825636074
BMu106,67,C,INI,Gait_Normal,2,L_MTF,135.4495778222392
BMu106,67,C,INI,Gait_Normal,2,R_MTF,42.60501974259515
BMu106,67,C,INI,Gait_Normal,3,L_MTF,107.80204520083728
BMu106,67,C,INI,Gait_Normal,3,R_MTF,101.19777758730605
BMu106,67,C,INI,Gait_Normal,4,L_MTF,5.875905109115393
BMu106,67,C,INI,Gait_Normal,4,R_MTF,17.319587801241447
BMu106,67,C,INI,Gait_Normal,5,L_MTF,61.41915940256122
BMu106,67,C,INI,Gait_Normal,5,R_MTF,84.49210087836785
BMu106,67,C,INI,Gait_Normal,6,L_MTF,4.076553605981031
BMu106,67,C,INI,Gait_Normal,6,R_MTF,5.464872311684148
BMu106,67,C,INI,Gait_Normal,7,L_MTF,73.43262303754679
BMu106,67,C,INI,Gait_Normal,7,R_MTF,26.633121024700188
BMu106,67,C,REL,Gait_Normal,1,L_MTF,5.405737275057281
BMu106,67,C,REL,Gait_Normal,1,R_MTF,16.04921561452923
BMu106,67,C,REL,Gait_Normal,2,L_MTF,58.44558059820929
BMu106,67,C,REL,Gait_Normal,2,R_MTF,38.85662808321179
BMu106,67,C,REL,Gait_Normal,3,L_MTF,7.896993894226501
BMu106,67,C,REL,Gait_Normal,3,R_MTF,18.158161232429055
BMu106,67,C,REL,Gait_Normal,4,L_MTF,84.42301078321852
BMu106,67,C,REL,Gait_Normal,4,R_MTF,45.81264401834974
BMu106,67,C,REL,Gait_Normal,5,L_MTF,48.31503648245823
BMu106,67,C,REL,Gait_Normal,5,R_MTF,59.51961297300759
BMu106,67,C,REL,Gait_Normal,6,L_MTF,31.405812064057784
BMu106,67,C,REL,Gait_Normal,6,R_MTF,10.428257999005531
BMu106,67,C,REL,Gait_Normal,7,L_MTF,76.59126521024515
BMu106,67,C,REL,Gait_Normal,7,R_MTF,54.142282913239264
BMu106,68,C,INI,Gait_Normal,1,L_MTF,7.23076580246907
BMu106,68,C,INI,Gait_Normal,1,R_MTF,8.387479758047304
BMu106,68,C,INI,Gait_Normal,2,L_MTF,6.048384774508716
BMu106,68,C,INI,Gait_Normal,2,R_MTF,8.537364862018178
BMu106,68,C,INI,Gait_Normal,3,L_MTF,297.9095990271413
BMu106,68,C,INI,Gait_Normal,3,R_MTF,86.46998943324364
BMu106,68,C,INI,Gait_Normal,4,L_MTF,5.444615050335073
BMu106,68,C,INI,Gait_Normal,4,R_MTF,8.262191793724792
BMu106,68,C,INI,Gait_Normal,5,L_MTF,68.27536037415979
BMu106,68,C,INI,Gait_Normal,5,R_MTF,61.07574302061311
BMu106,68,C,INI,Gait_Normal,6,L_MTF,5.4083775258397955
BMu106,68,C,INI,Gait_Normal,6,R_MTF,5.813521583811199
BMu106,68,C,INI,Gait_Normal,7,L_MTF,100.35250804776835
BMu106,68,C,INI,Gait_Normal,7,R_MTF,96.66780199085512
BMu106,68,C,REL,Gait_Normal,1,L_MTF,8.62126193323115
BMu106,68,C,REL,Gait_Normal,1,R_MTF,9.180971464083777
BMu106,68,C,REL,Gait_Normal,2,L_MTF,81.72117789379699
BMu106,68,C,REL,Gait_Normal,2,R_MTF,112.33568686200852
BMu106,68,C,REL,Gait_Normal,3,L_MTF,5.607071978495241
BMu106,68,C,REL,Gait_Normal,3,R_MTF,7.948701708734892
BMu106,68,C,REL,Gait_Normal,4,L_MTF,79.11396704645577
BMu106,68,C,REL,Gait_Normal,4,R_MTF,111.77965612595293
BMu106,68,C,REL,Gait_Normal,5,L_MTF,5.5926527094896175
BMu106,68,C,REL,Gait_Normal,5,R_MTF,7.283424832346451
BMu106,68,C,REL,Gait_Normal,6,L_MTF,76.91526322112193
BMu106,68,C,REL,Gait_Normal,6,R_MTF,112.80447392175536
