BM,subject,P_C,session,task,repetition,channel,value
BMu23,1,C,INI,S2S_Unconstrained,1,L_ESI,0.0031870427005050214
BMu23,1,C,INI,S2S_Unconstrained,1,R_ESI,
BMu23,1,C,REL,S2S_Unconstrained,1,L_ESI,0.004694788906884445
BMu23,1,C,REL,S2S_Unconstrained,1,R_ESI,0.05540257778455948
BMu23,2,C,INI,S2S_Unconstrained,1,L_ESI,0.00439387545335507
BMu23,2,C,INI,S2S_Unconstrained,1,R_ESI,0.004678839718838853
BMu23,2,C,REL,S2S_Unconstrained,1,L_ESI,0.00337082557070138
BMu23,2,C,REL,S2S_Unconstrained,1,R_ESI,
BMu23,3,C,INI,S2S_Unconstrained,1,L_ESI,0.0029700062379271128
BMu23,3,C,INI,S2S_Unconstrained,1,R_ESI,0.0022602179108291293
BMu23,3,C,REL,S2S_Unconstrained,1,L_ESI,0.0041242946886438535
BMu23,3,C,REL,S2S_Unconstrained,1,R_ESI,0.0029846220920934936
BMu23,5,C,INI,S2S_Unconstrained,1,L_ESI,0.0043346102966614185
BMu23,5,C,INI,S2S_Unconstrained,1,R_ESI,0.10314832545076842
BMu23,5,C,REL,S2S_Unconstrained,1,L_ESI,0.0032575266804693802
BMu23,5,C,REL,S2S_Unconstrained,1,R_ESI,0.0033291658550563628
BMu23,6,C,INI,S2S_Unconstrained,1,L_ESI,0.0019580507392077447
BMu23,6,C,INI,S2S_Unconstrained,1,R_ESI,0.0014622638322628967
BMu23,6,C,REL,S2S_Unconstrained,1,L_ESI,0.0024667024356278913
BMu23,6,C,REL,S2S_Unconstrained,1,R_ESI,0.0021097646728343356
BMu23,7,C,INI,S2S_Unconstrained,1,L_ESI,0.003933338962675714
BMu23,7,C,INI,S2S_Unconstrained,1,R_ESI,0.0032666392236424917
BMu23,7,C,REL,S2S_Unconstrained,1,L_ESI,0.003049297982538729
BMu23,7,C,REL,S2S_Unconstrained,1,R_ESI,0.0033123715176560926
BMu23,8,C,INI,S2S_Unconstrained,1,L_ESI,0.0038797728693682346
BMu23,8,C,INI,S2S_Unconstrained,1,R_ESI,0.004001888786353247
BMu23,8,C,REL,S2S_Unconstrained,1,L_ESI,0.004840365282397588
BMu23,8,C,REL,S2S_Unconstrained,1,R_ESI,0.0032136083963325065
BMu23,9,P,INI,S2S_Unconstrained,1,L_ESI,0.0034285098995480785
BMu23,9,P,INI,S2S_Unconstrained,1,R_ESI,0.0024138877952017907
BMu23,9,P,REL,S2S_Unconstrained,1,L_ESI,0.0038188931893249315
BMu23,9,P,REL,S2S_Unconstrained,1,R_ESI,0.0025115691644468784
BMu23,10,P,INI,S2S_Unconstrained,1,L_ESI,0.007185980299184209
BMu23,10,P,INI,S2S_Unconstrained,1,R_ESI,0.004030231867171581
BMu23,10,P,REL,S2S_Unconstrained,1,L_ESI,0.003284573510498589
BMu23,10,P,REL,S2S_Unconstrained,1,R_ESI,0.06639720321720224
BMu23,11,P,INI,S2S_Unconstrained,1,L_ESI,0.0023401100789332764
BMu23,11,P,INI,S2S_Unconstrained,1,R_ESI,0.0024471980160921214
BMu23,11,P,REL,S2S_Unconstrained,1,L_ESI,0.003531031463935728
BMu23,11,P,REL,S2S_Unconstrained,1,R_ESI,0.002359232986913603
BMu23,12,P,INI,S2S_Unconstrained,1,L_ESI,
BMu23,12,P,INI,S2S_Unconstrained,1,R_ESI,
BMu23,12,P,REL,S2S_Unconstrained,1,L_ESI,
BMu23,12,P,REL,S2S_Unconstrained,1,R_ESI,0.0023255346443371958
BMu23,13,C,INI,S2S_Unconstrained,1,L_ESI,0.003716125073530593
BMu23,13,C,INI,S2S_Unconstrained,1,R_ESI,0.004715505776374064
BMu23,13,C,REL,S2S_Unconstrained,1,L_ESI,0.002723062104942763
BMu23,13,C,REL,S2S_Unconstrained,1,R_ESI,0.002632061075984659
BMu23,14,P,INI,S2S_Unconstrained,1,L_ESI,0.0033398864879047134
BMu23,14,P,INI,S2S_Unconstrained,1,R_ESI,0.010346637492412037
BMu23,14,P,REL,S2S_Unconstrained,1,L_ESI,0.0030868939724046224
BMu23,14,P,REL,S2S_Unconstrained,1,R_ESI,0.0020949504419661585
BMu23,16,C,INI,S2S_Unconstrained,1,L_ESI,0.002150383926930875
BMu23,16,C,INI,S2S_Unconstrained,1,R_ESI,0.004079290562275684
BMu23,16,C,REL,S2S_Unconstrained,1,L_ESI,0.005102760675722434
BMu23,16,C,REL,S2S_Unconstrained,1,R_ESI,0.0029436714229914163
BMu23,17,P,INI,S2S_Unconstrained,1,L_ESI,0.005350234659190163
BMu23,17,P,INI,S2S_Unconstrained,1,R_ESI,0.0731339670835252
BMu23,17,P,REL,S2S_Unconstrained,1,L_ESI,0.002958061274360253
BMu23,17,P,REL,S2S_Unconstrained,1,R_ESI,0.0030602083288131937
BMu23,21,C,INI,S2S_Unconstrained,1,L_ESI,0.002505795513506123
BMu23,21,C,INI,S2S_Unconstrained,1,R_ESI,0.0023016821810233515
BMu23,21,C,REL,S2S_Unconstrained,1,L_ESI,0.005487118800295773
BMu23,21,C,REL,S2S_Unconstrained,1,R_ESI,
BMu23,22,C,INI,S2S_Unconstrained,1,L_ESI,0.0032710707501301716
BMu23,22,C,INI,S2S_Unconstrained,1,R_ESI,0.002640430605442532
BMu23,22,C,REL,S2S_Unconstrained,1,L_ESI,0.002693974445350721
BMu23,22,C,REL,S2S_Unconstrained,1,R_ESI,
BMu23,23,C,INI,S2S_Unconstrained,1,L_ESI,0.0022759227932394933
BMu23,23,C,INI,S2S_Unconstrained,1,R_ESI,0.0032395915974046245
BMu23,23,C,REL,S2S_Unconstrained,1,L_ESI,0.004780328125675974
BMu23,23,C,REL,S2S_Unconstrained,1,R_ESI,0.0033627078677130693
BMu23,24,P,INI,S2S_Unconstrained,1,L_ESI,0.004674269116959752
BMu23,24,P,INI,S2S_Unconstrained,1,R_ESI,0.008020510579229034
BMu23,24,P,REL,S2S_Unconstrained,1,L_ESI,0.00313037163689378
BMu23,24,P,REL,S2S_Unconstrained,1,R_ESI,0.0025230411305447796
BMu23,25,C,INI,S2S_Unconstrained,1,L_ESI,0.007703004180664204
BMu23,25,C,INI,S2S_Unconstrained,1,R_ESI,0.0046902998238310305
BMu23,25,C,REL,S2S_Unconstrained,1,L_ESI,0.0068697539456596506
BMu23,25,C,REL,S2S_Unconstrained,1,R_ESI,0.0025163891194820522
BMu23,26,P,INI,S2S_Unconstrained,1,L_ESI,0.00928721110817966
BMu23,26,P,INI,S2S_Unconstrained,1,R_ESI,0.004409383948828561
BMu23,26,P,REL,S2S_Unconstrained,1,L_ESI,0.006461764644435636
BMu23,26,P,REL,S2S_Unconstrained,1,R_ESI,0.04605369159268055
BMu23,27,P,INI,S2S_Unconstrained,1,L_ESI,0.0038250609773281883
BMu23,27,P,INI,S2S_Unconstrained,1,R_ESI,0.0034215479277325076
BMu23,27,P,REL,S2S_Unconstrained,1,L_ESI,0.004333985341357529
BMu23,27,P,REL,S2S_Unconstrained,1,R_ESI,0.0032842663478133416
BMu23,28,P,INI,S2S_Unconstrained,1,L_ESI,0.0028687656457526897
BMu23,28,P,INI,S2S_Unconstrained,1,R_ESI,0.004382307922061789
BMu23,28,P,REL,S2S_Unconstrained,1,L_ESI,0.0039715088826162695
BMu23,28,P,REL,S2S_Unconstrained,1,R_ESI,0.0028274801307528407
BMu23,29,P,INI,S2S_Unconstrained,1,L_ESI,0.015585758692861808
BMu23,29,P,INI,S2S_Unconstrained,1,R_ESI,0.008213835644990699
BMu23,29,P,REL,S2S_Unconstrained,1,L_ESI,0.019977640126479426
BMu23,29,P,REL,S2S_Unconstrained,1,R_ESI,0.008969196285306964
BMu23,30,P,INI,S2S_Unconstrained,1,L_ESI,0.0022451114749918615
BMu23,30,P,INI,S2S_Unconstrained,1,R_ESI,0.0016788483152902255
BMu23,30,P,REL,S2S_Unconstrained,1,L_ESI,0.003343455762209735
BMu23,30,P,REL,S2S_Unconstrained,1,R_ESI,0.0022947659298421627
BMu23,32,P,INI,S2S_Unconstrained,1,L_ESI,0.0034545536094500564
BMu23,32,P,INI,S2S_Unconstrained,1,R_ESI,0.0021463385227368115
BMu23,32,P,REL,S2S_Unconstrained,1,L_ESI,0.0023604646796614496
BMu23,32,P,REL,S2S_Unconstrained,1,R_ESI,0.002424512664853298
BMu23,33,P,INI,S2S_Unconstrained,1,L_ESI,0.005414794364895552
BMu23,33,P,INI,S2S_Unconstrained,1,R_ESI,0.0017507501700872554
BMu23,33,P,REL,S2S_Unconstrained,1,L_ESI,0.004763832371629636
BMu23,33,P,REL,S2S_Unconstrained,1,R_ESI,0.049278713973748195
BMu23,34,P,INI,S2S_Unconstrained,1,L_ESI,0.00403642983956981
BMu23,34,P,INI,S2S_Unconstrained,1,R_ESI,0.0041676416061288855
BMu23,34,P,REL,S2S_Unconstrained,1,L_ESI,0.0031737008520685544
BMu23,34,P,REL,S2S_Unconstrained,1,R_ESI,0.13252788018920006
BMu23,35,C,INI,S2S_Unconstrained,1,L_ESI,
BMu23,35,C,INI,S2S_Unconstrained,1,R_ESI,
BMu23,35,C,REL,S2S_Unconstrained,1,L_ESI,
BMu23,35,C,REL,S2S_Unconstrained,1,R_ESI,0.00305532842769117
BMu23,36,P,INI,S2S_Unconstrained,1,L_ESI,0.006923566489075793
BMu23,36,P,INI,S2S_Unconstrained,1,R_ESI,0.003162521333366295
BMu23,36,P,REL,S2S_Unconstrained,1,L_ESI,0.0062371321330216825
BMu23,36,P,REL,S2S_Unconstrained,1,R_ESI,0.0024797743976807322
BMu23,38,C,INI,S2S_Unconstrained,1,L_ESI,0.004483969743706321
BMu23,38,C,INI,S2S_Unconstrained,1,R_ESI,0.0030630273724357032
BMu23,38,C,REL,S2S_Unconstrained,1,L_ESI,0.004372341333406522
BMu23,38,C,REL,S2S_Unconstrained,1,R_ESI,0.002694627861859587
BMu23,39,C,INI,S2S_Unconstrained,1,L_ESI,0.00454899749668732
BMu23,39,C,INI,S2S_Unconstrained,1,R_ESI,0.0027040799869878147
BMu23,39,C,REL,S2S_Unconstrained,1,L_ESI,0.0030400411106921606
BMu23,39,C,REL,S2S_Unconstrained,1,R_ESI,0.0024370933495748404
BMu23,40,C,INI,S2S_Unconstrained,1,L_ESI,0.010327455796896784
BMu23,40,C,INI,S2S_Unconstrained,1,R_ESI,
BMu23,40,C,REL,S2S_Unconstrained,1,L_ESI,0.009746370369911628
BMu23,40,C,REL,S2S_Unconstrained,1,R_ESI,0.002658348467974173
BMu23,41,P,INI,S2S_Unconstrained,1,L_ESI,0.004936168432474414
BMu23,41,P,INI,S2S_Unconstrained,1,R_ESI,0.005442901898499504
BMu23,41,P,REL,S2S_Unconstrained,1,L_ESI,0.00383149801953268
BMu23,41,P,REL,S2S_Unconstrained,1,R_ESI,0.0029914204554870663
BMu23,42,P,INI,S2S_Unconstrained,1,L_ESI,0.004558790891436671
BMu23,42,P,INI,S2S_Unconstrained,1,R_ESI,0.0071566249691437005
BMu23,42,P,REL,S2S_Unconstrained,1,L_ESI,0.004473314483223813
BMu23,42,P,REL,S2S_Unconstrained,1,R_ESI,0.007524951242332947
BMu23,43,P,INI,S2S_Unconstrained,1,L_ESI,0.002766545273409923
BMu23,43,P,INI,S2S_Unconstrained,1,R_ESI,0.003378322439939288
BMu23,43,P,REL,S2S_Unconstrained,1,L_ESI,0.005819025432902459
BMu23,43,P,REL,S2S_Unconstrained,1,R_ESI,0.003466622774150162
BMu23,44,C,INI,S2S_Unconstrained,1,L_ESI,0.008270261638504963
BMu23,44,C,INI,S2S_Unconstrained,1,R_ESI,0.004777672206029645
BMu23,44,C,REL,S2S_Unconstrained,1,L_ESI,0.002807361470704911
BMu23,44,C,REL,S2S_Unconstrained,1,R_ESI,0.005235269227134219
BMu23,45,P,INI,S2S_Unconstrained,1,L_ESI,
BMu23,45,P,INI,S2S_Unconstrained,1,R_ESI,
BMu23,45,P,REL,S2S_Unconstrained,1,L_ESI,0.002470217353667197
BMu23,45,P,REL,S2S_Unconstrained,1,R_ESI,0.002078489200667637
BMu23,46,C,INI,S2S_Unconstrained,1,L_ESI,0.0029170151005846797
BMu23,46,C,INI,S2S_Unconstrained,1,R_ESI,0.002040316414951678
BMu23,46,C,REL,S2S_Unconstrained,1,L_ESI,0.002217560938875422
BMu23,46,C,REL,S2S_Unconstrained,1,R_ESI,
BMu23,47,P,INI,S2S_Unconstrained,1,L_ESI,0.0034333893898177165
BMu23,47,P,INI,S2S_Unconstrained,1,R_ESI,0.007086276863862558
BMu23,47,P,REL,S2S_Unconstrained,1,L_ESI,0.004008202589023544
BMu23,47,P,REL,S2S_Unconstrained,1,R_ESI,0.004399314846870235
BMu23,48,C,INI,S2S_Unconstrained,1,L_ESI,0.005610069324231033
BMu23,48,C,INI,S2S_Unconstrained,1,R_ESI,0.004969347362085606
BMu23,48,C,REL,S2S_Unconstrained,1,L_ESI,0.004208242661808107
BMu23,48,C,REL,S2S_Unconstrained,1,R_ESI,0.004427262621093134
BMu23,49,C,INI,S2S_Unconstrained,1,L_ESI,0.0108850916731767
BMu23,49,C,INI,S2S_Unconstrained,1,R_ESI,0.005165661209614762
BMu23,49,C,REL,S2S_Unconstrained,1,L_ESI,0.004724608445675428
BMu23,49,C,REL,S2S_Unconstrained,1,R_ESI,0.004414068451718009
BMu23,50,P,INI,S2S_Unconstrained,1,L_ESI,0.008736093058111676
BMu23,50,P,INI,S2S_Unconstrained,1,R_ESI,0.0029323362356873986
BMu23,50,P,REL,S2S_Unconstrained,1,L_ESI,0.006288422772433001
BMu23,50,P,REL,S2S_Unconstrained,1,R_ESI,0.003234709032285617
BMu23,51,P,INI,S2S_Unconstrained,1,L_ESI,0.002713205394665713
BMu23,51,P,INI,S2S_Unconstrained,1,R_ESI,0.003525991150420318
BMu23,51,P,REL,S2S_Unconstrained,1,L_ESI,0.0022650016110984605
BMu23,51,P,REL,S2S_Unconstrained,1,R_ESI,0.012506680277165614
BMu23,52,C,INI,S2S_Unconstrained,1,L_ESI,0.004942652603744471
BMu23,52,C,INI,S2S_Unconstrained,1,R_ESI,0.0035873178782633527
BMu23,52,C,REL,S2S_Unconstrained,1,L_ESI,0.004864475831864864
BMu23,52,C,REL,S2S_Unconstrained,1,R_ESI,0.0033089457133438833
BMu23,53,P,INI,S2S_Unconstrained,1,L_ESI,0.006776145683731395
BMu23,53,P,INI,S2S_Unconstrained,1,R_ESI,0.017559026693551343
BMu23,53,P,REL,S2S_Unconstrained,1,L_ESI,0.0027803358707754154
BMu23,53,P,REL,S2S_Unconstrained,1,R_ESI,0.011763316650021324
BMu23,54,P,INI,S2S_Unconstrained,1,L_ESI,0.004148020246624638
BMu23,54,P,INI,S2S_Unconstrained,1,R_ESI,0.00420443241719091
BMu23,54,P,REL,S2S_Unconstrained,1,L_ESI,0.004862713405573185
BMu23,54,P,REL,S2S_Unconstrained,1,R_ESI,0.0042368293205094255
BMu23,55,C,INI,S2S_Unconstrained,1,L_ESI,0.0018549924946477028
BMu23,55,C,INI,S2S_Unconstrained,1,R_ESI,0.0029055068394011068
BMu23,55,C,REL,S2S_Unconstrained,1,L_ESI,0.0033182228550559085
BMu23,55,C,REL,S2S_Unconstrained,1,R_ESI,0.0027605874853495796
BMu23,56,C,INI,S2S_Unconstrained,1,L_ESI,0.003970085120991108
BMu23,56,C,INI,S2S_Unconstrained,1,R_ESI,0.0027104498325381163
BMu23,56,C,REL,S2S_Unconstrained,1,L_ESI,0.0034214234438129584
BMu23,56,C,REL,S2S_Unconstrained,1,R_ESI,0.0035014765887458037
BMu23,57,C,INI,S2S_Unconstrained,1,L_ESI,0.001780863226380259
BMu23,57,C,INI,S2S_Unconstrained,1,R_ESI,0.0015023800698927663
BMu23,57,C,REL,S2S_Unconstrained,1,L_ESI,0.002748219192972948
BMu23,57,C,REL,S2S_Unconstrained,1,R_ESI,0.0018551833140376854
BMu23,58,P,INI,S2S_Unconstrained,1,L_ESI,0.0021886937997107675
BMu23,58,P,INI,S2S_Unconstrained,1,R_ESI,0.003440022744737848
BMu23,58,P,REL,S2S_Unconstrained,1,L_ESI,0.0022990717621238707
BMu23,58,P,REL,S2S_Unconstrained,1,R_ESI,0.0032457520584745106
BMu23,60,C,INI,S2S_Unconstrained,1,L_ESI,0.004969884446250253
BMu23,60,C,INI,S2S_Unconstrained,1,R_ESI,0.004398776972096372
BMu23,60,C,REL,S2S_Unconstrained,1,L_ESI,0.003733027313845274
BMu23,60,C,REL,S2S_Unconstrained,1,R_ESI,0.002869300840009976
BMu23,61,P,INI,S2S_Unconstrained,1,L_ESI,0.0062336698307362435
BMu23,61,P,INI,S2S_Unconstrained,1,R_ESI,0.003103259072533891
BMu23,61,P,REL,S2S_Unconstrained,1,L_ESI,0.006254951194004201
BMu23,61,P,REL,S2S_Unconstrained,1,R_ESI,0.0019894061272891683
BMu23,62,P,INI,S2S_Unconstrained,1,L_ESI,0.004185886867416157
BMu23,62,P,INI,S2S_Unconstrained,1,R_ESI,0.002189050302187565
BMu23,62,P,REL,S2S_Unconstrained,1,L_ESI,0.00227139146204708
BMu23,62,P,REL,S2S_Unconstrained,1,R_ESI,0.002626503380300057
BMu23,63,P,INI,S2S_Unconstrained,1,L_ESI,0.007270391299889781
BMu23,63,P,INI,S2S_Unconstrained,1,R_ESI,0.005461815011724408
BMu23,63,P,REL,S2S_Unconstrained,1,L_ESI,0.002757915412008356
BMu23,63,P,REL,S2S_Unconstrained,1,R_ESI,0.0019103734193086346
BMu23,64,C,INI,S2S_Unconstrained,1,L_ESI,0.007773907555976937
BMu23,64,C,INI,S2S_Unconstrained,1,R_ESI,0.007042719470300275
BMu23,64,C,REL,S2S_Unconstrained,1,L_ESI,0.00648994395048767
BMu23,64,C,REL,S2S_Unconstrained,1,R_ESI,
BMu23,65,P,INI,S2S_Unconstrained,1,L_ESI,
BMu23,65,P,INI,S2S_Unconstrained,1,R_ESI,0.005903449189127818
BMu23,65,P,REL,S2S_Unconstrained,1,L_ESI,0.005662032871378508
BMu23,65,P,REL,S2S_Unconstrained,1,R_ESI,0.0058346719323190644
BMu23,66,C,INI,S2S_Unconstrained,1,L_ESI,0.0049791782521635365
BMu23,66,C,INI,S2S_Unconstrained,1,R_ESI,0.004178484827826733
BMu23,66,C,REL,S2S_Unconstrained,1,L_ESI,0.002752965494188087
BMu23,66,C,REL,S2S_Unconstrained,1,R_ESI,0.0028237224531052403
BMu23,67,C,INI,S2S_Unconstrained,1,L_ESI,0.00428276532627305
BMu23,67,C,INI,S2S_Unconstrained,1,R_ESI,
BMu23,67,C,REL,S2S_Unconstrained,1,L_ESI,0.003973596038262331
BMu23,67,C,REL,S2S_Unconstrained,1,R_ESI,0.003140126319666948
BMu23,68,C,INI,S2S_Unconstrained,1,L_ESI,
BMu23,68,C,INI,S2S_Unconstrained,1,R_ESI,
BMu23,68,C,REL,S2S_Unconstrained,1,L_ESI,0.005686556700184184
BMu23,68,C,REL,S2S_Unconstrained,1,R_ESI,
