BM,subject,P_C,session,task,repetition,channel,value
BMu22,1,C,INI,S2S_Unconstrained,1,L_LES,0.016458525794649348
BMu22,1,C,INI,S2S_Unconstrained,1,R_LES,0.01585535864451079
BMu22,1,C,REL,S2S_Unconstrained,1,L_LES,0.010665976641687622
BMu22,1,C,REL,S2S_Unconstrained,1,R_LES,0.01832756931778511
BMu22,2,C,INI,S2S_Unconstrained,1,L_LES,0.016489816188568526
BMu22,2,C,INI,S2S_Unconstrained,1,R_LES,0.023752092463554534
BMu22,2,C,REL,S2S_Unconstrained,1,L_LES,0.009571035954702536
BMu22,2,C,REL,S2S_Unconstrained,1,R_LES,0.008798388769394433
BMu22,3,C,INI,S2S_Unconstrained,1,L_LES,0.011997203991271318
BMu22,3,C,INI,S2S_Unconstrained,1,R_LES,0.010214041502749379
BMu22,3,C,REL,S2S_Unconstrained,1,L_LES,0.034900342287313146
BMu22,3,C,REL,S2S_Unconstrained,1,R_LES,0.013553023445400908
BMu22,5,C,INI,S2S_Unconstrained,1,L_LES,0.012700217376383147
BMu22,5,C,INI,S2S_Unconstrained,1,R_LES,0.00401369476230352
BMu22,5,C,REL,S2S_Unconstrained,1,L_LES,0.016524130294196027
BMu22,5,C,REL,S2S_Unconstrained,1,R_LES,0.005715083040114578
BMu22,6,C,INI,S2S_Unconstrained,1,L_LES,0.027900405583008034
BMu22,6,C,INI,S2S_Unconstrained,1,R_LES,0.0027438185911781558
BMu22,6,C,REL,S2S_Unconstrained,1,L_LES,0.003674175721251673
BMu22,6,C,REL,S2S_Unconstrained,1,R_LES,0.0027566526024207054
BMu22,7,C,INI,S2S_Unconstrained,1,L_LES,0.014948263677793625
BMu22,7,C,INI,S2S_Unconstrained,1,R_LES,0.012373094022871617
BMu22,7,C,REL,S2S_Unconstrained,1,L_LES,0.01903706518104538
BMu22,7,C,REL,S2S_Unconstrained,1,R_LES,0.013983709273492259
BMu22,8,C,INI,S2S_Unconstrained,1,L_LES,0.01292192918243448
BMu22,8,C,INI,S2S_Unconstrained,1,R_LES,0.009606509311751983
BMu22,8,C,REL,S2S_Unconstrained,1,L_LES,0.01597786165935209
BMu22,8,C,REL,S2S_Unconstrained,1,R_LES,0.008681739924361474
BMu22,9,P,INI,S2S_Unconstrained,1,L_LES,0.012039342439070002
BMu22,9,P,INI,S2S_Unconstrained,1,R_LES,0.009808203673180102
BMu22,9,P,REL,S2S_Unconstrained,1,L_LES,0.014403808829651426
BMu22,9,P,REL,S2S_Unconstrained,1,R_LES,0.012389263521874541
BMu22,10,P,INI,S2S_Unconstrained,1,L_LES,0.010390876016974715
BMu22,10,P,INI,S2S_Unconstrained,1,R_LES,0.0058758693088118465
BMu22,10,P,REL,S2S_Unconstrained,1,L_LES,0.006089189528592882
BMu22,10,P,REL,S2S_Unconstrained,1,R_LES,0.007904962794642145
BMu22,11,P,INI,S2S_Unconstrained,1,L_LES,0.009753801692618717
BMu22,11,P,INI,S2S_Unconstrained,1,R_LES,0.007817338919274058
BMu22,11,P,REL,S2S_Unconstrained,1,L_LES,0.008883724835413631
BMu22,11,P,REL,S2S_Unconstrained,1,R_LES,0.006874012845659387
BMu22,12,P,INI,S2S_Unconstrained,1,L_LES,0.00805443142903994
BMu22,12,P,INI,S2S_Unconstrained,1,R_LES,
BMu22,12,P,REL,S2S_Unconstrained,1,L_LES,0.03427665689836775
BMu22,12,P,REL,S2S_Unconstrained,1,R_LES,0.010418404307083925
BMu22,13,C,INI,S2S_Unconstrained,1,L_LES,0.014399664386155125
BMu22,13,C,INI,S2S_Unconstrained,1,R_LES,0.012299184489870829
BMu22,13,C,REL,S2S_Unconstrained,1,L_LES,0.013315320273708296
BMu22,13,C,REL,S2S_Unconstrained,1,R_LES,0.010769014530578503
BMu22,14,P,INI,S2S_Unconstrained,1,L_LES,
BMu22,14,P,INI,S2S_Unconstrained,1,R_LES,0.011345461651444134
BMu22,14,P,REL,S2S_Unconstrained,1,L_LES,0.09097259220234416
BMu22,14,P,REL,S2S_Unconstrained,1,R_LES,0.012541609487303484
BMu22,16,C,INI,S2S_Unconstrained,1,L_LES,0.0074626924828959445
BMu22,16,C,INI,S2S_Unconstrained,1,R_LES,0.005930555965885323
BMu22,16,C,REL,S2S_Unconstrained,1,L_LES,0.00652184782256031
BMu22,16,C,REL,S2S_Unconstrained,1,R_LES,0.005345057001151177
BMu22,17,P,INI,S2S_Unconstrained,1,L_LES,0.011499218932701684
BMu22,17,P,INI,S2S_Unconstrained,1,R_LES,0.011264658685574885
BMu22,17,P,REL,S2S_Unconstrained,1,L_LES,0.010958026241514977
BMu22,17,P,REL,S2S_Unconstrained,1,R_LES,0.01220294760751362
BMu22,21,C,INI,S2S_Unconstrained,1,L_LES,0.011031641778260368
BMu22,21,C,INI,S2S_Unconstrained,1,R_LES,0.011637901985819136
BMu22,21,C,REL,S2S_Unconstrained,1,L_LES,0.0313483922852829
BMu22,21,C,REL,S2S_Unconstrained,1,R_LES,0.010657457843031628
BMu22,22,C,INI,S2S_Unconstrained,1,L_LES,0.013803876233046422
BMu22,22,C,INI,S2S_Unconstrained,1,R_LES,0.013998197676996319
BMu22,22,C,REL,S2S_Unconstrained,1,L_LES,0.008636460679883986
BMu22,22,C,REL,S2S_Unconstrained,1,R_LES,0.011733405994808143
BMu22,23,C,INI,S2S_Unconstrained,1,L_LES,0.008595593711599523
BMu22,23,C,INI,S2S_Unconstrained,1,R_LES,0.008307167586591281
BMu22,23,C,REL,S2S_Unconstrained,1,L_LES,0.007940471481904144
BMu22,23,C,REL,S2S_Unconstrained,1,R_LES,0.0055881013186136405
BMu22,24,P,INI,S2S_Unconstrained,1,L_LES,0.011702159204232761
BMu22,24,P,INI,S2S_Unconstrained,1,R_LES,0.00870622294570614
BMu22,24,P,REL,S2S_Unconstrained,1,L_LES,0.009612295030949085
BMu22,24,P,REL,S2S_Unconstrained,1,R_LES,0.007277060760239751
BMu22,25,C,INI,S2S_Unconstrained,1,L_LES,0.02028214845960938
BMu22,25,C,INI,S2S_Unconstrained,1,R_LES,0.013791011145034629
BMu22,25,C,REL,S2S_Unconstrained,1,L_LES,
BMu22,25,C,REL,S2S_Unconstrained,1,R_LES,
BMu22,26,P,INI,S2S_Unconstrained,1,L_LES,0.015896315708111623
BMu22,26,P,INI,S2S_Unconstrained,1,R_LES,0.012739403281310588
BMu22,26,P,REL,S2S_Unconstrained,1,L_LES,0.01010536458782607
BMu22,26,P,REL,S2S_Unconstrained,1,R_LES,0.010412103654798732
BMu22,27,P,INI,S2S_Unconstrained,1,L_LES,0.018475249928007465
BMu22,27,P,INI,S2S_Unconstrained,1,R_LES,0.014192023785229704
BMu22,27,P,REL,S2S_Unconstrained,1,L_LES,0.017697205120822394
BMu22,27,P,REL,S2S_Unconstrained,1,R_LES,0.011521229146326285
BMu22,28,P,INI,S2S_Unconstrained,1,L_LES,0.006794341443734166
BMu22,28,P,INI,S2S_Unconstrained,1,R_LES,0.006853173380305638
BMu22,28,P,REL,S2S_Unconstrained,1,L_LES,0.008023745990023553
BMu22,28,P,REL,S2S_Unconstrained,1,R_LES,0.007719495569994139
BMu22,29,P,INI,S2S_Unconstrained,1,L_LES,0.02106897318816754
BMu22,29,P,INI,S2S_Unconstrained,1,R_LES,0.027828346640469414
BMu22,29,P,REL,S2S_Unconstrained,1,L_LES,0.018132517565942932
BMu22,29,P,REL,S2S_Unconstrained,1,R_LES,0.023526395664550215
BMu22,30,P,INI,S2S_Unconstrained,1,L_LES,0.00979076426054378
BMu22,30,P,INI,S2S_Unconstrained,1,R_LES,0.00437973754352733
BMu22,30,P,REL,S2S_Unconstrained,1,L_LES,0.00530408180028916
BMu22,30,P,REL,S2S_Unconstrained,1,R_LES,0.0034627150781341037
BMu22,32,P,INI,S2S_Unconstrained,1,L_LES,0.009593257916334048
BMu22,32,P,INI,S2S_Unconstrained,1,R_LES,0.0063384430930747
BMu22,32,P,REL,S2S_Unconstrained,1,L_LES,0.00910725722588139
BMu22,32,P,REL,S2S_Unconstrained,1,R_LES,0.009111863688042668
BMu22,33,P,INI,S2S_Unconstrained,1,L_LES,0.006608037388202576
BMu22,33,P,INI,S2S_Unconstrained,1,R_LES,0.005505066451224133
BMu22,33,P,REL,S2S_Unconstrained,1,L_LES,0.005815746791195472
BMu22,33,P,REL,S2S_Unconstrained,1,R_LES,0.006032930049654533
BMu22,34,P,INI,S2S_Unconstrained,1,L_LES,0.015172446239327175
BMu22,34,P,INI,S2S_Unconstrained,1,R_LES,0.012676164831272037
BMu22,34,P,REL,S2S_Unconstrained,1,L_LES,0.012010865787407695
BMu22,34,P,REL,S2S_Unconstrained,1,R_LES,0.013432873925703788
BMu22,35,C,INI,S2S_Unconstrained,1,L_LES,
BMu22,35,C,INI,S2S_Unconstrained,1,R_LES,
BMu22,35,C,REL,S2S_Unconstrained,1,L_LES,0.014246434647143992
BMu22,35,C,REL,S2S_Unconstrained,1,R_LES,0.013438701995216754
BMu22,36,P,INI,S2S_Unconstrained,1,L_LES,0.015052391548754589
BMu22,36,P,INI,S2S_Unconstrained,1,R_LES,0.019219471957226775
BMu22,36,P,REL,S2S_Unconstrained,1,L_LES,0.0160763426168655
BMu22,36,P,REL,S2S_Unconstrained,1,R_LES,0.03100431070089789
BMu22,38,C,INI,S2S_Unconstrained,1,L_LES,0.14781940384571984
BMu22,38,C,INI,S2S_Unconstrained,1,R_LES,0.0442497300229939
BMu22,38,C,REL,S2S_Unconstrained,1,L_LES,0.021119790172031416
BMu22,38,C,REL,S2S_Unconstrained,1,R_LES,0.011901818713139509
BMu22,39,C,INI,S2S_Unconstrained,1,L_LES,0.007267117076508959
BMu22,39,C,INI,S2S_Unconstrained,1,R_LES,0.005291206972862984
BMu22,39,C,REL,S2S_Unconstrained,1,L_LES,0.006221494220795776
BMu22,39,C,REL,S2S_Unconstrained,1,R_LES,0.007505599391222795
BMu22,40,C,INI,S2S_Unconstrained,1,L_LES,0.015684744657497376
BMu22,40,C,INI,S2S_Unconstrained,1,R_LES,0.020531991978807923
BMu22,40,C,REL,S2S_Unconstrained,1,L_LES,0.014401458089234055
BMu22,40,C,REL,S2S_Unconstrained,1,R_LES,0.020473031932152514
BMu22,41,P,INI,S2S_Unconstrained,1,L_LES,0.022425589233046207
BMu22,41,P,INI,S2S_Unconstrained,1,R_LES,0.027559626879929345
BMu22,41,P,REL,S2S_Unconstrained,1,L_LES,0.01939027010609219
BMu22,41,P,REL,S2S_Unconstrained,1,R_LES,0.020246235393134124
BMu22,42,P,INI,S2S_Unconstrained,1,L_LES,0.016892109635561304
BMu22,42,P,INI,S2S_Unconstrained,1,R_LES,0.01738281770609668
BMu22,42,P,REL,S2S_Unconstrained,1,L_LES,0.021386966236671717
BMu22,42,P,REL,S2S_Unconstrained,1,R_LES,0.02767198967987044
BMu22,43,P,INI,S2S_Unconstrained,1,L_LES,0.012120896268490973
BMu22,43,P,INI,S2S_Unconstrained,1,R_LES,0.012952644070839797
BMu22,43,P,REL,S2S_Unconstrained,1,L_LES,0.013477045419492016
BMu22,43,P,REL,S2S_Unconstrained,1,R_LES,0.013856557679056256
BMu22,44,C,INI,S2S_Unconstrained,1,L_LES,0.012802038534845834
BMu22,44,C,INI,S2S_Unconstrained,1,R_LES,0.02653311862194091
BMu22,44,C,REL,S2S_Unconstrained,1,L_LES,0.013129646582062823
BMu22,44,C,REL,S2S_Unconstrained,1,R_LES,0.02395641748536162
BMu22,45,P,INI,S2S_Unconstrained,1,L_LES,
BMu22,45,P,INI,S2S_Unconstrained,1,R_LES,
BMu22,45,P,REL,S2S_Unconstrained,1,L_LES,0.01054879688159689
BMu22,45,P,REL,S2S_Unconstrained,1,R_LES,
BMu22,46,C,INI,S2S_Unconstrained,1,L_LES,0.014800061992681059
BMu22,46,C,INI,S2S_Unconstrained,1,R_LES,0.015864482447985533
BMu22,46,C,REL,S2S_Unconstrained,1,L_LES,0.01475087625997356
BMu22,46,C,REL,S2S_Unconstrained,1,R_LES,0.009169041919192478
BMu22,47,P,INI,S2S_Unconstrained,1,L_LES,0.010223287472629945
BMu22,47,P,INI,S2S_Unconstrained,1,R_LES,0.011637124805341445
BMu22,47,P,REL,S2S_Unconstrained,1,L_LES,0.010557603676821903
BMu22,47,P,REL,S2S_Unconstrained,1,R_LES,0.009412672226195797
BMu22,48,C,INI,S2S_Unconstrained,1,L_LES,0.026666385455461437
BMu22,48,C,INI,S2S_Unconstrained,1,R_LES,0.01725392607558714
BMu22,48,C,REL,S2S_Unconstrained,1,L_LES,0.020935464329267614
BMu22,48,C,REL,S2S_Unconstrained,1,R_LES,0.015901383514246484
BMu22,49,C,INI,S2S_Unconstrained,1,L_LES,0.02580520496792715
BMu22,49,C,INI,S2S_Unconstrained,1,R_LES,0.026750947114204903
BMu22,49,C,REL,S2S_Unconstrained,1,L_LES,0.01537342320871219
BMu22,49,C,REL,S2S_Unconstrained,1,R_LES,0.015575323216262293
BMu22,50,P,INI,S2S_Unconstrained,1,L_LES,0.024540962189207403
BMu22,50,P,INI,S2S_Unconstrained,1,R_LES,0.016713954523625063
BMu22,50,P,REL,S2S_Unconstrained,1,L_LES,0.02990030297536432
BMu22,50,P,REL,S2S_Unconstrained,1,R_LES,0.01887332139893808
BMu22,51,P,INI,S2S_Unconstrained,1,L_LES,0.008879496581328375
BMu22,51,P,INI,S2S_Unconstrained,1,R_LES,0.005436881221890888
BMu22,51,P,REL,S2S_Unconstrained,1,L_LES,0.009154375960301492
BMu22,51,P,REL,S2S_Unconstrained,1,R_LES,0.0066612296356609165
BMu22,52,C,INI,S2S_Unconstrained,1,L_LES,0.011399830111914422
BMu22,52,C,INI,S2S_Unconstrained,1,R_LES,0.013288699114074454
BMu22,52,C,REL,S2S_Unconstrained,1,L_LES,0.012988280476474367
BMu22,52,C,REL,S2S_Unconstrained,1,R_LES,0.011479842859768321
BMu22,53,P,INI,S2S_Unconstrained,1,L_LES,0.009831026882575316
BMu22,53,P,INI,S2S_Unconstrained,1,R_LES,0.009985667820269334
BMu22,53,P,REL,S2S_Unconstrained,1,L_LES,0.01158578146785654
BMu22,53,P,REL,S2S_Unconstrained,1,R_LES,0.009389521775252234
BMu22,54,P,INI,S2S_Unconstrained,1,L_LES,0.025144069251235596
BMu22,54,P,INI,S2S_Unconstrained,1,R_LES,0.01947009197351075
BMu22,54,P,REL,S2S_Unconstrained,1,L_LES,0.016598731166342817
BMu22,54,P,REL,S2S_Unconstrained,1,R_LES,0.012913411330110236
BMu22,55,C,INI,S2S_Unconstrained,1,L_LES,0.009147573906188223
BMu22,55,C,INI,S2S_Unconstrained,1,R_LES,0.005386688655991751
BMu22,55,C,REL,S2S_Unconstrained,1,L_LES,0.01019498249156396
BMu22,55,C,REL,S2S_Unconstrained,1,R_LES,0.011573202569624541
BMu22,56,C,INI,S2S_Unconstrained,1,L_LES,0.011005344991385104
BMu22,56,C,INI,S2S_Unconstrained,1,R_LES,0.011431790373120294
BMu22,56,C,REL,S2S_Unconstrained,1,L_LES,0.010409548511095972
BMu22,56,C,REL,S2S_Unconstrained,1,R_LES,0.006913773833208017
BMu22,57,C,INI,S2S_Unconstrained,1,L_LES,0.03080510668984949
BMu22,57,C,INI,S2S_Unconstrained,1,R_LES,0.0036986125192865326
BMu22,57,C,REL,S2S_Unconstrained,1,L_LES,0.011853722101286027
BMu22,57,C,REL,S2S_Unconstrained,1,R_LES,0.004083849734207788
BMu22,58,P,INI,S2S_Unconstrained,1,L_LES,0.005063730323683409
BMu22,58,P,INI,S2S_Unconstrained,1,R_LES,0.005531961403567376
BMu22,58,P,REL,S2S_Unconstrained,1,L_LES,0.049120217000456656
BMu22,58,P,REL,S2S_Unconstrained,1,R_LES,0.006477840133335094
BMu22,60,C,INI,S2S_Unconstrained,1,L_LES,0.007544122164610809
BMu22,60,C,INI,S2S_Unconstrained,1,R_LES,0.005444200873132787
BMu22,60,C,REL,S2S_Unconstrained,1,L_LES,0.014774764799941146
BMu22,60,C,REL,S2S_Unconstrained,1,R_LES,0.00853101503157071
BMu22,61,P,INI,S2S_Unconstrained,1,L_LES,0.037036955677062215
BMu22,61,P,INI,S2S_Unconstrained,1,R_LES,0.012540580543688833
BMu22,61,P,REL,S2S_Unconstrained,1,L_LES,0.03708453580890844
BMu22,61,P,REL,S2S_Unconstrained,1,R_LES,0.014641354000417574
BMu22,62,P,INI,S2S_Unconstrained,1,L_LES,0.010264323937113287
BMu22,62,P,INI,S2S_Unconstrained,1,R_LES,0.00445575688504771
BMu22,62,P,REL,S2S_Unconstrained,1,L_LES,0.00996732877239436
BMu22,62,P,REL,S2S_Unconstrained,1,R_LES,0.007380015566168654
BMu22,63,P,INI,S2S_Unconstrained,1,L_LES,
BMu22,63,P,INI,S2S_Unconstrained,1,R_LES,
BMu22,63,P,REL,S2S_Unconstrained,1,L_LES,0.014891271165592468
BMu22,63,P,REL,S2S_Unconstrained,1,R_LES,0.009846164150084215
BMu22,64,C,INI,S2S_Unconstrained,1,L_LES,0.010764536241527766
BMu22,64,C,INI,S2S_Unconstrained,1,R_LES,0.01614283969215144
BMu22,64,C,REL,S2S_Unconstrained,1,L_LES,0.010427766411231687
BMu22,64,C,REL,S2S_Unconstrained,1,R_LES,0.017555657698264542
BMu22,65,P,INI,S2S_Unconstrained,1,L_LES,0.02285938705756782
BMu22,65,P,INI,S2S_Unconstrained,1,R_LES,0.01596119561098649
BMu22,65,P,REL,S2S_Unconstrained,1,L_LES,0.01890339227988212
BMu22,65,P,REL,S2S_Unconstrained,1,R_LES,0.016448924579691784
BMu22,66,C,INI,S2S_Unconstrained,1,L_LES,0.01714038532422703
BMu22,66,C,INI,S2S_Unconstrained,1,R_LES,0.010652954697209614
BMu22,66,C,REL,S2S_Unconstrained,1,L_LES,0.01318796671786124
BMu22,66,C,REL,S2S_Unconstrained,1,R_LES,0.010813782061977221
BMu22,67,C,INI,S2S_Unconstrained,1,L_LES,0.01612558818787067
BMu22,67,C,INI,S2S_Unconstrained,1,R_LES,0.030652521537012326
BMu22,67,C,REL,S2S_Unconstrained,1,L_LES,0.013750867433375733
BMu22,67,C,REL,S2S_Unconstrained,1,R_LES,0.009963376600834581
BMu22,68,C,INI,S2S_Unconstrained,1,L_LES,
BMu22,68,C,INI,S2S_Unconstrained,1,R_LES,
BMu22,68,C,REL,S2S_Unconstrained,1,L_LES,0.0182338603432529
BMu22,68,C,REL,S2S_Unconstrained,1,R_LES,0.01975005312148756
