BM,subject,P_C,session,task,repetition,channel,value
BMu22,1,C,INI,S2S_Unconstrained,1,L_LES,0.016641642810266147
BMu22,1,C,INI,S2S_Unconstrained,1,R_LES,0.015248676872604344
BMu22,1,C,REL,S2S_Unconstrained,1,L_LES,0.010789587162352588
BMu22,1,C,REL,S2S_Unconstrained,1,R_LES,0.01727664166891188
BMu22,2,C,INI,S2S_Unconstrained,1,L_LES,0.017377121135957938
BMu22,2,C,INI,S2S_Unconstrained,1,R_LES,0.025868316866917762
BMu22,2,C,REL,S2S_Unconstrained,1,L_LES,0.009232450392177025
BMu22,2,C,REL,S2S_Unconstrained,1,R_LES,0.007077462145157085
BMu22,3,C,INI,S2S_Unconstrained,1,L_LES,0.011072730791054588
BMu22,3,C,INI,S2S_Unconstrained,1,R_LES,0.010333588826648608
BMu22,3,C,REL,S2S_Unconstrained,1,L_LES,0.03522841463819022
BMu22,3,C,REL,S2S_Unconstrained,1,R_LES,0.012809305084994779
BMu22,5,C,INI,S2S_Unconstrained,1,L_LES,0.013257664683439502
BMu22,5,C,INI,S2S_Unconstrained,1,R_LES,0.004084755914326545
BMu22,5,C,REL,S2S_Unconstrained,1,L_LES,0.017585843613307867
BMu22,5,C,REL,S2S_Unconstrained,1,R_LES,0.005368924482407805
BMu22,6,C,INI,S2S_Unconstrained,1,L_LES,0.033439680667064875
BMu22,6,C,INI,S2S_Unconstrained,1,R_LES,0.0027093350811914804
BMu22,6,C,REL,S2S_Unconstrained,1,L_LES,0.0029771275785571015
BMu22,6,C,REL,S2S_Unconstrained,1,R_LES,0.0025683301399157285
BMu22,7,C,INI,S2S_Unconstrained,1,L_LES,0.015186719201184196
BMu22,7,C,INI,S2S_Unconstrained,1,R_LES,0.013534096162082112
BMu22,7,C,REL,S2S_Unconstrained,1,L_LES,0.016927538711782594
BMu22,7,C,REL,S2S_Unconstrained,1,R_LES,0.014164271532089073
BMu22,8,C,INI,S2S_Unconstrained,1,L_LES,0.012940550982474534
BMu22,8,C,INI,S2S_Unconstrained,1,R_LES,0.009427037084080455
BMu22,8,C,REL,S2S_Unconstrained,1,L_LES,0.017468583191774984
BMu22,8,C,REL,S2S_Unconstrained,1,R_LES,0.009467075745782472
BMu22,9,P,INI,S2S_Unconstrained,1,L_LES,0.009399023332703933
BMu22,9,P,INI,S2S_Unconstrained,1,R_LES,0.009124170779738403
BMu22,9,P,REL,S2S_Unconstrained,1,L_LES,0.014278327166759372
BMu22,9,P,REL,S2S_Unconstrained,1,R_LES,0.011874270532168031
BMu22,10,P,INI,S2S_Unconstrained,1,L_LES,0.00964945513544612
BMu22,10,P,INI,S2S_Unconstrained,1,R_LES,0.005300453032116926
BMu22,10,P,REL,S2S_Unconstrained,1,L_LES,0.005594617890429558
BMu22,10,P,REL,S2S_Unconstrained,1,R_LES,0.0060364194522544495
BMu22,11,P,INI,S2S_Unconstrained,1,L_LES,0.008778698709897214
BMu22,11,P,INI,S2S_Unconstrained,1,R_LES,0.0058887056426207215
BMu22,11,P,REL,S2S_Unconstrained,1,L_LES,0.009206567758357046
BMu22,11,P,REL,S2S_Unconstrained,1,R_LES,0.006501039264161892
BMu22,12,P,INI,S2S_Unconstrained,1,L_LES,
BMu22,12,P,INI,S2S_Unconstrained,1,R_LES,
BMu22,12,P,REL,S2S_Unconstrained,1,L_LES,0.04115640473105601
BMu22,12,P,REL,S2S_Unconstrained,1,R_LES,0.010987006795293264
BMu22,13,C,INI,S2S_Unconstrained,1,L_LES,0.01307370946320394
BMu22,13,C,INI,S2S_Unconstrained,1,R_LES,0.012648754959995035
BMu22,13,C,REL,S2S_Unconstrained,1,L_LES,0.012095491029004486
BMu22,13,C,REL,S2S_Unconstrained,1,R_LES,0.010820140101594329
BMu22,14,P,INI,S2S_Unconstrained,1,L_LES,
BMu22,14,P,INI,S2S_Unconstrained,1,R_LES,0.011809948972080181
BMu22,14,P,REL,S2S_Unconstrained,1,L_LES,0.09829934649174112
BMu22,14,P,REL,S2S_Unconstrained,1,R_LES,0.010552962036807735
BMu22,16,C,INI,S2S_Unconstrained,1,L_LES,0.007546616726508415
BMu22,16,C,INI,S2S_Unconstrained,1,R_LES,0.006170560435785649
BMu22,16,C,REL,S2S_Unconstrained,1,L_LES,0.006615326438376832
BMu22,16,C,REL,S2S_Unconstrained,1,R_LES,0.005375751460592951
BMu22,17,P,INI,S2S_Unconstrained,1,L_LES,0.011996794047155574
BMu22,17,P,INI,S2S_Unconstrained,1,R_LES,0.011066592160089333
BMu22,17,P,REL,S2S_Unconstrained,1,L_LES,0.010992555683111622
BMu22,17,P,REL,S2S_Unconstrained,1,R_LES,
BMu22,21,C,INI,S2S_Unconstrained,1,L_LES,0.011662969941719137
BMu22,21,C,INI,S2S_Unconstrained,1,R_LES,0.011909108698875244
BMu22,21,C,REL,S2S_Unconstrained,1,L_LES,0.03567699469630494
BMu22,21,C,REL,S2S_Unconstrained,1,R_LES,0.010840807105581213
BMu22,22,C,INI,S2S_Unconstrained,1,L_LES,0.013549375569745501
BMu22,22,C,INI,S2S_Unconstrained,1,R_LES,0.012962767614258327
BMu22,22,C,REL,S2S_Unconstrained,1,L_LES,0.00864124525361646
BMu22,22,C,REL,S2S_Unconstrained,1,R_LES,0.010139211225510565
BMu22,23,C,INI,S2S_Unconstrained,1,L_LES,0.008075397923478667
BMu22,23,C,INI,S2S_Unconstrained,1,R_LES,0.009105348213213071
BMu22,23,C,REL,S2S_Unconstrained,1,L_LES,0.005648172252791202
BMu22,23,C,REL,S2S_Unconstrained,1,R_LES,0.004724382245915465
BMu22,24,P,INI,S2S_Unconstrained,1,L_LES,0.011055049911833365
BMu22,24,P,INI,S2S_Unconstrained,1,R_LES,0.007951382445412351
BMu22,24,P,REL,S2S_Unconstrained,1,L_LES,0.010359850882634358
BMu22,24,P,REL,S2S_Unconstrained,1,R_LES,0.007214307817935152
BMu22,25,C,INI,S2S_Unconstrained,1,L_LES,0.021222880977293357
BMu22,25,C,INI,S2S_Unconstrained,1,R_LES,0.013844895970558602
BMu22,25,C,REL,S2S_Unconstrained,1,L_LES,
BMu22,25,C,REL,S2S_Unconstrained,1,R_LES,
BMu22,26,P,INI,S2S_Unconstrained,1,L_LES,0.01453939817518495
BMu22,26,P,INI,S2S_Unconstrained,1,R_LES,0.011668345341607036
BMu22,26,P,REL,S2S_Unconstrained,1,L_LES,0.009458142324609621
BMu22,26,P,REL,S2S_Unconstrained,1,R_LES,0.01064772841489453
BMu22,27,P,INI,S2S_Unconstrained,1,L_LES,0.018302739123022185
BMu22,27,P,INI,S2S_Unconstrained,1,R_LES,0.012987063384917119
BMu22,27,P,REL,S2S_Unconstrained,1,L_LES,0.01798084280267602
BMu22,27,P,REL,S2S_Unconstrained,1,R_LES,0.011932924633777332
BMu22,28,P,INI,S2S_Unconstrained,1,L_LES,0.006954352423206414
BMu22,28,P,INI,S2S_Unconstrained,1,R_LES,0.006164317760519298
BMu22,28,P,REL,S2S_Unconstrained,1,L_LES,0.008321785670130321
BMu22,28,P,REL,S2S_Unconstrained,1,R_LES,0.007029837741767196
BMu22,29,P,INI,S2S_Unconstrained,1,L_LES,0.020329575988545106
BMu22,29,P,INI,S2S_Unconstrained,1,R_LES,0.026193462249145327
BMu22,29,P,REL,S2S_Unconstrained,1,L_LES,0.018107275449144856
BMu22,29,P,REL,S2S_Unconstrained,1,R_LES,0.022481091580364678
BMu22,30,P,INI,S2S_Unconstrained,1,L_LES,0.009030012258939962
BMu22,30,P,INI,S2S_Unconstrained,1,R_LES,0.004348946359972401
BMu22,30,P,REL,S2S_Unconstrained,1,L_LES,0.00501616128592904
BMu22,30,P,REL,S2S_Unconstrained,1,R_LES,0.0034555624090486445
BMu22,32,P,INI,S2S_Unconstrained,1,L_LES,0.009097815632086767
BMu22,32,P,INI,S2S_Unconstrained,1,R_LES,0.006236670327931213
BMu22,32,P,REL,S2S_Unconstrained,1,L_LES,0.009254170446278276
BMu22,32,P,REL,S2S_Unconstrained,1,R_LES,0.00958139821142954
BMu22,33,P,INI,S2S_Unconstrained,1,L_LES,0.006646333888799829
BMu22,33,P,INI,S2S_Unconstrained,1,R_LES,0.005559684388170145
BMu22,33,P,REL,S2S_Unconstrained,1,L_LES,0.005878859831203206
BMu22,33,P,REL,S2S_Unconstrained,1,R_LES,0.0068848522946786265
BMu22,34,P,INI,S2S_Unconstrained,1,L_LES,0.014828449210625132
BMu22,34,P,INI,S2S_Unconstrained,1,R_LES,0.012449528531968828
BMu22,34,P,REL,S2S_Unconstrained,1,L_LES,0.012041056949244996
BMu22,34,P,REL,S2S_Unconstrained,1,R_LES,0.01203292355116275
BMu22,35,C,INI,S2S_Unconstrained,1,L_LES,
BMu22,35,C,INI,S2S_Unconstrained,1,R_LES,
BMu22,35,C,REL,S2S_Unconstrained,1,L_LES,0.013290714362216231
BMu22,35,C,REL,S2S_Unconstrained,1,R_LES,0.012866146802812208
BMu22,36,P,INI,S2S_Unconstrained,1,L_LES,0.014965744287472585
BMu22,36,P,INI,S2S_Unconstrained,1,R_LES,0.019311651883532812
BMu22,36,P,REL,S2S_Unconstrained,1,L_LES,0.01540745080113383
BMu22,36,P,REL,S2S_Unconstrained,1,R_LES,0.03335148275643263
BMu22,38,C,INI,S2S_Unconstrained,1,L_LES,0.1563257903943953
BMu22,38,C,INI,S2S_Unconstrained,1,R_LES,0.044133965593370406
BMu22,38,C,REL,S2S_Unconstrained,1,L_LES,0.019469400656471698
BMu22,38,C,REL,S2S_Unconstrained,1,R_LES,0.01287693171737108
BMu22,39,C,INI,S2S_Unconstrained,1,L_LES,0.00694163305324778
BMu22,39,C,INI,S2S_Unconstrained,1,R_LES,0.0052589897902520985
BMu22,39,C,REL,S2S_Unconstrained,1,L_LES,0.0061601567307374705
BMu22,39,C,REL,S2S_Unconstrained,1,R_LES,0.007947244244079305
BMu22,40,C,INI,S2S_Unconstrained,1,L_LES,0.014486126346699636
BMu22,40,C,INI,S2S_Unconstrained,1,R_LES,0.01956112695388617
BMu22,40,C,REL,S2S_Unconstrained,1,L_LES,0.01307010256724981
BMu22,40,C,REL,S2S_Unconstrained,1,R_LES,0.022258564463434372
BMu22,41,P,INI,S2S_Unconstrained,1,L_LES,0.021078885368913922
BMu22,41,P,INI,S2S_Unconstrained,1,R_LES,0.027099896460253164
BMu22,41,P,REL,S2S_Unconstrained,1,L_LES,0.019430473915365128
BMu22,41,P,REL,S2S_Unconstrained,1,R_LES,0.020254667923972004
BMu22,42,P,INI,S2S_Unconstrained,1,L_LES,0.015480720206359848
BMu22,42,P,INI,S2S_Unconstrained,1,R_LES,0.01769758461012145
BMu22,42,P,REL,S2S_Unconstrained,1,L_LES,0.019194964527917382
BMu22,42,P,REL,S2S_Unconstrained,1,R_LES,0.026080522575810988
BMu22,43,P,INI,S2S_Unconstrained,1,L_LES,0.010201971132980818
BMu22,43,P,INI,S2S_Unconstrained,1,R_LES,0.008936797469055463
BMu22,43,P,REL,S2S_Unconstrained,1,L_LES,0.012809903027059628
BMu22,43,P,REL,S2S_Unconstrained,1,R_LES,0.01191601924215867
BMu22,44,C,INI,S2S_Unconstrained,1,L_LES,
BMu22,44,C,INI,S2S_Unconstrained,1,R_LES,0.02737542528490243
BMu22,44,C,REL,S2S_Unconstrained,1,L_LES,0.011277208366642017
BMu22,44,C,REL,S2S_Unconstrained,1,R_LES,0.026225419254271767
BMu22,45,P,INI,S2S_Unconstrained,1,L_LES,
BMu22,45,P,INI,S2S_Unconstrained,1,R_LES,
BMu22,45,P,REL,S2S_Unconstrained,1,L_LES,0.008600590382562903
BMu22,45,P,REL,S2S_Unconstrained,1,R_LES,
BMu22,46,C,INI,S2S_Unconstrained,1,L_LES,0.015483972526838497
BMu22,46,C,INI,S2S_Unconstrained,1,R_LES,0.016184953622563152
BMu22,46,C,REL,S2S_Unconstrained,1,L_LES,0.013066106986198691
BMu22,46,C,REL,S2S_Unconstrained,1,R_LES,0.009663351360036794
BMu22,47,P,INI,S2S_Unconstrained,1,L_LES,0.009563628614024369
BMu22,47,P,INI,S2S_Unconstrained,1,R_LES,0.010407482293866075
BMu22,47,P,REL,S2S_Unconstrained,1,L_LES,0.010025069251272776
BMu22,47,P,REL,S2S_Unconstrained,1,R_LES,0.009665686608380927
BMu22,48,C,INI,S2S_Unconstrained,1,L_LES,0.02351685441431251
BMu22,48,C,INI,S2S_Unconstrained,1,R_LES,0.016547154722743138
BMu22,48,C,REL,S2S_Unconstrained,1,L_LES,0.02191145322948215
BMu22,48,C,REL,S2S_Unconstrained,1,R_LES,0.01585235995607929
BMu22,49,C,INI,S2S_Unconstrained,1,L_LES,0.025984916005313236
BMu22,49,C,INI,S2S_Unconstrained,1,R_LES,0.026377401130296307
BMu22,49,C,REL,S2S_Unconstrained,1,L_LES,0.015405546166405985
BMu22,49,C,REL,S2S_Unconstrained,1,R_LES,0.015680360129694797
BMu22,50,P,INI,S2S_Unconstrained,1,L_LES,0.024581681924768266
BMu22,50,P,INI,S2S_Unconstrained,1,R_LES,0.015549631692329924
BMu22,50,P,REL,S2S_Unconstrained,1,L_LES,0.026548533980413142
BMu22,50,P,REL,S2S_Unconstrained,1,R_LES,0.018815723525108553
BMu22,51,P,INI,S2S_Unconstrained,1,L_LES,0.008218676539513753
BMu22,51,P,INI,S2S_Unconstrained,1,R_LES,0.005240648044116079
BMu22,51,P,REL,S2S_Unconstrained,1,L_LES,0.009291679073330384
BMu22,51,P,REL,S2S_Unconstrained,1,R_LES,0.0066592084879990325
BMu22,52,C,INI,S2S_Unconstrained,1,L_LES,0.011637528031412075
BMu22,52,C,INI,S2S_Unconstrained,1,R_LES,0.010879731085785839
BMu22,52,C,REL,S2S_Unconstrained,1,L_LES,0.010725297913139378
BMu22,52,C,REL,S2S_Unconstrained,1,R_LES,0.010534150785455087
BMu22,53,P,INI,S2S_Unconstrained,1,L_LES,0.009802688282572863
BMu22,53,P,INI,S2S_Unconstrained,1,R_LES,0.009489641928542607
BMu22,53,P,REL,S2S_Unconstrained,1,L_LES,0.01215009384136174
BMu22,53,P,REL,S2S_Unconstrained,1,R_LES,0.010328699352712625
BMu22,54,P,INI,S2S_Unconstrained,1,L_LES,0.025164652376487014
BMu22,54,P,INI,S2S_Unconstrained,1,R_LES,0.018684099513857237
BMu22,54,P,REL,S2S_Unconstrained,1,L_LES,0.016509968701470274
BMu22,54,P,REL,S2S_Unconstrained,1,R_LES,0.012851706401383311
BMu22,55,C,INI,S2S_Unconstrained,1,L_LES,0.009403928634339954
BMu22,55,C,INI,S2S_Unconstrained,1,R_LES,0.005458092213755659
BMu22,55,C,REL,S2S_Unconstrained,1,L_LES,0.010431945024162304
BMu22,55,C,REL,S2S_Unconstrained,1,R_LES,0.011259451899422785
BMu22,56,C,INI,S2S_Unconstrained,1,L_LES,0.01105321550822655
BMu22,56,C,INI,S2S_Unconstrained,1,R_LES,0.010994527718369217
BMu22,56,C,REL,S2S_Unconstrained,1,L_LES,0.010434843277958098
BMu22,56,C,REL,S2S_Unconstrained,1,R_LES,0.006943409860641137
BMu22,57,C,INI,S2S_Unconstrained,1,L_LES,0.03654627089635733
BMu22,57,C,INI,S2S_Unconstrained,1,R_LES,0.003619857409998986
BMu22,57,C,REL,S2S_Unconstrained,1,L_LES,0.013083387940541175
BMu22,57,C,REL,S2S_Unconstrained,1,R_LES,0.004216775774805075
BMu22,58,P,INI,S2S_Unconstrained,1,L_LES,0.004439321250826825
BMu22,58,P,INI,S2S_Unconstrained,1,R_LES,0.004709890394514322
BMu22,58,P,REL,S2S_Unconstrained,1,L_LES,0.05446811517934114
BMu22,58,P,REL,S2S_Unconstrained,1,R_LES,0.006625149693037589
BMu22,60,C,INI,S2S_Unconstrained,1,L_LES,0.007512689331545208
BMu22,60,C,INI,S2S_Unconstrained,1,R_LES,0.005500284473433166
BMu22,60,C,REL,S2S_Unconstrained,1,L_LES,0.015655929469981088
BMu22,60,C,REL,S2S_Unconstrained,1,R_LES,0.00747916894295414
BMu22,61,P,INI,S2S_Unconstrained,1,L_LES,0.035609764682569614
BMu22,61,P,INI,S2S_Unconstrained,1,R_LES,0.012570649233487616
BMu22,61,P,REL,S2S_Unconstrained,1,L_LES,0.037531845591483606
BMu22,61,P,REL,S2S_Unconstrained,1,R_LES,0.014390906634573972
BMu22,62,P,INI,S2S_Unconstrained,1,L_LES,0.010098691613923275
BMu22,62,P,INI,S2S_Unconstrained,1,R_LES,0.004539163669759943
BMu22,62,P,REL,S2S_Unconstrained,1,L_LES,0.008287617089646709
BMu22,62,P,REL,S2S_Unconstrained,1,R_LES,0.006768489362798094
BMu22,63,P,INI,S2S_Unconstrained,1,L_LES,
BMu22,63,P,INI,S2S_Unconstrained,1,R_LES,
BMu22,63,P,REL,S2S_Unconstrained,1,L_LES,0.01468648742802047
BMu22,63,P,REL,S2S_Unconstrained,1,R_LES,0.009539808075848139
BMu22,64,C,INI,S2S_Unconstrained,1,L_LES,0.010627634592435
BMu22,64,C,INI,S2S_Unconstrained,1,R_LES,0.0163308670273619
BMu22,64,C,REL,S2S_Unconstrained,1,L_LES,0.01043539480274164
BMu22,64,C,REL,S2S_Unconstrained,1,R_LES,0.017179581292449817
BMu22,65,P,INI,S2S_Unconstrained,1,L_LES,0.022579305080459588
BMu22,65,P,INI,S2S_Unconstrained,1,R_LES,0.01581325142806923
BMu22,65,P,REL,S2S_Unconstrained,1,L_LES,0.018857991883564743
BMu22,65,P,REL,S2S_Unconstrained,1,R_LES,0.016421065993384443
BMu22,66,C,INI,S2S_Unconstrained,1,L_LES,0.017422779055528675
BMu22,66,C,INI,S2S_Unconstrained,1,R_LES,0.01054701003427399
BMu22,66,C,REL,S2S_Unconstrained,1,L_LES,0.013378842141808109
BMu22,66,C,REL,S2S_Unconstrained,1,R_LES,0.010683393815297962
BMu22,67,C,INI,S2S_Unconstrained,1,L_LES,0.014585318390603457
BMu22,67,C,INI,S2S_Unconstrained,1,R_LES,0.0286114493219507
BMu22,67,C,REL,S2S_Unconstrained,1,L_LES,0.012548456102194953
BMu22,67,C,REL,S2S_Unconstrained,1,R_LES,0.010140855302787945
BMu22,68,C,INI,S2S_Unconstrained,1,L_LES,
BMu22,68,C,INI,S2S_Unconstrained,1,R_LES,
BMu22,68,C,REL,S2S_Unconstrained,1,L_LES,0.014052843720121652
BMu22,68,C,REL,S2S_Unconstrained,1,R_LES,0.02048506770565137
