BM,subject,P_C,session,task,repetition,channel,value
BMu36,1,C,INI,Trunk_Forward,1,L_MTF,10.077200921568208
BMu36,1,C,INI,Trunk_Forward,1,R_MTF,18.77328990592895
BMu36,1,C,REL,Trunk_Forward,1,L_MTF,16.14809060911981
BMu36,1,C,REL,Trunk_Forward,1,R_MTF,19.081684186500468
BMu36,2,C,INI,Trunk_Forward,1,L_MTF,6.120170678263151
BMu36,2,C,INI,Trunk_Forward,1,R_MTF,8.498742039228379
BMu36,2,C,REL,Trunk_Forward,1,L_MTF,8.204872380022154
BMu36,2,C,REL,Trunk_Forward,1,R_MTF,8.644874600816943
BMu36,3,C,INI,Trunk_Forward,1,L_MTF,16.902309661349836
BMu36,3,C,INI,Trunk_Forward,1,R_MTF,21.559501443482556
BMu36,3,C,REL,Trunk_Forward,1,L_MTF,29.18942536686028
BMu36,3,C,REL,Trunk_Forward,1,R_MTF,28.070891686635136
BMu36,5,C,INI,Trunk_Forward,1,L_MTF,4.606866065889523
BMu36,5,C,INI,Trunk_Forward,1,R_MTF,9.047573761207774
BMu36,5,C,REL,Trunk_Forward,1,L_MTF,22.035017553312706
BMu36,5,C,REL,Trunk_Forward,1,R_MTF,27.74738956404544
BMu36,6,C,INI,Trunk_Forward,1,L_MTF,68.15032243830314
BMu36,6,C,INI,Trunk_Forward,1,R_MTF,85.74070599926827
BMu36,6,C,REL,Trunk_Forward,1,L_MTF,72.14043175521681
BMu36,6,C,REL,Trunk_Forward,1,R_MTF,79.268527971552
BMu36,7,C,INI,Trunk_Forward,1,L_MTF,78.08226370604127
BMu36,7,C,INI,Trunk_Forward,1,R_MTF,87.35755235174811
BMu36,7,C,REL,Trunk_Forward,1,L_MTF,30.03580733627287
BMu36,7,C,REL,Trunk_Forward,1,R_MTF,10.420284149653764
BMu36,8,C,INI,Trunk_Forward,1,L_MTF,18.57503769219024
BMu36,8,C,INI,Trunk_Forward,1,R_MTF,16.605731896662007
BMu36,8,C,REL,Trunk_Forward,1,L_MTF,14.394556954202413
BMu36,8,C,REL,Trunk_Forward,1,R_MTF,9.79629002624156
BMu36,9,P,INI,Trunk_Forward,1,L_MTF,101.16424077376507
BMu36,9,P,INI,Trunk_Forward,1,R_MTF,89.40477521512268
BMu36,9,P,REL,Trunk_Forward,1,L_MTF,69.34116860277267
BMu36,9,P,REL,Trunk_Forward,1,R_MTF,118.55572958747877
BMu36,10,P,INI,Trunk_Forward,1,L_MTF,20.97007671497449
BMu36,10,P,INI,Trunk_Forward,1,R_MTF,38.61431029607662
BMu36,10,P,REL,Trunk_Forward,1,L_MTF,36.24204148300116
BMu36,10,P,REL,Trunk_Forward,1,R_MTF,48.94872251364365
BMu36,11,P,INI,Trunk_Forward,1,L_MTF,45.21433009029454
BMu36,11,P,INI,Trunk_Forward,1,R_MTF,39.04637661764588
BMu36,11,P,REL,Trunk_Forward,1,L_MTF,47.51611295732206
BMu36,11,P,REL,Trunk_Forward,1,R_MTF,35.52877261081
BMu36,12,P,INI,Trunk_Forward,1,L_MTF,84.86895271923576
BMu36,12,P,INI,Trunk_Forward,1,R_MTF,90.80606899064145
BMu36,12,P,REL,Trunk_Forward,1,L_MTF,79.90829474123424
BMu36,12,P,REL,Trunk_Forward,1,R_MTF,289.0624613357523
BMu36,13,C,INI,Trunk_Forward,1,L_MTF,47.24294990265697
BMu36,13,C,INI,Trunk_Forward,1,R_MTF,49.80979700918079
BMu36,13,C,REL,Trunk_Forward,1,L_MTF,67.99328540098011
BMu36,13,C,REL,Trunk_Forward,1,R_MTF,68.79469868223099
BMu36,14,P,INI,Trunk_Forward,1,L_MTF,80.2269801990263
BMu36,14,P,INI,Trunk_Forward,1,R_MTF,77.86386869732776
BMu36,14,P,REL,Trunk_Forward,1,L_MTF,107.27629496874985
BMu36,14,P,REL,Trunk_Forward,1,R_MTF,102.76688843546094
BMu36,16,C,INI,Trunk_Forward,1,L_MTF,18.58285062730771
BMu36,16,C,INI,Trunk_Forward,1,R_MTF,43.026191868177875
BMu36,16,C,REL,Trunk_Forward,1,L_MTF,27.55919244619405
BMu36,16,C,REL,Trunk_Forward,1,R_MTF,23.741364337455447
BMu36,17,P,INI,Trunk_Forward,1,L_MTF,25.954313447840445
BMu36,17,P,INI,Trunk_Forward,1,R_MTF,26.10813777908871
BMu36,17,P,REL,Trunk_Forward,1,L_MTF,60.70247505261599
BMu36,17,P,REL,Trunk_Forward,1,R_MTF,60.40253684474249
BMu36,21,C,INI,Trunk_Forward,1,L_MTF,23.480677508860776
BMu36,21,C,INI,Trunk_Forward,1,R_MTF,77.20410471160685
BMu36,21,C,REL,Trunk_Forward,1,L_MTF,108.40321189653257
BMu36,21,C,REL,Trunk_Forward,1,R_MTF,111.27318797913229
BMu36,22,C,INI,Trunk_Forward,1,L_MTF,16.18184684254327
BMu36,22,C,INI,Trunk_Forward,1,R_MTF,43.56483572410539
BMu36,22,C,REL,Trunk_Forward,1,L_MTF,35.33241845330102
BMu36,22,C,REL,Trunk_Forward,1,R_MTF,28.9922850090153
BMu36,23,C,INI,Trunk_Forward,1,L_MTF,37.09637467081779
BMu36,23,C,INI,Trunk_Forward,1,R_MTF,28.684355140247362
BMu36,23,C,REL,Trunk_Forward,1,L_MTF,12.16512448153812
BMu36,23,C,REL,Trunk_Forward,1,R_MTF,10.89701103952339
BMu36,24,P,INI,Trunk_Forward,1,L_MTF,77.98756986636067
BMu36,24,P,INI,Trunk_Forward,1,R_MTF,118.30702971640466
BMu36,24,P,REL,Trunk_Forward,1,L_MTF,59.742846401844844
BMu36,24,P,REL,Trunk_Forward,1,R_MTF,74.84107842043305
BMu36,25,C,INI,Trunk_Forward,1,L_MTF,42.7714204502625
BMu36,25,C,INI,Trunk_Forward,1,R_MTF,15.927325833992183
BMu36,25,C,REL,Trunk_Forward,1,L_MTF,37.89053481579756
BMu36,25,C,REL,Trunk_Forward,1,R_MTF,21.897947685958403
BMu36,26,P,INI,Trunk_Forward,1,L_MTF,22.986254833777647
BMu36,26,P,INI,Trunk_Forward,1,R_MTF,41.04271545836949
BMu36,26,P,REL,Trunk_Forward,1,L_MTF,38.40169765872583
BMu36,26,P,REL,Trunk_Forward,1,R_MTF,40.60841135113384
BMu36,27,P,INI,Trunk_Forward,1,L_MTF,68.05845178463385
BMu36,27,P,INI,Trunk_Forward,1,R_MTF,90.88431722448064
BMu36,27,P,REL,Trunk_Forward,1,L_MTF,63.46718544973258
BMu36,27,P,REL,Trunk_Forward,1,R_MTF,101.53479195164263
BMu36,28,P,INI,Trunk_Forward,1,L_MTF,107.9126727024702
BMu36,28,P,INI,Trunk_Forward,1,R_MTF,105.69326469444097
BMu36,28,P,REL,Trunk_Forward,1,L_MTF,83.35588539566749
BMu36,28,P,REL,Trunk_Forward,1,R_MTF,90.99368147943268
BMu36,29,P,INI,Trunk_Forward,1,L_MTF,33.85931254320946
BMu36,29,P,INI,Trunk_Forward,1,R_MTF,48.81545870308363
BMu36,29,P,REL,Trunk_Forward,1,L_MTF,26.53240976793565
BMu36,29,P,REL,Trunk_Forward,1,R_MTF,38.262485757111705
BMu36,30,P,INI,Trunk_Forward,1,L_MTF,40.95508744401227
BMu36,30,P,INI,Trunk_Forward,1,R_MTF,26.77314633720618
BMu36,30,P,REL,Trunk_Forward,1,L_MTF,91.65983873307819
BMu36,30,P,REL,Trunk_Forward,1,R_MTF,89.65491489891167
BMu36,32,P,INI,Trunk_Forward,1,L_MTF,20.628315534193046
BMu36,32,P,INI,Trunk_Forward,1,R_MTF,22.638288208867365
BMu36,32,P,REL,Trunk_Forward,1,L_MTF,24.95638372642679
BMu36,32,P,REL,Trunk_Forward,1,R_MTF,43.50895229954092
BMu36,33,P,INI,Trunk_Forward,1,L_MTF,141.89895796356353
BMu36,33,P,INI,Trunk_Forward,1,R_MTF,156.01962813933272
BMu36,33,P,REL,Trunk_Forward,1,L_MTF,172.3099836019578
BMu36,33,P,REL,Trunk_Forward,1,R_MTF,130.84173975980528
BMu36,34,P,INI,Trunk_Forward,1,L_MTF,17.987064968385386
BMu36,34,P,INI,Trunk_Forward,1,R_MTF,45.20204392707736
BMu36,34,P,REL,Trunk_Forward,1,L_MTF,14.470477975951576
BMu36,34,P,REL,Trunk_Forward,1,R_MTF,19.35383744556707
BMu36,35,C,INI,Trunk_Forward,1,L_MTF,5.8850642705936265
BMu36,35,C,INI,Trunk_Forward,1,R_MTF,6.938780291582179
BMu36,35,C,REL,Trunk_Forward,1,L_MTF,6.811034431871292
BMu36,35,C,REL,Trunk_Forward,1,R_MTF,9.45414523230272
BMu36,36,P,INI,Trunk_Forward,1,L_MTF,75.95751623628774
BMu36,36,P,INI,Trunk_Forward,1,R_MTF,125.28190708907584
BMu36,36,P,REL,Trunk_Forward,1,L_MTF,70.24469545568716
BMu36,36,P,REL,Trunk_Forward,1,R_MTF,130.71655378125763
BMu36,38,C,INI,Trunk_Forward,1,L_MTF,82.45002055858878
BMu36,38,C,INI,Trunk_Forward,1,R_MTF,12.811855239730136
BMu36,38,C,REL,Trunk_Forward,1,L_MTF,10.285269407071645
BMu36,38,C,REL,Trunk_Forward,1,R_MTF,17.430839834375526
BMu36,39,C,INI,Trunk_Forward,1,L_MTF,18.88829710215434
BMu36,39,C,INI,Trunk_Forward,1,R_MTF,21.03440377974962
BMu36,39,C,REL,Trunk_Forward,1,L_MTF,53.507654673054084
BMu36,39,C,REL,Trunk_Forward,1,R_MTF,65.72476922352782
BMu36,40,C,INI,Trunk_Forward,1,L_MTF,3.3792524556526295
BMu36,40,C,INI,Trunk_Forward,1,R_MTF,5.078042827355216
BMu36,40,C,REL,Trunk_Forward,1,L_MTF,8.762263661846363
BMu36,40,C,REL,Trunk_Forward,1,R_MTF,11.577873766594948
BMu36,41,P,INI,Trunk_Forward,1,L_MTF,13.523811416676827
BMu36,41,P,INI,Trunk_Forward,1,R_MTF,13.039449157924752
BMu36,41,P,REL,Trunk_Forward,1,L_MTF,19.85235928887749
BMu36,41,P,REL,Trunk_Forward,1,R_MTF,16.660174026960604
BMu36,42,P,INI,Trunk_Forward,1,L_MTF,56.437350528565226
BMu36,42,P,INI,Trunk_Forward,1,R_MTF,39.371112908326175
BMu36,42,P,REL,Trunk_Forward,1,L_MTF,64.30587456239327
BMu36,42,P,REL,Trunk_Forward,1,R_MTF,42.40849141306244
BMu36,43,P,INI,Trunk_Forward,1,L_MTF,5.113771046224189
BMu36,43,P,INI,Trunk_Forward,1,R_MTF,14.892831523292104
BMu36,43,P,REL,Trunk_Forward,1,L_MTF,8.851345886535194
BMu36,43,P,REL,Trunk_Forward,1,R_MTF,32.83073189064879
BMu36,44,C,INI,Trunk_Forward,1,L_MTF,400.6483898417698
BMu36,44,C,INI,Trunk_Forward,1,R_MTF,31.25493409836937
BMu36,44,C,REL,Trunk_Forward,1,L_MTF,10.536601092087215
BMu36,44,C,REL,Trunk_Forward,1,R_MTF,10.57875516809566
BMu36,45,P,INI,Trunk_Forward,1,L_MTF,53.37021339724103
BMu36,45,P,INI,Trunk_Forward,1,R_MTF,140.51216455762793
BMu36,45,P,REL,Trunk_Forward,1,L_MTF,91.69937090791082
BMu36,45,P,REL,Trunk_Forward,1,R_MTF,199.67872743559613
BMu36,46,C,INI,Trunk_Forward,1,L_MTF,126.51378073858223
BMu36,46,C,INI,Trunk_Forward,1,R_MTF,22.06360493398226
BMu36,46,C,REL,Trunk_Forward,1,L_MTF,22.449437322086656
BMu36,46,C,REL,Trunk_Forward,1,R_MTF,11.81139002180028
BMu36,47,P,INI,Trunk_Forward,1,L_MTF,49.517969404779734
BMu36,47,P,INI,Trunk_Forward,1,R_MTF,62.06949351567204
BMu36,47,P,REL,Trunk_Forward,1,L_MTF,43.78433198708396
BMu36,47,P,REL,Trunk_Forward,1,R_MTF,44.714641451773865
BMu36,48,C,INI,Trunk_Forward,1,L_MTF,8.307539762262628
BMu36,48,C,INI,Trunk_Forward,1,R_MTF,8.3157579917994
BMu36,48,C,REL,Trunk_Forward,1,L_MTF,8.68546363425052
BMu36,48,C,REL,Trunk_Forward,1,R_MTF,10.106186684927232
BMu36,49,C,INI,Trunk_Forward,1,L_MTF,6.5989297863185366
BMu36,49,C,INI,Trunk_Forward,1,R_MTF,12.132315680180634
BMu36,49,C,REL,Trunk_Forward,1,L_MTF,6.163584356670583
BMu36,49,C,REL,Trunk_Forward,1,R_MTF,7.133762064046969
BMu36,50,P,INI,Trunk_Forward,1,L_MTF,38.56150299484697
BMu36,50,P,INI,Trunk_Forward,1,R_MTF,60.49419152582544
BMu36,50,P,REL,Trunk_Forward,1,L_MTF,74.24712177410372
BMu36,50,P,REL,Trunk_Forward,1,R_MTF,43.350069825086585
BMu36,51,P,INI,Trunk_Forward,1,L_MTF,78.33685435107235
BMu36,51,P,INI,Trunk_Forward,1,R_MTF,60.849094153141
BMu36,51,P,REL,Trunk_Forward,1,L_MTF,63.37796733901348
BMu36,51,P,REL,Trunk_Forward,1,R_MTF,37.459918458540116
BMu36,52,C,INI,Trunk_Forward,1,L_MTF,3.0887718997123845
BMu36,52,C,INI,Trunk_Forward,1,R_MTF,6.011851047377934
BMu36,52,C,REL,Trunk_Forward,1,L_MTF,6.3817353016251275
BMu36,52,C,REL,Trunk_Forward,1,R_MTF,14.536570498696138
BMu36,53,P,INI,Trunk_Forward,1,L_MTF,62.659225177117015
BMu36,53,P,INI,Trunk_Forward,1,R_MTF,75.71292736226717
BMu36,53,P,REL,Trunk_Forward,1,L_MTF,69.41725736320149
BMu36,53,P,REL,Trunk_Forward,1,R_MTF,73.76457344082608
BMu36,54,P,INI,Trunk_Forward,1,L_MTF,18.571887533980632
BMu36,54,P,INI,Trunk_Forward,1,R_MTF,10.889377376441098
BMu36,54,P,REL,Trunk_Forward,1,L_MTF,13.610923714311207
BMu36,54,P,REL,Trunk_Forward,1,R_MTF,6.025335718002684
BMu36,55,C,INI,Trunk_Forward,1,L_MTF,15.920243082084383
BMu36,55,C,INI,Trunk_Forward,1,R_MTF,23.313854373457378
BMu36,55,C,REL,Trunk_Forward,1,L_MTF,14.114864619964075
BMu36,55,C,REL,Trunk_Forward,1,R_MTF,18.907018829623972
BMu36,56,C,INI,Trunk_Forward,1,L_MTF,21.816712418770933
BMu36,56,C,INI,Trunk_Forward,1,R_MTF,24.047708313801568
BMu36,56,C,REL,Trunk_Forward,1,L_MTF,35.140299555770355
BMu36,56,C,REL,Trunk_Forward,1,R_MTF,34.51456892758083
BMu36,57,C,INI,Trunk_Forward,1,L_MTF,104.40819676181518
BMu36,57,C,INI,Trunk_Forward,1,R_MTF,58.85447496809754
BMu36,57,C,REL,Trunk_Forward,1,L_MTF,74.08646536839952
BMu36,57,C,REL,Trunk_Forward,1,R_MTF,90.6183889409097
BMu36,58,P,INI,Trunk_Forward,1,L_MTF,26.674399656515018
BMu36,58,P,INI,Trunk_Forward,1,R_MTF,382.03478562453097
BMu36,58,P,REL,Trunk_Forward,1,L_MTF,110.54575701766096
BMu36,58,P,REL,Trunk_Forward,1,R_MTF,79.45532381996306
BMu36,60,C,INI,Trunk_Forward,1,L_MTF,15.460823682947131
BMu36,60,C,INI,Trunk_Forward,1,R_MTF,15.830226188500452
BMu36,60,C,REL,Trunk_Forward,1,L_MTF,32.499558584823944
BMu36,60,C,REL,Trunk_Forward,1,R_MTF,32.39217361117719
BMu36,61,P,REL,Trunk_Forward,1,L_MTF,19.900822638703875
BMu36,61,P,REL,Trunk_Forward,1,R_MTF,14.779545263045714
BMu36,62,P,INI,Trunk_Forward,1,L_MTF,73.02674809064722
BMu36,62,P,INI,Trunk_Forward,1,R_MTF,86.28376245731322
BMu36,62,P,REL,Trunk_Forward,1,L_MTF,93.42285547443068
BMu36,62,P,REL,Trunk_Forward,1,R_MTF,102.6775857648516
BMu36,63,P,INI,Trunk_Forward,1,L_MTF,42.768704047604324
BMu36,63,P,INI,Trunk_Forward,1,R_MTF,22.80919387976117
BMu36,63,P,REL,Trunk_Forward,1,L_MTF,19.31950020397493
BMu36,63,P,REL,Trunk_Forward,1,R_MTF,18.3503397646958
BMu36,64,C,INI,Trunk_Forward,1,L_MTF,15.803895305890743
BMu36,64,C,INI,Trunk_Forward,1,R_MTF,19.384988857253223
BMu36,64,C,REL,Trunk_Forward,1,L_MTF,4.226942956207753
BMu36,64,C,REL,Trunk_Forward,1,R_MTF,7.577982242888116
BMu36,65,P,INI,Trunk_Forward,1,L_MTF,16.609568255637406
BMu36,65,P,INI,Trunk_Forward,1,R_MTF,11.174431325411932
BMu36,65,P,REL,Trunk_Forward,1,L_MTF,34.19482651164814
BMu36,65,P,REL,Trunk_Forward,1,R_MTF,18.50758442116722
BMu36,66,C,INI,Trunk_Forward,1,L_MTF,11.30269161778368
BMu36,66,C,INI,Trunk_Forward,1,R_MTF,39.45631595260537
BMu36,66,C,REL,Trunk_Forward,1,L_MTF,34.121087852588936
BMu36,66,C,REL,Trunk_Forward,1,R_MTF,40.03570947170615
BMu36,67,C,INI,Trunk_Forward,1,L_MTF,7.213119488378369
BMu36,67,C,INI,Trunk_Forward,1,R_MTF,24.56060720024796
BMu36,67,C,REL,Trunk_Forward,1,L_MTF,18.577915878032684
BMu36,67,C,REL,Trunk_Forward,1,R_MTF,11.027735179856856
BMu36,68,C,INI,Trunk_Forward,1,L_MTF,47.232152540926116
BMu36,68,C,INI,Trunk_Forward,1,R_MTF,96.51127431355087
BMu36,68,C,REL,Trunk_Forward,1,L_MTF,27.00478330509015
BMu36,68,C,REL,Trunk_Forward,1,R_MTF,81.98868365170173
