BM,subject,P_C,session,task,repetition,channel,value
BMu34,1,C,INI,Trunk_Lateral,1,L_MTF,2.767085782114044
BMu34,1,C,INI,Trunk_Lateral,1,R_MTF,0.155457843698636
BMu34,1,C,REL,Trunk_Lateral,1,L_MTF,3.288908843986461
BMu34,1,C,REL,Trunk_Lateral,1,R_MTF,2.7591945873155725
BMu34,2,C,INI,Trunk_Lateral,1,L_MTF,7.962408830870502
BMu34,2,C,INI,Trunk_Lateral,1,R_MTF,7.620219462774439
BMu34,3,C,INI,Trunk_Lateral,1,L_MTF,10.204214745292193
BMu34,3,C,INI,Trunk_Lateral,1,R_MTF,9.94492034486297
BMu34,3,C,REL,Trunk_Lateral,1,L_MTF,9.332875831850885
BMu34,3,C,REL,Trunk_Lateral,1,R_MTF,11.871880344954263
BMu34,5,C,INI,Trunk_Lateral,1,L_MTF,3.7045071142187034
BMu34,5,C,INI,Trunk_Lateral,1,R_MTF,4.564615633687777
BMu34,5,C,REL,Trunk_Lateral,1,L_MTF,6.678297346970253
BMu34,5,C,REL,Trunk_Lateral,1,R_MTF,4.499574584338789
BMu34,6,C,INI,Trunk_Lateral,1,L_MTF,18.49046569804849
BMu34,6,C,INI,Trunk_Lateral,1,R_MTF,17.627694695562276
BMu34,6,C,REL,Trunk_Lateral,1,L_MTF,13.10112235991714
BMu34,6,C,REL,Trunk_Lateral,1,R_MTF,12.005402975716505
BMu34,7,C,INI,Trunk_Lateral,1,L_MTF,8.012743585336997
BMu34,7,C,INI,Trunk_Lateral,1,R_MTF,6.715451746212822
BMu34,7,C,REL,Trunk_Lateral,1,L_MTF,7.494810750506958
BMu34,7,C,REL,Trunk_Lateral,1,R_MTF,10.045060063737393
BMu34,8,C,INI,Trunk_Lateral,1,L_MTF,1.304317967160247
BMu34,8,C,INI,Trunk_Lateral,1,R_MTF,3.7831753960130503
BMu34,8,C,REL,Trunk_Lateral,1,L_MTF,5.33868360869988
BMu34,8,C,REL,Trunk_Lateral,1,R_MTF,2.22126092832526
BMu34,9,P,INI,Trunk_Lateral,1,L_MTF,9.588368955241716
BMu34,9,P,INI,Trunk_Lateral,1,R_MTF,5.539536626425112
BMu34,9,P,REL,Trunk_Lateral,1,L_MTF,10.367046990497272
BMu34,9,P,REL,Trunk_Lateral,1,R_MTF,9.8612823556124
BMu34,10,P,INI,Trunk_Lateral,1,L_MTF,7.778906223955035
BMu34,10,P,INI,Trunk_Lateral,1,R_MTF,5.999037663014918
BMu34,10,P,REL,Trunk_Lateral,1,L_MTF,7.902105087117678
BMu34,10,P,REL,Trunk_Lateral,1,R_MTF,7.553185454989717
BMu34,11,P,INI,Trunk_Lateral,1,L_MTF,6.396734958681717
BMu34,11,P,INI,Trunk_Lateral,1,R_MTF,1.0072442314143053
BMu34,11,P,REL,Trunk_Lateral,1,L_MTF,4.642830887013674
BMu34,11,P,REL,Trunk_Lateral,1,R_MTF,1.8690497778655397
BMu34,12,P,INI,Trunk_Lateral,1,L_MTF,8.258442751139183
BMu34,12,P,INI,Trunk_Lateral,1,R_MTF,8.414752431295394
BMu34,12,P,REL,Trunk_Lateral,1,L_MTF,4.921741976815589
BMu34,12,P,REL,Trunk_Lateral,1,R_MTF,0.6014326595245761
BMu34,13,C,INI,Trunk_Lateral,1,L_MTF,9.2634736264289
BMu34,13,C,INI,Trunk_Lateral,1,R_MTF,6.31537138471154
BMu34,13,C,REL,Trunk_Lateral,1,L_MTF,11.474054957444196
BMu34,13,C,REL,Trunk_Lateral,1,R_MTF,8.570781249485282
BMu34,14,P,INI,Trunk_Lateral,1,L_MTF,6.4371268118690494
BMu34,14,P,INI,Trunk_Lateral,1,R_MTF,1.9125528918613883
BMu34,14,P,REL,Trunk_Lateral,1,L_MTF,6.283846508607646
BMu34,14,P,REL,Trunk_Lateral,1,R_MTF,11.673397413237998
BMu34,16,C,INI,Trunk_Lateral,1,L_MTF,6.992454170626286
BMu34,16,C,INI,Trunk_Lateral,1,R_MTF,3.252000820179171
BMu34,16,C,REL,Trunk_Lateral,1,L_MTF,8.022442700928545
BMu34,16,C,REL,Trunk_Lateral,1,R_MTF,8.709066225223738
BMu34,17,P,INI,Trunk_Lateral,1,L_MTF,8.585952968538985
BMu34,17,P,INI,Trunk_Lateral,1,R_MTF,2.0890319969558564
BMu34,17,P,REL,Trunk_Lateral,1,L_MTF,9.36540176727013
BMu34,17,P,REL,Trunk_Lateral,1,R_MTF,6.745478152941964
BMu34,21,C,INI,Trunk_Lateral,1,L_MTF,4.83941888057445
BMu34,21,C,INI,Trunk_Lateral,1,R_MTF,8.273751899870517
BMu34,21,C,REL,Trunk_Lateral,1,L_MTF,3.4556434486935412
BMu34,21,C,REL,Trunk_Lateral,1,R_MTF,2.1313562529537124
BMu34,22,C,INI,Trunk_Lateral,1,L_MTF,7.887594724619203
BMu34,22,C,INI,Trunk_Lateral,1,R_MTF,5.081069128865858
BMu34,22,C,REL,Trunk_Lateral,1,L_MTF,7.8089236551545875
BMu34,22,C,REL,Trunk_Lateral,1,R_MTF,6.654829255401823
BMu34,23,C,INI,Trunk_Lateral,1,L_MTF,9.865220241344181
BMu34,23,C,INI,Trunk_Lateral,1,R_MTF,6.920295344747137
BMu34,23,C,REL,Trunk_Lateral,1,L_MTF,8.864636731635246
BMu34,23,C,REL,Trunk_Lateral,1,R_MTF,12.00357759668089
BMu34,24,P,INI,Trunk_Lateral,1,L_MTF,10.171738285845572
BMu34,24,P,INI,Trunk_Lateral,1,R_MTF,9.831515544042635
BMu34,24,P,REL,Trunk_Lateral,1,L_MTF,9.499701389989749
BMu34,24,P,REL,Trunk_Lateral,1,R_MTF,11.111278847451501
BMu34,25,C,INI,Trunk_Lateral,1,L_MTF,2.8761817135826426
BMu34,25,C,INI,Trunk_Lateral,1,R_MTF,6.327137686201648
BMu34,25,C,REL,Trunk_Lateral,1,L_MTF,3.966902657678416
BMu34,25,C,REL,Trunk_Lateral,1,R_MTF,6.194466696224463
BMu34,26,P,INI,Trunk_Lateral,1,L_MTF,3.1080924114367474
BMu34,26,P,INI,Trunk_Lateral,1,R_MTF,1.4323497890911059
BMu34,26,P,REL,Trunk_Lateral,1,L_MTF,0.6266759186594351
BMu34,26,P,REL,Trunk_Lateral,1,R_MTF,0.5724401585397034
BMu34,27,P,INI,Trunk_Lateral,1,L_MTF,4.158563718292502
BMu34,27,P,INI,Trunk_Lateral,1,R_MTF,11.31694098496068
BMu34,27,P,REL,Trunk_Lateral,1,L_MTF,4.749042571102316
BMu34,27,P,REL,Trunk_Lateral,1,R_MTF,8.470197960144501
BMu34,28,P,INI,Trunk_Lateral,1,L_MTF,10.996596997508732
BMu34,28,P,INI,Trunk_Lateral,1,R_MTF,6.31238936876997
BMu34,28,P,REL,Trunk_Lateral,1,L_MTF,5.149022295985618
BMu34,28,P,REL,Trunk_Lateral,1,R_MTF,4.118557025486489
BMu34,29,P,INI,Trunk_Lateral,1,L_MTF,9.036308404274033
BMu34,29,P,INI,Trunk_Lateral,1,R_MTF,9.001775403895916
BMu34,29,P,REL,Trunk_Lateral,1,L_MTF,9.052464112404879
BMu34,29,P,REL,Trunk_Lateral,1,R_MTF,8.55542987434083
BMu34,30,P,REL,Trunk_Lateral,1,L_MTF,8.784337747228262
BMu34,30,P,REL,Trunk_Lateral,1,R_MTF,14.626942139112494
BMu34,32,P,INI,Trunk_Lateral,1,L_MTF,8.119247369705416
BMu34,32,P,INI,Trunk_Lateral,1,R_MTF,8.863387452868153
BMu34,32,P,REL,Trunk_Lateral,1,L_MTF,9.629151322524171
BMu34,32,P,REL,Trunk_Lateral,1,R_MTF,2.4099556438002323
BMu34,33,P,INI,Trunk_Lateral,1,L_MTF,11.18866995232157
BMu34,33,P,INI,Trunk_Lateral,1,R_MTF,1.7117404478301914
BMu34,33,P,REL,Trunk_Lateral,1,L_MTF,7.255657415189186
BMu34,33,P,REL,Trunk_Lateral,1,R_MTF,0.9242753256857007
BMu34,34,P,INI,Trunk_Lateral,1,L_MTF,9.961428315331633
BMu34,34,P,INI,Trunk_Lateral,1,R_MTF,3.624790562862691
BMu34,34,P,REL,Trunk_Lateral,1,L_MTF,9.184511984920606
BMu34,34,P,REL,Trunk_Lateral,1,R_MTF,5.296448654724914
BMu34,35,C,INI,Trunk_Lateral,1,L_MTF,2.6099044167240746
BMu34,35,C,INI,Trunk_Lateral,1,R_MTF,2.5744420322711252
BMu34,35,C,REL,Trunk_Lateral,1,L_MTF,4.808417279182948
BMu34,35,C,REL,Trunk_Lateral,1,R_MTF,6.840211749637949
BMu34,36,P,INI,Trunk_Lateral,1,L_MTF,3.402877343052672
BMu34,36,P,INI,Trunk_Lateral,1,R_MTF,4.85061191924748
BMu34,36,P,REL,Trunk_Lateral,1,L_MTF,4.270030747149704
BMu34,36,P,REL,Trunk_Lateral,1,R_MTF,4.0809968266435686
BMu34,38,C,INI,Trunk_Lateral,1,L_MTF,1.3445270855625968
BMu34,38,C,INI,Trunk_Lateral,1,R_MTF,6.340981495419732
BMu34,38,C,REL,Trunk_Lateral,1,L_MTF,6.523610805738243
BMu34,38,C,REL,Trunk_Lateral,1,R_MTF,7.119948540516152
BMu34,39,C,INI,Trunk_Lateral,1,L_MTF,5.318411123962487
BMu34,39,C,INI,Trunk_Lateral,1,R_MTF,1.5574840667191687
BMu34,39,C,REL,Trunk_Lateral,1,L_MTF,6.282410619408247
BMu34,39,C,REL,Trunk_Lateral,1,R_MTF,2.5734032843915493
BMu34,40,C,INI,Trunk_Lateral,1,L_MTF,1.9633761818360707
BMu34,40,C,INI,Trunk_Lateral,1,R_MTF,5.839262860105165
BMu34,40,C,REL,Trunk_Lateral,1,L_MTF,4.4784317616363625
BMu34,40,C,REL,Trunk_Lateral,1,R_MTF,3.637180798310269
BMu34,41,P,INI,Trunk_Lateral,1,L_MTF,6.236447486159946
BMu34,41,P,INI,Trunk_Lateral,1,R_MTF,8.536748512472373
BMu34,41,P,REL,Trunk_Lateral,1,L_MTF,4.562519986481578
BMu34,41,P,REL,Trunk_Lateral,1,R_MTF,6.626389366072378
BMu34,42,P,INI,Trunk_Lateral,1,L_MTF,7.8923498086982535
BMu34,42,P,INI,Trunk_Lateral,1,R_MTF,6.771329749126214
BMu34,42,P,REL,Trunk_Lateral,1,L_MTF,7.027552514925808
BMu34,42,P,REL,Trunk_Lateral,1,R_MTF,7.062287221629073
BMu34,43,P,INI,Trunk_Lateral,1,L_MTF,5.073802639940465
BMu34,43,P,INI,Trunk_Lateral,1,R_MTF,2.9825665435786664
BMu34,43,P,REL,Trunk_Lateral,1,L_MTF,3.4837896289615125
BMu34,43,P,REL,Trunk_Lateral,1,R_MTF,5.208027570463879
BMu34,44,C,INI,Trunk_Lateral,1,L_MTF,1.3664650277188761
BMu34,44,C,INI,Trunk_Lateral,1,R_MTF,13.531579707770055
BMu34,44,C,REL,Trunk_Lateral,1,L_MTF,5.983918370978617
BMu34,44,C,REL,Trunk_Lateral,1,R_MTF,7.6712517046696
BMu34,45,P,INI,Trunk_Lateral,1,L_MTF,5.710715747899542
BMu34,45,P,INI,Trunk_Lateral,1,R_MTF,8.017508026045833
BMu34,45,P,REL,Trunk_Lateral,1,L_MTF,8.021439263770171
BMu34,45,P,REL,Trunk_Lateral,1,R_MTF,2.2295186141371484
BMu34,46,C,INI,Trunk_Lateral,1,L_MTF,3.4791144373031684
BMu34,46,C,INI,Trunk_Lateral,1,R_MTF,9.108469574235858
BMu34,46,C,REL,Trunk_Lateral,1,L_MTF,3.8203333673329545
BMu34,46,C,REL,Trunk_Lateral,1,R_MTF,13.279037511971959
BMu34,47,P,INI,Trunk_Lateral,1,L_MTF,4.753576312583159
BMu34,47,P,INI,Trunk_Lateral,1,R_MTF,0.8157434258539148
BMu34,47,P,REL,Trunk_Lateral,1,L_MTF,5.477373857129594
BMu34,47,P,REL,Trunk_Lateral,1,R_MTF,3.1136499664676407
BMu34,48,C,INI,Trunk_Lateral,1,L_MTF,6.276020571208945
BMu34,48,C,INI,Trunk_Lateral,1,R_MTF,8.523521967969064
BMu34,48,C,REL,Trunk_Lateral,1,L_MTF,4.269464209896159
BMu34,48,C,REL,Trunk_Lateral,1,R_MTF,7.460415017715966
BMu34,49,C,INI,Trunk_Lateral,1,L_MTF,3.249633360666557
BMu34,49,C,INI,Trunk_Lateral,1,R_MTF,2.8498581883329286
BMu34,49,C,REL,Trunk_Lateral,1,L_MTF,2.639393399849953
BMu34,49,C,REL,Trunk_Lateral,1,R_MTF,1.6905637335762993
BMu34,50,P,INI,Trunk_Lateral,1,L_MTF,11.391316476618087
BMu34,50,P,INI,Trunk_Lateral,1,R_MTF,8.44493713750165
BMu34,50,P,REL,Trunk_Lateral,1,L_MTF,7.239797814617948
BMu34,50,P,REL,Trunk_Lateral,1,R_MTF,9.329284361801482
BMu34,51,P,INI,Trunk_Lateral,1,L_MTF,13.19192931913947
BMu34,51,P,INI,Trunk_Lateral,1,R_MTF,7.821830897663426
BMu34,51,P,REL,Trunk_Lateral,1,L_MTF,11.942990767210233
BMu34,51,P,REL,Trunk_Lateral,1,R_MTF,13.458726172717455
BMu34,52,C,INI,Trunk_Lateral,1,L_MTF,5.3664705387547125
BMu34,52,C,INI,Trunk_Lateral,1,R_MTF,6.812576087688612
BMu34,52,C,REL,Trunk_Lateral,1,L_MTF,3.82035671275079
BMu34,52,C,REL,Trunk_Lateral,1,R_MTF,5.352176366299624
BMu34,53,P,INI,Trunk_Lateral,1,L_MTF,12.410353961035916
BMu34,53,P,INI,Trunk_Lateral,1,R_MTF,7.654999185144715
BMu34,53,P,REL,Trunk_Lateral,1,L_MTF,3.653208598745593
BMu34,53,P,REL,Trunk_Lateral,1,R_MTF,7.264402503384131
BMu34,54,P,INI,Trunk_Lateral,1,L_MTF,8.210843333116918
BMu34,54,P,INI,Trunk_Lateral,1,R_MTF,5.85954575397453
BMu34,54,P,REL,Trunk_Lateral,1,L_MTF,7.667822520342315
BMu34,54,P,REL,Trunk_Lateral,1,R_MTF,5.0999945895971655
BMu34,55,C,INI,Trunk_Lateral,1,L_MTF,0.5477467770331053
BMu34,55,C,INI,Trunk_Lateral,1,R_MTF,6.414244888709873
BMu34,55,C,REL,Trunk_Lateral,1,L_MTF,6.4141126419708465
BMu34,55,C,REL,Trunk_Lateral,1,R_MTF,3.3177501923330452
BMu34,56,C,INI,Trunk_Lateral,1,L_MTF,4.251842284048691
BMu34,56,C,INI,Trunk_Lateral,1,R_MTF,9.470076439412699
BMu34,56,C,REL,Trunk_Lateral,1,L_MTF,5.960507050186073
BMu34,56,C,REL,Trunk_Lateral,1,R_MTF,9.655923770498653
BMu34,57,C,INI,Trunk_Lateral,1,L_MTF,0.5712980924862502
BMu34,57,C,INI,Trunk_Lateral,1,R_MTF,0.3443616695250427
BMu34,57,C,REL,Trunk_Lateral,1,L_MTF,2.272992328420758
BMu34,57,C,REL,Trunk_Lateral,1,R_MTF,6.284666591421657
BMu34,58,P,INI,Trunk_Lateral,1,L_MTF,0.4746108037695367
BMu34,58,P,INI,Trunk_Lateral,1,R_MTF,1.306826311256653
BMu34,58,P,REL,Trunk_Lateral,1,L_MTF,0.5257966948409117
BMu34,58,P,REL,Trunk_Lateral,1,R_MTF,3.251495679981667
BMu34,60,C,INI,Trunk_Lateral,1,L_MTF,6.614110702341324
BMu34,60,C,INI,Trunk_Lateral,1,R_MTF,6.055924975723333
BMu34,60,C,REL,Trunk_Lateral,1,L_MTF,6.853068301994171
BMu34,60,C,REL,Trunk_Lateral,1,R_MTF,6.607067478682853
BMu34,61,P,INI,Trunk_Lateral,1,L_MTF,7.116213396001794
BMu34,61,P,INI,Trunk_Lateral,1,R_MTF,9.115211858080835
BMu34,61,P,REL,Trunk_Lateral,1,L_MTF,9.467566177505832
BMu34,61,P,REL,Trunk_Lateral,1,R_MTF,8.137462741501926
BMu34,62,P,INI,Trunk_Lateral,1,L_MTF,7.922950837692049
BMu34,62,P,INI,Trunk_Lateral,1,R_MTF,9.24266695572909
BMu34,62,P,REL,Trunk_Lateral,1,L_MTF,9.834080569901296
BMu34,62,P,REL,Trunk_Lateral,1,R_MTF,9.986252611703792
BMu34,63,P,INI,Trunk_Lateral,1,L_MTF,7.269165583677618
BMu34,63,P,INI,Trunk_Lateral,1,R_MTF,7.252582316307058
BMu34,63,P,REL,Trunk_Lateral,1,L_MTF,6.0773832028318395
BMu34,63,P,REL,Trunk_Lateral,1,R_MTF,7.326586392952131
BMu34,64,C,INI,Trunk_Lateral,1,L_MTF,4.556581817395217
BMu34,64,C,INI,Trunk_Lateral,1,R_MTF,3.6810041286554127
BMu34,64,C,REL,Trunk_Lateral,1,L_MTF,17.460400720267153
BMu34,64,C,REL,Trunk_Lateral,1,R_MTF,2.22270256113056
BMu34,65,P,INI,Trunk_Lateral,1,L_MTF,4.746199361143465
BMu34,65,P,INI,Trunk_Lateral,1,R_MTF,5.846521520468495
BMu34,65,P,REL,Trunk_Lateral,1,L_MTF,3.998880533718912
BMu34,65,P,REL,Trunk_Lateral,1,R_MTF,7.487792352580392
BMu34,66,C,INI,Trunk_Lateral,1,L_MTF,1.5916066935743223
BMu34,66,C,INI,Trunk_Lateral,1,R_MTF,4.500108145987753
BMu34,66,C,REL,Trunk_Lateral,1,L_MTF,3.802979619564129
BMu34,66,C,REL,Trunk_Lateral,1,R_MTF,4.310787902096442
BMu34,67,C,INI,Trunk_Lateral,1,L_MTF,2.171242812981166
BMu34,67,C,INI,Trunk_Lateral,1,R_MTF,5.170017969395524
BMu34,67,C,REL,Trunk_Lateral,1,L_MTF,0.8954908757472125
BMu34,67,C,REL,Trunk_Lateral,1,R_MTF,1.662710159068492
BMu34,68,C,INI,Trunk_Lateral,1,L_MTF,3.492317844886326
BMu34,68,C,INI,Trunk_Lateral,1,R_MTF,3.612055267801541
BMu34,68,C,REL,Trunk_Lateral,1,L_MTF,5.730285270269326
BMu34,68,C,REL,Trunk_Lateral,1,R_MTF,3.99425831304851
