BM,subject,P_C,session,task,repetition,channel,value
BMu37,1,C,INI,Trunk_Forward,1,L_EO,108.69890959827585
BMu37,1,C,INI,Trunk_Forward,1,R_EO,96.64200272561038
BMu37,1,C,REL,Trunk_Forward,1,L_EO,100.54081417431517
BMu37,1,C,REL,Trunk_Forward,1,R_EO,92.58550349963505
BMu37,2,C,INI,Trunk_Forward,1,L_EO,87.48813037259511
BMu37,2,C,INI,Trunk_Forward,1,R_EO,106.58423499097582
BMu37,2,C,REL,Trunk_Forward,1,L_EO,83.02240529145128
BMu37,2,C,REL,Trunk_Forward,1,R_EO,97.61902055846386
BMu37,3,C,INI,Trunk_Forward,1,L_EO,142.40997176354136
BMu37,3,C,INI,Trunk_Forward,1,R_EO,128.64236116631244
BMu37,3,C,REL,Trunk_Forward,1,L_EO,117.67359191918001
BMu37,3,C,REL,Trunk_Forward,1,R_EO,121.62647286925318
BMu37,5,C,INI,Trunk_Forward,1,L_EO,86.99780537431877
BMu37,5,C,INI,Trunk_Forward,1,R_EO,95.3009792585973
BMu37,5,C,REL,Trunk_Forward,1,L_EO,87.98734855605655
BMu37,5,C,REL,Trunk_Forward,1,R_EO,100.88412104671164
BMu37,6,C,INI,Trunk_Forward,1,L_EO,151.71888634037333
BMu37,6,C,INI,Trunk_Forward,1,R_EO,175.3841482096672
BMu37,6,C,REL,Trunk_Forward,1,L_EO,118.98947031485963
BMu37,6,C,REL,Trunk_Forward,1,R_EO,119.12742068666965
BMu37,7,C,INI,Trunk_Forward,1,L_EO,67.40422210064685
BMu37,7,C,INI,Trunk_Forward,1,R_EO,98.98510918894263
BMu37,7,C,REL,Trunk_Forward,1,L_EO,99.40638819658378
BMu37,7,C,REL,Trunk_Forward,1,R_EO,100.33254532867728
BMu37,8,C,INI,Trunk_Forward,1,L_EO,98.99927774305527
BMu37,8,C,INI,Trunk_Forward,1,R_EO,106.23107346306031
BMu37,8,C,REL,Trunk_Forward,1,L_EO,93.79114995210752
BMu37,8,C,REL,Trunk_Forward,1,R_EO,107.70002258534632
BMu37,9,P,INI,Trunk_Forward,1,L_EO,93.81304735700333
BMu37,9,P,INI,Trunk_Forward,1,R_EO,92.2606811527871
BMu37,9,P,REL,Trunk_Forward,1,L_EO,91.4699498141858
BMu37,9,P,REL,Trunk_Forward,1,R_EO,97.79692844453174
BMu37,10,P,INI,Trunk_Forward,1,L_EO,91.89496722164095
BMu37,10,P,INI,Trunk_Forward,1,R_EO,93.21885752936466
BMu37,10,P,REL,Trunk_Forward,1,L_EO,109.46375116537509
BMu37,10,P,REL,Trunk_Forward,1,R_EO,108.5085559453118
BMu37,11,P,INI,Trunk_Forward,1,L_EO,78.68633302449867
BMu37,11,P,INI,Trunk_Forward,1,R_EO,74.31985818087377
BMu37,11,P,REL,Trunk_Forward,1,L_EO,94.30017339206988
BMu37,11,P,REL,Trunk_Forward,1,R_EO,96.49171555705554
BMu37,12,P,INI,Trunk_Forward,1,L_EO,102.56127362001726
BMu37,12,P,INI,Trunk_Forward,1,R_EO,104.07796065472213
BMu37,12,P,REL,Trunk_Forward,1,L_EO,121.23955594048009
BMu37,12,P,REL,Trunk_Forward,1,R_EO,130.71108337384152
BMu37,13,C,INI,Trunk_Forward,1,L_EO,92.64042518248495
BMu37,13,C,INI,Trunk_Forward,1,R_EO,85.70177519025859
BMu37,13,C,REL,Trunk_Forward,1,L_EO,96.18000609643083
BMu37,13,C,REL,Trunk_Forward,1,R_EO,121.03455482664131
BMu37,14,P,INI,Trunk_Forward,1,L_EO,101.61331194392588
BMu37,14,P,INI,Trunk_Forward,1,R_EO,102.87784774219526
BMu37,14,P,REL,Trunk_Forward,1,L_EO,100.96385223747725
BMu37,14,P,REL,Trunk_Forward,1,R_EO,151.48457803942537
BMu37,16,C,INI,Trunk_Forward,1,L_EO,143.4182818916685
BMu37,16,C,INI,Trunk_Forward,1,R_EO,123.6200961996326
BMu37,16,C,REL,Trunk_Forward,1,L_EO,140.56570662695236
BMu37,16,C,REL,Trunk_Forward,1,R_EO,108.13758369455562
BMu37,17,P,INI,Trunk_Forward,1,L_EO,100.48249802097253
BMu37,17,P,INI,Trunk_Forward,1,R_EO,116.01428178024685
BMu37,17,P,REL,Trunk_Forward,1,L_EO,101.63431183943003
BMu37,17,P,REL,Trunk_Forward,1,R_EO,112.4401006481741
BMu37,21,C,INI,Trunk_Forward,1,L_EO,98.38252228524095
BMu37,21,C,INI,Trunk_Forward,1,R_EO,90.35667938500903
BMu37,21,C,REL,Trunk_Forward,1,L_EO,103.33730585481143
BMu37,21,C,REL,Trunk_Forward,1,R_EO,82.13822594793555
BMu37,22,C,INI,Trunk_Forward,1,L_EO,107.37885312244438
BMu37,22,C,INI,Trunk_Forward,1,R_EO,124.1994265387208
BMu37,22,C,REL,Trunk_Forward,1,L_EO,118.0619147587013
BMu37,22,C,REL,Trunk_Forward,1,R_EO,145.60868904398026
BMu37,23,C,INI,Trunk_Forward,1,L_EO,131.600827441716
BMu37,23,C,INI,Trunk_Forward,1,R_EO,102.25015225543467
BMu37,23,C,REL,Trunk_Forward,1,L_EO,137.46609128758337
BMu37,23,C,REL,Trunk_Forward,1,R_EO,105.32182166954946
BMu37,24,P,INI,Trunk_Forward,1,L_EO,111.74176108437229
BMu37,24,P,INI,Trunk_Forward,1,R_EO,133.51186396052594
BMu37,24,P,REL,Trunk_Forward,1,L_EO,112.56312872832656
BMu37,24,P,REL,Trunk_Forward,1,R_EO,130.82202453926016
BMu37,25,C,INI,Trunk_Forward,1,L_EO,96.36980538490484
BMu37,25,C,INI,Trunk_Forward,1,R_EO,112.12400606508011
BMu37,25,C,REL,Trunk_Forward,1,L_EO,104.59340205646895
BMu37,25,C,REL,Trunk_Forward,1,R_EO,105.71905196422139
BMu37,26,P,INI,Trunk_Forward,1,L_EO,76.49665811572969
BMu37,26,P,INI,Trunk_Forward,1,R_EO,79.07925451416176
BMu37,26,P,REL,Trunk_Forward,1,L_EO,78.84640775948411
BMu37,26,P,REL,Trunk_Forward,1,R_EO,43.30476049785012
BMu37,27,P,INI,Trunk_Forward,1,L_EO,103.10126991522716
BMu37,27,P,INI,Trunk_Forward,1,R_EO,111.25268668063273
BMu37,27,P,REL,Trunk_Forward,1,L_EO,104.90264234333891
BMu37,27,P,REL,Trunk_Forward,1,R_EO,93.77875197957867
BMu37,28,P,INI,Trunk_Forward,1,L_EO,103.6932908548016
BMu37,28,P,INI,Trunk_Forward,1,R_EO,119.90433182122796
BMu37,28,P,REL,Trunk_Forward,1,L_EO,103.22282955420626
BMu37,28,P,REL,Trunk_Forward,1,R_EO,114.59489093173195
BMu37,29,P,INI,Trunk_Forward,1,L_EO,95.66856308785657
BMu37,29,P,INI,Trunk_Forward,1,R_EO,98.83614174499868
BMu37,29,P,REL,Trunk_Forward,1,L_EO,96.2602513509108
BMu37,29,P,REL,Trunk_Forward,1,R_EO,98.00165114935837
BMu37,30,P,INI,Trunk_Forward,1,L_EO,141.62746266718554
BMu37,30,P,INI,Trunk_Forward,1,R_EO,140.24411842840493
BMu37,30,P,REL,Trunk_Forward,1,L_EO,138.84296257698753
BMu37,30,P,REL,Trunk_Forward,1,R_EO,110.21967126621527
BMu37,32,P,INI,Trunk_Forward,1,L_EO,131.94704330042657
BMu37,32,P,INI,Trunk_Forward,1,R_EO,125.59805788537822
BMu37,32,P,REL,Trunk_Forward,1,L_EO,115.82339825364153
BMu37,32,P,REL,Trunk_Forward,1,R_EO,130.85890998195777
BMu37,33,P,INI,Trunk_Forward,1,L_EO,74.54331376324325
BMu37,33,P,INI,Trunk_Forward,1,R_EO,82.79630840118804
BMu37,33,P,REL,Trunk_Forward,1,L_EO,73.89916705177603
BMu37,33,P,REL,Trunk_Forward,1,R_EO,76.09989457953611
BMu37,34,P,INI,Trunk_Forward,1,L_EO,103.91168791399897
BMu37,34,P,INI,Trunk_Forward,1,R_EO,96.59811395432915
BMu37,34,P,REL,Trunk_Forward,1,L_EO,109.85111650621214
BMu37,34,P,REL,Trunk_Forward,1,R_EO,86.38211436784691
BMu37,35,C,INI,Trunk_Forward,1,L_EO,107.54427377677409
BMu37,35,C,INI,Trunk_Forward,1,R_EO,109.77927306070862
BMu37,35,C,REL,Trunk_Forward,1,L_EO,103.64142146809186
BMu37,35,C,REL,Trunk_Forward,1,R_EO,101.0604280439225
BMu37,36,P,INI,Trunk_Forward,1,L_EO,103.55827987823821
BMu37,36,P,INI,Trunk_Forward,1,R_EO,109.9008847946204
BMu37,36,P,REL,Trunk_Forward,1,L_EO,93.8018337995265
BMu37,36,P,REL,Trunk_Forward,1,R_EO,103.84006456045873
BMu37,38,C,INI,Trunk_Forward,1,L_EO,103.57815673081197
BMu37,38,C,INI,Trunk_Forward,1,R_EO,84.4745800871715
BMu37,38,C,REL,Trunk_Forward,1,L_EO,97.14217410135535
BMu37,38,C,REL,Trunk_Forward,1,R_EO,105.5428677215625
BMu37,39,C,INI,Trunk_Forward,1,L_EO,66.94092389082414
BMu37,39,C,INI,Trunk_Forward,1,R_EO,63.666274977885664
BMu37,39,C,REL,Trunk_Forward,1,L_EO,92.60557287585367
BMu37,39,C,REL,Trunk_Forward,1,R_EO,130.97599179841455
BMu37,40,C,INI,Trunk_Forward,1,L_EO,94.1742318294458
BMu37,40,C,INI,Trunk_Forward,1,R_EO,82.44549275056112
BMu37,40,C,REL,Trunk_Forward,1,L_EO,91.93911366691638
BMu37,40,C,REL,Trunk_Forward,1,R_EO,89.0345761735004
BMu37,41,P,INI,Trunk_Forward,1,L_EO,95.4908840692497
BMu37,41,P,INI,Trunk_Forward,1,R_EO,114.77240276080964
BMu37,41,P,REL,Trunk_Forward,1,L_EO,105.67166615207572
BMu37,41,P,REL,Trunk_Forward,1,R_EO,115.75075534365779
BMu37,42,P,INI,Trunk_Forward,1,L_EO,106.86237007426209
BMu37,42,P,INI,Trunk_Forward,1,R_EO,102.49759835309686
BMu37,42,P,REL,Trunk_Forward,1,L_EO,101.73194658691835
BMu37,42,P,REL,Trunk_Forward,1,R_EO,101.64296071347601
BMu37,43,P,INI,Trunk_Forward,1,L_EO,103.86617164080661
BMu37,43,P,INI,Trunk_Forward,1,R_EO,114.07616442111458
BMu37,43,P,REL,Trunk_Forward,1,L_EO,101.03775709228312
BMu37,43,P,REL,Trunk_Forward,1,R_EO,115.05345971719142
BMu37,44,C,INI,Trunk_Forward,1,L_EO,106.52995382046552
BMu37,44,C,INI,Trunk_Forward,1,R_EO,113.17358725937247
BMu37,44,C,REL,Trunk_Forward,1,L_EO,94.06173763722133
BMu37,44,C,REL,Trunk_Forward,1,R_EO,113.35758007060416
BMu37,45,P,INI,Trunk_Forward,1,L_EO,133.23036337768949
BMu37,45,P,INI,Trunk_Forward,1,R_EO,130.03381897464286
BMu37,45,P,REL,Trunk_Forward,1,L_EO,142.90354287649566
BMu37,45,P,REL,Trunk_Forward,1,R_EO,148.41553971310952
BMu37,46,C,INI,Trunk_Forward,1,L_EO,109.75155553764517
BMu37,46,C,INI,Trunk_Forward,1,R_EO,108.30745075631016
BMu37,46,C,REL,Trunk_Forward,1,L_EO,77.82524739577896
BMu37,46,C,REL,Trunk_Forward,1,R_EO,67.27666406231529
BMu37,47,P,INI,Trunk_Forward,1,L_EO,94.52372867099379
BMu37,47,P,INI,Trunk_Forward,1,R_EO,92.60978088937715
BMu37,47,P,REL,Trunk_Forward,1,L_EO,95.61685394911628
BMu37,47,P,REL,Trunk_Forward,1,R_EO,94.08533355588759
BMu37,48,C,INI,Trunk_Forward,1,L_EO,107.79940416905694
BMu37,48,C,INI,Trunk_Forward,1,R_EO,112.01760049090018
BMu37,48,C,REL,Trunk_Forward,1,L_EO,98.94772456572487
BMu37,48,C,REL,Trunk_Forward,1,R_EO,113.37100236984332
BMu37,49,C,INI,Trunk_Forward,1,L_EO,95.2720532514766
BMu37,49,C,INI,Trunk_Forward,1,R_EO,106.02308668628183
BMu37,49,C,REL,Trunk_Forward,1,L_EO,71.91188718513065
BMu37,49,C,REL,Trunk_Forward,1,R_EO,109.52752256029454
BMu37,50,P,INI,Trunk_Forward,1,L_EO,86.00040707431246
BMu37,50,P,INI,Trunk_Forward,1,R_EO,122.01464741023055
BMu37,50,P,REL,Trunk_Forward,1,L_EO,84.05606785361009
BMu37,50,P,REL,Trunk_Forward,1,R_EO,97.74345677554932
BMu37,51,P,INI,Trunk_Forward,1,L_EO,128.70206442925746
BMu37,51,P,INI,Trunk_Forward,1,R_EO,87.55509024112071
BMu37,51,P,REL,Trunk_Forward,1,L_EO,141.64605673344988
BMu37,51,P,REL,Trunk_Forward,1,R_EO,103.30078801716365
BMu37,52,C,INI,Trunk_Forward,1,L_EO,90.21263292099194
BMu37,52,C,INI,Trunk_Forward,1,R_EO,112.3866105045187
BMu37,52,C,REL,Trunk_Forward,1,L_EO,103.01412344816329
BMu37,52,C,REL,Trunk_Forward,1,R_EO,108.96907967038747
BMu37,53,P,INI,Trunk_Forward,1,L_EO,120.42537174088217
BMu37,53,P,INI,Trunk_Forward,1,R_EO,118.50038683477602
BMu37,53,P,REL,Trunk_Forward,1,L_EO,136.97892826206464
BMu37,53,P,REL,Trunk_Forward,1,R_EO,123.55662210912999
BMu37,54,P,INI,Trunk_Forward,1,L_EO,124.70462597491004
BMu37,54,P,INI,Trunk_Forward,1,R_EO,85.54592833487608
BMu37,54,P,REL,Trunk_Forward,1,L_EO,83.82387718202352
BMu37,54,P,REL,Trunk_Forward,1,R_EO,88.58028770178754
BMu37,55,C,INI,Trunk_Forward,1,L_EO,101.85686727011223
BMu37,55,C,INI,Trunk_Forward,1,R_EO,94.93855701223487
BMu37,55,C,REL,Trunk_Forward,1,L_EO,100.32879602582412
BMu37,55,C,REL,Trunk_Forward,1,R_EO,79.72769280913901
BMu37,56,C,INI,Trunk_Forward,1,L_EO,112.97585973646788
BMu37,56,C,INI,Trunk_Forward,1,R_EO,95.97332615335205
BMu37,56,C,REL,Trunk_Forward,1,L_EO,93.41497504365637
BMu37,56,C,REL,Trunk_Forward,1,R_EO,97.7712677175343
BMu37,57,C,INI,Trunk_Forward,1,L_EO,60.982319074869736
BMu37,57,C,INI,Trunk_Forward,1,R_EO,186.0571000899263
BMu37,57,C,REL,Trunk_Forward,1,L_EO,109.97830926969984
BMu37,57,C,REL,Trunk_Forward,1,R_EO,124.85071612903874
BMu37,58,P,INI,Trunk_Forward,1,L_EO,131.69205178879486
BMu37,58,P,INI,Trunk_Forward,1,R_EO,130.29409977951235
BMu37,58,P,REL,Trunk_Forward,1,L_EO,129.94599723723167
BMu37,58,P,REL,Trunk_Forward,1,R_EO,124.79465495100254
BMu37,60,C,INI,Trunk_Forward,1,L_EO,101.72687418323125
BMu37,60,C,INI,Trunk_Forward,1,R_EO,82.0131991358257
BMu37,60,C,REL,Trunk_Forward,1,L_EO,95.14299184877697
BMu37,60,C,REL,Trunk_Forward,1,R_EO,84.45784432944794
BMu37,61,P,INI,Trunk_Forward,1,L_EO,103.54497329898108
BMu37,61,P,INI,Trunk_Forward,1,R_EO,106.11327290533103
BMu37,61,P,REL,Trunk_Forward,1,L_EO,147.6815857956424
BMu37,61,P,REL,Trunk_Forward,1,R_EO,148.16880101825882
BMu37,62,P,INI,Trunk_Forward,1,L_EO,88.23836910431304
BMu37,62,P,INI,Trunk_Forward,1,R_EO,126.47725866599052
BMu37,62,P,REL,Trunk_Forward,1,L_EO,95.29532393410118
BMu37,62,P,REL,Trunk_Forward,1,R_EO,124.48520470941963
BMu37,63,P,INI,Trunk_Forward,1,L_EO,81.8460346654463
BMu37,63,P,INI,Trunk_Forward,1,R_EO,65.861263233929
BMu37,63,P,REL,Trunk_Forward,1,L_EO,109.94511587806437
BMu37,63,P,REL,Trunk_Forward,1,R_EO,100.95834261432266
BMu37,64,C,INI,Trunk_Forward,1,L_EO,91.51949908205421
BMu37,64,C,INI,Trunk_Forward,1,R_EO,97.52716334375377
BMu37,64,C,REL,Trunk_Forward,1,L_EO,85.40094810647976
BMu37,64,C,REL,Trunk_Forward,1,R_EO,83.82591749684671
BMu37,65,P,INI,Trunk_Forward,1,L_EO,105.96452057075022
BMu37,65,P,INI,Trunk_Forward,1,R_EO,107.41719369387289
BMu37,65,P,REL,Trunk_Forward,1,L_EO,102.94805573904367
BMu37,65,P,REL,Trunk_Forward,1,R_EO,107.49995031726571
BMu37,66,C,INI,Trunk_Forward,1,L_EO,155.36505257689913
BMu37,66,C,INI,Trunk_Forward,1,R_EO,194.90811292490383
BMu37,66,C,REL,Trunk_Forward,1,L_EO,118.83948439559458
BMu37,66,C,REL,Trunk_Forward,1,R_EO,70.52417616810361
BMu37,67,C,INI,Trunk_Forward,1,L_EO,80.4465071966638
BMu37,67,C,INI,Trunk_Forward,1,R_EO,67.59178752611274
BMu37,67,C,REL,Trunk_Forward,1,L_EO,65.13477821339639
BMu37,67,C,REL,Trunk_Forward,1,R_EO,66.02801250782238
BMu37,68,C,INI,Trunk_Forward,1,L_EO,82.99887141213011
BMu37,68,C,INI,Trunk_Forward,1,R_EO,48.49031849770385
BMu37,68,C,REL,Trunk_Forward,1,L_EO,92.81347661740864
BMu37,68,C,REL,Trunk_Forward,1,R_EO,65.72264149943892
