BM,subject,P_C,session,task,repetition,channel,value
BMu36,1,C,INI,Trunk_Forward,1,L_MTF,4.663135285353904
BMu36,1,C,INI,Trunk_Forward,1,R_MTF,9.13350458984256
BMu36,1,C,REL,Trunk_Forward,1,L_MTF,7.6257602547846455
BMu36,1,C,REL,Trunk_Forward,1,R_MTF,9.267064146490615
BMu36,2,C,INI,Trunk_Forward,1,L_MTF,2.938799123615496
BMu36,2,C,INI,Trunk_Forward,1,R_MTF,3.9939637413147406
BMu36,2,C,REL,Trunk_Forward,1,L_MTF,3.5607279441047104
BMu36,2,C,REL,Trunk_Forward,1,R_MTF,4.072741802667809
BMu36,3,C,INI,Trunk_Forward,1,L_MTF,8.020069509755343
BMu36,3,C,INI,Trunk_Forward,1,R_MTF,10.306184222936132
BMu36,3,C,REL,Trunk_Forward,1,L_MTF,14.275234387036676
BMu36,3,C,REL,Trunk_Forward,1,R_MTF,13.831742073363602
BMu36,5,C,INI,Trunk_Forward,1,L_MTF,2.24787153225028
BMu36,5,C,INI,Trunk_Forward,1,R_MTF,3.8696297459171802
BMu36,5,C,REL,Trunk_Forward,1,L_MTF,13.70669547301404
BMu36,5,C,REL,Trunk_Forward,1,R_MTF,16.815769304075346
BMu36,6,C,INI,Trunk_Forward,1,L_MTF,33.21152497860439
BMu36,6,C,INI,Trunk_Forward,1,R_MTF,42.52108676637167
BMu36,6,C,REL,Trunk_Forward,1,L_MTF,36.051091384395725
BMu36,6,C,REL,Trunk_Forward,1,R_MTF,41.50051442374903
BMu36,7,C,INI,Trunk_Forward,1,L_MTF,45.851796692940866
BMu36,7,C,INI,Trunk_Forward,1,R_MTF,44.309460352137194
BMu36,7,C,REL,Trunk_Forward,1,L_MTF,17.590330522252973
BMu36,7,C,REL,Trunk_Forward,1,R_MTF,5.748984463974915
BMu36,8,C,INI,Trunk_Forward,1,L_MTF,9.279474599391628
BMu36,8,C,INI,Trunk_Forward,1,R_MTF,7.9731101639416835
BMu36,8,C,REL,Trunk_Forward,1,L_MTF,6.848074354795941
BMu36,8,C,REL,Trunk_Forward,1,R_MTF,4.686847005400877
BMu36,9,P,INI,Trunk_Forward,1,L_MTF,57.86790776056099
BMu36,9,P,INI,Trunk_Forward,1,R_MTF,53.05662411696123
BMu36,9,P,REL,Trunk_Forward,1,L_MTF,40.70497069585955
BMu36,9,P,REL,Trunk_Forward,1,R_MTF,69.13295743595665
BMu36,10,P,INI,Trunk_Forward,1,L_MTF,10.939497908111406
BMu36,10,P,INI,Trunk_Forward,1,R_MTF,21.132795147736374
BMu36,10,P,REL,Trunk_Forward,1,L_MTF,19.525976107546345
BMu36,10,P,REL,Trunk_Forward,1,R_MTF,24.769420779513283
BMu36,11,P,INI,Trunk_Forward,1,L_MTF,29.82322966130111
BMu36,11,P,INI,Trunk_Forward,1,R_MTF,22.403890609214912
BMu36,11,P,REL,Trunk_Forward,1,L_MTF,29.328025313494535
BMu36,11,P,REL,Trunk_Forward,1,R_MTF,20.52464351118692
BMu36,12,P,INI,Trunk_Forward,1,L_MTF,46.434916338017125
BMu36,12,P,INI,Trunk_Forward,1,R_MTF,49.151429217310486
BMu36,12,P,REL,Trunk_Forward,1,L_MTF,43.30617835410672
BMu36,12,P,REL,Trunk_Forward,1,R_MTF,80.31782247981864
BMu36,13,C,INI,Trunk_Forward,1,L_MTF,24.732576772254884
BMu36,13,C,INI,Trunk_Forward,1,R_MTF,27.72294170971495
BMu36,13,C,REL,Trunk_Forward,1,L_MTF,39.31722970921712
BMu36,13,C,REL,Trunk_Forward,1,R_MTF,38.896366163838884
BMu36,14,P,INI,Trunk_Forward,1,L_MTF,41.72601015015061
BMu36,14,P,INI,Trunk_Forward,1,R_MTF,40.421309005211306
BMu36,14,P,REL,Trunk_Forward,1,L_MTF,54.32152711921178
BMu36,14,P,REL,Trunk_Forward,1,R_MTF,51.19350727383142
BMu36,16,C,INI,Trunk_Forward,1,L_MTF,8.927544085767334
BMu36,16,C,INI,Trunk_Forward,1,R_MTF,20.817125209732115
BMu36,16,C,REL,Trunk_Forward,1,L_MTF,13.456783292200761
BMu36,16,C,REL,Trunk_Forward,1,R_MTF,11.469361029766615
BMu36,17,P,INI,Trunk_Forward,1,L_MTF,12.747581099325423
BMu36,17,P,INI,Trunk_Forward,1,R_MTF,12.894153524886221
BMu36,17,P,REL,Trunk_Forward,1,L_MTF,34.792341531643146
BMu36,17,P,REL,Trunk_Forward,1,R_MTF,31.776342011437652
BMu36,21,C,INI,Trunk_Forward,1,L_MTF,9.797612324683358
BMu36,21,C,INI,Trunk_Forward,1,R_MTF,42.03438259670042
BMu36,21,C,REL,Trunk_Forward,1,L_MTF,53.36871869795768
BMu36,21,C,REL,Trunk_Forward,1,R_MTF,59.98013468665099
BMu36,22,C,INI,Trunk_Forward,1,L_MTF,7.953434946624124
BMu36,22,C,INI,Trunk_Forward,1,R_MTF,19.147477798486054
BMu36,22,C,REL,Trunk_Forward,1,L_MTF,17.07914386561835
BMu36,22,C,REL,Trunk_Forward,1,R_MTF,12.199342412643597
BMu36,23,C,INI,Trunk_Forward,1,L_MTF,16.273380149203543
BMu36,23,C,INI,Trunk_Forward,1,R_MTF,13.184031663311687
BMu36,23,C,REL,Trunk_Forward,1,L_MTF,6.028549543056598
BMu36,23,C,REL,Trunk_Forward,1,R_MTF,5.602164701870579
BMu36,24,P,INI,Trunk_Forward,1,L_MTF,45.237454670688834
BMu36,24,P,INI,Trunk_Forward,1,R_MTF,64.3167800950658
BMu36,24,P,REL,Trunk_Forward,1,L_MTF,35.269248524947876
BMu36,24,P,REL,Trunk_Forward,1,R_MTF,41.54965540043368
BMu36,25,C,INI,Trunk_Forward,1,L_MTF,23.200718593867368
BMu36,25,C,INI,Trunk_Forward,1,R_MTF,9.719275086234818
BMu36,25,C,REL,Trunk_Forward,1,L_MTF,24.653322535840584
BMu36,25,C,REL,Trunk_Forward,1,R_MTF,13.341778132206125
BMu36,26,P,INI,Trunk_Forward,1,L_MTF,11.29183242359794
BMu36,26,P,INI,Trunk_Forward,1,R_MTF,19.204473832574067
BMu36,26,P,REL,Trunk_Forward,1,L_MTF,17.33481144441629
BMu36,26,P,REL,Trunk_Forward,1,R_MTF,20.438753178754396
BMu36,27,P,INI,Trunk_Forward,1,L_MTF,36.93707403642356
BMu36,27,P,INI,Trunk_Forward,1,R_MTF,44.917190273084024
BMu36,27,P,REL,Trunk_Forward,1,L_MTF,34.85264076923236
BMu36,27,P,REL,Trunk_Forward,1,R_MTF,52.26170651632637
BMu36,28,P,INI,Trunk_Forward,1,L_MTF,64.40177965152314
BMu36,28,P,INI,Trunk_Forward,1,R_MTF,60.713306338633366
BMu36,28,P,REL,Trunk_Forward,1,L_MTF,49.25772693462375
BMu36,28,P,REL,Trunk_Forward,1,R_MTF,53.18823279741947
BMu36,29,P,INI,Trunk_Forward,1,L_MTF,18.586403735039788
BMu36,29,P,INI,Trunk_Forward,1,R_MTF,26.28962320254747
BMu36,29,P,REL,Trunk_Forward,1,L_MTF,15.31605804214422
BMu36,29,P,REL,Trunk_Forward,1,R_MTF,22.208998048764585
BMu36,30,P,INI,Trunk_Forward,1,L_MTF,20.415067007451594
BMu36,30,P,INI,Trunk_Forward,1,R_MTF,11.918293954222912
BMu36,30,P,REL,Trunk_Forward,1,L_MTF,51.73019076726215
BMu36,30,P,REL,Trunk_Forward,1,R_MTF,46.36274483723373
BMu36,32,P,INI,Trunk_Forward,1,L_MTF,11.149733318808948
BMu36,32,P,INI,Trunk_Forward,1,R_MTF,12.342888150856192
BMu36,32,P,REL,Trunk_Forward,1,L_MTF,13.811813227652586
BMu36,32,P,REL,Trunk_Forward,1,R_MTF,22.949133835304497
BMu36,33,P,INI,Trunk_Forward,1,L_MTF,86.06288122999322
BMu36,33,P,INI,Trunk_Forward,1,R_MTF,93.01833310312941
BMu36,33,P,REL,Trunk_Forward,1,L_MTF,100.16529502520159
BMu36,33,P,REL,Trunk_Forward,1,R_MTF,77.22508589495864
BMu36,34,P,INI,Trunk_Forward,1,L_MTF,7.820070047267266
BMu36,34,P,INI,Trunk_Forward,1,R_MTF,20.66943578002122
BMu36,34,P,REL,Trunk_Forward,1,L_MTF,7.0602138286440015
BMu36,34,P,REL,Trunk_Forward,1,R_MTF,9.680029802886624
BMu36,35,C,INI,Trunk_Forward,1,L_MTF,2.869614610434167
BMu36,35,C,INI,Trunk_Forward,1,R_MTF,3.178983881698725
BMu36,35,C,REL,Trunk_Forward,1,L_MTF,3.2132752402539584
BMu36,35,C,REL,Trunk_Forward,1,R_MTF,4.376017382132951
BMu36,36,P,INI,Trunk_Forward,1,L_MTF,45.684884554543366
BMu36,36,P,INI,Trunk_Forward,1,R_MTF,71.49344315937411
BMu36,36,P,REL,Trunk_Forward,1,L_MTF,43.022598717830896
BMu36,36,P,REL,Trunk_Forward,1,R_MTF,75.9564529868094
BMu36,38,C,INI,Trunk_Forward,1,L_MTF,25.388853967750993
BMu36,38,C,INI,Trunk_Forward,1,R_MTF,6.179955297810873
BMu36,38,C,REL,Trunk_Forward,1,L_MTF,4.67910646699584
BMu36,38,C,REL,Trunk_Forward,1,R_MTF,7.602550548490843
BMu36,39,C,INI,Trunk_Forward,1,L_MTF,9.84816137718071
BMu36,39,C,INI,Trunk_Forward,1,R_MTF,10.919957436153739
BMu36,39,C,REL,Trunk_Forward,1,L_MTF,28.436129754117275
BMu36,39,C,REL,Trunk_Forward,1,R_MTF,31.70055281189433
BMu36,40,C,INI,Trunk_Forward,1,L_MTF,1.6718876468669466
BMu36,40,C,INI,Trunk_Forward,1,R_MTF,2.728203814689467
BMu36,40,C,REL,Trunk_Forward,1,L_MTF,4.905918279884147
BMu36,40,C,REL,Trunk_Forward,1,R_MTF,6.306866335625867
BMu36,41,P,INI,Trunk_Forward,1,L_MTF,7.473138044786745
BMu36,41,P,INI,Trunk_Forward,1,R_MTF,6.201535268065361
BMu36,41,P,REL,Trunk_Forward,1,L_MTF,10.952064632823758
BMu36,41,P,REL,Trunk_Forward,1,R_MTF,8.283806897986945
BMu36,42,P,INI,Trunk_Forward,1,L_MTF,34.27362641330563
BMu36,42,P,INI,Trunk_Forward,1,R_MTF,24.061020501886276
BMu36,42,P,REL,Trunk_Forward,1,L_MTF,37.943310193978625
BMu36,42,P,REL,Trunk_Forward,1,R_MTF,25.5916759147383
BMu36,43,P,INI,Trunk_Forward,1,L_MTF,2.5042023221267877
BMu36,43,P,INI,Trunk_Forward,1,R_MTF,7.91722193342082
BMu36,43,P,REL,Trunk_Forward,1,L_MTF,4.5198625463089535
BMu36,43,P,REL,Trunk_Forward,1,R_MTF,16.13929417724017
BMu36,44,C,INI,Trunk_Forward,1,L_MTF,183.2990228219296
BMu36,44,C,INI,Trunk_Forward,1,R_MTF,15.413892067720235
BMu36,44,C,REL,Trunk_Forward,1,L_MTF,5.318062432821507
BMu36,44,C,REL,Trunk_Forward,1,R_MTF,5.103370242294555
BMu36,45,P,INI,Trunk_Forward,1,L_MTF,27.32621536714664
BMu36,45,P,INI,Trunk_Forward,1,R_MTF,68.15119045809992
BMu36,45,P,REL,Trunk_Forward,1,L_MTF,48.95035108411894
BMu36,45,P,REL,Trunk_Forward,1,R_MTF,98.11086922767576
BMu36,46,C,INI,Trunk_Forward,1,L_MTF,60.01941764260081
BMu36,46,C,INI,Trunk_Forward,1,R_MTF,9.405050756376832
BMu36,46,C,REL,Trunk_Forward,1,L_MTF,8.94323438555887
BMu36,46,C,REL,Trunk_Forward,1,R_MTF,6.343864351497602
BMu36,47,P,INI,Trunk_Forward,1,L_MTF,29.933737208183487
BMu36,47,P,INI,Trunk_Forward,1,R_MTF,37.41806106931144
BMu36,47,P,REL,Trunk_Forward,1,L_MTF,27.608680532317802
BMu36,47,P,REL,Trunk_Forward,1,R_MTF,26.13265515995012
BMu36,48,C,INI,Trunk_Forward,1,L_MTF,4.0170185721919625
BMu36,48,C,INI,Trunk_Forward,1,R_MTF,4.146160683115061
BMu36,48,C,REL,Trunk_Forward,1,L_MTF,4.043640738525242
BMu36,48,C,REL,Trunk_Forward,1,R_MTF,4.826360948651548
BMu36,49,C,INI,Trunk_Forward,1,L_MTF,3.3065080717314914
BMu36,49,C,INI,Trunk_Forward,1,R_MTF,6.535184327560576
BMu36,49,C,REL,Trunk_Forward,1,L_MTF,3.126509419604664
BMu36,49,C,REL,Trunk_Forward,1,R_MTF,3.7099422837097875
BMu36,50,P,INI,Trunk_Forward,1,L_MTF,23.418300165410496
BMu36,50,P,INI,Trunk_Forward,1,R_MTF,32.846825239732404
BMu36,50,P,REL,Trunk_Forward,1,L_MTF,47.978892718225154
BMu36,50,P,REL,Trunk_Forward,1,R_MTF,24.020902403434008
BMu36,51,P,INI,Trunk_Forward,1,L_MTF,42.237704943580844
BMu36,51,P,INI,Trunk_Forward,1,R_MTF,32.5891133648297
BMu36,51,P,REL,Trunk_Forward,1,L_MTF,33.84941649171028
BMu36,51,P,REL,Trunk_Forward,1,R_MTF,19.023974063028337
BMu36,52,C,INI,Trunk_Forward,1,L_MTF,1.5281762683072315
BMu36,52,C,INI,Trunk_Forward,1,R_MTF,2.7519990429353727
BMu36,52,C,REL,Trunk_Forward,1,L_MTF,3.6065931622080676
BMu36,52,C,REL,Trunk_Forward,1,R_MTF,8.758765984615689
BMu36,53,P,INI,Trunk_Forward,1,L_MTF,34.35680475013416
BMu36,53,P,INI,Trunk_Forward,1,R_MTF,43.06675720517097
BMu36,53,P,REL,Trunk_Forward,1,L_MTF,35.569180357950465
BMu36,53,P,REL,Trunk_Forward,1,R_MTF,39.8915559857246
BMu36,54,P,INI,Trunk_Forward,1,L_MTF,7.45070054246055
BMu36,54,P,INI,Trunk_Forward,1,R_MTF,5.182192563540444
BMu36,54,P,REL,Trunk_Forward,1,L_MTF,6.129933880482956
BMu36,54,P,REL,Trunk_Forward,1,R_MTF,2.948281683897413
BMu36,55,C,INI,Trunk_Forward,1,L_MTF,7.3187342026615925
BMu36,55,C,INI,Trunk_Forward,1,R_MTF,11.962656593811346
BMu36,55,C,REL,Trunk_Forward,1,L_MTF,6.437563183203164
BMu36,55,C,REL,Trunk_Forward,1,R_MTF,10.01145376570529
BMu36,56,C,INI,Trunk_Forward,1,L_MTF,11.58580233127559
BMu36,56,C,INI,Trunk_Forward,1,R_MTF,11.509173079183249
BMu36,56,C,REL,Trunk_Forward,1,L_MTF,17.989963858728018
BMu36,56,C,REL,Trunk_Forward,1,R_MTF,15.70700186838125
BMu36,57,C,INI,Trunk_Forward,1,L_MTF,48.14527583126505
BMu36,57,C,INI,Trunk_Forward,1,R_MTF,28.457816171114047
BMu36,57,C,REL,Trunk_Forward,1,L_MTF,36.43065137048468
BMu36,57,C,REL,Trunk_Forward,1,R_MTF,43.20799029867947
BMu36,58,P,INI,Trunk_Forward,1,L_MTF,11.977958319768474
BMu36,58,P,INI,Trunk_Forward,1,R_MTF,147.8622396314946
BMu36,58,P,REL,Trunk_Forward,1,L_MTF,52.31326651182514
BMu36,58,P,REL,Trunk_Forward,1,R_MTF,42.088710879241184
BMu36,60,C,INI,Trunk_Forward,1,L_MTF,8.644589524635125
BMu36,60,C,INI,Trunk_Forward,1,R_MTF,8.896594827771038
BMu36,60,C,REL,Trunk_Forward,1,L_MTF,17.296986559948383
BMu36,60,C,REL,Trunk_Forward,1,R_MTF,18.67862732454
BMu36,61,P,REL,Trunk_Forward,1,L_MTF,9.762237760883021
BMu36,61,P,REL,Trunk_Forward,1,R_MTF,7.652916581949161
BMu36,62,P,INI,Trunk_Forward,1,L_MTF,44.298834936039405
BMu36,62,P,INI,Trunk_Forward,1,R_MTF,49.23032043014007
BMu36,62,P,REL,Trunk_Forward,1,L_MTF,54.23204917038978
BMu36,62,P,REL,Trunk_Forward,1,R_MTF,56.700058051337386
BMu36,63,P,INI,Trunk_Forward,1,L_MTF,23.530158280277757
BMu36,63,P,INI,Trunk_Forward,1,R_MTF,11.654767097638711
BMu36,63,P,REL,Trunk_Forward,1,L_MTF,10.98150401339659
BMu36,63,P,REL,Trunk_Forward,1,R_MTF,8.880256084998964
BMu36,64,C,INI,Trunk_Forward,1,L_MTF,10.038558728182988
BMu36,64,C,INI,Trunk_Forward,1,R_MTF,11.020588765220701
BMu36,64,C,REL,Trunk_Forward,1,L_MTF,2.1918524566868838
BMu36,64,C,REL,Trunk_Forward,1,R_MTF,3.8247503327910337
BMu36,65,P,INI,Trunk_Forward,1,L_MTF,9.914103291027486
BMu36,65,P,INI,Trunk_Forward,1,R_MTF,6.131130943948137
BMu36,65,P,REL,Trunk_Forward,1,L_MTF,21.101679548313076
BMu36,65,P,REL,Trunk_Forward,1,R_MTF,9.925915111600695
BMu36,66,C,INI,Trunk_Forward,1,L_MTF,5.657252808205681
BMu36,66,C,INI,Trunk_Forward,1,R_MTF,18.20405805473929
BMu36,66,C,REL,Trunk_Forward,1,L_MTF,19.019609239530872
BMu36,66,C,REL,Trunk_Forward,1,R_MTF,20.654731468233045
BMu36,67,C,INI,Trunk_Forward,1,L_MTF,3.683589396741907
BMu36,67,C,INI,Trunk_Forward,1,R_MTF,12.060707584455052
BMu36,67,C,REL,Trunk_Forward,1,L_MTF,7.237814509095041
BMu36,67,C,REL,Trunk_Forward,1,R_MTF,5.680176801863794
BMu36,68,C,INI,Trunk_Forward,1,L_MTF,30.766337154728898
BMu36,68,C,INI,Trunk_Forward,1,R_MTF,59.18279073170456
BMu36,68,C,REL,Trunk_Forward,1,L_MTF,16.982895828422755
BMu36,68,C,REL,Trunk_Forward,1,R_MTF,48.373307237156354
