BM,subject,P_C,session,task,repetition,channel,value
BMu38,1,C,INI,Trunk_Forward,1,L_MTF,99.6527092826873
BMu38,1,C,INI,Trunk_Forward,1,R_MTF,38.964206011434136
BMu38,1,C,REL,Trunk_Forward,1,L_MTF,79.57636645139355
BMu38,1,C,REL,Trunk_Forward,1,R_MTF,43.206329431890346
BMu38,2,C,INI,Trunk_Forward,1,L_MTF,104.40987659098228
BMu38,2,C,INI,Trunk_Forward,1,R_MTF,95.02000734038756
BMu38,2,C,REL,Trunk_Forward,1,L_MTF,104.35872602507335
BMu38,2,C,REL,Trunk_Forward,1,R_MTF,100.45217757613904
BMu38,3,C,INI,Trunk_Forward,1,L_MTF,90.01118657726325
BMu38,3,C,INI,Trunk_Forward,1,R_MTF,91.15201392061662
BMu38,3,C,REL,Trunk_Forward,1,L_MTF,90.72859579080837
BMu38,3,C,REL,Trunk_Forward,1,R_MTF,79.67398572646111
BMu38,5,C,INI,Trunk_Forward,1,L_MTF,131.27143639397818
BMu38,5,C,INI,Trunk_Forward,1,R_MTF,122.63544009120005
BMu38,5,C,REL,Trunk_Forward,1,L_MTF,132.2085125271622
BMu38,5,C,REL,Trunk_Forward,1,R_MTF,127.31911940600759
BMu38,6,C,INI,Trunk_Forward,1,L_MTF,108.53198064161579
BMu38,6,C,INI,Trunk_Forward,1,R_MTF,107.79035080410323
BMu38,6,C,REL,Trunk_Forward,1,L_MTF,105.9587814685887
BMu38,6,C,REL,Trunk_Forward,1,R_MTF,105.44140927932084
BMu38,7,C,INI,Trunk_Forward,1,L_MTF,96.3845161661224
BMu38,7,C,INI,Trunk_Forward,1,R_MTF,114.46490925198388
BMu38,7,C,REL,Trunk_Forward,1,L_MTF,130.21941658048098
BMu38,7,C,REL,Trunk_Forward,1,R_MTF,125.20340040716451
BMu38,8,C,INI,Trunk_Forward,1,L_MTF,41.798834555718365
BMu38,8,C,INI,Trunk_Forward,1,R_MTF,99.90729561142808
BMu38,8,C,REL,Trunk_Forward,1,L_MTF,98.00331356969771
BMu38,8,C,REL,Trunk_Forward,1,R_MTF,99.72296546115308
BMu38,9,P,INI,Trunk_Forward,1,L_MTF,111.72013471778183
BMu38,9,P,INI,Trunk_Forward,1,R_MTF,117.54852677542445
BMu38,9,P,REL,Trunk_Forward,1,L_MTF,123.30470175390828
BMu38,9,P,REL,Trunk_Forward,1,R_MTF,129.67988848040144
BMu38,10,P,INI,Trunk_Forward,1,L_MTF,84.60318414312906
BMu38,10,P,INI,Trunk_Forward,1,R_MTF,49.449692000791174
BMu38,10,P,REL,Trunk_Forward,1,L_MTF,120.88038716153137
BMu38,10,P,REL,Trunk_Forward,1,R_MTF,34.51638531221297
BMu38,11,P,INI,Trunk_Forward,1,L_MTF,124.1765203045497
BMu38,11,P,INI,Trunk_Forward,1,R_MTF,91.86475012267886
BMu38,11,P,REL,Trunk_Forward,1,L_MTF,116.19294383148097
BMu38,11,P,REL,Trunk_Forward,1,R_MTF,74.81062438963154
BMu38,12,P,INI,Trunk_Forward,1,L_MTF,99.80882877020406
BMu38,12,P,INI,Trunk_Forward,1,R_MTF,95.82293771630164
BMu38,12,P,REL,Trunk_Forward,1,L_MTF,83.56338910201303
BMu38,12,P,REL,Trunk_Forward,1,R_MTF,99.20441562844958
BMu38,13,C,INI,Trunk_Forward,1,L_MTF,106.35957397487236
BMu38,13,C,INI,Trunk_Forward,1,R_MTF,96.61492013773959
BMu38,13,C,REL,Trunk_Forward,1,L_MTF,107.82414211792654
BMu38,13,C,REL,Trunk_Forward,1,R_MTF,98.03009986017071
BMu38,14,P,INI,Trunk_Forward,1,L_MTF,76.45370837424315
BMu38,14,P,INI,Trunk_Forward,1,R_MTF,88.71787046114696
BMu38,14,P,REL,Trunk_Forward,1,L_MTF,81.343397027413
BMu38,14,P,REL,Trunk_Forward,1,R_MTF,85.81703930033756
BMu38,16,C,INI,Trunk_Forward,1,L_MTF,97.45348595890682
BMu38,16,C,INI,Trunk_Forward,1,R_MTF,46.48304621257452
BMu38,16,C,REL,Trunk_Forward,1,L_MTF,69.0311505811871
BMu38,16,C,REL,Trunk_Forward,1,R_MTF,103.08363553226503
BMu38,17,P,INI,Trunk_Forward,1,L_MTF,118.69698364324147
BMu38,17,P,INI,Trunk_Forward,1,R_MTF,117.30989770382205
BMu38,17,P,REL,Trunk_Forward,1,L_MTF,81.58382326409814
BMu38,17,P,REL,Trunk_Forward,1,R_MTF,108.57794088572636
BMu38,21,C,INI,Trunk_Forward,1,L_MTF,61.429682581577175
BMu38,21,C,INI,Trunk_Forward,1,R_MTF,82.96271291561129
BMu38,21,C,REL,Trunk_Forward,1,L_MTF,71.41756928391605
BMu38,21,C,REL,Trunk_Forward,1,R_MTF,83.2325055687542
BMu38,22,C,INI,Trunk_Forward,1,L_MTF,94.32644234336931
BMu38,22,C,INI,Trunk_Forward,1,R_MTF,44.27082116329451
BMu38,22,C,REL,Trunk_Forward,1,L_MTF,78.21967122525075
BMu38,22,C,REL,Trunk_Forward,1,R_MTF,45.33653331460542
BMu38,23,C,INI,Trunk_Forward,1,L_MTF,60.98747937313804
BMu38,23,C,INI,Trunk_Forward,1,R_MTF,60.32284133249772
BMu38,23,C,REL,Trunk_Forward,1,L_MTF,92.87368826583828
BMu38,23,C,REL,Trunk_Forward,1,R_MTF,97.03572695231412
BMu38,24,P,INI,Trunk_Forward,1,L_MTF,108.16842561325609
BMu38,24,P,INI,Trunk_Forward,1,R_MTF,98.1365365712905
BMu38,24,P,REL,Trunk_Forward,1,L_MTF,116.43902898168193
BMu38,24,P,REL,Trunk_Forward,1,R_MTF,105.81958585780164
BMu38,25,C,INI,Trunk_Forward,1,L_MTF,39.84466919134557
BMu38,25,C,INI,Trunk_Forward,1,R_MTF,118.61983319540076
BMu38,25,C,REL,Trunk_Forward,1,L_MTF,129.0013068693551
BMu38,25,C,REL,Trunk_Forward,1,R_MTF,124.34197785270659
BMu38,26,P,INI,Trunk_Forward,1,L_MTF,84.14268761427665
BMu38,26,P,INI,Trunk_Forward,1,R_MTF,38.70188513542672
BMu38,26,P,REL,Trunk_Forward,1,L_MTF,68.93094253995916
BMu38,26,P,REL,Trunk_Forward,1,R_MTF,42.4757292146085
BMu38,27,P,INI,Trunk_Forward,1,L_MTF,86.15533542041707
BMu38,27,P,INI,Trunk_Forward,1,R_MTF,76.87038024619399
BMu38,27,P,REL,Trunk_Forward,1,L_MTF,96.62637095810173
BMu38,27,P,REL,Trunk_Forward,1,R_MTF,85.50163658204035
BMu38,28,P,INI,Trunk_Forward,1,L_MTF,126.19933427686074
BMu38,28,P,INI,Trunk_Forward,1,R_MTF,113.30779964485383
BMu38,28,P,REL,Trunk_Forward,1,L_MTF,142.63183630048124
BMu38,28,P,REL,Trunk_Forward,1,R_MTF,122.28987734117834
BMu38,29,P,INI,Trunk_Forward,1,L_MTF,101.82092489257012
BMu38,29,P,INI,Trunk_Forward,1,R_MTF,103.50348443490527
BMu38,29,P,REL,Trunk_Forward,1,L_MTF,101.84366587096274
BMu38,29,P,REL,Trunk_Forward,1,R_MTF,103.19570425964046
BMu38,30,P,INI,Trunk_Forward,1,L_MTF,79.14041383090377
BMu38,30,P,INI,Trunk_Forward,1,R_MTF,59.61342425783991
BMu38,30,P,REL,Trunk_Forward,1,L_MTF,122.28586485493393
BMu38,30,P,REL,Trunk_Forward,1,R_MTF,120.39928468012833
BMu38,32,P,INI,Trunk_Forward,1,L_MTF,112.25029874826198
BMu38,32,P,INI,Trunk_Forward,1,R_MTF,120.24836475645641
BMu38,32,P,REL,Trunk_Forward,1,L_MTF,102.54935951636858
BMu38,32,P,REL,Trunk_Forward,1,R_MTF,99.78157003615516
BMu38,33,P,INI,Trunk_Forward,1,L_MTF,96.60477703440415
BMu38,33,P,INI,Trunk_Forward,1,R_MTF,90.71010441140214
BMu38,33,P,REL,Trunk_Forward,1,L_MTF,95.65794831165839
BMu38,33,P,REL,Trunk_Forward,1,R_MTF,86.75340941528192
BMu38,34,P,INI,Trunk_Forward,1,L_MTF,104.90471538928018
BMu38,34,P,INI,Trunk_Forward,1,R_MTF,32.855276308333835
BMu38,34,P,REL,Trunk_Forward,1,L_MTF,104.10971386672581
BMu38,34,P,REL,Trunk_Forward,1,R_MTF,100.9151440774457
BMu38,35,C,INI,Trunk_Forward,1,L_MTF,110.84551537429009
BMu38,35,C,INI,Trunk_Forward,1,R_MTF,111.0851326063134
BMu38,35,C,REL,Trunk_Forward,1,L_MTF,107.80273199008661
BMu38,35,C,REL,Trunk_Forward,1,R_MTF,110.45261853471341
BMu38,36,P,INI,Trunk_Forward,1,L_MTF,107.40366793716919
BMu38,36,P,INI,Trunk_Forward,1,R_MTF,100.92903252420813
BMu38,36,P,REL,Trunk_Forward,1,L_MTF,115.64822806755758
BMu38,36,P,REL,Trunk_Forward,1,R_MTF,112.82245947616656
BMu38,38,C,INI,Trunk_Forward,1,L_MTF,31.908605427393713
BMu38,38,C,INI,Trunk_Forward,1,R_MTF,91.78550029636024
BMu38,38,C,REL,Trunk_Forward,1,L_MTF,105.27513250140898
BMu38,38,C,REL,Trunk_Forward,1,R_MTF,89.93333895442221
BMu38,39,C,INI,Trunk_Forward,1,L_MTF,101.01138307767435
BMu38,39,C,INI,Trunk_Forward,1,R_MTF,103.91182288601611
BMu38,39,C,REL,Trunk_Forward,1,L_MTF,97.64902742949846
BMu38,39,C,REL,Trunk_Forward,1,R_MTF,87.06252637459947
BMu38,40,C,INI,Trunk_Forward,1,L_MTF,67.71489293828367
BMu38,40,C,INI,Trunk_Forward,1,R_MTF,131.8784342603111
BMu38,40,C,REL,Trunk_Forward,1,L_MTF,117.52075928889087
BMu38,40,C,REL,Trunk_Forward,1,R_MTF,120.19152540435131
BMu38,41,P,INI,Trunk_Forward,1,L_MTF,90.05001302588555
BMu38,41,P,INI,Trunk_Forward,1,R_MTF,85.40369590123873
BMu38,41,P,REL,Trunk_Forward,1,L_MTF,86.78793031176055
BMu38,41,P,REL,Trunk_Forward,1,R_MTF,83.02678342781361
BMu38,42,P,INI,Trunk_Forward,1,L_MTF,98.12270682684209
BMu38,42,P,INI,Trunk_Forward,1,R_MTF,95.65484656745794
BMu38,42,P,REL,Trunk_Forward,1,L_MTF,96.207186969345
BMu38,42,P,REL,Trunk_Forward,1,R_MTF,98.53746649094751
BMu38,43,P,INI,Trunk_Forward,1,L_MTF,108.76090972853179
BMu38,43,P,INI,Trunk_Forward,1,R_MTF,79.86118087543899
BMu38,43,P,REL,Trunk_Forward,1,L_MTF,108.15658701974463
BMu38,43,P,REL,Trunk_Forward,1,R_MTF,109.99588928782566
BMu38,44,C,INI,Trunk_Forward,1,L_MTF,44.68779657755632
BMu38,44,C,INI,Trunk_Forward,1,R_MTF,105.81109349580971
BMu38,44,C,REL,Trunk_Forward,1,L_MTF,113.70804896780727
BMu38,44,C,REL,Trunk_Forward,1,R_MTF,117.32803155000856
BMu38,45,P,INI,Trunk_Forward,1,L_MTF,84.68870820374963
BMu38,45,P,INI,Trunk_Forward,1,R_MTF,71.30522301483172
BMu38,45,P,REL,Trunk_Forward,1,L_MTF,81.60453255139963
BMu38,45,P,REL,Trunk_Forward,1,R_MTF,67.3164385445953
BMu38,46,C,INI,Trunk_Forward,1,L_MTF,55.004754528407965
BMu38,46,C,INI,Trunk_Forward,1,R_MTF,65.85064152010052
BMu38,46,C,REL,Trunk_Forward,1,L_MTF,63.77329118248914
BMu38,46,C,REL,Trunk_Forward,1,R_MTF,75.45645343678002
BMu38,47,P,INI,Trunk_Forward,1,L_MTF,82.03029339644553
BMu38,47,P,INI,Trunk_Forward,1,R_MTF,82.11738863014806
BMu38,47,P,REL,Trunk_Forward,1,L_MTF,97.59380537388365
BMu38,47,P,REL,Trunk_Forward,1,R_MTF,73.2123837966763
BMu38,48,C,INI,Trunk_Forward,1,L_MTF,112.28798619687443
BMu38,48,C,INI,Trunk_Forward,1,R_MTF,118.30324796133458
BMu38,48,C,REL,Trunk_Forward,1,L_MTF,113.72269767511288
BMu38,48,C,REL,Trunk_Forward,1,R_MTF,127.45243190892644
BMu38,49,C,INI,Trunk_Forward,1,L_MTF,100.44863159554741
BMu38,49,C,INI,Trunk_Forward,1,R_MTF,112.87889681767076
BMu38,49,C,REL,Trunk_Forward,1,L_MTF,101.25564109544456
BMu38,49,C,REL,Trunk_Forward,1,R_MTF,109.83698294889011
BMu38,50,P,INI,Trunk_Forward,1,L_MTF,128.00862406528344
BMu38,50,P,INI,Trunk_Forward,1,R_MTF,62.65574954286473
BMu38,50,P,REL,Trunk_Forward,1,L_MTF,138.66080331684893
BMu38,50,P,REL,Trunk_Forward,1,R_MTF,71.52504225167537
BMu38,51,P,INI,Trunk_Forward,1,L_MTF,79.48589613177445
BMu38,51,P,INI,Trunk_Forward,1,R_MTF,79.88837094321407
BMu38,51,P,REL,Trunk_Forward,1,L_MTF,82.87670585195755
BMu38,51,P,REL,Trunk_Forward,1,R_MTF,80.32286012672974
BMu38,52,C,INI,Trunk_Forward,1,L_MTF,109.48047806785424
BMu38,52,C,INI,Trunk_Forward,1,R_MTF,115.32588987244247
BMu38,52,C,REL,Trunk_Forward,1,L_MTF,116.71145559777086
BMu38,52,C,REL,Trunk_Forward,1,R_MTF,124.9015266753156
BMu38,53,P,INI,Trunk_Forward,1,L_MTF,95.81733443899327
BMu38,53,P,INI,Trunk_Forward,1,R_MTF,104.26222788314006
BMu38,53,P,REL,Trunk_Forward,1,L_MTF,88.68387355344238
BMu38,53,P,REL,Trunk_Forward,1,R_MTF,95.25736882184185
BMu38,54,P,INI,Trunk_Forward,1,L_MTF,87.80857654946054
BMu38,54,P,INI,Trunk_Forward,1,R_MTF,96.06495826829455
BMu38,54,P,REL,Trunk_Forward,1,L_MTF,109.9979381456334
BMu38,54,P,REL,Trunk_Forward,1,R_MTF,110.15315921282041
BMu38,55,C,INI,Trunk_Forward,1,L_MTF,60.172192999298794
BMu38,55,C,INI,Trunk_Forward,1,R_MTF,76.17557986081134
BMu38,55,C,REL,Trunk_Forward,1,L_MTF,90.11339126014788
BMu38,55,C,REL,Trunk_Forward,1,R_MTF,80.85199901005669
BMu38,56,C,INI,Trunk_Forward,1,L_MTF,79.93745548119801
BMu38,56,C,INI,Trunk_Forward,1,R_MTF,66.54904967233402
BMu38,56,C,REL,Trunk_Forward,1,L_MTF,79.21993600555165
BMu38,56,C,REL,Trunk_Forward,1,R_MTF,55.25412682806308
BMu38,57,C,INI,Trunk_Forward,1,L_MTF,67.56343456183542
BMu38,57,C,INI,Trunk_Forward,1,R_MTF,72.8334897662445
BMu38,57,C,REL,Trunk_Forward,1,L_MTF,82.84345390828663
BMu38,57,C,REL,Trunk_Forward,1,R_MTF,74.62923528881794
BMu38,58,P,INI,Trunk_Forward,1,L_MTF,48.107677277002246
BMu38,58,P,INI,Trunk_Forward,1,R_MTF,40.948265584772585
BMu38,58,P,REL,Trunk_Forward,1,L_MTF,65.54860929487216
BMu38,58,P,REL,Trunk_Forward,1,R_MTF,90.96883449187011
BMu38,60,C,INI,Trunk_Forward,1,L_MTF,104.65865353061736
BMu38,60,C,INI,Trunk_Forward,1,R_MTF,109.501704319956
BMu38,60,C,REL,Trunk_Forward,1,L_MTF,104.11939636686843
BMu38,60,C,REL,Trunk_Forward,1,R_MTF,109.29629508518364
BMu38,61,P,INI,Trunk_Forward,1,L_MTF,83.72484342299646
BMu38,61,P,INI,Trunk_Forward,1,R_MTF,83.17304883603954
BMu38,61,P,REL,Trunk_Forward,1,L_MTF,82.1210544756443
BMu38,61,P,REL,Trunk_Forward,1,R_MTF,78.84439985347528
BMu38,62,P,INI,Trunk_Forward,1,L_MTF,97.5616806877991
BMu38,62,P,INI,Trunk_Forward,1,R_MTF,87.23514377838443
BMu38,62,P,REL,Trunk_Forward,1,L_MTF,95.94810909795625
BMu38,62,P,REL,Trunk_Forward,1,R_MTF,87.9931730956385
BMu38,63,P,INI,Trunk_Forward,1,L_MTF,89.89941176952952
BMu38,63,P,INI,Trunk_Forward,1,R_MTF,103.01754111626605
BMu38,63,P,REL,Trunk_Forward,1,L_MTF,101.7983376121992
BMu38,63,P,REL,Trunk_Forward,1,R_MTF,84.80740612931955
BMu38,64,C,INI,Trunk_Forward,1,L_MTF,89.24062310669706
BMu38,64,C,INI,Trunk_Forward,1,R_MTF,93.09670426161374
BMu38,64,C,REL,Trunk_Forward,1,L_MTF,88.34795751687363
BMu38,64,C,REL,Trunk_Forward,1,R_MTF,97.8090588139439
BMu38,65,P,INI,Trunk_Forward,1,L_MTF,97.62846985998306
BMu38,65,P,INI,Trunk_Forward,1,R_MTF,104.76263265369539
BMu38,65,P,REL,Trunk_Forward,1,L_MTF,95.34262116773165
BMu38,65,P,REL,Trunk_Forward,1,R_MTF,98.26879576955434
BMu38,66,C,INI,Trunk_Forward,1,L_MTF,55.68560462352733
BMu38,66,C,INI,Trunk_Forward,1,R_MTF,48.147399638113455
BMu38,66,C,REL,Trunk_Forward,1,L_MTF,76.48882666354417
BMu38,66,C,REL,Trunk_Forward,1,R_MTF,74.66905505697231
BMu38,67,C,INI,Trunk_Forward,1,L_MTF,100.83486346041201
BMu38,67,C,INI,Trunk_Forward,1,R_MTF,91.0437600344233
BMu38,67,C,REL,Trunk_Forward,1,L_MTF,101.16964907190282
BMu38,67,C,REL,Trunk_Forward,1,R_MTF,88.15960016695766
BMu38,68,C,INI,Trunk_Forward,1,L_MTF,114.41313192578868
BMu38,68,C,INI,Trunk_Forward,1,R_MTF,100.56159921243919
BMu38,68,C,REL,Trunk_Forward,1,L_MTF,120.71191992765564
BMu38,68,C,REL,Trunk_Forward,1,R_MTF,110.39380877444535
