BM,subject,P_C,session,task,repetition,channel,value
BMu37,1,C,INI,Trunk_Forward,1,L_EO,89.93107240336481
BMu37,1,C,INI,Trunk_Forward,1,R_EO,91.47893100710321
BMu37,1,C,REL,Trunk_Forward,1,L_EO,92.82428147350943
BMu37,1,C,REL,Trunk_Forward,1,R_EO,80.57949575310971
BMu37,2,C,INI,Trunk_Forward,1,L_EO,84.75417720878175
BMu37,2,C,INI,Trunk_Forward,1,R_EO,117.78158353546924
BMu37,2,C,REL,Trunk_Forward,1,L_EO,66.49639757721197
BMu37,2,C,REL,Trunk_Forward,1,R_EO,100.08434610663937
BMu37,3,C,INI,Trunk_Forward,1,L_EO,132.52579187865754
BMu37,3,C,INI,Trunk_Forward,1,R_EO,124.3930810955121
BMu37,3,C,REL,Trunk_Forward,1,L_EO,110.81459760216701
BMu37,3,C,REL,Trunk_Forward,1,R_EO,109.48082107176845
BMu37,5,C,INI,Trunk_Forward,1,L_EO,85.8360135921008
BMu37,5,C,INI,Trunk_Forward,1,R_EO,102.33370015960428
BMu37,5,C,REL,Trunk_Forward,1,L_EO,75.83323073428082
BMu37,5,C,REL,Trunk_Forward,1,R_EO,82.99523902571894
BMu37,6,C,INI,Trunk_Forward,1,L_EO,147.1032832246777
BMu37,6,C,INI,Trunk_Forward,1,R_EO,174.25648929211346
BMu37,6,C,REL,Trunk_Forward,1,L_EO,112.2679599207592
BMu37,6,C,REL,Trunk_Forward,1,R_EO,73.0279441107285
BMu37,7,C,INI,Trunk_Forward,1,L_EO,88.97413050178818
BMu37,7,C,INI,Trunk_Forward,1,R_EO,54.79839161171001
BMu37,7,C,REL,Trunk_Forward,1,L_EO,75.27947905605514
BMu37,7,C,REL,Trunk_Forward,1,R_EO,78.92221891693104
BMu37,8,C,INI,Trunk_Forward,1,L_EO,85.18667837586818
BMu37,8,C,INI,Trunk_Forward,1,R_EO,93.03225494470753
BMu37,8,C,REL,Trunk_Forward,1,L_EO,77.81055334756452
BMu37,8,C,REL,Trunk_Forward,1,R_EO,106.91976082014465
BMu37,9,P,INI,Trunk_Forward,1,L_EO,92.0919779730074
BMu37,9,P,INI,Trunk_Forward,1,R_EO,88.25507226883656
BMu37,9,P,REL,Trunk_Forward,1,L_EO,88.39495457078296
BMu37,9,P,REL,Trunk_Forward,1,R_EO,72.29983262133746
BMu37,10,P,INI,Trunk_Forward,1,L_EO,91.30008776362617
BMu37,10,P,INI,Trunk_Forward,1,R_EO,92.7238921983765
BMu37,10,P,REL,Trunk_Forward,1,L_EO,98.29653859589507
BMu37,10,P,REL,Trunk_Forward,1,R_EO,107.04848855571561
BMu37,11,P,INI,Trunk_Forward,1,L_EO,78.55594853419716
BMu37,11,P,INI,Trunk_Forward,1,R_EO,73.69784039205095
BMu37,11,P,REL,Trunk_Forward,1,L_EO,93.81519035386604
BMu37,11,P,REL,Trunk_Forward,1,R_EO,93.77253343305146
BMu37,12,P,INI,Trunk_Forward,1,L_EO,101.87462219709629
BMu37,12,P,INI,Trunk_Forward,1,R_EO,104.0624871533815
BMu37,12,P,REL,Trunk_Forward,1,L_EO,120.63270319132509
BMu37,12,P,REL,Trunk_Forward,1,R_EO,130.0254920439312
BMu37,13,C,INI,Trunk_Forward,1,L_EO,45.13226525543826
BMu37,13,C,INI,Trunk_Forward,1,R_EO,84.62216745273396
BMu37,13,C,REL,Trunk_Forward,1,L_EO,43.904300412008844
BMu37,13,C,REL,Trunk_Forward,1,R_EO,118.70159396206218
BMu37,14,P,INI,Trunk_Forward,1,L_EO,65.96855601667728
BMu37,14,P,INI,Trunk_Forward,1,R_EO,83.76045937506957
BMu37,14,P,REL,Trunk_Forward,1,L_EO,72.13854362683327
BMu37,14,P,REL,Trunk_Forward,1,R_EO,46.08592554193458
BMu37,16,C,INI,Trunk_Forward,1,L_EO,139.95145649350383
BMu37,16,C,INI,Trunk_Forward,1,R_EO,83.56990254190744
BMu37,16,C,REL,Trunk_Forward,1,L_EO,124.90970570128975
BMu37,16,C,REL,Trunk_Forward,1,R_EO,63.56809855959475
BMu37,17,P,INI,Trunk_Forward,1,L_EO,87.76914128974117
BMu37,17,P,INI,Trunk_Forward,1,R_EO,111.65993070970046
BMu37,17,P,REL,Trunk_Forward,1,L_EO,96.3765707175586
BMu37,17,P,REL,Trunk_Forward,1,R_EO,111.47082667610432
BMu37,21,C,INI,Trunk_Forward,1,L_EO,96.60627759661713
BMu37,21,C,INI,Trunk_Forward,1,R_EO,85.7961453264141
BMu37,21,C,REL,Trunk_Forward,1,L_EO,95.87248463131372
BMu37,21,C,REL,Trunk_Forward,1,R_EO,73.39476582863112
BMu37,22,C,INI,Trunk_Forward,1,L_EO,102.85146513639472
BMu37,22,C,INI,Trunk_Forward,1,R_EO,123.91323938948597
BMu37,22,C,REL,Trunk_Forward,1,L_EO,116.79884042228355
BMu37,22,C,REL,Trunk_Forward,1,R_EO,144.7396271264646
BMu37,23,C,INI,Trunk_Forward,1,L_EO,128.2834414249106
BMu37,23,C,INI,Trunk_Forward,1,R_EO,92.87833977866683
BMu37,23,C,REL,Trunk_Forward,1,L_EO,121.5744393070968
BMu37,23,C,REL,Trunk_Forward,1,R_EO,85.12018226905
BMu37,24,P,INI,Trunk_Forward,1,L_EO,109.69451520251546
BMu37,24,P,INI,Trunk_Forward,1,R_EO,132.54845317037993
BMu37,24,P,REL,Trunk_Forward,1,L_EO,111.15624691343771
BMu37,24,P,REL,Trunk_Forward,1,R_EO,130.26749398172828
BMu37,25,C,INI,Trunk_Forward,1,L_EO,83.58006420893274
BMu37,25,C,INI,Trunk_Forward,1,R_EO,33.840490170786246
BMu37,25,C,REL,Trunk_Forward,1,L_EO,100.11808059977322
BMu37,25,C,REL,Trunk_Forward,1,R_EO,48.70676951291591
BMu37,26,P,INI,Trunk_Forward,1,L_EO,55.2445615345728
BMu37,26,P,INI,Trunk_Forward,1,R_EO,69.63887831201134
BMu37,26,P,REL,Trunk_Forward,1,L_EO,58.248280962150965
BMu37,26,P,REL,Trunk_Forward,1,R_EO,35.93881993981038
BMu37,27,P,INI,Trunk_Forward,1,L_EO,100.61430811236721
BMu37,27,P,INI,Trunk_Forward,1,R_EO,105.97954408478795
BMu37,27,P,REL,Trunk_Forward,1,L_EO,98.30091994584242
BMu37,27,P,REL,Trunk_Forward,1,R_EO,62.15291325862153
BMu37,28,P,INI,Trunk_Forward,1,L_EO,100.14112281390145
BMu37,28,P,INI,Trunk_Forward,1,R_EO,118.47729087756363
BMu37,28,P,REL,Trunk_Forward,1,L_EO,102.64204977398299
BMu37,28,P,REL,Trunk_Forward,1,R_EO,114.37921392548549
BMu37,29,P,INI,Trunk_Forward,1,L_EO,94.84622313814121
BMu37,29,P,INI,Trunk_Forward,1,R_EO,96.07881754741713
BMu37,29,P,REL,Trunk_Forward,1,L_EO,93.42990921540384
BMu37,29,P,REL,Trunk_Forward,1,R_EO,99.17543051605894
BMu37,30,P,INI,Trunk_Forward,1,L_EO,140.58127050725807
BMu37,30,P,INI,Trunk_Forward,1,R_EO,87.85688438771382
BMu37,30,P,REL,Trunk_Forward,1,L_EO,135.60691049835688
BMu37,30,P,REL,Trunk_Forward,1,R_EO,65.49932853175784
BMu37,32,P,INI,Trunk_Forward,1,L_EO,130.28943990839807
BMu37,32,P,INI,Trunk_Forward,1,R_EO,124.70191231790683
BMu37,32,P,REL,Trunk_Forward,1,L_EO,90.5404635799454
BMu37,32,P,REL,Trunk_Forward,1,R_EO,127.8667601200219
BMu37,33,P,INI,Trunk_Forward,1,L_EO,58.829782943853324
BMu37,33,P,INI,Trunk_Forward,1,R_EO,74.18406819980434
BMu37,33,P,REL,Trunk_Forward,1,L_EO,45.269878218655144
BMu37,33,P,REL,Trunk_Forward,1,R_EO,60.603656236540985
BMu37,34,P,INI,Trunk_Forward,1,L_EO,87.07560830694162
BMu37,34,P,INI,Trunk_Forward,1,R_EO,91.91306069354016
BMu37,34,P,REL,Trunk_Forward,1,L_EO,106.98875878496153
BMu37,34,P,REL,Trunk_Forward,1,R_EO,84.54433836238586
BMu37,35,C,INI,Trunk_Forward,1,L_EO,93.12706948268429
BMu37,35,C,INI,Trunk_Forward,1,R_EO,94.2429164193786
BMu37,35,C,REL,Trunk_Forward,1,L_EO,71.24404878319825
BMu37,35,C,REL,Trunk_Forward,1,R_EO,91.37609037981368
BMu37,36,P,INI,Trunk_Forward,1,L_EO,93.05070276295594
BMu37,36,P,INI,Trunk_Forward,1,R_EO,113.66361197829546
BMu37,36,P,REL,Trunk_Forward,1,L_EO,90.27193251169422
BMu37,36,P,REL,Trunk_Forward,1,R_EO,101.91360492803949
BMu37,38,C,INI,Trunk_Forward,1,L_EO,75.87888407456585
BMu37,38,C,INI,Trunk_Forward,1,R_EO,63.20812884212548
BMu37,38,C,REL,Trunk_Forward,1,L_EO,91.97449509001217
BMu37,38,C,REL,Trunk_Forward,1,R_EO,105.61498269848148
BMu37,39,C,INI,Trunk_Forward,1,L_EO,39.49650778378308
BMu37,39,C,INI,Trunk_Forward,1,R_EO,37.75891027270221
BMu37,39,C,REL,Trunk_Forward,1,L_EO,67.96157913510108
BMu37,39,C,REL,Trunk_Forward,1,R_EO,54.17441261903948
BMu37,40,C,INI,Trunk_Forward,1,L_EO,61.44794290890223
BMu37,40,C,INI,Trunk_Forward,1,R_EO,63.919182066500184
BMu37,40,C,REL,Trunk_Forward,1,L_EO,70.29847053897274
BMu37,40,C,REL,Trunk_Forward,1,R_EO,91.96505781575816
BMu37,41,P,INI,Trunk_Forward,1,L_EO,93.59265881404501
BMu37,41,P,INI,Trunk_Forward,1,R_EO,125.32303177495625
BMu37,41,P,REL,Trunk_Forward,1,L_EO,104.38193278206306
BMu37,41,P,REL,Trunk_Forward,1,R_EO,124.2669681881335
BMu37,42,P,INI,Trunk_Forward,1,L_EO,98.80564540029462
BMu37,42,P,INI,Trunk_Forward,1,R_EO,98.02481160910234
BMu37,42,P,REL,Trunk_Forward,1,L_EO,80.63122185858046
BMu37,42,P,REL,Trunk_Forward,1,R_EO,90.4539871655543
BMu37,43,P,INI,Trunk_Forward,1,L_EO,57.670239056248136
BMu37,43,P,INI,Trunk_Forward,1,R_EO,111.48199397808496
BMu37,43,P,REL,Trunk_Forward,1,L_EO,80.49188541697282
BMu37,43,P,REL,Trunk_Forward,1,R_EO,84.83001249143467
BMu37,44,C,INI,Trunk_Forward,1,L_EO,73.03673073841814
BMu37,44,C,INI,Trunk_Forward,1,R_EO,132.68263319170993
BMu37,44,C,REL,Trunk_Forward,1,L_EO,86.48131749751678
BMu37,44,C,REL,Trunk_Forward,1,R_EO,118.1180398024922
BMu37,45,P,INI,Trunk_Forward,1,L_EO,126.46488977039392
BMu37,45,P,INI,Trunk_Forward,1,R_EO,116.92454871190905
BMu37,45,P,REL,Trunk_Forward,1,L_EO,142.23609829530622
BMu37,45,P,REL,Trunk_Forward,1,R_EO,144.84323195535956
BMu37,46,C,INI,Trunk_Forward,1,L_EO,105.81371484164485
BMu37,46,C,INI,Trunk_Forward,1,R_EO,143.25991341451746
BMu37,46,C,REL,Trunk_Forward,1,L_EO,58.772283230121666
BMu37,46,C,REL,Trunk_Forward,1,R_EO,42.558996794777435
BMu37,47,P,REL,Trunk_Forward,1,L_EO,80.85584239153546
BMu37,47,P,REL,Trunk_Forward,1,R_EO,91.02788042196046
BMu37,48,C,INI,Trunk_Forward,1,L_EO,107.07095187759391
BMu37,48,C,INI,Trunk_Forward,1,R_EO,112.14485366176659
BMu37,48,C,REL,Trunk_Forward,1,L_EO,95.63917964025747
BMu37,48,C,REL,Trunk_Forward,1,R_EO,111.84605885282537
BMu37,49,C,INI,Trunk_Forward,1,L_EO,95.38066480886594
BMu37,49,C,INI,Trunk_Forward,1,R_EO,39.18726160891688
BMu37,49,C,REL,Trunk_Forward,1,L_EO,41.59041369422414
BMu37,49,C,REL,Trunk_Forward,1,R_EO,42.814874835336184
BMu37,50,P,INI,Trunk_Forward,1,L_EO,67.27547765797335
BMu37,50,P,INI,Trunk_Forward,1,R_EO,43.95284325140978
BMu37,50,P,REL,Trunk_Forward,1,L_EO,69.57212126257411
BMu37,50,P,REL,Trunk_Forward,1,R_EO,28.293165345086113
BMu37,51,P,INI,Trunk_Forward,1,L_EO,122.07932146900139
BMu37,51,P,INI,Trunk_Forward,1,R_EO,87.29909468544372
BMu37,51,P,REL,Trunk_Forward,1,L_EO,125.08749070934175
BMu37,51,P,REL,Trunk_Forward,1,R_EO,93.74630867371758
BMu37,52,C,INI,Trunk_Forward,1,L_EO,90.29912756731339
BMu37,52,C,INI,Trunk_Forward,1,R_EO,129.60656557157242
BMu37,52,C,REL,Trunk_Forward,1,L_EO,101.82883749262396
BMu37,52,C,REL,Trunk_Forward,1,R_EO,112.47518219050598
BMu37,53,P,INI,Trunk_Forward,1,L_EO,119.910264807609
BMu37,53,P,INI,Trunk_Forward,1,R_EO,115.79055289692371
BMu37,53,P,REL,Trunk_Forward,1,L_EO,140.0575518808556
BMu37,53,P,REL,Trunk_Forward,1,R_EO,122.54438997739771
BMu37,54,P,INI,Trunk_Forward,1,L_EO,116.37680199201837
BMu37,54,P,INI,Trunk_Forward,1,R_EO,75.50181495579324
BMu37,54,P,REL,Trunk_Forward,1,L_EO,72.08378274801481
BMu37,54,P,REL,Trunk_Forward,1,R_EO,86.60459031037925
BMu37,55,C,INI,Trunk_Forward,1,L_EO,108.19119981716348
BMu37,55,C,INI,Trunk_Forward,1,R_EO,107.49778872229412
BMu37,55,C,REL,Trunk_Forward,1,L_EO,96.40750358624105
BMu37,55,C,REL,Trunk_Forward,1,R_EO,49.50584843435343
BMu37,56,C,INI,Trunk_Forward,1,L_EO,107.86043393847706
BMu37,56,C,INI,Trunk_Forward,1,R_EO,88.04319121959439
BMu37,56,C,REL,Trunk_Forward,1,L_EO,92.27879632570394
BMu37,56,C,REL,Trunk_Forward,1,R_EO,96.96809272854016
BMu37,57,C,INI,Trunk_Forward,1,L_EO,43.138391195934766
BMu37,57,C,INI,Trunk_Forward,1,R_EO,71.87987664191967
BMu37,57,C,REL,Trunk_Forward,1,L_EO,111.43293386066847
BMu37,57,C,REL,Trunk_Forward,1,R_EO,124.2832698486327
BMu37,58,P,INI,Trunk_Forward,1,L_EO,131.17365038318113
BMu37,58,P,INI,Trunk_Forward,1,R_EO,123.29969613588753
BMu37,58,P,REL,Trunk_Forward,1,L_EO,126.32551526245943
BMu37,58,P,REL,Trunk_Forward,1,R_EO,119.06515678928099
BMu37,60,C,INI,Trunk_Forward,1,L_EO,98.2578245569667
BMu37,60,C,INI,Trunk_Forward,1,R_EO,57.66714290647895
BMu37,60,C,REL,Trunk_Forward,1,L_EO,87.57733248265949
BMu37,60,C,REL,Trunk_Forward,1,R_EO,73.83300576431942
BMu37,61,P,INI,Trunk_Forward,1,L_EO,92.32414984232899
BMu37,61,P,INI,Trunk_Forward,1,R_EO,103.87031414550857
BMu37,61,P,REL,Trunk_Forward,1,L_EO,146.09795945393304
BMu37,61,P,REL,Trunk_Forward,1,R_EO,146.6855331893474
BMu37,62,P,INI,Trunk_Forward,1,L_EO,80.94916115956867
BMu37,62,P,INI,Trunk_Forward,1,R_EO,111.60100024396444
BMu37,62,P,REL,Trunk_Forward,1,L_EO,84.91091851147239
BMu37,62,P,REL,Trunk_Forward,1,R_EO,122.43157637738354
BMu37,63,P,INI,Trunk_Forward,1,L_EO,66.98724725438682
BMu37,63,P,INI,Trunk_Forward,1,R_EO,43.7756887566838
BMu37,63,P,REL,Trunk_Forward,1,L_EO,120.41861801156121
BMu37,63,P,REL,Trunk_Forward,1,R_EO,69.94490367173017
BMu37,64,C,INI,Trunk_Forward,1,L_EO,77.08456878263668
BMu37,64,C,INI,Trunk_Forward,1,R_EO,76.05442407983963
BMu37,64,C,REL,Trunk_Forward,1,L_EO,68.69205514740712
BMu37,64,C,REL,Trunk_Forward,1,R_EO,71.56472441401942
BMu37,65,P,INI,Trunk_Forward,1,L_EO,99.94845393519722
BMu37,65,P,INI,Trunk_Forward,1,R_EO,104.24025045586545
BMu37,65,P,REL,Trunk_Forward,1,L_EO,100.35646888652997
BMu37,65,P,REL,Trunk_Forward,1,R_EO,107.15155827565678
BMu37,66,C,INI,Trunk_Forward,1,L_EO,107.21253345801038
BMu37,66,C,INI,Trunk_Forward,1,R_EO,121.67901122002964
BMu37,66,C,REL,Trunk_Forward,1,L_EO,114.03041898311467
BMu37,66,C,REL,Trunk_Forward,1,R_EO,56.76958356560156
BMu37,67,C,INI,Trunk_Forward,1,L_EO,81.97579111841043
BMu37,67,C,INI,Trunk_Forward,1,R_EO,45.64256039323723
BMu37,67,C,REL,Trunk_Forward,1,L_EO,43.906731644745804
BMu37,67,C,REL,Trunk_Forward,1,R_EO,39.6207769344372
BMu37,68,C,INI,Trunk_Forward,1,L_EO,63.408632255911506
BMu37,68,C,INI,Trunk_Forward,1,R_EO,31.1025880711953
BMu37,68,C,REL,Trunk_Forward,1,L_EO,76.95007638154507
BMu37,68,C,REL,Trunk_Forward,1,R_EO,38.87682637983795
