BM,subject,P_C,session,task,repetition,channel,value
BMu38,1,C,INI,Trunk_Forward,1,L_MTF,104.55346172403075
BMu38,1,C,INI,Trunk_Forward,1,R_MTF,100.1297820020467
BMu38,1,C,REL,Trunk_Forward,1,L_MTF,110.13089030578928
BMu38,1,C,REL,Trunk_Forward,1,R_MTF,119.50063711413473
BMu38,2,C,INI,Trunk_Forward,1,L_MTF,111.598262099569
BMu38,2,C,INI,Trunk_Forward,1,R_MTF,113.70971131440508
BMu38,2,C,REL,Trunk_Forward,1,L_MTF,105.74447687383213
BMu38,2,C,REL,Trunk_Forward,1,R_MTF,103.28131402426796
BMu38,3,C,INI,Trunk_Forward,1,L_MTF,113.94091442363741
BMu38,3,C,INI,Trunk_Forward,1,R_MTF,109.48386179594745
BMu38,3,C,REL,Trunk_Forward,1,L_MTF,101.90450343815223
BMu38,3,C,REL,Trunk_Forward,1,R_MTF,91.91400668635782
BMu38,5,C,INI,Trunk_Forward,1,L_MTF,133.80866137261845
BMu38,5,C,INI,Trunk_Forward,1,R_MTF,121.75313965276
BMu38,5,C,REL,Trunk_Forward,1,L_MTF,134.33143836656643
BMu38,5,C,REL,Trunk_Forward,1,R_MTF,131.22740733651943
BMu38,6,C,INI,Trunk_Forward,1,L_MTF,110.25384254673945
BMu38,6,C,INI,Trunk_Forward,1,R_MTF,105.09163370647096
BMu38,6,C,REL,Trunk_Forward,1,L_MTF,107.48515468576336
BMu38,6,C,REL,Trunk_Forward,1,R_MTF,112.61750376521172
BMu38,7,C,INI,Trunk_Forward,1,L_MTF,105.90390545098819
BMu38,7,C,INI,Trunk_Forward,1,R_MTF,109.21274273413219
BMu38,7,C,REL,Trunk_Forward,1,L_MTF,118.83752321762361
BMu38,7,C,REL,Trunk_Forward,1,R_MTF,116.8717918233659
BMu38,8,C,INI,Trunk_Forward,1,L_MTF,108.75551323130736
BMu38,8,C,INI,Trunk_Forward,1,R_MTF,129.05363514270314
BMu38,8,C,REL,Trunk_Forward,1,L_MTF,113.56981680842227
BMu38,8,C,REL,Trunk_Forward,1,R_MTF,132.35021431985226
BMu38,9,P,INI,Trunk_Forward,1,L_MTF,123.45242460534745
BMu38,9,P,INI,Trunk_Forward,1,R_MTF,129.8048368534337
BMu38,9,P,REL,Trunk_Forward,1,L_MTF,131.19106501606052
BMu38,9,P,REL,Trunk_Forward,1,R_MTF,138.59966663427826
BMu38,10,P,INI,Trunk_Forward,1,L_MTF,104.29294556498711
BMu38,10,P,INI,Trunk_Forward,1,R_MTF,116.19248576264268
BMu38,10,P,REL,Trunk_Forward,1,L_MTF,118.01607724951452
BMu38,10,P,REL,Trunk_Forward,1,R_MTF,121.68994140978324
BMu38,11,P,INI,Trunk_Forward,1,L_MTF,128.7044585635155
BMu38,11,P,INI,Trunk_Forward,1,R_MTF,137.15621398854412
BMu38,11,P,REL,Trunk_Forward,1,L_MTF,119.92921635159175
BMu38,11,P,REL,Trunk_Forward,1,R_MTF,133.07840661467156
BMu38,12,P,INI,Trunk_Forward,1,L_MTF,101.34646695556276
BMu38,12,P,INI,Trunk_Forward,1,R_MTF,104.07850336211952
BMu38,12,P,REL,Trunk_Forward,1,L_MTF,99.14127402387454
BMu38,12,P,REL,Trunk_Forward,1,R_MTF,205.99799267033762
BMu38,13,C,INI,Trunk_Forward,1,L_MTF,104.1392406582693
BMu38,13,C,INI,Trunk_Forward,1,R_MTF,106.21670615192129
BMu38,13,C,REL,Trunk_Forward,1,L_MTF,117.00619508419211
BMu38,13,C,REL,Trunk_Forward,1,R_MTF,115.59264576590273
BMu38,14,P,INI,Trunk_Forward,1,L_MTF,87.88704473031301
BMu38,14,P,INI,Trunk_Forward,1,R_MTF,98.31976177878921
BMu38,14,P,REL,Trunk_Forward,1,L_MTF,93.32896990573232
BMu38,14,P,REL,Trunk_Forward,1,R_MTF,100.34753165496869
BMu38,16,C,INI,Trunk_Forward,1,L_MTF,120.18252446914833
BMu38,16,C,INI,Trunk_Forward,1,R_MTF,130.91793161350225
BMu38,16,C,REL,Trunk_Forward,1,L_MTF,114.69197199069075
BMu38,16,C,REL,Trunk_Forward,1,R_MTF,132.3513675031186
BMu38,17,P,INI,Trunk_Forward,1,L_MTF,130.80721485111638
BMu38,17,P,INI,Trunk_Forward,1,R_MTF,163.6859938310796
BMu38,17,P,REL,Trunk_Forward,1,L_MTF,110.30701491482675
BMu38,17,P,REL,Trunk_Forward,1,R_MTF,118.59665655189393
BMu38,21,C,INI,Trunk_Forward,1,L_MTF,104.98877836558202
BMu38,21,C,INI,Trunk_Forward,1,R_MTF,95.96183954174029
BMu38,21,C,REL,Trunk_Forward,1,L_MTF,89.37033832137742
BMu38,21,C,REL,Trunk_Forward,1,R_MTF,94.05465628824327
BMu38,22,C,INI,Trunk_Forward,1,L_MTF,122.62907726888209
BMu38,22,C,INI,Trunk_Forward,1,R_MTF,145.93257727190115
BMu38,22,C,REL,Trunk_Forward,1,L_MTF,113.01125000765582
BMu38,22,C,REL,Trunk_Forward,1,R_MTF,104.94976345724434
BMu38,23,C,INI,Trunk_Forward,1,L_MTF,98.74642965832918
BMu38,23,C,INI,Trunk_Forward,1,R_MTF,103.67639205528202
BMu38,23,C,REL,Trunk_Forward,1,L_MTF,122.0004466086669
BMu38,23,C,REL,Trunk_Forward,1,R_MTF,129.46659919321095
BMu38,24,P,INI,Trunk_Forward,1,L_MTF,116.39106330844858
BMu38,24,P,INI,Trunk_Forward,1,R_MTF,120.4240291307772
BMu38,24,P,REL,Trunk_Forward,1,L_MTF,122.213683658889
BMu38,24,P,REL,Trunk_Forward,1,R_MTF,117.65003077266606
BMu38,25,C,INI,Trunk_Forward,1,L_MTF,124.54503066314071
BMu38,25,C,INI,Trunk_Forward,1,R_MTF,124.28444865906015
BMu38,25,C,REL,Trunk_Forward,1,L_MTF,131.83800700546755
BMu38,25,C,REL,Trunk_Forward,1,R_MTF,134.16981034897654
BMu38,26,P,INI,Trunk_Forward,1,L_MTF,115.92142354353886
BMu38,26,P,INI,Trunk_Forward,1,R_MTF,98.11336833933795
BMu38,26,P,REL,Trunk_Forward,1,L_MTF,79.86455153278628
BMu38,26,P,REL,Trunk_Forward,1,R_MTF,86.98272850345941
BMu38,27,P,INI,Trunk_Forward,1,L_MTF,93.00238683407737
BMu38,27,P,INI,Trunk_Forward,1,R_MTF,88.86483132465504
BMu38,27,P,REL,Trunk_Forward,1,L_MTF,100.8406893670194
BMu38,27,P,REL,Trunk_Forward,1,R_MTF,94.98258185655138
BMu38,28,P,INI,Trunk_Forward,1,L_MTF,132.7178046278188
BMu38,28,P,INI,Trunk_Forward,1,R_MTF,125.77238058122238
BMu38,28,P,REL,Trunk_Forward,1,L_MTF,146.27979012949856
BMu38,28,P,REL,Trunk_Forward,1,R_MTF,123.61723642449944
BMu38,29,P,INI,Trunk_Forward,1,L_MTF,106.78723559325134
BMu38,29,P,INI,Trunk_Forward,1,R_MTF,112.32715696908011
BMu38,29,P,REL,Trunk_Forward,1,L_MTF,112.13926258639553
BMu38,29,P,REL,Trunk_Forward,1,R_MTF,114.33001507115829
BMu38,30,P,INI,Trunk_Forward,1,L_MTF,101.37046961663086
BMu38,30,P,INI,Trunk_Forward,1,R_MTF,116.3186354501717
BMu38,30,P,REL,Trunk_Forward,1,L_MTF,130.78928108529334
BMu38,30,P,REL,Trunk_Forward,1,R_MTF,122.26888904878932
BMu38,32,P,INI,Trunk_Forward,1,L_MTF,116.84413769767731
BMu38,32,P,INI,Trunk_Forward,1,R_MTF,127.0245470658899
BMu38,32,P,REL,Trunk_Forward,1,L_MTF,117.03711826330574
BMu38,32,P,REL,Trunk_Forward,1,R_MTF,112.8736627135598
BMu38,33,P,INI,Trunk_Forward,1,L_MTF,104.37434755170047
BMu38,33,P,INI,Trunk_Forward,1,R_MTF,99.7264672460927
BMu38,33,P,REL,Trunk_Forward,1,L_MTF,105.35852464452852
BMu38,33,P,REL,Trunk_Forward,1,R_MTF,102.93950631299928
BMu38,34,P,INI,Trunk_Forward,1,L_MTF,107.85444473959029
BMu38,34,P,INI,Trunk_Forward,1,R_MTF,158.55322788407693
BMu38,34,P,REL,Trunk_Forward,1,L_MTF,124.14755463023403
BMu38,34,P,REL,Trunk_Forward,1,R_MTF,127.18006857978776
BMu38,35,C,INI,Trunk_Forward,1,L_MTF,131.04461509437573
BMu38,35,C,INI,Trunk_Forward,1,R_MTF,120.45157324964096
BMu38,35,C,REL,Trunk_Forward,1,L_MTF,118.8659809959143
BMu38,35,C,REL,Trunk_Forward,1,R_MTF,109.09919949378303
BMu38,36,P,INI,Trunk_Forward,1,L_MTF,114.56169641039384
BMu38,36,P,INI,Trunk_Forward,1,R_MTF,109.65684405420487
BMu38,36,P,REL,Trunk_Forward,1,L_MTF,119.15404052026653
BMu38,36,P,REL,Trunk_Forward,1,R_MTF,112.61593095028543
BMu38,38,C,INI,Trunk_Forward,1,L_MTF,82.34752088962544
BMu38,38,C,INI,Trunk_Forward,1,R_MTF,115.93382307799398
BMu38,38,C,REL,Trunk_Forward,1,L_MTF,112.39893485297654
BMu38,38,C,REL,Trunk_Forward,1,R_MTF,110.24977731849019
BMu38,39,C,INI,Trunk_Forward,1,L_MTF,114.47384592899542
BMu38,39,C,INI,Trunk_Forward,1,R_MTF,126.35491913105373
BMu38,39,C,REL,Trunk_Forward,1,L_MTF,108.77655702047305
BMu38,39,C,REL,Trunk_Forward,1,R_MTF,99.05700854531602
BMu38,40,C,INI,Trunk_Forward,1,L_MTF,105.21585147416123
BMu38,40,C,INI,Trunk_Forward,1,R_MTF,138.002343041315
BMu38,40,C,REL,Trunk_Forward,1,L_MTF,123.8128366099626
BMu38,40,C,REL,Trunk_Forward,1,R_MTF,123.51034461490676
BMu38,41,P,INI,Trunk_Forward,1,L_MTF,101.31838064007087
BMu38,41,P,INI,Trunk_Forward,1,R_MTF,108.66740839142744
BMu38,41,P,REL,Trunk_Forward,1,L_MTF,99.36730558157224
BMu38,41,P,REL,Trunk_Forward,1,R_MTF,104.14359856929194
BMu38,42,P,INI,Trunk_Forward,1,L_MTF,107.02639781976477
BMu38,42,P,INI,Trunk_Forward,1,R_MTF,107.70477518244809
BMu38,42,P,REL,Trunk_Forward,1,L_MTF,110.43860597640558
BMu38,42,P,REL,Trunk_Forward,1,R_MTF,108.78231797690775
BMu38,43,P,INI,Trunk_Forward,1,L_MTF,125.2185635919225
BMu38,43,P,INI,Trunk_Forward,1,R_MTF,119.86398568715764
BMu38,43,P,REL,Trunk_Forward,1,L_MTF,126.77743197410722
BMu38,43,P,REL,Trunk_Forward,1,R_MTF,177.90429026275018
BMu38,44,C,INI,Trunk_Forward,1,L_MTF,75.98106261130202
BMu38,44,C,INI,Trunk_Forward,1,R_MTF,137.32674380230165
BMu38,44,C,REL,Trunk_Forward,1,L_MTF,134.03018689182065
BMu38,44,C,REL,Trunk_Forward,1,R_MTF,120.6203390209003
BMu38,45,P,INI,Trunk_Forward,1,L_MTF,109.8197498000807
BMu38,45,P,INI,Trunk_Forward,1,R_MTF,95.30611519862467
BMu38,45,P,REL,Trunk_Forward,1,L_MTF,103.8439391688697
BMu38,45,P,REL,Trunk_Forward,1,R_MTF,85.55139551084548
BMu38,46,C,INI,Trunk_Forward,1,L_MTF,97.4523393225712
BMu38,46,C,INI,Trunk_Forward,1,R_MTF,82.8047753773317
BMu38,46,C,REL,Trunk_Forward,1,L_MTF,78.58383436278511
BMu38,46,C,REL,Trunk_Forward,1,R_MTF,100.70685161760355
BMu38,47,P,INI,Trunk_Forward,1,L_MTF,91.7118960900062
BMu38,47,P,INI,Trunk_Forward,1,R_MTF,87.38319097996853
BMu38,47,P,REL,Trunk_Forward,1,L_MTF,105.72272045248954
BMu38,47,P,REL,Trunk_Forward,1,R_MTF,80.88707129146324
BMu38,48,C,INI,Trunk_Forward,1,L_MTF,119.1692511207657
BMu38,48,C,INI,Trunk_Forward,1,R_MTF,121.8915162025969
BMu38,48,C,REL,Trunk_Forward,1,L_MTF,115.53570372525499
BMu38,48,C,REL,Trunk_Forward,1,R_MTF,125.41650541106675
BMu38,49,C,INI,Trunk_Forward,1,L_MTF,114.29968137422523
BMu38,49,C,INI,Trunk_Forward,1,R_MTF,114.10381434202264
BMu38,49,C,REL,Trunk_Forward,1,L_MTF,116.51224557042076
BMu38,49,C,REL,Trunk_Forward,1,R_MTF,120.03246044560281
BMu38,50,P,INI,Trunk_Forward,1,L_MTF,119.52590815654386
BMu38,50,P,INI,Trunk_Forward,1,R_MTF,106.92540252187005
BMu38,50,P,REL,Trunk_Forward,1,L_MTF,136.97155290519444
BMu38,50,P,REL,Trunk_Forward,1,R_MTF,147.50726313610707
BMu38,51,P,INI,Trunk_Forward,1,L_MTF,96.64542222085431
BMu38,51,P,INI,Trunk_Forward,1,R_MTF,94.62300754598853
BMu38,51,P,REL,Trunk_Forward,1,L_MTF,87.16931786905741
BMu38,51,P,REL,Trunk_Forward,1,R_MTF,91.96166298044092
BMu38,52,C,INI,Trunk_Forward,1,L_MTF,125.69759327052829
BMu38,52,C,INI,Trunk_Forward,1,R_MTF,116.47119231685907
BMu38,52,C,REL,Trunk_Forward,1,L_MTF,124.02507642166839
BMu38,52,C,REL,Trunk_Forward,1,R_MTF,129.1249937562343
BMu38,53,P,INI,Trunk_Forward,1,L_MTF,104.67406603577098
BMu38,53,P,INI,Trunk_Forward,1,R_MTF,106.3966047359414
BMu38,53,P,REL,Trunk_Forward,1,L_MTF,101.01585080089568
BMu38,53,P,REL,Trunk_Forward,1,R_MTF,98.86944244005207
BMu38,54,P,INI,Trunk_Forward,1,L_MTF,92.63894949186107
BMu38,54,P,INI,Trunk_Forward,1,R_MTF,112.54730946494064
BMu38,54,P,REL,Trunk_Forward,1,L_MTF,103.04822830347982
BMu38,54,P,REL,Trunk_Forward,1,R_MTF,121.90316991426592
BMu38,55,C,INI,Trunk_Forward,1,L_MTF,86.6038757207721
BMu38,55,C,INI,Trunk_Forward,1,R_MTF,107.14296376717644
BMu38,55,C,REL,Trunk_Forward,1,L_MTF,98.62490897448187
BMu38,55,C,REL,Trunk_Forward,1,R_MTF,118.43932647792363
BMu38,56,C,INI,Trunk_Forward,1,L_MTF,84.52793615428926
BMu38,56,C,INI,Trunk_Forward,1,R_MTF,86.14785316804952
BMu38,56,C,REL,Trunk_Forward,1,L_MTF,86.81257052296857
BMu38,56,C,REL,Trunk_Forward,1,R_MTF,73.09049840228374
BMu38,57,C,INI,Trunk_Forward,1,L_MTF,74.55334468595424
BMu38,57,C,INI,Trunk_Forward,1,R_MTF,81.35428344616095
BMu38,57,C,REL,Trunk_Forward,1,L_MTF,88.05433275982027
BMu38,57,C,REL,Trunk_Forward,1,R_MTF,86.04966168622303
BMu38,58,P,INI,Trunk_Forward,1,L_MTF,115.93343811482491
BMu38,58,P,INI,Trunk_Forward,1,R_MTF,55.9140895462768
BMu38,58,P,REL,Trunk_Forward,1,L_MTF,80.61921921043111
BMu38,58,P,REL,Trunk_Forward,1,R_MTF,103.3337085462503
BMu38,60,C,INI,Trunk_Forward,1,L_MTF,122.65761876404248
BMu38,60,C,INI,Trunk_Forward,1,R_MTF,123.82594427036136
BMu38,60,C,REL,Trunk_Forward,1,L_MTF,111.76497492712424
BMu38,60,C,REL,Trunk_Forward,1,R_MTF,121.670504713871
BMu38,61,P,INI,Trunk_Forward,1,L_MTF,103.02078694878584
BMu38,61,P,INI,Trunk_Forward,1,R_MTF,107.65480450215958
BMu38,61,P,REL,Trunk_Forward,1,L_MTF,101.078714447655
BMu38,61,P,REL,Trunk_Forward,1,R_MTF,112.3131905280234
BMu38,62,P,INI,Trunk_Forward,1,L_MTF,110.01072309091448
BMu38,62,P,INI,Trunk_Forward,1,R_MTF,98.614092053362
BMu38,62,P,REL,Trunk_Forward,1,L_MTF,117.99589293168978
BMu38,62,P,REL,Trunk_Forward,1,R_MTF,100.32822762068815
BMu38,63,P,INI,Trunk_Forward,1,L_MTF,86.02017670932791
BMu38,63,P,INI,Trunk_Forward,1,R_MTF,104.43441612129142
BMu38,63,P,REL,Trunk_Forward,1,L_MTF,112.23505278155864
BMu38,63,P,REL,Trunk_Forward,1,R_MTF,99.60667106893193
BMu38,64,C,INI,Trunk_Forward,1,L_MTF,111.33556098847893
BMu38,64,C,INI,Trunk_Forward,1,R_MTF,112.62281508835565
BMu38,64,C,REL,Trunk_Forward,1,L_MTF,120.92717667733825
BMu38,64,C,REL,Trunk_Forward,1,R_MTF,120.62894528605338
BMu38,65,P,INI,Trunk_Forward,1,L_MTF,93.66915039490553
BMu38,65,P,INI,Trunk_Forward,1,R_MTF,113.88101088961633
BMu38,65,P,REL,Trunk_Forward,1,L_MTF,102.08535905941503
BMu38,65,P,REL,Trunk_Forward,1,R_MTF,101.11475174625623
BMu38,66,C,INI,Trunk_Forward,1,L_MTF,109.2214807808184
BMu38,66,C,INI,Trunk_Forward,1,R_MTF,73.64286997549105
BMu38,66,C,REL,Trunk_Forward,1,L_MTF,93.10489843407916
BMu38,66,C,REL,Trunk_Forward,1,R_MTF,89.57308537352408
BMu38,67,C,INI,Trunk_Forward,1,L_MTF,118.9083406030492
BMu38,67,C,INI,Trunk_Forward,1,R_MTF,95.62543424550415
BMu38,67,C,REL,Trunk_Forward,1,L_MTF,79.54668324813564
BMu38,67,C,REL,Trunk_Forward,1,R_MTF,88.7246463472582
BMu38,68,C,INI,Trunk_Forward,1,L_MTF,116.63482463733303
BMu38,68,C,INI,Trunk_Forward,1,R_MTF,110.62988519963154
BMu38,68,C,REL,Trunk_Forward,1,L_MTF,122.77813475356935
BMu38,68,C,REL,Trunk_Forward,1,R_MTF,114.66727871732975
