BM,subject,P_C,session,task,repetition,channel,value
BMu38,1,C,INI,Trunk_Forward,1,L_MTF,99.71308139486797
BMu38,1,C,INI,Trunk_Forward,1,R_MTF,38.82067834045318
BMu38,1,C,REL,Trunk_Forward,1,L_MTF,79.48735874197017
BMu38,1,C,REL,Trunk_Forward,1,R_MTF,39.74996763956223
BMu38,2,C,INI,Trunk_Forward,1,L_MTF,104.33107908402425
BMu38,2,C,INI,Trunk_Forward,1,R_MTF,95.10283108524933
BMu38,2,C,REL,Trunk_Forward,1,L_MTF,104.42559239306027
BMu38,2,C,REL,Trunk_Forward,1,R_MTF,100.32267577596132
BMu38,3,C,INI,Trunk_Forward,1,L_MTF,90.09854596333689
BMu38,3,C,INI,Trunk_Forward,1,R_MTF,91.25008083124986
BMu38,3,C,REL,Trunk_Forward,1,L_MTF,90.72919835969819
BMu38,3,C,REL,Trunk_Forward,1,R_MTF,77.91158718204457
BMu38,5,C,INI,Trunk_Forward,1,L_MTF,131.53289247001985
BMu38,5,C,INI,Trunk_Forward,1,R_MTF,122.72984582627605
BMu38,5,C,REL,Trunk_Forward,1,L_MTF,132.57866199842948
BMu38,5,C,REL,Trunk_Forward,1,R_MTF,128.30379366206782
BMu38,6,C,INI,Trunk_Forward,1,L_MTF,108.5743468017966
BMu38,6,C,INI,Trunk_Forward,1,R_MTF,107.87735055421751
BMu38,6,C,REL,Trunk_Forward,1,L_MTF,106.01737348561834
BMu38,6,C,REL,Trunk_Forward,1,R_MTF,104.51811030365407
BMu38,7,C,INI,Trunk_Forward,1,L_MTF,98.99225232509673
BMu38,7,C,INI,Trunk_Forward,1,R_MTF,112.0625981836906
BMu38,7,C,REL,Trunk_Forward,1,L_MTF,130.63304563502925
BMu38,7,C,REL,Trunk_Forward,1,R_MTF,125.11847566277764
BMu38,8,C,INI,Trunk_Forward,1,L_MTF,41.77210237923433
BMu38,8,C,INI,Trunk_Forward,1,R_MTF,99.95874672444216
BMu38,8,C,REL,Trunk_Forward,1,L_MTF,98.03285425672561
BMu38,8,C,REL,Trunk_Forward,1,R_MTF,99.37630687955716
BMu38,9,P,INI,Trunk_Forward,1,L_MTF,113.8868614685852
BMu38,9,P,INI,Trunk_Forward,1,R_MTF,118.72544899446156
BMu38,9,P,REL,Trunk_Forward,1,L_MTF,123.30826301603874
BMu38,9,P,REL,Trunk_Forward,1,R_MTF,129.71770011845422
BMu38,10,P,INI,Trunk_Forward,1,L_MTF,84.07575779888866
BMu38,10,P,INI,Trunk_Forward,1,R_MTF,43.23416519042889
BMu38,10,P,REL,Trunk_Forward,1,L_MTF,120.3283549322627
BMu38,10,P,REL,Trunk_Forward,1,R_MTF,31.373863671528653
BMu38,11,P,INI,Trunk_Forward,1,L_MTF,124.2481017847333
BMu38,11,P,INI,Trunk_Forward,1,R_MTF,91.34478177529178
BMu38,11,P,REL,Trunk_Forward,1,L_MTF,116.5899038905709
BMu38,11,P,REL,Trunk_Forward,1,R_MTF,65.54792553332332
BMu38,12,P,INI,Trunk_Forward,1,L_MTF,100.23116517973328
BMu38,12,P,INI,Trunk_Forward,1,R_MTF,95.79811829402556
BMu38,12,P,REL,Trunk_Forward,1,L_MTF,82.9100727125223
BMu38,12,P,REL,Trunk_Forward,1,R_MTF,24.82621689355493
BMu38,13,C,INI,Trunk_Forward,1,L_MTF,106.1052811983252
BMu38,13,C,INI,Trunk_Forward,1,R_MTF,96.62697957043038
BMu38,13,C,REL,Trunk_Forward,1,L_MTF,107.6575894005237
BMu38,13,C,REL,Trunk_Forward,1,R_MTF,98.16572625277807
BMu38,14,P,INI,Trunk_Forward,1,L_MTF,76.44418347822327
BMu38,14,P,INI,Trunk_Forward,1,R_MTF,88.7536205587649
BMu38,14,P,REL,Trunk_Forward,1,L_MTF,81.70378307536365
BMu38,14,P,REL,Trunk_Forward,1,R_MTF,85.7537845934552
BMu38,16,C,INI,Trunk_Forward,1,L_MTF,97.55367804410716
BMu38,16,C,INI,Trunk_Forward,1,R_MTF,47.20472038678501
BMu38,16,C,REL,Trunk_Forward,1,L_MTF,68.70449207163671
BMu38,16,C,REL,Trunk_Forward,1,R_MTF,103.22028540842221
BMu38,17,P,INI,Trunk_Forward,1,L_MTF,118.801968875073
BMu38,17,P,INI,Trunk_Forward,1,R_MTF,116.5466803818495
BMu38,17,P,REL,Trunk_Forward,1,L_MTF,78.19376513180849
BMu38,17,P,REL,Trunk_Forward,1,R_MTF,108.90045905688721
BMu38,21,C,INI,Trunk_Forward,1,L_MTF,62.771326331804275
BMu38,21,C,INI,Trunk_Forward,1,R_MTF,82.9736112495252
BMu38,21,C,REL,Trunk_Forward,1,L_MTF,70.4111582790547
BMu38,21,C,REL,Trunk_Forward,1,R_MTF,83.2165330839909
BMu38,22,C,INI,Trunk_Forward,1,L_MTF,94.33167489216781
BMu38,22,C,INI,Trunk_Forward,1,R_MTF,43.177154854224426
BMu38,22,C,REL,Trunk_Forward,1,L_MTF,71.53743988158556
BMu38,22,C,REL,Trunk_Forward,1,R_MTF,42.66562697138253
BMu38,23,C,INI,Trunk_Forward,1,L_MTF,56.64759321780076
BMu38,23,C,INI,Trunk_Forward,1,R_MTF,59.850516103019565
BMu38,23,C,REL,Trunk_Forward,1,L_MTF,92.26287998878807
BMu38,23,C,REL,Trunk_Forward,1,R_MTF,96.85847842185935
BMu38,24,P,INI,Trunk_Forward,1,L_MTF,108.19682515124558
BMu38,24,P,INI,Trunk_Forward,1,R_MTF,98.19349305893157
BMu38,24,P,REL,Trunk_Forward,1,L_MTF,116.78567928378574
BMu38,24,P,REL,Trunk_Forward,1,R_MTF,105.54963988702862
BMu38,25,C,INI,Trunk_Forward,1,L_MTF,37.530411620421276
BMu38,25,C,INI,Trunk_Forward,1,R_MTF,118.4688393447461
BMu38,25,C,REL,Trunk_Forward,1,L_MTF,129.13420032567387
BMu38,25,C,REL,Trunk_Forward,1,R_MTF,124.19195566650058
BMu38,26,P,INI,Trunk_Forward,1,L_MTF,83.1983459751334
BMu38,26,P,INI,Trunk_Forward,1,R_MTF,34.03438308553661
BMu38,26,P,REL,Trunk_Forward,1,L_MTF,67.57439254721065
BMu38,26,P,REL,Trunk_Forward,1,R_MTF,40.962536131108926
BMu38,27,P,INI,Trunk_Forward,1,L_MTF,86.49130497882766
BMu38,27,P,INI,Trunk_Forward,1,R_MTF,77.07011093432001
BMu38,27,P,REL,Trunk_Forward,1,L_MTF,96.80298455826106
BMu38,27,P,REL,Trunk_Forward,1,R_MTF,85.63177420638546
BMu38,28,P,INI,Trunk_Forward,1,L_MTF,125.96315249612243
BMu38,28,P,INI,Trunk_Forward,1,R_MTF,111.94851736474459
BMu38,28,P,REL,Trunk_Forward,1,L_MTF,142.6223420318286
BMu38,28,P,REL,Trunk_Forward,1,R_MTF,122.02645215082413
BMu38,29,P,INI,Trunk_Forward,1,L_MTF,101.62385500017244
BMu38,29,P,INI,Trunk_Forward,1,R_MTF,103.18568091250144
BMu38,29,P,REL,Trunk_Forward,1,L_MTF,101.98830991815672
BMu38,29,P,REL,Trunk_Forward,1,R_MTF,103.03351336190484
BMu38,30,P,INI,Trunk_Forward,1,L_MTF,78.86122750234756
BMu38,30,P,INI,Trunk_Forward,1,R_MTF,60.21970383728686
BMu38,30,P,REL,Trunk_Forward,1,L_MTF,122.3402365028962
BMu38,30,P,REL,Trunk_Forward,1,R_MTF,120.43864020548558
BMu38,32,P,INI,Trunk_Forward,1,L_MTF,112.21527866642491
BMu38,32,P,INI,Trunk_Forward,1,R_MTF,120.27233773055981
BMu38,32,P,REL,Trunk_Forward,1,L_MTF,102.59556200841601
BMu38,32,P,REL,Trunk_Forward,1,R_MTF,96.20887715539288
BMu38,33,P,INI,Trunk_Forward,1,L_MTF,96.80799375019127
BMu38,33,P,INI,Trunk_Forward,1,R_MTF,90.88230100096811
BMu38,33,P,REL,Trunk_Forward,1,L_MTF,95.48979748404678
BMu38,33,P,REL,Trunk_Forward,1,R_MTF,82.04189826443306
BMu38,34,P,INI,Trunk_Forward,1,L_MTF,104.98331005614037
BMu38,34,P,INI,Trunk_Forward,1,R_MTF,32.03220145216015
BMu38,34,P,REL,Trunk_Forward,1,L_MTF,104.09885053351304
BMu38,34,P,REL,Trunk_Forward,1,R_MTF,99.82744723458431
BMu38,35,C,INI,Trunk_Forward,1,L_MTF,111.03973483035453
BMu38,35,C,INI,Trunk_Forward,1,R_MTF,111.17604005900814
BMu38,35,C,REL,Trunk_Forward,1,L_MTF,107.79915018010111
BMu38,35,C,REL,Trunk_Forward,1,R_MTF,110.43297004013158
BMu38,36,P,INI,Trunk_Forward,1,L_MTF,107.38766395375724
BMu38,36,P,INI,Trunk_Forward,1,R_MTF,100.9125137527042
BMu38,36,P,REL,Trunk_Forward,1,L_MTF,115.66893974439488
BMu38,36,P,REL,Trunk_Forward,1,R_MTF,112.73515300879029
BMu38,38,C,INI,Trunk_Forward,1,L_MTF,31.370297100096387
BMu38,38,C,INI,Trunk_Forward,1,R_MTF,91.95649603477439
BMu38,38,C,REL,Trunk_Forward,1,L_MTF,106.2262510885878
BMu38,38,C,REL,Trunk_Forward,1,R_MTF,90.33013549163674
BMu38,39,C,INI,Trunk_Forward,1,L_MTF,101.13066382750517
BMu38,39,C,INI,Trunk_Forward,1,R_MTF,102.98282914423265
BMu38,39,C,REL,Trunk_Forward,1,L_MTF,97.78447593327563
BMu38,39,C,REL,Trunk_Forward,1,R_MTF,87.14693032798259
BMu38,40,C,INI,Trunk_Forward,1,L_MTF,67.39036904199779
BMu38,40,C,INI,Trunk_Forward,1,R_MTF,131.88343456166297
BMu38,40,C,REL,Trunk_Forward,1,L_MTF,117.25547030139613
BMu38,40,C,REL,Trunk_Forward,1,R_MTF,120.18812778856076
BMu38,41,P,INI,Trunk_Forward,1,L_MTF,89.89927510538787
BMu38,41,P,INI,Trunk_Forward,1,R_MTF,85.56116060212493
BMu38,41,P,REL,Trunk_Forward,1,L_MTF,86.58927914957583
BMu38,41,P,REL,Trunk_Forward,1,R_MTF,83.06930228782248
BMu38,42,P,INI,Trunk_Forward,1,L_MTF,97.82415610581425
BMu38,42,P,INI,Trunk_Forward,1,R_MTF,95.53686220283248
BMu38,42,P,REL,Trunk_Forward,1,L_MTF,96.22683002233724
BMu38,42,P,REL,Trunk_Forward,1,R_MTF,99.19562516337477
BMu38,43,P,INI,Trunk_Forward,1,L_MTF,110.13703593404222
BMu38,43,P,INI,Trunk_Forward,1,R_MTF,80.44522561871237
BMu38,43,P,REL,Trunk_Forward,1,L_MTF,108.18094648023595
BMu38,43,P,REL,Trunk_Forward,1,R_MTF,110.07598724466772
BMu38,44,C,INI,Trunk_Forward,1,L_MTF,44.340589829742804
BMu38,44,C,INI,Trunk_Forward,1,R_MTF,105.84709561360201
BMu38,44,C,REL,Trunk_Forward,1,L_MTF,113.63185621710569
BMu38,44,C,REL,Trunk_Forward,1,R_MTF,116.87257050931493
BMu38,45,P,INI,Trunk_Forward,1,L_MTF,84.25739770327395
BMu38,45,P,INI,Trunk_Forward,1,R_MTF,71.05976943161113
BMu38,45,P,REL,Trunk_Forward,1,L_MTF,81.35309447961215
BMu38,45,P,REL,Trunk_Forward,1,R_MTF,67.54892089296443
BMu38,46,C,INI,Trunk_Forward,1,L_MTF,56.77155628606865
BMu38,46,C,INI,Trunk_Forward,1,R_MTF,65.52925286752954
BMu38,46,C,REL,Trunk_Forward,1,L_MTF,63.331154816520005
BMu38,46,C,REL,Trunk_Forward,1,R_MTF,75.64151757810076
BMu38,47,P,INI,Trunk_Forward,1,L_MTF,81.65000868699862
BMu38,47,P,INI,Trunk_Forward,1,R_MTF,82.00552877080948
BMu38,47,P,REL,Trunk_Forward,1,L_MTF,97.60484356562932
BMu38,47,P,REL,Trunk_Forward,1,R_MTF,73.29621689493453
BMu38,48,C,INI,Trunk_Forward,1,L_MTF,112.2175124456256
BMu38,48,C,INI,Trunk_Forward,1,R_MTF,118.35304228270302
BMu38,48,C,REL,Trunk_Forward,1,L_MTF,114.1188402387222
BMu38,48,C,REL,Trunk_Forward,1,R_MTF,127.49291047484871
BMu38,49,C,INI,Trunk_Forward,1,L_MTF,100.3379248924361
BMu38,49,C,INI,Trunk_Forward,1,R_MTF,112.84196563690881
BMu38,49,C,REL,Trunk_Forward,1,L_MTF,101.25749821870913
BMu38,49,C,REL,Trunk_Forward,1,R_MTF,109.85615288942981
BMu38,50,P,INI,Trunk_Forward,1,L_MTF,128.1146928236521
BMu38,50,P,INI,Trunk_Forward,1,R_MTF,60.51357373879376
BMu38,50,P,REL,Trunk_Forward,1,L_MTF,138.6212101625008
BMu38,50,P,REL,Trunk_Forward,1,R_MTF,77.35535811514207
BMu38,51,P,INI,Trunk_Forward,1,L_MTF,79.3774043660736
BMu38,51,P,INI,Trunk_Forward,1,R_MTF,79.93964746337696
BMu38,51,P,REL,Trunk_Forward,1,L_MTF,83.02263564768676
BMu38,51,P,REL,Trunk_Forward,1,R_MTF,76.41837071521365
BMu38,52,C,INI,Trunk_Forward,1,L_MTF,109.82660811146125
BMu38,52,C,INI,Trunk_Forward,1,R_MTF,115.36992075827243
BMu38,52,C,REL,Trunk_Forward,1,L_MTF,116.71495892105692
BMu38,52,C,REL,Trunk_Forward,1,R_MTF,124.6795389863217
BMu38,53,P,INI,Trunk_Forward,1,L_MTF,95.88023811490463
BMu38,53,P,INI,Trunk_Forward,1,R_MTF,104.43473387126947
BMu38,53,P,REL,Trunk_Forward,1,L_MTF,88.68953608339442
BMu38,53,P,REL,Trunk_Forward,1,R_MTF,95.28168172443156
BMu38,54,P,INI,Trunk_Forward,1,L_MTF,87.65703978693324
BMu38,54,P,INI,Trunk_Forward,1,R_MTF,95.53373287098447
BMu38,54,P,REL,Trunk_Forward,1,L_MTF,110.05830449352713
BMu38,54,P,REL,Trunk_Forward,1,R_MTF,110.13488766461398
BMu38,55,C,INI,Trunk_Forward,1,L_MTF,55.730683282395894
BMu38,55,C,INI,Trunk_Forward,1,R_MTF,76.18580240020542
BMu38,55,C,REL,Trunk_Forward,1,L_MTF,90.07810793709092
BMu38,55,C,REL,Trunk_Forward,1,R_MTF,80.77147062850648
BMu38,56,C,INI,Trunk_Forward,1,L_MTF,78.83134888499572
BMu38,56,C,INI,Trunk_Forward,1,R_MTF,66.49988302800803
BMu38,56,C,REL,Trunk_Forward,1,L_MTF,79.01224214023894
BMu38,56,C,REL,Trunk_Forward,1,R_MTF,53.40601201579434
BMu38,57,C,INI,Trunk_Forward,1,L_MTF,66.57073809218137
BMu38,57,C,INI,Trunk_Forward,1,R_MTF,73.40933487617289
BMu38,57,C,REL,Trunk_Forward,1,L_MTF,82.69855078230684
BMu38,57,C,REL,Trunk_Forward,1,R_MTF,74.44156916225845
BMu38,58,P,INI,Trunk_Forward,1,L_MTF,47.73073556799697
BMu38,58,P,INI,Trunk_Forward,1,R_MTF,40.96891599454338
BMu38,58,P,REL,Trunk_Forward,1,L_MTF,64.38988393098117
BMu38,58,P,REL,Trunk_Forward,1,R_MTF,90.76188912292008
BMu38,60,C,INI,Trunk_Forward,1,L_MTF,104.803568767606
BMu38,60,C,INI,Trunk_Forward,1,R_MTF,109.92985934401011
BMu38,60,C,REL,Trunk_Forward,1,L_MTF,104.09766576801691
BMu38,60,C,REL,Trunk_Forward,1,R_MTF,109.44417167308826
BMu38,61,P,INI,Trunk_Forward,1,L_MTF,83.75142329223257
BMu38,61,P,INI,Trunk_Forward,1,R_MTF,82.07580591275931
BMu38,61,P,REL,Trunk_Forward,1,L_MTF,82.11776003587721
BMu38,61,P,REL,Trunk_Forward,1,R_MTF,78.76562160756406
BMu38,62,P,INI,Trunk_Forward,1,L_MTF,97.5548982750977
BMu38,62,P,INI,Trunk_Forward,1,R_MTF,87.17469339484587
BMu38,62,P,REL,Trunk_Forward,1,L_MTF,96.05562439454535
BMu38,62,P,REL,Trunk_Forward,1,R_MTF,88.19047183433491
BMu38,63,P,INI,Trunk_Forward,1,L_MTF,89.66036251480898
BMu38,63,P,INI,Trunk_Forward,1,R_MTF,103.10703491867582
BMu38,63,P,REL,Trunk_Forward,1,L_MTF,101.97760568580338
BMu38,63,P,REL,Trunk_Forward,1,R_MTF,85.04782616381496
BMu38,64,C,INI,Trunk_Forward,1,L_MTF,88.84243150157033
BMu38,64,C,INI,Trunk_Forward,1,R_MTF,92.39189790315521
BMu38,64,C,REL,Trunk_Forward,1,L_MTF,88.36642487879432
BMu38,64,C,REL,Trunk_Forward,1,R_MTF,98.0096241929147
BMu38,65,P,INI,Trunk_Forward,1,L_MTF,97.52569173104759
BMu38,65,P,INI,Trunk_Forward,1,R_MTF,104.58776522150791
BMu38,65,P,REL,Trunk_Forward,1,L_MTF,95.42103008035662
BMu38,65,P,REL,Trunk_Forward,1,R_MTF,98.26902087657058
BMu38,66,C,INI,Trunk_Forward,1,L_MTF,55.76735278345124
BMu38,66,C,INI,Trunk_Forward,1,R_MTF,47.853642275340846
BMu38,66,C,REL,Trunk_Forward,1,L_MTF,73.98030970008445
BMu38,66,C,REL,Trunk_Forward,1,R_MTF,74.49509119818308
BMu38,67,C,INI,Trunk_Forward,1,L_MTF,101.06188426801893
BMu38,67,C,INI,Trunk_Forward,1,R_MTF,91.1401288947789
BMu38,67,C,REL,Trunk_Forward,1,L_MTF,100.95775008801814
BMu38,67,C,REL,Trunk_Forward,1,R_MTF,88.27465606023266
BMu38,68,C,INI,Trunk_Forward,1,L_MTF,114.60998266353299
BMu38,68,C,INI,Trunk_Forward,1,R_MTF,100.66319058914759
BMu38,68,C,REL,Trunk_Forward,1,L_MTF,120.91470184546891
BMu38,68,C,REL,Trunk_Forward,1,R_MTF,110.61226276881747
