BM,subject,P_C,session,task,repetition,channel,value
BMu42,1,C,INI,Trunk_Forward,1,L_LES,9.810386857477157
BMu42,1,C,INI,Trunk_Forward,1,R_LES,5.851425958410551
BMu42,1,C,REL,Trunk_Forward,1,L_LES,18.733365414023094
BMu42,1,C,REL,Trunk_Forward,1,R_LES,40.982801911786645
BMu42,2,C,INI,Trunk_Forward,1,L_LES,8.989287215020859
BMu42,2,C,INI,Trunk_Forward,1,R_LES,14.612172116498419
BMu42,2,C,REL,Trunk_Forward,1,L_LES,6.496546986658594
BMu42,2,C,REL,Trunk_Forward,1,R_LES,5.942784949763524
BMu42,3,C,INI,Trunk_Forward,1,L_LES,5.598312296543095
BMu42,3,C,INI,Trunk_Forward,1,R_LES,6.897696601851251
BMu42,3,C,REL,Trunk_Forward,1,L_LES,16.82598197593588
BMu42,3,C,REL,Trunk_Forward,1,R_LES,7.052939648889988
BMu42,5,C,INI,Trunk_Forward,1,L_LES,5.673501808213281
BMu42,5,C,INI,Trunk_Forward,1,R_LES,2.7983289757175496
BMu42,5,C,REL,Trunk_Forward,1,L_LES,6.372756173369162
BMu42,5,C,REL,Trunk_Forward,1,R_LES,2.3670490792625207
BMu42,6,C,INI,Trunk_Forward,1,L_LES,2.293397251193463
BMu42,6,C,INI,Trunk_Forward,1,R_LES,8.146530340497073
BMu42,6,C,REL,Trunk_Forward,1,L_LES,1.2369117064339274
BMu42,6,C,REL,Trunk_Forward,1,R_LES,1.4425856097340237
BMu42,7,C,INI,Trunk_Forward,1,L_LES,5.110431288403222
BMu42,7,C,INI,Trunk_Forward,1,R_LES,4.224402485952059
BMu42,7,C,REL,Trunk_Forward,1,L_LES,6.4078190536944275
BMu42,7,C,REL,Trunk_Forward,1,R_LES,8.04237711230604
BMu42,8,C,INI,Trunk_Forward,1,L_LES,9.13150434059601
BMu42,8,C,INI,Trunk_Forward,1,R_LES,6.5830744563559405
BMu42,8,C,REL,Trunk_Forward,1,L_LES,9.190777721111838
BMu42,8,C,REL,Trunk_Forward,1,R_LES,6.11212980596805
BMu42,9,P,INI,Trunk_Forward,1,L_LES,4.339440604522431
BMu42,9,P,INI,Trunk_Forward,1,R_LES,3.0256042118816637
BMu42,9,P,REL,Trunk_Forward,1,L_LES,5.590088221197114
BMu42,9,P,REL,Trunk_Forward,1,R_LES,3.0357965315167506
BMu42,10,P,INI,Trunk_Forward,1,L_LES,3.8126613408368946
BMu42,10,P,INI,Trunk_Forward,1,R_LES,3.5420326646952898
BMu42,10,P,REL,Trunk_Forward,1,L_LES,3.561960388263183
BMu42,10,P,REL,Trunk_Forward,1,R_LES,4.077810770972721
BMu42,11,P,INI,Trunk_Forward,1,L_LES,10.229365538654845
BMu42,11,P,INI,Trunk_Forward,1,R_LES,2.514023547624959
BMu42,11,P,REL,Trunk_Forward,1,L_LES,12.715909959869947
BMu42,11,P,REL,Trunk_Forward,1,R_LES,4.991071386649469
BMu42,12,P,INI,Trunk_Forward,1,L_LES,1.5734975788760603
BMu42,12,P,INI,Trunk_Forward,1,R_LES,2.3683410512184437
BMu42,12,P,REL,Trunk_Forward,1,L_LES,1.2864051077801253
BMu42,12,P,REL,Trunk_Forward,1,R_LES,8.141823203465805
BMu42,13,C,INI,Trunk_Forward,1,L_LES,2.5063063102114307
BMu42,13,C,INI,Trunk_Forward,1,R_LES,2.8649088098323356
BMu42,13,C,REL,Trunk_Forward,1,L_LES,2.4958181882413406
BMu42,13,C,REL,Trunk_Forward,1,R_LES,1.8939618208831526
BMu42,14,P,INI,Trunk_Forward,1,L_LES,2.1642162394255884
BMu42,14,P,INI,Trunk_Forward,1,R_LES,2.097950961550494
BMu42,14,P,REL,Trunk_Forward,1,L_LES,12.78116107796501
BMu42,14,P,REL,Trunk_Forward,1,R_LES,2.0535342907208705
BMu42,16,C,INI,Trunk_Forward,1,L_LES,5.309057881956453
BMu42,16,C,INI,Trunk_Forward,1,R_LES,3.8918043552925927
BMu42,16,C,REL,Trunk_Forward,1,L_LES,1.8272041679983708
BMu42,16,C,REL,Trunk_Forward,1,R_LES,1.247211781667698
BMu42,17,P,INI,Trunk_Forward,1,L_LES,5.182804497109884
BMu42,17,P,INI,Trunk_Forward,1,R_LES,4.399675426793192
BMu42,17,P,REL,Trunk_Forward,1,L_LES,1.1739931148832838
BMu42,17,P,REL,Trunk_Forward,1,R_LES,1.4972996415792261
BMu42,21,C,INI,Trunk_Forward,1,L_LES,3.900466677241384
BMu42,21,C,INI,Trunk_Forward,1,R_LES,3.0496510906590104
BMu42,21,C,REL,Trunk_Forward,1,L_LES,63.35369026472108
BMu42,21,C,REL,Trunk_Forward,1,R_LES,6.0381955625184105
BMu42,22,C,INI,Trunk_Forward,1,L_LES,12.10609117629319
BMu42,22,C,INI,Trunk_Forward,1,R_LES,6.326501179635737
BMu42,22,C,REL,Trunk_Forward,1,L_LES,3.193415844206765
BMu42,22,C,REL,Trunk_Forward,1,R_LES,8.020218101218978
BMu42,23,C,INI,Trunk_Forward,1,L_LES,3.6302350387234363
BMu42,23,C,INI,Trunk_Forward,1,R_LES,5.484249501211867
BMu42,23,C,REL,Trunk_Forward,1,L_LES,5.07135382484694
BMu42,23,C,REL,Trunk_Forward,1,R_LES,4.612587450220189
BMu42,24,P,INI,Trunk_Forward,1,L_LES,2.0886272042505336
BMu42,24,P,INI,Trunk_Forward,1,R_LES,1.7469079463275747
BMu42,24,P,REL,Trunk_Forward,1,L_LES,1.6863780552113639
BMu42,24,P,REL,Trunk_Forward,1,R_LES,2.208361868186178
BMu42,25,C,INI,Trunk_Forward,1,L_LES,9.766730736333608
BMu42,25,C,INI,Trunk_Forward,1,R_LES,5.370114221607896
BMu42,25,C,REL,Trunk_Forward,1,L_LES,2.7390487340309035
BMu42,25,C,REL,Trunk_Forward,1,R_LES,2.7757708176527003
BMu42,26,P,INI,Trunk_Forward,1,L_LES,15.195735036554888
BMu42,26,P,INI,Trunk_Forward,1,R_LES,4.132487784546753
BMu42,26,P,REL,Trunk_Forward,1,L_LES,10.183516916548692
BMu42,26,P,REL,Trunk_Forward,1,R_LES,4.65519746063458
BMu42,27,P,INI,Trunk_Forward,1,L_LES,2.0733138291102637
BMu42,27,P,INI,Trunk_Forward,1,R_LES,1.9177394456286496
BMu42,27,P,REL,Trunk_Forward,1,L_LES,2.2339758500196467
BMu42,27,P,REL,Trunk_Forward,1,R_LES,1.9211251842712114
BMu42,28,P,INI,Trunk_Forward,1,L_LES,1.9366861784326328
BMu42,28,P,INI,Trunk_Forward,1,R_LES,1.710239204761758
BMu42,28,P,REL,Trunk_Forward,1,L_LES,1.4733843046745292
BMu42,28,P,REL,Trunk_Forward,1,R_LES,1.1885259321434212
BMu42,29,P,INI,Trunk_Forward,1,L_LES,4.3890529726598
BMu42,29,P,INI,Trunk_Forward,1,R_LES,4.312968494045323
BMu42,29,P,REL,Trunk_Forward,1,L_LES,7.7924716002984455
BMu42,29,P,REL,Trunk_Forward,1,R_LES,8.68117479724608
BMu42,30,P,INI,Trunk_Forward,1,L_LES,1.4665754185056354
BMu42,30,P,INI,Trunk_Forward,1,R_LES,1.6550816705893752
BMu42,30,P,REL,Trunk_Forward,1,L_LES,2.3814030457071707
BMu42,30,P,REL,Trunk_Forward,1,R_LES,1.9184922425762831
BMu42,32,P,INI,Trunk_Forward,1,L_LES,2.72552408958159
BMu42,32,P,INI,Trunk_Forward,1,R_LES,1.9456503458067134
BMu42,32,P,REL,Trunk_Forward,1,L_LES,3.273715665870561
BMu42,32,P,REL,Trunk_Forward,1,R_LES,2.779302308086774
BMu42,33,P,INI,Trunk_Forward,1,L_LES,2.3328627230459436
BMu42,33,P,INI,Trunk_Forward,1,R_LES,2.5190363194910206
BMu42,33,P,REL,Trunk_Forward,1,L_LES,1.240853092821775
BMu42,33,P,REL,Trunk_Forward,1,R_LES,1.4010547052086173
BMu42,34,P,INI,Trunk_Forward,1,L_LES,3.581250608045485
BMu42,34,P,INI,Trunk_Forward,1,R_LES,5.19034035578925
BMu42,34,P,REL,Trunk_Forward,1,L_LES,3.668184891686056
BMu42,34,P,REL,Trunk_Forward,1,R_LES,3.883582915462202
BMu42,35,C,INI,Trunk_Forward,1,L_LES,10.249972028845475
BMu42,35,C,INI,Trunk_Forward,1,R_LES,10.792090664644853
BMu42,35,C,REL,Trunk_Forward,1,L_LES,11.730876033415134
BMu42,35,C,REL,Trunk_Forward,1,R_LES,9.463713989525505
BMu42,36,P,INI,Trunk_Forward,1,L_LES,1.4978057190019765
BMu42,36,P,INI,Trunk_Forward,1,R_LES,2.5397770653333276
BMu42,36,P,REL,Trunk_Forward,1,L_LES,1.1290806570373837
BMu42,36,P,REL,Trunk_Forward,1,R_LES,1.8759345994681522
BMu42,38,C,INI,Trunk_Forward,1,L_LES,20.134933554482
BMu42,38,C,INI,Trunk_Forward,1,R_LES,10.892887445162266
BMu42,38,C,REL,Trunk_Forward,1,L_LES,9.210980788893634
BMu42,38,C,REL,Trunk_Forward,1,R_LES,7.542651928039819
BMu42,39,C,INI,Trunk_Forward,1,L_LES,14.768519395722633
BMu42,39,C,INI,Trunk_Forward,1,R_LES,6.34920538505057
BMu42,39,C,REL,Trunk_Forward,1,L_LES,3.1349902193609114
BMu42,39,C,REL,Trunk_Forward,1,R_LES,8.222546987376095
BMu42,40,C,INI,Trunk_Forward,1,L_LES,7.59108116092506
BMu42,40,C,INI,Trunk_Forward,1,R_LES,8.176619140197708
BMu42,40,C,REL,Trunk_Forward,1,L_LES,6.398280743060287
BMu42,40,C,REL,Trunk_Forward,1,R_LES,5.329026629050815
BMu42,41,P,INI,Trunk_Forward,1,L_LES,3.289470866376192
BMu42,41,P,INI,Trunk_Forward,1,R_LES,9.166809986081327
BMu42,41,P,REL,Trunk_Forward,1,L_LES,4.311782188546602
BMu42,41,P,REL,Trunk_Forward,1,R_LES,7.006935360541622
BMu42,42,P,INI,Trunk_Forward,1,L_LES,3.35602000703305
BMu42,42,P,INI,Trunk_Forward,1,R_LES,6.157107563474544
BMu42,42,P,REL,Trunk_Forward,1,L_LES,2.0825366054261636
BMu42,42,P,REL,Trunk_Forward,1,R_LES,8.786582472072643
BMu42,43,P,INI,Trunk_Forward,1,L_LES,3.6277082923502966
BMu42,43,P,INI,Trunk_Forward,1,R_LES,3.403270133245428
BMu42,43,P,REL,Trunk_Forward,1,L_LES,5.164997517135756
BMu42,43,P,REL,Trunk_Forward,1,R_LES,2.7610979444724766
BMu42,44,C,INI,Trunk_Forward,1,L_LES,7.975146838325331
BMu42,44,C,INI,Trunk_Forward,1,R_LES,13.062027500489757
BMu42,44,C,REL,Trunk_Forward,1,L_LES,6.305785429148842
BMu42,44,C,REL,Trunk_Forward,1,R_LES,13.19082893142672
BMu42,45,P,INI,Trunk_Forward,1,L_LES,10.810144041039651
BMu42,45,P,INI,Trunk_Forward,1,R_LES,2.6866663272903284
BMu42,45,P,REL,Trunk_Forward,1,L_LES,4.153647548359206
BMu42,45,P,REL,Trunk_Forward,1,R_LES,3.108050716455819
BMu42,46,C,INI,Trunk_Forward,1,L_LES,8.627096140560155
BMu42,46,C,INI,Trunk_Forward,1,R_LES,3.9385202922574236
BMu42,46,C,REL,Trunk_Forward,1,L_LES,2.8883395778118124
BMu42,46,C,REL,Trunk_Forward,1,R_LES,3.0016561235104446
BMu42,47,P,INI,Trunk_Forward,1,L_LES,1.4225603292041349
BMu42,47,P,INI,Trunk_Forward,1,R_LES,1.4947423547576968
BMu42,47,P,REL,Trunk_Forward,1,L_LES,1.596953430893272
BMu42,47,P,REL,Trunk_Forward,1,R_LES,2.239994649456538
BMu42,48,C,INI,Trunk_Forward,1,L_LES,7.442572801654799
BMu42,48,C,INI,Trunk_Forward,1,R_LES,8.347270192983691
BMu42,48,C,REL,Trunk_Forward,1,L_LES,11.538868321903735
BMu42,48,C,REL,Trunk_Forward,1,R_LES,11.00366764992961
BMu42,49,C,INI,Trunk_Forward,1,L_LES,10.825386224814027
BMu42,49,C,INI,Trunk_Forward,1,R_LES,13.143812954346041
BMu42,49,C,REL,Trunk_Forward,1,L_LES,6.881851734359647
BMu42,49,C,REL,Trunk_Forward,1,R_LES,12.398729556873874
BMu42,50,P,INI,Trunk_Forward,1,L_LES,7.069886423144415
BMu42,50,P,INI,Trunk_Forward,1,R_LES,4.2997234875720745
BMu42,50,P,REL,Trunk_Forward,1,L_LES,1.4302589509248715
BMu42,50,P,REL,Trunk_Forward,1,R_LES,1.4615752885256421
BMu42,51,P,INI,Trunk_Forward,1,L_LES,1.2677109800400739
BMu42,51,P,INI,Trunk_Forward,1,R_LES,1.3457813759000798
BMu42,51,P,REL,Trunk_Forward,1,L_LES,1.450744800218054
BMu42,51,P,REL,Trunk_Forward,1,R_LES,2.2658569996754108
BMu42,52,C,INI,Trunk_Forward,1,L_LES,9.63013212292096
BMu42,52,C,INI,Trunk_Forward,1,R_LES,3.8079252527961835
BMu42,52,C,REL,Trunk_Forward,1,L_LES,6.81456921909379
BMu42,52,C,REL,Trunk_Forward,1,R_LES,3.08520044848459
BMu42,53,P,INI,Trunk_Forward,1,L_LES,1.1229252319039218
BMu42,53,P,INI,Trunk_Forward,1,R_LES,1.105999462369356
BMu42,53,P,REL,Trunk_Forward,1,L_LES,1.267759286432374
BMu42,53,P,REL,Trunk_Forward,1,R_LES,1.179240697117469
BMu42,54,P,INI,Trunk_Forward,1,L_LES,6.070277740759295
BMu42,54,P,INI,Trunk_Forward,1,R_LES,4.392972233311099
BMu42,54,P,REL,Trunk_Forward,1,L_LES,10.175236078489322
BMu42,54,P,REL,Trunk_Forward,1,R_LES,7.300858640915408
BMu42,55,C,INI,Trunk_Forward,1,L_LES,9.193233949369583
BMu42,55,C,INI,Trunk_Forward,1,R_LES,5.068267651682769
BMu42,55,C,REL,Trunk_Forward,1,L_LES,10.21760596105023
BMu42,55,C,REL,Trunk_Forward,1,R_LES,5.519549674285604
BMu42,56,C,INI,Trunk_Forward,1,L_LES,2.6649117808956038
BMu42,56,C,INI,Trunk_Forward,1,R_LES,3.9467390253564303
BMu42,56,C,REL,Trunk_Forward,1,L_LES,1.87221845012743
BMu42,56,C,REL,Trunk_Forward,1,R_LES,2.7022346121322953
BMu42,57,C,INI,Trunk_Forward,1,L_LES,10.85047753707587
BMu42,57,C,INI,Trunk_Forward,1,R_LES,4.190529550766172
BMu42,57,C,REL,Trunk_Forward,1,L_LES,46.26830858686932
BMu42,57,C,REL,Trunk_Forward,1,R_LES,3.6261102383885
BMu42,58,P,INI,Trunk_Forward,1,L_LES,1.4044821995410948
BMu42,58,P,INI,Trunk_Forward,1,R_LES,1.6100216430111187
BMu42,58,P,REL,Trunk_Forward,1,L_LES,18.207396243899463
BMu42,58,P,REL,Trunk_Forward,1,R_LES,1.4070355470911
BMu42,60,C,INI,Trunk_Forward,1,L_LES,2.8509475361435714
BMu42,60,C,INI,Trunk_Forward,1,R_LES,3.916284936515485
BMu42,60,C,REL,Trunk_Forward,1,L_LES,1.5379741446418267
BMu42,60,C,REL,Trunk_Forward,1,R_LES,1.7873842011459302
BMu42,61,P,INI,Trunk_Forward,1,L_LES,9.751150408652979
BMu42,61,P,INI,Trunk_Forward,1,R_LES,9.144285214965729
BMu42,61,P,REL,Trunk_Forward,1,L_LES,11.586822202878816
BMu42,61,P,REL,Trunk_Forward,1,R_LES,7.659794343900611
BMu42,62,P,INI,Trunk_Forward,1,L_LES,1.590676347334172
BMu42,62,P,INI,Trunk_Forward,1,R_LES,2.1608845844113147
BMu42,62,P,REL,Trunk_Forward,1,L_LES,4.06508911242636
BMu42,62,P,REL,Trunk_Forward,1,R_LES,2.0304216963175645
BMu42,63,P,INI,Trunk_Forward,1,L_LES,16.690113673933002
BMu42,63,P,INI,Trunk_Forward,1,R_LES,6.825402744493741
BMu42,63,P,REL,Trunk_Forward,1,L_LES,9.578518194732744
BMu42,63,P,REL,Trunk_Forward,1,R_LES,8.9668078195048
BMu42,64,C,INI,Trunk_Forward,1,L_LES,5.51881966385838
BMu42,64,C,INI,Trunk_Forward,1,R_LES,7.144606129123754
BMu42,64,C,REL,Trunk_Forward,1,L_LES,6.18212913888317
BMu42,64,C,REL,Trunk_Forward,1,R_LES,5.040403940788583
BMu42,65,P,INI,Trunk_Forward,1,L_LES,6.747902719094239
BMu42,65,P,INI,Trunk_Forward,1,R_LES,6.079880623247267
BMu42,65,P,REL,Trunk_Forward,1,L_LES,5.412594414127992
BMu42,65,P,REL,Trunk_Forward,1,R_LES,5.479425626979086
BMu42,66,C,INI,Trunk_Forward,1,L_LES,5.386128050826653
BMu42,66,C,INI,Trunk_Forward,1,R_LES,5.839094223423591
BMu42,66,C,REL,Trunk_Forward,1,L_LES,3.6745409107034575
BMu42,66,C,REL,Trunk_Forward,1,R_LES,4.57451239525555
BMu42,67,C,INI,Trunk_Forward,1,L_LES,12.826471601419124
BMu42,67,C,INI,Trunk_Forward,1,R_LES,7.870657893742311
BMu42,67,C,REL,Trunk_Forward,1,L_LES,20.69146176308234
BMu42,67,C,REL,Trunk_Forward,1,R_LES,10.478097974904331
BMu42,68,C,INI,Trunk_Forward,1,L_LES,4.641890614601343
BMu42,68,C,INI,Trunk_Forward,1,R_LES,1.4356980484181168
BMu42,68,C,REL,Trunk_Forward,1,L_LES,5.985542645204093
BMu42,68,C,REL,Trunk_Forward,1,R_LES,2.404611390245736
