BM,subject,P_C,session,task,repetition,channel,value
BMu42,1,C,INI,Trunk_Forward,1,R_L_LES,7.364713820111726
BMu42,1,C,REL,Trunk_Forward,1,R_L_LES,27.23917854419382
BMu42,2,C,INI,Trunk_Forward,1,R_L_LES,10.975453581047528
BMu42,2,C,REL,Trunk_Forward,1,R_L_LES,5.345288601458087
BMu42,3,C,INI,Trunk_Forward,1,R_L_LES,5.863274635052488
BMu42,3,C,REL,Trunk_Forward,1,R_L_LES,18.601792622661733
BMu42,5,C,INI,Trunk_Forward,1,R_L_LES,4.1287360316246
BMu42,5,C,REL,Trunk_Forward,1,R_L_LES,4.982570098118799
BMu42,6,C,INI,Trunk_Forward,1,R_L_LES,6.180779049359685
BMu42,6,C,REL,Trunk_Forward,1,R_L_LES,1.1401220180068075
BMu42,7,C,INI,Trunk_Forward,1,R_L_LES,3.797398217985557
BMu42,7,C,REL,Trunk_Forward,1,R_L_LES,8.05164581562272
BMu42,8,C,INI,Trunk_Forward,1,R_L_LES,7.694806549604929
BMu42,8,C,REL,Trunk_Forward,1,R_L_LES,7.4275475609010755
BMu42,9,P,INI,Trunk_Forward,1,R_L_LES,3.720750506370871
BMu42,9,P,REL,Trunk_Forward,1,R_L_LES,4.6966064996999535
BMu42,10,P,INI,Trunk_Forward,1,R_L_LES,4.285764641601475
BMu42,10,P,REL,Trunk_Forward,1,R_L_LES,4.918006004535409
BMu42,11,P,INI,Trunk_Forward,1,R_L_LES,6.019605916854541
BMu42,11,P,REL,Trunk_Forward,1,R_L_LES,8.124547036854489
BMu42,12,P,INI,Trunk_Forward,1,R_L_LES,1.658994489070998
BMu42,12,P,REL,Trunk_Forward,1,R_L_LES,3.0736441016818024
BMu42,13,C,INI,Trunk_Forward,1,R_L_LES,2.989601780040411
BMu42,13,C,REL,Trunk_Forward,1,R_L_LES,2.2350158840587633
BMu42,14,P,INI,Trunk_Forward,1,R_L_LES,1.9962038146353325
BMu42,14,P,REL,Trunk_Forward,1,R_L_LES,8.763647838943577
BMu42,16,C,INI,Trunk_Forward,1,R_L_LES,5.037793217961986
BMu42,16,C,REL,Trunk_Forward,1,R_L_LES,1.6166236206858162
BMu42,17,P,INI,Trunk_Forward,1,R_L_LES,4.126797503009749
BMu42,17,P,REL,Trunk_Forward,1,R_L_LES,1.2232116027990059
BMu42,21,C,INI,Trunk_Forward,1,R_L_LES,3.6026764321153735
BMu42,21,C,REL,Trunk_Forward,1,R_L_LES,57.9431731996535
BMu42,22,C,INI,Trunk_Forward,1,R_L_LES,5.0587547830312385
BMu42,22,C,REL,Trunk_Forward,1,R_L_LES,5.466835256264275
BMu42,23,C,INI,Trunk_Forward,1,R_L_LES,4.1986906500573955
BMu42,23,C,REL,Trunk_Forward,1,R_L_LES,4.615328874169592
BMu42,24,P,INI,Trunk_Forward,1,R_L_LES,2.0662350525809745
BMu42,24,P,REL,Trunk_Forward,1,R_L_LES,1.9942364427380919
BMu42,25,C,INI,Trunk_Forward,1,R_L_LES,9.85018735585028
BMu42,25,C,REL,Trunk_Forward,1,R_L_LES,3.124984000015746
BMu42,26,P,INI,Trunk_Forward,1,R_L_LES,9.231171364899275
BMu42,26,P,REL,Trunk_Forward,1,R_L_LES,7.977643596855944
BMu42,27,P,INI,Trunk_Forward,1,R_L_LES,2.1575447014359197
BMu42,27,P,REL,Trunk_Forward,1,R_L_LES,2.1026478564675894
BMu42,28,P,INI,Trunk_Forward,1,R_L_LES,1.9818916808206963
BMu42,28,P,REL,Trunk_Forward,1,R_L_LES,1.285857517069093
BMu42,29,P,INI,Trunk_Forward,1,R_L_LES,4.890006252720546
BMu42,29,P,REL,Trunk_Forward,1,R_L_LES,9.121714697714186
BMu42,30,P,INI,Trunk_Forward,1,R_L_LES,1.2989673190055817
BMu42,30,P,REL,Trunk_Forward,1,R_L_LES,2.3426102347486513
BMu42,32,P,INI,Trunk_Forward,1,R_L_LES,2.1939861216458496
BMu42,32,P,REL,Trunk_Forward,1,R_L_LES,2.5672442253948593
BMu42,33,P,INI,Trunk_Forward,1,R_L_LES,2.5445383845186025
BMu42,33,P,REL,Trunk_Forward,1,R_L_LES,1.14371073197187
BMu42,34,P,INI,Trunk_Forward,1,R_L_LES,4.69057291368623
BMu42,34,P,REL,Trunk_Forward,1,R_L_LES,3.703684462513021
BMu42,35,C,INI,Trunk_Forward,1,R_L_LES,11.592110721416596
BMu42,35,C,REL,Trunk_Forward,1,R_L_LES,9.82816696879719
BMu42,36,P,INI,Trunk_Forward,1,R_L_LES,1.8996275645673242
BMu42,36,P,REL,Trunk_Forward,1,R_L_LES,1.164050947838585
BMu42,38,C,INI,Trunk_Forward,1,R_L_LES,12.77706750987527
BMu42,38,C,REL,Trunk_Forward,1,R_L_LES,8.839707797176251
BMu42,39,C,INI,Trunk_Forward,1,R_L_LES,8.691007189789193
BMu42,39,C,REL,Trunk_Forward,1,R_L_LES,6.2316700656420565
BMu42,40,C,INI,Trunk_Forward,1,R_L_LES,8.64528256720509
BMu42,40,C,REL,Trunk_Forward,1,R_L_LES,6.670935684374353
BMu42,41,P,INI,Trunk_Forward,1,R_L_LES,6.13317081301496
BMu42,41,P,REL,Trunk_Forward,1,R_L_LES,5.950894956658267
BMu42,42,P,INI,Trunk_Forward,1,R_L_LES,4.686405261264913
BMu42,42,P,REL,Trunk_Forward,1,R_L_LES,5.087086059794018
BMu42,43,P,INI,Trunk_Forward,1,R_L_LES,2.035792788235293
BMu42,43,P,REL,Trunk_Forward,1,R_L_LES,3.223167928276016
BMu42,44,C,INI,Trunk_Forward,1,R_L_LES,9.719081413505588
BMu42,44,C,REL,Trunk_Forward,1,R_L_LES,9.650160115989333
BMu42,45,P,INI,Trunk_Forward,1,R_L_LES,5.403235473101559
BMu42,45,P,REL,Trunk_Forward,1,R_L_LES,2.839267138640885
BMu42,46,C,INI,Trunk_Forward,1,R_L_LES,3.6862797629107025
BMu42,46,C,REL,Trunk_Forward,1,R_L_LES,2.621973704958365
BMu42,47,P,INI,Trunk_Forward,1,R_L_LES,1.345433285838157
BMu42,47,P,REL,Trunk_Forward,1,R_L_LES,1.5872378845967159
BMu42,48,C,INI,Trunk_Forward,1,R_L_LES,6.720614636354975
BMu42,48,C,REL,Trunk_Forward,1,R_L_LES,10.862986453819847
BMu42,49,C,INI,Trunk_Forward,1,R_L_LES,12.25879861276833
BMu42,49,C,REL,Trunk_Forward,1,R_L_LES,7.864436930985219
BMu42,50,P,INI,Trunk_Forward,1,R_L_LES,6.436300872451402
BMu42,50,P,REL,Trunk_Forward,1,R_L_LES,1.420101884357642
BMu42,51,P,INI,Trunk_Forward,1,R_L_LES,1.2645707095113576
BMu42,51,P,REL,Trunk_Forward,1,R_L_LES,1.551080399441505
BMu42,52,C,INI,Trunk_Forward,1,R_L_LES,5.508508896392669
BMu42,52,C,REL,Trunk_Forward,1,R_L_LES,5.073455358872714
BMu42,53,P,INI,Trunk_Forward,1,R_L_LES,1.0784212871215204
BMu42,53,P,REL,Trunk_Forward,1,R_L_LES,1.1890576684060097
BMu42,54,P,INI,Trunk_Forward,1,R_L_LES,5.292649479680254
BMu42,54,P,REL,Trunk_Forward,1,R_L_LES,9.304411483584378
BMu42,55,C,INI,Trunk_Forward,1,R_L_LES,7.972368090404938
BMu42,55,C,REL,Trunk_Forward,1,R_L_LES,9.822799090414097
BMu42,56,C,INI,Trunk_Forward,1,R_L_LES,3.7003225404238385
BMu42,56,C,REL,Trunk_Forward,1,R_L_LES,2.4401822117004084
BMu42,57,C,INI,Trunk_Forward,1,R_L_LES,14.04125482942646
BMu42,57,C,REL,Trunk_Forward,1,R_L_LES,44.74532779698051
BMu42,58,P,INI,Trunk_Forward,1,R_L_LES,1.3300637708000127
BMu42,58,P,REL,Trunk_Forward,1,R_L_LES,18.998777318863112
BMu42,60,C,INI,Trunk_Forward,1,R_L_LES,3.8157223311380717
BMu42,60,C,REL,Trunk_Forward,1,R_L_LES,1.6817804548019146
BMu42,61,P,INI,Trunk_Forward,1,R_L_LES,8.715292185213293
BMu42,61,P,REL,Trunk_Forward,1,R_L_LES,9.677171411315978
BMu42,62,P,INI,Trunk_Forward,1,R_L_LES,1.6525750727009432
BMu42,62,P,REL,Trunk_Forward,1,R_L_LES,3.2922710530595864
BMu42,63,P,INI,Trunk_Forward,1,R_L_LES,13.305123100919705
BMu42,63,P,REL,Trunk_Forward,1,R_L_LES,6.700732263828163
BMu42,64,C,INI,Trunk_Forward,1,R_L_LES,6.936573441718697
BMu42,64,C,REL,Trunk_Forward,1,R_L_LES,6.281008245008383
BMu42,65,P,INI,Trunk_Forward,1,R_L_LES,7.220032822081723
BMu42,65,P,REL,Trunk_Forward,1,R_L_LES,5.801528308074128
BMu42,66,C,INI,Trunk_Forward,1,R_L_LES,6.095908072445688
BMu42,66,C,REL,Trunk_Forward,1,R_L_LES,4.549179705606088
BMu42,67,C,INI,Trunk_Forward,1,R_L_LES,8.377780226291337
BMu42,67,C,REL,Trunk_Forward,1,R_L_LES,14.651180521694183
BMu42,68,C,INI,Trunk_Forward,1,R_L_LES,2.408778160966107
BMu42,68,C,REL,Trunk_Forward,1,R_L_LES,3.494441933850442
