BM,subject,P_C,session,task,repetition,channel,value
BMu41,26,P,INI,Trunk_Forward,1,L_EO,2.643889005839851
BMu41,26,P,INI,Trunk_Forward,1,R_EO,2.137517613904092
BMu41,26,P,REL,Trunk_Forward,1,L_EO,2.524186916800651
BMu41,26,P,REL,Trunk_Forward,1,R_EO,0.4279600433582521
BMu41,27,P,INI,Trunk_Forward,1,L_EO,1.468681233421327
BMu41,27,P,INI,Trunk_Forward,1,R_EO,2.485619028022247
BMu41,27,P,REL,Trunk_Forward,1,L_EO,2.348597401308709
BMu41,27,P,REL,Trunk_Forward,1,R_EO,2.8381067459726843
BMu41,28,P,INI,Trunk_Forward,1,L_EO,1.3259154309788357
BMu41,28,P,INI,Trunk_Forward,1,R_EO,0.9423302194780119
BMu41,28,P,REL,Trunk_Forward,1,L_EO,1.1761637931632563
BMu41,28,P,REL,Trunk_Forward,1,R_EO,0.6927740819718793
BMu41,29,P,INI,Trunk_Forward,1,L_EO,1.20575512335562
BMu41,29,P,INI,Trunk_Forward,1,R_EO,0.8319352364301814
BMu41,29,P,REL,Trunk_Forward,1,L_EO,1.19996830690965
BMu41,29,P,REL,Trunk_Forward,1,R_EO,0.9472118671532264
BMu41,30,P,INI,Trunk_Forward,1,L_EO,0.8288330356500107
BMu41,30,P,INI,Trunk_Forward,1,R_EO,2.471403999964782
BMu41,30,P,REL,Trunk_Forward,1,L_EO,0.5945714583248789
BMu41,30,P,REL,Trunk_Forward,1,R_EO,2.5051944225417047
BMu41,32,P,INI,Trunk_Forward,1,L_EO,0.8637065952048687
BMu41,32,P,INI,Trunk_Forward,1,R_EO,0.6381594685500711
BMu41,32,P,REL,Trunk_Forward,1,L_EO,2.1185650050813902
BMu41,32,P,REL,Trunk_Forward,1,R_EO,1.0021209257193409
BMu41,33,P,INI,Trunk_Forward,1,L_EO,2.6645372266749514
BMu41,33,P,INI,Trunk_Forward,1,R_EO,2.2239383106030814
BMu41,33,P,REL,Trunk_Forward,1,L_EO,0.5562634080085868
BMu41,33,P,REL,Trunk_Forward,1,R_EO,2.287526434196636
BMu41,34,P,INI,Trunk_Forward,1,L_EO,2.6699265748366585
BMu41,34,P,INI,Trunk_Forward,1,R_EO,1.932308617380261
BMu41,34,P,REL,Trunk_Forward,1,L_EO,0.5502296976396881
BMu41,34,P,REL,Trunk_Forward,1,R_EO,0.784776338517696
BMu41,35,C,INI,Trunk_Forward,1,L_EO,2.7267921961262673
BMu41,35,C,INI,Trunk_Forward,1,R_EO,2.4642117192544672
BMu41,35,C,REL,Trunk_Forward,1,L_EO,2.457741013305848
BMu41,35,C,REL,Trunk_Forward,1,R_EO,1.339700069986236
BMu41,36,P,INI,Trunk_Forward,1,L_EO,2.521372238441429
BMu41,36,P,INI,Trunk_Forward,1,R_EO,2.0623870299883826
BMu41,36,P,REL,Trunk_Forward,1,L_EO,2.193891996828627
BMu41,36,P,REL,Trunk_Forward,1,R_EO,2.744484793158652
