BM,subject,P_C,session,task,repetition,channel,value
BMu44,1,C,INI,Trunk_Forward,1,R_L_LES,11.552324626704246
BMu44,1,C,REL,Trunk_Forward,1,R_L_LES,20.632768928035446
BMu44,2,C,INI,Trunk_Forward,1,R_L_LES,19.21427781608398
BMu44,2,C,REL,Trunk_Forward,1,R_L_LES,12.117804572681043
BMu44,3,C,INI,Trunk_Forward,1,R_L_LES,14.804517996749697
BMu44,3,C,REL,Trunk_Forward,1,R_L_LES,18.95790157459363
BMu44,5,C,INI,Trunk_Forward,1,R_L_LES,14.660101170306001
BMu44,5,C,REL,Trunk_Forward,1,R_L_LES,15.087288971817554
BMu44,6,C,INI,Trunk_Forward,1,R_L_LES,4.852228359508132
BMu44,6,C,REL,Trunk_Forward,1,R_L_LES,3.2929270372796697
BMu44,7,C,INI,Trunk_Forward,1,R_L_LES,6.523070317271599
BMu44,7,C,REL,Trunk_Forward,1,R_L_LES,13.672966976021007
BMu44,8,C,INI,Trunk_Forward,1,R_L_LES,13.190827751084173
BMu44,8,C,REL,Trunk_Forward,1,R_L_LES,12.50875418481795
BMu44,9,P,INI,Trunk_Forward,1,R_L_LES,8.742833412327958
BMu44,9,P,REL,Trunk_Forward,1,R_L_LES,9.152864733973272
BMu44,10,P,INI,Trunk_Forward,1,R_L_LES,8.362534201358455
BMu44,10,P,REL,Trunk_Forward,1,R_L_LES,9.45005611151233
BMu44,11,P,INI,Trunk_Forward,1,R_L_LES,10.711915338122845
BMu44,11,P,REL,Trunk_Forward,1,R_L_LES,20.98983609200364
BMu44,12,P,INI,Trunk_Forward,1,R_L_LES,3.8470980225414455
BMu44,12,P,REL,Trunk_Forward,1,R_L_LES,3.7533215722927693
BMu44,13,C,INI,Trunk_Forward,1,R_L_LES,4.125523613933297
BMu44,13,C,REL,Trunk_Forward,1,R_L_LES,3.871717584822281
BMu44,14,P,INI,Trunk_Forward,1,R_L_LES,4.959906410627425
BMu44,14,P,REL,Trunk_Forward,1,R_L_LES,11.89665213117829
BMu44,16,C,INI,Trunk_Forward,1,R_L_LES,8.972861911308543
BMu44,16,C,REL,Trunk_Forward,1,R_L_LES,6.366534175376643
BMu44,17,P,INI,Trunk_Forward,1,R_L_LES,11.966825115664792
BMu44,17,P,REL,Trunk_Forward,1,R_L_LES,2.4717078826768786
BMu44,21,C,INI,Trunk_Forward,1,R_L_LES,10.519755861059318
BMu44,21,C,REL,Trunk_Forward,1,R_L_LES,21.60783011552996
BMu44,22,C,INI,Trunk_Forward,1,R_L_LES,7.273077021870146
BMu44,22,C,REL,Trunk_Forward,1,R_L_LES,6.136411841071269
BMu44,23,C,INI,Trunk_Forward,1,R_L_LES,7.456027349627124
BMu44,23,C,REL,Trunk_Forward,1,R_L_LES,7.399229685811022
BMu44,24,P,INI,Trunk_Forward,1,R_L_LES,5.124304285116203
BMu44,24,P,REL,Trunk_Forward,1,R_L_LES,3.3824490700682333
BMu44,25,C,INI,Trunk_Forward,1,R_L_LES,14.648300274604813
BMu44,25,C,REL,Trunk_Forward,1,R_L_LES,8.061905805914375
BMu44,26,P,INI,Trunk_Forward,1,R_L_LES,5.9694680947740935
BMu44,26,P,REL,Trunk_Forward,1,R_L_LES,6.244721607438408
BMu44,27,P,INI,Trunk_Forward,1,R_L_LES,5.392455579989151
BMu44,27,P,REL,Trunk_Forward,1,R_L_LES,3.4770642480137903
BMu44,28,P,INI,Trunk_Forward,1,R_L_LES,3.5322062620206887
BMu44,28,P,REL,Trunk_Forward,1,R_L_LES,1.8728363752136659
BMu44,29,P,INI,Trunk_Forward,1,R_L_LES,9.254713437175935
BMu44,29,P,REL,Trunk_Forward,1,R_L_LES,18.113840803130795
BMu44,30,P,INI,Trunk_Forward,1,R_L_LES,3.135055939399893
BMu44,30,P,REL,Trunk_Forward,1,R_L_LES,2.711734465174231
BMu44,32,P,INI,Trunk_Forward,1,R_L_LES,4.860278732793632
BMu44,32,P,REL,Trunk_Forward,1,R_L_LES,5.811285445614914
BMu44,33,P,INI,Trunk_Forward,1,R_L_LES,2.645063460770793
BMu44,33,P,REL,Trunk_Forward,1,R_L_LES,1.8389168539596785
BMu44,34,P,INI,Trunk_Forward,1,R_L_LES,6.270166173281183
BMu44,34,P,REL,Trunk_Forward,1,R_L_LES,10.023063760555045
BMu44,35,C,INI,Trunk_Forward,1,R_L_LES,14.288831811661211
BMu44,35,C,REL,Trunk_Forward,1,R_L_LES,18.062200399518574
BMu44,36,P,INI,Trunk_Forward,1,R_L_LES,2.5574201689627265
BMu44,36,P,REL,Trunk_Forward,1,R_L_LES,1.7617787464062058
BMu44,38,C,INI,Trunk_Forward,1,R_L_LES,11.103730892319012
BMu44,38,C,REL,Trunk_Forward,1,R_L_LES,8.360204285749418
BMu44,39,C,INI,Trunk_Forward,1,R_L_LES,10.106167396373406
BMu44,39,C,REL,Trunk_Forward,1,R_L_LES,4.831417135471367
BMu44,40,C,INI,Trunk_Forward,1,R_L_LES,11.733294311909175
BMu44,40,C,REL,Trunk_Forward,1,R_L_LES,8.142510678393093
BMu44,41,P,INI,Trunk_Forward,1,R_L_LES,13.29277476043904
BMu44,41,P,REL,Trunk_Forward,1,R_L_LES,10.759535440756032
BMu44,42,P,INI,Trunk_Forward,1,R_L_LES,12.144198068381408
BMu44,42,P,REL,Trunk_Forward,1,R_L_LES,16.080324997721686
BMu44,43,P,INI,Trunk_Forward,1,R_L_LES,13.331167630277244
BMu44,43,P,REL,Trunk_Forward,1,R_L_LES,12.219163565468085
BMu44,44,C,INI,Trunk_Forward,1,R_L_LES,24.74921165247504
BMu44,44,C,REL,Trunk_Forward,1,R_L_LES,24.856516325231663
BMu44,45,P,INI,Trunk_Forward,1,R_L_LES,6.077226617176745
BMu44,45,P,REL,Trunk_Forward,1,R_L_LES,5.819711833679295
BMu44,46,C,INI,Trunk_Forward,1,R_L_LES,5.341072162992751
BMu44,46,C,REL,Trunk_Forward,1,R_L_LES,4.599157915328716
BMu44,47,P,INI,Trunk_Forward,1,R_L_LES,1.9308289525253866
BMu44,47,P,REL,Trunk_Forward,1,R_L_LES,2.501775288437386
BMu44,48,C,INI,Trunk_Forward,1,R_L_LES,16.892166181798014
BMu44,48,C,REL,Trunk_Forward,1,R_L_LES,19.175063850464944
BMu44,49,C,INI,Trunk_Forward,1,R_L_LES,15.13500515287866
BMu44,49,C,REL,Trunk_Forward,1,R_L_LES,15.171484496265869
BMu44,50,P,INI,Trunk_Forward,1,R_L_LES,10.020608052938945
BMu44,50,P,REL,Trunk_Forward,1,R_L_LES,2.3113437228749327
BMu44,51,P,INI,Trunk_Forward,1,R_L_LES,2.4486863118808295
BMu44,51,P,REL,Trunk_Forward,1,R_L_LES,3.481310957160577
BMu44,52,C,INI,Trunk_Forward,1,R_L_LES,15.133896454881542
BMu44,52,C,REL,Trunk_Forward,1,R_L_LES,16.147456726157603
BMu44,53,P,INI,Trunk_Forward,1,R_L_LES,1.6976793408706061
BMu44,53,P,REL,Trunk_Forward,1,R_L_LES,2.1812518813194957
BMu44,54,P,INI,Trunk_Forward,1,R_L_LES,17.669512886118824
BMu44,54,P,REL,Trunk_Forward,1,R_L_LES,15.76004997434292
BMu44,55,C,INI,Trunk_Forward,1,R_L_LES,11.85655855567286
BMu44,55,C,REL,Trunk_Forward,1,R_L_LES,10.073763840636154
BMu44,56,C,INI,Trunk_Forward,1,R_L_LES,7.606986491630607
BMu44,56,C,REL,Trunk_Forward,1,R_L_LES,5.633329334559779
BMu44,57,C,INI,Trunk_Forward,1,R_L_LES,10.854919207077854
BMu44,57,C,REL,Trunk_Forward,1,R_L_LES,9.56289745372268
BMu44,58,P,INI,Trunk_Forward,1,R_L_LES,3.123270226699374
BMu44,58,P,REL,Trunk_Forward,1,R_L_LES,10.034120276855075
BMu44,60,C,INI,Trunk_Forward,1,R_L_LES,11.685552557048664
BMu44,60,C,REL,Trunk_Forward,1,R_L_LES,7.096115132160905
BMu44,61,P,INI,Trunk_Forward,1,R_L_LES,16.632593039944197
BMu44,61,P,REL,Trunk_Forward,1,R_L_LES,16.566478372374494
BMu44,62,P,INI,Trunk_Forward,1,R_L_LES,3.01504153425903
BMu44,62,P,REL,Trunk_Forward,1,R_L_LES,2.8074394889688445
BMu44,63,P,INI,Trunk_Forward,1,R_L_LES,10.203004630829161
BMu44,63,P,REL,Trunk_Forward,1,R_L_LES,20.21858867211073
BMu44,64,C,INI,Trunk_Forward,1,R_L_LES,17.789545686384283
BMu44,64,C,REL,Trunk_Forward,1,R_L_LES,21.551241769289643
BMu44,65,P,INI,Trunk_Forward,1,R_L_LES,14.162468620163091
BMu44,65,P,REL,Trunk_Forward,1,R_L_LES,12.120291073144328
BMu44,66,C,INI,Trunk_Forward,1,R_L_LES,10.412886534158805
BMu44,66,C,REL,Trunk_Forward,1,R_L_LES,7.706928999841344
BMu44,67,C,INI,Trunk_Forward,1,R_L_LES,22.973401043601072
BMu44,67,C,REL,Trunk_Forward,1,R_L_LES,18.212609973421777
BMu44,68,C,INI,Trunk_Forward,1,R_L_LES,3.6168407054231735
BMu44,68,C,REL,Trunk_Forward,1,R_L_LES,4.963624611214317
