BM,subject,P_C,session,task,repetition,channel,value
BMu41,12,P,INI,Trunk_Forward,1,L_EO,0.7234294738513136
BMu41,12,P,INI,Trunk_Forward,1,R_EO,0.724716096703354
BMu41,12,P,REL,Trunk_Forward,1,L_EO,0.6412117397760729
BMu41,12,P,REL,Trunk_Forward,1,R_EO,0.6130518545534746
BMu41,13,C,INI,Trunk_Forward,1,L_EO,1.9575600010724732
BMu41,13,C,INI,Trunk_Forward,1,R_EO,0.5939102338727441
BMu41,13,C,REL,Trunk_Forward,1,L_EO,1.8582954879057343
BMu41,13,C,REL,Trunk_Forward,1,R_EO,0.9559948591353419
BMu41,14,P,INI,Trunk_Forward,1,L_EO,2.144536213038774
BMu41,14,P,INI,Trunk_Forward,1,R_EO,2.693826443719437
BMu41,14,P,REL,Trunk_Forward,1,L_EO,1.1815374866852906
BMu41,14,P,REL,Trunk_Forward,1,R_EO,0.828938480131841
BMu41,16,C,INI,Trunk_Forward,1,L_EO,1.0311782181777671
BMu41,16,C,INI,Trunk_Forward,1,R_EO,2.7279832075219113
BMu41,16,C,REL,Trunk_Forward,1,L_EO,1.5273090880652267
BMu41,16,C,REL,Trunk_Forward,1,R_EO,2.8005300196715988
BMu41,17,P,INI,Trunk_Forward,1,L_EO,1.983739832993269
BMu41,17,P,INI,Trunk_Forward,1,R_EO,1.4518750704450794
BMu41,17,P,REL,Trunk_Forward,1,L_EO,2.403708412704461
BMu41,17,P,REL,Trunk_Forward,1,R_EO,0.8904868201077052
BMu41,21,C,INI,Trunk_Forward,1,L_EO,1.2830202541435887
BMu41,21,C,INI,Trunk_Forward,1,R_EO,1.7148086904641326
BMu41,21,C,REL,Trunk_Forward,1,L_EO,2.754531220820381
BMu41,21,C,REL,Trunk_Forward,1,R_EO,2.437753367470197
BMu41,22,C,INI,Trunk_Forward,1,L_EO,2.4753467403545604
BMu41,22,C,INI,Trunk_Forward,1,R_EO,0.5915624933267974
BMu41,22,C,REL,Trunk_Forward,1,L_EO,0.8634120523283022
BMu41,22,C,REL,Trunk_Forward,1,R_EO,0.6084040320575447
BMu41,23,C,INI,Trunk_Forward,1,L_EO,0.8489766139166568
BMu41,23,C,INI,Trunk_Forward,1,R_EO,0.8257889795506759
BMu41,23,C,REL,Trunk_Forward,1,L_EO,2.0140325453927246
BMu41,23,C,REL,Trunk_Forward,1,R_EO,1.2687161844883603
BMu41,24,P,INI,Trunk_Forward,1,L_EO,1.0559455107673505
BMu41,24,P,INI,Trunk_Forward,1,R_EO,0.5137577371022013
BMu41,24,P,REL,Trunk_Forward,1,L_EO,0.9541221388743224
BMu41,24,P,REL,Trunk_Forward,1,R_EO,0.4540561780438486
BMu41,25,C,INI,Trunk_Forward,1,L_EO,2.7780129150755646
BMu41,25,C,INI,Trunk_Forward,1,R_EO,0.34025101645477834
BMu41,25,C,REL,Trunk_Forward,1,L_EO,1.1204546393304116
BMu41,25,C,REL,Trunk_Forward,1,R_EO,2.1572056941123794
