BM,subject,P_C,session,task,repetition,channel,value
BMu44,1,C,INI,Trunk_Forward,1,R_L_LES,12.258026608539067
BMu44,1,C,REL,Trunk_Forward,1,R_L_LES,19.80956321755404
BMu44,2,C,INI,Trunk_Forward,1,R_L_LES,20.29070495149514
BMu44,2,C,REL,Trunk_Forward,1,R_L_LES,13.618360559150139
BMu44,3,C,INI,Trunk_Forward,1,R_L_LES,16.224749853035707
BMu44,3,C,REL,Trunk_Forward,1,R_L_LES,19.81259869139404
BMu44,5,C,INI,Trunk_Forward,1,R_L_LES,14.959713333772072
BMu44,5,C,REL,Trunk_Forward,1,R_L_LES,13.72857085362997
BMu44,6,C,INI,Trunk_Forward,1,R_L_LES,4.781642107712386
BMu44,6,C,REL,Trunk_Forward,1,R_L_LES,3.338177803492043
BMu44,7,C,INI,Trunk_Forward,1,R_L_LES,6.4699771457099295
BMu44,7,C,REL,Trunk_Forward,1,R_L_LES,14.600423317088648
BMu44,8,C,INI,Trunk_Forward,1,R_L_LES,14.521848111879502
BMu44,8,C,REL,Trunk_Forward,1,R_L_LES,13.818691561897943
BMu44,9,P,INI,Trunk_Forward,1,R_L_LES,8.22657000311877
BMu44,9,P,REL,Trunk_Forward,1,R_L_LES,9.289592232682464
BMu44,10,P,INI,Trunk_Forward,1,R_L_LES,8.887723931592026
BMu44,10,P,REL,Trunk_Forward,1,R_L_LES,9.937280256643
BMu44,11,P,INI,Trunk_Forward,1,R_L_LES,11.267660010663077
BMu44,11,P,REL,Trunk_Forward,1,R_L_LES,21.994261682324062
BMu44,12,P,INI,Trunk_Forward,1,R_L_LES,3.927883095737334
BMu44,12,P,REL,Trunk_Forward,1,R_L_LES,3.8244427507907535
BMu44,13,C,INI,Trunk_Forward,1,R_L_LES,4.338895399945447
BMu44,13,C,REL,Trunk_Forward,1,R_L_LES,4.0429895068615345
BMu44,14,P,INI,Trunk_Forward,1,R_L_LES,5.07531329216565
BMu44,14,P,REL,Trunk_Forward,1,R_L_LES,8.829942734513585
BMu44,16,C,INI,Trunk_Forward,1,R_L_LES,9.793023817392458
BMu44,16,C,REL,Trunk_Forward,1,R_L_LES,6.8308615662073775
BMu44,17,P,INI,Trunk_Forward,1,R_L_LES,12.44709910603774
BMu44,17,P,REL,Trunk_Forward,1,R_L_LES,2.505925926776534
BMu44,21,C,INI,Trunk_Forward,1,R_L_LES,10.392966523456975
BMu44,21,C,REL,Trunk_Forward,1,R_L_LES,18.72474903417242
BMu44,22,C,INI,Trunk_Forward,1,R_L_LES,8.025051000144332
BMu44,22,C,REL,Trunk_Forward,1,R_L_LES,6.898051895704125
BMu44,23,C,INI,Trunk_Forward,1,R_L_LES,8.359772815914832
BMu44,23,C,REL,Trunk_Forward,1,R_L_LES,8.078825790742117
BMu44,24,P,INI,Trunk_Forward,1,R_L_LES,5.3745260713787575
BMu44,24,P,REL,Trunk_Forward,1,R_L_LES,3.322736778893852
BMu44,25,C,INI,Trunk_Forward,1,R_L_LES,14.58129994185798
BMu44,25,C,REL,Trunk_Forward,1,R_L_LES,8.071915017911868
BMu44,26,P,INI,Trunk_Forward,1,R_L_LES,6.459204973841666
BMu44,26,P,REL,Trunk_Forward,1,R_L_LES,6.735005578306517
BMu44,27,P,INI,Trunk_Forward,1,R_L_LES,4.728370921159976
BMu44,27,P,REL,Trunk_Forward,1,R_L_LES,3.009447406586259
BMu44,28,P,INI,Trunk_Forward,1,R_L_LES,3.4412177606259498
BMu44,28,P,REL,Trunk_Forward,1,R_L_LES,1.8745828680500722
BMu44,29,P,INI,Trunk_Forward,1,R_L_LES,9.557427155039553
BMu44,29,P,REL,Trunk_Forward,1,R_L_LES,18.657287576405935
BMu44,30,P,INI,Trunk_Forward,1,R_L_LES,3.1617622468859987
BMu44,30,P,REL,Trunk_Forward,1,R_L_LES,2.764573658264672
BMu44,32,P,INI,Trunk_Forward,1,R_L_LES,5.11606741211873
BMu44,32,P,REL,Trunk_Forward,1,R_L_LES,5.252728555784153
BMu44,33,P,INI,Trunk_Forward,1,R_L_LES,2.634353860570981
BMu44,33,P,REL,Trunk_Forward,1,R_L_LES,1.9276150885829164
BMu44,34,P,INI,Trunk_Forward,1,R_L_LES,6.881207003565812
BMu44,34,P,REL,Trunk_Forward,1,R_L_LES,10.756229777732827
BMu44,35,C,INI,Trunk_Forward,1,R_L_LES,15.119802601493348
BMu44,35,C,REL,Trunk_Forward,1,R_L_LES,19.64990912720584
BMu44,36,P,INI,Trunk_Forward,1,R_L_LES,2.595100418349565
BMu44,36,P,REL,Trunk_Forward,1,R_L_LES,1.8453035738014147
BMu44,38,C,INI,Trunk_Forward,1,R_L_LES,11.098121204678597
BMu44,38,C,REL,Trunk_Forward,1,R_L_LES,8.97081973222579
BMu44,39,C,INI,Trunk_Forward,1,R_L_LES,10.462428457226524
BMu44,39,C,REL,Trunk_Forward,1,R_L_LES,5.211325168269814
BMu44,40,C,INI,Trunk_Forward,1,R_L_LES,13.176866969983791
BMu44,40,C,REL,Trunk_Forward,1,R_L_LES,8.52129212416285
BMu44,41,P,INI,Trunk_Forward,1,R_L_LES,14.445114590787698
BMu44,41,P,REL,Trunk_Forward,1,R_L_LES,11.936997810584387
BMu44,42,P,INI,Trunk_Forward,1,R_L_LES,11.825790782162736
BMu44,42,P,REL,Trunk_Forward,1,R_L_LES,16.60361148630035
BMu44,43,P,INI,Trunk_Forward,1,R_L_LES,14.112465830160394
BMu44,43,P,REL,Trunk_Forward,1,R_L_LES,12.742648060046728
BMu44,44,C,INI,Trunk_Forward,1,R_L_LES,25.610948274844443
BMu44,44,C,REL,Trunk_Forward,1,R_L_LES,26.440245505543093
BMu44,45,P,INI,Trunk_Forward,1,R_L_LES,6.17169718494254
BMu44,45,P,REL,Trunk_Forward,1,R_L_LES,5.715812962007347
BMu44,46,C,INI,Trunk_Forward,1,R_L_LES,5.638725020292668
BMu44,46,C,REL,Trunk_Forward,1,R_L_LES,5.069347134746528
BMu44,47,P,INI,Trunk_Forward,1,R_L_LES,1.943549620297582
BMu44,47,P,REL,Trunk_Forward,1,R_L_LES,2.6297067779408856
BMu44,48,C,INI,Trunk_Forward,1,R_L_LES,18.114168441718657
BMu44,48,C,REL,Trunk_Forward,1,R_L_LES,20.22052048731483
BMu44,49,C,INI,Trunk_Forward,1,R_L_LES,17.06950521024987
BMu44,49,C,REL,Trunk_Forward,1,R_L_LES,16.40802698215433
BMu44,50,P,INI,Trunk_Forward,1,R_L_LES,10.235622676312332
BMu44,50,P,REL,Trunk_Forward,1,R_L_LES,2.2977358006499222
BMu44,51,P,INI,Trunk_Forward,1,R_L_LES,2.288700282366019
BMu44,51,P,REL,Trunk_Forward,1,R_L_LES,3.47815347790835
BMu44,52,C,INI,Trunk_Forward,1,R_L_LES,16.70134065499431
BMu44,52,C,REL,Trunk_Forward,1,R_L_LES,17.62871032093535
BMu44,53,P,INI,Trunk_Forward,1,R_L_LES,1.6602498636119234
BMu44,53,P,REL,Trunk_Forward,1,R_L_LES,2.169198152381154
BMu44,54,P,INI,Trunk_Forward,1,R_L_LES,18.515581965670197
BMu44,54,P,REL,Trunk_Forward,1,R_L_LES,16.57723949033128
BMu44,55,C,INI,Trunk_Forward,1,R_L_LES,12.80760551531644
BMu44,55,C,REL,Trunk_Forward,1,R_L_LES,10.93026648262178
BMu44,56,C,INI,Trunk_Forward,1,R_L_LES,8.262624333268889
BMu44,56,C,REL,Trunk_Forward,1,R_L_LES,5.856752675161071
BMu44,57,C,INI,Trunk_Forward,1,R_L_LES,11.203173922227457
BMu44,57,C,REL,Trunk_Forward,1,R_L_LES,8.683144046558697
BMu44,58,P,INI,Trunk_Forward,1,R_L_LES,3.264782337201925
BMu44,58,P,REL,Trunk_Forward,1,R_L_LES,9.92875830860873
BMu44,60,C,INI,Trunk_Forward,1,R_L_LES,11.997734861588697
BMu44,60,C,REL,Trunk_Forward,1,R_L_LES,7.5577053710126405
BMu44,61,P,INI,Trunk_Forward,1,R_L_LES,18.24514689069027
BMu44,61,P,REL,Trunk_Forward,1,R_L_LES,18.519522861336288
BMu44,62,P,INI,Trunk_Forward,1,R_L_LES,2.977870917873034
BMu44,62,P,REL,Trunk_Forward,1,R_L_LES,2.804841686227911
BMu44,63,P,INI,Trunk_Forward,1,R_L_LES,10.015101295910892
BMu44,63,P,REL,Trunk_Forward,1,R_L_LES,22.903364722454317
BMu44,64,C,INI,Trunk_Forward,1,R_L_LES,18.755201257340083
BMu44,64,C,REL,Trunk_Forward,1,R_L_LES,22.913498494012043
BMu44,65,P,INI,Trunk_Forward,1,R_L_LES,14.973176147731246
BMu44,65,P,REL,Trunk_Forward,1,R_L_LES,12.559278043221438
BMu44,66,C,INI,Trunk_Forward,1,R_L_LES,11.501378652387011
BMu44,66,C,REL,Trunk_Forward,1,R_L_LES,8.472198479208167
BMu44,67,C,INI,Trunk_Forward,1,R_L_LES,25.20240923141654
BMu44,67,C,REL,Trunk_Forward,1,R_L_LES,18.500617600073337
BMu44,68,C,INI,Trunk_Forward,1,R_L_LES,3.5405322138307818
BMu44,68,C,REL,Trunk_Forward,1,R_L_LES,4.766382444251281
