BM,subject,P_C,session,task,repetition,channel,value
BMu40,1,C,INI,Trunk_Forward,1,L_EO,53.094064059532435
BMu40,1,C,INI,Trunk_Forward,1,R_EO,45.870501827324034
BMu40,1,C,REL,Trunk_Forward,1,L_EO,52.18049044850317
BMu40,1,C,REL,Trunk_Forward,1,R_EO,41.17351173496011
BMu40,2,C,INI,Trunk_Forward,1,L_EO,60.88683566429588
BMu40,2,C,INI,Trunk_Forward,1,R_EO,83.6967387861588
BMu40,2,C,REL,Trunk_Forward,1,L_EO,46.068642889247435
BMu40,2,C,REL,Trunk_Forward,1,R_EO,65.60896936312606
BMu40,3,C,INI,Trunk_Forward,1,L_EO,85.1285513147722
BMu40,3,C,INI,Trunk_Forward,1,R_EO,77.45652300931357
BMu40,3,C,REL,Trunk_Forward,1,L_EO,67.90719153741526
BMu40,3,C,REL,Trunk_Forward,1,R_EO,68.98389473037135
BMu40,5,C,INI,Trunk_Forward,1,L_EO,63.68299751675634
BMu40,5,C,INI,Trunk_Forward,1,R_EO,74.31597874504934
BMu40,5,C,REL,Trunk_Forward,1,L_EO,56.55687563551949
BMu40,5,C,REL,Trunk_Forward,1,R_EO,59.87139086432227
BMu40,6,C,INI,Trunk_Forward,1,L_EO,102.19390570271541
BMu40,6,C,INI,Trunk_Forward,1,R_EO,137.1996809766841
BMu40,6,C,REL,Trunk_Forward,1,L_EO,59.502787516096134
BMu40,6,C,REL,Trunk_Forward,1,R_EO,37.62466128551473
BMu40,7,C,INI,Trunk_Forward,1,L_EO,93.66300399082962
BMu40,7,C,INI,Trunk_Forward,1,R_EO,36.280479482594174
BMu40,7,C,REL,Trunk_Forward,1,L_EO,84.08732055735858
BMu40,7,C,REL,Trunk_Forward,1,R_EO,54.11355708635262
BMu40,8,C,INI,Trunk_Forward,1,L_EO,59.29256992248148
BMu40,8,C,INI,Trunk_Forward,1,R_EO,67.72280468349359
BMu40,8,C,REL,Trunk_Forward,1,L_EO,42.049474861862336
BMu40,8,C,REL,Trunk_Forward,1,R_EO,64.31562398225472
BMu40,9,P,INI,Trunk_Forward,1,L_EO,53.44407230765955
BMu40,9,P,INI,Trunk_Forward,1,R_EO,62.240979478690164
BMu40,9,P,REL,Trunk_Forward,1,L_EO,50.101081727415426
BMu40,9,P,REL,Trunk_Forward,1,R_EO,41.46620443050265
BMu40,10,P,INI,Trunk_Forward,1,L_EO,57.05923062713291
BMu40,10,P,INI,Trunk_Forward,1,R_EO,55.20534154525604
BMu40,10,P,REL,Trunk_Forward,1,L_EO,47.320371563870644
BMu40,10,P,REL,Trunk_Forward,1,R_EO,60.67904043478256
BMu40,11,P,INI,Trunk_Forward,1,L_EO,53.20031500743414
BMu40,11,P,INI,Trunk_Forward,1,R_EO,45.266474088175066
BMu40,11,P,REL,Trunk_Forward,1,L_EO,71.39564514427111
BMu40,11,P,REL,Trunk_Forward,1,R_EO,63.449383328836575
BMu40,12,P,INI,Trunk_Forward,1,L_EO,51.150544695488556
BMu40,12,P,INI,Trunk_Forward,1,R_EO,54.48962303364578
BMu40,12,P,REL,Trunk_Forward,1,L_EO,70.39454777054245
BMu40,12,P,REL,Trunk_Forward,1,R_EO,80.593986897371
BMu40,13,C,INI,Trunk_Forward,1,L_EO,30.14038956937163
BMu40,13,C,INI,Trunk_Forward,1,R_EO,45.132955010895095
BMu40,13,C,REL,Trunk_Forward,1,L_EO,26.368293078158164
BMu40,13,C,REL,Trunk_Forward,1,R_EO,69.85575641614173
BMu40,14,P,INI,Trunk_Forward,1,L_EO,38.53582623690155
BMu40,14,P,INI,Trunk_Forward,1,R_EO,45.4923715986827
BMu40,14,P,REL,Trunk_Forward,1,L_EO,44.029943540749734
BMu40,14,P,REL,Trunk_Forward,1,R_EO,25.501909611283622
BMu40,16,C,INI,Trunk_Forward,1,L_EO,96.49649910323541
BMu40,16,C,INI,Trunk_Forward,1,R_EO,49.70985437280306
BMu40,16,C,REL,Trunk_Forward,1,L_EO,81.74344503873138
BMu40,16,C,REL,Trunk_Forward,1,R_EO,29.981630653770534
BMu40,17,P,INI,Trunk_Forward,1,L_EO,65.7306522111757
BMu40,17,P,INI,Trunk_Forward,1,R_EO,87.13762184321295
BMu40,17,P,REL,Trunk_Forward,1,L_EO,78.89505417162063
BMu40,17,P,REL,Trunk_Forward,1,R_EO,84.97100403264008
BMu40,21,C,INI,Trunk_Forward,1,L_EO,64.7658667838045
BMu40,21,C,INI,Trunk_Forward,1,R_EO,62.005651073947114
BMu40,21,C,REL,Trunk_Forward,1,L_EO,68.6326398786474
BMu40,21,C,REL,Trunk_Forward,1,R_EO,58.04261034606241
BMu40,22,C,INI,Trunk_Forward,1,L_EO,53.87184374857901
BMu40,22,C,INI,Trunk_Forward,1,R_EO,74.6470499004277
BMu40,22,C,REL,Trunk_Forward,1,L_EO,62.761992237875525
BMu40,22,C,REL,Trunk_Forward,1,R_EO,96.27438601868634
BMu40,23,C,INI,Trunk_Forward,1,L_EO,86.94919817180971
BMu40,23,C,INI,Trunk_Forward,1,R_EO,60.05343065265083
BMu40,23,C,REL,Trunk_Forward,1,L_EO,79.30915404822676
BMu40,23,C,REL,Trunk_Forward,1,R_EO,61.709297196967334
BMu40,24,P,INI,Trunk_Forward,1,L_EO,62.96921125641504
BMu40,24,P,INI,Trunk_Forward,1,R_EO,85.00170148032596
BMu40,24,P,REL,Trunk_Forward,1,L_EO,66.08230513887156
BMu40,24,P,REL,Trunk_Forward,1,R_EO,78.35023819104362
BMu40,25,C,INI,Trunk_Forward,1,L_EO,60.58629177793264
BMu40,25,C,INI,Trunk_Forward,1,R_EO,23.714567517243438
BMu40,25,C,REL,Trunk_Forward,1,L_EO,62.111130893732245
BMu40,25,C,REL,Trunk_Forward,1,R_EO,32.96251275794299
BMu40,26,P,INI,Trunk_Forward,1,L_EO,35.11049126304078
BMu40,26,P,INI,Trunk_Forward,1,R_EO,35.677290781916994
BMu40,26,P,REL,Trunk_Forward,1,L_EO,34.04005353800424
BMu40,26,P,REL,Trunk_Forward,1,R_EO,26.41802130285053
BMu40,27,P,INI,Trunk_Forward,1,L_EO,67.83502550554691
BMu40,27,P,INI,Trunk_Forward,1,R_EO,71.03741660169413
BMu40,27,P,REL,Trunk_Forward,1,L_EO,62.839188626659634
BMu40,27,P,REL,Trunk_Forward,1,R_EO,34.854384109292084
BMu40,28,P,INI,Trunk_Forward,1,L_EO,67.35757679771466
BMu40,28,P,INI,Trunk_Forward,1,R_EO,80.82002609300201
BMu40,28,P,REL,Trunk_Forward,1,L_EO,71.89946579721789
BMu40,28,P,REL,Trunk_Forward,1,R_EO,73.08725312467404
BMu40,29,P,INI,Trunk_Forward,1,L_EO,73.99522120594551
BMu40,29,P,INI,Trunk_Forward,1,R_EO,72.98055465885336
BMu40,29,P,REL,Trunk_Forward,1,L_EO,71.21407266779123
BMu40,29,P,REL,Trunk_Forward,1,R_EO,83.1032302254496
BMu40,30,P,INI,Trunk_Forward,1,L_EO,87.95494800926427
BMu40,30,P,INI,Trunk_Forward,1,R_EO,47.94133186906375
BMu40,30,P,REL,Trunk_Forward,1,L_EO,85.66907914717028
BMu40,30,P,REL,Trunk_Forward,1,R_EO,34.020569308479686
BMu40,32,P,INI,Trunk_Forward,1,L_EO,86.31737785769069
BMu40,32,P,INI,Trunk_Forward,1,R_EO,73.82585590888077
BMu40,32,P,REL,Trunk_Forward,1,L_EO,46.33021675497223
BMu40,32,P,REL,Trunk_Forward,1,R_EO,76.80117384976326
BMu40,33,P,INI,Trunk_Forward,1,L_EO,37.748675501703985
BMu40,33,P,INI,Trunk_Forward,1,R_EO,51.63091030981235
BMu40,33,P,REL,Trunk_Forward,1,L_EO,31.833727653413472
BMu40,33,P,REL,Trunk_Forward,1,R_EO,42.335446847628084
BMu40,34,P,INI,Trunk_Forward,1,L_EO,49.73250822033876
BMu40,34,P,INI,Trunk_Forward,1,R_EO,57.886277557412946
BMu40,34,P,REL,Trunk_Forward,1,L_EO,65.88970197743983
BMu40,34,P,REL,Trunk_Forward,1,R_EO,51.59481305891689
BMu40,35,C,INI,Trunk_Forward,1,L_EO,60.59664581550678
BMu40,35,C,INI,Trunk_Forward,1,R_EO,54.51035551085738
BMu40,35,C,REL,Trunk_Forward,1,L_EO,36.41049993023395
BMu40,35,C,REL,Trunk_Forward,1,R_EO,58.19639824244098
BMu40,36,P,INI,Trunk_Forward,1,L_EO,70.20203219292647
BMu40,36,P,INI,Trunk_Forward,1,R_EO,92.77282295811035
BMu40,36,P,REL,Trunk_Forward,1,L_EO,63.748938431907476
BMu40,36,P,REL,Trunk_Forward,1,R_EO,80.69048684228595
BMu40,38,C,INI,Trunk_Forward,1,L_EO,40.695753863367
BMu40,38,C,INI,Trunk_Forward,1,R_EO,34.497038903490505
BMu40,38,C,REL,Trunk_Forward,1,L_EO,37.21071488053823
BMu40,38,C,REL,Trunk_Forward,1,R_EO,51.28834309058666
BMu40,39,C,INI,Trunk_Forward,1,L_EO,29.858836722446625
BMu40,39,C,INI,Trunk_Forward,1,R_EO,27.671854479967124
BMu40,39,C,REL,Trunk_Forward,1,L_EO,36.89513788507287
BMu40,39,C,REL,Trunk_Forward,1,R_EO,28.920089191597466
BMu40,40,C,INI,Trunk_Forward,1,L_EO,34.3966710913557
BMu40,40,C,INI,Trunk_Forward,1,R_EO,36.217040582580466
BMu40,40,C,REL,Trunk_Forward,1,L_EO,43.80124505138091
BMu40,40,C,REL,Trunk_Forward,1,R_EO,70.45303249983368
BMu40,41,P,INI,Trunk_Forward,1,L_EO,73.02310687973873
BMu40,41,P,INI,Trunk_Forward,1,R_EO,108.11430776401544
BMu40,41,P,REL,Trunk_Forward,1,L_EO,78.02041694091055
BMu40,41,P,REL,Trunk_Forward,1,R_EO,107.01775613825298
BMu40,42,P,INI,Trunk_Forward,1,L_EO,70.33586411257443
BMu40,42,P,INI,Trunk_Forward,1,R_EO,53.056388891006456
BMu40,42,P,REL,Trunk_Forward,1,L_EO,48.395702098289895
BMu40,42,P,REL,Trunk_Forward,1,R_EO,55.41118112610119
BMu40,43,P,INI,Trunk_Forward,1,L_EO,46.33031966816397
BMu40,43,P,INI,Trunk_Forward,1,R_EO,84.2975722898022
BMu40,43,P,REL,Trunk_Forward,1,L_EO,68.20578623317108
BMu40,43,P,REL,Trunk_Forward,1,R_EO,42.269353945137475
BMu40,44,C,INI,Trunk_Forward,1,L_EO,43.896374432827365
BMu40,44,C,INI,Trunk_Forward,1,R_EO,116.57922469094494
BMu40,44,C,REL,Trunk_Forward,1,L_EO,62.94306534571317
BMu40,44,C,REL,Trunk_Forward,1,R_EO,89.8320104293478
BMu40,45,P,INI,Trunk_Forward,1,L_EO,92.34792593970747
BMu40,45,P,INI,Trunk_Forward,1,R_EO,86.32555374044641
BMu40,45,P,REL,Trunk_Forward,1,L_EO,91.58350910447392
BMu40,45,P,REL,Trunk_Forward,1,R_EO,93.6591336953428
BMu40,46,C,INI,Trunk_Forward,1,L_EO,55.0038657759002
BMu40,46,C,INI,Trunk_Forward,1,R_EO,136.29867866816573
BMu40,46,C,REL,Trunk_Forward,1,L_EO,42.43567915446925
BMu40,46,C,REL,Trunk_Forward,1,R_EO,26.56488439876502
BMu40,47,P,INI,Trunk_Forward,1,L_EO,31.027158306249486
BMu40,47,P,INI,Trunk_Forward,1,R_EO,30.69910956475573
BMu40,47,P,REL,Trunk_Forward,1,L_EO,58.97453616348212
BMu40,47,P,REL,Trunk_Forward,1,R_EO,52.90340912920809
BMu40,48,C,INI,Trunk_Forward,1,L_EO,79.94338869321832
BMu40,48,C,INI,Trunk_Forward,1,R_EO,75.85523034438687
BMu40,48,C,REL,Trunk_Forward,1,L_EO,65.34890482082636
BMu40,48,C,REL,Trunk_Forward,1,R_EO,78.17979686298509
BMu40,49,C,INI,Trunk_Forward,1,L_EO,68.45768770339812
BMu40,49,C,INI,Trunk_Forward,1,R_EO,26.051126946967212
BMu40,49,C,REL,Trunk_Forward,1,L_EO,28.612382461223163
BMu40,49,C,REL,Trunk_Forward,1,R_EO,23.265411262588128
BMu40,50,P,INI,Trunk_Forward,1,L_EO,39.54345145976705
BMu40,50,P,INI,Trunk_Forward,1,R_EO,28.855465609890818
BMu40,50,P,REL,Trunk_Forward,1,L_EO,43.55822391978466
BMu40,50,P,REL,Trunk_Forward,1,R_EO,22.76650011074837
BMu40,51,P,INI,Trunk_Forward,1,L_EO,78.34632328928934
BMu40,51,P,INI,Trunk_Forward,1,R_EO,45.82472907746912
BMu40,51,P,REL,Trunk_Forward,1,L_EO,95.79078314352999
BMu40,51,P,REL,Trunk_Forward,1,R_EO,44.39058870214429
BMu40,52,C,INI,Trunk_Forward,1,L_EO,67.698279114777
BMu40,52,C,INI,Trunk_Forward,1,R_EO,117.60106913743562
BMu40,52,C,REL,Trunk_Forward,1,L_EO,83.37503502253749
BMu40,52,C,REL,Trunk_Forward,1,R_EO,99.77416366229959
BMu40,53,P,INI,Trunk_Forward,1,L_EO,95.58648779701015
BMu40,53,P,INI,Trunk_Forward,1,R_EO,82.18583902501744
BMu40,53,P,REL,Trunk_Forward,1,L_EO,120.27192837524818
BMu40,53,P,REL,Trunk_Forward,1,R_EO,90.24550592200205
BMu40,54,P,INI,Trunk_Forward,1,L_EO,68.78603011645389
BMu40,54,P,INI,Trunk_Forward,1,R_EO,40.71565540468409
BMu40,54,P,REL,Trunk_Forward,1,L_EO,38.834393954257955
BMu40,54,P,REL,Trunk_Forward,1,R_EO,55.441136405877934
BMu40,55,C,INI,Trunk_Forward,1,L_EO,83.3188122284576
BMu40,55,C,INI,Trunk_Forward,1,R_EO,93.62962160251853
BMu40,55,C,REL,Trunk_Forward,1,L_EO,69.6673490378273
BMu40,55,C,REL,Trunk_Forward,1,R_EO,28.964982251297783
BMu40,56,C,INI,Trunk_Forward,1,L_EO,59.02359263974171
BMu40,56,C,INI,Trunk_Forward,1,R_EO,54.47603964830723
BMu40,56,C,REL,Trunk_Forward,1,L_EO,55.12159733136226
BMu40,56,C,REL,Trunk_Forward,1,R_EO,64.78686636019046
BMu40,57,C,INI,Trunk_Forward,1,L_EO,32.597801119604775
BMu40,57,C,INI,Trunk_Forward,1,R_EO,33.52138584550226
BMu40,57,C,REL,Trunk_Forward,1,L_EO,73.30016800313477
BMu40,57,C,REL,Trunk_Forward,1,R_EO,83.7689281625615
BMu40,58,P,INI,Trunk_Forward,1,L_EO,96.91390043116826
BMu40,58,P,INI,Trunk_Forward,1,R_EO,79.93769666120939
BMu40,58,P,REL,Trunk_Forward,1,L_EO,97.13833955317608
BMu40,58,P,REL,Trunk_Forward,1,R_EO,75.60466002048221
BMu40,60,C,INI,Trunk_Forward,1,L_EO,64.8746169921045
BMu40,60,C,INI,Trunk_Forward,1,R_EO,34.09964104600084
BMu40,60,C,REL,Trunk_Forward,1,L_EO,50.142242939580974
BMu40,60,C,REL,Trunk_Forward,1,R_EO,36.56191082790281
BMu40,61,P,INI,Trunk_Forward,1,L_EO,57.56373249806675
BMu40,61,P,INI,Trunk_Forward,1,R_EO,50.189512588610064
BMu40,61,P,REL,Trunk_Forward,1,L_EO,105.12471231134809
BMu40,61,P,REL,Trunk_Forward,1,R_EO,93.69833528136446
BMu40,62,P,INI,Trunk_Forward,1,L_EO,56.19569259485743
BMu40,62,P,INI,Trunk_Forward,1,R_EO,71.40399676747826
BMu40,62,P,REL,Trunk_Forward,1,L_EO,68.78285511338396
BMu40,62,P,REL,Trunk_Forward,1,R_EO,85.7055350978351
BMu40,63,P,INI,Trunk_Forward,1,L_EO,44.73021189258213
BMu40,63,P,INI,Trunk_Forward,1,R_EO,28.928439680902148
BMu40,63,P,REL,Trunk_Forward,1,L_EO,95.75230727351827
BMu40,63,P,REL,Trunk_Forward,1,R_EO,44.1521391659441
BMu40,64,C,INI,Trunk_Forward,1,L_EO,57.50220438872068
BMu40,64,C,INI,Trunk_Forward,1,R_EO,67.95150192854146
BMu40,64,C,REL,Trunk_Forward,1,L_EO,55.20796492813503
BMu40,64,C,REL,Trunk_Forward,1,R_EO,63.595337635293674
BMu40,65,P,INI,Trunk_Forward,1,L_EO,65.27788781122327
BMu40,65,P,INI,Trunk_Forward,1,R_EO,66.16842573143613
BMu40,65,P,REL,Trunk_Forward,1,L_EO,70.09189831461244
BMu40,65,P,REL,Trunk_Forward,1,R_EO,65.82815469395614
BMu40,66,C,INI,Trunk_Forward,1,L_EO,99.91030516203398
BMu40,66,C,INI,Trunk_Forward,1,R_EO,99.30530403017993
BMu40,66,C,REL,Trunk_Forward,1,L_EO,73.12090377129577
BMu40,66,C,REL,Trunk_Forward,1,R_EO,34.48089124434315
BMu40,67,C,INI,Trunk_Forward,1,L_EO,49.359952534254
BMu40,67,C,INI,Trunk_Forward,1,R_EO,29.026232729021313
BMu40,67,C,REL,Trunk_Forward,1,L_EO,28.362505379379872
BMu40,67,C,REL,Trunk_Forward,1,R_EO,29.54360602793676
BMu40,68,C,INI,Trunk_Forward,1,L_EO,36.94573976982901
BMu40,68,C,INI,Trunk_Forward,1,R_EO,25.226316167524217
BMu40,68,C,REL,Trunk_Forward,1,L_EO,44.12545158894979
BMu40,68,C,REL,Trunk_Forward,1,R_EO,27.600166243974634
