BM,subject,P_C,session,task,repetition,channel,value
BMu41,38,C,INI,Trunk_Forward,1,L_EO,2.139297154798533
BMu41,38,C,INI,Trunk_Forward,1,R_EO,2.767169480784745
BMu41,38,C,REL,Trunk_Forward,1,L_EO,2.7483006511157058
BMu41,38,C,REL,Trunk_Forward,1,R_EO,0.7034101850248492
BMu41,39,C,INI,Trunk_Forward,1,L_EO,0.26605573605682875
BMu41,39,C,INI,Trunk_Forward,1,R_EO,1.3134775249008739
BMu41,39,C,REL,Trunk_Forward,1,L_EO,2.344061413028369
BMu41,39,C,REL,Trunk_Forward,1,R_EO,0.7915039874319645
BMu41,40,C,INI,Trunk_Forward,1,L_EO,0.3613444850940341
BMu41,40,C,INI,Trunk_Forward,1,R_EO,2.626824088002946
BMu41,40,C,REL,Trunk_Forward,1,L_EO,2.6137838309571686
BMu41,40,C,REL,Trunk_Forward,1,R_EO,2.480396375740662
BMu41,41,P,INI,Trunk_Forward,1,L_EO,2.6743227768084603
BMu41,41,P,INI,Trunk_Forward,1,R_EO,2.684437300572133
BMu41,41,P,REL,Trunk_Forward,1,L_EO,1.3184902233646318
BMu41,41,P,REL,Trunk_Forward,1,R_EO,2.014640642425376
BMu41,42,P,INI,Trunk_Forward,1,L_EO,1.8007280182536791
BMu41,42,P,INI,Trunk_Forward,1,R_EO,1.0730195622428733
BMu41,42,P,REL,Trunk_Forward,1,L_EO,2.6975044685246963
BMu41,42,P,REL,Trunk_Forward,1,R_EO,1.0431983415113975
BMu41,43,P,INI,Trunk_Forward,1,L_EO,1.4951358147554543
BMu41,43,P,INI,Trunk_Forward,1,R_EO,1.179790772135426
BMu41,43,P,REL,Trunk_Forward,1,L_EO,2.565880160965696
BMu41,43,P,REL,Trunk_Forward,1,R_EO,2.705727295970378
BMu41,44,C,INI,Trunk_Forward,1,L_EO,2.644028219373712
BMu41,44,C,INI,Trunk_Forward,1,R_EO,2.6029079376471564
BMu41,44,C,REL,Trunk_Forward,1,L_EO,2.368880227349318
BMu41,44,C,REL,Trunk_Forward,1,R_EO,2.4997923081075344
BMu41,45,P,INI,Trunk_Forward,1,L_EO,0.8032848486150137
BMu41,45,P,INI,Trunk_Forward,1,R_EO,1.4259223793007967
BMu41,45,P,REL,Trunk_Forward,1,L_EO,1.3927671262449244
BMu41,45,P,REL,Trunk_Forward,1,R_EO,1.4928873612686366
BMu41,46,C,INI,Trunk_Forward,1,L_EO,1.7814918666366175
BMu41,46,C,INI,Trunk_Forward,1,R_EO,2.462923512637348
BMu41,46,C,REL,Trunk_Forward,1,L_EO,1.7810190387971712
BMu41,46,C,REL,Trunk_Forward,1,R_EO,0.40338587437787055
BMu41,47,P,INI,Trunk_Forward,1,L_EO,0.5196121201636823
BMu41,47,P,INI,Trunk_Forward,1,R_EO,2.6008447620865325
BMu41,47,P,REL,Trunk_Forward,1,L_EO,2.036749917501001
BMu41,47,P,REL,Trunk_Forward,1,R_EO,1.387533700631845
