BM,subject,P_C,session,task,repetition,channel,value
BMu51,1,C,INI,Trunk_Lateral,1,L_MTF,113.40762002970587
BMu51,1,C,INI,Trunk_Lateral,1,R_MTF,95.30185048540488
BMu51,1,C,REL,Trunk_Lateral,1,L_MTF,108.11739340087797
BMu51,1,C,REL,Trunk_Lateral,1,R_MTF,83.92744686814554
BMu51,2,C,INI,Trunk_Lateral,1,L_MTF,117.8822021584378
BMu51,2,C,INI,Trunk_Lateral,1,R_MTF,133.95328157353637
BMu51,3,C,INI,Trunk_Lateral,1,L_MTF,117.11173482424248
BMu51,3,C,INI,Trunk_Lateral,1,R_MTF,106.86879644493278
BMu51,3,C,REL,Trunk_Lateral,1,L_MTF,117.24635119667677
BMu51,3,C,REL,Trunk_Lateral,1,R_MTF,88.35333413109788
BMu51,5,C,INI,Trunk_Lateral,1,L_MTF,155.43013171711019
BMu51,5,C,INI,Trunk_Lateral,1,R_MTF,143.45181490722942
BMu51,5,C,REL,Trunk_Lateral,1,L_MTF,167.48777073023953
BMu51,5,C,REL,Trunk_Lateral,1,R_MTF,130.0484578856059
BMu51,6,C,INI,Trunk_Lateral,1,L_MTF,112.29859035384636
BMu51,6,C,INI,Trunk_Lateral,1,R_MTF,94.61051536718706
BMu51,6,C,REL,Trunk_Lateral,1,L_MTF,120.38908900859394
BMu51,6,C,REL,Trunk_Lateral,1,R_MTF,128.50355206748998
BMu51,7,C,INI,Trunk_Lateral,1,L_MTF,131.39006267799456
BMu51,7,C,INI,Trunk_Lateral,1,R_MTF,119.61515419530438
BMu51,7,C,REL,Trunk_Lateral,1,L_MTF,134.9750994187996
BMu51,7,C,REL,Trunk_Lateral,1,R_MTF,129.63722668541098
BMu51,8,C,INI,Trunk_Lateral,1,L_MTF,77.83054468542656
BMu51,8,C,INI,Trunk_Lateral,1,R_MTF,154.89361538007975
BMu51,8,C,REL,Trunk_Lateral,1,L_MTF,138.7633943858383
BMu51,8,C,REL,Trunk_Lateral,1,R_MTF,179.55389169325858
BMu51,9,P,INI,Trunk_Lateral,1,L_MTF,140.41354864353812
BMu51,9,P,INI,Trunk_Lateral,1,R_MTF,143.2034445664191
BMu51,9,P,REL,Trunk_Lateral,1,L_MTF,154.23128262616854
BMu51,9,P,REL,Trunk_Lateral,1,R_MTF,172.69852344810442
BMu51,10,P,INI,Trunk_Lateral,1,L_MTF,170.2956381257729
BMu51,10,P,INI,Trunk_Lateral,1,R_MTF,147.64908368323685
BMu51,10,P,REL,Trunk_Lateral,1,L_MTF,162.5940375543809
BMu51,10,P,REL,Trunk_Lateral,1,R_MTF,158.60794174901523
BMu51,11,P,INI,Trunk_Lateral,1,L_MTF,141.89752796412998
BMu51,11,P,INI,Trunk_Lateral,1,R_MTF,51.36433732764156
BMu51,11,P,REL,Trunk_Lateral,1,L_MTF,136.25324399816694
BMu51,11,P,REL,Trunk_Lateral,1,R_MTF,176.57763750188906
BMu51,12,P,INI,Trunk_Lateral,1,L_MTF,115.24938243907165
BMu51,12,P,INI,Trunk_Lateral,1,R_MTF,129.88396404495228
BMu51,12,P,REL,Trunk_Lateral,1,L_MTF,62.35783763581634
BMu51,12,P,REL,Trunk_Lateral,1,R_MTF,85.3757749761126
BMu51,13,C,INI,Trunk_Lateral,1,L_MTF,93.17061876448865
BMu51,13,C,INI,Trunk_Lateral,1,R_MTF,113.34246122357278
BMu51,13,C,REL,Trunk_Lateral,1,L_MTF,126.0723192750573
BMu51,13,C,REL,Trunk_Lateral,1,R_MTF,133.56253784112855
BMu51,14,P,INI,Trunk_Lateral,1,L_MTF,107.12350774070518
BMu51,14,P,INI,Trunk_Lateral,1,R_MTF,113.1987922798952
BMu51,14,P,REL,Trunk_Lateral,1,L_MTF,118.4164154391291
BMu51,14,P,REL,Trunk_Lateral,1,R_MTF,132.27742928694465
BMu51,16,C,INI,Trunk_Lateral,1,L_MTF,144.52567149953913
BMu51,16,C,INI,Trunk_Lateral,1,R_MTF,169.59167074378175
BMu51,16,C,REL,Trunk_Lateral,1,L_MTF,152.65034281102842
BMu51,16,C,REL,Trunk_Lateral,1,R_MTF,157.94044420060408
BMu51,17,P,INI,Trunk_Lateral,1,L_MTF,148.03061010701433
BMu51,17,P,INI,Trunk_Lateral,1,R_MTF,175.4331623204762
BMu51,17,P,REL,Trunk_Lateral,1,L_MTF,111.0507264648844
BMu51,17,P,REL,Trunk_Lateral,1,R_MTF,131.7787174532973
BMu51,21,C,INI,Trunk_Lateral,1,L_MTF,128.87685151359295
BMu51,21,C,INI,Trunk_Lateral,1,R_MTF,119.46349634058636
BMu51,21,C,REL,Trunk_Lateral,1,L_MTF,120.47524030514404
BMu51,21,C,REL,Trunk_Lateral,1,R_MTF,91.50137841925955
BMu51,22,C,INI,Trunk_Lateral,1,L_MTF,128.72960051785302
BMu51,22,C,INI,Trunk_Lateral,1,R_MTF,296.52626461423887
BMu51,22,C,REL,Trunk_Lateral,1,L_MTF,137.16842091863796
BMu51,22,C,REL,Trunk_Lateral,1,R_MTF,125.09152789015411
BMu51,23,C,INI,Trunk_Lateral,1,L_MTF,115.240412333115
BMu51,23,C,INI,Trunk_Lateral,1,R_MTF,110.2865537764614
BMu51,23,C,REL,Trunk_Lateral,1,L_MTF,130.71551106279642
BMu51,23,C,REL,Trunk_Lateral,1,R_MTF,140.77775606365148
BMu51,24,P,INI,Trunk_Lateral,1,L_MTF,145.1407040391241
BMu51,24,P,INI,Trunk_Lateral,1,R_MTF,166.3466613869456
BMu51,24,P,REL,Trunk_Lateral,1,L_MTF,123.5303110788352
BMu51,24,P,REL,Trunk_Lateral,1,R_MTF,139.41745926637444
BMu51,25,C,INI,Trunk_Lateral,1,L_MTF,139.98304223056846
BMu51,25,C,INI,Trunk_Lateral,1,R_MTF,141.0274281629922
BMu51,25,C,REL,Trunk_Lateral,1,L_MTF,139.1561828131978
BMu51,25,C,REL,Trunk_Lateral,1,R_MTF,147.17624296393157
BMu51,26,P,INI,Trunk_Lateral,1,L_MTF,84.88153570670958
BMu51,26,P,INI,Trunk_Lateral,1,R_MTF,44.065610067642616
BMu51,26,P,REL,Trunk_Lateral,1,L_MTF,57.59998627651018
BMu51,26,P,REL,Trunk_Lateral,1,R_MTF,48.86131050258251
BMu51,27,P,INI,Trunk_Lateral,1,L_MTF,107.02965408175244
BMu51,27,P,INI,Trunk_Lateral,1,R_MTF,126.26636322875538
BMu51,27,P,REL,Trunk_Lateral,1,L_MTF,119.67531869536037
BMu51,27,P,REL,Trunk_Lateral,1,R_MTF,122.87207545704943
BMu51,28,P,INI,Trunk_Lateral,1,L_MTF,125.97097854593852
BMu51,28,P,INI,Trunk_Lateral,1,R_MTF,143.26981745340862
BMu51,28,P,REL,Trunk_Lateral,1,L_MTF,140.36592645197496
BMu51,28,P,REL,Trunk_Lateral,1,R_MTF,121.01150194319473
BMu51,29,P,INI,Trunk_Lateral,1,L_MTF,132.64011774620138
BMu51,29,P,INI,Trunk_Lateral,1,R_MTF,138.69835756890146
BMu51,29,P,REL,Trunk_Lateral,1,L_MTF,124.78838177318671
BMu51,29,P,REL,Trunk_Lateral,1,R_MTF,147.61239506853664
BMu51,30,P,REL,Trunk_Lateral,1,L_MTF,166.88979544509058
BMu51,30,P,REL,Trunk_Lateral,1,R_MTF,142.7161508567013
BMu51,32,P,INI,Trunk_Lateral,1,L_MTF,144.75903752643998
BMu51,32,P,INI,Trunk_Lateral,1,R_MTF,156.21760458692344
BMu51,32,P,REL,Trunk_Lateral,1,L_MTF,146.04948958365614
BMu51,32,P,REL,Trunk_Lateral,1,R_MTF,98.40291244352885
BMu51,33,P,INI,Trunk_Lateral,1,L_MTF,116.90185562273575
BMu51,33,P,INI,Trunk_Lateral,1,R_MTF,88.29123800413811
BMu51,33,P,REL,Trunk_Lateral,1,L_MTF,117.60392101152122
BMu51,33,P,REL,Trunk_Lateral,1,R_MTF,94.24992961913604
BMu51,34,P,INI,Trunk_Lateral,1,L_MTF,106.57186011239354
BMu51,34,P,INI,Trunk_Lateral,1,R_MTF,154.25719960707664
BMu51,34,P,REL,Trunk_Lateral,1,L_MTF,140.20028324725902
BMu51,34,P,REL,Trunk_Lateral,1,R_MTF,147.15565761177257
BMu51,35,C,INI,Trunk_Lateral,1,L_MTF,149.33597400975364
BMu51,35,C,INI,Trunk_Lateral,1,R_MTF,138.40927625867758
BMu51,35,C,REL,Trunk_Lateral,1,L_MTF,128.26710041341576
BMu51,35,C,REL,Trunk_Lateral,1,R_MTF,131.07455088118138
BMu51,36,P,INI,Trunk_Lateral,1,L_MTF,148.54475627619846
BMu51,36,P,INI,Trunk_Lateral,1,R_MTF,133.71201451343896
BMu51,36,P,REL,Trunk_Lateral,1,L_MTF,150.17000816669633
BMu51,36,P,REL,Trunk_Lateral,1,R_MTF,123.3832607992807
BMu51,38,C,INI,Trunk_Lateral,1,L_MTF,85.83590512931056
BMu51,38,C,INI,Trunk_Lateral,1,R_MTF,118.86952292423166
BMu51,38,C,REL,Trunk_Lateral,1,L_MTF,113.3706817434866
BMu51,38,C,REL,Trunk_Lateral,1,R_MTF,123.3828273731228
BMu51,39,C,INI,Trunk_Lateral,1,L_MTF,108.51267662724608
BMu51,39,C,INI,Trunk_Lateral,1,R_MTF,111.17024550621421
BMu51,39,C,REL,Trunk_Lateral,1,L_MTF,106.99383143657091
BMu51,39,C,REL,Trunk_Lateral,1,R_MTF,68.45130732345287
BMu51,40,C,INI,Trunk_Lateral,1,L_MTF,120.86181362921404
BMu51,40,C,INI,Trunk_Lateral,1,R_MTF,149.6969050770194
BMu51,40,C,REL,Trunk_Lateral,1,L_MTF,126.66062237704209
BMu51,40,C,REL,Trunk_Lateral,1,R_MTF,138.26227795189868
BMu51,41,P,INI,Trunk_Lateral,1,L_MTF,120.05183770993865
BMu51,41,P,INI,Trunk_Lateral,1,R_MTF,117.35564865309557
BMu51,41,P,REL,Trunk_Lateral,1,L_MTF,137.36739081903895
BMu51,41,P,REL,Trunk_Lateral,1,R_MTF,126.64137715836056
BMu51,42,P,INI,Trunk_Lateral,1,L_MTF,130.04139364332318
BMu51,42,P,INI,Trunk_Lateral,1,R_MTF,147.54696938564143
BMu51,42,P,REL,Trunk_Lateral,1,L_MTF,140.03543589584618
BMu51,42,P,REL,Trunk_Lateral,1,R_MTF,137.79724492050275
BMu51,43,P,INI,Trunk_Lateral,1,L_MTF,122.7225203485741
BMu51,43,P,INI,Trunk_Lateral,1,R_MTF,128.89886998609526
BMu51,43,P,REL,Trunk_Lateral,1,L_MTF,115.39030930598419
BMu51,43,P,REL,Trunk_Lateral,1,R_MTF,206.53650918319715
BMu51,44,C,INI,Trunk_Lateral,1,L_MTF,118.89388783360259
BMu51,44,C,INI,Trunk_Lateral,1,R_MTF,168.90542994823195
BMu51,44,C,REL,Trunk_Lateral,1,L_MTF,143.37567065624472
BMu51,44,C,REL,Trunk_Lateral,1,R_MTF,142.1640953603262
BMu51,45,P,INI,Trunk_Lateral,1,L_MTF,148.00630162734336
BMu51,45,P,INI,Trunk_Lateral,1,R_MTF,117.06915777428058
BMu51,45,P,REL,Trunk_Lateral,1,L_MTF,163.86934972025503
BMu51,45,P,REL,Trunk_Lateral,1,R_MTF,136.25637968260932
BMu51,46,C,INI,Trunk_Lateral,1,L_MTF,112.50772229804521
BMu51,46,C,INI,Trunk_Lateral,1,R_MTF,129.02806320038636
BMu51,46,C,REL,Trunk_Lateral,1,L_MTF,66.59585726726012
BMu51,46,C,REL,Trunk_Lateral,1,R_MTF,113.44725783460883
BMu51,47,P,INI,Trunk_Lateral,1,L_MTF,111.80819357365614
BMu51,47,P,INI,Trunk_Lateral,1,R_MTF,53.01119757468516
BMu51,47,P,REL,Trunk_Lateral,1,L_MTF,126.08548808491075
BMu51,47,P,REL,Trunk_Lateral,1,R_MTF,68.01431133226414
BMu51,48,C,INI,Trunk_Lateral,1,L_MTF,136.46530347219746
BMu51,48,C,INI,Trunk_Lateral,1,R_MTF,130.31457576544938
BMu51,48,C,REL,Trunk_Lateral,1,L_MTF,136.21998648681767
BMu51,48,C,REL,Trunk_Lateral,1,R_MTF,145.80424811094701
BMu51,49,C,INI,Trunk_Lateral,1,L_MTF,141.19448728029445
BMu51,49,C,INI,Trunk_Lateral,1,R_MTF,143.25717610983673
BMu51,49,C,REL,Trunk_Lateral,1,L_MTF,123.03769692606154
BMu51,49,C,REL,Trunk_Lateral,1,R_MTF,142.08409638831046
BMu51,50,P,INI,Trunk_Lateral,1,L_MTF,159.17700358637885
BMu51,50,P,INI,Trunk_Lateral,1,R_MTF,134.58494909286313
BMu51,50,P,REL,Trunk_Lateral,1,L_MTF,135.13691442427202
BMu51,50,P,REL,Trunk_Lateral,1,R_MTF,139.4477944364734
BMu51,51,P,INI,Trunk_Lateral,1,L_MTF,134.07274620649233
BMu51,51,P,INI,Trunk_Lateral,1,R_MTF,123.15224086847536
BMu51,51,P,REL,Trunk_Lateral,1,L_MTF,121.2499285152076
BMu51,51,P,REL,Trunk_Lateral,1,R_MTF,125.93540465714791
BMu51,52,C,INI,Trunk_Lateral,1,L_MTF,136.01203226041196
BMu51,52,C,INI,Trunk_Lateral,1,R_MTF,129.33750770436149
BMu51,52,C,REL,Trunk_Lateral,1,L_MTF,119.19080344649113
BMu51,52,C,REL,Trunk_Lateral,1,R_MTF,130.23158546660014
BMu51,53,P,INI,Trunk_Lateral,1,L_MTF,128.4707812127597
BMu51,53,P,INI,Trunk_Lateral,1,R_MTF,113.5387690721802
BMu51,53,P,REL,Trunk_Lateral,1,L_MTF,109.21798955094867
BMu51,53,P,REL,Trunk_Lateral,1,R_MTF,115.67836515837033
BMu51,54,P,INI,Trunk_Lateral,1,L_MTF,115.6947620442021
BMu51,54,P,INI,Trunk_Lateral,1,R_MTF,128.41615566219278
BMu51,54,P,REL,Trunk_Lateral,1,L_MTF,104.57344577969961
BMu51,54,P,REL,Trunk_Lateral,1,R_MTF,129.35699338446838
BMu51,55,C,INI,Trunk_Lateral,1,L_MTF,42.38215746784518
BMu51,55,C,INI,Trunk_Lateral,1,R_MTF,117.2224899000314
BMu51,55,C,REL,Trunk_Lateral,1,L_MTF,94.81685682414468
BMu51,55,C,REL,Trunk_Lateral,1,R_MTF,106.34879222855697
BMu51,56,C,INI,Trunk_Lateral,1,L_MTF,78.79478119658579
BMu51,56,C,INI,Trunk_Lateral,1,R_MTF,104.29289582231932
BMu51,56,C,REL,Trunk_Lateral,1,L_MTF,90.57226655823013
BMu51,56,C,REL,Trunk_Lateral,1,R_MTF,93.13443371430621
BMu51,57,C,INI,Trunk_Lateral,1,L_MTF,40.47513568880521
BMu51,57,C,INI,Trunk_Lateral,1,R_MTF,76.39579172348213
BMu51,57,C,REL,Trunk_Lateral,1,L_MTF,83.92629244444406
BMu51,57,C,REL,Trunk_Lateral,1,R_MTF,99.4076139029756
BMu51,58,P,INI,Trunk_Lateral,1,L_MTF,27.08814966414589
BMu51,58,P,INI,Trunk_Lateral,1,R_MTF,50.160946804583936
BMu51,58,P,REL,Trunk_Lateral,1,L_MTF,45.56992985286589
BMu51,58,P,REL,Trunk_Lateral,1,R_MTF,120.66017158049623
BMu51,60,C,INI,Trunk_Lateral,1,L_MTF,133.18781916479782
BMu51,60,C,INI,Trunk_Lateral,1,R_MTF,143.23849454207627
BMu51,60,C,REL,Trunk_Lateral,1,L_MTF,115.06926102612329
BMu51,60,C,REL,Trunk_Lateral,1,R_MTF,135.27749600919782
BMu51,61,P,REL,Trunk_Lateral,1,L_MTF,107.19826408179217
BMu51,61,P,REL,Trunk_Lateral,1,R_MTF,110.82385769363172
BMu51,62,P,INI,Trunk_Lateral,1,L_MTF,146.17969466829058
BMu51,62,P,INI,Trunk_Lateral,1,R_MTF,121.38882197732954
BMu51,62,P,REL,Trunk_Lateral,1,L_MTF,139.22125777394027
BMu51,62,P,REL,Trunk_Lateral,1,R_MTF,117.3164853739786
BMu51,63,P,INI,Trunk_Lateral,1,L_MTF,97.78905708577506
BMu51,63,P,INI,Trunk_Lateral,1,R_MTF,155.0297515046882
BMu51,63,P,REL,Trunk_Lateral,1,L_MTF,128.3655499501916
BMu51,63,P,REL,Trunk_Lateral,1,R_MTF,114.18973958735565
BMu51,64,C,INI,Trunk_Lateral,1,L_MTF,147.55400806871492
BMu51,64,C,INI,Trunk_Lateral,1,R_MTF,135.05965158993948
BMu51,64,C,REL,Trunk_Lateral,1,L_MTF,149.43794402445943
BMu51,64,C,REL,Trunk_Lateral,1,R_MTF,127.46472618144429
BMu51,65,P,INI,Trunk_Lateral,1,L_MTF,118.8615278000871
BMu51,65,P,INI,Trunk_Lateral,1,R_MTF,112.89963334522008
BMu51,65,P,REL,Trunk_Lateral,1,L_MTF,128.40528962109173
BMu51,65,P,REL,Trunk_Lateral,1,R_MTF,111.99745350260757
BMu51,66,C,INI,Trunk_Lateral,1,L_MTF,100.24811547649358
BMu51,66,C,INI,Trunk_Lateral,1,R_MTF,162.96927427945377
BMu51,66,C,REL,Trunk_Lateral,1,L_MTF,100.74530731722523
BMu51,66,C,REL,Trunk_Lateral,1,R_MTF,117.47551087864065
BMu51,67,C,INI,Trunk_Lateral,1,L_MTF,114.44105862700525
BMu51,67,C,INI,Trunk_Lateral,1,R_MTF,106.8222791519933
BMu51,67,C,REL,Trunk_Lateral,1,L_MTF,81.62009665911455
BMu51,67,C,REL,Trunk_Lateral,1,R_MTF,125.5550916974288
BMu51,68,C,INI,Trunk_Lateral,1,L_MTF,107.70033337569934
BMu51,68,C,INI,Trunk_Lateral,1,R_MTF,92.57325091935023
BMu51,68,C,REL,Trunk_Lateral,1,L_MTF,127.60673960380035
BMu51,68,C,REL,Trunk_Lateral,1,R_MTF,101.80985544204019
