BM,subject,P_C,session,task,repetition,channel,value
BMu51,1,C,INI,Trunk_Lateral,1,L_MTF,113.39015826330387
BMu51,1,C,INI,Trunk_Lateral,1,R_MTF,
BMu51,1,C,REL,Trunk_Lateral,1,L_MTF,105.43634100173749
BMu51,1,C,REL,Trunk_Lateral,1,R_MTF,
BMu51,2,C,INI,Trunk_Lateral,1,L_MTF,117.72352274552793
BMu51,2,C,INI,Trunk_Lateral,1,R_MTF,
BMu51,3,C,INI,Trunk_Lateral,1,L_MTF,116.60006435260028
BMu51,3,C,INI,Trunk_Lateral,1,R_MTF,
BMu51,3,C,REL,Trunk_Lateral,1,L_MTF,117.46758121173497
BMu51,3,C,REL,Trunk_Lateral,1,R_MTF,
BMu51,5,C,INI,Trunk_Lateral,1,L_MTF,157.21839343660838
BMu51,5,C,INI,Trunk_Lateral,1,R_MTF,
BMu51,5,C,REL,Trunk_Lateral,1,L_MTF,
BMu51,5,C,REL,Trunk_Lateral,1,R_MTF,
BMu51,6,C,INI,Trunk_Lateral,1,L_MTF,112.05850576690466
BMu51,6,C,INI,Trunk_Lateral,1,R_MTF,
BMu51,6,C,REL,Trunk_Lateral,1,L_MTF,119.00535337963939
BMu51,6,C,REL,Trunk_Lateral,1,R_MTF,
BMu51,7,C,INI,Trunk_Lateral,1,L_MTF,
BMu51,7,C,INI,Trunk_Lateral,1,R_MTF,
BMu51,7,C,REL,Trunk_Lateral,1,L_MTF,
BMu51,7,C,REL,Trunk_Lateral,1,R_MTF,
BMu51,8,C,INI,Trunk_Lateral,1,L_MTF,76.7648069773778
BMu51,8,C,INI,Trunk_Lateral,1,R_MTF,
BMu51,8,C,REL,Trunk_Lateral,1,L_MTF,
BMu51,8,C,REL,Trunk_Lateral,1,R_MTF,
BMu51,9,P,INI,Trunk_Lateral,1,L_MTF,
BMu51,9,P,INI,Trunk_Lateral,1,R_MTF,
BMu51,9,P,REL,Trunk_Lateral,1,L_MTF,
BMu51,9,P,REL,Trunk_Lateral,1,R_MTF,
BMu51,10,P,INI,Trunk_Lateral,1,L_MTF,155.35495399142883
BMu51,10,P,INI,Trunk_Lateral,1,R_MTF,
BMu51,10,P,REL,Trunk_Lateral,1,L_MTF,
BMu51,10,P,REL,Trunk_Lateral,1,R_MTF,
BMu51,11,P,INI,Trunk_Lateral,1,L_MTF,144.01603783149494
BMu51,11,P,INI,Trunk_Lateral,1,R_MTF,
BMu51,11,P,REL,Trunk_Lateral,1,L_MTF,
BMu51,11,P,REL,Trunk_Lateral,1,R_MTF,
BMu51,12,P,INI,Trunk_Lateral,1,L_MTF,120.05075429829995
BMu51,12,P,INI,Trunk_Lateral,1,R_MTF,
BMu51,12,P,REL,Trunk_Lateral,1,L_MTF,
BMu51,12,P,REL,Trunk_Lateral,1,R_MTF,
BMu51,13,C,INI,Trunk_Lateral,1,L_MTF,
BMu51,13,C,INI,Trunk_Lateral,1,R_MTF,
BMu51,13,C,REL,Trunk_Lateral,1,L_MTF,
BMu51,13,C,REL,Trunk_Lateral,1,R_MTF,
BMu51,14,P,INI,Trunk_Lateral,1,L_MTF,
BMu51,14,P,INI,Trunk_Lateral,1,R_MTF,
BMu51,14,P,REL,Trunk_Lateral,1,L_MTF,119.05787361702149
BMu51,14,P,REL,Trunk_Lateral,1,R_MTF,
BMu51,16,C,INI,Trunk_Lateral,1,L_MTF,
BMu51,16,C,INI,Trunk_Lateral,1,R_MTF,
BMu51,16,C,REL,Trunk_Lateral,1,L_MTF,
BMu51,16,C,REL,Trunk_Lateral,1,R_MTF,
BMu51,17,P,INI,Trunk_Lateral,1,L_MTF,
BMu51,17,P,INI,Trunk_Lateral,1,R_MTF,
BMu51,17,P,REL,Trunk_Lateral,1,L_MTF,
BMu51,17,P,REL,Trunk_Lateral,1,R_MTF,
BMu51,21,C,INI,Trunk_Lateral,1,L_MTF,92.34026229069163
BMu51,21,C,INI,Trunk_Lateral,1,R_MTF,
BMu51,21,C,REL,Trunk_Lateral,1,L_MTF,
BMu51,21,C,REL,Trunk_Lateral,1,R_MTF,
BMu51,22,C,INI,Trunk_Lateral,1,L_MTF,133.93190133045607
BMu51,22,C,INI,Trunk_Lateral,1,R_MTF,
BMu51,22,C,REL,Trunk_Lateral,1,L_MTF,138.66130537361573
BMu51,22,C,REL,Trunk_Lateral,1,R_MTF,
BMu51,23,C,INI,Trunk_Lateral,1,L_MTF,109.06765921730866
BMu51,23,C,INI,Trunk_Lateral,1,R_MTF,
BMu51,23,C,REL,Trunk_Lateral,1,L_MTF,
BMu51,23,C,REL,Trunk_Lateral,1,R_MTF,
BMu51,24,P,INI,Trunk_Lateral,1,L_MTF,145.70299940399647
BMu51,24,P,INI,Trunk_Lateral,1,R_MTF,
BMu51,24,P,REL,Trunk_Lateral,1,L_MTF,122.18518592858317
BMu51,24,P,REL,Trunk_Lateral,1,R_MTF,
BMu51,25,C,INI,Trunk_Lateral,1,L_MTF,
BMu51,25,C,INI,Trunk_Lateral,1,R_MTF,
BMu51,25,C,REL,Trunk_Lateral,1,L_MTF,
BMu51,25,C,REL,Trunk_Lateral,1,R_MTF,
BMu51,26,P,INI,Trunk_Lateral,1,L_MTF,
BMu51,26,P,INI,Trunk_Lateral,1,R_MTF,
BMu51,26,P,REL,Trunk_Lateral,1,L_MTF,
BMu51,26,P,REL,Trunk_Lateral,1,R_MTF,
BMu51,27,P,INI,Trunk_Lateral,1,L_MTF,
BMu51,27,P,INI,Trunk_Lateral,1,R_MTF,
BMu51,27,P,REL,Trunk_Lateral,1,L_MTF,
BMu51,27,P,REL,Trunk_Lateral,1,R_MTF,
BMu51,28,P,INI,Trunk_Lateral,1,L_MTF,
BMu51,28,P,INI,Trunk_Lateral,1,R_MTF,
BMu51,28,P,REL,Trunk_Lateral,1,L_MTF,
BMu51,28,P,REL,Trunk_Lateral,1,R_MTF,
BMu51,29,P,INI,Trunk_Lateral,1,L_MTF,128.8062119545316
BMu51,29,P,INI,Trunk_Lateral,1,R_MTF,
BMu51,29,P,REL,Trunk_Lateral,1,L_MTF,120.58258082423934
BMu51,29,P,REL,Trunk_Lateral,1,R_MTF,
BMu51,30,P,REL,Trunk_Lateral,1,L_MTF,155.9585872648995
BMu51,30,P,REL,Trunk_Lateral,1,R_MTF,
BMu51,32,P,INI,Trunk_Lateral,1,L_MTF,
BMu51,32,P,INI,Trunk_Lateral,1,R_MTF,
BMu51,32,P,REL,Trunk_Lateral,1,L_MTF,
BMu51,32,P,REL,Trunk_Lateral,1,R_MTF,
BMu51,33,P,INI,Trunk_Lateral,1,L_MTF,
BMu51,33,P,INI,Trunk_Lateral,1,R_MTF,
BMu51,33,P,REL,Trunk_Lateral,1,L_MTF,
BMu51,33,P,REL,Trunk_Lateral,1,R_MTF,
BMu51,34,P,INI,Trunk_Lateral,1,L_MTF,
BMu51,34,P,INI,Trunk_Lateral,1,R_MTF,
BMu51,34,P,REL,Trunk_Lateral,1,L_MTF,133.86904727324085
BMu51,34,P,REL,Trunk_Lateral,1,R_MTF,
BMu51,35,C,INI,Trunk_Lateral,1,L_MTF,
BMu51,35,C,INI,Trunk_Lateral,1,R_MTF,
BMu51,35,C,REL,Trunk_Lateral,1,L_MTF,
BMu51,35,C,REL,Trunk_Lateral,1,R_MTF,
BMu51,36,P,INI,Trunk_Lateral,1,L_MTF,148.06071462951846
BMu51,36,P,INI,Trunk_Lateral,1,R_MTF,
BMu51,36,P,REL,Trunk_Lateral,1,L_MTF,148.4454425696141
BMu51,36,P,REL,Trunk_Lateral,1,R_MTF,
BMu51,38,C,INI,Trunk_Lateral,1,L_MTF,
BMu51,38,C,INI,Trunk_Lateral,1,R_MTF,
BMu51,38,C,REL,Trunk_Lateral,1,L_MTF,
BMu51,38,C,REL,Trunk_Lateral,1,R_MTF,
BMu51,39,C,INI,Trunk_Lateral,1,L_MTF,
BMu51,39,C,INI,Trunk_Lateral,1,R_MTF,
BMu51,39,C,REL,Trunk_Lateral,1,L_MTF,
BMu51,39,C,REL,Trunk_Lateral,1,R_MTF,
BMu51,40,C,INI,Trunk_Lateral,1,L_MTF,118.9217194704722
BMu51,40,C,INI,Trunk_Lateral,1,R_MTF,
BMu51,40,C,REL,Trunk_Lateral,1,L_MTF,117.69725231855222
BMu51,40,C,REL,Trunk_Lateral,1,R_MTF,
BMu51,41,P,INI,Trunk_Lateral,1,L_MTF,121.79517852150484
BMu51,41,P,INI,Trunk_Lateral,1,R_MTF,
BMu51,41,P,REL,Trunk_Lateral,1,L_MTF,135.32830217858756
BMu51,41,P,REL,Trunk_Lateral,1,R_MTF,
BMu51,42,P,INI,Trunk_Lateral,1,L_MTF,
BMu51,42,P,INI,Trunk_Lateral,1,R_MTF,
BMu51,42,P,REL,Trunk_Lateral,1,L_MTF,126.71550509841045
BMu51,42,P,REL,Trunk_Lateral,1,R_MTF,
BMu51,43,P,INI,Trunk_Lateral,1,L_MTF,
BMu51,43,P,INI,Trunk_Lateral,1,R_MTF,
BMu51,43,P,REL,Trunk_Lateral,1,L_MTF,112.19721990640345
BMu51,43,P,REL,Trunk_Lateral,1,R_MTF,
BMu51,44,C,INI,Trunk_Lateral,1,L_MTF,77.9110530921016
BMu51,44,C,INI,Trunk_Lateral,1,R_MTF,
BMu51,44,C,REL,Trunk_Lateral,1,L_MTF,136.2156905024655
BMu51,44,C,REL,Trunk_Lateral,1,R_MTF,
BMu51,45,P,INI,Trunk_Lateral,1,L_MTF,
BMu51,45,P,INI,Trunk_Lateral,1,R_MTF,
BMu51,45,P,REL,Trunk_Lateral,1,L_MTF,
BMu51,45,P,REL,Trunk_Lateral,1,R_MTF,
BMu51,46,C,INI,Trunk_Lateral,1,L_MTF,
BMu51,46,C,INI,Trunk_Lateral,1,R_MTF,
BMu51,46,C,REL,Trunk_Lateral,1,L_MTF,
BMu51,46,C,REL,Trunk_Lateral,1,R_MTF,
BMu51,47,P,INI,Trunk_Lateral,1,L_MTF,
BMu51,47,P,INI,Trunk_Lateral,1,R_MTF,
BMu51,47,P,REL,Trunk_Lateral,1,L_MTF,
BMu51,47,P,REL,Trunk_Lateral,1,R_MTF,
BMu51,48,C,INI,Trunk_Lateral,1,L_MTF,
BMu51,48,C,INI,Trunk_Lateral,1,R_MTF,
BMu51,48,C,REL,Trunk_Lateral,1,L_MTF,135.53041405754823
BMu51,48,C,REL,Trunk_Lateral,1,R_MTF,
BMu51,49,C,INI,Trunk_Lateral,1,L_MTF,138.324343490668
BMu51,49,C,INI,Trunk_Lateral,1,R_MTF,
BMu51,49,C,REL,Trunk_Lateral,1,L_MTF,
BMu51,49,C,REL,Trunk_Lateral,1,R_MTF,
BMu51,50,P,INI,Trunk_Lateral,1,L_MTF,
BMu51,50,P,INI,Trunk_Lateral,1,R_MTF,
BMu51,50,P,REL,Trunk_Lateral,1,L_MTF,
BMu51,50,P,REL,Trunk_Lateral,1,R_MTF,
BMu51,51,P,INI,Trunk_Lateral,1,L_MTF,137.95388451380236
BMu51,51,P,INI,Trunk_Lateral,1,R_MTF,
BMu51,51,P,REL,Trunk_Lateral,1,L_MTF,
BMu51,51,P,REL,Trunk_Lateral,1,R_MTF,
BMu51,52,C,INI,Trunk_Lateral,1,L_MTF,137.29934602626662
BMu51,52,C,INI,Trunk_Lateral,1,R_MTF,
BMu51,52,C,REL,Trunk_Lateral,1,L_MTF,
BMu51,52,C,REL,Trunk_Lateral,1,R_MTF,
BMu51,53,P,INI,Trunk_Lateral,1,L_MTF,128.40804037916195
BMu51,53,P,INI,Trunk_Lateral,1,R_MTF,
BMu51,53,P,REL,Trunk_Lateral,1,L_MTF,92.76494198596505
BMu51,53,P,REL,Trunk_Lateral,1,R_MTF,
BMu51,54,P,INI,Trunk_Lateral,1,L_MTF,106.70844634455315
BMu51,54,P,INI,Trunk_Lateral,1,R_MTF,
BMu51,54,P,REL,Trunk_Lateral,1,L_MTF,97.85842460910735
BMu51,54,P,REL,Trunk_Lateral,1,R_MTF,
BMu51,55,C,INI,Trunk_Lateral,1,L_MTF,43.49633093415071
BMu51,55,C,INI,Trunk_Lateral,1,R_MTF,
BMu51,55,C,REL,Trunk_Lateral,1,L_MTF,
BMu51,55,C,REL,Trunk_Lateral,1,R_MTF,
BMu51,56,C,INI,Trunk_Lateral,1,L_MTF,53.70545326175838
BMu51,56,C,INI,Trunk_Lateral,1,R_MTF,
BMu51,56,C,REL,Trunk_Lateral,1,L_MTF,99.5899349489053
BMu51,56,C,REL,Trunk_Lateral,1,R_MTF,
BMu51,57,C,INI,Trunk_Lateral,1,L_MTF,
BMu51,57,C,INI,Trunk_Lateral,1,R_MTF,
BMu51,57,C,REL,Trunk_Lateral,1,L_MTF,74.8469212361657
BMu51,57,C,REL,Trunk_Lateral,1,R_MTF,
BMu51,58,P,INI,Trunk_Lateral,1,L_MTF,
BMu51,58,P,INI,Trunk_Lateral,1,R_MTF,
BMu51,58,P,REL,Trunk_Lateral,1,L_MTF,
BMu51,58,P,REL,Trunk_Lateral,1,R_MTF,
BMu51,60,C,INI,Trunk_Lateral,1,L_MTF,
BMu51,60,C,INI,Trunk_Lateral,1,R_MTF,
BMu51,60,C,REL,Trunk_Lateral,1,L_MTF,
BMu51,60,C,REL,Trunk_Lateral,1,R_MTF,
BMu51,61,P,INI,Trunk_Lateral,1,L_MTF,
BMu51,61,P,INI,Trunk_Lateral,1,R_MTF,
BMu51,61,P,REL,Trunk_Lateral,1,L_MTF,
BMu51,61,P,REL,Trunk_Lateral,1,R_MTF,
BMu51,62,P,INI,Trunk_Lateral,1,L_MTF,147.79352510751846
BMu51,62,P,INI,Trunk_Lateral,1,R_MTF,
BMu51,62,P,REL,Trunk_Lateral,1,L_MTF,128.58172163803795
BMu51,62,P,REL,Trunk_Lateral,1,R_MTF,
BMu51,63,P,INI,Trunk_Lateral,1,L_MTF,85.36094021192649
BMu51,63,P,INI,Trunk_Lateral,1,R_MTF,
BMu51,63,P,REL,Trunk_Lateral,1,L_MTF,
BMu51,63,P,REL,Trunk_Lateral,1,R_MTF,
BMu51,64,C,INI,Trunk_Lateral,1,L_MTF,146.16660349762606
BMu51,64,C,INI,Trunk_Lateral,1,R_MTF,
BMu51,64,C,REL,Trunk_Lateral,1,L_MTF,140.19774996208065
BMu51,64,C,REL,Trunk_Lateral,1,R_MTF,
BMu51,65,P,INI,Trunk_Lateral,1,L_MTF,
BMu51,65,P,INI,Trunk_Lateral,1,R_MTF,
BMu51,65,P,REL,Trunk_Lateral,1,L_MTF,
BMu51,65,P,REL,Trunk_Lateral,1,R_MTF,
BMu51,66,C,INI,Trunk_Lateral,1,L_MTF,
BMu51,66,C,INI,Trunk_Lateral,1,R_MTF,
BMu51,66,C,REL,Trunk_Lateral,1,L_MTF,
BMu51,66,C,REL,Trunk_Lateral,1,R_MTF,
BMu51,67,C,INI,Trunk_Lateral,1,L_MTF,69.87340905070167
BMu51,67,C,INI,Trunk_Lateral,1,R_MTF,
BMu51,67,C,REL,Trunk_Lateral,1,L_MTF,67.29961018407525
BMu51,67,C,REL,Trunk_Lateral,1,R_MTF,
BMu51,68,C,INI,Trunk_Lateral,1,L_MTF,111.31058177916519
BMu51,68,C,INI,Trunk_Lateral,1,R_MTF,
BMu51,68,C,REL,Trunk_Lateral,1,L_MTF,
BMu51,68,C,REL,Trunk_Lateral,1,R_MTF,
