BM,subject,P_C,session,task,repetition,channel,value
BMu53,1,C,INI,Trunk_Lateral,1,L_MTF,76.76530673173323
BMu53,1,C,INI,Trunk_Lateral,1,R_MTF,59.31548602640305
BMu53,1,C,REL,Trunk_Lateral,1,L_MTF,73.6800992839426
BMu53,1,C,REL,Trunk_Lateral,1,R_MTF,52.67005971444714
BMu53,2,C,INI,Trunk_Lateral,1,L_MTF,101.53107219843889
BMu53,2,C,INI,Trunk_Lateral,1,R_MTF,115.01730523104798
BMu53,3,C,INI,Trunk_Lateral,1,L_MTF,87.44633971692133
BMu53,3,C,INI,Trunk_Lateral,1,R_MTF,68.89552877690925
BMu53,3,C,REL,Trunk_Lateral,1,L_MTF,84.53784241039136
BMu53,3,C,REL,Trunk_Lateral,1,R_MTF,58.339625157682825
BMu53,5,C,INI,Trunk_Lateral,1,L_MTF,136.2295967793896
BMu53,5,C,INI,Trunk_Lateral,1,R_MTF,125.03088003952546
BMu53,5,C,REL,Trunk_Lateral,1,L_MTF,151.26031862671883
BMu53,5,C,REL,Trunk_Lateral,1,R_MTF,105.64596519430275
BMu53,6,C,INI,Trunk_Lateral,1,L_MTF,78.96602150477996
BMu53,6,C,INI,Trunk_Lateral,1,R_MTF,62.26524600017105
BMu53,6,C,REL,Trunk_Lateral,1,L_MTF,85.23453945984932
BMu53,6,C,REL,Trunk_Lateral,1,R_MTF,96.49002709829301
BMu53,7,C,INI,Trunk_Lateral,1,L_MTF,120.58188653368056
BMu53,7,C,INI,Trunk_Lateral,1,R_MTF,104.92876907618644
BMu53,7,C,REL,Trunk_Lateral,1,L_MTF,121.60964906180435
BMu53,7,C,REL,Trunk_Lateral,1,R_MTF,113.792294601407
BMu53,8,C,INI,Trunk_Lateral,1,L_MTF,35.20534313181801
BMu53,8,C,INI,Trunk_Lateral,1,R_MTF,127.23813349646532
BMu53,8,C,REL,Trunk_Lateral,1,L_MTF,102.49304128717803
BMu53,8,C,REL,Trunk_Lateral,1,R_MTF,149.30527390513447
BMu53,9,P,INI,Trunk_Lateral,1,L_MTF,120.20803545734755
BMu53,9,P,INI,Trunk_Lateral,1,R_MTF,126.29194413573181
BMu53,9,P,REL,Trunk_Lateral,1,L_MTF,137.7677823264029
BMu53,9,P,REL,Trunk_Lateral,1,R_MTF,156.07019199109698
BMu53,10,P,INI,Trunk_Lateral,1,L_MTF,154.00248093700597
BMu53,10,P,INI,Trunk_Lateral,1,R_MTF,121.22366624836812
BMu53,10,P,REL,Trunk_Lateral,1,L_MTF,148.75483114438867
BMu53,10,P,REL,Trunk_Lateral,1,R_MTF,128.09532300305025
BMu53,11,P,INI,Trunk_Lateral,1,L_MTF,122.90873053764734
BMu53,11,P,INI,Trunk_Lateral,1,R_MTF,28.649644591392974
BMu53,11,P,REL,Trunk_Lateral,1,L_MTF,120.72895534862108
BMu53,11,P,REL,Trunk_Lateral,1,R_MTF,156.03536129583628
BMu53,12,P,INI,Trunk_Lateral,1,L_MTF,101.62634265976983
BMu53,12,P,INI,Trunk_Lateral,1,R_MTF,102.74559156027743
BMu53,12,P,REL,Trunk_Lateral,1,L_MTF,36.95174608707903
BMu53,12,P,REL,Trunk_Lateral,1,R_MTF,53.95360691334192
BMu53,13,C,INI,Trunk_Lateral,1,L_MTF,52.88732220342964
BMu53,13,C,INI,Trunk_Lateral,1,R_MTF,71.68855232949296
BMu53,13,C,REL,Trunk_Lateral,1,L_MTF,82.24953945785249
BMu53,13,C,REL,Trunk_Lateral,1,R_MTF,90.44609761019478
BMu53,14,P,INI,Trunk_Lateral,1,L_MTF,83.72078787201023
BMu53,14,P,INI,Trunk_Lateral,1,R_MTF,82.66201304737886
BMu53,14,P,REL,Trunk_Lateral,1,L_MTF,88.46241384109585
BMu53,14,P,REL,Trunk_Lateral,1,R_MTF,102.79530114119633
BMu53,16,C,INI,Trunk_Lateral,1,L_MTF,104.68242939273772
BMu53,16,C,INI,Trunk_Lateral,1,R_MTF,129.64111991373534
BMu53,16,C,REL,Trunk_Lateral,1,L_MTF,109.72222106885448
BMu53,16,C,REL,Trunk_Lateral,1,R_MTF,118.0745123587905
BMu53,17,P,INI,Trunk_Lateral,1,L_MTF,125.98810267441729
BMu53,17,P,INI,Trunk_Lateral,1,R_MTF,149.823412843208
BMu53,17,P,REL,Trunk_Lateral,1,L_MTF,78.73015740843208
BMu53,17,P,REL,Trunk_Lateral,1,R_MTF,91.94435847446864
BMu53,21,C,INI,Trunk_Lateral,1,L_MTF,65.16582658015453
BMu53,21,C,INI,Trunk_Lateral,1,R_MTF,82.29827180897634
BMu53,21,C,REL,Trunk_Lateral,1,L_MTF,84.02849977143676
BMu53,21,C,REL,Trunk_Lateral,1,R_MTF,57.37555553369341
BMu53,22,C,INI,Trunk_Lateral,1,L_MTF,94.82573701904828
BMu53,22,C,INI,Trunk_Lateral,1,R_MTF,296.3194298848937
BMu53,22,C,REL,Trunk_Lateral,1,L_MTF,103.3348503396874
BMu53,22,C,REL,Trunk_Lateral,1,R_MTF,74.64513586186054
BMu53,23,C,INI,Trunk_Lateral,1,L_MTF,84.91402527862222
BMu53,23,C,INI,Trunk_Lateral,1,R_MTF,75.46562049819045
BMu53,23,C,REL,Trunk_Lateral,1,L_MTF,100.41671502923462
BMu53,23,C,REL,Trunk_Lateral,1,R_MTF,110.27812370278126
BMu53,24,P,INI,Trunk_Lateral,1,L_MTF,113.26647319400944
BMu53,24,P,INI,Trunk_Lateral,1,R_MTF,126.39105699086667
BMu53,24,P,REL,Trunk_Lateral,1,L_MTF,86.02885786631401
BMu53,24,P,REL,Trunk_Lateral,1,R_MTF,94.74675071269844
BMu53,25,C,INI,Trunk_Lateral,1,L_MTF,77.31640055654175
BMu53,25,C,INI,Trunk_Lateral,1,R_MTF,96.49397105585412
BMu53,25,C,REL,Trunk_Lateral,1,L_MTF,119.82393785902104
BMu53,25,C,REL,Trunk_Lateral,1,R_MTF,102.12575927335028
BMu53,26,P,INI,Trunk_Lateral,1,L_MTF,49.28910873181456
BMu53,26,P,INI,Trunk_Lateral,1,R_MTF,29.659252910390208
BMu53,26,P,REL,Trunk_Lateral,1,L_MTF,33.03202544112349
BMu53,26,P,REL,Trunk_Lateral,1,R_MTF,30.123151307745033
BMu53,27,P,INI,Trunk_Lateral,1,L_MTF,66.5937827483448
BMu53,27,P,INI,Trunk_Lateral,1,R_MTF,78.36448881311634
BMu53,27,P,REL,Trunk_Lateral,1,L_MTF,85.91927512878362
BMu53,27,P,REL,Trunk_Lateral,1,R_MTF,77.26525073226992
BMu53,28,P,INI,Trunk_Lateral,1,L_MTF,83.48175108135833
BMu53,28,P,INI,Trunk_Lateral,1,R_MTF,95.07918679015059
BMu53,28,P,REL,Trunk_Lateral,1,L_MTF,112.10382733342904
BMu53,28,P,REL,Trunk_Lateral,1,R_MTF,84.90295139874937
BMu53,29,P,INI,Trunk_Lateral,1,L_MTF,112.88286446407153
BMu53,29,P,INI,Trunk_Lateral,1,R_MTF,117.92760679945617
BMu53,29,P,REL,Trunk_Lateral,1,L_MTF,108.24344418264721
BMu53,29,P,REL,Trunk_Lateral,1,R_MTF,123.55083800378907
BMu53,30,P,REL,Trunk_Lateral,1,L_MTF,144.42524322535635
BMu53,30,P,REL,Trunk_Lateral,1,R_MTF,110.82928587549924
BMu53,32,P,INI,Trunk_Lateral,1,L_MTF,122.42712605515173
BMu53,32,P,INI,Trunk_Lateral,1,R_MTF,135.32672962010963
BMu53,32,P,REL,Trunk_Lateral,1,L_MTF,121.5130467901036
BMu53,32,P,REL,Trunk_Lateral,1,R_MTF,61.0572450221766
BMu53,33,P,INI,Trunk_Lateral,1,L_MTF,94.87327601960476
BMu53,33,P,INI,Trunk_Lateral,1,R_MTF,61.11493195279138
BMu53,33,P,REL,Trunk_Lateral,1,L_MTF,88.41059166852641
BMu53,33,P,REL,Trunk_Lateral,1,R_MTF,66.2198014167144
BMu53,34,P,INI,Trunk_Lateral,1,L_MTF,58.555772606771676
BMu53,34,P,INI,Trunk_Lateral,1,R_MTF,107.49685611318402
BMu53,34,P,REL,Trunk_Lateral,1,L_MTF,100.04232287603497
BMu53,34,P,REL,Trunk_Lateral,1,R_MTF,97.00661060705484
BMu53,35,C,INI,Trunk_Lateral,1,L_MTF,128.8579216086437
BMu53,35,C,INI,Trunk_Lateral,1,R_MTF,108.64398480281432
BMu53,35,C,REL,Trunk_Lateral,1,L_MTF,94.0440946138403
BMu53,35,C,REL,Trunk_Lateral,1,R_MTF,103.09831959720454
BMu53,36,P,INI,Trunk_Lateral,1,L_MTF,124.74426458628865
BMu53,36,P,INI,Trunk_Lateral,1,R_MTF,102.00777103331741
BMu53,36,P,REL,Trunk_Lateral,1,L_MTF,128.32814317314808
BMu53,36,P,REL,Trunk_Lateral,1,R_MTF,90.44778031054874
BMu53,38,C,INI,Trunk_Lateral,1,L_MTF,38.35725691771838
BMu53,38,C,INI,Trunk_Lateral,1,R_MTF,70.61532054766332
BMu53,38,C,REL,Trunk_Lateral,1,L_MTF,68.47964409585785
BMu53,38,C,REL,Trunk_Lateral,1,R_MTF,77.27711875979452
BMu53,39,C,INI,Trunk_Lateral,1,L_MTF,83.7367733636662
BMu53,39,C,INI,Trunk_Lateral,1,R_MTF,76.19660167421237
BMu53,39,C,REL,Trunk_Lateral,1,L_MTF,80.54405311834313
BMu53,39,C,REL,Trunk_Lateral,1,R_MTF,39.38106249893402
BMu53,40,C,INI,Trunk_Lateral,1,L_MTF,98.66453361700844
BMu53,40,C,INI,Trunk_Lateral,1,R_MTF,126.61071341054725
BMu53,40,C,REL,Trunk_Lateral,1,L_MTF,103.12132785587066
BMu53,40,C,REL,Trunk_Lateral,1,R_MTF,117.25818655190403
BMu53,41,P,INI,Trunk_Lateral,1,L_MTF,87.25551370437243
BMu53,41,P,INI,Trunk_Lateral,1,R_MTF,67.02665538092806
BMu53,41,P,REL,Trunk_Lateral,1,L_MTF,104.99139216889894
BMu53,41,P,REL,Trunk_Lateral,1,R_MTF,84.10328540242314
BMu53,42,P,INI,Trunk_Lateral,1,L_MTF,105.01451751970752
BMu53,42,P,INI,Trunk_Lateral,1,R_MTF,119.88099749859788
BMu53,42,P,REL,Trunk_Lateral,1,L_MTF,118.3311249219583
BMu53,42,P,REL,Trunk_Lateral,1,R_MTF,113.56827796274486
BMu53,43,P,INI,Trunk_Lateral,1,L_MTF,101.28881333933266
BMu53,43,P,INI,Trunk_Lateral,1,R_MTF,88.89756050392107
BMu53,43,P,REL,Trunk_Lateral,1,L_MTF,93.02870913915046
BMu53,43,P,REL,Trunk_Lateral,1,R_MTF,224.38346794482436
BMu53,44,C,INI,Trunk_Lateral,1,L_MTF,92.67141819903084
BMu53,44,C,INI,Trunk_Lateral,1,R_MTF,135.35469891611467
BMu53,44,C,REL,Trunk_Lateral,1,L_MTF,107.00267079476986
BMu53,44,C,REL,Trunk_Lateral,1,R_MTF,103.80075070683479
BMu53,45,P,INI,Trunk_Lateral,1,L_MTF,118.43425712110395
BMu53,45,P,INI,Trunk_Lateral,1,R_MTF,72.62654672080025
BMu53,45,P,REL,Trunk_Lateral,1,L_MTF,136.98436711218633
BMu53,45,P,REL,Trunk_Lateral,1,R_MTF,92.18730208382267
BMu53,46,C,INI,Trunk_Lateral,1,L_MTF,43.11132129816166
BMu53,46,C,INI,Trunk_Lateral,1,R_MTF,84.79337767155933
BMu53,46,C,REL,Trunk_Lateral,1,L_MTF,37.782074459318586
BMu53,46,C,REL,Trunk_Lateral,1,R_MTF,66.63701286437174
BMu53,47,P,INI,Trunk_Lateral,1,L_MTF,86.98603615746306
BMu53,47,P,INI,Trunk_Lateral,1,R_MTF,33.621562826542984
BMu53,47,P,REL,Trunk_Lateral,1,L_MTF,99.730322952378
BMu53,47,P,REL,Trunk_Lateral,1,R_MTF,44.95950303346094
BMu53,48,C,INI,Trunk_Lateral,1,L_MTF,117.5528489460134
BMu53,48,C,INI,Trunk_Lateral,1,R_MTF,111.11270504480619
BMu53,48,C,REL,Trunk_Lateral,1,L_MTF,115.17755571292435
BMu53,48,C,REL,Trunk_Lateral,1,R_MTF,126.63835898962402
BMu53,49,C,INI,Trunk_Lateral,1,L_MTF,118.81067638295421
BMu53,49,C,INI,Trunk_Lateral,1,R_MTF,123.51774950694045
BMu53,49,C,REL,Trunk_Lateral,1,L_MTF,99.75038992696307
BMu53,49,C,REL,Trunk_Lateral,1,R_MTF,121.36059195443295
BMu53,50,P,INI,Trunk_Lateral,1,L_MTF,139.541581728995
BMu53,50,P,INI,Trunk_Lateral,1,R_MTF,112.213242382543
BMu53,50,P,REL,Trunk_Lateral,1,L_MTF,112.7599984884003
BMu53,50,P,REL,Trunk_Lateral,1,R_MTF,119.5174952146787
BMu53,51,P,INI,Trunk_Lateral,1,L_MTF,88.27986117573634
BMu53,51,P,INI,Trunk_Lateral,1,R_MTF,69.09616049627914
BMu53,51,P,REL,Trunk_Lateral,1,L_MTF,86.03214448930161
BMu53,51,P,REL,Trunk_Lateral,1,R_MTF,79.58925484661732
BMu53,52,C,INI,Trunk_Lateral,1,L_MTF,115.50127999495048
BMu53,52,C,INI,Trunk_Lateral,1,R_MTF,108.5059522326424
BMu53,52,C,REL,Trunk_Lateral,1,L_MTF,101.24351677681967
BMu53,52,C,REL,Trunk_Lateral,1,R_MTF,109.30734536459546
BMu53,53,P,INI,Trunk_Lateral,1,L_MTF,90.43815523482675
BMu53,53,P,INI,Trunk_Lateral,1,R_MTF,88.7538177749554
BMu53,53,P,REL,Trunk_Lateral,1,L_MTF,57.50339647026448
BMu53,53,P,REL,Trunk_Lateral,1,R_MTF,76.19923897989723
BMu53,54,P,INI,Trunk_Lateral,1,L_MTF,87.27890876689166
BMu53,54,P,INI,Trunk_Lateral,1,R_MTF,92.50393870490574
BMu53,54,P,REL,Trunk_Lateral,1,L_MTF,74.0199864135638
BMu53,54,P,REL,Trunk_Lateral,1,R_MTF,88.19269773420076
BMu53,55,C,INI,Trunk_Lateral,1,L_MTF,29.3700715376384
BMu53,55,C,INI,Trunk_Lateral,1,R_MTF,83.71571848249914
BMu53,55,C,REL,Trunk_Lateral,1,L_MTF,71.71510533928397
BMu53,55,C,REL,Trunk_Lateral,1,R_MTF,78.10156135160015
BMu53,56,C,INI,Trunk_Lateral,1,L_MTF,50.419381496446626
BMu53,56,C,INI,Trunk_Lateral,1,R_MTF,72.30224148654406
BMu53,56,C,REL,Trunk_Lateral,1,L_MTF,57.598666937752604
BMu53,56,C,REL,Trunk_Lateral,1,R_MTF,58.99179047982155
BMu53,57,C,INI,Trunk_Lateral,1,L_MTF,30.260132441426617
BMu53,57,C,INI,Trunk_Lateral,1,R_MTF,48.13949587178292
BMu53,57,C,REL,Trunk_Lateral,1,L_MTF,50.11200653319262
BMu53,57,C,REL,Trunk_Lateral,1,R_MTF,70.77130416363332
BMu53,58,P,INI,Trunk_Lateral,1,L_MTF,21.381650895535937
BMu53,58,P,INI,Trunk_Lateral,1,R_MTF,25.286043710194207
BMu53,58,P,REL,Trunk_Lateral,1,L_MTF,32.81885255209317
BMu53,58,P,REL,Trunk_Lateral,1,R_MTF,81.40928741162465
BMu53,60,C,INI,Trunk_Lateral,1,L_MTF,102.76056096084382
BMu53,60,C,INI,Trunk_Lateral,1,R_MTF,114.44663592143866
BMu53,60,C,REL,Trunk_Lateral,1,L_MTF,85.72790839458169
BMu53,60,C,REL,Trunk_Lateral,1,R_MTF,103.23796428461428
BMu53,61,P,INI,Trunk_Lateral,1,L_MTF,63.9040558007106
BMu53,61,P,INI,Trunk_Lateral,1,R_MTF,83.18018231918344
BMu53,61,P,REL,Trunk_Lateral,1,L_MTF,71.54708404994408
BMu53,61,P,REL,Trunk_Lateral,1,R_MTF,77.74669943570318
BMu53,62,P,INI,Trunk_Lateral,1,L_MTF,111.51794220192141
BMu53,62,P,INI,Trunk_Lateral,1,R_MTF,91.24504823718682
BMu53,62,P,REL,Trunk_Lateral,1,L_MTF,101.57782619392982
BMu53,62,P,REL,Trunk_Lateral,1,R_MTF,89.80150185375237
BMu53,63,P,INI,Trunk_Lateral,1,L_MTF,82.26917040966751
BMu53,63,P,INI,Trunk_Lateral,1,R_MTF,123.0044375970503
BMu53,63,P,REL,Trunk_Lateral,1,L_MTF,110.70365045309404
BMu53,63,P,REL,Trunk_Lateral,1,R_MTF,89.2388718121013
BMu53,64,C,INI,Trunk_Lateral,1,L_MTF,109.00314304534534
BMu53,64,C,INI,Trunk_Lateral,1,R_MTF,94.55325551077073
BMu53,64,C,REL,Trunk_Lateral,1,L_MTF,105.08101608223645
BMu53,64,C,REL,Trunk_Lateral,1,R_MTF,89.02053543396981
BMu53,65,P,INI,Trunk_Lateral,1,L_MTF,89.13218526243055
BMu53,65,P,INI,Trunk_Lateral,1,R_MTF,87.89343422291847
BMu53,65,P,REL,Trunk_Lateral,1,L_MTF,92.22973789033279
BMu53,65,P,REL,Trunk_Lateral,1,R_MTF,84.90907666721647
BMu53,66,C,INI,Trunk_Lateral,1,L_MTF,29.526689043900273
BMu53,66,C,INI,Trunk_Lateral,1,R_MTF,124.80366090587813
BMu53,66,C,REL,Trunk_Lateral,1,L_MTF,56.654564714504794
BMu53,66,C,REL,Trunk_Lateral,1,R_MTF,83.13371311702763
BMu53,67,C,INI,Trunk_Lateral,1,L_MTF,91.40659963129856
BMu53,67,C,INI,Trunk_Lateral,1,R_MTF,82.09003286984938
BMu53,67,C,REL,Trunk_Lateral,1,L_MTF,59.64451411651667
BMu53,67,C,REL,Trunk_Lateral,1,R_MTF,95.60835670107194
BMu53,68,C,INI,Trunk_Lateral,1,L_MTF,80.4892439589793
BMu53,68,C,INI,Trunk_Lateral,1,R_MTF,71.32691683486762
BMu53,68,C,REL,Trunk_Lateral,1,L_MTF,106.75680261780288
BMu53,68,C,REL,Trunk_Lateral,1,R_MTF,77.04507865674225
