BM,subject,P_C,session,task,repetition,channel,value
BMu68,1,C,INI,Posture_Sitting,1,L_MTF,8.928885886310015
BMu68,1,C,INI,Posture_Sitting,1,R_MTF,7.95960942563299
BMu68,1,C,REL,Posture_Sitting,1,L_MTF,10.19251172737075
BMu68,1,C,REL,Posture_Sitting,1,R_MTF,8.303944851030726
BMu68,2,C,INI,Posture_Sitting,1,L_MTF,3.0883321830203267
BMu68,2,C,INI,Posture_Sitting,1,R_MTF,4.049312436600953
BMu68,2,C,REL,Posture_Sitting,1,L_MTF,3.8327760187367166
BMu68,2,C,REL,Posture_Sitting,1,R_MTF,3.963058783573802
BMu68,3,C,INI,Posture_Sitting,1,L_MTF,9.900838887240685
BMu68,3,C,INI,Posture_Sitting,1,R_MTF,11.13118121320891
BMu68,3,C,REL,Posture_Sitting,1,L_MTF,12.334816073117489
BMu68,3,C,REL,Posture_Sitting,1,R_MTF,10.31933125622179
BMu68,5,C,INI,Posture_Sitting,1,L_MTF,2.0416809574845813
BMu68,5,C,INI,Posture_Sitting,1,R_MTF,3.0139098258306687
BMu68,5,C,REL,Posture_Sitting,1,L_MTF,1.768600646838523
BMu68,5,C,REL,Posture_Sitting,1,R_MTF,3.882370436368242
BMu68,6,C,INI,Posture_Sitting,1,L_MTF,21.42481875716061
BMu68,6,C,INI,Posture_Sitting,1,R_MTF,26.604984392799647
BMu68,6,C,REL,Posture_Sitting,1,L_MTF,21.133983851854634
BMu68,6,C,REL,Posture_Sitting,1,R_MTF,15.577446466523885
BMu68,7,C,INI,Posture_Sitting,1,L_MTF,3.7234139486533393
BMu68,7,C,INI,Posture_Sitting,1,R_MTF,3.0945983406158866
BMu68,7,C,REL,Posture_Sitting,1,L_MTF,2.2474437872576765
BMu68,7,C,REL,Posture_Sitting,1,R_MTF,2.0705854782460014
BMu68,8,C,INI,Posture_Sitting,1,L_MTF,44.00039026574915
BMu68,8,C,INI,Posture_Sitting,1,R_MTF,8.82480994763802
BMu68,8,C,REL,Posture_Sitting,1,L_MTF,6.349412897566445
BMu68,8,C,REL,Posture_Sitting,1,R_MTF,8.857014547185054
BMu68,9,P,INI,Posture_Sitting,1,L_MTF,29.259671311170262
BMu68,9,P,INI,Posture_Sitting,1,R_MTF,7.120889389876504
BMu68,9,P,REL,Posture_Sitting,1,L_MTF,8.429707667187474
BMu68,9,P,REL,Posture_Sitting,1,R_MTF,5.675543304293751
BMu68,10,P,INI,Posture_Sitting,1,L_MTF,38.02382663309593
BMu68,10,P,INI,Posture_Sitting,1,R_MTF,173.91646497393026
BMu68,10,P,REL,Posture_Sitting,1,L_MTF,6.48394183060469
BMu68,10,P,REL,Posture_Sitting,1,R_MTF,22.31467929151237
BMu68,11,P,INI,Posture_Sitting,1,L_MTF,3.1112133405776476
BMu68,11,P,INI,Posture_Sitting,1,R_MTF,28.639027396578943
BMu68,11,P,REL,Posture_Sitting,1,L_MTF,3.6139911882180997
BMu68,11,P,REL,Posture_Sitting,1,R_MTF,9.68799208883604
BMu68,12,P,INI,Posture_Sitting,1,L_MTF,26.164763392385918
BMu68,12,P,INI,Posture_Sitting,1,R_MTF,15.248048206094252
BMu68,12,P,REL,Posture_Sitting,1,L_MTF,14.254365047111621
BMu68,12,P,REL,Posture_Sitting,1,R_MTF,110.25371064626664
BMu68,13,C,INI,Posture_Sitting,1,L_MTF,12.280476116755695
BMu68,13,C,INI,Posture_Sitting,1,R_MTF,8.18052405232356
BMu68,13,C,REL,Posture_Sitting,1,L_MTF,10.926719734214863
BMu68,13,C,REL,Posture_Sitting,1,R_MTF,9.430713703119556
BMu68,14,P,INI,Posture_Sitting,1,L_MTF,6.9042532483974135
BMu68,14,P,INI,Posture_Sitting,1,R_MTF,11.583748147426235
BMu68,14,P,REL,Posture_Sitting,1,L_MTF,8.161727724012438
BMu68,14,P,REL,Posture_Sitting,1,R_MTF,10.01481642418538
BMu68,16,C,INI,Posture_Sitting,1,L_MTF,7.28161656221629
BMu68,16,C,INI,Posture_Sitting,1,R_MTF,77.37826837493503
BMu68,16,C,REL,Posture_Sitting,1,L_MTF,10.938525428103917
BMu68,16,C,REL,Posture_Sitting,1,R_MTF,11.688925214824465
BMu68,17,P,INI,Posture_Sitting,1,L_MTF,12.45621584144715
BMu68,17,P,INI,Posture_Sitting,1,R_MTF,11.969061257362107
BMu68,17,P,REL,Posture_Sitting,1,L_MTF,9.235357495001946
BMu68,17,P,REL,Posture_Sitting,1,R_MTF,14.15733918215582
BMu68,21,C,INI,Posture_Sitting,1,L_MTF,49.365736340923625
BMu68,21,C,INI,Posture_Sitting,1,R_MTF,5.258134018422529
BMu68,21,C,REL,Posture_Sitting,1,L_MTF,3.6529132152410138
BMu68,21,C,REL,Posture_Sitting,1,R_MTF,5.172241688883593
BMu68,22,C,INI,Posture_Sitting,1,L_MTF,13.388383460618943
BMu68,22,C,INI,Posture_Sitting,1,R_MTF,7.187132376437131
BMu68,22,C,REL,Posture_Sitting,1,L_MTF,11.197230571510703
BMu68,22,C,REL,Posture_Sitting,1,R_MTF,9.338635001927633
BMu68,23,C,INI,Posture_Sitting,1,L_MTF,5.849224021270982
BMu68,23,C,INI,Posture_Sitting,1,R_MTF,8.634865742937295
BMu68,23,C,REL,Posture_Sitting,1,L_MTF,6.2720218729261505
BMu68,23,C,REL,Posture_Sitting,1,R_MTF,6.26858212860207
BMu68,24,P,INI,Posture_Sitting,1,L_MTF,7.891223607284732
BMu68,24,P,INI,Posture_Sitting,1,R_MTF,14.914548893745055
BMu68,24,P,REL,Posture_Sitting,1,L_MTF,6.092365482597043
BMu68,24,P,REL,Posture_Sitting,1,R_MTF,9.939785733533324
BMu68,25,C,INI,Posture_Sitting,1,L_MTF,34.75355157106953
BMu68,25,C,INI,Posture_Sitting,1,R_MTF,2.7444011118971767
BMu68,25,C,REL,Posture_Sitting,1,L_MTF,5.11791258933241
BMu68,25,C,REL,Posture_Sitting,1,R_MTF,3.08753565325699
BMu68,26,P,INI,Posture_Sitting,1,L_MTF,16.63900732237097
BMu68,26,P,INI,Posture_Sitting,1,R_MTF,15.38207418706662
BMu68,26,P,REL,Posture_Sitting,1,L_MTF,15.362009053225298
BMu68,26,P,REL,Posture_Sitting,1,R_MTF,10.723054540739339
BMu68,27,P,INI,Posture_Sitting,1,L_MTF,4.91438037104555
BMu68,27,P,INI,Posture_Sitting,1,R_MTF,8.962173689325777
BMu68,27,P,REL,Posture_Sitting,1,L_MTF,6.575166505436745
BMu68,27,P,REL,Posture_Sitting,1,R_MTF,7.133538572008053
BMu68,28,P,INI,Posture_Sitting,1,L_MTF,15.22997619569635
BMu68,28,P,INI,Posture_Sitting,1,R_MTF,17.290385406085417
BMu68,28,P,REL,Posture_Sitting,1,L_MTF,11.398616337145853
BMu68,28,P,REL,Posture_Sitting,1,R_MTF,7.455936374150117
BMu68,29,P,INI,Posture_Sitting,1,L_MTF,1.73438953809216
BMu68,29,P,INI,Posture_Sitting,1,R_MTF,3.452206709553222
BMu68,29,P,REL,Posture_Sitting,1,L_MTF,2.7923807253266597
BMu68,29,P,REL,Posture_Sitting,1,R_MTF,5.0962713221943305
BMu68,30,P,INI,Posture_Sitting,1,L_MTF,62.32079237187318
BMu68,30,P,INI,Posture_Sitting,1,R_MTF,13.9297007681493
BMu68,30,P,REL,Posture_Sitting,1,L_MTF,14.932245878783904
BMu68,30,P,REL,Posture_Sitting,1,R_MTF,27.101026577778555
BMu68,32,P,INI,Posture_Sitting,1,L_MTF,6.431129355989479
BMu68,32,P,INI,Posture_Sitting,1,R_MTF,8.698879179515576
BMu68,32,P,REL,Posture_Sitting,1,L_MTF,15.481811558960054
BMu68,32,P,REL,Posture_Sitting,1,R_MTF,20.306024491242603
BMu68,33,P,INI,Posture_Sitting,1,L_MTF,26.37872099411953
BMu68,33,P,INI,Posture_Sitting,1,R_MTF,26.264278402361153
BMu68,33,P,REL,Posture_Sitting,1,L_MTF,34.28450407604812
BMu68,33,P,REL,Posture_Sitting,1,R_MTF,22.95813124381628
BMu68,34,P,INI,Posture_Sitting,1,L_MTF,8.661092713083058
BMu68,34,P,INI,Posture_Sitting,1,R_MTF,11.222647688881462
BMu68,34,P,REL,Posture_Sitting,1,L_MTF,6.749221677670053
BMu68,34,P,REL,Posture_Sitting,1,R_MTF,11.507982238654948
BMu68,35,C,INI,Posture_Sitting,1,L_MTF,2.9925756022978294
BMu68,35,C,INI,Posture_Sitting,1,R_MTF,3.2912075519488893
BMu68,35,C,REL,Posture_Sitting,1,L_MTF,3.383977121496122
BMu68,35,C,REL,Posture_Sitting,1,R_MTF,4.644090179991865
BMu68,36,P,INI,Posture_Sitting,1,L_MTF,2.358668445236732
BMu68,36,P,INI,Posture_Sitting,1,R_MTF,3.89943619726763
BMu68,36,P,REL,Posture_Sitting,1,L_MTF,2.34764373905703
BMu68,36,P,REL,Posture_Sitting,1,R_MTF,4.652767879909716
BMu68,38,C,INI,Posture_Sitting,1,L_MTF,11.359338781823858
BMu68,38,C,INI,Posture_Sitting,1,R_MTF,7.748819251153079
BMu68,38,C,REL,Posture_Sitting,1,L_MTF,8.641166742967306
BMu68,38,C,REL,Posture_Sitting,1,R_MTF,8.626856442418301
BMu68,39,C,INI,Posture_Sitting,1,L_MTF,4.237415754912157
BMu68,39,C,INI,Posture_Sitting,1,R_MTF,7.116671379118212
BMu68,39,C,REL,Posture_Sitting,1,L_MTF,6.173321055587276
BMu68,39,C,REL,Posture_Sitting,1,R_MTF,9.915594320839581
BMu68,40,C,INI,Posture_Sitting,1,L_MTF,3.0598245632479397
BMu68,40,C,INI,Posture_Sitting,1,R_MTF,2.651311972066661
BMu68,40,C,REL,Posture_Sitting,1,L_MTF,2.4164090984643156
BMu68,40,C,REL,Posture_Sitting,1,R_MTF,4.191515951858152
BMu68,41,P,INI,Posture_Sitting,1,L_MTF,2.90055547722035
BMu68,41,P,INI,Posture_Sitting,1,R_MTF,6.265017206517853
BMu68,41,P,REL,Posture_Sitting,1,L_MTF,4.14856503859557
BMu68,41,P,REL,Posture_Sitting,1,R_MTF,18.539665587911454
BMu68,42,P,INI,Posture_Sitting,1,L_MTF,4.328059812521044
BMu68,42,P,INI,Posture_Sitting,1,R_MTF,8.616568922665977
BMu68,42,P,REL,Posture_Sitting,1,L_MTF,3.084652326958074
BMu68,42,P,REL,Posture_Sitting,1,R_MTF,5.571747732002436
BMu68,43,P,INI,Posture_Sitting,1,L_MTF,2.397483339713816
BMu68,43,P,INI,Posture_Sitting,1,R_MTF,4.586608741797191
BMu68,43,P,REL,Posture_Sitting,1,L_MTF,3.9009344323251924
BMu68,43,P,REL,Posture_Sitting,1,R_MTF,10.973713152096778
BMu68,44,C,INI,Posture_Sitting,1,L_MTF,91.04735533245895
BMu68,44,C,INI,Posture_Sitting,1,R_MTF,8.286265377741296
BMu68,44,C,REL,Posture_Sitting,1,L_MTF,5.2948348139066725
BMu68,44,C,REL,Posture_Sitting,1,R_MTF,5.171596569571887
BMu68,45,P,INI,Posture_Sitting,1,L_MTF,6.189211852462804
BMu68,45,P,INI,Posture_Sitting,1,R_MTF,10.153961240032407
BMu68,45,P,REL,Posture_Sitting,1,L_MTF,6.584655389236119
BMu68,45,P,REL,Posture_Sitting,1,R_MTF,9.149425423003967
BMu68,46,C,INI,Posture_Sitting,1,L_MTF,7.496152227904589
BMu68,46,C,INI,Posture_Sitting,1,R_MTF,6.273994464094375
BMu68,46,C,REL,Posture_Sitting,1,L_MTF,3.6976758842407755
BMu68,46,C,REL,Posture_Sitting,1,R_MTF,4.398781197009265
BMu68,47,P,INI,Posture_Sitting,1,L_MTF,1.8671308497877168
BMu68,47,P,INI,Posture_Sitting,1,R_MTF,6.6872499415623
BMu68,47,P,REL,Posture_Sitting,1,L_MTF,2.15358532433358
BMu68,47,P,REL,Posture_Sitting,1,R_MTF,3.2801634578412826
BMu68,48,C,INI,Posture_Sitting,1,L_MTF,9.975989621716844
BMu68,48,C,INI,Posture_Sitting,1,R_MTF,4.591736687545145
BMu68,48,C,REL,Posture_Sitting,1,L_MTF,3.7303040534147693
BMu68,48,C,REL,Posture_Sitting,1,R_MTF,5.0340895890159905
BMu68,49,C,INI,Posture_Sitting,1,L_MTF,7.816146637046098
BMu68,49,C,INI,Posture_Sitting,1,R_MTF,3.633602488743315
BMu68,49,C,REL,Posture_Sitting,1,L_MTF,16.58159534136517
BMu68,49,C,REL,Posture_Sitting,1,R_MTF,18.686059488471038
BMu68,50,P,INI,Posture_Sitting,1,L_MTF,12.901938014824983
BMu68,50,P,INI,Posture_Sitting,1,R_MTF,11.21171118849298
BMu68,50,P,REL,Posture_Sitting,1,L_MTF,8.052290075696448
BMu68,50,P,REL,Posture_Sitting,1,R_MTF,8.45557540354203
BMu68,51,P,INI,Posture_Sitting,1,L_MTF,8.438687917175944
BMu68,51,P,INI,Posture_Sitting,1,R_MTF,6.563367734865722
BMu68,51,P,REL,Posture_Sitting,1,L_MTF,9.602541713345422
BMu68,51,P,REL,Posture_Sitting,1,R_MTF,11.81726648406111
BMu68,52,C,INI,Posture_Sitting,1,L_MTF,1.3326112440120605
BMu68,52,C,INI,Posture_Sitting,1,R_MTF,2.9845300281412506
BMu68,52,C,REL,Posture_Sitting,1,L_MTF,1.5657567978040956
BMu68,52,C,REL,Posture_Sitting,1,R_MTF,2.5659287694653963
BMu68,53,P,INI,Posture_Sitting,1,L_MTF,5.19398794080638
BMu68,53,P,INI,Posture_Sitting,1,R_MTF,5.978610594619838
BMu68,53,P,REL,Posture_Sitting,1,L_MTF,11.380221380495758
BMu68,53,P,REL,Posture_Sitting,1,R_MTF,5.333218491269225
BMu68,54,P,INI,Posture_Sitting,1,L_MTF,6.038383827828156
BMu68,54,P,INI,Posture_Sitting,1,R_MTF,5.03501770918041
BMu68,54,P,REL,Posture_Sitting,1,L_MTF,6.3103797680919715
BMu68,54,P,REL,Posture_Sitting,1,R_MTF,3.5165196719467
BMu68,55,C,INI,Posture_Sitting,1,L_MTF,5.185163428197069
BMu68,55,C,INI,Posture_Sitting,1,R_MTF,4.820778187451029
BMu68,55,C,REL,Posture_Sitting,1,L_MTF,5.986737199812983
BMu68,55,C,REL,Posture_Sitting,1,R_MTF,5.0504828278292395
BMu68,56,C,INI,Posture_Sitting,1,L_MTF,9.468418099726115
BMu68,56,C,INI,Posture_Sitting,1,R_MTF,6.472021729128678
BMu68,56,C,REL,Posture_Sitting,1,L_MTF,14.637735017439677
BMu68,56,C,REL,Posture_Sitting,1,R_MTF,6.9206160396673555
BMu68,57,C,INI,Posture_Sitting,1,L_MTF,31.974771512231907
BMu68,57,C,INI,Posture_Sitting,1,R_MTF,4.916471729949115
BMu68,57,C,REL,Posture_Sitting,1,L_MTF,4.755735644063813
BMu68,57,C,REL,Posture_Sitting,1,R_MTF,6.616412809006926
BMu68,58,P,INI,Posture_Sitting,1,L_MTF,7.36331344285814
BMu68,58,P,INI,Posture_Sitting,1,R_MTF,17.60613746410086
BMu68,58,P,REL,Posture_Sitting,1,L_MTF,24.641331797284828
BMu68,58,P,REL,Posture_Sitting,1,R_MTF,8.60679284496085
BMu68,60,C,INI,Posture_Sitting,1,L_MTF,2.643748717076766
BMu68,60,C,INI,Posture_Sitting,1,R_MTF,3.2048653775020277
BMu68,60,C,REL,Posture_Sitting,1,L_MTF,3.16817783799859
BMu68,60,C,REL,Posture_Sitting,1,R_MTF,3.882442269552533
BMu68,61,P,REL,Posture_Sitting,1,L_MTF,12.77102802864815
BMu68,61,P,REL,Posture_Sitting,1,R_MTF,11.057235768426793
BMu68,62,P,INI,Posture_Sitting,1,L_MTF,11.602146659253808
BMu68,62,P,INI,Posture_Sitting,1,R_MTF,7.949649033165749
BMu68,62,P,REL,Posture_Sitting,1,L_MTF,11.567517745737439
BMu68,62,P,REL,Posture_Sitting,1,R_MTF,5.957096121416839
BMu68,63,P,INI,Posture_Sitting,1,L_MTF,14.096975214886445
BMu68,63,P,INI,Posture_Sitting,1,R_MTF,6.48034033932986
BMu68,63,P,REL,Posture_Sitting,1,L_MTF,7.3828158265704875
BMu68,63,P,REL,Posture_Sitting,1,R_MTF,10.631064573755605
BMu68,64,C,INI,Posture_Sitting,1,L_MTF,1.907607292766527
BMu68,64,C,INI,Posture_Sitting,1,R_MTF,2.1169095575500747
BMu68,64,C,REL,Posture_Sitting,1,L_MTF,1.8200014451274562
BMu68,64,C,REL,Posture_Sitting,1,R_MTF,2.7012674854920578
BMu68,65,P,INI,Posture_Sitting,1,L_MTF,8.860966501551275
BMu68,65,P,INI,Posture_Sitting,1,R_MTF,15.782986782121096
BMu68,65,P,REL,Posture_Sitting,1,L_MTF,13.45606314754922
BMu68,65,P,REL,Posture_Sitting,1,R_MTF,18.389558938296133
BMu68,66,C,INI,Posture_Sitting,1,L_MTF,5.065167949846724
BMu68,66,C,INI,Posture_Sitting,1,R_MTF,5.10503299344005
BMu68,66,C,REL,Posture_Sitting,1,L_MTF,4.838769872550181
BMu68,66,C,REL,Posture_Sitting,1,R_MTF,5.484751489934103
BMu68,67,C,INI,Posture_Sitting,1,L_MTF,3.328775729880006
BMu68,67,C,INI,Posture_Sitting,1,R_MTF,37.35694238371731
BMu68,67,C,REL,Posture_Sitting,1,L_MTF,2.6764601924185563
BMu68,67,C,REL,Posture_Sitting,1,R_MTF,10.726203171976493
BMu68,68,C,INI,Posture_Sitting,1,L_MTF,3.222740366679987
BMu68,68,C,INI,Posture_Sitting,1,R_MTF,5.605559572844749
BMu68,68,C,REL,Posture_Sitting,1,L_MTF,2.4969240635917127
BMu68,68,C,REL,Posture_Sitting,1,R_MTF,4.392794230095835
