BM,subject,P_C,session,task,repetition,channel,value
BMu67,1,C,INI,Posture_Sitting,1,L_ESI,24.61682646324135
BMu67,1,C,INI,Posture_Sitting,1,R_ESI,25.36806238945287
BMu67,1,C,REL,Posture_Sitting,1,L_ESI,18.96729661055488
BMu67,1,C,REL,Posture_Sitting,1,R_ESI,26.034248216036502
BMu67,2,C,INI,Posture_Sitting,1,L_ESI,9.336712704182865
BMu67,2,C,INI,Posture_Sitting,1,R_ESI,34.20883142510694
BMu67,2,C,REL,Posture_Sitting,1,L_ESI,24.83066630867971
BMu67,2,C,REL,Posture_Sitting,1,R_ESI,23.903592037531933
BMu67,3,C,INI,Posture_Sitting,1,L_ESI,23.40580482541027
BMu67,3,C,INI,Posture_Sitting,1,R_ESI,32.390695896262706
BMu67,3,C,REL,Posture_Sitting,1,L_ESI,12.113985827756435
BMu67,3,C,REL,Posture_Sitting,1,R_ESI,24.423448916057215
BMu67,5,C,INI,Posture_Sitting,1,L_ESI,11.609222383168202
BMu67,5,C,INI,Posture_Sitting,1,R_ESI,22.945801985525605
BMu67,5,C,REL,Posture_Sitting,1,L_ESI,14.29917533205075
BMu67,5,C,REL,Posture_Sitting,1,R_ESI,29.160904607701596
BMu67,6,C,INI,Posture_Sitting,1,L_ESI,40.299415402201916
BMu67,6,C,INI,Posture_Sitting,1,R_ESI,43.462076211459625
BMu67,6,C,REL,Posture_Sitting,1,L_ESI,37.16522835108202
BMu67,6,C,REL,Posture_Sitting,1,R_ESI,36.00977853550555
BMu67,7,C,INI,Posture_Sitting,1,L_ESI,8.048262019631245
BMu67,7,C,INI,Posture_Sitting,1,R_ESI,11.622860306978728
BMu67,7,C,REL,Posture_Sitting,1,L_ESI,4.803435598320319
BMu67,7,C,REL,Posture_Sitting,1,R_ESI,8.68899062626513
BMu67,8,C,INI,Posture_Sitting,1,L_ESI,32.617511101703336
BMu67,8,C,INI,Posture_Sitting,1,R_ESI,53.58138977549888
BMu67,8,C,REL,Posture_Sitting,1,L_ESI,30.088477289216275
BMu67,8,C,REL,Posture_Sitting,1,R_ESI,31.574150624182987
BMu67,9,P,INI,Posture_Sitting,1,L_ESI,10.941206373764166
BMu67,9,P,INI,Posture_Sitting,1,R_ESI,22.718704583732645
BMu67,9,P,REL,Posture_Sitting,1,L_ESI,13.725051664136528
BMu67,9,P,REL,Posture_Sitting,1,R_ESI,23.517465117840146
BMu67,10,P,INI,Posture_Sitting,1,L_ESI,41.82712557445699
BMu67,10,P,INI,Posture_Sitting,1,R_ESI,34.83600037157519
BMu67,10,P,REL,Posture_Sitting,1,L_ESI,19.4160989437995
BMu67,10,P,REL,Posture_Sitting,1,R_ESI,57.415733719460555
BMu67,11,P,INI,Posture_Sitting,1,L_ESI,10.378517410278425
BMu67,11,P,INI,Posture_Sitting,1,R_ESI,20.05810807749982
BMu67,11,P,REL,Posture_Sitting,1,L_ESI,19.581975942892214
BMu67,11,P,REL,Posture_Sitting,1,R_ESI,18.65859859076819
BMu67,12,P,INI,Posture_Sitting,1,L_ESI,40.04127733316327
BMu67,12,P,INI,Posture_Sitting,1,R_ESI,24.910399942318843
BMu67,12,P,REL,Posture_Sitting,1,L_ESI,20.685937626425375
BMu67,12,P,REL,Posture_Sitting,1,R_ESI,15.635131257108613
BMu67,13,C,INI,Posture_Sitting,1,L_ESI,26.819374407946153
BMu67,13,C,INI,Posture_Sitting,1,R_ESI,20.89661567969263
BMu67,13,C,REL,Posture_Sitting,1,L_ESI,22.453418915511023
BMu67,13,C,REL,Posture_Sitting,1,R_ESI,28.2953231054254
BMu67,14,P,INI,Posture_Sitting,1,L_ESI,16.41367718655794
BMu67,14,P,INI,Posture_Sitting,1,R_ESI,47.55460023169923
BMu67,14,P,REL,Posture_Sitting,1,L_ESI,26.5619339644052
BMu67,14,P,REL,Posture_Sitting,1,R_ESI,42.08074248998019
BMu67,16,C,INI,Posture_Sitting,1,L_ESI,36.440525171224614
BMu67,16,C,INI,Posture_Sitting,1,R_ESI,59.05390420954621
BMu67,16,C,REL,Posture_Sitting,1,L_ESI,45.198937517033016
BMu67,16,C,REL,Posture_Sitting,1,R_ESI,54.29064615895541
BMu67,17,P,INI,Posture_Sitting,1,L_ESI,14.295486491867969
BMu67,17,P,INI,Posture_Sitting,1,R_ESI,40.328025968766305
BMu67,17,P,REL,Posture_Sitting,1,L_ESI,12.596497501512145
BMu67,17,P,REL,Posture_Sitting,1,R_ESI,12.171615375350733
BMu67,21,C,INI,Posture_Sitting,1,L_ESI,12.538400322651762
BMu67,21,C,INI,Posture_Sitting,1,R_ESI,19.658067199607306
BMu67,21,C,REL,Posture_Sitting,1,L_ESI,11.04739781245351
BMu67,21,C,REL,Posture_Sitting,1,R_ESI,72.19235175843893
BMu67,22,C,INI,Posture_Sitting,1,L_ESI,25.519927653428383
BMu67,22,C,INI,Posture_Sitting,1,R_ESI,21.621696623096636
BMu67,22,C,REL,Posture_Sitting,1,L_ESI,26.719858916474504
BMu67,22,C,REL,Posture_Sitting,1,R_ESI,31.02976782758704
BMu67,23,C,INI,Posture_Sitting,1,L_ESI,16.074648625609967
BMu67,23,C,INI,Posture_Sitting,1,R_ESI,52.20956085136546
BMu67,23,C,REL,Posture_Sitting,1,L_ESI,11.26487595862744
BMu67,23,C,REL,Posture_Sitting,1,R_ESI,10.453548303012136
BMu67,24,P,INI,Posture_Sitting,1,L_ESI,46.015966443336445
BMu67,24,P,INI,Posture_Sitting,1,R_ESI,51.13269763748557
BMu67,24,P,REL,Posture_Sitting,1,L_ESI,26.267368036971607
BMu67,24,P,REL,Posture_Sitting,1,R_ESI,42.55882114590451
BMu67,25,C,INI,Posture_Sitting,1,L_ESI,19.211044133333676
BMu67,25,C,INI,Posture_Sitting,1,R_ESI,16.98926396208844
BMu67,25,C,REL,Posture_Sitting,1,L_ESI,10.869849743080103
BMu67,25,C,REL,Posture_Sitting,1,R_ESI,22.336911009632434
BMu67,26,P,INI,Posture_Sitting,1,L_ESI,17.82092771131129
BMu67,26,P,INI,Posture_Sitting,1,R_ESI,22.25011529002641
BMu67,26,P,REL,Posture_Sitting,1,L_ESI,22.50714302507866
BMu67,26,P,REL,Posture_Sitting,1,R_ESI,76.09245502520865
BMu67,27,P,INI,Posture_Sitting,1,L_ESI,16.152601362809033
BMu67,27,P,INI,Posture_Sitting,1,R_ESI,20.20744676741033
BMu67,27,P,REL,Posture_Sitting,1,L_ESI,14.769731908116663
BMu67,27,P,REL,Posture_Sitting,1,R_ESI,25.236023097405607
BMu67,28,P,INI,Posture_Sitting,1,L_ESI,15.49382810203818
BMu67,28,P,INI,Posture_Sitting,1,R_ESI,19.784314789513203
BMu67,28,P,REL,Posture_Sitting,1,L_ESI,17.531443243598034
BMu67,28,P,REL,Posture_Sitting,1,R_ESI,18.025869603042427
BMu67,29,P,INI,Posture_Sitting,1,L_ESI,9.170114298537943
BMu67,29,P,INI,Posture_Sitting,1,R_ESI,20.585032772049868
BMu67,29,P,REL,Posture_Sitting,1,L_ESI,9.79003080872551
BMu67,29,P,REL,Posture_Sitting,1,R_ESI,2.311485594902283
BMu67,30,P,INI,Posture_Sitting,1,L_ESI,13.639043255579018
BMu67,30,P,INI,Posture_Sitting,1,R_ESI,14.200612715844779
BMu67,30,P,REL,Posture_Sitting,1,L_ESI,14.78181528563219
BMu67,30,P,REL,Posture_Sitting,1,R_ESI,23.468949457063445
BMu67,32,P,INI,Posture_Sitting,1,L_ESI,8.651007671594696
BMu67,32,P,INI,Posture_Sitting,1,R_ESI,22.79954846345261
BMu67,32,P,REL,Posture_Sitting,1,L_ESI,12.987392341811935
BMu67,32,P,REL,Posture_Sitting,1,R_ESI,28.32396251272643
BMu67,33,P,INI,Posture_Sitting,1,L_ESI,6.717380816156175
BMu67,33,P,INI,Posture_Sitting,1,R_ESI,6.726430992002016
BMu67,33,P,REL,Posture_Sitting,1,L_ESI,12.608188649025609
BMu67,33,P,REL,Posture_Sitting,1,R_ESI,54.27833396341084
BMu67,34,P,INI,Posture_Sitting,1,L_ESI,20.463188576391687
BMu67,34,P,INI,Posture_Sitting,1,R_ESI,25.77086365150463
BMu67,34,P,REL,Posture_Sitting,1,L_ESI,21.384729885786722
BMu67,34,P,REL,Posture_Sitting,1,R_ESI,107.18773972165975
BMu67,35,C,INI,Posture_Sitting,1,L_ESI,13.370192330129735
BMu67,35,C,INI,Posture_Sitting,1,R_ESI,10.384791247436091
BMu67,35,C,REL,Posture_Sitting,1,L_ESI,12.99274475725531
BMu67,35,C,REL,Posture_Sitting,1,R_ESI,16.76798762534971
BMu67,36,P,INI,Posture_Sitting,1,L_ESI,9.562126122205052
BMu67,36,P,INI,Posture_Sitting,1,R_ESI,6.229637769180481
BMu67,36,P,REL,Posture_Sitting,1,L_ESI,8.024383093857379
BMu67,36,P,REL,Posture_Sitting,1,R_ESI,4.8569030664015544
BMu67,38,C,INI,Posture_Sitting,1,L_ESI,20.43731940428631
BMu67,38,C,INI,Posture_Sitting,1,R_ESI,30.955349377795972
BMu67,38,C,REL,Posture_Sitting,1,L_ESI,20.599075371742604
BMu67,38,C,REL,Posture_Sitting,1,R_ESI,28.023541689846866
BMu67,39,C,INI,Posture_Sitting,1,L_ESI,12.432146226584186
BMu67,39,C,INI,Posture_Sitting,1,R_ESI,8.144429981587132
BMu67,39,C,REL,Posture_Sitting,1,L_ESI,12.468546339159907
BMu67,39,C,REL,Posture_Sitting,1,R_ESI,11.423720585594163
BMu67,40,C,INI,Posture_Sitting,1,L_ESI,18.122040392699876
BMu67,40,C,INI,Posture_Sitting,1,R_ESI,15.287684342197105
BMu67,40,C,REL,Posture_Sitting,1,L_ESI,9.125399049213684
BMu67,40,C,REL,Posture_Sitting,1,R_ESI,10.521523713547047
BMu67,41,P,INI,Posture_Sitting,1,L_ESI,18.292382169059394
BMu67,41,P,INI,Posture_Sitting,1,R_ESI,19.905494976044846
BMu67,41,P,REL,Posture_Sitting,1,L_ESI,12.180054919723162
BMu67,41,P,REL,Posture_Sitting,1,R_ESI,12.575536045537264
BMu67,42,P,INI,Posture_Sitting,1,L_ESI,23.886351925643908
BMu67,42,P,INI,Posture_Sitting,1,R_ESI,17.741274464115477
BMu67,42,P,REL,Posture_Sitting,1,L_ESI,25.353603919131118
BMu67,42,P,REL,Posture_Sitting,1,R_ESI,16.94344678479936
BMu67,43,P,INI,Posture_Sitting,1,L_ESI,10.023343008995885
BMu67,43,P,INI,Posture_Sitting,1,R_ESI,20.695317570454062
BMu67,43,P,REL,Posture_Sitting,1,L_ESI,8.540913839792717
BMu67,43,P,REL,Posture_Sitting,1,R_ESI,11.267811957197113
BMu67,44,C,INI,Posture_Sitting,1,L_ESI,26.682563440842255
BMu67,44,C,INI,Posture_Sitting,1,R_ESI,10.589583409387684
BMu67,44,C,REL,Posture_Sitting,1,L_ESI,9.388304630776537
BMu67,44,C,REL,Posture_Sitting,1,R_ESI,9.460952286513312
BMu67,45,P,INI,Posture_Sitting,1,L_ESI,13.935481016175489
BMu67,45,P,INI,Posture_Sitting,1,R_ESI,13.77323467257144
BMu67,45,P,REL,Posture_Sitting,1,L_ESI,13.314951355370797
BMu67,45,P,REL,Posture_Sitting,1,R_ESI,18.186120579527714
BMu67,46,C,INI,Posture_Sitting,1,L_ESI,11.755880126849327
BMu67,46,C,INI,Posture_Sitting,1,R_ESI,16.436190986887972
BMu67,46,C,REL,Posture_Sitting,1,L_ESI,8.126187849717375
BMu67,46,C,REL,Posture_Sitting,1,R_ESI,9.26938630415834
BMu67,47,P,INI,Posture_Sitting,1,L_ESI,21.5425320302232
BMu67,47,P,INI,Posture_Sitting,1,R_ESI,47.01003987213152
BMu67,47,P,REL,Posture_Sitting,1,L_ESI,16.411739615885136
BMu67,47,P,REL,Posture_Sitting,1,R_ESI,22.775379360187447
BMu67,48,C,INI,Posture_Sitting,1,L_ESI,8.769457838859973
BMu67,48,C,INI,Posture_Sitting,1,R_ESI,12.011785569739722
BMu67,48,C,REL,Posture_Sitting,1,L_ESI,11.823493356724533
BMu67,48,C,REL,Posture_Sitting,1,R_ESI,10.466090034530575
BMu67,49,C,INI,Posture_Sitting,1,L_ESI,18.494478610270143
BMu67,49,C,INI,Posture_Sitting,1,R_ESI,16.46161611534579
BMu67,49,C,REL,Posture_Sitting,1,L_ESI,3.808818585200338
BMu67,49,C,REL,Posture_Sitting,1,R_ESI,25.48535676037537
BMu67,50,P,INI,Posture_Sitting,1,L_ESI,18.386666850031787
BMu67,50,P,INI,Posture_Sitting,1,R_ESI,28.649810129580114
BMu67,50,P,REL,Posture_Sitting,1,L_ESI,22.252056675857133
BMu67,50,P,REL,Posture_Sitting,1,R_ESI,24.566981808784902
BMu67,51,P,INI,Posture_Sitting,1,L_ESI,9.35399893240274
BMu67,51,P,INI,Posture_Sitting,1,R_ESI,21.16576171590588
BMu67,51,P,REL,Posture_Sitting,1,L_ESI,6.54031095561126
BMu67,51,P,REL,Posture_Sitting,1,R_ESI,15.27434834336672
BMu67,52,C,INI,Posture_Sitting,1,L_ESI,3.9031541755713968
BMu67,52,C,INI,Posture_Sitting,1,R_ESI,14.260063660534948
BMu67,52,C,REL,Posture_Sitting,1,L_ESI,5.976896641835931
BMu67,52,C,REL,Posture_Sitting,1,R_ESI,18.330818667872524
BMu67,53,P,INI,Posture_Sitting,1,L_ESI,10.087512782216725
BMu67,53,P,INI,Posture_Sitting,1,R_ESI,17.180155840751144
BMu67,53,P,REL,Posture_Sitting,1,L_ESI,11.895738061101591
BMu67,53,P,REL,Posture_Sitting,1,R_ESI,14.347837350487419
BMu67,54,P,INI,Posture_Sitting,1,L_ESI,44.607301707170244
BMu67,54,P,INI,Posture_Sitting,1,R_ESI,34.98949563229464
BMu67,54,P,REL,Posture_Sitting,1,L_ESI,42.64189572850204
BMu67,54,P,REL,Posture_Sitting,1,R_ESI,37.368458282079445
BMu67,55,C,INI,Posture_Sitting,1,L_ESI,11.538159092408359
BMu67,55,C,INI,Posture_Sitting,1,R_ESI,15.91550973487376
BMu67,55,C,REL,Posture_Sitting,1,L_ESI,7.618521167382454
BMu67,55,C,REL,Posture_Sitting,1,R_ESI,14.855773074642856
BMu67,56,C,INI,Posture_Sitting,1,L_ESI,13.297555426352183
BMu67,56,C,INI,Posture_Sitting,1,R_ESI,7.537462633659582
BMu67,56,C,REL,Posture_Sitting,1,L_ESI,15.738229209665539
BMu67,56,C,REL,Posture_Sitting,1,R_ESI,24.16154179021079
BMu67,57,C,INI,Posture_Sitting,1,L_ESI,7.278034062772089
BMu67,57,C,INI,Posture_Sitting,1,R_ESI,8.352593155532405
BMu67,57,C,REL,Posture_Sitting,1,L_ESI,14.002133916849367
BMu67,57,C,REL,Posture_Sitting,1,R_ESI,16.977757912491533
BMu67,58,P,INI,Posture_Sitting,1,L_ESI,24.280399321601667
BMu67,58,P,INI,Posture_Sitting,1,R_ESI,15.23576930327112
BMu67,58,P,REL,Posture_Sitting,1,L_ESI,15.194426566582871
BMu67,58,P,REL,Posture_Sitting,1,R_ESI,11.437756458311418
BMu67,60,C,INI,Posture_Sitting,1,L_ESI,6.199391549696902
BMu67,60,C,INI,Posture_Sitting,1,R_ESI,8.644888330619139
BMu67,60,C,REL,Posture_Sitting,1,L_ESI,13.603407438189578
BMu67,60,C,REL,Posture_Sitting,1,R_ESI,15.171294948831628
BMu67,61,P,REL,Posture_Sitting,1,L_ESI,9.971974257384685
BMu67,61,P,REL,Posture_Sitting,1,R_ESI,4.617414862173837
BMu67,62,P,INI,Posture_Sitting,1,L_ESI,6.457617404302972
BMu67,62,P,INI,Posture_Sitting,1,R_ESI,12.24640940459924
BMu67,62,P,REL,Posture_Sitting,1,L_ESI,12.606785338288347
BMu67,62,P,REL,Posture_Sitting,1,R_ESI,8.684637004322955
BMu67,63,P,INI,Posture_Sitting,1,L_ESI,10.49575229881113
BMu67,63,P,INI,Posture_Sitting,1,R_ESI,18.681462906312817
BMu67,63,P,REL,Posture_Sitting,1,L_ESI,14.135876635754357
BMu67,63,P,REL,Posture_Sitting,1,R_ESI,15.336762832162607
BMu67,64,C,INI,Posture_Sitting,1,L_ESI,7.260237529156465
BMu67,64,C,INI,Posture_Sitting,1,R_ESI,7.067047186803652
BMu67,64,C,REL,Posture_Sitting,1,L_ESI,6.133556276118483
BMu67,64,C,REL,Posture_Sitting,1,R_ESI,9.48099240871566
BMu67,65,P,INI,Posture_Sitting,1,L_ESI,20.903068780925413
BMu67,65,P,INI,Posture_Sitting,1,R_ESI,19.42456466333007
BMu67,65,P,REL,Posture_Sitting,1,L_ESI,23.41666841054058
BMu67,65,P,REL,Posture_Sitting,1,R_ESI,22.721721598255133
BMu67,66,C,INI,Posture_Sitting,1,L_ESI,13.624838097987018
BMu67,66,C,INI,Posture_Sitting,1,R_ESI,15.457823486960919
BMu67,66,C,REL,Posture_Sitting,1,L_ESI,21.87020677950574
BMu67,66,C,REL,Posture_Sitting,1,R_ESI,27.60980192254681
BMu67,67,C,INI,Posture_Sitting,1,L_ESI,6.948828191053033
BMu67,67,C,INI,Posture_Sitting,1,R_ESI,26.798649980274647
BMu67,67,C,REL,Posture_Sitting,1,L_ESI,3.876127942024622
BMu67,67,C,REL,Posture_Sitting,1,R_ESI,9.747024172676923
BMu67,68,C,INI,Posture_Sitting,1,L_ESI,14.466530875276689
BMu67,68,C,INI,Posture_Sitting,1,R_ESI,19.13727966027207
BMu67,68,C,REL,Posture_Sitting,1,L_ESI,17.10236822322104
BMu67,68,C,REL,Posture_Sitting,1,R_ESI,19.911685930583864
