BM,subject,P_C,session,task,repetition,channel,value
BMu88,1,C,INI,Perturbation_R_Shoulder,1,L_MTF,
BMu88,1,C,INI,Perturbation_R_Shoulder,1,R_MTF,
BMu88,1,C,REL,Perturbation_R_Shoulder,1,L_MTF,
BMu88,1,C,REL,Perturbation_R_Shoulder,1,R_MTF,
BMu88,2,C,INI,Perturbation_R_Shoulder,1,L_MTF,
BMu88,2,C,INI,Perturbation_R_Shoulder,1,R_MTF,
BMu88,2,C,REL,Perturbation_R_Shoulder,1,L_MTF,
BMu88,2,C,REL,Perturbation_R_Shoulder,1,R_MTF,
BMu88,3,C,INI,Perturbation_R_Shoulder,1,L_MTF,
BMu88,3,C,INI,Perturbation_R_Shoulder,1,R_MTF,
BMu88,3,C,REL,Perturbation_R_Shoulder,1,L_MTF,
BMu88,3,C,REL,Perturbation_R_Shoulder,1,R_MTF,
BMu88,5,C,INI,Perturbation_R_Shoulder,1,L_MTF,
BMu88,5,C,INI,Perturbation_R_Shoulder,1,R_MTF,
BMu88,5,C,REL,Perturbation_R_Shoulder,1,L_MTF,
BMu88,5,C,REL,Perturbation_R_Shoulder,1,R_MTF,
BMu88,6,C,INI,Perturbation_R_Shoulder,1,L_MTF,
BMu88,6,C,INI,Perturbation_R_Shoulder,1,R_MTF,
BMu88,6,C,REL,Perturbation_R_Shoulder,1,L_MTF,
BMu88,6,C,REL,Perturbation_R_Shoulder,1,R_MTF,
BMu88,7,C,INI,Perturbation_R_Shoulder,1,L_MTF,
BMu88,7,C,INI,Perturbation_R_Shoulder,1,R_MTF,
BMu88,7,C,REL,Perturbation_R_Shoulder,1,L_MTF,
BMu88,7,C,REL,Perturbation_R_Shoulder,1,R_MTF,
BMu88,8,C,INI,Perturbation_R_Shoulder,1,L_MTF,
BMu88,8,C,INI,Perturbation_R_Shoulder,1,R_MTF,
BMu88,8,C,REL,Perturbation_R_Shoulder,1,L_MTF,
BMu88,8,C,REL,Perturbation_R_Shoulder,1,R_MTF,
BMu88,10,P,INI,Perturbation_R_Shoulder,1,L_MTF,
BMu88,10,P,INI,Perturbation_R_Shoulder,1,R_MTF,
BMu88,10,P,REL,Perturbation_R_Shoulder,1,L_MTF,
BMu88,10,P,REL,Perturbation_R_Shoulder,1,R_MTF,
BMu88,11,P,INI,Perturbation_R_Shoulder,1,L_MTF,3.0096666666666665
BMu88,11,P,INI,Perturbation_R_Shoulder,1,R_MTF,
BMu88,11,P,REL,Perturbation_R_Shoulder,1,L_MTF,
BMu88,11,P,REL,Perturbation_R_Shoulder,1,R_MTF,
BMu88,12,P,INI,Perturbation_R_Shoulder,1,L_MTF,
BMu88,12,P,INI,Perturbation_R_Shoulder,1,R_MTF,
BMu88,12,P,REL,Perturbation_R_Shoulder,1,L_MTF,
BMu88,12,P,REL,Perturbation_R_Shoulder,1,R_MTF,
BMu88,13,C,INI,Perturbation_R_Shoulder,1,L_MTF,
BMu88,13,C,INI,Perturbation_R_Shoulder,1,R_MTF,
BMu88,13,C,REL,Perturbation_R_Shoulder,1,L_MTF,
BMu88,13,C,REL,Perturbation_R_Shoulder,1,R_MTF,
BMu88,14,P,INI,Perturbation_R_Shoulder,1,L_MTF,
BMu88,14,P,INI,Perturbation_R_Shoulder,1,R_MTF,
BMu88,14,P,REL,Perturbation_R_Shoulder,1,L_MTF,
BMu88,14,P,REL,Perturbation_R_Shoulder,1,R_MTF,
BMu88,16,C,INI,Perturbation_R_Shoulder,1,L_MTF,
BMu88,16,C,INI,Perturbation_R_Shoulder,1,R_MTF,
BMu88,16,C,REL,Perturbation_R_Shoulder,1,L_MTF,
BMu88,16,C,REL,Perturbation_R_Shoulder,1,R_MTF,
BMu88,17,P,INI,Perturbation_R_Shoulder,1,L_MTF,
BMu88,17,P,INI,Perturbation_R_Shoulder,1,R_MTF,
BMu88,17,P,REL,Perturbation_R_Shoulder,1,L_MTF,
BMu88,17,P,REL,Perturbation_R_Shoulder,1,R_MTF,
BMu88,21,C,INI,Perturbation_R_Shoulder,1,L_MTF,
BMu88,21,C,INI,Perturbation_R_Shoulder,1,R_MTF,
BMu88,21,C,REL,Perturbation_R_Shoulder,1,L_MTF,
BMu88,21,C,REL,Perturbation_R_Shoulder,1,R_MTF,
BMu88,22,C,INI,Perturbation_R_Shoulder,1,L_MTF,
BMu88,22,C,INI,Perturbation_R_Shoulder,1,R_MTF,
BMu88,22,C,REL,Perturbation_R_Shoulder,1,L_MTF,
BMu88,22,C,REL,Perturbation_R_Shoulder,1,R_MTF,
BMu88,23,C,INI,Perturbation_R_Shoulder,1,L_MTF,
BMu88,23,C,INI,Perturbation_R_Shoulder,1,R_MTF,
BMu88,23,C,REL,Perturbation_R_Shoulder,1,L_MTF,
BMu88,23,C,REL,Perturbation_R_Shoulder,1,R_MTF,
BMu88,24,P,INI,Perturbation_R_Shoulder,1,L_MTF,
BMu88,24,P,INI,Perturbation_R_Shoulder,1,R_MTF,
BMu88,24,P,REL,Perturbation_R_Shoulder,1,L_MTF,
BMu88,24,P,REL,Perturbation_R_Shoulder,1,R_MTF,
BMu88,25,C,INI,Perturbation_R_Shoulder,1,L_MTF,
BMu88,25,C,INI,Perturbation_R_Shoulder,1,R_MTF,
BMu88,25,C,REL,Perturbation_R_Shoulder,1,L_MTF,
BMu88,25,C,REL,Perturbation_R_Shoulder,1,R_MTF,
BMu88,26,P,INI,Perturbation_R_Shoulder,1,L_MTF,
BMu88,26,P,INI,Perturbation_R_Shoulder,1,R_MTF,
BMu88,26,P,REL,Perturbation_R_Shoulder,1,L_MTF,
BMu88,26,P,REL,Perturbation_R_Shoulder,1,R_MTF,
BMu88,27,P,INI,Perturbation_R_Shoulder,1,L_MTF,
BMu88,27,P,INI,Perturbation_R_Shoulder,1,R_MTF,
BMu88,27,P,REL,Perturbation_R_Shoulder,1,L_MTF,
BMu88,27,P,REL,Perturbation_R_Shoulder,1,R_MTF,
BMu88,28,P,INI,Perturbation_R_Shoulder,1,L_MTF,
BMu88,28,P,INI,Perturbation_R_Shoulder,1,R_MTF,
BMu88,28,P,REL,Perturbation_R_Shoulder,1,L_MTF,
BMu88,28,P,REL,Perturbation_R_Shoulder,1,R_MTF,
BMu88,29,P,INI,Perturbation_R_Shoulder,1,L_MTF,
BMu88,29,P,INI,Perturbation_R_Shoulder,1,R_MTF,
BMu88,29,P,REL,Perturbation_R_Shoulder,1,L_MTF,
BMu88,29,P,REL,Perturbation_R_Shoulder,1,R_MTF,
BMu88,30,P,INI,Perturbation_R_Shoulder,1,L_MTF,
BMu88,30,P,INI,Perturbation_R_Shoulder,1,R_MTF,
BMu88,30,P,REL,Perturbation_R_Shoulder,1,L_MTF,
BMu88,30,P,REL,Perturbation_R_Shoulder,1,R_MTF,
BMu88,32,P,INI,Perturbation_R_Shoulder,1,L_MTF,
BMu88,32,P,INI,Perturbation_R_Shoulder,1,R_MTF,
BMu88,32,P,REL,Perturbation_R_Shoulder,1,L_MTF,
BMu88,32,P,REL,Perturbation_R_Shoulder,1,R_MTF,
BMu88,33,P,INI,Perturbation_R_Shoulder,1,L_MTF,
BMu88,33,P,INI,Perturbation_R_Shoulder,1,R_MTF,
BMu88,33,P,REL,Perturbation_R_Shoulder,1,L_MTF,
BMu88,33,P,REL,Perturbation_R_Shoulder,1,R_MTF,
BMu88,34,P,INI,Perturbation_R_Shoulder,1,L_MTF,
BMu88,34,P,INI,Perturbation_R_Shoulder,1,R_MTF,5.586
BMu88,34,P,REL,Perturbation_R_Shoulder,1,L_MTF,
BMu88,34,P,REL,Perturbation_R_Shoulder,1,R_MTF,
BMu88,35,C,INI,Perturbation_R_Shoulder,1,L_MTF,
BMu88,35,C,INI,Perturbation_R_Shoulder,1,R_MTF,
BMu88,35,C,REL,Perturbation_R_Shoulder,1,L_MTF,
BMu88,35,C,REL,Perturbation_R_Shoulder,1,R_MTF,
BMu88,36,P,INI,Perturbation_R_Shoulder,1,L_MTF,
BMu88,36,P,INI,Perturbation_R_Shoulder,1,R_MTF,
BMu88,36,P,REL,Perturbation_R_Shoulder,1,L_MTF,
BMu88,36,P,REL,Perturbation_R_Shoulder,1,R_MTF,
BMu88,38,C,INI,Perturbation_R_Shoulder,1,L_MTF,
BMu88,38,C,INI,Perturbation_R_Shoulder,1,R_MTF,
BMu88,38,C,REL,Perturbation_R_Shoulder,1,L_MTF,
BMu88,38,C,REL,Perturbation_R_Shoulder,1,R_MTF,
BMu88,40,C,INI,Perturbation_R_Shoulder,1,L_MTF,
BMu88,40,C,INI,Perturbation_R_Shoulder,1,R_MTF,
BMu88,40,C,REL,Perturbation_R_Shoulder,1,L_MTF,
BMu88,40,C,REL,Perturbation_R_Shoulder,1,R_MTF,
BMu88,41,P,INI,Perturbation_R_Shoulder,1,L_MTF,
BMu88,41,P,INI,Perturbation_R_Shoulder,1,R_MTF,
BMu88,41,P,REL,Perturbation_R_Shoulder,1,L_MTF,
BMu88,41,P,REL,Perturbation_R_Shoulder,1,R_MTF,
BMu88,42,P,INI,Perturbation_R_Shoulder,1,L_MTF,
BMu88,42,P,INI,Perturbation_R_Shoulder,1,R_MTF,
BMu88,42,P,REL,Perturbation_R_Shoulder,1,L_MTF,
BMu88,42,P,REL,Perturbation_R_Shoulder,1,R_MTF,
BMu88,43,P,REL,Perturbation_R_Shoulder,1,L_MTF,
BMu88,43,P,REL,Perturbation_R_Shoulder,1,R_MTF,
BMu88,44,C,INI,Perturbation_R_Shoulder,1,L_MTF,
BMu88,44,C,INI,Perturbation_R_Shoulder,1,R_MTF,
BMu88,44,C,REL,Perturbation_R_Shoulder,1,L_MTF,
BMu88,44,C,REL,Perturbation_R_Shoulder,1,R_MTF,
BMu88,45,P,INI,Perturbation_R_Shoulder,1,L_MTF,
BMu88,45,P,INI,Perturbation_R_Shoulder,1,R_MTF,
BMu88,45,P,REL,Perturbation_R_Shoulder,1,L_MTF,
BMu88,45,P,REL,Perturbation_R_Shoulder,1,R_MTF,
BMu88,46,C,INI,Perturbation_R_Shoulder,1,L_MTF,
BMu88,46,C,INI,Perturbation_R_Shoulder,1,R_MTF,
BMu88,46,C,REL,Perturbation_R_Shoulder,1,L_MTF,
BMu88,46,C,REL,Perturbation_R_Shoulder,1,R_MTF,
BMu88,47,P,INI,Perturbation_R_Shoulder,1,L_MTF,
BMu88,47,P,INI,Perturbation_R_Shoulder,1,R_MTF,
BMu88,47,P,REL,Perturbation_R_Shoulder,1,L_MTF,
BMu88,47,P,REL,Perturbation_R_Shoulder,1,R_MTF,
BMu88,48,C,REL,Perturbation_R_Shoulder,1,L_MTF,
BMu88,48,C,REL,Perturbation_R_Shoulder,1,R_MTF,
BMu88,49,C,INI,Perturbation_R_Shoulder,1,L_MTF,
BMu88,49,C,INI,Perturbation_R_Shoulder,1,R_MTF,
BMu88,49,C,REL,Perturbation_R_Shoulder,1,L_MTF,
BMu88,49,C,REL,Perturbation_R_Shoulder,1,R_MTF,
BMu88,50,P,INI,Perturbation_R_Shoulder,1,L_MTF,
BMu88,50,P,INI,Perturbation_R_Shoulder,1,R_MTF,
BMu88,50,P,REL,Perturbation_R_Shoulder,1,L_MTF,
BMu88,50,P,REL,Perturbation_R_Shoulder,1,R_MTF,
BMu88,51,P,INI,Perturbation_R_Shoulder,1,L_MTF,
BMu88,51,P,INI,Perturbation_R_Shoulder,1,R_MTF,
BMu88,51,P,REL,Perturbation_R_Shoulder,1,L_MTF,
BMu88,51,P,REL,Perturbation_R_Shoulder,1,R_MTF,
BMu88,52,C,INI,Perturbation_R_Shoulder,1,L_MTF,
BMu88,52,C,INI,Perturbation_R_Shoulder,1,R_MTF,
BMu88,52,C,REL,Perturbation_R_Shoulder,1,L_MTF,
BMu88,52,C,REL,Perturbation_R_Shoulder,1,R_MTF,
BMu88,53,P,INI,Perturbation_R_Shoulder,1,L_MTF,
BMu88,53,P,INI,Perturbation_R_Shoulder,1,R_MTF,
BMu88,53,P,REL,Perturbation_R_Shoulder,1,L_MTF,
BMu88,53,P,REL,Perturbation_R_Shoulder,1,R_MTF,
BMu88,54,P,INI,Perturbation_R_Shoulder,1,L_MTF,
BMu88,54,P,INI,Perturbation_R_Shoulder,1,R_MTF,
BMu88,55,C,INI,Perturbation_R_Shoulder,1,L_MTF,
BMu88,55,C,INI,Perturbation_R_Shoulder,1,R_MTF,
BMu88,55,C,REL,Perturbation_R_Shoulder,1,L_MTF,
BMu88,55,C,REL,Perturbation_R_Shoulder,1,R_MTF,
BMu88,56,C,INI,Perturbation_R_Shoulder,1,L_MTF,
BMu88,56,C,INI,Perturbation_R_Shoulder,1,R_MTF,
BMu88,56,C,REL,Perturbation_R_Shoulder,1,L_MTF,
BMu88,56,C,REL,Perturbation_R_Shoulder,1,R_MTF,
BMu88,57,C,INI,Perturbation_R_Shoulder,1,L_MTF,
BMu88,57,C,INI,Perturbation_R_Shoulder,1,R_MTF,
BMu88,57,C,REL,Perturbation_R_Shoulder,1,L_MTF,
BMu88,57,C,REL,Perturbation_R_Shoulder,1,R_MTF,
BMu88,58,P,REL,Perturbation_R_Shoulder,1,L_MTF,
BMu88,58,P,REL,Perturbation_R_Shoulder,1,R_MTF,
BMu88,60,C,INI,Perturbation_R_Shoulder,1,L_MTF,
BMu88,60,C,INI,Perturbation_R_Shoulder,1,R_MTF,
BMu88,60,C,REL,Perturbation_R_Shoulder,1,L_MTF,
BMu88,60,C,REL,Perturbation_R_Shoulder,1,R_MTF,
BMu88,61,P,INI,Perturbation_R_Shoulder,1,L_MTF,
BMu88,61,P,INI,Perturbation_R_Shoulder,1,R_MTF,
BMu88,61,P,REL,Perturbation_R_Shoulder,1,L_MTF,
BMu88,61,P,REL,Perturbation_R_Shoulder,1,R_MTF,
BMu88,62,P,INI,Perturbation_R_Shoulder,1,L_MTF,
BMu88,62,P,INI,Perturbation_R_Shoulder,1,R_MTF,
BMu88,62,P,REL,Perturbation_R_Shoulder,1,L_MTF,
BMu88,62,P,REL,Perturbation_R_Shoulder,1,R_MTF,
BMu88,63,P,INI,Perturbation_R_Shoulder,1,L_MTF,
BMu88,63,P,INI,Perturbation_R_Shoulder,1,R_MTF,
BMu88,63,P,REL,Perturbation_R_Shoulder,1,L_MTF,
BMu88,63,P,REL,Perturbation_R_Shoulder,1,R_MTF,
BMu88,64,C,INI,Perturbation_R_Shoulder,1,L_MTF,
BMu88,64,C,INI,Perturbation_R_Shoulder,1,R_MTF,
BMu88,64,C,REL,Perturbation_R_Shoulder,1,L_MTF,
BMu88,64,C,REL,Perturbation_R_Shoulder,1,R_MTF,
BMu88,65,P,INI,Perturbation_R_Shoulder,1,L_MTF,
BMu88,65,P,INI,Perturbation_R_Shoulder,1,R_MTF,
BMu88,65,P,REL,Perturbation_R_Shoulder,1,L_MTF,
BMu88,65,P,REL,Perturbation_R_Shoulder,1,R_MTF,
BMu88,66,C,INI,Perturbation_R_Shoulder,1,L_MTF,
BMu88,66,C,INI,Perturbation_R_Shoulder,1,R_MTF,
BMu88,66,C,REL,Perturbation_R_Shoulder,1,L_MTF,
BMu88,66,C,REL,Perturbation_R_Shoulder,1,R_MTF,
BMu88,67,C,INI,Perturbation_R_Shoulder,1,L_MTF,1.103
BMu88,67,C,INI,Perturbation_R_Shoulder,1,R_MTF,
BMu88,67,C,REL,Perturbation_R_Shoulder,1,L_MTF,
BMu88,67,C,REL,Perturbation_R_Shoulder,1,R_MTF,
BMu88,68,C,INI,Perturbation_R_Shoulder,1,L_MTF,5.39825
BMu88,68,C,INI,Perturbation_R_Shoulder,1,R_MTF,14.217
BMu88,68,C,REL,Perturbation_R_Shoulder,1,L_MTF,3.1745
BMu88,68,C,REL,Perturbation_R_Shoulder,1,R_MTF,
