BM,subject,P_C,session,task,repetition,channel,value
BMu88,1,C,INI,Perturbation_R_Shoulder,1,L_MTF,0.23933333333333331
BMu88,1,C,INI,Perturbation_R_Shoulder,1,R_MTF,
BMu88,1,C,REL,Perturbation_R_Shoulder,1,L_MTF,0.7238181818181819
BMu88,1,C,REL,Perturbation_R_Shoulder,1,R_MTF,
BMu88,2,C,INI,Perturbation_R_Shoulder,1,L_MTF,2.1166
BMu88,2,C,INI,Perturbation_R_Shoulder,1,R_MTF,0.228
BMu88,2,C,REL,Perturbation_R_Shoulder,1,L_MTF,1.911
BMu88,2,C,REL,Perturbation_R_Shoulder,1,R_MTF,1.20875
BMu88,3,C,INI,Perturbation_R_Shoulder,1,L_MTF,0.7773333333333333
BMu88,3,C,INI,Perturbation_R_Shoulder,1,R_MTF,24.741
BMu88,3,C,REL,Perturbation_R_Shoulder,1,L_MTF,4.593249999999999
BMu88,3,C,REL,Perturbation_R_Shoulder,1,R_MTF,
BMu88,5,C,INI,Perturbation_R_Shoulder,1,L_MTF,
BMu88,5,C,INI,Perturbation_R_Shoulder,1,R_MTF,
BMu88,5,C,REL,Perturbation_R_Shoulder,1,L_MTF,0.2683333333333333
BMu88,5,C,REL,Perturbation_R_Shoulder,1,R_MTF,1.8475
BMu88,6,C,INI,Perturbation_R_Shoulder,1,L_MTF,0.5665454545454546
BMu88,6,C,INI,Perturbation_R_Shoulder,1,R_MTF,0.218
BMu88,6,C,REL,Perturbation_R_Shoulder,1,L_MTF,5.0355
BMu88,6,C,REL,Perturbation_R_Shoulder,1,R_MTF,
BMu88,7,C,INI,Perturbation_R_Shoulder,1,L_MTF,0.486
BMu88,7,C,INI,Perturbation_R_Shoulder,1,R_MTF,2.988818181818182
BMu88,7,C,REL,Perturbation_R_Shoulder,1,L_MTF,
BMu88,7,C,REL,Perturbation_R_Shoulder,1,R_MTF,
BMu88,8,C,INI,Perturbation_R_Shoulder,1,L_MTF,2.0258
BMu88,8,C,INI,Perturbation_R_Shoulder,1,R_MTF,
BMu88,8,C,REL,Perturbation_R_Shoulder,1,L_MTF,
BMu88,8,C,REL,Perturbation_R_Shoulder,1,R_MTF,
BMu88,10,P,INI,Perturbation_R_Shoulder,1,L_MTF,8.228333333333333
BMu88,10,P,INI,Perturbation_R_Shoulder,1,R_MTF,
BMu88,10,P,REL,Perturbation_R_Shoulder,1,L_MTF,2.3818888888888887
BMu88,10,P,REL,Perturbation_R_Shoulder,1,R_MTF,2.602625
BMu88,11,P,INI,Perturbation_R_Shoulder,1,L_MTF,0.7748571428571428
BMu88,11,P,INI,Perturbation_R_Shoulder,1,R_MTF,
BMu88,11,P,REL,Perturbation_R_Shoulder,1,L_MTF,0.8877499999999999
BMu88,11,P,REL,Perturbation_R_Shoulder,1,R_MTF,0.586
BMu88,12,P,INI,Perturbation_R_Shoulder,1,L_MTF,
BMu88,12,P,INI,Perturbation_R_Shoulder,1,R_MTF,0.5826363636363637
BMu88,12,P,REL,Perturbation_R_Shoulder,1,L_MTF,0.24375
BMu88,12,P,REL,Perturbation_R_Shoulder,1,R_MTF,
BMu88,13,C,INI,Perturbation_R_Shoulder,1,L_MTF,0.6600833333333335
BMu88,13,C,INI,Perturbation_R_Shoulder,1,R_MTF,0.2525
BMu88,13,C,REL,Perturbation_R_Shoulder,1,L_MTF,
BMu88,13,C,REL,Perturbation_R_Shoulder,1,R_MTF,0.6964166666666668
BMu88,14,P,INI,Perturbation_R_Shoulder,1,L_MTF,
BMu88,14,P,INI,Perturbation_R_Shoulder,1,R_MTF,0.309
BMu88,14,P,REL,Perturbation_R_Shoulder,1,L_MTF,
BMu88,14,P,REL,Perturbation_R_Shoulder,1,R_MTF,0.6784444444444444
BMu88,16,C,INI,Perturbation_R_Shoulder,1,L_MTF,1.7442857142857142
BMu88,16,C,INI,Perturbation_R_Shoulder,1,R_MTF,
BMu88,16,C,REL,Perturbation_R_Shoulder,1,L_MTF,0.24414285714285716
BMu88,16,C,REL,Perturbation_R_Shoulder,1,R_MTF,
BMu88,17,P,INI,Perturbation_R_Shoulder,1,L_MTF,17.937
BMu88,17,P,INI,Perturbation_R_Shoulder,1,R_MTF,
BMu88,17,P,REL,Perturbation_R_Shoulder,1,L_MTF,0.4991428571428571
BMu88,17,P,REL,Perturbation_R_Shoulder,1,R_MTF,3.1904000000000003
BMu88,21,C,INI,Perturbation_R_Shoulder,1,L_MTF,
BMu88,21,C,INI,Perturbation_R_Shoulder,1,R_MTF,
BMu88,21,C,REL,Perturbation_R_Shoulder,1,L_MTF,
BMu88,21,C,REL,Perturbation_R_Shoulder,1,R_MTF,0.427875
BMu88,22,C,INI,Perturbation_R_Shoulder,1,L_MTF,
BMu88,22,C,INI,Perturbation_R_Shoulder,1,R_MTF,
BMu88,22,C,REL,Perturbation_R_Shoulder,1,L_MTF,1.1112857142857142
BMu88,22,C,REL,Perturbation_R_Shoulder,1,R_MTF,
BMu88,23,C,INI,Perturbation_R_Shoulder,1,L_MTF,0.2195
BMu88,23,C,INI,Perturbation_R_Shoulder,1,R_MTF,1.8764000000000003
BMu88,23,C,REL,Perturbation_R_Shoulder,1,L_MTF,
BMu88,23,C,REL,Perturbation_R_Shoulder,1,R_MTF,
BMu88,24,P,INI,Perturbation_R_Shoulder,1,L_MTF,
BMu88,24,P,INI,Perturbation_R_Shoulder,1,R_MTF,
BMu88,24,P,REL,Perturbation_R_Shoulder,1,L_MTF,
BMu88,24,P,REL,Perturbation_R_Shoulder,1,R_MTF,1.3655
BMu88,25,C,INI,Perturbation_R_Shoulder,1,L_MTF,6.130000000000001
BMu88,25,C,INI,Perturbation_R_Shoulder,1,R_MTF,
BMu88,25,C,REL,Perturbation_R_Shoulder,1,L_MTF,0.4771176470588236
BMu88,25,C,REL,Perturbation_R_Shoulder,1,R_MTF,0.48766666666666664
BMu88,26,P,INI,Perturbation_R_Shoulder,1,L_MTF,
BMu88,26,P,INI,Perturbation_R_Shoulder,1,R_MTF,1.6507999999999998
BMu88,26,P,REL,Perturbation_R_Shoulder,1,L_MTF,
BMu88,26,P,REL,Perturbation_R_Shoulder,1,R_MTF,
BMu88,27,P,INI,Perturbation_R_Shoulder,1,L_MTF,3.572111111111111
BMu88,27,P,INI,Perturbation_R_Shoulder,1,R_MTF,5.2188
BMu88,27,P,REL,Perturbation_R_Shoulder,1,L_MTF,7.282333333333334
BMu88,27,P,REL,Perturbation_R_Shoulder,1,R_MTF,1.203
BMu88,28,P,INI,Perturbation_R_Shoulder,1,L_MTF,
BMu88,28,P,INI,Perturbation_R_Shoulder,1,R_MTF,1.2265714285714286
BMu88,28,P,REL,Perturbation_R_Shoulder,1,L_MTF,0.237
BMu88,28,P,REL,Perturbation_R_Shoulder,1,R_MTF,
BMu88,29,P,INI,Perturbation_R_Shoulder,1,L_MTF,0.7515999999999998
BMu88,29,P,INI,Perturbation_R_Shoulder,1,R_MTF,1.668
BMu88,29,P,REL,Perturbation_R_Shoulder,1,L_MTF,1.6317999999999997
BMu88,29,P,REL,Perturbation_R_Shoulder,1,R_MTF,
BMu88,30,P,INI,Perturbation_R_Shoulder,1,L_MTF,
BMu88,30,P,INI,Perturbation_R_Shoulder,1,R_MTF,
BMu88,30,P,REL,Perturbation_R_Shoulder,1,L_MTF,0.352125
BMu88,30,P,REL,Perturbation_R_Shoulder,1,R_MTF,
BMu88,32,P,INI,Perturbation_R_Shoulder,1,L_MTF,
BMu88,32,P,INI,Perturbation_R_Shoulder,1,R_MTF,0.36625
BMu88,32,P,REL,Perturbation_R_Shoulder,1,L_MTF,0.338
BMu88,32,P,REL,Perturbation_R_Shoulder,1,R_MTF,2.244875
BMu88,33,P,INI,Perturbation_R_Shoulder,1,L_MTF,0.34366666666666673
BMu88,33,P,INI,Perturbation_R_Shoulder,1,R_MTF,
BMu88,33,P,REL,Perturbation_R_Shoulder,1,L_MTF,
BMu88,33,P,REL,Perturbation_R_Shoulder,1,R_MTF,
BMu88,34,P,INI,Perturbation_R_Shoulder,1,L_MTF,0.3223
BMu88,34,P,INI,Perturbation_R_Shoulder,1,R_MTF,19.038
BMu88,34,P,REL,Perturbation_R_Shoulder,1,L_MTF,0.46621428571428564
BMu88,34,P,REL,Perturbation_R_Shoulder,1,R_MTF,18.015
BMu88,35,C,INI,Perturbation_R_Shoulder,1,L_MTF,
BMu88,35,C,INI,Perturbation_R_Shoulder,1,R_MTF,
BMu88,35,C,REL,Perturbation_R_Shoulder,1,L_MTF,0.3175454545454546
BMu88,35,C,REL,Perturbation_R_Shoulder,1,R_MTF,
BMu88,36,P,INI,Perturbation_R_Shoulder,1,L_MTF,0.4206666666666667
BMu88,36,P,INI,Perturbation_R_Shoulder,1,R_MTF,
BMu88,36,P,REL,Perturbation_R_Shoulder,1,L_MTF,
BMu88,36,P,REL,Perturbation_R_Shoulder,1,R_MTF,1.075375
BMu88,38,C,INI,Perturbation_R_Shoulder,1,L_MTF,0.45133333333333325
BMu88,38,C,INI,Perturbation_R_Shoulder,1,R_MTF,1.1972
BMu88,38,C,REL,Perturbation_R_Shoulder,1,L_MTF,4.3735
BMu88,38,C,REL,Perturbation_R_Shoulder,1,R_MTF,0.322
BMu88,40,C,INI,Perturbation_R_Shoulder,1,L_MTF,
BMu88,40,C,INI,Perturbation_R_Shoulder,1,R_MTF,
BMu88,40,C,REL,Perturbation_R_Shoulder,1,L_MTF,0.3549999999999999
BMu88,40,C,REL,Perturbation_R_Shoulder,1,R_MTF,0.4656666666666667
BMu88,41,P,INI,Perturbation_R_Shoulder,1,L_MTF,
BMu88,41,P,INI,Perturbation_R_Shoulder,1,R_MTF,0.3315
BMu88,41,P,REL,Perturbation_R_Shoulder,1,L_MTF,0.8316315789473686
BMu88,41,P,REL,Perturbation_R_Shoulder,1,R_MTF,0.3395
BMu88,42,P,INI,Perturbation_R_Shoulder,1,L_MTF,0.5045
BMu88,42,P,INI,Perturbation_R_Shoulder,1,R_MTF,
BMu88,42,P,REL,Perturbation_R_Shoulder,1,L_MTF,1.1526
BMu88,42,P,REL,Perturbation_R_Shoulder,1,R_MTF,0.5118
BMu88,43,P,REL,Perturbation_R_Shoulder,1,L_MTF,
BMu88,43,P,REL,Perturbation_R_Shoulder,1,R_MTF,
BMu88,44,C,INI,Perturbation_R_Shoulder,1,L_MTF,0.473
BMu88,44,C,INI,Perturbation_R_Shoulder,1,R_MTF,
BMu88,44,C,REL,Perturbation_R_Shoulder,1,L_MTF,0.32146153846153847
BMu88,44,C,REL,Perturbation_R_Shoulder,1,R_MTF,0.5303333333333333
BMu88,45,P,INI,Perturbation_R_Shoulder,1,L_MTF,0.34299999999999997
BMu88,45,P,INI,Perturbation_R_Shoulder,1,R_MTF,
BMu88,45,P,REL,Perturbation_R_Shoulder,1,L_MTF,
BMu88,45,P,REL,Perturbation_R_Shoulder,1,R_MTF,
BMu88,46,C,INI,Perturbation_R_Shoulder,1,L_MTF,
BMu88,46,C,INI,Perturbation_R_Shoulder,1,R_MTF,
BMu88,46,C,REL,Perturbation_R_Shoulder,1,L_MTF,
BMu88,46,C,REL,Perturbation_R_Shoulder,1,R_MTF,
BMu88,47,P,INI,Perturbation_R_Shoulder,1,L_MTF,0.9150526315789473
BMu88,47,P,INI,Perturbation_R_Shoulder,1,R_MTF,
BMu88,47,P,REL,Perturbation_R_Shoulder,1,L_MTF,0.7565714285714286
BMu88,47,P,REL,Perturbation_R_Shoulder,1,R_MTF,2.1876428571428574
BMu88,48,C,REL,Perturbation_R_Shoulder,1,L_MTF,
BMu88,48,C,REL,Perturbation_R_Shoulder,1,R_MTF,0.219
BMu88,49,C,INI,Perturbation_R_Shoulder,1,L_MTF,0.47719999999999996
BMu88,49,C,INI,Perturbation_R_Shoulder,1,R_MTF,0.5147692307692309
BMu88,49,C,REL,Perturbation_R_Shoulder,1,L_MTF,0.5504615384615386
BMu88,49,C,REL,Perturbation_R_Shoulder,1,R_MTF,0.74
BMu88,50,P,INI,Perturbation_R_Shoulder,1,L_MTF,1.4034285714285715
BMu88,50,P,INI,Perturbation_R_Shoulder,1,R_MTF,
BMu88,50,P,REL,Perturbation_R_Shoulder,1,L_MTF,1.4480833333333332
BMu88,50,P,REL,Perturbation_R_Shoulder,1,R_MTF,
BMu88,51,P,INI,Perturbation_R_Shoulder,1,L_MTF,
BMu88,51,P,INI,Perturbation_R_Shoulder,1,R_MTF,
BMu88,51,P,REL,Perturbation_R_Shoulder,1,L_MTF,0.7676000000000001
BMu88,51,P,REL,Perturbation_R_Shoulder,1,R_MTF,
BMu88,52,C,INI,Perturbation_R_Shoulder,1,L_MTF,
BMu88,52,C,INI,Perturbation_R_Shoulder,1,R_MTF,0.3684444444444444
BMu88,52,C,REL,Perturbation_R_Shoulder,1,L_MTF,0.766
BMu88,52,C,REL,Perturbation_R_Shoulder,1,R_MTF,
BMu88,53,P,INI,Perturbation_R_Shoulder,1,L_MTF,
BMu88,53,P,INI,Perturbation_R_Shoulder,1,R_MTF,3.75225
BMu88,53,P,REL,Perturbation_R_Shoulder,1,L_MTF,0.384
BMu88,53,P,REL,Perturbation_R_Shoulder,1,R_MTF,
BMu88,54,P,INI,Perturbation_R_Shoulder,1,L_MTF,33.37
BMu88,54,P,INI,Perturbation_R_Shoulder,1,R_MTF,
BMu88,55,C,INI,Perturbation_R_Shoulder,1,L_MTF,
BMu88,55,C,INI,Perturbation_R_Shoulder,1,R_MTF,
BMu88,55,C,REL,Perturbation_R_Shoulder,1,L_MTF,0.209
BMu88,55,C,REL,Perturbation_R_Shoulder,1,R_MTF,
BMu88,56,C,INI,Perturbation_R_Shoulder,1,L_MTF,0.41100000000000003
BMu88,56,C,INI,Perturbation_R_Shoulder,1,R_MTF,
BMu88,56,C,REL,Perturbation_R_Shoulder,1,L_MTF,0.719
BMu88,56,C,REL,Perturbation_R_Shoulder,1,R_MTF,0.3695
BMu88,57,C,INI,Perturbation_R_Shoulder,1,L_MTF,1.9578
BMu88,57,C,INI,Perturbation_R_Shoulder,1,R_MTF,
BMu88,57,C,REL,Perturbation_R_Shoulder,1,L_MTF,5.89475
BMu88,57,C,REL,Perturbation_R_Shoulder,1,R_MTF,
BMu88,58,P,REL,Perturbation_R_Shoulder,1,L_MTF,
BMu88,58,P,REL,Perturbation_R_Shoulder,1,R_MTF,
BMu88,60,C,INI,Perturbation_R_Shoulder,1,L_MTF,0.25620000000000004
BMu88,60,C,INI,Perturbation_R_Shoulder,1,R_MTF,0.5045
BMu88,60,C,REL,Perturbation_R_Shoulder,1,L_MTF,0.306
BMu88,60,C,REL,Perturbation_R_Shoulder,1,R_MTF,1.0352000000000001
BMu88,61,P,INI,Perturbation_R_Shoulder,1,L_MTF,0.5256363636363637
BMu88,61,P,INI,Perturbation_R_Shoulder,1,R_MTF,
BMu88,61,P,REL,Perturbation_R_Shoulder,1,L_MTF,0.6832857142857144
BMu88,61,P,REL,Perturbation_R_Shoulder,1,R_MTF,0.7737272727272728
BMu88,62,P,INI,Perturbation_R_Shoulder,1,L_MTF,
BMu88,62,P,INI,Perturbation_R_Shoulder,1,R_MTF,
BMu88,62,P,REL,Perturbation_R_Shoulder,1,L_MTF,
BMu88,62,P,REL,Perturbation_R_Shoulder,1,R_MTF,
BMu88,63,P,INI,Perturbation_R_Shoulder,1,L_MTF,1.13825
BMu88,63,P,INI,Perturbation_R_Shoulder,1,R_MTF,
BMu88,63,P,REL,Perturbation_R_Shoulder,1,L_MTF,4.6206
BMu88,63,P,REL,Perturbation_R_Shoulder,1,R_MTF,0.496
BMu88,64,C,INI,Perturbation_R_Shoulder,1,L_MTF,2.09125
BMu88,64,C,INI,Perturbation_R_Shoulder,1,R_MTF,0.5325
BMu88,64,C,REL,Perturbation_R_Shoulder,1,L_MTF,
BMu88,64,C,REL,Perturbation_R_Shoulder,1,R_MTF,0.524
BMu88,65,P,INI,Perturbation_R_Shoulder,1,L_MTF,0.29733333333333334
BMu88,65,P,INI,Perturbation_R_Shoulder,1,R_MTF,1.6729230769230772
BMu88,65,P,REL,Perturbation_R_Shoulder,1,L_MTF,
BMu88,65,P,REL,Perturbation_R_Shoulder,1,R_MTF,8.501999999999999
BMu88,66,C,INI,Perturbation_R_Shoulder,1,L_MTF,25.107
BMu88,66,C,INI,Perturbation_R_Shoulder,1,R_MTF,0.6724285714285714
BMu88,66,C,REL,Perturbation_R_Shoulder,1,L_MTF,21.803
BMu88,66,C,REL,Perturbation_R_Shoulder,1,R_MTF,3.6304000000000003
BMu88,67,C,INI,Perturbation_R_Shoulder,1,L_MTF,2.09
BMu88,67,C,INI,Perturbation_R_Shoulder,1,R_MTF,
BMu88,67,C,REL,Perturbation_R_Shoulder,1,L_MTF,12.0995
BMu88,67,C,REL,Perturbation_R_Shoulder,1,R_MTF,0.6195
BMu88,68,C,INI,Perturbation_R_Shoulder,1,L_MTF,2.7574444444444444
BMu88,68,C,INI,Perturbation_R_Shoulder,1,R_MTF,1.9307777777777773
BMu88,68,C,REL,Perturbation_R_Shoulder,1,L_MTF,1.1284166666666666
BMu88,68,C,REL,Perturbation_R_Shoulder,1,R_MTF,0.3401428571428572
