BM,subject,P_C,session,task,repetition,channel,value
BMu81,1,C,INI,S2S_Unconstrained,1,L_ESI,0.0024457060357425614
BMu81,1,C,INI,S2S_Unconstrained,1,R_ESI,
BMu81,1,C,REL,S2S_Unconstrained,1,L_ESI,0.003512112005097715
BMu81,1,C,REL,S2S_Unconstrained,1,R_ESI,0.020577040665470683
BMu81,2,C,INI,S2S_Unconstrained,1,L_ESI,0.00837642572606578
BMu81,2,C,INI,S2S_Unconstrained,1,R_ESI,0.004320831287746575
BMu81,2,C,REL,S2S_Unconstrained,1,L_ESI,0.0038317679107982305
BMu81,2,C,REL,S2S_Unconstrained,1,R_ESI,0.003966082183562529
BMu81,3,C,INI,S2S_Unconstrained,1,L_ESI,0.004229932483031551
BMu81,3,C,INI,S2S_Unconstrained,1,R_ESI,0.0039650295927704405
BMu81,3,C,REL,S2S_Unconstrained,1,L_ESI,0.006925195051253154
BMu81,3,C,REL,S2S_Unconstrained,1,R_ESI,0.004925514961613036
BMu81,5,C,INI,S2S_Unconstrained,1,L_ESI,0.005026967034549885
BMu81,5,C,INI,S2S_Unconstrained,1,R_ESI,0.047283092787071886
BMu81,5,C,REL,S2S_Unconstrained,1,L_ESI,0.0031441412433197333
BMu81,5,C,REL,S2S_Unconstrained,1,R_ESI,0.0030517332089999194
BMu81,6,C,INI,S2S_Unconstrained,1,L_ESI,0.0019263605718552901
BMu81,6,C,INI,S2S_Unconstrained,1,R_ESI,0.0016298807022938856
BMu81,6,C,REL,S2S_Unconstrained,1,L_ESI,0.002929952831403963
BMu81,6,C,REL,S2S_Unconstrained,1,R_ESI,0.0019082888706482219
BMu81,7,C,INI,S2S_Unconstrained,1,L_ESI,0.006736088899765606
BMu81,7,C,INI,S2S_Unconstrained,1,R_ESI,0.005181373310432342
BMu81,7,C,REL,S2S_Unconstrained,1,L_ESI,0.007073728627470926
BMu81,7,C,REL,S2S_Unconstrained,1,R_ESI,0.00428830486750176
BMu81,8,C,INI,S2S_Unconstrained,1,L_ESI,0.004160975472587963
BMu81,8,C,INI,S2S_Unconstrained,1,R_ESI,
BMu81,8,C,REL,S2S_Unconstrained,1,L_ESI,0.003902608879733758
BMu81,8,C,REL,S2S_Unconstrained,1,R_ESI,0.003214886502983873
BMu81,9,P,INI,S2S_Unconstrained,1,L_ESI,0.0031989948788212637
BMu81,9,P,INI,S2S_Unconstrained,1,R_ESI,0.002163063953674028
BMu81,9,P,REL,S2S_Unconstrained,1,L_ESI,0.0032645465128595293
BMu81,9,P,REL,S2S_Unconstrained,1,R_ESI,0.002409480690606676
BMu81,10,P,INI,S2S_Unconstrained,1,L_ESI,0.004930284996021228
BMu81,10,P,INI,S2S_Unconstrained,1,R_ESI,0.0031354602476678785
BMu81,10,P,REL,S2S_Unconstrained,1,L_ESI,0.004202991496434011
BMu81,10,P,REL,S2S_Unconstrained,1,R_ESI,0.019261030640875046
BMu81,11,P,INI,S2S_Unconstrained,1,L_ESI,0.005592856012349957
BMu81,11,P,INI,S2S_Unconstrained,1,R_ESI,0.005165237113762311
BMu81,11,P,REL,S2S_Unconstrained,1,L_ESI,0.005915655213017785
BMu81,11,P,REL,S2S_Unconstrained,1,R_ESI,0.009778716990754333
BMu81,12,P,INI,S2S_Unconstrained,1,L_ESI,0.003071643607144672
BMu81,12,P,INI,S2S_Unconstrained,1,R_ESI,
BMu81,12,P,REL,S2S_Unconstrained,1,L_ESI,0.0021247446111247025
BMu81,12,P,REL,S2S_Unconstrained,1,R_ESI,0.0019658665662731817
BMu81,13,C,INI,S2S_Unconstrained,1,L_ESI,0.003465372057440187
BMu81,13,C,INI,S2S_Unconstrained,1,R_ESI,0.0048881120221860724
BMu81,13,C,REL,S2S_Unconstrained,1,L_ESI,0.0031624816051364214
BMu81,13,C,REL,S2S_Unconstrained,1,R_ESI,0.0027311613858707067
BMu81,14,P,INI,S2S_Unconstrained,1,L_ESI,0.0043820156802439085
BMu81,14,P,INI,S2S_Unconstrained,1,R_ESI,
BMu81,14,P,REL,S2S_Unconstrained,1,L_ESI,0.0038592638333299397
BMu81,14,P,REL,S2S_Unconstrained,1,R_ESI,0.0021375426708098114
BMu81,16,C,INI,S2S_Unconstrained,1,L_ESI,0.0027410987878120096
BMu81,16,C,INI,S2S_Unconstrained,1,R_ESI,0.002289536366628731
BMu81,16,C,REL,S2S_Unconstrained,1,L_ESI,
BMu81,16,C,REL,S2S_Unconstrained,1,R_ESI,
BMu81,17,P,INI,S2S_Unconstrained,1,L_ESI,0.004368891659584797
BMu81,17,P,INI,S2S_Unconstrained,1,R_ESI,0.17315609323517397
BMu81,17,P,REL,S2S_Unconstrained,1,L_ESI,0.0037283433893020045
BMu81,17,P,REL,S2S_Unconstrained,1,R_ESI,0.004264768249261996
BMu81,21,C,INI,S2S_Unconstrained,1,L_ESI,0.0037918070849330284
BMu81,21,C,INI,S2S_Unconstrained,1,R_ESI,0.0028366760329806423
BMu81,21,C,REL,S2S_Unconstrained,1,L_ESI,0.004968294761469788
BMu81,21,C,REL,S2S_Unconstrained,1,R_ESI,
BMu81,22,C,INI,S2S_Unconstrained,1,L_ESI,0.004544569861292155
BMu81,22,C,INI,S2S_Unconstrained,1,R_ESI,0.0023734476912719354
BMu81,22,C,REL,S2S_Unconstrained,1,L_ESI,0.004672287577073644
BMu81,22,C,REL,S2S_Unconstrained,1,R_ESI,
BMu81,23,C,INI,S2S_Unconstrained,1,L_ESI,0.002549306542945828
BMu81,23,C,INI,S2S_Unconstrained,1,R_ESI,0.0031603473190634445
BMu81,23,C,REL,S2S_Unconstrained,1,L_ESI,0.005482379636817479
BMu81,23,C,REL,S2S_Unconstrained,1,R_ESI,0.003837715555858752
BMu81,24,P,INI,S2S_Unconstrained,1,L_ESI,0.004998704992466991
BMu81,24,P,INI,S2S_Unconstrained,1,R_ESI,
BMu81,24,P,REL,S2S_Unconstrained,1,L_ESI,0.003681904946406998
BMu81,24,P,REL,S2S_Unconstrained,1,R_ESI,0.002620051033278716
BMu81,25,C,INI,S2S_Unconstrained,1,L_ESI,0.010262446171065137
BMu81,25,C,INI,S2S_Unconstrained,1,R_ESI,
BMu81,25,C,REL,S2S_Unconstrained,1,L_ESI,0.008598417957510925
BMu81,25,C,REL,S2S_Unconstrained,1,R_ESI,0.0023057747799843683
BMu81,26,P,INI,S2S_Unconstrained,1,L_ESI,0.009229914961840524
BMu81,26,P,INI,S2S_Unconstrained,1,R_ESI,0.005153959344457704
BMu81,26,P,REL,S2S_Unconstrained,1,L_ESI,0.008991217344420436
BMu81,26,P,REL,S2S_Unconstrained,1,R_ESI,0.0830077164060768
BMu81,27,P,INI,S2S_Unconstrained,1,L_ESI,0.004090696566259999
BMu81,27,P,INI,S2S_Unconstrained,1,R_ESI,0.0037406219116345152
BMu81,27,P,REL,S2S_Unconstrained,1,L_ESI,0.004306034957096926
BMu81,27,P,REL,S2S_Unconstrained,1,R_ESI,0.0036664174208585476
BMu81,28,P,INI,S2S_Unconstrained,1,L_ESI,0.0027168111918584588
BMu81,28,P,INI,S2S_Unconstrained,1,R_ESI,0.003496931094573012
BMu81,28,P,REL,S2S_Unconstrained,1,L_ESI,0.0036745616468581957
BMu81,28,P,REL,S2S_Unconstrained,1,R_ESI,0.0033540551376028487
BMu81,29,P,INI,S2S_Unconstrained,1,L_ESI,0.016170309794609136
BMu81,29,P,INI,S2S_Unconstrained,1,R_ESI,0.008456884804098843
BMu81,29,P,REL,S2S_Unconstrained,1,L_ESI,0.02710604364566289
BMu81,29,P,REL,S2S_Unconstrained,1,R_ESI,0.009464193221269793
BMu81,30,P,INI,S2S_Unconstrained,1,L_ESI,0.003457162507890958
BMu81,30,P,INI,S2S_Unconstrained,1,R_ESI,0.0023272462963657256
BMu81,30,P,REL,S2S_Unconstrained,1,L_ESI,0.004245334653825993
BMu81,30,P,REL,S2S_Unconstrained,1,R_ESI,0.0027666459839098146
BMu81,32,P,INI,S2S_Unconstrained,1,L_ESI,0.004125888363166177
BMu81,32,P,INI,S2S_Unconstrained,1,R_ESI,0.002270060812659086
BMu81,32,P,REL,S2S_Unconstrained,1,L_ESI,0.003515584666088572
BMu81,32,P,REL,S2S_Unconstrained,1,R_ESI,0.0020289042372839627
BMu81,33,P,INI,S2S_Unconstrained,1,L_ESI,0.008416443883589801
BMu81,33,P,INI,S2S_Unconstrained,1,R_ESI,0.0022730250331948975
BMu81,33,P,REL,S2S_Unconstrained,1,L_ESI,0.004819156058469019
BMu81,33,P,REL,S2S_Unconstrained,1,R_ESI,0.10303242977388258
BMu81,34,P,INI,S2S_Unconstrained,1,L_ESI,0.00554954564131124
BMu81,34,P,INI,S2S_Unconstrained,1,R_ESI,0.005064552704469786
BMu81,34,P,REL,S2S_Unconstrained,1,L_ESI,0.0036807287608904295
BMu81,34,P,REL,S2S_Unconstrained,1,R_ESI,0.09542905188873889
BMu81,35,C,INI,S2S_Unconstrained,1,L_ESI,
BMu81,35,C,INI,S2S_Unconstrained,1,R_ESI,
BMu81,35,C,REL,S2S_Unconstrained,1,L_ESI,
BMu81,35,C,REL,S2S_Unconstrained,1,R_ESI,0.0037085017172458156
BMu81,36,P,INI,S2S_Unconstrained,1,L_ESI,0.008117775723201917
BMu81,36,P,INI,S2S_Unconstrained,1,R_ESI,0.005412239078898678
BMu81,36,P,REL,S2S_Unconstrained,1,L_ESI,0.007927151112751918
BMu81,36,P,REL,S2S_Unconstrained,1,R_ESI,0.0061986367928145965
BMu81,38,C,INI,S2S_Unconstrained,1,L_ESI,0.005327292972673961
BMu81,38,C,INI,S2S_Unconstrained,1,R_ESI,0.0033525841307713456
BMu81,38,C,REL,S2S_Unconstrained,1,L_ESI,0.005213305374922678
BMu81,38,C,REL,S2S_Unconstrained,1,R_ESI,0.0027828956676694302
BMu81,39,C,INI,S2S_Unconstrained,1,L_ESI,0.004477571582272003
BMu81,39,C,INI,S2S_Unconstrained,1,R_ESI,0.0031294909401700065
BMu81,39,C,REL,S2S_Unconstrained,1,L_ESI,0.004527309322213374
BMu81,39,C,REL,S2S_Unconstrained,1,R_ESI,0.0024900834462438753
BMu81,40,C,INI,S2S_Unconstrained,1,L_ESI,0.015548462224598741
BMu81,40,C,INI,S2S_Unconstrained,1,R_ESI,0.007082949140522387
BMu81,40,C,REL,S2S_Unconstrained,1,L_ESI,0.013167985050533943
BMu81,40,C,REL,S2S_Unconstrained,1,R_ESI,0.005117906626053851
BMu81,41,P,INI,S2S_Unconstrained,1,L_ESI,0.004951238238072018
BMu81,41,P,INI,S2S_Unconstrained,1,R_ESI,0.0051078214998190735
BMu81,41,P,REL,S2S_Unconstrained,1,L_ESI,0.0036877526807735307
BMu81,41,P,REL,S2S_Unconstrained,1,R_ESI,0.0031066966274514063
BMu81,42,P,INI,S2S_Unconstrained,1,L_ESI,0.0037860449361704525
BMu81,42,P,INI,S2S_Unconstrained,1,R_ESI,0.006973144729835452
BMu81,42,P,REL,S2S_Unconstrained,1,L_ESI,0.004616659345167289
BMu81,42,P,REL,S2S_Unconstrained,1,R_ESI,0.008245763635321127
BMu81,43,P,INI,S2S_Unconstrained,1,L_ESI,0.004464594253370345
BMu81,43,P,INI,S2S_Unconstrained,1,R_ESI,0.004236475367027412
BMu81,43,P,REL,S2S_Unconstrained,1,L_ESI,0.006378195489197137
BMu81,43,P,REL,S2S_Unconstrained,1,R_ESI,0.004179852749566692
BMu81,44,C,INI,S2S_Unconstrained,1,L_ESI,0.008061596204035962
BMu81,44,C,INI,S2S_Unconstrained,1,R_ESI,0.007075490630230769
BMu81,44,C,REL,S2S_Unconstrained,1,L_ESI,0.0032664502441737894
BMu81,44,C,REL,S2S_Unconstrained,1,R_ESI,0.007031547208616626
BMu81,45,P,INI,S2S_Unconstrained,1,L_ESI,
BMu81,45,P,INI,S2S_Unconstrained,1,R_ESI,
BMu81,45,P,REL,S2S_Unconstrained,1,L_ESI,
BMu81,45,P,REL,S2S_Unconstrained,1,R_ESI,0.0020080951595620312
BMu81,46,C,INI,S2S_Unconstrained,1,L_ESI,0.005523691953763631
BMu81,46,C,INI,S2S_Unconstrained,1,R_ESI,0.0023596456286872013
BMu81,46,C,REL,S2S_Unconstrained,1,L_ESI,0.004007336400631812
BMu81,46,C,REL,S2S_Unconstrained,1,R_ESI,0.002227847997624901
BMu81,47,P,INI,S2S_Unconstrained,1,L_ESI,0.0047869498320115824
BMu81,47,P,INI,S2S_Unconstrained,1,R_ESI,0.010563979598349461
BMu81,47,P,REL,S2S_Unconstrained,1,L_ESI,0.004201388947984809
BMu81,47,P,REL,S2S_Unconstrained,1,R_ESI,0.004003012441009995
BMu81,48,C,INI,S2S_Unconstrained,1,L_ESI,0.00787694199214955
BMu81,48,C,INI,S2S_Unconstrained,1,R_ESI,0.0074363807927613325
BMu81,48,C,REL,S2S_Unconstrained,1,L_ESI,0.006034676683464707
BMu81,48,C,REL,S2S_Unconstrained,1,R_ESI,0.008449240942187457
BMu81,49,C,INI,S2S_Unconstrained,1,L_ESI,0.00550463550797062
BMu81,49,C,INI,S2S_Unconstrained,1,R_ESI,0.0041741977313332485
BMu81,49,C,REL,S2S_Unconstrained,1,L_ESI,0.004513035781814293
BMu81,49,C,REL,S2S_Unconstrained,1,R_ESI,0.004945351618383879
BMu81,50,P,INI,S2S_Unconstrained,1,L_ESI,0.008711291538712269
BMu81,50,P,INI,S2S_Unconstrained,1,R_ESI,0.0031625251286437964
BMu81,50,P,REL,S2S_Unconstrained,1,L_ESI,0.006764943408856725
BMu81,50,P,REL,S2S_Unconstrained,1,R_ESI,0.00361746440548151
BMu81,51,P,INI,S2S_Unconstrained,1,L_ESI,0.002980227033018644
BMu81,51,P,INI,S2S_Unconstrained,1,R_ESI,0.003281873614577479
BMu81,51,P,REL,S2S_Unconstrained,1,L_ESI,0.0029586818553530773
BMu81,51,P,REL,S2S_Unconstrained,1,R_ESI,0.011279318305976102
BMu81,52,C,INI,S2S_Unconstrained,1,L_ESI,0.007632006217063589
BMu81,52,C,INI,S2S_Unconstrained,1,R_ESI,0.004122787204023786
BMu81,52,C,REL,S2S_Unconstrained,1,L_ESI,0.007535939475398156
BMu81,52,C,REL,S2S_Unconstrained,1,R_ESI,0.0036552498052989657
BMu81,53,P,INI,S2S_Unconstrained,1,L_ESI,0.013217697261754674
BMu81,53,P,INI,S2S_Unconstrained,1,R_ESI,0.009034343248568756
BMu81,53,P,REL,S2S_Unconstrained,1,L_ESI,0.0030316537837956053
BMu81,53,P,REL,S2S_Unconstrained,1,R_ESI,0.005324007322182939
BMu81,54,P,INI,S2S_Unconstrained,1,L_ESI,0.00393960841917487
BMu81,54,P,INI,S2S_Unconstrained,1,R_ESI,0.0051250710402153425
BMu81,54,P,REL,S2S_Unconstrained,1,L_ESI,0.0037806215769060473
BMu81,54,P,REL,S2S_Unconstrained,1,R_ESI,0.00405588785235198
BMu81,55,C,INI,S2S_Unconstrained,1,L_ESI,0.0024795654523734746
BMu81,55,C,INI,S2S_Unconstrained,1,R_ESI,0.0028414902878915794
BMu81,55,C,REL,S2S_Unconstrained,1,L_ESI,0.0050093094389964616
BMu81,55,C,REL,S2S_Unconstrained,1,R_ESI,0.003462117576276796
BMu81,56,C,INI,S2S_Unconstrained,1,L_ESI,0.005679721916785003
BMu81,56,C,INI,S2S_Unconstrained,1,R_ESI,0.0029011267635984106
BMu81,56,C,REL,S2S_Unconstrained,1,L_ESI,0.005112839163757428
BMu81,56,C,REL,S2S_Unconstrained,1,R_ESI,0.002825801699542137
BMu81,57,C,INI,S2S_Unconstrained,1,L_ESI,0.002312167854711234
BMu81,57,C,INI,S2S_Unconstrained,1,R_ESI,0.0023534869623075146
BMu81,57,C,REL,S2S_Unconstrained,1,L_ESI,0.002223660063056822
BMu81,57,C,REL,S2S_Unconstrained,1,R_ESI,0.002364777955770609
BMu81,58,P,INI,S2S_Unconstrained,1,L_ESI,0.0027862901782713654
BMu81,58,P,INI,S2S_Unconstrained,1,R_ESI,0.004499482273640791
BMu81,58,P,REL,S2S_Unconstrained,1,L_ESI,0.0031240534817715826
BMu81,58,P,REL,S2S_Unconstrained,1,R_ESI,0.004264051792155033
BMu81,60,C,INI,S2S_Unconstrained,1,L_ESI,0.005347508651988482
BMu81,60,C,INI,S2S_Unconstrained,1,R_ESI,0.004740255488940835
BMu81,60,C,REL,S2S_Unconstrained,1,L_ESI,0.004223404937649235
BMu81,60,C,REL,S2S_Unconstrained,1,R_ESI,0.004781055787295545
BMu81,61,P,INI,S2S_Unconstrained,1,L_ESI,0.006086383546194836
BMu81,61,P,INI,S2S_Unconstrained,1,R_ESI,0.002806684200290225
BMu81,61,P,REL,S2S_Unconstrained,1,L_ESI,0.009605396461591026
BMu81,61,P,REL,S2S_Unconstrained,1,R_ESI,0.0025475144706424537
BMu81,62,P,INI,S2S_Unconstrained,1,L_ESI,0.008103957503402289
BMu81,62,P,INI,S2S_Unconstrained,1,R_ESI,0.0034146744562332885
BMu81,62,P,REL,S2S_Unconstrained,1,L_ESI,0.0025283407655327843
BMu81,62,P,REL,S2S_Unconstrained,1,R_ESI,0.003265218173975204
BMu81,63,P,INI,S2S_Unconstrained,1,L_ESI,
BMu81,63,P,INI,S2S_Unconstrained,1,R_ESI,
BMu81,63,P,REL,S2S_Unconstrained,1,L_ESI,0.002208346365638478
BMu81,63,P,REL,S2S_Unconstrained,1,R_ESI,0.0019356826626071506
BMu81,64,C,INI,S2S_Unconstrained,1,L_ESI,0.005676601862458351
BMu81,64,C,INI,S2S_Unconstrained,1,R_ESI,0.004628881814287429
BMu81,64,C,REL,S2S_Unconstrained,1,L_ESI,0.007250344736871827
BMu81,64,C,REL,S2S_Unconstrained,1,R_ESI,0.004869424861581967
BMu81,65,P,INI,S2S_Unconstrained,1,L_ESI,0.009795068709653788
BMu81,65,P,INI,S2S_Unconstrained,1,R_ESI,0.0077623873303086675
BMu81,65,P,REL,S2S_Unconstrained,1,L_ESI,0.0064700760119446
BMu81,65,P,REL,S2S_Unconstrained,1,R_ESI,0.0066214399658822394
BMu81,66,C,INI,S2S_Unconstrained,1,L_ESI,0.0056813314927885395
BMu81,66,C,INI,S2S_Unconstrained,1,R_ESI,0.005349595696516781
BMu81,66,C,REL,S2S_Unconstrained,1,L_ESI,0.003530918374363578
BMu81,66,C,REL,S2S_Unconstrained,1,R_ESI,0.0037162197905273565
BMu81,67,C,INI,S2S_Unconstrained,1,L_ESI,0.005266730496909257
BMu81,67,C,INI,S2S_Unconstrained,1,R_ESI,0.006310689305373509
BMu81,67,C,REL,S2S_Unconstrained,1,L_ESI,0.004056636562620818
BMu81,67,C,REL,S2S_Unconstrained,1,R_ESI,0.004063040476413686
BMu81,68,C,INI,S2S_Unconstrained,1,L_ESI,
BMu81,68,C,INI,S2S_Unconstrained,1,R_ESI,
BMu81,68,C,REL,S2S_Unconstrained,1,L_ESI,0.006853475219065457
BMu81,68,C,REL,S2S_Unconstrained,1,R_ESI,
