BM,subject,P_C,session,task,repetition,channel,value
BMu98,1,C,INI,Weight_Unconstrained,1,L_MTF,0.017577522436743608
BMu98,1,C,INI,Weight_Unconstrained,1,R_MTF,0.1265395700181471
BMu98,1,C,REL,Weight_Unconstrained,1,L_MTF,0.015370835945017154
BMu98,1,C,REL,Weight_Unconstrained,1,R_MTF,0.01157295777701372
BMu98,2,C,INI,Weight_Unconstrained,1,L_MTF,0.03164224239463382
BMu98,2,C,INI,Weight_Unconstrained,1,R_MTF,0.026356124366097567
BMu98,2,C,REL,Weight_Unconstrained,1,L_MTF,0.028067069869778815
BMu98,2,C,REL,Weight_Unconstrained,1,R_MTF,0.030794844485468525
BMu98,3,C,INI,Weight_Unconstrained,1,L_MTF,0.01259379667506018
BMu98,3,C,INI,Weight_Unconstrained,1,R_MTF,0.018916374308260778
BMu98,3,C,REL,Weight_Unconstrained,1,L_MTF,0.01003641137838293
BMu98,3,C,REL,Weight_Unconstrained,1,R_MTF,0.012717348127349525
BMu98,5,C,INI,Weight_Unconstrained,1,L_MTF,0.03811214177602879
BMu98,5,C,INI,Weight_Unconstrained,1,R_MTF,0.026916145946740296
BMu98,5,C,REL,Weight_Unconstrained,1,L_MTF,0.03300844055290313
BMu98,5,C,REL,Weight_Unconstrained,1,R_MTF,0.026054199968195205
BMu98,6,C,INI,Weight_Unconstrained,1,L_MTF,0.007038401894140935
BMu98,6,C,INI,Weight_Unconstrained,1,R_MTF,0.009208893315506145
BMu98,6,C,REL,Weight_Unconstrained,1,L_MTF,0.00697539768791211
BMu98,6,C,REL,Weight_Unconstrained,1,R_MTF,0.008429255378728804
BMu98,7,C,INI,Weight_Unconstrained,1,L_MTF,0.07659238116412036
BMu98,7,C,INI,Weight_Unconstrained,1,R_MTF,0.046427054574058414
BMu98,7,C,REL,Weight_Unconstrained,1,L_MTF,0.05685824153104152
BMu98,7,C,REL,Weight_Unconstrained,1,R_MTF,0.05346135113914594
BMu98,8,C,INI,Weight_Unconstrained,1,L_MTF,0.05107744952991342
BMu98,8,C,INI,Weight_Unconstrained,1,R_MTF,0.010995432903471955
BMu98,8,C,REL,Weight_Unconstrained,1,L_MTF,0.012901843383963742
BMu98,8,C,REL,Weight_Unconstrained,1,R_MTF,0.009879935634525012
BMu98,9,P,INI,Weight_Unconstrained,1,L_MTF,0.019445393840892864
BMu98,9,P,INI,Weight_Unconstrained,1,R_MTF,0.020620526917785265
BMu98,9,P,REL,Weight_Unconstrained,1,L_MTF,
BMu98,9,P,REL,Weight_Unconstrained,1,R_MTF,
BMu98,10,P,INI,Weight_Unconstrained,1,L_MTF,0.2514442565173485
BMu98,10,P,INI,Weight_Unconstrained,1,R_MTF,0.2940759112981774
BMu98,10,P,REL,Weight_Unconstrained,1,L_MTF,0.01904350458956933
BMu98,10,P,REL,Weight_Unconstrained,1,R_MTF,0.1594544943382536
BMu98,11,P,INI,Weight_Unconstrained,1,L_MTF,0.02431941430266618
BMu98,11,P,INI,Weight_Unconstrained,1,R_MTF,0.035868037857862786
BMu98,11,P,REL,Weight_Unconstrained,1,L_MTF,0.025336906227331587
BMu98,11,P,REL,Weight_Unconstrained,1,R_MTF,0.022592667473531097
BMu98,12,P,INI,Weight_Unconstrained,1,L_MTF,0.0401213628657462
BMu98,12,P,INI,Weight_Unconstrained,1,R_MTF,0.01833222383585752
BMu98,12,P,REL,Weight_Unconstrained,1,L_MTF,0.05555839817516226
BMu98,12,P,REL,Weight_Unconstrained,1,R_MTF,0.0477237990874305
BMu98,13,C,INI,Weight_Unconstrained,1,L_MTF,0.01430868627405514
BMu98,13,C,INI,Weight_Unconstrained,1,R_MTF,0.011650221949584308
BMu98,13,C,REL,Weight_Unconstrained,1,L_MTF,0.01110476433068515
BMu98,13,C,REL,Weight_Unconstrained,1,R_MTF,0.010040707654223373
BMu98,14,P,INI,Weight_Unconstrained,1,L_MTF,0.017153927454260386
BMu98,14,P,INI,Weight_Unconstrained,1,R_MTF,0.013008205514107913
BMu98,14,P,REL,Weight_Unconstrained,1,L_MTF,0.015276030247343237
BMu98,14,P,REL,Weight_Unconstrained,1,R_MTF,0.011791638155964039
BMu98,16,C,INI,Weight_Unconstrained,1,L_MTF,0.01359358126826637
BMu98,16,C,INI,Weight_Unconstrained,1,R_MTF,0.06604553104002835
BMu98,16,C,REL,Weight_Unconstrained,1,L_MTF,0.013261478640162513
BMu98,16,C,REL,Weight_Unconstrained,1,R_MTF,0.010473494766853615
BMu98,17,P,INI,Weight_Unconstrained,1,L_MTF,0.015718564268413584
BMu98,17,P,INI,Weight_Unconstrained,1,R_MTF,0.013144750076575
BMu98,17,P,REL,Weight_Unconstrained,1,L_MTF,0.01891737589422961
BMu98,17,P,REL,Weight_Unconstrained,1,R_MTF,0.014217428830655703
BMu98,21,C,INI,Weight_Unconstrained,1,L_MTF,0.3166879486904874
BMu98,21,C,INI,Weight_Unconstrained,1,R_MTF,0.03718412424757373
BMu98,21,C,REL,Weight_Unconstrained,1,L_MTF,0.043341422685499176
BMu98,21,C,REL,Weight_Unconstrained,1,R_MTF,0.037474393547622026
BMu98,22,C,INI,Weight_Unconstrained,1,L_MTF,0.011750606934433819
BMu98,22,C,INI,Weight_Unconstrained,1,R_MTF,0.05411202163929319
BMu98,22,C,REL,Weight_Unconstrained,1,L_MTF,
BMu98,22,C,REL,Weight_Unconstrained,1,R_MTF,
BMu98,23,C,INI,Weight_Unconstrained,1,L_MTF,0.024256688991454136
BMu98,23,C,INI,Weight_Unconstrained,1,R_MTF,0.019398602991635736
BMu98,23,C,REL,Weight_Unconstrained,1,L_MTF,0.016092256337405474
BMu98,23,C,REL,Weight_Unconstrained,1,R_MTF,0.013878484243895659
BMu98,24,P,INI,Weight_Unconstrained,1,L_MTF,0.014129325920388859
BMu98,24,P,INI,Weight_Unconstrained,1,R_MTF,0.010679118451854338
BMu98,24,P,REL,Weight_Unconstrained,1,L_MTF,0.012693566635643645
BMu98,24,P,REL,Weight_Unconstrained,1,R_MTF,0.00661369095006866
BMu98,25,C,INI,Weight_Unconstrained,1,L_MTF,0.09176085995475029
BMu98,25,C,INI,Weight_Unconstrained,1,R_MTF,0.02400402796195883
BMu98,25,C,REL,Weight_Unconstrained,1,L_MTF,0.0443318096293527
BMu98,25,C,REL,Weight_Unconstrained,1,R_MTF,0.02262093735165885
BMu98,26,P,INI,Weight_Unconstrained,1,L_MTF,0.00975424065182618
BMu98,26,P,INI,Weight_Unconstrained,1,R_MTF,0.09166634645166732
BMu98,26,P,REL,Weight_Unconstrained,1,L_MTF,0.009624909852401229
BMu98,26,P,REL,Weight_Unconstrained,1,R_MTF,0.1297931788859179
BMu98,27,P,INI,Weight_Unconstrained,1,L_MTF,0.01977677537627436
BMu98,27,P,INI,Weight_Unconstrained,1,R_MTF,0.015964620100468545
BMu98,27,P,REL,Weight_Unconstrained,1,L_MTF,0.01966016597631752
BMu98,27,P,REL,Weight_Unconstrained,1,R_MTF,0.014270124740535196
BMu98,28,P,INI,Weight_Unconstrained,1,L_MTF,0.016783406166811527
BMu98,28,P,INI,Weight_Unconstrained,1,R_MTF,0.012048028760741658
BMu98,28,P,REL,Weight_Unconstrained,1,L_MTF,0.016367693708828557
BMu98,28,P,REL,Weight_Unconstrained,1,R_MTF,0.01178172020057694
BMu98,29,P,INI,Weight_Unconstrained,1,L_MTF,0.041081464228992205
BMu98,29,P,INI,Weight_Unconstrained,1,R_MTF,0.029162227154729613
BMu98,29,P,REL,Weight_Unconstrained,1,L_MTF,0.033937412515725456
BMu98,29,P,REL,Weight_Unconstrained,1,R_MTF,0.02876689297807315
BMu98,30,P,INI,Weight_Unconstrained,1,L_MTF,0.05261742261939706
BMu98,30,P,INI,Weight_Unconstrained,1,R_MTF,0.1131797115998359
BMu98,30,P,REL,Weight_Unconstrained,1,L_MTF,0.005305735348164695
BMu98,30,P,REL,Weight_Unconstrained,1,R_MTF,0.008660466258064875
BMu98,32,P,INI,Weight_Unconstrained,1,L_MTF,0.01537361163615373
BMu98,32,P,INI,Weight_Unconstrained,1,R_MTF,0.01170369641717355
BMu98,32,P,REL,Weight_Unconstrained,1,L_MTF,0.01856594612278973
BMu98,32,P,REL,Weight_Unconstrained,1,R_MTF,0.012864046529557431
BMu98,33,P,INI,Weight_Unconstrained,1,L_MTF,0.013239614100624566
BMu98,33,P,INI,Weight_Unconstrained,1,R_MTF,0.013891233327445142
BMu98,33,P,REL,Weight_Unconstrained,1,L_MTF,0.00964378468902259
BMu98,33,P,REL,Weight_Unconstrained,1,R_MTF,0.012954093202605111
BMu98,34,P,INI,Weight_Unconstrained,1,L_MTF,0.00972487134423932
BMu98,34,P,INI,Weight_Unconstrained,1,R_MTF,0.2972083999315393
BMu98,34,P,REL,Weight_Unconstrained,1,L_MTF,0.011535649221357398
BMu98,34,P,REL,Weight_Unconstrained,1,R_MTF,0.012112544464912398
BMu98,35,C,INI,Weight_Unconstrained,1,L_MTF,0.02841372297910869
BMu98,35,C,INI,Weight_Unconstrained,1,R_MTF,0.02686897804406103
BMu98,35,C,REL,Weight_Unconstrained,1,L_MTF,0.023275321962335904
BMu98,35,C,REL,Weight_Unconstrained,1,R_MTF,0.02190657487348709
BMu98,36,P,INI,Weight_Unconstrained,1,L_MTF,0.041630363395743296
BMu98,36,P,INI,Weight_Unconstrained,1,R_MTF,0.04108394918234432
BMu98,36,P,REL,Weight_Unconstrained,1,L_MTF,0.035822969478527714
BMu98,36,P,REL,Weight_Unconstrained,1,R_MTF,0.025372046920761584
BMu98,38,C,INI,Weight_Unconstrained,1,L_MTF,0.04307697897315674
BMu98,38,C,INI,Weight_Unconstrained,1,R_MTF,0.015961610638547875
BMu98,38,C,REL,Weight_Unconstrained,1,L_MTF,0.01716904501474306
BMu98,38,C,REL,Weight_Unconstrained,1,R_MTF,0.016671898233236976
BMu98,39,C,INI,Weight_Unconstrained,1,L_MTF,0.013258178087562049
BMu98,39,C,INI,Weight_Unconstrained,1,R_MTF,0.007580347301784053
BMu98,39,C,REL,Weight_Unconstrained,1,L_MTF,0.013571601984781015
BMu98,39,C,REL,Weight_Unconstrained,1,R_MTF,0.00819573555165131
BMu98,40,C,INI,Weight_Unconstrained,1,L_MTF,0.03534013813976651
BMu98,40,C,INI,Weight_Unconstrained,1,R_MTF,0.018955067862639844
BMu98,40,C,REL,Weight_Unconstrained,1,L_MTF,0.02859842690660594
BMu98,40,C,REL,Weight_Unconstrained,1,R_MTF,0.022216744376478827
BMu98,41,P,INI,Weight_Unconstrained,1,L_MTF,0.028272242380744352
BMu98,41,P,INI,Weight_Unconstrained,1,R_MTF,0.025785039203244542
BMu98,41,P,REL,Weight_Unconstrained,1,L_MTF,0.0265413307052756
BMu98,41,P,REL,Weight_Unconstrained,1,R_MTF,0.02183540395959374
BMu98,42,P,INI,Weight_Unconstrained,1,L_MTF,0.030071680537289345
BMu98,42,P,INI,Weight_Unconstrained,1,R_MTF,0.03044295086031341
BMu98,42,P,REL,Weight_Unconstrained,1,L_MTF,0.02864953777468356
BMu98,42,P,REL,Weight_Unconstrained,1,R_MTF,0.026134909126595596
BMu98,43,P,INI,Weight_Unconstrained,1,L_MTF,0.035481174351641755
BMu98,43,P,INI,Weight_Unconstrained,1,R_MTF,0.02071028359388
BMu98,43,P,REL,Weight_Unconstrained,1,L_MTF,0.03342840428854095
BMu98,43,P,REL,Weight_Unconstrained,1,R_MTF,0.028298510164437456
BMu98,44,C,INI,Weight_Unconstrained,1,L_MTF,0.11666190153418902
BMu98,44,C,INI,Weight_Unconstrained,1,R_MTF,0.023696078033236357
BMu98,44,C,REL,Weight_Unconstrained,1,L_MTF,0.01794846212543613
BMu98,44,C,REL,Weight_Unconstrained,1,R_MTF,0.022244288589876093
BMu98,45,P,INI,Weight_Unconstrained,1,L_MTF,0.01087981516459568
BMu98,45,P,INI,Weight_Unconstrained,1,R_MTF,0.008136052039389318
BMu98,45,P,REL,Weight_Unconstrained,1,L_MTF,0.011238523395476605
BMu98,45,P,REL,Weight_Unconstrained,1,R_MTF,0.008626936189099049
BMu98,46,C,INI,Weight_Unconstrained,1,L_MTF,0.11816691639188111
BMu98,46,C,INI,Weight_Unconstrained,1,R_MTF,0.020295727465639648
BMu98,46,C,REL,Weight_Unconstrained,1,L_MTF,0.021118205569619908
BMu98,46,C,REL,Weight_Unconstrained,1,R_MTF,0.02597310389032287
BMu98,47,P,INI,Weight_Unconstrained,1,L_MTF,0.031048216847373033
BMu98,47,P,INI,Weight_Unconstrained,1,R_MTF,0.02173033407534268
BMu98,47,P,REL,Weight_Unconstrained,1,L_MTF,0.022187729506374636
BMu98,47,P,REL,Weight_Unconstrained,1,R_MTF,0.021562024591716255
BMu98,48,C,INI,Weight_Unconstrained,1,L_MTF,0.02916477263655474
BMu98,48,C,INI,Weight_Unconstrained,1,R_MTF,0.034248460873275446
BMu98,48,C,REL,Weight_Unconstrained,1,L_MTF,0.026435329333114776
BMu98,48,C,REL,Weight_Unconstrained,1,R_MTF,0.03106056635810565
BMu98,49,C,INI,Weight_Unconstrained,1,L_MTF,0.025240047269548357
BMu98,49,C,INI,Weight_Unconstrained,1,R_MTF,0.03613232016851727
BMu98,49,C,REL,Weight_Unconstrained,1,L_MTF,0.02237187911397241
BMu98,49,C,REL,Weight_Unconstrained,1,R_MTF,0.024903160416912914
BMu98,50,P,INI,Weight_Unconstrained,1,L_MTF,0.04453475564198422
BMu98,50,P,INI,Weight_Unconstrained,1,R_MTF,0.06876212510119774
BMu98,50,P,REL,Weight_Unconstrained,1,L_MTF,0.047937508429925973
BMu98,50,P,REL,Weight_Unconstrained,1,R_MTF,0.06040438117447985
BMu98,51,P,INI,Weight_Unconstrained,1,L_MTF,0.012745643635111492
BMu98,51,P,INI,Weight_Unconstrained,1,R_MTF,0.009116572403565138
BMu98,51,P,REL,Weight_Unconstrained,1,L_MTF,0.008173099662609793
BMu98,51,P,REL,Weight_Unconstrained,1,R_MTF,0.006526794262828198
BMu98,52,C,INI,Weight_Unconstrained,1,L_MTF,0.03715543523450745
BMu98,52,C,INI,Weight_Unconstrained,1,R_MTF,0.03186725863355711
BMu98,52,C,REL,Weight_Unconstrained,1,L_MTF,0.04488004206428146
BMu98,52,C,REL,Weight_Unconstrained,1,R_MTF,0.027961545550068412
BMu98,53,P,INI,Weight_Unconstrained,1,L_MTF,0.012648311124579627
BMu98,53,P,INI,Weight_Unconstrained,1,R_MTF,0.012522747203876661
BMu98,53,P,REL,Weight_Unconstrained,1,L_MTF,0.013413960169354427
BMu98,53,P,REL,Weight_Unconstrained,1,R_MTF,0.011911005593265288
BMu98,54,P,INI,Weight_Unconstrained,1,L_MTF,0.022012777776641724
BMu98,54,P,INI,Weight_Unconstrained,1,R_MTF,0.03399481677270603
BMu98,54,P,REL,Weight_Unconstrained,1,L_MTF,0.01997430457204975
BMu98,54,P,REL,Weight_Unconstrained,1,R_MTF,0.031633379710803725
BMu98,55,C,INI,Weight_Unconstrained,1,L_MTF,0.025577935451674378
BMu98,55,C,INI,Weight_Unconstrained,1,R_MTF,0.010001385789133371
BMu98,55,C,REL,Weight_Unconstrained,1,L_MTF,0.022374734792802383
BMu98,55,C,REL,Weight_Unconstrained,1,R_MTF,0.013774179598079228
BMu98,56,C,INI,Weight_Unconstrained,1,L_MTF,0.03030514427782798
BMu98,56,C,INI,Weight_Unconstrained,1,R_MTF,0.019910874722414165
BMu98,56,C,REL,Weight_Unconstrained,1,L_MTF,0.03473788103950963
BMu98,56,C,REL,Weight_Unconstrained,1,R_MTF,0.023974274673223366
BMu98,57,C,INI,Weight_Unconstrained,1,L_MTF,
BMu98,57,C,INI,Weight_Unconstrained,1,R_MTF,0.04038386017983226
BMu98,57,C,REL,Weight_Unconstrained,1,L_MTF,0.011026156668476778
BMu98,57,C,REL,Weight_Unconstrained,1,R_MTF,0.014011790011717479
BMu98,58,P,INI,Weight_Unconstrained,1,L_MTF,0.02164647997550505
BMu98,58,P,INI,Weight_Unconstrained,1,R_MTF,0.008787516524289697
BMu98,58,P,REL,Weight_Unconstrained,1,L_MTF,0.01248571078442478
BMu98,58,P,REL,Weight_Unconstrained,1,R_MTF,0.0066676628387121245
BMu98,60,C,INI,Weight_Unconstrained,1,L_MTF,0.01773130965793426
BMu98,60,C,INI,Weight_Unconstrained,1,R_MTF,0.015059468801527478
BMu98,60,C,REL,Weight_Unconstrained,1,L_MTF,0.020100656376454536
BMu98,60,C,REL,Weight_Unconstrained,1,R_MTF,0.018326489150798462
BMu98,61,P,INI,Weight_Unconstrained,1,L_MTF,0.034998444204730854
BMu98,61,P,INI,Weight_Unconstrained,1,R_MTF,0.012377197848712504
BMu98,61,P,REL,Weight_Unconstrained,1,L_MTF,0.019254373301877566
BMu98,61,P,REL,Weight_Unconstrained,1,R_MTF,0.013190938851536818
BMu98,62,P,INI,Weight_Unconstrained,1,L_MTF,0.012553872343088938
BMu98,62,P,INI,Weight_Unconstrained,1,R_MTF,0.010057590558875514
BMu98,62,P,REL,Weight_Unconstrained,1,L_MTF,0.014753005667395317
BMu98,62,P,REL,Weight_Unconstrained,1,R_MTF,0.012459319366816407
BMu98,63,P,INI,Weight_Unconstrained,1,L_MTF,0.032626064503453
BMu98,63,P,INI,Weight_Unconstrained,1,R_MTF,0.01589556067029378
BMu98,63,P,REL,Weight_Unconstrained,1,L_MTF,0.02011527187131814
BMu98,63,P,REL,Weight_Unconstrained,1,R_MTF,0.015250670105107805
BMu98,64,C,INI,Weight_Unconstrained,1,L_MTF,0.027871678284933324
BMu98,64,C,INI,Weight_Unconstrained,1,R_MTF,0.0288718129280192
BMu98,64,C,REL,Weight_Unconstrained,1,L_MTF,0.024488429579843526
BMu98,64,C,REL,Weight_Unconstrained,1,R_MTF,0.02671833702947443
BMu98,65,P,INI,Weight_Unconstrained,1,L_MTF,0.0288245593669668
BMu98,65,P,INI,Weight_Unconstrained,1,R_MTF,0.03224044731089326
BMu98,65,P,REL,Weight_Unconstrained,1,L_MTF,0.033707691649226094
BMu98,65,P,REL,Weight_Unconstrained,1,R_MTF,0.032922744393408504
BMu98,66,C,INI,Weight_Unconstrained,1,L_MTF,0.046936740230891054
BMu98,66,C,INI,Weight_Unconstrained,1,R_MTF,0.05774241631220182
BMu98,66,C,REL,Weight_Unconstrained,1,L_MTF,0.062258470867738225
BMu98,66,C,REL,Weight_Unconstrained,1,R_MTF,0.02369357845350345
BMu98,67,C,INI,Weight_Unconstrained,1,L_MTF,0.036726454080124905
BMu98,67,C,INI,Weight_Unconstrained,1,R_MTF,0.04067900217903515
BMu98,67,C,REL,Weight_Unconstrained,1,L_MTF,0.044628516205422165
BMu98,67,C,REL,Weight_Unconstrained,1,R_MTF,0.038107011181825814
BMu98,68,C,INI,Weight_Unconstrained,1,L_MTF,0.036062387695697674
BMu98,68,C,INI,Weight_Unconstrained,1,R_MTF,0.03953721620958635
BMu98,68,C,REL,Weight_Unconstrained,1,L_MTF,0.03453613254506773
BMu98,68,C,REL,Weight_Unconstrained,1,R_MTF,0.028742993251626905
