BM,subject,P_C,session,task,repetition,channel,value
BMu91,1,C,INI,Trunk_Forward,1,L_LES,0.004392501759065417
BMu91,1,C,INI,Trunk_Forward,1,R_LES,0.0032455274047289775
BMu91,1,C,REL,Trunk_Forward,1,L_LES,0.007502912715175387
BMu91,1,C,REL,Trunk_Forward,1,R_LES,0.013565382315097551
BMu91,2,C,INI,Trunk_Forward,1,L_LES,0.001833372831861531
BMu91,2,C,INI,Trunk_Forward,1,R_LES,0.0017982826221807646
BMu91,2,C,REL,Trunk_Forward,1,L_LES,0.002182514770523207
BMu91,2,C,REL,Trunk_Forward,1,R_LES,0.001577167589553339
BMu91,3,C,INI,Trunk_Forward,1,L_LES,0.0014900408223932993
BMu91,3,C,INI,Trunk_Forward,1,R_LES,0.001779745948732585
BMu91,3,C,REL,Trunk_Forward,1,L_LES,0.020286146491425832
BMu91,3,C,REL,Trunk_Forward,1,R_LES,0.0019365495249445773
BMu91,5,C,INI,Trunk_Forward,1,L_LES,0.0029994773382411278
BMu91,5,C,INI,Trunk_Forward,1,R_LES,0.0019109680883810161
BMu91,5,C,REL,Trunk_Forward,1,L_LES,0.004881248488460256
BMu91,5,C,REL,Trunk_Forward,1,R_LES,0.0019290884731575503
BMu91,6,C,INI,Trunk_Forward,1,L_LES,0.001588151195982684
BMu91,6,C,INI,Trunk_Forward,1,R_LES,0.0034287211494170157
BMu91,6,C,REL,Trunk_Forward,1,L_LES,0.001870237086962659
BMu91,6,C,REL,Trunk_Forward,1,R_LES,0.002484307766096143
BMu91,7,C,INI,Trunk_Forward,1,L_LES,0.019082896985932258
BMu91,7,C,INI,Trunk_Forward,1,R_LES,0.005361415547820648
BMu91,7,C,REL,Trunk_Forward,1,L_LES,0.019678740565417612
BMu91,7,C,REL,Trunk_Forward,1,R_LES,0.005393704471395261
BMu91,8,C,INI,Trunk_Forward,1,L_LES,0.001862299150781322
BMu91,8,C,INI,Trunk_Forward,1,R_LES,0.0017592372692333258
BMu91,8,C,REL,Trunk_Forward,1,L_LES,0.004027558493492025
BMu91,8,C,REL,Trunk_Forward,1,R_LES,0.0018381687675753007
BMu91,9,P,INI,Trunk_Forward,1,L_LES,0.005975431706050137
BMu91,9,P,INI,Trunk_Forward,1,R_LES,0.005011270545092324
BMu91,9,P,REL,Trunk_Forward,1,L_LES,0.008134213670333488
BMu91,9,P,REL,Trunk_Forward,1,R_LES,0.009051972656369188
BMu91,10,P,INI,Trunk_Forward,1,L_LES,0.0024330020053144603
BMu91,10,P,INI,Trunk_Forward,1,R_LES,0.006466509156233576
BMu91,10,P,REL,Trunk_Forward,1,L_LES,0.002724619537527268
BMu91,10,P,REL,Trunk_Forward,1,R_LES,0.005752156426253676
BMu91,11,P,INI,Trunk_Forward,1,L_LES,0.011295603963219061
BMu91,11,P,INI,Trunk_Forward,1,R_LES,0.00407384872518585
BMu91,11,P,REL,Trunk_Forward,1,L_LES,0.017708886425082157
BMu91,11,P,REL,Trunk_Forward,1,R_LES,0.006154905705733998
BMu91,12,P,INI,Trunk_Forward,1,L_LES,0.003398107175467471
BMu91,12,P,INI,Trunk_Forward,1,R_LES,0.0028841634732797382
BMu91,12,P,REL,Trunk_Forward,1,L_LES,0.0037945444489466164
BMu91,12,P,REL,Trunk_Forward,1,R_LES,0.003953568798204782
BMu91,13,C,INI,Trunk_Forward,1,L_LES,0.004543972867470841
BMu91,13,C,INI,Trunk_Forward,1,R_LES,0.005165135775739472
BMu91,13,C,REL,Trunk_Forward,1,L_LES,0.002537545092569421
BMu91,13,C,REL,Trunk_Forward,1,R_LES,0.003369335662342661
BMu91,14,P,INI,Trunk_Forward,1,L_LES,0.0027452675773665647
BMu91,14,P,INI,Trunk_Forward,1,R_LES,0.0026748665025291747
BMu91,14,P,REL,Trunk_Forward,1,L_LES,0.026759620299067317
BMu91,14,P,REL,Trunk_Forward,1,R_LES,0.002059594679576143
BMu91,16,C,INI,Trunk_Forward,1,L_LES,0.002601499241383406
BMu91,16,C,INI,Trunk_Forward,1,R_LES,0.0019211927597130411
BMu91,16,C,REL,Trunk_Forward,1,L_LES,0.0017093106775513314
BMu91,16,C,REL,Trunk_Forward,1,R_LES,0.0014803936505231724
BMu91,17,P,INI,Trunk_Forward,1,L_LES,0.005160594698078776
BMu91,17,P,INI,Trunk_Forward,1,R_LES,0.005386783666512229
BMu91,17,P,REL,Trunk_Forward,1,L_LES,0.0027332345381539196
BMu91,17,P,REL,Trunk_Forward,1,R_LES,0.004486371333614412
BMu91,21,C,INI,Trunk_Forward,1,L_LES,0.001661599844371019
BMu91,21,C,INI,Trunk_Forward,1,R_LES,0.0017336964688452695
BMu91,21,C,REL,Trunk_Forward,1,L_LES,0.007789166740030588
BMu91,21,C,REL,Trunk_Forward,1,R_LES,0.0014143191529282263
BMu91,22,C,INI,Trunk_Forward,1,L_LES,0.002700012421999492
BMu91,22,C,INI,Trunk_Forward,1,R_LES,0.004014427996019876
BMu91,22,C,REL,Trunk_Forward,1,L_LES,0.00262512162108746
BMu91,22,C,REL,Trunk_Forward,1,R_LES,0.003329046902337259
BMu91,23,C,INI,Trunk_Forward,1,L_LES,0.002360692893281691
BMu91,23,C,INI,Trunk_Forward,1,R_LES,0.0014175122773263237
BMu91,23,C,REL,Trunk_Forward,1,L_LES,0.0020175995327708558
BMu91,23,C,REL,Trunk_Forward,1,R_LES,0.0017007324386913946
BMu91,24,P,INI,Trunk_Forward,1,L_LES,0.0045134574413534774
BMu91,24,P,INI,Trunk_Forward,1,R_LES,0.004838882742564891
BMu91,24,P,REL,Trunk_Forward,1,L_LES,0.00713190122006471
BMu91,24,P,REL,Trunk_Forward,1,R_LES,0.0053838147719865405
BMu91,25,C,INI,Trunk_Forward,1,L_LES,0.010061129094053899
BMu91,25,C,INI,Trunk_Forward,1,R_LES,0.0033894800392368194
BMu91,25,C,REL,Trunk_Forward,1,L_LES,0.008156414122233233
BMu91,25,C,REL,Trunk_Forward,1,R_LES,0.004358396655309393
BMu91,26,P,INI,Trunk_Forward,1,L_LES,0.001752662687051618
BMu91,26,P,INI,Trunk_Forward,1,R_LES,0.0021700556010290834
BMu91,26,P,REL,Trunk_Forward,1,L_LES,0.0028463636465829514
BMu91,26,P,REL,Trunk_Forward,1,R_LES,0.002240340332580014
BMu91,27,P,INI,Trunk_Forward,1,L_LES,0.0018616811919452477
BMu91,27,P,INI,Trunk_Forward,1,R_LES,0.002401175280647726
BMu91,27,P,REL,Trunk_Forward,1,L_LES,0.0027370363643360674
BMu91,27,P,REL,Trunk_Forward,1,R_LES,0.0026846182282467216
BMu91,28,P,INI,Trunk_Forward,1,L_LES,0.0029871381602762856
BMu91,28,P,INI,Trunk_Forward,1,R_LES,0.0034603486485592513
BMu91,28,P,REL,Trunk_Forward,1,L_LES,0.003197533852630862
BMu91,28,P,REL,Trunk_Forward,1,R_LES,0.0033646148588579415
BMu91,29,P,INI,Trunk_Forward,1,L_LES,0.01092673624738967
BMu91,29,P,INI,Trunk_Forward,1,R_LES,0.010884326564227916
BMu91,29,P,REL,Trunk_Forward,1,L_LES,0.004829908191922089
BMu91,29,P,REL,Trunk_Forward,1,R_LES,0.005685582148712479
BMu91,30,P,INI,Trunk_Forward,1,L_LES,0.0036175255500791644
BMu91,30,P,INI,Trunk_Forward,1,R_LES,0.004657123727928837
BMu91,30,P,REL,Trunk_Forward,1,L_LES,0.004339822370385733
BMu91,30,P,REL,Trunk_Forward,1,R_LES,0.004620926809720812
BMu91,32,P,INI,Trunk_Forward,1,L_LES,0.002380903181785505
BMu91,32,P,INI,Trunk_Forward,1,R_LES,0.002346272340059047
BMu91,32,P,REL,Trunk_Forward,1,L_LES,0.002288861218099268
BMu91,32,P,REL,Trunk_Forward,1,R_LES,0.0016433199162323186
BMu91,33,P,INI,Trunk_Forward,1,L_LES,0.005306458804935207
BMu91,33,P,INI,Trunk_Forward,1,R_LES,0.002691311225605532
BMu91,33,P,REL,Trunk_Forward,1,L_LES,0.0021531801989871867
BMu91,33,P,REL,Trunk_Forward,1,R_LES,0.0014269075487934792
BMu91,34,P,INI,Trunk_Forward,1,L_LES,0.0020917724705633084
BMu91,34,P,INI,Trunk_Forward,1,R_LES,0.002053888006230971
BMu91,34,P,REL,Trunk_Forward,1,L_LES,0.0019369772343625746
BMu91,34,P,REL,Trunk_Forward,1,R_LES,0.0020690934255833764
BMu91,35,C,INI,Trunk_Forward,1,L_LES,0.004944415901004295
BMu91,35,C,INI,Trunk_Forward,1,R_LES,0.004798330672278215
BMu91,35,C,REL,Trunk_Forward,1,L_LES,0.0024685173458306297
BMu91,35,C,REL,Trunk_Forward,1,R_LES,0.0027727739440609454
BMu91,36,P,INI,Trunk_Forward,1,L_LES,0.0026522679406728814
BMu91,36,P,INI,Trunk_Forward,1,R_LES,0.0030775095876342576
BMu91,36,P,REL,Trunk_Forward,1,L_LES,0.0020047728761246786
BMu91,36,P,REL,Trunk_Forward,1,R_LES,0.003660587831586726
BMu91,38,C,INI,Trunk_Forward,1,L_LES,0.029865936649581582
BMu91,38,C,INI,Trunk_Forward,1,R_LES,0.034717911750304524
BMu91,38,C,REL,Trunk_Forward,1,L_LES,0.0072695496900729946
BMu91,38,C,REL,Trunk_Forward,1,R_LES,0.00246718918625541
BMu91,39,C,INI,Trunk_Forward,1,L_LES,0.00418639353529346
BMu91,39,C,INI,Trunk_Forward,1,R_LES,0.0039217342757690375
BMu91,39,C,REL,Trunk_Forward,1,L_LES,0.0033882402435269723
BMu91,39,C,REL,Trunk_Forward,1,R_LES,0.0046153377529379236
BMu91,40,C,INI,Trunk_Forward,1,L_LES,0.006954171780769934
BMu91,40,C,INI,Trunk_Forward,1,R_LES,0.010315969977591065
BMu91,40,C,REL,Trunk_Forward,1,L_LES,0.0044491738771261485
BMu91,40,C,REL,Trunk_Forward,1,R_LES,0.005959010821968908
BMu91,41,P,INI,Trunk_Forward,1,L_LES,0.0015921323533362914
BMu91,41,P,INI,Trunk_Forward,1,R_LES,0.002485555064065406
BMu91,41,P,REL,Trunk_Forward,1,L_LES,0.0019089082711521094
BMu91,41,P,REL,Trunk_Forward,1,R_LES,0.003003401991936648
BMu91,42,P,INI,Trunk_Forward,1,L_LES,0.0031412035618683227
BMu91,42,P,INI,Trunk_Forward,1,R_LES,0.005976578852043121
BMu91,42,P,REL,Trunk_Forward,1,L_LES,0.0030077062369352346
BMu91,42,P,REL,Trunk_Forward,1,R_LES,0.006581058127841925
BMu91,43,P,INI,Trunk_Forward,1,L_LES,0.0069430708797262085
BMu91,43,P,INI,Trunk_Forward,1,R_LES,0.004034988438110217
BMu91,43,P,REL,Trunk_Forward,1,L_LES,0.004782659363012375
BMu91,43,P,REL,Trunk_Forward,1,R_LES,0.0017812135297723879
BMu91,44,C,INI,Trunk_Forward,1,L_LES,0.00212479178130716
BMu91,44,C,INI,Trunk_Forward,1,R_LES,0.003111094182671626
BMu91,44,C,REL,Trunk_Forward,1,L_LES,0.001954798892604613
BMu91,44,C,REL,Trunk_Forward,1,R_LES,0.002041352145182062
BMu91,45,P,INI,Trunk_Forward,1,L_LES,0.0016639328223546385
BMu91,45,P,INI,Trunk_Forward,1,R_LES,0.0017121026679342646
BMu91,45,P,REL,Trunk_Forward,1,L_LES,0.002654218536240372
BMu91,45,P,REL,Trunk_Forward,1,R_LES,0.001595645703027104
BMu91,46,C,INI,Trunk_Forward,1,L_LES,0.015890808705994183
BMu91,46,C,INI,Trunk_Forward,1,R_LES,0.005590030997918531
BMu91,46,C,REL,Trunk_Forward,1,L_LES,0.0025893227001364313
BMu91,46,C,REL,Trunk_Forward,1,R_LES,0.002429463064572318
BMu91,47,P,INI,Trunk_Forward,1,L_LES,0.0027315896023809246
BMu91,47,P,INI,Trunk_Forward,1,R_LES,0.0026267627270307333
BMu91,47,P,REL,Trunk_Forward,1,L_LES,0.002000862895435705
BMu91,47,P,REL,Trunk_Forward,1,R_LES,0.0021738302553597484
BMu91,48,C,INI,Trunk_Forward,1,L_LES,0.004036547584846906
BMu91,48,C,INI,Trunk_Forward,1,R_LES,0.01454172163113937
BMu91,48,C,REL,Trunk_Forward,1,L_LES,0.003314629482593829
BMu91,48,C,REL,Trunk_Forward,1,R_LES,0.012361882457780726
BMu91,49,C,INI,Trunk_Forward,1,L_LES,0.003762393735547974
BMu91,49,C,INI,Trunk_Forward,1,R_LES,0.0028723909583907577
BMu91,49,C,REL,Trunk_Forward,1,L_LES,0.003990888054775508
BMu91,49,C,REL,Trunk_Forward,1,R_LES,0.004591576931427249
BMu91,50,P,INI,Trunk_Forward,1,L_LES,0.020629799533226963
BMu91,50,P,INI,Trunk_Forward,1,R_LES,0.012853213490182138
BMu91,50,P,REL,Trunk_Forward,1,L_LES,0.01916616355151976
BMu91,50,P,REL,Trunk_Forward,1,R_LES,0.011808870767643018
BMu91,51,P,INI,Trunk_Forward,1,L_LES,0.0018668571005009732
BMu91,51,P,INI,Trunk_Forward,1,R_LES,0.0018422824935381092
BMu91,51,P,REL,Trunk_Forward,1,L_LES,0.003402826743398424
BMu91,51,P,REL,Trunk_Forward,1,R_LES,0.003823571049882627
BMu91,52,C,INI,Trunk_Forward,1,L_LES,0.003139632845707422
BMu91,52,C,INI,Trunk_Forward,1,R_LES,0.005952387219398811
BMu91,52,C,REL,Trunk_Forward,1,L_LES,0.0038514167814347744
BMu91,52,C,REL,Trunk_Forward,1,R_LES,0.0053344761430704326
BMu91,53,P,INI,Trunk_Forward,1,L_LES,0.005042162755508075
BMu91,53,P,INI,Trunk_Forward,1,R_LES,0.004735983715611348
BMu91,53,P,REL,Trunk_Forward,1,L_LES,0.003685833762628018
BMu91,53,P,REL,Trunk_Forward,1,R_LES,0.0038905027808543422
BMu91,54,P,INI,Trunk_Forward,1,L_LES,0.0021924449374183716
BMu91,54,P,INI,Trunk_Forward,1,R_LES,0.0024851787265277258
BMu91,54,P,REL,Trunk_Forward,1,L_LES,0.002225283037000129
BMu91,54,P,REL,Trunk_Forward,1,R_LES,0.0030680493533085207
BMu91,55,C,INI,Trunk_Forward,1,L_LES,0.007145609228951653
BMu91,55,C,INI,Trunk_Forward,1,R_LES,0.0035022737110750424
BMu91,55,C,REL,Trunk_Forward,1,L_LES,0.005825616607115257
BMu91,55,C,REL,Trunk_Forward,1,R_LES,0.0022479206052673497
BMu91,56,C,INI,Trunk_Forward,1,L_LES,0.0025105151101209523
BMu91,56,C,INI,Trunk_Forward,1,R_LES,0.0017737366345046274
BMu91,56,C,REL,Trunk_Forward,1,L_LES,0.002866901278222447
BMu91,56,C,REL,Trunk_Forward,1,R_LES,0.00213251855423134
BMu91,57,C,INI,Trunk_Forward,1,L_LES,0.020652799989023446
BMu91,57,C,INI,Trunk_Forward,1,R_LES,0.002174664297862275
BMu91,57,C,REL,Trunk_Forward,1,L_LES,0.010568484945947781
BMu91,57,C,REL,Trunk_Forward,1,R_LES,0.0026806736215798793
BMu91,58,P,INI,Trunk_Forward,1,L_LES,0.0025418236276569823
BMu91,58,P,INI,Trunk_Forward,1,R_LES,0.0020831389855369992
BMu91,58,P,REL,Trunk_Forward,1,L_LES,0.01887378695118635
BMu91,58,P,REL,Trunk_Forward,1,R_LES,0.004069843917729864
BMu91,60,C,INI,Trunk_Forward,1,L_LES,0.003347428229415773
BMu91,60,C,INI,Trunk_Forward,1,R_LES,0.0025206385662629393
BMu91,60,C,REL,Trunk_Forward,1,L_LES,0.0021126057293317873
BMu91,60,C,REL,Trunk_Forward,1,R_LES,0.0018166397831899262
BMu91,61,P,INI,Trunk_Forward,1,L_LES,0.005192857791389875
BMu91,61,P,INI,Trunk_Forward,1,R_LES,0.0040883000759876515
BMu91,61,P,REL,Trunk_Forward,1,L_LES,0.0062955386183615675
BMu91,61,P,REL,Trunk_Forward,1,R_LES,0.0032519171630977805
BMu91,62,P,INI,Trunk_Forward,1,L_LES,0.005603667939863098
BMu91,62,P,INI,Trunk_Forward,1,R_LES,0.003895039957288286
BMu91,62,P,REL,Trunk_Forward,1,L_LES,0.0036960280247568113
BMu91,62,P,REL,Trunk_Forward,1,R_LES,0.0022667266574112376
BMu91,63,P,INI,Trunk_Forward,1,L_LES,0.028020595500186884
BMu91,63,P,INI,Trunk_Forward,1,R_LES,0.009437428918657493
BMu91,63,P,REL,Trunk_Forward,1,L_LES,0.004295937693494354
BMu91,63,P,REL,Trunk_Forward,1,R_LES,0.004155082198429441
BMu91,64,C,INI,Trunk_Forward,1,L_LES,0.0012975844477568592
BMu91,64,C,INI,Trunk_Forward,1,R_LES,0.0013803167819692475
BMu91,64,C,REL,Trunk_Forward,1,L_LES,0.001362119589146319
BMu91,64,C,REL,Trunk_Forward,1,R_LES,0.001547131489928491
BMu91,65,P,INI,Trunk_Forward,1,L_LES,0.004771719031168499
BMu91,65,P,INI,Trunk_Forward,1,R_LES,0.0054883370522178605
BMu91,65,P,REL,Trunk_Forward,1,L_LES,0.003807974219387803
BMu91,65,P,REL,Trunk_Forward,1,R_LES,0.0047596156859155804
BMu91,66,C,INI,Trunk_Forward,1,L_LES,0.00277740308564499
BMu91,66,C,INI,Trunk_Forward,1,R_LES,0.0021781112394237616
BMu91,66,C,REL,Trunk_Forward,1,L_LES,0.0022407572841042895
BMu91,66,C,REL,Trunk_Forward,1,R_LES,0.0024744180511228173
BMu91,67,C,INI,Trunk_Forward,1,L_LES,0.00398994689151174
BMu91,67,C,INI,Trunk_Forward,1,R_LES,0.009960344265507346
BMu91,67,C,REL,Trunk_Forward,1,L_LES,0.013086264241562692
BMu91,67,C,REL,Trunk_Forward,1,R_LES,0.008147556873631173
BMu91,68,C,INI,Trunk_Forward,1,L_LES,0.004430972082709545
BMu91,68,C,INI,Trunk_Forward,1,R_LES,0.007250086121763445
BMu91,68,C,REL,Trunk_Forward,1,L_LES,0.00472637133320181
BMu91,68,C,REL,Trunk_Forward,1,R_LES,0.007484156889943281
