BM,subject,P_C,session,task,repetition,channel,value
BMu96,1,C,REL,Weight_Unconstrained,1,L_LES,33.902000210856635
BMu96,2,C,INI,Weight_Unconstrained,1,L_LES,44.942578345561834
BMu96,2,C,INI,Weight_Unconstrained,1,R_LES,55.59086554362545
BMu96,2,C,REL,Weight_Unconstrained,1,R_LES,48.895840378342065
BMu96,3,C,INI,Weight_Unconstrained,1,L_LES,51.44535853557331
BMu96,3,C,INI,Weight_Unconstrained,1,R_LES,63.25007014487108
BMu96,3,C,REL,Weight_Unconstrained,1,R_LES,82.56471279403365
BMu96,5,C,INI,Weight_Unconstrained,1,L_LES,31.650708114605184
BMu96,5,C,INI,Weight_Unconstrained,1,R_LES,32.83466183272372
BMu96,5,C,REL,Weight_Unconstrained,1,L_LES,46.39461157778277
BMu96,5,C,REL,Weight_Unconstrained,1,R_LES,38.40214236834588
BMu96,6,C,INI,Weight_Unconstrained,1,R_LES,87.09523500281215
BMu96,6,C,REL,Weight_Unconstrained,1,L_LES,64.05483780817553
BMu96,6,C,REL,Weight_Unconstrained,1,R_LES,62.47276130916433
BMu96,7,C,INI,Weight_Unconstrained,1,R_LES,88.42725941322942
BMu96,7,C,REL,Weight_Unconstrained,1,L_LES,64.80479747041456
BMu96,7,C,REL,Weight_Unconstrained,1,R_LES,75.00842372933441
BMu96,8,C,INI,Weight_Unconstrained,1,L_LES,44.210264643800656
BMu96,8,C,INI,Weight_Unconstrained,1,R_LES,48.67067128862231
BMu96,8,C,REL,Weight_Unconstrained,1,L_LES,57.200992663205135
BMu96,8,C,REL,Weight_Unconstrained,1,R_LES,54.35413352539551
BMu96,9,P,INI,Weight_Unconstrained,1,L_LES,70.27333202610562
BMu96,9,P,INI,Weight_Unconstrained,1,R_LES,53.15742832980563
BMu96,9,P,REL,Weight_Unconstrained,1,L_LES,
BMu96,9,P,REL,Weight_Unconstrained,1,R_LES,
BMu96,10,P,INI,Weight_Unconstrained,1,L_LES,55.48179748009891
BMu96,10,P,INI,Weight_Unconstrained,1,R_LES,61.6183335712752
BMu96,10,P,REL,Weight_Unconstrained,1,L_LES,45.138792517443086
BMu96,10,P,REL,Weight_Unconstrained,1,R_LES,51.84694696704711
BMu96,11,P,INI,Weight_Unconstrained,1,L_LES,48.62580994501463
BMu96,11,P,INI,Weight_Unconstrained,1,R_LES,47.39213953777581
BMu96,11,P,REL,Weight_Unconstrained,1,L_LES,52.860265138574675
BMu96,11,P,REL,Weight_Unconstrained,1,R_LES,52.55476686468911
BMu96,12,P,INI,Weight_Unconstrained,1,L_LES,79.77416652879126
BMu96,12,P,INI,Weight_Unconstrained,1,R_LES,82.24415661742364
BMu96,12,P,REL,Weight_Unconstrained,1,L_LES,74.9127333048641
BMu96,12,P,REL,Weight_Unconstrained,1,R_LES,74.99975539087026
BMu96,13,C,INI,Weight_Unconstrained,1,L_LES,69.89014294711946
BMu96,13,C,INI,Weight_Unconstrained,1,R_LES,61.311279852849346
BMu96,13,C,REL,Weight_Unconstrained,1,L_LES,63.5702027402863
BMu96,13,C,REL,Weight_Unconstrained,1,R_LES,66.47449390068388
BMu96,14,P,INI,Weight_Unconstrained,1,L_LES,53.2461593416169
BMu96,14,P,INI,Weight_Unconstrained,1,R_LES,46.701767408260935
BMu96,14,P,REL,Weight_Unconstrained,1,R_LES,52.59205589684054
BMu96,16,C,INI,Weight_Unconstrained,1,L_LES,58.543322707307595
BMu96,16,C,INI,Weight_Unconstrained,1,R_LES,65.02091964628838
BMu96,16,C,REL,Weight_Unconstrained,1,L_LES,60.92759832743959
BMu96,16,C,REL,Weight_Unconstrained,1,R_LES,67.22662821173257
BMu96,17,P,INI,Weight_Unconstrained,1,L_LES,67.8263816377458
BMu96,17,P,INI,Weight_Unconstrained,1,R_LES,17.366665410957253
BMu96,17,P,REL,Weight_Unconstrained,1,L_LES,61.97575746561545
BMu96,17,P,REL,Weight_Unconstrained,1,R_LES,66.05514590567854
BMu96,21,C,INI,Weight_Unconstrained,1,L_LES,70.68419159919206
BMu96,21,C,INI,Weight_Unconstrained,1,R_LES,60.42399597806326
BMu96,21,C,REL,Weight_Unconstrained,1,R_LES,113.60521426400095
BMu96,22,C,INI,Weight_Unconstrained,1,L_LES,73.01667564021896
BMu96,22,C,INI,Weight_Unconstrained,1,R_LES,64.03143047430463
BMu96,22,C,REL,Weight_Unconstrained,1,L_LES,77.55474743345296
BMu96,22,C,REL,Weight_Unconstrained,1,R_LES,
BMu96,23,C,REL,Weight_Unconstrained,1,L_LES,34.33472080976794
BMu96,24,P,INI,Weight_Unconstrained,1,L_LES,56.301610588150716
BMu96,24,P,INI,Weight_Unconstrained,1,R_LES,62.08749667618091
BMu96,24,P,REL,Weight_Unconstrained,1,R_LES,83.20570083860117
BMu96,25,C,INI,Weight_Unconstrained,1,L_LES,46.15975826225974
BMu96,25,C,INI,Weight_Unconstrained,1,R_LES,46.28742952869997
BMu96,25,C,REL,Weight_Unconstrained,1,L_LES,43.2936233032845
BMu96,25,C,REL,Weight_Unconstrained,1,R_LES,40.28664527744584
BMu96,26,P,INI,Weight_Unconstrained,1,R_LES,51.25830833811304
BMu96,26,P,REL,Weight_Unconstrained,1,R_LES,66.99779311869487
BMu96,27,P,INI,Weight_Unconstrained,1,L_LES,45.85190538537165
BMu96,27,P,INI,Weight_Unconstrained,1,R_LES,62.14912071868748
BMu96,27,P,REL,Weight_Unconstrained,1,L_LES,48.583984314990964
BMu96,27,P,REL,Weight_Unconstrained,1,R_LES,55.46961157827868
BMu96,28,P,INI,Weight_Unconstrained,1,L_LES,51.931724656609326
BMu96,28,P,INI,Weight_Unconstrained,1,R_LES,53.7097259042063
BMu96,28,P,REL,Weight_Unconstrained,1,L_LES,49.56142747858859
BMu96,28,P,REL,Weight_Unconstrained,1,R_LES,52.53071551513537
BMu96,29,P,INI,Weight_Unconstrained,1,L_LES,28.81036132957132
BMu96,29,P,INI,Weight_Unconstrained,1,R_LES,41.38850383896562
BMu96,29,P,REL,Weight_Unconstrained,1,L_LES,37.76630039906188
BMu96,29,P,REL,Weight_Unconstrained,1,R_LES,47.877168407147565
BMu96,30,P,INI,Weight_Unconstrained,1,R_LES,57.25383398780661
BMu96,30,P,REL,Weight_Unconstrained,1,R_LES,56.79198438056074
BMu96,32,P,INI,Weight_Unconstrained,1,L_LES,40.11829559832138
BMu96,32,P,INI,Weight_Unconstrained,1,R_LES,51.45756352459918
BMu96,32,P,REL,Weight_Unconstrained,1,L_LES,137.88892250086164
BMu96,32,P,REL,Weight_Unconstrained,1,R_LES,134.49738311929113
BMu96,33,P,INI,Weight_Unconstrained,1,L_LES,61.308605407248926
BMu96,33,P,INI,Weight_Unconstrained,1,R_LES,45.658027538020235
BMu96,33,P,REL,Weight_Unconstrained,1,L_LES,53.139924058343446
BMu96,33,P,REL,Weight_Unconstrained,1,R_LES,72.66399608478423
BMu96,34,P,INI,Weight_Unconstrained,1,L_LES,39.97843596560878
BMu96,34,P,INI,Weight_Unconstrained,1,R_LES,62.45242204873788
BMu96,34,P,REL,Weight_Unconstrained,1,L_LES,69.29512926099737
BMu96,34,P,REL,Weight_Unconstrained,1,R_LES,85.1639406492304
BMu96,35,C,INI,Weight_Unconstrained,1,R_LES,62.58582391984185
BMu96,35,C,REL,Weight_Unconstrained,1,L_LES,37.42481759263329
BMu96,35,C,REL,Weight_Unconstrained,1,R_LES,41.25778598946969
BMu96,36,P,INI,Weight_Unconstrained,1,L_LES,60.3818083882905
BMu96,36,P,INI,Weight_Unconstrained,1,R_LES,64.75904942357333
BMu96,36,P,REL,Weight_Unconstrained,1,L_LES,44.95920685776006
BMu96,36,P,REL,Weight_Unconstrained,1,R_LES,57.872925816170614
BMu96,38,C,REL,Weight_Unconstrained,1,L_LES,56.17431265470914
BMu96,38,C,REL,Weight_Unconstrained,1,R_LES,55.70191490519845
BMu96,39,C,INI,Weight_Unconstrained,1,L_LES,46.91993543030579
BMu96,39,C,INI,Weight_Unconstrained,1,R_LES,34.210657347970816
BMu96,39,C,REL,Weight_Unconstrained,1,L_LES,43.46386089527863
BMu96,39,C,REL,Weight_Unconstrained,1,R_LES,60.00692191608551
BMu96,40,C,INI,Weight_Unconstrained,1,L_LES,39.28238623360364
BMu96,40,C,INI,Weight_Unconstrained,1,R_LES,43.31656044690239
BMu96,40,C,REL,Weight_Unconstrained,1,L_LES,39.76631908245793
BMu96,40,C,REL,Weight_Unconstrained,1,R_LES,51.616946280243326
BMu96,41,P,INI,Weight_Unconstrained,1,L_LES,50.92900543439873
BMu96,41,P,INI,Weight_Unconstrained,1,R_LES,79.47132817105901
BMu96,41,P,REL,Weight_Unconstrained,1,L_LES,40.210320312212005
BMu96,41,P,REL,Weight_Unconstrained,1,R_LES,66.92649619680392
BMu96,42,P,INI,Weight_Unconstrained,1,L_LES,41.897510962516684
BMu96,42,P,INI,Weight_Unconstrained,1,R_LES,44.955442246058475
BMu96,42,P,REL,Weight_Unconstrained,1,L_LES,55.366018411409925
BMu96,42,P,REL,Weight_Unconstrained,1,R_LES,61.54439514101293
BMu96,43,P,INI,Weight_Unconstrained,1,L_LES,59.11423631600356
BMu96,43,P,INI,Weight_Unconstrained,1,R_LES,68.49995631433207
BMu96,43,P,REL,Weight_Unconstrained,1,L_LES,61.06166260811716
BMu96,43,P,REL,Weight_Unconstrained,1,R_LES,63.35848411409079
BMu96,44,C,INI,Weight_Unconstrained,1,L_LES,50.13792466163054
BMu96,44,C,INI,Weight_Unconstrained,1,R_LES,68.23275247782894
BMu96,44,C,REL,Weight_Unconstrained,1,L_LES,42.8788542552111
BMu96,44,C,REL,Weight_Unconstrained,1,R_LES,58.379596583394544
BMu96,45,P,INI,Weight_Unconstrained,1,R_LES,82.3962823847071
BMu96,45,P,REL,Weight_Unconstrained,1,L_LES,99.91344928637771
BMu96,45,P,REL,Weight_Unconstrained,1,R_LES,33.56371549554179
BMu96,46,C,INI,Weight_Unconstrained,1,L_LES,43.33280586721614
BMu96,46,C,INI,Weight_Unconstrained,1,R_LES,45.059712756359
BMu96,46,C,REL,Weight_Unconstrained,1,L_LES,35.951826810300325
BMu96,46,C,REL,Weight_Unconstrained,1,R_LES,35.67188269093467
BMu96,47,P,INI,Weight_Unconstrained,1,L_LES,134.69007802994028
BMu96,47,P,INI,Weight_Unconstrained,1,R_LES,137.0444092469016
BMu96,47,P,REL,Weight_Unconstrained,1,L_LES,52.17151337268043
BMu96,47,P,REL,Weight_Unconstrained,1,R_LES,45.49337278053931
BMu96,48,C,INI,Weight_Unconstrained,1,L_LES,69.25074201240372
BMu96,48,C,INI,Weight_Unconstrained,1,R_LES,61.27091164660925
BMu96,48,C,REL,Weight_Unconstrained,1,L_LES,52.12882296085932
BMu96,48,C,REL,Weight_Unconstrained,1,R_LES,66.9019097524256
BMu96,49,C,INI,Weight_Unconstrained,1,R_LES,57.08937899873635
BMu96,49,C,REL,Weight_Unconstrained,1,L_LES,24.102076237021098
BMu96,49,C,REL,Weight_Unconstrained,1,R_LES,51.93284575610776
BMu96,50,P,INI,Weight_Unconstrained,1,R_LES,39.735037223315594
BMu96,50,P,REL,Weight_Unconstrained,1,L_LES,41.613836697198764
BMu96,50,P,REL,Weight_Unconstrained,1,R_LES,44.707694339825785
BMu96,51,P,INI,Weight_Unconstrained,1,L_LES,57.375184364359974
BMu96,51,P,INI,Weight_Unconstrained,1,R_LES,48.92270715276013
BMu96,51,P,REL,Weight_Unconstrained,1,L_LES,45.76964066944978
BMu96,51,P,REL,Weight_Unconstrained,1,R_LES,38.61696041256378
BMu96,52,C,INI,Weight_Unconstrained,1,L_LES,40.03371134137456
BMu96,52,C,INI,Weight_Unconstrained,1,R_LES,50.04019956175833
BMu96,52,C,REL,Weight_Unconstrained,1,L_LES,45.74112020609842
BMu96,52,C,REL,Weight_Unconstrained,1,R_LES,57.902344538286066
BMu96,53,P,INI,Weight_Unconstrained,1,L_LES,80.76809214088887
BMu96,53,P,INI,Weight_Unconstrained,1,R_LES,56.958297421604165
BMu96,53,P,REL,Weight_Unconstrained,1,L_LES,75.51068325710449
BMu96,53,P,REL,Weight_Unconstrained,1,R_LES,66.695739849047
BMu96,54,P,INI,Weight_Unconstrained,1,L_LES,63.58695318294277
BMu96,54,P,INI,Weight_Unconstrained,1,R_LES,73.01521396867302
BMu96,54,P,REL,Weight_Unconstrained,1,L_LES,49.836543161871276
BMu96,54,P,REL,Weight_Unconstrained,1,R_LES,57.34262014037311
BMu96,55,C,INI,Weight_Unconstrained,1,L_LES,60.6664850084064
BMu96,55,C,INI,Weight_Unconstrained,1,R_LES,45.10150587363723
BMu96,55,C,REL,Weight_Unconstrained,1,R_LES,59.71515677025652
BMu96,56,C,INI,Weight_Unconstrained,1,L_LES,45.26289319492913
BMu96,56,C,INI,Weight_Unconstrained,1,R_LES,59.30132026249728
BMu96,56,C,REL,Weight_Unconstrained,1,L_LES,42.68621470991285
BMu96,56,C,REL,Weight_Unconstrained,1,R_LES,49.750009887022124
BMu96,57,C,INI,Weight_Unconstrained,1,R_LES,42.62577143832913
BMu96,57,C,REL,Weight_Unconstrained,1,R_LES,60.84028715311222
BMu96,58,P,INI,Weight_Unconstrained,1,L_LES,50.39689755814922
BMu96,58,P,INI,Weight_Unconstrained,1,R_LES,61.79877575359543
BMu96,58,P,REL,Weight_Unconstrained,1,R_LES,80.65554966778691
BMu96,60,C,INI,Weight_Unconstrained,1,L_LES,44.66361287154886
BMu96,60,C,INI,Weight_Unconstrained,1,R_LES,57.05405103450527
BMu96,60,C,REL,Weight_Unconstrained,1,L_LES,68.62854172166105
BMu96,61,P,REL,Weight_Unconstrained,1,L_LES,81.83249408664051
BMu96,61,P,REL,Weight_Unconstrained,1,R_LES,62.36565704467557
BMu96,62,P,INI,Weight_Unconstrained,1,R_LES,49.24697100537899
BMu96,62,P,REL,Weight_Unconstrained,1,L_LES,67.77093926984664
BMu96,62,P,REL,Weight_Unconstrained,1,R_LES,57.25585267387218
BMu96,63,P,INI,Weight_Unconstrained,1,R_LES,63.12238855809823
BMu96,63,P,REL,Weight_Unconstrained,1,L_LES,82.42534557753443
BMu96,63,P,REL,Weight_Unconstrained,1,R_LES,63.73793012733549
BMu96,64,C,INI,Weight_Unconstrained,1,L_LES,34.853892140126156
BMu96,64,C,INI,Weight_Unconstrained,1,R_LES,46.4346229529744
BMu96,64,C,REL,Weight_Unconstrained,1,L_LES,38.697828171290006
BMu96,64,C,REL,Weight_Unconstrained,1,R_LES,60.32552338549195
BMu96,65,P,INI,Weight_Unconstrained,1,L_LES,44.81490230150015
BMu96,65,P,INI,Weight_Unconstrained,1,R_LES,62.075371095780376
BMu96,65,P,REL,Weight_Unconstrained,1,L_LES,52.30255181807519
BMu96,65,P,REL,Weight_Unconstrained,1,R_LES,64.19613274123114
BMu96,66,C,INI,Weight_Unconstrained,1,L_LES,45.36716078026151
BMu96,66,C,INI,Weight_Unconstrained,1,R_LES,53.14400656349289
BMu96,66,C,REL,Weight_Unconstrained,1,L_LES,46.44045189804657
BMu96,66,C,REL,Weight_Unconstrained,1,R_LES,72.26879824967949
BMu96,67,C,INI,Weight_Unconstrained,1,R_LES,221.44719760467532
BMu96,68,C,INI,Weight_Unconstrained,1,R_LES,52.48314432397715
BMu96,68,C,REL,Weight_Unconstrained,1,L_LES,47.067600029213885
BMu96,68,C,REL,Weight_Unconstrained,1,R_LES,55.35854397438073
