BM,subject,P_C,session,task,repetition,channel,value
BMu91,1,C,INI,Posture_Standing,1,L_LES,0.002705882155466695
BMu91,1,C,INI,Posture_Standing,1,R_LES,0.0018862016593387285
BMu91,1,C,REL,Posture_Standing,1,L_LES,0.0037914174748929774
BMu91,1,C,REL,Posture_Standing,1,R_LES,0.0027048693239421213
BMu91,2,C,INI,Posture_Standing,1,L_LES,0.0025689737720099425
BMu91,2,C,INI,Posture_Standing,1,R_LES,0.054301267450721606
BMu91,2,C,REL,Posture_Standing,1,L_LES,0.002398999597359389
BMu91,2,C,REL,Posture_Standing,1,R_LES,0.0015411234406170803
BMu91,3,C,INI,Posture_Standing,1,L_LES,0.001613766276206803
BMu91,3,C,INI,Posture_Standing,1,R_LES,0.00167237695073768
BMu91,3,C,REL,Posture_Standing,1,L_LES,0.013070313099527357
BMu91,3,C,REL,Posture_Standing,1,R_LES,0.0020771354652901913
BMu91,5,C,INI,Posture_Standing,1,L_LES,0.003345212845485263
BMu91,5,C,INI,Posture_Standing,1,R_LES,0.0019449942384285645
BMu91,5,C,REL,Posture_Standing,1,L_LES,0.002857328435115985
BMu91,5,C,REL,Posture_Standing,1,R_LES,0.0017078882600826929
BMu91,6,C,INI,Posture_Standing,1,L_LES,0.0009694659888986146
BMu91,6,C,INI,Posture_Standing,1,R_LES,0.0013355933591110915
BMu91,6,C,REL,Posture_Standing,1,L_LES,0.0017245701393889586
BMu91,6,C,REL,Posture_Standing,1,R_LES,0.0016952686157829767
BMu91,7,C,INI,Posture_Standing,1,L_LES,0.01322167309273723
BMu91,7,C,INI,Posture_Standing,1,R_LES,0.006064259751051962
BMu91,7,C,REL,Posture_Standing,1,L_LES,0.013575639238522983
BMu91,7,C,REL,Posture_Standing,1,R_LES,0.006872821249298756
BMu91,8,C,INI,Posture_Standing,1,L_LES,0.0016285721019169716
BMu91,8,C,INI,Posture_Standing,1,R_LES,0.0015096543886772378
BMu91,8,C,REL,Posture_Standing,1,L_LES,0.001771660990451565
BMu91,8,C,REL,Posture_Standing,1,R_LES,0.001547535136979137
BMu91,9,P,INI,Posture_Standing,1,L_LES,0.0049596183552399415
BMu91,9,P,INI,Posture_Standing,1,R_LES,0.00375052013093355
BMu91,9,P,REL,Posture_Standing,1,L_LES,0.004752446582314388
BMu91,9,P,REL,Posture_Standing,1,R_LES,0.0033168995222522756
BMu91,10,P,INI,Posture_Standing,1,L_LES,0.001740801557685338
BMu91,10,P,INI,Posture_Standing,1,R_LES,0.0021181685524633903
BMu91,10,P,REL,Posture_Standing,1,L_LES,0.0022118939476479843
BMu91,10,P,REL,Posture_Standing,1,R_LES,0.0025654190974457917
BMu91,11,P,INI,Posture_Standing,1,L_LES,0.0041185674095467984
BMu91,11,P,INI,Posture_Standing,1,R_LES,0.0025329427767625066
BMu91,11,P,REL,Posture_Standing,1,L_LES,0.0032639428555261475
BMu91,11,P,REL,Posture_Standing,1,R_LES,0.0024578608495887345
BMu91,12,P,INI,Posture_Standing,1,L_LES,0.004034038146648764
BMu91,12,P,INI,Posture_Standing,1,R_LES,0.002688498707295308
BMu91,12,P,REL,Posture_Standing,1,L_LES,0.003039588221051556
BMu91,12,P,REL,Posture_Standing,1,R_LES,0.0023663956862244972
BMu91,13,C,INI,Posture_Standing,1,L_LES,0.00404010318629978
BMu91,13,C,INI,Posture_Standing,1,R_LES,0.002320072123202956
BMu91,13,C,REL,Posture_Standing,1,L_LES,0.0020374072871885353
BMu91,13,C,REL,Posture_Standing,1,R_LES,0.0019331921689935707
BMu91,14,P,INI,Posture_Standing,1,L_LES,0.0023417959539248673
BMu91,14,P,INI,Posture_Standing,1,R_LES,0.002567279003712817
BMu91,14,P,REL,Posture_Standing,1,L_LES,0.005706116034908726
BMu91,14,P,REL,Posture_Standing,1,R_LES,0.0015466179120432238
BMu91,16,C,INI,Posture_Standing,1,L_LES,0.0015437531341986478
BMu91,16,C,INI,Posture_Standing,1,R_LES,0.0015378016848723026
BMu91,16,C,REL,Posture_Standing,1,L_LES,0.0014401059947321106
BMu91,16,C,REL,Posture_Standing,1,R_LES,0.0013869291078332708
BMu91,17,P,INI,Posture_Standing,1,L_LES,0.0026528971398281764
BMu91,17,P,INI,Posture_Standing,1,R_LES,0.0036063802584426433
BMu91,17,P,REL,Posture_Standing,1,L_LES,0.002911401559456376
BMu91,17,P,REL,Posture_Standing,1,R_LES,0.00393426738600274
BMu91,21,C,INI,Posture_Standing,1,L_LES,0.0017521916283788782
BMu91,21,C,INI,Posture_Standing,1,R_LES,0.0017954982354229168
BMu91,21,C,REL,Posture_Standing,1,L_LES,0.04109978814080075
BMu91,21,C,REL,Posture_Standing,1,R_LES,0.0013419681671398005
BMu91,22,C,INI,Posture_Standing,1,L_LES,0.001461208141781699
BMu91,22,C,INI,Posture_Standing,1,R_LES,0.0014913891988079814
BMu91,22,C,REL,Posture_Standing,1,L_LES,0.0019238026067551627
BMu91,22,C,REL,Posture_Standing,1,R_LES,0.0015325375489626185
BMu91,23,C,INI,Posture_Standing,1,L_LES,0.002185217353716508
BMu91,23,C,INI,Posture_Standing,1,R_LES,0.0013816891726505832
BMu91,23,C,REL,Posture_Standing,1,L_LES,0.0014822220098134776
BMu91,23,C,REL,Posture_Standing,1,R_LES,0.0013345049743761215
BMu91,24,P,INI,Posture_Standing,1,L_LES,0.007028645466546034
BMu91,24,P,INI,Posture_Standing,1,R_LES,0.004600887967620257
BMu91,24,P,REL,Posture_Standing,1,L_LES,0.007843792795238093
BMu91,24,P,REL,Posture_Standing,1,R_LES,0.0045112263781023456
BMu91,25,C,INI,Posture_Standing,1,L_LES,0.002335043882341094
BMu91,25,C,INI,Posture_Standing,1,R_LES,0.0017946203415892762
BMu91,25,C,REL,Posture_Standing,1,L_LES,0.002248104383680363
BMu91,25,C,REL,Posture_Standing,1,R_LES,0.002060021991320137
BMu91,26,P,INI,Posture_Standing,1,L_LES,0.0015010637809053475
BMu91,26,P,INI,Posture_Standing,1,R_LES,0.0014938126364769922
BMu91,26,P,REL,Posture_Standing,1,L_LES,0.0015053351353134163
BMu91,26,P,REL,Posture_Standing,1,R_LES,0.0015827807834181311
BMu91,27,P,INI,Posture_Standing,1,L_LES,0.0017546848232998869
BMu91,27,P,INI,Posture_Standing,1,R_LES,0.0019162167796741819
BMu91,27,P,REL,Posture_Standing,1,L_LES,0.0017447339207456235
BMu91,27,P,REL,Posture_Standing,1,R_LES,0.0014067871486085402
BMu91,28,P,INI,Posture_Standing,1,L_LES,0.0017814920045617557
BMu91,28,P,INI,Posture_Standing,1,R_LES,0.0024012794279612793
BMu91,28,P,REL,Posture_Standing,1,L_LES,0.00149443188592643
BMu91,28,P,REL,Posture_Standing,1,R_LES,0.0015858554687992364
BMu91,29,P,INI,Posture_Standing,1,L_LES,0.00404276303098649
BMu91,29,P,INI,Posture_Standing,1,R_LES,0.007310409038477084
BMu91,29,P,REL,Posture_Standing,1,L_LES,0.0034061258230204225
BMu91,29,P,REL,Posture_Standing,1,R_LES,0.008165935007805953
BMu91,30,P,INI,Posture_Standing,1,L_LES,0.0026401564736549437
BMu91,30,P,INI,Posture_Standing,1,R_LES,0.0029812010042717055
BMu91,30,P,REL,Posture_Standing,1,L_LES,0.0019352982136634472
BMu91,30,P,REL,Posture_Standing,1,R_LES,0.0025229165837741345
BMu91,32,P,INI,Posture_Standing,1,L_LES,0.0023267046362537777
BMu91,32,P,INI,Posture_Standing,1,R_LES,0.0024245897395426463
BMu91,32,P,REL,Posture_Standing,1,L_LES,0.0016315501503400302
BMu91,32,P,REL,Posture_Standing,1,R_LES,0.0013009690876894392
BMu91,33,P,INI,Posture_Standing,1,L_LES,0.003951163205887886
BMu91,33,P,INI,Posture_Standing,1,R_LES,0.0017422041665600347
BMu91,33,P,REL,Posture_Standing,1,L_LES,0.0021605408348466405
BMu91,33,P,REL,Posture_Standing,1,R_LES,0.0010350921987179653
BMu91,34,P,INI,Posture_Standing,1,L_LES,0.0020794451381911877
BMu91,34,P,INI,Posture_Standing,1,R_LES,0.002044893262034903
BMu91,34,P,REL,Posture_Standing,1,L_LES,0.001625523026110608
BMu91,34,P,REL,Posture_Standing,1,R_LES,0.0017046221132290163
BMu91,35,C,INI,Posture_Standing,1,L_LES,0.001615340819498742
BMu91,35,C,INI,Posture_Standing,1,R_LES,0.001699612810223967
BMu91,35,C,REL,Posture_Standing,1,L_LES,0.0016372212767979254
BMu91,35,C,REL,Posture_Standing,1,R_LES,0.0019613615504116013
BMu91,36,P,INI,Posture_Standing,1,L_LES,0.0016423044506496556
BMu91,36,P,INI,Posture_Standing,1,R_LES,0.0020559376866991306
BMu91,36,P,REL,Posture_Standing,1,L_LES,0.0019403958776680805
BMu91,36,P,REL,Posture_Standing,1,R_LES,0.0018885332282403795
BMu91,38,C,INI,Posture_Standing,1,L_LES,0.011012817681735771
BMu91,38,C,INI,Posture_Standing,1,R_LES,0.02450068202799852
BMu91,38,C,REL,Posture_Standing,1,L_LES,0.004795012285258645
BMu91,38,C,REL,Posture_Standing,1,R_LES,0.0022141141189795173
BMu91,39,C,INI,Posture_Standing,1,L_LES,0.0019173731027303405
BMu91,39,C,INI,Posture_Standing,1,R_LES,0.002811292992946883
BMu91,39,C,REL,Posture_Standing,1,L_LES,0.00225966318093561
BMu91,39,C,REL,Posture_Standing,1,R_LES,0.00500418754782452
BMu91,40,C,INI,Posture_Standing,1,L_LES,0.0018339700396511102
BMu91,40,C,INI,Posture_Standing,1,R_LES,0.005457724503428929
BMu91,40,C,REL,Posture_Standing,1,L_LES,0.001245609290067516
BMu91,40,C,REL,Posture_Standing,1,R_LES,0.0030921579150566315
BMu91,41,P,INI,Posture_Standing,1,L_LES,0.001962706890906196
BMu91,41,P,INI,Posture_Standing,1,R_LES,0.0015765600715450519
BMu91,41,P,REL,Posture_Standing,1,L_LES,0.0016531678252000152
BMu91,41,P,REL,Posture_Standing,1,R_LES,0.0015574521883861187
BMu91,42,P,INI,Posture_Standing,1,L_LES,0.002368645019811356
BMu91,42,P,INI,Posture_Standing,1,R_LES,0.0020181869735019313
BMu91,42,P,REL,Posture_Standing,1,L_LES,0.0020788335555600858
BMu91,42,P,REL,Posture_Standing,1,R_LES,0.002393658831684274
BMu91,43,P,INI,Posture_Standing,1,L_LES,0.0017370663025218858
BMu91,43,P,INI,Posture_Standing,1,R_LES,0.001554051790845146
BMu91,43,P,REL,Posture_Standing,1,L_LES,0.0018017983110909287
BMu91,43,P,REL,Posture_Standing,1,R_LES,0.0015038001573413264
BMu91,44,C,INI,Posture_Standing,1,L_LES,0.0016479055511886625
BMu91,44,C,INI,Posture_Standing,1,R_LES,0.0021132980908615847
BMu91,44,C,REL,Posture_Standing,1,L_LES,0.0017801051172688365
BMu91,44,C,REL,Posture_Standing,1,R_LES,0.001633605558209276
BMu91,45,P,INI,Posture_Standing,1,L_LES,0.0008854088331109083
BMu91,45,P,INI,Posture_Standing,1,R_LES,0.0009273756018783943
BMu91,45,P,REL,Posture_Standing,1,L_LES,0.0006748463614745793
BMu91,45,P,REL,Posture_Standing,1,R_LES,0.0007285582009881444
BMu91,46,C,INI,Posture_Standing,1,L_LES,0.0018802093700130765
BMu91,46,C,INI,Posture_Standing,1,R_LES,0.0018265025037569518
BMu91,46,C,REL,Posture_Standing,1,L_LES,0.0012059663946825197
BMu91,46,C,REL,Posture_Standing,1,R_LES,0.001440011958053745
BMu91,47,P,INI,Posture_Standing,1,L_LES,0.00179287152481291
BMu91,47,P,INI,Posture_Standing,1,R_LES,0.0017375152687021877
BMu91,47,P,REL,Posture_Standing,1,L_LES,0.0017097416587788902
BMu91,47,P,REL,Posture_Standing,1,R_LES,0.0016016652943026508
BMu91,48,C,INI,Posture_Standing,1,L_LES,0.004626380983179648
BMu91,48,C,INI,Posture_Standing,1,R_LES,0.01307936037619944
BMu91,48,C,REL,Posture_Standing,1,L_LES,0.002871616544364772
BMu91,48,C,REL,Posture_Standing,1,R_LES,0.009351572204975815
BMu91,49,C,INI,Posture_Standing,1,L_LES,0.002531024167631276
BMu91,49,C,INI,Posture_Standing,1,R_LES,0.0020369831347095348
BMu91,49,C,REL,Posture_Standing,1,L_LES,0.002779324778999878
BMu91,49,C,REL,Posture_Standing,1,R_LES,0.0019048158416506207
BMu91,50,P,INI,Posture_Standing,1,L_LES,0.00699827428816713
BMu91,50,P,INI,Posture_Standing,1,R_LES,0.004834401906780521
BMu91,50,P,REL,Posture_Standing,1,L_LES,0.009746199232660843
BMu91,50,P,REL,Posture_Standing,1,R_LES,0.006229721262912725
BMu91,51,P,INI,Posture_Standing,1,L_LES,0.0013964813853773936
BMu91,51,P,INI,Posture_Standing,1,R_LES,0.0011965745074128146
BMu91,51,P,REL,Posture_Standing,1,L_LES,0.001490046874886877
BMu91,51,P,REL,Posture_Standing,1,R_LES,0.001708383669721555
BMu91,52,C,INI,Posture_Standing,1,L_LES,0.002447880896808896
BMu91,52,C,INI,Posture_Standing,1,R_LES,0.005632909774335103
BMu91,52,C,REL,Posture_Standing,1,L_LES,0.004521720890116838
BMu91,52,C,REL,Posture_Standing,1,R_LES,0.0022945807830820797
BMu91,53,P,INI,Posture_Standing,1,L_LES,0.0022865815510864597
BMu91,53,P,INI,Posture_Standing,1,R_LES,0.002570891302536579
BMu91,53,P,REL,Posture_Standing,1,L_LES,0.002254402005534706
BMu91,53,P,REL,Posture_Standing,1,R_LES,0.002989107098913916
BMu91,54,P,INI,Posture_Standing,1,L_LES,0.0019294612262010275
BMu91,54,P,INI,Posture_Standing,1,R_LES,0.0019961520620223063
BMu91,54,P,REL,Posture_Standing,1,L_LES,0.0022823281331140425
BMu91,54,P,REL,Posture_Standing,1,R_LES,0.0026612090213417503
BMu91,55,C,INI,Posture_Standing,1,L_LES,0.0016010034636837896
BMu91,55,C,INI,Posture_Standing,1,R_LES,0.0007977470133446465
BMu91,55,C,REL,Posture_Standing,1,L_LES,0.0011036843212339543
BMu91,55,C,REL,Posture_Standing,1,R_LES,0.0011444664920993335
BMu91,56,C,INI,Posture_Standing,1,L_LES,0.0018292935823008782
BMu91,56,C,INI,Posture_Standing,1,R_LES,0.0015657226476354568
BMu91,56,C,REL,Posture_Standing,1,L_LES,0.0036772309792170864
BMu91,56,C,REL,Posture_Standing,1,R_LES,0.00206489705740757
BMu91,57,C,INI,Posture_Standing,1,L_LES,0.0035201141430037633
BMu91,57,C,INI,Posture_Standing,1,R_LES,0.001222544554961274
BMu91,57,C,REL,Posture_Standing,1,L_LES,0.0026200695976380172
BMu91,57,C,REL,Posture_Standing,1,R_LES,0.0010430837470745589
BMu91,58,P,INI,Posture_Standing,1,L_LES,0.001974872361642486
BMu91,58,P,INI,Posture_Standing,1,R_LES,0.001719958777733842
BMu91,58,P,REL,Posture_Standing,1,L_LES,0.005081834960593488
BMu91,58,P,REL,Posture_Standing,1,R_LES,0.002153644540913811
BMu91,60,C,INI,Posture_Standing,1,L_LES,0.004263236757922591
BMu91,60,C,INI,Posture_Standing,1,R_LES,0.0036252974368119525
BMu91,60,C,REL,Posture_Standing,1,L_LES,0.0020820163788517875
BMu91,60,C,REL,Posture_Standing,1,R_LES,0.001814583491355972
BMu91,61,P,INI,Posture_Standing,1,L_LES,0.0032159714983945016
BMu91,61,P,INI,Posture_Standing,1,R_LES,0.002648381247492823
BMu91,61,P,REL,Posture_Standing,1,L_LES,0.0035893099584804497
BMu91,61,P,REL,Posture_Standing,1,R_LES,0.002129085523217955
BMu91,62,P,INI,Posture_Standing,1,L_LES,0.0025466322652211333
BMu91,62,P,INI,Posture_Standing,1,R_LES,0.0019650569279643965
BMu91,62,P,REL,Posture_Standing,1,L_LES,0.0029072787660781125
BMu91,62,P,REL,Posture_Standing,1,R_LES,0.0015194474386507086
BMu91,63,P,INI,Posture_Standing,1,L_LES,0.0026773084488405517
BMu91,63,P,INI,Posture_Standing,1,R_LES,0.002246496839301554
BMu91,63,P,REL,Posture_Standing,1,L_LES,0.0016113755848734613
BMu91,63,P,REL,Posture_Standing,1,R_LES,0.001518761002845614
BMu91,64,C,INI,Posture_Standing,1,L_LES,0.0012449582897896118
BMu91,64,C,INI,Posture_Standing,1,R_LES,0.0013244979406269127
BMu91,64,C,REL,Posture_Standing,1,L_LES,0.0012638892577831091
BMu91,64,C,REL,Posture_Standing,1,R_LES,0.0015055758009644906
BMu91,65,P,INI,Posture_Standing,1,L_LES,0.002314674018335783
BMu91,65,P,INI,Posture_Standing,1,R_LES,0.0018253450231819383
BMu91,65,P,REL,Posture_Standing,1,L_LES,0.005242965744530653
BMu91,65,P,REL,Posture_Standing,1,R_LES,0.0045423781987262764
BMu91,66,C,INI,Posture_Standing,1,L_LES,0.0014027326297249155
BMu91,66,C,INI,Posture_Standing,1,R_LES,0.0016382079224828566
BMu91,66,C,REL,Posture_Standing,1,L_LES,0.0013575499825210066
BMu91,66,C,REL,Posture_Standing,1,R_LES,0.001970136896513658
BMu91,67,C,INI,Posture_Standing,1,L_LES,0.002904984563366443
BMu91,67,C,INI,Posture_Standing,1,R_LES,0.006575414679538051
BMu91,67,C,REL,Posture_Standing,1,L_LES,0.01341978602221699
BMu91,67,C,REL,Posture_Standing,1,R_LES,0.0055114001471999515
BMu91,68,C,INI,Posture_Standing,1,L_LES,0.002272793075103988
BMu91,68,C,INI,Posture_Standing,1,R_LES,0.004977460190993212
BMu91,68,C,REL,Posture_Standing,1,L_LES,0.0019042529630878436
BMu91,68,C,REL,Posture_Standing,1,R_LES,0.0031418559060605302
