BM,subject,P_C,session,task,repetition,channel,value
BMu91,1,C,INI,Posture_Standing,1,R_L_LES,0.0023294324775230864
BMu91,1,C,REL,Posture_Standing,1,R_L_LES,0.0030494099512705444
BMu91,2,C,INI,Posture_Standing,1,R_L_LES,0.03311116984741526
BMu91,2,C,REL,Posture_Standing,1,R_L_LES,0.0019443821107466438
BMu91,3,C,INI,Posture_Standing,1,R_L_LES,0.0017291877699169554
BMu91,3,C,REL,Posture_Standing,1,R_L_LES,0.007639944555766993
BMu91,5,C,INI,Posture_Standing,1,R_L_LES,0.002574693286708764
BMu91,5,C,REL,Posture_Standing,1,R_L_LES,0.0022021149929641512
BMu91,6,C,INI,Posture_Standing,1,R_L_LES,0.0011013411842081312
BMu91,6,C,REL,Posture_Standing,1,R_L_LES,0.0016968590617913975
BMu91,7,C,INI,Posture_Standing,1,R_L_LES,0.009325653604764875
BMu91,7,C,REL,Posture_Standing,1,R_L_LES,0.009497961811353215
BMu91,8,C,INI,Posture_Standing,1,R_L_LES,0.0015696169164980563
BMu91,8,C,REL,Posture_Standing,1,R_L_LES,0.001490389701874982
BMu91,9,P,INI,Posture_Standing,1,R_L_LES,0.0042095791363376866
BMu91,9,P,REL,Posture_Standing,1,R_L_LES,0.003976704488695685
BMu91,10,P,INI,Posture_Standing,1,R_L_LES,0.0018108645738495702
BMu91,10,P,REL,Posture_Standing,1,R_L_LES,0.0021103199329302073
BMu91,11,P,INI,Posture_Standing,1,R_L_LES,0.0032936556828289717
BMu91,11,P,REL,Posture_Standing,1,R_L_LES,0.002402811477851492
BMu91,12,P,INI,Posture_Standing,1,R_L_LES,0.0033472878238214277
BMu91,12,P,REL,Posture_Standing,1,R_L_LES,0.0017937868744317413
BMu91,13,C,INI,Posture_Standing,1,R_L_LES,0.003085210968737443
BMu91,13,C,REL,Posture_Standing,1,R_L_LES,0.0019214165923635027
BMu91,14,P,INI,Posture_Standing,1,R_L_LES,0.00246953526016621
BMu91,14,P,REL,Posture_Standing,1,R_L_LES,0.0034972759950046253
BMu91,16,C,INI,Posture_Standing,1,R_L_LES,0.0015165786086128975
BMu91,16,C,REL,Posture_Standing,1,R_L_LES,0.0014147656058730587
BMu91,17,P,INI,Posture_Standing,1,R_L_LES,0.003156673803128804
BMu91,17,P,REL,Posture_Standing,1,R_L_LES,0.003533816942020627
BMu91,21,C,INI,Posture_Standing,1,R_L_LES,0.001800453162086098
BMu91,21,C,REL,Posture_Standing,1,R_L_LES,0.03702881268948522
BMu91,22,C,INI,Posture_Standing,1,R_L_LES,0.0014426074058811141
BMu91,22,C,REL,Posture_Standing,1,R_L_LES,0.0017457721617441845
BMu91,23,C,INI,Posture_Standing,1,R_L_LES,0.001956288996277337
BMu91,23,C,REL,Posture_Standing,1,R_L_LES,0.0014003674760936684
BMu91,24,P,INI,Posture_Standing,1,R_L_LES,0.005982900301895561
BMu91,24,P,REL,Posture_Standing,1,R_L_LES,0.0062623508615335804
BMu91,25,C,INI,Posture_Standing,1,R_L_LES,0.001978749406459958
BMu91,25,C,REL,Posture_Standing,1,R_L_LES,0.0017633310782856288
BMu91,26,P,INI,Posture_Standing,1,R_L_LES,0.001529563033365541
BMu91,26,P,REL,Posture_Standing,1,R_L_LES,0.0015424289872425113
BMu91,27,P,INI,Posture_Standing,1,R_L_LES,0.001816171159051902
BMu91,27,P,REL,Posture_Standing,1,R_L_LES,0.0015971622581769612
BMu91,28,P,INI,Posture_Standing,1,R_L_LES,0.0020564540396776692
BMu91,28,P,REL,Posture_Standing,1,R_L_LES,0.0014655413185600552
BMu91,29,P,INI,Posture_Standing,1,R_L_LES,0.004836627793220998
BMu91,29,P,REL,Posture_Standing,1,R_L_LES,0.005372574555996959
BMu91,30,P,INI,Posture_Standing,1,R_L_LES,0.002870854225548157
BMu91,30,P,REL,Posture_Standing,1,R_L_LES,0.00203120582839074
BMu91,32,P,INI,Posture_Standing,1,R_L_LES,0.0023730784269055407
BMu91,32,P,REL,Posture_Standing,1,R_L_LES,0.0014610190293770987
BMu91,33,P,INI,Posture_Standing,1,R_L_LES,0.0029191994268610516
BMu91,33,P,REL,Posture_Standing,1,R_L_LES,0.0015740089236416929
BMu91,34,P,INI,Posture_Standing,1,R_L_LES,0.002028112608705135
BMu91,34,P,REL,Posture_Standing,1,R_L_LES,0.0016416182788949428
BMu91,35,C,INI,Posture_Standing,1,R_L_LES,0.0016922468613626944
BMu91,35,C,REL,Posture_Standing,1,R_L_LES,0.0019237355681263853
BMu91,36,P,INI,Posture_Standing,1,R_L_LES,0.0018681541966146188
BMu91,36,P,REL,Posture_Standing,1,R_L_LES,0.0018074161511187185
BMu91,38,C,INI,Posture_Standing,1,R_L_LES,0.019036164817059244
BMu91,38,C,REL,Posture_Standing,1,R_L_LES,0.0034195329757823827
BMu91,39,C,INI,Posture_Standing,1,R_L_LES,0.0019434786812777603
BMu91,39,C,REL,Posture_Standing,1,R_L_LES,0.003773444400460108
BMu91,40,C,INI,Posture_Standing,1,R_L_LES,0.0034643996962695944
BMu91,40,C,REL,Posture_Standing,1,R_L_LES,0.002144002256608558
BMu91,41,P,INI,Posture_Standing,1,R_L_LES,0.0018496981950332835
BMu91,41,P,REL,Posture_Standing,1,R_L_LES,0.00169522969558932
BMu91,42,P,INI,Posture_Standing,1,R_L_LES,0.0021893485042132348
BMu91,42,P,REL,Posture_Standing,1,R_L_LES,0.0021766230448072702
BMu91,43,P,INI,Posture_Standing,1,R_L_LES,0.0016729360573263566
BMu91,43,P,REL,Posture_Standing,1,R_L_LES,0.001570364869961174
BMu91,44,C,INI,Posture_Standing,1,R_L_LES,0.0018056410857168448
BMu91,44,C,REL,Posture_Standing,1,R_L_LES,0.0017035348492696525
BMu91,45,P,INI,Posture_Standing,1,R_L_LES,0.0008576738409353231
BMu91,45,P,REL,Posture_Standing,1,R_L_LES,0.0006885620890651738
BMu91,46,C,INI,Posture_Standing,1,R_L_LES,0.0018265742606152053
BMu91,46,C,REL,Posture_Standing,1,R_L_LES,0.0013015564645678386
BMu91,47,P,INI,Posture_Standing,1,R_L_LES,0.001740522115533163
BMu91,47,P,REL,Posture_Standing,1,R_L_LES,0.0016506000529140593
BMu91,48,C,INI,Posture_Standing,1,R_L_LES,0.009566072746191095
BMu91,48,C,REL,Posture_Standing,1,R_L_LES,0.006246949152422617
BMu91,49,C,INI,Posture_Standing,1,R_L_LES,0.0022010968333193537
BMu91,49,C,REL,Posture_Standing,1,R_L_LES,0.002135808994779302
BMu91,50,P,INI,Posture_Standing,1,R_L_LES,0.005391585692397853
BMu91,50,P,REL,Posture_Standing,1,R_L_LES,0.008398328006002148
BMu91,51,P,INI,Posture_Standing,1,R_L_LES,0.0012323704873807323
BMu91,51,P,REL,Posture_Standing,1,R_L_LES,0.0015260317171954924
BMu91,52,C,INI,Posture_Standing,1,R_L_LES,0.004563827980515512
BMu91,52,C,REL,Posture_Standing,1,R_L_LES,0.0036265996153867844
BMu91,53,P,INI,Posture_Standing,1,R_L_LES,0.00236616632235951
BMu91,53,P,REL,Posture_Standing,1,R_L_LES,0.0025090458905662645
BMu91,54,P,INI,Posture_Standing,1,R_L_LES,0.0019223601138808081
BMu91,54,P,REL,Posture_Standing,1,R_L_LES,0.002173689762051135
BMu91,55,C,INI,Posture_Standing,1,R_L_LES,0.001163964616294645
BMu91,55,C,REL,Posture_Standing,1,R_L_LES,0.0011253484891216585
BMu91,56,C,INI,Posture_Standing,1,R_L_LES,0.0016833094457999608
BMu91,56,C,REL,Posture_Standing,1,R_L_LES,0.002934023729228072
BMu91,57,C,INI,Posture_Standing,1,R_L_LES,0.0018339927745700173
BMu91,57,C,REL,Posture_Standing,1,R_L_LES,0.0013580848673220036
BMu91,58,P,INI,Posture_Standing,1,R_L_LES,0.0018346672216842136
BMu91,58,P,REL,Posture_Standing,1,R_L_LES,0.002827007142433986
BMu91,60,C,INI,Posture_Standing,1,R_L_LES,0.004060444080701637
BMu91,60,C,REL,Posture_Standing,1,R_L_LES,0.001962923348021456
BMu91,61,P,INI,Posture_Standing,1,R_L_LES,0.002953933410490416
BMu91,61,P,REL,Posture_Standing,1,R_L_LES,0.0027117486465540056
BMu91,62,P,INI,Posture_Standing,1,R_L_LES,0.0020781284949684233
BMu91,62,P,REL,Posture_Standing,1,R_L_LES,0.0018699593929979272
BMu91,63,P,INI,Posture_Standing,1,R_L_LES,0.00264191720732493
BMu91,63,P,REL,Posture_Standing,1,R_L_LES,0.001537578602958492
BMu91,64,C,INI,Posture_Standing,1,R_L_LES,0.0012937406638085548
BMu91,64,C,REL,Posture_Standing,1,R_L_LES,0.001386217984757937
BMu91,65,P,INI,Posture_Standing,1,R_L_LES,0.001937963385955899
BMu91,65,P,REL,Posture_Standing,1,R_L_LES,0.004677642986927394
BMu91,66,C,INI,Posture_Standing,1,R_L_LES,0.0015014359749290459
BMu91,66,C,REL,Posture_Standing,1,R_L_LES,0.001680198636022531
BMu91,67,C,INI,Posture_Standing,1,R_L_LES,0.0048804740689840555
BMu91,67,C,REL,Posture_Standing,1,R_L_LES,0.00885342445321834
BMu91,68,C,INI,Posture_Standing,1,R_L_LES,0.0029651284082006144
BMu91,68,C,REL,Posture_Standing,1,R_L_LES,0.0026380846691193014
