BM,subject,P_C,session,task,repetition,channel,value
BMu97,1,C,INI,Weight_Unconstrained,1,L_ESI,0.0034814572068787787
BMu97,1,C,INI,Weight_Unconstrained,1,R_ESI,0.0023927625688749863
BMu97,1,C,REL,Weight_Unconstrained,1,L_ESI,0.003362550064666613
BMu97,2,C,INI,Weight_Unconstrained,1,L_ESI,0.011660569637156594
BMu97,2,C,REL,Weight_Unconstrained,1,R_ESI,0.004519589711031428
BMu97,3,C,INI,Weight_Unconstrained,1,L_ESI,0.006467073102054418
BMu97,3,C,INI,Weight_Unconstrained,1,R_ESI,0.003825705676776382
BMu97,3,C,REL,Weight_Unconstrained,1,L_ESI,0.011072781161418915
BMu97,3,C,REL,Weight_Unconstrained,1,R_ESI,0.006506918395594682
BMu97,5,C,INI,Weight_Unconstrained,1,L_ESI,0.008802207558118112
BMu97,5,C,REL,Weight_Unconstrained,1,L_ESI,0.00544940884326988
BMu97,5,C,REL,Weight_Unconstrained,1,R_ESI,0.005121319151338489
BMu97,6,C,INI,Weight_Unconstrained,1,L_ESI,0.0023380780013829007
BMu97,6,C,INI,Weight_Unconstrained,1,R_ESI,0.002036345972391407
BMu97,6,C,REL,Weight_Unconstrained,1,L_ESI,0.002914879057649552
BMu97,6,C,REL,Weight_Unconstrained,1,R_ESI,0.0022834663012914033
BMu97,7,C,INI,Weight_Unconstrained,1,L_ESI,0.009850249416807275
BMu97,7,C,INI,Weight_Unconstrained,1,R_ESI,0.0065973628790819625
BMu97,7,C,REL,Weight_Unconstrained,1,L_ESI,0.007515548780607382
BMu97,7,C,REL,Weight_Unconstrained,1,R_ESI,0.004990098181729825
BMu97,8,C,INI,Weight_Unconstrained,1,R_ESI,0.0038723709420152735
BMu97,8,C,REL,Weight_Unconstrained,1,R_ESI,0.0038593002799395277
BMu97,9,P,INI,Weight_Unconstrained,1,L_ESI,0.006867983307923913
BMu97,9,P,INI,Weight_Unconstrained,1,R_ESI,0.00367002030428995
BMu97,9,P,REL,Weight_Unconstrained,1,L_ESI,0.004421377277282993
BMu97,9,P,REL,Weight_Unconstrained,1,R_ESI,0.0030798800632885633
BMu97,10,P,INI,Weight_Unconstrained,1,R_ESI,0.0038325261262552725
BMu97,10,P,REL,Weight_Unconstrained,1,L_ESI,0.005864354790432249
BMu97,11,P,INI,Weight_Unconstrained,1,R_ESI,0.0029033585590763906
BMu97,11,P,REL,Weight_Unconstrained,1,R_ESI,0.0037717156777517073
BMu97,12,P,INI,Weight_Unconstrained,1,L_ESI,0.003649270989380652
BMu97,13,C,INI,Weight_Unconstrained,1,L_ESI,0.006207082128068986
BMu97,13,C,INI,Weight_Unconstrained,1,R_ESI,0.008500280384571745
BMu97,13,C,REL,Weight_Unconstrained,1,R_ESI,0.004702221636946843
BMu97,14,P,INI,Weight_Unconstrained,1,L_ESI,0.006764055322810869
BMu97,14,P,INI,Weight_Unconstrained,1,R_ESI,0.004170472398878046
BMu97,14,P,REL,Weight_Unconstrained,1,L_ESI,0.005272851590661745
BMu97,14,P,REL,Weight_Unconstrained,1,R_ESI,0.002552861540829926
BMu97,16,C,INI,Weight_Unconstrained,1,R_ESI,0.003545044826774117
BMu97,16,C,REL,Weight_Unconstrained,1,R_ESI,0.003146241022126733
BMu97,17,P,REL,Weight_Unconstrained,1,L_ESI,0.005125679528316084
BMu97,21,C,INI,Weight_Unconstrained,1,L_ESI,0.007844375609985287
BMu97,21,C,INI,Weight_Unconstrained,1,R_ESI,0.005653179284275362
BMu97,22,C,REL,Weight_Unconstrained,1,L_ESI,
BMu97,22,C,REL,Weight_Unconstrained,1,R_ESI,
BMu97,23,C,INI,Weight_Unconstrained,1,L_ESI,0.00654061973662867
BMu97,23,C,REL,Weight_Unconstrained,1,R_ESI,0.005699865243374239
BMu97,24,P,INI,Weight_Unconstrained,1,L_ESI,0.006793961587367163
BMu97,24,P,INI,Weight_Unconstrained,1,R_ESI,0.004832043084850191
BMu97,24,P,REL,Weight_Unconstrained,1,L_ESI,0.006965956862521636
BMu97,24,P,REL,Weight_Unconstrained,1,R_ESI,0.0034495059697456087
BMu97,25,C,INI,Weight_Unconstrained,1,R_ESI,0.005357146945386539
BMu97,27,P,INI,Weight_Unconstrained,1,R_ESI,0.00501732341984868
BMu97,27,P,REL,Weight_Unconstrained,1,R_ESI,0.006305787295247068
BMu97,28,P,INI,Weight_Unconstrained,1,L_ESI,0.004883525143825875
BMu97,28,P,INI,Weight_Unconstrained,1,R_ESI,0.004807591121645729
BMu97,28,P,REL,Weight_Unconstrained,1,L_ESI,0.004548062340650696
BMu97,28,P,REL,Weight_Unconstrained,1,R_ESI,0.004390016297148569
BMu97,29,P,INI,Weight_Unconstrained,1,L_ESI,0.026267873544865383
BMu97,29,P,REL,Weight_Unconstrained,1,L_ESI,0.032403287007069695
BMu97,29,P,REL,Weight_Unconstrained,1,R_ESI,0.014764835157213213
BMu97,30,P,INI,Weight_Unconstrained,1,L_ESI,0.004339456090821808
BMu97,30,P,INI,Weight_Unconstrained,1,R_ESI,0.003453486508976268
BMu97,30,P,REL,Weight_Unconstrained,1,L_ESI,0.006542810223887107
BMu97,30,P,REL,Weight_Unconstrained,1,R_ESI,0.0038119624948404255
BMu97,32,P,REL,Weight_Unconstrained,1,L_ESI,0.004075017404007349
BMu97,34,P,INI,Weight_Unconstrained,1,L_ESI,0.005781183494250594
BMu97,34,P,REL,Weight_Unconstrained,1,L_ESI,0.008012141763897281
BMu97,35,C,REL,Weight_Unconstrained,1,R_ESI,0.006494463234385636
BMu97,36,P,INI,Weight_Unconstrained,1,L_ESI,0.011788183664547374
BMu97,36,P,INI,Weight_Unconstrained,1,R_ESI,0.008570582319580088
BMu97,36,P,REL,Weight_Unconstrained,1,L_ESI,0.005827066131375547
BMu97,36,P,REL,Weight_Unconstrained,1,R_ESI,0.003740641960293407
BMu97,38,C,INI,Weight_Unconstrained,1,L_ESI,0.007923198993666917
BMu97,38,C,REL,Weight_Unconstrained,1,L_ESI,0.007905130677839973
BMu97,39,C,INI,Weight_Unconstrained,1,L_ESI,0.005211747737350792
BMu97,39,C,REL,Weight_Unconstrained,1,L_ESI,0.006562072469160871
BMu97,40,C,INI,Weight_Unconstrained,1,L_ESI,0.01963763231724217
BMu97,40,C,INI,Weight_Unconstrained,1,R_ESI,0.006666002191949744
BMu97,40,C,REL,Weight_Unconstrained,1,L_ESI,0.015222581787123003
BMu97,40,C,REL,Weight_Unconstrained,1,R_ESI,0.003719727184119948
BMu97,41,P,INI,Weight_Unconstrained,1,L_ESI,0.007866430580723241
BMu97,41,P,INI,Weight_Unconstrained,1,R_ESI,0.005944378624898339
BMu97,41,P,REL,Weight_Unconstrained,1,L_ESI,0.00718911015452104
BMu97,41,P,REL,Weight_Unconstrained,1,R_ESI,0.0047854751996483326
BMu97,42,P,INI,Weight_Unconstrained,1,R_ESI,0.010140737200326265
BMu97,42,P,REL,Weight_Unconstrained,1,R_ESI,0.013172114876463173
BMu97,43,P,INI,Weight_Unconstrained,1,L_ESI,0.005613040368860658
BMu97,43,P,INI,Weight_Unconstrained,1,R_ESI,0.004096016149324069
BMu97,43,P,REL,Weight_Unconstrained,1,L_ESI,0.008668371219471387
BMu97,43,P,REL,Weight_Unconstrained,1,R_ESI,0.0052631065332938215
BMu97,44,C,INI,Weight_Unconstrained,1,L_ESI,0.010228437301616199
BMu97,44,C,INI,Weight_Unconstrained,1,R_ESI,0.010853096950327547
BMu97,44,C,REL,Weight_Unconstrained,1,L_ESI,0.007224961426385537
BMu97,44,C,REL,Weight_Unconstrained,1,R_ESI,0.011541080523942255
BMu97,45,P,INI,Weight_Unconstrained,1,L_ESI,0.004503912607232196
BMu97,45,P,INI,Weight_Unconstrained,1,R_ESI,0.003074320260622773
BMu97,46,C,INI,Weight_Unconstrained,1,L_ESI,0.008327549676113797
BMu97,46,C,INI,Weight_Unconstrained,1,R_ESI,0.005046921819679651
BMu97,46,C,REL,Weight_Unconstrained,1,L_ESI,0.006143752701581846
BMu97,46,C,REL,Weight_Unconstrained,1,R_ESI,0.004323778675837721
BMu97,47,P,REL,Weight_Unconstrained,1,R_ESI,0.006536971005493592
BMu97,48,C,INI,Weight_Unconstrained,1,L_ESI,0.012496426954077787
BMu97,48,C,INI,Weight_Unconstrained,1,R_ESI,0.011929014266525935
BMu97,48,C,REL,Weight_Unconstrained,1,R_ESI,0.01404236935653898
BMu97,49,C,INI,Weight_Unconstrained,1,R_ESI,0.009220346068478538
BMu97,49,C,REL,Weight_Unconstrained,1,L_ESI,0.007007159326020988
BMu97,50,P,INI,Weight_Unconstrained,1,L_ESI,0.014764295197921712
BMu97,50,P,INI,Weight_Unconstrained,1,R_ESI,0.005853789113230208
BMu97,50,P,REL,Weight_Unconstrained,1,L_ESI,0.012277669701601891
BMu97,50,P,REL,Weight_Unconstrained,1,R_ESI,0.0056851018807970105
BMu97,51,P,INI,Weight_Unconstrained,1,L_ESI,0.011435303945518793
BMu97,51,P,INI,Weight_Unconstrained,1,R_ESI,0.011388425490551272
BMu97,51,P,REL,Weight_Unconstrained,1,L_ESI,0.006602390418451753
BMu97,52,C,INI,Weight_Unconstrained,1,L_ESI,0.010854087104683842
BMu97,52,C,INI,Weight_Unconstrained,1,R_ESI,0.005868339342099918
BMu97,52,C,REL,Weight_Unconstrained,1,L_ESI,0.0067375049253511005
BMu97,52,C,REL,Weight_Unconstrained,1,R_ESI,0.004229111250100471
BMu97,53,P,INI,Weight_Unconstrained,1,L_ESI,0.00686805441127647
BMu97,53,P,INI,Weight_Unconstrained,1,R_ESI,0.004170870468388489
BMu97,53,P,REL,Weight_Unconstrained,1,L_ESI,0.0055961351672696264
BMu97,53,P,REL,Weight_Unconstrained,1,R_ESI,0.0039178739754262655
BMu97,54,P,INI,Weight_Unconstrained,1,L_ESI,0.005634985594741811
BMu97,54,P,INI,Weight_Unconstrained,1,R_ESI,0.005533742776390931
BMu97,54,P,REL,Weight_Unconstrained,1,L_ESI,0.005675831905692184
BMu97,54,P,REL,Weight_Unconstrained,1,R_ESI,0.006681688017010137
BMu97,55,C,INI,Weight_Unconstrained,1,L_ESI,0.005081964387552567
BMu97,55,C,INI,Weight_Unconstrained,1,R_ESI,0.004404960386423414
BMu97,55,C,REL,Weight_Unconstrained,1,L_ESI,0.008531468925667533
BMu97,55,C,REL,Weight_Unconstrained,1,R_ESI,0.0046500123447666365
BMu97,56,C,INI,Weight_Unconstrained,1,L_ESI,0.007735864995332297
BMu97,56,C,INI,Weight_Unconstrained,1,R_ESI,0.003984509888494557
BMu97,56,C,REL,Weight_Unconstrained,1,L_ESI,0.0077973512353838315
BMu97,56,C,REL,Weight_Unconstrained,1,R_ESI,0.004906291438300829
BMu97,57,C,INI,Weight_Unconstrained,1,L_ESI,0.0042860857904990736
BMu97,57,C,INI,Weight_Unconstrained,1,R_ESI,0.00292118879380113
BMu97,57,C,REL,Weight_Unconstrained,1,L_ESI,0.003968991408968743
BMu97,58,P,INI,Weight_Unconstrained,1,L_ESI,0.00417934994273762
BMu97,58,P,INI,Weight_Unconstrained,1,R_ESI,0.006312732193645685
BMu97,58,P,REL,Weight_Unconstrained,1,L_ESI,0.007157895314055251
BMu97,58,P,REL,Weight_Unconstrained,1,R_ESI,0.007613939654603066
BMu97,60,C,INI,Weight_Unconstrained,1,L_ESI,0.006819974314369229
BMu97,60,C,REL,Weight_Unconstrained,1,L_ESI,0.007793064875752977
BMu97,61,P,INI,Weight_Unconstrained,1,R_ESI,0.00445727457091167
BMu97,61,P,REL,Weight_Unconstrained,1,L_ESI,0.008870206535503078
BMu97,62,P,REL,Weight_Unconstrained,1,L_ESI,0.005555393617401816
BMu97,62,P,REL,Weight_Unconstrained,1,R_ESI,0.007233874215092004
BMu97,63,P,REL,Weight_Unconstrained,1,R_ESI,0.0031433834946167096
BMu97,64,C,INI,Weight_Unconstrained,1,R_ESI,0.013622276869590846
BMu97,64,C,REL,Weight_Unconstrained,1,R_ESI,0.009150252547628697
BMu97,65,P,INI,Weight_Unconstrained,1,L_ESI,0.013222016052316734
BMu97,65,P,INI,Weight_Unconstrained,1,R_ESI,0.010235654072031095
BMu97,65,P,REL,Weight_Unconstrained,1,L_ESI,0.01020044016220895
BMu97,65,P,REL,Weight_Unconstrained,1,R_ESI,0.010659334012919472
BMu97,66,C,INI,Weight_Unconstrained,1,R_ESI,0.007189858928584734
BMu97,68,C,INI,Weight_Unconstrained,1,L_ESI,0.01038403552055543
BMu97,68,C,REL,Weight_Unconstrained,1,L_ESI,0.009656485391027078
