"","Biomarkers","Unit","Normality","P","AUC","Youden"
"1","BMo1.csv","V","0.000709838452543579","0.0546752891707583","64.5977011494253","38.5057471264368"
"2","BMo100.csv","%MAX","0.578843818608898","0.871504310915898","52.5555555555556","13.3333333333333"
"3","BMo101.csv","%MAX","0.00100467581766215","0.336275691354855","57.5308641975309","21.4814814814815"
"4","BMo102.csv","%MAX","0.000887689210391697","0.513348066589203","45","13.3333333333333"
"5","BMo103.csv","%MAX","0.00153981538964052","0.344362900766389","57.4074074074074","27.4074074074074"
"6","BMo104.csv","%MAX","2.03634810463797e-06","0.106726658963916","62.2988505747126","28.735632183908"
"7","BMo105.csv","%MAX","0.0625318766041336","0.293343275148892","58.8888888888889","23.3333333333333"
"8","BMo106.csv","%MAX","1.40218697446344e-05","0.867776507124372","51.358024691358","23.3333333333333"
"9","BMo107.csv","%MAX","0.0959460799782801","0.439715712381721","53.448275862069","14.1379310344828"
"10","BMo108.csv","%MAX","0.000476890099488024","0.323185831829999","57.5862068965517","24.367816091954"
"11","BMo109.csv","%MAX","0.440222098413141","0.119308863395735","60.2298850574713","31.8390804597701"
"12","BMo110.csv","%subMVIC","1.66348873017009e-10","0.196394996024105","59.8850574712644","25.9770114942529"
"13","BMo111.csv","%subMVIC","1.81927825840449e-07","0.934049731034808","50.6896551724138","20"
"14","BMo112.csv","%subMVIC","3.23451297584534e-07","0.464965934556067","55.632183908046","22.6436781609195"
"15","BMo113.csv","%subMVIC","4.60696342805482e-09","1","50.0638569604087","20.051085568327"
"16","BMo114.csv","V","1.67245094386605e-05","0.148585697011622","61.0344827586207","29.080459770115"
"17","BMo115.csv","V","1.05447932289665e-07","0.140175489219203","61.2643678160919","35.8620689655172"
"18","BMo117.csv","Hz","0.995351650304768","0.120524959736422","60.8045977011494","25.0574712643678"
"19","BMo118.csv","Hz","0.773014049383374","0.121724669073401","61.7241379310345","29.1954022988506"
"20","BMo119.csv","Hz","0.0426577365737857","0.815578973475373","51.8390804597701","11.7241379310345"
"21","BMo15.csv","V","3.79227486907793e-09","0.00167599731669631","73.448275862069","42.4137931034483"
"22","BMo22.csv","V","4.06850674743737e-13","0.231878147762273","59.6866096866097","31.4814814814815"
"23","BMo23.csv","V","1.14702539964217e-06","0.564232102907261","54.6296296296296","22.8835978835979"
"24","BMo24.csv","V","1.2057358914099e-10","0.429243664146763","56.3786008230453","18.5185185185185"
"25","BMo29.csv","Hz","0.0590581744204852","0.109961211588015","57.512315270936","25.2463054187192"
"26","BMo34.csv","%MAX","0.00616366335692494","0.00106272059639714","74.367816091954","42.8735632183908"
"27","BMo35.csv","NAN","9.81626317346493e-09","0.946020653929916","50.5747126436782","10.8045977011494"
"28","BMo36.csv","%SubMVIC","0.61474503728499","0.000130620814813358","78.448275862069","51.3546798029557"
"29","BMo37.csv","Hz","0.492422819360795","0.702154006274338","53.6904761904762","16.9047619047619"
"30","BMo38.csv","Hz","0.107364408391723","0.100933948107413","57.3891625615764","28.6945812807882"
"31","BMo40.csv","Hz","0.1667331415297","0.625942613382733","55.1190476190476","21.4285714285714"
"32","BMo41.csv","NAN","0.000385659447621568","0.637533694314397","53.6904761904762","17.8571428571429"
"33","BMo42.csv","NAN","0.000276800801899751","0.000311490026234138","76.6666666666667","52.6436781609195"
"34","BMo43.csv","NAN","1.69840612115178e-06","0.0350433113952337","65.9770114942529","42.6436781609195"
"35","BMo44.csv","NAN","0.0969567914537568","0.000353722550222799","76.2068965517241","45.632183908046"
"36","BMo51.csv","Hz","0.000630828937478281","0.24195728981996","58.9655172413793","19.0804597701149"
"37","BMo52.csv","Hz","0.246376249589417","0.484173166265181","55.7669441141498","17.2413793103448"
"38","BMo53.csv","Hz","0.340654379681093","0.0735749755838864","62.4137931034483","26.0919540229885"
"39","BMo67.csv","%subMVIC","1.25705987205876e-05","0.701126633974583","52.9885057471264","15.4022988505747"
"40","BMo68.csv","%subMVIC","4.23793891117108e-11","0.59299651504642","54.1379310344828","15.9770114942529"
"41","BMo69.csv","V","2.66088154333662e-06","0.137093182142001","61.7724867724868","23.5449735449735"
"42","BMo81.csv","V","4.03272026212894e-06","0.776021529903408","47.7040816326531","17.8571428571428"
"43","BMo82.csv","V","7.76376177490836e-11","0.217816051015905","59.7883597883598","22.8835978835979"
"44","BMo86.csv","s","0.000616604360037087","0.50617274975637","55.5555555555556","16.6666666666667"
"45","BMo87.csv","s","1.26747352575802e-11","0.94937189515134","50.5917159763314","15.3846153846154"
"46","BMo88.csv","s","4.04528321509508e-10","0.383410290013775","57.2530864197531","21.7592592592593"
"47","BMo91.csv","V","1.74181768410858e-10","0.381735897674403","56.6666666666667","20"
"48","BMo96.csv","V","0.0001859837451886","0.113152475095854","62.1878715814507","24.1379310344828"
"49","BMo97.csv","V","7.13028738984006e-05","0.92401746135487","49.2222222222222","10"
"50","BMo98.csv","V","3.61980969294188e-06","0.119882609168966","62.1966794380587","25.5427841634738"
