event,time_sec,time_min
RHS,0.49000000953674316,0.0
RHS,1.2999999523162842,0.0
RHS,2.119999885559082,0.0
RTO,0.1599999964237213,0.0
RTO,0.9700000286102295,0.0
RTO,1.7799999713897705,0.0
LHS,0.07999999821186066,0.0
LHS,0.8899999856948853,0.0
LHS,1.7000000476837158,0.0
LTO,0.5600000023841858,0.0
LTO,1.3700000047683716,0.0
LTO,2.190000057220459,0.0
