event,time_sec,time_min
RHS,0.6399999856948853,0.0
RHS,1.5800000429153442,0.0
RHS,2.509999990463257,0.0
RHS,3.4800000190734863,0.0
RTO,0.28999999165534973,0.0
RTO,1.190000057220459,0.0
RTO,2.130000114440918,0.0
RTO,3.0799999237060547,0.0
LHS,0.1899999976158142,0.0
LHS,1.090000033378601,0.0
LHS,2.009999990463257,0.0
LHS,2.990000009536743,0.0
LTO,0.7400000095367432,0.0
LTO,1.6699999570846558,0.0
LTO,2.5999999046325684,0.0
LTO,3.569999933242798,0.0
