event,time_sec,time_min
RHS,0.4699999988079071,0.0
RHS,1.2300000190734863,0.0
RHS,1.9900000095367432,0.0
RTO,0.1599999964237213,0.0
RTO,0.9100000262260437,0.0
RTO,1.659999966621399,0.0
LHS,0.10999999940395355,0.0
LHS,0.8600000143051147,0.0
LHS,1.6100000143051147,0.0
LTO,0.5299999713897705,0.0
LTO,1.2899999618530273,0.0
LTO,2.049999952316284,0.0
