event,time_sec,time_min
startMotion,0.10000000149011612,0.0
startMotion,9.859999656677246,0.0
startMotion,17.75,0.0
startMotion,25.530000686645508,0.0
startMotion,33.02000045776367,0.0
startMotion,40.689998626708984,0.0
startMotion,50.68000030517578,0.0
stopMotion,5.75,0.0
stopMotion,13.90999984741211,0.0
stopMotion,21.739999771118164,0.0
stopMotion,29.219999313354492,0.0
stopMotion,36.810001373291016,0.0
stopMotion,44.65999984741211,0.0
