Biomarkers,Participant,Session,Task,Error
87,P43,INI,Perturbation_R_Shoulder,no values
87,P48,INI,Perturbation_R_Shoulder,no values
87,P54,REL,Perturbation_R_Shoulder,no values
87,P58,INI,Perturbation_R_Shoulder,no values
