Group,Participant,Session,Operator,Measure,Value,Unit
CTR,P01,INI,FM,MEAN,29.46656728988222,%MAX
CTR,P02,INI,FM,MEAN,11.326488064630114,%MAX
CTR,P03,INI,FM,MEAN,19.7608677496113,%MAX
CTR,P05,INI,FM,MEAN,17.722449466447507,%MAX
CTR,P06,INI,FM,MEAN,13.175685769083696,%MAX
CTR,P07,INI,FM,MEAN,20.4295219951407,%MAX
CTR,P08,INI,FM,MEAN,45.267658750262235,%MAX
PAT,P09,INI,FM,MEAN,23.806967180171153,%MAX
PAT,P10,INI,FM,MEAN,7.848515548312401,%MAX
PAT,P11,INI,FM,MEAN,27.047578817358215,%MAX
PAT,P12,INI,FM,MEAN,38.52754771683504,%MAX
CTR,P13,INI,FM,MEAN,14.139087185896132,%MAX
PAT,P14,INI,FM,MEAN,45.16183896344048,%MAX
CTR,P16,INI,FM,MEAN,40.16904675192725,%MAX
PAT,P17,INI,FM,MEAN,33.92667799662033,%MAX
CTR,P21,INI,FM,MEAN,30.458668467365232,%MAX
CTR,P22,INI,FM,MEAN,18.86188815722467,%MAX
CTR,P23,INI,FM,MEAN,29.102527132276215,%MAX
PAT,P24,INI,FM,MEAN,24.60071067071489,%MAX
CTR,P25,INI,FM,MEAN,23.966538652477663,%MAX
PAT,P26,INI,FM,MEAN,26.75427388958784,%MAX
PAT,P27,INI,FM,MEAN,33.657848304746004,%MAX
PAT,P28,INI,FM,MEAN,24.2248237239437,%MAX
PAT,P29,INI,FM,MEAN,30.3361232480109,%MAX
PAT,P30,INI,FM,MEAN,29.237498489235236,%MAX
PAT,P32,INI,FM,MEAN,26.654605270223847,%MAX
PAT,P33,INI,FM,MEAN,15.990269854871912,%MAX
PAT,P34,INI,FM,MEAN,35.70773233057301,%MAX
CTR,P35,INI,FM,MEAN,20.371764865570228,%MAX
PAT,P36,INI,FM,MEAN,20.8823009865365,%MAX
CTR,P38,INI,FM,MEAN,16.98635504712721,%MAX
CTR,P39,INI,FM,MEAN,27.486106806640425,%MAX
CTR,P40,INI,FM,MEAN,26.060632778042745,%MAX
PAT,P41,INI,FM,MEAN,22.130480964880395,%MAX
PAT,P42,INI,FM,MEAN,20.89188425628757,%MAX
PAT,P43,INI,FM,MEAN,20.095247802081435,%MAX
CTR,P44,INI,FM,MEAN,21.29195972912148,%MAX
PAT,P45,INI,FM,MEAN,24.282967544780284,%MAX
CTR,P46,INI,FM,MEAN,26.673148327724437,%MAX
PAT,P47,INI,FM,MEAN,20.538802210227082,%MAX
CTR,P48,INI,FM,MEAN,25.60707346783346,%MAX
CTR,P49,INI,FM,MEAN,25.41464504741841,%MAX
PAT,P50,INI,FM,MEAN,29.072149578527057,%MAX
PAT,P51,INI,FM,MEAN,23.293302846006313,%MAX
CTR,P52,INI,FM,MEAN,26.58923575661896,%MAX
PAT,P53,INI,FM,MEAN,41.62034445695651,%MAX
PAT,P54,INI,FM,MEAN,15.051684312450195,%MAX
CTR,P55,INI,FM,MEAN,42.933133946788644,%MAX
CTR,P56,INI,FM,MEAN,17.364451387568703,%MAX
CTR,P57,INI,FM,MEAN,39.870048009057,%MAX
PAT,P58,INI,FM,MEAN,55.473871962331465,%MAX
CTR,P60,INI,FM,MEAN,12.69582462457232,%MAX
PAT,P61,INI,FM,MEAN,28.98714246048648,%MAX
PAT,P62,INI,FM,MEAN,22.22619179710718,%MAX
PAT,P63,INI,FM,MEAN,31.838258545275345,%MAX
CTR,P64,INI,FM,MEAN,21.30798842360582,%MAX
PAT,P65,INI,FM,MEAN,29.13652143016388,%MAX
CTR,P66,INI,FM,MEAN,34.83784545912103,%MAX
CTR,P67,INI,FM,MEAN,30.73540207670702,%MAX
CTR,P68,INI,FM,MEAN,23.551371426928622,%MAX
