Group,Participant,Session,Operator,Measure,Value,Unit
CTR,P01,INI,FM,MF,79.60947980880326,Hz
CTR,P02,INI,FM,MF,82.87175002560542,Hz
CTR,P03,INI,FM,MF,67.54537696640352,Hz
CTR,P05,INI,FM,MF,110.3421925074877,Hz
CTR,P06,INI,FM,MF,84.10385597880422,Hz
CTR,P07,INI,FM,MF,87.40051744059924,Hz
CTR,P08,INI,FM,MF,29.767674828269747,Hz
PAT,P09,INI,FM,MF,92.06503661062446,Hz
PAT,P11,INI,FM,MF,106.05449554110317,Hz
PAT,P12,INI,FM,MF,88.75874708936033,Hz
CTR,P13,INI,FM,MF,83.89883565666435,Hz
PAT,P14,INI,FM,MF,58.63294452287264,Hz
CTR,P16,INI,FM,MF,75.64619703933825,Hz
PAT,P17,INI,FM,MF,92.71588002419186,Hz
CTR,P21,INI,FM,MF,34.87381464256608,Hz
CTR,P22,INI,FM,MF,67.97200772004693,Hz
CTR,P23,INI,FM,MF,43.16033728033225,Hz
PAT,P24,INI,FM,MF,87.08997488502848,Hz
CTR,P25,INI,FM,MF,23.795483369287066,Hz
PAT,P26,INI,FM,MF,56.72539180817827,Hz
PAT,P27,INI,FM,MF,66.14776682997858,Hz
PAT,P28,INI,FM,MF,108.46597467186108,Hz
PAT,P29,INI,FM,MF,83.8454342935163,Hz
PAT,P30,INI,FM,MF,39.11587667114461,Hz
PAT,P32,INI,FM,MF,91.33643484183824,Hz
PAT,P33,INI,FM,MF,80.16290443957627,Hz
PAT,P34,INI,FM,MF,80.01640760849045,Hz
CTR,P35,INI,FM,MF,95.29395459442468,Hz
PAT,P36,INI,FM,MF,87.4288066543043,Hz
CTR,P38,INI,FM,MF,24.31860358797398,Hz
CTR,P39,INI,FM,MF,82.74835534569127,Hz
CTR,P40,INI,FM,MF,44.13694345391253,Hz
PAT,P41,INI,FM,MF,73.96885889272214,Hz
PAT,P42,INI,FM,MF,78.3410538603577,Hz
PAT,P43,INI,FM,MF,89.57316653343145,Hz
PAT,P45,INI,FM,MF,63.27103163265293,Hz
PAT,P47,INI,FM,MF,67.08796046302882,Hz
CTR,P48,INI,FM,MF,89.24201678250989,Hz
CTR,P49,INI,FM,MF,82.72643663972923,Hz
PAT,P50,INI,FM,MF,109.76071622597458,Hz
PAT,P51,INI,FM,MF,60.630860662727606,Hz
CTR,P52,INI,FM,MF,89.35183437305837,Hz
PAT,P53,INI,FM,MF,76.60045281208936,Hz
PAT,P54,INI,FM,MF,60.1666503316052,Hz
CTR,P55,INI,FM,MF,39.22235841360269,Hz
CTR,P56,INI,FM,MF,61.66827954334448,Hz
CTR,P57,INI,FM,MF,44.15764316924682,Hz
PAT,P58,INI,FM,MF,28.19182311572422,Hz
CTR,P60,INI,FM,MF,84.00675983488452,Hz
PAT,P61,INI,FM,MF,66.78291015769055,Hz
PAT,P62,INI,FM,MF,82.10270766576092,Hz
PAT,P63,INI,FM,MF,75.92352312662906,Hz
CTR,P64,INI,FM,MF,72.66829156962791,Hz
PAT,P65,INI,FM,MF,80.02895325631225,Hz
CTR,P66,INI,FM,MF,32.66153489017655,Hz
CTR,P67,INI,FM,MF,81.81142283540669,Hz
CTR,P68,INI,FM,MF,93.2725438436825,Hz
