Group,Participant,Session,Operator,Measure,Value,Unit
CTR,P01,INI,FM,MEAN,36.92578780483316,%MAX
CTR,P02,INI,FM,MEAN,32.34204094701801,%MAX
CTR,P03,INI,FM,MEAN,25.165791530675087,%MAX
CTR,P05,INI,FM,MEAN,31.226112131200438,%MAX
CTR,P06,INI,FM,MEAN,39.811499762671055,%MAX
CTR,P07,INI,FM,MEAN,22.761114002821092,%MAX
CTR,P08,INI,FM,MEAN,19.82059971926005,%MAX
PAT,P09,INI,FM,MEAN,26.967012324262583,%MAX
PAT,P10,INI,FM,MEAN,28.81977641831123,%MAX
PAT,P11,INI,FM,MEAN,25.459263380983533,%MAX
PAT,P12,INI,FM,MEAN,25.406645363820402,%MAX
CTR,P13,INI,FM,MEAN,34.23908110439416,%MAX
PAT,P14,INI,FM,MEAN,32.12405031964518,%MAX
CTR,P16,INI,FM,MEAN,27.652283154185657,%MAX
PAT,P17,INI,FM,MEAN,29.91943713261391,%MAX
CTR,P21,INI,FM,MEAN,15.493479018323733,%MAX
CTR,P22,INI,FM,MEAN,34.33478009295638,%MAX
CTR,P23,INI,FM,MEAN,29.504925186364517,%MAX
PAT,P24,INI,FM,MEAN,27.395080221100592,%MAX
CTR,P25,INI,FM,MEAN,35.924658278742605,%MAX
PAT,P26,INI,FM,MEAN,39.551885654905675,%MAX
PAT,P27,INI,FM,MEAN,33.67879066996008,%MAX
PAT,P28,INI,FM,MEAN,31.32184362628287,%MAX
PAT,P29,INI,FM,MEAN,37.63520475603001,%MAX
PAT,P30,INI,FM,MEAN,40.361846405778856,%MAX
PAT,P32,INI,FM,MEAN,25.08551829252134,%MAX
PAT,P33,INI,FM,MEAN,34.06518382101535,%MAX
PAT,P34,INI,FM,MEAN,34.200463096750916,%MAX
CTR,P35,INI,FM,MEAN,23.349771948759706,%MAX
PAT,P36,INI,FM,MEAN,21.863210584182987,%MAX
CTR,P38,INI,FM,MEAN,27.7952074711296,%MAX
CTR,P39,INI,FM,MEAN,27.324938608487024,%MAX
CTR,P40,INI,FM,MEAN,21.454355202992645,%MAX
PAT,P41,INI,FM,MEAN,25.02050380395375,%MAX
PAT,P42,INI,FM,MEAN,24.84412429173116,%MAX
PAT,P43,INI,FM,MEAN,30.851474701576052,%MAX
CTR,P44,INI,FM,MEAN,32.66112496906524,%MAX
PAT,P45,INI,FM,MEAN,34.894769253677254,%MAX
CTR,P46,INI,FM,MEAN,38.39522866800018,%MAX
PAT,P47,INI,FM,MEAN,23.54694980044532,%MAX
CTR,P48,INI,FM,MEAN,35.64193379919689,%MAX
CTR,P49,INI,FM,MEAN,26.358973851099638,%MAX
PAT,P50,INI,FM,MEAN,26.63187919260789,%MAX
PAT,P51,INI,FM,MEAN,32.96388514746657,%MAX
CTR,P52,INI,FM,MEAN,32.28333876575795,%MAX
PAT,P53,INI,FM,MEAN,23.597906834728214,%MAX
PAT,P54,INI,FM,MEAN,34.55034014142614,%MAX
CTR,P55,INI,FM,MEAN,37.72665953657485,%MAX
CTR,P56,INI,FM,MEAN,26.399475945932977,%MAX
CTR,P57,INI,FM,MEAN,26.232598106510792,%MAX
PAT,P58,INI,FM,MEAN,29.859155014188122,%MAX
CTR,P60,INI,FM,MEAN,28.298722125804876,%MAX
PAT,P61,INI,FM,MEAN,35.90941717124426,%MAX
PAT,P62,INI,FM,MEAN,25.704594364741613,%MAX
PAT,P63,INI,FM,MEAN,34.23927728992847,%MAX
CTR,P64,INI,FM,MEAN,24.608220004747455,%MAX
PAT,P65,INI,FM,MEAN,19.24923113079478,%MAX
CTR,P66,INI,FM,MEAN,30.041482416152643,%MAX
CTR,P67,INI,FM,MEAN,29.011798190008573,%MAX
CTR,P68,INI,FM,MEAN,22.05491289732783,%MAX
