Group,Participant,Session,Operator,Measure,Value,Unit
CTR,P01,INI,FM,RATIO,0.026674643084704592,V
CTR,P02,INI,FM,RATIO,0.0075187981183536005,V
CTR,P03,INI,FM,RATIO,0.02905835283527059,V
CTR,P05,INI,FM,RATIO,0.02731455240339731,V
CTR,P06,INI,FM,RATIO,0.015939818071648328,V
CTR,P07,INI,FM,RATIO,0.05655303263067498,V
CTR,P08,INI,FM,RATIO,0.017719581311818982,V
PAT,P09,INI,FM,RATIO,0.014475551057074834,V
PAT,P10,INI,FM,RATIO,0.030784318857356614,V
PAT,P11,INI,FM,RATIO,0.0128865261988208,V
PAT,P12,INI,FM,RATIO,0.01621392817130686,V
CTR,P13,INI,FM,RATIO,0.0167864530761577,V
PAT,P14,INI,FM,RATIO,0.026530425733356327,V
CTR,P16,INI,FM,RATIO,0.0053820860364771,V
PAT,P17,INI,FM,RATIO,0.00829634359778758,V
CTR,P21,INI,FM,RATIO,0.0093921460508564,V
CTR,P22,INI,FM,RATIO,0.005476434577154045,V
CTR,P23,INI,FM,RATIO,0.02898143016571313,V
PAT,P24,INI,FM,RATIO,0.0295054024452527,V
CTR,P25,INI,FM,RATIO,0.02426693378586748,V
PAT,P26,INI,FM,RATIO,0.006209779808137615,V
PAT,P27,INI,FM,RATIO,0.010525417398369045,V
PAT,P28,INI,FM,RATIO,0.015869577639667537,V
PAT,P29,INI,FM,RATIO,0.02876908961379027,V
PAT,P30,INI,FM,RATIO,0.01192879012273209,V
PAT,P32,INI,FM,RATIO,0.014192267852879843,V
PAT,P33,INI,FM,RATIO,0.010483951376165266,V
PAT,P34,INI,FM,RATIO,0.0061563695911475,V
CTR,P35,INI,FM,RATIO,0.017068610023370862,V
PAT,P36,INI,FM,RATIO,0.019564800705251763,V
CTR,P39,INI,FM,RATIO,0.032883293334906236,V
CTR,P40,INI,FM,RATIO,0.01842425973818675,V
PAT,P41,INI,FM,RATIO,0.014380813416785451,V
PAT,P42,INI,FM,RATIO,0.0423667794912872,V
PAT,P43,INI,FM,RATIO,0.01949863473220955,V
CTR,P44,INI,FM,RATIO,0.025240581329072,V
PAT,P45,INI,FM,RATIO,0.008802453636427012,V
CTR,P46,INI,FM,RATIO,0.011837885559467617,V
PAT,P47,INI,FM,RATIO,0.00802362570126375,V
CTR,P48,INI,FM,RATIO,0.03901356884907125,V
CTR,P49,INI,FM,RATIO,0.028740594160996603,V
PAT,P50,INI,FM,RATIO,0.039650800017723885,V
PAT,P51,INI,FM,RATIO,0.0056658797269797,V
CTR,P52,INI,FM,RATIO,0.013198657143092533,V
PAT,P53,INI,FM,RATIO,0.0096227007459327,V
PAT,P54,INI,FM,RATIO,0.007444175855567339,V
CTR,P55,INI,FM,RATIO,0.022540797324765226,V
CTR,P56,INI,FM,RATIO,0.013264130187613956,V
CTR,P57,INI,FM,RATIO,0.02717252948765237,V
PAT,P58,INI,FM,RATIO,0.00712242553183465,V
CTR,P60,INI,FM,RATIO,0.014903820249898933,V
PAT,P61,INI,FM,RATIO,0.013631901375265888,V
PAT,P62,INI,FM,RATIO,0.024757359869197717,V
PAT,P63,INI,FM,RATIO,0.0350402997626013,V
CTR,P64,INI,FM,RATIO,0.00673816588526445,V
PAT,P65,INI,FM,RATIO,0.024707993694880134,V
CTR,P66,INI,FM,RATIO,0.006222917750436237,V
CTR,P67,INI,FM,RATIO,0.021884829232940585,V
CTR,P68,INI,FM,RATIO,0.037504024737373756,V
