Group,Participant,Session,Operator,Measure,Value,Unit
CTR,P01,INI,FM,RMS,0.0166416428102661,V
CTR,P02,INI,FM,RMS,0.0173771211359579,V
CTR,P03,INI,FM,RMS,0.0110727307910545,V
CTR,P05,INI,FM,RMS,0.0132576646834395,V
CTR,P07,INI,FM,RMS,0.0151867192011841,V
CTR,P08,INI,FM,RMS,0.0129405509824745,V
PAT,P09,INI,FM,RMS,0.0093990233327039,V
PAT,P10,INI,FM,RMS,0.0096494551354461,V
PAT,P11,INI,FM,RMS,0.0087786987098972,V
PAT,P12,INI,FM,RMS,,V
CTR,P13,INI,FM,RMS,0.0130737094632039,V
PAT,P14,INI,FM,RMS,,V
CTR,P16,INI,FM,RMS,0.0075466167265084,V
PAT,P17,INI,FM,RMS,0.0119967940471555,V
CTR,P21,INI,FM,RMS,0.0116629699417191,V
CTR,P22,INI,FM,RMS,0.0135493755697455,V
CTR,P23,INI,FM,RMS,0.0080753979234786,V
PAT,P24,INI,FM,RMS,0.0110550499118333,V
CTR,P25,INI,FM,RMS,0.0212228809772933,V
PAT,P26,INI,FM,RMS,0.0145393981751849,V
PAT,P27,INI,FM,RMS,0.0183027391230221,V
PAT,P28,INI,FM,RMS,0.0069543524232064,V
PAT,P29,INI,FM,RMS,0.0203295759885451,V
PAT,P30,INI,FM,RMS,0.0090300122589399,V
PAT,P32,INI,FM,RMS,0.0090978156320867,V
PAT,P33,INI,FM,RMS,0.0066463338887998,V
PAT,P34,INI,FM,RMS,0.0148284492106251,V
CTR,P35,INI,FM,RMS,,V
PAT,P36,INI,FM,RMS,0.0149657442874725,V
CTR,P39,INI,FM,RMS,0.0069416330532477,V
CTR,P40,INI,FM,RMS,0.0144861263466996,V
PAT,P41,INI,FM,RMS,0.0210788853689139,V
PAT,P42,INI,FM,RMS,0.0154807202063598,V
PAT,P43,INI,FM,RMS,0.0102019711329808,V
CTR,P44,INI,FM,RMS,,V
PAT,P45,INI,FM,RMS,,V
CTR,P46,INI,FM,RMS,0.0154839725268384,V
PAT,P47,INI,FM,RMS,0.0095636286140243,V
CTR,P48,INI,FM,RMS,0.0235168544143125,V
CTR,P49,INI,FM,RMS,0.0259849160053132,V
PAT,P50,INI,FM,RMS,0.0245816819247682,V
PAT,P51,INI,FM,RMS,0.0082186765395137,V
CTR,P52,INI,FM,RMS,0.011637528031412,V
PAT,P53,INI,FM,RMS,0.0098026882825728,V
PAT,P54,INI,FM,RMS,0.025164652376487,V
CTR,P55,INI,FM,RMS,0.0094039286343399,V
CTR,P56,INI,FM,RMS,0.0110532155082265,V
PAT,P58,INI,FM,RMS,0.0044393212508268,V
CTR,P60,INI,FM,RMS,0.0075126893315452,V
PAT,P62,INI,FM,RMS,0.0100986916139232,V
PAT,P63,INI,FM,RMS,,V
CTR,P64,INI,FM,RMS,0.010627634592435,V
PAT,P65,INI,FM,RMS,0.0225793050804595,V
CTR,P66,INI,FM,RMS,0.0174227790555286,V
CTR,P67,INI,FM,RMS,0.0145853183906034,V
CTR,P68,INI,FM,RMS,,V
