Group,Participant,Session,Operator,Measure,Value,Unit
CTR,P01,INI,FM,RMS,0.0024457060357425,V
CTR,P02,INI,FM,RMS,0.0083764257260657,V
CTR,P03,INI,FM,RMS,0.0042299324830315,V
CTR,P05,INI,FM,RMS,0.0050269670345498,V
CTR,P06,INI,FM,RMS,0.0019263605718552,V
CTR,P07,INI,FM,RMS,0.0067360888997656,V
CTR,P08,INI,FM,RMS,0.0041609754725879,V
PAT,P09,INI,FM,RMS,0.0031989948788212,V
PAT,P10,INI,FM,RMS,0.0049302849960212,V
PAT,P11,INI,FM,RMS,0.0055928560123499,V
PAT,P12,INI,FM,RMS,0.0030716436071446,V
CTR,P13,INI,FM,RMS,0.0034653720574401,V
PAT,P14,INI,FM,RMS,0.0043820156802439,V
CTR,P16,INI,FM,RMS,0.002741098787812,V
PAT,P17,INI,FM,RMS,0.0043688916595847,V
CTR,P21,INI,FM,RMS,0.003791807084933,V
CTR,P22,INI,FM,RMS,0.0045445698612921,V
CTR,P23,INI,FM,RMS,0.0025493065429458,V
PAT,P24,INI,FM,RMS,0.0049987049924669,V
PAT,P26,INI,FM,RMS,0.0092299149618405,V
PAT,P27,INI,FM,RMS,0.0040906965662599,V
PAT,P28,INI,FM,RMS,0.0027168111918584,V
PAT,P30,INI,FM,RMS,0.0034571625078909,V
PAT,P32,INI,FM,RMS,0.0041258883631661,V
PAT,P33,INI,FM,RMS,0.0084164438835898,V
PAT,P34,INI,FM,RMS,0.0055495456413112,V
CTR,P35,INI,FM,RMS,,V
PAT,P36,INI,FM,RMS,0.0081177757232019,V
CTR,P38,INI,FM,RMS,0.0053272929726739,V
CTR,P39,INI,FM,RMS,0.004477571582272,V
PAT,P41,INI,FM,RMS,0.004951238238072,V
PAT,P42,INI,FM,RMS,0.0037860449361704,V
PAT,P43,INI,FM,RMS,0.0044645942533703,V
CTR,P44,INI,FM,RMS,0.0080615962040359,V
PAT,P45,INI,FM,RMS,,V
CTR,P46,INI,FM,RMS,0.0055236919537636,V
PAT,P47,INI,FM,RMS,0.0047869498320115,V
CTR,P48,INI,FM,RMS,0.0078769419921495,V
CTR,P49,INI,FM,RMS,0.0055046355079706,V
PAT,P50,INI,FM,RMS,0.0087112915387122,V
PAT,P51,INI,FM,RMS,0.0029802270330186,V
CTR,P52,INI,FM,RMS,0.0076320062170635,V
PAT,P54,INI,FM,RMS,0.0039396084191748,V
CTR,P55,INI,FM,RMS,0.0024795654523734,V
CTR,P56,INI,FM,RMS,0.005679721916785,V
CTR,P57,INI,FM,RMS,0.0023121678547112,V
PAT,P58,INI,FM,RMS,0.0027862901782713,V
CTR,P60,INI,FM,RMS,0.0053475086519884,V
PAT,P61,INI,FM,RMS,0.0060863835461948,V
PAT,P62,INI,FM,RMS,0.0081039575034022,V
PAT,P63,INI,FM,RMS,,V
CTR,P64,INI,FM,RMS,0.0056766018624583,V
PAT,P65,INI,FM,RMS,0.0097950687096537,V
CTR,P66,INI,FM,RMS,0.0056813314927885,V
CTR,P67,INI,FM,RMS,0.0052667304969092,V
CTR,P68,INI,FM,RMS,,V
