event,time_sec,time_min
RHS,0.6800000071525574,0.0
RHS,1.6299999952316284,0.0
RHS,2.609999895095825,0.0
RTO,0.3100000023841858,0.0
RTO,1.2799999713897705,0.0
RTO,2.240000009536743,0.0
LHS,0.20999999344348907,0.0
LHS,1.1699999570846558,0.0
LHS,2.130000114440918,0.0
LTO,0.7699999809265137,0.0
LTO,1.7400000095367432,0.0
LTO,2.700000047683716,0.0
