event,time_sec,time_min
RHS,0.18000000715255737,0.0
RHS,1.309999942779541,0.0
RHS,2.430000066757202,0.0
RHS,3.5199999809265137,0.0
RTO,0.9300000071525574,0.0
RTO,2.0299999713897705,0.0
RTO,3.130000114440918,0.0
RTO,4.269999980926514,0.0
LHS,0.800000011920929,0.0
LHS,1.8899999856948853,0.0
LHS,2.990000009536743,0.0
LHS,4.119999885559082,0.0
LTO,0.3400000035762787,0.0
LTO,1.4500000476837158,0.0
LTO,2.559999942779541,0.0
LTO,3.6700000762939453,0.0
