event,time_sec,time_min
RHS,0.6800000071525574,0.0
RHS,1.8300000429153442,0.0
RHS,2.9800000190734863,0.0
RHS,4.119999885559082,0.0
RTO,0.27000001072883606,0.0
RTO,1.4299999475479126,0.0
RTO,2.5799999237060547,0.0
RTO,3.7100000381469727,0.0
LHS,0.12999999523162842,0.0
LHS,1.2799999713897705,0.0
LHS,2.4200000762939453,0.0
LHS,3.5399999618530273,0.0
LTO,0.8199999928474426,0.0
LTO,1.9700000286102295,0.0
LTO,3.119999885559082,0.0
LTO,4.260000228881836,0.0
