event,time_sec,time_min
RHS,0.7799999713897705,0.0
RHS,2.1500000953674316,0.0
RHS,3.440000057220459,0.0
RHS,4.820000171661377,0.0
RHS,6.159999847412109,0.0
RTO,0.3700000047683716,0.0
RTO,1.659999966621399,0.0
RTO,3.069999933242798,0.0
RTO,4.380000114440918,0.0
RTO,5.730000019073486,0.0
LHS,0.12999999523162842,0.0
LHS,1.4600000381469727,0.0
LHS,2.799999952316284,0.0
LHS,4.150000095367432,0.0
LHS,5.5,0.0
LTO,1.0099999904632568,0.0
LTO,2.359999895095825,0.0
LTO,3.700000047683716,0.0
LTO,5.050000190734863,0.0
LTO,6.409999847412109,0.0
