event,time_sec,time_min
startMotion,0.10000000149011612,0.0
startMotion,12.390000343322754,0.0
startMotion,23.93000030517578,0.0
startMotion,37.7400016784668,0.0
stopMotion,6.639999866485596,0.0
stopMotion,18.18000030517578,0.0
stopMotion,29.610000610351562,0.0
