event,time_sec,time_min
RHS,0.5799999833106995,0.0
RHS,1.6200000047683716,0.0
RHS,2.640000104904175,0.0
RTO,0.15000000596046448,0.0
RTO,1.1799999475479126,0.0
RTO,2.2200000286102295,0.0
LHS,0.07999999821186066,0.0
LHS,1.090000033378601,0.0
LHS,2.130000114440918,0.0
LTO,0.6600000262260437,0.0
LTO,1.7000000476837158,0.0
LTO,2.7100000381469727,0.0
