event,time_sec,time_min
RHS,0.09000000357627869,0.0
RHS,1.149999976158142,0.0
RHS,2.180000066757202,0.0
RTO,0.7200000286102295,0.0
RTO,1.7400000095367432,0.0
RTO,2.75,0.0
LHS,0.6200000047683716,0.0
LHS,1.659999966621399,0.0
LHS,2.6700000762939453,0.0
LTO,0.1899999976158142,0.0
LTO,1.2300000190734863,0.0
LTO,2.25,0.0
