event,time_sec,time_min
RHS,0.6899999976158142,0.0
RHS,1.7000000476837158,0.0
RTO,0.2800000011920929,0.0
RTO,1.2799999713897705,0.0
RTO,2.259999990463257,0.0
LHS,0.1899999976158142,0.0
LHS,1.2000000476837158,0.0
LHS,2.180000066757202,0.0
LTO,0.7699999809265137,0.0
LTO,1.7799999713897705,0.0
