event,time_sec,time_min
RHS,0.23999999463558197,0.0
RHS,1.5399999618530273,0.0
RHS,2.8299999237060547,0.0
RHS,4.119999885559082,0.0
RTO,1.0399999618530273,0.0
RTO,2.319999933242798,0.0
RTO,3.640000104904175,0.0
LHS,0.8899999856948853,0.0
LHS,2.190000057220459,0.0
LHS,3.4700000286102295,0.0
LTO,0.38999998569488525,0.0
LTO,1.690000057220459,0.0
LTO,2.9800000190734863,0.0
LTO,4.28000020980835,0.0
