event,time_sec,time_min
RHS,0.6000000238418579,0.0
RHS,1.600000023841858,0.0
RHS,2.5999999046325684,0.0
RTO,0.1899999976158142,0.0
RTO,1.1799999475479126,0.0
RTO,2.180000066757202,0.0
LHS,0.10000000149011612,0.0
LHS,1.100000023841858,0.0
LHS,2.0999999046325684,0.0
LTO,0.6700000166893005,0.0
LTO,1.6699999570846558,0.0
LTO,2.6700000762939453,0.0
