event,time_sec,time_min
startMotion,0.10000000149011612,0.0
startMotion,10.640000343322754,0.0
startMotion,19.059999465942383,0.0
startMotion,27.209999084472656,0.0
startMotion,35.16999816894531,0.0
startMotion,43.709999084472656,0.0
startMotion,53.720001220703125,0.0
stopMotion,5.940000057220459,0.0
stopMotion,15.34000015258789,0.0
stopMotion,22.90999984741211,0.0
stopMotion,31.510000228881836,0.0
stopMotion,38.849998474121094,0.0
stopMotion,48.52000045776367,0.0
