event,time_sec,time_min
RHS,0.20999999344348907,0.0
RHS,1.2400000095367432,0.0
RHS,2.2100000381469727,0.0
RHS,3.200000047683716,0.0
RHS,4.179999828338623,0.0
RTO,0.8600000143051147,0.0
RTO,1.8200000524520874,0.0
RTO,2.819999933242798,0.0
RTO,3.799999952316284,0.0
RTO,4.78000020980835,0.0
LHS,0.7300000190734863,0.0
LHS,1.7100000381469727,0.0
LHS,2.700000047683716,0.0
LHS,3.690000057220459,0.0
LHS,4.659999847412109,0.0
LTO,0.33000001311302185,0.0
LTO,1.340000033378601,0.0
LTO,2.309999942779541,0.0
LTO,3.299999952316284,0.0
LTO,4.289999961853027,0.0
