event,time_sec,time_min
RHS,0.20999999344348907,0.0
RHS,1.1200000047683716,0.0
RHS,2.0399999618530273,0.0
RHS,2.940000057220459,0.0
RTO,0.75,0.0
RTO,1.6799999475479126,0.0
RTO,2.569999933242798,0.0
RTO,3.4800000190734863,0.0
LHS,0.6700000166893005,0.0
LHS,1.600000023841858,0.0
LHS,2.5,0.0
LHS,3.390000104904175,0.0
LTO,0.30000001192092896,0.0
LTO,1.2100000381469727,0.0
LTO,2.119999885559082,0.0
LTO,3.0199999809265137,0.0
