event,time_sec,time_min
RHS,0.14000000059604645,0.0
RHS,1.0399999618530273,0.0
RHS,1.9299999475479126,0.0
RHS,2.8399999141693115,0.0
RTO,0.6800000071525574,0.0
RTO,1.5800000429153442,0.0
RTO,2.4800000190734863,0.0
RTO,3.380000114440918,0.0
LHS,0.5899999737739563,0.0
LHS,1.4900000095367432,0.0
LHS,2.4000000953674316,0.0
LHS,3.2899999618530273,0.0
LTO,0.2199999988079071,0.0
LTO,1.1200000047683716,0.0
LTO,2.0299999713897705,0.0
LTO,2.930000066757202,0.0
