event,time_sec,time_min
RHS,0.6800000071525574,0.0
RHS,1.7400000095367432,0.0
RHS,2.7699999809265137,0.0
RHS,3.7899999618530273,0.0
RHS,4.800000190734863,0.0
RTO,0.2800000011920929,0.0
RTO,1.340000033378601,0.0
RTO,2.380000114440918,0.0
RTO,3.4000000953674316,0.0
RTO,4.420000076293945,0.0
LHS,0.15000000596046448,0.0
LHS,1.2100000381469727,0.0
LHS,2.259999990463257,0.0
LHS,3.2799999713897705,0.0
LHS,4.300000190734863,0.0
LTO,0.8100000023841858,0.0
LTO,1.850000023841858,0.0
LTO,2.880000114440918,0.0
LTO,3.9100000858306885,0.0
LTO,4.929999828338623,0.0
