event,time_sec,time_min
RHS,0.20999999344348907,0.0
RHS,1.090000033378601,0.0
RHS,2.0,0.0
RHS,2.9100000858306885,0.0
RTO,0.7400000095367432,0.0
RTO,1.6399999856948853,0.0
RTO,2.5399999618530273,0.0
RTO,3.440000057220459,0.0
LHS,0.6499999761581421,0.0
LHS,1.559999942779541,0.0
LHS,2.4600000381469727,0.0
LHS,3.359999895095825,0.0
LTO,0.30000001192092896,0.0
LTO,1.1699999570846558,0.0
LTO,2.0799999237060547,0.0
LTO,2.990000009536743,0.0
