event,time_sec,time_min
RHS,0.6299999952316284,0.0
RHS,1.5199999809265137,0.0
RHS,2.430000066757202,0.0
RHS,3.319999933242798,0.0
RTO,0.27000001072883606,0.0
RTO,1.149999976158142,0.0
RTO,2.049999952316284,0.0
RTO,2.9600000381469727,0.0
LHS,0.18000000715255737,0.0
LHS,1.0700000524520874,0.0
LHS,1.9600000381469727,0.0
LHS,2.869999885559082,0.0
LTO,0.699999988079071,0.0
LTO,1.590000033378601,0.0
LTO,2.5,0.0
LTO,3.4100000858306885,0.0
