event,time_sec,time_min
startMotion,0.10000000149011612,0.0
startMotion,9.800000190734863,0.0
startMotion,18.950000762939453,0.0
startMotion,25.25,0.0
startMotion,31.299999237060547,0.0
startMotion,37.790000915527344,0.0
startMotion,44.619998931884766,0.0
startMotion,51.52000045776367,0.0
startMotion,1.100000023841858,1.0
stopMotion,5.289999961853027,0.0
stopMotion,15.069999694824219,0.0
stopMotion,21.979999542236328,0.0
stopMotion,28.540000915527344,0.0
stopMotion,34.09000015258789,0.0
stopMotion,41.56999969482422,0.0
stopMotion,47.650001525878906,0.0
stopMotion,55.790000915527344,0.0
