event,time_sec,time_min
startMotion,0.10000000149011612,0.0
startMotion,16.719999313354492,0.0
startMotion,23.100000381469727,0.0
startMotion,28.360000610351562,0.0
startMotion,33.529998779296875,0.0
startMotion,38.5,0.0
startMotion,45.75,0.0
stopMotion,13.649999618530273,0.0
stopMotion,19.959999084472656,0.0
stopMotion,25.780000686645508,0.0
stopMotion,30.969999313354492,0.0
stopMotion,36.040000915527344,0.0
stopMotion,41.209999084472656,0.0
