event,time_sec,time_min
RHS,0.6000000238418579,0.0
RHS,1.6100000143051147,0.0
RHS,2.6600000858306885,0.0
RTO,0.23000000417232513,0.0
RTO,1.2400000095367432,0.0
RTO,2.2699999809265137,0.0
RTO,3.299999952316284,0.0
LHS,0.10000000149011612,0.0
LHS,1.1200000047683716,0.0
LHS,2.1500000953674316,0.0
LHS,3.1700000762939453,0.0
LTO,0.7200000286102295,0.0
LTO,1.7599999904632568,0.0
LTO,2.7899999618530273,0.0
