event,time_sec,time_min
RHS,1.100000023841858,0.0
RHS,2.4200000762939453,0.0
RHS,3.7300000190734863,0.0
RHS,5.019999980926514,0.0
RTO,0.6200000047683716,0.0
RTO,1.940000057220459,0.0
RTO,3.25,0.0
RTO,4.550000190734863,0.0
LHS,0.4399999976158142,0.0
LHS,1.7699999809265137,0.0
LHS,3.0999999046325684,0.0
LHS,4.389999866485596,0.0
LTO,1.2999999523162842,0.0
LTO,2.609999895095825,0.0
LTO,3.930000066757202,0.0
