event,time_sec,time_min
RHS,0.23000000417232513,0.0
RHS,1.3700000047683716,0.0
RHS,2.5399999618530273,0.0
RHS,3.6500000953674316,0.0
RTO,0.9599999785423279,0.0
RTO,2.0999999046325684,0.0
RTO,3.259999990463257,0.0
LHS,0.8100000023841858,0.0
LHS,1.9600000381469727,0.0
LHS,3.0999999046325684,0.0
LTO,0.3799999952316284,0.0
LTO,1.5499999523162842,0.0
LTO,2.690000057220459,0.0
LTO,3.8299999237060547,0.0
