event,time_sec,time_min
startMotion,0.10000000149011612,0.0
startMotion,12.819999694824219,0.0
startMotion,24.030000686645508,0.0
startMotion,37.25,0.0
stopMotion,7.420000076293945,0.0
stopMotion,18.31999969482422,0.0
stopMotion,29.719999313354492,0.0
