event,time_sec,time_min
startMotion,0.10000000149011612,0.0
startMotion,11.869999885559082,0.0
startMotion,22.760000228881836,0.0
startMotion,31.850000381469727,0.0
startMotion,41.400001525878906,0.0
startMotion,50.15999984741211,0.0
startMotion,2.009999990463257,1.0
stopMotion,6.75,0.0
stopMotion,17.65999984741211,0.0
stopMotion,27.209999084472656,0.0
stopMotion,36.66999816894531,0.0
stopMotion,45.790000915527344,0.0
stopMotion,54.86000061035156,0.0
