Group,Participant,Session,Operator,Measure,Value,Unit
CTR,P01,INI,FM,MEAN,33.443456702056075,%subMVIC
CTR,P02,INI,FM,MEAN,20.204630821310317,%subMVIC
CTR,P03,INI,FM,MEAN,39.803582737998525,%subMVIC
CTR,P05,INI,FM,MEAN,14.652766532935866,%subMVIC
CTR,P06,INI,FM,MEAN,74.90968435425442,%subMVIC
CTR,P07,INI,FM,MEAN,36.44107508812539,%subMVIC
CTR,P08,INI,FM,MEAN,44.05378127157704,%subMVIC
PAT,P09,INI,FM,MEAN,13.146231237997698,%subMVIC
PAT,P10,INI,FM,MEAN,117.0427509463793,%subMVIC
PAT,P11,INI,FM,MEAN,12.528264010198129,%subMVIC
PAT,P12,INI,FM,MEAN,54.216697152676964,%subMVIC
CTR,P13,INI,FM,MEAN,72.43960016169368,%subMVIC
PAT,P14,INI,FM,MEAN,40.74087055609322,%subMVIC
CTR,P16,INI,FM,MEAN,39.99712419871107,%subMVIC
PAT,P17,INI,FM,MEAN,43.7817535847153,%subMVIC
CTR,P21,INI,FM,MEAN,13.47705657505069,%subMVIC
CTR,P22,INI,FM,MEAN,34.761581261663345,%subMVIC
CTR,P23,INI,FM,MEAN,32.845704711700584,%subMVIC
PAT,P24,INI,FM,MEAN,93.02633494178464,%subMVIC
CTR,P25,INI,FM,MEAN,96.22917051682643,%subMVIC
PAT,P26,INI,FM,MEAN,19.308009105836533,%subMVIC
PAT,P27,INI,FM,MEAN,25.19192126192806,%subMVIC
PAT,P28,INI,FM,MEAN,40.7268215845613,%subMVIC
PAT,P29,INI,FM,MEAN,22.5850314332443,%subMVIC
PAT,P30,INI,FM,MEAN,21.735073595968505,%subMVIC
PAT,P32,INI,FM,MEAN,11.489434563892923,%subMVIC
PAT,P33,INI,FM,MEAN,24.703160693115624,%subMVIC
PAT,P34,INI,FM,MEAN,23.300259647414393,%subMVIC
CTR,P35,INI,FM,MEAN,18.163038457060296,%subMVIC
PAT,P36,INI,FM,MEAN,26.870545290115984,%subMVIC
CTR,P38,INI,FM,MEAN,32.7607203764799,%subMVIC
CTR,P39,INI,FM,MEAN,18.660809413512442,%subMVIC
CTR,P40,INI,FM,MEAN,9.392893413232434,%subMVIC
PAT,P41,INI,FM,MEAN,26.97859623724607,%subMVIC
PAT,P42,INI,FM,MEAN,49.23238325746642,%subMVIC
PAT,P43,INI,FM,MEAN,26.231604723813454,%subMVIC
CTR,P44,INI,FM,MEAN,27.9609478449347,%subMVIC
PAT,P45,INI,FM,MEAN,36.2186144315195,%subMVIC
CTR,P46,INI,FM,MEAN,18.422353643825513,%subMVIC
PAT,P47,INI,FM,MEAN,28.060022351736407,%subMVIC
CTR,P48,INI,FM,MEAN,14.264829692496633,%subMVIC
CTR,P49,INI,FM,MEAN,46.353602136105884,%subMVIC
PAT,P50,INI,FM,MEAN,26.513536787070354,%subMVIC
PAT,P51,INI,FM,MEAN,14.557424842346725,%subMVIC
CTR,P52,INI,FM,MEAN,6.597185466373816,%subMVIC
PAT,P53,INI,FM,MEAN,17.269906727350122,%subMVIC
PAT,P54,INI,FM,MEAN,44.50303357231229,%subMVIC
CTR,P55,INI,FM,MEAN,18.763199423875648,%subMVIC
CTR,P56,INI,FM,MEAN,42.352943873550934,%subMVIC
CTR,P57,INI,FM,MEAN,10.235345691132615,%subMVIC
PAT,P58,INI,FM,MEAN,27.659546840618948,%subMVIC
CTR,P60,INI,FM,MEAN,8.837859815188152,%subMVIC
PAT,P62,INI,FM,MEAN,11.46517581934692,%subMVIC
PAT,P63,INI,FM,MEAN,48.00231784734133,%subMVIC
CTR,P64,INI,FM,MEAN,17.903797847612378,%subMVIC
PAT,P65,INI,FM,MEAN,23.457926094561344,%subMVIC
CTR,P66,INI,FM,MEAN,23.533205530723276,%subMVIC
CTR,P67,INI,FM,MEAN,11.05080594252062,%subMVIC
CTR,P68,INI,FM,MEAN,39.574562741479234,%subMVIC
