Group,Participant,Session,Operator,Measure,Value,Unit
CTR,P01,INI,FM,DURATION,4.3142,s
CTR,P02,INI,FM,DURATION,1.6802222222222225,s
CTR,P05,INI,FM,DURATION,0.4231,s
CTR,P06,INI,FM,DURATION,0.7023999999999999,s
CTR,P07,INI,FM,DURATION,5.317833333333333,s
CTR,P08,INI,FM,DURATION,0.6346,s
PAT,P10,INI,FM,DURATION,0.5076666666666667,s
PAT,P11,INI,FM,DURATION,0.2376,s
PAT,P12,INI,FM,DURATION,2.7310000000000003,s
CTR,P13,INI,FM,DURATION,0.6784,s
PAT,P14,INI,FM,DURATION,0.463,s
CTR,P16,INI,FM,DURATION,1.489888888888889,s
PAT,P17,INI,FM,DURATION,1.151375,s
CTR,P21,INI,FM,DURATION,0.3900909090909091,s
CTR,P22,INI,FM,DURATION,0.5448181818181818,s
CTR,P23,INI,FM,DURATION,,s
PAT,P24,INI,FM,DURATION,0.397,s
PAT,P26,INI,FM,DURATION,26.208,s
PAT,P27,INI,FM,DURATION,6.1282000000000005,s
PAT,P28,INI,FM,DURATION,0.4072,s
PAT,P29,INI,FM,DURATION,0.8229166666666666,s
PAT,P30,INI,FM,DURATION,0.5445714285714286,s
PAT,P32,INI,FM,DURATION,0.262,s
PAT,P33,INI,FM,DURATION,11.6715,s
PAT,P34,INI,FM,DURATION,1.55225,s
CTR,P35,INI,FM,DURATION,0.7032222222222223,s
PAT,P36,INI,FM,DURATION,0.8323636363636364,s
CTR,P38,INI,FM,DURATION,1.120111111111111,s
CTR,P40,INI,FM,DURATION,0.5442857142857144,s
PAT,P41,INI,FM,DURATION,0.7498888888888888,s
PAT,P42,INI,FM,DURATION,1.5766666666666669,s
CTR,P44,INI,FM,DURATION,1.00325,s
PAT,P45,INI,FM,DURATION,0.5857,s
CTR,P46,INI,FM,DURATION,0.9397777777777778,s
PAT,P47,INI,FM,DURATION,5.143,s
CTR,P49,INI,FM,DURATION,1.757,s
PAT,P50,INI,FM,DURATION,1.608888888888889,s
PAT,P51,INI,FM,DURATION,3.502142857142857,s
CTR,P52,INI,FM,DURATION,0.8123636363636365,s
PAT,P53,INI,FM,DURATION,,s
PAT,P54,INI,FM,DURATION,0.7975,s
CTR,P55,INI,FM,DURATION,6.98,s
CTR,P56,INI,FM,DURATION,0.9133333333333332,s
CTR,P57,INI,FM,DURATION,0.477,s
CTR,P60,INI,FM,DURATION,,s
PAT,P61,INI,FM,DURATION,3.763,s
PAT,P62,INI,FM,DURATION,0.5554444444444444,s
PAT,P63,INI,FM,DURATION,30.03,s
CTR,P64,INI,FM,DURATION,0.35725,s
PAT,P65,INI,FM,DURATION,0.5731999999999999,s
CTR,P66,INI,FM,DURATION,0.673,s
CTR,P67,INI,FM,DURATION,2.407,s
CTR,P68,INI,FM,DURATION,1.1887857142857143,s
