Group,Participant,Session,Operator,Measure,Value,Unit
CTR,P01,INI,FM,MPF,110.21515947577063,Hz
CTR,P02,INI,FM,MPF,98.17646394345648,Hz
CTR,P03,INI,FM,MPF,89.58143222458136,Hz
CTR,P05,INI,FM,MPF,115.13630976761756,Hz
CTR,P06,INI,FM,MPF,112.24242793374026,Hz
CTR,P07,INI,FM,MPF,140.8456554614758,Hz
CTR,P08,INI,FM,MPF,115.51274274507186,Hz
PAT,P09,INI,FM,MPF,114.1550997080888,Hz
PAT,P10,INI,FM,MPF,113.18435720812512,Hz
PAT,P11,INI,FM,MPF,92.84345560119412,Hz
PAT,P12,INI,FM,MPF,93.43756050518596,Hz
CTR,P13,INI,FM,MPF,102.11695062443827,Hz
PAT,P14,INI,FM,MPF,88.22231216838749,Hz
CTR,P16,INI,FM,MPF,99.943321187303,Hz
PAT,P17,INI,FM,MPF,126.90975473232264,Hz
CTR,P21,INI,FM,MPF,88.79013757614219,Hz
CTR,P22,INI,FM,MPF,86.97695433352244,Hz
CTR,P23,INI,FM,MPF,102.19076939614432,Hz
PAT,P24,INI,FM,MPF,121.87258921969782,Hz
CTR,P25,INI,FM,MPF,121.36428132320118,Hz
PAT,P26,INI,FM,MPF,96.63620700736952,Hz
PAT,P27,INI,FM,MPF,96.93923517378478,Hz
PAT,P28,INI,FM,MPF,101.94189753877556,Hz
PAT,P29,INI,FM,MPF,99.6893064434525,Hz
PAT,P32,INI,FM,MPF,104.29108891584946,Hz
PAT,P33,INI,FM,MPF,68.62395201457922,Hz
PAT,P34,INI,FM,MPF,98.4937243550564,Hz
CTR,P35,INI,FM,MPF,107.30222361196344,Hz
PAT,P36,INI,FM,MPF,98.4358601555925,Hz
CTR,P38,INI,FM,MPF,67.37148443272316,Hz
CTR,P39,INI,FM,MPF,126.4359426566175,Hz
CTR,P40,INI,FM,MPF,129.56678925141617,Hz
PAT,P41,INI,FM,MPF,95.26822576117657,Hz
PAT,P42,INI,FM,MPF,123.87763297342812,Hz
PAT,P43,INI,FM,MPF,125.99658206110648,Hz
CTR,P44,INI,FM,MPF,143.01250333787505,Hz
PAT,P45,INI,FM,MPF,80.55881328170135,Hz
CTR,P46,INI,FM,MPF,119.7312958301057,Hz
PAT,P47,INI,FM,MPF,140.44478673209724,Hz
CTR,P48,INI,FM,MPF,135.17543251096805,Hz
CTR,P49,INI,FM,MPF,106.16841856619313,Hz
PAT,P50,INI,FM,MPF,106.77873465359852,Hz
PAT,P51,INI,FM,MPF,81.96287021536942,Hz
CTR,P52,INI,FM,MPF,109.78401998874352,Hz
PAT,P53,INI,FM,MPF,121.4313200569384,Hz
PAT,P54,INI,FM,MPF,115.55438922973656,Hz
CTR,P55,INI,FM,MPF,112.54270562471947,Hz
CTR,P56,INI,FM,MPF,82.03941722747207,Hz
CTR,P57,INI,FM,MPF,100.98720720100413,Hz
PAT,P58,INI,FM,MPF,90.83127334045356,Hz
CTR,P60,INI,FM,MPF,96.94001287678888,Hz
PAT,P62,INI,FM,MPF,88.88123285029253,Hz
PAT,P63,INI,FM,MPF,121.69618733186616,Hz
CTR,P64,INI,FM,MPF,116.18579868593535,Hz
PAT,P65,INI,FM,MPF,92.20479455045412,Hz
CTR,P66,INI,FM,MPF,97.43406875499193,Hz
CTR,P67,INI,FM,MPF,118.54692843327432,Hz
CTR,P68,INI,FM,MPF,125.05655625925807,Hz
