Group,Participant,Session,Operator,Measure,Value,Unit
CTR,P01,INI,FM,RMS,0.009013147875703,V
CTR,P02,INI,FM,RMS,0.022223231100263,V
CTR,P03,INI,FM,RMS,0.0050649170551771,V
CTR,P05,INI,FM,RMS,0.0108200432896341,V
CTR,P06,INI,FM,RMS,0.0052320968035186,V
CTR,P07,INI,FM,RMS,0.0351827415506021,V
CTR,P08,INI,FM,RMS,0.0485281157612277,V
PAT,P09,INI,FM,RMS,0.0079409276726881,V
PAT,P10,INI,FM,RMS,0.1516339950030049,V
PAT,P11,INI,FM,RMS,0.027336871810121,V
PAT,P12,INI,FM,RMS,0.013490681013574,V
CTR,P13,INI,FM,RMS,0.0048774184889859,V
PAT,P14,INI,FM,RMS,0.0055377642912518,V
CTR,P16,INI,FM,RMS,0.1482861703407847,V
PAT,P17,INI,FM,RMS,0.0067899694378658,V
CTR,P21,INI,FM,RMS,0.0131739115460387,V
CTR,P22,INI,FM,RMS,0.007780812977155,V
CTR,P23,INI,FM,RMS,0.0082857305724659,V
PAT,P24,INI,FM,RMS,0.0062069124352109,V
CTR,P25,INI,FM,RMS,0.0799083756323648,V
PAT,P26,INI,FM,RMS,0.0062002481902659,V
PAT,P27,INI,FM,RMS,0.0085383549225364,V
PAT,P28,INI,FM,RMS,0.0049084023241455,V
PAT,P29,INI,FM,RMS,0.0198990136249824,V
PAT,P32,INI,FM,RMS,0.0066984972265188,V
PAT,P33,INI,FM,RMS,0.0088145682909702,V
PAT,P34,INI,FM,RMS,0.0053159130678215,V
CTR,P35,INI,FM,RMS,,V
PAT,P36,INI,FM,RMS,0.0112947370232245,V
CTR,P38,INI,FM,RMS,0.0071141266657591,V
CTR,P39,INI,FM,RMS,0.0048342702709951,V
CTR,P40,INI,FM,RMS,0.0123989634651806,V
PAT,P41,INI,FM,RMS,0.0108116485628526,V
PAT,P42,INI,FM,RMS,0.0150807133036829,V
PAT,P43,INI,FM,RMS,0.0106982134395859,V
CTR,P44,INI,FM,RMS,0.0575286356657334,V
PAT,P45,INI,FM,RMS,,V
CTR,P46,INI,FM,RMS,0.0169518269474316,V
PAT,P47,INI,FM,RMS,0.0165356745803671,V
CTR,P48,INI,FM,RMS,0.0113142948068197,V
CTR,P49,INI,FM,RMS,0.0124606752015967,V
PAT,P50,INI,FM,RMS,0.0291672056096188,V
PAT,P51,INI,FM,RMS,0.0053744096364814,V
CTR,P52,INI,FM,RMS,0.0119330528947668,V
PAT,P53,INI,FM,RMS,0.0043900018999912,V
PAT,P54,INI,FM,RMS,0.0195787348424798,V
CTR,P55,INI,FM,RMS,0.0075778232465584,V
CTR,P56,INI,FM,RMS,0.0064991898479027,V
CTR,P57,INI,FM,RMS,0.161493652518783,V
PAT,P58,INI,FM,RMS,0.0715283959000086,V
CTR,P60,INI,FM,RMS,0.0062822165202644,V
PAT,P61,INI,FM,RMS,0.0054450997459395,V
PAT,P62,INI,FM,RMS,0.0039722638054709,V
PAT,P63,INI,FM,RMS,,V
CTR,P64,INI,FM,RMS,0.0089472754347941,V
PAT,P65,INI,FM,RMS,0.0215580515631973,V
CTR,P66,INI,FM,RMS,0.0152003729925709,V
CTR,P67,INI,FM,RMS,0.0231324725164497,V
CTR,P68,INI,FM,RMS,,V
