Group,Participant,Session,Operator,Measure,Value,Unit
CTR,P01,INI,FM,RMS,0.0033213492288822,V
CTR,P02,INI,FM,RMS,0.0044276583365265,V
CTR,P03,INI,FM,RMS,0.0024024879064756,V
CTR,P05,INI,FM,RMS,0.1238165307276805,V
CTR,P06,INI,FM,RMS,,V
CTR,P07,INI,FM,RMS,0.004090676294623,V
CTR,P08,INI,FM,RMS,0.0038806476108122,V
PAT,P09,INI,FM,RMS,0.0022268600553512,V
PAT,P10,INI,FM,RMS,0.0061099999067552,V
PAT,P11,INI,FM,RMS,0.0022507372166597,V
PAT,P12,INI,FM,RMS,,V
CTR,P13,INI,FM,RMS,0.0043913964796797,V
PAT,P14,INI,FM,RMS,0.0110882365636651,V
CTR,P16,INI,FM,RMS,0.0030727719480671,V
PAT,P17,INI,FM,RMS,0.0056031040117397,V
CTR,P21,INI,FM,RMS,,V
CTR,P22,INI,FM,RMS,0.0033856993122627,V
CTR,P23,INI,FM,RMS,0.0025977644682111,V
PAT,P24,INI,FM,RMS,0.0042466410289376,V
CTR,P25,INI,FM,RMS,0.0081760037041106,V
PAT,P26,INI,FM,RMS,0.0098986659191333,V
PAT,P27,INI,FM,RMS,0.0029245445362906,V
PAT,P28,INI,FM,RMS,0.0033052580561123,V
PAT,P29,INI,FM,RMS,0.015541396607844,V
PAT,P32,INI,FM,RMS,0.0031898681805336,V
PAT,P33,INI,FM,RMS,0.001899727237761,V
PAT,P34,INI,FM,RMS,0.0045045462229604,V
CTR,P35,INI,FM,RMS,,V
PAT,P36,INI,FM,RMS,0.0069466331922604,V
CTR,P38,INI,FM,RMS,0.0030786582860933,V
CTR,P39,INI,FM,RMS,0.0036233840872489,V
CTR,P40,INI,FM,RMS,0.010349681918598,V
PAT,P41,INI,FM,RMS,0.0054022615145684,V
PAT,P42,INI,FM,RMS,0.0037796538346713,V
PAT,P43,INI,FM,RMS,0.002712811297454,V
CTR,P44,INI,FM,RMS,0.0078740576881915,V
PAT,P45,INI,FM,RMS,,V
CTR,P46,INI,FM,RMS,0.0033918027631008,V
PAT,P47,INI,FM,RMS,0.0030752618617215,V
CTR,P48,INI,FM,RMS,0.0049705843201037,V
CTR,P49,INI,FM,RMS,0.0046257328701322,V
PAT,P50,INI,FM,RMS,0.002574641649469,V
PAT,P51,INI,FM,RMS,0.0023929020208464,V
CTR,P52,INI,FM,RMS,0.0028936614942546,V
PAT,P53,INI,FM,RMS,0.0062288313451981,V
PAT,P54,INI,FM,RMS,0.0038553749139251,V
CTR,P55,INI,FM,RMS,0.0018040912631783,V
CTR,P56,INI,FM,RMS,0.0027058972123439,V
CTR,P57,INI,FM,RMS,0.0018496342686092,V
PAT,P58,INI,FM,RMS,0.0022428344290633,V
CTR,P60,INI,FM,RMS,0.0043150314432155,V
PAT,P61,INI,FM,RMS,0.0028838595250709,V
PAT,P62,INI,FM,RMS,0.0022385336649841,V
PAT,P63,INI,FM,RMS,0.0049130693453827,V
CTR,P64,INI,FM,RMS,0.0067327893720539,V
PAT,P65,INI,FM,RMS,0.0057717686189225,V
CTR,P66,INI,FM,RMS,0.0037366360350352,V
CTR,P67,INI,FM,RMS,,V
CTR,P68,INI,FM,RMS,,V
