Group,Participant,Session,Operator,Measure,Value,Unit
CTR,P01,INI,FM,MEAN,2.767085782114044,%MAX
CTR,P02,INI,FM,MEAN,7.962408830870502,%MAX
CTR,P03,INI,FM,MEAN,9.94492034486297,%MAX
CTR,P05,INI,FM,MEAN,4.564615633687777,%MAX
CTR,P06,INI,FM,MEAN,17.627694695562276,%MAX
CTR,P07,INI,FM,MEAN,8.012743585336997,%MAX
CTR,P08,INI,FM,MEAN,1.304317967160247,%MAX
PAT,P09,INI,FM,MEAN,5.539536626425112,%MAX
PAT,P10,INI,FM,MEAN,7.778906223955035,%MAX
PAT,P11,INI,FM,MEAN,1.0072442314143053,%MAX
PAT,P12,INI,FM,MEAN,8.258442751139183,%MAX
CTR,P13,INI,FM,MEAN,6.31537138471154,%MAX
PAT,P14,INI,FM,MEAN,1.9125528918613883,%MAX
CTR,P16,INI,FM,MEAN,3.252000820179171,%MAX
PAT,P17,INI,FM,MEAN,8.585952968538985,%MAX
CTR,P21,INI,FM,MEAN,8.273751899870517,%MAX
CTR,P22,INI,FM,MEAN,7.887594724619203,%MAX
CTR,P23,INI,FM,MEAN,6.920295344747137,%MAX
PAT,P24,INI,FM,MEAN,10.171738285845572,%MAX
CTR,P25,INI,FM,MEAN,2.876181713582642,%MAX
PAT,P26,INI,FM,MEAN,3.1080924114367474,%MAX
PAT,P27,INI,FM,MEAN,11.31694098496068,%MAX
PAT,P28,INI,FM,MEAN,6.31238936876997,%MAX
PAT,P29,INI,FM,MEAN,9.036308404274031,%MAX
PAT,P32,INI,FM,MEAN,8.119247369705416,%MAX
PAT,P33,INI,FM,MEAN,1.7117404478301914,%MAX
PAT,P34,INI,FM,MEAN,3.624790562862691,%MAX
CTR,P35,INI,FM,MEAN,2.574442032271125,%MAX
PAT,P36,INI,FM,MEAN,3.402877343052672,%MAX
CTR,P38,INI,FM,MEAN,6.340981495419732,%MAX
CTR,P39,INI,FM,MEAN,5.318411123962487,%MAX
CTR,P40,INI,FM,MEAN,1.9633761818360709,%MAX
PAT,P41,INI,FM,MEAN,6.236447486159946,%MAX
PAT,P42,INI,FM,MEAN,7.892349808698253,%MAX
PAT,P43,INI,FM,MEAN,5.073802639940465,%MAX
CTR,P44,INI,FM,MEAN,1.366465027718876,%MAX
PAT,P45,INI,FM,MEAN,8.017508026045833,%MAX
CTR,P46,INI,FM,MEAN,3.4791144373031684,%MAX
PAT,P47,INI,FM,MEAN,4.753576312583159,%MAX
CTR,P48,INI,FM,MEAN,8.523521967969064,%MAX
CTR,P49,INI,FM,MEAN,2.8498581883329286,%MAX
PAT,P50,INI,FM,MEAN,8.44493713750165,%MAX
PAT,P51,INI,FM,MEAN,13.19192931913947,%MAX
CTR,P52,INI,FM,MEAN,6.812576087688612,%MAX
PAT,P53,INI,FM,MEAN,12.410353961035916,%MAX
PAT,P54,INI,FM,MEAN,5.85954575397453,%MAX
CTR,P55,INI,FM,MEAN,0.5477467770331053,%MAX
CTR,P56,INI,FM,MEAN,9.4700764394127,%MAX
CTR,P57,INI,FM,MEAN,0.5712980924862502,%MAX
PAT,P58,INI,FM,MEAN,0.4746108037695367,%MAX
CTR,P60,INI,FM,MEAN,6.055924975723333,%MAX
PAT,P61,INI,FM,MEAN,9.115211858080835,%MAX
PAT,P62,INI,FM,MEAN,9.24266695572909,%MAX
PAT,P63,INI,FM,MEAN,7.252582316307058,%MAX
CTR,P64,INI,FM,MEAN,4.556581817395217,%MAX
PAT,P65,INI,FM,MEAN,5.846521520468495,%MAX
CTR,P66,INI,FM,MEAN,1.5916066935743225,%MAX
CTR,P67,INI,FM,MEAN,5.170017969395524,%MAX
CTR,P68,INI,FM,MEAN,3.492317844886326,%MAX
