Group,Participant,Session,Operator,Measure,Value,Unit
CTR,P01,INI,FM,MEAN,89.93107240336481,Hz
CTR,P02,INI,FM,MEAN,84.75417720878174,Hz
CTR,P03,INI,FM,MEAN,124.39308109551212,Hz
CTR,P05,INI,FM,MEAN,102.33370015960423,Hz
CTR,P06,INI,FM,MEAN,174.25648929211346,Hz
CTR,P07,INI,FM,MEAN,88.9741305017882,Hz
CTR,P08,INI,FM,MEAN,85.18667837586817,Hz
PAT,P09,INI,FM,MEAN,88.25507226883656,Hz
PAT,P10,INI,FM,MEAN,91.30008776362617,Hz
PAT,P11,INI,FM,MEAN,73.69784039205094,Hz
PAT,P12,INI,FM,MEAN,101.8746221970963,Hz
CTR,P13,INI,FM,MEAN,84.62216745273395,Hz
PAT,P14,INI,FM,MEAN,83.76045937506956,Hz
CTR,P16,INI,FM,MEAN,83.56990254190744,Hz
PAT,P17,INI,FM,MEAN,87.76914128974119,Hz
CTR,P21,INI,FM,MEAN,85.7961453264141,Hz
CTR,P22,INI,FM,MEAN,102.85146513639472,Hz
CTR,P23,INI,FM,MEAN,92.87833977866684,Hz
PAT,P24,INI,FM,MEAN,109.69451520251546,Hz
CTR,P25,INI,FM,MEAN,83.58006420893275,Hz
PAT,P26,INI,FM,MEAN,55.2445615345728,Hz
PAT,P27,INI,FM,MEAN,105.97954408478796,Hz
PAT,P28,INI,FM,MEAN,118.47729087756362,Hz
PAT,P29,INI,FM,MEAN,94.84622313814118,Hz
PAT,P32,INI,FM,MEAN,130.2894399083981,Hz
PAT,P33,INI,FM,MEAN,74.18406819980434,Hz
PAT,P34,INI,FM,MEAN,91.91306069354016,Hz
CTR,P35,INI,FM,MEAN,94.24291641937856,Hz
PAT,P36,INI,FM,MEAN,93.05070276295594,Hz
CTR,P38,INI,FM,MEAN,63.20812884212549,Hz
CTR,P39,INI,FM,MEAN,39.49650778378307,Hz
CTR,P40,INI,FM,MEAN,61.44794290890221,Hz
PAT,P41,INI,FM,MEAN,93.59265881404498,Hz
PAT,P42,INI,FM,MEAN,98.80564540029464,Hz
PAT,P43,INI,FM,MEAN,57.670239056248136,Hz
CTR,P44,INI,FM,MEAN,73.03673073841816,Hz
PAT,P45,INI,FM,MEAN,116.92454871190904,Hz
CTR,P46,INI,FM,MEAN,105.81371484164488,Hz
PAT,P47,INI,FM,MEAN,41.98602085175498,Hz
CTR,P48,INI,FM,MEAN,112.1448536617666,Hz
CTR,P49,INI,FM,MEAN,39.18726160891686,Hz
PAT,P50,INI,FM,MEAN,43.95284325140978,Hz
PAT,P51,INI,FM,MEAN,122.0793214690014,Hz
CTR,P52,INI,FM,MEAN,129.6065655715724,Hz
PAT,P53,INI,FM,MEAN,119.91026480760898,Hz
PAT,P54,INI,FM,MEAN,75.50181495579325,Hz
CTR,P55,INI,FM,MEAN,108.19119981716352,Hz
CTR,P56,INI,FM,MEAN,88.04319121959439,Hz
CTR,P57,INI,FM,MEAN,43.138391195934766,Hz
PAT,P58,INI,FM,MEAN,131.17365038318115,Hz
CTR,P60,INI,FM,MEAN,57.667142906478944,Hz
PAT,P61,INI,FM,MEAN,103.87031414550856,Hz
PAT,P62,INI,FM,MEAN,111.6010002439644,Hz
PAT,P63,INI,FM,MEAN,43.7756887566838,Hz
CTR,P64,INI,FM,MEAN,77.08456878263668,Hz
PAT,P65,INI,FM,MEAN,104.24025045586542,Hz
CTR,P66,INI,FM,MEAN,107.21253345801038,Hz
CTR,P67,INI,FM,MEAN,45.642560393237225,Hz
CTR,P68,INI,FM,MEAN,63.40863225591149,Hz
