Group,Participant,Session,Operator,Measure,Value,Unit
CTR,P01,INI,FM,MPF,99.6527092826873,Hz
CTR,P02,INI,FM,MPF,104.40987659098228,Hz
CTR,P03,INI,FM,MPF,91.15201392061662,Hz
CTR,P05,INI,FM,MPF,122.63544009120004,Hz
CTR,P06,INI,FM,MPF,107.79035080410324,Hz
CTR,P07,INI,FM,MPF,96.3845161661224,Hz
CTR,P08,INI,FM,MPF,41.798834555718365,Hz
PAT,P09,INI,FM,MPF,117.54852677542443,Hz
PAT,P10,INI,FM,MPF,84.60318414312906,Hz
PAT,P11,INI,FM,MPF,91.86475012267886,Hz
PAT,P12,INI,FM,MPF,99.80882877020406,Hz
CTR,P13,INI,FM,MPF,96.6149201377396,Hz
PAT,P14,INI,FM,MPF,88.71787046114696,Hz
CTR,P16,INI,FM,MPF,46.48304621257452,Hz
PAT,P17,INI,FM,MPF,118.69698364324148,Hz
CTR,P21,INI,FM,MPF,82.96271291561129,Hz
CTR,P22,INI,FM,MPF,94.32644234336932,Hz
CTR,P23,INI,FM,MPF,60.32284133249772,Hz
PAT,P24,INI,FM,MPF,108.16842561325608,Hz
CTR,P25,INI,FM,MPF,39.84466919134557,Hz
PAT,P26,INI,FM,MPF,84.14268761427665,Hz
PAT,P27,INI,FM,MPF,76.87038024619399,Hz
PAT,P28,INI,FM,MPF,113.30779964485384,Hz
PAT,P29,INI,FM,MPF,101.82092489257012,Hz
PAT,P32,INI,FM,MPF,112.25029874826198,Hz
PAT,P33,INI,FM,MPF,90.71010441140214,Hz
PAT,P34,INI,FM,MPF,32.855276308333835,Hz
CTR,P35,INI,FM,MPF,111.0851326063134,Hz
PAT,P36,INI,FM,MPF,107.4036679371692,Hz
CTR,P38,INI,FM,MPF,91.78550029636024,Hz
CTR,P39,INI,FM,MPF,101.01138307767437,Hz
CTR,P40,INI,FM,MPF,67.71489293828367,Hz
PAT,P41,INI,FM,MPF,90.05001302588555,Hz
PAT,P42,INI,FM,MPF,98.12270682684208,Hz
PAT,P43,INI,FM,MPF,108.7609097285318,Hz
CTR,P44,INI,FM,MPF,44.68779657755632,Hz
PAT,P45,INI,FM,MPF,71.30522301483172,Hz
CTR,P46,INI,FM,MPF,55.004754528407965,Hz
PAT,P47,INI,FM,MPF,82.03029339644553,Hz
CTR,P48,INI,FM,MPF,118.30324796133458,Hz
CTR,P49,INI,FM,MPF,112.87889681767076,Hz
PAT,P50,INI,FM,MPF,62.65574954286473,Hz
PAT,P51,INI,FM,MPF,79.48589613177445,Hz
CTR,P52,INI,FM,MPF,115.32588987244247,Hz
PAT,P53,INI,FM,MPF,95.81733443899329,Hz
PAT,P54,INI,FM,MPF,96.06495826829456,Hz
CTR,P55,INI,FM,MPF,60.1721929992988,Hz
CTR,P56,INI,FM,MPF,66.54904967233402,Hz
CTR,P57,INI,FM,MPF,67.56343456183542,Hz
PAT,P58,INI,FM,MPF,48.107677277002246,Hz
CTR,P60,INI,FM,MPF,109.501704319956,Hz
PAT,P61,INI,FM,MPF,83.17304883603954,Hz
PAT,P62,INI,FM,MPF,87.23514377838443,Hz
PAT,P63,INI,FM,MPF,103.01754111626605,Hz
CTR,P64,INI,FM,MPF,89.24062310669706,Hz
PAT,P65,INI,FM,MPF,104.7626326536954,Hz
CTR,P66,INI,FM,MPF,55.68560462352733,Hz
CTR,P67,INI,FM,MPF,91.0437600344233,Hz
CTR,P68,INI,FM,MPF,114.41313192578868,Hz
