Group,Participant,Session,Operator,Measure,Value,Unit
CTR,P01,INI,FM,RATIO,3.120565421667019,NAN
CTR,P02,INI,FM,RATIO,1.4187641895514782,NAN
CTR,P03,INI,FM,RATIO,1.0883475948597596,NAN
CTR,P05,INI,FM,RATIO,1.1209506415320836,NAN
CTR,P06,INI,FM,RATIO,2.086733263786877,NAN
CTR,P07,INI,FM,RATIO,2.7448940232798766,NAN
CTR,P08,INI,FM,RATIO,1.2297178219682192,NAN
PAT,P09,INI,FM,RATIO,2.286758853477292,NAN
PAT,P10,INI,FM,RATIO,1.195637621880887,NAN
PAT,P11,INI,FM,RATIO,1.573824352141454,NAN
PAT,P12,INI,FM,RATIO,0.9414730256655018,NAN
CTR,P13,INI,FM,RATIO,0.93677559329275,NAN
PAT,P14,INI,FM,RATIO,0.5442285736697478,NAN
CTR,P16,INI,FM,RATIO,1.374868245367704,NAN
PAT,P17,INI,FM,RATIO,2.5811605406696274,NAN
CTR,P21,INI,FM,RATIO,0.6906851294402822,NAN
CTR,P22,INI,FM,RATIO,1.8465152864552845,NAN
CTR,P23,INI,FM,RATIO,0.9212877896602326,NAN
PAT,P24,INI,FM,RATIO,1.0697226854614683,NAN
CTR,P25,INI,FM,RATIO,4.590811511804197,NAN
PAT,P26,INI,FM,RATIO,0.9350648653894212,NAN
PAT,P27,INI,FM,RATIO,0.4642971272845133,NAN
PAT,P28,INI,FM,RATIO,0.7105215078291295,NAN
PAT,P29,INI,FM,RATIO,1.9085327650685315,NAN
PAT,P32,INI,FM,RATIO,0.847566960398523,NAN
PAT,P33,INI,FM,RATIO,0.5827768328959754,NAN
PAT,P34,INI,FM,RATIO,1.083583367913311,NAN
CTR,P35,INI,FM,RATIO,2.83923517955992,NAN
PAT,P36,INI,FM,RATIO,0.1811773413344014,NAN
CTR,P38,INI,FM,RATIO,1.3794267776130773,NAN
CTR,P39,INI,FM,RATIO,2.512907442347934,NAN
CTR,P40,INI,FM,RATIO,3.2069770662727106,NAN
PAT,P41,INI,FM,RATIO,0.7041083489197266,NAN
PAT,P42,INI,FM,RATIO,0.7088002161680901,NAN
PAT,P43,INI,FM,RATIO,3.249102106957013,NAN
CTR,P44,INI,FM,RATIO,1.2948603174628095,NAN
PAT,P45,INI,FM,RATIO,0.5024352855412634,NAN
CTR,P46,INI,FM,RATIO,3.059463689388353,NAN
PAT,P47,INI,FM,RATIO,0.2593599744686656,NAN
CTR,P48,INI,FM,RATIO,6.926036182125241,NAN
CTR,P49,INI,FM,RATIO,1.6344235672586809,NAN
PAT,P50,INI,FM,RATIO,2.9616258492457987,NAN
PAT,P51,INI,FM,RATIO,0.3575880041991666,NAN
CTR,P52,INI,FM,RATIO,2.652703153965406,NAN
PAT,P53,INI,FM,RATIO,0.2945156324962329,NAN
PAT,P54,INI,FM,RATIO,1.6689700835197978,NAN
CTR,P55,INI,FM,RATIO,3.106081877536663,NAN
CTR,P56,INI,FM,RATIO,0.8797866759474825,NAN
CTR,P57,INI,FM,RATIO,1.4529435651689926,NAN
PAT,P58,INI,FM,RATIO,0.7183097376053523,NAN
CTR,P60,INI,FM,RATIO,1.1089576341381593,NAN
PAT,P61,INI,FM,RATIO,2.742352455761168,NAN
PAT,P62,INI,FM,RATIO,0.5025467952943129,NAN
PAT,P63,INI,FM,RATIO,2.4909935302405937,NAN
CTR,P64,INI,FM,RATIO,0.7816774282044183,NAN
PAT,P65,INI,FM,RATIO,3.2659578616878377,NAN
CTR,P66,INI,FM,RATIO,1.3437653255332889,NAN
CTR,P67,INI,FM,RATIO,3.033749327285269,NAN
CTR,P68,INI,FM,RATIO,0.6039997382413073,NAN
