Group,Participant,Session,Operator,Measure,Value,Unit
CTR,P01,INI,FM,MEAN,8.87691470201372,%subMVIC
CTR,P02,INI,FM,MEAN,3.672999836235385,%subMVIC
CTR,P03,INI,FM,MEAN,12.715886978882615,%subMVIC
CTR,P05,INI,FM,MEAN,3.492013958435781,%subMVIC
CTR,P06,INI,FM,MEAN,28.565908946603717,%subMVIC
CTR,P07,INI,FM,MEAN,4.522304976208628,%subMVIC
CTR,P08,INI,FM,MEAN,54.42118552507893,%subMVIC
PAT,P09,INI,FM,MEAN,7.874905572467046,%subMVIC
PAT,P10,INI,FM,MEAN,38.83903083419248,%subMVIC
PAT,P11,INI,FM,MEAN,34.718554540513736,%subMVIC
PAT,P12,INI,FM,MEAN,25.09472036711739,%subMVIC
CTR,P13,INI,FM,MEAN,9.95333407029088,%subMVIC
PAT,P14,INI,FM,MEAN,12.816776392377598,%subMVIC
CTR,P16,INI,FM,MEAN,89.58034935295996,%subMVIC
PAT,P17,INI,FM,MEAN,13.24640818811767,%subMVIC
CTR,P21,INI,FM,MEAN,6.145096269353839,%subMVIC
CTR,P22,INI,FM,MEAN,14.28641311723583,%subMVIC
CTR,P23,INI,FM,MEAN,9.03553998955888,%subMVIC
PAT,P24,INI,FM,MEAN,8.560311444574433,%subMVIC
CTR,P25,INI,FM,MEAN,45.61340836286249,%subMVIC
PAT,P26,INI,FM,MEAN,17.069420976065064,%subMVIC
PAT,P27,INI,FM,MEAN,9.99381011832301,%subMVIC
PAT,P28,INI,FM,MEAN,17.005266575504482,%subMVIC
PAT,P29,INI,FM,MEAN,2.0114680607058752,%subMVIC
PAT,P32,INI,FM,MEAN,6.915874040128816,%subMVIC
PAT,P33,INI,FM,MEAN,23.75658166403024,%subMVIC
PAT,P34,INI,FM,MEAN,12.874600528555844,%subMVIC
CTR,P35,INI,FM,MEAN,3.7388072894051327,%subMVIC
PAT,P36,INI,FM,MEAN,2.782069660802588,%subMVIC
CTR,P38,INI,FM,MEAN,8.443052793296255,%subMVIC
CTR,P39,INI,FM,MEAN,4.841713305010857,%subMVIC
CTR,P40,INI,FM,MEAN,3.0603016936396763,%subMVIC
PAT,P41,INI,FM,MEAN,3.093593514914088,%subMVIC
PAT,P42,INI,FM,MEAN,4.857417137537976,%subMVIC
PAT,P43,INI,FM,MEAN,2.749125280426393,%subMVIC
CTR,P44,INI,FM,MEAN,124.96468173200246,%subMVIC
PAT,P45,INI,FM,MEAN,10.547923755965863,%subMVIC
CTR,P46,INI,FM,MEAN,8.649446683664346,%subMVIC
PAT,P47,INI,FM,MEAN,2.408432802505183,%subMVIC
CTR,P48,INI,FM,MEAN,4.900903258810295,%subMVIC
CTR,P49,INI,FM,MEAN,3.957461072981383,%subMVIC
PAT,P50,INI,FM,MEAN,10.91852108946828,%subMVIC
PAT,P51,INI,FM,MEAN,9.394616790417691,%subMVIC
CTR,P52,INI,FM,MEAN,3.5545515604364617,%subMVIC
PAT,P53,INI,FM,MEAN,6.005859268821617,%subMVIC
PAT,P54,INI,FM,MEAN,5.730994391248625,%subMVIC
CTR,P55,INI,FM,MEAN,5.713201932893447,%subMVIC
CTR,P56,INI,FM,MEAN,6.863657037168426,%subMVIC
CTR,P57,INI,FM,MEAN,35.358819927991256,%subMVIC
PAT,P58,INI,FM,MEAN,8.593062432432847,%subMVIC
CTR,P60,INI,FM,MEAN,3.523133628574794,%subMVIC
PAT,P62,INI,FM,MEAN,8.419297246947023,%subMVIC
PAT,P63,INI,FM,MEAN,6.445422074288537,%subMVIC
CTR,P64,INI,FM,MEAN,2.303167870524169,%subMVIC
PAT,P65,INI,FM,MEAN,13.660678129921608,%subMVIC
CTR,P66,INI,FM,MEAN,5.8990961876428365,%subMVIC
CTR,P67,INI,FM,MEAN,35.08599958044282,%subMVIC
CTR,P68,INI,FM,MEAN,3.810757152504665,%subMVIC
