Group,Participant,Session,Operator,Measure,Value,Unit
CTR,P01,INI,FM,RMS,0.0191802098551847,V
CTR,P02,INI,FM,RMS,0.0327640782480891,V
CTR,P03,INI,FM,RMS,0.0184165386887722,V
CTR,P05,INI,FM,RMS,0.008074908179045,V
CTR,P06,INI,FM,RMS,0.0043256117085976,V
CTR,P07,INI,FM,RMS,0.0345331782158427,V
CTR,P08,INI,FM,RMS,0.0177203758224008,V
PAT,P09,INI,FM,RMS,0.0106989116078172,V
PAT,P10,INI,FM,RMS,0.015616484193462,V
PAT,P11,INI,FM,RMS,0.0109703069712485,V
PAT,P12,INI,FM,RMS,0.0118693233974713,V
CTR,P13,INI,FM,RMS,0.0129370682434619,V
PAT,P14,INI,FM,RMS,0.0125549680177143,V
CTR,P16,INI,FM,RMS,0.0073835773580937,V
PAT,P17,INI,FM,RMS,0.0175255388258607,V
CTR,P21,INI,FM,RMS,0.0201662546448084,V
CTR,P22,INI,FM,RMS,0.0161923190351642,V
CTR,P23,INI,FM,RMS,0.0106514314193406,V
PAT,P24,INI,FM,RMS,0.0170083163036294,V
CTR,P25,INI,FM,RMS,0.0362717211637412,V
PAT,P26,INI,FM,RMS,0.013605953729567,V
PAT,P27,INI,FM,RMS,0.0159455235388594,V
PAT,P28,INI,FM,RMS,0.0094887083646126,V
PAT,P29,INI,FM,RMS,0.0241370779886066,V
PAT,P32,INI,FM,RMS,0.0139545740686152,V
PAT,P33,INI,FM,RMS,0.0057467701725787,V
PAT,P34,INI,FM,RMS,,V
CTR,P35,INI,FM,RMS,,V
PAT,P36,INI,FM,RMS,0.0178324218065282,V
CTR,P38,INI,FM,RMS,0.0333850115661694,V
CTR,P39,INI,FM,RMS,0.0093814552599122,V
CTR,P40,INI,FM,RMS,0.0314036795473985,V
PAT,P41,INI,FM,RMS,0.0247790864779332,V
PAT,P42,INI,FM,RMS,0.0279691266254606,V
PAT,P43,INI,FM,RMS,0.0180969817360121,V
CTR,P44,INI,FM,RMS,0.0182266993164554,V
PAT,P45,INI,FM,RMS,,V
CTR,P46,INI,FM,RMS,0.0193963530321607,V
PAT,P47,INI,FM,RMS,0.0113055370703792,V
CTR,P48,INI,FM,RMS,0.0266642152579411,V
CTR,P49,INI,FM,RMS,0.0277181141835343,V
PAT,P50,INI,FM,RMS,0.0186158325251186,V
PAT,P51,INI,FM,RMS,0.008819017065391,V
CTR,P52,INI,FM,RMS,0.0216581032007192,V
PAT,P53,INI,FM,RMS,0.0152470950993304,V
PAT,P54,INI,FM,RMS,0.0249533186664249,V
CTR,P55,INI,FM,RMS,0.0108744586040589,V
CTR,P56,INI,FM,RMS,0.0193392773658277,V
CTR,P57,INI,FM,RMS,0.0277149277353081,V
PAT,P58,INI,FM,RMS,0.0061250178378941,V
CTR,P60,INI,FM,RMS,0.0099773719869096,V
PAT,P61,INI,FM,RMS,0.0171922024254399,V
PAT,P62,INI,FM,RMS,0.0105085321972162,V
PAT,P63,INI,FM,RMS,,V
CTR,P64,INI,FM,RMS,0.0132193755978604,V
PAT,P65,INI,FM,RMS,0.0196517437842309,V
CTR,P66,INI,FM,RMS,0.0155910536299131,V
CTR,P67,INI,FM,RMS,0.04188006564855,V
CTR,P68,INI,FM,RMS,,V
